awesome 2.22166849691e-05
christmas 2.21564717857e-05
trying 3.99888701069e-05
moment 2.01025228385e-05
wonderful 8.983755036e-05
seeing 4.1081758142e-05
recommend 2.97601411264e-05
anybody 0.0
worked 8.64905834659e-05
direct 2.8313215558e-05
others 0.000322589239075
currently 2.37848604742e-05
better 0.00124614097286
please 0.000180435646039
social 0.000358374914853
around 0.00035604027796
people 0.0026703020847
leaving 0.0
morning 0.00011932160823
general 0.000205047741476
investigate 0.0
damage 0.0
everything 9.94346735247e-05
twitter 9.97030592449e-05
though 2.07078000231e-05
friend 0.000179949915481
watched 4.491877518e-05
beautiful 6.14566509612e-05
anything 8.08448180618e-05
helped 8.71959675892e-05
managing 0.0
updated 0.000316100879981
thinking 8.12819465868e-05
finally 2.03204866467e-05
caught 2.23984321783e-05
believe 0.000178500625477
already 0.000317334445292
couple 0.0
orlando 0.0
research 0.000906461873148
chance 5.96608041148e-05
meaning 0.0
annual 0.000374307976203
quickly 0.0
growing 0.00078705821748
probably 0.000215642115095
should 0.0
changed 0.000255295217095
history 0.000348254355447
center 0.000156394264793
museum 6.90606606686e-05
behind 0.000336260262518
pretty 2.03204866467e-05
really 0.000298304020574
expensive 0.0
little 0.000178500625477
earlier 0.000162885738133
realized 3.45303303343e-05
forget 0.0
someone 0.000100242025577
mostly 0.000211446630954
worker 4.19417725503e-05
safety 2.8811897822e-05
shuttle 0.0
program 0.000166003680637
things 0.000375820293402
related 5.84745817867e-05
visiting 5.48607817245e-05
available 0.000536952079184
afternoons 0.0
perfect 6.21234000694e-05
different 0.000262745658701
numbers 0.00079545401527
delays 0.0
person 0.000658040191017
watching 5.99833051604e-05
passed 0.000121235928608
celebrates 0.0
minutes 0.000184867911639
travel 0.000145884739392
daughter 7.21431650721e-05
average 0.000939775649139
positive 9.43599275936e-05
outside 4.20918563579e-05
looking 0.000138833819815
forward 8.17215036161e-05
plenty 0.0
agreed 2.66606433279e-05
raising 0.0
listened 0.0
afraid 5.14055291052e-05
impression 7.30791604097e-05
drawing 0.0
favorite 0.000161556510887
magnet 0.0
picture 2.11599343472e-05
historic 0.000240214736034
instead 0.000201585889605
appreciate 2.33970046073e-05
husband 3.10367140711e-05
international 0.000417930750031
market 0.000241309935622
couldn 2.07078000231e-05
remember 0.00015909547764
impressive 0.00010940821626
familiar 0.0
friends 5.99833051604e-05
despite 0.000169387863691
impossible 5.40835459012e-05
everyone 0.000178982412344
florida 2.93234784609e-05
always 9.89000772111e-05
months 0.000498330116219
moving 6.41698113551e-05
meeting 0.000244504259559
google 0.000149977561963
answer 0.000101876774816
together 0.00019940611849
inside 0.000186370200208
smaller 0.000265703533597
missed 0.000120940734197
active 0.0
longer 0.00043612436094
enough 0.000261332796901
driving 7.29423696959e-05
building 4.46753280678e-05
technician 0.0
enjoying 2.4314123232e-05
london 0.000212892554918
kennedy 0.0
recent 0.000236580469715
gotten 0.0
amazing 0.000317334445292
attention 2.25205314268e-05
richard 8.66887430875e-05
progress 0.00154492807733
tomorrow 0.000258530151164
george 0.0
excited 8.30550193698e-05
campaigning 4.45596863045e-05
understand 0.000390262560525
following 0.000104380707981
learning 0.000197218011102
evening 0.000113835072797
special 0.0
secret 4.45541640194e-05
across 0.000333250274536
comparison 0.00014868633337
surprised 0.000213477186442
anymore 5.06927164711e-05
rather 0.00011168832017
showing 0.000318257771906
saying 8.30550193698e-05
tweeted 2.62867188572e-05
updates 0.000173377486175
thoughts 0.000126617094756
exactly 0.0
except 5.06927164711e-05
getting 0.000377851759394
nothing 0.000139208542935
tweets 4.38348709149e-05
course 0.000308113186065
stephen 0.0
looked 0.0
difficult 0.000366978847034
stages 0.0
office 6.45178478151e-05
decisions 3.00268420042e-05
brought 8.81463701494e-05
biggest 0.000266312154165
thrilled 3.02971881094e-05
entire 4.41928826876e-05
something 3.97738694099e-05
closing 5.91686352184e-05
anyone 0.000100242025577
taking 3.97738694099e-05
recently 5.16942897369e-05
interesting 0.000288034133215
original 0.0
flying 4.99925206544e-05
happening 6.50437600875e-05
sometimes 6.57523063724e-05
stopped 0.000583327374258
yesterday 0.000120290430693
service 0.000415304375416
serious 0.000170196811397
emails 0.0
afford 6.42018648529e-05
british 2.89809588122e-05
contact 0.000109096105158
either 2.16812533625e-05
second 0.000120290430693
accident 7.33287513378e-05
checking 0.0
volunteers 0.0
indeed 0.000135594440591
island 0.0
hearing 2.22166849691e-05
choose 7.0191013822e-05
staying 0.0
another 0.000178500625477
address 0.000107248860277
display 0.0
originally 0.0
compare 0.000217753960754
landing 0.0
perhaps 6.00536840085e-05
weekend 8.06271561315e-05
appear 3.01165474435e-05
anyway 0.0
theory 0.0
recognize 0.0
working 0.000298304020574
bigger 0.000116665474852
screen 8.06653161891e-05
treated 6.54129807914e-05
laughing 0.0
wanted 0.0
current 0.000117305607036
grateful 0.0
friendship 0.0
family 0.000656268845263
listening 2.17989918973e-05
stream 8.20561621951e-05
wedding 6.04133231298e-05
sharing 0.000116985023037
double 0.000112602657134
especially 2.20365925373e-05
middle 0.000273949419236
waiting 8.15014198532e-05
definitely 0.0
walking 2.38502490145e-05
account 4.66661899407e-05
completely 7.07699456952e-05
thought 4.00968102309e-05
reaction 2.71963051072e-05
accept 7.62513827911e-05
possible 0.000189413353611
simple 0.000185140766055
manufacturing 0.0
destroyed 0.0
professional 5.89939769617e-05
friendly 5.91686352184e-05
members 5.01315718727e-05
supposed 5.28708829569e-05
astronauts 0.0
component 0.0
business 6.4343574426e-05
absolutely 4.25492028491e-05
sending 9.23180062209e-05
delivering 8.42118459963e-05
heavily 0.0
biased 8.19689764495e-05
introducing 0.0
congrats 0.000167009132769
community 0.000220646751564
greatest 0.00019566031524
posted 4.70508934347e-05
saturday 0.000146924193944
wednesday 0.000143890069033
confused 0.0
explain 0.000487323729066
broken 0.0
chicago 5.40835459012e-05
fairly 0.0
hoping 4.78317088654e-05
relationship 5.3472568029e-05
actually 6.11260648899e-05
basket 0.0
myself 0.0
pocket 6.8171633797e-05
argument 6.13269903203e-05
decent 3.53331078017e-05
school 0.000970137816742
thursday 0.00023402061567
selling 2.71963051072e-05
talented 2.61391061166e-05
discuss 0.000230678709161
celebrate 6.59307728116e-05
celebrating 2.37196873825e-05
anniversary 2.40477216907e-05
contest 2.59197321625e-05
internet 0.000271926338275
figure 2.37848604742e-05
inspired 0.000120238608454
sitting 0.0
complaining 0.0
playing 4.04224090309e-05
street 0.000352585480597
points 5.09763021362e-05
advice 9.33323798813e-05
forever 0.0
congress 6.90606606686e-05
imagine 6.64694153572e-05
problem 0.000362647148526
played 2.22166849691e-05
canadian 6.86136499137e-05
pulling 0.0
keeping 6.66500549072e-05
lovely 0.0
chinese 0.000321009324265
unlike 0.0
allowed 0.0
otherwise 2.82313106151e-05
afternoon 4.67940092147e-05
planned 8.5682955512e-05
strange 0.000122285121876
notice 2.69649572601e-05
difference 0.00019566031524
author 6.64513614256e-05
intent 0.0
letting 2.44486816791e-05
system 0.000223721441795
almost 0.000417625628804
details 2.17400350267e-05
experience 0.000103818774212
viewed 0.0
living 0.000332220077479
bright 2.79876112437e-05
normal 5.33212866558e-05
practically 0.0
before 4.3128423019e-05
monday 0.000290692567794
realize 0.0
currency 0.0
sleeping 3.16100879981e-05
wanting 9.39639705602e-05
science 0.000645575757947
tweeting 0.0
forgot 2.49269782408e-05
herself 0.0
disaster 0.000182876962138
happens 0.000144174541152
silence 0.0
congratulations 0.000131504612745
natural 0.00011292524246
raised 7.79777604412e-05
mission 2.69649572601e-05
ironic 4.41899556249e-05
testing 6.97407925649e-05
deleted 0.0
channels 0.0
surprising 0.000128403729706
reference 0.0
forgotten 0.0
trouble 0.0
setting 2.82313106151e-05
reminds 5.62994868511e-05
fantastic 7.03833642216e-05
loving 4.69222428144e-05
hardly 7.3832707591e-05
complete 4.56582365393e-05
membership 0.0
nearly 0.000130695530583
spirit 2.57748229764e-05
launched 0.000178032204046
stories 4.30118985434e-05
including 4.41928826876e-05
inviting 0.0
wouldn 0.0
choice 0.0
offended 0.0
conversation 4.8360947941e-05
disrespectful 0.0
making 0.000198334028307
expect 0.000119251245073
discussion 0.000115923835249
believes 0.0
occasions 0.0
response 0.000397749078325
brings 9.59267126885e-05
subject 0.0
greetings 0.0
anytime 0.0
protected 8.07422105262e-05
location 3.122599796e-05
thomas 0.0
missile 0.0
needed 0.000678949913399
seriously 0.0
spending 9.88823048273e-05
groups 0.000224706526985
modern 0.000286442695692
welcome 0.000180922705547
totally 2.29539137337e-05
evenings 0.0
laughed 0.0
running 6.26284247885e-05
finished 2.37848604742e-05
strong 0.000184369952884
hopefully 5.05516823435e-05
respond 6.00536840085e-05
message 8.44113965039e-05
coming 0.000198334028307
thankful 3.13213235201e-05
temporary 4.29477528286e-05
issues 0.000166037811677
challenge 0.000152592943281
happen 4.05315402198e-05
giving 0.000120615137031
turkey 0.000695543011493
common 0.000295009941198
pressed 0.0
healthcare 3.8637440176e-05
benefits 3.122599796e-05
situation 0.000363896215392
workers 0.000198724480187
company 0.000180164251414
health 0.00480952988848
insurance 6.86136499137e-05
change 0.00175005025403
august 2.80685112151e-05
mental 0.000118337270437
carrier 0.0
neither 8.22911725867e-05
lowest 0.000650806707125
decide 2.46522513878e-05
happened 0.000125595452068
demand 0.000314553297458
generally 0.0
personal 2.16226458665e-05
beyond 0.000155516794783
passion 6.02330948869e-05
question 0.000162563893174
doctor 0.000121917974759
sacrifices 0.0
respected 0.000173882412246
position 5.42377762365e-05
increased 0.0009320215711
losing 0.0
strain 5.71810649968e-05
respect 0.000456540735561
collapse 4.14573397964e-05
shouldn 9.51394418968e-05
career 4.61590031105e-05
visited 3.122599796e-05
challenger 0.0
reason 0.000251190904137
simply 0.0
audience 8.25271174158e-05
employees 0.0
accounts 3.32256807128e-05
attacked 3.89160365484e-05
involved 0.0
extreme 0.00223718702729
unhappy 0.0
caused 0.000238600718289
knocked 0.0
reality 0.000212892554918
mention 0.0
extremely 0.000144481238479
burned 4.67268283621e-05
without 0.00066159736881
falling 0.0006744400046
problems 0.000171614140105
timing 0.0
highly 0.000198192508906
online 0.000320849056775
animals 3.32256807128e-05
called 5.99833051604e-05
scientists 0.000114680302994
pictures 2.51355567863e-05
camera 0.0
heading 0.0
terribly 0.0
theater 3.75607109497e-05
paying 7.75414346053e-05
complex 9.81194711872e-05
sunday 0.000123245274426
nights 0.0
enthusiastic 0.0
increasing 0.000832350054796
traffic 0.000388032352002
opposite 0.0
lookout 0.0
reached 0.00035396386177
changing 0.000316956744453
harder 2.76672801061e-05
silent 3.37588670506e-05
speaking 9.10680582378e-05
careful 9.03496423304e-05
november 5.33212866558e-05
answered 6.2834221414e-05
number 0.00191528336655
atlantic 0.0
stupid 2.76672801061e-05
budget 0.000448024979805
unless 2.45163057293e-05
calling 2.08761415962e-05
lately 0.0
levels 0.000305712804689
focused 6.46014645221e-05
ridiculous 0.0
financially 5.90310118685e-05
knowing 0.000165054234832
former 2.49962603272e-05
covers 0.0
mountain 0.0
suffers 5.51678017316e-05
schedule 0.0
greatly 4.14573397964e-05
friday 0.000201567890329
dramatic 3.79576476568e-05
failure 9.60053528153e-05
achieve 9.99935231357e-05
winner 8.83857653752e-05
closes 4.06754191953e-05
bother 0.0
directly 3.28092439538e-05
quality 0.000334135939184
tearing 0.0
father 9.0573556242e-05
wishes 2.59197321625e-05
collar 0.0
ground 2.57748229764e-05
matter 0.0
strategy 0.0
themselves 3.47563901142e-05
asking 4.20918563579e-05
mobile 0.000198098198561
device 0.0
computer 6.15122835438e-05
impressed 0.000240932379548
complain 0.0
dinner 4.39538485411e-05
suffering 3.74301493177e-05
single 6.14566509612e-05
parent 0.0
packed 3.26042678662e-05
catching 0.000117640172872
neglected 0.000210592260253
somewhat 4.91609588971e-05
approved 3.75607109497e-05
definition 9.81194711872e-05
energy 0.00120639114454
meltdown 5.1668109592e-05
events 4.93045027756e-05
europe 0.00118288868296
holiday 0.0
status 0.000119750166228
update 6.96176755809e-05
outage 0.0
customers 0.0
holding 2.35254467174e-05
survive 6.75177341013e-05
electric 7.11371739142e-05
picked 7.43674135623e-05
missing 0.00016973747835
surprise 0.000170196811397
german 0.000170980061278
officially 4.64117837206e-05
french 7.66782914406e-05
global 0.0043865729815
follow 0.00051985531139
opinion 5.1839464325e-05
design 0.000120107368017
allows 7.48602986353e-05
promoting 3.41960122556e-05
volunteer 8.32350054796e-05
negative 2.89809588122e-05
official 8.2163516284e-05
brutal 6.92860745598e-05
cotton 0.0
jersey 0.0
mistake 2.75090391386e-05
fixing 7.92603881955e-05
france 0.000331056016571
proper 3.16100879981e-05
peaceful 0.000125825317651
thinks 4.64117837206e-05
competition 2.68884387297e-05
industry 0.000140342556076
easier 0.00010785982904
successful 0.00029915935618
trending 3.29125340864e-05
leadership 0.000124524518394
agrees 3.90568201707e-05
organized 5.03748376041e-05
enthusiasm 0.0
turnout 0.0
showed 4.99925206544e-05
attended 3.99232367233e-05
trumps 4.67268283621e-05
networks 4.38270093787e-05
experienced 6.92860745598e-05
interested 2.55594304802e-05
effect 0.000183489423517
dislike 0.0
success 0.00029197203867
dreams 2.61391061166e-05
protect 2.54881510681e-05
rumors 0.0
arguing 7.95523454681e-05
referred 4.6936142648e-05
waving 0.000102805204085
growth 0.00316261398302
control 0.000199950164722
happier 0.0
likely 0.00026585290797
coincidence 0.0
cancel 0.0
project 0.00013475632554
laying 0.0
lesson 0.00013833640053
replacement 0.000169085788423
invited 0.000167925667462
continuing 0.000110369890471
clearance 0.0
treating 0.0
allowing 0.0
arrived 9.61908867629e-05
unable 0.0
opening 0.000129735875199
popular 2.71963051072e-05
followed 2.64354414785e-05
statement 5.15496459527e-05
enjoyed 0.0
spectacular 0.0
smoothly 0.0
length 0.0
wonder 0.0
matters 7.84173183498e-05
function 0.0
shared 8.18220788686e-05
connection 0.0
benefit 4.98539564816e-05
terrible 7.60390747066e-05
continues 0.000169730300051
equally 3.75607109497e-05
session 2.59925868137e-05
routine 4.03711052631e-05
associated 0.0
exciting 4.77004980291e-05
imagination 4.75777129033e-05
decides 0.0
cheering 0.0
spring 2.5417127597e-05
fallen 0.000174925316799
beautifully 0.0
places 4.74393747649e-05
entered 3.73004438336e-05
feedback 7.75524957431e-05
thousands 0.000116605908971
properly 3.61698495252e-05
informed 6.99701267195e-05
typical 0.0
continue 0.000160677396136
attend 0.0
excuse 2.8811897822e-05
female 0.000212081793877
recovery 0.000131650136345
closer 4.98539564816e-05
beginning 4.99925206544e-05
introduce 0.0
bought 4.86282464639e-05
multiple 6.02330948869e-05
slogan 0.0
covered 2.57748229764e-05
choices 3.22005800702e-05
unpredictable 0.0
enterprise 0.0
several 8.59328087077e-05
surrounded 4.51275726422e-05
dealing 0.0
teacher 8.9016102023e-05
training 2.57748229764e-05
auditorium 6.48510731881e-05
passing 0.000134442193649
become 0.000373747587164
presentation 0.000363339947368
spread 0.000181640841819
sooooo 0.0
season 0.0
putting 4.17522831924e-05
weight 9.28282412255e-05
stephanie 0.0
rapidly 5.22100617245e-05
follows 3.69163537955e-05
explained 7.06662156034e-05
stance 0.0
storms 4.75777129033e-05
headed 0.0
sleepy 0.0
returns 7.99819299837e-05
expected 0.000541082949505
resources 0.000312454561366
considering 3.33311743786e-05
fabric 0.0
suspect 0.0
constantly 0.0
condolences 4.34706030616e-05
appreciated 3.13213235201e-05
register 0.000118337270437
manage 0.0
transition 3.84995997893e-05
smooth 0.0
flowers 3.76921401073e-05
gained 9.02551452844e-05
savage 0.0
somebody 0.0
contract 0.0
furious 0.0
covering 3.07561417719e-05
boxing 0.0
credit 2.45163057293e-05
patriots 0.0
player 0.0
chemistry 4.34706030616e-05
grandkids 0.000139053693737
offensive 0.0
charles 3.19031306237e-05
fighting 0.000203790501545
atlanta 0.0
donald 2.85609851707e-05
mexico 0.000402190685719
unreal 0.0
police 7.68929030536e-05
represent 0.0
president 0.000508218150907
talking 0.00019940611849
unbelievable 3.16100879981e-05
alabama 0.0
slowest 0.0
conference 0.000172565759714
america 0.000253919212167
michigan 0.0
everybody 7.3548917188e-05
judgment 4.71476956319e-05
carolina 0.0
amount 2.79070408046e-05
houston 0.0
everyday 0.00011292524246
michael 2.245938759e-05
protecting 7.09009939238e-05
million 0.00175359589408
election 8.22911725867e-05
honesty 0.0
telling 0.000112909324286
correct 0.000256309676845
pulled 0.0
attack 0.000230678709161
americans 5.53345602122e-05
salaries 5.82701482397e-05
killed 0.000288034133215
louisville 0.0
horrible 3.38672509681e-05
coverage 0.000188754700821
dallas 0.0
jacksonville 0.0
league 0.0
united 0.000309297875716
college 4.97158759544e-05
refuse 0.0
barackobama 3.8362713323e-05
hillary 3.55685869571e-05
clinton 9.7507712714e-05
presidency 0.0
manning 0.0
stupidity 0.0
american 0.000126617094756
remain 0.000391826557411
founder 3.67899634904e-05
illegal 3.31207466978e-05
arizona 0.0
opinions 6.8171633797e-05
retire 0.0
triumph 0.0
stealing 0.0
speeches 0.0
innocent 0.0
scared 0.0
golden 0.0
straight 2.20365925373e-05
removed 0.0
answers 0.000153785806107
product 3.19031306237e-05
created 7.17475632981e-05
snoopdogg 0.0
worlds 0.000150242843799
record 0.000332220077479
stamina 0.0
weapon 0.0
funeral 0.0
registered 4.06754191953e-05
minnesota 0.0
committed 3.13213235201e-05
journey 2.58471448684e-05
disrespect 0.0
brother 0.0
prayers 0.0
documentary 0.000892804233791
boston 0.0
addition 3.46430372799e-05
korean 4.55154285091e-05
church 0.0
advantage 3.39762320451e-05
honestly 0.0
defeat 0.0
baltimore 0.0
lifetime 6.00536840085e-05
captain 0.0
retired 0.000121113315789
country 0.00133515713961
valley 0.0
mailbox 0.0
speedy 0.0
ending 0.000294099124159
finish 2.44486816791e-05
employee 8.76540187573e-05
university 0.000484126849557
remembered 3.75607109497e-05
nominated 2.98486424617e-05
praying 0.0
insane 0.0
national 0.000473130883977
reform 0.0
oregon 0.0
shooting 0.0
cancer 9.99850413088e-05
australia 0.000147484942404
deserve 2.43812880348e-05
legend 0.0
mother 0.000110782358929
murder 0.000354206380772
creating 0.0
powerful 0.000169730300051
carson 0.0
palmer 0.0
branch 0.0
breaking 0.000406408805249
dollars 0.0
questions 0.000101876774816
racist 0.0
charged 0.0
girlfriend 0.0
performance 4.60332159428e-05
refreshing 0.0
reading 0.00021102849126
corrupt 4.82407922695e-05
penalty 3.99232367233e-05
writer 0.0
denver 0.0
create 9.20664318857e-05
admire 0.000220739780943
nobody 2.43812880348e-05
government 0.00098208465717
politics 0.000197048203979
comeback 0.0
charities 0.0
method 0.0
sample 0.0
bringing 2.23376640339e-05
celebs 0.0
stadium 0.0
funniest 0.0
according 7.90828211718e-05
threat 5.91686352184e-05
heroin 0.0
honest 7.41617286204e-05
rolling 0.0
became 2.48579379772e-05
feature 5.4548052579e-05
decision 4.95782757082e-05
counting 2.82313106151e-05
verified 0.0
signing 2.60657107988e-05
adding 3.15133640134e-05
embrace 3.47563901142e-05
pressure 8.11253188518e-05
celebrities 0.0
dearly 0.0
facebook 0.000106373007123
divided 4.34706030616e-05
extension 0.0
lawyer 0.0
charleston 0.0
brazilian 0.000155004328776
basketball 0.0
campaign 0.0
determine 0.000132022950134
whether 0.0
praise 0.0
factory 4.05226770043e-05
arrested 3.75607109497e-05
investments 0.000331006810389
activity 3.87762478716e-05
comments 0.000145483114329
wounded 0.0
endorsement 0.0
williams 0.0
future 0.000614566509612
struggled 0.0
blessed 0.0
sabotage 0.0
warrior 0.0
softball 0.0
cheating 0.0
voting 0.0
instincts 0.0
collins 0.0
succeed 0.0
commercial 0.000109096105158
religion 0.00032912682238
boring 3.44182619583e-05
acting 0.0
established 4.36480034923e-05
warriors 0.0
because 5.72885391385e-05
sensitive 0.0
smiling 0.0
traitor 0.0
cleveland 0.0
agents 0.0
periscope 0.0
killing 2.53463582355e-05
choosing 0.0
phillips 0.0
instagram 0.0
opponent 0.0
detroit 0.0
cousin 0.0
honored 5.51760027619e-05
nonsense 0.0
dedication 0.0
hammer 0.0
proven 0.000171105984855
talent 0.0
governors 0.0
knocking 0.0
russian 0.000264965973582
consecutive 4.89268731421e-05
skills 5.51760027619e-05
citizens 0.000203857392271
cameras 0.0
phones 3.66643756689e-05
california 2.84780499739e-05
commitment 0.000131650136345
maryland 0.0
seconds 5.3170581594e-05
placed 4.14573397964e-05
listen 0.000267031427923
dominating 0.0
whatever 0.0
wherever 3.809174997e-05
fought 3.22005800702e-05
compete 3.73004438336e-05
lauderdale 0.0
injured 3.52164112069e-05
billion 0.0027338927975
shoutout 0.0
depressing 4.19417725503e-05
guilty 0.0
carpet 0.0
harvard 0.000180510290569
absolute 0.0
handle 2.59197321625e-05
promise 0.0
hosting 5.21314215977e-05
longest 3.53331078017e-05
generation 0.000190918184027
criminal 3.79576476568e-05
tuesday 0.000203236783714
garbage 0.0
goldman 0.0
ronald 0.0
locker 0.0
leader 0.000285117053788
desperately 0.0
character 0.0
chancellor 4.82407922695e-05
proving 0.0
jackson 3.21009324265e-05
interview 0.000282956863216
buffalo 0.0
insight 0.0
obviously 0.0
battle 0.000115397507776
destroy 0.0
killer 0.000271859954084
personally 2.87279061228e-05
relentless 0.0
winning 0.000190954663143
charlotte 0.0
trafficking 0.0
defense 3.19031306237e-05
japanese 0.00014566226865
causing 0.000209708862752
arabia 0.000313260370347
rapist 0.0
writing 6.90498239143e-05
society 0.00024687351776
officers 0.0
ambushed 0.0
sources 0.000205176073534
kentucky 0.0
incredible 0.00010723929071
ungrateful 0.0
kissing 0.0
minute 4.47968643566e-05
luther 0.0
foreign 0.00036203787495
phoenix 0.0
champions 0.0
virginia 0.0
streak 0.0
orange 0.0
policy 0.000757938408312
intentional 0.0
reminder 2.39158544327e-05
evidence 0.000147484942404
presidents 8.35579463006e-05
judged 5.11406112529e-05
accused 3.93414296197e-05
intentions 0.0
facing 3.27064903957e-05
freedom 0.000110669120424
actions 0.000438865271658
debating 8.80153000891e-05
consequence 0.0
coughing 0.0
clearly 0.000126027873066
invite 8.44492302766e-05
central 0.000209702198305
washington 0.000131433594286
tougher 4.80172868921e-05
veteran 0.0
division 0.000730791604097
overrated 0.0
veterans 0.0
stronger 6.32201759961e-05
bowden 0.0
promised 0.000163021339331
catches 4.89268731421e-05
worried 0.0
security 0.000342692225078
sanctuary 0.0
reverse 3.71715833424e-05
immediately 0.0
television 3.49850633598e-05
entitled 8.62410103064e-05
racism 0.0
highest 0.000561370224302
approve 0.0
turning 0.000124289689886
georgia 4.17789731503e-05
tennessee 0.0
legacy 3.15133640134e-05
leaked 4.27764962138e-05
choked 0.0
helping 8.74325000876e-05
tickets 2.40477216907e-05
suspending 0.0
suspend 0.0
willing 0.0
december 2.7588001381e-05
beating 3.38672509681e-05
basically 0.0
return 0.000131861545623
escape 0.000106705760871
locked 3.34372336967e-05
unacceptable 4.29477528286e-05
network 2.77468778612e-05
language 0.0
invest 0.000237781164586
creation 0.0
followers 7.71082936579e-05
schools 0.000225850484921
menace 0.0
movies 0.0
entity 0.0
children 0.00246996812747
nation 0.000674899028834
flexible 0.0
review 0.000402130381513
knowledge 0.000282313106151
begins 2.37848604742e-05
vanessa 0.0
forbes 0.000346358236355
parade 0.0
fireworks 0.0
shoulder 0.0
produced 3.11311295985e-05
consider 7.90828211718e-05
latest 0.000387107086891
signed 2.19174354575e-05
shower 0.0
thunder 0.0
charity 0.0
germany 0.000543719908168
advance 5.77924953917e-05
explaining 0.000171534124784
millions 0.000349549703486
blessings 0.0
diamond 0.0
dollar 0.000501558505451
monsters 0.0
rigged 0.0
conduct 0.0
cooked 0.0
turned 0.000108994959487
criticism 3.69163537955e-05
responded 0.0
depending 0.0
jackie 0.0
charge 2.75090391386e-05
ticket 0.0
finest 3.91986130033e-05
sanders 0.0
includes 2.95843176092e-05
dealers 0.0
against 0.0
benjamin 0.0
impact 0.000558291106737
families 0.000457508296747
selection 7.56488967925e-05
hitting 0.0
announced 9.6721895882e-05
decided 2.37848604742e-05
professor 0.000262924976648
itself 6.75177341013e-05
promote 0.0
mexican 7.89705698231e-05
owners 3.82267676645e-05
guards 0.0
guarantee 0.0
beliefs 0.0
citizen 0.000142749544823
states 0.000526381504663
memorial 0.000193804393566
decades 0.000510450089979
landed 6.20734281422e-05
ultimate 2.8811897822e-05
mcdonald 0.0
twenty 0.0
hispanics 0.0
financial 0.000209910380159
payments 0.0
grabbing 0.0
permit 6.43372776659e-05
shield 5.3931148105e-05
disney 0.0
kansas 3.9776172734e-05
agreement 0.000110369890471
source 0.000279070408046
dismiss 5.3931148105e-05
talents 0.0
homework 0.0
expectations 3.62923267923e-05
joining 7.0191013822e-05
eugene 0.0
reasons 0.000161998170298
talked 4.99925206544e-05
released 2.31425957569e-05
reaching 0.00014566226865
release 0.000130793951384
promoter 0.0
circumstances 0.0
scheme 4.34706030616e-05
warwick 0.0
highlight 0.0
within 0.000329502657062
stacked 0.0
speech 0.000143101494087
standing 0.0
higher 0.00103976508979
justice 5.3472568029e-05
served 0.000120107368017
speaks 2.87279061228e-05
navarro 0.0
dropped 0.000343228280211
consideration 5.06268157307e-05
predicted 0.000769991995786
strength 5.50180782772e-05
andrew 3.10367140711e-05
replace 6.26426470402e-05
incredibly 0.0
private 0.000127440755341
integrity 0.0
sanford 0.0
ignored 3.79576476568e-05
neighbors 0.0
affection 0.0
minimum 0.000204922441124
direction 6.09589873793e-05
enemies 0.0
exclusive 4.71799637968e-05
prison 3.51003990536e-05
himself 0.0
investigation 0.0
disgusting 3.89160365484e-05
congratulate 0.0
philly 0.0
rights 0.000268122150691
replaced 0.000155104991486
recognition 0.0
maintain 4.40076500446e-05
tallahassee 0.0
handed 3.809174997e-05
victory 0.000113581844252
classy 0.0
lifted 4.89268731421e-05
terrorist 8.13508383906e-05
productive 0.0
tribute 2.72740262895e-05
threatened 0.0
insecure 0.000111632769867
horror 0.0
discovery 0.000202613385022
convention 0.0
understanding 0.000257798426123
action 0.000234654037282
figures 3.38672509681e-05
having 0.0
marine 4.19417725503e-05
announces 6.07762617386e-05
wallace 0.0
speaker 6.62414933956e-05
stevens 0.0
cybersecurity 0.0
apologize 0.0
continued 0.000102257450695
journalist 0.000212702981771
libelous 0.0
formation 0.0
letter 0.000220646751564
discussed 7.09009939238e-05
therapy 0.0
widespread 5.54894350855e-05
untrue 0.0
written 2.42471857216e-05
conferences 0.0
results 0.000233933281324
papers 7.28311343252e-05
winter 0.000241995948567
marching 0.0
sessions 0.0
democrats 0.0
eastern 7.1613806558e-05
scientist 8.4876736116e-05
represented 0.0
waters 0.0
journal 0.0
foundation 2.8313215558e-05
access 0.00100239594884
analysis 0.000261651923166
writes 0.000162006970672
colorado 0.0
medical 0.000196238942374
tremendous 0.0
nytimes 0.000150582737217
public 0.000784703052878
cheaters 0.0
cannot 0.000110782358929
reveals 0.000474752544123
immunity 0.000110978870171
threatens 4.59110420054e-05
candidate 3.16100879981e-05
brilliant 0.000170669016244
wisconsin 0.0
studies 0.000336847383985
measure 0.000364155671626
compared 0.000720443324094
donors 0.000153421833759
graham 0.0
incorrect 9.6481584539e-05
headline 6.2262259197e-05
careers 0.0
answering 0.0
streaming 3.25025709047e-05
leaders 0.000347771505747
supreme 0.0
nominee 0.0
gorsuch 0.0
protest 6.73021475684e-05
immigration 0.000147665415182
policies 0.000180240629846
administration 0.0
defend 3.25025709047e-05
excitement 0.0
funding 0.00019024372372
surveillance 0.000146780619426
transfer 0.0
conspiracy 0.0
horrifying 0.0
formed 0.0
interviews 2.69649572601e-05
retreat 5.22100617245e-05
alliance 0.0
platform 0.0
editing 0.0
february 5.84745817867e-05
association 3.91986130033e-05
airwaves 0.0
hamilton 0.0
futures 0.0
borders 4.59110420054e-05
border 3.87762478716e-05
uranium 7.39406297594e-05
misleading 0.0
january 2.75090391386e-05
topics 4.34706030616e-05
unprecedented 8.83799112497e-05
airplane 0.0
tragic 0.00025149002833
philadelphia 0.0
funded 0.000219986254013
secure 3.62923267923e-05
income 0.00295970599659
hurricane 8.42118459963e-05
breakdown 0.0
countries 0.00438257324409
linked 3.70435569055e-05
broadcast 3.28092439538e-05
african 0.0022365269158
triple 0.0
provide 0.000174908863457
enhance 0.0
development 0.00188687537263
companies 0.000131650136345
discussions 0.0
developing 0.000881570851168
proposal 3.71715833424e-05
potential 8.22911725867e-05
moderator 0.0
suggestion 0.0
attending 0.0
filled 2.79070408046e-05
schultz 0.0
education 0.000668407100362
sickness 6.3836491033e-05
mentioned 2.92372908934e-05
exists 0.0
henderson 0.0
plants 4.5712246207e-05
orders 0.0
officials 3.49850633598e-05
strategic 0.0
ability 0.0
political 0.000113912199896
director 0.000198313102833
behaving 0.0
deficits 0.0
sufficient 5.82701482397e-05
prevent 0.000297147297842
shoddy 0.0
capacity 0.000182848984828
donations 0.0
editors 0.0
discussing 9.00805260127e-05
persistent 0.0
treatment 0.000186786777591
establishment 0.0
protects 5.33406560329e-05
critical 6.32201759961e-05
ambassador 3.43068249569e-05
preparing 3.32256807128e-05
capable 0.000163317400214
bishop 5.79004175601e-05
producers 8.22817055949e-05
bombed 0.0
weekly 3.43068249569e-05
becoming 0.000127440755341
magazine 0.000137940006905
lawyers 0.0
summary 0.00061013128793
standard 8.61837183684e-05
controlled 8.76540187573e-05
hiring 7.69991995786e-05
defending 0.0
pushes 5.33406560329e-05
admitted 9.55925576674e-05
failed 0.00035396386177
independent 0.000153317475801
copies 0.0
politically 4.38270093787e-05
driven 0.000108144377907
agenda 0.000143227613116
blocked 0.0
result 5.72885391385e-05
announcing 0.0
destruction 4.67268283621e-05
culture 0.000109721563449
insider 4.6936142648e-05
traitors 0.0
prince 0.0
solutions 0.000209708862752
indiana 3.9776172734e-05
mongering 0.0
claims 9.5709391871e-05
editorial 4.14573397964e-05
prospects 9.6481584539e-05
mistakes 0.0
offered 0.0
founded 4.6936142648e-05
ignorance 0.000914851972883
inspiring 0.000134061075346
majority 0.000199987046271
embarrassing 0.0
creators 0.0
server 0.0
berniesanders 0.0
spotlight 0.0
readout 0.0
tactics 0.0
irrelevant 9.34536567241e-05
massive 7.56167238395e-05
receiving 3.73004438336e-05
promising 0.0
promises 7.56488967925e-05
consequences 3.8362713323e-05
production 0.000317072872867
proposals 4.6936142648e-05
elsewhere 4.09844882247e-05
bernie 0.0
hacking 0.0
guests 0.0
interviewed 3.20017842718e-05
secretary 0.00013857214912
rebuttal 6.88782636668e-05
reduce 0.000287417175234
arriving 0.000305536024446
dangerous 0.000239945789951
shutting 0.0
arrival 0.000217353015308
canceled 0.0
typically 0.0
saving 0.000633861752084
pioneer 0.0
incident 0.0
ordering 0.0
victims 5.7623795644e-05
raises 0.0
receive 0.000111950444975
reputation 0.0
intention 0.0
commentary 0.0
disclosure 0.0
terrific 0.0
berkeley 5.82701482397e-05
melbourne 0.0
received 0.000127440755341
correctly 0.000119328518202
inherited 6.10719976546e-05
displayed 6.19512542047e-05
joseph 0.0
offices 0.0
necessary 6.11425609379e-05
largely 4.43739570954e-05
inaccurate 0.0
debate 0.000204475443841
conflict 0.000784670803007
interest 0.000111628163218
controversy 4.63147298014e-05
stated 4.80172868921e-05
rating 0.0
nominate 0.0
outstanding 0.0
devastating 0.0
accurate 3.21009324265e-05
southeastern 8.32373088038e-05
romney 0.0
scotland 0.0
delayed 0.00011759583901
rarely 7.23396990504e-05
abroad 8.62410103064e-05
winners 5.25734377144e-05
profit 3.87762478716e-05
reviews 3.56873862058e-05
republican 3.91986130033e-05
presidential 3.31207466978e-05
candidates 6.70877295319e-05
politicians 7.23396990504e-05
epidemic 0.000436201668444
greater 0.0
booths 0.0
arnold 0.0
principles 4.36480034923e-05
deadline 0.0
speakers 3.94852849116e-05
incoming 0.0
various 4.05226770043e-05
nuclear 0.000210602394321
danger 6.95127802283e-05
leading 0.000277261320745
restored 0.0
conditions 3.73004438336e-05
however 0.0
resolution 0.000120214206977
remained 5.86469218304e-05
member 2.33330949703e-05
examples 0.000126814341318
employ 0.0
courses 0.0
largest 0.000219249264641
hallmark 0.0
mentor 8.76540187573e-05
increase 0.000969021967832
transcript 0.0
disrupt 0.0
provided 0.00012248805016
binding 0.0
decreased 0.000392807675616
revival 0.0
crashing 0.0
reception 0.0
rising 0.000384021411261
primary 0.000542547742878
reduction 0.000359818214298
surrogate 0.0
provides 0.00023349621929
environment 0.000182697901024
revealed 3.24013941345e-05
confirmed 0.000317858724654
controls 4.55154285091e-05
behavior 7.81136403415e-05
introduced 0.0
carbon 0.000238981394168
communities 0.000226946690377
region 0.000326634800427
deaths 0.00262190267261
responsible 3.24013941345e-05
household 8.9119372609e-05
munich 0.0
canada 0.00034366073922
regions 0.000345224827883
movement 5.30204484692e-05
midwest 0.0
segment 0.0
emerged 0.0
hundreds 0.0
information 0.000134442193649
combined 0.0
easily 8.77118726801e-05
towards 0.000231169981567
inform 4.91609588971e-05
mathematically 0.0
october 0.000110987511445
investigating 0.0
predators 0.0
innovation 0.000419417725503
perspective 2.93234784609e-05
cities 8.92804233791e-05
todays 0.000172612413942
julian 0.0
eliminated 0.0
interests 3.74301493177e-05
toledo 0.0
extraordinary 3.3543864766e-05
eradicate 0.000289429535062
retains 0.0
ashamed 0.0
meetings 3.52164112069e-05
describing 0.0
eliminate 9.60345737841e-05
obligation 0.0
gender 0.000979892823393
committee 6.50051418093e-05
wasting 0.0
numerous 5.75374713139e-05
examination 0.0
inflammatory 0.0
practices 4.5712246207e-05
management 7.23396990504e-05
nordstrom 6.64777440411e-05
genius 0.0
warren 0.0
traveling 0.0
billions 0.000220949778124
prepared 0.000120107368017
fraction 0.0
equipment 4.47471760063e-05
procedures 0.0
rasmussen 0.0
county 0.000183321878345
developer 0.000191509473099
anthony 3.61698495252e-05
shadow 0.0
district 0.000169753472232
considered 0.0
lobbyist 0.0
chosen 0.0
hospitalized 0.0
outright 0.0
yorkers 0.0
naming 9.3872285296e-05
conventions 0.0
deficit 4.59110420054e-05
interventions 6.64777440411e-05
focusing 0.0
sensible 4.63147298014e-05
hosted 0.0
batman 0.0
column 9.72041824035e-05
upcoming 2.80685112151e-05
positions 0.0
favors 0.0
regulation 0.0
distributed 0.0
weakness 0.0
introduction 4.84668520494e-05
western 0.00017725248481
pacific 0.0
larger 0.00011759583901
increases 0.000264045900267
effective 0.000231114564988
situations 0.0
harbor 0.0
wealth 0.000812753428062
underway 0.0
israel 0.000169085788423
hysteria 0.0
overwhelming 0.0
protection 0.000103254785875
prisoners 0.0
guidance 0.0
montana 0.0
determination 4.8695525295e-05
restore 0.0
acquire 0.000115074942628
additional 4.12984633162e-05
exception 4.9397848141e-05
machine 0.000320835408174
honoring 0.0
visually 0.0
contrary 0.000250630145489
immediate 0.0
politico 0.0
ignoring 0.0
judges 0.0
federal 7.40871138111e-05
constant 0.0
philippines 0.000250630145489
nicely 0.0
september 8.34803916726e-05
manchester 0.0
fiction 0.0
priest 0.0
angela 0.0
process 2.52758411717e-05
destructive 0.0
genuine 0.0
surreal 4.31205051532e-05
whitehouse 0.0
flotus 0.0
crisis 0.00109726177283
judgement 4.6936142648e-05
confidence 0.0
voters 0.0
diamondandsilk 0.0
oldest 0.0
inauguration 0.0
gracious 0.0
scream 0.0
postponed 0.0
disappoint 0.0
believing 0.0
hillaryclinton 0.0
electoral 0.0
crashed 0.0
citizenship 4.91609588971e-05
closed 2.82313106151e-05
religious 7.83972260067e-05
apprentice 0.0
conservative 0.0
economists 0.0
buzzfeed 0.0
puppet 0.0
sweden 0.00554714157638
andersoncooper 0.0
treats 4.22714471059e-05
qualified 0.0
missouri 0.0
cooper 4.21059229982e-05
debates 3.93414296197e-05
endorsements 0.0
strike 0.0
shouting 0.0
empire 0.0
encouraged 4.91609588971e-05
regard 0.0
concerning 5.51678017316e-05
misinformed 7.56617161399e-05
disregard 0.0
barack 0.000176030600178
joined 2.43812880348e-05
terrorism 3.94852849116e-05
pushing 9.51218618602e-05
cracking 0.0
muhammad 5.08820452776e-05
refused 0.0
amazingly 0.0
express 0.0
gratitude 0.0
congratulation 0.00015132343228
throughout 6.2834221414e-05
shining 0.0
fighter 0.0
anticipated 0.0
presented 0.0
reveal 2.88962476958e-05
stands 5.50180782772e-05
native 0.0
harvey 0.0
featured 0.0
announce 6.90498239143e-05
surround 0.0
although 0.0
senior 0.0
todayshow 0.0
convincingly 8.46019888672e-05
haters 0.0
returning 0.0
laughs 0.0
touched 0.0
corruption 9.51554258066e-05
violence 0.000377858445622
runnin 0.0
delivered 3.22005800702e-05
owning 0.0
legendary 0.0
stabbing 0.0
independence 7.1613806558e-05
approval 0.0
magical 0.0
alongside 3.79576476568e-05
percent 7.30791604097e-05
spiral 0.0
differently 4.17789731503e-05
sweeping 0.0
spoiler 0.0
theirs 0.0
offering 0.0
remembering 3.24013941345e-05
floated 0.0
professionals 0.000104973419614
construction 4.14573397964e-05
searching 0.0
flexibility 5.82701482397e-05
sinking 0.0
detail 3.64155671626e-05
document 4.67268283621e-05
cabinet 0.0
pleased 3.27064903957e-05
carrying 3.67899634904e-05
statements 0.0
decade 0.000433198459052
prague 0.0
crossing 0.0
bigotry 0.0
happily 0.0
therefore 8.87479141907e-05
belong 0.0
customs 0.0
trillion 0.0
backed 0.0
electricity 0.00114166500331
observing 0.0
russell 3.809174997e-05
engineers 0.0
operations 9.87956962819e-05
values 0.000180849247626
senator 0.0
confirms 0.000598882389083
removing 0.0
payment 5.30518915549e-05
consistently 0.0
posing 0.0
everett 0.0
wondered 0.0
generic 6.15067407689e-05
fields 8.58955056571e-05
mining 5.51678017316e-05
newspaper 3.70435569055e-05
detailed 0.000219135046893
rainbow 0.0
childcare 0.0
unlimited 0.0
exploded 0.0
thoroughly 0.0
adviser 0.0
leaves 8.61837183684e-05
matthew 0.0
intersection 0.0
affected 0.000152856402345
newspapers 4.47471760063e-05
corporate 4.19417725503e-05
economy 0.00112483195765
explores 0.000118062023737
spoken 3.31207466978e-05
during 0.0
credible 0.0
competitive 3.9776172734e-05
carefully 4.29477528286e-05
returned 0.0
blasts 0.0
guarding 0.0
hornet 0.0
successfully 0.0
southern 3.48703962825e-05
dakota 0.0
belief 0.000110369890471
messenger 0.0
heroes 0.0
russians 0.0
intelligence 0.0
deepest 0.000137136738621
graduates 5.54894350855e-05
describe 0.0
hollywood 0.0
reclaim 0.0
equality 0.000107062158617
announcement 2.5417127597e-05
interfere 0.0
interrupted 0.0
nationwide 0.0
questionable 0.0
garden 2.95843176092e-05
survey 0.00201175532581
journalists 7.09009939238e-05
delighted 8.25969266323e-05
minister 0.000983435658302
golfer 0.0
capital 0.000107062158617
penguins 0.0
regarding 0.000256650629682
teachers 0.000212702981771
devastated 0.0
phrase 3.71715833424e-05
immigrants 0.000207286698982
aliens 0.0
subjects 0.0
revolution 0.000111130670717
median 0.000314357104162
twelve 5.45398119886e-05
releases 3.65395802048e-05
accomplish 0.0
debbie 0.0
sebastian 0.0
briefing 0.0
advisor 0.0
commission 4.16175027398e-05
deadlines 0.0
hereby 0.0
invitation 0.0
alternatives 0.0
villages 0.0
accepted 9.93622400934e-05
commentators 0.0
depression 0.000257686516971
comprehensive 9.3039411778e-05
committees 0.0
pushed 3.84995997893e-05
statistic 6.82502739238e-05
donation 3.3543864766e-05
electronic 0.0
nomination 3.60481259691e-05
britain 0.000118024288859
questioning 0.0
attempt 5.64626212302e-05
investment 0.000229360605987
terror 0.000111901331501
homeland 0.0
polish 0.0
switzerland 5.14026020425e-05
represents 0.0
announcer 0.0
churchill 0.0
ambassadors 5.58163849334e-05
anchors 0.0
endorse 4.29477528286e-05
urgent 0.000216473897722
forced 6.07762617386e-05
expenses 5.24867098068e-05
preparations 0.0
string 0.0
morocco 0.0
thrill 5.61488299932e-05
watchdog 6.88782636668e-05
agencies 9.47230714388e-05
scrutiny 5.24867098068e-05
glorious 0.0
approaching 4.43739570954e-05
tragedy 9.7507712714e-05
handled 0.0
offers 9.48302639942e-05
requested 0.0
improvements 0.000361381006945
destroying 8.69412061231e-05
inexpensive 0.0
opposition 8.01428046516e-05
smithsonian 0.0
addiction 0.0
challenged 0.0
manhattan 0.0
richmond 0.0
forces 0.000128802320281
nations 0.00262630707122
anderson 3.9776172734e-05
builds 0.0
sexist 0.0
narrative 0.0
application 0.0
cannon 0.0
ethical 5.06268157307e-05
representation 0.0
obvious 3.3543864766e-05
statistics 0.000831756843416
military 0.000246793794954
housing 0.0
wonderfully 0.0
miller 0.0
copying 0.0
advised 0.0
ordered 2.91514772428e-05
unions 0.0
useless 8.52134192621e-05
alicia 0.0
economic 0.00162764322863
radical 4.14573397964e-05
planted 0.0
theories 0.0
conceived 0.0
readers 0.0
bombing 0.0
products 7.18542938085e-05
phenomena 0.0
classroom 9.83219177942e-05
classified 0.0
purely 0.0
hacked 0.0
taxpayers 0.0
opposed 0.0
pressing 0.0
russia 0.000338317559491
abraham 0.0
lincoln 0.0
observer 0.0
intelligent 0.0
lawsuit 0.0
detective 0.0
magnificent 0.0
heritage 0.0
beloved 8.55529924276e-05
dignity 4.61118560697e-05
priorities 0.000264045900267
repealing 0.0
murdoch 0.0
coalition 0.0
theresa 0.0
charges 0.0
activists 0.000365697969656
elected 3.45303303343e-05
relief 0.000131650136345
congratulates 0.0
pledge 3.70435569055e-05
elections 3.99232367233e-05
landslide 0.0
council 0.000182697901024
imperative 0.0
catastrophic 0.0
douglas 0.0
brexit 4.2606709631e-05
democracy 0.000625615022055
disastrous 0.0
rebuild 0.0
pundits 0.0
nickname 0.0
poison 0.0
interfering 0.0
negotiations 4.49364598952e-05
summit 0.000191813566615
dossier 0.0
unleash 0.0
negotiation 0.0
sticking 0.0
openly 0.0
embarrassed 8.52134192621e-05
ireland 0.0
attacks 0.000127612522495
remarks 0.0
democratic 0.000121113315789
outgoing 0.0
maureen 0.0
treasury 0.0
refugees 0.00381611867311
snatch 0.0
morgan 0.0
grieve 0.0
vicious 5.48513147327e-05
essentially 0.0
restoring 0.0
extended 0.0
referendum 0.0
ovation 0.0
bankrupt 0.000111632769867
proudly 0.000141443086896
oppose 0.0
refusal 0.0
urging 0.0
strengthen 5.01260290978e-05
deliver 0.000125668442828
negotiating 4.73615357194e-05
remaining 0.000162701676781
merkel 5.27672821059e-05
repeal 0.0
formal 9.55925576674e-05
reckless 0.0
prosperous 0.0
servant 0.0
desperate 7.53842802147e-05
secretaries 0.0
formally 0.0
breach 0.0
gloomy 0.0
outlines 6.43372776659e-05
concessions 0.0
executive 9.90490992805e-05
extend 0.0
republicans 0.0
terrorists 4.5712246207e-05
weapons 0.0
bodyguards 0.0
outrage 0.0
representative 4.73615357194e-05
prevail 5.75374713139e-05
searched 0.0
policemen 0.0
islamic 0.000166468305257
islamist 0.0
ingrained 0.0
humbled 8.4876736116e-05
courage 0.0
chamber 0.0
commander 0.0
formula 0.0
brigade 0.0
respecting 0.0
lectured 0.0
devices 0.0
enormous 9.3872285296e-05
verdict 0.0
refusing 0.0
energies 0.0
carried 0.0
behalf 0.0
tariff 0.0
amendment 0.0
nightmare 3.44182619583e-05
employment 4.82407922695e-05
legislation 0.0
referring 0.0
scrapping 0.0
handling 0.0
goodies 0.0
proves 0.000157365718479
prominently 0.0
crackdown 0.0
unfair 0.0
fiscal 0.0
humiliating 0.0
strongly 7.83972260067e-05
vision 8.79704353826e-05
resignation 0.0
confirmation 4.08293500534e-05
records 3.00268420042e-05
disabled 0.0
quoting 0.0
reductions 0.000153163765535
deeply 3.20017842718e-05
commerce 0.0
accumulation 0.0
overplaying 0.0
refugee 0.000904852881254
conway 0.0
exposed 4.03711052631e-05
netanyahu 0.0
israeli 0.0
priority 0.000114680302994
strongest 0.0
freedoms 0.0
treaties 0.0
empowering 5.27672821059e-05
laughter 0.0
syrian 0.00117436963141
uphold 0.0
praising 0.0
renewal 0.0
penned 0.0
condemns 0.0
realdonaldtrump 0.0
goodwill 0.0
attorney 0.0
settled 0.0
chairman 4.2606709631e-05
capability 0.0
firing 0.0
seanspicer 0.0
inaugural 0.0
carnage 0.0
optimism 0.000181282199733
rulers 8.93721780751e-05
clintons 0.0
melania 0.0
bikers 0.0
handing 0.0
intended 0.0
optimistic 8.65895590888e-05
campaigned 0.0
finance 0.000365697969656
allies 0.0
compromised 0.0
governor 0.0
bosses 0.0
attempts 3.89160365484e-05
irresponsible 0.0
incidents 0.0
merely 0.0
documents 0.0
tariffs 6.3836491033e-05
purpose 3.02971881094e-05
architect 0.0
arlene 0.0
resign 0.0
reuters 0.000141443086896
mainstream 0.0
dozens 4.49364598952e-05
donnell 0.0
clarified 0.0
gathering 4.2438368058e-05
crimes 0.0
vulnerable 3.9776172734e-05
commentator 0.0
overwhelmingly 0.0
respectful 5.30518915549e-05
markets 0.000129884338633
inspector 0.0
nigel_farage 0.0
drudge 0.0
abused 0.0
infrastructure 0.0
projected 0.000393041809952
boards 4.67268283621e-05
allegations 0.0
bloomberg 0.000106681312066
insulting 0.0
leaking 0.0
liberal 0.0
chairs 4.51275726422e-05
podium 0.0
conceded 0.0
capitol 0.0
consulting 0.0
wannabe 0.0
powell 0.0
reforms 5.3931148105e-05
technical 4.14573397964e-05
securing 0.0
steven 3.99232367233e-05
rumsfeld 0.0
businesses 0.0
balancing 0.0
socialist 0.0
complaints 0.0
politician 7.89705698231e-05
representatives 0.0
rallies 0.0
belittle 0.0
ballot 0.0
failing 0.0
refuses 8.45428942117e-05
conclude 0.000175940765491
vibrant 0.0
tarmac 0.0
spinning 0.0
appointments 0.0
farewell 0.0
opponents 0.0
unopposed 0.0
polling 0.0
prosperity 0.0
apology 0.0
outline 0.0
losers 0.0
battlefield 0.0
abandoned 0.0
endorsed 0.0
negotiate 0.0
negotiated 0.0
unwilling 0.0
appointed 4.75777129033e-05
slaughter 5.6486958149e-05
betray 0.0
donated 3.56873862058e-05
immigrant 4.63147298014e-05
prosecuted 0.0
criminals 0.0
elizabethforma 0.0
protesting 0.000100252058196
releasing 0.0
screening 3.8362713323e-05
sponsor 0.0
pocketbook 0.0
transparency 8.65895590888e-05
austin 0.0
obamacare 0.0
acceptable 3.94852849116e-05
schwarzenegger 0.0
congressman 0.0
profits 8.94943520126e-05
toward 7.1613806558e-05
fleeing 0.000336892979959
bravery 0.000100749675208
protests 9.10308570181e-05
recieved 0.0
violent 8.25969266323e-05
remarkably 5.61488299932e-05
senators 0.0
ratings 3.91986130033e-05
spouses 0.0
fundraiser 0.0
senate 0.0
louisiana 0.0
giuliani 0.0
venezuela 0.00011580083512
parenthood 0.0
organizations 0.0
generations 3.93414296197e-05
minorities 0.0
underestimate 9.6481584539e-05
terrified 0.0
discourse 0.0
pennsylvania 0.0
hackers 0.0
nbcnews 0.0
mccain 0.0
scandal 0.0
constitution 4.55154285091e-05
sensanders 0.0
abandon 0.0
explode 0.0
reopening 7.39406297594e-05
governments 0.000453373538437
competent 0.000402762299197
mike_pence 0.0
stinks 0.0
logical 0.0
accurately 0.0
righteous 0.0
thursdays 0.0
fitting 0.0
category 0.0
swearing 0.0
politifact 0.0
abolish 0.0
surging 0.0
murders 0.0
reagan 0.0
vetting 0.0
vetted 0.0
pouring 0.0
fraudulent 0.0
ballots 0.0
fading 6.88782636668e-05
speakerryan 0.0
civilized 0.0
commercials 0.0
luxurious 0.0
outraged 0.0
nypost 0.0
statute 0.0
enforcement 0.0
accountability 0.0
truthful 0.0
springfield 0.0
cancelled 0.0
conflicts 0.000218159247955
suffer 4.14573397964e-05
selfishly 0.0
educational 4.75777129033e-05
stolen 0.0
visionary 5.75374713139e-05
wounds 0.0
disgraceful 0.0
hatred 0.0
persuasion 0.0
exposing 0.0
teaches 0.0
sellers 0.0
refers 0.0
trusted 0.0
sheriff 0.0
samsung 0.0
ranking 5.06268157307e-05
undecided 0.0
nebraska 0.0
abusive 0.0
abuser 0.0
nashville 0.0
lightweight 0.0
victories 0.0
consumer 9.78537462842e-05
violation 5.45398119886e-05
sarcasm 0.0
freaky 0.0
jimmyfallon 0.0
outlets 0.0
vanityfair 0.0
harassed 0.0
leverage 0.0
sacred 5.19372295997e-05
horrific 0.0
contribute 0.000247790779897
indicted 0.0
chooses 0.0
defended 0.0
champion 9.45400920403e-05
waited 0.0
denmark 0.000303760894384
conviction 0.0
retail 0.0
distract 0.0
globes 0.0
endorsing 0.0
pathetic 0.0
purposely 0.0
expose 5.14026020425e-05
representing 0.0
mmflint 0.0
registration 8.55529924276e-05
acceptance 0.0
defeated 0.0
prosecutor 0.0
nbcsnl 0.0
nevada 0.0
illinois 0.0
massachusetts 0.0
spontaneous 0.0
entrepreneur 0.0
arkansas 0.0
hotels 0.0
exhausted 0.0
puppets 0.0
protesters 0.0
natalie 0.0
anaheim 0.0
nominating 0.0
vietnam 0.00104748654067
claimed 0.0
indianapolis 0.0
loudly 0.0
sarasota 0.0
rapids 0.0
oklahoma 0.0
devoted 0.0
sacramento 0.0
arranged 0.000134102235936
baldwin 0.0
crushed 0.0
reflects 4.27764962138e-05
replacing 9.26294596028e-05
louder 5.36336986585e-05
flashback 0.0
farmers 9.55925576674e-05
unleashed 0.0
tourists 0.00011580083512
steals 0.0
albany 0.0
devastation 0.0
meantime 0.0
donlemon 0.0
wilbur 0.0
finalists 0.0
ransom 0.0
normmacdonald 0.0
vanishing 0.0
clarence 0.0
jaketapper 0.0
clowns 0.0
elizabeth 0.0
microphone 0.0
machines 4.6936142648e-05
premium 0.0
championships 0.0
impersonation 0.0
horribly 0.0
stakes 0.0
mouthed 0.0
reservation 0.0
delaware 0.0
springs 0.0
columbus 0.0
slackers 0.0
toyota 0.0
chucktodd 0.0
correspondents 0.0
soldier 4.71476956319e-05
panels 0.000223265539733
broadcasting 4.51275726422e-05
sparks 0.0
warned 0.0
jclayfield 0.0
kellogg 0.0
anchor 0.0
heated 0.0
congressional 0.0
boeing 0.0
usatoday 4.75777129033e-05
endlessly 0.0
craziest 0.0
viewers 8.80153000891e-05
delivers 0.0
pittsburgh 0.0
marshal 0.0
reverend 0.0
lifelong 0.0
disdain 0.0
hispanic 0.0
defrauded 0.0
oppression 0.0
crowds 0.0
washingtonpost 0.000128329488641
affordable 0.0
tapping 0.0
ginsburg 0.0
reilly 0.0
illegally 0.0
shootings 0.000104973419614
destiny 0.0
serenawilliams 0.0
motors 0.0
redding 0.0
initially 0.0
travis 0.0
accomplishments 0.0
misconduct 0.0
mocked 0.0
disgrace 4.96376088395e-05
greeley 0.0
carmel 0.0
outcry 8.07615799033e-05
playbook 0.0
zealand 0.0
fearless 4.71476956319e-05
lining 0.0
sidekick 0.0
madame 0.0
grandstand 0.0
rochester 0.0
speechless 0.0
fletcher 0.0
begged 0.0
wintour 0.0
inspires 0.0
carlos 0.0
missiles 0.0
chelsea 0.0
oppressive 0.0
forgiven 0.0
killings 6.06466045832e-05
taiwan 0.000309756271023
somalia 0.00109200438278
burning 3.48703962825e-05
subscribers 0.0
chester 0.0
newtown 6.82502739238e-05
booker 0.0
heights 0.0
leicester 0.0
chiefs 0.0
joenbc 0.0
opioid 0.0
separately 0.0
intros 0.0
columnist 5.51678017316e-05
manages 0.0
financed 0.0
mnuchin 0.0
delegate 0.0
vicente 0.0
struck 4.00714023258e-05
trudeau 0.0
oreillyfactor 0.0
vulgarian 0.0
publicity 0.0
amnesty 0.0
ivankatrump 0.0
communism 0.0
linkedin 5.71810649968e-05
avoided 0.0
sophisticated 0.0
seanhannity 0.0
anncoulter 0.0
foolish 0.0
catholics 0.0
bogged 0.0
catholic 0.000104973419614
thriving 0.0
newtgingrich 0.0
abedin 0.0
secretly 0.0
undermines 0.0
americanism 0.0
christians 0.000340985802531
rationally 0.0
deplorable 0.0
wikileaks 0.0
execution 0.0
enduring 0.0
foxandfriends 0.0
losses 8.32350054796e-05
kevcirilli 0.0
staffers 0.0
barron 0.0
jihadis 0.0
hampshire 0.0
pandering 0.0
donaldjtrumpjr 0.0
moines 0.0
lobbying 0.0
careless 0.0
piersmorgan 0.0
palestinian 6.88782636668e-05
kellyanne 0.0
democrat 0.0
unfunny 0.0
condemned 0.0
despair 0.0
louvre 0.0
crooked 0.0
lynden 0.0
outperform 0.0
tedcruz 0.0
majors 0.0
schumer 0.0
credibility 0.0
flooding 0.00020352818111
hannity 0.0
beneficiary 0.0
sanctions 0.0
nominates 0.0
existent 0.0
criticized 0.0
senatemajldr 0.0
workforce 0.0
issued 0.0
outsider 0.0
declare 4.67268283621e-05
ivanka 0.0
dignified 0.0
threaten 0.0
outcomes 0.000105534564212
ukraine 0.000390714694533
justintrudeau 0.0
vladimir 0.0
businessman 0.0
regards 0.000118062023737
assange 0.0
malicious 0.0
garners 0.0
ethics 0.0
wrecked 0.0
regimes 0.0
incorrectly 0.0
hostile 0.0
defenders 6.10719976546e-05
deceived 0.0
hypocritical 0.0
favorably 0.0
shatter 0.0
changer 9.47230714388e-05
spokane 0.0
unnecessary 0.0
cwaunion 0.0
expand 0.0
apologized 0.0
criticizing 0.0
legion 0.0
hershey 0.0
intensity 0.0
tigerwoods 0.0
amercan 0.0
reince 0.0
chriscjackson 0.0
hypocrites 0.0
billkristol 0.0
govmikehuckabee 0.0
dustin 0.0
bullied 0.0
anonymous 0.0
yankees 0.0
thehill 0.0
infiltrated 0.0
somali 0.000382909413838
invention 0.000106681312066
frontrunner 0.0
patriot 0.0
poorly 4.49364598952e-05
prisonplanet 0.0
daytona 0.0
comparable 6.28714208323e-05
shouted 0.0
holocaust 0.0
kellyannepolls 0.0
foxnews 0.0
initiated 0.0
tiffany 0.0
mikeandmike 0.0
barbara 0.0
litigation 0.0
frankcaliendo 0.0
toughness 0.0
suffered 0.0
streep 0.0
billionaire 4.77962788337e-05
percentage 0.0001359616498
insiders 0.0
premiums 0.0
congratulatory 0.0
treasurer 0.0
incompetence 0.0
delegates 0.0
rollout 0.0
appalled 0.0
misquoted 0.0
pledged 0.0
demanded 0.0
andrews 0.0
lowlife 0.0
courageous 0.0
betrayed 0.0
horrors 0.0
warheads 0.0
pledges 0.0
interrupts 0.0
blacks 0.0
elaine 0.0
candidacy 0.00013528322008
discredited 0.0
cringing 0.0
estates 0.0
laughable 0.0
aberdeen 0.0
healed 0.0
floods 0.000115074942628
swiftly 0.000341251369619
cheryl 0.0
syracuse 0.0
difficulties 0.0
flipping 0.0
wilkes 0.0
lisbon 6.95268468686e-05
suckers 0.0
golfdigest 0.0
jeffrey 5.61488299932e-05
sixteen 6.88782636668e-05
scandals 0.0
circuits 0.0
regulations 4.96376088395e-05
monitoring 9.55925576674e-05
swamped 0.0
costing 0.0
detained 0.0
warmest 0.000615067407689
marginalize 0.0
miners 0.0
unemployment 0.000106681312066
paragon 0.0
obsolete 0.0
subsidies 0.000127672982066
exercised 0.0
evangelicals 0.0
franklin 0.0
molten 0.0
servers 6.15067407689e-05
billgates 0.00201038326883
excessive 0.0
coordinated 0.000132955488082
geneva 6.06466045832e-05
soaring 0.0
unsecured 0.0
corporations 0.0
rifles 0.0
innovative 0.000191185115335
pillar 0.0
bashing 0.0
organize 0.0
panelists 0.0
frontiers 0.0
pricing 0.0
platforms 0.0
scaling 0.000210592260253
pretends 0.0
forensic 0.0
roundtable 0.0
inherit 0.0
fabrication 0.0
brewer 0.0
unaffordable 0.0
reinforcing 8.07615799033e-05
eventful 0.0
wasserman 0.0
lindsey 0.0
billclinton 0.0
upstate 0.0
empowerment 0.000122143995309
penalties 0.0
responders 6.28714208323e-05
civilization 0.0
occupy 0.0
approximately 0.0
knight 0.0
homeownership 0.0
scratched 0.0
screws 0.0
contractor 0.0
havana 0.0
lowering 0.0
foundations 0.0
revitalize 0.0
counters 0.0
foreclosed 0.0
renovated 0.0
delaying 6.59205236597e-05
employer 0.0
executed 0.0
subpoena 0.0
grifters 0.0
cincinnati 0.0
disgraced 0.0
falsely 0.0
strengthening 0.0
abcworldnews 0.0
skyrocketing 0.0
pipelines 0.0
likewise 0.000109079623977
dishonest 0.0
surges 0.0
woefully 0.0
pressured 0.0
erratic 0.0
temperament 0.0
emboldened 0.0
keystone 0.0
mandated 0.0
crumbling 0.0
johnkasich 0.0
latinos 0.0
combating 0.0
incompetent 0.0
loopholes 0.0
incapable 0.0
unqualified 0.0
melaniatrump 0.0
recount 7.0891526932e-05
voluntarily 7.0891526932e-05
desperation 6.48510731881e-05
denounce 0.0
demoralized 0.0
incited 0.0
fawning 0.0
accuser 0.0
electing 0.0
patrol 0.0
connecticut 0.0
amounts 4.82407922695e-05
govpencein 0.0
squandered 0.0
enforce 0.0
epipens 0.0
deplorables 0.0
generals 0.0
timkaine 0.0
benghazi 0.0
moderators 0.0
sheriffclarke 0.0
unfairly 0.0
competence 6.15067407689e-05
dysfunctional 0.0
eleventh 0.0
instructed 0.0
restrict 0.0
battleground 0.0
jilted 0.0
blazing 0.0
hypocrite 0.0
mcconnell 0.0
circulated 0.0
flailing 0.0
pathological 0.0
deflect 0.0
undoing 0.0
predictable 0.0
phoney 0.0
perils 6.06466045832e-05
governing 0.0
likeable 0.0
tumble 0.0
praised 0.0
extraordinarily 0.0
jinping 0.0
trashes 0.0
knowingly 0.0
disloyal 0.0
woodward 0.0
magnificently 0.0
pretended 0.0
slaughtered 0.0
climber 0.0
americ 0.0
unprofessional 0.0
diplomats 0.0
resulted 0.0
crossroads 0.0
syrians 0.000536408943745
suppress 0.0
remembrance 5.42331389395e-05
infighting 0.0
castro 0.000388426045599
unquestionably 0.0
corrupted 0.0
kasich 0.0
readership 0.0
fraternal 0.0
frankluntz 0.0
demagogue 0.0
unanimous 0.0
bedford 0.0
longtime 0.0
complexities 0.0
dailymail 0.0
couric 0.0
cancelling 0.0
morningmika 0.0
concord 0.0
recounts 0.0
shouldered 0.0
patmccrorync 0.0
executives 0.0
westfield 0.0
graydon 0.0
sheldon 0.0
tanking 0.0
morning_joe 0.0
fabricated 0.0
corolla 0.0
groveling 0.0
unfolding 0.0
polled 0.0
influx 0.0
underachieving 0.0
antics 0.0
disenfranchised 0.0
golfing 0.0
xfinity 0.0
defies 0.0
fictitious 0.0
districts 6.88782636668e-05
vigilant 0.0
obstruction 0.0
rebuilding 0.0
preserving 0.0
passover 0.0
dhsgov 0.0
thejusticedept 0.0
repealed 0.0
intends 0.0
wildfires 0.0
usedgov 0.0
fresno 0.0
usnavy 0.0
scotus 0.0
tillerson 0.0
ineffective 0.000132955488082
senjohnmccain 0.0
cbsnews 5.90310118685e-05
lawsuits 0.0
caucus 0.0
shimon 0.0
wilmington 0.0
stagnant 0.0
gouging 0.0
baghdad 0.000141783053864
wiesel 7.65818827675e-05
obstruct 0.0
gonzalo 0.0
curiel 0.0
hostage 0.000118845416284
unnamed 0.0
truckers 0.0
boldly 0.0
scarborough 0.0
evangelical 0.0
cyberattack 0.0
marines 0.0
crimea 0.0
earners 0.0
oversaw 0.0
lobbyists 0.0
rosiegray 0.0
briefings 0.0
actresses 0.0
purchases 0.0
myanmar 7.56617161399e-05
heightened 0.0
shackles 0.0
perjury 0.0
dallaspd 0.0
respectfully 0.0
canton 0.0
approx 0.000120460335648
admirals 0.0
naples 0.0
brainwashed 0.0
albuquerque 0.0
supposedly 0.0
coliseum 0.0
greensboro 0.0
sheriffs 0.0
hostages 0.0
explorers 0.0
confidential 0.0
tamara 0.0
infested 0.0
depicted 0.0
devote 0.0
payroll 0.0
bombshell 0.0
advisers 0.0
watergate 0.0
mcmaster 0.0
renews 0.0
housegop 0.0
katyturnbc 0.0
pocahontas 0.0
wherein 0.0
shreds 0.0
pelosi 0.0
chrysler 0.0
collusion 0.0
deductibles 0.0
repmarkmeadows 0.0
darrellissa 0.0
insurer 0.0
dishonesty 0.0
hotlinejosh 0.0
quinnipiacpoll 0.0
apologizing 0.0
priebus 0.0
clapper 0.0
tapped 0.0
operatives 0.0
senschumer 0.0
marcorubio 0.0
viciously 0.0
leakers 0.0
bangladesh 0.00238779366426
favorable 0.0
nbcnightlynews 0.0
lockheed 0.0
untruthful 0.0
resonating 0.0
transferring 0.0
staten 0.0
humana 0.0
juanita 0.0
senses 0.0
stimulate 0.0
drooling 0.0
lakeland 0.0
burying 0.0
crafted 0.0
misrepresent 0.0
fabled 0.0
railing 0.0
billyjoel 0.0
sniper 0.0
cnnsotu 0.0
independents 0.0
detroitnews 0.0
foxbusiness 0.0
washtimes 0.0
realbencarson 0.0
meetthepress 0.0
newday 0.0
thebrodyfile 0.0
bostonherald 0.0
foxnewssunday 0.0
thefive 0.0
chriscuomo 0.0
randpaul 0.0
dcexaminer 0.0
facethenation 0.0
bretbaier 0.0
interruption 0.0
allenwest 0.0
cvpayne 0.0
dailycaller 0.0
prosecution 0.0
ballistic 0.0
vetoed 0.0
gettysburg 0.0
groping 0.0
brennan 0.0
nielson 0.0
justices 0.0
operative 0.0
surged 0.0
megynkelly 0.0
terminated 8.1960735859e-05
softbank 0.0
fronting 0.0
rigging 0.0
reprieve 0.0
pocketed 0.0
colluded 0.0
coffers 0.0
stairway 0.0
ellison 0.0
selflessly 0.0
tornadoes 0.0
levine 0.0
scranton 0.0
enslave 0.0
inappropriately 0.0
devalue 0.0
presumptive 0.0
fournier 0.0
terminate 0.0
reptommarino 0.0
kimberly 0.0
subscriptions 0.0
ingrahamangle 0.0
trajectory 6.76416100402e-05
natalie_gulbis 0.0
unheard 0.0
objectified 0.0
turnberry 0.0
djohnsonpga 0.0
bedminster 0.0
golf_com 0.0
elevation 0.0
litany 0.0
unaccountable 0.0
primaries 0.0
disrupter 0.0
runways 0.0
hashanah 0.0
unenthusiastic 0.0
undecideds 0.0
richardtrumka 0.0
renegotiate 0.0
rapists 0.0
aldridge 0.0
unsubstantiated 0.0
misrepresented 0.0
prisoner 0.0
mattis 0.0
weakening 0.0
endakennytd 0.0
taoiseach 0.0
lifeboat 0.0
enabler 0.0
emanated 0.0
lindseygrahamsc 0.0
renegotiating 0.0
waterville 0.0
zucker 0.0
berglund 0.0
suboptimal 9.56711977943e-05
steelworkers 0.0
postpone 0.0
mohammed 7.85615351233e-05
indignant 0.0
comprised 0.0
stupidest 0.0
exxonmobil 0.0
precluded 0.0
instruct 0.0
gonzales 0.0
scorned 0.0
davidmuir 0.0
harrisburg 0.0
caesars 0.0
borisep 0.0
lapierre 0.0
limbaugh 0.0
petraeus 0.0
phyllis 0.0
illegals 0.0
sanctity 0.0
neurotic 0.0
negligence 0.0
alvarez 0.0
roseanne 0.0
roanoke 0.0
theleegreenwood 0.0
mcallen 0.0
deduct 0.0
chokes 0.0
vigilance 7.75469529682e-05
pensacola 0.0
tuckercarlson 0.0
repcummings 0.0
windham 0.0
teleprompter 0.0
paulareidcbs 0.0
jeffzeleny 0.0
condoleezza 0.0
genflynn 0.0
donaldtrump 0.0
demeanor 0.0
baiting 0.0
plotted 8.93721780751e-05
aptitude 0.0
billings 0.0
approving 0.0
disconnected 0.0
superstorm 0.0
brainpower 0.0
exclaim 0.0
skyrocketed 0.0
globalism 0.0
israelipm 0.0
insurgent 0.0
sneers 0.0
unrest 0.0
scaramucci 0.0
disapproval 0.0
katiepavlich 0.0
overflow 0.0
warped 0.0
scottwalker 0.0
kirstenpowers 0.0
usarmy 0.0
schlafly 0.0
alisonforky 0.0
oppresses 0.0
pedantic 0.0
highness 0.0
benefitted 0.0
fundraisers 0.0
shinzo 0.0
augustine 0.0
ranchers 8.60678457008e-05
middletown 0.0
fiorina 0.0
pueblo 0.0
lindasuhler 0.0
lightweights 0.0
kimguilfoyle 0.0
perdue 0.0
unmasked 0.0
unmasking 0.0
judgejeanine 0.0
boycotted 0.0
outnumberedfnc 0.0
jessebwatters 0.0
podesta 0.0
kristol 0.0
interruptions 0.0
broaddrick 0.0
erictrump 0.0
outspending 0.0
irredeemable 0.0
begala 0.0
brazile 0.0
dinesh 0.0
markings 0.0
ericbolling 0.0
loudobbs 0.0
skyrocket 0.0
blumenthal 0.0
cochran 0.0
imploding 0.0
discord 0.0
jeffflake 0.0
davidwohl 0.0
bribery 0.0
repkenbuck 0.0
joshrogin 0.0
enrique 0.0
unverified 0.0
retribution 0.0
dwindling 0.0
automobile 0.0
teamtrump 0.0
subpoenaed 0.0
danscavino 0.0
joniernst 0.0
scottadamssays 0.0
senatorfischer 0.0
tabulation 0.0
trafficked 0.0
depict 0.0
unrelenting 0.0
imitating 0.0
dutchess 0.0
adelson 0.0
valuing 0.0
ricksantorum 0.0
chuckgrassley 0.0
laraleatrump 0.0
abingdon 0.0
equating 0.0
ministries 0.0
brzezinski 0.0
sentedcruz 0.0
jamesrosenfnc 0.0
leaker 0.0
realjameswoods 0.0
jim_jordan 0.0
marshablackburn 0.0
boynton 0.0
betsydevos 0.0
lawfare 0.0
larry_kudlow 0.0
stranahan 0.0
waynedupreeshow 0.0
phillypolice 0.0
scottwrasmussen 0.0
johnstown 0.0
raul_labrador 0.0
statewide 0.0
reviewjournal 0.0
oppress 0.0
underlings 0.0
bankrupted 0.0
collude 0.0
fayetteville 0.0
disqualifying 0.0
mahoning 0.0
disloyalty 0.0
americanlegion 0.0
bankruptcies 0.0
morell 0.0
ambridge 0.0
emboldens 0.0
asheville 0.0
grievous 0.0
ricketts 0.0
benefactor 0.0
dwyane 0.0
markhalperin 0.0
mayorbowser 0.0
unverifiable 0.0
savaged 0.0
wheeling 0.0
technocratic 0.0
countr 0.0
thealabamaband 0.0
relives 0.0
unwatchable 0.0
residences 0.0
gatekeeper 0.0
defections 0.0
senatorsessions 0.0
drmoore 0.0
honorably 0.0
billhemmer 0.0
shultz 0.0
aflcio 0.0
trucking 0.0
fabrications 0.0
malleable 0.0
misrepresents 0.000115072015565
decimated 0.0
arabella 0.0
mishandled 0.0
interfe 0.0
speach 0.000328144979188
iranians 0.0
fraudulently 0.0
enablers 0.0
dealmaker 0.0
terrori 0.0
anarchists 0.0
krzanich 0.0
foxnation 0.0
permeated 0.0
overruns 0.0
disposed 0.0
inaccurately 0.0
peebles 0.0
conditioners 0.0
classifie 0.0
forewarned 0.0
karlrove 0.0
palazzo 0.0
evansville 0.0
rebroadcast 0.0
bangor 0.0
secpricemd 0.0
realdonaldtru 0.0
uschamber 0.0
trumpinaugural 0.0
rawlings 0.0
churchillian 0.0
hemmer 0.0
rudygiuliani 0.0
pynance 0.0
terrybranstad 0.0
cbnnews 0.0
faithandfreedom 0.0
ovations 0.0
scpioneer 0.0
dwstweets 0.0
tgowdysc 0.0
bluffs 0.0
marist 0.0
spluttering 0.0
thetodaysgolfer 0.0
thebig_easy 0.0
hoosier 0.0
senbobcorker 0.0
larsloekke 0.0
roadblocks 0.0
manheim 0.0
greenblatt 0.0
jtanews 0.0
mitchellvii 0.0
bemoan 0.0
michiga 0.0
gennifer 0.0
gulbis 0.0
liyuan 0.0
enlisting 0.0
ainsleyearhardt 0.0
stevedoocy 0.0
foxfriendsfirst 0.0
pastormarkburns 0.0
marksimoneny 0.0
gov_gilmore 0.0
flunky 0.0
agitators 0.0
overdoses 0.0
liliantintori 0.0
leopoldo 0.0
traceadkins 0.0
gopconvention 0.0
governorsununu 0.0
laconia 0.0
teamsters 0.0
gatewaypundit 0.0
lawyerly 0.0
dissipates 0.0
realjeffreylord 0.0
nytimesdowd 0.0
scalise 0.0
straightening 0.0
energizer 0.0
montgomeriefdn 0.0
shulkin 0.0
ericgreitens 0.0
circuited 0.0
govbrewer 0.0
infringed 0.0
mcgarvey 0.0
republicanstudy 0.0
americafirstpol 0.0
fheile 0.0
phadraig 0.0
wiedefeld 0.0
coddington 0.0
kravis 0.0
fighterjet 0.0
shinzō 0.0
votestand 0.0
romoabcnews 0.0
moskowitzeva 0.0
drgoodspine 0.0
levisteveholt 0.0
untrusting 0.0
sleazebag 0.0
lbperfectmaine 0.0
timken 0.0
newhouse 0.0
evancho 0.0
franklin_graham 0.0
eazymf_e 0.0
busineses 0.0
substantialy 0.0
rexnord 0.0
sdcritic 0.0
highonhillcrest 0.0
fiiibuster 0.0
koster 0.0
saucier 0.0
t_lineberger 0.0
cissieglynch 0.0
saysgabrielle 0.0
ravenrantz 0.0
mayorrgiuliani 0.0
deplorablecbtp 0.0
tanden 0.0
keithrowland 0.0
kinston 0.0
sjsopio 0.0
aztrumptrain 0.0
therealmogul 0.0
unclassify 0.0
firebombed 0.0
wikileakes 0.0
davidshiloach 0.0
trumpwomenstour 0.0
mistreats 0.0
willey 0.0
dornsife 0.0
henryleledog 0.0
eericmyers 0.0
atensnut 0.0
arouses 0.0
anyonetennis 0.0
flifeforce 0.0
geeveem 0.0
susiesentinel 0.0
bcuzimdamomma 0.0
freedavidking 0.0
ifdanyt 0.0
arsenmissyirvin 0.0
nycmia 0.0
bigdog_joey 0.0
roadkingl 0.0
decieved 0.0
waukesha 0.0
creati 0.0
thallensboucher 0.0
kenansville 0.0
tarukmatuk 0.0
angpiazza 0.0
laughingstock 0.0
ak_tweet 0.0
kiiara 0.0
jerryjrfalwell 0.0
ghfanlovessonny 0.0
bishopwtjackson 0.0
cynthialummis 0.0
repreneeellmers 0.0
trumpdc 0.0
stvzbnk 0.0
bakari 0.0
adhd_fa 0.0
parisdennard 0.0
ronnieclemmons 0.0
takouis 0.0
lblackvelvet 0.0
chernuna 0.0
annebellar 0.0
presidencies 0.0
rsbnetwork 0.0
meequalsfree 0.0
pmnorlando 0.0
rhondar 0.0
patrici 0.0
lindaharden 0.0
trumpocrats 0.0
lewenskimo 0.0
trump_videos 0.0
sinabunz_tm 0.0
eyecandytmgayle 0.0
catonglass 0.0
billynungesser 0.0
samaritanspurse 0.0
zulu_out 0.0
willspeakout 0.0
laurencristmann 0.0
c_lynne_ryan 0.0
enemywithinn 0.0
elsolarverde 0.0
creats 0.0
dbongino 0.0
bongino 0.0
carl_c_icahn 0.0
fieldoffight 0.0
reploubarletta 0.0
mainegop 0.0
gatewaypun 0.0
mechanicsburg 0.0
pnehlen 0.0
patrioticpepe 0.0
insticts 0.0
borderless 0.0
lallyray 0.0
glowingly 0.0
spinnnn 0.0
flamed 0.0
nancynielsenn 0.0
olimauritania 0.0
theresa_cali 0.0
roxanetancredi 0.0
litigate 0.0
trumpdoonbeg 0.0
berrien 0.0
nbcpolitics 0.0
jakeda 0.0
barrasso 0.0
bluedogdemky 0.0
iowa_trump 0.0
arnold_ziffel 0.0
patricia_graf 0.0
brazosboys 0.0
jimvitari 0.0
trumpturnberry 0.0
trumpscotland 0.0
darrenwaggener 0.0
allegrettivicki 0.0
justininglv 0.0
chrisboydbrew 0.0
votetrumpmaga 0.0
realericjallen 0.0
insinuated 0.0
clubgoers 0.0
ausbiz 0.0
freemarketsara 0.0
senatorjeffsessions 0.0
mabynshingleton 0.0
dale_dangler 0.0
nauthizjane 0.0
richardweaving 0.0
mariadaq 0.0
sara_wejesa 0.0
jimhewitt 0.0
joedefranco 0.0
wolfstopper 0.0
djd_thunder 0.0
excoriates 0.0
rapidcraft 0.0
telepromter 0.0
liliannyleebou 0.0
lunsfordwhitney 0.0
free_sa_bd 0.0
stockdaleism 0.0
admonished 0.0
nbcdfw 0.0
frankylamouche 0.0
sandiegopd 0.0
tombarrackjr 0.0
buiidthewall 0.0
pipersul 0.0
oasisupernova 0.0
jknatter 0.0
jasondovesq 0.0
ed_klein 0.0
overregulates 0.0
dubilujane 0.0
rbacliff 0.0
ltstevenlrogers 0.0
rowanne 0.0
shoneep 0.0
magicmetalninja 0.0
barbaro 0.0
michael_favreau 0.0
christichat 0.0
mai_ttag 0.0
thydanielflores 0.0
costakenneth 0.0
svhlevi 0.0
johnjohnlacca 0.0
ladytsbrug 0.0
frankdallasagg 0.0
ladyjoanne 0.0
gerriweth 0.0
longbyfive 0.0
wesleyfelixpsi 0.0
manakoa 0.0
ragdollive 0.0
xgodfatherxzx 0.0
trumptrainrider 0.0
aprillajune 0.0
takingit_back 0.0
distlerjoyce 0.0
queencharlotteo 0.0
kellyriddell 0.0
valdosta_monkey 0.0
daybastrop 0.0
nathandwilsonfl 0.0
mathewjmari 0.0
stupor 0.0
matandsher 0.0
edgoeas 0.0
lynnepatton 0.0
erictrumpfdn 0.0
mikeozanian 0.0
lexingtonbobby 0.0
annettejeanne 0.0
andrebauer 0.0
waterbury 0.0
greenskydeb 0.0
keksec__org 0.0
ashleyedam 0.0
trumptbird 0.0
herb_stamper 0.0
senfrankniceley 0.0
anneslimo 0.0
agentvf 0.0
hornick 0.0
gqforbes 0.0
governor_savage 0.0
carolde 0.0
fugedaboudit 0.0
dnglax 0.0
alexnightrasor 0.0
lilrachiepoo 0.0
