awesome 0.000234736340004
christmas 0.0
trying 0.000704188542896
moment 0.000212398593333
wonderful 3.95501132666e-05
seeing 0.000253201857539
recommend 5.24064579972e-05
anybody 0.0
worked 0.0001903832172
direct 4.98584780094e-05
others 0.000984649776448
currently 0.000209421098865
better 0.00128877817246
please 0.000635480394074
social 0.0
around 0.000278654739991
people 0.000940459747469
leaving 7.97482654854e-05
morning 0.000315181108683
general 0.0
investigate 0.0
damage 5.74148552322e-05
everything 0.000210120739122
twitter 0.000491605051875
though 0.000328190717499
friend 0.000211256562869
watched 0.0001186503398
beautiful 7.21485242867e-05
anything 0.000355911497871
helped 7.67743639653e-05
managing 0.000158935821584
updated 0.000222656571678
thinking 0.000214701548372
finally 0.000178917956977
caught 0.0
believe 0.000488961978765
already 0.000349258556261
couple 0.000114850083638
orlando 0.0
research 4.69483622006e-05
chance 0.000630362217366
meaning 0.000362529643808
annual 0.000282489375153
quickly 0.00014658353766
growing 0.0
probably 0.00041771117076
should 4.62898956636e-05
changed 0.000374637506331
history 0.00021644557286
center 0.000229503545085
museum 6.08065767769e-05
behind 0.000104495527497
pretty 0.000393619505349
really 0.000420241478244
expensive 0.0
little 0.000209555133756
earlier 0.00168003642792
realized 0.0
forget 7.09906524519e-05
someone 0.000317740197037
mostly 0.000106385526454
worker 0.0
safety 0.0
shuttle 0.0
program 0.000146163031951
things 0.000417982109986
related 0.000205942955801
visiting 4.83038578502e-05
available 0.000363673789572
afternoons 0.0
perfect 7.29312705554e-05
different 0.000854187594889
numbers 0.000306417074394
delays 0.0
person 0.000245802525938
watching 0.000211256562869
passed 0.000384285209941
celebrates 0.0
minutes 0.000108515081802
travel 0.0
daughter 0.0
average 0.00045133870539
positive 0.000290787322945
outside 0.0
looking 0.000698517112522
forward 0.000359771021292
plenty 0.000311658338171
agreed 0.000516431984207
raising 0.0
listened 5.54938157218e-05
afraid 4.52615747089e-05
impression 0.0
drawing 0.000249707818538
favorite 0.000162568439943
magnet 0.0
picture 0.0
historic 0.000158628323798
instead 3.94427731432e-05
appreciate 0.000865225632304
husband 0.0
international 0.000173167033791
market 0.00146367349949
couldn 3.64656352777e-05
remember 0.000175100615935
impressive 4.81659097788e-05
familiar 0.000112360359308
friends 0.000140837708579
despite 9.94284931429e-05
impossible 0.0
everyone 0.000455261601431
florida 0.000154912535774
always 0.000557309479981
months 0.000146256678205
moving 7.5333704662e-05
meeting 0.000215281274278
google 8.80348961628e-05
answer 0.000394682336176
together 0.0
inside 0.000182328176388
smaller 0.0
missed 3.54953262259e-05
active 5.63539049144e-05
longer 0.000485051456248
enough 0.000495596717778
driving 0.000128448693084
building 0.0
technician 0.0
enjoying 4.28162310281e-05
london 0.0
kennedy 0.000142183911245
recent 0.000324029269645
gotten 0.0
amazing 6.98517112522e-05
attention 0.000356920066794
richard 0.0
progress 0.000242907019402
tomorrow 0.000490281724618
george 0.0
excited 7.31283391026e-05
campaigning 0.0
understand 0.000878136526417
following 0.000257334547958
learning 8.68233232769e-05
evening 4.0091832467e-05
special 7.06089326749e-05
secret 3.92290801876e-05
across 0.0
comparison 6.54577212135e-05
surprised 0.0
anymore 0.0
rather 7.86715255804e-05
showing 3.73626421659e-05
saying 0.000950668408334
tweeted 0.000277739373982
updates 0.0
thoughts 0.000594580823604
exactly 0.00075742290496
except 4.46339569632e-05
getting 0.000840482956488
nothing 0.000420241478244
tweets 0.000347361808618
course 0.00061491879688
stephen 0.0
looked 7.95315819981e-05
difficult 0.000784714611283
stages 0.0
office 0.000227226871488
decisions 5.28761079325e-05
brought 3.88055875241e-05
biggest 3.60742621433e-05
thrilled 0.000160056530916
entire 0.000194554894793
something 0.000385221355057
closing 0.000104193679162
anyone 0.000317740197037
taking 0.000385221355057
recently 0.000182063291453
interesting 0.000858367185413
original 0.000372846619585
flying 0.0
happening 7.63596979493e-05
sometimes 0.0
stopped 4.10886781859e-05
yesterday 0.000388349129712
service 0.000269439191903
serious 0.000224782503799
emails 0.0
afford 0.000226114003927
british 0.0
contact 9.60570117653e-05
either 0.000267258942823
second 0.000812002725761
accident 0.000129129096218
checking 4.53884668074e-05
volunteers 0.0
indeed 0.000382042508485
island 9.9141219808e-05
hearing 7.8245446668e-05
choose 8.24024411718e-05
staying 0.000189398004387
another 0.000733442968148
address 0.000141645822531
display 0.0
originally 0.0
compare 0.0
landing 0.000127818768842
perhaps 0.000264380539663
weekend 7.09906524519e-05
appear 0.000159102227229
anyway 0.0
theory 0.0
recognize 0.0
working 0.000175100615935
bigger 0.000205443390929
screen 4.73495010966e-05
treated 0.0
laughing 0.00145393661472
wanted 0.000141599062222
current 0.000413141277917
grateful 0.0
friendship 0.0
family 0.000280160985496
listening 7.67743639653e-05
stream 0.0
wedding 0.0
sharing 0.000412012205859
double 0.0
especially 7.76111750483e-05
middle 8.04023893993e-05
waiting 7.17604247593e-05
definitely 3.82833612128e-05
walking 0.0
account 0.000246532069115
completely 0.00024924627681
thought 0.000423653596049
reaction 4.78916418854e-05
accept 0.000134275737219
possible 0.000592977054209
simple 0.000122259649307
manufacturing 0.0
destroyed 0.0
professional 0.000986918070876
friendly 5.20968395808e-05
members 4.41398799913e-05
supposed 9.31035809001e-05
astronauts 0.0
component 0.0
business 0.000226613094086
absolutely 7.49275012662e-05
sending 4.06421099858e-05
delivering 0.0
heavily 0.0
biased 7.21720993044e-05
introducing 5.61801796541e-05
congrats 0.000294096626238
community 8.63445331792e-05
greatest 3.82833612128e-05
posted 8.28548043522e-05
saturday 7.39222358427e-05
wednesday 0.00016892323252
confused 0.0
explain 0.000163458713707
broken 4.34116616385e-05
chicago 4.76195167317e-05
fairly 0.0
hoping 0.000126344685209
relationship 4.70815625254e-05
actually 0.000753484459972
basket 0.0
myself 0.000137702127051
pocket 0.0
argument 0.000161991688581
decent 6.22202368617e-05
school 0.0
thursday 0.0
selling 0.0
talented 4.60299553341e-05
discuss 9.02702863998e-05
celebrate 7.74010280262e-05
celebrating 8.3538904956e-05
anniversary 0.0
contest 0.0
internet 0.0
figure 0.000209421098865
inspired 8.4694216426e-05
sitting 3.95501132666e-05
complaining 0.000200525850246
playing 0.000427093797445
street 0.0
points 0.000269301891958
advice 4.10886781859e-05
forever 3.95501132666e-05
congress 6.08065767769e-05
imagine 0.000156066760984
problem 0.00075130306897
played 0.000547718126676
canadian 0.000181238977344
pulling 5.96389196477e-05
keeping 3.9122723334e-05
lovely 4.40174480814e-05
chinese 0.0
unlike 0.0
allowed 0.000368239642673
otherwise 4.97142465715e-05
afternoon 0.0
planned 0.0
strange 0.0
notice 0.0
difference 0.000344550250915
author 0.000292545696156
intent 0.0
letting 0.0
system 0.000525286413247
almost 0.000175100615935
details 0.000497683695767
experience 0.000109692508654
viewed 8.37825130695e-05
living 0.0
bright 0.0
normal 9.38967244012e-05
practically 0.000101321262586
before 0.000303789942371
monday 7.31283391026e-05
realize 0.0
currency 0.0
sleeping 0.0
wanting 0.0
science 0.0
tweeting 7.99656250533e-05
forgot 4.38954450057e-05
herself 0.0
disaster 0.0
happens 3.62693990263e-05
silence 0.0
congratulations 0.000154383026052
natural 0.0
raised 4.57719405062e-05
mission 0.0
ironic 0.0
testing 0.000122810839529
deleted 0.000139064120458
channels 0.0
surprising 5.65285009817e-05
reference 0.000118516479969
forgotten 0.0
trouble 4.32917584478e-05
setting 4.97142465715e-05
reminds 0.0
fantastic 0.000123942383375
loving 0.0
hardly 0.000130016543697
complete 8.04023893993e-05
membership 0.0
nearly 0.0
spirit 4.53884668074e-05
launched 0.0
stories 0.000340840307232
including 0.000505842726461
inviting 7.21720993044e-05
wouldn 0.000226613094086
choice 0.000410989063825
offended 0.0
conversation 0.000298066158919
disrespectful 0.000102611478328
making 0.000523887834391
expect 0.000167997465858
discussion 0.000255171740326
believes 0.000122810839529
occasions 0.0
response 0.000164804882344
brings 0.0
subject 0.000469559275986
greetings 0.0
anytime 0.00011518973031
protected 0.0
location 0.0
thomas 5.49877752112e-05
missile 0.0
needed 3.73626421659e-05
seriously 3.87005140131e-05
spending 0.000217659895017
groups 5.65285009817e-05
modern 0.0
welcome 0.000212398593333
totally 0.000161683818749
evenings 0.0
laughed 0.0
running 0.0
finished 8.37684395459e-05
strong 0.00032466835929
hopefully 4.45097791401e-05
respond 5.28761079325e-05
message 0.0
coming 0.000663591256896
thankful 0.0
temporary 0.0
issues 0.000167077809912
challenge 3.83871819827e-05
happen 0.000107061713068
giving 0.000212398593333
turkey 0.0
common 4.32917584478e-05
pressed 0.0
healthcare 0.0
benefits 0.0
situation 4.57719405062e-05
workers 0.0
company 3.96577851993e-05
health 0.000206570638959
insurance 0.000241651969792
change 0.000315181108683
august 4.94275631218e-05
mental 0.000208387358323
carrier 0.0
neither 0.0
lowest 7.16278406923e-05
decide 8.68233232769e-05
happened 0.000147445823717
demand 9.23193660333e-05
generally 0.000141654146829
personal 0.000266536504079
beyond 0.000234736340004
passion 5.30340757429e-05
question 0.000715671827907
doctor 5.3673210051e-05
sacrifices 0.0
respected 0.0
position 0.000238776567803
increased 0.000142717735198
losing 0.000215861332948
strain 0.000402774579363
respect 0.000459400334554
collapse 0.0
shouldn 0.000251305318638
career 0.000406421099858
visited 0.0
challenger 0.0
reason 0.000331753103363
simply 0.000350190942165
audience 0.0
employees 0.000268312396285
accounts 5.85091392313e-05
attacked 0.0
involved 0.000122259649307
extreme 6.06092286995e-05
unhappy 0.0
caused 6.00238058014e-05
knocked 0.0
reality 4.16550620878e-05
mention 0.000259033599538
extremely 0.000203540700257
burned 0.0
without 0.000423653596049
falling 0.0
problems 8.63445331792e-05
timing 6.22202368617e-05
highly 0.000149575434028
online 3.7666852331e-05
animals 0.0
called 0.000105628281434
scientists 0.0
pictures 0.0
camera 0.0
heading 0.000166620248351
terribly 0.0
theater 0.0
paying 0.00027309493718
complex 0.0
sunday 3.61716939341e-05
nights 0.0
enthusiastic 0.0
increasing 0.0
traffic 0.0
opposite 5.74148552322e-05
lookout 0.0
reached 0.000155829169086
changing 0.000128803516948
harder 4.87210106505e-05
silent 5.94480597592e-05
speaking 4.0091832467e-05
careful 0.0
november 4.69483622006e-05
answered 0.000110648634741
number 0.000215281274278
atlantic 0.0
stupid 9.74420213009e-05
budget 0.0
unless 0.000129516799769
calling 7.35241565595e-05
lately 6.1005049351e-05
levels 5.38348430209e-05
focused 0.000113760681532
ridiculous 9.66077157004e-05
financially 0.0
knowing 4.84423544243e-05
former 0.000572226825058
covers 0.00011340795326
mountain 0.0
suffers 0.0
schedule 0.000108648582968
greatly 0.0
friday 3.54953262259e-05
dramatic 0.000133683900164
failure 0.0
achieve 5.86949094983e-05
winner 7.78219579171e-05
closes 0.0
bother 6.68419500819e-05
directly 0.000115551620396
quality 4.52615747089e-05
tearing 0.0
father 7.97482654854e-05
wishes 4.5643646282e-05
collar 0.0
ground 0.0
matter 0.000225390920691
strategy 0.0
themselves 6.12046593098e-05
asking 0.000481793856545
mobile 0.0
device 7.6550051419e-05
computer 0.0
impressed 0.000106068151486
complain 0.0
dinner 3.87005140131e-05
suffering 6.59130458998e-05
single 0.0
parent 0.0
packed 0.0
catching 0.000155369847346
neglected 0.0
somewhat 8.65705480564e-05
approved 6.61429598863e-05
definition 5.75948651548e-05
energy 0.0
meltdown 0.0
events 8.68233232769e-05
europe 0.0
holiday 8.06218027618e-05
status 0.000105437706595
update 0.000245188070561
outage 0.0
customers 0.0
holding 4.14274021761e-05
survive 0.0
electric 0.0
picked 0.000174610853655
missing 0.000112087926498
surprise 7.49275012662e-05
german 0.0
officially 4.08646784268e-05
french 0.0
global 0.0
follow 0.000422513125738
opinion 0.0010041602182
design 0.0
allows 0.0
promoting 6.02178555651e-05
volunteer 0.0
negative 0.000153103044196
official 0.000470232021144
brutal 0.0
cotton 0.0
jersey 0.0
mistake 0.000242211772121
fixing 0.000907234116149
france 0.0
proper 0.0
peaceful 0.0
thinks 4.08646784268e-05
competition 9.46990021933e-05
industry 0.000148282689366
easier 0.0
successful 4.78916418854e-05
trending 0.0
leadership 0.000164462147083
agrees 6.8777550385e-05
organized 8.87081415309e-05
enthusiasm 0.0
turnout 0.0
showed 4.40174480814e-05
attended 7.03032764384e-05
trumps 0.0
networks 7.71776691647e-05
experienced 0.0
interested 0.000225045844743
effect 0.000230798415083
dislike 0.0
success 7.91002265332e-05
dreams 0.0
protect 4.48836486597e-05
rumors 0.0
arguing 0.000140088604878
referred 8.26527326531e-05
waving 0.0
growth 0.0
control 0.000312981786672
happier 0.0
likely 0.00154491708712
coincidence 0.0
cancel 0.0
project 0.0
laying 0.0
lesson 0.0
replacement 0.000148876768281
invited 0.0
continuing 0.000129571406815
clearance 0.0
treating 0.0
allowing 0.000184216259294
arrived 0.0
unable 7.56293323721e-05
opening 0.00011422993032
popular 4.78916418854e-05
followed 0.0002793107427
statement 0.000590050068496
enjoyed 0.000290787322945
spectacular 6.39093844208e-05
smoothly 0.0
length 0.000207081726244
wonder 3.79737427964e-05
matters 4.60299553341e-05
function 7.81408229489e-05
shared 4.80285058827e-05
connection 5.70576024338e-05
benefit 0.000175581780023
terrible 0.0
continues 0.0
equally 0.0
session 9.15438810124e-05
routine 0.0
associated 0.0
exciting 0.0
imagination 8.37825130695e-05
decides 0.0
cheering 0.0
spring 0.000984688739603
fallen 0.0
beautifully 0.0
places 4.1769452478e-05
entered 0.0
feedback 0.0
thousands 0.0
properly 0.0
informed 6.16073440549e-05
typical 0.000130464543215
continue 0.000404209546873
attend 5.27188532975e-05
excuse 5.07366381973e-05
female 0.0
recovery 0.000115915400257
closer 0.00030726811504
beginning 0.0
introduce 0.0
bought 0.0
multiple 0.000371238530201
slogan 0.0
covered 0.0
choices 0.00017011192989
unpredictable 0.0
enterprise 0.0
several 0.000403531610597
surrounded 7.94679107921e-05
dealing 0.000182419730331
teacher 0.0
training 0.000771603935725
auditorium 0.0
passing 9.46990021933e-05
become 3.65641695513e-05
presentation 7.10919556224e-05
spread 3.99828125266e-05
sooooo 0.0
season 0.00223855387776
putting 3.67620782798e-05
weight 0.0
stephanie 0.0
rapidly 0.0
follows 0.0
explained 0.000622202368617
stance 0.0
storms 0.0
headed 4.62898956636e-05
sleepy 0.0
returns 4.69483622006e-05
expected 0.00110327239095
resources 0.0
considering 0.000234779637993
fabric 0.0
suspect 0.0
constantly 0.0
condolences 7.6550051419e-05
appreciated 0.000165466919512
register 0.0
manage 0.0
transition 0.000135592613671
smooth 0.0
flowers 0.0
gained 7.94679107921e-05
savage 0.0
somebody 0.0
contract 0.00218193223318
furious 0.0
covering 0.000162481129886
boxing 0.0
credit 0.000129516799769
patriots 0.0
player 0.0014658353766
chemistry 0.000153100102838
grandkids 0.0
offensive 6.3479356212e-05
charles 0.000112360359308
fighting 3.98741327427e-05
atlanta 6.06092286995e-05
donald 0.0
mexico 5.05887320621e-05
unreal 0.0
police 4.51351431999e-05
represent 0.0
president 0.000155643915834
talking 0.00105343939688
unbelievable 0.0
alabama 0.0
slowest 0.0
conference 0.000303881631469
america 0.000223570958058
michigan 0.0
everybody 0.0
judgment 0.0
carolina 0.0
amount 0.000147429659914
houston 0.000119277839295
everyday 9.94284931429e-05
michael 7.91002265332e-05
protecting 0.0
million 0.000330858704518
election 4.83038578502e-05
honesty 0.0
telling 0.000238594745994
correct 0.000812432577598
pulled 5.25623054272e-05
attack 0.0
americans 4.87210106505e-05
salaries 0.000513057391638
killed 0.0
louisville 0.0
horrible 5.96389196477e-05
coverage 0.000142452741811
dallas 0.000115551620396
jacksonville 0.0
league 0.00280785593541
united 0.0
college 8.75477355411e-05
refuse 0.0
barackobama 0.0
hillary 0.0
clinton 0.0
presidency 0.0
manning 0.0
stupidity 0.0
american 0.000297290411802
remain 0.000739276520996
founder 0.0
illegal 0.0
arizona 0.000207836209865
opinions 0.000360142834808
retire 0.0
triumph 0.0
stealing 0.0
speeches 0.0
innocent 6.70780990711e-05
scared 0.0
golden 0.0
straight 0.000155222350097
removed 0.0
answers 0.0001805405728
product 0.0
created 4.21148950696e-05
snoopdogg 0.0
worlds 0.0
record 0.000182820847757
stamina 0.0
weapon 0.0
funeral 7.74957703938e-05
registered 0.0
minnesota 0.0
committed 0.0
journey 9.10316457266e-05
disrespect 0.0
brother 0.000256190139961
prayers 5.48207156943e-05
documentary 0.0
boston 0.0
addition 0.000427035345457
korean 0.0
church 0.0
advantage 5.98308311111e-05
honestly 0.000350023164148
defeat 0.0
baltimore 0.000243603587567
lifetime 5.28761079325e-05
captain 0.0
retired 0.0
country 0.000108515081802
valley 0.0
mailbox 0.0
speedy 9.09855435036e-05
ending 9.41631250509e-05
finish 0.0
employee 0.0
university 5.01487450434e-05
remembered 0.000132285919773
nominated 0.0
praying 0.0
insane 0.000155369847346
national 0.000151484580992
reform 0.0
oregon 0.0
shooting 0.0
cancer 0.000176069792326
australia 5.19430563619e-05
deserve 0.0
legend 0.000140050439978
mother 7.80333804921e-05
murder 0.0
creating 9.63318195576e-05
powerful 0.0
carson 0.0
palmer 0.0
branch 0.0
breaking 0.000113000556993
dollars 5.86949094983e-05
questions 0.000502322973315
racist 0.0
charged 6.63744015518e-05
girlfriend 0.0
performance 8.10627136324e-05
refreshing 0.0
reading 0.000557419522128
corrupt 0.0
penalty 0.000210909829315
writer 0.000106068151486
denver 0.0
create 4.05313568162e-05
admire 0.0
nobody 0.0
government 5.24064579972e-05
politics 0.0
comeback 0.0
charities 8.22841382875e-05
method 0.0
sample 7.47323254839e-05
bringing 3.93357627902e-05
celebs 0.0
stadium 5.92582399843e-05
funniest 0.0
according 0.000185682387658
threat 0.0
heroin 0.0
honest 8.70639580067e-05
rolling 0.0
became 4.37738677706e-05
feature 4.80285058827e-05
decision 0.000654790701205
counting 0.0
verified 0.0
signing 0.0016065248156
adding 0.000110987631444
embrace 6.12046593098e-05
pressure 4.76195167317e-05
celebrities 0.0
dearly 0.0
facebook 7.49275012662e-05
divided 7.6550051419e-05
extension 0.00177508639079
lawyer 0.0
charleston 0.0
brazilian 0.0
basketball 0.0
campaign 0.0
determine 0.0
whether 0.000354101950085
praise 0.000118896119518
factory 0.0
arrested 0.0
investments 0.0
activity 6.8283473413e-05
comments 0.000426983566601
wounded 0.0
endorsement 0.0
williams 0.000111670614218
future 0.00032466835929
struggled 9.77147499654e-05
blessed 0.0
sabotage 0.0
warrior 7.44383841403e-05
softball 0.0
cheating 0.0
voting 0.000388550399306
instincts 0.0
collins 0.000158262737266
succeed 0.000131369279114
commercial 0.0
religion 0.0
boring 0.0
acting 0.0
established 7.68624467192e-05
warriors 7.21720993044e-05
because 0.000100882902649
sensitive 0.000146573626786
smiling 0.0
traitor 0.0
cleveland 0.000138054484163
agents 0.00164411116064
periscope 0.0
killing 4.46339569632e-05
choosing 0.000139064120458
phillips 0.0010975134412
instagram 0.0
opponent 0.0
detroit 6.50082718486e-05
cousin 0.0
honored 0.000388651231043
nonsense 0.0
dedication 0.0
hammer 0.0
proven 0.000150655512188
talent 4.66834799925e-05
governors 0.0
knocking 0.0
russian 0.0
consecutive 0.0
skills 0.0
citizens 0.0
cameras 0.0
phones 0.0
california 5.01487450434e-05
commitment 0.0
maryland 0.0
seconds 0.0
placed 0.000219014317925
listen 3.61716939341e-05
dominating 0.0
whatever 0.000321609557597
wherever 0.0
fought 5.67039766299e-05
compete 0.0
lauderdale 0.0
injured 0.000186044216009
billion 0.0
shoutout 0.0
depressing 0.0
guilty 0.000237032959937
carpet 0.0
harvard 0.0
absolute 0.0
handle 4.5643646282e-05
promise 4.1541046135e-05
hosting 4.5900709017e-05
longest 0.000124440473723
generation 0.0
criminal 0.0
tuesday 7.95315819981e-05
garbage 0.0
goldman 0.0
ronald 0.0
locker 0.0
leader 9.1287292564e-05
desperately 0.0
character 4.68156693068e-05
chancellor 0.0
proving 0.0
jackson 0.000113057001963
interview 0.000462684947232
buffalo 0.0
insight 0.000124440473723
obviously 0.0003440025398
battle 4.06421099858e-05
destroy 0.0
killer 0.0
personally 5.05887320621e-05
relentless 0.0
winning 7.47252843318e-05
charlotte 0.0
trafficking 0.0
defense 0.00028090089827
japanese 0.000192379217845
causing 0.0
arabia 0.0
rapist 0.0
writing 0.000364782211346
society 9.66077157004e-05
officers 0.0
ambushed 0.0
sources 0.00843049977912
kentucky 0.0
incredible 0.0
ungrateful 0.0
kissing 0.0
minute 3.94427731432e-05
luther 0.0
foreign 5.79577001283e-05
phoenix 7.2447451272e-05
champions 0.0
virginia 0.0
streak 0.000238403732376
orange 0.000104812915994
policy 0.000102669248858
intentional 0.0
reminder 8.42297901393e-05
evidence 0.0
presidents 0.0
judged 0.0
accused 0.000138557473243
intentions 0.0
facing 0.000230379460619
freedom 0.0
actions 5.94480597592e-05
debating 0.0
consequence 0.0
coughing 0.0
clearly 0.000266316254681
invite 9.9141219808e-05
central 4.61596830167e-05
washington 0.000138869686991
tougher 0.0
veteran 0.000206332651155
division 0.0
overrated 0.0
veterans 0.000137059271737
stronger 5.56641429194e-05
bowden 0.0
promised 5.74148552322e-05
catches 0.0
worried 5.05887320621e-05
security 9.28411938291e-05
sanctuary 0.0
reverse 0.0
immediately 0.0
television 0.0
entitled 0.000151867085074
racism 0.0
highest 0.000345992941853
approve 0.0
turning 8.75477355411e-05
georgia 7.35711565436e-05
tennessee 0.0
legacy 0.0
leaked 0.0
choked 0.0
helping 0.000153965252516
tickets 0.0
suspending 0.0
suspend 0.0
willing 0.000212771052908
december 0.0
beating 0.000178916758943
basically 0.0
return 0.000541807196183
escape 6.26349065508e-05
locked 0.0
unacceptable 0.0
network 0.000293167075319
language 0.000245009570643
invest 0.0
creation 0.0
followers 4.52615747089e-05
schools 0.0
menace 0.0
movies 0.0
entity 0.0
children 3.8491313129e-05
nation 0.0
flexible 0.0
review 8.33101241757e-05
knowledge 9.94284931429e-05
begins 4.18842197729e-05
vanessa 0.0
forbes 0.0
parade 0.0
fireworks 0.0
shoulder 0.000208596180687
produced 0.0
consider 0.000417785372231
latest 0.00166633039091
signed 0.00050174483467
shower 0.0
thunder 0.0
charity 4.88611792199e-05
germany 0.0
advance 0.000101770350128
explaining 0.000120825984896
millions 0.0
blessings 0.0
diamond 0.0
dollar 5.88816758573e-05
monsters 0.0
rigged 0.0
conduct 0.0
cooked 0.0
turned 3.83871819827e-05
criticism 6.50082718486e-05
responded 0.000151258664744
depending 0.0
jackie 0.000173141096113
charge 0.0
ticket 9.38967244012e-05
finest 6.90272420814e-05
sanders 0.000461174680315
includes 0.000468871556227
dealers 0.0
against 0.0
benjamin 0.0
impact 9.36313386136e-05
families 0.000134275737219
selection 0.000133214782667
hitting 0.00037346783994
announced 0.000127742639537
decided 0.000125652659319
professor 0.0
itself 0.000118896119518
promote 0.0
mexican 0.0
owners 0.000875106180148
guards 0.0
guarantee 0.000616766722818
beliefs 0.0
citizen 0.0
states 8.82797599825e-05
memorial 5.68803407662e-05
decades 0.0
landed 0.0
ultimate 0.0
mcdonald 0.0
twenty 0.0
hispanics 0.0
financial 0.00012321468811
payments 9.39308331255e-05
grabbing 0.0
permit 0.0
shield 0.0
disney 0.0
kansas 7.00443024388e-05
agreement 0.00226749961927
source 0.00697833723594
dismiss 9.49706668361e-05
talents 0.0
homework 7.78168034728e-05
expectations 0.0
joining 0.000206006102929
eugene 0.0
reasons 8.15064328713e-05
talked 0.000220087240407
released 0.000244519298614
reaching 0.000128252811897
release 0.000230323091896
promoter 0.0
circumstances 0.000228721299008
scheme 0.0
warwick 0.0
highlight 0.0
within 0.00013390187089
stacked 0.0
speech 4.19993664646e-05
standing 3.99828125266e-05
higher 0.000234741811003
justice 0.0
served 0.0
speaks 0.0
navarro 0.0
dropped 0.0
consideration 0.0
predicted 0.0
strength 0.000193769417697
andrew 0.000491890082405
replace 5.51556398373e-05
incredibly 0.0
private 0.0
integrity 0.0
sanford 0.0
ignored 0.0
neighbors 0.0
affection 0.0
minimum 0.0
direction 0.0
enemies 0.0
exclusive 4.1541046135e-05
prison 6.18104457528e-05
himself 0.000168540538962
investigation 0.000193693644327
disgusting 0.0
congratulate 0.0
philly 6.54577212135e-05
rights 9.44305483543e-05
replaced 0.0
recognition 0.0
maintain 0.0
tallahassee 0.0
handed 0.000268312396285
victory 5.0003309164e-05
classy 6.97872397038e-05
lifted 0.0
terrorist 0.0
productive 0.0
tribute 4.80285058827e-05
threatened 0.0
insecure 0.0
horror 0.0
discovery 0.0
convention 0.0
understanding 0.0
action 7.5130306897e-05
figures 0.0
having 0.0
marine 0.0
announces 0.000160536970969
wallace 8.61583320915e-05
speaker 0.0
stevens 0.0
cybersecurity 0.0
apologize 6.45645481091e-05
continued 0.0
journalist 0.000249707818538
libelous 0.0
formation 0.0
letter 0.0
discussed 0.000624269546346
therapy 0.0
widespread 0.0
untrue 0.0
written 0.000469681923261
conferences 0.0
results 9.15438810124e-05
papers 0.0
winter 0.00042614550987
marching 0.0
sessions 6.20147386698e-05
democrats 0.0
eastern 0.0
scientist 0.0
represented 0.000156935769812
waters 0.0
journal 0.0
foundation 0.000149575434028
access 4.30531832514e-05
analysis 5.75948651548e-05
writes 0.0
colorado 0.0
medical 0.000230379460619
tremendous 0.000132285919773
nytimes 0.0
public 4.06421099858e-05
cheaters 0.000144329687248
cannot 0.000429183592707
reveals 0.0
immunity 0.0
threatens 0.0
candidate 0.000166992428758
brilliant 4.29345056494e-05
wisconsin 0.0
studies 0.0
measure 0.000128252811897
compared 0.0
donors 0.0
graham 0.0
incorrect 0.000169900340397
headline 0.000109641431389
careers 0.0
answering 0.0
streaming 0.0
leaders 5.10343480652e-05
supreme 0.0
nominee 0.0
gorsuch 0.0
protest 0.0
immigration 0.0
policies 6.3479356212e-05
administration 0.0
defend 0.0
excitement 0.0
funding 0.0
surveillance 0.0
transfer 0.0
conspiracy 0.0
horrifying 0.0
formed 0.0
interviews 0.0
retreat 0.0
alliance 0.0
platform 0.0
editing 0.0
february 0.000102971477901
association 0.000138054484163
airwaves 0.0
hamilton 0.000207836209865
futures 0.0
borders 0.0
border 0.0
uranium 0.0
misleading 0.0
january 9.68847088486e-05
topics 7.6550051419e-05
unprecedented 0.0
airplane 0.0
tragic 6.32663167558e-05
philadelphia 0.0
funded 0.0
secure 0.0
income 0.000128689576243
hurricane 0.0
breakdown 0.000370734512929
countries 0.0
linked 0.000130464543215
broadcast 0.000231103240792
african 0.000387387288654
triple 0.000255637537683
provide 5.13346244291e-05
enhance 0.0
development 0.0
companies 0.0
discussions 0.000233450410418
developing 7.05641903363e-05
proposal 0.00019637316364
potential 0.000676254009903
moderator 0.0
suggestion 0.000202665765181
attending 0.0
filled 0.0
schultz 0.0
education 0.0
sickness 0.0
mentioned 0.000617828867403
exists 0.0
henderson 0.0
plants 0.0
orders 6.28441074349e-05
officials 0.000184822032165
strategic 9.44468698602e-05
ability 0.0
political 0.000100297490087
director 8.73054268273e-05
behaving 0.0
deficits 0.0
sufficient 0.0
prevent 5.81405448658e-05
shoddy 0.0
capacity 0.0
donations 0.0
editors 0.0
discussing 0.000158628323798
persistent 0.0
treatment 0.0
establishment 0.0
protects 0.0
critical 5.56641429194e-05
ambassador 0.0
preparing 0.0
capable 0.0
bishop 0.0
producers 0.0
bombed 0.0
weekly 0.0
becoming 0.0
magazine 0.0
lawyers 0.0
summary 0.0
standard 0.000101177464124
controlled 0.0
hiring 0.000135592613671
defending 0.0
pushes 0.0
admitted 0.000168334798446
failed 0.0
independent 5.39972295271e-05
copies 0.0
politically 0.0
driven 0.0
agenda 6.30545723803e-05
blocked 0.000708833388574
result 0.0
announcing 0.0
destruction 0.0
culture 9.66077157004e-05
insider 0.0
traitors 0.0
prince 0.0
solutions 0.0
indiana 0.0
mongering 0.0
claims 0.0
editorial 0.0
prospects 0.00110435221258
mistakes 0.0
offered 0.000172784595464
founded 0.0
ignorance 0.0
inspiring 0.0
majority 5.86949094983e-05
embarrassing 0.00012568821487
creators 0.0
server 0.0
berniesanders 0.0
spotlight 0.0
readout 0.0
tactics 0.0
irrelevant 0.0
massive 8.87720848938e-05
receiving 0.000131369279114
promising 0.0
promises 0.0
consequences 0.0
production 0.000111670614218
proposals 0.0
elsewhere 0.0
bernie 7.53277560942e-05
hacking 8.37825130695e-05
guests 0.0
interviewed 0.0
secretary 0.0
rebuttal 0.0
reduce 6.32663167558e-05
arriving 0.0
dangerous 4.69483622006e-05
shutting 0.0
arrival 0.0
canceled 0.0
typically 0.0
saving 0.0
pioneer 0.0
incident 7.21720993044e-05
ordering 0.0
victims 0.0
raises 6.97872397038e-05
receive 0.000394280811198
reputation 0.0
intention 0.0
commentary 6.52322716077e-05
disclosure 0.0
terrific 0.000308036720274
berkeley 0.0
melbourne 0.0
received 0.000179534594639
correctly 7.00443024388e-05
inherited 0.0
displayed 0.0
joseph 0.000235403654718
offices 7.2447451272e-05
necessary 0.000107669686042
largely 7.81408229489e-05
inaccurate 0.0
debate 9.00183378973e-05
conflict 0.0
interest 0.000638861859628
controversy 0.0
stated 0.00016911317174
rating 0.0
nominate 0.0
outstanding 0.000120047611603
devastating 0.0
accurate 0.000169585502945
southeastern 0.0
romney 9.77147499654e-05
scotland 0.0
delayed 0.000138054484163
rarely 6.36937066884e-05
abroad 0.0
winners 0.0
profit 0.0
reviews 0.0
republican 0.0
presidential 0.0
candidates 5.90694490479e-05
politicians 0.0
epidemic 8.53482527316e-05
greater 0.000114115204868
booths 0.0
arnold 0.0
principles 0.0
deadline 0.000619892954059
speakers 0.0
incoming 0.0
various 7.13588675989e-05
nuclear 0.0
danger 0.0
leading 0.0
restored 0.0
conditions 0.0
however 0.000166481447165
resolution 0.0
remained 0.000103274962055
member 0.000123266034558
examples 0.0
employ 0.0
courses 0.0
largest 0.000165466919512
hallmark 0.0
mentor 0.0
increase 0.000511923066896
transcript 8.34018334061e-05
disrupt 0.000104641091758
provided 0.0
binding 0.0
decreased 0.0
revival 0.0
crashing 0.0
reception 0.0
rising 0.0
primary 0.0
reduction 9.05179949736e-05
surrogate 0.0
provides 0.0
environment 0.0
revealed 0.000114115204868
confirmed 5.08851750642e-05
controls 0.0
behavior 6.8777550385e-05
introduced 0.0
carbon 0.0
communities 0.0
region 0.0
deaths 7.32868133932e-05
responsible 0.000114115204868
household 0.0
munich 0.0
canada 0.000512069694951
regions 0.0
movement 0.0
midwest 0.0
segment 6.97872397038e-05
emerged 0.000103274962055
hundreds 0.0
information 4.73495010966e-05
combined 0.000195024815546
easily 0.0
towards 5.08851750642e-05
inform 8.65705480564e-05
mathematically 0.0
october 4.88611792199e-05
investigating 8.41673992232e-05
predators 0.0
innovation 0.0
perspective 0.000206550047698
cities 0.0
todays 0.0
julian 0.0
eliminated 0.0
interests 0.0
toledo 0.0
extraordinary 0.0
eradicate 0.0
retains 0.0
ashamed 0.0
meetings 0.000682162125367
describing 0.0
eliminate 0.0
obligation 0.0
gender 0.0
committee 5.72357708145e-05
wasting 0.0
numerous 0.000202642525173
examination 0.0
inflammatory 0.0
practices 0.0
management 0.000127387413377
nordstrom 0.0
genius 0.0
warren 8.04974983362e-05
traveling 0.0
billions 0.0
prepared 5.28761079325e-05
fraction 0.0
equipment 0.0
procedures 0.0
rasmussen 0.0
county 6.45645481091e-05
developer 0.0
anthony 0.000764324480261
shadow 0.0
district 0.0
considered 0.000324962259772
lobbyist 0.0
chosen 6.59130458998e-05
hospitalized 0.0
outright 9.88759189056e-05
yorkers 0.0
naming 0.0
conventions 0.0
deficit 0.0
interventions 0.0
focusing 7.38578399932e-05
sensible 0.0
hosted 5.94480597592e-05
batman 0.0
column 0.00673279708718
upcoming 0.0
positions 0.00022157351998
favors 0.0
regulation 0.0
distributed 0.0
weakness 0.0
introduction 0.0
western 0.0
pacific 0.0
larger 6.90272420814e-05
increases 0.0
effective 0.0
situations 0.00016911317174
harbor 0.0
wealth 0.0
underway 0.0
israel 0.0
hysteria 0.0
overwhelming 0.0
protection 0.000121218457399
prisoners 0.0
guidance 0.0
montana 0.0
determination 0.0
restore 0.0
acquire 0.000709248838105
additional 0.000218174991907
exception 0.000173975401713
machine 0.0
honoring 7.27249973022e-05
visually 0.0
contrary 0.0
immediate 7.27249973022e-05
politico 0.0
ignoring 6.97872397038e-05
judges 0.0
federal 0.000195696814823
constant 0.0
philippines 0.0
nicely 0.0
september 9.8003828257e-05
manchester 0.0
fiction 0.0
priest 0.0
angela 0.0
process 4.45097791401e-05
destructive 0.0
genuine 0.0
surreal 0.0
whitehouse 0.0
flotus 0.0
crisis 0.0
judgement 0.0
confidence 0.0
voters 0.000179492493333
diamondandsilk 0.0
oldest 0.0
inauguration 7.38578399932e-05
gracious 0.0
scream 0.0
postponed 9.60425004042e-05
disappoint 0.0
believing 0.0
hillaryclinton 0.0
electoral 0.0
crashed 0.0
citizenship 0.0
closed 0.0
religious 0.0
apprentice 0.0
conservative 0.0
economists 0.0
buzzfeed 0.0
puppet 0.0
sweden 0.0
andersoncooper 0.0
treats 0.0
qualified 7.47323254839e-05
missouri 0.0
cooper 7.41469025858e-05
debates 0.0
endorsements 0.0
strike 5.3673210051e-05
shouting 8.19194036198e-05
empire 0.0
encouraged 0.0
regard 0.0
concerning 0.0
misinformed 0.000133237357042
disregard 0.0
barack 0.0
joined 4.29345056494e-05
terrorism 0.0
pushing 0.000223341228436
cracking 0.0
muhammad 0.0
refused 7.41469025858e-05
amazingly 7.32868133932e-05
express 0.0
gratitude 7.41469025858e-05
congratulation 0.0
throughout 0.000165972952111
shining 0.0
fighter 0.0
anticipated 8.87081415309e-05
presented 5.68803407662e-05
reveal 0.0
stands 0.000242211772121
native 0.000141654146829
harvey 0.000938830780048
featured 0.0
announce 0.000405313568162
surround 0.0
although 0.0
senior 5.46544536006e-05
todayshow 0.0
convincingly 0.0
haters 0.0
returning 0.000119277839295
laughs 0.0
touched 6.52322716077e-05
corruption 0.0
violence 0.000307104976035
runnin 0.0
delivered 0.0
owning 0.0
legendary 5.5835307109e-05
stabbing 0.0
independence 0.0
approval 0.0
magical 0.0
alongside 0.0
percent 0.0
spiral 0.0
differently 7.35711565436e-05
sweeping 0.0
spoiler 0.0
theirs 0.0
offering 0.000173327430594
remembering 0.0
floated 0.0
professionals 0.0
construction 7.30047726417e-05
searching 0.0
flexibility 0.000513057391638
sinking 0.0
detail 6.41264059484e-05
document 0.0
cabinet 0.0
pleased 0.0
carrying 0.0
statements 7.41469025858e-05
decade 0.0
prague 0.0
crossing 0.0
bigotry 0.0
happily 8.04974983362e-05
therefore 0.0
belong 0.0
customs 0.0
trillion 0.0
backed 0.000138557473243
electricity 0.0
observing 0.0
russell 0.000201234297213
engineers 0.0
operations 0.0
values 0.000127387413377
senator 0.0
confirms 0.00270243488189
removing 0.0
payment 0.0
consistently 0.0
posing 0.0
everett 0.0
wondered 0.0
generic 0.0
fields 0.0
mining 0.0
newspaper 0.000130464543215
detailed 7.71776691647e-05
rainbow 0.0
childcare 0.0
unlimited 0.0
exploded 0.0
thoroughly 0.0
adviser 0.0
leaves 0.0
matthew 0.000399644348001
intersection 0.0
affected 0.0
newspapers 7.87980470224e-05
corporate 0.0
economy 0.0
explores 0.0
spoken 0.0
during 8.78373001102e-05
credible 0.0
competitive 0.000210132907316
carefully 7.56293323721e-05
returned 0.000137059271737
blasts 0.0
guarding 0.0
hornet 0.0
successfully 0.0
southern 0.0
dakota 0.0
belief 6.47857034076e-05
messenger 0.0
heroes 0.0
russians 0.0
intelligence 0.0
deepest 0.0
graduates 0.0
describe 0.0
hollywood 0.0
reclaim 0.0
equality 0.0
announcement 0.000358068632583
interfere 0.0
interrupted 0.0
nationwide 0.0
questionable 0.0
garden 0.0
survey 0.0
journalists 6.24269546346e-05
delighted 0.0
minister 0.0
golfer 0.0
capital 0.0
penguins 0.0
regarding 0.000387387288654
teachers 0.0
devastated 9.14594534331e-05
phrase 0.0
immigrants 0.0
aliens 0.0
subjects 0.0
revolution 0.0
median 0.0
twelve 0.0
releases 6.43447881214e-05
accomplish 0.0
debbie 0.0
sebastian 0.0
briefing 0.0
advisor 8.12011958555e-05
commission 0.0
deadlines 0.0
hereby 0.0
invitation 0.000293147253573
alternatives 0.0
villages 0.0
accepted 0.000291621772438
commentators 0.0
depression 0.0
comprehensive 0.0
committees 0.0
pushed 0.000203388920506
statistic 0.0
donation 0.0
electronic 0.0
nomination 0.0
britain 0.0
questioning 0.00025725281243
attempt 4.97142465715e-05
investment 0.0
terror 0.0
homeland 0.0
polish 0.0
switzerland 0.0
represents 7.16278406923e-05
announcer 0.000113295458692
churchill 0.0
ambassadors 0.0
anchors 0.0
endorse 0.0
urgent 0.0
forced 0.0
expenses 0.0
preparations 0.0
string 0.0
morocco 0.0
thrill 0.0
watchdog 0.0
agencies 8.34018334061e-05
scrutiny 0.0
glorious 6.73158600114e-05
approaching 7.81408229489e-05
tragedy 5.72357708145e-05
handled 0.0
offers 0.000556641429194
requested 0.000343003749907
improvements 0.0
destroying 0.0
inexpensive 0.0
opposition 0.0
smithsonian 0.0
addiction 0.0
challenged 7.38578399932e-05
manhattan 0.0
richmond 0.0
forces 0.0
nations 0.0
anderson 0.000770487326827
builds 0.0
sexist 0.0
narrative 7.62404330026e-05
application 0.0
cannon 0.0
ethical 0.0
representation 0.0
obvious 5.90694490479e-05
statistics 0.0
military 5.43242914841e-05
housing 0.0
wonderfully 0.0
miller 0.000567491151423
copying 0.0
advised 0.0
ordered 0.0
unions 0.0
useless 0.0
alicia 0.0
economic 0.0
radical 0.0
planted 0.0
theories 8.61583320915e-05
conceived 0.0
readers 0.000264571839545
bombing 0.0
products 0.0
phenomena 0.0
classroom 0.0
classified 0.0
purely 0.0
hacked 0.0
taxpayers 0.0
opposed 0.000139574479408
pressing 0.000181035989947
russia 0.0
abraham 0.0
lincoln 0.0
observer 0.0
intelligent 0.0
lawsuit 0.0
detective 0.0
magnificent 0.0
heritage 0.0
beloved 0.000150655512188
dignity 0.0
priorities 0.0
repealing 0.0
murdoch 0.0
coalition 0.0
theresa 0.0
charges 7.32868133932e-05
activists 0.0
elected 6.08065767769e-05
relief 0.000115915400257
congratulates 0.0
pledge 0.0
elections 0.000140606552877
landslide 0.0
council 0.0
imperative 0.0
catastrophic 0.0
douglas 0.0
brexit 0.0
democracy 0.0
disastrous 0.0
rebuild 0.000168334798446
pundits 0.0
nickname 0.0
poison 0.0
interfering 0.0
negotiations 7.91313686329e-05
summit 0.0
dossier 0.0
unleash 0.0
negotiation 0.000101960396895
sticking 0.0
openly 0.0
embarrassed 0.0
ireland 0.0
attacks 0.0
remarks 0.000151258664744
democratic 0.0
outgoing 0.0
maureen 0.0
treasury 0.0
refugees 0.0
snatch 0.0
morgan 0.0
grieve 0.0
vicious 0.0
essentially 8.12011958555e-05
restoring 0.0
extended 0.000126958712424
referendum 0.0
ovation 0.0
bankrupt 0.0
proudly 0.0
oppose 7.81408229489e-05
refusal 0.0
urging 0.0
strengthen 0.0
deliver 0.0
negotiating 0.0
remaining 0.000143255681385
merkel 0.0
repeal 0.0
formal 0.0
reckless 0.0
prosperous 0.0
servant 0.0
desperate 0.0
secretaries 0.0
formally 9.14594534331e-05
breach 0.0
gloomy 0.0
outlines 0.0
concessions 0.0
executive 5.81405448658e-05
extend 0.000228721299008
republicans 0.0
terrorists 0.0
weapons 0.0
bodyguards 0.0
outrage 0.0
representative 0.0
prevail 0.0
searched 0.0
policemen 0.0
islamic 0.0
islamist 0.0
ingrained 0.0
humbled 0.0
courage 5.75948651548e-05
chamber 0.0
commander 0.0
formula 0.0
brigade 0.0
respecting 0.0
lectured 0.0
devices 0.0
enormous 0.0
verdict 0.0
refusing 0.0
energies 0.0
carried 0.0
behalf 0.0
tariff 0.0
amendment 0.0
nightmare 0.0
employment 0.0
legislation 0.0
referring 6.95320602291e-05
scrapping 0.0
handling 0.000238403732376
goodies 0.0
proves 0.0
prominently 0.0
crackdown 0.0
unfair 0.000145449994604
fiscal 0.0
humiliating 0.0
strongly 0.000138054484163
vision 0.0
resignation 0.0
confirmation 0.0
records 5.28761079325e-05
disabled 8.34018334061e-05
quoting 0.0
reductions 0.0001348577349
deeply 0.0
commerce 0.0
accumulation 0.0
overplaying 0.0
refugee 0.0
conway 0.0
exposed 0.0
netanyahu 0.0
israeli 0.0
priority 0.0
strongest 0.000234422468847
freedoms 0.0
treaties 0.0
empowering 0.0
laughter 0.0
syrian 0.0
uphold 0.0
praising 0.0
renewal 0.0
penned 0.0
condemns 0.0
realdonaldtrump 0.0
goodwill 0.0
attorney 0.0
settled 0.000160994996672
chairman 0.0
capability 0.0
firing 0.0
seanspicer 0.0
inaugural 0.0
carnage 0.0
optimism 0.0
rulers 0.0
clintons 0.0
melania 0.0
bikers 0.0
handing 0.0
intended 0.0
optimistic 0.0
campaigned 0.0
finance 0.0
allies 0.0
compromised 0.0
governor 0.0
bosses 0.0
attempts 0.0
irresponsible 9.09855435036e-05
incidents 0.0
merely 0.000156935769812
documents 0.0
tariffs 0.0
purpose 5.3352176972e-05
architect 0.0
arlene 0.0
resign 0.0
reuters 0.0
mainstream 0.0
dozens 0.0
donnell 0.0
clarified 0.0
gathering 0.0
crimes 0.0
vulnerable 0.0
commentator 0.0
overwhelmingly 0.0
respectful 9.34223300434e-05
markets 0.000228721299008
inspector 0.0
nigel_farage 0.0
drudge 0.0
abused 0.0
infrastructure 0.0
projected 0.000197751837811
boards 0.0
allegations 0.0
bloomberg 0.0
insulting 0.0
leaking 0.0
liberal 0.0
chairs 0.0
podium 0.0
conceded 0.0
capitol 0.0
consulting 0.0
wannabe 0.0
powell 0.0
reforms 0.0
technical 0.0
securing 0.0
steven 7.03032764384e-05
rumsfeld 0.0
businesses 0.0
balancing 0.000101960396895
socialist 0.0
complaints 8.15584486539e-05
politician 0.0
representatives 0.0
rallies 0.0
belittle 0.0
ballot 0.00101814996223
failing 0.0
refuses 0.0
conclude 0.0
vibrant 0.0
tarmac 0.0
spinning 8.15584486539e-05
appointments 0.0
farewell 7.32868133932e-05
opponents 0.000151258664744
unopposed 0.0
polling 0.0
prosperity 0.0
apology 0.000262738558227
outline 0.0
losers 0.0
battlefield 0.0
abandoned 0.0
endorsed 0.0
negotiate 0.000182918906866
negotiated 0.0
unwilling 0.0
appointed 0.0
slaughter 0.0
betray 0.0
donated 0.0
immigrant 0.0
prosecuted 0.0
criminals 0.0
elizabethforma 0.0
protesting 0.0
releasing 0.0
screening 0.0
sponsor 0.0
pocketbook 0.0
transparency 0.0
austin 0.000391393629646
obamacare 0.0
acceptable 0.0
schwarzenegger 0.0
congressman 0.0
profits 0.0
toward 0.000504436579043
fleeing 0.0
bravery 0.0
protests 0.0
recieved 0.0
violent 0.0
remarkably 0.0
senators 0.0
ratings 0.0
spouses 0.0
fundraiser 0.0
senate 0.0
louisiana 0.0
giuliani 0.0
venezuela 0.0
parenthood 0.0
organizations 0.0
generations 0.0
minorities 0.0
underestimate 0.0
terrified 0.0
discourse 0.0
pennsylvania 0.0
hackers 0.0
nbcnews 0.0
mccain 0.0
scandal 6.73158600114e-05
constitution 0.0
sensanders 0.0
abandon 0.0
explode 0.0
reopening 0.0
governments 0.0
competent 0.0
mike_pence 0.0
stinks 0.0
logical 0.000173975401713
accurately 9.77147499654e-05
righteous 0.000105344789277
thursdays 0.0
fitting 0.000148293805172
category 6.70780990711e-05
swearing 0.0
politifact 0.0
abolish 0.0
surging 0.0
murders 0.0
reagan 0.0
vetting 0.0
vetted 0.0
pouring 8.30252692791e-05
fraudulent 0.0
ballots 0.000313923275274
fading 0.0
speakerryan 0.0
civilized 0.0
commercials 0.0
luxurious 0.0
outraged 0.0
nypost 0.0
statute 0.0
enforcement 0.0
accountability 0.0
truthful 0.0
springfield 0.0
cancelled 0.0
conflicts 0.0
suffer 0.0
selfishly 0.0
educational 0.0
stolen 0.0
visionary 0.0
wounds 0.0
disgraceful 0.0
hatred 0.0
persuasion 0.0
exposing 0.0
teaches 0.0
sellers 0.0
refers 0.0
trusted 0.0
sheriff 0.0
samsung 0.0
ranking 0.0
undecided 0.0
nebraska 0.0
abusive 0.0
abuser 0.0
nashville 7.59335425372e-05
lightweight 0.0
victories 0.0
consumer 0.0
violation 9.60425004042e-05
sarcasm 0.0
freaky 0.0
jimmyfallon 0.0
outlets 0.0
vanityfair 0.0
harassed 0.0
leverage 0.000106796326075
sacred 0.0
horrific 0.0
contribute 0.0
indicted 0.0
chooses 9.19399002572e-05
defended 0.0
champion 0.0
waited 0.0
denmark 0.0
conviction 0.0
retail 0.0
distract 0.0
globes 0.0
endorsing 0.0
pathetic 8.08475700517e-05
purposely 0.0
expose 0.0
representing 0.0
mmflint 0.0
registration 0.0
acceptance 0.000226887997116
defeated 0.0
prosecutor 0.0
nbcsnl 0.0
nevada 0.0
illinois 0.0
massachusetts 0.0
spontaneous 0.0
entrepreneur 0.0
arkansas 0.0
hotels 0.0
exhausted 8.74099101776e-05
puppets 0.0
protesters 0.0
natalie 0.0
anaheim 0.0
nominating 0.0
vietnam 0.0
claimed 0.000150057536972
indianapolis 9.88759189056e-05
loudly 0.0
sarasota 0.0
rapids 0.0
oklahoma 0.0
devoted 0.0
sacramento 0.000101960396895
arranged 0.0
baldwin 0.0
crushed 0.0
reflects 0.000602622048754
replacing 8.15584486539e-05
louder 0.0
flashback 9.14594534331e-05
farmers 0.0
unleashed 0.0
tourists 0.0
steals 0.0
albany 0.0
devastation 0.0
meantime 0.0
donlemon 0.0
wilbur 0.0
finalists 8.45565858698e-05
ransom 0.0
normmacdonald 0.0
vanishing 0.0
clarence 0.0
jaketapper 0.0
clowns 0.0
elizabeth 0.0
microphone 0.0
machines 0.0
premium 0.0
championships 0.0
impersonation 0.0
horribly 0.0
stakes 0.0
mouthed 0.0
reservation 0.0
delaware 0.0
springs 0.0
columbus 0.0
slackers 0.0
toyota 0.0
chucktodd 0.0
correspondents 0.0
soldier 0.0
panels 0.0
broadcasting 0.000158935821584
sparks 0.0
warned 0.0
jclayfield 0.0
kellogg 0.0
anchor 0.0
heated 0.0
congressional 0.0
boeing 0.0
usatoday 0.0
endlessly 0.0
craziest 9.00566393216e-05
viewers 0.000154991540788
delivers 0.0
pittsburgh 0.0
marshal 0.0
reverend 0.000146577682851
lifelong 0.0
disdain 0.0
hispanic 0.0
defrauded 0.0
oppression 0.0
crowds 0.0
washingtonpost 0.0
affordable 0.0
tapping 0.0
ginsburg 0.0
reilly 0.0
illegally 0.0
shootings 0.0
destiny 0.0
serenawilliams 0.0
motors 0.0
redding 0.0
initially 0.0
travis 0.000548756720599
accomplishments 0.0
misconduct 0.0
mocked 0.0
disgrace 0.000174819820355
greeley 0.0
carmel 0.0
outcry 0.0
playbook 0.0
zealand 0.0
fearless 0.0
lining 0.000171501874953
sidekick 0.0
madame 0.0
grandstand 0.0
rochester 0.0
speechless 0.0
fletcher 0.0
begged 0.0
wintour 0.0
inspires 0.0
carlos 0.000358405258541
missiles 0.0
chelsea 0.0
oppressive 0.0
forgiven 0.000228400465487
killings 0.0
taiwan 0.0
somalia 0.0
burning 0.0
subscribers 0.0
chester 0.0
newtown 0.0
booker 0.0
heights 0.0
leicester 0.0
chiefs 0.000264809998111
joenbc 0.0
opioid 0.0
separately 0.000226590917384
intros 0.0
columnist 0.0
manages 0.0
financed 0.0
mnuchin 0.0
delegate 0.0
vicente 0.0
struck 0.0
trudeau 0.0
oreillyfactor 0.0
vulgarian 0.0
publicity 0.0
amnesty 0.0
ivankatrump 0.0
communism 0.0
linkedin 0.0
avoided 0.0
sophisticated 0.0
seanhannity 0.0
anncoulter 0.0
foolish 0.0
catholics 0.0
bogged 0.0
catholic 0.0
thriving 0.0
newtgingrich 0.0
abedin 0.0
secretly 0.0
undermines 0.0
americanism 0.0
christians 0.0
rationally 0.0
deplorable 0.000121291959485
wikileaks 0.0
execution 0.0
enduring 0.0
foxandfriends 0.0
losses 7.32868133932e-05
kevcirilli 0.0
staffers 0.0
barron 0.0
jihadis 0.0
hampshire 0.0
pandering 0.0
donaldjtrumpjr 0.0
moines 0.0
lobbying 0.0
careless 0.0
piersmorgan 0.0
palestinian 0.0
kellyanne 0.0
democrat 0.0
unfunny 0.0
condemned 0.0
despair 0.0
louvre 0.0
crooked 0.0
lynden 0.0
outperform 0.0
tedcruz 0.0
majors 0.000446214014397
schumer 0.0
credibility 0.0
flooding 0.0
hannity 0.0
beneficiary 0.0
sanctions 0.0
nominates 0.0
existent 0.0
criticized 0.0
senatemajldr 0.0
workforce 0.000103951329763
issued 7.68624467192e-05
outsider 0.0
declare 0.0
ivanka 0.000101321262586
dignified 0.0
threaten 0.0
outcomes 0.00027876343142
ukraine 0.0
justintrudeau 0.0
vladimir 0.0
businessman 0.0
regards 0.0
assange 0.0
malicious 0.0
garners 0.0
ethics 0.0
wrecked 0.0
regimes 0.0
incorrectly 0.0
hostile 0.0
defenders 0.0
deceived 0.0
hypocritical 0.000123614942938
favorably 0.0
shatter 0.0
changer 0.0
spokane 0.0
unnecessary 0.0
cwaunion 0.0
expand 0.0
apologized 0.0
criticizing 0.0
legion 0.0
hershey 0.0
intensity 0.0
tigerwoods 0.0
amercan 0.0
reince 0.0
chriscjackson 0.0
hypocrites 0.0
billkristol 0.0
govmikehuckabee 0.0
dustin 0.0
bullied 0.0
anonymous 0.000229650154257
yankees 0.000713722778262
thehill 0.0
infiltrated 0.0
somali 0.0
invention 0.0
frontrunner 0.0
patriot 0.0
poorly 0.0
prisonplanet 0.0
daytona 0.0
comparable 0.0
shouted 0.0
holocaust 0.0
kellyannepolls 0.0
foxnews 0.0
initiated 0.0
tiffany 0.0
mikeandmike 0.0
barbara 0.0
litigation 0.0
frankcaliendo 0.0
toughness 0.0
suffered 0.000156935769812
streep 0.0
billionaire 0.0
percentage 0.000159615472682
insiders 0.000240372187652
premiums 0.0
congratulatory 0.0
treasurer 0.0
incompetence 0.0
delegates 0.0
rollout 0.0
appalled 0.0
misquoted 0.000144329687248
pledged 0.0
demanded 0.0
andrews 0.000203920793789
lowlife 0.0
courageous 0.0
betrayed 0.0
horrors 0.0
warheads 0.0
pledges 0.0
interrupts 0.0
blacks 0.0
elaine 0.000113295458692
candidacy 0.0
discredited 0.0
cringing 0.0
estates 0.0
laughable 0.0
aberdeen 0.0
healed 0.0
floods 0.0
swiftly 0.0
cheryl 0.0
syracuse 0.0
difficulties 0.0
flipping 0.0
wilkes 0.0
lisbon 0.0
suckers 0.0
golfdigest 0.0
jeffrey 0.0
sixteen 0.0
scandals 0.0
circuits 0.0
regulations 0.0
monitoring 8.41673992232e-05
swamped 0.0
costing 0.0
detained 0.0
warmest 0.0
marginalize 0.0
miners 0.0
unemployment 0.0
paragon 0.0
obsolete 0.0
subsidies 0.0
exercised 0.0
evangelicals 0.0
franklin 0.0
molten 0.0
servers 0.0
billgates 0.0
excessive 0.0
coordinated 0.0
geneva 0.0
soaring 0.000115129136925
unsecured 0.0
corporations 0.0
rifles 0.0
innovative 0.0
pillar 0.0
bashing 0.000103951329763
organize 0.0
panelists 0.0
frontiers 0.0
pricing 0.0
platforms 0.0
scaling 0.0
pretends 0.0
forensic 0.0
roundtable 0.000201387289682
inherit 0.0
fabrication 0.0
brewer 0.0
unaffordable 0.0
reinforcing 0.0
eventful 0.0
wasserman 0.000314761900928
lindsey 0.0
billclinton 0.0
upstate 0.0
empowerment 0.0
penalties 9.9471349516e-05
responders 0.0
civilization 0.0
occupy 0.0
approximately 0.0
knight 0.0
homeownership 0.0
scratched 0.0
screws 0.0
contractor 0.0
havana 0.0
lowering 0.0
foundations 0.0
revitalize 0.0
counters 0.0
foreclosed 0.0
renovated 0.0
delaying 0.0
employer 0.0
executed 0.0
subpoena 0.0
grifters 0.0
cincinnati 0.0
disgraced 0.0
falsely 0.0
strengthening 0.0
abcworldnews 0.0
skyrocketing 0.0
pipelines 0.0
likewise 0.0
dishonest 0.0
surges 0.0
woefully 0.0
pressured 0.0
erratic 0.0
temperament 0.0
emboldened 0.0
keystone 0.0
mandated 0.0
crumbling 0.000374511714788
johnkasich 0.0
latinos 0.0
combating 0.0
incompetent 0.0
loopholes 0.0
incapable 0.0
unqualified 0.0
melaniatrump 0.0
recount 0.0
voluntarily 0.0
desperation 0.0
denounce 0.0
demoralized 0.0
incited 0.0
fawning 0.0
accuser 0.0
electing 0.0
patrol 0.0
connecticut 0.0
amounts 0.0
govpencein 0.0
squandered 0.0
enforce 0.0
epipens 0.0
deplorables 0.0
generals 0.0
timkaine 0.0
benghazi 0.0
moderators 0.0
sheriffclarke 0.0
unfairly 0.0
competence 0.0
dysfunctional 0.0
eleventh 0.0
instructed 0.0
restrict 0.0
battleground 0.0
jilted 0.0
blazing 0.0
hypocrite 0.0
mcconnell 0.0
circulated 0.0
flailing 0.0
pathological 0.0
deflect 0.0
undoing 0.0
predictable 0.0
phoney 0.0
perils 0.0
governing 0.0
likeable 0.0
tumble 0.0
praised 0.0
extraordinarily 0.0
jinping 0.0
trashes 0.0
knowingly 0.0
disloyal 0.0
woodward 0.0
magnificently 0.0
pretended 0.0
slaughtered 0.0
climber 0.0
americ 0.0
unprofessional 0.0
diplomats 0.0
resulted 0.0
crossroads 0.0
syrians 0.0
suppress 0.0
remembrance 0.0
infighting 0.0
castro 0.000488573749827
unquestionably 0.0
corrupted 0.0
kasich 0.0
readership 0.0
fraternal 0.0
frankluntz 0.0
demagogue 0.0
unanimous 0.0
bedford 0.0
longtime 0.0
complexities 0.0
dailymail 0.0
couric 0.0
cancelling 0.0
morningmika 0.0
concord 0.0
recounts 0.0
shouldered 0.0
patmccrorync 0.0
executives 0.000108310992645
westfield 0.0
graydon 0.0
sheldon 0.0
tanking 0.0
morning_joe 0.0
fabricated 0.0
corolla 0.0
groveling 0.0
unfolding 0.0
polled 0.0
influx 0.0
underachieving 0.0
antics 0.000116083493679
disenfranchised 0.0
golfing 0.0
xfinity 0.0
defies 0.0
fictitious 0.0
districts 0.0
vigilant 0.0
obstruction 0.0
rebuilding 0.0
preserving 0.0
passover 0.0
dhsgov 0.0
thejusticedept 0.0
repealed 0.0
intends 0.0
wildfires 0.0
usedgov 0.0
fresno 0.0
usnavy 0.0
scotus 0.0
tillerson 0.0
ineffective 0.0
senjohnmccain 0.0
cbsnews 0.0
lawsuits 0.0
caucus 0.0
shimon 0.0
wilmington 0.0
stagnant 0.0
gouging 0.0
baghdad 0.0
wiesel 0.0
obstruct 0.0
gonzalo 0.0
curiel 0.0
hostage 0.0
unnamed 0.0
truckers 0.0
boldly 0.0
scarborough 0.0
evangelical 0.0
cyberattack 0.0
marines 0.0
crimea 0.0
earners 0.0
oversaw 0.0
lobbyists 0.0
rosiegray 0.0
briefings 0.0
actresses 0.0
purchases 0.0
myanmar 0.0
heightened 0.000157380950464
shackles 0.0
perjury 0.0
dallaspd 0.0
respectfully 0.0
canton 0.0
approx 0.0
admirals 0.0
naples 0.0
brainwashed 0.0
albuquerque 0.0
supposedly 0.0
coliseum 0.0
greensboro 0.0
sheriffs 0.0
hostages 0.0
explorers 0.0
confidential 0.0
tamara 0.0
infested 0.0
depicted 0.0
devote 0.0
payroll 0.00038225566643
bombshell 0.0
advisers 0.0
watergate 0.0
mcmaster 0.0
renews 0.0
housegop 0.0
katyturnbc 0.0
pocahontas 0.0
wherein 0.0
shreds 0.0
pelosi 0.0
chrysler 0.0
collusion 0.0
deductibles 0.0
repmarkmeadows 0.0
darrellissa 0.0
insurer 0.0
dishonesty 0.0
hotlinejosh 0.0
quinnipiacpoll 0.0
apologizing 0.0
priebus 0.0
clapper 0.0
tapped 0.0
operatives 0.0
senschumer 0.0
marcorubio 0.0
viciously 0.0
leakers 0.0
bangladesh 0.0
favorable 0.0
nbcnightlynews 0.0
lockheed 0.0
untruthful 0.0
resonating 0.0
transferring 0.0
staten 0.0
humana 0.0
juanita 0.0
senses 0.0
stimulate 0.0
drooling 0.0
lakeland 0.0
burying 0.0
crafted 0.0
misrepresent 0.0
fabled 0.0
railing 0.0
billyjoel 0.0
sniper 0.0
cnnsotu 0.0
independents 0.0
detroitnews 0.0
foxbusiness 0.0
washtimes 0.0
realbencarson 0.0
meetthepress 0.0
newday 0.0
thebrodyfile 0.0
bostonherald 0.0
foxnewssunday 0.0
thefive 0.0
chriscuomo 0.0
randpaul 0.0
dcexaminer 0.0
facethenation 0.0
bretbaier 0.0
interruption 0.0
allenwest 0.0
cvpayne 0.0
dailycaller 0.0
prosecution 0.0
ballistic 0.0
vetoed 0.0
gettysburg 0.0
groping 0.0
brennan 0.0
nielson 0.0
justices 0.0
operative 0.0
surged 0.0
megynkelly 0.0
terminated 0.0
softbank 0.0
fronting 0.0
rigging 0.0
reprieve 0.0
pocketed 0.0
colluded 0.0
coffers 0.0
stairway 0.0
ellison 0.0
selflessly 0.0
tornadoes 0.0
levine 0.000257569370359
scranton 0.0
enslave 0.0
inappropriately 0.0
devalue 0.0
presumptive 0.0
fournier 0.0
terminate 0.0
reptommarino 0.0
kimberly 0.0
subscriptions 0.0
ingrahamangle 0.0
trajectory 0.0
natalie_gulbis 0.0
unheard 0.0
objectified 0.0
turnberry 0.0
djohnsonpga 0.0
bedminster 0.0
golf_com 0.0
elevation 0.0
litany 0.0
unaccountable 0.0
primaries 0.0
disrupter 0.0
runways 0.0
hashanah 0.0
unenthusiastic 0.0
undecideds 0.0
richardtrumka 0.0
renegotiate 0.0
rapists 0.0
aldridge 0.0
unsubstantiated 0.0
misrepresented 0.0
prisoner 0.0
mattis 0.0
weakening 0.0
endakennytd 0.0
taoiseach 0.0
lifeboat 0.0
enabler 0.0
emanated 0.0
lindseygrahamsc 0.0
renegotiating 0.0
waterville 0.0
zucker 0.0
berglund 0.0
suboptimal 0.0
steelworkers 0.0
postpone 0.0
mohammed 0.0
indignant 0.0
comprised 0.0
stupidest 0.0
exxonmobil 0.0
precluded 0.0
instruct 0.0
gonzales 0.0
scorned 0.0
davidmuir 0.0
harrisburg 0.0
caesars 0.0
borisep 0.0
lapierre 0.0
limbaugh 0.0
petraeus 0.0
phyllis 0.0
illegals 0.0
sanctity 0.0
neurotic 0.0
negligence 0.0
alvarez 0.000263378040499
roseanne 0.0
roanoke 0.0
theleegreenwood 0.0
mcallen 0.0
deduct 0.000192616874091
chokes 0.0
vigilance 0.0
pensacola 0.0
tuckercarlson 0.0
repcummings 0.0
windham 0.0
teleprompter 0.0
paulareidcbs 0.0
jeffzeleny 0.0
condoleezza 0.0
genflynn 0.0
donaldtrump 0.0
demeanor 0.0
baiting 0.0
plotted 0.0
aptitude 0.0
billings 0.0
approving 0.0
disconnected 0.0
superstorm 0.0
brainpower 0.0
exclaim 0.0
skyrocketed 0.0
globalism 0.0
israelipm 0.0
insurgent 0.0
sneers 0.0
unrest 0.0
scaramucci 0.0
disapproval 0.0
katiepavlich 0.0
overflow 0.0
warped 0.0
scottwalker 0.0
kirstenpowers 0.0
usarmy 0.0
schlafly 0.0
alisonforky 0.0
oppresses 0.0
pedantic 0.0
highness 0.0
benefitted 0.0
fundraisers 0.0
shinzo 0.0
augustine 0.0
ranchers 0.0
middletown 0.0
fiorina 0.0
pueblo 0.0
lindasuhler 0.0
lightweights 0.0
kimguilfoyle 0.0
perdue 0.0
unmasked 0.0
unmasking 0.0
judgejeanine 0.0
boycotted 0.0
outnumberedfnc 0.0
jessebwatters 0.0
podesta 0.0
kristol 0.0
interruptions 0.0
broaddrick 0.0
erictrump 0.0
outspending 0.0
irredeemable 0.0
begala 0.0
brazile 0.0
dinesh 0.0
markings 0.0
ericbolling 0.0
loudobbs 0.0
skyrocket 0.0
blumenthal 0.0
cochran 0.0
imploding 0.0
discord 0.0
jeffflake 0.0
davidwohl 0.0
bribery 0.0
repkenbuck 0.0
joshrogin 0.0
enrique 0.0
unverified 0.0
retribution 0.0
dwindling 0.0
automobile 0.0
teamtrump 0.0
subpoenaed 0.0
danscavino 0.0
joniernst 0.0
scottadamssays 0.0
senatorfischer 0.0
tabulation 0.0
trafficked 0.0
depict 0.0
unrelenting 0.0
imitating 0.0
dutchess 0.0
adelson 0.0
valuing 0.0
ricksantorum 0.0
chuckgrassley 0.0
laraleatrump 0.0
abingdon 0.0
equating 0.0
ministries 0.0
brzezinski 0.0
sentedcruz 0.0
jamesrosenfnc 0.0
leaker 0.0
realjameswoods 0.0
jim_jordan 0.0
marshablackburn 0.0
boynton 0.0
betsydevos 0.0
lawfare 0.0
larry_kudlow 0.0
stranahan 0.0
waynedupreeshow 0.0
phillypolice 0.0
scottwrasmussen 0.0
johnstown 0.0
raul_labrador 0.0
statewide 0.0
reviewjournal 0.0
oppress 0.0
underlings 0.0
bankrupted 0.0
collude 0.0
fayetteville 0.0
disqualifying 0.0
mahoning 0.0
disloyalty 0.0
americanlegion 0.0
bankruptcies 0.0
morell 0.0
ambridge 0.0
emboldens 0.0
asheville 0.0
grievous 0.0
ricketts 0.0
benefactor 0.0
dwyane 0.0
markhalperin 0.0
mayorbowser 0.0
unverifiable 0.0
savaged 0.0
wheeling 0.0
technocratic 0.0
countr 0.0
thealabamaband 0.0
relives 0.0
unwatchable 0.0
residences 0.0
gatekeeper 0.0
defections 0.0
senatorsessions 0.0
drmoore 0.0
honorably 0.0
billhemmer 0.0
shultz 0.0
aflcio 0.0
trucking 0.0
fabrications 0.0
malleable 0.0
misrepresents 0.0
decimated 0.0
arabella 0.0
mishandled 0.0
interfe 0.0
speach 0.0
iranians 0.0
fraudulently 0.0
enablers 0.0
dealmaker 0.0
terrori 0.0
anarchists 0.0
krzanich 0.0
foxnation 0.0
permeated 0.0
overruns 0.0
disposed 0.0
inaccurately 0.0
peebles 0.0
conditioners 0.0
classifie 0.0
forewarned 0.0
karlrove 0.0
palazzo 0.0
evansville 0.0
rebroadcast 0.0
bangor 0.0
secpricemd 0.0
realdonaldtru 0.0
uschamber 0.0
trumpinaugural 0.0
rawlings 0.0
churchillian 0.0
hemmer 0.0
rudygiuliani 0.0
pynance 0.0
terrybranstad 0.0
cbnnews 0.0
faithandfreedom 0.0
ovations 0.0
scpioneer 0.0
dwstweets 0.0
tgowdysc 0.0
bluffs 0.0
marist 0.0
spluttering 0.0
thetodaysgolfer 0.0
thebig_easy 0.0
hoosier 0.0
senbobcorker 0.0
larsloekke 0.0
roadblocks 0.0
manheim 0.0
greenblatt 0.0
jtanews 0.0
mitchellvii 0.0
bemoan 0.0
michiga 0.0
gennifer 0.0
gulbis 0.0
liyuan 0.0
enlisting 0.0
ainsleyearhardt 0.0
stevedoocy 0.0
foxfriendsfirst 0.0
pastormarkburns 0.0
marksimoneny 0.0
gov_gilmore 0.0
flunky 0.0
agitators 0.0
overdoses 0.0
liliantintori 0.0
leopoldo 0.0
traceadkins 0.0
gopconvention 0.0
governorsununu 0.0
laconia 0.0
teamsters 0.0
gatewaypundit 0.0
lawyerly 0.0
dissipates 0.0
realjeffreylord 0.0
nytimesdowd 0.0
scalise 0.0
straightening 0.0
energizer 0.0
montgomeriefdn 0.0
shulkin 0.0
ericgreitens 0.0
circuited 0.0
govbrewer 0.0
infringed 0.0
mcgarvey 0.0
republicanstudy 0.0
americafirstpol 0.0
fheile 0.0
phadraig 0.0
wiedefeld 0.0
coddington 0.0
kravis 0.0
fighterjet 0.0
shinzō 0.0
votestand 0.0
romoabcnews 0.0
moskowitzeva 0.0
drgoodspine 0.0
levisteveholt 0.0
untrusting 0.0
sleazebag 0.0
lbperfectmaine 0.0
timken 0.0
newhouse 0.0
evancho 0.0
franklin_graham 0.0
eazymf_e 0.0
busineses 0.0
substantialy 0.0
rexnord 0.0
sdcritic 0.0
highonhillcrest 0.0
fiiibuster 0.0
koster 0.0
saucier 0.0
t_lineberger 0.0
cissieglynch 0.0
saysgabrielle 0.0
ravenrantz 0.0
mayorrgiuliani 0.0
deplorablecbtp 0.0
tanden 0.0
keithrowland 0.0
kinston 0.0
sjsopio 0.0
aztrumptrain 0.0
therealmogul 0.0
unclassify 0.0
firebombed 0.0
wikileakes 0.0
davidshiloach 0.0
trumpwomenstour 0.0
mistreats 0.0
willey 0.0
dornsife 0.0
henryleledog 0.0
eericmyers 0.0
atensnut 0.0
arouses 0.0
anyonetennis 0.0
flifeforce 0.0
geeveem 0.0
susiesentinel 0.0
bcuzimdamomma 0.0
freedavidking 0.0
ifdanyt 0.0
arsenmissyirvin 0.0
nycmia 0.0
bigdog_joey 0.0
roadkingl 0.0
decieved 0.0
waukesha 0.0
creati 0.0
thallensboucher 0.0
kenansville 0.0
tarukmatuk 0.0
angpiazza 0.0
laughingstock 0.0
ak_tweet 0.0
kiiara 0.0
jerryjrfalwell 0.0
ghfanlovessonny 0.0
bishopwtjackson 0.0
cynthialummis 0.0
repreneeellmers 0.0
trumpdc 0.0
stvzbnk 0.0
bakari 0.0
adhd_fa 0.0
parisdennard 0.0
ronnieclemmons 0.0
takouis 0.0
lblackvelvet 0.0
chernuna 0.0
annebellar 0.0
presidencies 0.0
rsbnetwork 0.0
meequalsfree 0.0
pmnorlando 0.0
rhondar 0.0
patrici 0.0
lindaharden 0.0
trumpocrats 0.0
lewenskimo 0.0
trump_videos 0.0
sinabunz_tm 0.0
eyecandytmgayle 0.0
catonglass 0.0
billynungesser 0.0
samaritanspurse 0.0
zulu_out 0.0
willspeakout 0.0
laurencristmann 0.0
c_lynne_ryan 0.0
enemywithinn 0.0
elsolarverde 0.0
creats 0.0
dbongino 0.0
bongino 0.0
carl_c_icahn 0.0
fieldoffight 0.0
reploubarletta 0.0
mainegop 0.0
gatewaypun 0.0
mechanicsburg 0.0
pnehlen 0.0
patrioticpepe 0.0
insticts 0.0
borderless 0.0
lallyray 0.0
glowingly 0.0
spinnnn 0.0
flamed 0.0
nancynielsenn 0.0
olimauritania 0.0
theresa_cali 0.0
roxanetancredi 0.0
litigate 0.0
trumpdoonbeg 0.0
berrien 0.0
nbcpolitics 0.0
jakeda 0.0
barrasso 0.0
bluedogdemky 0.0
iowa_trump 0.0
arnold_ziffel 0.0
patricia_graf 0.0
brazosboys 0.0
jimvitari 0.0
trumpturnberry 0.0
trumpscotland 0.0
darrenwaggener 0.0
allegrettivicki 0.0
justininglv 0.0
chrisboydbrew 0.0
votetrumpmaga 0.0
realericjallen 0.0
insinuated 0.0
clubgoers 0.0
ausbiz 0.0
freemarketsara 0.0
senatorjeffsessions 0.0
mabynshingleton 0.0
dale_dangler 0.0
nauthizjane 0.0
richardweaving 0.0
mariadaq 0.0
sara_wejesa 0.0
jimhewitt 0.0
joedefranco 0.0
wolfstopper 0.0
djd_thunder 0.0
excoriates 0.0
rapidcraft 0.0
telepromter 0.0
liliannyleebou 0.0
lunsfordwhitney 0.0
free_sa_bd 0.0
stockdaleism 0.0
admonished 0.0
nbcdfw 0.0
frankylamouche 0.0
sandiegopd 0.0
tombarrackjr 0.0
buiidthewall 0.0
pipersul 0.0
oasisupernova 0.0
jknatter 0.0
jasondovesq 0.0
ed_klein 0.0
overregulates 0.0
dubilujane 0.0
rbacliff 0.0
ltstevenlrogers 0.0
rowanne 0.0
shoneep 0.0
magicmetalninja 0.0
barbaro 0.0
michael_favreau 0.0
christichat 0.0
mai_ttag 0.0
thydanielflores 0.0
costakenneth 0.0
svhlevi 0.0
johnjohnlacca 0.0
ladytsbrug 0.0
frankdallasagg 0.0
ladyjoanne 0.0
gerriweth 0.0
longbyfive 0.0
wesleyfelixpsi 0.0
manakoa 0.0
ragdollive 0.0
xgodfatherxzx 0.0
trumptrainrider 0.0
aprillajune 0.0
takingit_back 0.0
distlerjoyce 0.0
queencharlotteo 0.0
kellyriddell 0.0
valdosta_monkey 0.0
daybastrop 0.0
nathandwilsonfl 0.0
mathewjmari 0.0
stupor 0.0
matandsher 0.0
edgoeas 0.0
lynnepatton 0.0
erictrumpfdn 0.0
mikeozanian 0.0
lexingtonbobby 0.0
annettejeanne 0.0
andrebauer 0.0
waterbury 0.0
greenskydeb 0.0
keksec__org 0.0
ashleyedam 0.0
trumptbird 0.0
herb_stamper 0.0
senfrankniceley 0.0
anneslimo 0.0
agentvf 0.0
hornick 0.0
gqforbes 0.0
governor_savage 0.0
carolde 0.0
fugedaboudit 0.0
dnglax 0.0
alexnightrasor 0.0
lilrachiepoo 0.0
