awesome 0.0
christmas 0.000301225974043
trying 0.000247120210731
moment 7.45368348762e-05
wonderful 5.55171334353e-05
seeing 7.61621873944e-05
recommend 7.35637923939e-05
anybody 0.000265288744385
worked 0.000106897600033
direct 0.000559897213516
others 0.000425282711057
currently 0.0
better 0.00127124453232
please 0.000545131952173
social 0.000304515521027
around 0.000195576081896
people 0.00163794968588
leaving 0.000307845806469
morning 0.00027037072216
general 0.000506855442007
investigate 5.30810583097e-05
damage 8.0594160568e-05
everything 0.00014747493936
twitter 0.000468264472549
though 0.00069102992447
friend 0.000197696168585
watched 0.000111034266871
beautiful 7.59570375244e-05
anything 0.000149879617172
helped 0.000269423539949
managing 0.000167325586814
updated 0.000117204986084
thinking 0.000175805020257
finally 0.000100460011576
caught 5.53664583685e-05
believe 0.000269642935214
already 0.000343181917544
couple 0.000188086405838
orlando 0.0
research 0.0
chance 0.00017205409592
meaning 0.0
annual 0.0
quickly 0.0
growing 0.000147387974371
probably 0.000346478318677
should 0.000584800874588
changed 0.000157765417423
history 0.000303828150098
center 0.0
museum 4.26775874687e-05
behind 0.000440046184265
pretty 0.000175805020257
really 0.00083569132304
expensive 0.000211321943635
little 0.000392207905765
earlier 0.000143798432717
realized 0.0
forget 0.000249126816544
someone 7.43361752963e-05
mostly 7.46675417578e-05
worker 0.000207350888252
safety 0.000142439678686
shuttle 0.0
program 0.0
things 0.000146682061422
related 3.61356820908e-05
visiting 0.000169512265593
available 2.55247389135e-05
afternoons 0.0
perfect 5.11874018126e-05
different 0.000149879617172
numbers 6.14460859218e-05
delays 0.0
person 7.39364956657e-05
watching 0.000518952442535
passed 0.000119872747174
celebrates 0.0
minutes 7.61621873944e-05
travel 0.000240407342973
daughter 0.000118886640926
average 7.03946042181e-05
positive 0.0
outside 0.000546243782566
looking 0.000465746888096
forward 0.000227257379701
plenty 3.64566540131e-05
agreed 0.000131804350156
raising 0.000175476133807
listened 0.0
afraid 0.000127068808409
impression 9.03218194072e-05
drawing 0.0
favorite 0.0
magnet 0.0
picture 7.84575421256e-05
historic 7.42230476013e-05
instead 0.000775130417159
appreciate 0.0
husband 0.0
international 0.000273462035718
market 0.000364522640543
couldn 0.000614248821752
remember 0.00034410819184
impressive 0.000101416899448
familiar 0.0
friends 0.000271832231804
despite 0.000209354075064
impossible 0.000133688571089
everyone 4.915831312e-05
florida 7.24844103595e-05
always 0.000635622266161
months 0.000102651431931
moving 0.000105747139223
meeting 0.000201462536902
google 0.000123576007084
answer 0.000705118879158
together 0.000147872991331
inside 0.000204749607251
smaller 0.0
missed 0.000274039498198
active 0.0
longer 0.000283697738086
enough 0.000298147339505
driving 0.00018030550723
building 8.28243693088e-05
technician 0.0
enjoying 0.000120203671487
london 0.00169568463972
kennedy 0.0
recent 9.74668124313e-05
gotten 0.0
amazing 2.45129941103e-05
attention 5.56682742681e-05
richard 0.00014285668589
progress 0.000102291753131
tomorrow 0.00054074144432
george 0.000824938327103
excited 0.000153977147897
campaigning 0.000110146638705
understand 5.35936712943e-05
following 0.000129008809119
learning 0.0
evening 0.000168832660306
special 0.00019822980079
secret 0.000165199482336
across 5.49171992769e-05
comparison 4.59420307912e-05
surprised 8.79486836526e-05
anymore 0.0
rather 0.000138040615515
showing 0.000104893089769
saying 0.00017964000588
tweeted 9.74668124313e-05
updates 3.57141714724e-05
thoughts 2.60819598508e-05
exactly 0.000212641355528
except 9.3980110541e-05
getting 0.00014747493936
nothing 0.00041784566152
tweets 0.000216709949721
course 0.00027926135378
stephen 8.08468434067e-05
looked 5.58198837553e-05
difficult 3.23975466782e-05
stages 0.0
office 0.000318962033293
decisions 7.42230476013e-05
brought 0.000136180076533
biggest 0.000329147162606
thrilled 7.48913134092e-05
entire 5.46199702736e-05
something 0.00027037072216
closing 0.0
anyone 0.000123893625494
taking 0.00027037072216
recently 9.58369446739e-05
interesting 0.000629836127545
original 0.0
flying 9.26820053134e-05
happening 0.000133984178236
sometimes 0.000108354974861
stopped 8.65152628318e-05
yesterday 4.95574501975e-05
service 0.000270154392817
serious 0.000315530834847
emails 8.50781542504e-05
afford 0.00019837492694
british 0.00214913218494
contact 6.74183902284e-05
either 8.03905069415e-05
second 0.000371680876482
accident 4.53151500275e-05
checking 0.0
volunteers 0.0
indeed 6.7034905749e-05
island 0.000173957666439
hearing 0.000137292998192
choose 0.0
staying 0.000232628410812
another 0.0011766237173
address 9.94152656026e-05
display 4.39608155006e-05
originally 0.0
compare 8.97106361931e-05
landing 0.0
perhaps 0.000222669142804
weekend 9.96507266176e-05
appear 3.72223947854e-05
anyway 0.000158836010511
theory 8.0594160568e-05
recognize 0.0
working 0.00046700397464
bigger 0.000374899472271
screen 3.32326301161e-05
treated 8.08468434067e-05
laughing 0.00014577959523
wanted 0.000347838562756
current 8.69899637169e-05
grateful 6.42508129255e-05
friendship 0.0
family 0.00031952903528
listening 8.08270619847e-05
stream 6.76112662989e-05
wedding 0.0
sharing 5.78348194743e-05
double 0.000334009645608
especially 0.0
middle 0.000141077667424
waiting 0.000226645354015
definitely 5.37389730966e-05
walking 0.000176865569246
account 0.00014419210472
completely 2.91559190459e-05
thought 0.000223008525889
reaction 3.36131360113e-05
accept 0.000534040899329
possible 2.60116086936e-05
simple 5.72059488053e-05
manufacturing 0.0
destroyed 0.000141738541583
professional 3.64566540131e-05
friendly 0.000146258352034
members 0.000216859521178
supposed 0.00016336375225
astronauts 0.0
component 0.0
business 0.000238575348023
absolutely 0.000131471181186
sending 2.85249934426e-05
delivering 0.0
heavily 0.0
biased 0.0
introducing 0.0
congrats 0.000258017618237
community 0.000212105630161
greatest 8.06084596449e-05
posted 0.0
saturday 0.000155648756431
wednesday 0.000148200170391
confused 7.16377394981e-05
explain 0.000200768434315
broken 0.000182812953954
chicago 0.0
fairly 5.12389898461e-05
hoping 0.000147793397798
relationship 0.000165222876319
actually 0.000100731268451
basket 0.0
myself 3.2215783683e-05
pocket 4.21281933316e-05
argument 0.00022739035233
decent 0.000393027986044
school 0.000699438213472
thursday 5.25884724745e-05
selling 0.000134452544045
talented 0.0
discuss 0.000253427721004
celebrate 2.71622686134e-05
celebrating 2.93162278842e-05
anniversary 5.94433204631e-05
contest 0.00022424753487
internet 6.11065427484e-05
figure 0.00014698389119
inspired 0.000148608301158
sitting 5.55171334353e-05
complaining 9.3827126025e-05
playing 0.000399678979127
street 0.000435776244905
points 0.000315019516493
advice 2.88384209439e-05
forever 0.0
congress 0.0
imagine 0.000191689256209
problem 0.000316384879476
played 0.000192210197469
canadian 0.0
pulling 4.18580578733e-05
keeping 0.000109834398554
lovely 0.000216258012398
chinese 0.00019837492694
unlike 0.000227351848308
allowed 0.000161532481277
otherwise 3.48923458441e-05
afternoon 0.0
planned 3.52998054468e-05
strange 0.0
notice 0.0
difference 8.06084596449e-05
author 4.10651123549e-05
intent 5.72424565029e-05
letting 3.02172247051e-05
system 0.000122892171844
almost 2.457915656e-05
details 5.37389730966e-05
experience 0.0
viewed 0.000117606868184
living 0.000333617153776
bright 3.45911468361e-05
normal 3.29510875391e-05
practically 0.0
before 5.33043567196e-05
monday 0.000230965721845
realize 0.0
currency 0.0
sleeping 3.90683286946e-05
wanting 0.00027098002187
science 0.0
tweeting 8.41867805736e-05
forgot 0.0
herself 5.90735695505e-05
disaster 0.000452051716395
happens 0.000101823883628
silence 7.74228633913e-05
congratulations 2.70887437152e-05
natural 0.0
raised 3.21254064627e-05
mission 0.0
ironic 0.000163849057755
testing 4.30978902607e-05
deleted 9.76032771322e-05
channels 0.0
surprising 0.0
reference 4.15908747741e-05
forgotten 0.000182822940042
trouble 0.000151923353177
setting 3.48923458441e-05
reminds 0.000104374599864
fantastic 0.000202976582006
loving 0.000115986618289
hardly 9.12531622421e-05
complete 2.82155334847e-05
membership 5.30810583097e-05
nearly 0.000193838977533
spirit 0.000254850098778
launched 0.0
stories 0.000132900847205
including 0.000382339791915
inviting 0.000151963713999
wouldn 0.000689217672066
choice 0.000262232724422
offended 0.0
conversation 2.98857347416e-05
disrespectful 7.20186955711e-05
making 0.000392207905765
expect 0.000147387974371
discussion 0.000143275478996
believes 8.61957805215e-05
occasions 0.0
response 0.000289174097371
brings 2.96400340781e-05
subject 4.11954967186e-05
greetings 0.0
anytime 0.0
protected 0.0
location 3.85936145508e-05
thomas 0.000115780843652
missile 0.000256766226986
needed 0.000131116362211
seriously 0.0
spending 0.000213872899619
groups 0.000119024956164
modern 0.000141610961515
welcome 0.000223610504629
totally 5.67395476172e-05
evenings 0.0
laughed 0.0
running 0.000361224665532
finished 5.87935564758e-05
strong 0.000101276050033
hopefully 0.000156197741523
respond 3.71115238007e-05
message 5.21639197016e-05
coming 0.000220616946993
thankful 0.0
temporary 5.30810583097e-05
issues 5.86324557684e-05
challenge 0.000161654123969
happen 0.000200379010131
giving 0.000223610504629
turkey 0.000501464176487
common 3.03846706353e-05
pressed 6.74082053122e-05
healthcare 0.0
benefits 0.000192968072754
situation 0.0
workers 0.00114619175128
company 0.000167004822804
health 0.000347959854868
insurance 0.00029680942988
change 0.00022121240904
august 0.000104073404242
mental 0.000146258352034
carrier 0.0
neither 6.7804906237e-05
lowest 5.02725790263e-05
decide 0.000121875302636
happened 0.000181100575813
demand 0.00035637301346
generally 0.0
personal 0.000133622000041
beyond 0.000109834398554
passion 3.72223947854e-05
question 0.000200920023151
doctor 0.000150683905465
sacrifices 0.0
respected 5.37272724158e-05
position 0.000100552358624
increased 5.00837980864e-05
losing 0.000212105630161
strain 7.06726486347e-05
respect 0.000349303325128
collapse 0.0
shouldn 0.000235174225903
career 0.0
visited 0.000115780843652
challenger 7.11131472232e-05
reason 0.000362201151625
simply 3.07230429609e-05
audience 0.0
employees 4.70793060896e-05
accounts 4.10651123549e-05
attacked 0.0001923923157
involved 5.72059488053e-05
extreme 0.0
unhappy 0.0
caused 4.21281933316e-05
knocked 5.32945706733e-05
reality 0.000116943768257
mention 0.000121203217235
extremely 0.0
burned 0.0
without 0.00039645960158
falling 0.000144968820719
problems 3.03008043087e-05
timing 8.73395524543e-05
highly 3.49935758448e-05
online 2.64367848058e-05
animals 8.21302247098e-05
called 0.00071664861112
scientists 0.0
pictures 9.31984935797e-05
camera 6.42508129255e-05
heading 0.000116943768257
terribly 0.0
theater 0.0
paying 0.000191673889348
complex 0.0
sunday 0.000228486562183
nights 0.000181211025899
enthusiastic 0.0
increasing 0.0
traffic 0.0
opposite 0.000120891240852
lookout 0.0
reached 0.0
changing 6.02678597415e-05
harder 0.000136780940735
silent 0.0
speaking 0.000112555106871
careful 7.44447895709e-05
november 3.29510875391e-05
answered 7.76596387716e-05
number 0.000151096902677
atlantic 0.0
stupid 0.000205171411102
budget 0.000830601318263
unless 0.000333308847396
calling 0.00020641409459
lately 0.0
levels 7.55688395456e-05
focused 0.0
ridiculous 3.39024531185e-05
financially 7.29590811323e-05
knowing 6.79993161173e-05
former 0.000463410026567
covers 7.95962887806e-05
mountain 0.0
suffers 6.8184366065e-05
schedule 0.0
greatly 0.0
friday 0.000124563408272
dramatic 0.0
failure 0.000316419549814
achieve 4.11954967186e-05
winner 0.000136549925684
closes 0.0
bother 9.3827126025e-05
directly 4.05504194447e-05
quality 0.0
tearing 0.0
father 8.39579472188e-05
wishes 0.000128141448497
collar 6.32069803219e-05
ground 0.000127425049389
matter 5.27308132459e-05
strategy 0.000204032057099
themselves 4.29569849125e-05
asking 0.000156069652162
mobile 0.0
device 0.0
computer 0.0
impressed 3.72223947854e-05
complain 4.64229710931e-05
dinner 0.000135811343067
suffering 4.62616041031e-05
single 0.000227871112573
parent 9.00152728202e-05
packed 0.000120891240852
catching 3.63491944544e-05
neglected 0.0
somewhat 0.0
approved 0.0
definition 0.0
energy 0.000116943768257
meltdown 0.000127717878463
events 0.000121875302636
europe 0.00105398939982
holiday 0.000141462660029
status 0.000185005766819
update 0.0
outage 0.0
customers 0.0
holding 5.81523142294e-05
survive 4.17241013176e-05
electric 4.39608155006e-05
picked 6.12760195921e-05
missing 7.86698173265e-05
surprise 0.000131471181186
german 0.000211321943635
officially 0.0
french 0.000442260687104
global 0.000131431823836
follow 7.41360632193e-05
opinion 3.20353621243e-05
design 0.0
allows 0.0
promoting 4.2264388727e-05
volunteer 0.000102873884855
negative 7.16377394981e-05
official 0.000330036145376
brutal 0.000171267548197
cotton 0.0
jersey 0.0
mistake 0.000101998974176
fixing 4.89807383432e-05
france 0.000545556016696
proper 3.90683286946e-05
peaceful 5.18377220629e-05
thinks 0.000229449639217
competition 6.64652602321e-05
industry 0.000104073404242
easier 3.33272028074e-05
successful 0.000100839408034
trending 0.0
leadership 0.000654098162133
agrees 4.82720797325e-05
organized 0.0
enthusiasm 0.0
turnout 0.000267549821137
showed 0.000185364010627
attended 0.000197371691588
trumps 0.000115503575277
networks 0.0
experienced 0.0
interested 9.47701472365e-05
effect 0.0
dislike 5.82719564163e-05
success 0.000194309967023
dreams 3.23064962555e-05
protect 6.30039032987e-05
rumors 0.0
arguing 9.83223198037e-05
referred 0.0
waving 6.35307865159e-05
growth 0.000120891240852
control 0.000247127396746
happier 0.0
likely 0.000262863647671
coincidence 0.000207350888252
cancel 0.000154310827283
project 8.32757001529e-05
laying 0.0
lesson 0.000102585705551
replacement 0.0
invited 0.000172955734181
continuing 9.0940739323e-05
clearance 0.0
treating 0.000186995744235
allowing 4.30978902607e-05
arrived 8.91649806947e-05
unable 0.000106162116619
opening 8.01732000249e-05
popular 0.000201678816068
followed 3.26727504501e-05
statement 0.000222993836431
enjoyed 0.000262403271413
spectacular 0.0
smoothly 0.0
length 4.84473278682e-05
wonder 0.000186565248519
matters 3.23064962555e-05
function 5.48437682738e-05
shared 3.37091951142e-05
connection 0.0
benefit 0.000246466983409
terrible 0.000156633517568
continues 2.99681867936e-05
equally 4.64229710931e-05
session 3.21254064627e-05
routine 4.9896463758e-05
associated 0.0
exciting 2.94775948743e-05
imagination 0.0
decides 0.0
cheering 0.000194495365377
spring 9.42425116463e-05
fallen 0.000216198062281
beautifully 0.0
places 2.93162278842e-05
entered 0.0
feedback 0.0
thousands 3.60296211425e-05
properly 0.0
informed 0.000129718837368
typical 0.0
continue 0.000141848869043
attend 0.0
excuse 0.000249269437701
female 0.00013106071128
recovery 0.0
closer 0.0
beginning 3.08940017711e-05
introduce 0.0
bought 0.00018030550723
multiple 0.0
slogan 0.000180554966025
covered 3.18562623472e-05
choices 3.97981443903e-05
unpredictable 7.49558647926e-05
enterprise 6.32069803219e-05
several 0.0
surrounded 0.0
dealing 0.0
teacher 3.66730006484e-05
training 0.000159281311736
auditorium 0.0
passing 9.96978903482e-05
become 0.000153977147897
presentation 0.0
spread 2.80622601912e-05
sooooo 0.0
season 0.000379242412012
putting 0.000129008809119
weight 0.0
stephanie 0.0
rapidly 0.0
follows 0.0
explained 8.73395524543e-05
stance 0.0
storms 5.88034340922e-05
headed 0.0
sleepy 0.0
returns 3.29510875391e-05
expected 7.03946042181e-05
resources 0.0
considering 0.0
fabric 6.981477078e-05
suspect 0.000176430579329
constantly 4.53151500275e-05
condolences 5.37272724158e-05
appreciated 7.74228633913e-05
register 0.000109693764025
manage 0.0
transition 4.75833860149e-05
smooth 4.89807383432e-05
flowers 4.6585410297e-05
gained 5.57751956047e-05
savage 0.0
somebody 0.000183365003242
contract 0.0
furious 0.000217564131694
covering 0.000114038694501
boxing 5.43910329235e-05
credit 0.000151504021543
patriots 0.0
player 0.000102880840882
chemistry 0.0
grandkids 0.0
offensive 4.45534993218e-05
charles 0.000118291539745
fighting 0.000279859824063
atlanta 0.0
donald 0.00169439066145
mexico 7.10122211099e-05
unreal 0.0
police 0.000982032418889
represent 8.31817495482e-05
president 0.000791989568967
talking 0.000665428460991
unbelievable 3.90683286946e-05
alabama 0.0
slowest 0.0
conference 0.000426563559226
america 0.000183067598293
michigan 0.0
everybody 0.000181804825852
judgment 5.82719564163e-05
carolina 0.0
amount 3.44915662087e-05
houston 0.0
everyday 0.0
michael 0.000693964167941
protecting 4.38148627672e-05
million 0.0
election 0.00352585512433
honesty 5.28693945612e-05
telling 0.000111639767511
correct 0.000158392325627
pulled 0.000258238952829
attack 0.000443498511756
americans 0.000205171411102
salaries 0.0
killed 0.000301225974043
louisville 0.0
horrible 0.0
coverage 0.000233290419652
dallas 0.0
jacksonville 0.0
league 0.000568475880824
united 0.000350418885819
college 6.14460859218e-05
refuse 0.0
barackobama 0.0
hillary 0.000219804077503
clinton 0.00100428471094
presidency 0.000265405291548
manning 0.0
stupidity 6.48706840345e-05
american 7.82458795524e-05
remain 0.000449684908869
founder 0.0
illegal 0.000122806259066
arizona 0.0
opinions 4.21281933316e-05
retire 0.0
triumph 5.62545641054e-05
stealing 0.000100925658187
speeches 5.26595476913e-05
innocent 0.000141237918269
scared 7.2059242285e-05
golden 3.31384218675e-05
straight 0.000163416091839
removed 0.0
answers 0.000253427721004
product 0.0
created 5.91173591194e-05
snoopdogg 0.0
worlds 0.0
record 0.000359280011759
stamina 0.0
weapon 4.9896463758e-05
funeral 0.000217564131694
registered 0.0
minnesota 0.0
committed 0.000116134295087
journey 0.0
disrespect 0.0
brother 0.000119872747174
prayers 0.0
documentary 0.0
boston 0.0
addition 0.0
korean 0.0
church 7.46675417578e-05
advantage 4.19927524853e-05
honestly 0.0
defeat 0.000485184093155
baltimore 0.0
lifetime 0.000111334571402
captain 8.34482026353e-05
retired 0.000149689391274
country 0.000431585728568
valley 0.0
mailbox 0.0
speedy 0.0
ending 3.30445752639e-05
finish 6.04344494102e-05
employee 0.0
university 0.000105591906327
remembered 4.64229710931e-05
nominated 3.68912789756e-05
praying 0.0
insane 0.0
national 0.000451862880498
reform 0.000145871524033
oregon 0.0
shooting 6.14460859218e-05
cancer 0.000123576007084
australia 7.29133080262e-05
deserve 0.000150669649354
legend 9.82955334602e-05
mother 0.000109536717834
murder 0.0
creating 0.0
powerful 0.000239745494349
carson 0.0
palmer 0.000118693446689
branch 0.000108782065847
breaking 0.000132183924029
dollars 0.0
questions 0.000277010988241
racist 0.00150468228609
charged 4.6585410297e-05
girlfriend 0.0
performance 0.000113789041741
refreshing 5.74957956636e-05
reading 0.000156491759105
corrupt 0.0
penalty 4.93429228971e-05
writer 0.000111667184356
denver 0.0
create 8.53417813057e-05
admire 0.000363762957292
nobody 0.000150669649354
government 0.000625292235348
politics 0.000939371398772
comeback 4.50076364101e-05
charities 5.77517876386e-05
method 0.0
sample 0.0
bringing 5.52162462059e-05
celebs 0.0
stadium 0.00020795437387
funniest 4.48553180965e-05
according 6.51613424133e-05
threat 0.000146258352034
heroin 0.0
honest 0.000183319628245
rolling 0.000110673836927
became 3.07230429609e-05
feature 3.37091951142e-05
decision 9.19140293882e-05
counting 3.48923458441e-05
verified 0.0
signing 6.4431567366e-05
adding 3.8948783174e-05
embrace 4.29569849125e-05
pressure 0.000233954999406
celebrities 0.0
dearly 0.0
facebook 7.88827087117e-05
divided 0.000161181817247
extension 0.0
lawyer 0.000186995744235
charleston 0.0
brazilian 6.38589392314e-05
basketball 0.0
campaign 0.000484924888525
determine 0.0
whether 0.000279595480739
praise 0.000208620506588
factory 0.0
arrested 0.000232114855466
investments 0.0
activity 0.0
comments 5.99363735872e-05
wounded 0.000252827921288
endorsement 0.000109687536548
williams 3.91884616647e-05
future 0.000227871112573
struggled 0.0
blessed 0.0
sabotage 0.0
warrior 0.000104490363331
softball 0.0
cheating 0.000119804722263
voting 0.000272707238778
instincts 0.0
collins 0.0
succeed 0.000138303885794
commercial 3.37091951142e-05
religion 0.0
boring 0.000127617231376
acting 3.5197302109e-05
established 0.0
warriors 0.0
because 0.0
sensitive 0.0
smiling 0.000130146483074
traitor 7.95173335588e-05
cleveland 0.0
agents 0.0
periscope 6.93968629927e-05
killing 0.000219286924596
choosing 0.0
phillips 0.000128383113493
instagram 0.0
opponent 5.30810583097e-05
detroit 0.0
cousin 0.0
honored 0.0
nonsense 4.59420307912e-05
dedication 0.0
hammer 5.60137049134e-05
proven 0.0
talent 0.0
governors 0.0
knocking 0.000180554966025
russian 0.000204677098444
consecutive 0.0
skills 0.0
citizens 0.0
cameras 4.93429228971e-05
phones 0.0
california 0.0
commitment 4.06780803627e-05
maryland 0.0
seconds 3.28579559589e-05
placed 5.12389898461e-05
listen 0.000228486562183
dominating 0.000145918162265
whatever 0.000141077667424
wherever 4.70793060896e-05
fought 0.0
compete 0.0
lauderdale 0.0
injured 0.00013057663698
billion 3.5197302109e-05
shoutout 0.0
depressing 0.000103675444126
guilty 8.31817495482e-05
carpet 0.0
harvard 0.0
absolute 0.0
handle 6.40707242487e-05
promise 0.000291559190459
hosting 0.0
longest 4.36697762272e-05
generation 6.74183902284e-05
criminal 0.0
tuesday 8.3729825633e-05
garbage 0.0
goldman 0.000218877243397
ronald 6.52174559514e-05
locker 0.0
leader 0.00121734376073
desperately 0.0
character 0.0
chancellor 0.000476983709501
proving 0.000153127881787
jackson 0.0
interview 0.00032473917054
buffalo 0.0
insight 8.73395524543e-05
obviously 6.89831324173e-05
battle 0.000228199947541
destroy 8.53551749374e-05
killer 0.000149335083516
personally 0.00014202444222
relentless 6.66559302578e-05
winning 0.000157339634653
charlotte 0.0
trafficking 0.0
defense 0.0
japanese 0.0
causing 5.18377220629e-05
arabia 6.45287622338e-05
rapist 8.51297422838e-05
writing 2.84472604352e-05
society 6.7804906237e-05
officers 0.000104081205961
ambushed 0.0
sources 0.0
kentucky 0.0
incredible 0.000132541860013
ungrateful 0.0
kissing 0.0
minute 2.76832291842e-05
luther 0.0
foreign 0.000691527366166
phoenix 5.08478293374e-05
champions 0.000138303885794
virginia 0.0
streak 0.0
orange 0.000147127584788
policy 0.000324266590283
intentional 0.0
reminder 5.91173591194e-05
evidence 0.000255196578092
presidents 0.000103273021933
judged 6.32069803219e-05
accused 0.000291743048066
intentions 0.0
facing 0.00012127026511
freedom 6.83904703673e-05
actions 0.0
debating 0.000108782065847
consequence 0.0
coughing 0.0
clearly 0.000155763513531
invite 6.95830665757e-05
central 0.000226782826747
washington 9.74668124313e-05
tougher 0.000118693446689
veteran 0.000144816239198
division 9.03218194072e-05
overrated 0.0
veterans 0.0001923923157
stronger 0.000156273314778
bowden 0.000236488667938
promised 0.000282079561988
catches 0.0
worried 0.000177530552775
security 9.77420136199e-05
sanctuary 0.0
reverse 4.59420307912e-05
immediately 3.42936136272e-05
television 0.0
entitled 0.000106589141347
racism 0.00066379882629
highest 0.000104073404242
approve 4.86238413443e-05
turning 0.000307230429609
georgia 0.0
tennessee 0.0
legacy 0.0
leaked 5.28693945612e-05
choked 0.0
helping 2.70154392817e-05
tickets 0.000118886640926
suspending 8.43535815311e-05
suspend 7.49558647926e-05
willing 3.73337708789e-05
december 0.0
beating 0.000209290289366
basically 0.0
return 0.000217298148907
escape 0.000131882446502
locked 0.0
unacceptable 5.30810583097e-05
network 3.42936136272e-05
language 0.000240746726924
invest 0.0
creation 0.0
followers 0.000158836010511
schools 0.000453600495973
menace 0.0
movies 0.0
entity 0.0
children 0.000189108074972
nation 0.000123576007084
flexible 0.0
review 0.000380067246834
knowledge 0.0
begins 0.0
vanessa 0.0
forbes 0.0
parade 0.000135945450082
fireworks 5.62545641054e-05
shoulder 0.0
produced 3.84763624784e-05
consider 3.25806712066e-05
latest 0.000318962033293
signed 2.70887437152e-05
shower 4.32396124561e-05
thunder 0.0
charity 0.000308642522645
germany 0.000149335083516
advance 7.14283429448e-05
explaining 0.0
millions 0.000299093671045
blessings 0.0
diamond 0.000111550391209
dollar 0.0
monsters 0.0
rigged 0.000563147616059
conduct 0.0
cooked 5.80104885738e-05
turned 0.000188596477964
criticism 0.000410639230089
responded 0.0
depending 0.0
jackie 0.0
charge 6.79993161173e-05
ticket 0.000164755437695
finest 0.000145341983605
sanders 5.39465295827e-05
includes 0.0
dealers 0.0
against 0.000162503313013
benjamin 0.0
impact 6.57159119178e-05
families 0.000408384217134
selection 4.67489360588e-05
hitting 3.27651778201e-05
announced 5.97714694833e-05
decided 5.87935564758e-05
professor 0.0
itself 0.000166896405271
promote 3.95524437268e-05
mexican 0.0
owners 0.000141738541583
guards 6.89859791992e-05
guarantee 0.000144294236775
beliefs 0.0
citizen 0.0
states 6.19598631936e-05
memorial 0.000119765780955
decades 3.94305132484e-05
landed 7.67193401678e-05
ultimate 7.12198393432e-05
mcdonald 0.0
twenty 5.30810583097e-05
hispanics 0.0
financial 0.000129718837368
payments 0.0
grabbing 0.0
permit 0.0
shield 0.0
disney 4.95260474255e-05
kansas 0.0
agreement 0.000181881478646
source 0.000137966264835
dismiss 6.66559302578e-05
talents 0.0
homework 5.46163525852e-05
expectations 0.0
joining 5.78348194743e-05
eugene 0.0
reasons 0.000143014872013
talked 3.08940017711e-05
released 5.72059488053e-05
reaching 4.50076364101e-05
release 0.00010776941598
promoter 0.0
circumstances 0.000107019928455
scheme 0.0
warwick 0.0
highlight 0.0
within 0.000156633517568
stacked 0.0
speech 0.00061902949236
standing 0.000280622601912
higher 0.000164755437695
justice 0.000495668628958
served 7.42230476013e-05
speaks 0.000106518331665
navarro 0.0
dropped 9.09024129261e-05
consideration 0.0
predicted 9.51667720299e-05
strength 0.0
andrew 0.00049867571109
replace 0.0
incredibly 0.000173455673737
private 0.000504031226389
integrity 0.0
sanford 0.0
ignored 0.000234567815062
neighbors 0.0
affection 0.0
minimum 0.000354581999331
direction 0.0
enemies 0.000522451816657
exclusive 5.83118380918e-05
prison 0.000303675127172
himself 0.000157722052994
investigation 0.000135945450082
disgusting 4.80980789251e-05
congratulate 0.0
philly 0.0
rights 0.000364522640543
replaced 9.58506156313e-05
recognition 5.37272724158e-05
maintain 0.0
tallahassee 0.0
handed 0.000141237918269
victory 0.000421142721137
classy 4.89807383432e-05
lifted 0.0
terrorist 0.000904906422474
productive 0.0
tribute 0.000202255170685
threatened 0.000105319095383
insecure 0.0
horror 0.00024400819283
discovery 0.0
convention 0.0
understanding 0.0
action 7.90962198689e-05
figures 0.00012557417362
having 0.0
marine 0.000155513166189
announces 3.75580569497e-05
wallace 0.0
speaker 0.00032748335751
stevens 0.0
cybersecurity 0.0
apologize 0.0
continued 4.21281933316e-05
journalist 0.000657222941508
libelous 0.0
formation 0.0
letter 0.000181804825852
discussed 0.000131444588302
therapy 0.0
widespread 0.0
untrue 0.000193586286701
written 5.99363735872e-05
conferences 0.000114484913006
results 0.000192752438776
papers 0.0018003054564
winter 6.64652602321e-05
marching 5.28693945612e-05
sessions 0.0
democrats 0.000107893059165
eastern 0.0
scientist 0.0
represented 5.50733193523e-05
waters 0.0
journal 0.0
foundation 0.0
access 3.02172247051e-05
analysis 8.08468434067e-05
writes 4.00463395194e-05
colorado 0.0
medical 0.0
tremendous 0.0
nytimes 7.44447895709e-05
public 0.00096984977705
cheaters 0.0
cannot 2.73841794585e-05
reveals 0.000110019001945
immunity 0.0
threatens 0.000170230561827
candidate 0.000390683286946
brilliant 0.000361607158449
wisconsin 0.0
studies 0.0
measure 0.0
compared 0.000169605388503
donors 6.32069803219e-05
graham 0.000204170509049
incorrect 0.0
headline 0.000192381812392
careers 0.0
answering 7.40023067277e-05
streaming 0.0
leaders 0.000358188697491
supreme 0.00029680942988
nominee 0.0
gorsuch 0.0
protest 0.00020795437387
immigration 0.0
policies 0.000133660497965
administration 4.64229710931e-05
defend 0.000281199719064
excitement 0.0
funding 0.000274319231653
surveillance 0.0
transfer 5.41677710043e-05
conspiracy 0.000145341983605
horrifying 0.000120941843758
formed 0.0
interviews 6.66544056149e-05
retreat 6.45287622338e-05
alliance 5.69917157383e-05
platform 3.8948783174e-05
editing 4.72461805276e-05
february 7.22713641816e-05
association 4.84473278682e-05
airwaves 0.0
hamilton 0.0
futures 0.0
borders 0.000170230561827
border 9.58506156313e-05
uranium 0.0
misleading 0.0
january 0.000101998974176
topics 0.0
unprecedented 0.0
airplane 0.0
tragic 0.000177615903429
philadelphia 0.0
funded 0.000226575750137
secure 0.00013456595429
income 0.000180643638814
hurricane 0.0
breakdown 5.20406029803e-05
countries 0.000106208221136
linked 0.0
broadcast 0.0
african 9.06303000549e-05
triple 4.48553180965e-05
provide 7.2059242285e-05
enhance 0.0
development 4.24013471258e-05
companies 0.000203390401813
discussions 0.0
developing 9.9052094851e-05
proposal 0.0
potential 6.7804906237e-05
moderator 8.08043154502e-05
suggestion 0.0
attending 0.0
filled 3.44915662087e-05
schultz 0.0
education 9.91337257916e-05
sickness 0.0
mentioned 0.000108407046272
exists 0.0
henderson 0.0
plants 0.000112995639891
orders 4.41076448323e-05
officials 4.32396124561e-05
strategic 6.62882991159e-05
ability 3.57141714724e-05
political 0.00133749748014
director 6.12760195921e-05
behaving 0.000160304713082
deficits 0.0
sufficient 0.0
prevent 0.0
shoddy 0.0
capacity 0.0
donations 4.64229710931e-05
editors 0.000167325586814
discussing 0.00148446095203
persistent 0.0
treatment 7.69527249568e-05
establishment 0.000457939652023
protects 0.0
critical 3.90683286946e-05
ambassador 0.000127204041377
preparing 4.10651123549e-05
capable 5.04628290934e-05
bishop 0.0
producers 0.0
bombed 0.0
weekly 0.0
becoming 0.000126007806597
magazine 0.0
lawyers 0.000102477979692
summary 0.000100545158053
standard 0.000248542773885
controlled 5.41677710043e-05
hiring 4.75833860149e-05
defending 0.000209963762426
pushes 0.0
admitted 5.90735695505e-05
failed 0.000364566540131
independent 0.000303187136439
copies 0.0
politically 0.000216671084017
driven 8.91069986436e-05
agenda 4.42553613556e-05
blocked 0.000331666962634
result 0.000389430144167
announcing 0.0
destruction 0.000231007150555
culture 0.00023731717183
insider 0.0
traitors 0.0
prince 0.000178049598358
solutions 0.0
indiana 0.0
mongering 0.0
claims 0.000276013592739
editorial 0.000102477979692
prospects 0.0
mistakes 0.0
offered 8.08468434067e-05
founded 0.0
ignorance 0.000245805799509
inspiring 0.000298245796808
majority 0.00057673695406
embarrassing 0.000264645868994
creators 0.0
server 0.0
berniesanders 0.0
spotlight 0.0
readout 0.0
tactics 0.000119245927375
irrelevant 0.0
massive 6.23054054125e-05
receiving 4.61012952648e-05
promising 0.000214909089663
promises 0.000280493616353
consequences 0.0
production 0.0
proposals 0.0
elsewhere 0.000101309142666
bernie 5.28693945612e-05
hacking 0.0
guests 7.69527249568e-05
interviewed 7.91048874536e-05
secretary 0.00132732349853
rebuttal 0.0
reduce 4.44039758573e-05
arriving 5.39465295827e-05
dangerous 0.000197706525235
shutting 0.00019670765269
arrival 0.0
canceled 0.0
typically 0.0
saving 0.000178049598358
pioneer 0.0
incident 0.000101309142666
ordering 5.8536250993e-05
victims 0.000249269437701
raises 0.0
receive 0.000103773440508
reputation 0.0
intention 0.0
commentary 4.57837971628e-05
disclosure 0.0
terrific 8.64792249122e-05
berkeley 0.0
melbourne 0.0
received 6.30039032987e-05
correctly 0.0
inherited 0.0
displayed 0.0
joseph 0.0
offices 0.0
necessary 3.77844197728e-05
largely 0.000164531304821
inaccurate 0.0
debate 0.000442260687104
conflict 5.10426272624e-05
interest 0.000275932529669
controversy 0.0
stated 0.0
rating 0.000104490363331
nominate 0.0
outstanding 0.0
devastating 0.0
accurate 7.93499707761e-05
southeastern 0.0
romney 0.0
scotland 0.000920499229496
delayed 4.84473278682e-05
rarely 4.47039429365e-05
abroad 0.00015988371202
winners 9.74668124313e-05
profit 4.79253078157e-05
reviews 0.0
republican 0.000193789311473
presidential 4.09354196887e-05
candidates 8.29167406584e-05
politicians 0.000223519714683
epidemic 0.0
greater 8.00926790388e-05
booths 0.0
arnold 0.0
principles 0.0
deadline 7.91048874536e-05
speakers 9.76032771322e-05
incoming 0.0
various 0.0
nuclear 0.000173528644099
danger 0.0
leading 6.23054054125e-05
restored 0.0
conditions 0.0
however 7.7897566348e-05
resolution 9.9052094851e-05
remained 0.0
member 0.000173030525664
examples 0.0
employ 7.1561728804e-05
courses 0.0
largest 7.74228633913e-05
hallmark 0.0
mentor 0.0
increase 3.99219269851e-05
transcript 0.0
disrupt 0.0
provided 0.0
binding 0.0
decreased 0.0
revival 0.0
crashing 6.59261145621e-05
reception 0.0
rising 0.000158209774907
primary 8.9407885873e-05
reduction 0.0
surrogate 0.0
provides 0.0
environment 9.03218194072e-05
revealed 0.0
confirmed 0.000107142514417
controls 0.000112509128211
behavior 0.0
introduced 4.67489360588e-05
carbon 0.0
communities 0.0
region 5.04628290934e-05
deaths 5.14369424275e-05
responsible 4.00463395194e-05
household 0.0
munich 0.000137971958398
canada 6.53455009002e-05
regions 0.0
movement 9.82955334602e-05
midwest 0.0
segment 4.89807383432e-05
emerged 7.24843669886e-05
hundreds 0.0
information 3.32326301161e-05
combined 0.000182506324484
easily 0.0
towards 7.14283429448e-05
inform 6.0760238986e-05
mathematically 9.13865481013e-05
october 6.85872272544e-05
investigating 0.0
predators 0.0
innovation 0.0
perspective 3.62422051798e-05
cities 7.35637923939e-05
todays 0.0
julian 0.0
eliminated 0.0
interests 4.62616041031e-05
toledo 0.0
extraordinary 0.000124375110988
eradicate 0.0
retains 0.0
ashamed 0.0
meetings 8.70510913198e-05
describing 0.0
eliminate 0.0
obligation 0.0
gender 4.48553180965e-05
committee 0.000241028330627
wasting 0.000302354609394
numerous 0.0
examination 0.0
inflammatory 0.000180777144767
practices 0.0
management 0.0
nordstrom 0.0
genius 3.25806712066e-05
warren 0.0
traveling 0.0
billions 0.0
prepared 0.000111334571402
fraction 0.0
equipment 0.0
procedures 0.0
rasmussen 0.0
county 9.06303000549e-05
developer 0.0
anthony 0.0
shadow 9.55074982901e-05
district 0.0
considered 3.8012898167e-05
lobbyist 0.0
chosen 0.0
hospitalized 0.0
outright 6.93968629927e-05
yorkers 0.0
naming 5.80104885738e-05
conventions 0.0
deficit 0.000226974082437
interventions 0.0
focusing 5.18377220629e-05
sensible 0.000286212282514
hosted 4.17241013176e-05
batman 0.0
column 0.000560648753272
upcoming 0.0
positions 0.000155513166189
favors 0.0
regulation 0.0
distributed 0.0
weakness 5.72424565029e-05
introduction 0.0
western 0.0
pacific 0.0
larger 0.0
increases 0.0
effective 0.000122419234259
situations 0.0
harbor 0.0
wealth 5.28693945612e-05
underway 0.0
israel 0.000261225908328
hysteria 0.0
overwhelming 0.0
protection 4.25390771252e-05
prisoners 0.0
guidance 0.0
montana 0.0
determination 6.0184988675e-05
restore 5.93467233446e-05
acquire 0.0
additional 5.10426272624e-05
exception 6.10530210512e-05
machine 0.000231312026847
honoring 0.0
visually 0.0
contrary 0.0
immediate 5.10426272624e-05
politico 0.0
ignoring 0.000293884430059
judges 0.000233744680294
federal 0.0
constant 4.75833860149e-05
philippines 0.0
nicely 9.3827126025e-05
september 0.0
manchester 0.000267320995931
fiction 4.91611599019e-05
priest 7.95173335588e-05
angela 0.000113983431477
process 3.12395483046e-05
destructive 0.0
genuine 4.44039758573e-05
surreal 0.0
whitehouse 0.0
flotus 0.0
crisis 0.000640406598227
judgement 0.0
confidence 0.000268517690587
voters 0.000377934772368
diamondandsilk 0.0
oldest 4.93429228971e-05
inauguration 0.000362864054441
gracious 0.0
scream 0.0
postponed 6.74082053122e-05
disappoint 0.0
believing 4.95260474255e-05
hillaryclinton 0.0
electoral 0.000270838855021
crashed 0.0
citizenship 6.0760238986e-05
closed 0.0
religious 4.84473278682e-05
apprentice 7.29590811323e-05
conservative 0.000272822217969
economists 0.0
buzzfeed 4.88016385661e-05
puppet 6.77932055563e-05
sweden 0.000145871524033
andersoncooper 0.0
treats 0.0
qualified 0.0
missouri 0.0
cooper 0.000156121808941
debates 0.000534862254788
endorsements 0.0
strike 0.000376709763663
shouting 0.000229983182654
empire 0.000186995744235
encouraged 0.0
regard 6.55692175632e-05
concerning 0.0
misinformed 0.0
disregard 0.0
barack 0.000108782065847
joined 0.000180803579224
terrorism 0.00024400819283
pushing 3.91884616647e-05
cracking 5.08478293374e-05
muhammad 0.0
refused 0.0
amazingly 0.0
express 0.000113695176165
gratitude 0.0
congratulation 0.0
throughout 0.0
shining 0.0
fighter 0.000103675444126
anticipated 6.22605262463e-05
presented 3.99219269851e-05
reveal 3.57141714724e-05
stands 0.000101998974176
native 0.0
harvey 0.0
featured 0.0
announce 2.84472604352e-05
surround 0.0
although 0.0
senior 3.83596700839e-05
todayshow 0.0
convincingly 0.0
haters 0.0
returning 0.000167432231493
laughs 4.61012952648e-05
touched 9.15675943256e-05
corruption 0.000117606868184
violence 0.000251468128396
runnin 0.0
delivered 0.0
owning 0.0
legendary 3.91884616647e-05
stabbing 0.0
independence 0.0
approval 0.0
magical 0.0
alongside 0.000140740689037
percent 0.0
spiral 0.0
differently 5.16365109663e-05
sweeping 0.0
spoiler 0.00020574776971
theirs 7.1561728804e-05
offering 0.000121651258334
remembering 0.0
floated 0.0
professionals 6.48706840345e-05
construction 5.12389898461e-05
searching 0.0
flexibility 7.20186955711e-05
sinking 0.000147874183914
detail 0.0
document 0.0
cabinet 0.000296057537382
pleased 0.000202117108517
carrying 0.000136411108985
statements 0.0
decade 7.64870640992e-05
prague 0.0
crossing 0.0
bigotry 0.000344929895996
happily 0.0
therefore 0.0
belong 0.0
customs 6.35307865159e-05
trillion 0.0
backed 0.000923852985542
electricity 0.0
observing 0.0
russell 0.0
engineers 0.0
operations 0.0
values 0.0
senator 5.06545713331e-05
confirms 0.000185046416412
removing 0.0
payment 0.0
consistently 0.000109687536548
posing 0.000184947957466
everett 0.0
wondered 4.72461805276e-05
generic 0.0
fields 0.0
mining 0.0
newspaper 0.000228918985814
detailed 5.41677710043e-05
rainbow 0.0
childcare 0.0
unlimited 0.0
exploded 7.29590811323e-05
thoroughly 0.0
adviser 0.000191576817694
leaves 0.00021303666333
matthew 4.67489360588e-05
intersection 0.0
affected 0.0
newspapers 0.000276525231514
corporate 0.000155513166189
economy 0.000168512773327
explores 0.0
spoken 8.18708393775e-05
during 0.0
credible 0.0
competitive 0.0
carefully 0.0
returned 4.80980789251e-05
blasts 0.0
guarding 0.0
hornet 0.0
successfully 0.0
southern 0.000689566244172
dakota 0.0
belief 0.0
messenger 0.0
heroes 3.73337708789e-05
russians 0.000119804722263
intelligence 0.00013411182881
deepest 0.0
graduates 0.0
describe 7.10122211099e-05
hollywood 3.60296211425e-05
reclaim 0.0
equality 0.000176430579329
announcement 3.14141705488e-05
interfere 7.65683399065e-05
interrupted 0.0
nationwide 0.0
questionable 0.0
garden 7.31291760169e-05
survey 0.0
journalists 0.000350518902137
delighted 0.000357298390837
minister 0.00112197446541
golfer 0.0
capital 4.41076448323e-05
penguins 0.0
regarding 0.0
teachers 0.000219074313836
devastated 6.41915567464e-05
phrase 4.59420307912e-05
immigrants 0.0
aliens 0.0
subjects 6.89859791992e-05
revolution 0.0
median 0.0
twelve 0.0
releases 0.0
accomplish 0.0
debbie 0.0
sebastian 0.0
briefing 0.000214039856909
advisor 0.0
commission 0.000154310827283
deadlines 0.0
hereby 0.0
invitation 0.000154310827283
alternatives 6.52174559514e-05
villages 0.0
accepted 0.000122806259066
commentators 0.0
depression 0.0
comprehensive 0.0
committees 7.34431961645e-05
pushed 0.000142750158045
statistic 0.0
donation 0.000124375110988
electronic 0.0
nomination 0.0
britain 0.00432752187964
questioning 0.0
attempt 6.97846916881e-05
investment 4.72461805276e-05
terror 0.000230506476324
homeland 0.0
polish 0.0
switzerland 0.0
represents 0.0
announcer 0.0
churchill 6.38589392314e-05
ambassadors 6.89859791992e-05
anchors 0.0
endorse 0.000212324233239
urgent 0.0
forced 0.000338022512547
expenses 0.000324353420173
preparations 0.0
string 0.0
morocco 0.0
thrill 0.0
watchdog 8.51297422838e-05
agencies 5.8536250993e-05
scrutiny 6.48706840345e-05
glorious 0.000377969444221
approaching 0.0
tragedy 8.03427768755e-05
handled 0.0
offers 3.90683286946e-05
requested 0.0
improvements 7.44411718825e-05
destroying 5.37272724158e-05
inexpensive 0.0
opposition 0.000148578142277
smithsonian 0.0
addiction 5.41677710043e-05
challenged 0.0
manhattan 0.0
richmond 0.00143199210367
forces 0.000159192577561
nations 4.84473278682e-05
anderson 9.83223198037e-05
builds 0.0
sexist 0.000177220708652
narrative 5.35099642273e-05
application 0.000168763692316
cannon 6.74082053122e-05
ethical 0.0
representation 0.0
obvious 8.29167406584e-05
statistics 0.0
military 0.000648175033268
housing 0.000504628290934
wonderfully 0.0
miller 0.0
copying 0.0
advised 0.0
ordered 0.0
unions 0.000342909435926
useless 5.26595476913e-05
alicia 0.0
economic 0.000536447315238
radical 0.0
planted 0.0
theories 0.0
conceived 0.0
readers 4.64229710931e-05
bombing 0.000343454739017
products 0.0
phenomena 0.0
classroom 0.0
classified 0.0
purely 0.0
hacked 0.0
taxpayers 0.000195652367854
opposed 0.000195922953373
pressing 0.000190592359548
russia 0.000342116083503
abraham 0.0
lincoln 0.0
observer 6.35307865159e-05
intelligent 0.0
lawsuit 0.0
detective 6.70291743053e-05
magnificent 0.000102477979692
heritage 5.80104885738e-05
beloved 0.0
dignity 0.000227966862953
priorities 0.000108782065847
repealing 0.0
murdoch 0.000372205859412
coalition 0.000390426369233
theresa 0.00935578959746
charges 0.000154310827283
activists 0.0
elected 0.000426775874687
relief 4.06780803627e-05
congratulates 8.08043154502e-05
pledge 4.57837971628e-05
elections 0.000641457997662
landslide 0.000132576598232
council 0.000451609097036
imperative 0.0
catastrophic 0.0
douglas 0.000327698115511
brexit 0.00889946355982
democracy 0.00124575256246
disastrous 6.32069803219e-05
rebuild 0.0
pundits 0.0
nickname 0.0
poison 0.000182280716958
interfering 0.0
negotiations 5.55389907697e-05
summit 0.0
dossier 0.0
unleash 0.0
negotiation 0.0
sticking 0.00033547715471
openly 0.0
embarrassed 5.26595476913e-05
ireland 0.000565832093579
attacks 0.00023658307949
remarks 0.0
democratic 0.000349275246306
outgoing 0.0
maureen 0.0
treasury 0.000189620940966
refugees 0.000583486096132
snatch 0.0
morgan 9.83223198037e-05
grieve 8.21628321703e-05
vicious 6.77932055563e-05
essentially 0.0
restoring 0.0
extended 0.0
referendum 0.000767956404157
ovation 0.000193586286701
bankrupt 6.89859791992e-05
proudly 0.0
oppose 0.000164531304821
refusal 0.0
urging 0.000127061573032
strengthen 0.0
deliver 0.000194149096929
negotiating 0.000117072501986
remaining 5.02725790263e-05
merkel 0.000195652367854
repeal 0.000113983431477
formal 0.0
reckless 0.0
prosperous 0.0
servant 0.0
desperate 0.000326097872079
secretaries 0.0
formally 0.0
breach 0.000204553098195
gloomy 0.0
outlines 0.0
concessions 0.0
executive 0.0
extend 0.0
republicans 0.000149689391274
terrorists 0.000282489099728
weapons 0.00019101499658
bodyguards 0.0
outrage 0.0
representative 5.8536250993e-05
prevail 0.0
searched 0.0
policemen 0.0
islamic 0.0
islamist 0.000171862710836
ingrained 0.0
humbled 0.0
courage 0.0
chamber 0.0
commander 0.000127717878463
formula 0.0
brigade 0.0
respecting 7.82947282951e-05
lectured 0.0
devices 0.0
enormous 0.0
verdict 0.000662034875425
refusing 0.000168763692316
energies 0.0
carried 5.22451816657e-05
behalf 4.39608155006e-05
tariff 0.000165742981562
amendment 0.0
nightmare 0.000297773539876
employment 0.000119245927375
legislation 0.0
referring 0.0
scrapping 0.000590475070718
handling 0.0
goodies 0.0
proves 0.000145871524033
prominently 0.0
crackdown 7.29590811323e-05
unfair 0.000204170509049
fiscal 0.0
humiliating 0.000295258544015
strongly 0.0
vision 7.24844103595e-05
resignation 0.000252827921288
confirmation 5.04628290934e-05
records 7.42230476013e-05
disabled 0.000643898760923
quoting 0.000175608752979
reductions 0.0
deeply 7.91048874536e-05
commerce 0.0
accumulation 0.0
overplaying 0.0
refugee 9.72476826886e-05
conway 0.000140479893784
exposed 0.000349275246306
netanyahu 0.0
israeli 0.000214685186412
priority 0.0
strongest 0.0
freedoms 6.74082053122e-05
treaties 0.0
empowering 0.0
laughter 0.0
syrian 0.000259188610315
uphold 7.88983888478e-05
praising 0.000143123457608
renewal 0.0
penned 0.0
condemns 0.00015658945659
realdonaldtrump 0.000170710349875
goodwill 0.0
attorney 0.000114484913006
settled 0.000112995639891
chairman 0.0
capability 0.0
firing 0.000105738789122
seanspicer 0.0
inaugural 0.0
carnage 8.08043154502e-05
optimism 5.60137049134e-05
rulers 0.0
clintons 0.0
melania 0.00027925908312
bikers 0.0
handing 6.0760238986e-05
intended 0.0
optimistic 0.000160529892682
campaigned 0.0
finance 5.64978199457e-05
allies 0.000114484913006
compromised 8.08043154502e-05
governor 0.0
bosses 0.000479218889051
attempts 0.0
irresponsible 0.0
incidents 0.0
merely 0.0
documents 0.0
tariffs 7.88983888478e-05
purpose 0.0
architect 0.0
arlene 0.0
resign 0.0
reuters 0.0
mainstream 0.0
dozens 5.55389907697e-05
donnell 0.0
clarified 0.0
gathering 0.0
crimes 0.00016317309877
vulnerable 9.83223198037e-05
commentator 0.0
overwhelmingly 0.0
respectful 0.0
markets 0.0
inspector 8.67601469989e-05
nigel_farage 0.0
drudge 0.0
abused 0.000338966027781
infrastructure 0.0
projected 0.0
boards 5.77517876386e-05
allegations 0.000180554966025
bloomberg 0.0
insulting 0.0
leaking 0.0
liberal 4.57837971628e-05
chairs 5.57751956047e-05
podium 0.0
conceded 0.0
capitol 0.0
consulting 0.0
wannabe 8.76180248536e-05
powell 0.00013716377437
reforms 0.0
technical 5.12389898461e-05
securing 0.0
steven 0.000197371691588
rumsfeld 0.0
businesses 0.0
balancing 0.000143123457608
socialist 0.000197778343686
complaints 5.72424565029e-05
politician 0.00024400819283
representatives 0.0
rallies 0.0
belittle 0.0
ballot 0.000663554154411
failing 0.000219074313836
refuses 0.000208980726663
conclude 0.0
vibrant 0.0
tarmac 0.0
spinning 0.0
appointments 0.0
farewell 5.14369424275e-05
opponents 5.30810583097e-05
unopposed 0.0
polling 5.26595476913e-05
prosperity 0.0
apology 0.000368810362118
outline 0.0
losers 0.000113983431477
battlefield 0.0
abandoned 0.000221220185211
endorsed 6.22605262463e-05
negotiate 6.41915567464e-05
negotiated 0.0
unwilling 0.0
appointed 0.000176410302276
slaughter 6.981477078e-05
betray 0.0
donated 4.41076448323e-05
immigrant 0.0
prosecuted 0.000164325664341
criminals 6.66559302578e-05
elizabethforma 0.0
protesting 0.000123906025258
releasing 0.0
screening 0.0
sponsor 0.0
pocketbook 0.0
transparency 5.35099642273e-05
austin 0.0
obamacare 0.000120941843758
acceptable 4.88016385661e-05
schwarzenegger 0.0
congressman 0.0
profits 0.000110610092605
toward 0.0
fleeing 0.000138793725985
bravery 6.22605262463e-05
protests 0.000225018256422
recieved 0.0
violent 0.000255213136312
remarkably 0.0
senators 0.0
ratings 0.0
spouses 0.0
fundraiser 0.0
senate 0.0
louisiana 0.0
giuliani 8.94297432074e-05
venezuela 0.0
parenthood 0.0
organizations 0.0
generations 0.0
minorities 0.0
underestimate 0.0
terrified 0.000175608752979
discourse 0.0
pennsylvania 0.0
hackers 0.0
nbcnews 0.0
mccain 0.0
scandal 0.000377969444221
constitution 0.0
sensanders 0.0
abandon 6.41915567464e-05
explode 6.48706840345e-05
reopening 0.0
governments 6.22605262463e-05
competent 0.0
mike_pence 0.0
stinks 0.0
logical 0.0
accurately 6.85818871852e-05
righteous 0.0
thursdays 0.0
fitting 0.0
category 0.0
swearing 0.000149911729585
politifact 0.0
abolish 0.0
surging 8.43535815311e-05
murders 7.44411718825e-05
reagan 5.88034340922e-05
vetting 0.0
vetted 0.0
pouring 0.0
fraudulent 0.0
ballots 0.000146886392329
fading 8.51297422838e-05
speakerryan 0.0
civilized 0.0
commercials 0.0
luxurious 0.0
outraged 0.0
nypost 0.0
statute 0.0
enforcement 0.0
accountability 6.288740701e-05
truthful 8.94297432074e-05
springfield 0.0
cancelled 9.28459421863e-05
conflicts 0.0
suffer 0.0
selfishly 0.0
educational 0.0
stolen 9.55074982901e-05
visionary 0.0
wounds 8.08043154502e-05
disgraceful 0.000195652367854
hatred 0.000156121808941
persuasion 0.0
exposing 0.000268116697221
teaches 6.38589392314e-05
sellers 0.0
refers 0.0
trusted 0.000118147139101
sheriff 6.85818871852e-05
samsung 0.0
ranking 0.0
undecided 0.0
nebraska 0.0
abusive 0.000138793725985
abuser 8.5931355418e-05
nashville 0.0
lightweight 0.0
victories 7.02399468922e-05
consumer 0.0
violation 0.0
sarcasm 0.0
freaky 0.0
jimmyfallon 0.0
outlets 0.0
vanityfair 0.0
harassed 0.000153136679813
leverage 0.0
sacred 0.0
horrific 5.08478293374e-05
contribute 0.000102085254525
indicted 0.0
chooses 6.45287622338e-05
defended 6.45287622338e-05
champion 3.8948783174e-05
waited 5.12389898461e-05
denmark 0.0
conviction 6.70291743053e-05
retail 0.0
distract 0.0
globes 0.0
endorsing 6.8184366065e-05
pathetic 0.000113487041218
purposely 0.0
expose 0.000127061573032
representing 4.79253078157e-05
mmflint 0.0
registration 0.0
acceptance 0.000106162116619
defeated 0.0
prosecutor 0.0
nbcsnl 0.0
nevada 0.0
illinois 0.0
massachusetts 0.0
spontaneous 0.0
entrepreneur 0.0
arkansas 0.0
hotels 0.0
exhausted 0.0
puppets 0.0
protesters 5.77517876386e-05
natalie 0.0
anaheim 0.0
nominating 0.0
vietnam 0.000123298638311
claimed 0.000315957286148
indianapolis 0.0
loudly 0.0
sarasota 0.0
rapids 0.0
oklahoma 0.0
devoted 6.38589392314e-05
sacramento 0.0
arranged 0.0
baldwin 0.0
crushed 4.9896463758e-05
reflects 0.0
replacing 0.000171727369509
louder 6.62882991159e-05
flashback 0.0
farmers 0.0
unleashed 0.0
tourists 7.1561728804e-05
steals 6.77932055563e-05
albany 0.0
devastation 0.0
meantime 0.0
donlemon 0.0
wilbur 9.46509914238e-05
finalists 0.0
ransom 0.0
normmacdonald 0.0
vanishing 0.000191687530133
clarence 0.0
jaketapper 0.0
clowns 6.981477078e-05
elizabeth 0.000246714614485
microphone 0.0
machines 0.000116020977148
premium 0.0
championships 0.0
impersonation 0.0
horribly 0.0
stakes 0.0
mouthed 0.0
reservation 0.0
delaware 0.0
springs 0.0
columbus 0.0
slackers 0.0
toyota 0.0
chucktodd 0.0
correspondents 0.0
soldier 0.000174815869249
panels 0.0
broadcasting 5.57751956047e-05
sparks 0.0
warned 4.93429228971e-05
jclayfield 0.0
kellogg 0.0
anchor 0.0
heated 6.52174559514e-05
congressional 0.0
boeing 0.0
usatoday 0.0
endlessly 0.0
craziest 0.0
viewers 5.43910329235e-05
delivers 5.28693945612e-05
pittsburgh 0.0
marshal 0.0
reverend 0.0
lifelong 0.0
disdain 0.0
hispanic 0.0
defrauded 0.0
oppression 7.71303648938e-05
crowds 0.000214909089663
washingtonpost 0.0
affordable 5.08478293374e-05
tapping 0.0
ginsburg 0.0
reilly 0.0
illegally 0.000145918162265
shootings 0.0
destiny 0.0
serenawilliams 0.0
motors 0.0
redding 0.0
initially 0.0
travis 0.0
accomplishments 0.0
misconduct 0.0
mocked 7.95173335588e-05
disgrace 0.0
greeley 0.0
carmel 0.0
outcry 0.0
playbook 0.0
zealand 0.0
fearless 0.0
lining 6.0184988675e-05
sidekick 0.0
madame 8.43535815311e-05
grandstand 0.0
rochester 0.0
speechless 0.0
fletcher 0.0
begged 0.0
wintour 0.00021666384864
inspires 0.0
carlos 6.288740701e-05
missiles 7.60189457694e-05
chelsea 0.000209805947095
oppressive 0.0
forgiven 0.000160304713082
killings 0.000224867594378
taiwan 0.0
somalia 0.0
burning 8.61957805215e-05
subscribers 0.0
chester 0.0
newtown 0.0
booker 7.44411718825e-05
heights 0.0
leicester 0.000214685186412
chiefs 6.1953012629e-05
joenbc 0.0
opioid 0.0
separately 0.0
intros 0.0
columnist 6.8184366065e-05
manages 0.0
financed 0.0
mnuchin 0.0
delegate 0.0
vicente 0.0
struck 4.95260474255e-05
trudeau 0.0
oreillyfactor 0.0
vulgarian 0.0
publicity 0.000195652367854
amnesty 7.60189457694e-05
ivankatrump 0.0
communism 9.46509914238e-05
linkedin 0.0
avoided 0.0
sophisticated 0.0
seanhannity 0.0
anncoulter 0.0
foolish 0.0
catholics 0.0
bogged 0.0
catholic 0.0
thriving 0.0
newtgingrich 0.0
abedin 0.0
secretly 0.00016804111474
undermines 0.0
americanism 0.0
christians 0.0
rationally 0.0
deplorable 0.0
wikileaks 0.000335145871526
execution 0.0
enduring 0.0
foxandfriends 0.0
losses 0.0
kevcirilli 0.0
staffers 0.0
barron 8.76180248536e-05
jihadis 0.0
hampshire 0.0
pandering 0.0
donaldjtrumpjr 0.0
moines 0.0
lobbying 0.000221811275871
careless 9.58437650667e-05
piersmorgan 0.00127061573032
palestinian 0.000170259484568
kellyanne 0.000157796777696
democrat 6.10530210512e-05
unfunny 0.000102876731637
condemned 0.00063613866847
despair 0.0
louvre 0.0
crooked 0.000167202612953
lynden 0.0
outperform 0.0
tedcruz 0.0
majors 0.0
schumer 0.0
credibility 0.000186781578739
flooding 0.0
hannity 0.0
beneficiary 0.00010833192432
sanctions 0.000134058348611
nominates 0.0
existent 0.0
criticized 0.0
senatemajldr 0.0
workforce 0.0
issued 0.0
outsider 0.0
declare 0.000173255362916
ivanka 7.11131472232e-05
dignified 8.51297422838e-05
threaten 5.64978199457e-05
outcomes 0.0
ukraine 0.0
justintrudeau 0.0
vladimir 7.06726486347e-05
businessman 8.2871490781e-05
regards 0.0
assange 0.000234884184885
malicious 0.0
garners 0.0
ethics 0.0
wrecked 7.95173335588e-05
regimes 9.03885723834e-05
incorrectly 0.0
hostile 6.1953012629e-05
defenders 0.0
deceived 0.0
hypocritical 0.0
favorably 0.0
shatter 0.0
changer 0.0
spokane 0.0
unnecessary 0.0
cwaunion 0.0
expand 0.0
apologized 0.0
criticizing 0.0
legion 8.94297432074e-05
hershey 0.0
intensity 0.0
tigerwoods 0.0
amercan 0.0
reince 8.67601469989e-05
chriscjackson 0.0
hypocrites 0.0
billkristol 0.0
govmikehuckabee 0.0
dustin 0.0
bullied 0.000134058348611
anonymous 0.0
yankees 0.0
thehill 0.0
infiltrated 0.0
somali 0.0
invention 0.0
frontrunner 0.0
patriot 0.000138793725985
poorly 0.000166616972309
prisonplanet 0.0
daytona 0.0
comparable 0.0
shouted 0.000234884184885
holocaust 0.0
kellyannepolls 0.0
foxnews 0.0
initiated 0.0
tiffany 0.0
mikeandmike 0.0
barbara 5.77517876386e-05
litigation 0.0
frankcaliendo 0.0
toughness 0.0
suffered 0.0
streep 0.0
billionaire 0.000767956404157
percentage 0.0
insiders 0.0
premiums 0.0
congratulatory 0.0
treasurer 0.0
incompetence 0.000143123457608
delegates 0.0
rollout 0.0
appalled 0.0
misquoted 0.0
pledged 0.0
demanded 0.000221811275871
andrews 0.0
lowlife 0.0
courageous 5.88034340922e-05
betrayed 0.0
horrors 8.2871490781e-05
warheads 0.0
pledges 0.0
interrupts 0.0
blacks 0.0
elaine 0.0
candidacy 0.0
discredited 0.0
cringing 0.00010129895775
estates 0.0
laughable 0.0
aberdeen 0.0
healed 0.0
floods 0.0
swiftly 8.43535815311e-05
cheryl 0.0
syracuse 0.0
difficulties 0.0
flipping 0.0
wilkes 0.0
lisbon 0.0
suckers 0.0
golfdigest 0.0
jeffrey 0.000138793725985
sixteen 0.0
scandals 8.2871490781e-05
circuits 0.0
regulations 0.0
monitoring 0.0
swamped 0.0
costing 7.88983888478e-05
detained 0.0
warmest 0.0
marginalize 0.0
miners 0.000969651785403
unemployment 0.0
paragon 0.0
obsolete 0.0
subsidies 0.0
exercised 0.0
evangelicals 0.0
franklin 5.8536250993e-05
molten 0.0
servers 0.0
billgates 0.0
excessive 0.0
coordinated 0.0
geneva 0.0
soaring 0.0001616086309
unsecured 0.0
corporations 0.0
rifles 0.0
innovative 0.0
pillar 0.0
bashing 0.0
organize 0.0
panelists 0.0
frontiers 0.0
pricing 0.0
platforms 0.000134058348611
scaling 0.0
pretends 9.03885723834e-05
forensic 0.000242412946351
roundtable 0.0
inherit 0.0
fabrication 9.58437650667e-05
brewer 0.0
unaffordable 9.98168669998e-05
reinforcing 0.0
eventful 0.0
wasserman 0.0
lindsey 0.0
billclinton 0.0
upstate 0.0
empowerment 0.0
penalties 0.0
responders 0.0
civilization 0.0
occupy 0.0
approximately 0.0
knight 0.000178040170034
homeownership 0.0
scratched 0.0
screws 0.0
contractor 8.43535815311e-05
havana 9.58437650667e-05
lowering 0.0
foundations 0.0
revitalize 0.0
counters 0.0
foreclosed 0.0
renovated 0.0
delaying 0.0
employer 6.59261145621e-05
executed 7.02399468922e-05
subpoena 0.0
grifters 0.0
cincinnati 0.0
disgraced 0.0
falsely 0.000171862710836
strengthening 0.0
abcworldnews 0.0
skyrocketing 0.0
pipelines 0.0
likewise 0.0
dishonest 0.00013962954156
surges 0.0
woefully 0.0
pressured 0.0
erratic 0.0
temperament 0.0
emboldened 0.0
keystone 0.0
mandated 0.0
crumbling 0.000262854074561
johnkasich 0.0
latinos 0.0
combating 0.0
incompetent 0.0
loopholes 8.67601469989e-05
incapable 0.0
unqualified 0.0
melaniatrump 0.0
recount 0.0
voluntarily 0.0
desperation 8.01523565408e-05
denounce 9.03885723834e-05
demoralized 0.0
incited 0.0
fawning 0.000187027432251
accuser 0.0
electing 0.000226444881636
patrol 0.0
connecticut 0.0
amounts 0.0
govpencein 0.0
squandered 0.0
enforce 0.0
epipens 0.0
deplorables 0.0
generals 0.000246488496511
timkaine 0.0
benghazi 0.0
moderators 0.0
sheriffclarke 0.0
unfairly 8.51297422838e-05
competence 7.60189457694e-05
dysfunctional 0.0
eleventh 0.0
instructed 0.0
restrict 0.0
battleground 0.0
jilted 0.0
blazing 0.0
hypocrite 0.000343725421672
mcconnell 0.0
circulated 0.0
flailing 0.0
pathological 0.0
deflect 8.67601469989e-05
undoing 0.0
predictable 0.000195652367854
phoney 0.0
perils 7.49558647926e-05
governing 0.000218877243397
likeable 0.0
tumble 0.0
praised 0.0
extraordinarily 0.0
jinping 0.0
trashes 0.0
knowingly 0.0
disloyal 0.0
woodward 0.0
magnificently 0.0
pretended 8.14741384527e-05
slaughtered 0.0
climber 0.0
americ 0.0
unprofessional 0.0
diplomats 0.0
resulted 0.0
crossroads 0.0
syrians 0.000165742981562
suppress 0.0
remembrance 0.000201087522916
infighting 0.0
castro 0.00013716377437
unquestionably 0.0
corrupted 0.0
kasich 0.0
readership 0.0
fraternal 0.0
frankluntz 0.0
demagogue 0.0
unanimous 0.0
bedford 9.58437650667e-05
longtime 0.0
complexities 0.0
dailymail 0.0
couric 0.0
cancelling 0.000167202612953
morningmika 0.0
concord 0.0
recounts 0.0
shouldered 0.0
patmccrorync 0.0
executives 0.0
westfield 0.0
graydon 0.0
sheldon 0.0
tanking 0.0
morning_joe 0.0
fabricated 0.0
corolla 0.0
groveling 0.0
unfolding 0.0
polled 0.0
influx 0.0
underachieving 0.0
antics 0.0
disenfranchised 0.0
golfing 8.01523565408e-05
xfinity 0.0
defies 8.76180248536e-05
fictitious 0.000104563401072
districts 0.0
vigilant 0.0
obstruction 0.0
rebuilding 0.0
preserving 0.0
passover 0.0
dhsgov 0.0
thejusticedept 0.0
repealed 0.0
intends 0.0
wildfires 0.0
usedgov 0.0
fresno 0.0
usnavy 0.0
scotus 0.0
tillerson 0.0
ineffective 0.0
senjohnmccain 0.0
cbsnews 0.0
lawsuits 0.0
caucus 0.0
shimon 0.000102876731637
wilmington 0.0
stagnant 0.0
gouging 0.0
baghdad 0.0
wiesel 0.0
obstruct 0.0
gonzalo 0.0
curiel 0.0
hostage 0.0
unnamed 8.43535815311e-05
truckers 0.0
boldly 0.0
scarborough 0.0
evangelical 9.98168669998e-05
cyberattack 0.0
marines 0.0
crimea 0.0
earners 8.5931355418e-05
oversaw 0.0
lobbyists 0.0
rosiegray 0.0
briefings 7.71303648938e-05
actresses 0.0
purchases 0.0
myanmar 0.0
heightened 0.0
shackles 0.000110459092344
perjury 0.0
dallaspd 0.0
respectfully 0.0
canton 0.0
approx 0.0
admirals 0.000125277300539
naples 0.0
brainwashed 0.0
albuquerque 0.0
supposedly 0.000424035891808
coliseum 0.0
greensboro 0.0
sheriffs 0.0
hostages 0.0
explorers 0.0
confidential 0.00137490168669
tamara 0.0
infested 0.0
depicted 0.0
devote 0.0
payroll 0.0
bombshell 0.000170259484568
advisers 8.08043154502e-05
watergate 8.85071050229e-05
mcmaster 0.0
renews 0.0
housegop 0.0
katyturnbc 0.0
pocahontas 0.0
wherein 0.0
shreds 0.0
pelosi 0.0
chrysler 0.0
collusion 0.0
deductibles 0.0
repmarkmeadows 0.0
darrellissa 0.0
insurer 0.0
dishonesty 0.0
hotlinejosh 0.0
quinnipiacpoll 0.0
apologizing 0.0
priebus 9.70977327597e-05
clapper 0.0
tapped 0.0
operatives 0.0
senschumer 0.0
marcorubio 0.0
viciously 0.0
leakers 0.0
bangladesh 0.0
favorable 0.0
nbcnightlynews 0.0
lockheed 0.0
untruthful 0.0
resonating 0.0
transferring 0.0
staten 0.0
humana 0.0
juanita 0.0
senses 0.0
stimulate 0.0
drooling 0.0
lakeland 0.0
burying 0.0
crafted 0.0
misrepresent 0.0
fabled 0.0
railing 0.0
billyjoel 0.0
sniper 0.0
cnnsotu 0.0
independents 8.76180248536e-05
detroitnews 0.0
foxbusiness 0.0
washtimes 0.0
realbencarson 0.0
meetthepress 0.0
newday 0.0
thebrodyfile 0.0
bostonherald 0.0
foxnewssunday 0.0
thefive 0.0
chriscuomo 0.0
randpaul 0.0
dcexaminer 0.0
facethenation 0.0
bretbaier 0.0
interruption 0.0
allenwest 0.0
cvpayne 0.0
dailycaller 0.0
prosecution 0.0
ballistic 0.0
vetoed 0.0
gettysburg 0.0
groping 0.0
brennan 0.0
nielson 0.0
justices 0.0
operative 0.0
surged 0.0
megynkelly 0.0
terminated 0.0
softbank 0.0
fronting 0.000236488667938
rigging 9.03885723834e-05
reprieve 0.0
pocketed 0.0
colluded 0.0
coffers 0.0
stairway 0.0
ellison 0.0
selflessly 0.000104563401072
tornadoes 0.0
levine 0.0
scranton 0.0
enslave 0.0
inappropriately 0.0
devalue 0.0
presumptive 0.0
fournier 0.0
terminate 0.0
reptommarino 0.0
kimberly 0.0
subscriptions 0.0
ingrahamangle 0.0
trajectory 0.0
natalie_gulbis 0.0
unheard 0.0
objectified 0.0
turnberry 0.0
djohnsonpga 0.0
bedminster 0.0
golf_com 0.0
elevation 0.0
litany 0.0
unaccountable 0.0
primaries 0.0
disrupter 0.0
runways 0.0
hashanah 0.0
unenthusiastic 0.0
undecideds 0.0
richardtrumka 0.0
renegotiate 0.0
rapists 0.0
aldridge 0.0
unsubstantiated 0.0
misrepresented 0.0
prisoner 0.000146886392329
mattis 0.0
weakening 0.0
endakennytd 0.0
taoiseach 0.000110459092344
lifeboat 0.0
enabler 0.0
emanated 0.0
lindseygrahamsc 0.0
renegotiating 0.0
waterville 0.0
zucker 0.0
berglund 0.0
suboptimal 0.0
steelworkers 0.0
postpone 0.0
mohammed 0.0
indignant 0.0
comprised 0.0
stupidest 9.03885723834e-05
exxonmobil 0.0
precluded 0.0
instruct 0.0
gonzales 0.0
scorned 0.0
davidmuir 0.0
harrisburg 0.0
caesars 0.0
borisep 0.0
lapierre 0.0
limbaugh 0.0
petraeus 0.0
phyllis 0.0
illegals 0.0
sanctity 0.0
neurotic 0.0
negligence 0.0
alvarez 0.0
roseanne 0.0
roanoke 0.0
theleegreenwood 0.0
mcallen 0.0
deduct 0.0
chokes 0.0
vigilance 0.0
pensacola 0.0
tuckercarlson 0.0
repcummings 0.0
windham 0.0
teleprompter 0.0
paulareidcbs 0.0
jeffzeleny 0.0
condoleezza 0.0
genflynn 0.0
donaldtrump 0.0
demeanor 0.0
baiting 0.0
plotted 0.0
aptitude 0.0
billings 0.0
approving 0.0
disconnected 0.0
superstorm 0.0
brainpower 0.0
exclaim 0.0
skyrocketed 0.0
globalism 0.0
israelipm 0.0
insurgent 0.0
sneers 0.0
unrest 8.76180248536e-05
scaramucci 0.0
disapproval 0.0
katiepavlich 0.0
overflow 0.0
warped 9.35137161253e-05
scottwalker 0.0
kirstenpowers 0.0
usarmy 0.0
schlafly 0.0
alisonforky 0.0
oppresses 0.0
pedantic 0.0
highness 0.0
benefitted 0.0
fundraisers 0.0
shinzo 0.0
augustine 0.0
ranchers 0.0
middletown 0.0
fiorina 0.0
pueblo 0.0
lindasuhler 0.0
lightweights 0.0
kimguilfoyle 0.0
perdue 0.0
unmasked 0.0
unmasking 0.0
judgejeanine 0.0
boycotted 0.0
outnumberedfnc 0.0
jessebwatters 0.0
podesta 0.0
kristol 0.0
interruptions 0.0
broaddrick 0.0
erictrump 0.0
outspending 0.0
irredeemable 0.0
begala 0.0
brazile 0.0
dinesh 0.0
markings 0.000135189710188
ericbolling 0.0
loudobbs 0.0
skyrocket 0.0
blumenthal 0.0
cochran 0.0
imploding 0.0
discord 0.00010833192432
jeffflake 0.0
davidwohl 0.0
bribery 0.0
repkenbuck 0.0
joshrogin 0.0
enrique 0.0
unverified 0.000102876731637
retribution 0.0
dwindling 0.0
automobile 0.0
teamtrump 0.0
subpoenaed 0.0
danscavino 0.0
joniernst 0.0
scottadamssays 0.0
senatorfischer 0.0
tabulation 0.0
trafficked 0.0
depict 0.0
unrelenting 0.0
imitating 0.0
dutchess 0.0
adelson 0.0
valuing 0.0
ricksantorum 0.0
chuckgrassley 0.0
laraleatrump 0.0
abingdon 0.0
equating 0.0
ministries 0.0
brzezinski 0.0
sentedcruz 0.0
jamesrosenfnc 0.0
leaker 0.0
realjameswoods 0.0
jim_jordan 0.0
marshablackburn 0.0
boynton 0.0
betsydevos 0.0
lawfare 0.0
larry_kudlow 0.0
stranahan 0.0
waynedupreeshow 0.0
phillypolice 0.0
scottwrasmussen 0.0
johnstown 0.0
raul_labrador 0.0
statewide 0.0
reviewjournal 0.0
oppress 0.0
underlings 0.0
bankrupted 0.0
collude 0.0
fayetteville 0.0
disqualifying 0.0
mahoning 0.0
disloyalty 0.0
americanlegion 0.0
bankruptcies 0.0
morell 0.0
ambridge 0.0
emboldens 0.0
asheville 0.0
grievous 0.0
ricketts 0.0
benefactor 0.0
dwyane 0.0
markhalperin 0.0
mayorbowser 0.0
unverifiable 0.0
savaged 0.0
wheeling 0.0
technocratic 0.0
countr 0.0
thealabamaband 0.0
relives 0.0
unwatchable 0.0
residences 0.0
gatekeeper 0.0
defections 0.0
senatorsessions 0.0
drmoore 0.0
honorably 0.0
billhemmer 0.0
shultz 0.0
aflcio 0.0
trucking 0.0
fabrications 0.0
malleable 0.0
misrepresents 0.0
decimated 0.0
arabella 0.0
mishandled 0.0
interfe 0.0
speach 0.0
iranians 0.00011536489089
fraudulently 0.0
enablers 0.0
dealmaker 0.0
terrori 0.0
anarchists 0.0
krzanich 0.0
foxnation 0.0
permeated 0.0
overruns 0.0
disposed 0.0
inaccurately 0.0
peebles 0.0
conditioners 0.0
classifie 0.0
forewarned 0.0
karlrove 0.0
palazzo 0.0
evansville 0.0
rebroadcast 0.0
bangor 0.0
secpricemd 0.0
realdonaldtru 0.0
uschamber 0.0
trumpinaugural 0.0
rawlings 0.0
churchillian 0.0
hemmer 0.0
rudygiuliani 0.0
pynance 0.0
terrybranstad 0.0
cbnnews 0.0
faithandfreedom 0.0
ovations 0.0
scpioneer 0.0
dwstweets 0.0
tgowdysc 0.0
bluffs 0.0
marist 0.0
spluttering 0.0
thetodaysgolfer 0.0
thebig_easy 0.0
hoosier 0.0
senbobcorker 0.0
larsloekke 0.0
roadblocks 0.0
manheim 0.0
greenblatt 0.0
jtanews 0.0
mitchellvii 0.0
bemoan 0.0
michiga 0.0
gennifer 0.0
gulbis 0.0
liyuan 0.0
enlisting 0.0
ainsleyearhardt 0.0
stevedoocy 0.0
foxfriendsfirst 0.0
pastormarkburns 0.0
marksimoneny 0.0
gov_gilmore 0.0
flunky 0.0
agitators 0.0
overdoses 0.0
liliantintori 0.0
leopoldo 0.0
traceadkins 0.0
gopconvention 0.0
governorsununu 0.0
laconia 0.0
teamsters 0.0
gatewaypundit 0.0
lawyerly 0.0
dissipates 0.0
realjeffreylord 0.0
nytimesdowd 0.0
scalise 0.0
straightening 0.0
energizer 0.0
montgomeriefdn 0.0
shulkin 0.0
ericgreitens 0.0
circuited 0.0
govbrewer 0.0
infringed 0.0
mcgarvey 0.0
republicanstudy 0.0
americafirstpol 0.0
fheile 0.0
phadraig 0.0
wiedefeld 0.0
coddington 0.0
kravis 0.0
fighterjet 0.0
shinzō 0.0
votestand 0.0
romoabcnews 0.0
moskowitzeva 0.0
drgoodspine 0.0
levisteveholt 0.0
untrusting 0.0
sleazebag 0.0
lbperfectmaine 0.0
timken 0.0
newhouse 0.0
evancho 0.0
franklin_graham 0.0
eazymf_e 0.0
busineses 0.0
substantialy 0.0
rexnord 0.0
sdcritic 0.0
highonhillcrest 0.0
fiiibuster 0.0
koster 0.0
saucier 0.0
t_lineberger 0.0
cissieglynch 0.0
saysgabrielle 0.0
ravenrantz 0.0
mayorrgiuliani 0.0
deplorablecbtp 0.0
tanden 0.0
keithrowland 0.0
kinston 0.0
sjsopio 0.0
aztrumptrain 0.0
therealmogul 0.0
unclassify 0.0
firebombed 0.0
wikileakes 0.0
davidshiloach 0.0
trumpwomenstour 0.0
mistreats 0.0
willey 0.0
dornsife 0.0
henryleledog 0.0
eericmyers 0.0
atensnut 0.0
arouses 0.0
anyonetennis 0.0
flifeforce 0.0
geeveem 0.0
susiesentinel 0.0
bcuzimdamomma 0.0
freedavidking 0.0
ifdanyt 0.0
arsenmissyirvin 0.0
nycmia 0.0
bigdog_joey 0.0
roadkingl 0.0
decieved 0.0
waukesha 0.0
creati 0.0
thallensboucher 0.0
kenansville 0.0
tarukmatuk 0.0
angpiazza 0.0
laughingstock 0.0
ak_tweet 0.0
kiiara 0.0
jerryjrfalwell 0.0
ghfanlovessonny 0.0
bishopwtjackson 0.0
cynthialummis 0.0
repreneeellmers 0.0
trumpdc 0.0
stvzbnk 0.0
bakari 0.0
adhd_fa 0.0
parisdennard 0.0
ronnieclemmons 0.0
takouis 0.0
lblackvelvet 0.0
chernuna 0.0
annebellar 0.0
presidencies 0.0
rsbnetwork 0.0
meequalsfree 0.0
pmnorlando 0.0
rhondar 0.0
patrici 0.0
lindaharden 0.0
trumpocrats 0.0
lewenskimo 0.0
trump_videos 0.0
sinabunz_tm 0.0
eyecandytmgayle 0.0
catonglass 0.0
billynungesser 0.0
samaritanspurse 0.0
zulu_out 0.0
willspeakout 0.0
laurencristmann 0.0
c_lynne_ryan 0.0
enemywithinn 0.0
elsolarverde 0.0
creats 0.0
dbongino 0.0
bongino 0.0
carl_c_icahn 0.0
fieldoffight 0.0
reploubarletta 0.0
mainegop 0.0
gatewaypun 0.0
mechanicsburg 0.0
pnehlen 0.0
patrioticpepe 0.0
insticts 0.0
borderless 0.0
lallyray 0.0
glowingly 0.0
spinnnn 0.0
flamed 0.0
nancynielsenn 0.0
olimauritania 0.0
theresa_cali 0.0
roxanetancredi 0.0
litigate 0.0
trumpdoonbeg 0.0
berrien 0.0
nbcpolitics 0.0
jakeda 0.0
barrasso 0.0
bluedogdemky 0.0
iowa_trump 0.0
arnold_ziffel 0.0
patricia_graf 0.0
brazosboys 0.0
jimvitari 0.0
trumpturnberry 0.0
trumpscotland 0.0
darrenwaggener 0.0
allegrettivicki 0.0
justininglv 0.0
chrisboydbrew 0.0
votetrumpmaga 0.0
realericjallen 0.0
insinuated 0.0
clubgoers 0.0
ausbiz 0.0
freemarketsara 0.0
senatorjeffsessions 0.0
mabynshingleton 0.0
dale_dangler 0.0
nauthizjane 0.0
richardweaving 0.0
mariadaq 0.0
sara_wejesa 0.0
jimhewitt 0.0
joedefranco 0.0
wolfstopper 0.0
djd_thunder 0.0
excoriates 0.0
rapidcraft 0.0
telepromter 0.0
liliannyleebou 0.0
lunsfordwhitney 0.0
free_sa_bd 0.0
stockdaleism 0.0
admonished 0.0
nbcdfw 0.0
frankylamouche 0.0
sandiegopd 0.0
tombarrackjr 0.0
buiidthewall 0.0
pipersul 0.0
oasisupernova 0.0
jknatter 0.0
jasondovesq 0.0
ed_klein 0.0
overregulates 0.0
dubilujane 0.0
rbacliff 0.0
ltstevenlrogers 0.0
rowanne 0.0
shoneep 0.0
magicmetalninja 0.0
barbaro 0.0
michael_favreau 0.0
christichat 0.0
mai_ttag 0.0
thydanielflores 0.0
costakenneth 0.0
svhlevi 0.0
johnjohnlacca 0.0
ladytsbrug 0.0
frankdallasagg 0.0
ladyjoanne 0.0
gerriweth 0.0
longbyfive 0.0
wesleyfelixpsi 0.0
manakoa 0.0
ragdollive 0.0
xgodfatherxzx 0.0
trumptrainrider 0.0
aprillajune 0.0
takingit_back 0.0
distlerjoyce 0.0
queencharlotteo 0.0
kellyriddell 0.0
valdosta_monkey 0.0
daybastrop 0.0
nathandwilsonfl 0.0
mathewjmari 0.0
stupor 0.0
matandsher 0.0
edgoeas 0.0
lynnepatton 0.0
erictrumpfdn 0.0
mikeozanian 0.0
lexingtonbobby 0.0
annettejeanne 0.0
andrebauer 0.0
waterbury 0.0
greenskydeb 0.0
keksec__org 0.0
ashleyedam 0.0
trumptbird 0.0
herb_stamper 0.0
senfrankniceley 0.0
anneslimo 0.0
agentvf 0.0
hornick 0.0
gqforbes 0.0
governor_savage 0.0
carolde 0.0
fugedaboudit 0.0
dnglax 0.0
alexnightrasor 0.0
lilrachiepoo 0.0
