awesome 0.00224621095636
christmas 0.000628806490211
trying 0.00056744731974
moment 0.000178285899836
wonderful 7.96754150397e-05
seeing 0.000619390266051
recommend 5.2787538983e-05
anybody 0.000598288658368
worked 0.000115060569445
direct 0.0
others 3.81465306473e-05
currently 8.43775736247e-05
better 0.00115780919686
please 0.00103127444525
social 7.94591737149e-05
around 0.000701702543551
people 0.00129814970557
leaving 8.03281662989e-05
morning 0.00158736496389
general 0.0
investigate 0.0
damage 5.78323554882e-05
everything 0.000493846877656
twitter 0.000282959901528
though 0.000550962004682
friend 0.000709309149675
watched 0.000557727905278
beautiful 0.000835741368809
anything 0.000573599294021
helped 3.86663198162e-05
managing 0.0002401373189
updated 0.0
thinking 0.000324394171659
finally 0.000576700749616
caught 0.000119188760572
believe 0.000246258767542
already 0.000738776302626
couple 0.000154246976396
orlando 0.00036043555502
research 0.0
chance 0.000141099107902
meaning 0.0
annual 4.74239227792e-05
quickly 4.92164802086e-05
growing 8.4609541619e-05
probably 0.000267749119738
should 4.66264991996e-05
changed 3.77361736048e-05
history 3.63365812526e-05
center 9.24689650543e-05
museum 6.12487404168e-05
behind 0.000245595890243
pretty 0.00036043796851
really 0.00162263974087
expensive 6.06557382353e-05
little 0.000492517535084
earlier 4.12744646556e-05
realized 0.000489989923334
forget 0.000107260306562
someone 0.000533417816511
mostly 0.0
worker 0.0
safety 5.11055768517e-05
shuttle 0.0
program 0.0
things 0.000561362034841
related 0.0
visiting 0.0
available 0.000146527318028
afternoons 0.0
perfect 0.000404038803433
different 0.000107549867629
numbers 4.40921756532e-05
delays 0.0
person 0.000141479950764
watching 0.00287270205618
passed 4.30088438113e-05
celebrates 0.0
minutes 0.000655824987584
travel 8.62551506389e-05
daughter 0.0
average 0.000101026817499
positive 4.18431177387e-05
outside 0.000149322242722
looking 0.00158309207706
forward 0.00119587758594
plenty 0.0
agreed 0.0
raising 0.000151100745938
listened 0.000335384081201
afraid 4.55907006634e-05
impression 0.0
drawing 6.28809010816e-05
favorite 0.00135094227998
magnet 0.0
picture 7.50655619871e-05
historic 0.0
instead 0.00015891834743
appreciate 0.000539510674299
husband 0.0
international 4.36065606041e-05
market 0.000142675820202
couldn 0.000293846402497
remember 0.00045857210068
impressive 0.0
familiar 0.000169766105375
friends 0.00127675646942
despite 0.0
impossible 9.59315775915e-05
everyone 0.00116406764019
florida 5.201300141e-05
always 0.00112272406968
months 0.000368300510917
moving 0.000265585265298
meeting 0.000542116806427
google 4.43375271928e-05
answer 7.2282240857e-05
together 0.000212219926146
inside 3.67308003121e-05
smaller 6.7328000794e-05
missed 0.000214520613124
active 5.67636903198e-05
longer 0.000407148813873
enough 0.000285257439738
driving 0.00112131695831
building 0.000118865395091
technician 0.0
enjoying 0.000517530903833
london 0.000587411478846
kennedy 0.0
recent 4.66264991996e-05
gotten 0.0
amazing 0.00239222802755
attention 0.0
richard 0.0
progress 4.89346704431e-05
tomorrow 0.00437407234495
george 0.000219242639788
excited 0.00235712326987
campaigning 7.90384752505e-05
understand 0.000115372437471
following 3.70293989415e-05
learning 8.74546713757e-05
evening 0.0
special 0.000248928314372
secret 3.95143400033e-05
across 0.000118221629282
comparison 0.0
surprised 0.000126219554912
anymore 0.000269751114638
rather 0.000158487193454
showing 7.5268659826e-05
saying 0.000110490153275
tweeted 9.32529983993e-05
updates 5.12551938255e-05
thoughts 3.7431525145e-05
exactly 0.000267025714531
except 0.000224792595531
getting 0.00179901362575
nothing 0.000740770316484
tweets 0.000116629233078
course 0.000582955544519
stephen 0.0
looked 0.000200274767917
difficult 0.000139486019079
stages 0.0
office 0.000228879183884
decisions 0.000213042416177
brought 0.00027361437497
biggest 0.000181682906263
thrilled 0.000322440809324
entire 0.000156775702624
something 0.000776045093459
closing 0.0
anyone 0.000391173065441
taking 0.000246923438828
recently 0.0
interesting 0.000117901216915
original 8.34572948033e-05
flying 0.00141880087017
happening 0.000192287395785
sometimes 3.88764110259e-05
stopped 4.13874603319e-05
yesterday 0.000497856628743
service 0.000116313624501
serious 0.000113208520814
emails 0.0
afford 0.0
british 0.000154216354677
contact 0.000193511007877
either 3.84574791569e-05
second 0.000177805938837
accident 6.503403837e-05
checking 9.14370309514e-05
volunteers 0.0
indeed 0.0
island 4.99310696185e-05
hearing 0.000354664887847
choose 0.0
staying 0.000143081429111
another 0.0019348903164
address 4.75586067342e-05
display 0.0
originally 0.0
compare 0.0
landing 0.000193122331698
perhaps 0.0
weekend 0.000572054968329
appear 0.0
anyway 0.0
theory 5.78323554882e-05
recognize 0.0
working 0.00045857210068
bigger 4.13874603319e-05
screen 0.000190775238815
treated 5.80136743784e-05
laughing 4.18431177387e-05
wanted 0.000320914619705
current 4.16145493265e-05
grateful 4.61047776579e-05
friendship 6.90279588271e-05
family 0.000564396431607
listening 0.000502662157611
stream 9.70323100346e-05
wedding 0.000267897809713
sharing 4.15008210999e-05
double 7.98923248085e-05
especially 0.0
middle 0.000850363991059
waiting 0.000289128963428
definitely 0.000115685232297
walking 0.000211523854047
account 4.13874603319e-05
completely 4.18431177387e-05
thought 0.000391173065441
reaction 0.0
accept 4.50840474233e-05
possible 0.000186652803403
simple 8.20991184481e-05
manufacturing 0.0
destroyed 0.000135610713653
professional 5.2320767657e-05
friendly 0.0
members 4.44608493836e-05
supposed 0.000328232088738
astronauts 0.0
component 0.0
business 0.0
absolutely 0.000113208520814
sending 0.000122812934544
delivering 0.0
heavily 0.0
biased 0.0
introducing 0.0
congrats 0.00025920579259
community 0.0
greatest 0.000424179185088
posted 0.000125185942205
saturday 0.000670137946705
wednesday 0.000297765268051
confused 0.0
explain 4.11618317268e-05
broken 0.000437273356879
chicago 0.000575589465549
fairly 0.0
hoping 0.000212105697486
relationship 0.0
actually 0.000650540167713
basket 0.0
myself 0.000138703447581
pocket 6.04602774112e-05
argument 0.0
decent 0.000125345360262
school 0.000107549867629
thursday 0.000226417041629
selling 0.000192959570984
talented 0.000139094006032
discuss 4.54633497897e-05
celebrate 7.79638605699e-05
celebrating 0.0
anniversary 0.000127965123634
contest 0.000137926651572
internet 0.00070157644732
figure 0.0
inspired 0.0
sitting 0.000717078735357
complaining 0.0
playing 0.00347744572
street 0.000117263303559
points 0.0
advice 0.0
forever 0.000159350830079
congress 0.0
imagine 3.93004056382e-05
problem 7.56766275703e-05
played 0.000906365824498
canadian 0.000121704588167
pulling 6.00725925033e-05
keeping 0.000118221629282
lovely 0.000133012581578
chinese 5.69395559872e-05
unlike 0.0
allowed 4.63646686772e-05
otherwise 0.000150227252281
afternoon 0.0001660032844
planned 0.000253302582082
strange 0.0
notice 4.78295357034e-05
difference 0.0
author 0.0
intent 0.0
letting 0.000130098751723
system 0.00013227652696
almost 0.000705495539508
details 7.71234881979e-05
experience 0.000147320204367
viewed 0.0
living 0.000110490153275
bright 4.96434849987e-05
normal 0.000283738523216
practically 0.0
before 0.000191249371242
monday 0.000331470459825
realize 0.000303963098499
currency 0.0
sleeping 0.000504620213604
wanting 5.55567118884e-05
science 4.97869826514e-05
tweeting 0.000161094212855
forgot 0.000309502458681
herself 0.0
disaster 5.40635024039e-05
happens 7.30662742019e-05
silence 0.0
congratulations 0.0
natural 5.00757507603e-05
raised 4.61047776579e-05
mission 9.56590714069e-05
ironic 0.0
testing 0.0
deleted 0.0
channels 8.03880696054e-05
surprising 0.0
reference 0.0
forgotten 0.0
trouble 8.72131212083e-05
setting 0.000100151501521
reminds 0.0
fantastic 8.3229098653e-05
loving 0.000416145493265
hardly 0.0
complete 0.0
membership 0.0
nearly 0.0
spirit 4.57185154757e-05
launched 5.26312575345e-05
stories 0.000152586122589
including 3.91939256561e-05
inviting 0.0
wouldn 0.000152173962209
choice 0.000112902989739
offended 0.0
conversation 0.0
disrespectful 0.0
making 0.000668416654757
expect 0.000126914312428
discussion 0.0
believes 0.0
occasions 0.0
response 4.15008210999e-05
brings 0.000127613686307
subject 0.0
greetings 0.0
anytime 0.000174041023135
protected 0.0
location 5.53876266109e-05
thomas 0.0
missile 0.0
needed 0.000112902989739
seriously 0.000194909651425
spending 4.38485279575e-05
groups 0.0
modern 0.0
welcome 0.000106971539902
totally 0.000325719051099
evenings 0.0
laughed 0.0
running 0.000111088196824
finished 0.000337510294499
strong 3.63365812526e-05
hopefully 0.000313834068145
respond 0.000159781812133
message 0.0
coming 0.000879495598364
thankful 0.000166670135665
temporary 0.0
issues 0.000126219554912
challenge 3.86663198162e-05
happen 0.000215680454973
giving 0.000142628719869
turkey 0.0
common 0.000130819681812
pressed 0.0
healthcare 0.0
benefits 0.0
situation 4.61047776579e-05
workers 0.0
company 3.99461624043e-05
health 0.000249687295959
insurance 0.0
change 0.000141099107902
august 4.97869826514e-05
mental 0.000157427007397
carrier 0.0
neither 9.73102123952e-05
lowest 0.0
decide 4.37273356879e-05
happened 0.000222776995377
demand 0.0
generally 0.0
personal 0.0
beyond 0.000118221629282
passion 5.34197205401e-05
question 0.000144175187404
doctor 5.40635024039e-05
sacrifices 0.0
respected 0.0
position 0.0
increased 0.0
losing 0.000173944799376
strain 0.0
respect 7.71234881979e-05
collapse 0.0
shouldn 0.000168755147249
career 0.000204688224239
visited 5.53876266109e-05
challenger 0.0
reason 0.000111388497689
simply 4.40921756532e-05
audience 0.0
employees 0.0
accounts 0.0
attacked 0.0
involved 4.10495592241e-05
extreme 0.0
unhappy 0.0
caused 0.0
knocked 0.0
reality 0.000125873888324
mention 0.000130458599532
extremely 5.12551938255e-05
burned 0.0
without 0.000320050689906
falling 0.00015603900423
problems 0.0
timing 6.26726801312e-05
highly 0.0
online 0.000341466769669
animals 5.89345967284e-05
called 0.000461050947289
scientists 0.0
pictures 8.91692131486e-05
camera 9.22095553158e-05
heading 0.000461537590522
terribly 0.0
theater 0.000199871783377
paying 4.58467976193e-05
complex 0.0
sunday 0.000874433316778
nights 0.00015603900423
enthusiastic 0.0
increasing 0.0
traffic 0.000105889039359
opposite 0.0
lookout 0.0
reached 0.0
changing 0.0
harder 4.90752923836e-05
silent 0.0
speaking 0.000161533463632
careful 0.0
november 4.72897538693e-05
answered 5.5726615984e-05
number 0.000216846722571
atlantic 0.000273157189152
stupid 0.000147225877151
budget 0.0
unless 4.3486199844e-05
calling 3.70293989415e-05
lately 0.000307243281061
levels 5.42263107108e-05
focused 0.0
ridiculous 4.86551061976e-05
financially 0.000104707226588
knowing 4.87946098692e-05
former 4.43375271928e-05
covers 0.0
mountain 6.22599091681e-05
suffers 0.0
schedule 0.000328315909607
greatly 0.0
friday 0.000643561839371
dramatic 0.0
failure 0.0
achieve 0.0
winner 7.83878513121e-05
closes 7.21486926861e-05
bother 6.7328000794e-05
directly 0.0
quality 0.0
tearing 0.000100804861035
father 8.03281662989e-05
wishes 0.000183902202096
collar 0.0
ground 9.14370309514e-05
matter 7.56766275703e-05
strategy 0.0
themselves 0.0
asking 7.46611213611e-05
mobile 0.000117126644154
device 7.71066959657e-05
computer 5.45542114823e-05
impressed 0.0
complain 0.0
dinner 0.000974548257123
suffering 0.0
single 0.000617721881293
parent 0.0
packed 0.000231329421953
catching 0.000312999282417
neglected 0.0
somewhat 0.0
approved 6.66239277922e-05
definition 0.0
energy 0.000125873888324
meltdown 0.0
events 4.37273356879e-05
europe 4.87946098692e-05
holiday 8.12080556254e-05
status 0.0
update 8.23236634537e-05
outage 0.0
customers 7.61792817797e-05
holding 4.17286474016e-05
survive 0.0
electric 0.0
picked 4.39701403052e-05
missing 0.000526880618782
surprise 0.000113208520814
german 6.06557382353e-05
officially 0.000576265644176
french 0.0
global 0.0
follow 0.000461050947289
opinion 4.5975550524e-05
design 0.000106521208089
allows 6.63923419535e-05
promoting 0.0
volunteer 0.0
negative 5.14054515591e-05
official 0.0
brutal 0.0
cotton 0.0
jersey 0.00088964763461
mistake 4.87946098692e-05
fixing 7.02947075067e-05
france 0.0
proper 0.0
peaceful 0.0
thinks 0.0
competition 0.0
industry 4.97869826514e-05
easier 0.00014348860711
successful 9.6479785492e-05
trending 0.000175137443274
leadership 0.000110438704594
agrees 0.0
organized 8.93531953527e-05
enthusiasm 0.0
turnout 0.0
showed 0.000133012581578
attended 7.08144966757e-05
trumps 0.0
networks 0.0
experienced 0.000307243281061
interested 0.000136009378497
effect 0.0
dislike 0.0
success 0.0
dreams 9.27293373544e-05
protect 0.0
rumors 8.17916618581e-05
arguing 0.0
referred 0.0
waving 0.0
growth 0.0
control 0.0
happier 0.000321870552831
likely 0.0
coincidence 0.0
cancel 0.0
project 0.000239026245119
laying 0.000218922789541
lesson 0.000147225877151
replacement 0.0
invited 4.96434849987e-05
continuing 0.0
clearance 0.0
treating 0.0
allowing 0.0
arrived 0.0
unable 0.0
opening 0.00049859580093
popular 4.8239892746e-05
followed 4.68902983911e-05
statement 4.57185154757e-05
enjoyed 0.000209215588693
spectacular 6.43741105662e-05
smoothly 0.0
length 6.9529183454e-05
wonder 0.000191249371242
matters 0.0
function 0.0
shared 4.83777519692e-05
connection 5.74725048754e-05
benefit 0.0
terrible 0.000179834076425
continues 0.000129026531434
equally 0.0
session 0.0
routine 0.0
associated 0.0
exciting 0.000296133395666
imagination 0.0
decides 0.0
cheering 0.000139565013545
spring 9.01680948466e-05
fallen 0.0
beautifully 6.97825067724e-05
places 8.41463699416e-05
entered 0.000198486824164
feedback 0.0
thousands 0.0
properly 6.41568645025e-05
informed 0.0
typical 0.000131413234629
continue 0.000122144644162
attend 0.0
excuse 0.0
female 4.70229455328e-05
recovery 5.83791477579e-05
closer 0.000132643910863
beginning 0.0
introduce 0.0
bought 0.000258765451917
multiple 0.00010683944108
slogan 0.0
covered 9.14370309514e-05
choices 5.71163076314e-05
unpredictable 0.0
enterprise 0.0
several 0.0
surrounded 0.0
dealing 6.12487404168e-05
teacher 0.0
training 0.000182874061903
auditorium 0.0
passing 0.0
become 7.36601021833e-05
presentation 0.0
spread 8.05471064277e-05
sooooo 8.03880696054e-05
season 0.0010496630977
putting 0.00025920579259
weight 5.4885205703e-05
stephanie 0.0
rapidly 0.0
follows 0.0
explained 0.0
stance 0.0
storms 0.0
headed 0.000233132495998
sleepy 0.0
returns 0.0
expected 0.0
resources 0.0
considering 0.000177365153551
fabric 0.0
suspect 0.0
constantly 6.503403837e-05
condolences 0.0
appreciated 0.0
register 0.0
manage 6.43741105662e-05
transition 0.0
smooth 0.0
flowers 0.0
gained 0.0
savage 0.0
somebody 0.0
contract 0.0
furious 7.80592918701e-05
covering 0.0
boxing 0.00023417787561
credit 0.0
patriots 0.0
player 0.000147649440626
chemistry 0.0
grandkids 0.0
offensive 0.0
charles 0.0
fighting 0.0
atlanta 6.10499572948e-05
donald 0.0
mexico 0.000101913190392
unreal 7.21486926861e-05
police 4.54633497897e-05
represent 5.96891446737e-05
president 0.000235163553936
talking 0.000282959901528
unbelievable 0.0
alabama 8.03880696054e-05
slowest 0.0
conference 4.37273356879e-05
america 7.50655619871e-05
michigan 0.000284309231384
everybody 8.6972399688e-05
judgment 0.0
carolina 6.48126803665e-05
amount 9.90011437189e-05
houston 0.00018021777751
everyday 0.000650984759884
michael 0.000119513122559
protecting 6.28809010816e-05
million 0.000111088196824
election 0.0
honesty 0.0
telling 8.01099071669e-05
correct 9.09266995794e-05
pulled 0.000211778078719
attack 0.000136390049369
americans 4.90752923836e-05
salaries 0.0
killed 7.86008112764e-05
louisville 0.000104707226588
horrible 0.000480580740026
coverage 0.0
dallas 0.000174587805568
jacksonville 0.000212221637682
league 0.000217559512134
united 0.000182874061903
college 0.000440921756532
refuse 6.33010872676e-05
barackobama 0.0
hillary 0.0
clinton 5.76519688328e-05
presidency 0.0
manning 0.0
stupidity 0.0
american 0.000262020676015
remain 0.0
founder 0.0
illegal 0.000117496936593
arizona 0.000837390081269
opinions 0.0
retire 0.0
triumph 0.0
stealing 0.0
speeches 0.0
innocent 0.0
scared 0.00010341582285
golden 4.75586067342e-05
straight 0.000234526607117
removed 6.61622747214e-05
answers 4.54633497897e-05
product 0.0
created 4.24211394972e-05
snoopdogg 0.0
worlds 0.0
record 0.000147320204367
stamina 0.0
weapon 0.0
funeral 0.0
registered 0.0
minnesota 0.0
committed 0.0
journey 4.58467976193e-05
disrespect 0.0
brother 0.0
prayers 0.0
documentary 0.0
boston 0.000101913190392
addition 0.0
korean 0.0
church 0.000107159123885
advantage 6.02658994781e-05
honestly 0.00020146766125
defeat 0.0
baltimore 8.17916618581e-05
lifetime 0.0
captain 0.0
retired 0.0
country 0.000364347215324
valley 6.00725925033e-05
mailbox 0.0
speedy 0.0
ending 0.0
finish 8.67325011488e-05
employee 0.0
university 0.00151540226248
remembered 6.66239277922e-05
nominated 0.0
praying 0.000144843460147
insane 0.00104333094139
national 0.000228879183884
reform 0.0
oregon 0.0
shooting 0.000220460878266
cancer 0.0
australia 0.000104641535314
deserve 8.64934199827e-05
legend 0.0
mother 0.000786008112764
murder 0.0
creating 4.85161550173e-05
powerful 4.30088438113e-05
carson 0.0
palmer 8.51714510664e-05
branch 0.0
breaking 0.000303526017483
dollars 0.0
questions 0.000252987842999
racist 6.35130826388e-05
charged 0.0
girlfriend 0.000297579630972
performance 0.000244956517925
refreshing 0.0
reading 0.000112294575435
corrupt 0.0
penalty 0.0
writer 5.34197205401e-05
denver 0.000295278915369
create 0.0
admire 0.0
nobody 0.000129740129974
government 5.2787538983e-05
politics 9.9862139237e-05
comeback 0.000129185420393
charities 0.0
method 0.0
sample 0.0
bringing 0.0
celebs 9.07114989362e-05
stadium 5.96891446737e-05
funniest 6.43741105662e-05
according 0.0
threat 0.0
heroin 0.0
honest 4.38485279575e-05
rolling 5.29445196797e-05
became 0.0
feature 4.83777519692e-05
decision 4.39701403052e-05
counting 5.00757507603e-05
verified 8.63744875702e-05
signing 0.0
adding 5.58973468668e-05
embrace 0.0
pressure 9.59315775915e-05
celebrities 0.0
dearly 0.0
facebook 0.000528306430467
divided 0.0
extension 0.0
lawyer 0.0
charleston 0.0
brazilian 9.16471577767e-05
basketball 0.000675658669741
campaign 0.0
determine 0.0
whether 0.0
praise 0.0
factory 0.0
arrested 0.0
investments 0.0
activity 6.87800063663e-05
comments 0.0
wounded 0.0
endorsement 0.0
williams 0.0
future 0.000181682906263
struggled 0.0
blessed 6.04602774112e-05
sabotage 0.0
warrior 0.0
softball 0.0
cheating 8.59688746459e-05
voting 8.6972399688e-05
instincts 0.0
collins 0.0
succeed 0.0
commercial 9.67555039385e-05
religion 0.0
boring 0.00012209991459
acting 0.000101026817499
established 0.0
warriors 0.0
because 5.0808243486e-05
sensitive 7.38197288421e-05
smiling 0.000124519818336
traitor 0.0
cleveland 0.000556233467632
agents 0.0
periscope 0.0
killing 0.000314709633744
choosing 0.0
phillips 0.0
instagram 0.000391477363545
opponent 7.61792817797e-05
detroit 0.000261923954838
cousin 0.000207833028267
honored 0.000146804011329
nonsense 0.0
dedication 0.0
hammer 0.0
proven 0.0
talent 0.000141068836598
governors 0.0
knocking 0.0
russian 0.0
consecutive 0.0
skills 0.000146804011329
citizens 0.0
cameras 0.0
phones 6.503403837e-05
california 0.000202053634998
commitment 0.0
maryland 0.0
seconds 0.000188624384321
placed 7.35356371913e-05
listen 0.000837998595246
dominating 0.0
whatever 4.04935233838e-05
wherever 0.0
fought 0.0
compete 0.0
lauderdale 0.0
injured 0.00012493137526
billion 5.05134087495e-05
shoutout 6.66239277922e-05
depressing 0.0
guilty 0.0
carpet 0.0
harvard 0.0
absolute 0.0
handle 0.00022987775262
promise 8.36862354773e-05
hosting 0.000184937930109
longest 0.0
generation 0.0
criminal 6.7328000794e-05
tuesday 0.000360494582251
garbage 0.0
goldman 0.0
ronald 0.0
locker 7.90384752505e-05
leader 0.0
desperately 8.28824790595e-05
character 0.000188624384321
chancellor 0.0
proving 7.32538274258e-05
jackson 0.000227758223949
interview 0.000250949691134
buffalo 0.000318827134374
insight 0.0
obviously 0.000148501715578
battle 8.18752896958e-05
destroy 0.0
killer 5.35795619426e-05
personally 0.000101913190392
relentless 0.0
winning 0.000150537319652
charlotte 0.000934410928319
trafficking 0.0
defense 0.0
japanese 0.0
causing 0.0
arabia 0.0
rapist 0.0
writing 0.000204130431605
society 0.0
officers 0.0
ambushed 0.0
sources 0.0
kentucky 8.32537537111e-05
incredible 0.00102717424491
ungrateful 0.0
kissing 0.0
minute 0.000198647934287
luther 0.0
foreign 0.0
phoenix 0.00671363221259
champions 0.0
virginia 0.000351473537534
streak 0.0
orange 0.000105575077966
policy 0.0
intentional 0.0
reminder 8.48422789944e-05
evidence 0.0
presidents 0.0
judged 0.0
accused 0.0
intentions 0.0
facing 0.0
freedom 4.90752923836e-05
actions 0.0
debating 0.0
consequence 0.0
coughing 0.000125745009931
clearly 0.0
invite 0.000199724278474
central 9.29906793859e-05
washington 0.000373011993597
tougher 0.0
veteran 0.0
division 0.0
overrated 0.0
veterans 0.000207083876481
stronger 0.0
bowden 0.0
promised 5.78323554882e-05
catches 0.0
worried 0.000101913190392
security 9.35163017264e-05
sanctuary 0.0
reverse 0.0
immediately 9.84329604173e-05
television 0.0
entitled 7.64857040522e-05
racism 0.0
highest 0.0
approve 6.97825067724e-05
turning 4.40921756532e-05
georgia 0.0
tennessee 0.0
legacy 0.0
leaked 0.0
choked 0.000124513826513
helping 0.000232627249002
tickets 0.000383895370902
suspending 0.0
suspend 0.0
willing 0.0
december 4.89346704431e-05
beating 0.000300362962516
basically 0.000257027257796
return 0.000116945790855
escape 6.30903651496e-05
locked 0.000118619684615
unacceptable 0.0
network 0.0
language 0.0
invest 0.0
creation 0.0
followers 0.00013677210199
schools 0.0
menace 0.0
movies 0.000263937694915
entity 0.0
children 0.000116313624501
nation 4.43375271928e-05
flexible 0.0
review 0.0
knowledge 0.0
begins 4.21887868124e-05
vanessa 0.0
forbes 0.0
parade 6.503403837e-05
fireworks 0.0
shoulder 0.000210113017375
produced 0.0
consider 0.0
latest 0.000114439591942
signed 0.000311011288207
shower 0.000124110661175
thunder 0.0
charity 0.000246082401043
germany 5.35795619426e-05
advance 0.000256275969128
explaining 0.0
millions 0.0
blessings 0.0
diamond 0.0
dollar 0.000237239369229
monsters 0.0
rigged 0.0
conduct 0.0
cooked 0.000249761261133
turned 0.000115998959449
criticism 0.0
responded 0.0
depending 0.0
jackie 8.72000580643e-05
charge 4.87946098692e-05
ticket 9.45795077387e-05
finest 0.0
sanders 7.74213628926e-05
includes 0.0
dealers 0.0
against 0.0
benjamin 0.0
impact 0.0
families 0.0
selection 0.0
hitting 9.40458910655e-05
announced 0.000128671538242
decided 0.000210943934062
professor 0.0
itself 5.98803447501e-05
promote 5.67636903198e-05
mexican 0.0
owners 0.0
guards 0.0
guarantee 6.90279588271e-05
beliefs 0.0
citizen 6.33010872676e-05
states 8.89216987672e-05
memorial 0.000114587908449
decades 0.0
landed 0.000275259406025
ultimate 5.11055768517e-05
mcdonald 0.0
twenty 0.0
hispanics 0.0
financial 0.0
payments 0.0
grabbing 0.0
permit 0.0
shield 0.0
disney 0.0
kansas 0.0
agreement 0.0
source 0.0
dismiss 0.0
talents 0.0
homework 0.0
expectations 6.43741105662e-05
joining 0.0
eugene 0.0
reasons 0.0
talked 4.43375271928e-05
released 0.000246297355344
reaching 0.0
release 0.00030933055853
promoter 0.0
circumstances 0.0
scheme 0.0
warwick 0.0
highlight 0.0
within 8.99170382125e-05
stacked 0.0
speech 8.4609541619e-05
standing 0.000281914872497
higher 9.45795077387e-05
justice 0.0
served 0.0
speaks 0.0
navarro 0.0
dropped 0.000130458599532
consideration 0.0
predicted 0.0
strength 0.0
andrew 0.0
replace 0.0
incredibly 9.95739653028e-05
private 4.52100264713e-05
integrity 0.0
sanford 0.0
ignored 0.0
neighbors 7.97067835936e-05
affection 0.0
minimum 0.0
direction 5.40635024039e-05
enemies 0.0
exclusive 8.36862354773e-05
prison 0.0
himself 0.0
investigation 0.0
disgusting 0.000138055917654
congratulate 0.0
philly 0.000461535944165
rights 0.0
replaced 6.87800063663e-05
recognition 0.0
maintain 0.0
tallahassee 0.0
handed 6.75658669741e-05
victory 0.0
classy 7.02947075067e-05
lifted 0.0
terrorist 0.0
productive 0.000140075344917
tribute 0.0
threatened 0.0
insecure 0.0
horror 0.0
discovery 7.18777637169e-05
convention 0.0
understanding 0.0
action 0.0
figures 0.0
having 0.000330811373607
marine 0.0
announces 0.0
wallace 0.0
speaker 5.87484682963e-05
stevens 0.0
cybersecurity 0.0
apologize 0.0
continued 0.0
journalist 0.0
libelous 0.0
formation 0.0
letter 4.3486199844e-05
discussed 0.0
therapy 0.0
widespread 0.0
untrue 0.0
written 0.000129026531434
conferences 0.0
results 0.000138314332974
papers 0.0
winter 0.0
marching 0.0
sessions 0.0
democrats 0.0
eastern 0.000127026165278
scientist 0.0
represented 0.0
waters 0.0
journal 0.0
foundation 0.000150663092993
access 4.33662505744e-05
analysis 0.0
writes 0.0
colorado 0.0
medical 0.0
tremendous 0.000133247855584
nytimes 0.0
public 0.000122812934544
cheaters 0.000290758402043
cannot 0.000550205678934
reveals 0.0
immunity 0.0
threatens 0.0
candidate 0.000112137825245
brilliant 8.64934199827e-05
wisconsin 0.0
studies 0.0
measure 0.0
compared 6.08522940837e-05
donors 0.0
graham 0.0
incorrect 0.0
headline 0.0
careers 0.0
answering 0.0
streaming 0.0
leaders 0.0
supreme 0.0
nominee 0.0
gorsuch 0.0
protest 0.0
immigration 0.0
policies 0.0
administration 0.0
defend 0.000115303937666
excitement 6.22599091681e-05
funding 0.0
surveillance 0.0
transfer 0.0
conspiracy 0.0
horrifying 0.0
formed 0.0
interviews 4.78295357034e-05
retreat 0.0
alliance 0.0
platform 0.0
editing 0.0
february 0.0
association 0.0
airwaves 0.0
hamilton 0.0
futures 0.0
borders 0.0
border 6.87800063663e-05
uranium 0.0
misleading 0.0
january 0.0
topics 7.71066959657e-05
unprecedented 0.0
airplane 0.00025088699787
tragic 0.0
philadelphia 0.000780592918701
funded 0.0
secure 6.43741105662e-05
income 0.0
hurricane 0.000298744289181
breakdown 0.0
countries 0.0
linked 0.0
broadcast 0.0
african 0.0
triple 6.43741105662e-05
provide 0.0
enhance 0.0
development 0.0
companies 0.000116758295516
discussions 0.0
developing 0.0
proposal 0.0
potential 0.0
moderator 0.0
suggestion 6.80464926706e-05
attending 6.503403837e-05
filled 4.95005718594e-05
schultz 0.0
education 0.0
sickness 0.000339693072486
mentioned 0.0
exists 0.0
henderson 0.0
plants 0.000162165694605
orders 0.0
officials 0.0
strategic 0.0
ability 0.0
political 0.0
director 8.79402806104e-05
behaving 0.0
deficits 0.0
sufficient 0.0
prevent 5.85633220768e-05
shoddy 0.0
capacity 0.0
donations 0.0
editors 0.0
discussing 5.32606040443e-05
persistent 0.0
treatment 0.0
establishment 0.0
protects 0.0
critical 0.0
ambassador 0.0
preparing 5.89345967284e-05
capable 0.0
bishop 0.0
producers 0.0
bombed 0.0
weekly 0.0
becoming 4.52100264713e-05
magazine 9.78693408863e-05
lawyers 0.0
summary 0.0
standard 0.0
controlled 0.0
hiring 0.0
defending 0.0
pushes 0.0
admitted 8.47794343939e-05
failed 5.2320767657e-05
independent 0.0
copies 6.70917364185e-05
politically 0.0
driven 0.0
agenda 0.0
blocked 0.0
result 5.0808243486e-05
announcing 0.000184345968637
destruction 0.0
culture 0.0
insider 8.32537537111e-05
traitors 0.0
prince 0.000204422307407
solutions 7.4394907743e-05
indiana 7.05536395099e-05
mongering 0.0
claims 0.0
editorial 0.0
prospects 0.0
mistakes 0.0
offered 5.80136743784e-05
founded 0.0
ignorance 7.05536395099e-05
inspiring 4.75586067342e-05
majority 0.0
embarrassing 0.000126602174535
creators 0.0
server 0.0
berniesanders 0.0
spotlight 7.21486926861e-05
readout 0.0
tactics 0.0
irrelevant 0.0
massive 0.000178835207378
receiving 0.0
promising 0.0
promises 6.70917364185e-05
consequences 0.0
production 0.0
proposals 0.0
elsewhere 0.0
bernie 0.000151751025095
hacking 0.0
guests 5.5219352297e-05
interviewed 0.00011352738064
secretary 0.0
rebuttal 0.0
reduce 0.0
arriving 0.0
dangerous 0.0
shutting 0.0
arrival 0.0
canceled 9.51336536583e-05
typically 8.76202442503e-05
saving 5.11055768517e-05
pioneer 0.0
incident 0.0
ordering 0.0
victims 0.0
raises 7.02947075067e-05
receive 9.92869699974e-05
reputation 0.0
intention 0.0
commentary 0.0
disclosure 0.0
terrific 0.0
berkeley 0.0
melbourne 0.0
received 0.0
correctly 7.05536395099e-05
inherited 0.0
displayed 0.0
joseph 0.0
offices 0.0
necessary 0.0
largely 0.0
inaccurate 0.0
debate 9.06729189977e-05
conflict 0.0
interest 4.95005718594e-05
controversy 0.0
stated 8.51714510664e-05
rating 0.0
nominate 0.0
outstanding 0.0
devastating 0.0
accurate 0.0
southeastern 0.0
romney 0.0
scotland 0.0
delayed 0.000139058366908
rarely 6.41568645025e-05
abroad 0.0
winners 0.0
profit 0.0
reviews 0.0
republican 0.0
presidential 0.0
candidates 0.0
politicians 0.0
epidemic 8.59688746459e-05
greater 0.0
booths 0.0
arnold 0.0
principles 0.0
deadline 5.67636903198e-05
speakers 0.0
incoming 0.0
various 0.0
nuclear 0.0
danger 6.16497176632e-05
leading 0.0
restored 0.0
conditions 6.61622747214e-05
however 0.0
resolution 0.0
remained 0.0
member 4.13874603319e-05
examples 0.0
employ 0.0
courses 0.000177823734358
largest 0.0
hallmark 0.000129721161268
mentor 0.0
increase 0.0
transcript 0.0
disrupt 0.0
provided 0.0
binding 0.0
decreased 0.0
revival 0.0
crashing 0.0
reception 0.0
rising 0.0
primary 0.0
reduction 0.0
surrogate 0.0
provides 0.0
environment 6.48126803665e-05
revealed 0.0
confirmed 0.0
controls 0.0
behavior 0.0
introduced 0.0
carbon 0.0
communities 0.0
region 0.0
deaths 0.0
responsible 0.0
household 7.90384752505e-05
munich 0.0
canada 0.000140670895173
regions 0.0
movement 4.70229455328e-05
midwest 0.0
segment 0.0
emerged 0.0
hundreds 0.0
information 9.53876194074e-05
combined 6.54809887095e-05
easily 5.1860124797e-05
towards 5.12551938255e-05
inform 8.72000580643e-05
mathematically 0.0
october 0.000196865920835
investigating 0.0
predators 0.0
innovation 0.0
perspective 0.0
cities 5.2787538983e-05
todays 0.0
julian 0.0
eliminated 0.0
interests 0.0
toledo 0.000663233078109
extraordinary 0.0
eradicate 0.0
retains 0.0
ashamed 0.0
meetings 6.246568763e-05
describing 0.0
eliminate 0.0
obligation 0.0
gender 0.0
committee 5.76519688328e-05
wasting 0.0
numerous 0.0
examination 0.0
inflammatory 0.0
practices 0.0
management 0.0
nordstrom 0.0
genius 0.0
warren 0.0
traveling 6.63923419535e-05
billions 0.0
prepared 5.32606040443e-05
fraction 0.0
equipment 0.0
procedures 0.0
rasmussen 0.0
county 0.0
developer 0.0
anthony 0.0
shadow 0.0
district 0.0
considered 0.0
lobbyist 0.0
chosen 0.0
hospitalized 0.0
outright 0.0
yorkers 0.0
naming 0.0
conventions 0.0
deficit 0.0
interventions 0.0
focusing 0.0
sensible 0.0
hosted 0.0001197606895
batman 8.10828473025e-05
column 5.74725048754e-05
upcoming 0.000248934913257
positions 0.0
favors 0.0
regulation 0.0
distributed 0.0
weakness 0.0
introduction 0.0
western 6.28809010816e-05
pacific 7.1608910852e-05
larger 0.0
increases 0.0
effective 0.0
situations 0.0
harbor 0.0
wealth 0.0
underway 0.0
israel 0.0
hysteria 0.0
overwhelming 0.0
protection 0.0
prisoners 0.0
guidance 0.0
montana 9.07114989362e-05
determination 0.0
restore 0.0
acquire 0.0
additional 0.0
exception 0.0
machine 9.48478455584e-05
honoring 0.0
visually 0.0
contrary 0.0
immediate 0.0
politico 0.0
ignoring 0.0
judges 6.70917364185e-05
federal 0.0
constant 0.0
philippines 0.0
nicely 6.7328000794e-05
september 0.000148074715473
manchester 6.39409553462e-05
fiction 0.0
priest 0.0
angela 0.0
process 4.48334383065e-05
destructive 0.0
genuine 6.37263667435e-05
surreal 0.0
whitehouse 0.0
flotus 0.0
crisis 5.40635024039e-05
judgement 0.0
confidence 5.50518812049e-05
voters 0.0
diamondandsilk 0.0
oldest 0.0
inauguration 0.0
gracious 0.0
scream 0.000148212279268
postponed 9.6740887056e-05
disappoint 0.0
believing 0.0
hillaryclinton 7.00376724584e-05
electoral 0.0
crashed 0.0
citizenship 0.0
closed 5.00757507603e-05
religious 0.0
apprentice 0.0
conservative 0.0
economists 0.0
buzzfeed 0.0
puppet 0.0
sweden 0.0
andersoncooper 0.0
treats 0.0
qualified 7.52757521788e-05
missouri 0.000193481774112
cooper 0.000224058216886
debates 0.0
endorsements 0.0
strike 0.0
shouting 0.0
empire 6.70917364185e-05
encouraged 0.0
regard 0.0
concerning 0.0
misinformed 0.0
disregard 0.0
barack 0.00015611858374
joined 8.64934199827e-05
terrorism 0.0
pushing 5.6241321457e-05
cracking 7.29742631803e-05
muhammad 0.0
refused 0.0
amazingly 0.000221459186526
express 0.0
gratitude 0.0
congratulation 0.0
throughout 0.0
shining 0.0
fighter 0.0
anticipated 0.0
presented 0.000114587908449
reveal 0.0
stands 0.0
native 0.0
harvey 0.0
featured 5.5219352297e-05
announce 0.000163304345284
surround 0.0
although 0.000114587908449
senior 0.0
todayshow 0.0
convincingly 0.0
haters 7.41061396341e-05
returning 0.0
laughs 0.0
touched 6.57066173146e-05
corruption 0.0
violence 0.0
runnin 0.0
delivered 0.0
owning 0.0
legendary 0.0
stabbing 0.0
independence 0.0
approval 0.0
magical 6.59337063092e-05
alongside 0.0
percent 0.0
spiral 0.0
differently 0.0
sweeping 0.0
spoiler 0.0
theirs 0.0
offering 0.0
remembering 0.0
floated 0.0
professionals 0.0
construction 0.0
searching 0.0
flexibility 0.0
sinking 0.0
detail 0.0
document 8.28824790595e-05
cabinet 0.000141628993351
pleased 0.0
carrying 0.0
statements 7.46860722952e-05
decade 0.0
prague 0.0
crossing 0.000166507507422
bigotry 0.0
happily 8.10828473025e-05
therefore 0.0
belong 0.0
customs 9.11762094012e-05
trillion 0.0
backed 0.0
electricity 0.0
observing 0.0
russell 0.0
engineers 0.0
operations 0.0
values 0.0
senator 0.0
confirms 0.0
removing 0.0
payment 0.0
consistently 0.0
posing 0.0
everett 0.0
wondered 0.0
generic 0.0
fields 0.0
mining 0.0
newspaper 0.0
detailed 0.0
rainbow 7.18777637169e-05
childcare 0.0
unlimited 9.21245138094e-05
exploded 0.0
thoroughly 0.0
adviser 9.16471577767e-05
leaves 0.0
matthew 0.0
intersection 0.0
affected 0.0
newspapers 0.0
corporate 0.0
economy 0.0
explores 0.0
spoken 0.0
during 0.0
credible 0.0
competitive 7.05536395099e-05
carefully 0.0
returned 0.0
blasts 0.0
guarding 0.0
hornet 0.0
successfully 0.0
southern 0.0
dakota 9.35968330717e-05
belief 0.0
messenger 0.0
heroes 0.0
russians 0.0
intelligence 0.0
deepest 0.0
graduates 0.0
describe 0.0
hollywood 0.000206831645701
reclaim 0.0
equality 0.0
announcement 4.50840474233e-05
interfere 0.0
interrupted 0.0
nationwide 0.000161467477358
questionable 0.0
garden 5.24756691324e-05
survey 0.0
journalists 0.0
delighted 0.0
minister 0.0
golfer 0.000221387289106
capital 0.0
penguins 0.0
regarding 6.503403837e-05
teachers 0.0
devastated 0.000460622569047
phrase 0.0
immigrants 0.0
aliens 0.0
subjects 0.0
revolution 0.0
median 0.0
twelve 0.0
releases 6.48126803665e-05
accomplish 0.0
debbie 0.0
sebastian 0.000113231024162
briefing 0.0
advisor 0.0
commission 0.0
deadlines 0.0
hereby 0.0
invitation 0.0
alternatives 0.0
villages 0.0
accepted 0.0
commentators 0.0
depression 0.0
comprehensive 0.0
committees 0.0
pushed 0.0
statistic 0.0
donation 0.0
electronic 0.0
nomination 0.0
britain 0.0
questioning 0.0
attempt 0.0
investment 0.0
terror 0.0
homeland 0.0
polish 0.0
switzerland 0.000273528628204
represents 0.0
announcer 0.0
churchill 0.0
ambassadors 9.90052292779e-05
anchors 0.0
endorse 0.0
urgent 0.0
forced 5.39014461011e-05
expenses 0.0
preparations 0.0
string 0.000242201216037
morocco 0.0
thrill 0.0
watchdog 0.0
agencies 0.0
scrutiny 0.0
glorious 0.0
approaching 0.0
tragedy 0.0
handled 0.0
offers 0.0
requested 0.0
improvements 0.0
destroying 0.0
inexpensive 0.0
opposition 0.0
smithsonian 0.000112364680709
addiction 7.77388775228e-05
challenged 0.0
manhattan 0.0
richmond 0.000625472367469
forces 0.000114232615263
nations 0.0
anderson 0.0
builds 0.0
sexist 0.0
narrative 0.0
application 0.0
cannon 0.0
ethical 0.0
representation 0.0
obvious 0.0
statistics 0.0
military 0.000164157954803
housing 0.0
wonderfully 0.0
miller 0.0
copying 0.0
advised 0.0
ordered 0.000258539557126
unions 0.0
useless 0.0
alicia 0.0
economic 0.0
radical 0.0
planted 0.000103357632233
theories 0.0
conceived 0.0
readers 0.0
bombing 0.0
products 0.00019117910023
phenomena 0.0
classroom 0.0
classified 0.0
purely 0.0
hacked 0.0
taxpayers 0.0
opposed 0.0
pressing 0.0
russia 0.0
abraham 0.0
lincoln 0.000143755527434
observer 0.0
intelligent 0.0
lawsuit 0.0
detective 0.0
magnificent 0.0
heritage 0.0
beloved 0.0
dignity 0.0
priorities 0.0
repealing 0.0
murdoch 0.0
coalition 0.0
theresa 0.0
charges 0.0
activists 0.0
elected 0.0
relief 0.0
congratulates 0.0
pledge 0.0
elections 0.0
landslide 0.0
council 0.0
imperative 0.0
catastrophic 0.0
douglas 7.83826593866e-05
brexit 0.0
democracy 0.0
disastrous 0.0
rebuild 0.0
pundits 0.0
nickname 0.0
poison 8.72000580643e-05
interfering 0.0
negotiations 0.0
summit 0.0
dossier 0.0
unleash 0.0
negotiation 0.0
sticking 6.87800063663e-05
openly 0.0
embarrassed 0.000604594806466
ireland 0.0
attacks 0.0
remarks 0.0
democratic 0.0
outgoing 0.0
maureen 0.0
treasury 0.0
refugees 0.0
snatch 0.0
morgan 0.0
grieve 0.0
vicious 0.0
essentially 0.0
restoring 0.0
extended 0.0
referendum 0.0
ovation 0.0
bankrupt 0.0
proudly 0.0
oppose 0.0
refusal 0.0
urging 0.0
strengthen 0.0
deliver 0.0
negotiating 0.0
remaining 0.0
merkel 0.0
repeal 0.0
formal 0.0
reckless 0.0
prosperous 0.0
servant 0.0
desperate 0.0
secretaries 0.0
formally 0.0
breach 0.0
gloomy 0.0
outlines 0.0
concessions 0.0
executive 0.0
extend 0.0
republicans 0.0
terrorists 0.0
weapons 0.0
bodyguards 0.0
outrage 0.0
representative 0.0
prevail 0.0
searched 0.000108327458639
policemen 0.0
islamic 0.0
islamist 0.0
ingrained 0.0
humbled 0.0
courage 0.0
chamber 8.32537537111e-05
commander 0.0
formula 9.35968330717e-05
brigade 0.0
respecting 0.0
lectured 0.0
devices 0.0
enormous 0.0
verdict 0.0
refusing 0.0
energies 0.0
carried 0.0
behalf 6.30903651496e-05
tariff 0.0
amendment 0.0
nightmare 0.0
employment 0.0
legislation 7.38197288421e-05
referring 0.0
scrapping 0.0
handling 0.0
goodies 9.90052292779e-05
proves 6.97825067724e-05
prominently 0.0
crackdown 0.0
unfair 7.32538274258e-05
fiscal 0.0
humiliating 0.0
strongly 0.0
vision 0.00010402600282
resignation 0.0
confirmation 0.000144843460147
records 5.32606040443e-05
disabled 0.0
quoting 0.0
reductions 0.0
deeply 0.0
commerce 0.0
accumulation 0.0
overplaying 0.0
refugee 0.0
conway 0.0
exposed 0.0
netanyahu 0.0
israeli 0.0
priority 0.0
strongest 0.0
freedoms 0.0
treaties 0.0
empowering 0.0
laughter 0.0
syrian 0.0
uphold 0.0
praising 0.0
renewal 0.0
penned 0.0
condemns 0.0
realdonaldtrump 0.0
goodwill 0.000110693644553
attorney 0.0
settled 0.0
chairman 0.0
capability 0.0
firing 0.0
seanspicer 0.0
inaugural 0.0
carnage 0.0
optimism 0.0
rulers 0.0
clintons 0.0
melania 0.0
bikers 0.0
handing 0.0
intended 0.0
optimistic 0.0
campaigned 0.0
finance 0.0
allies 0.0
compromised 0.0
governor 0.0
bosses 0.0
attempts 0.0
irresponsible 0.0
incidents 0.0
merely 0.0
documents 0.0
tariffs 0.0
purpose 0.0
architect 0.0
arlene 0.0
resign 0.0
reuters 0.0
mainstream 0.0
dozens 0.0
donnell 0.0
clarified 0.0
gathering 0.0
crimes 0.0
vulnerable 0.0
commentator 0.0
overwhelmingly 0.0
respectful 0.0
markets 0.0
inspector 0.0
nigel_farage 0.0
drudge 0.0
abused 0.0
infrastructure 0.0
projected 0.0
boards 0.0
allegations 0.0
bloomberg 0.0
insulting 0.0
leaking 9.61969206996e-05
liberal 6.57066173146e-05
chairs 0.0002401373189
podium 0.0
conceded 0.0
capitol 0.00017274897514
consulting 0.0
wannabe 0.0
powell 0.0
reforms 0.0
technical 0.0
securing 0.0
steven 0.0
rumsfeld 0.0
businesses 6.90279588271e-05
balancing 0.0
socialist 0.0
complaints 8.21515124709e-05
politician 0.0
representatives 0.0
rallies 0.0
belittle 0.0
ballot 0.0
failing 6.28809010816e-05
refuses 0.0
conclude 0.0
vibrant 0.000102701816369
tarmac 0.000143252178455
spinning 8.21515124709e-05
appointments 0.0
farewell 0.0
opponents 0.0
unopposed 0.0
polling 0.0
prosperity 0.0
apology 0.0
outline 0.0
losers 0.0
battlefield 0.0
abandoned 0.0
endorsed 0.0
negotiate 0.0
negotiated 0.0
unwilling 0.0
appointed 0.0
slaughter 0.0
betray 0.0
donated 6.33010872676e-05
immigrant 0.0
prosecuted 0.0
criminals 0.0
elizabethforma 0.0
protesting 0.0
releasing 7.26969089519e-05
screening 0.000204139478012
sponsor 0.0
pocketbook 0.0
transparency 0.0
austin 0.0
obamacare 8.67848446127e-05
acceptable 0.0
schwarzenegger 0.0
congressman 0.0
profits 7.93710381876e-05
toward 0.0
fleeing 0.0
bravery 0.0
protests 0.0
recieved 0.0
violent 0.0
remarkably 0.0
senators 0.0
ratings 0.0
spouses 0.0
fundraiser 0.0
senate 0.0
louisiana 9.21245138094e-05
giuliani 0.0
venezuela 0.0
parenthood 0.0
organizations 0.0
generations 0.0
minorities 0.0
underestimate 0.0
terrified 0.0
discourse 0.0
pennsylvania 0.000811406823587
hackers 0.0
nbcnews 0.0
mccain 0.0
scandal 0.0
constitution 0.0
sensanders 0.000103357632233
abandon 0.0
explode 9.3099163349e-05
reopening 0.0
governments 0.0
competent 0.0
mike_pence 0.0
stinks 0.0
logical 0.0
accurately 0.0
righteous 0.000106110818841
thursdays 0.0
fitting 0.0
category 0.0
swearing 0.0
politifact 0.0
abolish 0.0
surging 0.0
murders 0.0
reagan 0.0
vetting 0.0
vetted 0.0
pouring 0.00016725799858
fraudulent 0.0
ballots 0.0
fading 0.0
speakerryan 0.0
civilized 0.0
commercials 0.00032433138921
luxurious 0.0
outraged 0.0
nypost 0.000115030655919
statute 0.0
enforcement 0.0
accountability 0.0
truthful 0.0
springfield 0.000369973158782
cancelled 0.000199871783377
conflicts 0.0
suffer 0.0
selfishly 0.0
educational 0.0
stolen 0.0
visionary 0.0
wounds 0.0
disgraceful 0.0
hatred 0.0
persuasion 0.0
exposing 0.0
teaches 0.0
sellers 0.0
refers 0.0
trusted 0.0
sheriff 0.0
samsung 0.0
ranking 0.0
undecided 0.0
nebraska 0.0
abusive 0.0
abuser 0.0
nashville 0.000382428520261
lightweight 0.0
victories 0.0
consumer 0.0
violation 0.0
sarcasm 9.3099163349e-05
freaky 0.0
jimmyfallon 0.0
outlets 0.0
vanityfair 0.0
harassed 0.0
leverage 0.0
sacred 0.0
horrific 0.0
contribute 0.0
indicted 0.0
chooses 0.0
defended 0.0
champion 0.000111794693734
waited 0.0
denmark 0.0
conviction 0.0
retail 0.0
distract 0.0
globes 0.0
endorsing 0.0
pathetic 0.0
purposely 0.0
expose 0.0
representing 0.0
mmflint 0.0
registration 0.0
acceptance 0.0
defeated 0.0
prosecutor 0.0
nbcsnl 0.0
nevada 0.0
illinois 9.56612594982e-05
massachusetts 0.0
spontaneous 0.0
entrepreneur 0.0
arkansas 0.0
hotels 0.0
exhausted 0.000440227618631
puppets 0.0
protesters 0.0
natalie 0.0
anaheim 0.0
nominating 0.0
vietnam 0.0
claimed 0.0
indianapolis 0.000298784727485
loudly 0.0
sarasota 0.000145379201021
rapids 0.000125745009931
oklahoma 8.07337386791e-05
devoted 0.0
sacramento 0.0
arranged 0.0
baldwin 0.0
crushed 7.1608910852e-05
reflects 0.0
replacing 8.21515124709e-05
louder 0.0
flashback 9.21245138094e-05
farmers 0.0
unleashed 0.0
tourists 0.0
steals 0.0
albany 0.000242120088077
devastation 0.0
meantime 0.0
donlemon 0.0
wilbur 0.0
finalists 0.0
ransom 0.0
normmacdonald 0.0
vanishing 0.0
clarence 0.0
jaketapper 0.0
clowns 0.0
elizabeth 0.0
microphone 0.0
machines 0.000166507507422
premium 0.0
championships 0.000283841593468
impersonation 0.0
horribly 9.7293420163e-05
stakes 0.0
mouthed 0.0
reservation 0.0
delaware 0.000442774578211
springs 8.10828473025e-05
columbus 0.000328606049883
slackers 0.0
toyota 0.000105402004285
chucktodd 0.0
correspondents 0.0
soldier 0.0
panels 0.0
broadcasting 0.0
sparks 0.0
warned 0.0
jclayfield 0.0
kellogg 0.0
anchor 0.0
heated 9.35968330717e-05
congressional 0.0
boeing 0.0
usatoday 0.0
endlessly 0.0
craziest 0.000181422997872
viewers 0.0
delivers 0.0
pittsburgh 0.000345497950281
marshal 0.0
reverend 0.0
lifelong 0.0
disdain 0.0
hispanic 0.0
defrauded 0.0
oppression 0.0
crowds 0.0
washingtonpost 0.0
affordable 0.0
tapping 0.0
ginsburg 0.0
reilly 0.0
illegally 0.0
shootings 0.0
destiny 0.0
serenawilliams 0.0
motors 0.0
redding 0.0
initially 0.0
travis 0.0
accomplishments 0.0
misconduct 0.0
mocked 0.0
disgrace 0.0
greeley 0.0
carmel 0.0
outcry 0.0
playbook 0.0
zealand 0.0
fearless 0.0
lining 0.0
sidekick 0.000251490019862
madame 0.0
grandstand 0.0
rochester 0.00036652185347
speechless 0.0
fletcher 0.0
begged 0.0
wintour 0.0
inspires 0.0
carlos 9.02528632919e-05
missiles 0.0
chelsea 0.0
oppressive 0.0
forgiven 0.0
killings 0.0
taiwan 0.0
somalia 0.0
burning 0.0
subscribers 0.0
chester 0.0
newtown 0.0
booker 0.0
heights 0.000176091047452
leicester 0.0
chiefs 0.000177823734358
joenbc 0.0
opioid 0.0
separately 0.0
intros 0.0
columnist 0.0
manages 0.0
financed 0.0
mnuchin 0.0
delegate 0.0
vicente 0.0
struck 0.0
trudeau 0.0
oreillyfactor 0.0
vulgarian 0.0
publicity 0.0
amnesty 0.0
ivankatrump 0.0
communism 0.0
linkedin 0.0
avoided 0.0
sophisticated 0.0
seanhannity 0.0
anncoulter 0.0
foolish 0.0
catholics 0.0
bogged 0.0
catholic 0.0
thriving 0.0
newtgingrich 0.0
abedin 0.0
secretly 0.000160776139211
undermines 0.0
americanism 0.0
christians 0.0
rationally 0.0
deplorable 0.0
wikileaks 0.0
execution 0.0
enduring 0.0
foxandfriends 0.000373541479538
losses 0.0
kevcirilli 0.0
staffers 0.0
barron 0.0
jihadis 0.0
hampshire 0.000102701816369
pandering 0.0
donaldjtrumpjr 0.0
moines 0.0
lobbying 0.0
careless 0.0
piersmorgan 0.0
palestinian 0.0
kellyanne 0.0
democrat 0.0
unfunny 0.0
condemned 0.0
despair 0.0
louvre 0.0
crooked 0.0
lynden 0.0
outperform 0.0
tedcruz 0.0
majors 0.0
schumer 0.0
credibility 0.0
flooding 0.0
hannity 0.0
beneficiary 0.0
sanctions 0.0
nominates 0.0
existent 0.0
criticized 0.0
senatemajldr 0.0
workforce 0.0
issued 0.0
outsider 0.0
declare 0.0
ivanka 0.0
dignified 0.0
threaten 0.0
outcomes 0.0
ukraine 0.0
justintrudeau 0.0
vladimir 0.0
businessman 0.0
regards 0.0
assange 0.0
malicious 0.0
garners 0.0
ethics 0.0
wrecked 0.0
regimes 0.0
incorrectly 0.0
hostile 0.0
defenders 0.0
deceived 0.0
hypocritical 0.0
favorably 0.0
shatter 0.0
changer 8.40083016564e-05
spokane 0.0
unnecessary 0.0
cwaunion 0.0
expand 0.0
apologized 0.0
criticizing 0.0
legion 0.0
hershey 0.0
intensity 0.0
tigerwoods 0.0
amercan 0.0
reince 0.0
chriscjackson 0.0
hypocrites 0.0
billkristol 0.0
govmikehuckabee 0.0
dustin 0.000109887054382
bullied 0.0
anonymous 7.71066959657e-05
yankees 0.0
thehill 0.0
infiltrated 0.0
somali 0.0
invention 0.0
frontrunner 0.0
patriot 0.0
poorly 7.97067835936e-05
prisonplanet 0.0
daytona 0.00013583837203
comparable 0.0
shouted 0.0
holocaust 0.0
kellyannepolls 0.0
foxnews 0.0
initiated 0.0
tiffany 0.0
mikeandmike 0.0
barbara 0.0
litigation 0.0
frankcaliendo 0.0
toughness 0.0
suffered 0.000158076950501
streep 0.0
billionaire 0.0
percentage 0.0
insiders 0.0
premiums 0.0
congratulatory 0.0
treasurer 0.0
incompetence 0.0
delegates 0.0
rollout 0.0
appalled 0.0
misquoted 0.0
pledged 0.0
demanded 0.0
andrews 0.0
lowlife 0.0
courageous 0.0
betrayed 0.0
horrors 0.0
warheads 0.0
pledges 0.0
interrupts 0.0
blacks 0.0
elaine 0.0
candidacy 0.0
discredited 0.0
cringing 0.0
estates 0.0
laughable 0.0
aberdeen 0.0
healed 0.0
floods 0.0
swiftly 0.0
cheryl 0.0
syracuse 0.0
difficulties 0.0
flipping 9.84252966168e-05
wilkes 0.0
lisbon 0.0
suckers 0.0
golfdigest 0.000150064166914
jeffrey 0.0
sixteen 0.0
scandals 0.0
circuits 0.0
regulations 0.0
monitoring 0.0
swamped 0.0
costing 0.0
detained 0.0
warmest 0.0
marginalize 0.0
miners 0.0
unemployment 0.0
paragon 0.0
obsolete 0.0
subsidies 0.0
exercised 0.0
evangelicals 0.0
franklin 0.0
molten 0.0
servers 0.0
billgates 0.0
excessive 0.0
coordinated 0.0
geneva 0.0
soaring 0.0
unsecured 0.0
corporations 0.0
rifles 0.0
innovative 0.0
pillar 0.0
bashing 0.0
organize 0.000102701816369
panelists 0.0
frontiers 0.0
pricing 0.0
platforms 0.0
scaling 0.0
pretends 0.0
forensic 0.0
roundtable 0.0
inherit 0.0
fabrication 0.0
brewer 0.0
unaffordable 0.0
reinforcing 0.0
eventful 0.0
wasserman 0.0
lindsey 0.0
billclinton 0.0
upstate 0.0
empowerment 0.0
penalties 0.0
responders 0.0
civilization 0.0
occupy 0.0
approximately 0.0
knight 0.0
homeownership 0.0
scratched 0.0
screws 0.0
contractor 0.0
havana 0.0
lowering 0.0
foundations 0.0
revitalize 0.0
counters 0.0
foreclosed 0.0
renovated 0.0
delaying 0.0
employer 0.0
executed 0.0
subpoena 0.0
grifters 0.0
cincinnati 0.0
disgraced 0.0
falsely 0.0
strengthening 0.0
abcworldnews 0.0
skyrocketing 0.0
pipelines 0.0
likewise 0.0
dishonest 0.0
surges 0.0
woefully 0.0
pressured 0.0
erratic 0.0
temperament 0.0
emboldened 0.0
keystone 0.0
mandated 0.0
crumbling 0.0
johnkasich 0.0
latinos 0.0
combating 0.0
incompetent 0.0
loopholes 0.0
incapable 0.0
unqualified 0.0
melaniatrump 0.0
recount 0.0
voluntarily 0.0
desperation 0.0
denounce 0.0
demoralized 0.0
incited 0.0
fawning 0.0
accuser 0.0
electing 0.0
patrol 0.0
connecticut 0.0
amounts 8.55678973995e-05
govpencein 0.0
squandered 0.0
enforce 0.0
epipens 0.0
deplorables 0.0
generals 0.0
timkaine 0.0
benghazi 0.0
moderators 0.0
sheriffclarke 0.0
unfairly 0.0
competence 0.0
dysfunctional 0.0
eleventh 0.0
instructed 0.0
restrict 0.0
battleground 0.0
jilted 0.0
blazing 0.0
hypocrite 0.0
mcconnell 0.0
circulated 0.0
flailing 0.0
pathological 0.0
deflect 0.0
undoing 0.0
predictable 0.0
phoney 0.0
perils 0.0
governing 0.0
likeable 0.0
tumble 0.0
praised 0.0
extraordinarily 0.0
jinping 0.0
trashes 0.0
knowingly 0.0
disloyal 0.0
woodward 0.0
magnificently 0.0
pretended 0.0
slaughtered 0.0
climber 0.0
americ 0.0
unprofessional 0.0
diplomats 0.0
resulted 0.0
crossroads 0.0
syrians 0.0
suppress 0.0
remembrance 0.0
infighting 0.0
castro 0.0
unquestionably 0.0
corrupted 0.0
kasich 0.0
readership 0.0
fraternal 0.0
frankluntz 0.0
demagogue 0.0
unanimous 0.0
bedford 0.0
longtime 0.0
complexities 0.0
dailymail 0.0
couric 0.0
cancelling 0.0
morningmika 0.0
concord 0.0
recounts 0.0
shouldered 0.0
patmccrorync 0.0
executives 0.0
westfield 0.0
graydon 0.0
sheldon 0.0
tanking 0.0
morning_joe 0.000524613624549
fabricated 0.0
corolla 0.0
groveling 0.0
unfolding 0.0
polled 0.0
influx 0.0
underachieving 0.0
antics 0.0
disenfranchised 0.0
golfing 0.0024156437743
xfinity 0.0
defies 0.0
fictitious 0.0
districts 0.0
vigilant 0.0
obstruction 0.0
rebuilding 0.0
preserving 0.0
passover 0.0
dhsgov 0.0
thejusticedept 0.0
repealed 0.0
intends 0.0
wildfires 0.0
usedgov 0.0
fresno 0.0
usnavy 0.0
scotus 0.0
tillerson 0.0
ineffective 0.0
senjohnmccain 0.0
cbsnews 0.0
lawsuits 0.0
caucus 0.0
shimon 0.0
wilmington 0.0
stagnant 0.0
gouging 0.0
baghdad 0.0
wiesel 0.0
obstruct 0.0
gonzalo 0.0
curiel 0.0
hostage 0.0
unnamed 0.0
truckers 0.0
boldly 0.0
scarborough 0.0
evangelical 0.0
cyberattack 0.0
marines 0.0
crimea 0.0
earners 0.0
oversaw 0.0
lobbyists 0.0
rosiegray 0.0
briefings 0.0
actresses 0.0
purchases 0.0
myanmar 0.0
heightened 0.0
shackles 0.0
perjury 0.0
dallaspd 0.0
respectfully 0.0
canton 0.000290758402043
approx 0.000106834249155
admirals 0.0
naples 0.0
brainwashed 0.0
albuquerque 0.000121060044039
supposedly 0.0
coliseum 0.0
greensboro 0.0
sheriffs 0.0
hostages 0.0
explorers 0.0
confidential 0.0
tamara 0.0
infested 0.000150064166914
depicted 0.0
devote 0.0
payroll 0.0
bombshell 0.0
advisers 0.0
watergate 0.0
mcmaster 0.0
renews 0.0
housegop 0.0
katyturnbc 0.0
pocahontas 0.0
wherein 0.0
shreds 0.0
pelosi 0.0
chrysler 0.0
collusion 0.0
deductibles 0.0
repmarkmeadows 0.0
darrellissa 0.0
insurer 0.0
dishonesty 0.0
hotlinejosh 0.0
quinnipiacpoll 0.0
apologizing 0.000110693644553
priebus 0.0
clapper 0.0
tapped 0.0
operatives 0.0
senschumer 0.0
marcorubio 0.0
viciously 0.0
leakers 0.0
bangladesh 0.0
favorable 0.0
nbcnightlynews 0.0
lockheed 0.0
untruthful 0.0
resonating 0.0
transferring 0.0
staten 0.0
humana 0.0
juanita 0.0
senses 0.0
stimulate 0.0
drooling 0.0
lakeland 0.0
burying 0.0
crafted 0.0
misrepresent 0.0
fabled 0.0
railing 0.0
billyjoel 0.0
sniper 0.0
cnnsotu 0.0
independents 0.0
detroitnews 0.0
foxbusiness 0.0
washtimes 0.0
realbencarson 0.000543353488119
meetthepress 0.0
newday 0.0
thebrodyfile 0.0
bostonherald 0.0
foxnewssunday 0.0
thefive 0.0
chriscuomo 0.0
randpaul 0.0
dcexaminer 0.0
facethenation 0.0
bretbaier 0.0
interruption 0.0
allenwest 0.0
cvpayne 0.0
dailycaller 0.0
prosecution 0.0
ballistic 0.0
vetoed 0.0
gettysburg 0.000147643543243
groping 0.0
brennan 0.0
nielson 0.0
justices 0.0
operative 0.0
surged 0.0
megynkelly 0.0
terminated 0.0
softbank 0.0
fronting 0.0
rigging 0.0
reprieve 0.0
pocketed 0.0
colluded 0.0
coffers 0.0
stairway 0.0
ellison 0.0
selflessly 0.0
tornadoes 0.0
levine 0.0
scranton 0.0
enslave 0.0
inappropriately 0.0
devalue 0.0
presumptive 0.0
fournier 0.0
terminate 0.0
reptommarino 0.0
kimberly 0.0
subscriptions 0.0
ingrahamangle 0.0
trajectory 0.0
natalie_gulbis 0.0
unheard 0.0
objectified 0.0
turnberry 0.0
djohnsonpga 0.0
bedminster 0.0
golf_com 0.0
elevation 0.0
litany 0.0
unaccountable 0.0
primaries 0.0
disrupter 0.0
runways 0.0
hashanah 0.0
unenthusiastic 0.0
undecideds 0.0
richardtrumka 0.0
renegotiate 0.0
rapists 0.0
aldridge 0.0
unsubstantiated 0.0
misrepresented 0.0
prisoner 0.0
mattis 0.0
weakening 0.0
endakennytd 0.0
taoiseach 0.0
lifeboat 0.0
enabler 0.0
emanated 0.0
lindseygrahamsc 0.0
renegotiating 0.0
waterville 0.0
zucker 0.0
berglund 0.0
suboptimal 0.0
steelworkers 0.0
postpone 0.0
mohammed 0.0
indignant 0.0
comprised 0.0
stupidest 0.0
exxonmobil 0.0
precluded 0.0
instruct 0.0
gonzales 0.0
scorned 0.0
davidmuir 0.0
harrisburg 0.00314575257916
caesars 0.0
borisep 0.0
lapierre 0.0
limbaugh 0.0
petraeus 0.0
phyllis 0.0
illegals 0.0
sanctity 0.0
neurotic 0.0
negligence 0.0
alvarez 0.0
roseanne 0.0
roanoke 0.0
theleegreenwood 0.0
mcallen 0.0
deduct 0.0
chokes 0.0
vigilance 0.0
pensacola 0.0
tuckercarlson 0.0
repcummings 0.0
windham 0.0
teleprompter 0.0
paulareidcbs 0.0
jeffzeleny 0.0
condoleezza 0.0
genflynn 0.0
donaldtrump 0.0
demeanor 0.0
baiting 0.0
plotted 0.0
aptitude 0.0
billings 0.0
approving 0.0
disconnected 0.0
superstorm 0.0
brainpower 0.0
exclaim 0.0
skyrocketed 0.0
globalism 0.0
israelipm 0.0
insurgent 0.0
sneers 0.0
unrest 0.0
scaramucci 0.0
disapproval 0.0
katiepavlich 0.0
overflow 0.0
warped 0.0
scottwalker 0.0
kirstenpowers 0.0
usarmy 0.0
schlafly 0.0
alisonforky 0.0
oppresses 0.0
pedantic 0.0
highness 0.0
benefitted 0.0
fundraisers 0.0
shinzo 0.0
augustine 0.0
ranchers 0.0
middletown 0.0
fiorina 0.0
pueblo 0.0
lindasuhler 0.0
lightweights 0.0
kimguilfoyle 0.0
perdue 0.0
unmasked 0.0
unmasking 0.0
judgejeanine 0.0
boycotted 0.0
outnumberedfnc 0.0
jessebwatters 0.0
podesta 0.0
kristol 0.0
interruptions 0.0
broaddrick 0.0
erictrump 0.0
outspending 0.0
irredeemable 0.0
begala 0.0
brazile 0.0
dinesh 0.0
markings 0.0
ericbolling 0.0
loudobbs 0.0
skyrocket 0.0
blumenthal 0.0
cochran 0.0
imploding 0.0
discord 0.0
jeffflake 0.0
davidwohl 0.0
bribery 0.0
repkenbuck 0.0
joshrogin 0.0
enrique 0.0
unverified 0.0
retribution 0.0
dwindling 0.0
automobile 0.0
teamtrump 0.0
subpoenaed 0.0
danscavino 0.0
joniernst 0.0
scottadamssays 0.0
senatorfischer 0.0
tabulation 0.0
trafficked 0.0
depict 0.0
unrelenting 0.0
imitating 0.0
dutchess 0.0
adelson 0.0
valuing 0.0
ricksantorum 0.0
chuckgrassley 0.0
laraleatrump 0.0
abingdon 0.0
equating 0.0
ministries 0.0
brzezinski 0.0
sentedcruz 0.0
jamesrosenfnc 0.0
leaker 0.0
realjameswoods 0.0
jim_jordan 0.0
marshablackburn 0.0
boynton 0.00018618849511
betsydevos 0.0
lawfare 0.0
larry_kudlow 0.0
stranahan 0.0
waynedupreeshow 0.0
phillypolice 0.0
scottwrasmussen 0.0
johnstown 0.0
raul_labrador 0.0
statewide 0.0
reviewjournal 0.0
oppress 0.0
underlings 0.0
bankrupted 0.0
collude 0.0
fayetteville 0.0
disqualifying 0.0
mahoning 0.0
disloyalty 0.0
americanlegion 0.0
bankruptcies 0.0
morell 0.0
ambridge 0.0
emboldens 0.0
asheville 0.0
grievous 0.0
ricketts 0.0
benefactor 0.0
dwyane 0.0
markhalperin 0.0
mayorbowser 0.0
unverifiable 0.0
savaged 0.0
wheeling 0.0
technocratic 0.0
countr 0.0
thealabamaband 0.0
relives 0.0
unwatchable 0.0
residences 0.0
gatekeeper 0.0
defections 0.0
senatorsessions 0.0
drmoore 0.0
honorably 0.0
billhemmer 0.0
shultz 0.000169698358004
aflcio 0.0
trucking 0.0
fabrications 0.0
malleable 0.0
misrepresents 0.0
decimated 0.0
arabella 0.0
mishandled 0.0
interfe 0.0
speach 0.0
iranians 0.0
fraudulently 0.0
enablers 0.0
dealmaker 0.0
terrori 0.0
anarchists 0.0
krzanich 0.0
foxnation 0.0
permeated 0.0
overruns 0.0
disposed 0.0
inaccurately 0.0
peebles 0.0
conditioners 0.0
classifie 0.0
forewarned 0.0
karlrove 0.0
palazzo 0.0
evansville 0.0
rebroadcast 0.0
bangor 0.0
secpricemd 0.0
realdonaldtru 0.0
uschamber 0.0
trumpinaugural 0.0
rawlings 0.0
churchillian 0.0
hemmer 0.0
rudygiuliani 0.0
pynance 0.0
terrybranstad 0.0
cbnnews 0.0
faithandfreedom 0.0
ovations 0.0
scpioneer 0.0
dwstweets 0.0
tgowdysc 0.0
bluffs 0.0
marist 0.0
spluttering 0.0
thetodaysgolfer 0.0
thebig_easy 0.0
hoosier 0.0
senbobcorker 0.0
larsloekke 0.0
roadblocks 0.0
manheim 0.0
greenblatt 0.0
jtanews 0.0
mitchellvii 0.0
bemoan 0.0
michiga 0.0
gennifer 0.0
gulbis 0.0
liyuan 0.0
enlisting 0.0
ainsleyearhardt 0.0
stevedoocy 0.0
foxfriendsfirst 0.0
pastormarkburns 0.0
marksimoneny 0.0
gov_gilmore 0.0
flunky 0.0
agitators 0.0
overdoses 0.0
liliantintori 0.0
leopoldo 0.0
traceadkins 0.0
gopconvention 0.0
governorsununu 0.0
laconia 0.0
teamsters 0.0
gatewaypundit 0.0
lawyerly 0.0
dissipates 0.0
realjeffreylord 0.0
nytimesdowd 0.0
scalise 0.0
straightening 0.0
energizer 0.0
montgomeriefdn 0.0
shulkin 0.0
ericgreitens 0.0
circuited 0.0
govbrewer 0.0
infringed 0.0
mcgarvey 0.0
republicanstudy 0.0
americafirstpol 0.0
fheile 0.0
phadraig 0.0
wiedefeld 0.0
coddington 0.0
kravis 0.0
fighterjet 0.0
shinzō 0.0
votestand 0.0
romoabcnews 0.0
moskowitzeva 0.0
drgoodspine 0.0
levisteveholt 0.0
untrusting 0.0
sleazebag 0.0
lbperfectmaine 0.0
timken 0.0
newhouse 0.0
evancho 0.0
franklin_graham 0.0
eazymf_e 0.0
busineses 0.0
substantialy 0.0
rexnord 0.0
sdcritic 0.0
highonhillcrest 0.0
fiiibuster 0.0
koster 0.0
saucier 0.0
t_lineberger 0.0
cissieglynch 0.0
saysgabrielle 0.0
ravenrantz 0.0
mayorrgiuliani 0.0
deplorablecbtp 0.0
tanden 0.0
keithrowland 0.0
kinston 0.0
sjsopio 0.0
aztrumptrain 0.0
therealmogul 0.0
unclassify 0.0
firebombed 0.0
wikileakes 0.0
davidshiloach 0.0
trumpwomenstour 0.0
mistreats 0.0
willey 0.0
dornsife 0.0
henryleledog 0.0
eericmyers 0.0
atensnut 0.0
arouses 0.0
anyonetennis 0.0
flifeforce 0.0
geeveem 0.0
susiesentinel 0.0
bcuzimdamomma 0.0
freedavidking 0.0
ifdanyt 0.0
arsenmissyirvin 0.0
nycmia 0.0
bigdog_joey 0.0
roadkingl 0.0
decieved 0.0
waukesha 0.0
creati 0.0
thallensboucher 0.0
kenansville 0.0
tarukmatuk 0.0
angpiazza 0.0
laughingstock 0.0
ak_tweet 0.0
kiiara 0.0
jerryjrfalwell 0.0
ghfanlovessonny 0.0
bishopwtjackson 0.0
cynthialummis 0.0
repreneeellmers 0.0
trumpdc 0.0
stvzbnk 0.0
bakari 0.0
adhd_fa 0.0
parisdennard 0.0
ronnieclemmons 0.0
takouis 0.0
lblackvelvet 0.0
chernuna 0.0
annebellar 0.0
presidencies 0.0
rsbnetwork 0.0
meequalsfree 0.0
pmnorlando 0.0
rhondar 0.0
patrici 0.0
lindaharden 0.0
trumpocrats 0.0
lewenskimo 0.0
trump_videos 0.0
sinabunz_tm 0.0
eyecandytmgayle 0.0
catonglass 0.0
billynungesser 0.0
samaritanspurse 0.0
zulu_out 0.0
willspeakout 0.0
laurencristmann 0.0
c_lynne_ryan 0.0
enemywithinn 0.0
elsolarverde 0.0
creats 0.0
dbongino 0.0
bongino 0.0
carl_c_icahn 0.0
fieldoffight 0.0
reploubarletta 0.0
mainegop 0.0
gatewaypun 0.0
mechanicsburg 0.0
pnehlen 0.0
patrioticpepe 0.0
insticts 0.0
borderless 0.0
lallyray 0.0
glowingly 0.0
spinnnn 0.0
flamed 0.0
nancynielsenn 0.0
olimauritania 0.0
theresa_cali 0.0
roxanetancredi 0.0
litigate 0.0
trumpdoonbeg 0.0
berrien 0.0
nbcpolitics 0.0
jakeda 0.0
barrasso 0.0
bluedogdemky 0.0
iowa_trump 0.0
arnold_ziffel 0.0
patricia_graf 0.0
brazosboys 0.0
jimvitari 0.0
trumpturnberry 0.0
trumpscotland 0.0
darrenwaggener 0.0
allegrettivicki 0.0
justininglv 0.0
chrisboydbrew 0.0
votetrumpmaga 0.0
realericjallen 0.0
insinuated 0.0
clubgoers 0.0
ausbiz 0.0
freemarketsara 0.0
senatorjeffsessions 0.0
mabynshingleton 0.0
dale_dangler 0.0
nauthizjane 0.0
richardweaving 0.0
mariadaq 0.0
sara_wejesa 0.0
jimhewitt 0.0
joedefranco 0.0
wolfstopper 0.0
djd_thunder 0.0
excoriates 0.0
rapidcraft 0.0
telepromter 0.0
liliannyleebou 0.0
lunsfordwhitney 0.0
free_sa_bd 0.0
stockdaleism 0.0
admonished 0.0
nbcdfw 0.0
frankylamouche 0.0
sandiegopd 0.0
tombarrackjr 0.0
buiidthewall 0.0
pipersul 0.0
oasisupernova 0.0
jknatter 0.0
jasondovesq 0.0
ed_klein 0.0
overregulates 0.0
dubilujane 0.0
rbacliff 0.0
ltstevenlrogers 0.0
rowanne 0.0
shoneep 0.0
magicmetalninja 0.0
barbaro 0.0
michael_favreau 0.0
christichat 0.0
mai_ttag 0.0
thydanielflores 0.0
costakenneth 0.0
svhlevi 0.0
johnjohnlacca 0.0
ladytsbrug 0.0
frankdallasagg 0.0
ladyjoanne 0.0
gerriweth 0.0
longbyfive 0.0
wesleyfelixpsi 0.0
manakoa 0.0
ragdollive 0.0
xgodfatherxzx 0.0
trumptrainrider 0.0
aprillajune 0.0
takingit_back 0.0
distlerjoyce 0.0
queencharlotteo 0.0
kellyriddell 0.0
valdosta_monkey 0.0
daybastrop 0.0
nathandwilsonfl 0.0
mathewjmari 0.0
stupor 0.0
matandsher 0.0
edgoeas 0.0
lynnepatton 0.0
erictrumpfdn 0.0
mikeozanian 0.0
lexingtonbobby 0.0
annettejeanne 0.0
andrebauer 0.0
waterbury 0.0
greenskydeb 0.0
keksec__org 0.0
ashleyedam 0.0
trumptbird 0.0
herb_stamper 0.0
senfrankniceley 0.0
anneslimo 0.0
agentvf 0.0
hornick 0.0
gqforbes 0.0
governor_savage 0.0
carolde 0.0
fugedaboudit 0.0
dnglax 0.0
alexnightrasor 0.0
lilrachiepoo 0.0
