awesome 0.00100340173158
christmas 0.000765227597885
trying 0.000371838064308
moment 0.00032044129822
wonderful 0.000477347403897
seeing 0.000491143276565
recommend 0.0
anybody 0.000162928972912
worked 0.000229781729987
direct 7.52204389391e-05
others 0.000114270803378
currently 6.31898429661e-05
better 0.000893351180566
please 0.00197073496296
social 0.0
around 0.000262750347225
people 0.00136630180557
leaving 0.000180471800603
morning 0.00190202848438
general 0.0
investigate 0.0
damage 0.0
everything 0.00126801898959
twitter 0.000900604409968
though 0.000385104568151
friend 0.000849915575562
watched 0.000238673701948
beautiful 0.00190485686569
anything 0.000375869342858
helped 0.000173741806428
managing 0.0
updated 8.39793236924e-05
thinking 0.000215943812089
finally 0.00156559263764
caught 5.95064836966e-05
believe 0.00084307048122
already 0.000526919050762
couple 0.000173271909781
orlando 0.000179951971775
research 0.0
chance 0.00153218961242
meaning 7.81344088433e-05
annual 0.000213092894558
quickly 0.0
growing 0.000190090687086
probably 0.000171870565369
should 0.0
changed 0.000169562321962
history 5.44244818768e-05
center 6.9249435958e-05
museum 0.0
behind 0.000998451319456
pretty 0.000539859530222
really 0.00100384836676
expensive 0.0
little 0.00163344905736
earlier 0.0
realized 9.17376056823e-05
forget 0.00101747001486
someone 0.000426104856857
mostly 0.0
worker 0.0
safety 7.65453007766e-05
shuttle 0.0
program 0.0
things 0.000683150902786
related 0.0
visiting 7.28750161458e-05
available 0.00104246732013
afternoons 0.0
perfect 0.000660179259687
different 0.000268478102042
numbers 0.0
delays 0.0
person 0.000370837109987
watching 0.000743676128617
passed 0.0
celebrates 0.0
minutes 0.000382000326217
travel 6.45959487781e-05
daughter 0.000127776386074
average 7.56583587187e-05
positive 0.000125344208208
outside 0.000335479511804
looking 0.000632302860915
forward 0.00048850108743
plenty 0.0
agreed 0.0
raising 0.0
listened 0.000167444709251
afraid 0.00020485556234
impression 0.0
drawing 9.41822357345e-05
favorite 0.00165552924626
magnet 0.0
picture 0.000787025890707
historic 0.0
instead 5.95064836966e-05
appreciate 0.000124318832866
husband 0.0
international 0.0
market 7.12326928144e-05
couldn 0.000495134444765
remember 0.000369838871963
impressive 0.0
familiar 0.0
friends 0.00148735225723
despite 0.0
impossible 0.0
everyone 0.00570608545314
florida 0.000389522150271
always 0.00168160222224
months 0.000330981569382
moving 0.0
meeting 0.000324790338435
google 0.000199224599177
answer 0.00043305378458
together 0.000370837109987
inside 5.50149383072e-05
smaller 0.000100843046668
missed 0.000696163694376
active 0.0
longer 0.000121964491308
enough 0.000480661947329
driving 0.000258383795112
building 0.0
technician 0.0
enjoying 0.000516767590225
london 0.00062844117578
kennedy 0.0
recent 6.98365936803e-05
gotten 0.000264814529683
amazing 0.005532650033
attention 0.0
richard 0.0
progress 0.0
tomorrow 0.0034342180968
george 0.000197027348161
excited 0.00595766824888
campaigning 0.0
understand 0.00017280340956
following 0.000499159580763
learning 6.54942624382e-05
evening 6.04857058707e-05
special 0.00122505146346
secret 0.000236736358485
across 5.90236312693e-05
comparison 0.0
surprised 0.0
anymore 0.0
rather 5.93450394238e-05
showing 0.000112736467532
saying 0.000110327189794
tweeted 0.0
updates 7.67693952289e-05
thoughts 0.000336386851759
exactly 0.0
except 0.0
getting 0.00153218961242
nothing 0.000422672996529
tweets 0.000291143037454
course 0.000218285900695
stephen 8.68921637913e-05
looked 0.000179981441861
difficult 0.000139280289188
stages 0.0
office 0.000171406205068
decisions 0.000398865369228
brought 5.85451751316e-05
biggest 5.44244818768e-05
thrilled 0.00016098261842
entire 0.000293520884879
something 0.00068684361936
closing 7.8597408045e-05
anyone 0.000319578642643
taking 0.00068684361936
recently 0.000137337532598
interesting 5.88636613758e-05
original 6.25006518491e-05
flying 0.0
happening 0.00011520227304
sometimes 0.00069874328989
stopped 0.000185968878231
yesterday 0.000585894178178
service 0.000290355179751
serious 0.000113041547975
emails 0.0
afford 0.0
british 0.0
contact 0.0
either 0.0
second 0.000266315535536
accident 9.74071781283e-05
checking 0.000547813015131
volunteers 0.0
indeed 7.20474388935e-05
island 0.0
hearing 0.000177070893808
choose 6.21594164329e-05
staying 0.000142870396299
another 0.000737686671067
address 0.0
display 0.0
originally 0.0
compare 0.0
landing 9.64187464277e-05
perhaps 0.0
weekend 0.00144587844217
appear 0.0
anyway 6.82851874467e-05
theory 0.0
recognize 0.0
working 0.000792511868492
bigger 0.000185968878231
screen 0.0
treated 0.0
laughing 0.00426170307906
wanted 0.00112154454377
current 6.23297571637e-05
grateful 0.000966772318531
friendship 0.0
family 0.00179636023525
listening 0.00057913935476
stream 0.000145333793574
wedding 0.0
sharing 0.000124318832866
double 0.0
especially 5.85451751316e-05
middle 0.0
waiting 0.000162395169218
definitely 5.77573032604e-05
walking 6.33635623621e-05
account 0.0
completely 0.000313360520519
thought 0.000319578642643
reaction 0.0
accept 0.0
possible 0.0
simple 0.0
manufacturing 0.0
destroyed 0.0
professional 0.0
friendly 7.8597408045e-05
members 0.000199778730532
supposed 7.02317088458e-05
astronauts 0.0
component 0.0
business 0.0
absolutely 0.000169562321962
sending 0.000735790776116
delivering 0.0
heavily 0.0
biased 0.0
introducing 0.0
congrats 0.00133109221537
community 0.0
greatest 0.000231029213042
posted 0.00768758017744
saturday 0.000501862163117
wednesday 0.000318563667717
confused 7.69944494035e-05
explain 0.000123303364687
broken 6.54942624382e-05
chicago 0.000431055390414
fairly 0.0
hoping 6.35378579429e-05
relationship 0.0
actually 0.000378922061508
basket 0.0
myself 0.000138498871916
pocket 0.0
argument 0.0
decent 9.38703649708e-05
school 0.000375869342858
thursday 0.000452166191899
selling 0.0
talented 0.0
discuss 0.0
celebrate 0.000350319917589
celebrating 0.000126033391916
anniversary 0.000255552772147
contest 0.000482031275649
internet 0.0
figure 6.31898429661e-05
inspired 0.000511105544294
sitting 0.000179005276461
complaining 0.000100843046668
playing 0.00032217372245
street 0.000117090350263
points 0.0
advice 0.0
forever 0.000775689531333
congress 0.0
imagine 0.000235454645503
problem 0.0
played 0.000177070893808
canadian 9.1143813269e-05
pulling 0.0
keeping 0.000236094525077
lovely 0.000398449198353
chinese 0.0
unlike 0.0
allowed 0.0
otherwise 7.50028399969e-05
afternoon 6.21594164329e-05
planned 7.58786947625e-05
strange 0.0
notice 0.000644746381856
difference 0.000231029213042
author 0.0
intent 0.000123045519075
letting 0.000259813734489
system 0.0
almost 0.000792511868492
details 0.000519815729344
experience 0.000220654379588
viewed 0.0
living 0.000165490784691
bright 0.000148710795374
normal 0.0
practically 0.0
before 0.000171870565369
monday 0.000717126733661
realize 7.58786947625e-05
currency 0.0
sleeping 0.000167958647385
wanting 8.3212155769e-05
science 0.0
tweeting 0.000180963689327
forgot 0.0
herself 0.0
disaster 8.09756450758e-05
happens 0.00010943776159
silence 8.3212155769e-05
congratulations 0.000174685822472
natural 7.50028399969e-05
raised 0.000138110331219
mission 0.0
ironic 0.0
testing 0.0
deleted 0.0
channels 0.000120404256166
surprising 0.0
reference 0.0
forgotten 0.0
trouble 6.5313367012e-05
setting 0.0
reminds 0.000149572276745
fantastic 0.0
loving 0.000560967814473
hardly 0.0
complete 0.000424554888625
membership 0.0
nearly 6.94444271629e-05
spirit 0.000136953253783
launched 0.000157660892858
stories 5.71354016892e-05
including 0.000117408353952
inviting 0.0
wouldn 0.000113962139019
choice 0.000732787038955
offended 0.0
conversation 6.42408793904e-05
disrespectful 0.0
making 0.00084307048122
expect 6.33635623621e-05
discussion 0.0
believes 0.0
occasions 0.0
response 0.000248637665732
brings 0.0
subject 0.0
greetings 0.0
anytime 0.000173784327583
protected 0.0
location 0.0
thomas 0.0
missile 0.0
needed 0.000338209402595
seriously 0.000233546611726
spending 0.000656757827204
groups 0.0
modern 0.0
welcome 0.00032044129822
totally 0.000121964491308
evenings 0.0
laughed 0.0
running 0.000166386526921
finished 0.000189569528898
strong 0.000326546891261
hopefully 0.00020145290777
respond 7.97730738456e-05
message 0.000280322376466
coming 0.00326689811473
thankful 0.000998545869228
temporary 0.0
issues 0.0
challenge 5.7913935476e-05
happen 0.000107681172418
giving 0.000213627532146
turkey 0.0
common 6.5313367012e-05
pressed 0.0
healthcare 0.0
benefits 0.0
situation 0.0
workers 0.0
company 0.000119661735743
health 0.0
insurance 0.0
change 0.000317004747397
august 0.00052199228687
mental 0.0
carrier 0.0
neither 0.0
lowest 0.0
decide 0.000130988524876
happened 0.000222448418454
demand 0.000139280289188
generally 0.0
personal 0.000114890864993
beyond 0.000767307206501
passion 8.00113965645e-05
question 0.000323915718133
doctor 0.0
sacrifices 0.0
respected 0.0
position 0.0
increased 0.0
losing 0.0
strain 0.0
respect 0.0
collapse 0.0
shouldn 6.31898429661e-05
career 6.13158980097e-05
visited 0.000248876705796
challenger 0.0
reason 0.000278060523067
simply 6.60407152248e-05
audience 7.30839630193e-05
employees 0.0
accounts 0.0
attacked 0.0
involved 0.000122967043956
extreme 9.14398707813e-05
unhappy 0.0
caused 0.0
knocked 0.000114559341317
reality 0.0
mention 6.51330921544e-05
extremely 7.67693952289e-05
burned 0.0
without 0.00143810389189
falling 0.0
problems 6.51330921544e-05
timing 9.38703649708e-05
highly 0.0
online 0.000227308757019
animals 0.0
called 0.000159359170418
scientists 0.0
pictures 6.67782721665e-05
camera 6.90551656094e-05
heading 0.000439908823046
terribly 0.0
theater 0.000199576989672
paying 0.0
complex 0.0
sunday 0.000764000652434
nights 7.79044300542e-05
enthusiastic 0.0
increasing 0.0
traffic 7.92996465945e-05
opposite 0.0
lookout 0.0
reached 7.83653985315e-05
changing 0.000129548774432
harder 0.0
silent 0.0
speaking 0.000120971411741
careful 8.00113965645e-05
november 0.000495810058236
answered 0.000166933272043
number 0.00043305378458
atlantic 0.0
stupid 0.0
budget 0.0
unless 6.51330921544e-05
calling 0.000110924351281
lately 0.0
levels 0.0
focused 0.0
ridiculous 0.0
financially 0.0
knowing 0.0
former 0.0
covers 8.55480989791e-05
mountain 0.0
suffers 0.0
schedule 0.0
greatly 0.0
friday 0.000589061587549
dramatic 0.000100843046668
failure 0.0
achieve 0.0
winner 0.000234816707903
closes 0.0
bother 0.000100843046668
directly 0.0
quality 0.00020485556234
tearing 0.0
father 0.0
wishes 0.000550892886456
collar 0.0
ground 0.0
matter 0.000340042549716
strategy 0.0
themselves 0.0
asking 5.59132519674e-05
mobile 8.77154193142e-05
device 0.0
computer 0.0
impressed 8.00113965645e-05
complain 9.97884948362e-05
dinner 0.000291933264658
suffering 0.0
single 0.00168715893818
parent 0.0
packed 0.0
catching 0.000156268817687
neglected 0.0
somewhat 0.0
approved 0.0
definition 8.68921637913e-05
energy 6.2844117578e-05
meltdown 0.0
events 0.0
europe 0.000146167926039
holiday 6.08162105416e-05
status 0.0
update 0.0
outage 0.0
customers 0.0
holding 0.0
survive 0.0
electric 0.0
picked 6.58579321903e-05
missing 0.000169104701297
surprise 0.00113041547975
german 0.0
officially 0.000184955047031
french 0.0
global 0.0
follow 0.00154047198071
opinion 0.0
design 0.000319092295382
allows 0.0
promoting 0.000181698828702
volunteer 0.000110566276629
negative 7.69944494035e-05
official 0.00109142950348
brutal 0.0
cotton 0.0
jersey 0.000355334192321
mistake 0.0
fixing 0.0
france 7.32937440142e-05
proper 0.0
peaceful 0.000111427772471
thinks 6.16516823435e-05
competition 0.000142870396299
industry 7.45703266958e-05
easier 0.0
successful 0.000144506229149
trending 0.00139903304476
leadership 0.0
agrees 0.0
organized 0.0
enthusiasm 0.0
turnout 0.000115022340519
showed 0.000132816399451
attended 0.0
trumps 0.0
networks 0.0
experienced 9.20370370875e-05
interested 0.000135808776351
effect 0.0
dislike 0.0
success 0.000238673701948
dreams 0.0
protect 0.0
rumors 0.000122506539279
arguing 0.0
referred 0.0
waving 0.0
growth 0.0
control 0.0
happier 0.0
likely 0.0
coincidence 0.0
cancel 0.000331698829887
project 0.00041767897841
laying 0.00010929994862
lesson 7.3504365817e-05
replacement 0.0
invited 0.0
continuing 0.0
clearance 0.0
treating 0.0
allowing 0.0
arrived 0.000383329158221
unable 0.000114100385829
opening 0.00051700889247
popular 0.0
followed 0.000351158544229
statement 0.0
enjoyed 0.000250688416415
spectacular 9.64187464277e-05
smoothly 0.0
length 0.0
wonder 5.72901884563e-05
matters 0.000138888854326
function 0.0
shared 0.000144919196828
connection 0.0
benefit 0.000331120681234
terrible 0.0
continues 0.000193254342582
equally 0.000199576989672
session 0.0
routine 0.0
associated 0.0
exciting 0.000380181374173
imagination 0.0
decides 0.0
cheering 0.000209038750715
spring 0.0016206318838
fallen 0.0
beautifully 0.000313558126073
places 0.0
entered 9.90970365779e-05
feedback 0.0
thousands 0.0
properly 0.000192186715922
informed 0.0
typical 0.0
continue 6.09822456542e-05
attend 0.0
excuse 0.0
female 7.04303860936e-05
recovery 8.74395652978e-05
closer 6.62241362468e-05
beginning 0.0
introduce 9.29457064615e-05
bought 0.000452171641447
multiple 0.0
slogan 0.0
covered 0.0
choices 0.0
unpredictable 0.0
enterprise 0.0
several 0.0
surrounded 0.000239783136991
dealing 9.17376056823e-05
teacher 0.0
training 0.000136953253783
auditorium 0.0
passing 7.14351981495e-05
become 0.000165490784691
presentation 0.0
spread 0.000180963689327
sooooo 0.000481617024666
season 0.000116457214982
putting 5.54621756403e-05
weight 0.0
stephanie 0.0
rapidly 0.0
follows 0.000196153229635
explained 0.0
stance 0.0
storms 0.000126400918362
headed 6.98365936803e-05
sleepy 0.0
returns 0.0
expected 7.56583587187e-05
resources 0.0
considering 8.85517775957e-05
fabric 0.0
suspect 0.0
constantly 0.000194814356257
condolences 0.0
appreciated 0.0
register 0.00015719481609
manage 0.0
transition 0.000102282864664
smooth 0.000105286543281
flowers 0.000200275332035
gained 0.0
savage 0.0
somebody 0.0
contract 0.0
furious 0.0
covering 0.0
boxing 0.0
credit 0.0
patriots 0.0
player 7.37158351947e-05
chemistry 0.0
grandkids 0.0
offensive 0.0
charles 0.0
fighting 6.01572668675e-05
atlanta 0.000548639224688
donald 0.0
mexico 0.000534255105271
unreal 0.000108063419347
police 0.0
represent 8.94016624722e-05
president 0.0
talking 0.000211906919993
unbelievable 0.000419896618462
alabama 0.000120404256166
slowest 0.0
conference 0.0
america 0.000843242025758
michigan 0.0
everybody 0.000651330921544
judgment 0.0
carolina 0.0
amount 7.41413441548e-05
houston 8.99759858876e-05
everyday 0.000450017039982
michael 5.96684254871e-05
protecting 9.41822357345e-05
million 0.00110924351281
election 0.0
honesty 0.00011364540403
telling 0.000239975255815
correct 0.0
pulled 7.92996465945e-05
attack 6.80944428836e-05
americans 0.0
salaries 0.0
killed 0.000117727322752
louisville 0.000156829188641
horrible 8.99759858876e-05
coverage 0.0
dallas 0.00104598182135
jacksonville 0.0
league 0.0
united 0.0
college 6.60407152248e-05
refuse 0.0
barackobama 0.0
hillary 0.0
clinton 0.0
presidency 0.0
manning 0.0
stupidity 0.0
american 0.000112128950586
remain 0.0
founder 0.0
illegal 0.0
arizona 0.0
opinions 9.05566555466e-05
retire 0.0
triumph 0.000120921995029
stealing 0.0
speeches 0.0
innocent 0.0
scared 0.000309789880197
golden 0.0
straight 0.0
removed 0.0
answers 0.0
product 0.0
created 0.000127075715886
snoopdogg 0.0
worlds 0.0
record 0.000606799543867
stamina 0.0
weapon 0.0
funeral 0.0
registered 0.0
minnesota 0.000118880959091
committed 0.0
journey 0.0
disrespect 0.0
brother 0.00032209057097
prayers 0.000330827450986
documentary 0.0
boston 0.000686899421063
addition 0.0
korean 0.0
church 0.00016050161008
advantage 0.0
honestly 0.000603511541289
defeat 0.0
baltimore 0.0
lifetime 0.0
captain 0.000179376079162
retired 0.0
country 0.000163714425522
valley 0.0
mailbox 0.0
speedy 0.000137267979142
ending 0.000284123859411
finish 6.49534336223e-05
employee 0.0
university 0.0
remembered 9.97884948362e-05
nominated 0.000634397172756
praying 0.000650834228205
insane 7.81344088433e-05
national 0.000228541606757
reform 0.0
oregon 0.0
shooting 0.000726447867473
cancer 0.000398449198353
australia 0.000156730797063
deserve 0.000259097548864
legend 0.0
mother 0.000117727322752
murder 0.0
creating 7.26668967869e-05
powerful 0.000128836228388
carson 0.0
palmer 0.0
branch 0.0
breaking 0.000227308757019
dollars 8.85517775957e-05
questions 0.00146155652296
racist 0.0
charged 0.0
girlfriend 0.0
performance 0.00146757136867
refreshing 0.0
reading 0.000392451327052
corrupt 0.0
penalty 0.0
writer 0.0
denver 0.0
create 0.000244595228112
admire 0.0
nobody 0.000388646323295
government 0.0
politics 0.0
comeback 0.0
charities 0.0
method 0.0
sample 0.0
bringing 0.000415415275967
celebs 0.0
stadium 0.0
funniest 0.0
according 7.00337799134e-05
threat 0.0
heroin 0.0
honest 0.0
rolling 0.0
became 0.0
feature 0.000217378795241
decision 6.58579321903e-05
counting 0.0
verified 0.0
signing 6.9249435958e-05
adding 8.37223546256e-05
embrace 0.0
pressure 0.0
celebrities 0.0
dearly 0.000184713740083
facebook 0.000678249287849
divided 0.0
extension 0.0
lawyer 0.0
charleston 0.0
brazilian 0.0
basketball 0.0
campaign 0.000551843082087
determine 0.0
whether 6.67782721665e-05
praise 0.0
factory 0.0
arrested 9.97884948362e-05
investments 0.0
activity 0.0
comments 0.000193254342582
wounded 0.0
endorsement 0.0
williams 8.42375555115e-05
future 0.000108848963754
struggled 0.0
blessed 0.00117723652211
sabotage 0.0
warrior 0.0
softball 0.0
cheating 0.0
voting 0.000260532368618
instincts 0.0
collins 0.0
succeed 0.0
commercial 0.000652136385724
religion 0.0
boring 0.0
acting 0.0
established 0.0
warriors 0.0
because 0.000152199917079
sensitive 0.0
smiling 9.32521217287e-05
traitor 0.0
cleveland 0.000416559803301
agents 0.0
periscope 0.0
killing 0.000134676627462
choosing 0.0
phillips 0.0
instagram 0.000366468720071
opponent 0.0
detroit 0.000196153229635
cousin 0.00103763246205
honored 0.000439762464085
nonsense 0.0
dedication 0.0
hammer 0.0
proven 0.0
talent 0.0
governors 0.0
knocking 0.0
russian 0.0
consecutive 0.0
skills 0.0
citizens 0.0
cameras 0.000106065077068
phones 0.0
california 0.0
commitment 0.0
maryland 0.000140944307832
seconds 7.06298173366e-05
placed 0.0
listen 0.00207371605661
dominating 0.0
whatever 0.00012130139675
wherever 0.0
fought 0.0
compete 0.0
lauderdale 0.0
injured 0.0
billion 7.56583587187e-05
shoutout 9.97884948362e-05
depressing 0.0
guilty 8.94016624722e-05
carpet 0.000363397657403
harvard 0.0
absolute 0.000154894940098
handle 0.000344308054035
promise 0.000188016312311
hosting 0.000830993231496
longest 0.0
generation 7.24595984138e-05
criminal 0.000100843046668
tuesday 0.000359962883722
garbage 0.0
goldman 0.0
ronald 0.0
locker 0.0
leader 0.0
desperately 0.0
character 0.00021188945201
chancellor 0.0
proving 0.0
jackson 0.0
interview 0.000536956204083
buffalo 0.000119383834406
insight 9.38703649708e-05
obviously 0.000222424032464
battle 0.0
destroy 9.17376056823e-05
killer 0.0
personally 0.0
relentless 0.0
winning 0.000225472935063
charlotte 0.000215315250577
trafficking 0.0
defense 0.0
japanese 9.67461622498e-05
causing 0.0
arabia 0.0
rapist 0.0
writing 0.0
society 0.0
officers 0.0
ambushed 0.0
sources 0.0
kentucky 0.000124696442368
incredible 0.0011966024597
ungrateful 0.0
kissing 0.0
minute 5.95064836966e-05
luther 0.0
foreign 0.0
phoenix 0.0
champions 0.0
virginia 0.0
streak 0.0
orange 0.0
policy 0.0
intentional 0.0
reminder 0.000127075715886
evidence 7.83653985315e-05
presidents 0.0
judged 0.0
accused 0.0
intentions 0.0
facing 0.0
freedom 0.0
actions 0.0
debating 0.0
consequence 0.0
coughing 0.0
clearly 0.000334821451529
invite 0.0
central 0.0
washington 0.0
tougher 0.0
veteran 0.0
division 9.70756308491e-05
overrated 0.0
veterans 0.00010338922278
stronger 0.0
bowden 0.0
promised 0.000173241173201
catches 0.0
worried 0.0
security 0.0
sanctuary 0.0
reverse 0.0
immediately 7.37158351947e-05
television 0.0
entitled 0.0
racism 0.0
highest 0.0
approve 0.0
turning 6.60407152248e-05
georgia 0.00011099525917
tennessee 0.0
legacy 0.0
leaked 0.0
choked 0.0
helping 0.000580710359501
tickets 0.00166109301896
suspending 0.0
suspend 0.0
willing 0.0
december 0.000293174976057
beating 0.0
basically 0.0
return 0.000116773305863
escape 0.0
locked 0.0
unacceptable 0.0
network 7.37158351947e-05
language 0.0
invest 0.0
creation 0.0
followers 0.000136570374893
schools 7.50028399969e-05
menace 0.0
movies 0.000553451659943
entity 0.0
children 0.000812994503302
nation 0.0
flexible 0.0
review 0.0
knowledge 0.0
begins 0.00031594921483
vanessa 0.0
forbes 0.0
parade 0.0
fireworks 0.0
shoulder 0.0
produced 8.27068627466e-05
consider 0.0
latest 0.000285677008446
signed 0.000873429112362
shower 0.0
thunder 0.0
charity 0.00162174837428
germany 0.00016050161008
advance 0.000230308185687
explaining 0.0
millions 0.0
blessings 0.0
diamond 0.0
dollar 0.00017766709616
monsters 0.0
rigged 0.0
conduct 0.0
cooked 0.000124696442368
turned 0.000115827870952
criticism 0.0
responded 0.0
depending 0.0
jackie 0.0
charge 7.30839630193e-05
ticket 0.000141660016639
finest 0.00020827990165
sanders 0.0
includes 0.0
dealers 0.0
against 0.0
benjamin 0.0
impact 7.06298173366e-05
families 0.000472684299441
selection 0.000100489172809
hitting 7.04303860936e-05
announced 0.0
decided 0.000189569528898
professor 0.0
itself 0.0
promote 0.0
mexican 0.0
owners 0.0
guards 0.0
guarantee 0.0
beliefs 0.0
citizen 0.0
states 6.65929101774e-05
memorial 0.000257442527546
decades 0.0
landed 0.00024736807985
ultimate 0.0
mcdonald 0.0
twenty 0.0
hispanics 0.0
financial 0.0
payments 0.0
grabbing 0.0
permit 0.0
shield 0.0
disney 0.00180979811059
kansas 0.000105674368432
agreement 0.0
source 0.0
dismiss 0.0
talents 0.0
homework 0.0
expectations 0.0
joining 0.000310797082164
eugene 0.0
reasons 0.000368901131867
talked 0.0
released 6.14835219778e-05
reaching 9.67461622498e-05
release 0.00028956967738
promoter 0.0
circumstances 0.0
scheme 0.0
warwick 0.0
highlight 0.000166933272043
within 6.73383137312e-05
stacked 0.0
speech 0.0
standing 0.0
higher 0.0
justice 0.0
served 7.97730738456e-05
speaks 7.63221578959e-05
navarro 0.0
dropped 6.51330921544e-05
consideration 0.0
predicted 0.0
strength 0.000146167926039
andrew 8.24560266167e-05
replace 0.0
incredibly 0.0
private 0.000135430036702
integrity 0.0
sanford 0.0
ignored 0.0
neighbors 0.0
affection 0.0
minimum 0.0
direction 0.0
enemies 0.0
exclusive 0.00100275366566
prison 0.0
himself 0.0
investigation 0.0
disgusting 0.0
congratulate 0.000127568745743
philly 0.000395018758551
rights 0.0
replaced 0.0
recognition 0.0
maintain 0.0
tallahassee 0.0
handed 0.0
victory 0.0
classy 0.000315859629843
lifted 0.0
terrorist 0.0
productive 0.0
tribute 0.000144919196828
threatened 0.0
insecure 0.0
horror 0.0
discovery 0.0
convention 0.0
understanding 7.60999585397e-05
action 0.000453390066288
figures 0.0
having 0.0
marine 0.0
announces 8.07329191502e-05
wallace 0.000389955799912
speaker 0.0
stevens 0.0
cybersecurity 0.0
apologize 0.0
continued 9.05566555466e-05
journalist 0.0
libelous 0.0
formation 0.0
letter 6.51330921544e-05
discussed 0.0
therapy 0.000110566276629
widespread 0.0
untrue 0.0
written 0.000128836228388
conferences 0.0
results 0.0
papers 0.0
winter 0.000357175990748
marching 0.0
sessions 9.35603341633e-05
democrats 0.0
eastern 0.0
scientist 0.0
represented 0.0
waters 0.0
journal 0.0
foundation 0.0
access 0.000259813734489
analysis 0.0
writes 0.0
colorado 0.000116436329039
medical 0.0
tremendous 0.0
nytimes 0.0
public 6.13158980097e-05
cheaters 0.0
cannot 0.000235454645503
reveals 0.0
immunity 0.0
threatens 0.0
candidate 0.0
brilliant 0.0
wisconsin 0.0
studies 0.0
measure 0.0
compared 0.0
donors 0.0
graham 0.0
incorrect 0.0
headline 0.0
careers 0.000123045519075
answering 0.000238607481238
streaming 0.000345401622799
leaders 0.0
supreme 0.0
nominee 0.0
gorsuch 0.0
protest 0.0
immigration 0.0
policies 0.0
administration 0.0
defend 0.0
excitement 0.0
funding 0.0
surveillance 0.0
transfer 0.0
conspiracy 0.0
horrifying 0.0
formed 0.0
interviews 0.000214915460619
retreat 0.0
alliance 0.0
platform 8.37223546256e-05
editing 0.0
february 0.000155350906709
association 0.0
airwaves 0.0
hamilton 0.0
futures 0.0
borders 0.0
border 0.0
uranium 0.0
misleading 0.0
january 0.000365419815097
topics 0.0
unprecedented 0.0
airplane 0.0
tragic 9.54485637434e-05
philadelphia 0.000233832483368
funded 0.0
secure 0.0
income 0.0
hurricane 0.0
breakdown 0.000111863875135
countries 7.60999585397e-05
linked 0.0
broadcast 0.0
african 0.0
triple 0.0
provide 7.74474700491e-05
enhance 0.0
development 0.0
companies 0.0
discussions 0.0
developing 0.0
proposal 0.0
potential 0.0
moderator 0.0
suggestion 0.0
attending 0.0
filled 7.41413441548e-05
schultz 0.0
education 7.10309648528e-05
sickness 0.0
mentioned 0.000155350906709
exists 0.0
henderson 0.0
plants 0.0
orders 0.0
officials 0.0
strategic 0.0
ability 7.67693952289e-05
political 0.0
director 0.000197573796571
behaving 0.00017229149338
deficits 0.0
sufficient 0.0
prevent 0.0
shoddy 0.0
capacity 0.0
donations 9.97884948362e-05
editors 0.0
discussing 0.0
persistent 0.0
treatment 8.27068627466e-05
establishment 0.0
protects 0.0
critical 0.0
ambassador 9.1143813269e-05
preparing 0.0
capable 0.0
bishop 0.000153825510024
producers 0.0
bombed 0.0
weekly 9.1143813269e-05
becoming 0.0
magazine 7.32937440142e-05
lawyers 0.0
summary 0.0
standard 0.0
controlled 0.0
hiring 0.0
defending 0.0
pushes 0.0
admitted 0.0
failed 0.0
independent 0.0
copies 0.0
politically 0.0
driven 0.0
agenda 0.0
blocked 8.91168375503e-05
result 0.0
announcing 0.0
destruction 0.0
culture 7.28750161458e-05
insider 0.0
traitors 0.0
prince 0.0
solutions 0.0
indiana 0.0
mongering 0.0
claims 0.0
editorial 0.0
prospects 0.0
mistakes 0.0
offered 8.68921637913e-05
founded 0.0
ignorance 0.0
inspiring 0.000427396156886
majority 0.0
embarrassing 9.48115854057e-05
creators 0.0
server 0.0
berniesanders 0.0
spotlight 0.000108063419347
readout 0.0
tactics 0.0
irrelevant 0.0
massive 0.0
receiving 0.0
promising 0.0
promises 0.0
consequences 0.0
production 0.0
proposals 0.0
elsewhere 0.0
bernie 0.0
hacking 0.0
guests 0.00024812058824
interviewed 0.0
secretary 0.0
rebuttal 0.0
reduce 0.0
arriving 0.000115960759554
dangerous 0.0
shutting 0.0
arrival 0.0
canceled 0.0
typically 0.0
saving 7.65453007766e-05
pioneer 0.0
incident 0.0
ordering 0.000125826594946
victims 0.000306181203106
raises 0.0
receive 0.00022306619306
reputation 0.0
intention 0.0
commentary 0.0
disclosure 0.0
terrific 0.0
berkeley 0.0
melbourne 0.0
received 0.000203145055053
correctly 0.0
inherited 0.0
displayed 0.0
joseph 0.0
offices 0.00010929994862
necessary 0.0
largely 0.0
inaccurate 0.0
debate 0.0
conflict 0.0
interest 0.0
controversy 0.0
stated 0.0
rating 0.0
nominate 0.0
outstanding 0.0
devastating 9.77408304837e-05
accurate 0.0
southeastern 0.0
romney 0.0
scotland 0.0
delayed 0.0
rarely 0.0
abroad 0.0
winners 0.000419019562082
profit 0.000103017842651
reviews 0.0
republican 0.0
presidential 8.79927290313e-05
candidates 0.0
politicians 0.0
epidemic 0.0
greater 0.0
booths 0.0
arnold 0.0
principles 0.0
deadline 8.5019953132e-05
speakers 0.0
incoming 0.0
various 0.0
nuclear 0.0
danger 9.23381844415e-05
leading 6.69642903057e-05
restored 0.0
conditions 0.0
however 0.0
resolution 0.0
remained 0.0
member 6.1989626077e-05
examples 0.0
employ 0.0
courses 0.0
largest 0.0
hallmark 0.0
mentor 0.000116436329039
increase 0.0
transcript 0.0
disrupt 0.0
provided 0.000108472371368
binding 0.0
decreased 0.0
revival 0.00294840383288
crashing 0.000141711475755
reception 0.0
rising 0.0
primary 0.0
reduction 0.0
surrogate 0.0
provides 0.00010338922278
environment 0.0
revealed 8.60816068045e-05
confirmed 7.67693952289e-05
controls 0.0
behavior 0.0
introduced 0.0
carbon 0.0
communities 0.0
region 0.0
deaths 0.000110566276629
responsible 0.0
household 0.0
munich 0.0
canada 0.000491621961921
regions 0.0
movement 0.000140860772187
midwest 0.0
segment 0.0
emerged 0.0
hundreds 0.0
information 0.0
combined 0.0
easily 0.0
towards 0.0
inform 0.0
mathematically 0.0
october 0.000737158351947
investigating 0.0
predators 0.0
innovation 0.0
perspective 7.79044300542e-05
cities 0.000158129045698
todays 0.0
julian 0.0
eliminated 0.0
interests 0.0
toledo 0.0
extraordinary 0.0
eradicate 0.0
retains 0.0
ashamed 0.0
meetings 0.0
describing 0.0
eliminate 0.0
obligation 0.0
gender 0.0
committee 0.0
wasting 0.0
numerous 0.0
examination 0.0
inflammatory 0.0
practices 0.0
management 0.0
nordstrom 0.0
genius 0.000350168899567
warren 0.0
traveling 0.0
billions 0.0
prepared 7.97730738456e-05
fraction 0.0
equipment 0.0
procedures 0.0
rasmussen 0.0
county 0.0
developer 0.0
anthony 9.60933579612e-05
shadow 0.000102649068721
district 0.0
considered 0.0
lobbyist 0.0
chosen 0.0
hospitalized 0.0
outright 0.0
yorkers 0.0
naming 0.0
conventions 0.0
deficit 0.0
interventions 0.0
focusing 0.0
sensible 0.0
hosted 0.0
batman 0.000121444885606
column 0.0
upcoming 0.000596562613566
positions 0.0
favors 0.0
regulation 0.0
distributed 0.0
weakness 0.0
introduction 0.0
western 0.0
pacific 0.0
larger 0.0
increases 0.0
effective 0.0
situations 0.0
harbor 0.0
wealth 0.0
underway 0.0
israel 0.0
hysteria 0.0
overwhelming 0.0
protection 0.0
prisoners 0.0
guidance 0.0
montana 0.0
determination 0.0
restore 0.0
acquire 0.0
additional 0.0
exception 0.0
machine 7.10309648528e-05
honoring 0.0
visually 0.0
contrary 0.0
immediate 0.0
politico 0.0
ignoring 0.0
judges 0.0
federal 0.0
constant 0.000102282864664
philippines 0.0
nicely 0.0
september 0.000295712635986
manchester 0.0
fiction 0.0
priest 0.0
angela 0.0
process 6.71509692567e-05
destructive 0.0
genuine 0.0
surreal 0.000114559341317
whitehouse 0.0
flotus 0.0
crisis 0.000242926935227
judgement 0.0
confidence 0.0
voters 0.0
diamondandsilk 0.0
oldest 0.0
inauguration 0.0
gracious 0.000128763116916
scream 0.0
postponed 0.0
disappoint 0.0
believing 0.000212917424775
hillaryclinton 0.0
electoral 0.0
crashed 0.000236765700875
citizenship 0.0
closed 7.50028399969e-05
religious 0.0
apprentice 0.0
conservative 0.0
economists 0.0
buzzfeed 0.0
puppet 0.0
sweden 0.0
andersoncooper 0.0
treats 0.0
qualified 0.0
missouri 0.0
cooper 0.0
debates 0.0
endorsements 0.0
strike 8.09756450758e-05
shouting 0.000123590084253
empire 0.0
encouraged 0.000130607168209
regard 0.0
concerning 0.0
misinformed 0.0
disregard 0.0
barack 0.0
joined 6.47743872159e-05
terrorism 0.0
pushing 0.0
cracking 0.0
muhammad 0.0
refused 0.0
amazingly 0.0
express 0.000162928972912
gratitude 0.0
congratulation 0.0
throughout 0.000250399908065
shining 0.0
fighter 0.0
anticipated 0.0
presented 0.0
reveal 0.0
stands 0.000146167926039
native 0.0
harvey 0.0
featured 8.27068627466e-05
announce 0.000244595228112
surround 0.000148288807609
although 0.000171628351697
senior 0.0
todayshow 0.000361212768499
convincingly 0.0
haters 0.0
returning 0.0
laughs 0.0
touched 0.0
corruption 0.0
violence 0.0
runnin 0.0
delivered 0.0
owning 0.0
legendary 8.42375555115e-05
stabbing 0.0
independence 0.0
approval 0.0
magical 9.87546896378e-05
alongside 0.0
percent 0.0
spiral 0.0
differently 0.0
sweeping 0.0
spoiler 0.0
theirs 0.0
offering 0.0
remembering 0.0
floated 0.0
professionals 0.0
construction 0.0
searching 0.0
flexibility 0.0
sinking 0.0
detail 0.0
document 0.0
cabinet 0.0
pleased 0.0
carrying 9.77408304837e-05
statements 0.0
decade 0.0
prague 0.0
crossing 0.0
bigotry 0.0
happily 0.0
therefore 0.0
belong 0.00011099525917
customs 0.0
trillion 0.0
backed 0.0
electricity 0.0
observing 0.0
russell 0.0
engineers 0.0
operations 0.0
values 0.0
senator 0.0
confirms 0.0
removing 0.0
payment 0.0
consistently 0.0
posing 0.0
everett 0.0
wondered 0.0
generic 0.0
fields 0.0
mining 0.0
newspaper 0.0
detailed 0.0
rainbow 0.000107657625288
childcare 0.0
unlimited 0.0
exploded 0.0
thoroughly 0.0
adviser 0.0
leaves 7.63221578959e-05
matthew 0.0
intersection 0.0
affected 0.000162438994687
newspapers 0.0
corporate 0.0
economy 0.0
explores 0.0
spoken 0.0
during 0.000132518290435
credible 0.0
competitive 0.0
carefully 0.0
returned 0.0
blasts 0.0
guarding 0.0
hornet 0.0
successfully 0.0
southern 0.0
dakota 0.0
belief 0.0
messenger 0.0
heroes 8.02508050398e-05
russians 0.0
intelligence 0.0
deepest 0.0
graduates 0.0
describe 7.63221578959e-05
hollywood 7.74474700491e-05
reclaim 0.0
equality 0.0
announcement 0.000270105313966
interfere 0.0
interrupted 0.0
nationwide 0.0
questionable 0.0
garden 0.00015719481609
survey 0.0
journalists 0.0
delighted 0.0
minister 0.0
golfer 0.0
capital 0.0
penguins 0.0
regarding 0.0
teachers 0.0
devastated 0.0
phrase 0.0
immigrants 0.0
aliens 0.0
subjects 0.0
revolution 0.0
median 0.0
twelve 0.0
releases 9.70756308491e-05
accomplish 0.000133832110602
debbie 0.0
sebastian 0.0
briefing 0.000115022340519
advisor 0.0
commission 0.0
deadlines 0.0
hereby 0.0
invitation 0.0
alternatives 0.0
villages 0.0
accepted 8.79927290313e-05
commentators 0.0
depression 0.0
comprehensive 0.0
committees 0.0
pushed 0.0
statistic 0.0
donation 8.91168375503e-05
electronic 0.0
nomination 0.0
britain 0.0
questioning 0.0
attempt 7.50028399969e-05
investment 0.000101558024628
terror 0.0
homeland 0.0
polish 0.0
switzerland 0.0
represents 0.0
announcer 0.0
churchill 0.0
ambassadors 0.000148288807609
anchors 0.0
endorse 0.0
urgent 0.0
forced 0.0
expenses 0.0
preparations 0.0
string 0.0
morocco 0.0
thrill 0.0
watchdog 0.0
agencies 0.0
scrutiny 0.0
glorious 0.0
approaching 0.0
tragedy 0.0
handled 0.0
offers 0.0
requested 0.0
improvements 0.0
destroying 0.0
inexpensive 0.0
opposition 0.0
smithsonian 0.0
addiction 0.0
challenged 0.0
manhattan 0.0
richmond 0.0
forces 0.0
nations 0.0
anderson 0.0
builds 0.0
sexist 0.0
narrative 0.0
application 0.0
cannon 0.0
ethical 0.0
representation 0.000125258480554
obvious 0.0
statistics 0.0
military 0.0
housing 0.0
wonderfully 0.000143280251042
miller 0.0
copying 0.0
advised 0.0
ordered 0.0
unions 0.0
useless 0.0
alicia 0.0
economic 0.0
radical 0.0
planted 0.0
theories 0.0
conceived 0.0
readers 0.0
bombing 0.0
products 0.00028634569123
phenomena 0.0
classroom 0.0
classified 0.0
purely 0.0
hacked 0.000205298137442
taxpayers 0.0
opposed 0.0
pressing 0.000136562598492
russia 0.0
abraham 0.0
lincoln 0.0
observer 0.0
intelligent 0.0
lawsuit 0.0
detective 0.0
magnificent 0.0
heritage 0.0
beloved 0.0
dignity 0.0
priorities 0.0
repealing 0.0
murdoch 0.0
coalition 0.0
theresa 0.000124140351788
charges 0.0
activists 0.0
elected 0.0
relief 0.000174879130596
congratulates 0.0
pledge 9.8414558551e-05
elections 0.0
landslide 0.0
council 0.0
imperative 0.0
catastrophic 0.0
douglas 0.0
brexit 0.0
democracy 0.0
disastrous 0.0
rebuild 0.0
pundits 0.0
nickname 0.0
poison 0.0
interfering 0.0
negotiations 0.0
summit 0.0
dossier 0.0
unleash 0.0
negotiation 0.0
sticking 0.0
openly 0.0
embarrassed 0.0
ireland 0.0
attacks 0.0
remarks 0.0
democratic 0.0
outgoing 0.0
maureen 0.0
treasury 0.0
refugees 0.000104519375358
snatch 0.0
morgan 0.0
grieve 0.0
vicious 0.0
essentially 0.0
restoring 0.0
extended 9.57699718979e-05
referendum 0.0
ovation 0.0
bankrupt 0.0
proudly 0.0
oppose 0.0
refusal 0.0
urging 0.0
strengthen 0.0
deliver 0.0
negotiating 0.0
remaining 0.0
merkel 0.0
repeal 0.0
formal 0.0
reckless 0.0
prosperous 0.0
servant 0.0
desperate 0.0
secretaries 0.0
formally 0.0
breach 0.0
gloomy 0.0
outlines 0.0
concessions 0.0
executive 0.0
extend 0.0
republicans 0.0
terrorists 0.0
weapons 0.000205298137442
bodyguards 0.0
outrage 0.0
representative 0.0
prevail 0.0
searched 0.0
policemen 0.0
islamic 0.0
islamist 0.0
ingrained 0.0
humbled 0.0
courage 0.0
chamber 0.0
commander 0.0
formula 0.0
brigade 0.0
respecting 0.0
lectured 0.0
devices 0.0
enormous 0.0
verdict 0.0
refusing 0.0
energies 0.0
carried 0.0
behalf 0.000188991936848
tariff 0.0
amendment 0.0
nightmare 0.0
employment 0.0
legislation 0.0
referring 0.0
scrapping 0.0
handling 0.0
goodies 0.000148288807609
proves 0.0
prominently 0.0
crackdown 0.0
unfair 0.0
fiscal 0.0
humiliating 0.0
strongly 0.0
vision 0.000155808860108
resignation 0.0
confirmation 0.0
records 7.97730738456e-05
disabled 0.0
quoting 0.0
reductions 0.0
deeply 0.0
commerce 0.0
accumulation 0.0
overplaying 0.0
refugee 0.0
conway 0.0
exposed 0.0
netanyahu 0.0
israeli 0.0
priority 0.0
strongest 0.0
freedoms 0.0
treaties 0.0
empowering 0.000140188178679
laughter 0.0
syrian 0.000111427772471
uphold 0.0
praising 0.0
renewal 0.0
penned 0.0
condemns 0.0
realdonaldtrump 0.0
goodwill 0.0
attorney 0.0
settled 0.0
chairman 0.0
capability 0.0
firing 0.0
seanspicer 0.0
inaugural 0.0
carnage 0.0
optimism 0.0
rulers 0.0
clintons 0.0
melania 0.0
bikers 0.0
handing 0.0
intended 0.0
optimistic 0.0
campaigned 0.0
finance 0.0
allies 0.0
compromised 0.0
governor 0.0
bosses 0.0
attempts 0.0
irresponsible 0.0
incidents 0.0
merely 0.0
documents 0.0
tariffs 0.0
purpose 0.0
architect 0.0
arlene 0.0
resign 0.0
reuters 0.0
mainstream 0.0
dozens 0.0
donnell 0.0
clarified 0.0
gathering 0.0
crimes 0.0
vulnerable 0.0
commentator 0.0
overwhelmingly 0.0
respectful 0.0
markets 0.000460089362076
inspector 0.0
nigel_farage 0.0
drudge 0.0
abused 0.0
infrastructure 0.0
projected 0.0
boards 0.0
allegations 0.0
bloomberg 0.0
insulting 0.0
leaking 0.0
liberal 0.0
chairs 0.0
podium 0.0
conceded 0.0
capitol 0.0
consulting 0.0
wannabe 0.0
powell 0.0
reforms 0.0
technical 0.000110140767669
securing 0.0
steven 0.0
rumsfeld 0.0
businesses 0.0
balancing 0.0
socialist 0.0
complaints 0.0
politician 0.0
representatives 0.0
rallies 0.0
belittle 0.0
ballot 0.0
failing 0.0
refuses 0.0
conclude 0.0
vibrant 0.0
tarmac 0.0
spinning 0.0
appointments 0.0
farewell 0.0
opponents 0.0
unopposed 0.0
polling 0.0
prosperity 0.0
apology 0.0
outline 0.0
losers 0.0
battlefield 0.0
abandoned 0.0
endorsed 0.0
negotiate 0.0
negotiated 0.0
unwilling 0.0
appointed 0.0
slaughter 0.0
betray 0.0
donated 9.48115854057e-05
immigrant 0.0
prosecuted 0.0
criminals 0.0
elizabethforma 0.0
protesting 0.0
releasing 0.000326653592663
screening 0.000203838389825
sponsor 0.0
pocketbook 0.0
transparency 0.0
austin 0.000295243675653
obamacare 0.0
acceptable 0.0
schwarzenegger 0.0
congressman 0.0
profits 0.0
toward 0.0
fleeing 0.0
bravery 0.0
protests 0.0
recieved 0.0
violent 0.0
remarkably 0.0
senators 0.0
ratings 0.0
spouses 0.0
fundraiser 0.0
senate 0.0
louisiana 0.0
giuliani 0.0
venezuela 0.0
parenthood 0.0
organizations 0.0
generations 0.000104519375358
minorities 0.0
underestimate 0.0
terrified 0.0
discourse 0.0
pennsylvania 0.0
hackers 0.0
nbcnews 0.0
mccain 0.0
scandal 0.0
constitution 0.0
sensanders 0.0
abandon 0.0
explode 0.0
reopening 0.0
governments 0.0
competent 0.0
mike_pence 0.0
stinks 0.0
logical 0.0
accurately 0.0
righteous 0.0
thursdays 0.0
fitting 0.000111863875135
category 0.00020239863938
swearing 0.0
politifact 0.0
abolish 0.0
surging 0.0
murders 0.0
reagan 0.0
vetting 0.0
vetted 0.0
pouring 0.0
fraudulent 0.0
ballots 0.0
fading 0.0
speakerryan 0.0
civilized 0.0
commercials 0.0
luxurious 0.0
outraged 0.0
nypost 0.0
statute 0.0
enforcement 0.0
accountability 0.0
truthful 0.0
springfield 0.000184713740083
cancelled 0.0
conflicts 0.0
suffer 0.0
selfishly 0.0
educational 0.0
stolen 0.0
visionary 0.0
wounds 0.0
disgraceful 0.0
hatred 0.0
persuasion 0.0
exposing 0.0
teaches 0.0
sellers 0.0
refers 0.0
trusted 0.0
sheriff 0.0
samsung 0.0
ranking 0.0
undecided 0.0
nebraska 0.000320030033454
abusive 0.0
abuser 0.0
nashville 0.000114559341317
lightweight 0.0
victories 0.0
consumer 0.0
violation 0.0
sarcasm 0.0
freaky 0.0
jimmyfallon 0.000119383834406
outlets 0.0
vanityfair 0.0
harassed 0.0
leverage 0.0
sacred 0.0
horrific 0.0
contribute 0.0
indicted 0.0
chooses 0.0
defended 0.0
champion 0.0
waited 0.0
denmark 0.0
conviction 0.0
retail 0.0
distract 0.0
globes 0.0
endorsing 0.0
pathetic 0.0
purposely 0.0
expose 0.0
representing 0.0
mmflint 0.0
registration 0.0
acceptance 0.0
defeated 0.0
prosecutor 0.0
nbcsnl 0.000586262800572
nevada 0.0
illinois 0.000143280251042
massachusetts 0.0
spontaneous 0.0
entrepreneur 0.0
arkansas 0.0
hotels 0.0
exhausted 0.0
puppets 0.0
protesters 0.0
natalie 0.0
anaheim 0.00016458747063
nominating 0.0
vietnam 0.0
claimed 0.0
indianapolis 0.000149172022844
loudly 0.0
sarasota 0.0
rapids 0.0
oklahoma 0.0
devoted 0.0
sacramento 0.000153825510024
arranged 0.0
baldwin 0.0
crushed 0.0
reflects 0.0
replacing 0.0
louder 0.0
flashback 0.000137982957103
farmers 0.0
unleashed 0.0
tourists 0.000153825510024
steals 0.0
albany 0.0
devastation 0.0
meantime 0.000142490009542
donlemon 0.0
wilbur 0.0
finalists 0.0
ransom 0.0
normmacdonald 0.0
vanishing 0.0
clarence 0.0
jaketapper 0.0
clowns 0.0
elizabeth 0.0
microphone 0.0
machines 0.0
premium 0.000137982957103
championships 0.0
impersonation 0.0
horribly 0.0
stakes 0.0
mouthed 0.0
reservation 0.0
delaware 0.0
springs 0.0
columbus 0.0
slackers 0.0
toyota 0.0
chucktodd 0.0
correspondents 0.0
soldier 0.0
panels 0.0
broadcasting 0.0
sparks 0.0
warned 0.0
jclayfield 0.0
kellogg 0.0
anchor 0.0
heated 0.0
congressional 0.0
boeing 0.0
usatoday 0.0
endlessly 0.000160015016727
craziest 0.000271733121812
viewers 0.0
delivers 0.0
pittsburgh 0.0
marshal 0.0
reverend 0.0
lifelong 0.0
disdain 0.0
hispanic 0.0
defrauded 0.0
oppression 0.0
crowds 0.000230978910646
washingtonpost 0.0
affordable 0.0
tapping 0.0
ginsburg 0.0
reilly 0.0
illegally 0.0
shootings 0.0
destiny 0.0
serenawilliams 0.0
motors 0.0
redding 0.0
initially 0.0
travis 0.0
accomplishments 0.0
misconduct 0.0
mocked 0.0
disgrace 0.0
greeley 0.0
carmel 0.0
outcry 0.0
playbook 0.0
zealand 0.0
fearless 0.0
lining 0.0
sidekick 0.0
madame 0.0
grandstand 0.0
rochester 0.0
speechless 0.000131873496217
fletcher 0.0
begged 0.0
wintour 0.0
inspires 0.000237761918182
carlos 0.0
missiles 0.0
chelsea 0.00011274709037
oppressive 0.0
forgiven 0.0
killings 0.0
taiwan 0.0
somalia 0.0
burning 0.0
subscribers 0.000142490009542
chester 0.0
newtown 0.0
booker 0.0
heights 0.000263746992435
leicester 0.0
chiefs 0.0
joenbc 0.0
opioid 0.0
separately 0.0
intros 0.0
columnist 0.0
manages 0.0
financed 0.0
mnuchin 0.0
delegate 0.0
vicente 0.0
struck 0.0
trudeau 0.0
oreillyfactor 0.0
vulgarian 0.0
publicity 0.0
amnesty 0.0
ivankatrump 0.0
communism 0.0
linkedin 0.0
avoided 0.0
sophisticated 0.000151914387797
seanhannity 0.0
anncoulter 0.0
foolish 0.0
catholics 0.0
bogged 0.0
catholic 0.0
thriving 0.0
newtgingrich 0.0
abedin 0.0
secretly 0.0
undermines 0.0
americanism 0.0
christians 0.0
rationally 0.0
deplorable 0.0
wikileaks 0.0
execution 0.0
enduring 0.0
foxandfriends 0.0
losses 0.0
kevcirilli 0.0
staffers 0.0
barron 0.0
jihadis 0.0
hampshire 0.0
pandering 0.0
donaldjtrumpjr 0.0
moines 0.0
lobbying 0.0
careless 0.0
piersmorgan 0.0
palestinian 0.0
kellyanne 0.0
democrat 0.0
unfunny 0.0
condemned 0.0
despair 0.0
louvre 0.0
crooked 0.0
lynden 0.0
outperform 0.0
tedcruz 0.0
majors 0.0
schumer 0.000176613111153
credibility 0.0
flooding 0.0
hannity 0.0
beneficiary 0.0
sanctions 0.0
nominates 0.0
existent 0.0
criticized 0.0
senatemajldr 0.0
workforce 0.0
issued 0.0
outsider 0.0
declare 0.0
ivanka 0.0
dignified 0.0
threaten 0.0
outcomes 0.0
ukraine 0.0
justintrudeau 0.0
vladimir 0.0
businessman 0.0
regards 0.0
assange 0.0
malicious 0.0
garners 0.0
ethics 0.0
wrecked 0.0
regimes 0.0
incorrectly 0.0
hostile 0.0
defenders 0.0
deceived 0.0
hypocritical 0.0
favorably 0.0
shatter 0.0
changer 0.0
spokane 0.0
unnecessary 0.0
cwaunion 0.0
expand 0.0
apologized 0.0
criticizing 0.0
legion 0.0
hershey 0.000208716425854
intensity 0.0
tigerwoods 0.0
amercan 0.0
reince 0.0
chriscjackson 0.0
hypocrites 0.0
billkristol 0.0
govmikehuckabee 0.0
dustin 0.0
bullied 0.0
anonymous 0.0
yankees 0.0
thehill 0.0
infiltrated 0.0
somali 0.0
invention 0.0
frontrunner 0.0
patriot 0.0
poorly 0.000119383834406
prisonplanet 0.0
daytona 0.0
comparable 0.0
shouted 0.0
holocaust 0.0
kellyannepolls 0.0
foxnews 0.0
initiated 0.0
tiffany 0.0
mikeandmike 0.0
barbara 0.0
litigation 0.0
frankcaliendo 0.0
toughness 0.0
suffered 0.0
streep 0.0
billionaire 0.0
percentage 0.0
insiders 0.0
premiums 0.0
congratulatory 0.0
treasurer 0.0
incompetence 0.0
delegates 0.0
rollout 0.0
appalled 0.0
misquoted 0.0
pledged 0.0
demanded 0.0
andrews 0.0
lowlife 0.0
courageous 0.0
betrayed 0.0
horrors 0.0
warheads 0.0
pledges 0.0
interrupts 0.0
blacks 0.0
elaine 0.0
candidacy 0.0
discredited 0.0
cringing 0.0
estates 0.0
laughable 0.0
aberdeen 0.0
healed 0.0
floods 0.0
swiftly 0.0
cheryl 0.000397352919789
syracuse 0.0
difficulties 0.000151914387797
flipping 0.000147420191644
wilkes 0.0
lisbon 0.000369427480167
suckers 0.0
golfdigest 0.0
jeffrey 0.0
sixteen 0.0
scandals 0.0
circuits 0.0
regulations 0.0
monitoring 0.0
swamped 0.0
costing 0.0
detained 0.0
warmest 0.0
marginalize 0.0
miners 0.0
unemployment 0.0
paragon 0.0
obsolete 0.0
subsidies 0.0
exercised 0.0
evangelicals 0.0
franklin 0.0
molten 0.0
servers 0.0
billgates 0.0
excessive 0.0
coordinated 0.0
geneva 0.0
soaring 0.0
unsecured 0.0
corporations 0.0
rifles 0.0
innovative 0.0
pillar 0.0
bashing 0.0
organize 0.0
panelists 0.0
frontiers 0.0
pricing 0.0
platforms 0.0
scaling 0.0
pretends 0.0
forensic 0.0
roundtable 0.0
inherit 0.0
fabrication 0.0
brewer 0.0
unaffordable 0.0
reinforcing 0.0
eventful 0.0
wasserman 0.0
lindsey 0.000163406520495
billclinton 0.0
upstate 0.0
empowerment 0.0
penalties 0.0
responders 0.0
civilization 0.0
occupy 0.0
approximately 0.0
knight 0.0
homeownership 0.0
scratched 0.0
screws 0.0
contractor 0.0
havana 0.0
lowering 0.0
foundations 0.0
revitalize 0.0
counters 0.0
foreclosed 0.0
renovated 0.0
delaying 0.0
employer 0.0
executed 0.0
subpoena 0.0
grifters 0.0
cincinnati 0.0
disgraced 0.0
falsely 0.0
strengthening 0.0
abcworldnews 0.0
skyrocketing 0.0
pipelines 0.0
likewise 0.0
dishonest 0.0
surges 0.0
woefully 0.0
pressured 0.0
erratic 0.0
temperament 0.0
emboldened 0.0
keystone 0.0
mandated 0.0
crumbling 0.0
johnkasich 0.0
latinos 0.0
combating 0.0
incompetent 0.0
loopholes 0.0
incapable 0.0
unqualified 0.0
melaniatrump 0.0
recount 0.0
voluntarily 0.0
desperation 0.0
denounce 0.0
demoralized 0.0
incited 0.0
fawning 0.0
accuser 0.0
electing 0.0
patrol 0.0
connecticut 0.000146565700143
amounts 0.0
govpencein 0.0
squandered 0.0
enforce 0.0
epipens 0.0
deplorables 0.0
generals 0.0
timkaine 0.0
benghazi 0.0
moderators 0.0
sheriffclarke 0.0
unfairly 0.0
competence 0.0
dysfunctional 0.0
eleventh 0.0
instructed 0.0
restrict 0.0
battleground 0.0
jilted 0.0
blazing 0.0
hypocrite 0.0
mcconnell 0.0
circulated 0.0
flailing 0.0
pathological 0.0
deflect 0.0
undoing 0.0
predictable 0.0
phoney 0.0
perils 0.0
governing 0.0
likeable 0.0
tumble 0.0
praised 0.0
extraordinarily 0.0
jinping 0.0
trashes 0.0
knowingly 0.0
disloyal 0.0
woodward 0.0
magnificently 0.0
pretended 0.0
slaughtered 0.0
climber 0.0
americ 0.0
unprofessional 0.0
diplomats 0.0
resulted 0.0
crossroads 0.0
syrians 0.0
suppress 0.0
remembrance 0.0
infighting 0.0
castro 0.0
unquestionably 0.0
corrupted 0.0
kasich 0.0
readership 0.0
fraternal 0.0
frankluntz 0.0
demagogue 0.0
unanimous 0.0
bedford 0.0
longtime 0.0
complexities 0.0
dailymail 0.0
couric 0.0
cancelling 0.0
morningmika 0.0
concord 0.0
recounts 0.0
shouldered 0.0
patmccrorync 0.0
executives 0.0
westfield 0.0
graydon 0.0
sheldon 0.0
tanking 0.0
morning_joe 0.0
fabricated 0.0
corolla 0.0
groveling 0.0
unfolding 0.0
polled 0.0
influx 0.0
underachieving 0.0
antics 0.0
disenfranchised 0.0
golfing 0.00017229149338
xfinity 0.0
defies 0.0
fictitious 0.0
districts 0.0
vigilant 0.0
obstruction 0.0
rebuilding 0.0
preserving 0.0
passover 0.0
dhsgov 0.0
thejusticedept 0.0
repealed 0.0
intends 0.0
wildfires 0.0
usedgov 0.0
fresno 0.0
usnavy 0.0
scotus 0.0
tillerson 0.0
ineffective 0.0
senjohnmccain 0.0
cbsnews 0.0
lawsuits 0.0
caucus 0.0
shimon 0.0
wilmington 0.0
stagnant 0.0
gouging 0.0
baghdad 0.0
wiesel 0.0
obstruct 0.0
gonzalo 0.0
curiel 0.0
hostage 0.0
unnamed 0.0
truckers 0.0
boldly 0.0
scarborough 0.0
evangelical 0.0
cyberattack 0.0
marines 0.0
crimea 0.0
earners 0.0
oversaw 0.0
lobbyists 0.0
rosiegray 0.0
briefings 0.0
actresses 0.000182990632617
purchases 0.0
myanmar 0.0
heightened 0.0
shackles 0.0
perjury 0.0
dallaspd 0.0
respectfully 0.0
canton 0.0
approx 0.0
admirals 0.0
naples 0.0
brainwashed 0.0
albuquerque 0.0
supposedly 0.0
coliseum 0.0
greensboro 0.0
sheriffs 0.0
hostages 0.0
explorers 0.0
confidential 0.0
tamara 0.0
infested 0.0
depicted 0.0
devote 0.0
payroll 0.0
bombshell 0.0
advisers 0.0
watergate 0.0
mcmaster 0.0
renews 0.0
housegop 0.0
katyturnbc 0.0
pocahontas 0.0
wherein 0.0
shreds 0.0
pelosi 0.0
chrysler 0.0
collusion 0.0
deductibles 0.0
repmarkmeadows 0.0
darrellissa 0.0
insurer 0.0
dishonesty 0.0
hotlinejosh 0.0
quinnipiacpoll 0.0
apologizing 0.0
priebus 0.0
clapper 0.0
tapped 0.0
operatives 0.0
senschumer 0.0
marcorubio 0.0
viciously 0.0
leakers 0.0
bangladesh 0.000576701098063
favorable 0.0
nbcnightlynews 0.0
lockheed 0.0
untruthful 0.0
resonating 0.0
transferring 0.0
staten 0.0
humana 0.0
juanita 0.0
senses 0.0
stimulate 0.0
drooling 0.0
lakeland 0.0
burying 0.0
crafted 0.0
misrepresent 0.0
fabled 0.0
railing 0.0
billyjoel 0.0
sniper 0.0
cnnsotu 0.0
independents 0.0
detroitnews 0.0
foxbusiness 0.0
washtimes 0.0
realbencarson 0.0
meetthepress 0.0
newday 0.0
thebrodyfile 0.0
bostonherald 0.0
foxnewssunday 0.0
thefive 0.0
chriscuomo 0.0
randpaul 0.0
dcexaminer 0.0
facethenation 0.0
bretbaier 0.0
interruption 0.0
allenwest 0.0
cvpayne 0.0
dailycaller 0.0
prosecution 0.0
ballistic 0.0
vetoed 0.0
gettysburg 0.0
groping 0.0
brennan 0.0
nielson 0.0
justices 0.0
operative 0.0
surged 0.0
megynkelly 0.0
terminated 0.0
softbank 0.0
fronting 0.0
rigging 0.0
reprieve 0.0
pocketed 0.0
colluded 0.0
coffers 0.0
stairway 0.0
ellison 0.0
selflessly 0.0
tornadoes 0.000353226222307
levine 0.0
scranton 0.0
enslave 0.0
inappropriately 0.0
devalue 0.0
presumptive 0.0
fournier 0.0
terminate 0.0
reptommarino 0.0
kimberly 0.0
subscriptions 0.0
ingrahamangle 0.0
trajectory 0.0
natalie_gulbis 0.0
unheard 0.0
objectified 0.0
turnberry 0.0
djohnsonpga 0.0
bedminster 0.0
golf_com 0.0
elevation 0.0
litany 0.0
unaccountable 0.0
primaries 0.0
disrupter 0.0
runways 0.0
hashanah 0.0
unenthusiastic 0.0
undecideds 0.0
richardtrumka 0.0
renegotiate 0.0
rapists 0.0
aldridge 0.0
unsubstantiated 0.0
misrepresented 0.0
prisoner 0.0
mattis 0.0
weakening 0.0
endakennytd 0.0
taoiseach 0.0
lifeboat 0.0
enabler 0.0
emanated 0.0
lindseygrahamsc 0.0
renegotiating 0.0
waterville 0.0
zucker 0.0
berglund 0.0
suboptimal 0.0
steelworkers 0.0
postpone 0.0
mohammed 0.0
indignant 0.0
comprised 0.0
stupidest 0.0
exxonmobil 0.0
precluded 0.0
instruct 0.0
gonzales 0.0
scorned 0.0
davidmuir 0.0
harrisburg 0.0
caesars 0.0
borisep 0.0
lapierre 0.0
limbaugh 0.0
petraeus 0.0
phyllis 0.0
illegals 0.0
sanctity 0.0
neurotic 0.0
negligence 0.0
alvarez 0.0
roseanne 0.0
roanoke 0.0
theleegreenwood 0.0
mcallen 0.0
deduct 0.0
chokes 0.0
vigilance 0.0
pensacola 0.0
tuckercarlson 0.0
repcummings 0.0
windham 0.0
teleprompter 0.0
paulareidcbs 0.0
jeffzeleny 0.0
condoleezza 0.0
genflynn 0.0
donaldtrump 0.0
demeanor 0.0
baiting 0.0
plotted 0.0
aptitude 0.0
billings 0.0
approving 0.0
disconnected 0.0
superstorm 0.0
brainpower 0.0
exclaim 0.0
skyrocketed 0.0
globalism 0.0
israelipm 0.0
insurgent 0.0
sneers 0.0
unrest 0.0
scaramucci 0.0
disapproval 0.0
katiepavlich 0.0
overflow 0.0
warped 0.0
scottwalker 0.0
kirstenpowers 0.0
usarmy 0.0
schlafly 0.0
alisonforky 0.0
oppresses 0.0
pedantic 0.0
highness 0.0
benefitted 0.0
fundraisers 0.000214561340703
shinzo 0.0
augustine 0.000242445892146
ranchers 0.0
middletown 0.0
fiorina 0.0
pueblo 0.0
lindasuhler 0.0
lightweights 0.0
kimguilfoyle 0.0
perdue 0.0
unmasked 0.0
unmasking 0.0
judgejeanine 0.0
boycotted 0.0
outnumberedfnc 0.0
jessebwatters 0.0
podesta 0.0
kristol 0.0
interruptions 0.0
broaddrick 0.0
erictrump 0.0
outspending 0.0
irredeemable 0.0
begala 0.0
brazile 0.0
dinesh 0.0
markings 0.0
ericbolling 0.0
loudobbs 0.0
skyrocket 0.0
blumenthal 0.0
cochran 0.0
imploding 0.0
discord 0.0
jeffflake 0.0
davidwohl 0.0
bribery 0.0
repkenbuck 0.0
joshrogin 0.0
enrique 0.000232864881675
unverified 0.0
retribution 0.0
dwindling 0.0
automobile 0.0
teamtrump 0.0
subpoenaed 0.0
danscavino 0.0
joniernst 0.0
scottadamssays 0.0
senatorfischer 0.0
tabulation 0.0
trafficked 0.0
depict 0.0
unrelenting 0.0
imitating 0.0
dutchess 0.0
adelson 0.0
valuing 0.0
ricksantorum 0.0
chuckgrassley 0.0
laraleatrump 0.0
abingdon 0.0
equating 0.0
ministries 0.0
brzezinski 0.0
sentedcruz 0.0
jamesrosenfnc 0.0
leaker 0.0
realjameswoods 0.0
jim_jordan 0.0
marshablackburn 0.0
boynton 0.0
betsydevos 0.0
lawfare 0.0
larry_kudlow 0.0
stranahan 0.0
waynedupreeshow 0.0
phillypolice 0.0
scottwrasmussen 0.0
johnstown 0.0
raul_labrador 0.0
statewide 0.0
reviewjournal 0.0
oppress 0.0
underlings 0.0
bankrupted 0.0
collude 0.0
fayetteville 0.0
disqualifying 0.0
mahoning 0.0
disloyalty 0.0
americanlegion 0.0
bankruptcies 0.0
morell 0.0
ambridge 0.0
emboldens 0.0
asheville 0.0
grievous 0.0
ricketts 0.0
benefactor 0.0
dwyane 0.0
markhalperin 0.0
mayorbowser 0.0
unverifiable 0.0
savaged 0.0
wheeling 0.0
technocratic 0.0
countr 0.0
thealabamaband 0.0
relives 0.0
unwatchable 0.0
residences 0.0
gatekeeper 0.0
defections 0.0
senatorsessions 0.0
drmoore 0.0
honorably 0.0
billhemmer 0.0
shultz 0.0
aflcio 0.0
trucking 0.0
fabrications 0.0
malleable 0.0
misrepresents 0.0
decimated 0.0
arabella 0.0
mishandled 0.0
interfe 0.0
speach 0.0
iranians 0.0
fraudulently 0.0
enablers 0.0
dealmaker 0.0
terrori 0.0
anarchists 0.0
krzanich 0.0
foxnation 0.0
permeated 0.0
overruns 0.0
disposed 0.0
inaccurately 0.0
peebles 0.0
conditioners 0.0
classifie 0.0
forewarned 0.0
karlrove 0.0
palazzo 0.0
evansville 0.0
rebroadcast 0.0
bangor 0.0
secpricemd 0.0
realdonaldtru 0.0
uschamber 0.0
trumpinaugural 0.0
rawlings 0.0
churchillian 0.0
hemmer 0.0
rudygiuliani 0.0
pynance 0.0
terrybranstad 0.0
cbnnews 0.0
faithandfreedom 0.0
ovations 0.0
scpioneer 0.0
dwstweets 0.0
tgowdysc 0.0
bluffs 0.0
marist 0.0
spluttering 0.0
thetodaysgolfer 0.0
thebig_easy 0.0
hoosier 0.0
senbobcorker 0.0
larsloekke 0.0
roadblocks 0.0
manheim 0.0
greenblatt 0.0
jtanews 0.0
mitchellvii 0.0
bemoan 0.0
michiga 0.0
gennifer 0.0
gulbis 0.0
liyuan 0.0
enlisting 0.0
ainsleyearhardt 0.0
stevedoocy 0.0
foxfriendsfirst 0.0
pastormarkburns 0.0
marksimoneny 0.0
gov_gilmore 0.0
flunky 0.0
agitators 0.0
overdoses 0.0
liliantintori 0.0
leopoldo 0.0
traceadkins 0.0
gopconvention 0.0
governorsununu 0.0
laconia 0.0
teamsters 0.0
gatewaypundit 0.0
lawyerly 0.0
dissipates 0.0
realjeffreylord 0.0
nytimesdowd 0.0
scalise 0.0
straightening 0.0
energizer 0.0
montgomeriefdn 0.0
shulkin 0.0
ericgreitens 0.0
circuited 0.0
govbrewer 0.0
infringed 0.0
mcgarvey 0.0
republicanstudy 0.0
americafirstpol 0.0
fheile 0.0
phadraig 0.0
wiedefeld 0.0
coddington 0.0
kravis 0.0
fighterjet 0.0
shinzō 0.0
votestand 0.0
romoabcnews 0.0
moskowitzeva 0.0
drgoodspine 0.0
levisteveholt 0.0
untrusting 0.0
sleazebag 0.0
lbperfectmaine 0.0
timken 0.0
newhouse 0.0
evancho 0.0
franklin_graham 0.0
eazymf_e 0.0
busineses 0.0
substantialy 0.0
rexnord 0.0
sdcritic 0.0
highonhillcrest 0.0
fiiibuster 0.0
koster 0.0
saucier 0.0
t_lineberger 0.0
cissieglynch 0.0
saysgabrielle 0.0
ravenrantz 0.0
mayorrgiuliani 0.0
deplorablecbtp 0.0
tanden 0.0
keithrowland 0.0
kinston 0.0
sjsopio 0.0
aztrumptrain 0.0
therealmogul 0.0
unclassify 0.0
firebombed 0.0
wikileakes 0.0
davidshiloach 0.0
trumpwomenstour 0.0
mistreats 0.0
willey 0.0
dornsife 0.0
henryleledog 0.0
eericmyers 0.0
atensnut 0.0
arouses 0.0
anyonetennis 0.0
flifeforce 0.0
geeveem 0.0
susiesentinel 0.0
bcuzimdamomma 0.0
freedavidking 0.0
ifdanyt 0.0
arsenmissyirvin 0.0
nycmia 0.0
bigdog_joey 0.0
roadkingl 0.0
decieved 0.0
waukesha 0.0
creati 0.0
thallensboucher 0.0
kenansville 0.0
tarukmatuk 0.0
angpiazza 0.0
laughingstock 0.0
ak_tweet 0.0
kiiara 0.0
jerryjrfalwell 0.0
ghfanlovessonny 0.0
bishopwtjackson 0.0
cynthialummis 0.0
repreneeellmers 0.0
trumpdc 0.0
stvzbnk 0.0
bakari 0.0
adhd_fa 0.0
parisdennard 0.0
ronnieclemmons 0.0
takouis 0.0
lblackvelvet 0.0
chernuna 0.0
annebellar 0.0
presidencies 0.0
rsbnetwork 0.0
meequalsfree 0.0
pmnorlando 0.0
rhondar 0.0
patrici 0.0
lindaharden 0.0
trumpocrats 0.0
lewenskimo 0.0
trump_videos 0.0
sinabunz_tm 0.0
eyecandytmgayle 0.0
catonglass 0.0
billynungesser 0.0
samaritanspurse 0.0
zulu_out 0.0
willspeakout 0.0
laurencristmann 0.0
c_lynne_ryan 0.0
enemywithinn 0.0
elsolarverde 0.0
creats 0.0
dbongino 0.0
bongino 0.0
carl_c_icahn 0.0
fieldoffight 0.0
reploubarletta 0.0
mainegop 0.0
gatewaypun 0.0
mechanicsburg 0.0
pnehlen 0.0
patrioticpepe 0.0
insticts 0.0
borderless 0.0
lallyray 0.0
glowingly 0.0
spinnnn 0.0
flamed 0.0
nancynielsenn 0.0
olimauritania 0.0
theresa_cali 0.0
roxanetancredi 0.0
litigate 0.0
trumpdoonbeg 0.0
berrien 0.0
nbcpolitics 0.0
jakeda 0.0
barrasso 0.0
bluedogdemky 0.0
iowa_trump 0.0
arnold_ziffel 0.0
patricia_graf 0.0
brazosboys 0.0
jimvitari 0.0
trumpturnberry 0.0
trumpscotland 0.0
darrenwaggener 0.0
allegrettivicki 0.0
justininglv 0.0
chrisboydbrew 0.0
votetrumpmaga 0.0
realericjallen 0.0
insinuated 0.0
clubgoers 0.0
ausbiz 0.0
freemarketsara 0.0
senatorjeffsessions 0.0
mabynshingleton 0.0
dale_dangler 0.0
nauthizjane 0.0
richardweaving 0.0
mariadaq 0.0
sara_wejesa 0.0
jimhewitt 0.0
joedefranco 0.0
wolfstopper 0.0
djd_thunder 0.0
excoriates 0.0
rapidcraft 0.0
telepromter 0.0
liliannyleebou 0.0
lunsfordwhitney 0.0
free_sa_bd 0.0
stockdaleism 0.0
admonished 0.0
nbcdfw 0.000327021966212
frankylamouche 0.0
sandiegopd 0.0
tombarrackjr 0.0
buiidthewall 0.0
pipersul 0.0
oasisupernova 0.0
jknatter 0.0
jasondovesq 0.0
ed_klein 0.0
overregulates 0.0
dubilujane 0.0
rbacliff 0.0
ltstevenlrogers 0.0
rowanne 0.0
shoneep 0.0
magicmetalninja 0.0
barbaro 0.0
michael_favreau 0.0
christichat 0.0
mai_ttag 0.0
thydanielflores 0.0
costakenneth 0.0
svhlevi 0.0
johnjohnlacca 0.0
ladytsbrug 0.0
frankdallasagg 0.0
ladyjoanne 0.0
gerriweth 0.0
longbyfive 0.0
wesleyfelixpsi 0.0
manakoa 0.0
ragdollive 0.0
xgodfatherxzx 0.0
trumptrainrider 0.0
aprillajune 0.0
takingit_back 0.0
distlerjoyce 0.0
queencharlotteo 0.0
kellyriddell 0.0
valdosta_monkey 0.0
daybastrop 0.0
nathandwilsonfl 0.0
mathewjmari 0.0
stupor 0.0
matandsher 0.0
edgoeas 0.0
lynnepatton 0.0
erictrumpfdn 0.0
mikeozanian 0.0
lexingtonbobby 0.0
annettejeanne 0.0
andrebauer 0.0
waterbury 0.0
greenskydeb 0.0
keksec__org 0.0
ashleyedam 0.0
trumptbird 0.0
herb_stamper 0.0
senfrankniceley 0.0
anneslimo 0.0
agentvf 0.0
hornick 0.0
gqforbes 0.0
governor_savage 0.0
carolde 0.0
fugedaboudit 0.0
dnglax 0.0
alexnightrasor 0.0
lilrachiepoo 0.0
