awesome 0.000114145833744
christmas 0.000170754701816
trying 0.000410913052528
moment 5.16418005873e-05
wonderful 0.0
seeing 7.91518549234e-05
recommend 3.82257313135e-05
anybody 0.0
worked 8.3320315687e-05
direct 3.63672123041e-05
others 2.7623546374e-05
currently 3.05507182226e-05
better 0.000787606218878
please 0.000103005552824
social 2.87699055813e-05
around 0.000355693131106
people 0.000304879826662
leaving 0.0
morning 0.000229895872304
general 0.000131687881432
investigate 0.000110329400198
damage 4.18789002994e-05
everything 7.66319574345e-05
twitter 0.000256129319928
though 0.000186188485294
friend 0.000231138592047
watched 0.000115392801645
beautiful 0.0
anything 0.000129802488175
helped 0.0
managing 0.0
updated 0.0
thinking 0.000182706063655
finally 0.000182706063655
caught 0.000115079622325
believe 2.54752262236e-05
already 0.000127376131118
couple 0.000307166423561
orlando 0.0
research 0.0
chance 0.000255439858115
meaning 7.55520886273e-05
annual 0.0
quickly 0.0
growing 0.0
probably 2.76983819281e-05
should 0.0
changed 0.0
history 0.000263128840361
center 3.34803807973e-05
museum 4.43528518202e-05
behind 0.000177846565553
pretty 0.000469815592256
really 0.000153263914869
expensive 4.39234333912e-05
little 0.000687831108038
earlier 2.98886181556e-05
realized 0.0
forget 0.000699046283348
someone 0.000618033316942
mostly 0.0
worker 0.0
safety 7.40155001349e-05
shuttle 0.0
program 0.0
things 0.000203253217775
related 7.51083014882e-05
visiting 0.0
available 2.65266860178e-05
afternoons 0.0
perfect 0.000186188485294
different 7.78814929052e-05
numbers 6.38580881784e-05
delays 0.0
person 0.000409806911885
watching 0.000154092394698
passed 0.0
celebrates 0.0
minutes 0.000105535806565
travel 3.1230535428e-05
daughter 9.2665059364e-05
average 3.65789356312e-05
positive 6.06008087065e-05
outside 5.40653347305e-05
looking 0.000229277036013
forward 5.24840293348e-05
plenty 7.57754441713e-05
agreed 0.000102733644727
raising 0.0
listened 0.0
afraid 0.000165070953063
impression 4.69336542891e-05
drawing 0.0
favorite 0.000118578849684
magnet 0.0
picture 0.000108716415226
historic 0.0
instead 0.000258929150232
appreciate 3.00525326094e-05
husband 0.0
international 0.0
market 3.44392361851e-05
couldn 0.0
remember 0.000153263914869
impressive 3.51326381526e-05
familiar 4.09783170753e-05
friends 0.000128410328915
despite 3.62620086249e-05
impossible 0.0
everyone 0.000485335730419
florida 3.76648552862e-05
always 5.08133044437e-05
months 0.000160021360846
moving 0.0
meeting 0.000104685369728
google 6.42134274198e-05
answer 7.85140272961e-05
together 7.68387959785e-05
inside 0.000372376970587
smaller 0.0
missed 0.000103562412348
active 8.22100676157e-05
longer 8.84501994045e-05
enough 0.000464776205286
driving 0.000124922141712
building 5.73837025776e-05
technician 0.0
enjoying 9.36916062839e-05
london 0.0
kennedy 5.18550975973e-05
recent 0.0
gotten 0.000128031242014
amazing 7.64256786708e-05
attention 2.89267372659e-05
richard 0.0
progress 7.08714064082e-05
tomorrow 0.000408703772984
george 0.000285773474657
excited 5.33404536153e-05
campaigning 0.0
understand 5.56974351739e-05
following 2.68145831745e-05
learning 3.16648477513e-05
evening 0.0
special 0.000206011105647
secret 5.72280721208e-05
across 0.00014268229218
comparison 0.0
surprised 0.0
anymore 9.76692021292e-05
rather 0.000143459256444
showing 0.000136263198771
saying 0.000186691587653
tweeted 0.0
updates 0.0
thoughts 0.000162634680504
exactly 5.52470927481e-05
except 0.000130225602839
getting 0.00107284740408
nothing 0.000178807900681
tweets 0.000140760421014
course 5.27679032823e-05
stephen 0.00012603060336
looked 5.80110352919e-05
difficult 3.366927871e-05
stages 0.0
office 0.000220988370992
decisions 0.0
brought 2.83051367875e-05
biggest 0.000184190188253
thrilled 0.0
entire 0.000340584122719
something 0.000357615801361
closing 0.0
anyone 0.000206011105647
taking 0.000255439858115
recently 3.31996414522e-05
interesting 0.0
original 9.06525343509e-05
flying 0.000160533568549
happening 2.78487175869e-05
sometimes 2.81520842028e-05
stopped 0.000149852215966
yesterday 7.72541646177e-05
service 0.00019653131596
serious 5.46527783188e-05
emails 0.0
afford 0.000123697157144
british 3.72249022631e-05
contact 0.000105097243627
either 0.000111394870348
second 0.000309016658471
accident 4.70939491566e-05
checking 9.93202404751e-05
volunteers 0.0
indeed 3.48331456604e-05
island 7.23144775531e-05
hearing 0.000114145833744
choose 6.01050652188e-05
staying 0.0
another 0.000407603619578
address 3.44392361851e-05
display 0.0
originally 0.0
compare 4.6616067001e-05
landing 0.000139848201003
perhaps 0.0
weekend 0.000181234221609
appear 3.86835212164e-05
anyway 3.30141906126e-05
theory 4.18789002994e-05
recognize 9.13729032702e-05
working 0.000178807900681
bigger 2.99704431932e-05
screen 0.000103611427442
treated 4.20102011199e-05
laughing 0.000121201617413
wanted 5.16418005873e-05
current 3.01348881182e-05
grateful 0.0
friendship 0.0
family 7.66319574345e-05
listening 2.79999481062e-05
stream 7.02652763052e-05
wedding 3.87992692627e-05
sharing 3.00525326094e-05
double 0.000115706949063
especially 0.0
middle 0.0
waiting 7.85140272961e-05
definitely 0.000139621101619
walking 9.19041216961e-05
account 0.000299704431932
completely 3.03004043533e-05
thought 0.000412022211294
reaction 3.49325847393e-05
accept 3.26473011724e-05
possible 2.70326673653e-05
simple 5.94515088852e-05
manufacturing 0.0
destroyed 0.0
professional 3.78877220857e-05
friendly 0.0
members 0.0
supposed 0.0
astronauts 0.0
component 0.0
business 8.26467918051e-05
absolutely 0.000136631945797
sending 0.000118578849684
delivering 0.0
heavily 0.0
biased 0.0
introducing 8.19566341505e-05
congrats 0.000214516665396
community 0.0
greatest 0.000111696881295
posted 0.0
saturday 8.08792933182e-05
wednesday 6.16070456361e-05
confused 0.000111674706789
explain 5.96141115982e-05
broken 9.49945432538e-05
chicago 0.000138936377037
fairly 0.0
hoping 6.1437949625e-05
relationship 3.43417057305e-05
actually 0.000444912821345
basket 0.000118978899309
myself 0.0
pocket 8.75637835742e-05
argument 3.93860540563e-05
decent 0.000136151963752
school 0.000181723483446
thursday 0.000218611113275
selling 3.49325847393e-05
talented 3.35746541976e-05
discuss 0.000131687881432
celebrate 0.000112913980978
celebrating 0.0
anniversary 3.08883531213e-05
contest 9.98786309335e-05
internet 0.000285773474657
figure 0.00012220287289
inspired 3.08883531213e-05
sitting 8.65446012338e-05
complaining 0.0
playing 0.000285565473986
street 2.83051367875e-05
points 3.27385280289e-05
advice 0.0
forever 2.88482004113e-05
congress 4.43528518202e-05
imagine 0.000113836467877
problem 0.000191802472853
played 0.000228291667489
canadian 0.000308460375647
pulling 8.7002304884e-05
keeping 8.56093753082e-05
lovely 0.0
chinese 0.0
unlike 0.000141765785328
allowed 0.000100723962593
otherwise 3.62620086249e-05
afternoon 6.01050652188e-05
planned 3.66854626309e-05
strange 0.0
notice 0.000138541710099
difference 2.79242203237e-05
author 0.0
intent 0.0
letting 6.28067409267e-05
system 0.000255432352713
almost 7.66319574345e-05
details 0.0
experience 2.66702268076e-05
viewed 0.0
living 0.000133351134038
bright 0.0
normal 0.000102733644727
practically 0.0
before 5.53967638561e-05
monday 0.000240032041269
realize 0.000293483701048
currency 7.00542443705e-05
sleeping 4.06019153431e-05
wanting 8.04620174467e-05
science 3.60528991957e-05
tweeting 0.000145819075283
forgot 0.000192106341562
herself 0.0
disaster 7.82994228022e-05
happens 2.64552185945e-05
silence 4.02310087233e-05
congratulations 0.0
natural 0.0
raised 0.0
mission 0.0
ironic 0.000170280782268
testing 0.0
deleted 5.07172961801e-05
channels 0.0
surprising 0.0
reference 4.32234813479e-05
forgotten 0.0
trouble 9.47321679287e-05
setting 7.25240172498e-05
reminds 0.0
fantastic 3.01348881182e-05
loving 0.0
hardly 0.0
complete 0.000117292419736
membership 0.0
nearly 3.35746541976e-05
spirit 3.3106746825e-05
launched 0.0
stories 0.0
including 2.83820102266e-05
inviting 0.0
wouldn 2.75489306017e-05
choice 5.45052795086e-05
offended 0.0
conversation 3.10588682058e-05
disrespectful 0.0
making 0.000382128393354
expect 9.19041216961e-05
discussion 0.0
believes 0.0
occasions 0.0
response 0.0
brings 6.16070456361e-05
subject 4.28125831376e-05
greetings 0.0
anytime 0.0
protected 0.000103710195195
location 4.01085667889e-05
thomas 0.000120325700367
missile 0.0
needed 0.000109010559017
seriously 0.0
spending 0.000158763041476
groups 4.12323857147e-05
modern 0.0
welcome 0.000154925401762
totally 0.000147416999008
evenings 0.0
laughed 0.0
running 0.000134072915873
finished 9.16521546677e-05
strong 2.63128840361e-05
hopefully 6.49316486271e-05
respond 3.85682981063e-05
message 2.7105780084e-05
coming 0.000585930203143
thankful 0.0
temporary 0.0
issues 6.09340118968e-05
challenge 8.39998443186e-05
happen 0.00013015292498
giving 0.000103283601175
turkey 7.44498045261e-05
common 0.000126309557238
pressed 0.0
healthcare 4.96282729487e-05
benefits 0.0
situation 0.000100159367739
workers 0.0
company 0.000289267372659
health 0.000120539552473
insurance 4.40657679496e-05
change 0.000178807900681
august 0.0
mental 3.79998929179e-05
carrier 6.56881046585e-05
neither 7.04665173779e-05
lowest 0.0
decide 6.33296955025e-05
happened 8.06612103178e-05
demand 6.733855742e-05
generally 5.16618901854e-05
personal 8.3320315687e-05
beyond 2.85364584361e-05
passion 0.0
question 7.83025987093e-05
doctor 0.000195748557005
sacrifices 0.0
respected 0.0
position 0.000208998873962
increased 0.0
losing 6.29804617949e-05
strain 0.0
respect 8.37726609711e-05
collapse 5.3250323152e-05
shouldn 3.05507182226e-05
career 0.000266802411789
visited 0.0
challenger 0.0
reason 0.000161322420636
simply 0.000159645220446
audience 0.0
employees 4.89273553319e-05
accounts 0.0
attacked 0.0
involved 0.00011890301777
extreme 4.4208904397e-05
unhappy 0.0
caused 0.0
knocked 0.0
reality 3.03835685919e-05
mention 3.14902308974e-05
extremely 7.42321883287e-05
burned 6.00187740547e-05
without 0.000309016658471
falling 3.76648552862e-05
problems 3.14902308974e-05
timing 0.0
highly 0.0
online 8.24235999716e-05
animals 0.0
called 0.00059068751301
scientists 0.0
pictures 6.45712690708e-05
camera 6.67729118263e-05
heading 3.03835685919e-05
terribly 0.0
theater 0.0
paying 6.63992829044e-05
complex 4.20102011199e-05
sunday 0.000342991371335
nights 0.0
enthusiastic 0.0
increasing 0.0
traffic 0.0
opposite 0.0
lookout 0.0
reached 3.78877220857e-05
changing 3.13168059768e-05
harder 0.0
silent 8.67238751219e-05
speaking 8.77300054793e-05
careful 3.86835212164e-05
november 0.0
answered 8.07080871984e-05
number 0.000157028054592
atlantic 0.0
stupid 0.000106612600829
budget 0.0
unless 9.44706926923e-05
calling 0.000107258332698
lately 4.4497619461e-05
levels 0.0
focused 0.0
ridiculous 0.0
financially 0.0
knowing 0.0
former 0.000160533568549
covers 0.0
mountain 4.50850826789e-05
suffers 0.0
schedule 0.000118873847771
greatly 0.0
friday 7.76718092608e-05
dramatic 0.0
failure 4.11050338079e-05
achieve 4.28125831376e-05
winner 0.0
closes 0.0
bother 4.87551061825e-05
directly 4.21421840256e-05
quality 0.0
tearing 7.29971430238e-05
father 2.90845430665e-05
wishes 6.65857539557e-05
collar 0.000197064313976
ground 0.0001324269873
matter 0.000109601413059
strategy 0.0
themselves 0.0
asking 0.000216261338922
mobile 0.0
device 5.58362806686e-05
computer 0.000118515164961
impressed 3.86835212164e-05
complain 0.000144735769761
dinner 5.64569904891e-05
suffering 0.0
single 0.000184190188253
parent 4.67743644117e-05
packed 0.0
catching 7.55520886273e-05
neglected 0.0
somewhat 0.0
approved 0.0
definition 0.0
energy 6.07671371838e-05
meltdown 0.0
events 0.0
europe 3.5334279308e-05
holiday 8.82093778561e-05
status 3.84535951927e-05
update 0.000238456446393
outage 0.0
customers 5.51647000991e-05
holding 3.02175114503e-05
survive 8.67238751219e-05
electric 9.13729032702e-05
picked 9.55220191075e-05
missing 5.45052795086e-05
surprise 0.0
german 8.78468667824e-05
officially 0.000119228223196
french 3.28300836314e-05
global 0.000136591043514
follow 0.000205456526264
opinion 0.0
design 0.0
allows 4.80775553035e-05
promoting 4.39234333912e-05
volunteer 0.0
negative 7.44498045261e-05
official 5.27679032823e-05
brutal 4.4497619461e-05
cotton 7.34468300236e-05
jersey 0.000171795248649
mistake 0.0
fixing 5.09034263329e-05
france 3.54357032041e-05
proper 0.0
peaceful 0.0
thinks 5.96141115982e-05
competition 0.000103611427442
industry 0.0
easier 3.46354275246e-05
successful 0.0
trending 4.22748561403e-05
leadership 0.0
agrees 0.0
organized 0.0
enthusiasm 6.08340307029e-05
turnout 0.0
showed 0.0
attended 0.0
trumps 0.000420131418383
networks 5.62940705714e-05
experienced 4.4497619461e-05
interested 6.56601672629e-05
effect 0.0
dislike 0.0
success 2.88482004113e-05
dreams 3.35746541976e-05
protect 6.54770560577e-05
rumors 0.0
arguing 0.000102181860305
referred 0.0
waving 6.60246215282e-05
growth 8.37578005988e-05
control 2.85364584361e-05
happier 0.0
likely 6.82955217572e-05
coincidence 5.38725579799e-05
cancel 0.0
project 0.0
laying 5.2843808044e-05
lesson 0.000106612600829
replacement 0.0
invited 7.18979727257e-05
continuing 4.72552617761e-05
clearance 0.0
treating 0.0
allowing 4.47896531616e-05
arrived 3.08883531213e-05
unable 5.51647000991e-05
opening 8.3320315687e-05
popular 0.0
followed 3.395528532e-05
statement 0.0
enjoyed 3.03004043533e-05
spectacular 0.0
smoothly 0.0
length 0.0
wonder 5.53967638561e-05
matters 3.35746541976e-05
function 0.0
shared 0.0
connection 0.0
benefit 3.20177235936e-05
terrible 0.0
continues 0.00012457822731
equally 0.0
session 0.0
routine 0.0
associated 5.69966034114e-05
exciting 0.0
imagination 0.0
decides 0.0
cheering 5.05325197131e-05
spring 6.52946023448e-05
fallen 4.49369385145e-05
beautifully 0.0
places 3.04670059484e-05
entered 0.0
feedback 0.0
thousands 3.74439264835e-05
properly 0.0
informed 0.0
typical 4.75809925482e-05
continue 2.94833998015e-05
attend 3.84535951927e-05
excuse 0.0
female 3.40513408304e-05
recovery 0.000169099424561
closer 0.0
beginning 6.42134274198e-05
introduce 0.0
bought 0.00015615267714
multiple 0.0
slogan 6.25474878695e-05
covered 0.0
choices 0.0
unpredictable 0.0
enterprise 0.0
several 7.35848763335e-05
surrounded 0.000115929185909
dealing 4.43528518202e-05
teacher 0.0
training 0.0
auditorium 0.0
passing 0.000103611427442
become 5.33404536153e-05
presentation 5.18550975973e-05
spread 2.91638150566e-05
sooooo 0.0
season 0.000281520842028
putting 0.000107258332698
weight 0.0
stephanie 0.0
rapidly 0.0
follows 4.74176051541e-05
explained 4.53839879174e-05
stance 0.0
storms 0.0
headed 0.000101292770879
sleepy 0.0
returns 0.0
expected 3.65789356312e-05
resources 0.0
considering 8.56251662752e-05
fabric 7.25552770652e-05
suspect 0.0
constantly 0.0
condolences 0.0
appreciated 0.0
register 3.79998929179e-05
manage 9.3232134002e-05
transition 0.0
smooth 5.09034263329e-05
flowers 4.84140721731e-05
gained 0.0
savage 0.000298763666904
somebody 0.0
contract 0.000132626713191
furious 0.0
covering 3.95050549868e-05
boxing 0.00011305219281
credit 0.000377882770769
patriots 0.000720025717694
player 0.000641515928346
chemistry 0.0
grandkids 0.0
offensive 9.26048012877e-05
charles 0.000163913268301
fighting 2.90845430665e-05
atlanta 0.000132626713191
donald 0.000256798238417
mexico 3.68998660318e-05
unreal 0.000156737930639
police 6.58439407162e-05
represent 0.0
president 0.000113528040906
talking 0.000384193979892
unbelievable 8.12038306862e-05
alabama 0.000291062323491
slowest 0.0
conference 0.000126659391005
america 8.15373114195e-05
michigan 5.14701409566e-05
everybody 0.0
judgment 0.0
carolina 4.69336542891e-05
amount 3.58454968013e-05
houston 0.000174004609768
everyday 0.0
michael 0.000259633803702
protecting 0.0
million 0.000160887499047
election 7.04665173779e-05
honesty 0.0
telling 0.000174033105876
correct 9.87659110742e-05
pulled 0.000115018223398
attack 6.58439407162e-05
americans 0.0
salaries 0.0
killed 0.000113836467877
louisville 0.0
horrible 0.0
coverage 0.000103906282574
dallas 8.42843680513e-05
jacksonville 0.000153678831353
league 0.000236316324338
united 0.000430387708726
college 0.000255432352713
refuse 4.58390445996e-05
barackobama 0.0
hillary 0.0
clinton 4.17482745503e-05
presidency 0.0
manning 0.000173893778863
stupidity 0.0
american 2.7105780084e-05
remain 0.0
founder 0.0
illegal 0.0
arizona 5.05325197131e-05
opinions 4.37818917871e-05
retire 0.000113520521512
triumph 0.0
stealing 0.000209774780062
speeches 0.0
innocent 0.0
scared 3.74439264835e-05
golden 0.000206635417111
straight 8.49154103626e-05
removed 0.000143732861125
answers 0.0
product 0.000122934951226
created 6.1437949625e-05
snoopdogg 0.0
worlds 0.000241226282935
record 0.000293372494884
stamina 0.0
weapon 0.0
funeral 0.00011305219281
registered 0.0
minnesota 5.747598843e-05
committed 0.0
journey 0.0
disrespect 0.0
brother 0.00012457822731
prayers 0.000119960136325
documentary 0.0
boston 0.000221399196191
addition 0.0
korean 0.0
church 0.000116397807788
advantage 0.0
honestly 7.29457068437e-05
defeat 0.000137517133799
baltimore 0.000118457732643
lifetime 0.000231409788638
captain 0.0
retired 0.000155565292792
country 0.000131919758206
valley 0.0
mailbox 0.0
speedy 0.0
ending 3.43417057305e-05
finish 6.28067409267e-05
employee 0.0
university 3.65789356312e-05
remembered 0.0
nominated 3.83394077994e-05
praying 0.0
insane 0.0
national 0.000193364824618
reform 0.0
oregon 0.00017242796529
shooting 0.000127716176357
cancer 6.42134274198e-05
australia 7.57754441713e-05
deserve 6.26336119536e-05
legend 3.40513408304e-05
mother 2.84591169693e-05
murder 8.27207583912e-05
creating 3.51326381526e-05
powerful 0.0
carson 0.000320346495607
palmer 0.000123352634609
branch 5.65260964052e-05
breaking 0.000302219866563
dollars 0.00017125033255
questions 2.6171342432e-05
racist 0.000413933036235
charged 0.0
girlfriend 5.38725579799e-05
performance 2.95639280852e-05
refreshing 5.97527333807e-05
reading 0.000189740460588
corrupt 0.0
penalty 0.00010255965613
writer 3.86835212164e-05
denver 0.0
create 2.95639280852e-05
admire 0.0
nobody 9.39504179305e-05
government 0.0
politics 0.0
comeback 9.35487288233e-05
charities 0.0
method 5.34560461564e-05
sample 0.0
bringing 8.60755538664e-05
celebs 0.0
stadium 0.000129670444044
funniest 0.0
according 0.000101578774805
threat 0.000113999678754
heroin 0.0
honest 9.52578248858e-05
rolling 3.83394077994e-05
became 9.57871322676e-05
feature 7.00648290849e-05
decision 3.18406730358e-05
counting 0.0
verified 6.25474878695e-05
signing 3.34803807973e-05
adding 0.0
embrace 8.92864334406e-05
pressure 6.94681885184e-05
celebrities 0.0
dearly 0.0
facebook 2.73263891594e-05
divided 0.0
extension 0.0
lawyer 0.000340088118781
charleston 0.0
brazilian 0.0
basketball 0.000636055619314
campaign 0.0
determine 0.0
whether 0.0
praise 0.0
factory 0.0
arrested 9.64905131742e-05
investments 0.0
activity 0.0
comments 3.11445568274e-05
wounded 0.0
endorsement 0.0
williams 0.000122180292025
future 0.000131564420181
struggled 0.0
blessed 0.0
sabotage 0.0
warrior 0.0
softball 0.0
cheating 6.22537660754e-05
voting 0.0
instincts 0.0
collins 0.0
succeed 4.79109537083e-05
commercial 3.50324145425e-05
religion 0.0
boring 0.0
acting 3.65789356312e-05
established 0.0
warriors 5.26429638975e-05
because 0.0
sensitive 0.0
smiling 4.50850826789e-05
traitor 0.0
cleveland 0.000302094464303
agents 0.0
periscope 0.0
killing 0.0
choosing 0.0
phillips 0.0
instagram 3.54357032041e-05
opponent 5.51647000991e-05
detroit 0.000142252815462
cousin 0.000250834750324
honored 3.54357032041e-05
nonsense 0.0
dedication 0.0
hammer 5.82124646981e-05
proven 5.49447277101e-05
talent 6.81026816607e-05
governors 0.0
knocking 0.0
russian 0.000170169188217
consecutive 0.0
skills 3.54357032041e-05
citizens 0.0
cameras 0.0
phones 0.0
california 0.0
commitment 0.0
maryland 6.81430690682e-05
seconds 6.82955217572e-05
placed 0.0
listen 0.000316607419694
dominating 7.58230140532e-05
whatever 5.8646209868e-05
wherever 4.89273553319e-05
fought 0.0
compete 9.58219074167e-05
lauderdale 0.0
injured 0.000271404574375
billion 0.0
shoutout 9.64905131742e-05
depressing 0.0
guilty 8.64469626958e-05
carpet 0.0
harvard 0.0
absolute 0.00011233177945
handle 0.000133171507911
promise 0.0
hosting 0.0
longest 4.53839879174e-05
generation 3.50324145425e-05
criminal 0.0
tuesday 8.70165529378e-05
garbage 0.0
goldman 0.0
ronald 0.0
locker 5.72351652789e-05
leader 0.000199757261867
desperately 0.0
character 0.0
chancellor 0.0
proving 5.30462525591e-05
jackson 0.0
interview 0.000493249455066
buffalo 0.000115438232288
insight 0.0
obviously 3.58454968013e-05
battle 5.9289424842e-05
destroy 8.87057036403e-05
killer 7.75985385254e-05
personally 0.0
relentless 6.92724395405e-05
winning 0.000245273757789
charlotte 5.20497855402e-05
trafficking 0.0
defense 0.000368804853677
japanese 0.0
causing 0.0
arabia 0.0
rapist 0.0
writing 5.91278561703e-05
society 7.04665173779e-05
officers 0.0
ambushed 0.0
sources 0.000131770300174
kentucky 0.000241150520105
incredible 5.50978612034e-05
ungrateful 0.000106915050842
kissing 0.0
minute 8.63097167439e-05
luther 0.0
foreign 0.0
phoenix 5.2843808044e-05
champions 4.79109537083e-05
virginia 5.09034263329e-05
streak 5.79645929543e-05
orange 3.82257313135e-05
policy 7.4887852967e-05
intentional 0.0
reminder 3.07189748125e-05
evidence 0.000151550888343
presidents 5.36634485508e-05
judged 0.0
accused 0.0
intentions 0.0
facing 4.20102011199e-05
freedom 3.55375336098e-05
actions 0.0
debating 5.65260964052e-05
consequence 0.0
coughing 0.0
clearly 0.000129502278726
invite 0.000253100671436
central 0.00013467711484
washington 0.000337642569598
tougher 0.000123352634609
veteran 0.0
division 4.69336542891e-05
overrated 0.0
veterans 0.0
stronger 0.0
bowden 0.0
promised 8.37578005988e-05
catches 0.0
worried 0.0
security 3.38595916015e-05
sanctuary 0.0
reverse 4.77454374733e-05
immediately 0.0
television 4.49369385145e-05
entitled 0.0
racism 0.000147826191319
highest 0.0
approve 0.0
turning 0.0
georgia 0.0
tennessee 0.0
legacy 0.0
leaked 0.00010988945542
choked 0.0
helping 8.42277068401e-05
tickets 0.0
suspending 0.0
suspend 0.0
willing 0.0
december 0.0
beating 4.3501152442e-05
basically 7.44498045261e-05
return 8.46854857337e-05
escape 4.56864516351e-05
locked 4.29488121622e-05
unacceptable 0.0
network 3.5639773797e-05
language 0.0
invest 0.0
creation 0.0
followers 3.30141906126e-05
schools 0.0
menace 0.0
movies 0.0
entity 0.0
children 0.0001403795114
nation 0.0
flexible 0.0
review 3.03835685919e-05
knowledge 0.0
begins 3.05507182226e-05
vanessa 0.0
forbes 0.0
parade 4.70939491566e-05
fireworks 0.0
shoulder 0.00010143459236
produced 0.0
consider 0.000203157549609
latest 0.0
signed 2.81520842028e-05
shower 0.0
thunder 0.0
charity 0.000249478416579
germany 3.87992692627e-05
advance 0.000111348282493
explaining 0.0
millions 0.0
blessings 0.0
diamond 0.0
dollar 8.58976243244e-05
monsters 0.0
rigged 0.0
conduct 5.87155831629e-05
cooked 6.02876300263e-05
turned 8.39998443186e-05
criticism 0.0
responded 0.0
depending 0.0
jackie 0.0
charge 3.5334279308e-05
ticket 6.84890964845e-05
finest 0.0
sanders 0.0
includes 7.59997858357e-05
dealers 0.0
against 0.0
benjamin 0.0
impact 3.41477608786e-05
families 0.0
selection 0.0
hitting 0.0
announced 0.0
decided 0.0
professor 4.82452565871e-05
itself 0.000260171625366
promote 8.22100676157e-05
mexican 0.0
owners 0.0
guards 0.0
guarantee 0.0
beliefs 0.0
citizen 0.0
states 0.000128784066486
memorial 0.0
decades 0.0
landed 0.0
ultimate 7.40155001349e-05
mcdonald 0.0
twenty 0.0
hispanics 0.0
financial 0.0
payments 0.0
grabbing 6.22537660754e-05
permit 0.0
shield 0.0
disney 0.0
kansas 0.000102181860305
agreement 0.0
source 0.000107536490404
dismiss 6.92724395405e-05
talents 0.0
homework 0.0
expectations 0.0
joining 6.01050652188e-05
eugene 8.19954631218e-05
reasons 5.94515088852e-05
talked 9.63201411296e-05
released 5.94515088852e-05
reaching 0.0
release 2.79999481062e-05
promoter 0.0
circumstances 0.0
scheme 0.000223345122674
warwick 0.0
highlight 0.0
within 0.0
stacked 8.53880487749e-05
speech 0.0
standing 8.74914451698e-05
higher 6.84890964845e-05
justice 3.43417057305e-05
served 3.85682981063e-05
speaks 0.0
navarro 0.0
dropped 9.44706926923e-05
consideration 0.0
predicted 0.0
strength 3.5334279308e-05
andrew 3.9865439075e-05
replace 0.0
incredibly 0.0
private 0.000130954112115
integrity 0.000106500646304
sanford 0.0
ignored 4.87551061825e-05
neighbors 5.77191161439e-05
affection 0.0
minimum 0.0
direction 0.0
enemies 0.0
exclusive 0.00018180242612
prison 4.50850826789e-05
himself 8.19566341505e-05
investigation 4.70939491566e-05
disgusting 4.99861190365e-05
congratulate 6.16763173046e-05
philly 0.000190981749893
rights 6.88784723702e-05
replaced 0.0
recognition 0.0
maintain 0.0
tallahassee 0.0
handed 0.000146782065996
victory 0.0
classy 0.000152710278999
lifted 0.0
terrorist 0.0
productive 5.07172961801e-05
tribute 0.000105097243627
threatened 0.0
insecure 0.0
horror 0.0
discovery 0.0
convention 0.0
understanding 7.35848763335e-05
action 8.2201059794e-05
figures 4.3501152442e-05
having 0.0
marine 5.38725579799e-05
announces 0.0
wallace 0.0
speaker 0.0
stevens 0.0
cybersecurity 0.0
apologize 4.70939491566e-05
continued 0.0
journalist 9.10695393575e-05
libelous 0.0
formation 0.0
letter 0.000220431616282
discussed 0.0
therapy 0.0
widespread 0.0
untrue 6.7061771746e-05
written 9.34336704822e-05
conferences 0.0
results 3.33864559132e-05
papers 0.0
winter 0.0
marching 0.0
sessions 0.0
democrats 5.60641445477e-05
eastern 9.19851191633e-05
scientist 5.45104153868e-05
represented 0.0
waters 0.0
journal 0.0
foundation 0.0
access 3.14033704634e-05
analysis 4.20102011199e-05
writes 0.0
colorado 0.0
medical 0.00012603060336
tremendous 0.000241226282935
nytimes 0.0
public 0.0
cheaters 0.0
cannot 2.84591169693e-05
reveals 3.81125611833e-05
immunity 7.12739979058e-05
threatens 0.0
candidate 0.0
brilliant 0.0
wisconsin 0.000118457732643
studies 0.0
measure 4.67743644117e-05
compared 4.40657679496e-05
donors 0.0
graham 5.30462525591e-05
incorrect 0.0
headline 3.99867121082e-05
careers 0.0
answering 0.0
streaming 0.0
leaders 0.0
supreme 0.0
nominee 0.0
gorsuch 0.0
protest 4.32234813479e-05
immigration 0.0
policies 0.0
administration 0.0
defend 0.0
excitement 0.0
funding 0.0
surveillance 0.0
transfer 0.0
conspiracy 0.0
horrifying 0.0
formed 0.0
interviews 3.46354275246e-05
retreat 0.0
alliance 0.0
platform 0.0
editing 4.91007802525e-05
february 0.0
association 0.0
airwaves 0.0
hamilton 0.0
futures 7.12739979058e-05
borders 0.0
border 9.96131319533e-05
uranium 0.0
misleading 0.0
january 0.000247339955156
topics 0.0
unprecedented 0.0
airplane 6.05593615173e-05
tragic 0.0
philadelphia 5.65260964052e-05
funded 0.0
secure 0.0
income 0.0
hurricane 5.40834027769e-05
breakdown 0.000270417013885
countries 0.0
linked 0.0
broadcast 0.0
african 0.0
triple 4.6616067001e-05
provide 7.4887852967e-05
enhance 0.0
development 4.40657679496e-05
companies 0.0
discussions 0.0
developing 5.14701409566e-05
proposal 4.77454374733e-05
potential 0.0
moderator 0.0
suggestion 0.0
attending 4.70939491566e-05
filled 7.16909936026e-05
schultz 0.0
education 0.0
sickness 0.0
mentioned 3.75541507441e-05
exists 4.74176051541e-05
henderson 0.0
plants 0.0
orders 0.0
officials 4.49369385145e-05
strategic 0.0
ability 0.0
political 0.0
director 0.0
behaving 0.0
deficits 0.0
sufficient 0.0
prevent 0.0
shoddy 0.0
capacity 0.0
donations 4.82452565871e-05
editors 0.0
discussing 3.85682981063e-05
persistent 0.0
treatment 0.0
establishment 0.0
protects 0.0
critical 0.0
ambassador 0.0
preparing 0.0
capable 5.24436950155e-05
bishop 0.0
producers 0.0
bombed 0.0
weekly 0.0
becoming 6.54770560577e-05
magazine 3.54357032041e-05
lawyers 5.3250323152e-05
summary 0.0
standard 3.68998660318e-05
controlled 0.0
hiring 0.0
defending 4.36411343511e-05
pushes 0.0
admitted 0.0
failed 0.0
independent 0.0
copies 0.0
politically 0.0
driven 9.26048012877e-05
agenda 0.0
blocked 0.000258514653472
result 3.67924381668e-05
announcing 0.0
destruction 0.0
culture 0.000176166293445
insider 6.02876300263e-05
traitors 0.0
prince 0.0
solutions 0.0
indiana 0.0
mongering 0.0
claims 0.0
editorial 0.0
prospects 0.0
mistakes 0.0
offered 0.0
founded 0.0
ignorance 0.0
inspiring 0.0
majority 0.0
embarrassing 0.0
creators 0.0
server 0.000132731311075
berniesanders 0.0
spotlight 5.22459768797e-05
readout 0.0
tactics 0.0
irrelevant 0.0
massive 3.23755696814e-05
receiving 0.0
promising 0.0
promises 0.0
consequences 0.0
production 4.07267640082e-05
proposals 0.0
elsewhere 0.0
bernie 5.49447277101e-05
hacking 0.0
guests 3.99867121082e-05
interviewed 0.0
secretary 0.0
rebuttal 0.0
reduce 0.0
arriving 0.0
dangerous 6.84890964845e-05
shutting 6.81430690682e-05
arrival 0.0
canceled 0.0
typically 6.34495939547e-05
saving 0.000111023250202
pioneer 0.0
incident 0.0
ordering 6.08340307029e-05
victims 7.40155001349e-05
raises 0.0
receive 7.18979727257e-05
reputation 0.0
intention 0.0
commentary 4.75809925482e-05
disclosure 0.0
terrific 4.49369385145e-05
berkeley 0.0
melbourne 0.0
received 3.27385280289e-05
correctly 0.0
inherited 0.0
displayed 0.0
joseph 5.72351652789e-05
offices 5.2843808044e-05
necessary 0.0
largely 0.0
inaccurate 0.0
debate 0.000328300836314
conflict 0.0
interest 3.58454968013e-05
controversy 5.94894496544e-05
stated 0.0
rating 5.4296011986e-05
nominate 0.0
outstanding 4.37818917871e-05
devastating 4.72552617761e-05
accurate 0.0
southeastern 0.0
romney 7.12739979058e-05
scotland 0.0
delayed 0.000151047232152
rarely 0.0
abroad 0.0
winners 3.37642569598e-05
profit 0.0
reviews 4.58390445996e-05
republican 0.0
presidential 0.0
candidates 0.0
politicians 0.0
epidemic 0.0
greater 0.0
booths 0.0
arnold 0.0
principles 0.0
deadline 4.11050338079e-05
speakers 0.0
incoming 7.34468300236e-05
various 0.0
nuclear 4.50850826789e-05
danger 4.46432167203e-05
leading 0.0
restored 0.0
conditions 0.0
however 8.09553543747e-05
resolution 0.000102940281913
remained 0.0
member 0.0
examples 5.4296011986e-05
employ 0.0
courses 0.0
largest 0.0
hallmark 0.0
mentor 0.0
increase 0.000124467062243
transcript 0.0
disrupt 0.0
provided 0.0
binding 0.0
decreased 0.0
revival 0.0
crashing 0.0
reception 0.0
rising 4.11050338079e-05
primary 0.0
reduction 0.0
surrogate 0.0
provides 0.0
environment 0.0
revealed 0.0
confirmed 0.000111348282493
controls 0.0
behavior 0.0
introduced 0.0
carbon 0.0
communities 0.0
region 0.0
deaths 0.0
responsible 4.16183169666e-05
household 0.0
munich 0.0
canada 0.00013582114128
regions 0.0
movement 0.0
midwest 0.0
segment 0.000152710278999
emerged 0.0
hundreds 4.21421840256e-05
information 3.45371424805e-05
combined 9.48352103083e-05
easily 0.0
towards 3.71160941643e-05
inform 0.0
mathematically 0.0
october 0.0
investigating 0.0
predators 0.0
innovation 0.0
perspective 0.0
cities 0.0
todays 0.000147809239853
julian 6.22537660754e-05
eliminated 0.0
interests 0.0
toledo 0.0
extraordinary 0.0
eradicate 0.0
retains 0.0
ashamed 0.0
meetings 9.04681914582e-05
describing 0.0
eliminate 0.0
obligation 0.0
gender 0.0
committee 4.17482745503e-05
wasting 6.28446450841e-05
numerous 7.39046199265e-05
examination 0.0
inflammatory 0.0
practices 0.0
management 4.64587497663e-05
nordstrom 8.53880487749e-05
genius 6.77191832031e-05
warren 5.87155831629e-05
traveling 0.0
billions 0.0
prepared 3.85682981063e-05
fraction 0.0
equipment 0.0
procedures 0.0
rasmussen 0.0
county 0.0
developer 0.0
anthony 9.29174995327e-05
shadow 0.0
district 5.45104153868e-05
considered 3.95050549868e-05
lobbyist 0.0
chosen 0.0
hospitalized 0.0
outright 0.0
yorkers 0.0
naming 0.000120575260053
conventions 0.0
deficit 0.0
interventions 0.0
focusing 0.0
sensible 0.0
hosted 0.0
batman 0.0
column 0.00104045792417
upcoming 7.21057983914e-05
positions 5.38725579799e-05
favors 0.0
regulation 0.0
distributed 0.0
weakness 0.0
introduction 0.0
western 4.55347696788e-05
pacific 0.0
larger 0.0
increases 0.0
effective 4.24082246997e-05
situations 0.0
harbor 0.0
wealth 0.0
underway 0.000102181860305
israel 5.4296011986e-05
hysteria 0.0
overwhelming 0.0
protection 0.0
prisoners 0.0
guidance 0.0
montana 0.0
determination 0.0
restore 0.0
acquire 0.0
additional 0.0
exception 0.0
machine 0.000103025117192
honoring 0.0
visually 0.0
contrary 0.0
immediate 0.0
politico 0.0
ignoring 0.0
judges 0.0
federal 0.0
constant 4.94512223909e-05
philippines 0.0
nicely 0.0
september 3.57424270769e-05
manchester 0.0
fiction 0.0
priest 0.0
angela 5.92288663217e-05
process 0.0
destructive 0.0
genuine 0.0
surreal 0.0
whitehouse 0.0
flotus 0.0
crisis 0.0
judgement 0.0
confidence 0.0
voters 0.0
diamondandsilk 0.0
oldest 0.0
inauguration 0.00010774511596
gracious 6.22537660754e-05
scream 0.0
postponed 0.0
disappoint 6.25474878695e-05
believing 0.0
hillaryclinton 0.0
electoral 5.62940705714e-05
crashed 5.72351652789e-05
citizenship 0.0
closed 7.25240172498e-05
religious 0.0
apprentice 0.0
conservative 0.0
economists 0.0
buzzfeed 5.07172961801e-05
puppet 0.0
sweden 0.0
andersoncooper 0.0
treats 0.0
qualified 0.0
missouri 0.0
cooper 0.000270417013885
debates 5.05325197131e-05
endorsements 0.0
strike 7.82994228022e-05
shouting 0.0
empire 0.0
encouraged 0.0
regard 0.0
concerning 7.08608725071e-05
misinformed 0.0
disregard 0.0
barack 0.0
joined 0.000125267223907
terrorism 0.0
pushing 0.0
cracking 0.0
muhammad 6.53559868283e-05
refused 0.000108166805554
amazingly 0.0
express 0.0
gratitude 0.0
congratulation 0.0
throughout 0.0
shining 0.0
fighter 0.0
anticipated 0.0
presented 8.2978041495e-05
reveal 0.0
stands 0.0
native 0.0
harvey 0.0
featured 3.99867121082e-05
announce 0.000118255712341
surround 0.0
although 0.0
senior 0.000119596317225
todayshow 0.0
convincingly 0.0
haters 5.36634485508e-05
returning 0.0
laughs 4.79109537083e-05
touched 0.0
corruption 0.0
violence 0.000112002535065
runnin 0.0
delivered 0.0
owning 6.77774994198e-05
legendary 4.07267640082e-05
stabbing 0.0
independence 0.0
approval 0.0
magical 0.0
alongside 0.0
percent 0.0
spiral 0.0
differently 0.0
sweeping 0.0
spoiler 5.34560461564e-05
theirs 0.0
offering 0.0
remembering 0.0
floated 0.0
professionals 0.0
construction 0.0
searching 0.0
flexibility 0.0
sinking 0.0
detail 0.0
document 0.0
cabinet 0.0
pleased 0.0
carrying 4.72552617761e-05
statements 0.0
decade 0.0
prague 0.0
crossing 0.0
bigotry 0.0
happily 0.0
therefore 0.0
belong 5.36634485508e-05
customs 0.0
trillion 0.0
backed 0.0
electricity 0.0
observing 0.0
russell 0.0
engineers 0.0
operations 0.0
values 0.0
senator 5.26429638975e-05
confirms 0.0
removing 0.0
payment 0.0
consistently 0.0
posing 0.0
everett 0.0
wondered 0.0
generic 0.0
fields 0.0
mining 0.0
newspaper 4.75809925482e-05
detailed 5.62940705714e-05
rainbow 0.0
childcare 0.0
unlimited 0.0
exploded 0.0
thoroughly 5.87155831629e-05
adviser 0.0
leaves 3.68998660318e-05
matthew 9.71680339376e-05
intersection 0.0
affected 0.0
newspapers 0.0
corporate 0.0
economy 0.0
explores 0.0
spoken 8.50845941084e-05
during 0.0
credible 0.0
competitive 5.10909301524e-05
carefully 0.000110329400198
returned 4.99861190365e-05
blasts 0.0
guarding 0.0
hornet 0.0
successfully 0.0
southern 0.0
dakota 6.77774994198e-05
belief 0.0
messenger 0.0
heroes 0.0
russians 0.000373522596452
intelligence 4.64587497663e-05
deepest 0.0
graduates 7.12739979058e-05
describe 3.68998660318e-05
hollywood 3.74439264835e-05
reclaim 0.0
equality 0.0
announcement 0.0
interfere 7.95739505303e-05
interrupted 0.0
nationwide 0.0
questionable 0.0
garden 0.000113999678754
survey 0.0
journalists 9.10695393575e-05
delighted 0.0
minister 0.0
golfer 0.0
capital 9.16780891993e-05
penguins 0.000700542443705
regarding 0.0
teachers 0.0
devastated 0.0
phrase 4.77454374733e-05
immigrants 5.3250323152e-05
aliens 0.0
subjects 0.0
revolution 0.0
median 0.0
twelve 0.0
releases 0.0
accomplish 0.0
debbie 0.0
sebastian 0.0
briefing 0.0
advisor 5.92288663217e-05
commission 0.0
deadlines 0.0
hereby 0.0
invitation 0.0
alternatives 0.0
villages 0.0
accepted 0.0
commentators 0.0
depression 0.0
comprehensive 5.97527333807e-05
committees 0.0
pushed 0.0
statistic 0.0
donation 0.0
electronic 0.0
nomination 0.0
britain 0.0
questioning 0.0
attempt 3.62620086249e-05
investment 9.8201560505e-05
terror 4.79109537083e-05
homeland 0.0
polish 6.00187740547e-05
switzerland 0.0
represents 0.0
announcer 0.0
churchill 0.0
ambassadors 0.0
anchors 0.0
endorse 0.0
urgent 0.0
forced 3.90323594501e-05
expenses 6.74171153317e-05
preparations 0.0
string 0.0
morocco 0.0
thrill 0.0
watchdog 0.0
agencies 0.0
scrutiny 0.0
glorious 0.0
approaching 0.0
tragedy 0.0
handled 6.22537660754e-05
offers 0.0
requested 6.25474878695e-05
improvements 0.0
destroying 5.58362806686e-05
inexpensive 0.0
opposition 0.0
smithsonian 0.0
addiction 5.62940705714e-05
challenged 0.0
manhattan 0.0
richmond 0.0
forces 0.0
nations 5.03490773839e-05
anderson 5.10909301524e-05
builds 0.0
sexist 6.13924411422e-05
narrative 0.0
application 0.0
cannon 0.0
ethical 0.0
representation 0.0
obvious 4.30857755787e-05
statistics 0.0
military 7.92492318476e-05
housing 5.24436950155e-05
wonderfully 0.0
miller 4.59925595816e-05
copying 0.0
advised 6.85139756879e-05
ordered 7.4887852967e-05
unions 0.0
useless 0.0
alicia 0.0
economic 0.0
radical 0.0
planted 0.0
theories 0.0
conceived 0.0
readers 4.82452565871e-05
bombing 0.0
products 0.0
phenomena 0.0
classroom 0.0
classified 0.0
purely 0.0
hacked 4.96282729487e-05
taxpayers 0.0
opposed 0.0
pressing 0.0
russia 0.0
abraham 7.48457146339e-05
lincoln 5.20497855402e-05
observer 6.60246215282e-05
intelligent 5.18550975973e-05
lawsuit 0.0
detective 6.96603348952e-05
magnificent 0.0
heritage 6.02876300263e-05
beloved 0.0
dignity 0.0
priorities 0.0
repealing 0.0
murdoch 0.0
coalition 0.0
theresa 0.0
charges 0.0
activists 0.0
elected 4.43528518202e-05
relief 0.0
congratulates 0.0
pledge 0.0
elections 0.0
landslide 0.0
council 0.0
imperative 0.0
catastrophic 0.0
douglas 0.0
brexit 0.0
democracy 0.0
disastrous 0.0
rebuild 0.0
pundits 0.0
nickname 0.0
poison 0.0
interfering 0.0
negotiations 0.0
summit 0.0
dossier 0.0
unleash 0.0
negotiation 7.43708101112e-05
sticking 4.98065659766e-05
openly 0.0
embarrassed 0.0
ireland 4.52340957291e-05
attacks 0.0
remarks 5.51647000991e-05
democratic 0.0
outgoing 0.0
maureen 0.0
treasury 0.0
refugees 0.0
snatch 0.0
morgan 0.0
grieve 0.0
vicious 0.0
essentially 0.0
restoring 0.0
extended 0.0
referendum 0.0
ovation 0.0
bankrupt 0.0
proudly 0.0
oppose 0.0
refusal 0.0
urging 0.0
strengthen 0.0
deliver 0.0
negotiating 0.000182502092109
remaining 5.22459768797e-05
merkel 0.0
repeal 0.0
formal 6.13924411422e-05
reckless 6.19634011752e-05
prosperous 0.0
servant 0.0
desperate 0.0
secretaries 0.0
formally 0.0
breach 0.0
gloomy 0.0
outlines 0.0
concessions 0.0
executive 0.0
extend 0.0
republicans 0.0
terrorists 0.0
weapons 4.96282729487e-05
bodyguards 0.0
outrage 0.0
representative 6.08340307029e-05
prevail 0.0
searched 0.0
policemen 0.0
islamic 0.0
islamist 0.0
ingrained 0.0
humbled 5.45104153868e-05
courage 8.40204022398e-05
chamber 0.0
commander 0.0
formula 0.0
brigade 0.0
respecting 0.000162736213002
lectured 0.0
devices 0.0
enormous 0.0
verdict 0.0
refusing 0.0
energies 0.0
carried 0.000108592023972
behalf 0.0
tariff 0.0
amendment 0.000101065039426
nightmare 4.4208904397e-05
employment 0.0
legislation 0.0
referring 5.07172961801e-05
scrapping 0.0
handling 5.79645929543e-05
goodies 0.0
proves 0.0
prominently 0.0
crackdown 0.0
unfair 0.000106092505118
fiscal 0.0
humiliating 0.0
strongly 0.0
vision 3.76648552862e-05
resignation 0.0
confirmation 0.0
records 3.85682981063e-05
disabled 0.0
quoting 0.0
reductions 0.0
deeply 4.11050338079e-05
commerce 0.0
accumulation 0.0
overplaying 0.0
refugee 5.05325197131e-05
conway 0.000145994286048
exposed 5.18550975973e-05
netanyahu 0.0
israeli 0.0
priority 0.0
strongest 5.69966034114e-05
freedoms 0.0
treaties 0.0
empowering 0.0
laughter 0.0
syrian 0.0
uphold 0.0
praising 0.0
renewal 0.0
penned 0.0
condemns 0.0
realdonaldtrump 0.00102011559186
goodwill 0.0
attorney 0.0
settled 5.87155831629e-05
chairman 5.47266435194e-05
capability 0.0
firing 0.0
seanspicer 8.53880487749e-05
inaugural 0.0
carnage 0.0
optimism 0.0
rulers 0.0
clintons 0.0
melania 0.0
bikers 0.0
handing 0.0
intended 0.0
optimistic 0.0
campaigned 8.07558683889e-05
finance 5.87155831629e-05
allies 0.0
compromised 0.0
governor 5.3250323152e-05
bosses 0.0
attempts 4.99861190365e-05
irresponsible 0.0
incidents 0.0
merely 0.000114470330558
documents 0.0
tariffs 0.0
purpose 3.89155470502e-05
architect 0.0
arlene 0.0
resign 0.0
reuters 0.0
mainstream 0.0
dozens 0.000115438232288
donnell 0.0
clarified 0.0
gathering 0.0
crimes 5.65260964052e-05
vulnerable 0.0
commentator 0.0
overwhelmingly 0.0
respectful 0.0
markets 0.0
inspector 0.0
nigel_farage 0.0
drudge 0.0
abused 0.0
infrastructure 0.0
projected 0.0
boards 0.0
allegations 0.0
bloomberg 0.0
insulting 0.0
leaking 6.96603348952e-05
liberal 0.0
chairs 0.0
podium 0.0
conceded 0.0
capitol 0.000125094975739
consulting 0.0
wannabe 0.0
powell 0.0
reforms 0.0
technical 0.0
securing 7.43708101112e-05
steven 0.000153839484195
rumsfeld 0.0
businesses 0.0
balancing 0.0
socialist 0.0
complaints 0.0
politician 0.0
representatives 0.0
rallies 0.0
belittle 0.0
ballot 0.0
failing 0.0
refuses 5.4296011986e-05
conclude 0.0
vibrant 0.0
tarmac 0.000103735074398
spinning 0.0
appointments 0.0
farewell 0.0
opponents 0.0
unopposed 0.0
polling 0.0
prosperity 0.0
apology 4.79109537083e-05
outline 0.0
losers 0.0
battlefield 0.0
abandoned 5.747598843e-05
endorsed 0.0
negotiate 0.0
negotiated 0.0
unwilling 0.0
appointed 0.0
slaughter 0.0
betray 0.0
donated 0.0
immigrant 0.0
prosecuted 0.0
criminals 0.0
elizabethforma 0.0
protesting 6.43849137667e-05
releasing 0.0
screening 0.0
sponsor 0.000109453287039
pocketbook 0.0
transparency 0.0
austin 0.0
obamacare 6.28446450841e-05
acceptable 5.07172961801e-05
schwarzenegger 7.43708101112e-05
congressman 0.0
profits 0.0
toward 0.0
fleeing 0.0
bravery 0.0
protests 0.0
recieved 0.0
violent 0.0
remarkably 0.0
senators 0.0
ratings 0.000201396309536
spouses 0.0
fundraiser 0.0
senate 0.00010409957108
louisiana 0.0
giuliani 0.0
venezuela 0.0
parenthood 0.0
organizations 0.0
generations 0.0
minorities 0.0
underestimate 0.0
terrified 0.0
discourse 0.0
pennsylvania 0.0
hackers 0.0
nbcnews 0.0
mccain 0.0
scandal 0.0
constitution 0.0
sensanders 0.0
abandon 0.0
explode 6.74171153317e-05
reopening 9.49738320908e-05
governments 0.0
competent 0.0
mike_pence 0.0
stinks 0.0
logical 0.0
accurately 0.0
righteous 0.0
thursdays 8.19954631218e-05
fitting 0.0
category 4.89273553319e-05
swearing 0.0
politifact 0.0
abolish 0.0
surging 0.0
murders 0.0
reagan 0.0
vetting 7.8444580058e-05
vetted 0.0
pouring 6.05593615173e-05
fraudulent 0.0
ballots 0.0
fading 0.0
speakerryan 0.0
civilized 0.0
commercials 0.0
luxurious 0.000108667928734
outraged 0.0
nypost 0.0
statute 0.0
enforcement 0.0
accountability 0.0
truthful 0.0
springfield 0.0
cancelled 0.0
conflicts 0.0
suffer 0.0
selfishly 0.0
educational 0.0
stolen 0.000397026183589
visionary 0.0
wounds 0.0
disgraceful 0.0
hatred 0.0
persuasion 0.0
exposing 0.0
teaches 0.0
sellers 0.0
refers 0.0
trusted 0.0
sheriff 0.0
samsung 0.0
ranking 0.0
undecided 0.0
nebraska 0.0
abusive 0.0
abuser 0.0
nashville 0.0
lightweight 0.0
victories 0.0
consumer 0.0
violation 0.000140108488741
sarcasm 0.0
freaky 0.0
jimmyfallon 0.0
outlets 0.0
vanityfair 0.0
harassed 0.0
leverage 7.78981793813e-05
sacred 0.0
horrific 0.0
contribute 0.000106092505118
indicted 0.0
chooses 0.0
defended 0.0
champion 0.000121433031562
waited 0.0
denmark 0.0
conviction 0.0
retail 0.0
distract 0.0
globes 0.0
endorsing 0.0
pathetic 5.89709285507e-05
purposely 0.0
expose 6.60246215282e-05
representing 0.0
mmflint 0.0
registration 0.0
acceptance 0.0
defeated 0.0
prosecutor 0.0
nbcsnl 0.0
nevada 0.0
illinois 0.0
massachusetts 0.0
spontaneous 0.0
entrepreneur 0.0
arkansas 7.48457146339e-05
hotels 0.0
exhausted 0.0
puppets 0.0
protesters 0.0
natalie 0.0
anaheim 0.0
nominating 0.0
vietnam 0.0
claimed 0.0
indianapolis 0.0
loudly 0.0
sarasota 0.0
rapids 0.0
oklahoma 5.84627785674e-05
devoted 0.0
sacramento 0.0
arranged 0.0
baldwin 0.0
crushed 0.0
reflects 5.49447277101e-05
replacing 5.94894496544e-05
louder 0.0
flashback 0.0
farmers 0.0
unleashed 0.0
tourists 0.0
steals 7.04543573991e-05
albany 0.0
devastation 0.0
meantime 0.0
donlemon 0.0
wilbur 0.0
finalists 0.0
ransom 9.01658264202e-05
normmacdonald 0.0
vanishing 0.0
clarence 0.0
jaketapper 0.0
clowns 0.0
elizabeth 0.0
microphone 0.0
machines 0.0
premium 0.0
championships 6.85139756879e-05
impersonation 0.0
horribly 0.0
stakes 0.0
mouthed 0.0
reservation 0.0
delaware 0.0
springs 0.0
columbus 0.0
slackers 0.0
toyota 0.0
chucktodd 0.0
correspondents 0.0
soldier 0.0
panels 0.0
broadcasting 0.0
sparks 0.0
warned 5.12798280651e-05
jclayfield 0.0
kellogg 0.0
anchor 0.0
heated 0.0
congressional 0.0
boeing 0.0
usatoday 0.0
endlessly 0.0
craziest 0.0
viewers 5.65260964052e-05
delivers 0.0
pittsburgh 0.000250189951478
marshal 0.0
reverend 0.0
lifelong 6.50281545092e-05
disdain 0.0
hispanic 0.0
defrauded 0.0
oppression 0.0
crowds 0.0
washingtonpost 5.49447277101e-05
affordable 5.2843808044e-05
tapping 0.0
ginsburg 0.0
reilly 0.000201185315238
illegally 0.0
shootings 0.0
destiny 0.0
serenawilliams 0.0
motors 0.0
redding 0.0
initially 0.0
travis 0.0
accomplishments 0.0
misconduct 0.0
mocked 0.0
disgrace 6.37575571462e-05
greeley 0.0
carmel 0.0
outcry 0.0
playbook 7.34468300236e-05
zealand 0.0
fearless 0.0
lining 0.0
sidekick 0.0
madame 0.0
grandstand 0.0
rochester 0.0
speechless 0.0
fletcher 0.0
begged 0.0
wintour 0.0
inspires 0.0
carlos 0.0
missiles 0.0
chelsea 0.0
oppressive 0.0
forgiven 0.0
killings 0.0
taiwan 0.0
somalia 0.0
burning 0.000179158612646
subscribers 0.0
chester 0.0
newtown 0.0
booker 0.0
heights 0.0
leicester 0.0
chiefs 0.0001931547413
joenbc 0.0
opioid 0.0
separately 0.0
intros 0.0
columnist 0.0
manages 0.0
financed 0.0
mnuchin 0.0
delegate 0.0
vicente 0.0
struck 0.0
trudeau 0.0
oreillyfactor 0.0
vulgarian 0.0
publicity 0.0
amnesty 0.0
ivankatrump 0.0
communism 0.0
linkedin 0.0
avoided 6.56881046585e-05
sophisticated 0.0
seanhannity 0.0
anncoulter 0.0
foolish 0.0
catholics 9.3936681873e-05
bogged 0.0
catholic 0.0
thriving 0.0
newtgingrich 0.0
abedin 0.0
secretly 5.82124646981e-05
undermines 0.0
americanism 0.0
christians 0.0
rationally 0.0
deplorable 0.0
wikileaks 0.0
execution 0.0
enduring 0.0
foxandfriends 0.0
losses 0.000320736276938
kevcirilli 0.0
staffers 0.0
barron 0.0
jihadis 0.0
hampshire 0.0
pandering 0.0
donaldjtrumpjr 0.0
moines 0.0
lobbying 0.0
careless 0.0
piersmorgan 0.000132049243056
palestinian 0.0
kellyanne 8.19954631218e-05
democrat 0.0
unfunny 0.0
condemned 0.0
despair 0.0
louvre 0.0
crooked 0.0
lynden 0.0
outperform 0.0
tedcruz 0.0
majors 0.0
schumer 0.0
credibility 0.0
flooding 0.0
hannity 0.0
beneficiary 0.0
sanctions 0.0
nominates 0.0
existent 0.0
criticized 0.0
senatemajldr 0.0
workforce 0.0
issued 5.60641445477e-05
outsider 0.0
declare 6.00187740547e-05
ivanka 7.39046199265e-05
dignified 0.0
threaten 5.87155831629e-05
outcomes 0.0
ukraine 0.0
justintrudeau 0.0
vladimir 0.0
businessman 0.0
regards 7.58230140532e-05
assange 0.0
malicious 0.0
garners 0.0
ethics 0.0
wrecked 0.0
regimes 0.0
incorrectly 0.0
hostile 0.0
defenders 0.0
deceived 0.0
hypocritical 0.0
favorably 0.0
shatter 0.0
changer 0.0
spokane 0.0
unnecessary 0.0
cwaunion 0.0
expand 0.0
apologized 0.0
criticizing 0.0
legion 0.0
hershey 0.0
intensity 0.0
tigerwoods 0.000204565740912
amercan 0.000295610960312
reince 9.01658264202e-05
chriscjackson 0.000474320973437
hypocrites 0.00011479504924
billkristol 9.83664177439e-05
govmikehuckabee 0.000295099253232
dustin 0.000159147901061
bullied 6.96603348952e-05
anonymous 0.000111672561337
yankees 7.43708101112e-05
thehill 0.000149691429268
infiltrated 0.000106915050842
somali 9.83664177439e-05
invention 6.85139756879e-05
frontrunner 9.49738320908e-05
patriot 0.000432725788451
poorly 5.77191161439e-05
prisonplanet 0.00011479504924
daytona 9.83664177439e-05
comparable 8.07558683889e-05
shouted 8.13681065012e-05
holocaust 6.43849137667e-05
kellyannepolls 0.000185880429708
foxnews 0.000132049243056
initiated 0.000103735074398
tiffany 8.32986540136e-05
mikeandmike 0.000306848611368
barbara 6.00187740547e-05
litigation 0.000102282870456
frankcaliendo 0.000134827111187
toughness 9.29402148541e-05
suffered 5.72351652789e-05
streep 8.01580372246e-05
billionaire 6.13924411422e-05
percentage 5.82124646981e-05
insiders 8.76647937256e-05
premiums 8.76647937256e-05
congratulatory 0.000119893419811
treasurer 0.0
incompetence 0.0
delegates 0.0
rollout 0.0
appalled 0.0
misquoted 0.0
pledged 0.0
demanded 0.0
andrews 0.0
lowlife 0.0
courageous 0.0
betrayed 0.0
horrors 0.0
warheads 0.0
pledges 0.0
interrupts 0.0
blacks 0.0
elaine 0.0
candidacy 0.0
discredited 0.0
cringing 0.0
estates 0.0
laughable 0.0
aberdeen 0.0
healed 0.0
floods 0.0
swiftly 0.0
cheryl 0.0
syracuse 0.0
difficulties 0.0
flipping 0.0
wilkes 0.0
lisbon 0.0
suckers 0.0
golfdigest 0.0
jeffrey 0.0
sixteen 0.0
scandals 0.0
circuits 0.0
regulations 0.0
monitoring 0.0
swamped 0.0
costing 0.0
detained 0.0
warmest 0.0
marginalize 0.0
miners 0.0
unemployment 0.0
paragon 0.0
obsolete 0.0
subsidies 0.0
exercised 0.0
evangelicals 0.0
franklin 0.0
molten 0.0
servers 0.0
billgates 0.0
excessive 0.0
coordinated 0.0
geneva 0.0
soaring 0.0
unsecured 0.0
corporations 0.0
rifles 0.0
innovative 0.0
pillar 0.0
bashing 0.0
organize 0.0
panelists 0.0
frontiers 0.0
pricing 0.0
platforms 0.0
scaling 0.0
pretends 0.0
forensic 0.0
roundtable 0.0
inherit 0.0
fabrication 0.0
brewer 0.0
unaffordable 0.0
reinforcing 0.0
eventful 0.0
wasserman 0.0
lindsey 0.0
billclinton 0.0
upstate 0.0
empowerment 0.0
penalties 0.0
responders 0.0
civilization 0.0
occupy 0.0
approximately 0.0
knight 0.0
homeownership 0.0
scratched 0.0
screws 0.0
contractor 0.0
havana 0.0
lowering 0.0
foundations 0.0
revitalize 0.0
counters 0.0
foreclosed 0.0
renovated 0.0
delaying 0.0
employer 0.0
executed 0.0
subpoena 0.0
grifters 0.0
cincinnati 0.0
disgraced 0.0
falsely 0.0
strengthening 0.0
abcworldnews 0.0
skyrocketing 0.0
pipelines 0.0
likewise 0.0
dishonest 0.0
surges 0.0
woefully 0.0
pressured 0.0
erratic 0.0
temperament 0.0
emboldened 0.0
keystone 0.0
mandated 0.0
crumbling 0.0
johnkasich 0.0
latinos 0.0
combating 0.0
incompetent 0.0
loopholes 0.0
incapable 0.0
unqualified 0.0
melaniatrump 0.0
recount 0.0
voluntarily 0.0
desperation 0.0
denounce 0.0
demoralized 0.0
incited 0.0
fawning 0.0
accuser 0.0
electing 0.0
patrol 0.0
connecticut 0.0
amounts 0.0
govpencein 0.0
squandered 0.0
enforce 0.0
epipens 0.0
deplorables 0.0
generals 0.0
timkaine 0.0
benghazi 0.0
moderators 0.0
sheriffclarke 0.0
unfairly 0.0
competence 0.0
dysfunctional 0.0
eleventh 0.0
instructed 0.0
restrict 0.0
battleground 0.0
jilted 0.0
blazing 0.0
hypocrite 0.0
mcconnell 0.0
circulated 0.0
flailing 0.0
pathological 0.0
deflect 0.0
undoing 0.0
predictable 0.0
phoney 0.0
perils 0.0
governing 0.0
likeable 0.0
tumble 0.0
praised 0.0
extraordinarily 0.0
jinping 0.0
trashes 0.0
knowingly 0.0
disloyal 0.0
woodward 0.0
magnificently 0.0
pretended 0.0
slaughtered 0.0
climber 0.0
americ 0.0
unprofessional 0.0
diplomats 0.0
resulted 0.0
crossroads 0.0
syrians 0.0
suppress 0.0
remembrance 0.0
infighting 0.0
castro 0.0
unquestionably 0.0
corrupted 0.0
kasich 0.0
readership 0.0
fraternal 0.0
frankluntz 0.0
demagogue 0.0
unanimous 0.0
bedford 0.0
longtime 0.0
complexities 0.0
dailymail 0.0
couric 0.0
cancelling 0.0
morningmika 0.0
concord 0.0
recounts 0.0
shouldered 0.0
patmccrorync 0.0
executives 0.0
westfield 0.0
graydon 0.0
sheldon 0.0
tanking 0.0
morning_joe 0.0
fabricated 0.0
corolla 0.0
groveling 0.0
unfolding 0.0
polled 0.0
influx 0.0
underachieving 0.0
antics 0.0
disenfranchised 0.0
golfing 0.0
xfinity 0.0
defies 0.0
fictitious 0.0
districts 0.0
vigilant 0.0
obstruction 0.0
rebuilding 0.0
preserving 0.0
passover 0.0
dhsgov 0.0
thejusticedept 0.0
repealed 0.0
intends 0.0
wildfires 0.0
usedgov 0.0
fresno 0.0
usnavy 0.0
scotus 0.0
tillerson 0.0
ineffective 0.0
senjohnmccain 0.0
cbsnews 0.0
lawsuits 0.0
caucus 0.0
shimon 0.0
wilmington 0.0
stagnant 0.0
gouging 0.0
baghdad 0.0
wiesel 0.0
obstruct 0.0
gonzalo 0.0
curiel 0.0
hostage 0.0
unnamed 0.0
truckers 0.0
boldly 0.0
scarborough 0.0
evangelical 0.0
cyberattack 0.0
marines 0.0
crimea 0.0
earners 0.0
oversaw 0.0
lobbyists 0.0
rosiegray 0.0
briefings 0.0
actresses 0.0
purchases 0.0
myanmar 0.0
heightened 0.0
shackles 0.0
perjury 0.0
dallaspd 0.0
respectfully 0.0
canton 0.0
approx 0.0
admirals 0.0
naples 0.0
brainwashed 0.0
albuquerque 0.0
supposedly 0.0
coliseum 0.0
greensboro 0.0
sheriffs 0.0
hostages 0.0
explorers 0.0
confidential 0.0
tamara 0.0
infested 0.0
depicted 0.0
devote 0.0
payroll 0.0
bombshell 0.0
advisers 0.0
watergate 0.0
mcmaster 0.0
renews 0.0
housegop 0.0
katyturnbc 0.0
pocahontas 0.0
wherein 0.0
shreds 0.0
pelosi 0.0
chrysler 0.0
collusion 0.0
deductibles 0.0
repmarkmeadows 0.0
darrellissa 0.0
insurer 0.0
dishonesty 0.0
hotlinejosh 0.0
quinnipiacpoll 0.0
apologizing 0.0
priebus 0.0
clapper 0.0
tapped 0.0
operatives 0.0
senschumer 0.0
marcorubio 0.0
viciously 0.0
leakers 0.0
bangladesh 0.0
favorable 0.0
nbcnightlynews 0.0
lockheed 0.0
untruthful 0.0
resonating 0.0
transferring 0.0
staten 0.0
humana 0.0
juanita 0.0
senses 0.0
stimulate 0.0
drooling 0.0
lakeland 0.0
burying 0.0
crafted 0.0
misrepresent 0.0
fabled 0.0
railing 0.0
billyjoel 0.0
sniper 0.0
cnnsotu 0.0
independents 0.0
detroitnews 0.0
foxbusiness 0.0
washtimes 0.0
realbencarson 0.0
meetthepress 0.0
newday 0.0
thebrodyfile 0.0
bostonherald 0.0
foxnewssunday 0.0
thefive 0.0
chriscuomo 0.0
randpaul 0.0
dcexaminer 0.0
facethenation 0.0
bretbaier 0.0
interruption 0.0
allenwest 0.0
cvpayne 0.0
dailycaller 0.0
prosecution 0.0
ballistic 0.0
vetoed 0.0
gettysburg 0.0
groping 0.0
brennan 0.0
nielson 0.0
justices 0.0
operative 0.0
surged 0.0
megynkelly 0.0
terminated 0.0
softbank 0.0
fronting 0.0
rigging 0.0
reprieve 0.0
pocketed 0.0
colluded 0.0
coffers 0.0
stairway 0.0
ellison 0.0
selflessly 0.0
tornadoes 0.0
levine 0.0
scranton 0.0
enslave 0.0
inappropriately 0.0
devalue 0.0
presumptive 0.0
fournier 0.0
terminate 0.0
reptommarino 0.0
kimberly 0.0
subscriptions 0.0
ingrahamangle 0.0
trajectory 0.0
natalie_gulbis 0.0
unheard 0.0
objectified 0.0
turnberry 0.0
djohnsonpga 0.0
bedminster 0.0
golf_com 0.0
elevation 0.0
litany 0.0
unaccountable 0.0
primaries 0.0
disrupter 0.0
runways 0.0
hashanah 0.0
unenthusiastic 0.0
undecideds 0.0
richardtrumka 0.0
renegotiate 0.0
rapists 0.0
aldridge 0.0
unsubstantiated 0.0
misrepresented 0.0
prisoner 0.0
mattis 0.0
weakening 0.0
endakennytd 0.0
taoiseach 0.0
lifeboat 0.0
enabler 0.0
emanated 0.0
lindseygrahamsc 0.0
renegotiating 0.0
waterville 0.0
zucker 0.0
berglund 0.0
suboptimal 0.0
steelworkers 0.0
postpone 0.0
mohammed 0.0
indignant 0.0
comprised 0.0
stupidest 0.0
exxonmobil 0.0
precluded 0.0
instruct 0.0
gonzales 0.0
scorned 0.0
davidmuir 0.0
harrisburg 0.0
caesars 0.0
borisep 0.0
lapierre 0.0
limbaugh 0.0
petraeus 0.0
phyllis 0.0
illegals 0.0
sanctity 0.0
neurotic 0.0
negligence 0.0
alvarez 0.0
roseanne 0.0
roanoke 0.0
theleegreenwood 0.0
mcallen 0.0
deduct 0.0
chokes 0.0
vigilance 0.0
pensacola 0.0
tuckercarlson 0.0
repcummings 0.0
windham 0.0
teleprompter 0.0
paulareidcbs 0.0
jeffzeleny 0.0
condoleezza 0.0
genflynn 0.0
donaldtrump 0.0
demeanor 0.0
baiting 0.0
plotted 0.0
aptitude 0.0
billings 0.0
approving 0.0
disconnected 0.0
superstorm 0.0
brainpower 0.0
exclaim 0.0
skyrocketed 0.0
globalism 0.0
israelipm 0.0
insurgent 0.0
sneers 0.0
unrest 0.0
scaramucci 0.0
disapproval 0.0
katiepavlich 0.0
overflow 0.0
warped 0.0
scottwalker 0.0
kirstenpowers 0.0
usarmy 0.0
schlafly 0.0
alisonforky 0.0
oppresses 0.0
pedantic 0.0
highness 0.0
benefitted 0.0
fundraisers 0.0
shinzo 0.0
augustine 0.0
ranchers 0.0
middletown 0.0
fiorina 0.0
pueblo 0.0
lindasuhler 0.0
lightweights 0.0
kimguilfoyle 0.0
perdue 0.0
unmasked 0.0
unmasking 0.0
judgejeanine 0.0
boycotted 0.0
outnumberedfnc 0.0
jessebwatters 0.0
podesta 0.0
kristol 0.0
interruptions 0.0
broaddrick 0.0
erictrump 0.0
outspending 0.0
irredeemable 0.0
begala 0.0
brazile 0.0
dinesh 0.0
markings 0.0
ericbolling 0.0
loudobbs 0.0
skyrocket 0.0
blumenthal 0.0
cochran 0.0
imploding 0.0
discord 0.0
jeffflake 0.0
davidwohl 0.0
bribery 0.0
repkenbuck 0.0
joshrogin 0.0
enrique 0.0
unverified 0.0
retribution 0.0
dwindling 0.0
automobile 0.0
teamtrump 0.0
subpoenaed 0.0
danscavino 0.0
joniernst 0.0
scottadamssays 0.0
senatorfischer 0.0
tabulation 0.0
trafficked 0.0
depict 0.0
unrelenting 0.0
imitating 0.0
dutchess 0.0
adelson 0.0
valuing 0.0
ricksantorum 0.0
chuckgrassley 0.0
laraleatrump 0.0
abingdon 0.0
equating 0.0
ministries 0.0
brzezinski 0.0
sentedcruz 0.0
jamesrosenfnc 0.0
leaker 0.0
realjameswoods 0.0
jim_jordan 0.0
marshablackburn 0.0
boynton 0.0
betsydevos 0.0
lawfare 0.0
larry_kudlow 0.0
stranahan 0.0
waynedupreeshow 0.0
phillypolice 0.0
scottwrasmussen 0.0
johnstown 0.0
raul_labrador 0.0
statewide 0.0
reviewjournal 0.0
oppress 0.0
underlings 0.0
bankrupted 0.0
collude 0.0
fayetteville 0.0
disqualifying 0.0
mahoning 0.0
disloyalty 0.0
americanlegion 0.0
bankruptcies 0.0
morell 0.0
ambridge 0.0
emboldens 0.0
asheville 0.0
grievous 0.0
ricketts 0.0
benefactor 0.0
dwyane 0.0
markhalperin 0.0
mayorbowser 0.0
unverifiable 0.0
savaged 0.0
wheeling 0.0
technocratic 0.0
countr 0.0
thealabamaband 0.0
relives 0.0
unwatchable 0.0
residences 0.0
gatekeeper 0.0
defections 0.0
senatorsessions 0.0
drmoore 0.0
honorably 0.0
billhemmer 0.0
shultz 0.0
aflcio 0.0
trucking 0.0
fabrications 0.0
malleable 0.0
misrepresents 0.0
decimated 0.0
arabella 0.0
mishandled 0.0
interfe 0.0
speach 0.0
iranians 0.0
fraudulently 0.0
enablers 0.0
dealmaker 0.0
terrori 0.0
anarchists 0.0
krzanich 0.0
foxnation 0.0
permeated 0.0
overruns 0.0
disposed 0.0
inaccurately 0.0
peebles 0.0
conditioners 0.0
classifie 0.0
forewarned 0.0
karlrove 0.0
palazzo 0.0
evansville 0.0
rebroadcast 0.0
bangor 0.0
secpricemd 0.0
realdonaldtru 0.0
uschamber 0.0
trumpinaugural 0.0
rawlings 0.0
churchillian 0.0
hemmer 0.0
rudygiuliani 0.0
pynance 0.0
terrybranstad 0.0
cbnnews 0.0
faithandfreedom 0.0
ovations 0.0
scpioneer 0.0
dwstweets 0.0
tgowdysc 0.0
bluffs 0.0
marist 0.0
spluttering 0.0
thetodaysgolfer 0.0
thebig_easy 0.0
hoosier 0.0
senbobcorker 0.0
larsloekke 0.0
roadblocks 0.0
manheim 0.0
greenblatt 0.0
jtanews 0.0
mitchellvii 0.0
bemoan 0.0
michiga 0.0
gennifer 0.0
gulbis 0.0
liyuan 0.0
enlisting 0.0
ainsleyearhardt 0.0
stevedoocy 0.0
foxfriendsfirst 0.0
pastormarkburns 0.0
marksimoneny 0.0
gov_gilmore 0.0
flunky 0.0
agitators 0.0
overdoses 0.0
liliantintori 0.0
leopoldo 0.0
traceadkins 0.0
gopconvention 0.0
governorsununu 0.0
laconia 0.0
teamsters 0.0
gatewaypundit 0.0
lawyerly 0.0
dissipates 0.0
realjeffreylord 0.0
nytimesdowd 0.0
scalise 0.0
straightening 0.0
energizer 0.0
montgomeriefdn 0.0
shulkin 0.0
ericgreitens 0.0
circuited 0.0
govbrewer 0.0
infringed 0.0
mcgarvey 0.0
republicanstudy 0.0
americafirstpol 0.0
fheile 0.0
phadraig 0.0
wiedefeld 0.0
coddington 0.0
kravis 0.0
fighterjet 0.0
shinzō 0.0
votestand 0.0
romoabcnews 0.0
moskowitzeva 0.0
drgoodspine 0.0
levisteveholt 0.0
untrusting 0.0
sleazebag 0.0
lbperfectmaine 0.0
timken 0.0
newhouse 0.0
evancho 0.0
franklin_graham 0.0
eazymf_e 0.0
busineses 0.0
substantialy 0.0
rexnord 0.0
sdcritic 0.0
highonhillcrest 0.0
fiiibuster 0.0
koster 0.0
saucier 0.0
t_lineberger 0.0
cissieglynch 0.0
saysgabrielle 0.0
ravenrantz 0.0
mayorrgiuliani 0.0
deplorablecbtp 0.0
tanden 0.0
keithrowland 0.0
kinston 0.0
sjsopio 0.0
aztrumptrain 0.0
therealmogul 0.0
unclassify 0.0
firebombed 0.0
wikileakes 0.0
davidshiloach 0.0
trumpwomenstour 0.0
mistreats 0.0
willey 0.0
dornsife 0.0
henryleledog 0.0
eericmyers 0.0
atensnut 0.0
arouses 0.0
anyonetennis 0.0
flifeforce 0.0
geeveem 0.0
susiesentinel 0.0
bcuzimdamomma 0.0
freedavidking 0.0
ifdanyt 0.0
arsenmissyirvin 0.0
nycmia 0.0
bigdog_joey 0.0
roadkingl 0.0
decieved 0.0
waukesha 0.0
creati 0.0
thallensboucher 0.0
kenansville 0.0
tarukmatuk 0.0
angpiazza 0.0
laughingstock 0.0
ak_tweet 0.0
kiiara 0.0
jerryjrfalwell 0.0
ghfanlovessonny 0.0
bishopwtjackson 0.0
cynthialummis 0.0
repreneeellmers 0.0
trumpdc 0.0
stvzbnk 0.0
bakari 0.0
adhd_fa 0.0
parisdennard 0.0
ronnieclemmons 0.0
takouis 0.0
lblackvelvet 0.0
chernuna 0.0
annebellar 0.0
presidencies 0.0
rsbnetwork 0.0
meequalsfree 0.0
pmnorlando 0.0
rhondar 0.0
patrici 0.0
lindaharden 0.0
trumpocrats 0.0
lewenskimo 0.0
trump_videos 0.0
sinabunz_tm 0.0
eyecandytmgayle 0.0
catonglass 0.0
billynungesser 0.0
samaritanspurse 0.0
zulu_out 0.0
willspeakout 0.0
laurencristmann 0.0
c_lynne_ryan 0.0
enemywithinn 0.0
elsolarverde 0.0
creats 0.0
dbongino 0.0
bongino 0.0
carl_c_icahn 0.0
fieldoffight 0.0
reploubarletta 0.0
mainegop 0.0
gatewaypun 0.0
mechanicsburg 0.0
pnehlen 0.0
patrioticpepe 0.0
insticts 0.0
borderless 0.0
lallyray 0.0
glowingly 0.0
spinnnn 0.0
flamed 0.0
nancynielsenn 0.0
olimauritania 0.0
theresa_cali 0.0
roxanetancredi 0.0
litigate 0.0
trumpdoonbeg 0.0
berrien 0.0
nbcpolitics 0.0
jakeda 0.0
barrasso 0.0
bluedogdemky 0.0
iowa_trump 0.0
arnold_ziffel 0.0
patricia_graf 0.0
brazosboys 0.0
jimvitari 0.0
trumpturnberry 0.0
trumpscotland 0.0
darrenwaggener 0.0
allegrettivicki 0.0
justininglv 0.0
chrisboydbrew 0.0
votetrumpmaga 0.0
realericjallen 0.0
insinuated 0.0
clubgoers 0.0
ausbiz 0.0
freemarketsara 0.0
senatorjeffsessions 0.0
mabynshingleton 0.0
dale_dangler 0.0
nauthizjane 0.0
richardweaving 0.0
mariadaq 0.0
sara_wejesa 0.0
jimhewitt 0.0
joedefranco 0.0
wolfstopper 0.0
djd_thunder 0.0
excoriates 0.0
rapidcraft 0.0
telepromter 0.0
liliannyleebou 0.0
lunsfordwhitney 0.0
free_sa_bd 0.0
stockdaleism 0.0
admonished 0.0
nbcdfw 0.0
frankylamouche 0.0
sandiegopd 0.0
tombarrackjr 0.0
buiidthewall 0.0
pipersul 0.0
oasisupernova 0.0
jknatter 0.0
jasondovesq 0.0
ed_klein 0.0
overregulates 0.0
dubilujane 0.0
rbacliff 0.0
ltstevenlrogers 0.0
rowanne 0.0
shoneep 0.0
magicmetalninja 0.0
barbaro 0.0
michael_favreau 0.0
christichat 0.0
mai_ttag 0.0
thydanielflores 0.0
costakenneth 0.0
svhlevi 0.0
johnjohnlacca 0.0
ladytsbrug 0.0
frankdallasagg 0.0
ladyjoanne 0.0
gerriweth 0.0
longbyfive 0.0
wesleyfelixpsi 0.0
manakoa 0.0
ragdollive 0.0
xgodfatherxzx 0.0
trumptrainrider 0.0
aprillajune 0.0
takingit_back 0.0
distlerjoyce 0.0
queencharlotteo 0.0
kellyriddell 0.0
valdosta_monkey 0.0
daybastrop 0.0
nathandwilsonfl 0.0
mathewjmari 0.0
stupor 0.0
matandsher 0.0
edgoeas 0.0
lynnepatton 0.0
erictrumpfdn 0.0
mikeozanian 0.0
lexingtonbobby 0.0
annettejeanne 0.0
andrebauer 0.0
waterbury 0.0
greenskydeb 0.0
keksec__org 0.0
ashleyedam 0.0
trumptbird 0.0
herb_stamper 0.0
senfrankniceley 0.0
anneslimo 0.0
agentvf 0.0
hornick 0.0
gqforbes 0.0
governor_savage 0.0
carolde 0.0
fugedaboudit 0.0
dnglax 0.0
alexnightrasor 0.0
lilrachiepoo 0.0
