awesome 2.48220854583e-05
christmas 0.000123774054699
trying 0.000111696136548
moment 0.000179679926333
wonderful 0.000652424509362
seeing 0.000206547786386
recommend 0.0
anybody 0.0
worked 7.24751461723e-05
direct 0.000158167849334
others 0.000144168001147
currently 0.000106296657692
better 0.00130388007153
please 0.000380791951549
social 0.000325326905417
around 0.000795587840258
people 0.00190057095173
leaving 2.52988300958e-05
morning 0.00119983248831
general 0.00037227799398
investigate 0.000143952996467
damage 0.000182139217531
everything 0.000199972081385
twitter 0.000311907289919
though 2.31362501896e-05
friend 8.9356909238e-05
watched 5.01865007202e-05
beautiful 0.000137327620594
anything 2.25814178126e-05
helped 0.00017048786008
managing 5.04197843292e-05
updated 0.000176585369673
thinking 2.27035157046e-05
finally 4.54070314092e-05
caught 2.50251465705e-05
believe 0.000177274483814
already 0.000221593104767
couple 0.0
orlando 3.78389394699e-05
research 0.000536169542109
chance 0.000177752961231
meaning 0.0
annual 0.000149358540117
quickly 3.10008164778e-05
growing 0.00018653054857
probably 0.0
should 2.93694213516e-05
changed 2.3769521663e-05
history 0.000320431114718
center 0.0
museum 0.0
behind 0.0003756942579
pretty 0.000204331641341
really 0.000311067682155
expensive 0.0
little 0.00013295586286
earlier 5.19964897361e-05
realized 0.0
forget 0.00015764434633
someone 0.000201595739056
mostly 3.37490645349e-05
worker 9.37207566265e-05
safety 0.000225335136031
shuttle 0.0
program 0.000494590145846
things 0.000220996622294
related 6.533202718e-05
visiting 0.000459708215077
available 0.000369182556404
afternoons 0.0
perfect 0.0
different 0.000112907089063
numbers 5.55461682646e-05
delays 0.0
person 0.000111395460685
watching 0.000156374591167
passed 0.000406360613842
celebrates 0.0
minutes 9.17990161716e-05
travel 0.000135827475059
daughter 0.000107471407857
average 0.000286359613061
positive 7.90692959985e-05
outside 9.40561255713e-05
looking 0.000642620003826
forward 0.000753267633414
plenty 6.59123329923e-05
agreed 0.000208510377487
raising 0.000158627302434
listened 0.0
afraid 0.0
impression 0.0
drawing 0.0
favorite 0.0
magnet 0.0
picture 2.36414073202e-05
historic 0.000536770514096
instead 0.0
appreciate 2.61408238286e-05
husband 6.93529183215e-05
international 0.000302139217283
market 0.000179739262099
couldn 6.94087505687e-05
remember 0.000199972081385
impressive 0.0
familiar 0.0
friends 0.000201053045786
despite 3.15420597476e-05
impossible 3.02130223325e-05
everyone 0.000355505922463
florida 0.0
always 0.000441993244588
months 0.000139192601737
moving 0.000143390298194
meeting 0.00184395030269
google 0.000167565767128
answer 0.000204883366966
together 0.000556977303427
inside 0.0
smaller 4.24090261551e-05
missed 0.000292768071756
active 0.000178773526545
longer 7.69373120824e-05
enough 6.73799723748e-05
driving 0.0
building 0.000549059544209
technician 0.0
enjoying 0.000190158465083
london 0.000158572628304
kennedy 0.0
recent 0.0
gotten 0.0
amazing 0.000310230346674
attention 5.03231293435e-05
richard 9.68549264747e-05
progress 0.000215763157374
tomorrow 0.000777669205387
george 0.000193337295473
excited 0.000255186436517
campaigning 0.0
understand 2.4223862586e-05
following 0.000186594668453
learning 0.000413149143227
evening 0.000178058674041
special 0.000358392424988
secret 0.0
across 0.00071984047829
comparison 0.0
surprised 0.0
anymore 0.0
rather 2.49572520095e-05
showing 0.00028446445986
saying 0.000255186436517
tweeted 2.93694213516e-05
updates 0.000161424877458
thoughts 0.000353664413805
exactly 0.0
except 0.0
getting 0.000488820643386
nothing 6.66573604618e-05
tweets 0.000146926453711
course 0.0
stephen 0.000182710269506
looked 0.0
difficult 0.000117147222783
stages 0.0
office 0.00021625200172
decisions 0.000234837099917
brought 0.000123104365915
biggest 0.000228879367656
thrilled 0.000101550621991
entire 2.46877405933e-05
something 0.000133314720924
closing 0.000297483632166
anyone 4.47990531234e-05
taking 0.000422163282925
recently 5.77565950699e-05
interesting 4.95096218798e-05
original 0.0
flying 2.79276278546e-05
happening 4.8447725172e-05
sometimes 2.44877422851e-05
stopped 5.21388387301e-05
yesterday 0.000179196212494
service 0.000390743622107
serious 9.50780866519e-05
emails 0.0
afford 0.000143461923161
british 3.23796208706e-05
contact 6.0945025083e-05
either 2.4223862586e-05
second 0.000111997632809
accident 0.0
checking 0.0
volunteers 0.000418482725891
indeed 0.0
island 0.000220156488935
hearing 7.44662563749e-05
choose 0.000104563295314
staying 0.0
another 0.000310230346674
address 0.000299565436832
display 0.0
originally 0.0
compare 0.0
landing 4.05484093767e-05
perhaps 6.7096314262e-05
weekend 0.000225206209043
appear 0.0
anyway 0.0
theory 0.0
recognize 0.0
working 0.000688792724772
bigger 5.21388387301e-05
screen 0.0
treated 0.0
laughing 2.63564319995e-05
wanted 4.49199815832e-05
current 0.000209699677995
grateful 0.000145203978917
friendship 0.000130439422386
family 0.000910983926311
listening 0.000194843268663
stream 0.000397275980521
wedding 3.37490645349e-05
sharing 2.61408238286e-05
double 0.0
especially 9.84834927323e-05
middle 0.000102025360744
waiting 9.10592742069e-05
definitely 2.42895377078e-05
walking 0.000106588884897
account 5.21388387301e-05
completely 0.0
thought 4.47990531234e-05
reaction 3.03856768218e-05
accept 0.0
possible 0.000141084188357
simple 5.17131597629e-05
manufacturing 0.00104783671135
destroyed 8.54194129399e-05
professional 3.29561664962e-05
friendly 6.61074738147e-05
members 0.000448084910207
supposed 0.0
astronauts 0.0
component 7.02444934047e-05
business 0.000718892897531
absolutely 9.50780866519e-05
sending 0.000128930432406
delivering 0.000470437790524
heavily 4.85684982085e-05
biased 0.0
introducing 0.000106933446979
congrats 0.000536459671801
community 0.00199957131701
greatest 0.000145737226247
posted 2.6284328633e-05
saturday 2.34506176844e-05
wednesday 2.6794063374e-05
confused 0.0
explain 0.0
broken 5.50865524302e-05
chicago 0.0
fairly 0.0
hoping 0.000106882081348
relationship 0.000149358540117
actually 6.82944556552e-05
basket 0.0
myself 2.91224951824e-05
pocket 0.0
argument 3.42594720308e-05
decent 7.89534012461e-05
school 0.00318397991158
thursday 0.000118847608315
selling 6.07713536436e-05
talented 2.92044977337e-05
discuss 0.000400914762748
celebrate 0.000220987867363
celebrating 0.000265013483367
anniversary 0.000107471407857
contest 2.89593973039e-05
internet 0.000138098068195
figure 7.97224932693e-05
inspired 8.06035558926e-05
sitting 7.52797510803e-05
complaining 0.0
playing 6.77442534379e-05
street 0.000123104365915
points 2.84772037263e-05
advice 7.82082580952e-05
forever 2.50932503601e-05
congress 0.000154319118564
imagine 0.0
problem 7.15015752757e-05
played 0.0
canadian 0.0
pulling 0.00015135575788
keeping 0.000173754598208
lovely 0.000251348650692
chinese 0.000107596442371
unlike 0.000123313215141
allowed 8.76134932011e-05
otherwise 3.15420597476e-05
afternoon 0.000130704119143
planned 3.19103959779e-05
strange 0.0
notice 3.01271982936e-05
difference 0.000170026763955
author 7.4244261663e-05
intent 0.0
letting 5.46316668598e-05
system 0.000277730841323
almost 0.000222191201539
details 0.000485790754157
experience 0.000139192601737
viewed 0.0
living 0.000278385203473
bright 0.000156348906021
normal 0.0
practically 0.0
before 0.000144558569834
monday 0.000115993834781
realize 0.0
currency 0.0
sleeping 0.0
wanting 3.49944453983e-05
science 0.000439042358954
tweeting 0.00012683891928
forgot 0.0
herself 0.0
disaster 0.000340538922951
happens 0.0
silence 0.0
congratulations 0.00134682582568
natural 9.46261792428e-05
raised 0.000261367162051
mission 0.000241017586349
ironic 0.0
testing 0.0
deleted 0.0
channels 0.0
surprising 3.58654807902e-05
reference 0.0
forgotten 0.0
trouble 0.0
setting 6.30841194952e-05
reminds 3.14509269907e-05
fantastic 0.000550461654738
loving 5.24249194988e-05
hardly 0.0
complete 0.00012753170093
membership 0.0
nearly 0.000116817990935
spirit 0.000201582460047
launched 0.000298365660042
stories 2.40280001912e-05
including 0.000172814184153
inviting 4.57908311071e-05
wouldn 0.0
choice 0.000260759088205
offended 0.0
conversation 0.000351210241222
disrespectful 0.0
making 0.000531823451442
expect 0.0
discussion 0.000129518483482
believes 3.89597258859e-05
occasions 0.0
response 7.84224714857e-05
brings 0.000160764380244
subject 3.72399959761e-05
greetings 0.0
anytime 0.0
protected 0.000315738607446
location 3.48879407959e-05
thomas 0.0
missile 0.0
needed 0.00018964297324
seriously 0.0
spending 0.000193337295473
groups 0.000143461923161
modern 0.000352037920572
welcome 0.000763639686914
totally 0.0
evenings 0.0
laughed 0.0
running 6.99730006697e-05
finished 0.000106296657692
strong 0.000869741597092
hopefully 2.82399957721e-05
respond 6.7096314262e-05
message 0.000259353903457
coming 0.000376708278105
thankful 0.0
temporary 0.0
issues 0.000344517528377
challenge 0.000267909494412
happen 0.00013585429462
giving 0.000224599907916
turkey 0.0
common 5.49344031424e-05
pressed 0.0
healthcare 0.000302179776277
benefits 0.000453543230347
situation 5.8081591567e-05
workers 0.00125816629295
company 0.000100646258687
health 0.00091743609123
insurance 0.000191650316433
change 0.00124427072862
august 6.27203369934e-05
mental 0.000330537369073
carrier 5.71379854679e-05
neither 6.12944286769e-05
lowest 4.54455168592e-05
decide 0.00011017310486
happened 4.67747708348e-05
demand 0.000117147222783
generally 0.0
personal 0.000120791910287
beyond 7.44662563749e-05
passion 0.000168241912642
question 0.000567587892614
doctor 0.0
sacrifices 6.42850196596e-05
respected 0.000145705494625
position 9.08975429064e-05
increased 0.000498023484737
losing 0.0
strain 0.0
respect 0.000121447688539
collapse 0.0
shouldn 2.65741644231e-05
career 5.15721729625e-05
visited 0.000244215585571
challenger 0.0
reason 2.33873854174e-05
simply 0.000111092336529
audience 6.14701717493e-05
employees 4.25588549475e-05
accounts 0.00025985491582
attacked 0.0
involved 0.000310278958577
extreme 0.000115363706266
unhappy 5.38980982066e-05
caused 0.0
knocked 0.0
reality 5.2857542768e-05
mention 0.0
extremely 0.0
burned 0.0
without 8.95981062469e-05
falling 3.27623085669e-05
problems 8.21741637129e-05
timing 0.0
highly 3.16335698669e-05
online 0.000286780596388
animals 3.71221308315e-05
called 4.4678454619e-05
scientists 4.27097064699e-05
pictures 0.0
camera 0.0
heading 0.000185001399688
terribly 5.46646373224e-05
theater 0.0
paying 0.000202148082745
complex 7.30841078022e-05
sunday 9.17990161716e-05
nights 6.55246171338e-05
enthusiastic 6.63913424403e-05
increasing 4.64980806545e-05
traffic 0.000100047179185
opposite 0.0
lookout 0.0
reached 0.000164780832481
changing 0.000108962145527
harder 0.0
silent 0.0
speaking 0.0015516541595
careful 0.000100945147585
november 0.0
answered 0.0
number 0.000182118548414
atlantic 0.0
stupid 0.0
budget 0.00143018821236
unless 5.47827758086e-05
calling 4.66486671132e-05
lately 0.0
levels 0.000204938658695
focused 0.0
ridiculous 0.0
financially 0.0
knowing 0.0
former 0.000139638139273
covers 3.59768143367e-05
mountain 0.0
suffers 0.0
schedule 6.8933964242e-05
greatly 4.63191350434e-05
friday 0.000112603104522
dramatic 0.0
failure 0.0
achieve 3.72399959761e-05
winner 0.000123438702967
closes 9.08910337185e-05
bother 0.0
directly 0.000219941145597
quality 0.000430754781234
tearing 0.0
father 0.000177091810671
wishes 0.000202715781127
collar 0.0
ground 0.000115189977169
matter 7.15015752757e-05
strategy 0.000331994428106
themselves 7.76646999169e-05
asking 0.000141084188357
mobile 3.68882697896e-05
device 0.0
computer 3.43629835186e-05
impressed 3.36483825283e-05
complain 0.0
dinner 7.36626224543e-05
suffering 4.18196669023e-05
single 9.15517470624e-05
parent 0.0
packed 0.0
catching 0.0
neglected 0.0
somewhat 0.0
approved 0.0
definition 0.0
energy 0.000634290513216
meltdown 0.0
events 5.50865524302e-05
europe 0.000122940343499
holiday 2.55759454789e-05
status 0.0
update 0.000129636494305
outage 0.0
customers 4.79843321556e-05
holding 0.000551970901293
survive 0.0
electric 0.0
picked 0.0
missing 2.3705371655e-05
surprise 4.7539043326e-05
german 0.0
officially 0.000155563793166
french 2.85568422349e-05
global 0.00106930826973
follow 0.000134035363857
opinion 0.0
design 0.0
allows 4.18196669023e-05
promoting 0.0
volunteer 0.000139494241964
negative 6.47592417412e-05
official 4.58995080858e-05
brutal 7.74114079661e-05
cotton 0.0
jersey 0.0
mistake 3.07350858746e-05
fixing 0.0
france 6.16466163926e-05
proper 3.53170739345e-05
peaceful 9.37207566265e-05
thinks 0.000103709195444
competition 0.000120166825054
industry 0.000407682190457
easier 0.000210890388055
successful 3.03856768218e-05
trending 0.0
leadership 0.00062607504616
agrees 0.0
organized 0.0
enthusiasm 0.0
turnout 0.0
showed 0.0
attended 8.92102485225e-05
trumps 0.0
networks 0.000146900103282
experienced 0.0
interested 8.56705267047e-05
effect 8.78604170869e-05
dislike 0.0
success 0.000150559502161
dreams 8.76134932011e-05
protect 0.00022781762981
rumors 0.0
arguing 4.4440813748e-05
referred 0.0
waving 0.0
growth 0.000619273339605
control 7.44662563749e-05
happier 0.0
likely 2.97030074926e-05
coincidence 0.0
cancel 0.0
project 0.000250932503601
laying 0.0
lesson 3.09118841154e-05
replacement 4.72287145435e-05
invited 0.0
continuing 0.0
clearance 7.02444934047e-05
treating 0.0
allowing 3.89597258859e-05
arrived 8.06035558926e-05
unable 0.0
opening 0.000338217348804
popular 3.03856768218e-05
followed 2.95355850083e-05
statement 0.000575949885847
enjoyed 0.000210851455996
spectacular 0.0
smoothly 0.0
length 0.0
wonder 0.0
matters 8.76134932011e-05
function 0.0
shared 9.14175376245e-05
connection 3.62011783168e-05
benefit 0.00055700441805
terrible 5.66375650602e-05
continues 0.000162544245537
equally 0.0
session 0.0
routine 0.0
associated 0.0
exciting 7.99416636728e-05
imagination 0.0
decides 0.0
cheering 4.39550873333e-05
spring 5.67957023468e-05
fallen 0.000156351360914
beautifully 0.0
places 0.000185509438357
entered 4.16747505651e-05
feedback 4.33236254536e-05
thousands 0.00029313122742
properly 0.00028288098248
informed 3.90878402286e-05
typical 0.0
continue 0.000282103477635
attend 0.00010034515266
excuse 3.21907337188e-05
female 8.88574131181e-05
recovery 0.000367722607976
closer 0.00022280176722
beginning 0.0
introduce 7.81756804572e-05
bought 0.0
multiple 0.0
slogan 0.0
covered 0.000115189977169
choices 0.00010793044301
unpredictable 0.0
enterprise 0.0
several 6.40068946495e-05
surrounded 0.0
dealing 7.7159559282e-05
teacher 0.00043097262006
training 0.000431962414385
auditorium 0.0
passing 0.000180250237581
become 6.95963008683e-05
presentation 4.51055153495e-05
spread 0.000152206703137
sooooo 0.0
season 9.79509691404e-05
putting 0.000116621667783
weight 3.45714724444e-05
stephanie 0.0
rapidly 0.0
follows 0.0
explained 7.89534012461e-05
stance 4.30145342301e-05
storms 5.31572580356e-05
headed 2.93694213516e-05
sleepy 0.0
returns 2.97871967838e-05
expected 6.36354695692e-05
resources 0.00061091941534
considering 0.0
fabric 0.0
suspect 0.0
constantly 0.0
condolences 0.000242842491042
appreciated 0.000104983336195
register 6.61074738147e-05
manage 4.05484093767e-05
transition 0.00017205813692
smooth 0.0
flowers 8.42247638793e-05
gained 5.04197843292e-05
savage 0.0
somebody 3.31517400047e-05
contract 0.0
furious 0.0
covering 0.0
boxing 0.0
credit 0.000246522491139
patriots 0.0
player 9.30024494333e-05
chemistry 0.0
grandkids 0.0
offensive 0.0
charles 3.56444823263e-05
fighting 0.000227689470863
atlanta 0.0
donald 3.19103959779e-05
mexico 0.0
unreal 0.0
police 0.000200457381374
represent 7.51948214054e-05
president 0.000913446401953
talking 0.00160409463387
unbelievable 0.0
alabama 0.0
slowest 0.0
conference 0.00126699070589
america 2.36414073202e-05
michigan 0.0
everybody 0.000109565551617
judgment 5.2676811674e-05
carolina 0.0
amount 6.23595241778e-05
houston 3.78389394699e-05
everyday 3.15420597476e-05
michael 0.000250932503601
protecting 0.000198039281367
million 0.00081635167448
election 0.000643591501108
honesty 0.0
telling 0.000100920363244
correct 2.86367687677e-05
pulled 0.0
attack 2.86367687677e-05
americans 3.09118841154e-05
salaries 0.0
killed 2.47548109399e-05
louisville 0.0
horrible 0.0
coverage 6.02543965872e-05
dallas 3.66568575994e-05
jacksonville 0.0
league 0.000102778416093
united 0.000259177448631
college 0.000666554019175
refuse 0.0
barackobama 0.000257169568684
hillary 0.000198698974737
clinton 0.000290513762511
presidency 0.0
manning 0.0
stupidity 0.0
american 7.0732882761e-05
remain 9.38093436124e-05
founder 0.0
illegal 7.40097819382e-05
arizona 0.0
opinions 3.80831371174e-05
retire 0.0
triumph 0.000101706249847
stealing 0.0
speeches 4.76032940572e-05
innocent 4.25588549475e-05
scared 0.0
golden 5.99130873664e-05
straight 0.0
removed 0.0
answers 5.72735375354e-05
product 0.0
created 0.00026720520337
snoopdogg 0.0
worlds 0.0
record 0.000208788902605
stamina 0.0
weapon 0.0
funeral 4.9168525896e-05
registered 4.54455168592e-05
minnesota 0.0
committed 0.000244961117788
journey 0.00023102638028
disrespect 0.0
brother 0.0
prayers 0.0
documentary 0.0
boston 3.20968921246e-05
addition 7.74114079661e-05
korean 0.000101706249847
church 3.37490645349e-05
advantage 3.79607010024e-05
honestly 3.17254604867e-05
defeat 3.98725260504e-05
baltimore 0.0
lifetime 6.7096314262e-05
captain 3.77178451274e-05
retired 0.0
country 0.000734392129373
valley 0.00015135575788
mailbox 0.0
speedy 0.000173182034162
ending 2.98717080235e-05
finish 0.00016389500058
employee 4.89667010939e-05
university 0.0004136305522
remembered 4.19655397899e-05
nominated 3.33490597283e-05
praying 0.0
insane 0.0
national 0.00187418401491
reform 0.000791191572
oregon 0.0
shooting 5.55461682646e-05
cancer 0.000446842045674
australia 0.00754696212762
deserve 0.000354126972964
legend 0.000118476550824
mother 2.47548109399e-05
murder 3.59768143367e-05
creating 0.000152798454046
powerful 2.70907075895e-05
carson 0.0
palmer 0.0
branch 0.0
breaking 4.77967660647e-05
dollars 7.44799919522e-05
questions 0.00113824092759
racist 0.0
charged 0.0
girlfriend 0.0
performance 0.000154294903355
refreshing 0.0
reading 0.000282931531044
corrupt 0.0
penalty 8.92102485225e-05
writer 6.72967650566e-05
denver 0.0
create 0.00066861124787
admire 0.0
nobody 0.0
government 0.00282626526964
politics 0.000220156488935
comeback 4.06861024217e-05
charities 5.22065883552e-05
method 0.0
sample 0.0
bringing 0.000174700764066
celebs 0.0
stadium 0.0
funniest 0.0
according 0.000147261735054
threat 0.0
heroin 0.0
honest 0.000110478454556
rolling 0.000100047179185
became 5.55461682646e-05
feature 0.0
decision 0.000138481078322
counting 0.0
verified 0.0
signing 0.000320347447006
adding 0.0
embrace 3.88323499584e-05
pressure 9.06390669974e-05
celebrities 0.0
dearly 0.0
facebook 0.00023769521663
divided 0.0
extension 9.79334021879e-05
lawyer 0.0
charleston 0.0
brazilian 0.0
basketball 4.25588549475e-05
campaign 0.000515721729625
determine 4.9168525896e-05
whether 5.61665198439e-05
praise 3.77178451274e-05
factory 9.05497244977e-05
arrested 0.0
investments 0.000246549814436
activity 8.66472509071e-05
comments 5.41814151789e-05
wounded 0.0
endorsement 4.95777905965e-05
williams 7.08513440037e-05
future 0.0021972419295
struggled 0.0
blessed 0.0
sabotage 0.0
warrior 0.0
softball 0.0
cheating 0.0
voting 2.73913879043e-05
instincts 0.0
collins 5.02062593616e-05
succeed 4.16747505651e-05
commercial 3.04725125415e-05
religion 4.59655329041e-05
boring 0.0
acting 3.18177347846e-05
established 9.75334055714e-05
warriors 0.0
because 6.40068946495e-05
sensitive 0.0
smiling 0.000156866806392
traitor 0.0
cleveland 0.0
agents 0.0
periscope 0.0
killing 0.0
choosing 0.0
phillips 5.80280250356e-05
instagram 0.0
opponent 0.0
detroit 0.0
cousin 0.0
honored 3.08233081963e-05
nonsense 0.0
dedication 0.00014058113494
hammer 0.0
proven 0.0
talent 5.92382754121e-05
governors 0.0
knocking 5.44061587942e-05
russian 0.0
consecutive 0.000109329274645
skills 0.000431526314748
citizens 3.79607010024e-05
cameras 0.0
phones 0.0
california 9.54532043537e-05
commitment 0.000661900694357
maryland 0.0
seconds 2.97030074926e-05
placed 4.63191350434e-05
listen 0.0001606482783
dominating 0.0
whatever 5.1012680372e-05
wherever 4.25588549475e-05
fought 0.00010793044301
compete 0.0
lauderdale 0.0
injured 0.0
billion 0.000381812817415
shoutout 0.0
depressing 0.0
guilty 0.0
carpet 0.0
harvard 0.0
absolute 0.0
handle 0.0
promise 0.0
hosting 0.000291224951824
longest 0.0
generation 0.00021330758779
criminal 8.48180523102e-05
tuesday 0.000100920363244
garbage 0.0
goldman 0.0
ronald 0.0
locker 0.0
leader 0.00052126915147
desperately 0.0
character 0.0
chancellor 0.0
proving 0.0
jackson 3.58654807902e-05
interview 4.51628356252e-05
buffalo 0.0
insight 0.0
obviously 3.11797620889e-05
battle 2.57860864812e-05
destroy 0.0
killer 0.0
personally 0.0
relentless 0.0
winning 0.000213348344895
charlotte 4.52748622488e-05
trafficking 0.000132782684881
defense 7.12889646525e-05
japanese 4.06861024217e-05
causing 4.68603783132e-05
arabia 5.83328527957e-05
rapist 0.0
writing 7.71474516773e-05
society 9.19416430154e-05
officers 0.0
ambushed 9.61612150584e-05
sources 0.000114618765994
kentucky 0.0
incredible 0.000167741676091
ungrateful 0.0
kissing 0.0
minute 0.0
luther 0.0
foreign 0.000220633564786
phoenix 0.0
champions 0.0
virginia 0.0
streak 0.0
orange 0.0
policy 0.000651402727601
intentional 0.0
reminder 5.3441040674e-05
evidence 3.29561664962e-05
presidents 0.0
judged 0.0
accused 0.0
intentions 0.0
facing 3.65420539011e-05
freedom 0.000123647536462
actions 0.0
debating 4.9168525896e-05
consequence 0.0
coughing 0.0
clearly 8.44844666895e-05
invite 0.0
central 0.000234294445565
washington 8.81082640547e-05
tougher 5.36483818522e-05
veteran 4.36371010957e-05
division 4.08246587516e-05
overrated 0.0
veterans 0.0
stronger 0.000494439035083
bowden 0.0
promised 3.64278435062e-05
catches 0.0
worried 3.20968921246e-05
security 0.000589046940214
sanctuary 0.0
reverse 0.0
immediately 6.20016329556e-05
television 3.90878402286e-05
entitled 0.0
racism 8.57231895615e-05
highest 6.27203369934e-05
approve 0.0
turning 0.000111092336529
georgia 4.66784870623e-05
tennessee 0.0
legacy 0.000105627020734
leaked 0.0
choked 0.0
helping 0.000341900669344
tickets 2.68678519642e-05
suspending 0.0
suspend 0.0
willing 3.37490645349e-05
december 3.08233081963e-05
beating 0.0
basically 0.0
return 0.000171879452393
escape 0.0
locked 3.73584931084e-05
unacceptable 0.0
network 0.000248006531822
language 3.10901081638e-05
invest 0.000487054874565
creation 0.0
followers 5.74339708312e-05
schools 0.0019871497641
menace 0.0
movies 0.0
entity 0.0
children 0.000781487244214
nation 0.001536019532
flexible 6.42850196596e-05
review 0.00013214385692
knowledge 6.30841194952e-05
begins 2.65741644231e-05
vanessa 0.0
forbes 0.0
parade 0.0
fireworks 0.0
shoulder 8.8231625716e-05
produced 0.0
consider 5.89046940214e-05
latest 4.80560003823e-05
signed 0.000318340649706
shower 0.0
thunder 0.0
charity 6.20016329556e-05
germany 0.0
advance 9.68549264747e-05
explaining 0.0
millions 0.000120166825054
blessings 0.0
diamond 5.04197843292e-05
dollar 0.000112075479325
monsters 0.0
rigged 0.0
conduct 5.10730238746e-05
cooked 0.0
turned 2.43554085829e-05
criticism 0.0
responded 0.0
depending 0.0
jackie 0.0
charge 6.14701717493e-05
ticket 2.97871967838e-05
finest 0.0
sanders 0.0
includes 0.000165268684537
dealers 0.0
against 0.0
benjamin 0.0
impact 0.00011881202997
families 0.00107911834459
selection 0.0
hitting 0.0
announced 0.00140484096489
decided 2.65741644231e-05
professor 0.00016786215916
itself 0.0
promote 0.000214528231854
mexican 0.0
owners 0.0
guards 0.0
guarantee 4.34798074621e-05
beliefs 0.00020790070466
citizen 0.000159490104202
states 0.000308058375767
memorial 0.000324798404397
decades 0.000142577929305
landed 0.0
ultimate 9.65722011563e-05
mcdonald 0.0
twenty 0.0
hispanics 0.0
financial 0.000469054082743
payments 0.000595960344351
grabbing 0.0
permit 0.0
shield 6.02557748373e-05
disney 4.47706655763e-05
kansas 0.0
agreement 0.00078098369589
source 6.23595241778e-05
dismiss 0.0
talents 0.0
homework 4.93722108607e-05
expectations 0.0
joining 0.000235267414457
eugene 0.0
reasons 7.75697396444e-05
talked 8.37828835638e-05
released 0.000129282899407
reaching 0.0
release 4.87108171658e-05
promoter 0.0
circumstances 0.0
scheme 0.000582821978501
warwick 8.66410581186e-05
highlight 0.0
within 8.49563475903e-05
stacked 0.0
speech 0.00122577217632
standing 2.53677838561e-05
higher 0.000238297574271
justice 0.000179230248141
served 3.3548157131e-05
speaks 6.41937842491e-05
navarro 0.0
dropped 0.0
consideration 0.0
predicted 4.30145342301e-05
strength 0.000368821030496
andrew 0.000208058754964
replace 3.49944453983e-05
incredibly 9.40805054902e-05
private 5.69544074526e-05
integrity 9.26382700868e-05
sanford 0.0
ignored 0.0
neighbors 0.0
affection 7.07770411552e-05
minimum 0.0
direction 0.000102161676885
enemies 0.0
exclusive 0.0
prison 0.0
himself 0.0
investigation 0.0
disgusting 0.0
congratulate 0.000160945145557
philly 0.0
rights 0.000149782718416
replaced 0.0
recognition 0.000437116483876
maintain 0.0
tallahassee 0.0
handed 0.0
victory 0.000348980065354
classy 4.42777158695e-05
lifted 5.46646373224e-05
terrorist 4.54455168592e-05
productive 0.0
tribute 0.000274252612873
threatened 0.0
insecure 0.0
horror 8.8231625716e-05
discovery 0.0
convention 0.00012812911941
understanding 0.0
action 0.000405175593229
figures 0.00015135575788
having 0.0
marine 4.68603783132e-05
announces 6.79036303036e-05
wallace 0.0
speaker 0.000111014672907
stevens 0.0
cybersecurity 0.0
apologize 0.0
continued 0.0
journalist 3.96078562735e-05
libelous 0.0
formation 0.0
letter 0.0
discussed 0.000198039281367
therapy 0.0
widespread 0.0
untrue 0.000116665705591
written 2.70907075895e-05
conferences 0.0
results 0.000261367162051
papers 0.0
winter 3.00417062635e-05
marching 0.0
sessions 0.0
democrats 0.0
eastern 8.00121183179e-05
scientist 0.0
represented 0.0
waters 4.95777905965e-05
journal 0.0
foundation 0.000126534279468
access 0.000600948335458
analysis 0.0
writes 0.000108603534951
colorado 0.0
medical 3.65420539011e-05
tremendous 0.00012589661937
nytimes 0.0
public 0.0008251547674
cheaters 0.0
cannot 0.000148528865639
reveals 9.9455220014e-05
immunity 0.0
threatens 5.12951329023e-05
candidate 3.53170739345e-05
brilliant 0.000163443218291
wisconsin 0.0
studies 0.0
measure 4.06861024217e-05
compared 3.83300632866e-05
donors 0.0
graham 0.00023070813381
incorrect 0.0
headline 3.47819470089e-05
careers 0.0
answering 0.000635519300182
streaming 3.63142203139e-05
leaders 0.000679972038283
supreme 3.83300632866e-05
nominee 0.0
gorsuch 0.0
protest 0.0
immigration 0.0
policies 4.02755705751e-05
administration 4.19655397899e-05
defend 3.63142203139e-05
excitement 3.9216701598e-05
funding 0.00230266868012
surveillance 5.46646373224e-05
transfer 0.0
conspiracy 0.0
horrifying 5.46646373224e-05
formed 0.0
interviews 3.01271982936e-05
retreat 0.0
alliance 0.0
platform 0.0
editing 0.0
february 3.266601359e-05
association 8.75910445838e-05
airwaves 0.0
hamilton 0.0
futures 0.000185990416884
borders 5.12951329023e-05
border 0.000303265378175
uranium 0.000660894506371
misleading 4.87667027857e-05
january 0.0
topics 4.85684982085e-05
unprecedented 4.93722108607e-05
airplane 0.0
tragic 8.02808080478e-05
philadelphia 0.0
funded 0.000204820446299
secure 0.000283838865637
income 0.000204123293758
hurricane 0.0
breakdown 0.0
countries 0.000192020683949
linked 4.13877379307e-05
broadcast 0.000219941145597
african 0.0
triple 0.00012164522813
provide 0.000618832591221
enhance 0.0
development 0.000268310443006
companies 7.35445215952e-05
discussions 9.87444217214e-05
developing 0.000134311996729
proposal 8.30615566301e-05
potential 3.06472143385e-05
moderator 0.0
suggestion 0.0
attending 0.000122892267779
filled 3.11797620889e-05
schultz 0.0
education 0.00355473325479
sickness 7.1322739553e-05
mentioned 0.0
exists 0.0
henderson 0.0
plants 0.0
orders 0.0
officials 7.81756804572e-05
strategic 0.000119846885654
ability 0.0
political 3.18177347846e-05
director 5.53924313289e-05
behaving 0.0
deficits 0.0
sufficient 0.0
prevent 3.68882697896e-05
shoddy 0.0
capacity 5.10730238746e-05
donations 0.000209827698949
editors 0.0
discussing 0.000234837099917
persistent 0.0
treatment 6.95638940178e-05
establishment 0.0
protects 0.0
critical 0.000176585369673
ambassador 0.00011499018986
preparing 0.0
capable 0.0
bishop 6.46905294263e-05
producers 4.59655329041e-05
bombed 0.0
weekly 0.0
becoming 0.000142386018631
magazine 6.16466163926e-05
lawyers 0.0
summary 0.0
standard 3.20968921246e-05
controlled 4.89667010939e-05
hiring 0.0
defending 0.0
pushes 0.0
admitted 0.0
failed 3.29561664962e-05
independent 0.000205556832185
copies 0.0
politically 0.0
driven 8.05511411502e-05
agenda 0.000160024236636
blocked 0.0
result 0.000256027578598
announcing 0.000580585559745
destruction 0.0
culture 3.06472143385e-05
insider 0.0
traitors 0.0
prince 0.000160953668594
solutions 0.0
indiana 0.0
mongering 0.0
claims 0.000106933446979
editorial 4.63191350434e-05
prospects 5.38980982066e-05
mistakes 0.0
offered 0.0
founded 5.24404493971e-05
ignorance 0.0
inspiring 0.000389435067882
majority 0.0
embarrassing 0.0
creators 0.0
server 0.0
berniesanders 0.0
spotlight 0.0
readout 0.0
tactics 0.0
irrelevant 0.0
massive 5.6322977793e-05
receiving 0.000250048503391
promising 4.85684982085e-05
promises 0.0
consequences 0.0
production 0.0
proposals 0.0
elsewhere 4.57908311071e-05
bernie 4.77929918934e-05
hacking 0.0
guests 3.47819470089e-05
interviewed 3.5754705309e-05
secretary 0.000928936895593
rebuttal 0.0
reduce 0.000361263636215
arriving 0.0003413669195
dangerous 5.95743935677e-05
shutting 0.0
arrival 9.71369964169e-05
canceled 0.0
typically 0.0
saving 0.0
pioneer 4.97853006866e-05
incident 4.57908311071e-05
ordering 0.0
victims 0.000289716603469
raises 4.42777158695e-05
receive 0.00037523737445
reputation 0.0
intention 0.0
commentary 0.0
disclosure 0.0
terrific 7.81756804572e-05
berkeley 0.0
melbourne 0.00110310932645
received 0.000142386018631
correctly 0.0
inherited 0.0
displayed 0.0
joseph 0.00014935590206
offices 9.19310658082e-05
necessary 0.000102469329348
largely 0.0
inaccurate 0.0
debate 0.000285568422349
conflict 0.0
interest 0.000218258334622
controversy 0.0
stated 5.36483818522e-05
rating 0.000519515859979
nominate 0.000185992322618
outstanding 0.000114249411352
devastating 0.000164417620187
accurate 0.0
southeastern 0.0
romney 0.0
scotland 0.0
delayed 0.0
rarely 4.04115689257e-05
abroad 0.0
winners 0.000234955370813
profit 0.0
reviews 0.0
republican 4.37955222919e-05
presidential 7.40097819382e-05
candidates 0.0
politicians 8.08231378514e-05
epidemic 0.0
greater 7.24023566337e-05
booths 0.0
arnold 5.95960344351e-05
principles 0.0
deadline 3.5754705309e-05
speakers 4.4115812858e-05
incoming 6.38868167741e-05
various 0.0
nuclear 7.84334031959e-05
danger 3.88323499584e-05
leading 0.000253453400068
restored 0.0
conditions 0.000125024251695
however 3.52090069112e-05
resolution 0.000134311996729
remained 0.0
member 0.000208555354921
examples 0.0
employ 0.0
courses 0.0
largest 0.000279955563187
hallmark 0.0
mentor 0.0
increase 0.000469153250796
transcript 5.29157292683e-05
disrupt 6.63913424403e-05
provided 4.56174995344e-05
binding 0.0
decreased 0.0
revival 0.0
crashing 0.0
reception 9.67441109459e-05
rising 7.1509410618e-05
primary 0.00129317020562
reduction 0.0
surrogate 0.0
provides 0.0
environment 0.000285772611261
revealed 0.0
confirmed 0.000161424877458
controls 0.0
behavior 0.0
introduced 0.000253561237911
carbon 0.00154864221481
communities 0.00080294392005
region 0.000319322496741
deaths 0.0
responsible 3.62011783168e-05
household 4.97853006866e-05
munich 0.0
canada 5.90711700166e-05
regions 0.000192855058979
movement 2.9619137706e-05
midwest 0.0
segment 0.0
emerged 0.0
hundreds 7.33137151989e-05
information 0.000330458768898
combined 0.0
easily 3.266601359e-05
towards 0.000290564779424
inform 0.0
mathematically 0.0
october 9.30024494333e-05
investigating 5.3401455683e-05
predators 0.0
innovation 0.000421743404819
perspective 0.0
cities 0.000166250898214
todays 0.0
julian 0.0
eliminated 0.0
interests 0.000250918001414
toledo 0.0
extraordinary 0.000112432887127
eradicate 8.08428964928e-05
retains 0.0
ashamed 0.0
meetings 3.93463187568e-05
describing 0.0
eliminate 5.36483818522e-05
obligation 6.1637453609e-05
gender 0.000324387275014
committee 0.000108942660942
wasting 0.0
numerous 0.0
examination 0.0
inflammatory 0.0
practices 0.0
management 4.04115689257e-05
nordstrom 0.0
genius 0.0
warren 5.10730238746e-05
traveling 0.0
billions 4.93722108607e-05
prepared 0.000100644471393
fraction 0.0
equipment 9.99895554528e-05
procedures 0.0
rasmussen 0.0
county 0.0
developer 0.0
anthony 4.04115689257e-05
shadow 0.0
district 0.0
considered 3.43629835186e-05
lobbyist 0.0
chosen 4.18196669023e-05
hospitalized 0.0
outright 0.0
yorkers 0.0
naming 0.000104880898794
conventions 0.0
deficit 5.12951329023e-05
interventions 0.0
focusing 0.0
sensible 0.0
hosted 3.77178451274e-05
batman 0.0
column 0.0
upcoming 6.27203369934e-05
positions 0.0
favors 0.0
regulation 0.0
distributed 0.0
weakness 5.17461620718e-05
introduction 5.41506685241e-05
western 0.000594117844102
pacific 0.000315738607446
larger 4.37955222919e-05
increases 0.000196674103584
effective 3.68882697896e-05
situations 0.0
harbor 0.0
wealth 0.00014337897568
underway 4.4440813748e-05
israel 0.000141686143631
hysteria 0.0
overwhelming 4.70437790524e-05
protection 7.69091375104e-05
prisoners 0.0
guidance 0.0
montana 0.0
determination 0.0
restore 0.0
acquire 6.42850196596e-05
additional 0.000553699521143
exception 0.0
machine 0.0
honoring 0.0
visually 0.0
contrary 0.0
immediate 0.0
politico 5.60044209873e-05
ignoring 0.0
judges 0.0
federal 0.000786367020683
constant 0.0
philippines 5.60044209873e-05
nicely 0.0
september 9.32703244914e-05
manchester 0.0
fiction 4.4440813748e-05
priest 0.0
angela 5.15194968825e-05
process 8.47199873162e-05
destructive 6.8234047834e-05
genuine 4.01404040239e-05
surreal 0.0
whitehouse 0.0
flotus 0.000393976854778
crisis 0.00020432335377
judgement 0.0
confidence 3.46764591607e-05
voters 0.0
diamondandsilk 0.0
oldest 4.46051242613e-05
inauguration 0.0
gracious 0.0
scream 0.0
postponed 0.0
disappoint 0.0
believing 4.47706655763e-05
hillaryclinton 0.000308810690006
electoral 4.89667010939e-05
crashed 0.0
citizenship 0.000219704699356
closed 0.0
religious 4.37955222919e-05
apprentice 0.000131907422132
conservative 0.0
economists 6.59537110658e-05
buzzfeed 0.0
puppet 0.0
sweden 0.0
andersoncooper 0.0
treats 0.0
qualified 4.74152106902e-05
missouri 0.0
cooper 0.0
debates 8.79101746667e-05
endorsements 0.0
strike 3.40538922951e-05
shouting 0.0
empire 0.0
encouraged 0.0
regard 0.0
concerning 0.0
misinformed 0.0
disregard 0.0
barack 4.9168525896e-05
joined 0.000326886436582
terrorism 0.000176463251432
pushing 3.54256720018e-05
cracking 4.59655329041e-05
muhammad 0.0
refused 0.0
amazingly 0.0
express 6.85189440617e-05
gratitude 0.000188175116209
congratulation 0.0
throughout 7.02029315271e-05
shining 4.47706655763e-05
fighter 0.0
anticipated 0.0
presented 3.60887115997e-05
reveal 3.22849754916e-05
stands 9.22052576239e-05
native 0.0
harvey 0.0
featured 0.0
announce 0.000591463796192
surround 0.0
although 0.0
senior 0.000277411673286
todayshow 0.0
convincingly 0.0
haters 0.0
returning 7.56778789399e-05
laughs 0.0
touched 0.0
corruption 0.0
violence 0.000259797386622
runnin 0.0
delivered 0.00021586088602
owning 0.0
legendary 0.0
stabbing 0.0
independence 4.00060591589e-05
approval 0.0
magical 0.0
alongside 8.48180523102e-05
percent 0.0
spiral 0.0
differently 0.0
sweeping 0.0
spoiler 0.0
theirs 0.0
offering 0.000146627430398
remembering 7.24023566337e-05
floated 0.0
professionals 0.0
construction 0.00013895740513
searching 0.0
flexibility 6.51036192523e-05
sinking 0.0
detail 4.06861024217e-05
document 0.0
cabinet 0.00133815372784
pleased 0.000292336431209
carrying 0.0
statements 0.0
decade 0.000103714417333
prague 0.0
crossing 5.24404493971e-05
bigotry 0.0
happily 0.0
therefore 0.0
belong 0.0
customs 5.74307005053e-05
trillion 5.5190844616e-05
backed 0.0
electricity 0.000166376167769
observing 0.0
russell 0.0
engineers 0.0
operations 0.000220763378464
values 0.000323292551406
senator 0.00032053581775
confirms 0.000167278667609
removing 0.0
payment 0.000118546811798
consistently 0.0
posing 0.0
everett 0.0
wondered 0.0
generic 6.87197742486e-05
fields 0.0
mining 0.000431462175263
newspaper 8.27754758614e-05
detailed 9.79334021879e-05
rainbow 0.0
childcare 0.000362281520168
unlimited 0.0
exploded 0.0
thoroughly 0.0
adviser 0.0
leaves 3.20968921246e-05
matthew 0.0
intersection 0.0
affected 0.000683128862318
newspapers 0.0
corporate 0.0
economy 0.00247540391263
explores 0.0
spoken 0.0
during 0.0
credible 0.0
competitive 8.8881627496e-05
carefully 4.79843321556e-05
returned 0.0
blasts 0.0
guarding 0.0
hornet 0.0
successfully 4.85684982085e-05
southern 0.0
dakota 0.0
belief 4.11044050469e-05
messenger 0.0
heroes 3.37490645349e-05
russians 0.0
intelligence 0.000161646275703
deepest 0.000102146047749
graduates 6.1996805628e-05
describe 0.0
hollywood 0.0
reclaim 0.0
equality 0.000159490104202
announcement 0.000425967767601
interfere 0.0
interrupted 0.0
nationwide 0.0
questionable 0.0
garden 9.9161210722e-05
survey 0.0
journalists 0.00011882356882
delighted 0.000507557894381
minister 0.00498670434558
golfer 0.0
capital 0.000119617578151
penguins 0.0
regarding 0.000163856357039
teachers 0.000594117844102
devastated 0.000116056050071
phrase 0.0
immigrants 0.0
aliens 0.0
subjects 0.0
revolution 8.27754758614e-05
median 0.0
twelve 0.0
releases 0.0
accomplish 0.0
debbie 6.34956620986e-05
sebastian 0.0
briefing 0.000145116166419
advisor 0.0
commission 0.000650973129164
deadlines 0.0
hereby 0.0
invitation 9.29961613091e-05
alternatives 0.0
villages 0.0
accepted 3.70048909691e-05
commentators 6.38868167741e-05
depression 0.0
comprehensive 5.19751761651e-05
committees 0.0
pushed 0.0
statistic 0.0
donation 0.000149910516169
electronic 0.0
nomination 0.0
britain 4.39550873333e-05
questioning 0.0
attempt 0.0
investment 0.000726065009989
terror 8.33495011303e-05
homeland 0.0
polish 0.0
switzerland 0.0
represents 0.0
announcer 0.0
churchill 0.0
ambassadors 0.000187086292854
anchors 0.0
endorse 9.59686643112e-05
urgent 0.000145116166419
forced 3.39518151518e-05
expenses 0.0
preparations 0.0
string 0.0
morocco 0.0
thrill 0.0
watchdog 0.0
agencies 0.000264578646342
scrutiny 0.0
glorious 4.27097064699e-05
approaching 0.0
tragedy 0.000108942660942
handled 0.0
offers 7.0634147869e-05
requested 0.0
improvements 6.72934947307e-05
destroying 4.85684982085e-05
inexpensive 0.0
opposition 8.95413311527e-05
smithsonian 0.0
addiction 0.0
challenged 0.0
manhattan 0.0
richmond 0.000112564815651
forces 7.19536286733e-05
nations 0.000175182089168
anderson 0.0
builds 5.74307005053e-05
sexist 0.0
narrative 0.0
application 0.0
cannon 0.0
ethical 0.0
representation 0.0
obvious 0.0
statistics 0.0
military 6.8933964242e-05
housing 9.12349990689e-05
wonderfully 0.0
miller 0.0
copying 0.0
advised 0.0
ordered 0.0
unions 0.000123993611256
useless 0.0
alicia 0.0
economic 0.00113152392992
radical 0.0
planted 0.000130207238505
theories 0.0
conceived 0.0
readers 0.00016786215916
bombing 5.17461620718e-05
products 0.000160561616096
phenomena 0.0
classroom 0.000164778524517
classified 0.0
purely 0.0
hacked 4.31685394681e-05
taxpayers 5.89554196614e-05
opposed 4.42777158695e-05
pressing 0.0
russia 3.43629835186e-05
abraham 0.0
lincoln 4.52748622488e-05
observer 0.0
intelligent 0.0
lawsuit 0.0
detective 0.0
magnificent 9.26382700868e-05
heritage 0.000104880898794
beloved 4.77929918934e-05
dignity 0.000103038993765
priorities 9.8337051792e-05
repealing 0.0
murdoch 0.0
coalition 0.000252098921646
theresa 0.0
charges 0.0
activists 5.10730238746e-05
elected 0.00038579779641
relief 0.000294178086381
congratulates 0.0
pledge 0.000248326427584
elections 0.0
landslide 0.0
council 0.000449071246268
imperative 7.4273738227e-05
catastrophic 0.0
douglas 4.93722108607e-05
brexit 0.0
democracy 0.000271826449709
disastrous 0.0
rebuild 0.000106802911366
pundits 0.0
nickname 0.0
poison 0.0
interfering 0.0
negotiations 0.0
summit 0.000471477542588
dossier 0.0
unleash 0.0
negotiation 0.0
sticking 4.33236254536e-05
openly 0.0
embarrassed 0.0
ireland 0.0
attacks 0.000106933446979
remarks 0.0
democratic 0.0
outgoing 0.0
maureen 0.0
treasury 0.000114275970936
refugees 4.39550873333e-05
snatch 0.0
morgan 0.0
grieve 0.000148547476454
vicious 0.0
essentially 0.0
restoring 0.0
extended 4.02755705751e-05
referendum 5.3401455683e-05
ovation 0.0
bankrupt 0.0
proudly 5.2676811674e-05
oppose 0.0
refusal 0.0
urging 0.0
strengthen 5.60044209873e-05
deliver 0.000737130781035
negotiating 0.0
remaining 0.0
merkel 0.0
repeal 0.0
formal 5.3401455683e-05
reckless 0.0
prosperous 0.000224743059002
servant 6.34956620986e-05
desperate 0.0
secretaries 0.0
formally 5.80280250356e-05
breach 0.0
gloomy 0.0
outlines 0.0
concessions 0.0
executive 0.000110664809369
extend 4.8372055473e-05
republicans 0.0
terrorists 0.000153219071624
weapons 0.0
bodyguards 0.0
outrage 0.0
representative 5.29157292683e-05
prevail 0.0
searched 0.0
policemen 0.0
islamic 0.0
islamist 0.0
ingrained 0.0
humbled 0.0
courage 0.000475046700714
chamber 5.24404493971e-05
commander 5.77273447207e-05
formula 0.0
brigade 0.000146091326573
respecting 0.0
lectured 0.0
devices 5.57298874913e-05
enormous 5.24404493971e-05
verdict 0.0
refusing 5.08531249237e-05
energies 0.0
carried 9.4457429087e-05
behalf 3.97397949473e-05
tariff 0.0
amendment 0.000263730524
nightmare 0.0
employment 0.000215592392827
legislation 0.000418482725891
referring 0.0
scrapping 0.0
handling 0.0
goodies 0.0
proves 0.0
prominently 0.0
crackdown 0.0
unfair 9.22832535239e-05
fiscal 6.2362097618e-05
humiliating 0.0
strongly 0.0
vision 0.000262098468535
resignation 0.0
confirmation 0.0
records 0.0
disabled 0.0
quoting 0.0
reductions 0.000171125623941
deeply 0.000178773526545
commerce 6.05931808145e-05
accumulation 0.0
overplaying 0.0
refugee 4.39550873333e-05
conway 0.0
exposed 0.0
netanyahu 0.0
israeli 0.0
priority 8.54194129399e-05
strongest 9.91555811929e-05
freedoms 0.0
treaties 0.0
empowering 0.0
laughter 0.0
syrian 4.68603783132e-05
uphold 0.0
praising 0.0
renewal 0.0
penned 0.0
condemns 7.07770411552e-05
realdonaldtrump 0.0
goodwill 0.0
attorney 0.000206984648287
settled 0.0
chairman 4.76032940572e-05
capability 0.0
firing 0.0
seanspicer 0.0
inaugural 0.000101706249847
carnage 0.0
optimism 0.000101270785
rulers 0.0
clintons 0.0
melania 0.0
bikers 0.0
handing 0.000109852349678
intended 0.0
optimistic 4.8372055473e-05
campaigned 7.02444934047e-05
finance 0.000153219071624
allies 0.0
compromised 0.0
governor 0.000324233945304
bosses 0.0
attempts 0.0
irresponsible 0.0
incidents 6.12838514697e-05
merely 0.0
documents 0.0
tariffs 7.1322739553e-05
purpose 0.000135400829322
architect 0.0
arlene 0.0
resign 0.0
reuters 0.0
mainstream 0.0
dozens 5.02062593616e-05
donnell 0.0
clarified 0.0
gathering 4.74152106902e-05
crimes 0.0
vulnerable 0.000133322441244
commentator 0.0
overwhelmingly 0.0
respectful 0.0
markets 0.000290232332838
inspector 0.0
nigel_farage 0.0
drudge 0.0
abused 0.0
infrastructure 0.000522065883552
projected 0.0
boards 0.0
allegations 0.000163218476383
bloomberg 0.0
insulting 0.0
leaking 0.0
liberal 0.000124163213792
chairs 0.000151259352988
podium 0.0
conceded 0.0
capitol 0.0
consulting 7.1322739553e-05
wannabe 0.0
powell 0.0
reforms 0.000482046198698
technical 0.0
securing 0.000258762117705
steven 0.0
rumsfeld 0.0
businesses 0.00082611634178
balancing 0.0
socialist 0.0
complaints 0.0
politician 0.0
representatives 0.000232112100142
rallies 0.0
belittle 0.0
ballot 4.61416267619e-05
failing 0.0
refuses 0.0
conclude 0.000131049155854
vibrant 6.46905294263e-05
tarmac 0.0
spinning 0.0
appointments 0.0
farewell 0.000139494241964
opponents 4.79843321556e-05
unopposed 0.0
polling 0.0
prosperity 6.55245779272e-05
apology 8.33495011303e-05
outline 7.24563040336e-05
losers 0.0
battlefield 0.0
abandoned 0.0
endorsed 0.0
negotiate 0.0
negotiated 0.0
unwilling 0.0
appointed 0.000159471774107
slaughter 0.0
betray 0.0
donated 7.97450521008e-05
immigrant 0.0
prosecuted 0.0
criminals 0.0
elizabethforma 0.0
protesting 0.0
releasing 0.0
screening 0.0
sponsor 0.0
pocketbook 0.0
transparency 4.8372055473e-05
austin 0.0
obamacare 0.0
acceptable 0.000132347438574
schwarzenegger 0.000258762117705
congressman 0.0
profits 0.0
toward 0.0
fleeing 0.0
bravery 0.0
protests 0.0
recieved 0.0
violent 4.61416267619e-05
remarkably 0.0
senators 0.0
ratings 0.000262773133751
spouses 0.0
fundraiser 0.0
senate 0.000271649173493
louisiana 0.0
giuliani 0.0
venezuela 0.0
parenthood 0.0
organizations 0.0
generations 0.000351640698667
minorities 0.0
underestimate 0.0
terrified 0.0
discourse 0.0
pennsylvania 0.0
hackers 0.0
nbcnews 0.0
mccain 0.0
scandal 0.0
constitution 0.000305118749542
sensanders 0.0
abandon 0.000116056050071
explode 0.0
reopening 0.0
governments 0.000112564815651
competent 0.0
mike_pence 0.0
stinks 0.0
logical 0.0
accurately 0.0
righteous 6.68378154481e-05
thursdays 0.0
fitting 0.0
category 4.25588549475e-05
swearing 0.000203276303888
politifact 0.0
abolish 0.0
surging 0.0
murders 6.72934947307e-05
reagan 0.0
vetting 0.0
vetted 0.0
pouring 5.2676811674e-05
fraudulent 0.0
ballots 0.0
fading 0.0
speakerryan 0.0
civilized 0.0
commercials 0.0
luxurious 0.0
outraged 0.0
nypost 0.0
statute 0.0
enforcement 5.29157292683e-05
accountability 0.0
truthful 0.0
springfield 0.000155360832367
cancelled 0.0
conflicts 0.0
suffer 4.63191350434e-05
selfishly 0.0
educational 0.0
stolen 0.0
visionary 6.42850196596e-05
wounds 7.30456632863e-05
disgraceful 0.0
hatred 0.0
persuasion 9.15724552313e-05
exposing 0.0
teaches 0.0
sellers 0.0
refers 0.0
trusted 5.3401455683e-05
sheriff 0.0
samsung 0.0
ranking 0.0
undecided 0.0
nebraska 0.0
abusive 0.0
abuser 0.0
nashville 0.0
lightweight 0.0
victories 0.0
consumer 5.46646373224e-05
violation 0.0
sarcasm 0.0
freaky 0.0
jimmyfallon 0.0
outlets 0.0
vanityfair 0.0
harassed 0.0
leverage 0.0
sacred 0.0
horrific 4.59655329041e-05
contribute 0.00023070813381
indicted 0.0
chooses 5.83328527957e-05
defended 0.0
champion 0.000105627020734
waited 0.0
denmark 0.0
conviction 6.05931808145e-05
retail 0.0
distract 0.0
globes 0.0
endorsing 0.0
pathetic 0.0
purposely 0.0
expose 0.0
representing 0.0
mmflint 0.0
registration 0.0
acceptance 0.0
defeated 0.0
prosecutor 0.0
nbcsnl 0.0
nevada 0.0
illinois 0.0
massachusetts 0.0
spontaneous 0.0
entrepreneur 0.0
arkansas 0.0
hotels 0.0
exhausted 0.0
puppets 0.0
protesters 0.0
natalie 0.0
anaheim 0.0
nominating 0.0
vietnam 5.57298874913e-05
claimed 4.76032940572e-05
indianapolis 0.0
loudly 0.0
sarasota 0.0
rapids 0.0
oklahoma 0.0
devoted 0.000115454689441
sacramento 0.0
arranged 0.0
baldwin 0.0
crushed 0.0
reflects 0.0
replacing 0.0
louder 0.0
flashback 0.0
farmers 0.000160204367049
unleashed 0.0
tourists 0.0
steals 0.0
albany 0.000152508273331
devastation 0.0
meantime 0.0
donlemon 0.0
wilbur 0.0
finalists 0.000375538672965
ransom 0.0
normmacdonald 0.0
vanishing 0.0
clarence 8.08428964928e-05
jaketapper 0.0
clowns 0.0
elizabeth 0.000133815372784
microphone 0.0
machines 0.0
premium 0.0
championships 5.95960344351e-05
impersonation 0.0
horribly 0.0
stakes 0.0
mouthed 0.0
reservation 0.0
delaware 0.0
springs 5.10730238746e-05
columbus 0.0
slackers 0.0
toyota 0.0
chucktodd 0.0
correspondents 7.62541366657e-05
soldier 5.2676811674e-05
panels 0.0
broadcasting 0.0
sparks 0.0
warned 4.46051242613e-05
jclayfield 0.0
kellogg 0.0
anchor 0.0
heated 0.0
congressional 0.0
boeing 0.000147302342723
usatoday 0.0
endlessly 0.0
craziest 0.0
viewers 4.9168525896e-05
delivers 0.000334550943254
pittsburgh 0.0
marshal 0.0
reverend 0.0
lifelong 0.0
disdain 0.0
hispanic 0.0
defrauded 0.0
oppression 0.0
crowds 0.0
washingtonpost 0.0
affordable 4.59655329041e-05
tapping 0.0
ginsburg 0.0
reilly 0.0
illegally 0.0
shootings 0.0
destiny 5.77273447207e-05
serenawilliams 0.0
motors 0.0
redding 0.0
initially 0.0
travis 5.80280250356e-05
accomplishments 0.0
misconduct 0.0
mocked 0.0
disgrace 0.0
greeley 0.0
carmel 0.0
outcry 0.0
playbook 0.0
zealand 0.00024483350547
fearless 0.0
lining 5.44061587942e-05
sidekick 0.0
madame 0.0
grandstand 0.000195860263724
rochester 7.69557721747e-05
speechless 0.0
fletcher 0.0
begged 0.0
wintour 0.0
inspires 4.99947777264e-05
carlos 0.0
missiles 0.0
chelsea 9.48304213804e-05
oppressive 0.0
forgiven 0.0
killings 0.0
taiwan 0.0
somalia 0.0
burning 0.000116879177658
subscribers 0.0
chester 0.0
newtown 0.0
booker 6.72934947307e-05
heights 0.0
leicester 0.0
chiefs 0.0
joenbc 0.0
opioid 0.0
separately 0.0
intros 0.0
columnist 6.1637453609e-05
manages 0.0
financed 0.0
mnuchin 0.0
delegate 0.0
vicente 0.0
struck 0.0
trudeau 0.0
oreillyfactor 0.0
vulgarian 0.0
publicity 0.0
amnesty 0.0
ivankatrump 0.0
communism 0.0
linkedin 0.0
avoided 0.0
sophisticated 0.0
seanhannity 0.0
anncoulter 0.0
foolish 0.0
catholics 0.0
bogged 0.0
catholic 0.000410493608134
thriving 0.0
newtgingrich 0.0
abedin 0.0
secretly 0.0
undermines 0.0
americanism 0.0
christians 0.0
rationally 0.0
deplorable 0.0
wikileaks 0.0
execution 0.0
enduring 0.0
foxandfriends 0.0
losses 0.0
kevcirilli 0.0
staffers 0.0
barron 0.0
jihadis 0.0
hampshire 0.0
pandering 0.0
donaldjtrumpjr 0.0
moines 0.0
lobbying 0.0
careless 0.0
piersmorgan 0.0
palestinian 0.0
kellyanne 0.0
democrat 0.0
unfunny 0.0
condemned 0.0
despair 0.0
louvre 0.0
crooked 0.0
lynden 0.0
outperform 0.0
tedcruz 0.0
majors 0.0
schumer 0.0
credibility 0.0
flooding 0.0
hannity 0.0
beneficiary 0.0
sanctions 0.0
nominates 0.0
existent 0.0
criticized 0.0
senatemajldr 0.0
workforce 0.0
issued 0.0
outsider 0.0
declare 0.0
ivanka 0.0
dignified 7.69557721747e-05
threaten 0.0
outcomes 0.000176866258984
ukraine 0.0
justintrudeau 6.97244773599e-05
vladimir 0.0
businessman 0.0
regards 6.59537110658e-05
assange 0.0
malicious 0.0
garners 0.0
ethics 0.0
wrecked 0.0
regimes 0.0
incorrectly 0.0
hostile 0.0
defenders 0.0
deceived 0.0
hypocritical 0.0
favorably 0.0
shatter 0.0
changer 5.29157292683e-05
spokane 0.0
unnecessary 0.0
cwaunion 0.0
expand 0.0
apologized 0.0
criticizing 0.0
legion 0.0
hershey 0.0
intensity 0.0
tigerwoods 0.0
amercan 0.0
reince 0.0
chriscjackson 0.0
hypocrites 0.0
billkristol 0.0
govmikehuckabee 0.0
dustin 0.0
bullied 0.0
anonymous 0.0
yankees 0.0
thehill 0.0
infiltrated 0.0
somali 0.0
invention 0.0
frontrunner 0.0
patriot 0.0
poorly 0.0
prisonplanet 0.0
daytona 0.0
comparable 0.0
shouted 0.0
holocaust 0.0
kellyannepolls 0.0
foxnews 0.0
initiated 0.0
tiffany 0.0
mikeandmike 0.0
barbara 0.0
litigation 0.0
frankcaliendo 0.0
toughness 0.0
suffered 0.0
streep 0.0
billionaire 0.0
percentage 0.0
insiders 7.62541366657e-05
premiums 7.62541366657e-05
congratulatory 0.0
treasurer 0.000836988612743
incompetence 0.0
delegates 0.000331956712201
rollout 0.000266908469781
appalled 0.0
misquoted 0.0
pledged 6.12838514697e-05
demanded 0.0
andrews 0.0
lowlife 0.0
courageous 0.000159471774107
betrayed 0.0
horrors 7.49143530008e-05
warheads 0.0
pledges 0.0
interrupts 0.0
blacks 0.0
elaine 0.0
candidacy 0.0
discredited 0.0
cringing 0.0
estates 0.0
laughable 0.0
aberdeen 0.0
healed 7.62541366657e-05
floods 0.00154284047183
swiftly 0.0
cheryl 0.0
syracuse 0.0
difficulties 6.38868167741e-05
flipping 0.0
wilkes 0.0
lisbon 7.76804161836e-05
suckers 0.0
golfdigest 0.0
jeffrey 0.0
sixteen 0.0
scandals 0.0
circuits 0.0
regulations 0.0
monitoring 0.0
swamped 0.0
costing 0.0
detained 0.0
warmest 0.0
marginalize 0.0
miners 0.0
unemployment 0.000238384137741
paragon 0.0
obsolete 0.0
subsidies 0.0
exercised 0.0
evangelicals 0.0
franklin 0.0
molten 0.0
servers 0.0
billgates 0.000507194128235
excessive 0.0
coordinated 0.0
geneva 0.0
soaring 7.30456632863e-05
unsecured 0.0
corporations 0.0
rifles 0.0
innovative 0.000106802911366
pillar 0.0
bashing 0.0
organize 0.0
panelists 0.0
frontiers 8.35523663996e-05
pricing 0.000477638334838
platforms 6.05931808145e-05
scaling 0.0
pretends 0.0
forensic 0.0
roundtable 6.38868167741e-05
inherit 0.0
fabrication 0.0
brewer 0.0
unaffordable 0.0
reinforcing 0.0
eventful 0.0
wasserman 0.0
lindsey 0.0
billclinton 0.0
upstate 0.0
empowerment 0.0
penalties 0.0
responders 7.02444934047e-05
civilization 0.0
occupy 0.0
approximately 0.0
knight 5.36483818522e-05
homeownership 0.0
scratched 0.0
screws 0.0
contractor 0.0
havana 0.0
lowering 0.0
foundations 7.4273738227e-05
revitalize 0.0
counters 0.0
foreclosed 0.0
renovated 0.0
delaying 0.0
employer 0.0
executed 0.0
subpoena 0.0
grifters 0.0
cincinnati 0.0
disgraced 0.0
falsely 7.76804161836e-05
strengthening 0.0
abcworldnews 0.0
skyrocketing 0.0
pipelines 0.0
likewise 0.0
dishonest 0.0
surges 0.0
woefully 0.0
pressured 0.0
erratic 0.0
temperament 0.0
emboldened 0.0
keystone 0.0
mandated 9.02326715664e-05
crumbling 0.0
johnkasich 0.0
latinos 0.0
combating 0.0
incompetent 0.0
loopholes 0.0
incapable 0.0
unqualified 0.0
melaniatrump 0.0
recount 0.0
voluntarily 0.0
desperation 0.0
denounce 0.0
demoralized 0.0
incited 0.0
fawning 0.0
accuser 0.0
electing 0.0
patrol 7.1322739553e-05
connecticut 6.1637453609e-05
amounts 0.0
govpencein 0.0
squandered 0.0
enforce 0.0
epipens 0.0
deplorables 0.0
generals 0.0
timkaine 0.0
benghazi 0.0
moderators 0.0
sheriffclarke 0.0
unfairly 0.0
competence 0.0
dysfunctional 0.0
eleventh 0.0
instructed 0.0
restrict 0.0
battleground 0.0
jilted 0.0
blazing 0.0
hypocrite 0.0
mcconnell 0.0
circulated 0.0
flailing 0.0
pathological 0.0
deflect 0.0
undoing 0.0
predictable 0.0
phoney 0.0
perils 0.0
governing 0.0
likeable 0.0
tumble 0.0
praised 0.0
extraordinarily 0.0
jinping 8.66410581186e-05
trashes 0.0
knowingly 0.0
disloyal 0.0
woodward 0.0
magnificently 0.0
pretended 0.0
slaughtered 0.0
climber 0.0
americ 0.0
unprofessional 0.0
diplomats 0.0
resulted 7.4273738227e-05
crossroads 0.0
syrians 0.0
suppress 0.0
remembrance 0.000302965904072
infighting 0.0
castro 0.0
unquestionably 0.0
corrupted 0.0
kasich 0.0
readership 0.0
fraternal 0.0
frankluntz 0.0
demagogue 0.0
unanimous 0.0
bedford 0.0
longtime 0.0
complexities 0.0
dailymail 0.0
couric 0.0
cancelling 0.0
morningmika 0.0
concord 0.0
recounts 0.0
shouldered 0.0
patmccrorync 0.0
executives 0.0
westfield 0.0
graydon 0.0
sheldon 8.35523663996e-05
tanking 0.0
morning_joe 0.0
fabricated 0.0
corolla 0.0
groveling 0.0
unfolding 8.0008847992e-05
polled 0.0
influx 0.0
underachieving 0.0
antics 0.0
disenfranchised 0.0
golfing 0.0
xfinity 0.0
defies 0.0
fictitious 0.0
districts 0.0
vigilant 0.0
obstruction 0.0
rebuilding 0.000589209370891
preserving 7.55740934029e-05
passover 0.0
dhsgov 0.0
thejusticedept 0.0
repealed 0.0
intends 0.0
wildfires 0.0
usedgov 0.0
fresno 0.0
usnavy 0.0
scotus 0.0
tillerson 0.0
ineffective 0.0
senjohnmccain 0.0
cbsnews 0.0
lawsuits 0.0
caucus 0.0
shimon 9.29987347492e-05
wilmington 0.0
stagnant 0.0
gouging 0.0
baghdad 0.0
wiesel 0.0
obstruct 0.0
gonzalo 0.0
curiel 0.0
hostage 0.0
unnamed 0.0
truckers 0.0
boldly 8.77746225992e-05
scarborough 0.0
evangelical 0.0
cyberattack 0.0
marines 0.0
crimea 0.0
earners 0.0
oversaw 0.0
lobbyists 0.0
rosiegray 0.0
briefings 0.0
actresses 0.0
purchases 0.0
myanmar 0.000591743147365
heightened 0.0
shackles 0.0
perjury 0.0
dallaspd 0.0
respectfully 0.0
canton 0.0
approx 0.000336467473653
admirals 0.0
naples 0.0
brainwashed 0.0
albuquerque 0.0
supposedly 0.0
coliseum 0.0
greensboro 0.0
sheriffs 0.0
hostages 0.0
explorers 0.0
confidential 0.0
tamara 0.0
infested 0.0
depicted 0.0
devote 8.26118132963e-05
payroll 0.0
bombshell 0.0
advisers 0.0
watergate 0.0
mcmaster 0.0
renews 0.0
housegop 0.0
katyturnbc 0.0
pocahontas 0.0
wherein 0.0
shreds 0.0
pelosi 0.0
chrysler 0.0
collusion 0.0
deductibles 0.0
repmarkmeadows 0.0
darrellissa 0.0
insurer 0.0
dishonesty 0.0
hotlinejosh 0.0
quinnipiacpoll 0.0
apologizing 0.0
priebus 0.0
clapper 0.0
tapped 0.0
operatives 0.0
senschumer 0.0
marcorubio 0.0
viciously 0.0
leakers 0.0
bangladesh 0.0
favorable 0.0
nbcnightlynews 0.0
lockheed 0.0
untruthful 0.0
resonating 0.0
transferring 0.0
staten 0.0
humana 0.0
juanita 0.0
senses 0.0
stimulate 0.0
drooling 0.0
lakeland 0.0
burying 0.0
crafted 0.0
misrepresent 0.0
fabled 0.0
railing 0.0
billyjoel 0.0
sniper 0.0
cnnsotu 0.0
independents 7.92051353397e-05
detroitnews 0.0
foxbusiness 0.0
washtimes 0.0
realbencarson 0.0
meetthepress 0.0
newday 0.0
thebrodyfile 0.0
bostonherald 0.0
foxnewssunday 0.0
thefive 0.0
chriscuomo 0.0
randpaul 0.0
dcexaminer 0.0
facethenation 0.0
bretbaier 0.0
interruption 0.0
allenwest 0.0
cvpayne 0.0
dailycaller 0.0
prosecution 0.0
ballistic 0.0
vetoed 0.0
gettysburg 0.0
groping 0.0
brennan 0.0
nielson 0.0
justices 0.0
operative 0.0
surged 0.0
megynkelly 0.0
terminated 0.0
softbank 0.0
fronting 0.0
rigging 0.0
reprieve 0.0
pocketed 0.0
colluded 0.0
coffers 0.0
stairway 0.0
ellison 0.0
selflessly 0.0
tornadoes 0.0
levine 0.0
scranton 0.0
enslave 0.0
inappropriately 0.0
devalue 0.0
presumptive 0.0
fournier 0.0
terminate 0.0
reptommarino 0.0
kimberly 0.0
subscriptions 0.0
ingrahamangle 0.0
trajectory 0.0
natalie_gulbis 0.0
unheard 0.0
objectified 0.0
turnberry 0.0
djohnsonpga 0.0
bedminster 0.0
golf_com 0.0
elevation 0.0
litany 0.0
unaccountable 0.0
primaries 0.0
disrupter 0.0
runways 0.0
hashanah 0.0
unenthusiastic 0.0
undecideds 0.0
richardtrumka 0.0
renegotiate 0.0
rapists 0.0
aldridge 0.0
unsubstantiated 0.0
misrepresented 0.0
prisoner 0.0
mattis 0.0
weakening 0.0
endakennytd 0.0
taoiseach 0.0
lifeboat 0.0
enabler 0.0
emanated 0.0
lindseygrahamsc 0.0
renegotiating 0.0
waterville 0.0
zucker 0.0
berglund 0.0
suboptimal 0.0
steelworkers 0.0
postpone 0.0
mohammed 0.0
indignant 0.0
comprised 0.0
stupidest 0.0
exxonmobil 0.0
precluded 0.0
instruct 0.0
gonzales 0.0
scorned 0.0
davidmuir 0.0
harrisburg 0.0
caesars 0.0
borisep 0.0
lapierre 0.0
limbaugh 0.0
petraeus 0.0
phyllis 0.0
illegals 0.0
sanctity 0.0
neurotic 0.0
negligence 0.0
alvarez 0.0
roseanne 0.0
roanoke 0.0
theleegreenwood 0.0
mcallen 0.0
deduct 0.0
chokes 0.0
vigilance 0.0
pensacola 0.0
tuckercarlson 0.0
repcummings 0.0
windham 0.0
teleprompter 0.0
paulareidcbs 0.0
jeffzeleny 0.0
condoleezza 0.0
genflynn 0.0
donaldtrump 0.0
demeanor 0.0
baiting 0.0
plotted 0.0
aptitude 0.0
billings 0.0
approving 0.0
disconnected 0.0
superstorm 0.0
brainpower 0.0
exclaim 0.0
skyrocketed 0.0
globalism 0.0
israelipm 0.0
insurgent 0.0
sneers 0.0
unrest 7.92051353397e-05
scaramucci 0.0
disapproval 0.0
katiepavlich 0.0
overflow 9.15724552313e-05
warped 0.0
scottwalker 0.0
kirstenpowers 0.0
usarmy 0.0
schlafly 0.0
alisonforky 0.0
oppresses 0.0
pedantic 0.0
highness 0.0
benefitted 0.0
fundraisers 0.0
shinzo 0.0
augustine 0.0
ranchers 0.0
middletown 0.0
fiorina 0.0
pueblo 0.0
lindasuhler 0.0
lightweights 0.0
kimguilfoyle 0.0
perdue 0.0
unmasked 0.0
unmasking 0.0
judgejeanine 0.0
boycotted 0.0
outnumberedfnc 0.0
jessebwatters 0.0
podesta 0.0
kristol 0.0
interruptions 0.0
broaddrick 0.0
erictrump 0.0
outspending 0.0
irredeemable 0.0
begala 0.0
brazile 0.0
dinesh 0.0
markings 0.0
ericbolling 0.0
loudobbs 0.0
skyrocket 0.0
blumenthal 0.0
cochran 0.0
imploding 0.0
discord 0.0
jeffflake 0.0
davidwohl 0.0
bribery 0.0
repkenbuck 0.0
joshrogin 0.0
enrique 0.0
unverified 0.0
retribution 0.0
dwindling 0.0
automobile 0.0
teamtrump 0.0
subpoenaed 0.0
danscavino 0.0
joniernst 0.0
scottadamssays 0.0
senatorfischer 0.0
tabulation 0.0
trafficked 0.0
depict 0.0
unrelenting 0.0
imitating 0.0
dutchess 0.0
adelson 0.0
valuing 0.0
ricksantorum 0.0
chuckgrassley 0.0
laraleatrump 0.0
abingdon 0.0
equating 0.0
ministries 0.0
brzezinski 0.0
sentedcruz 0.0
jamesrosenfnc 0.0
leaker 0.0
realjameswoods 0.0
jim_jordan 0.0
marshablackburn 0.0
boynton 0.0
betsydevos 0.0
lawfare 0.0
larry_kudlow 0.0
stranahan 0.0
waynedupreeshow 0.0
phillypolice 0.0
scottwrasmussen 0.0
johnstown 0.0
raul_labrador 0.0
statewide 0.0
reviewjournal 0.0
oppress 0.0
underlings 0.0
bankrupted 0.0
collude 0.0
fayetteville 0.0
disqualifying 0.0
mahoning 0.0
disloyalty 0.0
americanlegion 0.0
bankruptcies 0.0
morell 0.0
ambridge 0.0
emboldens 0.0
asheville 0.0
grievous 0.0
ricketts 0.0
benefactor 0.0
dwyane 0.0
markhalperin 0.0
mayorbowser 0.0
unverifiable 0.0
savaged 0.0
wheeling 0.0
technocratic 0.0
countr 0.0
thealabamaband 0.0
relives 0.0
unwatchable 0.0
residences 0.0
gatekeeper 0.0
defections 0.0
senatorsessions 0.0
drmoore 0.0
honorably 0.0
billhemmer 0.0
shultz 0.0
aflcio 0.0
trucking 0.0
fabrications 0.0
malleable 0.0
misrepresents 0.0
decimated 0.0
arabella 0.0
mishandled 0.0
interfe 0.0
speach 0.0
iranians 0.0
fraudulently 0.0
enablers 0.0
dealmaker 0.0
terrori 0.0
anarchists 0.0
krzanich 0.0
foxnation 0.0
permeated 0.0
overruns 0.0
disposed 0.0
inaccurately 0.0
peebles 0.0
conditioners 0.0
classifie 0.0
forewarned 0.0
karlrove 0.0
palazzo 0.0
evansville 0.0
rebroadcast 0.0
bangor 0.0
secpricemd 0.0
realdonaldtru 0.0
uschamber 0.0
trumpinaugural 0.0
rawlings 0.0
churchillian 0.0
hemmer 0.0
rudygiuliani 0.0
pynance 0.0
terrybranstad 0.0
cbnnews 0.0
faithandfreedom 0.0
ovations 0.0
scpioneer 0.0
dwstweets 0.0
tgowdysc 0.0
bluffs 0.0
marist 0.0
spluttering 0.0
thetodaysgolfer 0.0
thebig_easy 0.0
hoosier 0.0
senbobcorker 0.0
larsloekke 0.0
roadblocks 0.0
manheim 0.0
greenblatt 0.0
jtanews 0.0
mitchellvii 0.0
bemoan 0.0
michiga 0.0
gennifer 0.0
gulbis 0.0
liyuan 0.0
enlisting 0.0
ainsleyearhardt 0.0
stevedoocy 0.0
foxfriendsfirst 0.0
pastormarkburns 0.0
marksimoneny 0.0
gov_gilmore 0.0
flunky 0.0
agitators 0.0
overdoses 0.0
liliantintori 0.0
leopoldo 0.0
traceadkins 0.0
gopconvention 0.0
governorsununu 0.0
laconia 0.0
teamsters 0.0
gatewaypundit 0.0
lawyerly 0.0
dissipates 0.0
realjeffreylord 0.0
nytimesdowd 0.0
scalise 0.0
straightening 0.0
energizer 0.0
montgomeriefdn 0.0
shulkin 0.0
ericgreitens 0.0
circuited 0.0
govbrewer 0.0
infringed 0.0
mcgarvey 0.0
republicanstudy 0.0
americafirstpol 0.0
fheile 0.0
phadraig 0.0
wiedefeld 0.0
coddington 0.0
kravis 0.0
fighterjet 0.0
shinzō 0.0
votestand 0.0
romoabcnews 0.0
moskowitzeva 0.0
drgoodspine 0.0
levisteveholt 0.0
untrusting 0.0
sleazebag 0.0
lbperfectmaine 0.0
timken 0.0
newhouse 0.0
evancho 0.0
franklin_graham 0.0
eazymf_e 0.0
busineses 0.0
substantialy 0.0
rexnord 0.0
sdcritic 0.0
highonhillcrest 0.0
fiiibuster 0.0
koster 0.0
saucier 0.0
t_lineberger 0.0
cissieglynch 0.0
saysgabrielle 0.0
ravenrantz 0.0
mayorrgiuliani 0.0
deplorablecbtp 0.0
tanden 0.0
keithrowland 0.0
kinston 0.0
sjsopio 0.0
aztrumptrain 0.0
therealmogul 0.0
unclassify 0.0
firebombed 0.0
wikileakes 0.0
davidshiloach 0.0
trumpwomenstour 0.0
mistreats 0.0
willey 0.0
dornsife 0.0
henryleledog 0.0
eericmyers 0.0
atensnut 0.0
arouses 0.0
anyonetennis 0.0
flifeforce 0.0
geeveem 0.0
susiesentinel 0.0
bcuzimdamomma 0.0
freedavidking 0.0
ifdanyt 0.0
arsenmissyirvin 0.0
nycmia 0.0
bigdog_joey 0.0
roadkingl 0.0
decieved 0.0
waukesha 0.0
creati 0.0
thallensboucher 0.0
kenansville 0.0
tarukmatuk 0.0
angpiazza 0.0
laughingstock 0.0
ak_tweet 0.0
kiiara 0.0
jerryjrfalwell 0.0
ghfanlovessonny 0.0
bishopwtjackson 0.0
cynthialummis 0.0
repreneeellmers 0.0
trumpdc 0.0
stvzbnk 0.0
bakari 0.0
adhd_fa 0.0
parisdennard 0.0
ronnieclemmons 0.0
takouis 0.0
lblackvelvet 0.0
chernuna 0.0
annebellar 0.0
presidencies 0.0
rsbnetwork 0.0
meequalsfree 0.0
pmnorlando 0.0
rhondar 0.0
patrici 0.0
lindaharden 0.0
trumpocrats 0.0
lewenskimo 0.0
trump_videos 0.0
sinabunz_tm 0.0
eyecandytmgayle 0.0
catonglass 0.0
billynungesser 0.0
samaritanspurse 0.0
zulu_out 0.0
willspeakout 0.0
laurencristmann 0.0
c_lynne_ryan 0.0
enemywithinn 0.0
elsolarverde 0.0
creats 0.0
dbongino 0.0
bongino 0.0
carl_c_icahn 0.0
fieldoffight 0.0
reploubarletta 0.0
mainegop 0.0
gatewaypun 0.0
mechanicsburg 0.0
pnehlen 0.0
patrioticpepe 0.0
insticts 0.0
borderless 0.0
lallyray 0.0
glowingly 0.0
spinnnn 0.0
flamed 0.0
nancynielsenn 0.0
olimauritania 0.0
theresa_cali 0.0
roxanetancredi 0.0
litigate 0.0
trumpdoonbeg 0.0
berrien 0.0
nbcpolitics 0.0
jakeda 0.0
barrasso 0.0
bluedogdemky 0.0
iowa_trump 0.0
arnold_ziffel 0.0
patricia_graf 0.0
brazosboys 0.0
jimvitari 0.0
trumpturnberry 0.0
trumpscotland 0.0
darrenwaggener 0.0
allegrettivicki 0.0
justininglv 0.0
chrisboydbrew 0.0
votetrumpmaga 0.0
realericjallen 0.0
insinuated 0.0
clubgoers 0.0
ausbiz 0.0
freemarketsara 0.0
senatorjeffsessions 0.0
mabynshingleton 0.0
dale_dangler 0.0
nauthizjane 0.0
richardweaving 0.0
mariadaq 0.0
sara_wejesa 0.0
jimhewitt 0.0
joedefranco 0.0
wolfstopper 0.0
djd_thunder 0.0
excoriates 0.0
rapidcraft 0.0
telepromter 0.0
liliannyleebou 0.0
lunsfordwhitney 0.0
free_sa_bd 0.0
stockdaleism 0.0
admonished 0.0
nbcdfw 0.0
frankylamouche 0.0
sandiegopd 0.0
tombarrackjr 0.0
buiidthewall 0.0
pipersul 0.0
oasisupernova 0.0
jknatter 0.0
jasondovesq 0.0
ed_klein 0.0
overregulates 0.0
dubilujane 0.0
rbacliff 0.0
ltstevenlrogers 0.0
rowanne 0.0
shoneep 0.0
magicmetalninja 0.0
barbaro 0.0
michael_favreau 0.0
christichat 0.0
mai_ttag 0.0
thydanielflores 0.0
costakenneth 0.0
svhlevi 0.0
johnjohnlacca 0.0
ladytsbrug 0.0
frankdallasagg 0.0
ladyjoanne 0.0
gerriweth 0.0
longbyfive 0.0
wesleyfelixpsi 0.0
manakoa 0.0
ragdollive 0.0
xgodfatherxzx 0.0
trumptrainrider 0.0
aprillajune 0.0
takingit_back 0.0
distlerjoyce 0.0
queencharlotteo 0.0
kellyriddell 0.0
valdosta_monkey 0.0
daybastrop 0.0
nathandwilsonfl 0.0
mathewjmari 0.0
stupor 0.0
matandsher 0.0
edgoeas 0.0
lynnepatton 0.0
erictrumpfdn 0.0
mikeozanian 0.0
lexingtonbobby 0.0
annettejeanne 0.0
andrebauer 0.0
waterbury 0.0
greenskydeb 0.0
keksec__org 0.0
ashleyedam 0.0
trumptbird 0.0
herb_stamper 0.0
senfrankniceley 0.0
anneslimo 0.0
agentvf 0.0
hornick 0.0
gqforbes 0.0
governor_savage 0.0
carolde 0.0
fugedaboudit 0.0
dnglax 0.0
alexnightrasor 0.0
lilrachiepoo 0.0
