awesome 0.000626577069867
christmas 0.000551363715635
trying 0.000862439829025
moment 0.000333500802626
wonderful 0.000186300591422
seeing 0.000272618505124
recommend 0.0
anybody 5.0870730651e-05
worked 7.17439279567e-05
direct 0.000140914852171
others 0.000463818736646
currently 0.0
better 0.00190327235332
please 0.000631945680503
social 0.000185794966359
around 0.000492225608616
people 0.00403624999065
leaving 7.51307533539e-05
morning 0.000131969678416
general 0.0
investigate 0.0
damage 0.0
everything 0.00049488629406
twitter 0.000959362629197
though 0.000755793169066
friend 0.000132683050619
watched 0.000447121419412
beautiful 0.000169927613787
anything 0.00124062417607
helped 3.61645219985e-05
managing 0.0
updated 0.0
thinking 0.000134846728659
finally 6.74233643297e-05
caught 0.000111476979816
believe 0.000296132492145
already 0.000131614440954
couple 0.000216400275391
orlando 5.61857607194e-05
research 4.42300004821e-05
chance 0.000230946937228
meaning 9.75825083973e-05
annual 0.0
quickly 0.000138096189887
growing 0.0
probably 0.000214650128371
should 0.000261657959283
changed 3.5294558338e-05
history 0.00013594209103
center 0.0
museum 0.0
behind 0.000328150405744
pretty 0.000269693457319
really 0.00148465888218
expensive 0.0
little 0.000789686645721
earlier 0.00011581174201
realized 0.0
forget 0.000267520862922
someone 0.000831507474347
mostly 0.000400902750664
worker 0.0
safety 0.0
shuttle 0.0
program 9.18000212808e-05
things 0.00131260162298
related 0.000145513974408
visiting 0.0
available 0.000102785003358
afternoons 0.0
perfect 0.000171771174788
different 0.00077119881215
numbers 0.000206196563825
delays 0.0
person 0.000297733229751
watching 0.00082926906637
passed 0.000120678224786
celebrates 0.0
minutes 0.000443005070827
travel 8.06742484827e-05
daughter 0.000159580656609
average 4.72450776444e-05
positive 7.82715479073e-05
outside 3.49151894818e-05
looking 0.000263228881907
forward 0.000237257918903
plenty 0.000293612978205
agreed 0.000265380002892
raising 0.0
listened 0.000156841988586
afraid 0.000127922639515
impression 6.06191542416e-05
drawing 0.0
favorite 0.000459466646334
magnet 0.0
picture 0.000280834605488
historic 9.96290464555e-05
instead 0.000222953959631
appreciate 0.00155262498708
husband 5.14899007291e-05
international 0.0
market 0.000222407289811
couldn 0.000515313524363
remember 0.000428901454852
impressive 9.07541014374e-05
familiar 0.000158781856707
friends 0.000165853813274
despite 0.000140507211333
impossible 0.000134586883287
everyone 0.00128670436456
florida 0.000194590573154
always 0.00150949186642
months 0.0
moving 0.000212915401347
meeting 0.000101408126064
google 0.000414687895084
answer 0.000304224378193
together 0.000231570289806
inside 0.000171771174788
smaller 0.0
missed 0.000601921941575
active 5.30909519459e-05
longer 7.61610740612e-05
enough 0.000833752006566
driving 0.0
building 0.000111174536807
technician 0.0
enjoying 4.03371242413e-05
london 3.92431882576e-05
kennedy 0.0
recent 8.72193197611e-05
gotten 0.000330728374977
amazing 0.000361939712622
attention 0.00018680777947
richard 0.000143816602675
progress 4.57684872556e-05
tomorrow 0.000362916615644
george 4.1011429623e-05
excited 3.44470639885e-05
campaigning 0.0
understand 0.000791322263586
following 0.000103900540753
learning 0.0
evening 0.0
special 0.000133041195895
secret 0.0
across 3.68574746981e-05
comparison 0.000246670589143
surprised 0.0
anymore 0.000168198407396
rather 0.000370581789358
showing 3.5199304162e-05
saying 0.00141232962353
tweeted 0.000610535238328
updates 0.0
thoughts 0.000140038485274
exactly 0.000535175465361
except 0.000252297611094
getting 0.00065984839208
nothing 0.000857802909704
tweets 0.000836303456196
course 0.00160163371761
stephen 0.0
looked 0.000449559696471
difficult 0.000173947946755
stages 0.0
office 7.13567287148e-05
decisions 0.0
brought 7.31174027995e-05
biggest 3.39855227574e-05
thrilled 5.02630273472e-05
entire 0.000659843829979
something 0.000956780168516
closing 0.0
anyone 0.00119737076306
taking 0.000230946937228
recently 4.28804067453e-05
interesting 0.000882181945015
original 0.000117086130314
flying 0.0
happening 0.000179845968997
sometimes 0.0
stopped 0.000154838394422
yesterday 0.000199561793843
service 3.62626238371e-05
serious 7.0589116676e-05
emails 0.0
afford 5.32554387092e-05
british 0.0
contact 0.0
either 0.00111504500778
second 0.000399123587686
accident 0.0
checking 8.55208494896e-05
volunteers 0.0
indeed 0.000134970685417
island 9.34008343287e-05
hearing 7.37149493961e-05
choose 0.0
staying 0.000133823738987
another 0.000658072204768
address 0.0
display 0.000118016553383
originally 0.0
compare 0.000120417921787
landing 6.02089608934e-05
perhaps 0.000199258092911
weekend 0.000367841186518
appear 0.0
anyway 0.000127922639515
theory 5.40904720754e-05
recognize 0.0
working 0.000131969678416
bigger 0.000193547993027
screen 0.000133823738987
treated 5.42600592258e-05
laughing 0.000195678869768
wanted 0.000233450561838
current 0.0
grateful 0.0
friendship 0.0
family 9.8977258812e-05
listening 0.000180822609993
stream 9.07541014374e-05
wedding 0.0
sharing 3.8815624677e-05
double 0.000224169335363
especially 7.31174027995e-05
middle 0.000113620504163
waiting 0.00016901354344
definitely 0.000144266850261
walking 7.91351140659e-05
account 0.000116128795816
completely 0.000273950417675
thought 0.00086476777332
reaction 0.000135355989712
accept 0.0
possible 0.000104745568445
simple 0.000153574241836
manufacturing 0.0
destroyed 0.000190254593421
professional 4.89354963675e-05
friendly 0.0
members 0.0
supposed 0.000745558641412
astronauts 0.0
component 0.000104303671128
business 0.000284655929504
absolutely 0.000282356466704
sending 7.6577774389e-05
delivering 0.0
heavily 7.21177193934e-05
biased 6.79932555131e-05
introducing 0.0
congrats 0.000761937298855
community 0.0
greatest 0.0
posted 7.80574202095e-05
saturday 0.000174105143061
wednesday 7.95711959437e-05
confused 0.000144238209837
explain 0.000192492843392
broken 4.08980787656e-05
chicago 0.000314036061003
fairly 0.0001375554323
hoping 0.000277734774834
relationship 8.87109767237e-05
actually 0.000743659591137
basket 0.0
myself 4.32430075681e-05
pocket 5.65483615422e-05
argument 0.000457836575859
decent 0.000410323317827
school 0.000301773448233
thursday 0.000211767350028
selling 4.51186632374e-05
talented 0.000173459081526
discuss 0.000212608844262
celebrate 3.64597117604e-05
celebrating 0.0
anniversary 3.98951641523e-05
contest 0.000129002487143
internet 0.000492137155476
figure 0.000552427084456
inspired 3.98951641523e-05
sitting 0.000186300591422
complaining 6.29717277828e-05
playing 0.000536486130192
street 7.31174027995e-05
points 0.000338278688977
advice 0.000154838394422
forever 0.000298080946274
congress 0.0
imagine 0.000294060648338
problem 0.000212340538914
played 0.00125315413973
canadian 0.0
pulling 0.0
keeping 0.000110572424094
lovely 4.14687895084e-05
chinese 0.0
unlike 0.000122069080097
allowed 0.000260188622289
otherwise 0.000140507211333
afternoon 0.0
planned 4.73826671146e-05
strange 0.000101435493004
notice 4.4734857218e-05
difference 0.000144266850261
author 0.0
intent 0.000384180624648
letting 4.05603566707e-05
system 4.1239312765e-05
almost 0.000230946937228
details 3.60667125652e-05
experience 6.88941279771e-05
viewed 0.0
living 3.44470639885e-05
bright 4.6431439916e-05
normal 0.0
practically 0.0
before 0.000286200171161
monday 6.88941279771e-05
realize 9.47653342292e-05
currency 0.0
sleeping 0.0
wanting 0.0
science 0.0
tweeting 0.000339009874039
forgot 0.000124061551634
herself 0.0
disaster 5.05654722584e-05
happens 0.000239185527004
silence 5.19620677324e-05
congratulations 0.0
natural 0.0
raised 0.0
mission 0.0
ironic 0.0
testing 0.0
deleted 0.000393036465594
channels 0.0
surprising 0.000106510877418
reference 0.0
forgotten 9.81607507383e-05
trouble 0.000203925590507
setting 0.0
reminds 0.0
fantastic 0.000311375955453
loving 0.0
hardly 0.000367465329195
complete 0.00015149400555
membership 0.0
nearly 0.0
spirit 0.000128281274234
launched 0.0
stories 0.000107035093072
including 0.000146631962218
inviting 0.0
wouldn 0.00035581991188
choice 7.03986083241e-05
offended 7.36163835052e-05
conversation 0.000802308003013
disrespectful 9.66701610698e-05
making 0.000592264984291
expect 0.000237405342198
discussion 0.000240397016394
believes 0.0
occasions 0.0
response 0.000232893748062
brings 3.97855979718e-05
subject 0.0
greetings 8.39898743866e-05
anytime 0.000108520118452
protected 0.0
location 0.000155411767957
thomas 0.0
missile 0.0
needed 0.00017599652081
seriously 0.000255217982323
spending 0.0
groups 5.32554387092e-05
modern 0.0
welcome 6.67001605253e-05
totally 0.000456966444367
evenings 0.0
laughed 0.000187593752478
running 0.000346335135843
finished 0.000157836309845
strong 0.000271884182059
hopefully 0.000125797842175
respond 0.000298887139366
message 0.000105028863955
coming 0.000460650543337
thankful 0.000103924135465
temporary 0.0
issues 7.87019106372e-05
challenge 7.23290439971e-05
happen 0.000504313611664
giving 0.000200100481576
turkey 4.80794032789e-05
common 0.000244710708608
pressed 0.0
healthcare 0.0
benefits 0.000103607845305
situation 4.31216948955e-05
workers 0.0
company 7.47231117878e-05
health 0.0
insurance 0.0
change 0.000197954517624
august 4.65656529479e-05
mental 0.0
carrier 0.0
neither 0.000273042068672
lowest 6.74805100722e-05
decide 4.08980787656e-05
happened 0.000694542743175
demand 0.0
generally 6.67261080988e-05
personal 0.000107615891935
beyond 0.000147429898792
passion 4.99633445285e-05
question 0.000505675232473
doctor 0.0
sacrifices 0.0
respected 0.0
position 0.000224951142362
increased 0.0
losing 0.000488070539435
strain 0.0
respect 0.000649200826174
collapse 0.0
shouldn 0.000355131697151
career 7.6577774389e-05
visited 0.0
challenger 9.54546502367e-05
reason 0.000381998508746
simply 0.00049487175318
audience 9.12749778314e-05
employees 0.0
accounts 0.000110242791659
attacked 0.0
involved 0.000191967802295
extreme 0.0
unhappy 0.0
caused 0.0
knocked 0.000214610721158
reality 7.84863765153e-05
mention 4.06725449529e-05
extremely 0.0
burned 0.0
without 0.000465644185634
falling 4.86476432886e-05
problems 0.0
timing 0.000117235233665
highly 4.69716173904e-05
online 3.54859002246e-05
animals 0.0
called 0.000530732202477
scientists 0.0
pictures 0.000375298940686
camera 8.62433897909e-05
heading 3.92431882576e-05
terribly 0.0
theater 6.23132098871e-05
paying 4.28804067453e-05
complex 0.0
sunday 0.000272618505124
nights 9.72952865772e-05
enthusiastic 0.0
increasing 0.0
traffic 0.0
opposite 0.000216361888302
lookout 0.0
reached 0.0
changing 0.000161794202529
harder 9.18000212808e-05
silent 5.6005951828e-05
speaking 0.000188852356741
careful 0.0
november 4.42300004821e-05
answered 0.000156362935953
number 0.000202816252128
atlantic 0.0
stupid 9.18000212808e-05
budget 0.0
unless 8.13450899058e-05
calling 0.000207801081506
lately 5.74727900129e-05
levels 0.000101435493004
focused 0.000107173813168
ridiculous 0.000955647240351
financially 0.0
knowing 9.12749778314e-05
former 8.29375790167e-05
covers 5.34207541247e-05
mountain 0.000116463106157
suffers 0.0
schedule 0.000460609698254
greatly 0.0
friday 0.000167200539326
dramatic 6.29717277828e-05
failure 0.0
achieve 0.0
winner 0.000293263924435
closes 0.0
bother 0.000188915183348
directly 5.44305273524e-05
quality 8.52817596764e-05
tearing 0.0
father 3.7565376677e-05
wishes 8.60016580954e-05
collar 0.0
ground 4.27604247448e-05
matter 0.000601631526924
strategy 0.0
themselves 0.0
asking 0.000314236705336
mobile 0.0
device 0.0
computer 0.000153073294069
impressed 4.99633445285e-05
complain 0.000124626419774
dinner 7.29194235207e-05
suffering 0.0
single 0.000373840750331
parent 6.04134166362e-05
packed 0.0
catching 9.75825083973e-05
neglected 0.0
somewhat 8.15580182735e-05
approved 0.000186939629661
definition 5.42600592258e-05
energy 0.0
meltdown 8.57173806369e-05
events 0.0
europe 4.56374889157e-05
holiday 7.59537118629e-05
status 4.96663738087e-05
update 0.000115495706035
outage 0.0
customers 0.0
holding 7.80574202095e-05
survive 0.000112011903656
electric 0.0
picked 0.00024675104027
missing 0.000105597912486
surprise 7.0589116676e-05
german 0.0
officially 0.0
french 0.0
global 0.0
follow 0.000729756778406
opinion 0.000645012435715
design 0.000149443569683
allows 0.0
promoting 0.0
volunteer 0.0
negative 9.61588065577e-05
official 0.0
brutal 5.74727900129e-05
cotton 0.0
jersey 5.54723621758e-05
mistake 0.000182549955663
fixing 6.57464819018e-05
france 0.0
proper 0.000104882255855
peaceful 0.0
thinks 0.00023099141207
competition 0.0
industry 0.0
easier 0.000178939428872
successful 4.51186632374e-05
trending 5.46018856561e-05
leadership 0.0
agrees 6.47952547032e-05
organized 0.0
enthusiasm 0.000157145551361
turnout 0.0
showed 0.00024881273705
attended 0.0
trumps 7.75197963366e-05
networks 7.27089973826e-05
experienced 0.0
interested 0.000127209265946
effect 0.0
dislike 0.0
success 0.000149040473137
dreams 0.0
protect 4.22848361221e-05
rumors 0.0
arguing 0.000263954641689
referred 0.0
waving 0.0
growth 0.0
control 0.0
happier 0.0
likely 0.000132314971958
coincidence 6.95813899652e-05
cancel 0.0
project 0.0
laying 0.0
lesson 9.18000212808e-05
replacement 0.0
invited 9.28628798319e-05
continuing 6.10345400486e-05
clearance 0.0
treating 0.0
allowing 0.0
arrived 3.98951641523e-05
unable 0.0
opening 3.58719639784e-05
popular 0.000225593316187
followed 4.38563906713e-05
statement 0.0
enjoyed 0.000821851253026
spectacular 6.02089608934e-05
smoothly 0.0
length 0.0
wonder 0.00014310008558
matters 0.0
function 0.00014723276701
shared 0.000135742807977
connection 5.37539046063e-05
benefit 0.000165415402179
terrible 0.000168198407396
continues 8.04521498573e-05
equally 0.0
session 0.0
routine 0.000133951306672
associated 7.36163835052e-05
exciting 3.95675570329e-05
imagination 0.0
decides 0.0
cheering 6.52674217065e-05
spring 4.21670082017e-05
fallen 0.0
beautifully 0.0
places 0.000118052865956
entered 0.0
feedback 6.43297853304e-05
thousands 4.83622933116e-05
properly 0.0
informed 5.80402111921e-05
typical 0.000184365754379
continue 0.000342724833275
attend 0.0
excuse 0.000143396793418
female 0.0
recovery 0.0
closer 0.0
beginning 8.29375790167e-05
introduce 0.0
bought 0.0
multiple 0.000199853378114
slogan 0.0
covered 0.000384843822703
choices 5.34207541247e-05
unpredictable 0.0
enterprise 0.0
several 4.75208359106e-05
surrounded 0.0
dealing 0.000114571618438
teacher 4.92258968519e-05
training 0.0
auditorium 0.0
passing 4.46079129956e-05
become 0.0
presentation 6.69756533362e-05
spread 0.000113003291346
sooooo 0.0
season 0.00047269325785
putting 6.92670271686e-05
weight 5.13340095068e-05
stephanie 0.0
rapidly 0.0
follows 6.12442215325e-05
explained 0.000527558551492
stance 6.38708262325e-05
storms 0.0
headed 8.72193197611e-05
sleepy 8.94717609529e-05
returns 0.0
expected 0.000141735232933
resources 0.0
considering 5.52964097941e-05
fabric 0.0
suspect 0.0
constantly 0.0
condolences 0.0
appreciated 0.000259810338662
register 0.0
manage 6.02089608934e-05
transition 0.0
smooth 6.57464819018e-05
flowers 0.0
gained 0.0
savage 0.0
somebody 0.0
contract 0.000114199775623
furious 7.30086802013e-05
covering 0.000459219882206
boxing 0.0
credit 0.000162690179812
patriots 7.15369070528e-05
player 0.000460320632958
chemistry 0.0
grandkids 0.0
offensive 0.0
charles 0.0
fighting 0.0
atlanta 0.000114199775623
donald 0.0
mexico 4.76595889316e-05
unreal 0.000134961020144
police 4.25217688523e-05
represent 0.0
president 3.66579905544e-05
talking 0.00129017732892
unbelievable 0.0
alabama 0.000150373561564
slowest 0.000132107784795
conference 0.000163592315062
america 7.02086513719e-05
michigan 0.00106365513983
everybody 4.06725449529e-05
judgment 0.0
carolina 0.000242476616967
amount 4.62977735781e-05
houston 0.000337114564316
everyday 0.0
michael 7.45202365686e-05
protecting 0.000117624730839
million 0.000138534054337
election 0.000136521034336
honesty 7.096619631e-05
telling 0.000599412928628
correct 0.000212608844262
pulled 4.9518890232e-05
attack 4.25217688523e-05
americans 0.0
salaries 0.0
killed 3.67575810423e-05
louisville 0.000293797300908
horrible 5.61857607194e-05
coverage 0.0
dallas 0.000326583164115
jacksonville 9.92452103145e-05
league 0.00157699265018
united 8.55208494896e-05
college 0.000206196563825
refuse 0.0
barackobama 0.0
hillary 0.0
clinton 0.0
presidency 0.0
manning 0.0
stupidity 0.000522452629107
american 3.50096213184e-05
remain 0.0
founder 0.0
illegal 0.0
arizona 0.000130534843413
opinions 0.000169645084627
retire 7.33111251125e-05
triumph 0.0
stealing 0.0
speeches 0.0
innocent 0.0
scared 0.0
golden 8.89629159243e-05
straight 3.65587013998e-05
removed 0.0
answers 4.25217688523e-05
product 5.29272855689e-05
created 0.0
snoopdogg 0.0
worlds 6.23132098871e-05
record 0.00024112944792
stamina 0.0
weapon 0.0
funeral 0.0
registered 0.0
minnesota 0.000371177767916
committed 5.19620677324e-05
journey 4.28804067453e-05
disrespect 0.000268415282859
brother 0.000241356449572
prayers 0.0
documentary 0.0
boston 0.000428936300385
addition 0.0
korean 0.0
church 0.000100225687666
advantage 0.0
honestly 0.000423972563959
defeat 0.0
baltimore 0.000764995574604
lifetime 0.0
captain 0.0
retired 0.0
country 0.000102231939422
valley 0.000224743042877
mailbox 0.0
speedy 0.0
ending 8.87109767237e-05
finish 0.000162241426683
employee 0.0
university 0.0
remembered 0.0
nominated 4.9518890232e-05
praying 0.000135471762653
insane 0.000439121287788
national 0.000214070186144
reform 6.52674217065e-05
oregon 0.00022270666075
shooting 4.1239312765e-05
cancer 8.29375790167e-05
australia 0.0
deserve 0.000121345651897
legend 0.000351843641958
mother 0.0
murder 0.0
creating 0.0
powerful 0.0
carson 0.0
palmer 7.96606667088e-05
branch 0.0
breaking 7.09718004492e-05
dollars 0.0
questions 6.76054173761e-05
racist 0.0
charged 0.0
girlfriend 0.0
performance 0.000114553640265
refreshing 0.0
reading 0.000140038485274
corrupt 0.000160062924146
penalty 0.0
writer 0.000149890033585
denver 0.0
create 0.0
admire 6.10345400486e-05
nobody 0.00105166231644
government 4.93720665393e-05
politics 0.000420303754479
comeback 0.0
charities 0.0
method 6.90434264322e-05
sample 7.04052417857e-05
bringing 3.70581789358e-05
celebs 0.0
stadium 5.58271228264e-05
funniest 6.02089608934e-05
according 0.000218663966928
threat 0.0
heroin 0.0
honest 4.1011429623e-05
rolling 0.000297113341392
became 8.247862553e-05
feature 0.0
decision 0.0
counting 0.0
verified 0.0
signing 0.0
adding 0.0
embrace 5.7660842336e-05
pressure 0.0
celebrities 0.0
dearly 0.0
facebook 3.5294558338e-05
divided 0.0
extension 7.27089973826e-05
lawyer 0.0
charleston 0.000192113555933
brazilian 0.0
basketball 0.000189582610459
campaign 3.82888871945e-05
determine 0.0
whether 0.0
praise 5.6005951828e-05
factory 0.0
arrested 0.0
investments 0.0
activity 0.0
comments 0.000201130374643
wounded 0.0
endorsement 0.0
williams 0.000157807144569
future 3.39855227574e-05
struggled 0.0
blessed 0.0
sabotage 0.0
warrior 7.01283199687e-05
softball 0.0
cheating 0.0
voting 0.0
instincts 0.0
collins 7.45495755066e-05
succeed 6.18814268078e-05
commercial 4.5247602659e-05
religion 0.0
boring 5.70998878117e-05
acting 0.000188980310578
established 0.0
warriors 0.000135986511026
because 4.75208359106e-05
sensitive 0.000138086852864
smiling 0.000174694659236
traitor 0.0
cleveland 0.000585274400786
agents 0.0
periscope 0.0
killing 0.000126148805547
choosing 0.0
phillips 0.0
instagram 4.57684872556e-05
opponent 0.0
detroit 0.000122488443065
cousin 0.0
honored 4.57684872556e-05
nonsense 0.000986682356571
dedication 0.0
hammer 0.0
proven 7.096619631e-05
talent 8.79609104894e-05
governors 0.0
knocking 0.0
russian 0.0
consecutive 8.11696700656e-05
skills 4.57684872556e-05
citizens 0.0
cameras 6.6232639543e-05
phones 0.0
california 0.0
commitment 0.0
maryland 0.0029044314605
seconds 0.000132314971958
placed 0.0
listen 0.000545237010249
dominating 0.0
whatever 0.00147706655411
wherever 0.000189582610459
fought 0.000106841508249
compete 6.18814268078e-05
lauderdale 0.0
injured 0.000175272051635
billion 9.44901552888e-05
shoutout 0.0
depressing 6.95813899652e-05
guilty 0.0
carpet 0.0
harvard 0.0
absolute 0.0
handle 0.000129002487143
promise 0.000117407321861
hosting 0.000129729022704
longest 5.86176168325e-05
generation 0.0
criminal 0.0
tuesday 3.74633080392e-05
garbage 0.000356251554951
goldman 0.0
ronald 0.0
locker 0.000221773524647
leader 0.0
desperately 0.0
character 0.0
chancellor 0.0
proving 0.0
jackson 0.0
interview 6.70607662739e-05
buffalo 0.0
insight 5.86176168325e-05
obviously 0.000324084415047
battle 7.6577774389e-05
destroy 0.000114571618438
killer 5.0112843833e-05
personally 4.76595889316e-05
relentless 0.000178943521906
winning 0.000492790258269
charlotte 0.0
trafficking 0.0
defense 0.000582200141258
japanese 0.0
causing 0.0
arabia 0.0
rapist 0.0
writing 0.000190922733775
society 0.0
officers 0.0
ambushed 0.0
sources 5.67311756115e-05
kentucky 0.000155734097367
incredible 7.11639823761e-05
ungrateful 0.0
kissing 0.0
minute 0.000222953959631
luther 0.0
foreign 0.0
phoenix 0.0
champions 0.0
virginia 6.57464819018e-05
streak 0.0
orange 4.93720665393e-05
policy 0.0
intentional 0.00018630178928
reminder 0.0
evidence 0.0
presidents 6.93113058021e-05
judged 0.0
accused 0.0
intentions 0.0
facing 5.42600592258e-05
freedom 4.59000106404e-05
actions 5.6005951828e-05
debating 0.0
consequence 9.66701610698e-05
coughing 0.0
clearly 0.000292712292988
invite 4.67004171643e-05
central 0.0
washington 0.000218048299403
tougher 0.000318642666835
veteran 6.47952547032e-05
division 0.000242476616967
overrated 0.0
veterans 0.0
stronger 0.0
bowden 0.0
promised 0.0
catches 0.0
worried 0.000190638355727
security 0.0
sanctuary 0.0
reverse 0.0
immediately 9.20641265915e-05
television 5.80402111921e-05
entitled 7.15369070528e-05
racism 0.0
highest 0.000186262611792
approve 0.0
turning 4.1239312765e-05
georgia 0.0
tennessee 0.0
legacy 5.22806628619e-05
leaked 0.0
choked 0.0
helping 3.62626238371e-05
tickets 3.98951641523e-05
suspending 0.0
suspend 0.0
willing 0.000150338531499
december 0.0
beating 0.000224743042877
basically 0.000192317613115
return 7.29194235207e-05
escape 0.0
locked 0.000221889448703
unacceptable 0.0
network 0.000644448886141
language 9.23292989973e-05
invest 0.0
creation 0.0
followers 0.000127922639515
schools 0.000140507211333
menace 0.0
movies 0.000197488266157
entity 0.0
children 7.25252476743e-05
nation 0.000124406368525
flexible 0.0
review 0.0
knowledge 4.68357371111e-05
begins 0.0
vanessa 0.0
forbes 0.0
parade 0.000304130949424
fireworks 0.0
shoulder 0.0
produced 0.0
consider 8.74655867711e-05
latest 0.0
signed 0.0
shower 0.0
thunder 7.78670486836e-05
charity 4.60320632958e-05
germany 0.0
advance 0.000143816602675
explaining 0.000113830027709
millions 0.0
blessings 0.0
diamond 0.0
dollar 0.000110944724352
monsters 0.0
rigged 0.0
conduct 0.0
cooked 7.78670486836e-05
turned 3.61645219985e-05
criticism 6.12442215325e-05
responded 7.12503109902e-05
depending 0.0
jackie 0.0
charge 0.000684562333735
ticket 0.000132690001446
finest 6.50304889763e-05
sanders 0.0
includes 0.0
dealers 0.0
against 7.27089973826e-05
benjamin 0.0
impact 8.8209981305e-05
families 0.0
selection 0.000188252250731
hitting 4.39804552447e-05
announced 0.0
decided 0.000157836309845
professor 6.23132098871e-05
itself 0.0
promote 5.30909519459e-05
mexican 0.0
owners 0.0
guards 0.0
guarantee 0.0
beliefs 0.0
citizen 0.0
states 0.000166336529905
memorial 0.0
decades 0.0
landed 0.0
ultimate 0.0
mcdonald 0.0
twenty 0.00014250062198
hispanics 0.0
financial 0.0
payments 0.0
grabbing 0.0
permit 0.0
shield 0.0
disney 0.0
kansas 0.000197965981267
agreement 0.0
source 9.25955471562e-05
dismiss 8.94717609529e-05
talents 0.0
homework 0.0
expectations 0.0
joining 3.8815624677e-05
eugene 0.0
reasons 0.000153574241836
talked 8.29375790167e-05
released 0.0
reaching 0.0
release 3.61645219985e-05
promoter 0.0
circumstances 0.0
scheme 7.21177193934e-05
warwick 0.0
highlight 0.000416967829208
within 0.0
stacked 0.0
speech 0.000197837785165
standing 0.0
higher 0.00022115000241
justice 4.43554883619e-05
served 0.0
speaks 0.0
navarro 0.0
dropped 4.06725449529e-05
consideration 0.0
predicted 0.000127741652465
strength 9.12749778314e-05
andrew 0.0
replace 0.0
incredibly 4.65656529479e-05
private 0.0
integrity 0.0
sanford 0.0
ignored 6.29717277828e-05
neighbors 0.0
affection 0.0
minimum 6.79932555131e-05
direction 0.0
enemies 0.0
exclusive 0.0
prison 0.0
himself 5.29272855689e-05
investigation 6.08261898847e-05
disgusting 0.0
congratulate 0.000159321333418
philly 6.16676472857e-05
rights 0.0
replaced 0.0
recognition 0.0
maintain 0.0
tallahassee 0.0
handed 0.0
victory 0.000141324187986
classy 0.000131492963804
lifted 0.0
terrorist 0.0
productive 0.0
tribute 0.0
threatened 0.0
insecure 0.0
horror 0.0
discovery 0.0
convention 0.0
understanding 9.50416718213e-05
action 0.000141560359276
figures 5.61857607194e-05
having 6.18814268078e-05
marine 0.0
announces 0.0
wallace 0.0
speaker 0.0
stevens 0.0
cybersecurity 0.0
apologize 0.0
continued 0.000169645084627
journalist 5.88123654194e-05
libelous 0.0
formation 0.0
letter 8.13450899058e-05
discussed 0.000235249461677
therapy 0.0
widespread 0.0
untrue 0.0
written 4.02260749287e-05
conferences 0.000153672249859
results 0.000129365084686
papers 0.0
winter 0.000133823738987
marching 0.0
sessions 0.0
democrats 0.0
eastern 0.000118807286817
scientist 0.0
represented 0.0
waters 0.0
journal 0.0
foundation 0.0
access 4.05603566707e-05
analysis 0.0
writes 0.0
colorado 7.27089973826e-05
medical 0.0
tremendous 0.000311566049435
nytimes 0.0
public 0.000153155548778
cheaters 0.0
cannot 0.0
reveals 0.0
immunity 0.0
threatens 0.0
candidate 0.0
brilliant 0.000283139854425
wisconsin 0.000917994689525
studies 0.0
measure 6.04134166362e-05
compared 0.000113830027709
donors 0.0
graham 0.0
incorrect 8.00314620729e-05
headline 0.000154939608195
careers 0.0
answering 4.96663738087e-05
streaming 0.0
leaders 0.0
supreme 0.0
nominee 0.0
gorsuch 0.0
protest 0.0
immigration 0.0
policies 0.0
administration 0.0
defend 0.000161765270527
excitement 0.0
funding 0.0
surveillance 0.0
transfer 0.0
conspiracy 0.0
horrifying 0.000162339340131
formed 0.0
interviews 4.4734857218e-05
retreat 0.0
alliance 0.0
platform 0.0
editing 0.0
february 0.0
association 0.0
airwaves 0.0
hamilton 0.0
futures 0.0
borders 0.0
border 0.0
uranium 0.0
misleading 0.0
january 4.56374889157e-05
topics 0.00021635315818
unprecedented 0.0
airplane 7.82180150299e-05
tragic 0.0
philadelphia 0.0
funded 0.000121652379769
secure 0.0
income 0.0
hurricane 6.98537155163e-05
breakdown 0.0
countries 0.0
linked 0.0
broadcast 0.000163291582057
african 0.0
triple 6.02089608934e-05
provide 0.0
enhance 0.0
development 5.69150138547e-05
companies 0.0
discussions 7.33111251125e-05
developing 0.0
proposal 0.0
potential 0.0
moderator 0.0
suggestion 0.0
attending 6.08261898847e-05
filled 0.0
schultz 0.0
education 0.0
sickness 0.0
mentioned 0.000145513974408
exists 6.12442215325e-05
henderson 9.48633722476e-05
plants 0.0
orders 0.0
officials 0.0
strategic 0.0
ability 9.58777351168e-05
political 9.44901552888e-05
director 0.0
behaving 0.000215175827762
deficits 0.0
sufficient 9.66701610698e-05
prevent 0.0
shoddy 0.0
capacity 0.0
donations 0.0
editors 0.0
discussing 0.0
persistent 0.0
treatment 5.1646536065e-05
establishment 0.0
protects 8.84921347559e-05
critical 0.000157323383783
ambassador 0.0
preparing 5.51213958295e-05
capable 0.000135471762653
bishop 0.0
producers 0.0
bombed 0.0
weekly 0.000113830027709
becoming 0.0
magazine 0.0
lawyers 0.0
summary 0.0
standard 0.0
controlled 0.0
hiring 0.0
defending 0.000112733120597
pushes 0.0
admitted 0.0
failed 4.89354963675e-05
independent 0.0
copies 0.0
politically 7.27089973826e-05
driven 0.0
agenda 0.000237614573634
blocked 5.56492630925e-05
result 0.000190083343643
announcing 0.0
destruction 0.0
culture 0.0
insider 0.0
traitors 0.0
prince 0.000191195724557
solutions 0.0
indiana 0.000527909283378
mongering 0.0
claims 0.0
editorial 0.0
prospects 0.0
mistakes 0.0
offered 0.0
founded 0.0
ignorance 0.0
inspiring 0.0
majority 0.000165889229382
embarrassing 5.92053646145e-05
creators 0.0
server 0.0
berniesanders 0.0
spotlight 6.74805100722e-05
readout 0.0
tactics 0.0
irrelevant 0.000155039592673
massive 4.18160418554e-05
receiving 0.0
promising 0.0
promises 0.0
consequences 0.0
production 0.0
proposals 0.0
elsewhere 0.0
bernie 0.0
hacking 0.0
guests 0.000154939608195
interviewed 0.0
secretary 0.0
rebuttal 0.0
reduce 5.96031275522e-05
arriving 0.0
dangerous 0.000176920001928
shutting 0.0
arrival 0.0
canceled 0.0
typically 0.000245853052406
saving 0.0
pioneer 0.0
incident 0.000135986511026
ordering 0.0
victims 4.77989311392e-05
raises 0.0
receive 0.0
reputation 0.0
intention 7.92940143963e-05
commentary 0.0
disclosure 0.0
terrific 5.80402111921e-05
berkeley 0.0
melbourne 0.0
received 0.0
correctly 0.000131977320844
inherited 0.0
displayed 0.0
joseph 0.0
offices 6.82526642994e-05
necessary 5.07177465018e-05
largely 0.0
inaccurate 0.0
debate 8.48061772971e-05
conflict 0.0
interest 4.62977735781e-05
controversy 0.0
stated 0.0
rating 7.01283199687e-05
nominate 0.0
outstanding 0.0
devastating 0.0
accurate 0.000159766316128
southeastern 0.0
romney 0.0
scotland 0.0
delayed 6.50304889763e-05
rarely 6.00057711384e-05
abroad 0.0
winners 0.000348877279045
profit 0.0
reviews 0.0
republican 0.0
presidential 0.0
candidates 0.0
politicians 0.0
epidemic 0.0
greater 5.37539046063e-05
booths 0.0
arnold 0.0
principles 0.0
deadline 5.30909519459e-05
speakers 0.0
incoming 0.0
various 0.0
nuclear 0.0
danger 0.0
leading 8.36320837108e-05
restored 0.0
conditions 0.0
however 0.000156841988586
resolution 0.0
remained 0.0
member 7.7419197211e-05
examples 0.000210384959906
employ 0.0
courses 0.0
largest 0.0
hallmark 0.0
mentor 0.0
increase 0.0
transcript 0.0
disrupt 0.0
provided 6.77358813265e-05
binding 0.0
decreased 0.0
revival 0.0
crashing 0.0
reception 0.0
rising 0.0
primary 0.0
reduction 0.0
surrogate 0.0
provides 0.000129123389419
environment 0.0
revealed 0.0
confirmed 0.0
controls 0.0
behavior 0.000323976273516
introduced 0.0
carbon 0.0
communities 0.0
region 6.77358813265e-05
deaths 0.0
responsible 5.37539046063e-05
household 0.0
munich 0.0
canada 4.38563906713e-05
regions 0.0
movement 0.0
midwest 0.0
segment 0.00111769019233
emerged 0.0
hundreds 0.0
information 0.000133823738987
combined 6.12442215325e-05
easily 9.70093162722e-05
towards 4.79388675584e-05
inform 0.0
mathematically 0.0
october 0.0
investigating 0.0
predators 0.000106735527241
innovation 0.0
perspective 0.000145942929866
cities 4.93720665393e-05
todays 0.0
julian 0.0
eliminated 0.0
interests 6.20966081727e-05
toledo 0.0
extraordinary 0.0
eradicate 0.0
retains 0.0
ashamed 0.0
meetings 0.0
describing 0.0
eliminate 0.0
obligation 0.0
gender 0.0
committee 0.000269608784211
wasting 0.0
numerous 0.0
examination 0.0
inflammatory 0.0
practices 0.0
management 0.0
nordstrom 0.0
genius 0.0
warren 0.0
traveling 6.20966081727e-05
billions 0.0
prepared 4.98145232277e-05
fraction 0.0
equipment 0.0
procedures 0.0
rasmussen 0.0
county 0.0
developer 0.0
anthony 0.000120011542277
shadow 0.0
district 0.0
considered 0.0
lobbyist 0.0
chosen 6.20966081727e-05
hospitalized 0.0
outright 0.00027945268392
yorkers 0.0
naming 7.78670486836e-05
conventions 0.0
deficit 0.0
interventions 0.0
focusing 0.0
sensible 0.0
hosted 5.6005951828e-05
batman 0.0
column 0.000107507809213
upcoming 0.0
positions 6.95813899652e-05
favors 0.0
regulation 0.0
distributed 0.0
weakness 0.0
introduction 0.0
western 5.88123654194e-05
pacific 0.0
larger 0.000130060977953
increases 0.0
effective 0.0
situations 7.96606667088e-05
harbor 0.0
wealth 0.0
underway 0.0
israel 0.0
hysteria 0.0
overwhelming 0.000209561146549
protection 0.0
prisoners 0.0
guidance 0.0
montana 8.48422610269e-05
determination 0.0
restore 0.0
acquire 9.54546502367e-05
additional 0.0
exception 0.0
machine 0.0
honoring 6.85141401097e-05
visually 0.0
contrary 0.0
immediate 6.85141401097e-05
politico 0.0
ignoring 0.0
judges 0.0
federal 0.0
constant 0.0
philippines 0.0
nicely 6.29717277828e-05
september 0.0
manchester 0.0
fiction 6.59886604222e-05
priest 0.0
angela 0.0
process 0.0
destructive 0.0
genuine 0.0
surreal 0.0
whitehouse 0.0
flotus 0.0
crisis 0.0
judgement 7.78670486836e-05
confidence 0.0
voters 0.0
diamondandsilk 0.0
oldest 0.0
inauguration 0.0
gracious 0.0
scream 6.93113058021e-05
postponed 0.0
disappoint 0.0
believing 0.0
hillaryclinton 0.0
electoral 0.0
crashed 0.0
citizenship 0.0
closed 0.0
religious 0.0
apprentice 0.0
conservative 0.000122069080097
economists 0.0
buzzfeed 0.0
puppet 0.0
sweden 0.0
andersoncooper 0.0
treats 0.0
qualified 0.0
missouri 0.0
cooper 0.0
debates 6.52674217065e-05
endorsements 0.0
strike 5.05654722584e-05
shouting 0.0
empire 6.27507502435e-05
encouraged 0.0
regard 8.80130745606e-05
concerning 0.0
misinformed 0.0
disregard 0.0
barack 0.0
joined 0.0
terrorism 0.0
pushing 0.000105204763046
cracking 0.0
muhammad 0.0
refused 0.0
amazingly 0.0
express 0.0
gratitude 0.0
congratulation 0.0
throughout 0.000104241957302
shining 0.000132956892479
fighter 0.0
anticipated 0.0
presented 0.0
reveal 0.0
stands 0.0
native 0.0
harvey 0.0
featured 0.0
announce 0.0
surround 0.0
although 0.000107173813168
senior 5.14899007291e-05
todayshow 0.0
convincingly 0.0
haters 0.0
returning 0.0
laughs 0.0
touched 0.0
corruption 0.0
violence 0.0
runnin 0.0
delivered 5.34207541247e-05
owning 8.75409075573e-05
legendary 0.000315614289137
stabbing 0.0
independence 0.0
approval 6.67261080988e-05
magical 0.0
alongside 0.0
percent 6.06191542416e-05
spiral 0.0
differently 0.0
sweeping 0.0
spoiler 0.0
theirs 0.000192113555933
offering 0.0
remembering 0.0
floated 0.0
professionals 0.0
construction 0.0
searching 0.0
flexibility 9.66701610698e-05
sinking 9.92452103145e-05
detail 6.04134166362e-05
document 0.0
cabinet 0.0
pleased 0.0
carrying 6.10345400486e-05
statements 6.98537155163e-05
decade 0.000308004057041
prague 0.0
crossing 0.0
bigotry 0.000277798105111
happily 0.0
therefore 0.0
belong 0.0
customs 0.0
trillion 0.0
backed 0.0
electricity 0.0
observing 0.0
russell 0.000126388406973
engineers 0.0
operations 0.0
values 6.00057711384e-05
senator 0.0
confirms 0.0
removing 0.0
payment 0.0
consistently 0.0
posing 0.0
everett 0.0
wondered 6.3418197807e-05
generic 0.0
fields 7.12503109902e-05
mining 0.0
newspaper 0.0
detailed 0.0
rainbow 0.0
childcare 0.0
unlimited 0.0
exploded 0.0
thoroughly 0.0
adviser 0.0
leaves 9.53191778633e-05
matthew 6.27507502435e-05
intersection 0.0
affected 0.0
newspapers 0.0
corporate 6.95813899652e-05
economy 0.0
explores 0.0
spoken 0.0
during 0.0
credible 0.0
competitive 6.59886604222e-05
carefully 0.0
returned 0.0
blasts 0.0
guarding 0.0
hornet 0.0
successfully 0.0
southern 0.00017354993562
dakota 0.0
belief 0.00042724178034
messenger 0.0
heroes 0.0
russians 0.0
intelligence 0.0
deepest 7.58366048e-05
graduates 0.0
describe 4.76595889316e-05
hollywood 4.83622933116e-05
reclaim 0.0
equality 0.0
announcement 0.0
interfere 0.0
interrupted 0.0
nationwide 0.0
questionable 0.0
garden 0.0
survey 6.29717277828e-05
journalists 0.0
delighted 0.0
minister 0.0
golfer 0.0
capital 0.0
penguins 0.0
regarding 0.0
teachers 0.0
devastated 0.0
phrase 6.16676472857e-05
immigrants 0.0
aliens 0.0
subjects 0.0
revolution 0.0
median 0.0
twelve 0.0
releases 0.0
accomplish 0.0
debbie 0.0
sebastian 0.0
briefing 0.0
advisor 0.0
commission 0.0
deadlines 0.0
hereby 0.0
invitation 0.0
alternatives 0.0
villages 0.0
accepted 0.0
commentators 0.0
depression 7.12503109902e-05
comprehensive 0.0
committees 9.85822576542e-05
pushed 0.0
statistic 0.0
donation 0.0
electronic 0.0
nomination 0.0
britain 0.0
questioning 0.0
attempt 4.68357371111e-05
investment 0.0
terror 0.0
homeland 0.0
polish 0.0
switzerland 0.0
represents 0.0
announcer 0.0
churchill 0.0
ambassadors 0.0
anchors 0.000116457502018
endorse 7.12503109902e-05
urgent 0.0
forced 0.0
expenses 0.0
preparations 0.0
string 0.000151020168579
morocco 0.0
thrill 0.0
watchdog 0.0
agencies 0.0
scrutiny 0.000174150876369
glorious 0.0
approaching 0.0
tragedy 0.0
handled 0.00024121948557
offers 5.24411279277e-05
requested 0.0
improvements 0.0
destroying 0.0
inexpensive 0.0
opposition 0.0
smithsonian 0.0
addiction 0.0
challenged 0.0
manhattan 0.0
richmond 0.0
forces 0.0
nations 0.0
anderson 0.0
builds 0.0
sexist 0.0
narrative 0.00043095616934
application 0.0
cannon 0.0
ethical 0.0
representation 0.0
obvious 0.000111298526185
statistics 0.0
military 0.0
housing 0.0
wonderfully 0.0
miller 5.94036434085e-05
copying 0.0
advised 0.0
ordered 9.67245866233e-05
unions 0.0
useless 0.0
alicia 0.0
economic 0.0
radical 0.0
planted 0.0
theories 0.0
conceived 0.0
readers 0.0
bombing 0.0
products 0.0
phenomena 0.0
classroom 0.0
classified 0.0
purely 0.0
hacked 0.0
taxpayers 0.0
opposed 0.000197239445705
pressing 0.0
russia 0.0
abraham 0.0
lincoln 0.0
observer 0.0
intelligent 0.0
lawsuit 0.0
detective 0.0
magnificent 0.0
heritage 0.0
beloved 0.00014193239262
dignity 0.0
priorities 0.0
repealing 0.0
murdoch 0.0
coalition 0.0
theresa 0.0
charges 0.0
activists 0.0
elected 0.0
relief 0.0
congratulates 0.0
pledge 0.0
elections 0.0
landslide 0.0
council 0.0
imperative 0.0
catastrophic 9.09983171535e-05
douglas 0.0
brexit 0.0
democracy 0.0
disastrous 0.0
rebuild 0.0
pundits 0.0
nickname 0.0
poison 8.15580182735e-05
interfering 0.0
negotiations 0.0
summit 0.0
dossier 0.0
unleash 0.0
negotiation 0.0
sticking 0.0
openly 7.85727756805e-05
embarrassed 0.0
ireland 0.0
attacks 0.0
remarks 0.0
democratic 0.0
outgoing 0.0
maureen 0.0
treasury 0.0
refugees 0.0
snatch 0.0
morgan 0.0
grieve 0.0
vicious 0.0
essentially 0.0
restoring 0.0
extended 0.0
referendum 0.0
ovation 0.0
bankrupt 0.0
proudly 7.82180150299e-05
oppose 0.0
refusal 0.0
urging 0.0
strengthen 0.0
deliver 0.0
negotiating 0.0
remaining 6.74805100722e-05
merkel 0.0
repeal 0.0
formal 0.0
reckless 0.0
prosperous 0.0
servant 0.0
desperate 0.00031265625413
secretaries 0.0
formally 0.0
breach 9.1523369004e-05
gloomy 0.0
outlines 0.0
concessions 0.0
executive 0.0
extend 0.0
republicans 0.0
terrorists 0.0
weapons 0.0
bodyguards 0.0
outrage 7.21177193934e-05
representative 0.0
prevail 0.0
searched 0.0
policemen 0.0
islamic 0.0
islamist 0.0
ingrained 0.0
humbled 0.0
courage 5.42600592258e-05
chamber 0.0
commander 0.0
formula 0.0
brigade 0.0
respecting 0.0
lectured 0.000130333566735
devices 0.0
enormous 0.0
verdict 0.0
refusing 0.0
energies 0.0
carried 0.0
behalf 0.0
tariff 0.0
amendment 0.0
nightmare 0.0
employment 0.0
legislation 0.0
referring 0.0
scrapping 0.0
handling 0.0
goodies 0.0
proves 0.0
prominently 0.0
crackdown 0.0
unfair 0.0
fiscal 0.0
humiliating 0.0
strongly 0.0
vision 0.0
resignation 0.0
confirmation 0.0
records 9.96290464555e-05
disabled 0.0
quoting 0.000157145551361
reductions 0.0
deeply 5.30909519459e-05
commerce 0.0
accumulation 0.0
overplaying 0.0
refugee 0.0
conway 0.0
exposed 0.0
netanyahu 0.0
israeli 0.0
priority 0.0
strongest 0.0
freedoms 0.0
treaties 0.0
empowering 0.0
laughter 6.67261080988e-05
syrian 0.0
uphold 0.0
praising 9.60567779666e-05
renewal 0.0
penned 0.0
condemns 0.0
realdonaldtrump 0.0
goodwill 0.0
attorney 0.0
settled 0.0
chairman 0.0
capability 0.0
firing 7.096619631e-05
seanspicer 0.0
inaugural 0.0
carnage 0.000108463033491
optimism 0.0
rulers 0.0
clintons 0.0
melania 0.0
bikers 0.0
handing 8.15580182735e-05
intended 6.95813899652e-05
optimistic 0.000143652056447
campaigned 0.0
finance 0.0
allies 0.0
compromised 0.0
governor 6.87777161499e-05
bosses 0.0
attempts 0.000193685084129
irresponsible 0.0
incidents 9.09983171535e-05
merely 0.0
documents 0.0
tariffs 0.0
purpose 0.000100526054694
architect 0.0
arlene 0.0
resign 0.0
reuters 0.0
mainstream 7.39245082157e-05
dozens 0.0
donnell 0.0
clarified 0.0
gathering 0.0
crimes 0.0
vulnerable 0.0
commentator 0.0
overwhelmingly 0.00010509443326
respectful 8.80130745606e-05
markets 0.0
inspector 0.0
nigel_farage 0.0
drudge 0.0
abused 0.0
infrastructure 0.0
projected 9.31508946399e-05
boards 0.0
allegations 0.0
bloomberg 0.0
insulting 0.00016882660028
leaking 0.0
liberal 0.000368731508758
chairs 0.0
podium 0.0
conceded 0.0
capitol 0.0
consulting 0.0
wannabe 0.0
powell 0.0
reforms 0.0
technical 0.0
securing 0.0
steven 6.6232639543e-05
rumsfeld 0.0
businesses 0.0
balancing 0.0
socialist 0.0
complaints 0.0
politician 0.0
representatives 0.0
rallies 0.0
belittle 0.0
ballot 6.85141401097e-05
failing 5.88123654194e-05
refuses 7.01283199687e-05
conclude 0.0
vibrant 0.0
tarmac 0.0
spinning 0.0
appointments 0.0
farewell 0.0
opponents 0.000285001243961
unopposed 0.0
polling 0.0
prosperity 0.0
apology 6.18814268078e-05
outline 0.0
losers 0.0
battlefield 0.0
abandoned 0.0
endorsed 0.0
negotiate 0.0
negotiated 0.00011123778761
unwilling 0.0
appointed 0.0
slaughter 0.0
betray 0.0
donated 0.0
immigrant 0.0
prosecuted 0.0
criminals 0.0
elizabethforma 0.0
protesting 0.0
releasing 0.0
screening 0.0
sponsor 0.0
pocketbook 0.0
transparency 0.0
austin 6.14552514596e-05
obamacare 0.0
acceptable 0.0
schwarzenegger 0.0
congressman 0.0
profits 0.0
toward 0.0
fleeing 0.0
bravery 8.35718427388e-05
protests 0.0
recieved 0.0
violent 0.0
remarkably 0.0
senators 0.0
ratings 0.000910426845668
spouses 0.0
fundraiser 0.0
senate 0.0
louisiana 0.0
giuliani 0.0
venezuela 0.0
parenthood 0.0
organizations 0.0
generations 0.0
minorities 0.0
underestimate 0.0
terrified 0.0
discourse 0.0
pennsylvania 0.0
hackers 0.0
nbcnews 0.0
mccain 0.0
scandal 0.0
constitution 0.0
sensanders 0.0
abandon 0.0
explode 0.0
reopening 0.0
governments 0.0
competent 0.0
mike_pence 0.0
stinks 0.000587594601816
logical 0.0
accurately 0.0
righteous 0.0
thursdays 0.0
fitting 0.0
category 0.000126388406973
swearing 0.0
politifact 0.0
abolish 0.0
surging 0.0
murders 0.0
reagan 0.0
vetting 0.0
vetted 0.0
pouring 0.00023465404509
fraudulent 0.0
ballots 0.0
fading 0.0
speakerryan 0.0
civilized 0.0
commercials 0.0
luxurious 0.0
outraged 0.0
nypost 0.0
statute 0.0
enforcement 0.0
accountability 0.0
truthful 0.0
springfield 0.0
cancelled 0.000186939629661
conflicts 0.0
suffer 0.0
selfishly 0.0
educational 0.0
stolen 0.0
visionary 0.0
wounds 0.0
disgraceful 0.0
hatred 0.0
persuasion 0.0
exposing 0.0
teaches 0.0
sellers 0.0
refers 0.0
trusted 0.0
sheriff 0.0
samsung 0.0
ranking 0.000167979748773
undecided 0.0
nebraska 0.000199843666121
abusive 0.0
abuser 0.0
nashville 0.000214610721158
lightweight 0.0
victories 0.0
consumer 0.0
violation 0.0
sarcasm 0.000348301752738
freaky 0.0001035315169
jimmyfallon 0.0
outlets 0.0
vanityfair 0.0
harassed 0.0
leverage 0.0
sacred 0.000172327701322
horrific 0.000136505328599
contribute 0.0
indicted 0.0
chooses 0.0
defended 8.66164790866e-05
champion 0.000104561325724
waited 0.0
denmark 0.0
conviction 0.0
retail 0.0
distract 0.0
globes 0.0
endorsing 0.0
pathetic 0.000152332813958
purposely 0.0
expose 8.52769036801e-05
representing 0.0
mmflint 0.0
registration 0.0
acceptance 0.0
defeated 0.0
prosecutor 0.0
nbcsnl 0.0
nevada 8.80130745606e-05
illinois 0.000626302326671
massachusetts 0.0
spontaneous 0.0
entrepreneur 0.0
arkansas 0.0
hotels 0.0
exhausted 0.0
puppets 0.0
protesters 0.0
natalie 0.0
anaheim 0.0
nominating 0.0
vietnam 0.0
claimed 7.06845204125e-05
indianapolis 0.0
loudly 0.0
sarasota 0.0
rapids 0.0
oklahoma 0.000226530252868
devoted 0.0
sacramento 0.0
arranged 0.0
baldwin 0.0
crushed 0.000267902613345
reflects 0.0
replacing 0.0
louder 0.0
flashback 0.0
farmers 0.0
unleashed 0.0
tourists 0.0
steals 0.0
albany 0.000113227187035
devastation 0.0
meantime 0.0
donlemon 0.0
wilbur 0.0
finalists 0.0
ransom 0.0
normmacdonald 0.0
vanishing 0.0
clarence 0.0
jaketapper 0.0
clowns 0.000281135547492
elizabeth 0.0
microphone 0.0
machines 0.0
premium 0.0
championships 0.0
impersonation 0.000114269021858
horribly 9.09983171535e-05
stakes 8.15580182735e-05
mouthed 0.0
reservation 0.0
delaware 0.0
springs 0.0
columbus 7.68361249295e-05
slackers 0.0
toyota 0.0
chucktodd 0.0
correspondents 0.0
soldier 0.00015643603006
panels 0.0
broadcasting 0.00014973326301
sparks 0.0
warned 6.6232639543e-05
jclayfield 0.0
kellogg 0.0
anchor 0.000352052298242
heated 0.0
congressional 0.0
boeing 0.0
usatoday 0.0
endlessly 0.0
craziest 0.0
viewers 0.0
delivers 0.0
pittsburgh 8.07858640462e-05
marshal 0.0
reverend 0.0
lifelong 0.0
disdain 0.000106735527241
hispanic 0.0
defrauded 0.0
oppression 0.0
crowds 0.0
washingtonpost 0.0
affordable 0.0
tapping 0.0
ginsburg 0.0
reilly 0.0
illegally 0.0
shootings 0.0
destiny 0.0
serenawilliams 0.0
motors 0.0
redding 0.0
initially 8.84921347559e-05
travis 8.61638506612e-05
accomplishments 0.0
misconduct 0.0
mocked 0.000106735527241
disgrace 8.23487804063e-05
greeley 0.0
carmel 0.0
outcry 0.0
playbook 0.0
zealand 0.0
fearless 0.0
lining 0.0
sidekick 0.0
madame 0.0
grandstand 0.0
rochester 0.0
speechless 0.0
fletcher 0.0
begged 0.0
wintour 0.0
inspires 0.0
carlos 0.0
missiles 0.0
chelsea 0.0
oppressive 0.0
forgiven 0.0
killings 0.0
taiwan 0.0
somalia 0.0
burning 0.0
subscribers 0.0
chester 0.0
newtown 0.0
booker 9.99218330607e-05
heights 0.0
leicester 0.0
chiefs 0.000249477208471
joenbc 0.0
opioid 0.0
separately 0.0
intros 0.0
columnist 0.0
manages 0.0
financed 0.0
mnuchin 0.0
delegate 0.0
vicente 0.0
struck 0.000199435338719
trudeau 0.0
oreillyfactor 0.0
vulgarian 0.0
publicity 0.0
amnesty 0.0
ivankatrump 0.0
communism 0.0
linkedin 0.0
avoided 8.48422610269e-05
sophisticated 0.0
seanhannity 0.0
anncoulter 0.0
foolish 0.0
catholics 0.0
bogged 0.0
catholic 0.0
thriving 0.000104303671128
newtgingrich 0.0
abedin 0.0
secretly 0.0
undermines 0.0
americanism 0.0
christians 0.0
rationally 0.0
deplorable 0.0
wikileaks 0.0
execution 0.0
enduring 0.0
foxandfriends 0.0
losses 0.000828521117187
kevcirilli 0.0
staffers 0.0
barron 0.0
jihadis 0.0
hampshire 0.0
pandering 0.0
donaldjtrumpjr 0.0
moines 0.0
lobbying 0.0
careless 0.0
piersmorgan 0.0
palestinian 0.0
kellyanne 0.0
democrat 0.0
unfunny 0.0
condemned 0.0
despair 8.44133001398e-05
louvre 0.0
crooked 0.000112217413807
lynden 0.0
outperform 0.0
tedcruz 0.0
majors 0.000210188866521
schumer 0.0
credibility 8.35718427388e-05
flooding 0.0
hannity 0.0
beneficiary 0.0
sanctions 0.0
nominates 0.0
existent 0.0
criticized 9.60567779666e-05
senatemajldr 0.0
workforce 0.0
issued 0.0
outsider 0.0
declare 0.0
ivanka 0.0
dignified 0.0
threaten 0.0
outcomes 0.0
ukraine 0.0
justintrudeau 0.0
vladimir 0.0
businessman 0.0
regards 0.0
assange 0.0
malicious 0.0
garners 0.0
ethics 0.0
wrecked 0.0
regimes 0.0
incorrectly 0.0
hostile 0.000166318138981
defenders 0.0
deceived 0.0
hypocritical 0.0
favorably 0.0
shatter 0.0
changer 0.0
spokane 0.0
unnecessary 8.31590694903e-05
cwaunion 0.0
expand 0.0
apologized 0.000211809444689
criticizing 0.000105904722344
legion 0.0
hershey 0.0
intensity 0.000101318428535
tigerwoods 0.0
amercan 0.0
reince 0.0
chriscjackson 0.0
hypocrites 0.0
billkristol 0.0
govmikehuckabee 0.0
dustin 0.0
bullied 0.0
anonymous 0.000144235438787
yankees 0.0
thehill 0.0
infiltrated 0.0
somali 0.0
invention 0.0
frontrunner 0.0
patriot 0.0
poorly 0.000149099151013
prisonplanet 0.0
daytona 0.0
comparable 0.0
shouted 0.0
holocaust 0.0
kellyannepolls 0.0
foxnews 0.0
initiated 0.0
tiffany 0.0
mikeandmike 0.0
barbara 0.0
litigation 0.0
frankcaliendo 0.0
toughness 0.0
suffered 0.0
streep 0.0
billionaire 0.0
percentage 0.000150373561564
insiders 0.0
premiums 0.0
congratulatory 0.0
treasurer 0.0
incompetence 0.0
delegates 0.0
rollout 0.0
appalled 0.0
misquoted 0.0
pledged 0.0
demanded 0.0
andrews 9.60567779666e-05
lowlife 0.0
courageous 0.0
betrayed 0.0
horrors 0.0
warheads 0.0
pledges 0.0
interrupts 0.0
blacks 0.0
elaine 0.000106735527241
candidacy 0.0
discredited 0.0
cringing 0.0
estates 0.0
laughable 0.0
aberdeen 0.0
healed 0.0
floods 0.0
swiftly 0.0
cheryl 0.0
syracuse 0.000336652241421
difficulties 0.0
flipping 0.0
wilkes 0.0
lisbon 0.0
suckers 0.0
golfdigest 0.0
jeffrey 0.0
sixteen 0.0
scandals 0.0
circuits 0.0
regulations 0.0
monitoring 0.0
swamped 0.0
costing 0.0
detained 0.0
warmest 0.0
marginalize 0.0
miners 0.0
unemployment 0.0
paragon 0.0
obsolete 0.0
subsidies 0.0
exercised 0.0
evangelicals 0.0
franklin 0.0
molten 0.0
servers 0.0
billgates 0.0
excessive 9.42825599069e-05
coordinated 0.0
geneva 0.0
soaring 0.000108463033491
unsecured 0.0
corporations 0.0
rifles 0.0
innovative 0.0
pillar 0.0
bashing 0.0
organize 0.0
panelists 0.0
frontiers 0.0
pricing 0.0
platforms 0.0
scaling 0.0
pretends 0.0
forensic 0.0
roundtable 0.0
inherit 0.0
fabrication 0.0
brewer 0.0
unaffordable 0.0
reinforcing 0.0
eventful 0.0
wasserman 0.0
lindsey 0.0
billclinton 0.0
upstate 0.0
empowerment 0.0
penalties 0.0
responders 0.0
civilization 0.0
occupy 0.0
approximately 0.0
knight 0.0
homeownership 0.0
scratched 0.0
screws 0.0
contractor 0.0
havana 0.0
lowering 0.0
foundations 0.0
revitalize 0.0
counters 0.0
foreclosed 0.0
renovated 0.0
delaying 0.0
employer 0.000176984269512
executed 0.0
subpoena 0.0
grifters 0.0
cincinnati 0.0
disgraced 0.0
falsely 0.0
strengthening 0.0
abcworldnews 0.0
skyrocketing 0.0
pipelines 0.0
likewise 0.0
dishonest 0.0
surges 0.0
woefully 0.000128650375199
pressured 0.0
erratic 0.0
temperament 0.0
emboldened 0.0
keystone 0.0
mandated 0.0
crumbling 0.0
johnkasich 0.0
latinos 0.0
combating 0.0
incompetent 0.0
loopholes 0.0
incapable 0.000106735527241
unqualified 0.0
melaniatrump 0.0
recount 0.0
voluntarily 0.0
desperation 0.000107587913881
denounce 0.0
demoralized 0.0
incited 0.0
fawning 0.0
accuser 0.0
electing 0.0
patrol 0.000105904722344
connecticut 0.0
amounts 0.0
govpencein 0.0
squandered 0.0
enforce 0.0
epipens 0.0
deplorables 0.0
generals 0.0
timkaine 0.0
benghazi 0.0
moderators 0.0
sheriffclarke 0.0
unfairly 0.0
competence 0.0
dysfunctional 0.0
eleventh 0.0
instructed 0.0
restrict 0.0
battleground 0.0
jilted 0.0
blazing 0.0
hypocrite 0.0
mcconnell 0.0
circulated 0.0
flailing 0.000140354677956
pathological 0.0
deflect 0.0
undoing 0.0
predictable 0.0
phoney 0.0
perils 0.0
governing 9.7932433636e-05
likeable 0.0
tumble 0.0
praised 0.000189726744495
extraordinarily 0.0
jinping 0.0
trashes 0.0
knowingly 0.0
disloyal 0.0
woodward 0.0
magnificently 0.0
pretended 0.0
slaughtered 0.0
climber 0.0
americ 0.0
unprofessional 0.0
diplomats 0.0
resulted 0.0
crossroads 0.0
syrians 0.0
suppress 0.0
remembrance 0.0
infighting 0.0
castro 0.0
unquestionably 0.0
corrupted 0.0
kasich 0.0
readership 0.0
fraternal 0.0
frankluntz 0.0
demagogue 0.0
unanimous 0.0
bedford 0.0
longtime 0.0
complexities 0.0
dailymail 0.0
couric 0.0
cancelling 0.0
morningmika 0.0
concord 0.0
recounts 0.0
shouldered 0.0
patmccrorync 0.0
executives 0.0
westfield 0.0
graydon 0.0
sheldon 0.0
tanking 0.0
morning_joe 0.0
fabricated 0.0
corolla 0.0
groveling 0.0
unfolding 0.0
polled 0.0
influx 0.0
underachieving 0.0
antics 0.000109362131941
disenfranchised 0.0
golfing 0.0
xfinity 0.0
defies 0.0
fictitious 0.0
districts 0.0
vigilant 0.0
obstruction 0.0
rebuilding 0.0
preserving 0.0
passover 0.0
dhsgov 0.0
thejusticedept 0.0
repealed 0.0
intends 0.0
wildfires 0.0
usedgov 0.0
fresno 0.0
usnavy 0.0
scotus 0.0
tillerson 0.0
ineffective 0.0
senjohnmccain 0.0
cbsnews 0.0
lawsuits 0.0
caucus 0.0
shimon 0.0
wilmington 0.0
stagnant 0.0
gouging 0.0
baghdad 0.0
wiesel 0.0
obstruct 0.0
gonzalo 0.0
curiel 0.0
hostage 0.0
unnamed 0.0
truckers 0.0
boldly 0.0
scarborough 0.0
evangelical 0.0
cyberattack 0.0
marines 0.0
crimea 0.0
earners 0.0
oversaw 0.0
lobbyists 0.0
rosiegray 0.0
briefings 0.0
actresses 0.0
purchases 0.0
myanmar 0.0
heightened 0.0
shackles 0.0
perjury 0.0
dallaspd 0.0
respectfully 0.000106735527241
canton 0.0
approx 0.0
admirals 0.0
naples 0.0
brainwashed 0.0
albuquerque 0.0
supposedly 9.48633722476e-05
coliseum 0.0
greensboro 0.0
sheriffs 0.0
hostages 0.0
explorers 0.0
confidential 0.0
tamara 0.0
infested 0.0
depicted 0.0
devote 0.0
payroll 0.0
bombshell 0.0
advisers 0.0
watergate 0.0
mcmaster 0.0
renews 0.0
housegop 0.0
katyturnbc 0.0
pocahontas 0.0
wherein 0.0
shreds 0.0
pelosi 0.0
chrysler 0.0
collusion 0.0
deductibles 0.0
repmarkmeadows 0.0
darrellissa 0.0
insurer 0.0
dishonesty 0.0
hotlinejosh 0.0
quinnipiacpoll 0.0
apologizing 0.0001035315169
priebus 0.0
clapper 0.0
tapped 0.0
operatives 0.0
senschumer 0.0
marcorubio 0.0
viciously 0.0
leakers 0.0
bangladesh 0.0
favorable 0.0
nbcnightlynews 0.0
lockheed 0.0
untruthful 0.0
resonating 0.0
transferring 0.0
staten 0.0
humana 0.0
juanita 0.0
senses 0.0
stimulate 0.0
drooling 0.0
lakeland 0.0
burying 0.0
crafted 0.0
misrepresent 0.0
fabled 0.0
railing 0.0
billyjoel 0.0
sniper 0.0
cnnsotu 0.0
independents 0.0
detroitnews 0.0
foxbusiness 0.0
washtimes 0.0
realbencarson 0.0
meetthepress 0.0
newday 0.0
thebrodyfile 0.0
bostonherald 0.0
foxnewssunday 0.0
thefive 0.0
chriscuomo 0.0
randpaul 0.0
dcexaminer 0.0
facethenation 0.0
bretbaier 0.0
interruption 0.0
allenwest 0.0
cvpayne 0.0
dailycaller 0.0
prosecution 0.0
ballistic 0.0
vetoed 0.0
gettysburg 0.0
groping 0.0
brennan 0.0
nielson 0.0
justices 0.0
operative 0.0
surged 0.0
megynkelly 0.0
terminated 0.0
softbank 0.0
fronting 0.0
rigging 0.0
reprieve 0.0
pocketed 0.0
colluded 0.0
coffers 0.0
stairway 0.0
ellison 0.0
selflessly 0.0
tornadoes 0.0
levine 0.0
scranton 0.0
enslave 0.0
inappropriately 0.0
devalue 0.0
presumptive 0.0
fournier 0.0
terminate 0.0
reptommarino 0.0
kimberly 0.0
subscriptions 0.0
ingrahamangle 0.0
trajectory 0.0
natalie_gulbis 0.0
unheard 0.0
objectified 0.0
turnberry 0.0
djohnsonpga 0.0
bedminster 0.0
golf_com 0.0
elevation 0.0
litany 0.0
unaccountable 0.0
primaries 0.0
disrupter 0.0
runways 0.0
hashanah 0.0
unenthusiastic 0.0
undecideds 0.0
richardtrumka 0.0
renegotiate 0.0
rapists 0.0
aldridge 0.0
unsubstantiated 0.0
misrepresented 0.0
prisoner 0.0
mattis 0.0
weakening 0.0
endakennytd 0.0
taoiseach 0.0
lifeboat 0.0
enabler 0.0
emanated 0.0
lindseygrahamsc 0.0
renegotiating 0.0
waterville 0.0
zucker 0.0
berglund 0.0
suboptimal 0.0
steelworkers 0.0
postpone 0.0
mohammed 0.0
indignant 0.0
comprised 0.0
stupidest 0.0
exxonmobil 0.0
precluded 0.0
instruct 0.0
gonzales 0.0
scorned 0.0
davidmuir 0.0
harrisburg 0.0
caesars 0.0
borisep 0.0
lapierre 0.0
limbaugh 0.0
petraeus 0.0
phyllis 0.0
illegals 0.0
sanctity 0.0
neurotic 0.0
negligence 0.0
alvarez 0.0
roseanne 0.0
roanoke 0.0
theleegreenwood 0.0
mcallen 0.0
deduct 0.0
chokes 0.0
vigilance 0.0
pensacola 0.0
tuckercarlson 0.0
repcummings 0.0
windham 0.0
teleprompter 0.0
paulareidcbs 0.0
jeffzeleny 0.0
condoleezza 0.0
genflynn 0.0
donaldtrump 0.0
demeanor 0.0
baiting 0.0
plotted 0.0
aptitude 0.0
billings 0.0
approving 0.0
disconnected 0.0
superstorm 0.0
brainpower 0.0
exclaim 0.0
skyrocketed 0.0
globalism 0.0
israelipm 0.0
insurgent 0.0
sneers 0.0
unrest 0.0
scaramucci 0.0
disapproval 0.0
katiepavlich 0.0
overflow 0.0
warped 0.0
scottwalker 0.0
kirstenpowers 0.0
usarmy 0.0
schlafly 0.0
alisonforky 0.0
oppresses 0.0
pedantic 0.0
highness 0.0
benefitted 0.0
fundraisers 0.0
shinzo 0.0
augustine 0.0
ranchers 0.0
middletown 0.0
fiorina 0.0
pueblo 0.0
lindasuhler 0.0
lightweights 0.0
kimguilfoyle 0.0
perdue 0.0
unmasked 0.0
unmasking 0.0
judgejeanine 0.0
boycotted 0.0
outnumberedfnc 0.0
jessebwatters 0.0
podesta 0.0
kristol 0.0
interruptions 0.0
broaddrick 0.0
erictrump 0.0
outspending 0.0
irredeemable 0.0
begala 0.0
brazile 0.0
dinesh 0.0
markings 0.0
ericbolling 0.0
loudobbs 0.0
skyrocket 0.0
blumenthal 0.0
cochran 0.0
imploding 0.0
discord 0.0
jeffflake 0.0
davidwohl 0.0
bribery 0.0
repkenbuck 0.0
joshrogin 0.0
enrique 0.0
unverified 0.0
retribution 0.0
dwindling 0.0
automobile 0.0
teamtrump 0.0
subpoenaed 0.0
danscavino 0.0
joniernst 0.0
scottadamssays 0.0
senatorfischer 0.0
tabulation 0.0
trafficked 0.0
depict 0.0
unrelenting 0.0
imitating 0.0
dutchess 0.0
adelson 0.0
valuing 0.0
ricksantorum 0.0
chuckgrassley 0.0
laraleatrump 0.0
abingdon 0.0
equating 0.0
ministries 0.0
brzezinski 0.0
sentedcruz 0.0
jamesrosenfnc 0.0
leaker 0.0
realjameswoods 0.0
jim_jordan 0.0
marshablackburn 0.0
boynton 0.0
betsydevos 0.0
lawfare 0.0
larry_kudlow 0.0
stranahan 0.0
waynedupreeshow 0.0
phillypolice 0.0
scottwrasmussen 0.0
johnstown 0.0
raul_labrador 0.0
statewide 0.0
reviewjournal 0.0
oppress 0.0
underlings 0.0
bankrupted 0.0
collude 0.0
fayetteville 0.0
disqualifying 0.0
mahoning 0.0
disloyalty 0.0
americanlegion 0.0
bankruptcies 0.0
morell 0.0
ambridge 0.0
emboldens 0.0
asheville 0.0
grievous 0.0
ricketts 0.0
benefactor 0.0
dwyane 0.0
markhalperin 0.0
mayorbowser 0.0
unverifiable 0.0
savaged 0.0
wheeling 0.0
technocratic 0.0
countr 0.0
thealabamaband 0.0
relives 0.0
unwatchable 0.0
residences 0.0
gatekeeper 0.0
defections 0.0
senatorsessions 0.0
drmoore 0.0
honorably 0.0
billhemmer 0.0
shultz 0.0
aflcio 0.0
trucking 0.0
fabrications 0.0
malleable 0.0
misrepresents 0.0
decimated 0.0
arabella 0.0
mishandled 0.0
interfe 0.0
speach 0.0
iranians 0.0
fraudulently 0.0
enablers 0.0
dealmaker 0.0
terrori 0.0
anarchists 0.0
krzanich 0.0
foxnation 0.0
permeated 0.0
overruns 0.0
disposed 0.0
inaccurately 0.0
peebles 0.0
conditioners 0.0
classifie 0.0
forewarned 0.0
karlrove 0.0
palazzo 0.0
evansville 0.0
rebroadcast 0.0
bangor 0.0
secpricemd 0.0
realdonaldtru 0.0
uschamber 0.0
trumpinaugural 0.0
rawlings 0.0
churchillian 0.0
hemmer 0.0
rudygiuliani 0.0
pynance 0.0
terrybranstad 0.0
cbnnews 0.0
faithandfreedom 0.0
ovations 0.0
scpioneer 0.0
dwstweets 0.0
tgowdysc 0.0
bluffs 0.0
marist 0.0
spluttering 0.0
thetodaysgolfer 0.0
thebig_easy 0.0
hoosier 0.0
senbobcorker 0.0
larsloekke 0.0
roadblocks 0.0
manheim 0.0
greenblatt 0.0
jtanews 0.0
mitchellvii 0.0
bemoan 0.0
michiga 0.0
gennifer 0.0
gulbis 0.0
liyuan 0.0
enlisting 0.0
ainsleyearhardt 0.0
stevedoocy 0.0
foxfriendsfirst 0.0
pastormarkburns 0.0
marksimoneny 0.0
gov_gilmore 0.0
flunky 0.0
agitators 0.0
overdoses 0.0
liliantintori 0.0
leopoldo 0.0
traceadkins 0.0
gopconvention 0.0
governorsununu 0.0
laconia 0.0
teamsters 0.0
gatewaypundit 0.0
lawyerly 0.0
dissipates 0.0
realjeffreylord 0.0
nytimesdowd 0.0
scalise 0.0
straightening 0.0
energizer 0.0
montgomeriefdn 0.0
shulkin 0.0
ericgreitens 0.0
circuited 0.0
govbrewer 0.0
infringed 0.0
mcgarvey 0.0
republicanstudy 0.0
americafirstpol 0.0
fheile 0.0
phadraig 0.0
wiedefeld 0.0
coddington 0.0
kravis 0.0
fighterjet 0.0
shinzō 0.0
votestand 0.0
romoabcnews 0.0
moskowitzeva 0.0
drgoodspine 0.0
levisteveholt 0.0
untrusting 0.0
sleazebag 0.0
lbperfectmaine 0.0
timken 0.0
newhouse 0.0
evancho 0.0
franklin_graham 0.0
eazymf_e 0.0
busineses 0.0
substantialy 0.0
rexnord 0.0
sdcritic 0.0
highonhillcrest 0.0
fiiibuster 0.0
koster 0.0
saucier 0.0
t_lineberger 0.0
cissieglynch 0.0
saysgabrielle 0.0
ravenrantz 0.0
mayorrgiuliani 0.0
deplorablecbtp 0.0
tanden 0.0
keithrowland 0.0
kinston 0.0
sjsopio 0.0
aztrumptrain 0.0
therealmogul 0.0
unclassify 0.0
firebombed 0.0
wikileakes 0.0
davidshiloach 0.0
trumpwomenstour 0.0
mistreats 0.0
willey 0.0
dornsife 0.0
henryleledog 0.0
eericmyers 0.0
atensnut 0.0
arouses 0.0
anyonetennis 0.0
flifeforce 0.0
geeveem 0.0
susiesentinel 0.0
bcuzimdamomma 0.0
freedavidking 0.0
ifdanyt 0.0
arsenmissyirvin 0.0
nycmia 0.0
bigdog_joey 0.0
roadkingl 0.0
decieved 0.0
waukesha 0.0
creati 0.0
thallensboucher 0.0
kenansville 0.0
tarukmatuk 0.0
angpiazza 0.0
laughingstock 0.0
ak_tweet 0.0
kiiara 0.0
jerryjrfalwell 0.0
ghfanlovessonny 0.0
bishopwtjackson 0.0
cynthialummis 0.0
repreneeellmers 0.0
trumpdc 0.0
stvzbnk 0.0
bakari 0.0
adhd_fa 0.0
parisdennard 0.0
ronnieclemmons 0.0
takouis 0.0
lblackvelvet 0.0
chernuna 0.0
annebellar 0.0
presidencies 0.0
rsbnetwork 0.0
meequalsfree 0.0
pmnorlando 0.0
rhondar 0.0
patrici 0.0
lindaharden 0.0
trumpocrats 0.0
lewenskimo 0.0
trump_videos 0.0
sinabunz_tm 0.0
eyecandytmgayle 0.0
catonglass 0.0
billynungesser 0.0
samaritanspurse 0.0
zulu_out 0.0
willspeakout 0.0
laurencristmann 0.0
c_lynne_ryan 0.0
enemywithinn 0.0
elsolarverde 0.0
creats 0.0
dbongino 0.0
bongino 0.0
carl_c_icahn 0.0
fieldoffight 0.0
reploubarletta 0.0
mainegop 0.0
gatewaypun 0.0
mechanicsburg 0.0
pnehlen 0.0
patrioticpepe 0.0
insticts 0.0
borderless 0.0
lallyray 0.0
glowingly 0.0
spinnnn 0.0
flamed 0.0
nancynielsenn 0.0
olimauritania 0.0
theresa_cali 0.0
roxanetancredi 0.0
litigate 0.0
trumpdoonbeg 0.0
berrien 0.0
nbcpolitics 0.0
jakeda 0.0
barrasso 0.0
bluedogdemky 0.0
iowa_trump 0.0
arnold_ziffel 0.0
patricia_graf 0.0
brazosboys 0.0
jimvitari 0.0
trumpturnberry 0.0
trumpscotland 0.0
darrenwaggener 0.0
allegrettivicki 0.0
justininglv 0.0
chrisboydbrew 0.0
votetrumpmaga 0.0
realericjallen 0.0
insinuated 0.0
clubgoers 0.0
ausbiz 0.0
freemarketsara 0.0
senatorjeffsessions 0.0
mabynshingleton 0.0
dale_dangler 0.0
nauthizjane 0.0
richardweaving 0.0
mariadaq 0.0
sara_wejesa 0.0
jimhewitt 0.0
joedefranco 0.0
wolfstopper 0.0
djd_thunder 0.0
excoriates 0.0
rapidcraft 0.0
telepromter 0.0
liliannyleebou 0.0
lunsfordwhitney 0.0
free_sa_bd 0.0
stockdaleism 0.0
admonished 0.0
nbcdfw 0.0
frankylamouche 0.0
sandiegopd 0.0
tombarrackjr 0.0
buiidthewall 0.0
pipersul 0.0
oasisupernova 0.0
jknatter 0.0
jasondovesq 0.0
ed_klein 0.0
overregulates 0.0
dubilujane 0.0
rbacliff 0.0
ltstevenlrogers 0.0
rowanne 0.0
shoneep 0.0
magicmetalninja 0.0
barbaro 0.0
michael_favreau 0.0
christichat 0.0
mai_ttag 0.0
thydanielflores 0.0
costakenneth 0.0
svhlevi 0.0
johnjohnlacca 0.0
ladytsbrug 0.0
frankdallasagg 0.0
ladyjoanne 0.0
gerriweth 0.0
longbyfive 0.0
wesleyfelixpsi 0.0
manakoa 0.0
ragdollive 0.0
xgodfatherxzx 0.0
trumptrainrider 0.0
aprillajune 0.0
takingit_back 0.0
distlerjoyce 0.0
queencharlotteo 0.0
kellyriddell 0.0
valdosta_monkey 0.0
daybastrop 0.0
nathandwilsonfl 0.0
mathewjmari 0.0
stupor 0.0
matandsher 0.0
edgoeas 0.0
lynnepatton 0.0
erictrumpfdn 0.0
mikeozanian 0.0
lexingtonbobby 0.0
annettejeanne 0.0
andrebauer 0.0
waterbury 0.0
greenskydeb 0.0
keksec__org 0.0
ashleyedam 0.0
trumptbird 0.0
herb_stamper 0.0
senfrankniceley 0.0
anneslimo 0.0
agentvf 0.0
hornick 0.0
gqforbes 0.0
governor_savage 0.0
carolde 0.0
fugedaboudit 0.0
dnglax 0.0
alexnightrasor 0.0
lilrachiepoo 0.0
