awesome 0.000591447453855
christmas 0.000344075942234
trying 0.000576644499248
moment 0.000535164718114
wonderful 0.0
seeing 0.000364556357632
recommend 0.0
anybody 0.000544210988694
worked 0.000143908270531
direct 0.000188436970632
others 9.54210687237e-05
currently 5.27662549841e-05
better 0.00157973700219
please 0.000667155010744
social 9.93809810108e-05
around 0.000482697417334
people 0.000789868501093
leaving 0.000200935690528
morning 0.000485306598916
general 0.000113723616567
investigate 0.0
damage 7.23319404654e-05
everything 0.000617662944075
twitter 0.000796281541743
though 0.000872857256823
friend 0.000177429076692
watched 0.000249128594563
beautiful 0.000454467989362
anything 0.000269029008303
helped 0.000241803218921
managing 0.0
updated 0.0
thinking 0.00040572547519
finally 0.000315564258481
caught 9.93809810108e-05
believe 0.000132000066863
already 0.000748000378888
couple 0.000530528340122
orlando 0.000225401532475
research 0.0
chance 0.000705900507515
meaning 6.52456145883e-05
annual 0.000355883587671
quickly 6.15559142684e-05
growing 0.000158733954605
probably 0.000191359152059
should 0.000116633159267
changed 4.71972936176e-05
history 0.00036357439149
center 0.000404783942581
museum 0.0
behind 0.000570460584123
pretty 0.000450806083544
really 0.00105885076127
expensive 7.58631947443e-05
little 0.0014080007132
earlier 0.00010324539248
realized 0.0
forget 0.000223587241751
someone 0.000177908002865
mostly 6.70128970519e-05
worker 0.0
safety 0.0
shuttle 0.0
program 0.000122758656363
things 0.000877631667881
related 6.48623668824e-05
visiting 0.0
available 0.000183264284407
afternoons 0.0
perfect 0.000183759422489
different 0.000224190840252
numbers 0.000110293713525
delays 0.000106035124274
person 0.000309665044011
watching 0.00106457446015
passed 5.37919146434e-05
celebrates 0.0
minutes 0.000364556357632
travel 0.0
daughter 0.000320096445189
average 6.31780055218e-05
positive 0.000261669603081
outside 9.33799728506e-05
looking 0.00149600075778
forward 0.000589217142226
plenty 0.000130877001959
agreed 5.91461238718e-05
raising 6.29947836131e-05
listened 0.0
afraid 5.70210882529e-05
impression 0.0
drawing 7.86462449101e-05
favorite 0.00174084861334
magnet 0.0
picture 0.000375543255316
historic 0.0
instead 0.000248452452527
appreciate 0.00119383349687
husband 0.0
international 0.0
market 0.0
couldn 0.000183759422489
remember 0.000308831472038
impressive 0.000424760036953
familiar 7.07764809933e-05
friends 0.000576644499248
despite 6.26306190053e-05
impossible 0.0
everyone 0.00136768223331
florida 0.0
always 0.00122868433503
months 0.000184255961246
moving 0.0001423594909
meeting 0.000135606997975
google 0.00022181488893
answer 0.000406820993924
together 0.000353902907441
inside 0.000275639133734
smaller 0.0
missed 0.000804914070303
active 0.000496967395485
longer 0.00010184563128
enough 0.000178388239371
driving 0.000107880828443
building 0.000297334065283
technician 0.0
enjoying 0.000107880828443
london 0.000157432677946
kennedy 0.0
recent 0.0
gotten 0.0
amazing 0.00118800060176
attention 9.99227306742e-05
richard 0.0
progress 0.0
tomorrow 0.00172063248707
george 5.48421223197e-05
excited 0.00115159975779
campaigning 0.0
understand 0.0
following 0.000324193227125
learning 0.000109381090049
evening 5.05081834209e-05
special 0.000756109012176
secret 4.94212774929e-05
across 4.92872878212e-05
comparison 0.0
surprised 0.00010524333947
anymore 0.000224921630804
rather 4.95556775471e-05
showing 0.000470699159276
saying 4.60639903116e-05
tweeted 5.83165796335e-05
updates 0.000192317307347
thoughts 0.000187265057801
exactly 0.000238552671809
except 5.6230407701e-05
getting 0.00211770152254
nothing 0.000529425380636
tweets 0.000194493634167
course 0.000729112715265
stephen 0.000580469753431
looked 0.000300584594228
difficult 0.0
stages 0.000108030085234
office 0.000238552671809
decisions 0.0
brought 9.77755124583e-05
biggest 0.000272680793617
thrilled 0.0
entire 9.80410593077e-05
something 0.000926494416113
closing 0.0
anyone 0.000133431002149
taking 0.000926494416113
recently 0.0
interesting 0.0
original 0.000156572251679
flying 5.54537222325e-05
happening 9.61988862237e-05
sometimes 0.0
stopped 0.000258820109563
yesterday 0.000177908002865
service 0.000339442806378
serious 0.00018878917447
emails 0.0
afford 7.12153004841e-05
british 0.0
contact 0.0
either 0.000192397772447
second 8.89540014325e-05
accident 0.0
checking 0.000400266639349
volunteers 0.0
indeed 0.0
island 0.0
hearing 4.92872878212e-05
choose 0.000155717412635
staying 0.000298257417923
another 0.00118800060176
address 5.94823828612e-05
display 0.0
originally 0.0
compare 0.0
landing 8.05138281794e-05
perhaps 0.0
weekend 0.00129680600215
appear 0.0
anyway 0.0
theory 0.0
recognize 7.89082252906e-05
working 0.000485306598916
bigger 0.0
screen 5.96514835845e-05
treated 7.25587191789e-05
laughing 0.00413437972867
wanted 0.000178388239371
current 0.000104096092195
grateful 0.000172992160076
friendship 0.0
family 0.00260300812146
listening 4.83606437842e-05
stream 0.000182040015837
wedding 0.000201038691156
sharing 0.000363340629482
double 0.000399690922697
especially 0.000439989806062
middle 0.000101291918612
waiting 0.000316416328608
definitely 0.00024114924551
walking 5.29113182018e-05
account 5.17640219126e-05
completely 0.0
thought 0.00035581600573
reaction 6.03344792151e-05
accept 0.0
possible 0.000280139918552
simple 5.13414030756e-05
manufacturing 0.0
destroyed 0.0
professional 0.0
friendly 0.0
members 0.000166823890373
supposed 5.86465179051e-05
astronauts 0.0
component 0.0
business 0.000333071622164
absolutely 4.71972936176e-05
sending 0.000307208578825
delivering 0.0
heavily 0.0
biased 9.09232979696e-05
introducing 0.000283105923973
congrats 0.00500183836135
community 0.000326333713192
greatest 0.000144689547306
posted 0.000156572251679
saturday 0.000512204778229
wednesday 0.000212811565029
confused 6.42936990961e-05
explain 5.14818242622e-05
broken 0.0
chicago 5.99916526011e-05
fairly 9.19723100765e-05
hoping 0.000212227450235
relationship 5.93139312786e-05
actually 0.000180809330633
basket 0.000205496672547
myself 0.0
pocket 0.0
argument 0.0
decent 0.000156771638637
school 0.000672572520757
thursday 0.000566367523411
selling 0.0
talented 0.0
discuss 0.0
celebrate 0.000633819983266
celebrating 0.000578838367086
anniversary 0.000160048222595
contest 0.00569274024505
internet 5.48421223197e-05
figure 0.000105532509968
inspired 0.000586843482847
sitting 0.00019930287565
complaining 8.42083104514e-05
playing 0.00116579236931
street 0.0
points 0.000621994696069
advice 0.0
forever 9.96514378251e-05
congress 0.0
imagine 0.0001474611181
problem 0.000141975126393
played 0.000591447453855
canadian 0.0
pulling 0.000225401532475
keeping 0.000246436439106
lovely 0.0
chinese 7.12153004841e-05
unlike 8.16178256122e-05
allowed 0.0
otherwise 0.0
afternoon 5.19058042117e-05
planned 0.0
strange 0.0
notice 0.0
difference 0.0
author 0.0
intent 0.0
letting 0.000271194647726
system 0.0
almost 0.000220593908598
details 0.00110928652935
experience 0.000737023844985
viewed 0.0
living 9.21279806231e-05
bright 0.0
normal 0.0
practically 0.0
before 0.000334878516103
monday 0.000322447932181
realize 6.33619956589e-05
currency 0.0
sleeping 7.0126371571e-05
wanting 0.0
science 0.0
tweeting 0.00010074167752
forgot 0.000110600042516
herself 0.0
disaster 0.0
happens 0.000319848443462
silence 0.0
congratulations 9.72468170836e-05
natural 0.0
raised 0.000115328106717
mission 0.000119642476942
ironic 0.0
testing 0.000232077908168
deleted 0.0
channels 0.0
surprising 0.0
reference 0.0
forgotten 0.0
trouble 0.0
setting 0.000313153095027
reminds 6.24496637658e-05
fantastic 0.0
loving 0.000156144138293
hardly 0.0
complete 0.0
membership 0.0
nearly 0.000115978207222
spirit 5.71809484784e-05
launched 0.000329134180553
stories 9.54210687237e-05
including 4.90205296539e-05
inviting 0.0
wouldn 9.51633206184e-05
choice 0.000141209747783
offended 0.0
conversation 5.36439159081e-05
disrespectful 0.0
making 0.000792000401175
expect 0.000105822636404
discussion 0.0
believes 0.000154718605445
occasions 0.0
response 0.0
brings 0.000106405782515
subject 0.0
greetings 0.0
anytime 0.000290234876716
protected 0.0
location 0.000277097100868
thomas 6.92742752171e-05
missile 0.0
needed 0.00018827966371
seriously 0.000341287683297
spending 5.48421223197e-05
groups 7.12153004841e-05
modern 6.35467604935e-05
welcome 0.000445970598428
totally 0.00010184563128
evenings 0.0
laughed 0.0
running 0.000416819863446
finished 0.000685961314794
strong 0.000590808386171
hopefully 0.000112147933906
respond 6.66139708191e-05
message 0.000187265057801
coming 0.00162800082464
thankful 0.000347428765684
temporary 0.0
issues 5.26216697351e-05
challenge 0.000628688369195
happen 0.000449592207711
giving 0.000891941196857
turkey 0.000192881097288
common 5.45394895106e-05
pressed 0.000120995522732
healthcare 0.0
benefits 0.0
situation 0.000230656213434
workers 0.0
company 0.000149884096011
health 0.000156144138293
insurance 0.0
change 0.000220593908598
august 6.22694516711e-05
mental 0.0
carrier 0.0
neither 0.0
lowest 0.0
decide 5.46905450243e-05
happened 0.000232192576726
demand 5.81525361401e-05
generally 0.0
personal 9.59388470208e-05
beyond 9.85745756425e-05
passion 0.000467690864261
question 0.000315564258481
doctor 0.0
sacrifices 0.0
respected 0.0
position 0.0
increased 0.0
losing 5.43889521987e-05
strain 0.0
respect 0.00048229849102
collapse 0.0
shouldn 0.000105532509968
career 0.000409611438433
visited 6.92742752171e-05
challenger 0.0
reason 0.0
simply 0.0
audience 0.0
employees 0.0
accounts 7.37105329004e-05
attacked 0.0
involved 0.000205365612302
extreme 0.0
unhappy 0.0
caused 7.56187284664e-05
knocked 0.0
reality 0.00010495511863
mention 5.43889521987e-05
extremely 6.41057691155e-05
burned 0.0
without 0.000266862004298
falling 0.0
problems 0.000163166856596
timing 0.000156771638637
highly 0.000125624647088
online 0.000332172145434
animals 0.0
called 0.000221786345865
scientists 0.0
pictures 0.000167288246234
camera 0.000115328106717
heading 0.000209910237261
terribly 0.0
theater 0.0
paying 0.000114682786407
complex 7.25587191789e-05
sunday 0.000592404081153
nights 6.50535723414e-05
enthusiastic 0.0
increasing 0.0
traffic 0.0
opposite 0.000144663880931
lookout 0.000139479036526
reached 6.54385009797e-05
changing 0.000216357672173
harder 0.000122758656363
silent 0.0
speaking 5.05081834209e-05
careful 0.0
november 5.91461238718e-05
answered 6.96982551665e-05
number 0.000180809330633
atlantic 0.0
stupid 0.0
budget 0.0
unless 0.0
calling 9.26266363214e-05
lately 0.000153709822307
levels 0.0
focused 0.00014331710514
ridiculous 0.000121707587911
financially 0.0
knowing 0.0
former 5.54537222325e-05
covers 7.1436366863e-05
mountain 0.0
suffers 0.0
schedule 6.8438410261e-05
greatly 0.0
friday 0.000402457035151
dramatic 8.42083104514e-05
failure 0.0
achieve 0.0
winner 0.00181375959719
closes 0.0
bother 8.42083104514e-05
directly 7.27866759689e-05
quality 0.000114042176506
tearing 0.0
father 0.000452105303687
wishes 0.000230009706871
collar 0.0
ground 0.000114361896957
matter 9.46500842622e-05
strategy 0.0
themselves 0.0
asking 4.66899864253e-05
mobile 0.000146492346375
device 9.64386958649e-05
computer 0.000136463816622
impressed 6.68129806087e-05
complain 0.0
dinner 0.000195021533313
suffering 0.0
single 0.000181787195745
parent 8.07872345679e-05
packed 7.23319404654e-05
catching 6.52456145883e-05
neglected 0.0
somewhat 0.0
approved 0.0
definition 0.000145117438358
energy 0.000577253152468
meltdown 0.0
events 0.000164071635073
europe 0.0
holiday 0.000152352507396
status 0.0
update 0.000205927297049
outage 0.0
customers 0.0
holding 0.000208763002239
survive 7.48933965243e-05
electric 0.0
picked 0.000329965350085
missing 9.41398318552e-05
surprise 0.000141591880853
german 0.0
officially 0.000257409121311
french 0.000113406208746
global 5.89789557329e-05
follow 0.000576644499248
opinion 0.0
design 0.0
allows 0.0
promoting 0.0
volunteer 0.0
negative 0.0
official 0.000318986812928
brutal 0.0
cotton 0.0
jersey 0.00118687774595
mistake 0.000183084820926
fixing 0.0
france 6.12034498562e-05
proper 7.0126371571e-05
peaceful 0.0
thinks 0.000102963648524
competition 0.000238605934338
industry 0.0
easier 5.98212384709e-05
successful 0.00012066895843
trending 0.0
leadership 0.000138127623168
agrees 0.0
organized 0.0
enthusiasm 0.0
turnout 0.0
showed 0.000277268611162
attended 0.0
trumps 0.0
networks 0.0
experienced 0.0
interested 0.000113406208746
effect 5.81525361401e-05
dislike 0.0
success 0.000348780032388
dreams 0.0
protect 5.65449723699e-05
rumors 0.0
arguing 0.0
referred 0.0
waving 0.0
growth 0.0
control 4.92872878212e-05
happier 8.05138281794e-05
likely 0.0
coincidence 0.0
cancel 0.0
project 0.000149477156738
laying 0.0
lesson 0.000122758656363
replacement 0.0
invited 0.0
continuing 8.16178256122e-05
clearance 0.0
treating 0.0
allowing 0.0
arrived 5.33494075316e-05
unable 0.0
opening 0.000191877694042
popular 0.0
followed 0.000175939553715
statement 0.0
enjoyed 0.000314003523697
spectacular 0.0
smoothly 0.0
length 8.6961368178e-05
wonder 9.56795760293e-05
matters 5.79891036108e-05
function 0.0
shared 0.0
connection 7.1881868998e-05
benefit 0.0
terrible 0.0
continues 0.000107583829287
equally 0.0
session 0.000288320266793
routine 0.0
associated 0.0
exciting 5.29113182018e-05
imagination 0.0
decides 0.0
cheering 8.72782040915e-05
spring 0.000112774816334
fallen 0.0
beautifully 0.0
places 0.00010524333947
entered 0.000248250949273
feedback 0.0
thousands 0.0
properly 0.0
informed 0.0
typical 0.0
continue 0.000254614078201
attend 0.000132831718993
excuse 0.0
female 0.0
recovery 0.000438094938835
closer 0.0
beginning 0.00022181488893
introduce 7.76136894257e-05
bought 0.000161821242664
multiple 6.68129806087e-05
slogan 0.0
covered 0.000285904742392
choices 0.0
unpredictable 0.0
enterprise 0.0
several 0.0
surrounded 0.0
dealing 0.0
teacher 0.0
training 0.000343085690871
auditorium 0.0
passing 5.96514835845e-05
become 0.000184255961246
presentation 8.95625196799e-05
spread 0.000201483355039
sooooo 0.0
season 0.00218805338438
putting 0.000416819863446
weight 0.0
stephanie 0.0
rapidly 0.0
follows 0.0
explained 0.0
stance 0.0
storms 0.0
headed 0.00163286422974
sleepy 0.0
returns 0.0
expected 0.0
resources 0.0
considering 0.0
fabric 0.0
suspect 0.0
constantly 8.13392114483e-05
condolences 0.0
appreciated 6.94857531367e-05
register 0.000328161194847
manage 0.0
transition 0.0
smooth 0.000175837645052
flowers 0.0
gained 0.0
savage 0.0
somebody 0.000197480508332
contract 0.000305425005721
furious 0.0
covering 0.0
boxing 0.0
credit 5.43889521987e-05
patriots 0.0
player 0.000554003228416
chemistry 9.64386958649e-05
grandkids 0.000154243971037
offensive 0.00015994414671
charles 0.0
fighting 0.000150701767896
atlanta 7.63562514304e-05
donald 0.0
mexico 0.0
unreal 0.000541425805674
police 0.0
represent 0.000373271296191
president 0.000196082118615
talking 0.000442378634302
unbelievable 0.000350631857855
alabama 0.0
slowest 0.0
conference 0.000218762180097
america 0.000187771627658
michigan 0.0
everybody 0.00081583428298
judgment 0.0
carolina 0.000243187065343
amount 0.0
houston 0.000225401532475
everyday 0.000250522476021
michael 0.0
protecting 0.00015729248982
million 0.000231566590803
election 0.000121707587911
honesty 0.0
telling 0.000100194864743
correct 0.000113723616567
pulled 0.0
attack 0.000113723616567
americans 0.0
salaries 0.0
killed 9.83074120669e-05
louisville 0.0
horrible 7.51338441582e-05
coverage 0.000239284953883
dallas 0.000145573351938
jacksonville 0.0
league 0.00272105494347
united 0.0
college 0.000496321710862
refuse 0.0
barackobama 8.51069408324e-05
hillary 0.0
clinton 0.0
presidency 0.0
manning 0.0
stupidity 0.0
american 0.0
remain 6.20899766422e-05
founder 0.0
illegal 0.0
arizona 0.0
opinions 0.0
retire 0.0
triumph 0.0
stealing 0.0
speeches 9.45221649236e-05
innocent 8.45058138513e-05
scared 0.0
golden 0.000118964765722
straight 0.000244438781146
removed 8.27503164242e-05
answers 0.0
product 0.000141552961987
created 0.0
snoopdogg 0.0
worlds 0.0
record 0.000414575912804
stamina 0.0
weapon 0.0
funeral 0.0
registered 0.0
minnesota 9.92707483624e-05
committed 6.94857531367e-05
journey 0.000688096718441
disrespect 0.0
brother 0.00064550297572
prayers 0.00110502098534
documentary 0.0
boston 0.000127464613154
addition 7.68549111533e-05
korean 0.0
church 0.000268051588208
advantage 7.53756165792e-05
honestly 0.0
defeat 0.0
baltimore 0.000102298264806
lifetime 0.0
captain 0.0
retired 0.0
country 0.000364556357632
valley 0.0
mailbox 0.0
speedy 0.000229249412519
ending 5.93139312786e-05
finish 0.000596628224997
employee 0.0
university 6.31780055218e-05
remembered 0.0
nominated 0.00026487455426
praying 0.000815212142314
insane 0.000130491229177
national 0.000238552671809
reform 0.0
oregon 0.0
shooting 0.000772055994674
cancer 5.54537222325e-05
australia 0.0
deserve 0.00016226825413
legend 0.000294062110049
mother 0.000344075942234
murder 0.0
creating 0.0
powerful 0.00016137574393
carson 0.0
palmer 0.000213050852793
branch 9.76301242559e-05
breaking 0.0001423594909
dollars 0.0
questions 0.000361618661266
racist 0.0
charged 0.0
girlfriend 0.0
performance 0.000255309507997
refreshing 0.0
reading 0.000187265057801
corrupt 0.0
penalty 8.85689319482e-05
writer 0.0
denver 0.000553965770895
create 0.0
admire 8.16178256122e-05
nobody 0.000324536508259
government 0.0
politics 0.0
comeback 0.000161574469136
charities 0.0
method 0.0
sample 0.0
bringing 0.000446001097924
celebs 0.0
stadium 0.000223962777715
funniest 0.000161027656359
according 0.0
threat 0.0
heroin 0.0
honest 0.0
rolling 0.000397311831391
became 0.000110293713525
feature 0.000121013804323
decision 0.000109988450028
counting 0.0
verified 0.0
signing 0.000173478832535
adding 0.0
embrace 0.0
pressure 5.99916526011e-05
celebrities 0.000109588174944
dearly 0.0
facebook 0.000283183761706
divided 0.0
extension 0.00029168812925
lawyer 0.0
charleston 0.0
brazilian 0.0
basketball 0.00261968022939
campaign 0.000102402859608
determine 0.0
whether 0.00011152549749
praise 0.0
factory 0.0
arrested 0.0
investments 0.0
activity 0.0
comments 0.0
wounded 0.0
endorsement 0.0
williams 7.03420063213e-05
future 4.54467989362e-05
struggled 0.0
blessed 0.00128551838393
sabotage 0.0
warrior 0.000468891957335
softball 0.0
cheating 0.0
voting 0.000108777904397
instincts 0.0
collins 0.0
succeed 0.0
commercial 0.000665575923776
religion 0.0
boring 0.0
acting 0.000126356011044
established 9.68322553047e-05
warriors 0.00654647745381
because 0.0
sensitive 0.0
smiling 0.000155739118883
traitor 0.0
cleveland 0.0
agents 0.0
periscope 0.0
killing 5.6230407701e-05
choosing 0.0
phillips 0.0
instagram 0.000122406899712
opponent 0.0
detroit 8.18982200703e-05
cousin 0.000346587214036
honored 0.000612034498562
nonsense 0.0
dedication 0.000186094029627
hammer 0.0
proven 0.0
talent 0.000117624844019
governors 0.0
knocking 0.000108030085234
russian 0.0
consecutive 0.000108543325978
skills 0.000550831048706
citizens 0.0
cameras 8.85689319482e-05
phones 8.13392114483e-05
california 6.31780055218e-05
commitment 0.000146031646278
maryland 0.0001176945999
seconds 5.89789557329e-05
placed 0.0
listen 0.000136708634112
dominating 0.000261918326374
whatever 0.000101291918612
wherever 8.45058138513e-05
fought 0.000214309100589
compete 0.0
lauderdale 0.0
injured 0.0
billion 0.0
shoutout 0.00033331085604
depressing 9.30470148134e-05
guilty 0.000149308518477
carpet 0.0
harvard 0.0
absolute 6.46719909509e-05
handle 0.000287512133588
promise 0.000104667841232
hosting 0.000173478832535
longest 0.000156771638637
generation 0.000242027608646
criminal 0.0
tuesday 0.000200389729485
garbage 0.0
goldman 0.0
ronald 0.0
locker 0.000296564418207
leader 0.000345014560306
desperately 0.0
character 0.0
chancellor 0.0
proving 0.0
jackson 0.000213645901452
interview 0.000179352672202
buffalo 0.00019938134205
insight 7.83858193185e-05
obviously 0.0
battle 0.000409611438433
destroy 0.0
killer 6.70128970519e-05
personally 0.0
relentless 0.0
winning 0.000376559327421
charlotte 0.00224746946673
trafficking 0.0
defense 0.000495435366953
japanese 8.07872345679e-05
causing 0.0
arabia 0.0
rapist 0.0
writing 0.0
society 6.08537939553e-05
officers 0.0
ambushed 0.0
sources 0.0
kentucky 0.0
incredible 9.51633206184e-05
ungrateful 0.0
kissing 0.0
minute 0.000298142943032
luther 0.0
foreign 0.0
phoenix 0.000456350948817
champions 0.000496501898545
virginia 8.79188225258e-05
streak 0.000100114650975
orange 6.60223000568e-05
policy 0.0
intentional 0.0
reminder 0.000636682350705
evidence 0.0
presidents 0.0
judged 0.000113454461351
accused 0.0
intentions 0.0
facing 0.0
freedom 0.000245517312726
actions 7.48933965243e-05
debating 0.000195260248512
consequence 0.0
coughing 0.0
clearly 0.0
invite 0.000124899327532
central 0.00011630507228
washington 0.0
tougher 0.0
veteran 0.0
division 8.10623551142e-05
overrated 0.0
veterans 0.000259003433261
stronger 0.000140252743142
bowden 0.0
promised 7.23319404654e-05
catches 0.0
worried 0.0
security 5.84812386762e-05
sanctuary 0.0
reverse 0.0
immediately 0.0
television 0.0
entitled 0.0
racism 0.0
highest 0.000186808355013
approve 0.0
turning 0.00022058742705
georgia 0.0
tennessee 0.0
legacy 6.99117912735e-05
leaked 0.0
choked 0.0
helping 0.00058190195379
tickets 0.000480144667784
suspending 0.0
suspend 0.0
willing 6.70128970519e-05
december 0.000183610349569
beating 7.51338441582e-05
basically 0.0
return 9.75107666564e-05
escape 0.0
locked 7.41798591217e-05
unacceptable 0.0
network 0.0
language 0.0
invest 0.0
creation 0.0
followers 0.00039914761777
schools 0.0
menace 0.0
movies 0.000132044600114
entity 0.0
children 9.6983658965e-05
nation 0.000166361166697
flexible 0.0
review 5.24775593152e-05
knowledge 6.26306190053e-05
begins 5.27662549841e-05
vanessa 0.0
forbes 0.0
parade 0.000162678422897
fireworks 0.000100975101747
shoulder 0.0
produced 0.0
consider 0.0
latest 0.000381684274895
signed 0.00106971498792
shower 7.76136894257e-05
thunder 0.0
charity 0.000307779571342
germany 0.0
advance 0.000192317307347
explaining 0.0
millions 0.0
blessings 0.000802372943817
diamond 0.0
dollar 0.0
monsters 0.0
rigged 0.0
conduct 0.0
cooked 0.0
turned 9.67212875685e-05
criticism 8.18982200703e-05
responded 0.0
depending 0.0
jackie 0.0
charge 6.1028273642e-05
ticket 0.000118292247744
finest 8.6961368178e-05
sanders 0.0
includes 6.56322389695e-05
dealers 0.0
against 0.0
benjamin 0.000125315228996
impact 5.89789557329e-05
families 0.000620261489835
selection 0.0
hitting 0.000176437266029
announced 0.000107287831816
decided 5.27662549841e-05
professor 8.33277140099e-05
itself 0.0
promote 0.0
mexican 0.0
owners 0.000169610696014
guards 0.000123827575229
guarantee 0.0
beliefs 0.0
citizen 0.0
states 0.000111215926915
memorial 0.00014331710514
decades 0.0
landed 0.000344271762771
ultimate 6.39186405445e-05
mcdonald 0.0
twenty 0.0
hispanics 0.0
financial 0.0
payments 0.0
grabbing 0.0
permit 0.0
shield 0.0
disney 0.000355590537937
kansas 0.0
agreement 0.0
source 0.0
dismiss 0.0
talents 0.0
homework 9.80345656755e-05
expectations 0.0
joining 0.000207623216847
eugene 0.0
reasons 0.0
talked 0.000110907444465
released 0.000102682806151
reaching 0.000242361703704
release 0.000290163862705
promoter 0.0
circumstances 0.0
scheme 0.0
warwick 0.0
highlight 0.000278793020666
within 0.0
stacked 0.0
speech 0.000105822636404
standing 0.00010074167752
higher 0.0
justice 0.0
served 6.66139708191e-05
speaks 6.37323065771e-05
navarro 0.0
dropped 0.000108777904397
consideration 0.0
predicted 0.0
strength 0.000183084820926
andrew 0.0
replace 0.0
incredibly 0.0
private 5.65449723699e-05
integrity 9.19723100765e-05
sanford 0.0
ignored 0.0
neighbors 9.96906710252e-05
affection 0.0
minimum 0.0
direction 0.0
enemies 0.0
exclusive 0.000209335682465
prison 0.0
himself 7.07764809933e-05
investigation 0.0
disgusting 0.0
congratulate 0.000213050852793
philly 8.24644419057e-05
rights 5.94823828612e-05
replaced 0.0
recognition 0.0
maintain 0.0
tallahassee 0.0
handed 0.000169011627703
victory 0.000125989567226
classy 0.0
lifted 0.0
terrorist 0.0
productive 8.75973442865e-05
tribute 0.000121013804323
threatened 0.0
insecure 0.0
horror 0.0
discovery 0.0
convention 0.0
understanding 0.00019064028148
action 0.000141975126393
figures 0.0
having 0.0
marine 0.0
announces 0.0
wallace 0.0
speaker 0.0
stevens 0.0
cybersecurity 0.0
apologize 0.000325356845793
continued 0.0
journalist 0.0
libelous 0.0
formation 0.0
letter 0.0
discussed 0.0
therapy 9.23276284826e-05
widespread 0.0
untrue 0.0
written 5.37919146434e-05
conferences 0.0
results 5.76640533586e-05
papers 0.0
winter 0.0
marching 0.0
sessions 7.81269301699e-05
democrats 0.0
eastern 0.0
scientist 0.0
represented 0.000197709612138
waters 0.0
journal 0.0
foundation 0.0
access 5.42389295452e-05
analysis 0.0
writes 0.0
colorado 0.0
medical 0.0
tremendous 8.33277140099e-05
nytimes 0.0
public 5.12014298041e-05
cheaters 0.0
cannot 9.83074120669e-05
reveals 0.0
immunity 0.0
threatens 0.0
candidate 7.0126371571e-05
brilliant 0.0
wisconsin 0.000102298264806
studies 0.0
measure 8.07872345679e-05
compared 7.61090305883e-05
donors 0.0
graham 0.0
incorrect 0.0
headline 0.0
careers 0.0
answering 0.00019924757849
streaming 0.0
leaders 0.000128587398192
supreme 0.0
nominee 0.0
gorsuch 0.0
protest 7.46542592383e-05
immigration 0.0
policies 7.99720733552e-05
administration 0.0
defend 0.0
excitement 0.0
funding 0.0
surveillance 0.0
transfer 0.0
conspiracy 0.0
horrifying 0.0
formed 0.0
interviews 0.0
retreat 0.0
alliance 0.0
platform 6.99117912735e-05
editing 0.000339221392027
february 6.48623668824e-05
association 0.0
airwaves 0.0
hamilton 0.0
futures 0.0
borders 0.0
border 0.0
uranium 0.0
misleading 0.0
january 0.000122056547284
topics 0.0
unprecedented 0.0
airplane 0.00010459625493
tragic 0.0
philadelphia 0.0
funded 0.0
secure 8.05138281794e-05
income 0.0
hurricane 9.34111794212e-05
breakdown 0.0
countries 0.0
linked 0.0
broadcast 0.0
african 0.0
triple 8.05138281794e-05
provide 0.0
enhance 0.0
development 7.61090305883e-05
companies 0.0
discussions 0.0
developing 0.0
proposal 0.0
potential 0.000121707587911
moderator 0.0
suggestion 0.0
attending 0.0
filled 6.19112326745e-05
schultz 0.0
education 0.0
sickness 0.000141620026184
mentioned 6.48623668824e-05
exists 0.0
henderson 0.0
plants 0.0
orders 0.0
officials 7.76136894257e-05
strategic 0.0
ability 6.41057691155e-05
political 0.0
director 5.49942250141e-05
behaving 0.0
deficits 0.0
sufficient 0.0
prevent 0.0
shoddy 0.0
capacity 0.0
donations 8.33277140099e-05
editors 0.0
discussing 0.0
persistent 0.0
treatment 0.0
establishment 0.0
protects 0.0
critical 7.0126371571e-05
ambassador 0.000152218061177
preparing 0.000147421065801
capable 0.0
bishop 0.0
producers 0.0
bombed 0.0
weekly 0.000152218061177
becoming 5.65449723699e-05
magazine 0.0
lawyers 0.0
summary 0.0
standard 0.0
controlled 9.72293764168e-05
hiring 0.0
defending 7.53756165792e-05
pushes 0.0
admitted 0.0
failed 6.54385009797e-05
independent 6.80263735867e-05
copies 0.0
politically 0.0
driven 7.99720733552e-05
agenda 0.0
blocked 0.0
result 0.0
announcing 0.00046112946692
destruction 0.0
culture 6.08537939553e-05
insider 0.0
traitors 0.0
prince 0.0
solutions 0.0
indiana 0.0
mongering 0.0
claims 0.0
editorial 0.0
prospects 0.0
mistakes 0.0
offered 0.0
founded 0.0
ignorance 0.0
inspiring 0.000118964765722
majority 7.39445685666e-05
embarrassing 0.0
creators 0.0
server 0.0
berniesanders 0.0
spotlight 0.0
readout 0.0
tactics 0.0
irrelevant 0.0
massive 0.0
receiving 0.000165500632848
promising 0.0
promises 8.39128104567e-05
consequences 0.0
production 0.0
proposals 0.0
elsewhere 0.0
bernie 9.48988331882e-05
hacking 0.0
guests 0.0
interviewed 0.0
secretary 7.68549111533e-05
rebuttal 0.0
reduce 0.0
arriving 0.0
dangerous 0.0
shutting 0.0001176945999
arrival 9.64386958649e-05
canceled 0.0
typically 0.0
saving 0.0
pioneer 0.0
incident 9.09232979696e-05
ordering 0.0
victims 6.39186405445e-05
raises 0.0
receive 0.0
reputation 0.0
intention 0.0
commentary 0.0
disclosure 0.0
terrific 0.0
berkeley 0.000129271201877
melbourne 0.0
received 5.65449723699e-05
correctly 8.82426733196e-05
inherited 0.0
displayed 0.0
joseph 0.0
offices 9.12701897634e-05
necessary 0.0
largely 0.0
inaccurate 0.0
debate 5.6703104373e-05
conflict 0.0
interest 0.0
controversy 0.0
stated 0.0
rating 0.0
nominate 0.0
outstanding 0.0
devastating 0.0
accurate 7.12153004841e-05
southeastern 0.0
romney 0.0
scotland 8.6961368178e-05
delayed 0.0
rarely 0.0
abroad 0.0
winners 0.000874748694503
profit 0.0
reviews 0.0
republican 0.0
presidential 0.0
candidates 0.0
politicians 0.0
epidemic 0.0
greater 0.000143763737996
booths 0.0
arnold 0.000118335218334
principles 0.0
deadline 0.000212986026636
speakers 0.0
incoming 0.0
various 0.0
nuclear 0.0
danger 0.0
leading 0.000167754245837
restored 0.0
conditions 0.0
however 6.99117912735e-05
resolution 0.0
remained 0.0
member 0.000310584131475
examples 9.3778391467e-05
employ 0.0
courses 0.0
largest 6.94857531367e-05
hallmark 0.0
mentor 0.0
increase 0.0
transcript 0.0
disrupt 0.0
provided 0.0
binding 0.0
decreased 0.0
revival 0.0
crashing 0.0
reception 0.000192097269555
rising 0.0
primary 0.0
reduction 0.0
surrogate 0.0
provides 0.0
environment 0.0
revealed 0.0
confirmed 6.41057691155e-05
controls 0.000100975101747
behavior 0.0
introduced 0.0
carbon 0.0
communities 0.0
region 0.0
deaths 0.0
responsible 7.1881868998e-05
household 0.0
munich 0.0
canada 0.0
regions 0.0
movement 0.000235249688039
midwest 0.0
segment 8.79188225258e-05
emerged 0.0
hundreds 0.000145573351938
information 0.000119302967169
combined 8.18982200703e-05
easily 6.48623668824e-05
towards 0.0
inform 0.0
mathematically 0.0
october 0.000184667742805
investigating 0.0
predators 0.0
innovation 9.30470148134e-05
perspective 0.0
cities 0.0
todays 0.0
julian 0.0
eliminated 0.0
interests 8.30380655431e-05
toledo 0.0
extraordinary 0.0
eradicate 0.0
retains 0.0
ashamed 0.0
meetings 0.0
describing 0.0
eliminate 0.0
obligation 0.0
gender 0.0
committee 0.000216318983143
wasting 0.0
numerous 0.0
examination 0.0
inflammatory 0.0
practices 0.0
management 0.0
nordstrom 0.0
genius 0.0
warren 0.00010141173802
traveling 0.0
billions 0.0
prepared 6.66139708191e-05
fraction 0.0
equipment 0.0
procedures 0.0
rasmussen 0.0
county 8.13392114483e-05
developer 0.0
anthony 0.000320968458883
shadow 8.57164170659e-05
district 0.0
considered 6.8231908311e-05
lobbyist 0.0
chosen 0.0
hospitalized 0.0
outright 0.0
yorkers 0.0
naming 0.0
conventions 0.0
deficit 0.0
interventions 0.0
focusing 0.0
sensible 0.0
hosted 0.0
batman 0.0
column 0.0
upcoming 0.000186808355013
positions 0.0
favors 0.0
regulation 0.0
distributed 0.0
weakness 0.0
introduction 0.0
western 0.0
pacific 0.0
larger 0.0
increases 0.0
effective 0.0
situations 0.0
harbor 0.0
wealth 0.0
underway 0.000176485346639
israel 0.0
hysteria 0.0
overwhelming 0.0
protection 0.0
prisoners 0.0
guidance 0.0
montana 0.0
determination 0.0
restore 0.0
acquire 0.0
additional 0.0
exception 0.000109588174944
machine 0.0
honoring 0.000274859536993
visually 0.0
contrary 0.0
immediate 0.0
politico 0.0
ignoring 0.0
judges 0.0
federal 0.0
constant 0.0
philippines 0.0
nicely 0.0
september 0.000123466427673
manchester 0.0
fiction 0.0
priest 0.0
angela 0.0
process 0.000168221900858
destructive 0.0
genuine 7.97036836293e-05
surreal 0.0
whitehouse 9.48988331882e-05
flotus 0.000223511214513
crisis 6.76181698674e-05
judgement 0.0
confidence 0.000206563057663
voters 0.0
diamondandsilk 0.0
oldest 0.0
inauguration 9.30470148134e-05
gracious 0.0
scream 0.0
postponed 0.0
disappoint 0.0
believing 8.88976344843e-05
hillaryclinton 0.0
electoral 0.0
crashed 0.0
citizenship 0.0
closed 6.26306190053e-05
religious 0.0
apprentice 0.0
conservative 8.16178256122e-05
economists 0.0
buzzfeed 0.0
puppet 0.000121686585571
sweden 0.0
andersoncooper 0.0
treats 9.3778391467e-05
qualified 0.0
missouri 0.000120995522732
cooper 0.0
debates 8.72782040915e-05
endorsements 0.0
strike 0.0
shouting 0.0
empire 0.0
encouraged 0.0
regard 0.0
concerning 0.0
misinformed 0.0
disregard 0.000141620026184
barack 9.76301242559e-05
joined 0.00016226825413
terrorism 0.0
pushing 0.000140684012643
cracking 9.12701897634e-05
muhammad 0.000112880837714
refused 0.0
amazingly 0.0
express 0.0
gratitude 0.0
congratulation 0.0
throughout 0.000139396510333
shining 8.88976344843e-05
fighter 0.0
anticipated 0.0
presented 0.0
reveal 6.41057691155e-05
stands 6.1028273642e-05
native 0.0
harvey 0.0
featured 0.0
announce 0.000510619015994
surround 0.0
although 0.0
senior 0.000206563057663
todayshow 0.0
convincingly 0.0
haters 0.0
returning 0.0
laughs 8.27503164242e-05
touched 0.0
corruption 0.0
violence 6.44824373801e-05
runnin 0.0
delivered 0.0
owning 0.0
legendary 7.03420063213e-05
stabbing 0.0
independence 7.9436925462e-05
approval 0.0
magical 0.0
alongside 0.000168416620903
percent 0.0
spiral 0.0
differently 0.0
sweeping 0.0
spoiler 9.23276284826e-05
theirs 0.0
offering 0.0
remembering 0.000287527475992
floated 0.0
professionals 0.0
construction 0.0
searching 0.0
flexibility 0.0
sinking 0.0
detail 0.0
document 0.0
cabinet 0.0
pleased 0.0
carrying 0.0
statements 0.0
decade 0.0
prague 0.0
crossing 0.0
bigotry 0.0
happily 0.0
therefore 0.0
belong 9.26858474792e-05
customs 0.0
trillion 0.0
backed 0.0
electricity 0.0
observing 0.0
russell 0.0
engineers 0.0
operations 0.0
values 0.0
senator 0.0
confirms 0.0
removing 0.00010459625493
payment 0.0
consistently 0.0
posing 0.0
everett 0.0
wondered 0.0
generic 0.0
fields 0.0
mining 0.0
newspaper 0.0
detailed 9.72293764168e-05
rainbow 0.0
childcare 0.0
unlimited 0.000115221743815
exploded 0.0
thoroughly 0.0
adviser 0.0
leaves 0.0
matthew 0.0
intersection 0.0
affected 6.78217970699e-05
newspapers 0.0
corporate 0.0
economy 0.0
explores 0.0
spoken 0.0
during 0.0
credible 0.0
competitive 0.0
carefully 0.0
returned 0.0
blasts 0.0
guarding 0.000164035863393
hornet 0.000190939858449
successfully 9.64386958649e-05
southern 7.73593027226e-05
dakota 0.0
belief 0.0
messenger 0.000136451520083
heroes 0.000134025794104
russians 0.0
intelligence 0.0
deepest 0.0
graduates 0.0
describe 6.37323065771e-05
hollywood 0.0
reclaim 0.0
equality 0.000158343558273
announcement 0.000112774816334
interfere 0.0
interrupted 0.0
nationwide 0.000100975101747
questionable 0.000120315174477
garden 6.56322389695e-05
survey 8.42083104514e-05
journalists 0.0
delighted 0.0
minister 0.0
golfer 0.000138446481042
capital 0.0
penguins 0.0
regarding 0.0
teachers 0.0
devastated 0.0
phrase 0.0
immigrants 0.0
aliens 0.0
subjects 0.0
revolution 0.0
median 0.0
twelve 0.0
releases 0.0
accomplish 0.0
debbie 0.0
sebastian 0.000141620026184
briefing 9.60486347776e-05
advisor 0.0
commission 0.0
deadlines 0.0
hereby 0.0
invitation 0.0
alternatives 0.0
villages 0.0
accepted 0.0
commentators 0.0
depression 0.0
comprehensive 0.0
committees 0.0
pushed 0.0
statistic 0.0
donation 0.000297665672382
electronic 0.0
nomination 0.0
britain 0.0
questioning 0.0
attempt 6.26306190053e-05
investment 0.0
terror 0.0
homeland 0.000117063199317
polish 0.0
switzerland 0.0
represents 0.0
announcer 0.0
churchill 0.0
ambassadors 0.0
anchors 0.0
endorse 0.0
urgent 0.0
forced 0.0
expenses 0.0
preparations 0.0
string 0.000100975101747
morocco 0.0
thrill 0.0
watchdog 0.0
agencies 0.0
scrutiny 0.0
glorious 0.0
approaching 0.0
tragedy 0.000144212655429
handled 0.0
offers 0.0
requested 0.0
improvements 0.0
destroying 0.0
inexpensive 0.0
opposition 0.0
smithsonian 0.0
addiction 0.0
challenged 0.000186094029627
manhattan 0.0
richmond 0.0
forces 0.0
nations 8.6961368178e-05
anderson 0.0
builds 0.0
sexist 0.0
narrative 9.60486347776e-05
application 0.0
cannon 0.0
ethical 0.0
representation 0.0
obvious 0.0
statistics 0.0
military 0.000205315230783
housing 0.0
wonderfully 0.0
miller 0.000158873850924
copying 0.0
advised 0.0
ordered 6.46719909509e-05
unions 0.0
useless 0.0
alicia 0.0
economic 0.0
radical 0.0
planted 0.000258542403754
theories 0.0
conceived 0.0
readers 0.0
bombing 0.0
products 0.0
phenomena 0.0
classroom 0.0
classified 0.0
purely 0.0
hacked 0.0
taxpayers 0.0
opposed 0.0
pressing 0.0
russia 0.0
abraham 0.0
lincoln 8.98987786693e-05
observer 0.0
intelligent 0.0
lawsuit 0.0
detective 0.0
magnificent 0.0
heritage 0.0
beloved 0.0
dignity 0.0
priorities 0.0
repealing 0.0
murdoch 0.0
coalition 0.000100114650975
theresa 0.0
charges 0.0
activists 0.0
elected 0.0
relief 0.000219047469418
congratulates 0.0
pledge 0.000164360835441
elections 0.0
landslide 0.000118985327756
council 0.0
imperative 0.0
catastrophic 0.0
douglas 9.80345656755e-05
brexit 0.0
democracy 0.0
disastrous 0.0
rebuild 0.0
pundits 0.0
nickname 0.000224629231757
poison 0.0
interfering 0.0
negotiations 0.0
summit 0.0
dossier 0.0
unleash 0.0
negotiation 0.0
sticking 0.0
openly 0.0
embarrassed 0.0
ireland 0.0
attacks 0.0
remarks 0.0
democratic 0.0
outgoing 0.0
maureen 0.0
treasury 0.0
refugees 0.0
snatch 0.0
morgan 0.0
grieve 0.0
vicious 0.0
essentially 0.0
restoring 0.0
extended 0.0
referendum 0.0
ovation 0.00011582701663
bankrupt 0.0
proudly 0.0
oppose 0.0
refusal 0.0
urging 0.0
strengthen 0.000111203630376
deliver 6.96982551665e-05
negotiating 0.0
remaining 0.0
merkel 0.0
repeal 0.0
formal 0.0
reckless 0.0
prosperous 0.0
servant 0.000252156812409
desperate 0.0
secretaries 0.0
formally 0.0
breach 0.0
gloomy 0.0
outlines 0.0
concessions 0.0
executive 0.0
extend 0.0
republicans 0.0
terrorists 0.0
weapons 0.0
bodyguards 0.0
outrage 0.0
representative 0.0
prevail 0.0
searched 0.0
policemen 0.0
islamic 0.0
islamist 0.0
ingrained 0.0
humbled 0.00018829740477
courage 0.0
chamber 0.0
commander 0.0
formula 0.0
brigade 0.0
respecting 0.0
lectured 0.0
devices 0.0
enormous 0.0
verdict 0.0
refusing 0.0
energies 0.0
carried 0.0
behalf 7.89082252906e-05
tariff 0.0
amendment 0.0
nightmare 0.0
employment 0.0
legislation 0.0
referring 0.0
scrapping 0.0
handling 0.000300343952924
goodies 0.0
proves 0.0
prominently 0.0
crackdown 0.0
unfair 0.0
fiscal 0.0
humiliating 0.0
strongly 0.0
vision 0.000195160717024
resignation 0.0
confirmation 0.0
records 6.66139708191e-05
disabled 0.0
quoting 0.0
reductions 0.0
deeply 0.0
commerce 0.0
accumulation 0.0
overplaying 0.0
refugee 0.0
conway 0.0
exposed 0.0
netanyahu 0.0
israeli 0.0
priority 0.0
strongest 0.0
freedoms 0.0
treaties 0.0
empowering 0.000117063199317
laughter 0.0
syrian 0.0
uphold 0.0
praising 0.0
renewal 0.0
penned 0.0
condemns 0.0
realdonaldtrump 0.0
goodwill 0.0
attorney 0.0
settled 0.00010141173802
chairman 0.0
capability 0.0
firing 0.0
seanspicer 0.0
inaugural 0.000100975101747
carnage 0.0
optimism 0.0
rulers 0.0
clintons 0.0
melania 0.0
bikers 0.0
handing 0.000218125281436
intended 0.0
optimistic 0.0
campaigned 0.0
finance 0.0
allies 0.0
compromised 0.0
governor 0.0
bosses 0.0
attempts 0.0
irresponsible 0.0
incidents 0.0
merely 0.0
documents 0.0
tariffs 0.0
purpose 0.0
architect 0.0
arlene 0.0
resign 0.0
reuters 0.0
mainstream 0.0
dozens 0.000299072013075
donnell 0.0
clarified 0.0
gathering 0.0
crimes 0.0
vulnerable 0.0
commentator 0.0
overwhelmingly 0.0
respectful 0.0
markets 0.0
inspector 0.0
nigel_farage 0.0
drudge 0.0
abused 0.0
infrastructure 0.0
projected 0.0
boards 0.0
allegations 0.0
bloomberg 0.0
insulting 0.0
leaking 0.0
liberal 0.0
chairs 0.0
podium 0.000253710183346
conceded 0.0
capitol 0.0
consulting 0.0
wannabe 0.0
powell 0.0
reforms 0.0
technical 0.0
securing 0.0
steven 0.0
rumsfeld 0.0
businesses 0.0
balancing 0.0
socialist 0.0
complaints 0.000102748336274
politician 0.0
representatives 0.0
rallies 0.0
belittle 0.0
ballot 0.0
failing 0.0
refuses 0.0
conclude 0.0
vibrant 0.0
tarmac 0.0
spinning 0.000205496672547
appointments 0.0
farewell 0.0
opponents 9.52787626905e-05
unopposed 0.0
polling 0.0
prosperity 0.0
apology 0.0
outline 0.0
losers 0.0
battlefield 0.0
abandoned 0.0
endorsed 0.0
negotiate 0.0
negotiated 0.0
unwilling 0.0
appointed 0.0
slaughter 0.0
betray 0.0
donated 0.0
immigrant 0.0
prosecuted 0.0
criminals 0.0
elizabethforma 0.0
protesting 0.0
releasing 0.0
screening 0.0
sponsor 0.0
pocketbook 0.0
transparency 0.0
austin 0.0
obamacare 0.0
acceptable 0.0
schwarzenegger 0.0
congressman 0.0
profits 0.0
toward 0.0
fleeing 0.0
bravery 0.0
protests 0.0
recieved 0.0
violent 0.0
remarkably 0.0
senators 0.0
ratings 8.6961368178e-05
spouses 0.0
fundraiser 0.000280233538264
senate 0.0
louisiana 0.0
giuliani 0.0
venezuela 0.0
parenthood 0.0
organizations 0.0
generations 0.0
minorities 0.0
underestimate 0.0
terrified 0.0
discourse 0.0
pennsylvania 0.0
hackers 0.0
nbcnews 0.0
mccain 0.0
scandal 8.48053480068e-05
constitution 0.0
sensanders 0.0
abandon 0.0
explode 0.0
reopening 0.0
governments 0.0
competent 0.0
mike_pence 0.0
stinks 0.0
logical 0.0
accurately 0.0
righteous 0.0
thursdays 0.0
fitting 0.0
category 0.0
swearing 0.0
politifact 0.0
abolish 0.0
surging 0.0
murders 0.0
reagan 0.0
vetting 0.0
vetted 0.0
pouring 0.0
fraudulent 0.0
ballots 0.0
fading 0.0
speakerryan 0.0
civilized 0.0
commercials 0.0
luxurious 0.0
outraged 0.0
nypost 0.0
statute 0.0
enforcement 0.0
accountability 0.0
truthful 0.0
springfield 0.0
cancelled 0.0
conflicts 0.0
suffer 0.0
selfishly 0.0
educational 0.0
stolen 0.0
visionary 0.0
wounds 0.0
disgraceful 0.0
hatred 0.0
persuasion 0.0
exposing 0.0
teaches 0.0
sellers 0.0
refers 0.0
trusted 0.0
sheriff 0.0
samsung 0.0
ranking 0.0
undecided 0.0
nebraska 0.0
abusive 0.0
abuser 0.0
nashville 0.0
lightweight 0.0
victories 0.000252156812409
consumer 0.0
violation 0.0
sarcasm 0.0
freaky 0.0
jimmyfallon 9.96906710252e-05
outlets 0.0
vanityfair 0.0
harassed 0.0
leverage 0.0
sacred 0.0
horrific 0.0
contribute 0.0
indicted 0.0
chooses 0.0
defended 0.0
champion 0.000279647165094
waited 0.0
denmark 0.0
conviction 0.0
retail 0.0
distract 0.0
globes 0.0
endorsing 0.0
pathetic 0.0
purposely 0.0
expose 0.0
representing 0.000516146155595
mmflint 0.0
registration 9.48988331882e-05
acceptance 0.0
defeated 0.0
prosecutor 0.0
nbcsnl 0.0
nevada 0.0
illinois 0.000119645213626
massachusetts 0.0
spontaneous 0.0
entrepreneur 0.0
arkansas 0.0
hotels 0.000118335218334
exhausted 0.0
puppets 0.0
protesters 0.0
natalie 0.0
anaheim 0.0
nominating 0.0
vietnam 0.0
claimed 0.0
indianapolis 0.0
loudly 0.0
sarasota 0.0
rapids 0.0
oklahoma 0.000100975101747
devoted 0.0
sacramento 0.000256901922967
arranged 0.0
baldwin 0.0
crushed 0.0
reflects 0.0
replacing 0.0
louder 0.000118985327756
flashback 0.0
farmers 0.0
unleashed 0.0
tourists 0.0
steals 0.0
albany 0.0
devastation 0.0
meantime 0.0
donlemon 0.0
wilbur 0.0
finalists 0.0
ransom 0.0
normmacdonald 0.0
vanishing 0.0
clarence 0.0
jaketapper 0.0
clowns 0.0
elizabeth 8.85689319482e-05
microphone 0.0
machines 0.0
premium 0.000115221743815
championships 0.0
impersonation 0.0
horribly 0.0
stakes 0.0
mouthed 0.0
reservation 0.000148751614142
delaware 0.000138446481042
springs 0.0
columbus 0.0
slackers 0.0
toyota 0.0
chucktodd 0.0
correspondents 0.0
soldier 0.0
panels 0.0
broadcasting 0.0
sparks 0.0
warned 0.0
jclayfield 0.0
kellogg 0.0
anchor 0.000235389199799
heated 0.0
congressional 0.0
boeing 0.0
usatoday 0.0
endlessly 0.0
craziest 0.0
viewers 9.76301242559e-05
delivers 0.0
pittsburgh 0.0
marshal 0.0
reverend 0.0
lifelong 0.0
disdain 0.0
hispanic 0.0
defrauded 0.0
oppression 0.0
crowds 0.0
washingtonpost 0.0
affordable 0.0
tapping 0.0
ginsburg 0.0
reilly 0.0
illegally 0.0
shootings 0.0
destiny 0.0
serenawilliams 0.000274875329161
motors 0.0
redding 0.0
initially 0.0
travis 0.0
accomplishments 0.000131828133828
misconduct 0.0
mocked 0.0
disgrace 0.0
greeley 0.0
carmel 0.0
outcry 0.0
playbook 0.0
zealand 0.0
fearless 0.0
lining 0.0
sidekick 0.0
madame 0.0
grandstand 0.0
rochester 0.0
speechless 0.0
fletcher 0.0
begged 0.0
wintour 0.0
inspires 0.0
carlos 0.0
missiles 0.0
chelsea 9.41487023852e-05
oppressive 0.0
forgiven 0.0
killings 0.0
taiwan 0.0
somalia 0.0
burning 0.0
subscribers 0.000118985327756
chester 0.000167854060389
newtown 0.00030282383708
booker 0.0
heights 0.000110120079437
leicester 0.0
chiefs 0.0
joenbc 0.0
opioid 0.0
separately 0.0
intros 0.000167854060389
columnist 0.0
manages 0.0
financed 0.0
mnuchin 0.0
delegate 0.0
vicente 0.0
struck 0.0
trudeau 0.0
oreillyfactor 0.0
vulgarian 0.0
publicity 0.0
amnesty 0.0
ivankatrump 0.0
communism 0.0
linkedin 0.0
avoided 0.0
sophisticated 0.0
seanhannity 0.0
anncoulter 0.0
foolish 0.0
catholics 0.0
bogged 0.0
catholic 0.0
thriving 0.0
newtgingrich 0.0
abedin 0.0
secretly 0.0
undermines 0.0
americanism 0.0
christians 0.0
rationally 0.0
deplorable 0.0
wikileaks 0.0
execution 0.0
enduring 0.0
foxandfriends 0.0
losses 0.0
kevcirilli 0.0
staffers 0.0
barron 0.0
jihadis 0.0
hampshire 0.0
pandering 0.0
donaldjtrumpjr 0.0
moines 0.000160523462641
lobbying 0.0
careless 0.0
piersmorgan 0.0
palestinian 0.0
kellyanne 0.0
democrat 0.0
unfunny 0.0
condemned 0.0
despair 0.0
louvre 0.0
crooked 0.0
lynden 0.0
outperform 0.0
tedcruz 0.0
majors 0.0
schumer 0.0
credibility 0.0
flooding 0.0
hannity 0.0
beneficiary 0.0
sanctions 0.0
nominates 0.0
existent 0.0
criticized 0.0
senatemajldr 0.0
workforce 0.0
issued 0.0
outsider 0.0
declare 0.0
ivanka 0.0
dignified 0.0
threaten 0.0
outcomes 0.0
ukraine 0.0
justintrudeau 0.0
vladimir 0.0
businessman 0.0
regards 0.0
assange 0.0
malicious 0.0
garners 0.0
ethics 0.0
wrecked 0.0
regimes 0.0
incorrectly 0.0
hostile 0.0
defenders 0.0
deceived 0.0
hypocritical 0.0
favorably 0.0
shatter 0.0
changer 0.000105070655046
spokane 0.0
unnecessary 0.000111203630376
cwaunion 0.0
expand 0.0
apologized 0.0
criticizing 0.0
legion 0.0
hershey 0.0
intensity 0.0
tigerwoods 0.0
amercan 0.0
reince 0.0
chriscjackson 0.0
hypocrites 0.0
billkristol 0.0
govmikehuckabee 0.0
dustin 0.0
bullied 0.0
anonymous 9.64386958649e-05
yankees 0.0
thehill 0.0
infiltrated 0.0
somali 0.0
invention 0.0
frontrunner 0.0
patriot 0.0
poorly 0.0
prisonplanet 0.0
daytona 0.0
comparable 0.0
shouted 0.0
holocaust 0.0
kellyannepolls 0.0
foxnews 0.0
initiated 0.0
tiffany 0.0
mikeandmike 0.0
barbara 0.0
litigation 0.0
frankcaliendo 0.0
toughness 0.0
suffered 0.0
streep 0.0
billionaire 0.0
percentage 0.0
insiders 0.0
premiums 0.0
congratulatory 0.0
treasurer 0.0
incompetence 0.0
delegates 0.0
rollout 0.0
appalled 0.0
misquoted 0.0
pledged 0.0
demanded 0.0
andrews 0.0
lowlife 0.0
courageous 0.0
betrayed 0.0
horrors 0.0
warheads 0.0
pledges 0.0
interrupts 0.0
blacks 0.0
elaine 0.0
candidacy 0.0
discredited 0.0
cringing 0.0
estates 0.0
laughable 0.0
aberdeen 0.0
healed 0.0
floods 0.0
swiftly 0.0
cheryl 0.0
syracuse 0.0
difficulties 0.0
flipping 0.000123102243287
wilkes 0.0
lisbon 0.0
suckers 0.0
golfdigest 0.000375375766578
jeffrey 0.0
sixteen 0.0
scandals 0.0
circuits 0.0
regulations 0.0
monitoring 0.0
swamped 0.0
costing 0.0
detained 0.0
warmest 0.0
marginalize 0.0
miners 0.0
unemployment 0.0
paragon 0.0
obsolete 0.0
subsidies 0.0
exercised 0.0
evangelicals 0.0
franklin 0.000105070655046
molten 0.0
servers 0.0
billgates 0.0
excessive 0.0
coordinated 0.0
geneva 0.0
soaring 0.0
unsecured 0.0
corporations 0.0
rifles 0.0
innovative 0.0
pillar 0.0
bashing 0.0
organize 0.0
panelists 0.0
frontiers 0.0
pricing 0.0
platforms 0.0
scaling 0.0
pretends 0.0
forensic 0.0
roundtable 0.0
inherit 0.0
fabrication 0.0
brewer 0.0
unaffordable 0.0
reinforcing 0.0
eventful 0.0
wasserman 0.0
lindsey 0.0
billclinton 0.0
upstate 0.0
empowerment 0.000135487050854
penalties 0.0
responders 0.0
civilization 0.0
occupy 0.0
approximately 0.0
knight 0.000213050852793
homeownership 0.0
scratched 0.0
screws 0.0
contractor 0.0
havana 0.0
lowering 0.0
foundations 0.0
revitalize 0.0
counters 0.0
foreclosed 0.0
renovated 0.0
delaying 0.0
employer 0.0
executed 0.0
subpoena 0.0
grifters 0.0
cincinnati 0.0
disgraced 0.0
falsely 0.0
strengthening 0.0
abcworldnews 0.0
skyrocketing 0.0
pipelines 0.0
likewise 0.000120995522732
dishonest 0.0
surges 0.0
woefully 0.0
pressured 0.0
erratic 0.0
temperament 0.0
emboldened 0.0
keystone 0.0
mandated 0.0
crumbling 0.0
johnkasich 0.0
latinos 0.0
combating 0.0
incompetent 0.0
loopholes 0.0
incapable 0.0
unqualified 0.0
melaniatrump 0.0
recount 0.0
voluntarily 0.0
desperation 0.0
denounce 0.0
demoralized 0.0
incited 0.0
fawning 0.0
accuser 0.0
electing 0.0
patrol 0.0
connecticut 0.0
amounts 0.0
govpencein 0.0
squandered 0.0
enforce 0.0
epipens 0.0
deplorables 0.0
generals 0.0
timkaine 0.0
benghazi 0.0
moderators 0.0
sheriffclarke 0.0
unfairly 0.0
competence 0.0
dysfunctional 0.0
eleventh 0.0
instructed 0.000164035863393
restrict 0.0
battleground 0.0
jilted 0.0
blazing 0.000148751614142
hypocrite 0.0
mcconnell 0.0
circulated 0.0
flailing 0.0
pathological 0.0
deflect 0.0
undoing 0.0
predictable 0.000117063199317
phoney 0.0
perils 0.0
governing 0.0
likeable 0.0
tumble 0.0
praised 0.0
extraordinarily 0.0
jinping 0.0
trashes 0.0
knowingly 0.0
disloyal 0.0
woodward 0.0
magnificently 0.0
pretended 0.0
slaughtered 0.0
climber 0.0
americ 0.0
unprofessional 0.0
diplomats 0.0
resulted 0.0
crossroads 0.0
syrians 0.0
suppress 0.0
remembrance 0.0
infighting 0.0
castro 0.0
unquestionably 0.0
corrupted 0.0
kasich 0.0
readership 0.0
fraternal 0.0
frankluntz 0.0
demagogue 0.0
unanimous 0.0
bedford 0.0
longtime 0.0
complexities 0.0
dailymail 0.0
couric 0.0
cancelling 0.0
morningmika 0.0
concord 0.0
recounts 0.0
shouldered 0.0
patmccrorync 0.0
executives 0.0
westfield 0.000363656628696
graydon 0.0
sheldon 0.0
tanking 0.0
morning_joe 0.0
fabricated 0.0
corolla 0.0
groveling 0.0
unfolding 0.0
polled 0.0
influx 0.0
underachieving 0.0
antics 0.0
disenfranchised 0.0
golfing 0.0
xfinity 0.0
defies 0.0
fictitious 0.0
districts 0.0
vigilant 0.0
obstruction 0.0
rebuilding 0.0
preserving 0.0
passover 0.0
dhsgov 0.0
thejusticedept 0.0
repealed 0.0
intends 0.0
wildfires 0.0
usedgov 0.0
fresno 0.00045423575562
usnavy 0.0
scotus 0.0
tillerson 0.0
ineffective 0.0
senjohnmccain 0.0
cbsnews 0.0
lawsuits 0.0
caucus 0.0
shimon 0.0
wilmington 0.0
stagnant 0.0
gouging 0.0
baghdad 0.0
wiesel 0.0
obstruct 0.0
gonzalo 0.0
curiel 0.0
hostage 0.0
unnamed 0.0
truckers 0.0
boldly 0.0
scarborough 0.0
evangelical 0.0
cyberattack 0.0
marines 0.0
crimea 0.0
earners 0.0
oversaw 0.0
lobbyists 0.0
rosiegray 0.0
briefings 0.0
actresses 0.0
purchases 0.0
myanmar 0.0
heightened 0.0
shackles 0.0
perjury 0.0
dallaspd 0.0
respectfully 0.0
canton 0.0
approx 0.0
admirals 0.0
naples 0.0
brainwashed 0.0
albuquerque 0.0
supposedly 0.0
coliseum 0.0
greensboro 0.0
sheriffs 0.0
hostages 0.0
explorers 0.0
confidential 0.0
tamara 0.0
infested 0.0
depicted 0.0
devote 0.0
payroll 0.0
bombshell 0.0
advisers 0.0
watergate 0.0
mcmaster 0.0
renews 0.0
housegop 0.0
katyturnbc 0.0
pocahontas 0.0
wherein 0.0
shreds 0.0
pelosi 0.0
chrysler 0.0
collusion 0.0
deductibles 0.0
repmarkmeadows 0.0
darrellissa 0.0
insurer 0.0
dishonesty 0.0
hotlinejosh 0.0
quinnipiacpoll 0.0
apologizing 0.0
priebus 0.0
clapper 0.0
tapped 0.0
operatives 0.0
senschumer 0.0
marcorubio 0.0
viciously 0.0
leakers 0.0
bangladesh 0.0
favorable 0.0
nbcnightlynews 0.0
lockheed 0.0
untruthful 0.0
resonating 0.0
transferring 0.0
staten 0.0
humana 0.0
juanita 0.0
senses 0.0
stimulate 0.0
drooling 0.0
lakeland 0.0
burying 0.0
crafted 0.0
misrepresent 0.0
fabled 0.0
railing 0.0
billyjoel 0.0
sniper 0.0
cnnsotu 0.0
independents 0.0
detroitnews 0.0
foxbusiness 0.0
washtimes 0.0
realbencarson 0.0
meetthepress 0.0
newday 0.0
thebrodyfile 0.0
bostonherald 0.0
foxnewssunday 0.0
thefive 0.0
chriscuomo 0.0
randpaul 0.0
dcexaminer 0.0
facethenation 0.0
bretbaier 0.0
interruption 0.0
allenwest 0.0
cvpayne 0.0
dailycaller 0.0
prosecution 0.0
ballistic 0.0
vetoed 0.0
gettysburg 0.0
groping 0.0
brennan 0.0
nielson 0.0
justices 0.0
operative 0.0
surged 0.0
megynkelly 0.0
terminated 0.0
softbank 0.0
fronting 0.0
rigging 0.0
reprieve 0.0
pocketed 0.0
colluded 0.0
coffers 0.0
stairway 0.0
ellison 0.0
selflessly 0.0
tornadoes 0.0
levine 0.0
scranton 0.0
enslave 0.0
inappropriately 0.0
devalue 0.0
presumptive 0.0
fournier 0.0
terminate 0.0
reptommarino 0.0
kimberly 0.0
subscriptions 0.0
ingrahamangle 0.0
trajectory 0.0
natalie_gulbis 0.0
unheard 0.0
objectified 0.0
turnberry 0.0
djohnsonpga 0.0
bedminster 0.0
golf_com 0.0
elevation 0.0
litany 0.0
unaccountable 0.0
primaries 0.0
disrupter 0.0
runways 0.0
hashanah 0.0
unenthusiastic 0.0
undecideds 0.0
richardtrumka 0.0
renegotiate 0.0
rapists 0.0
aldridge 0.0
unsubstantiated 0.0
misrepresented 0.0
prisoner 0.0
mattis 0.0
weakening 0.0
endakennytd 0.0
taoiseach 0.0
lifeboat 0.0
enabler 0.0
emanated 0.0
lindseygrahamsc 0.0
renegotiating 0.0
waterville 0.0
zucker 0.0
berglund 0.0
suboptimal 0.0
steelworkers 0.0
postpone 0.000169895432334
mohammed 0.0
indignant 0.0
comprised 0.0
stupidest 0.0
exxonmobil 0.0
precluded 0.0
instruct 0.0
gonzales 0.0
scorned 0.0
davidmuir 0.0
harrisburg 0.0
caesars 0.0
borisep 0.0
lapierre 0.0
limbaugh 0.0
petraeus 0.0
phyllis 0.0
illegals 0.0
sanctity 0.0
neurotic 0.0
negligence 0.0
alvarez 0.0
roseanne 0.0
roanoke 0.0
theleegreenwood 0.0
mcallen 0.0
deduct 0.0
chokes 0.0
vigilance 0.0
pensacola 0.0
tuckercarlson 0.0
repcummings 0.0
windham 0.0
teleprompter 0.0
paulareidcbs 0.0
jeffzeleny 0.0
condoleezza 0.0
genflynn 0.0
donaldtrump 0.0
demeanor 0.0
baiting 0.0
plotted 0.0
aptitude 0.0
billings 0.0
approving 0.0
disconnected 0.0
superstorm 0.0
brainpower 0.0
exclaim 0.0
skyrocketed 0.0
globalism 0.0
israelipm 0.0
insurgent 0.0
sneers 0.0
unrest 0.0
scaramucci 0.0
disapproval 0.0
katiepavlich 0.0
overflow 0.0
warped 0.0
scottwalker 0.0
kirstenpowers 0.0
usarmy 0.0
schlafly 0.0
alisonforky 0.0
oppresses 0.0
pedantic 0.0
highness 0.0
benefitted 0.0
fundraisers 0.0
shinzo 0.0
augustine 0.0
ranchers 0.0
middletown 0.0
fiorina 0.0
pueblo 0.0
lindasuhler 0.0
lightweights 0.0
kimguilfoyle 0.0
perdue 0.0
unmasked 0.0
unmasking 0.0
judgejeanine 0.0
boycotted 0.0
outnumberedfnc 0.0
jessebwatters 0.0
podesta 0.0
kristol 0.0
interruptions 0.0
broaddrick 0.0
erictrump 0.0
outspending 0.0
irredeemable 0.0
begala 0.0
brazile 0.0
dinesh 0.0
markings 0.0
ericbolling 0.0
loudobbs 0.0
skyrocket 0.0
blumenthal 0.0
cochran 0.000218104279097
imploding 0.0
discord 0.0
jeffflake 0.0
davidwohl 0.0
bribery 0.0
repkenbuck 0.0
joshrogin 0.0
enrique 0.0
unverified 0.0
retribution 0.0
dwindling 0.0
automobile 0.0
teamtrump 0.0
subpoenaed 0.0
danscavino 0.0
joniernst 0.0
scottadamssays 0.0
senatorfischer 0.0
tabulation 0.0
trafficked 0.0
depict 0.0
unrelenting 0.0
imitating 0.0
dutchess 0.0
adelson 0.0
valuing 0.0
ricksantorum 0.0
chuckgrassley 0.0
laraleatrump 0.0
abingdon 0.0
equating 0.0
ministries 0.0
brzezinski 0.0
sentedcruz 0.0
jamesrosenfnc 0.0
leaker 0.0
realjameswoods 0.0
jim_jordan 0.0
marshablackburn 0.0
boynton 0.0
betsydevos 0.0
lawfare 0.0
larry_kudlow 0.0
stranahan 0.0
waynedupreeshow 0.0
phillypolice 0.0
scottwrasmussen 0.0
johnstown 0.0
raul_labrador 0.0
statewide 0.0
reviewjournal 0.0
oppress 0.0
underlings 0.0
bankrupted 0.0
collude 0.0
fayetteville 0.0
disqualifying 0.0
mahoning 0.0
disloyalty 0.0
americanlegion 0.0
bankruptcies 0.0
morell 0.0
ambridge 0.0
emboldens 0.0
asheville 0.0
grievous 0.0
ricketts 0.0
benefactor 0.0
dwyane 0.0
markhalperin 0.0
mayorbowser 0.0
unverifiable 0.0
savaged 0.0
wheeling 0.0
technocratic 0.0
countr 0.0
thealabamaband 0.0
relives 0.0
unwatchable 0.0
residences 0.0
gatekeeper 0.0
defections 0.0
senatorsessions 0.0
drmoore 0.0
honorably 0.0
billhemmer 0.0
shultz 0.0
aflcio 0.0
trucking 0.0
fabrications 0.0
malleable 0.0
misrepresents 0.0
decimated 0.0
arabella 0.0
mishandled 0.0
interfe 0.0
speach 0.0
iranians 0.0
fraudulently 0.0
enablers 0.0
dealmaker 0.0
terrori 0.0
anarchists 0.0
krzanich 0.0
foxnation 0.0
permeated 0.0
overruns 0.0
disposed 0.0
inaccurately 0.0
peebles 0.0
conditioners 0.0
classifie 0.0
forewarned 0.0
karlrove 0.0
palazzo 0.0
evansville 0.0
rebroadcast 0.0
bangor 0.0
secpricemd 0.0
realdonaldtru 0.0
uschamber 0.0
trumpinaugural 0.0
rawlings 0.0
churchillian 0.0
hemmer 0.0
rudygiuliani 0.0
pynance 0.0
terrybranstad 0.0
cbnnews 0.0
faithandfreedom 0.0
ovations 0.0
scpioneer 0.0
dwstweets 0.0
tgowdysc 0.0
bluffs 0.0
marist 0.0
spluttering 0.0
thetodaysgolfer 0.0
thebig_easy 0.0
hoosier 0.0
senbobcorker 0.0
larsloekke 0.0
roadblocks 0.0
manheim 0.0
greenblatt 0.0
jtanews 0.0
mitchellvii 0.0
bemoan 0.0
michiga 0.0
gennifer 0.0
gulbis 0.0
liyuan 0.0
enlisting 0.0
ainsleyearhardt 0.0
stevedoocy 0.0
foxfriendsfirst 0.0
pastormarkburns 0.0
marksimoneny 0.0
gov_gilmore 0.0
flunky 0.0
agitators 0.0
overdoses 0.0
liliantintori 0.0
leopoldo 0.0
traceadkins 0.0
gopconvention 0.0
governorsununu 0.0
laconia 0.0
teamsters 0.0
gatewaypundit 0.0
lawyerly 0.0
dissipates 0.0
realjeffreylord 0.0
nytimesdowd 0.0
scalise 0.0
straightening 0.0
energizer 0.0
montgomeriefdn 0.0
shulkin 0.0
ericgreitens 0.0
circuited 0.0
govbrewer 0.0
infringed 0.0
mcgarvey 0.0
republicanstudy 0.0
americafirstpol 0.0
fheile 0.0
phadraig 0.0
wiedefeld 0.0
coddington 0.0
kravis 0.0
fighterjet 0.0
shinzō 0.0
votestand 0.0
romoabcnews 0.0
moskowitzeva 0.0
drgoodspine 0.0
levisteveholt 0.0
untrusting 0.0
sleazebag 0.0
lbperfectmaine 0.0
timken 0.0
newhouse 0.0
evancho 0.0
franklin_graham 0.0
eazymf_e 0.0
busineses 0.0
substantialy 0.0
rexnord 0.0
sdcritic 0.0
highonhillcrest 0.0
fiiibuster 0.0
koster 0.0
saucier 0.0
t_lineberger 0.0
cissieglynch 0.0
saysgabrielle 0.0
ravenrantz 0.0
mayorrgiuliani 0.0
deplorablecbtp 0.0
tanden 0.0
keithrowland 0.0
kinston 0.0
sjsopio 0.0
aztrumptrain 0.0
therealmogul 0.0
unclassify 0.0
firebombed 0.0
wikileakes 0.0
davidshiloach 0.0
trumpwomenstour 0.0
mistreats 0.0
willey 0.0
dornsife 0.0
henryleledog 0.0
eericmyers 0.0
atensnut 0.0
arouses 0.0
anyonetennis 0.0
flifeforce 0.0
geeveem 0.0
susiesentinel 0.0
bcuzimdamomma 0.0
freedavidking 0.0
ifdanyt 0.0
arsenmissyirvin 0.0
nycmia 0.0
bigdog_joey 0.0
roadkingl 0.0
decieved 0.0
waukesha 0.0
creati 0.0
thallensboucher 0.0
kenansville 0.0
tarukmatuk 0.0
angpiazza 0.0
laughingstock 0.0
ak_tweet 0.0
kiiara 0.0
jerryjrfalwell 0.0
ghfanlovessonny 0.0
bishopwtjackson 0.0
cynthialummis 0.0
repreneeellmers 0.0
trumpdc 0.0
stvzbnk 0.0
bakari 0.0
adhd_fa 0.0
parisdennard 0.0
ronnieclemmons 0.0
takouis 0.0
lblackvelvet 0.0
chernuna 0.0
annebellar 0.0
presidencies 0.0
rsbnetwork 0.0
meequalsfree 0.0
pmnorlando 0.0
rhondar 0.0
patrici 0.0
lindaharden 0.0
trumpocrats 0.0
lewenskimo 0.0
trump_videos 0.0
sinabunz_tm 0.0
eyecandytmgayle 0.0
catonglass 0.0
billynungesser 0.0
samaritanspurse 0.0
zulu_out 0.0
willspeakout 0.0
laurencristmann 0.0
c_lynne_ryan 0.0
enemywithinn 0.0
elsolarverde 0.0
creats 0.0
dbongino 0.0
bongino 0.0
carl_c_icahn 0.0
fieldoffight 0.0
reploubarletta 0.0
mainegop 0.0
gatewaypun 0.0
mechanicsburg 0.0
pnehlen 0.0
patrioticpepe 0.0
insticts 0.0
borderless 0.0
lallyray 0.0
glowingly 0.0
spinnnn 0.0
flamed 0.0
nancynielsenn 0.0
olimauritania 0.0
theresa_cali 0.0
roxanetancredi 0.0
litigate 0.0
trumpdoonbeg 0.0
berrien 0.0
nbcpolitics 0.0
jakeda 0.0
barrasso 0.0
bluedogdemky 0.0
iowa_trump 0.0
arnold_ziffel 0.0
patricia_graf 0.0
brazosboys 0.0
jimvitari 0.0
trumpturnberry 0.0
trumpscotland 0.0
darrenwaggener 0.0
allegrettivicki 0.0
justininglv 0.0
chrisboydbrew 0.0
votetrumpmaga 0.0
realericjallen 0.0
insinuated 0.0
clubgoers 0.0
ausbiz 0.0
freemarketsara 0.0
senatorjeffsessions 0.0
mabynshingleton 0.0
dale_dangler 0.0
nauthizjane 0.0
richardweaving 0.0
mariadaq 0.0
sara_wejesa 0.0
jimhewitt 0.0
joedefranco 0.0
wolfstopper 0.0
djd_thunder 0.0
excoriates 0.0
rapidcraft 0.0
telepromter 0.0
liliannyleebou 0.0
lunsfordwhitney 0.0
free_sa_bd 0.0
stockdaleism 0.0
admonished 0.0
nbcdfw 0.0
frankylamouche 0.0
sandiegopd 0.0
tombarrackjr 0.0
buiidthewall 0.0
pipersul 0.0
oasisupernova 0.0
jknatter 0.0
jasondovesq 0.0
ed_klein 0.0
overregulates 0.0
dubilujane 0.0
rbacliff 0.0
ltstevenlrogers 0.0
rowanne 0.0
shoneep 0.0
magicmetalninja 0.0
barbaro 0.0
michael_favreau 0.0
christichat 0.0
mai_ttag 0.0
thydanielflores 0.0
costakenneth 0.0
svhlevi 0.0
johnjohnlacca 0.0
ladytsbrug 0.0
frankdallasagg 0.0
ladyjoanne 0.0
gerriweth 0.0
longbyfive 0.0
wesleyfelixpsi 0.0
manakoa 0.0
ragdollive 0.0
xgodfatherxzx 0.0
trumptrainrider 0.0
aprillajune 0.0
takingit_back 0.0
distlerjoyce 0.0
queencharlotteo 0.0
kellyriddell 0.0
valdosta_monkey 0.0
daybastrop 0.0
nathandwilsonfl 0.0
mathewjmari 0.0
stupor 0.0
matandsher 0.0
edgoeas 0.0
lynnepatton 0.0
erictrumpfdn 0.0
mikeozanian 0.0
lexingtonbobby 0.0
annettejeanne 0.0
andrebauer 0.0
waterbury 0.0
greenskydeb 0.0
keksec__org 0.0
ashleyedam 0.0
trumptbird 0.0
herb_stamper 0.0
senfrankniceley 0.0
anneslimo 0.0
agentvf 0.0
hornick 0.0
gqforbes 0.0
governor_savage 0.0
carolde 0.0
fugedaboudit 0.0
dnglax 0.0
alexnightrasor 0.0
lilrachiepoo 0.0
