awesome 0.000537967176091
christmas 2.98060633642e-05
trying 0.000511053956336
launch 0.0
moment 0.000351558767067
wonderful 0.0
seeing 0.000165796093096
hanging 0.0
sounds 0.000373063460274
recommend 8.00698469248e-05
worked 0.000290879323671
direct 3.80884422902e-05
others 0.000173585675435
currently 3.19966583695e-05
better 0.000691837327812
please 0.000593343960988
social 0.000391710297464
anxiety 0.0
around 0.000665228199819
people 0.00133045639964
morning 0.000535059229345
traditional 0.000102125289816
general 0.000137920559605
damage 0.0
everything 0.000267529614673
twitter 0.000590153757911
present 0.0
though 0.000222857864949
friend 0.000242078189843
watched 9.0640685408e-05
beautiful 5.51165020139e-05
anything 0.000271891864499
previous 0.000169055868011
helped 2.93251624198e-05
updated 0.000212617851553
thinking 0.000191353390065
finally 0.00038270678013
caught 0.000120526245373
believe 0.000613661793538
already 0.000240128527906
couple 5.84917010083e-05
orlando 0.0
chance 0.000454800344943
meaning 3.95639531499e-05
growing 3.20846225091e-05
probably 0.00069622376075
password 0.0
changed 8.58591734604e-05
history 0.000413373765104
center 0.000175324897216
museum 0.0
behind 0.00047896430387
screaming 0.0
pretty 0.000847422156001
really 0.00240776653205
little 0.000240128527906
happiest 5.66431253597e-05
earlier 9.39096649668e-05
forget 5.42319677015e-05
someone 0.000782135221302
safety 0.000232555777047
program 3.72194955917e-05
things 0.000612009943833
related 7.86631150836e-05
visiting 7.38016391825e-05
available 0.000138910860295
perfect 0.00019500063183
different 0.000244702678049
search 0.000178819730351
connect 5.00051894166e-05
numbers 0.000100320657767
person 0.000268251708141
watching 0.00037656607309
exhibit 0.0
passed 9.78558085884e-05
prefer 4.03937036573e-05
minutes 0.000248694139644
travel 9.81259522776e-05
outside 0.000254808909755
looking 0.000160085685271
forward 0.000247356247048
agreed 3.58653142993e-05
raising 0.0
listened 0.00021196726033
afraid 0.0
impression 0.000344084896455
christian 4.69095102857e-05
profile 3.6585914993e-05
instant 5.49258115903e-05
drawing 4.76898925495e-05
wheels 0.0
favorite 0.000341525492715
picture 5.69309364807e-05
instead 0.000241052490747
appreciate 6.29497880891e-05
international 0.0
station 0.000187710172128
toddler 0.0
market 0.000252484516627
couldn 0.000167143398712
remember 0.000321035537607
vintage 0.000121935224712
holidays 0.0
friends 0.00034966849644
everyone 0.000428047383476
florida 0.000157790006552
always 0.000558791687848
months 0.000167595039092
moving 0.000143874400958
meeting 5.48200207123e-05
answer 0.000219280082849
sweetie 7.88949560694e-05
together 0.000187776195699
inside 5.57144662372e-05
section 4.11261112145e-05
missed 0.000162695903105
button 0.0
longer 0.000123515298612
enough 0.000621988587888
driving 6.54173015184e-05
building 0.000120199251224
enjoying 3.27086507592e-05
london 0.000190929586113
exploring 0.0
posting 4.01539801621e-05
amazing 0.000346852318086
attention 0.00021207071019
gordon 0.000106235407461
progress 3.71128456373e-05
tomorrow 0.000642071075214
george 9.97662987064e-05
feeling 0.000140039967269
excited 2.79325065153e-05
understand 0.000116667097142
following 8.42510854479e-05
asleep 4.93228666984e-05
learning 0.0
evening 3.0627397951e-05
special 0.000296671980494
secret 2.99683146473e-05
across 5.97741306768e-05
surprised 0.000191453904377
anymore 0.000102291804434
sophia 0.0
precious 0.0
rejoice 0.0
version 2.95645265046e-05
rather 0.000390647566477
avatar 0.000135533817487
showing 2.85424845835e-05
saying 0.000670380156368
tweeted 0.000141449164916
thoughts 5.67773483338e-05
exactly 0.000202516621341
except 0.000102291804434
getting 0.000668824036681
nothing 0.000454800344943
tweets 0.000265360490925
course 0.000497388279289
photos 6.47005464957e-05
looked 3.03783247315e-05
difficult 3.52628177374e-05
stages 0.0
office 5.78618918118e-05
decisions 0.000201968518286
brought 0.000148223977141
biggest 0.000275582510069
thrilled 4.07573876056e-05
something 0.000802588844018
closing 7.95967926457e-05
anyone 0.000323642160539
taking 0.000401294422009
recently 6.95419058757e-05
interesting 0.000417284887098
original 6.32953623942e-05
flying 6.72525956645e-05
happening 0.000145833871427
sometimes 0.00017690699395
lessons 0.0
village 0.0
stopped 0.000156944597022
yesterday 0.000215761440359
service 8.82141343249e-05
serious 0.000171718346921
digital 3.96809165382e-05
hoarder 0.0
wearing 0.000188333516426
british 0.0
either 0.000291667742855
second 0.000512433420853
checking 0.000104020985055
indeed 0.000109445308635
island 0.0
hearing 0.000508080110753
choose 3.14748940446e-05
staying 3.61717567802e-05
another 0.000506938003357
clothes 0.0
slowly 0.0
weekend 0.000135579919254
hashtag 7.88950032761e-05
delivery 4.89881562726e-05
theory 0.000219304969527
working 0.000107011845869
bigger 9.41667582131e-05
screen 7.23435135604e-05
riding 0.0
laughing 0.000190406984114
wanted 0.000378601749149
trends 0.0
stripes 0.0
clothing 0.0
current 0.000315611473713
adorable 5.05286645544e-05
grateful 3.49666091723e-05
friendship 0.0
family 0.000187270730271
listening 0.000293251624198
stream 7.35908735367e-05
expressions 0.0
wedding 0.0
sharing 0.0
double 0.000151479078707
especially 0.000237158363425
middle 3.07109431625e-05
waiting 0.000219280082849
definitely 8.77375515124e-05
walking 0.000160423112545
account 3.13889194044e-05
completely 0.000190406984114
thought 0.000647284321078
reaction 0.000292687319944
accept 3.41924708509e-05
simple 3.11326497382e-05
professional 7.93618330764e-05
friendly 3.97983963228e-05
supposed 0.000106687082409
business 0.000115411194524
absolutely 8.58591734604e-05
anywhere 3.5662962541e-05
sending 3.1047772065e-05
introducing 0.0
congrats 0.000561673902986
beauty 0.0
community 3.29806373998e-05
greatest 0.000233966804033
selfie 8.00698469248e-05
posted 9.49430435913e-05
saturday 0.000197650234061
wednesday 0.000129045711987
confused 7.79734520066e-05
expression 0.0
chicago 0.000400158331355
closest 0.000102125289816
relationship 7.19341403419e-05
actually 0.000685250258904
easter 0.000109757744979
basket 0.0
myself 3.50649794432e-05
argument 0.00020625081659
school 0.000190324305149
thursday 0.000228957795895
selling 0.000109757744979
talented 0.0
celebrate 0.0
falcon 0.0
celebrating 6.38179681257e-05
contest 0.0
experiences 0.0
students 3.54621379802e-05
internet 6.65108658043e-05
figure 0.000159983291847
opened 3.91011740421e-05
featuring 3.47709529379e-05
inspired 6.47005464957e-05
sitting 3.02135618027e-05
playing 0.000598162101897
street 8.89343862845e-05
points 0.000445744200184
memory 0.0
forever 9.0640685408e-05
imagine 0.000119224253457
problem 0.000286971892518
played 0.000627628372107
canadian 0.000415362277685
pulling 0.0
keeping 0.000119548261354
lovely 6.72525956645e-05
dressed 4.31838803219e-05
specifically 0.0
unlike 0.0
disappointed 0.0001610942878
otherwise 3.79782594081e-05
afternoon 6.29497880891e-05
planned 7.68435102819e-05
strange 8.22522224289e-05
images 0.0
noticed 4.23934520661e-05
notice 3.62746935739e-05
stretch 0.000197291466794
inspiration 0.0
letting 3.28896659334e-05
system 6.68804385116e-05
possibility 0.0
almost 0.000454800344943
details 8.77375515124e-05
experience 0.000139662532577
living 0.000167595039092
weather 0.0
normal 0.000143461257197
launching 0.0
before 8.70279700938e-05
captured 0.0
colors 5.14246794451e-05
monday 2.79325065153e-05
example 7.07245824579e-05
realize 0.000230530530846
autographed 0.0
sleeping 0.0
authentic 6.61339345948e-05
science 0.000113277759009
tweeting 3.05441142273e-05
forgot 0.000201198575326
chasing 5.55568876826e-05
gorgeous 8.69053233558e-05
herself 0.0
happens 0.000166243932851
silence 0.000168540435953
learned 0.000278668478462
congratulations 0.0
natural 0.0
raised 0.000104899827517
babies 0.0
mission 0.000108824080722
smelled 0.0
ironic 5.94466768063e-05
testing 0.0
deleted 0.000159353111191
barely 4.66036548724e-05
unforgettable 0.0
forgotten 0.0
trouble 9.92157628417e-05
fantastic 0.000157805736856
loving 3.15611473713e-05
complete 0.000184265658975
nearly 0.000175818573627
spirit 6.93473233701e-05
launched 0.0
finding 3.27086507592e-05
mercury 0.0
stories 0.000115723783624
including 0.000208077150563
mature 7.29573007517e-05
stuffed 0.0
ancient 5.70903481222e-05
bottle 8.35044744636e-05
somewhere 3.48686012236e-05
wouldn 0.000230822389048
choice 0.000313967330419
conversation 0.000260230869359
making 0.000400214213177
expect 0.000160423112545
occasions 0.0
subject 4.48388671778e-05
flights 0.0
location 0.0
vacation 0.0
seriously 5.91290530091e-05
spending 6.65108658043e-05
groups 0.0
childhood 0.0
modern 3.85337937401e-05
welcome 0.000216343856657
moments 0.000166277164511
degrees 0.0
jacket 4.7218922237e-05
halloween 4.01539801621e-05
costume 0.0
totally 0.000679334142367
laughed 0.000152116410126
flight 9.62538675272e-05
kidding 0.0
regular 0.000317447332306
context 0.000135374968771
running 0.000112334780597
finished 0.0
strong 0.000192907757048
tracking 6.31409935374e-05
respond 0.000121181110972
message 8.51660225006e-05
coming 0.000400214213177
thankful 0.0
cheese 0.0
greens 0.0
issues 0.00022336288844
intolerance 0.0
happen 0.00010905036395
giving 0.000108171928328
turkey 0.0
excellent 0.0
limits 0.0
common 3.30719209472e-05
pressed 0.0
situation 0.000209799655034
options 8.35044744636e-05
health 3.15611473713e-05
insurance 0.0
change 0.000267529614673
singing 0.000214583676421
august 0.0
crying 0.000168540435953
mental 0.000119395188969
happened 0.00028159612827
demand 7.05256354749e-05
generally 0.0
personal 8.72637971013e-05
beyond 5.97741306768e-05
bruised 0.0
question 0.000437379177291
chicken 0.000115265265423
reward 5.57706167674e-05
tunnel 0.0
losing 0.000428748286197
respect 8.77375515124e-05
caption 0.0
shouldn 0.000127986633478
visited 0.0
reason 0.000253436515443
simply 6.68804385116e-05
darlin 0.0
audience 0.000259046350027
involved 0.000124530598953
unhappy 0.0
reality 3.18215976855e-05
extremely 7.77455362151e-05
without 0.000269701800449
falling 0.00019723750819
countdown 0.000194630415392
locations 0.0
timing 4.75319744124e-05
crabby 0.0
classic 0.000196794026529
highly 0.00011426532687
online 5.75497603834e-05
finger 4.55600258961e-05
animals 4.46969514921e-05
planets 0.0
called 0.000242078189843
delicious 0.0
almond 0.0
compliment 5.35090214886e-05
pictures 0.0
camera 6.99332183445e-05
pillow 0.0
checked 3.79782594081e-05
heading 6.36431953709e-05
theater 0.000101057329109
paying 3.47709529379e-05
planning 3.47709529379e-05
complex 0.0
sunday 5.52653643654e-05
nights 0.0
descending 0.0
traffic 4.01539801621e-05
opposite 0.0
through 0.0
lookout 0.0
reached 0.000198404582691
harder 3.72194955917e-05
random 7.79734520066e-05
changes 0.000132287683789
speaking 0.000122509591804
recorded 4.06356064869e-05
washed 0.0
november 3.58653142993e-05
answered 4.22639670028e-05
enchanted 0.0
number 0.000219280082849
adventures 0.00012742650981
eclipse 0.0
chocolate 0.0
unless 0.000197883824399
calling 0.000112334780597
mermaid 0.0
distraction 0.0
levels 4.11261112145e-05
option 0.000155037184698
shopping 0.0
former 0.000336262978322
actual 0.000142249443212
covers 0.0
mountain 4.7218922237e-05
friday 8.13479515523e-05
winner 0.000416154301126
closes 0.0
quality 0.000103730174592
father 3.04610903597e-05
wishes 0.000104605803671
hourly 0.0
matter 8.60915677555e-05
themselves 0.0
usually 0.000142651850164
period 0.000239498382503
parents 3.20846225091e-05
balance 4.16258278349e-05
publishing 5.70903481222e-05
mobile 8.8830741581e-05
woohoo 0.0
bracelets 0.0
summer 8.65583958928e-05
reminded 4.64520354992e-05
impressed 0.0
necklace 0.0
shutdown 0.0
dinner 0.0
single 0.000110233004028
packed 4.38609939055e-05
definition 0.0
energy 3.18215976855e-05
preview 0.000418972865192
monster 4.61513641872e-05
material 4.57066330328e-05
admission 0.0
europe 0.0
holiday 0.0
emotional 7.70675874803e-05
update 0.000218524593143
customers 0.0
messing 0.0
holding 6.32953623942e-05
electric 0.0
eating 0.000100320657767
outfit 0.0
picked 0.000233433659717
fabulous 4.66036548724e-05
missing 0.000171254907501
surprise 5.72394489736e-05
officially 6.24355980409e-05
french 0.000103151712756
global 3.57639460701e-05
follow 0.000268975766493
opinion 0.000139474404894
backwards 0.0
design 0.000121181110972
secrets 0.0
request 8.25003266358e-05
breaks 0.00014105127095
allows 0.0
promoting 0.0
volunteer 0.0
wondering 0.000145512120493
official 0.000248694139644
sweater 6.31409935374e-05
jersey 0.000764686244755
mistake 7.40132428648e-05
france 0.0
proper 0.0
ginger 0.0
peaceful 0.0
lighter 0.0
thinks 9.36533970614e-05
competition 7.23435135604e-05
hospital 0.000194933630017
industry 3.77592530031e-05
trending 0.000132827070024
leadership 8.37585000341e-05
organized 6.77669087437e-05
showed 0.000100878893497
circle 0.0
success 9.0640685408e-05
ladies 7.33809393158e-05
dreams 3.51637147253e-05
protect 0.000137152061595
onesie 0.0
explanation 4.7848753487e-05
control 0.000119548261354
coincidence 5.64223014535e-05
discovering 0.0
laying 0.0
invited 3.76504220621e-05
healthy 3.62746935739e-05
surgery 0.000250892696989
allowing 4.69095102857e-05
arrived 6.47005464957e-05
opening 0.000145439661835
popular 7.31718299859e-05
pleasure 0.0
spectacular 4.88223667769e-05
animal 0.0
luggage 0.0
wonder 0.000145046616823
matters 0.0
reader 0.000339858752158
function 0.0
marketing 5.51345117033e-05
connection 4.35880773798e-05
improves 0.0
benefit 0.000100599287663
continues 0.0
cuddle 0.0
routine 0.000108618712689
exciting 3.20846225091e-05
corner 0.000152796333258
imagination 0.0
sangria 0.0
mystery 9.7315207696e-05
spring 3.41924708509e-05
beautifully 0.0
places 3.19089840628e-05
feedback 0.0
continue 9.26364739591e-05
attend 4.02735719499e-05
creative 3.77592530031e-05
memories 0.0
female 0.0
grandma 5.64223014535e-05
closer 0.0
accent 0.000116957931015
beginning 0.0
sooner 0.0
everywhere 6.38179681257e-05
scenes 3.40972681447e-05
bought 3.27086507592e-05
wishing 0.0
discovered 0.0
remove 0.0
predict 5.35090214886e-05
parrot 0.0
several 0.000231202762441
teacher 7.98327941676e-05
passing 7.23435135604e-05
become 0.000111730026061
spread 3.05441142273e-05
netflix 0.000621815191067
season 0.00144474045059
putting 0.000140418475747
weight 8.32516556699e-05
outfits 0.0
notification 0.0
annoying 0.000104703841158
necessity 8.21572969501e-05
knocks 0.0
processed 0.0
necessarily 0.0
effects 0.0
lighting 0.0
headed 0.000141449164916
returns 7.17306285987e-05
expected 0.00034479167676
bucket 0.0
constantly 0.0
sweetest 0.0
struggling 4.6301275164e-05
register 0.0
transition 5.17917077192e-05
flowers 5.07054700421e-05
sprain 0.0
savage 0.0
somebody 3.99163970838e-05
covering 0.000124124389391
gloves 6.17619736734e-05
repeat 0.0
managers 0.0
brothers 0.000123007904283
patriots 0.0
seahawks 0.0
player 0.00179167558666
chemistry 5.84789655077e-05
moonlight 7.74024642722e-05
comment 0.000137920559605
columbia 0.0
physical 8.91115773566e-05
kingdom 0.0
pretend 0.0
charles 8.58355736491e-05
fighting 3.04610903597e-05
rooting 0.000321054128931
donald 3.8421755141e-05
mexico 3.86463060769e-05
police 0.000137920559605
represent 0.000135807638578
president 2.97253072233e-05
talking 0.00032190204977
unbelievable 0.0
shrimp 0.0
giants 0.0
conference 0.000265308149795
america 2.84654682404e-05
everybody 9.89419121993e-05
houston 0.0
everyday 0.0
michael 0.000241708494421
protecting 0.000143069677648
unconditional 0.0
million 8.42510854479e-05
election 0.0
telling 9.11349741946e-05
correct 0.000137920559605
pulled 0.000160615920648
starbucks 0.0
americans 0.000111658486775
killed 8.94181900925e-05
cowboys 0.0
cowboy 0.0
coverage 0.000290197548591
dallas 0.000308957170425
coffee 6.74396547533e-05
timeline 9.1708104803e-05
refuse 0.0
barackobama 0.0
hillary 0.0
clinton 0.0
gatorade 0.0
sharper 0.0
american 0.000255498067502
deserved 0.0
realist 0.0
illegal 0.0
arizona 0.00015877254584
waffle 0.0
scared 0.0
pieces 0.00011869185945
taught 0.0
golden 0.000468899816593
straight 2.96447954282e-05
massage 0.0
filter 0.0
answers 3.44801399012e-05
smoking 0.0
created 6.43457568084e-05
beside 0.0
worlds 0.000656872639207
record 0.000279325065153
freddie 0.0
africa 0.0
recruiting 0.0
journey 3.47709529379e-05
snapchat 0.0
brother 0.0
prayers 4.18792500171e-05
trolling 0.0
hungry 0.0
nflnetwork 0.0
documentary 0.000120104770387
boston 0.000270524142538
addition 0.0
church 4.06356064869e-05
honestly 0.000229194499886
lounge 0.0
lifetime 0.0
captain 0.000181656888361
favorites 9.50639488248e-05
country 0.000110530728731
valley 0.0
huddle 0.0
dressing 5.19771379329e-05
finish 0.000131558663734
favourite 8.63677606438e-05
prayer 0.0
nominated 0.000120461940486
praying 5.49258115903e-05
insane 7.91279062999e-05
national 0.000318240404965
reform 0.0
shooting 3.34402192558e-05
australia 0.0
deserve 0.000131196017686
legend 7.13259250819e-05
mother 2.98060633642e-05
realest 0.0
creating 0.0
powerful 6.52372057256e-05
chilling 0.0
wisdom 0.0
breaking 0.0003452985623
parked 0.0
angeles 4.66036548724e-05
dollars 0.0
questions 0.000575610217479
racist 9.63386985373e-05
girlfriend 0.0
performance 0.000123852657094
refreshing 6.25807806774e-05
educated 0.0
reading 0.000141943370834
denver 0.000223944305883
videos 6.89602798024e-05
harmony 0.0
create 9.28894928206e-05
jordan 4.66036548724e-05
admire 0.0
nobody 0.000163995022108
government 0.0
politics 7.57370617795e-05
paradise 5.84789655077e-05
recover 0.0
spotted 4.51249895904e-05
blessing 0.0
coolest 4.73749879512e-05
banana 0.0
donate 0.0
sandwich 0.000198647364263
lookin 0.0
method 0.0
bullshit 0.0
slight 6.25807806774e-05
bringing 9.01494384179e-05
deserves 7.1124721606e-05
regret 9.41275330643e-05
celebs 0.0
victim 0.0
stadium 0.0
funniest 0.0
according 0.000106386413941
pumped 5.33126432689e-05
hamburger 9.63347608969e-05
heaven 4.23934520661e-05
honest 6.65108658043e-05
rolling 0.0
became 0.000133760877023
feature 3.66904696579e-05
waking 0.0
breakfast 0.0
counting 0.0
signing 0.000175324897216
adding 8.47869041322e-05
awareness 7.66203726134e-05
kindest 0.0
trainer 0.0
facebook 0.000143098622434
insanity 0.0
repost 0.0
brazilian 0.0
campaign 0.0
borrow 0.0
scorpion 0.0
popcorn 6.14945430003e-05
factory 5.45132587064e-05
teenage 5.87176139952e-05
endorsement 0.0
williams 8.5308655919e-05
custom 5.37068597828e-05
drinks 0.0
future 0.00035825726309
angels 0.0
fingers 0.0
sister 7.19341403419e-05
earrings 0.0
warrior 0.000113731594373
dancing 0.000150168137702
voting 0.000263845099198
individuals 0.0
presence 0.0
commercial 3.66904696579e-05
chopped 0.0
religion 0.0
century 0.0
submit 0.0
serving 0.0
because 0.000154135174961
aggressive 0.0
sensitive 5.59860764708e-05
smiling 0.0
besides 0.0
cleveland 0.0
hometown 0.0
killing 6.81945362894e-05
breath 0.0
phillips 0.0
instagram 3.71128456373e-05
sharks 0.000887958201963
cousin 0.0
honored 0.000148451382549
dedication 5.64223014535e-05
lifting 0.0
lyrical 0.0
talent 7.13259250819e-05
goodnight 0.0
stores 0.0
rushing 6.77669087437e-05
brains 0.000117916844454
sandwiches 0.0
drinking 0.0
brazil 0.0
tattoo 0.000112406590097
ravens 0.0
regardless 0.0
skills 0.0
cameras 0.0
phones 0.0
california 0.0
seconds 0.00014305578428
listen 0.00030395950401
smiled 0.0
kicking 0.0
homies 0.0
billion 7.66203726134e-05
shades 0.0
shoutout 5.05286645544e-05
grammy 6.31409935374e-05
guilty 4.52692128595e-05
stevie 0.0
ceiling 0.0
carpet 0.0
grammys 0.0
harvard 0.000242832036193
panther 0.0
nelson 0.0
mandela 0.0
handle 3.48686012236e-05
sexiest 8.21572969501e-05
promise 3.17344973524e-05
hosting 7.01299588865e-05
hahahaha 0.0
longest 0.000142595923237
tuesday 0.000182269948389
locker 0.000239776232664
workout 5.19771379329e-05
ingredient 0.0
leader 0.0
pageant 0.0
character 0.00010729183821
idiotic 0.000326340142331
mirror 0.0
jackson 4.31838803219e-05
interview 0.000299081050949
battles 5.53448616366e-05
bleach 0.0
insight 9.50639488248e-05
obviously 0.000300336275404
replay 5.92014296509e-05
battle 6.209554413e-05
stomped 0.0
destroy 0.0
killer 4.06356064869e-05
personally 3.86463060769e-05
winning 0.000228339876668
gettin 0.0
japanese 4.89881562726e-05
writing 0.000340594807009
society 0.000110702458774
officers 0.0
brooklyn 0.000162321013759
sources 9.20045861045e-05
incredible 0.000403939180833
poster 0.000127180356198
celebrity 4.37241857481e-05
memorable 0.0
werent 0.0
chased 9.44333001781e-05
minute 0.000150657806717
confession 0.0
pregnant 5.47187356192e-05
cherry 0.000234870455981
twinning 0.0
phoenix 0.0
orange 4.00349234624e-05
policy 7.84322329167e-05
comedy 0.000292265660623
illuminati 0.0
reminder 0.000128691513617
evidence 7.93618330764e-05
iphone 0.0
kicked 0.000175443975622
intentions 0.0
freedom 0.0
patient 0.0
utterly 5.75452160874e-05
mississippi 7.55343901675e-05
download 3.77592530031e-05
assistant 0.000216428018345
invite 0.0
central 3.52628177374e-05
washington 0.000247536038603
stronger 0.0
promised 0.0
worried 3.86463060769e-05
throwing 0.0
security 3.54621379802e-05
cologne 0.0
headphones 0.0
sanctuary 0.0
fantasy 0.000202821880168
monkey 0.0
approve 0.0
spinach 0.0
turning 3.34402192558e-05
helping 5.88094228832e-05
tickets 0.000161751366239
collector 0.0
physically 0.0
slavery 0.0
december 3.71128456373e-05
basically 0.00023392035602
return 0.00032520979155
yassss 0.0
goddess 0.0
locked 4.49815438091e-05
feelings 9.23027283744e-05
language 0.0
motion 4.70637665322e-05
obsessed 9.38190205714e-05
creation 0.000162321013759
followers 0.0
schools 0.0
gallery 0.0
movies 0.000120104770387
foster 0.0
children 2.94047114416e-05
nation 0.000100878893497
theaters 5.68657971863e-05
between 0.000293588069976
knowledge 3.79782594081e-05
begins 6.3993316739e-05
robinthicke 0.0
faithful 0.0
peeing 0.0
closet 6.28594128358e-05
bodies 0.0
italian 0.0
highlights 4.02735719499e-05
spanking 0.0
forbes 0.0
parade 0.0
tasted 8.21572969501e-05
consider 0.000141848551921
reunion 0.000161120579348
latest 0.000289309459059
dedicated 4.55600258961e-05
beyonce 0.0
perform 0.0
signed 0.000117937995967
tuxedo 0.0
princess 0.0
shelter 0.0
germany 8.12712129737e-05
explaining 4.61513641872e-05
married 3.95639531499e-05
millions 0.0
blessings 0.0
iconic 0.0
indonesia 0.0
braids 0.0
dollar 0.0
rigged 0.0
replied 0.0
lights 7.68435102819e-05
turned 5.86503248395e-05
excuses 0.000178340030419
jackie 0.0
charge 0.0
performing 0.0
ticket 0.000143461257197
steady 6.42980944468e-05
whispers 0.0
finest 0.0
confucius 0.0
diamonds 7.78907188516e-05
vancouver 6.61339345948e-05
addicts 0.0
collection 0.000110071408974
families 0.0
select 4.76898925495e-05
hitting 0.000106988887623
announced 0.000130115434679
decided 0.000127986633478
jewels 8.65499251565e-05
lottery 0.000955698823572
owners 0.000257123397226
respects 0.0
celebration 7.5084068851e-05
memorial 8.69053233558e-05
landed 4.17522372318e-05
pastor 0.0
ultimate 3.87592961744e-05
incase 0.0
rapper 0.0
episode 0.000606270697194
bounce 0.000254853019619
disney 0.0
muffin 0.0
kansas 0.0
sherman 0.0
retweet 0.0
midnight 0.0
patience 5.35090214886e-05
cereal 0.0
joining 6.29497880891e-05
released 6.22652994764e-05
release 0.000175950974519
models 5.16075607698e-05
classics 7.42146588127e-05
popped 0.0
mileycyrus 0.0
highlight 0.0
scholarship 0.0
within 0.000136389072579
hahahahaha 0.0
standing 3.05441142273e-05
higher 0.000143461257197
purple 0.0
skinny 0.0
justice 0.000107901210513
served 0.0
speaks 3.86463060769e-05
horses 0.0
houses 0.0
purchase 0.0
dropped 3.29806373998e-05
conversations 0.0
consideration 0.0
seattle 9.76447335537e-05
cookie 0.0
slurpee 0.000125567875901
strength 0.000111019864297
screens 0.0
monica 0.0
incredibly 0.000113277759009
streets 0.0
boyfriend 0.0
private 3.42880153988e-05
skittles 0.0
barbie 0.0
apologizes 0.0
designer 0.0
impress 0.0
cooking 0.0
exclusive 6.34689947048e-05
fashion 0.0
petite 0.0
talkin 0.0
peaches 0.0
bitches 0.0
nailed 5.39061800256e-05
weirdest 0.000139737442981
whomever 0.0
teaching 0.0
disgusting 0.000209407682317
chillin 0.0
philly 0.000350036325916
rights 0.000144276866644
dinosaur 0.0
exotic 0.0
dancers 0.0
cheers 4.13747964638e-05
presents 4.37241857481e-05
flawless 0.0
dating 5.29241819466e-05
victory 0.000229194499886
marley 0.0
productive 0.0
smurfs 0.0
halftime 0.0
insecure 0.0
horror 0.000106235407461
warning 0.0
discovery 0.0
convention 0.0
understanding 3.85337937401e-05
action 5.73943785037e-05
having 0.0
speaker 0.0
clever 0.0
theatre 0.0
honors 0.0
evolution 0.0
produce 0.0
spider 0.00012406423885
apologize 9.86457333968e-05
formation 0.0
letter 3.29806373998e-05
therapy 0.0
untrue 0.0
written 0.000130474411451
communication 5.82424383682e-05
disease 0.0
marching 5.75452160874e-05
suggest 4.13747964638e-05
georgetakei 0.0
hairstyle 0.0
humans 0.0
journal 0.0
foundation 0.00011426532687
access 0.0
venture 0.0
syndrome 0.0
writes 4.35880773798e-05
colorado 0.000117916844454
medicine 5.39061800256e-05
tremendous 0.000101057329109
nytimes 4.05143801815e-05
kindness 0.0
cannot 2.98060633642e-05
reveals 3.99163970838e-05
invented 0.0
sapphire 0.0
candidate 0.000127570710932
sexual 4.69095102857e-05
madison 5.89584222269e-05
illustration 0.0
newark 9.02007273596e-05
globally 0.0
incorrect 0.0
headline 0.0
reflect 4.93228666984e-05
streaming 0.000131172557244
leaders 0.0
supreme 0.0
protest 4.52692128595e-05
policies 4.84938548513e-05
silenced 7.74024642722e-05
defend 0.000174896742992
communicating 0.0
climate 0.0
wrapped 0.0
studio 0.000186097477958
conspiracy 5.27320574441e-05
interviews 0.000145098774296
differentiation 0.0
confusing 5.39061800256e-05
february 0.0
hamilton 0.000211696727786
loneliest 0.0
amazon 8.10287603631e-05
scattered 0.0
francis 0.0
headlines 0.000197291466794
january 0.0
diversity 0.0
universal 0.0
hurricane 0.0
identifying 0.0
countries 0.0
tickled 0.0
becker 0.0
connected 5.2163869422e-05
suggestion 5.16075607698e-05
filled 7.5084068851e-05
education 0.0
mentioned 0.000235989345251
defining 0.0
exists 4.96618410658e-05
unexpected 5.16075607698e-05
plants 0.0
orders 0.0
olympics 0.00127912467468
ability 3.88727681075e-05
director 0.0
content 0.000125256711695
cycling 0.0
previously 0.0
correction 0.0
pearls 0.0
ambassador 0.0
preparing 4.46969514921e-05
depend 6.87970681535e-05
downloads 0.000167903701246
lovers 5.37068597828e-05
weekly 9.23027283744e-05
hudson 0.0
bridge 8.61010019099e-05
becoming 3.42880153988e-05
magazine 3.71128456373e-05
appropriate 9.66622147675e-05
shakespeare 0.0
travesty 0.0
discoveries 0.0
fellow 0.0
reviewed 6.14945430003e-05
copies 5.08834581839e-05
driven 0.0
aussies 0.0
result 0.0
announcing 0.0
visual 0.0
restrictions 0.0
culture 0.000184504097956
edition 3.57639460701e-05
prince 0.000116277888523
shocks 0.0
symmetry 0.0
clicks 0.0001643145939
disagree 8.27495929275e-05
experiments 0.0
mistakes 0.000190759570198
trolls 0.0
blossoms 0.0
offered 8.79970181698e-05
inspiring 0.0
counter 5.05286645544e-05
approach 7.95967926457e-05
embarrassing 0.0
creators 0.0
edited 0.0
berniesanders 0.0
overnight 0.000229267240612
spotlight 5.47187356192e-05
probable 8.79507289988e-05
repeating 0.0
concerns 4.88223667769e-05
massive 3.39078785339e-05
promising 0.0
promises 5.08834581839e-05
colored 7.78907188516e-05
production 0.0
header 7.42146588127e-05
itunes 0.000485504124953
secretary 4.66036548724e-05
highway 0.0
dangerous 0.0
letters 0.0
typically 6.64526105952e-05
saving 7.75185923489e-05
pioneer 0.0
visuals 0.0
universe 0.0
ordering 0.0
victims 0.0
privacy 0.0
disclosure 0.0
proceeds 5.35090214886e-05
musical 0.0
collide 0.000155781437703
melbourne 0.0
correctly 5.35090214886e-05
campus 0.0
debate 0.000412606851025
conflict 0.0
meanwhile 4.69095102857e-05
petition 4.81693492686e-05
contribution 0.0
stated 0.0
humanity 0.0
illness 5.82424383682e-05
flawed 0.0
breathe 0.0
winners 7.07245824579e-05
spanish 0.0
comedic 7.99385850456e-05
awards 0.000557897619577
presidential 4.45557886783e-05
candidates 0.000135374968771
glasgow 0.0
smells 0.0
treasure 5.73168101529e-05
greater 4.35880773798e-05
themed 6.34255858545e-05
distribution 6.95066869535e-05
absurd 5.75452160874e-05
squirrel 0.0
sisters 0.0
stress 0.0
leading 0.000203447271203
resolution 0.0
achieved 0.0
interacting 0.0
boiling 0.0
examples 5.68657971863e-05
diverse 0.0
suicide 5.27320574441e-05
parallel 0.0
minneapolis 0.0
impairs 0.0
pumping 0.0
slides 0.0
choreography 0.0
element 0.0
serves 0.0
jumping 0.0
rising 4.3050500955e-05
believed 4.89881562726e-05
features 0.0
environment 0.0
revealed 4.35880773798e-05
classical 0.0
confirmed 0.0
origins 0.0
combination 6.01962792771e-05
consumption 0.0
worldwide 0.0
deaths 0.0
responsible 0.0
overwhelmed 0.0
household 5.9944058166e-05
munich 0.0
alternate 7.17566853142e-05
blockers 0.0
restaurant 0.0
canada 0.000604560133651
versions 0.0
technology 0.0
identify 0.0
combined 9.93236821316e-05
santiago 0.0
branches 0.0
october 0.0
netherlands 0.0
belgium 0.0
european 0.0
imperial 0.0
perspective 0.000118342504914
cities 0.000120104770387
guinea 0.0
americas 0.0
posters 6.01962792771e-05
elastic 0.0
flames 0.00128462803185
presumably 0.0
exquisite 0.0
spreading 0.0
happiness 0.0
ashamed 5.80079951953e-05
naturally 0.0
malbec 0.0
wasting 0.0
hidden 0.0
coffin 0.0
freudian 0.0
genius 0.000106386413941
cultured 0.0
malaysia 0.0
traveling 5.03530261082e-05
prepared 8.07874073146e-05
county 4.93228666984e-05
quinoa 0.0
district 0.0
chosen 0.0
toilet 5.53448616366e-05
yorkers 0.0
ignores 0.0
messages 4.45557886783e-05
creativity 0.0
conventional 0.0
berlin 0.0
montreal 0.000576036611473
wonders 6.0967612356e-05
upcoming 3.77592530031e-05
lonely 0.0
australian 5.19771379329e-05
positions 0.0
singapore 0.0
scratch 0.000171950430459
deficiency 0.0
elevated 0.0
triggers 0.0
delicate 0.0
barrier 0.000131638059993
reflection 0.0
sydney 0.0
separates 0.0
centuries 0.0
israel 0.0
overwhelming 0.0
assault 0.000102125289816
protection 9.26025503279e-05
picker 0.0
additional 5.55568876826e-05
machine 0.000143868280684
samples 0.0
contrary 0.0
immediate 0.0
michelle 0.0
inspire 4.54142220902e-05
lyrics 0.0
missyelliott 0.0
constant 0.000103583415438
tuning 0.000117916844454
pandora 0.0
preshow 0.0
buenos 0.0
poland 0.0
philippines 0.0
nicely 0.0
september 7.48681729931e-05
manchester 0.0
checks 5.16075607698e-05
screenshot 0.0
universalorl 0.0
remarkable 0.0
rihanna 0.0
disgusted 0.0
flattered 0.0
fiction 0.000107018042977
angela 6.20321194251e-05
bitmoji 0.0
process 0.000136009619371
genuine 0.0
performances 0.0
comedians 7.46473370938e-05
flotus 0.0
strangers 0.0
hungover 0.0
confidence 4.17522372318e-05
studios 5.70903481222e-05
stjude 0.0
memphis 0.0
mikeypiff 0.0
chancetherapper 0.0
scream 0.0
jennifer 0.0
disappoint 6.55078085775e-05
newcastle 0.0
castle 0.0
literally 0.000659612747995
chrisrock 0.0
gentlemen 0.0
mtvnews 0.0
hillaryclinton 0.0
iamrashidajones 0.0
champagne 0.0
raleigh 0.000170438382949
ijessewilliams 0.0
acknowledge 0.00012406423885
buzzfeed 0.000106235407461
puppet 0.0
rehearsal 0.0
billboard 0.0
austria 0.0
sweden 0.000211696727786
republic 0.0
grilled 0.0
waltdisneyworld 0.0
katyperry 0.0
ronanfarrow 0.0
measly 0.0
bragging 0.0
treats 0.0
literal 0.0
cooper 0.000283215626799
counts 0.0
theellenshow 0.0
basking 0.0
cookies 0.0
festival 0.0
amsterdam 0.0
soundcheck 0.0
downloaded 6.48960775446e-05
encouraged 0.0
alright 0.000140268429388
jtimberlake 0.0
backstage 0.0
collab 0.0
joined 6.55980088431e-05
issarae 0.0
playlist 0.0
madness 0.000127570710932
romantic 0.0
selfies 0.0
exclusively 0.0
disneyland 0.0
refused 0.0
characters 4.25235703107e-05
amazingly 5.59860764708e-05
auction 0.0
express 0.0
gratitude 0.0
sesamestreet 0.0
thegrammys 0.0
throughout 0.0
awkward 0.0
shining 0.0
thrown 0.000152116410126
stylist 0.0
fighter 0.0
accepting 4.88223667769e-05
playin 0.0
applemusic 0.0
filmed 5.12430464669e-05
makeawish 0.0
bieber 0.0
remixes 0.0
toronto 0.000617915667362
capitolrecords 0.0
shazam 0.0
anthem 0.000145972811544
cosmopolitan 0.0
khloekardashian 0.0
cookin 0.0
songwriters 0.0
reveal 3.88727681075e-05
stands 3.70066214324e-05
spotify 0.0
phvegas 0.0
rocked 0.0
glasses 4.89881562726e-05
iambeckyg 0.0
relive 0.0
acoustic 0.0
announce 0.000123852657094
although 0.000173810646712
isaacfromct 0.0
shampoo 0.0
interactive 0.0
todayshow 6.0967612356e-05
haters 0.000168609885145
appreciation 0.0
floating 0.0
shondarhimes 0.0
showtime 0.0
premiere 0.0
broadway 0.0
makeup 5.73168101529e-05
starring 5.2163869422e-05
newest 0.0
designed 4.11261112145e-05
arianagrande 7.99385850456e-05
aladdin 0.0
swaggy 0.0
owning 0.0
producer 4.83311073838e-05
legendary 4.26543279595e-05
jasmine 0.0
costumes 0.0
square 0.000144276866644
emojis 0.0
jessica 0.0
magical 0.0
thedoctorluke 0.0
thirsty 0.0
therealjuicyj 0.0
symbols 0.0
privilege 0.0
spiral 0.0
retrograde 0.0
footage 4.35880773798e-05
theirs 0.0
universes 0.0
remembering 0.000435880773798
floated 0.0
construction 0.0
consciousness 0.0
delights 0.0
explodes 0.0
submissions 0.0
pleased 0.0
shredding 0.0
filters 0.0
weasel 0.0
reflective 0.0
firework 0.0
islands 0.0
interstellar 0.0
bubble 0.000251765130541
customs 0.0
festive 0.0
window 0.000117303522126
senator 0.0
slightly 4.60022930523e-05
therealbuzz 0.0
printing 0.0
snowflake 7.99385850456e-05
applications 0.0
elephant 0.0
fifteen 0.0
editions 0.0
newspaper 4.98329614497e-05
rainbow 0.0
unlimited 0.0
sirius 0.0
matthew 0.000101766916368
affected 0.0
capturing 0.0
canyon 0.0
rivers 0.0
spoken 4.45557886783e-05
accidentally 0.0
bizarre 5.53448616366e-05
dolphin 0.0
successfully 0.0
liquid 0.0
graffiti 0.0
swallowing 0.0
messenger 0.0
heroes 0.0
disturbing 0.0
graduates 0.0
rewrite 0.0
describe 0.000115938918231
hollywood 0.0
equality 4.80085685499e-05
announcement 0.000102577412553
breakout 0.000158823308803
dreaming 0.000177604288953
animation 0.0
calendar 0.0
circling 0.0
garden 0.0
enhanced 0.0
journalists 0.000143069677648
stirring 0.0
nominations 5.45132587064e-05
yelling 0.0
teachers 0.0
chapter 0.000177661483162
napoleon 0.0
aliens 0.000129190812465
subjects 0.0
revolution 4.98329614497e-05
mountains 0.0
wonderland 0.0
storage 0.0
crystals 0.0
circuit 0.0
invitation 5.59860764708e-05
kettle 0.0
adjective 0.0
woodpecker 0.0
operate 0.0
exhibition 0.0
learnt 0.0
nomination 0.0
madonna 0.0
questioning 0.0
unplug 0.0
initiatives 0.0
switzerland 0.0
represents 0.0
throat 0.0
touchdown 0.0
desire 0.00016603458491
forced 8.17594572789e-05
swedish 0.000131015617155
hundred 0.0
prompts 0.0
rainbows 0.0
creates 5.254131019e-05
oxford 0.0
balloons 0.0
liverpool 0.0
recreate 0.0
glorious 0.00010284935889
newton 0.0
creature 0.0
finalist 6.98687214904e-05
scouts 0.0
treading 0.0
tragedy 4.37241857481e-05
nottingham 0.0
debacle 8.04761614705e-05
legends 0.0
noises 0.0
addiction 5.89584222269e-05
survived 0.0
idioms 0.0
greeted 8.10248227228e-05
basics 0.0
masses 0.0
confirm 0.000129953794884
cadence 0.0
spaghetti 0.0
prepare 7.88950032761e-05
calendars 0.0
narrative 0.000291212191841
application 0.0
octopus 0.0
drumming 0.0
bloody 0.0
confetti 0.0
translate 0.0
birmingham 0.0
singles 0.0
completes 0.0
laptop 5.96942053632e-05
obvious 0.000135374968771
darling 0.000190276757563
deserving 0.0
miller 4.81693492686e-05
ordered 0.0
feelin 0.0
alicia 0.0
picasso 0.0
recipe 0.0
alphabetical 0.000113811091644
butterfly 0.0
timothy 0.0
mancini 0.0
untold 0.0
directed 0.0
hacked 0.000103954275866
admits 5.84789655077e-05
clocks 0.0
nugget 0.0
cnnopinion 0.0
grabbed 0.0
russia 0.000165499185855
surprises 5.08834581839e-05
waterfalls 0.0
olympic 0.000591874400381
magnificent 0.0
casual 6.48960775446e-05
assume 8.74483714962e-05
relief 4.42756900078e-05
subscribe 0.0
landslide 0.0
telegraph 0.0
standby 0.0
admitting 0.0
complacency 0.0
voices 8.61010019099e-05
sounding 0.0
douglas 0.0
democracy 0.0
locals 0.0
gossip 7.06079114674e-05
nickname 0.0
subtle 0.000189422980612
embarrassed 0.0
ireland 0.0
mornings 0.0
democratic 0.0
impressions 7.74024642722e-05
outgoing 0.0
treasury 0.0
refugees 0.0
unveiling 0.0
listing 0.0
deliver 0.0
negotiating 6.37132549048e-05
roller 0.0
prosperous 0.0
desperate 0.0
acknowledgement 0.0
executive 0.0
republicans 0.0
weapons 0.0
dropping 8.05471438998e-05
meaningful 0.0
nightmare 4.6301275164e-05
goodies 0.0
scandalous 0.0
rhetoric 0.0
divisive 0.0
vision 0.0
confirmation 0.0
throne 0.0
records 0.0
quoting 0.0
impatient 0.0
refugee 0.0
texted 0.0
exposed 0.0
stoked 6.07080090481e-05
priority 0.0
freedoms 0.0
notorious 0.0
empowering 0.0
unconstitutional 0.0
turkish 0.0
concerned 4.27857313277e-05
realdonaldtrump 0.0
goodwill 0.0
imagined 0.0
belfast 0.0
sleeve 0.0
basement 0.0
preposterous 9.26587008581e-05
griffith 0.0
timeless 0.0
truman 0.0
intended 0.0
inappropriate 0.0
industries 0.0
responsibility 8.7721987811e-05
documentaries 0.0
vulnerable 0.0
respectful 0.0
markets 0.000174727315105
claire 6.77669087437e-05
nuggets 0.0
boards 0.000251437651343
sequins 0.0
capitol 0.0
technical 5.57706167674e-05
applying 0.0
guitar 0.000113731594373
donating 0.0
continually 0.0
norway 0.0
applause 0.0
ballot 0.000222227550731
finely 0.0
shakes 0.0
varied 0.0
proverb 0.0
vibrant 0.0
flower 6.48960775446e-05
survives 0.0
fierce 0.0
shopped 0.0
sincerely 0.0
apology 0.0
sweaty 8.33401195899e-05
conspiracies 0.0
climbing 0.0
relaxed 0.0
encourage 4.52692128595e-05
funnyordie 0.0
essentials 0.0
jimmykimmellive 0.0
rejectedjokes 0.0
protesting 0.0
releasing 0.0
cleaner 0.0
preferred 0.0
incarceration 0.0
jkcorden 7.29573007517e-05
koppel 0.0
bikini 0.0
transparency 0.000116484876736
kamalaharris 0.0
nutshell 0.0
walled 0.0
floored 0.0
plotting 0.0
gandhi 0.0
vilify 0.0
meditate 0.000107123833855
violent 5.55568876826e-05
preschool 0.0
rhythm 0.0
matching 0.0
senwarren 0.0
venezuela 0.0
candle 0.0
donates 0.0
peacefully 0.0
chelseahandler 0.0
experiencing 0.0
sarabareilles 0.0
haunting 0.0
constitution 0.0
explode 7.06079114674e-05
deeper 0.0
empathy 0.0
mrgaryhuang 0.0
scored 0.000269530900128
charitable 0.0
perfume 0.0
giraffe 0.0
noticing 0.0
noodle 9.53670495984e-05
wrongly 0.0
marshmallow 0.0
fraudulent 0.0
everytime 0.0
helluva 0.0
therapists 0.0
tangible 9.94688647681e-05
sarahksilverman 0.0
johnfugelsang 0.0
exceptional 0.0
miracle 5.51345117033e-05
avocado 0.0
snacks 0.0
spelled 0.0
parental 0.0
superbowl 0.0
shoulders 6.91495120874e-05
valentine 0.0
glitter 0.0
stocking 0.0
poehler 0.0
thumbs 5.57706167674e-05
tinatbh 0.0
educational 6.40040679414e-05
voicemail 0.0
thetweetofgod 0.0
esteem 0.0
teaches 0.0
goodbye 0.000209396250085
reminding 5.87176139952e-05
supplies 0.0
ryanseacrest 0.0
okmagazine 0.0
shoots 6.23050359508e-05
bowing 0.0
jennyslate 0.0
craigyferg 0.0
masterpiece 5.94466768063e-05
sneaky 0.0
nashville 0.000464063961562
chronicles 0.0
potato 6.34255858545e-05
freakin 0.0
perezhilton 0.0
unethical 0.0
paparazzi 0.0
mantra 0.0
consuming 0.0
unauthorized 0.0
vanityfair 0.0
stalking 0.0
shoulda 0.0
yeppers 0.0
sacred 0.0
existed 6.14945430003e-05
earned 0.000141191299596
woulda 0.0
ellenpage 0.0
choker 0.0
contribute 5.55568876826e-05
mustache 0.000153846015106
washes 0.0
creeps 0.0
champion 4.23934520661e-05
auntie 0.0
magazines 0.0
waited 0.000111541233535
conscious 0.0
cracker 0.0
denmark 0.0
potion 0.0
windex 0.0
scarfing 0.0
ladygaga 0.0
purposely 0.0
pretending 5.45132587064e-05
luckiest 0.0
mascara 0.0
tastes 6.58190299966e-05
gardening 0.0
leashes 0.0
hippie 0.0
womensmarch 0.0
reunited 0.0
clique 0.0
premiering 0.0
rollingstone 0.0
childrensla 0.0
dollywood 0.0
godmother 0.0
eltonofficial 0.0
vmagazine 0.0
donorschoose 0.0
yesssssss 0.0
bettemidler 0.0
rehearsing 0.0
trevorproject 0.0
unicef 0.0
ellemagazine 0.0
yasssss 0.0
acceptance 0.0
solidarity 0.0
pharrell 0.0
greece 0.0
papermagazine 0.0
johnmayer 0.0
lipstick 0.0
tumblr 7.21509018281e-05
coldplay 0.0
colorful 0.0
translifeline 0.0
newsstands 0.0
feminist 0.0
pitchfork 0.0
labels 0.0
jenner 0.0
arkansas 0.0
beanie 0.0
sparkly 0.0
moschino 0.0
britneyspears 0.0
itsjeremyscott 0.0
nickiminaj 0.0
appstore 0.0
poetry 0.0
puttin 0.0
rubbed 0.0
shrine 0.0
skyferreira 0.0
freaking 0.0
besties 0.0
chanel 0.0
bedazzled 0.0
rubber 0.0
kendricklamar 0.0
popstar 0.0
sosadtoday 0.0
copenhagen 0.0
lenadunham 8.79507289988e-05
wearin 0.0
stoned 0.0
facetime 0.0
barclays 0.0
meditation 0.0
harpersbazaarus 0.0
stared 0.0
ritual 0.0
iconapop 0.0
doubted 0.0
staples 0.0
anaheim 0.00025002035877
jingle 0.0
tacoma 0.0
rehearsals 0.0
treadmill 0.0
metamorphosis 0.0
dental 0.0
jodyhighroller 0.0
versace 0.0
werking 0.0
couture 0.000181990177354
eggplant 0.0
bangin 0.0
cardigans 0.0
obnoxious 0.0
bestie 0.0
teganandsara 0.0
barrel 0.0
dedicating 8.94293942807e-05
jefferson 0.0
pumpkin 0.0
derekblasberg 0.0
glamourmag 0.0
presale 8.04761614705e-05
mtvstyle 0.0
deluxe 0.0
mtvema 0.0
reggae 0.0
azealiabanks 0.0
nominating 0.0
sailor 0.0
mornin 0.0
itunesmusic 0.0
bananas 0.0
lordemusic 0.0
vietnam 0.0
milwaukee 0.0
neworleans 0.0
circus 6.91495120874e-05
strolling 0.0
rapids 0.0
collegegameday 0.0
aaaaand 0.0
godfather 0.0
bestow 0.0
allison 0.0
rockthevote 0.0
birbigs 0.0
lucille 0.0
louder 7.21509018281e-05
farmers 0.0
shaved 0.0
niagara 0.0
realmattlucas 0.0
ferguson 0.0
painful 5.23519205792e-05
exchange 0.0
nickkroll 0.0
edmonton 0.0010913740581
mickey 0.0
angelenos 0.0
pooping 0.0
located 7.21509018281e-05
onslaught 0.0
finalists 0.000839740281023
bumped 0.0
sherlock 0.0
stockholm 0.0
casually 0.0
jjwatt 0.0
itstonybennett 0.0
mariolopezextra 0.0
klgandhoda 0.0
entrance 0.0
calgary 0.000778949326408
bowling 6.45954062325e-05
winnipeg 0.000381468198394
cheeto 0.0
gloriasteinem 0.0
feather 0.0
nathan 0.0
smelling 0.0
narnia 0.0
llamas 0.0
actuallynph 0.0
mourning 0.0
obsession 0.000111541233535
chilled 0.0
medically 0.0
hyperloop 0.0
aussie 0.0
flaring 0.0
eyeballs 0.0
stuffing 0.0
pitched 0.0
condiments 0.0
relatable 0.0
olivia 7.59892581328e-05
painted 0.0
mykonos 0.0
eyebrow 0.0
capitalcities 0.0
jackpot 0.0
hipster 0.0
sweating 0.0
restaurants 0.0
superfan 0.0
restraint 0.0
craziest 0.0
catheter 0.0
delivers 0.0
kanyewest 0.0
paints 0.0
dissect 0.0
billboards 0.0
milano 0.000192669521794
bjnovak 0.0
snapping 0.0
croissant 0.0
repjohnlewis 0.0
blklivesmatter 0.0
mydaughtersarmy 0.0
huddled 0.0
yearning 0.0
thereaibanksy 0.0
affordable 0.0
foodie 0.0
colombia 0.0
peeled 0.0
shootings 0.0
playground 0.0
breaky 0.0
photoshoot 0.0
smokin 0.0
accents 0.0
sweats 0.0
postmates 0.0
armband 0.0
unconscious 0.0
maddow 0.0
aquarium 0.0
holler 0.0
photoshop 0.0
robbie 0.0
espnmag 0.0
laundry 7.06079114674e-05
examining 0.0
zealand 0.0
stuntin 0.0
hehehe 0.0
nostalgia 7.50871674051e-05
buttons 7.99385850456e-05
slaying 0.0
monument 0.0
bringin 0.0
lining 0.0
muchas 0.0
gracias 0.0
madame 0.0
illustrated 0.0
boxers 0.0
grazie 0.0
winters 0.0
plastic 0.0
unbreakable 0.0
licking 0.0
cheeky 0.0
twerking 0.0
danish 0.0
drummer 0.0
florence 0.0
revoir 0.0
resume 0.000129190812465
dodger 0.0
brazilians 0.0
grimezsz 0.0
crocodile 0.0
hahahahahaha 0.0
parisians 0.0
taipei 0.0
taiwan 0.0
bangkok 0.0
uploaded 0.000155781437703
manila 0.0
hamburg 0.0
curating 0.0
aaaand 0.0
skating 0.000335807402491
brisbane 0.0
googleplay 0.0
raincoat 0.0
glastofest 0.0
vienna 0.0
burning 4.69095102857e-05
jamming 0.0
reaches 0.0
subtitles 0.0
wristband 0.0
barcelona 0.0
credits 0.0
dreamers 0.0
bogota 0.0
bursting 0.0
brunomars 0.0
beyoncé 7.83881002114e-05
subscribers 7.21509018281e-05
unlock 0.0
onedirection 0.0
amazonmusic 0.0
snippets 0.0
preorder 0.0
rehearse 0.0
bahnhof 0.0
delorean 0.0
fragrance 0.0
curate 0.0
samsmithworld 0.0
guitars 9.44333001781e-05
storyline 9.0995088677e-05
registering 0.0
beatsbydre 0.0
panama 0.0
celestial 0.0
orchestra 0.0
finland 0.000227967774398
climbed 0.0
topping 0.0
méxico 0.0
vasconcelos 0.0
leicester 0.0
itunesfestival 0.0
pondering 0.000174482220398
millennials 0.0
struck 0.0
watermelon 0.0
benefited 0.0
sophisticated 0.0
couples 0.0
villain 0.000142736447984
mindful 0.0
catholic 0.0
airline 6.61339345948e-05
secretly 6.0967612356e-05
playlists 0.0
veggie 0.0
receipts 0.0
foremost 0.0
bagpipe 0.0
drifting 0.0
trader 0.0
influenced 0.0
moscow 0.0
cobain 0.0
reaper 0.0
commune 0.0
handshake 0.0
despair 0.0
silicon 0.0
investing 0.0
construct 0.0
garland 0.0
coachella 0.0
offline 0.0
realisation 0.0
payback 0.0
educate 0.0
alliances 0.0
etched 0.0
momentarily 0.0
pronoun 0.0
lenses 0.0
validated 0.0
authenticity 0.0
choreographed 0.0
pokemon 0.0
disneyworld 0.0
patriotic 0.0
embody 0.0
snickers 0.0
impactful 0.0
refocus 0.0
eminem 0.0
mahatma 0.0
ecstatic 9.73389981147e-05
snfonnbc 0.0
avenue 0.0
picchu 0.0
doubters 0.0
beverly 0.0
intensity 0.0
outtake 0.0
temple 0.0
purchased 0.0
fountain 0.0
punched 0.0
goldfish 0.0
comparable 0.0
buyers 0.0
barbara 0.0
corybooker 0.0
listens 0.0
timeout 8.79507289988e-05
inducing 0.0
signage 0.0
penthouse 0.0
ahahaha 0.0
phenom 0.0
brilliantly 0.0
siphoning 0.0
herstory 0.0
prostitute 0.0
survivors 0.0
courageous 0.0
cruelty 0.0
margot 0.0
xenophobic 0.0
mcginley 0.0
yorkshire 0.0
chants 0.0
alancarr 0.0
chained 0.0
skillz 0.0
debunked 0.0
floods 0.0
fleetwood 0.0
cheesecake 0.0
adidas 0.0
uneven 0.0
raging 8.58762403633e-05
connections 0.0
headlining 0.0
devhynes 0.0
charli_xcx 0.0
shawnmendes 0.0
tavitulle 0.0
bahjournalist 0.0
tyleroakley 0.0
marquee 0.0
grease 8.65499251565e-05
screenshots 0.0
ddlovato 0.0
chattyman 0.0
grimmers 0.0
vevo_uk 0.0
bonniemckee 0.0
electrifying 0.0
idolator 0.0
onairromeo 0.0
godven 0.0
lookie 0.0
preordered 0.0
elvisduran 0.0
shanghai 0.0
tripped 0.0
konnichiwa 0.0
etnad_olegnad 0.0
unannounced 0.0
swedes 0.0
cinderella 0.0
slipper 0.0
jessesaintjohn 0.0
adorbs 0.0
onesies 0.0
jahnsuxx 0.0
walgreens 0.0
aphrodite 0.0
danceonfox 0.0
difficulties 0.0
mermaids 0.0
antique 0.0
girlshbo 0.000122764324454
yaaaaasss 0.0
lifesaving 0.0
queens 0.0
yaaaas 0.0
rollin 0.0
bestest 0.0
cleanse 0.0
iamtovelo 0.0
glamour 8.33401195899e-05
emelisande 0.0
lashes 0.0
austrian 0.0
magritte 0.0
misogynoir 0.0
litter 0.0
spiritual 7.88949560694e-05
preaching 9.1813895681e-05
adelaide 0.0
sheffield 0.0
impending 0.0
starve 0.0
excess 0.0
conciousness 0.0
vitamins 0.0
generator 0.0
purposefully 0.0
profiles 0.0
petals 0.0
persist 0.0
alexis 0.0
covergirl 0.0
sneezed 0.0
cushion 0.0
demconvention 0.0
directv 0.0
flo_tweet 0.0
billclinton 0.0
grounded 0.0
sunrise 0.0
fightin 0.0
sagekotsenburg 0.0
pwease 0.0
sadder 0.0
waterfall 0.0
sighting 8.33401195899e-05
firsts 0.0
muller 0.0
burritos 0.0
bungee 0.0
potting 0.0
dipping 8.94293942807e-05
closets 0.0
scratched 0.0
decorating 0.0
summers 0.0
havana 0.0
fresher 0.0
mowing 0.0
invading 0.0
addict 0.0
aesthetics 0.0
footwear 0.0
protector 0.0
hammock 0.0
repurpose 0.0
mishap 0.000108644769405
hamster 0.0
cellar 0.0
groove 0.0
mentored 0.0
exaggerate 0.0
scraping 0.0
apropos 0.0
trolled 0.0
jonlovett 0.0
rheabutcher 0.0
sickening 0.0
flustered 0.0
compiled 0.0
shirley 0.0
subtweet 0.0
pantsuit 0.0
patting 0.0
atrocious 0.00011578304016
amoeba 0.0
platter 0.0
aficionado 0.0
bearer 0.000100601338995
manifest 0.0
transformation 7.13682239919e-05
thighs 0.0
tapper 0.0
foaming 0.0
sophie 0.0
sabbath 0.0
vibrations 0.0
nutella 0.0
wilder 0.0
distractions 0.0
stripping 0.0
downloading 7.94116544013e-05
judith 0.0
crossroads 0.0
parsons 9.73389981147e-05
stella 0.0
narcissism 0.0
fawcett 0.0
trainers 0.0
surrounding 0.0
longtime 7.78907188516e-05
frosting 0.0
laurent 0.0
savory 0.0
acupuncture 0.0
cancelling 0.0
nutcracker 0.0
ballet 0.0
tempura 0.0
burner 0.0
voguemagazine 0.0
lagged 0.0
cuttlefish 0.0
passwords 0.0
funfetti 0.0
anagasteyer 0.0
gabbana 0.0
budapest 0.0
montage 0.0
crowns 0.0
scheduling 8.58762403633e-05
possessed 0.000111975251496
syncing 0.0
creatively 0.0
hieroglyphics 0.0
halftimes 0.0
floppy 0.0
nessie 0.0
feathers 0.0
kaceymusgraves 0.0
roaring 0.0
rightful 0.000105685152244
balconies 0.0
prodigy 0.0
raquin 0.0
gianni 0.0
monsieuradi 0.0
drowned 0.0
tropicana 0.0
diesel 0.0
shabbat 0.0
voiceless 0.0
passover 0.0
elevating 0.0
traumatic 0.0
dreamer 0.0
iwillharness 0.0
classrooms 0.0
eligibility 0.0
counselors 0.0
wainwright 0.0
moveon 0.0
runaway 0.0
baghdad 0.0
zaralarsson 0.0
snooze 0.0
iggyazalea 0.0
harviikills 0.0
bolognese 0.0
babysitting 0.0
mohegan 0.0
hooters 0.0
crusts 0.0
tracksuit 0.0
cupcake 7.69230075531e-05
xfactor 0.0
vitamin 0.0
lichtenstein 0.0
concourse 0.000240456407361
hitchcock 0.000712489131447
teller 0.0
pastels 0.0
remnants 0.0
banger 0.0
lyrically 0.0
boogers 0.0
ritaora 0.0
bumpin 0.0
dabbed 0.0
sleepin 0.0
tinashe 0.0
octaviaspencer 0.0
linder 0.0
musicallyapp 0.0
scavenger 0.0
sanging 0.0
corinthians 0.0
hollywoodbowl 0.0
kraken 0.0
discontinue 0.0
cypress 0.0
schooling 0.0
maritime 0.0
narration 0.0
zeitgeist 0.0
sampler 0.0
pseudo 0.0
bangladesh 0.0
hungary 0.0
mumble 0.0
sisterhood 0.0
soulful 0.0
lennykravitz 0.0
londontown 0.0
andradaymusic 0.0
lipsticks 0.0
realization 0.0
unconditionally 0.0
wildfire 0.0
goldie 0.0
minnie 0.0
solitude 0.0
waddle 0.0
westworldhbo 0.0
statuesque 0.0
uncasville 0.0
demented 0.0
skyway 0.0
twentyonepilots 0.0
rejoicing 0.0
clenching 0.0
adelphia 0.0
entirety 8.33401195899e-05
redhourben 0.0
lakewood 0.0
drjillstein 0.0
entail 0.0
whammy 0.0
smokers 0.0
gobble 0.0
topshop 0.0
cleowade 0.0
mkives 0.0
sweetbabayjamie 0.0
marchesafashion 0.0
hamsters 0.0
gurrrl 0.0
sofifii 0.0
sumthin 0.0
nicomiz 0.0
maisonvalentino 0.0
coziest 0.0
accessorize 0.0
thejgold 0.0
peruvian 0.0
amazeballs 0.0
sendin 0.0
fantabulous 0.0
timelines 0.0
regina 0.0
slovakia 0.0
graves 9.26587008581e-05
embracing 0.0
larsson 0.000736585946724
cullen 0.00021728953881
psychiatric 0.0
officialadele 0.0
butters 0.0
verrrry 0.0
buttered 0.0
winged 0.0
pedialyte 0.0
topanga 0.0
armpit 0.0
kittens 0.0
dueling 0.0
eagerly 0.0
surrealist 0.0
dethroned 0.0
manolos 0.0
señorita 0.0
monterrey 0.0
parque 0.0
retiree 0.0
batches 0.0
reservations 0.0
sickos 0.0
aplusk 0.0
kirkherbstreit 0.0
fanbases 0.0
indexing 0.0
chuckles 0.0
incorporated 0.0
washboard 0.0
earbuds 0.0
pantone 0.0
knotts 0.0
dismaland 0.0
pollock 0.0
iamkidpresident 0.0
mariah 0.0
teevee 0.0
santorini 0.0
appalachian 0.0
sunburnt 0.0
caliente 0.0
juicery 0.0
karlihenriquez 0.0
trillest 0.0
tommorrow 0.0
crumpets 0.0
fishin 0.0
grillin 0.0
jambalaya 0.0
pepperoni 0.0
cashew 0.0
graceland 0.0
pussies 0.0
delicately 0.0
eraser 0.0
choreo 0.0
snatched 0.0
elliptical 0.0
mooore 0.0
unborn 0.0
georgina 0.0
stalkers 0.0
sallykohn 0.0
expectancy 0.0
phillipines 0.0
appstoregames 0.0
wilkinson 0.0
puddings 0.0
loveland 0.0
spaced 0.0
shanny 0.0
dripping 0.0
gerber 0.0
shakey 0.0
weaves 0.0
unbeatable 0.000100601338995
linguist 0.0
prosthetics 0.0
battleship 0.0
serotonin 0.0
machiavellian 0.0
girlies 0.0
guangzhou 0.0
debuting 0.0
dissecting 0.0
warped 0.0
luckyjess 0.0
ermahgerd 0.0
fabulousness 0.0
elliegoulding 0.0
activewear 0.0
yelyahwilliams 0.0
prismatic 0.0
evaluations 0.0
skywalk 0.0
sparklers 0.0
palettes 0.0
gemmaanningram 0.0
trueeee 0.0
invisalign 0.0
pounded 0.0
lolgop 0.0
procession 0.0
stanning 0.0
squeals 0.0
continual 0.0
luminary 0.0
cummin 0.0
shaves 0.0
epixhd 0.0
preacher 0.0
boogiecousins 0.0
changers 0.0
autismspeaks 0.0
massaged 0.0
psssssst 0.0
literati 0.0
utilization 0.0
endangerment 0.0
purposeful 0.0
unlabeled 0.0
undiagnosed 0.0
snotty 0.0
gallops 0.0
slovenia 0.0
sequin 0.0
akerlund 0.0
jumbotron 0.0
edibles 0.0
knowles 0.0
caeser 0.0
thehollywoodbowl 0.0
elvispresley 0.0
adoring 0.0
ageist 0.0
thérèse 0.0
confessed 0.0
blackvoices 0.0
patties 0.0
graphically 0.0
wildflowers 0.0
groundhogs 0.0
eataly 0.0
poodles 0.0
hillaryforia 0.0
roadshow 0.0
sweety 0.0
boppin 0.0
bettywho 0.0
johnnywujek 0.0
earring 0.0
itsbennyblanco 0.0
curitiba 0.0
purrfect 0.0
shellback 0.0
chokers 0.0
hairbrush 0.0
hakuna 0.0
matata 0.0
hazing 0.0
mathew 0.0
aegean 0.0
lullaby 0.0
musiciansoncall 0.0
headpiece 0.0
morsel 0.0
whistled 0.0
conquest 0.0
viceland 0.0
lambily 0.0
scalped 0.0
graced 0.0
emblazoned 0.0
hrclosangeles 0.0
kawaii 0.0
glittery 0.0
wonderlandmag 0.0
jumpsmokers 0.0
radiodotcom 0.0
missyfranklin 0.0
pleaaaaase 0.0
lilbthebasedgod 0.0
waaaay 0.0
flossy 0.0
aria_official 0.0
berliners 0.0
matriarchy 0.0
cornered 0.0
limping 0.0
peasant 0.0
feasibly 0.0
waaaaay 0.0
slayyy 0.0
fashionistas 0.0
sangin 0.0
worldstarfunny 0.0
pliers 0.0
babyanimalpics 0.0
mediation 0.0
quests 0.0
aaaaaaah 0.0
honked 0.0
rauschenberg 0.0
whitneymuseum 0.0
lonsdale 0.0
transcendental 0.0
roarin 0.0
facetune 0.0
fausto 0.0
herning 0.0
cazzette 0.0
annnnnnnnnd 0.0
shinier 0.0
giambattista 0.0
katys_teddybear 0.0
gnight 0.0
katheryn 0.0
psychoanalysis 0.0
bckgrnd 0.0
kingman 0.0
gracevanderwaal 0.0
fecking 0.0
ihrcountdown 0.0
stubbies 0.0
xfactor_italia 0.0
aaronpauley 0.0
purity_ring 0.0
scorpios 0.0
ayyyye 0.0
capitalizes 0.0
flamin 0.0
motherfucking 0.0
jingled 0.0
pharrellhat 0.0
ontarioglow 0.0
teached 0.0
umusic 0.0
auroramusic 0.0
dailymendeslife 0.0
soloing 0.0
universalse 0.0
dustinkloeppel 0.0
robynkonichiwa 0.0
charli 0.0
lonelydot 0.0
adamselman 0.0
sorrenti 0.0
offish 0.0
vinoodh 0.0
guitarists 0.0
cocking 0.0
cabbages 0.0
amelia_libman 0.0
flutter 0.0
lolita 0.0
kingladygaga 0.0
breakthecycledv 0.0
howbow 0.0
curveballs 0.0
tamagotchi 0.0
jarryd 0.0
alliseeisgold 0.0
thebroadmuseum 0.0
sarahsowitty 0.0
brillz 0.0
jackgarratt 0.0
markryden 0.0
duffscakemix 0.0
sanrio 0.0
theniceguyla 0.0
trills 0.0
susangkomen 0.0
faustopuglisi 0.0
gurlll 0.0
cheesecakes 0.0
scorpio 0.0
oblivia 0.0
skipmarley 0.0
correcto 0.0
jessirklein 0.0
unpatr 0.0
squish 0.0
greg_wells 0.0
onlyleah 0.0
gittin 0.0
popstars 0.0
krafts 0.0
bouche 0.0
problemo 0.0
wheezing 0.0
patmcgrathreal 0.0
cienega 0.0
thundering 0.0
nastialiukin 0.0
janell 0.0
katelyntarver 0.0
miamoretti 0.0
missoni 0.0
dannymoonsworld 0.0
mrchrismcmillan 0.0
madge_freak 0.0
woridstarcomedy 0.0
ikissedasoldier 0.0
kpezandchez 0.0
perrysoldier 0.0
emilynotchez 0.0
iickmekaty 0.0
basicallyadam 0.0
katysangelegg 0.0
nicolasjebran 0.0
xchadballx 0.0
scott_myrick 0.0
lockoir 0.0
shannonwoodward 0.0
calluses 0.0
chamomile 0.0
trollin 0.0
sleighing 0.0
chestercheetah 0.0
royksopp 0.0
scottsimonswvla 0.0
sirenscaiiing 0.0
slowdownkaty 0.0
chefantoniopark 0.0
garnished 0.0
endive 0.0
mdmolinari 0.0
prezzy 0.0
motioning 0.0
hernameisbanks 0.0
rockcampla 0.0
jenniefinch 0.0
getglucky 0.0
stendhal 0.0
ryanphillippe 0.0
hotncolds 0.0
kpcollections 0.0
katie_wignall 0.0
katysdrugx 0.0
evrenperry 0.0
katycatwendy 0.0
yungskeeter 0.0
sarahhudsonuvs 0.0
mothern 0.0
oliverheldens 0.0
marrymemargot 0.0
katyperrylately 0.0
kewlest 0.0
katyshellokitty 0.0
pqgerry 0.0
rasarioatelier 0.0
anakhouri 0.0
romaneperry 0.0
hot_chip 0.0
agador 0.0
freddietinkles 0.0
cynthialovely 0.0
augustgettyatelier 0.0
tbsnetworks 0.0
ronyalwin 0.0
justinandersoncolor 0.0
mmillerrider 0.0
jpgaultier 0.0
harharharhar 0.0
iikeanangel 0.0
vonnypoo 0.0
jcoopkp 0.0
itzmero 0.0
katysprismlight 0.0
hatérs 0.0
awkwardaya 0.0
katysredskittle 0.0
tiedye_princess 0.0
adelshahal 0.0
marinadiamandis 0.0
samadizayee 0.0
itsslatykaty 0.0
johnlordperry 0.0
nuggetperry 0.0
kthnkzbye 0.0
teamkpbrasil 0.0
twenagedream 0.0
ashleyegreer 0.0
perryllover 0.0
perry_slays 0.0
_andresgalvis 0.0
poplitics 0.0
likerotica 0.0
sweetxjaureguix 0.0
jessiambriz 0.0
perryncolds 0.0
pwideawake 0.0
brunastrait_ 0.0
anafalqueto 0.0
pessoalmente 0.0
mark_hodson_ 0.0
sumtxkid 0.0
arpoador 0.0
katysmychampion 0.0
amnattg 0.0
osullivanluke 0.0
stephiruth 0.0
katy_pizza_bae 0.0
kpcatt 0.0
pedroeugeniio 0.0
gugs_prismatic 0.0
zeeusmtz 0.0
legendarycold 0.0
robynxkatheryn 0.0
écouter 0.0
energyberlin 0.0
karysjones 0.0
lilzariya 0.0
puroland 0.0
pavlovitz 0.0
dreamhampton 0.0
prismsperry 0.0
perrysmic 0.0
focusonreid 0.0
tonyatalterian 0.0
makeup_man 0.0
wtfkates 0.0
sella_sandra 0.0
katycute_ 0.0
caitsperry 0.0
katyperryforum 0.0
radiantjareau 0.0
lillysgomez 0.0
katycatsweden 0.0
perryicecream 0.0
xamyrosex 0.0
wtvrlara 0.0
bijanstephen 0.0
ameliashowalter 0.0
screamkng 0.0
tvmcgee 0.0
liiife 0.0
itskatcombs 0.0
yaaaaaasssssssssss 0.0
katysmyhabibi 0.0
skottpeace 0.0
ferras 0.0
kweens 0.0
habibi 0.0
orlandobloom 0.0
huckchinn 0.0
katycatkenzie 0.0
matarazzo 0.0
fkatwigor 0.0
perryschild 0.0
hotxcolds 0.0
maddisonxperry 0.0
akaruikaty 0.0
chillinlaidback 0.0
erryone 0.0
chrisanokute 0.0
beyelite 0.0
kuntyewest 0.0
chiroprac 0.0
katyperryrises 0.0
godneybjs 0.0
liquoronurlips 0.0
katystumblrr 0.0
holiestkaty 0.0
hollykittykaty 0.0
katysprincess 0.0
katysdonut 0.0
carlythekatycat 0.0
katycatsophia 0.0
fridaaperry 0.0
iegendarylovers 0.0
katycatveronica 0.0
katyperryslave 0.0
hakimkharbouch 0.0
keonovak 0.0
plaaaaay 0.0
scatting 0.0
shotted 0.0
dizzycoco 0.0
fkinsnapss 0.0
junkygs 0.0
ミニチュア料理 0.0
エビフライとエビ天 0.0
adidasboosts 0.0
lilithia 0.0
cottoncandizzle 0.0
ultimatebeyhive 0.0
paramorewebnews 0.0
royale_lala 0.0
musicnews_feed 0.0
katyperryextra 0.0
greeniight 0.0
gagas_illusion 0.0
lesbiyonce 0.0
blurryhface 0.0
lordofgiraffex 0.0
ifuseekamy_ 0.0
legendarymalek 0.0
hausoframez 0.0
unstan 0.0
chioekardashian 0.0
theiife 0.0
handstomyseif 0.0
legendarylovers 0.0
gagas_fandom 0.0
thinagedream 0.0
conditionalbabe 0.0
dannysuschrist 0.0
prismdluxe 0.0
herwonkeye 0.0
camilasviews 0.0
gagalovesbey 0.0
shadykatyfacts 0.0
limalimoncia 0.0
heavymetaiovers 0.0
katyscrush 0.0
waikingonair 0.0
eduardo_katycat 0.0
katyswetdream 0.0
katherynsgod 0.0
katystddbr 0.0
katyboobies 0.0
royaityler 0.0
nothingfaiis 0.0
kathrynluck_ 0.0
prismaticiights 0.0
mendesperry 0.0
katycatghita 0.0
mark_katycat 0.0
iwasdivine 0.0
skywaterr 0.0
xjojospearsx 0.0
alwaysbeperry 0.0
skoglyrihanna 0.0
legendarydurk 0.0
halseysfirework 0.0
rainbowspatrick 0.0
katysfood 0.0
honeymoonprism 0.0
onepulsetony 0.0
butcha 0.0
okurrr 0.0
the_mpt 0.0
talaofficial 0.0
miniatures 0.0
ohmyjurassic 0.0
katysmoonlight 0.0
lilly_jnes 0.0
coco_ho 0.0
perryhumorr 0.0
yikesjonathan 0.0
rubyrankin 0.0
thealekovski 0.0
cydney_moore 0.0
truebluedeluxe 0.0
thedutchass 0.0
katyskettle 0.0
ferraseu 0.0
katyssunlight 0.0
typosqween 0.0
adoreeeperry 0.0
katyperryfrance 0.0
snowiner 0.0
_coolkatycat 0.0
nicothekatycat 0.0
adorbies 0.0
jackygerardchan 0.0
brewmystew 0.0
katyswildfire 0.0
rihftperry 0.0
theolagu 0.0
ritajoness 0.0
iitsjackie 0.0
mjjperry 0.0
jesuskylie 0.0
holyerotica 0.0
graceofkaty 0.0
redsvelvets 0.0
booyakasha 0.0
tariqterry 0.0
katycatalannah 0.0
taylxre 0.0
pacifyher 0.0
basedkatyperry 0.0
diddleurskittle 0.0
katysanalien 0.0
gagasspace 0.0
tayiorhq 0.0
givenchydress 0.0
augustryder 0.0
perrysmoschino 0.0
kittehn 0.0
katrieber 0.0
legendaryhunty 0.0
katyslegs 0.0
katyfroot 0.0
winesandlines 0.0
sam_incolour 0.0
wakingonair 0.0
drwssinup 0.0
huffdaddysays 0.0
fiwwwwine 0.0
matthewroper 0.0
emmabruhhh 0.0
gingerwesson 0.0
nicholas_sewell 0.0
perfectlyperry 0.0
bustabusta 0.0
mynameisziam 0.0
venuzszfly 0.0
katherynsus 0.0
sacredperry 0.0
thedollsftkaty 0.0
_cafajeff 0.0
debkatycat 0.0
katycats 0.0
eastonjames_ 0.0
oliviabooker_ 0.0
protecti 0.0
outrageousness 0.0
joanneprada 0.0
scuffed 0.0
catoure 0.0
blanged 0.0
tahmorrow 0.0
glukatyperrypop 0.0
jamesjoint 0.0
pressin 0.0
bourree 0.0
honeysuckle 0.0
meowings 0.0
fashun 0.0
happun 0.0
vikander 0.0
thekatyperrypopgame 0.0
karolfabianaros 0.0
nico_thekatycat 0.0
miss_lilyjames 0.0
stylinfunk 0.0
hudsontheband 0.0
jere_my 0.0
crabitat 0.0
tiersz 0.0
unrehearsed 0.0
fanclub_kp 0.0
oneofthesophies 0.0
fusterlandia 0.0
lazyblazy 0.0
katycatchloe 0.0
figali 0.0
prismaticness 0.0
titicaca 0.0
ancientaliens_ 0.0
sneezin 0.0
cristos 0.0
mallman 0.0
prismaticlife_ 0.0
ravensuxx 0.0
perrypositive 0.0
derkwhore 0.0
alekjandro 0.0
havss_ 0.0
hqzaynmaiik 0.0
thique 0.0
bbhmms 0.0
jkatharineb 0.0
jennyformica 0.0
tiiiiiight 0.0
ikissedagay 0.0
harryvuitton 0.0
aeschleahd 0.0
princessjavonda 0.0
errrythang 0.0
kooning 0.0
sugarray 0.0
empaths 0.0
goldenboyz_inc 0.0
voguejp 0.0
chickenwingguardingthemimosa 0.0
katyperrypopup 0.0
unmeasurably 0.0
transviolet 0.0
beauteous 0.0
katyskidrauhl 0.0
thooooooseee 0.0
clairesstores 0.0
nailsbymh 0.0
katysacutie 0.0
psychokatycat 0.0
kaceymusgrave 0.0
refueled 0.0
hyungsunju 0.0
okuurrrr 0.0
cholewheeler 0.0
leftshark 0.0
momchella 0.0
crotches 0.0
hookedondolls 0.0
fyuseapp 0.0
mogonoloball 0.0
atletica 0.0
katycatsclub 0.0
catacombs 0.0
poppycorn 0.0
cupped 0.0
christiania 0.0
residenz 0.0
lindseyweber 0.0
butterballface 0.0
joshlecash 0.0
myassistant 0.0
swiftschrist 0.0
snowhiteperry 0.0
emmakphughes 0.0
katyslegend 0.0
dansnierson 0.0
scressful 0.0
prismaticwitch 0.0
finnin 0.0
habibis 0.0
mophies 0.0
strongé 0.0
drumkit 0.0
anamanaguchi 0.0
gaultier 0.0
ngvmelbourne 0.0
dukedumont 0.0
legendaryasmyn 0.0
highlarious 0.0
calpurnia 0.0
waaaaait 0.0
mktfah 0.0
fwding 0.0
caseyhoops 0.0
worldstarvlne 0.0
flapfkp 0.0
bettycrocker 0.0
mexxxico 0.0
whhhhhhhhuuuuuutttt 0.0
yelletweets 0.0
gucciqxxn 0.0
luckyladyrebelettes 0.0
junglejulia 0.0
charlottes_web 0.0
istarbucksniall 0.0
katysroaaar 0.0
fiorucci 0.0
whuteva 0.0
sirdavidd 0.0
fudgery 0.0
bizquick 0.0
itsgrandtheft 0.0
grandtheft 0.0
katysfancy 0.0
ameezyyrush 0.0
mykectown 0.0
itsvalkubus 0.0
walkslikeperry 0.0
iwantperry 0.0
exausto 0.0
selfeh 0.0
aquaberry 0.0
sidepiece 0.0
versacness 0.0
iamleslii 0.0
alocalgyro 0.0
cutina 0.0
theoutslder 0.0
prism_katy_cat 0.0
katyshoodrat 0.0
thestevetisch 0.0
ronysphotobooth 0.0
schlitterbahn 0.0
kpsnosecrinkle 0.0
alwz_katycat 0.0
whykph 0.0
californiagurls 0.0
katycattt 0.0
varicose 0.0
itsbrillz 0.0
perrystiger 0.0
katysmyaura 0.0
paolablancokp 0.0
callmemargot 0.0
indiggynado 0.0
katycat 0.0
anylinden 0.0
kpkillerqueen 0.0
katyslilacwine 0.0
katypvenezuela 0.0
franzikaty 0.0
katherynelperry 0.0
doessss 0.0
katysleftarm 0.0
datingprism 0.0
_smiler_katycat 0.0
kepyterry 0.0
katycat_camille 0.0
vckatyperry 0.0
bowzerjoe 0.0
taishrox 0.0
mütter 0.0
arianperryarian 0.0
lisasigh 0.0
fridiskp 0.0
kevinruda 0.0
katyperrydaily 0.0
wakingupvegas 0.0
marlyins 0.0
drankin 0.0
herkatycat 0.0
luvhudson 0.0
yaeltsairi 0.0
felipinhoofm_ 0.0
renanmarcall 0.0
kariseperry 0.0
emojing 0.0
konnie 0.0
mcperry 0.0
iturnmycanonon 0.0
katycatelysha 0.0
andrewnavs 0.0
katycatkrystal 0.0
lovelyandlaugh 0.0
lampoonians 0.0
perrytuuda 0.0
katymyhaven 0.0
ruletheschool 0.0
cheapandchic 0.0
sically 0.0
crazyforperry 0.0
kpdaily 0.0
getonupmovie 0.0
cutetina 0.0
chimiuzz 0.0
kefali 0.0
joelkefali 0.0
siclly 0.0
mtvother 0.0
lydiaacav 0.0
prismaticperry 0.0
jwujek 0.0
adorbie 0.0
errone 0.0
kaliyah 0.0
katysweirdness 0.0
vinbiodiesel 0.0
katysfxb 0.0
katyspurrfect_ 0.0
shannonmwoodward 0.0
bippity 0.0
boppity 0.0
swiggty 0.0
swoogity 0.0
pizzarella 0.0
firewerk 0.0
katyslayed 0.0
emerald_epelman 0.0
madkatydisease 0.0
mandee 0.0
ohferras 0.0
sarahh 0.0
iaustinhunt 0.0
lanawhore 0.0
spaceykacey 0.0
crazay 0.0
elektrikpeople 0.0
visa_nz 0.0
fvckin 0.0
nathanspicer 0.0
cashcash 0.0
ashish_uk 0.0
xokatic 0.0
turnting 0.0
scorpiomystique 0.0
toddthomasnyc 0.0
kohngallery 0.0
discnt_universe 0.0
dressinkaty 0.0
lee_cook 0.0
bloodshot 0.0
yaddlizc 0.0
elnett 0.0
itsthekatycats 0.0
kelly_moritz 0.0
katyslaykaty 0.0
skintxghtjeans 0.0
socarrer 0.0
errrday 0.0
therealslacker 0.0
wendywild 0.0
welkys 0.0
sohohouse 0.0
selfing 0.0
camiilaruales 0.0
nexxxt 0.0
turrell 0.0
alliexxxxandra 0.0
surfboardt 0.0
telstra_news 0.0
juanitadele 0.0
oopskatycat 0.0
sophkatycat 0.0
katyschild 0.0
katysconverrse 0.0
katycat_leah 0.0
katycatverified 0.0
katycat_libby 0.0
katyswonk 0.0
kittless 0.0
jlrcukp 0.0
siiiiiiiiiiiiii 0.0
ermagherd 0.0
imlynsey 0.0
perrys_cherry 0.0
casemcgase 0.0
hazzaily 0.0
herses 0.0
gaypropaganda 0.0
tixforcharity 0.0
hudsons 0.0
nomers 0.0
mommacat 0.0
superlove 0.0
bonacorso 0.0
levi_leet 0.0
thinkingofbecki 0.0
cybering 0.0
pamyurin 0.0
idreamofkaty 0.0
xfactor_au 0.0
glohudsonperry 0.0
aubreyplzza 0.0
eeshhuhhayniac 0.0
bonkay 0.0
katysbum 0.0
nevillebradley 0.0
curryswift 0.0
zinepack 0.0
katykatt_suraya 0.0
sweetkatybird 0.0
yohkatheryn 0.0
cottoncandykaty 0.0
karolynadiaz 0.0
maayansharvit 0.0
theprismcess 0.0
camisp_ 0.0
lucasgaldin 0.0
prixy_mtz 0.0
niggasperry 0.0
kaksperry 0.0
zennnnaaa 0.0
katyissmurfy 0.0
dadehoward 0.0
kyledsaavedra 0.0
katysdoritos 0.0
pendejabardera 0.0
rosenilsou 0.0
hackensucks 0.0
gottabesheerio 0.0
ismaellgarcia 0.0
milegendz 0.0
alexskarev 0.0
ladycrystalb 0.0
katyspad 0.0
xcallmechrissyx 0.0
arianastylesss 0.0
jorgebaker 0.0
matty_zee 0.0
katycatzilla 0.0
adorie 0.0
meowwdison 0.0
alvin_koopa 0.0
lexyauditore 0.0
kease_it_raw 0.0
katysking 0.0
chris__kirby 0.0
katysbestfrwend 0.0
katyslildancer 0.0
sssshhh 0.0
conorhughess 0.0
tanimura 0.0
thekatycatlife 0.0
weefififookface 0.0
breakalioz 0.0
hudsonhelper 0.0
lariitaa 0.0
meeeeeooooooooowwwww 0.0
legend__dary 0.0
katyandliam 0.0
_theatrekid 0.0
babybritney 0.0
erinlorimer 0.0
_zacmoore_ 0.0
itscezzurryo 0.0
katycatskp 0.0
larissafilipo 0.0
siaylorswift 0.0
shitkittens 0.0
thefrankradical 0.0
katysprism 0.0
katytinalevine 0.0
serjeeoh 0.0
kayz_perry 0.0
katyslaysurfav 0.0
fuckyeahitskath 0.0
sweetyitosan 0.0
pickerington 0.0
verrado 0.0
retweete 0.0
jameswaterhouse 0.0
hunnah 0.0
truth_ispeak 0.0
_emilybarbarrr 0.0
nbllrrr 0.0
jmoneygraves 0.0
eaglenationnews 0.0
tauentzienstrasse 0.0
avontbh 0.0
vinnie_mate 0.0
demilovve 0.0
coolestkatycat 0.0
terri_katycat 0.0
beeeaaatttt 0.0
laurenfrancisco 0.0
victaytayp 0.0
aylajaye 0.0
iloveu 0.0
augustvaz 0.0
lizzievang_ 0.0
edsssss_ 0.0
hhhhhholly 0.0
holly_hickin 0.0
trixxx 0.0
killah 0.0
treasurefingers 0.0
最強ガール宣言 0.0
voykovic 0.0
annunaki 0.0
katyshomie_ 0.0
katyselephant 0.0
caitlynsmith 0.0
lightsperry 0.0
elizagilham 0.0
ohmyjatyfeels 0.0
junglescope 0.0
drunkskaty 0.0
malikpom 0.0
dancerlaurena 0.0
brirad 0.0
elisa_rv 0.0
moooom 0.0
pattymeagher 0.0
iwasemily 0.0
shahrzadphoto 0.0
tvjohnny 0.0
cstonethebreadwinner 0.0
katysrightboob 0.0
cyberdlck 0.0
beatforkaty 0.0
igabriiel 0.0
duuuuddddeeeee 0.0
redrum 0.0
srbuhiii 0.0
kayleighcat 0.0
applekatycat 0.0
ikatycats 0.0
wehryspencer 0.0
emilyjonesphoto 0.0
coxgabe 0.0
drugmoneyx 0.0
steven_drum 0.0
victoriacha 0.0
hashtaggin 0.0
perryandemetria 0.0
katycatfurlife 0.0
iammelissalynn 0.0
qewtie 0.0
yscheecat 0.0
slayty 0.0
katystree 0.0
katherynsboy 0.0
anapurry 0.0
nenedez 0.0
kevinn_perry 0.0
gloria_swag_ 0.0
andyamaziing 0.0
roarsana 0.0
brighthudson 0.0
fixingperry 0.0
roooooooooooooar 0.0
gretschusa 0.0
katys_cupcake 0.0
wonderation 0.0
kasek_craig 0.0
katysgurll 0.0
pepperperry_ 0.0
teamkatyperry 0.0
meandnutella 0.0
lovatokitten 0.0
katyslolly 0.0
astixxx 0.0
ravemomentz 0.0
erzaabrianto 0.0
katyperryindo 0.0
seeingdaisies 0.0
gillian_e_dubbs 0.0
samanthachazene 0.0
perryprism_ 0.0
katycompletesme 0.0
ltskatyperry 0.0
kittenscks 0.0
nihanofficial 0.0
momcat 0.0
kaytehperreh 0.0
__grazi 0.0
clairekatycat 0.0
fangurl 0.0
rrrrrrrrrrrroooooooooooooaaaaaaaaaaaaar 0.0
marispiva 0.0
mattdrobins 0.0
deihemmings 0.0
rooaaarr 0.0
katycatobsessed 0.0
katycatnick 0.0
tigerkats 0.0
kristenanzelc 0.0
taylermckellop 0.0
essesfadaperry 0.0
imjare 0.0
smganonymous 0.0
roaaaar 0.0
phuckyotweet 0.0
evvvvvverrrr 0.0
melvynmarrero 0.0
zouisashton 0.0
trillneyspears 0.0
rooooooar 0.0
fanwars 0.0
fentyncold 0.0
ttish_ 0.0
rachelacogan 0.0
makesmariana 0.0
kkaplon 0.0
rafaelmoncada 0.0
yaaaassssgrl 0.0
oioianna 0.0
katycatrazan 0.0
megaan_katycat 0.0
thekaelynn 0.0
hannahloupunton 0.0
thumbelinafairy 0.0
nic_kathryn 0.0
dannahfields 0.0
rodneybroaddus 0.0
noxisanasshole 0.0
soedesh__ 0.0
hookerofversace 0.0
thinkingofkaty_ 0.0
msgracevalerie 0.0
francfernandez 0.0
katysring 0.0
a_little_spark 0.0
laaxiss 0.0
