awesome 0.000480383220327
christmas 5.04296055554e-05
trying 9.10173318929e-05
launch 0.0
moment 0.000137264042834
wonderful 7.66785931532e-05
seeing 0.000116881022318
hanging 5.73695666815e-05
sounds 9.71069488002e-05
recommend 0.0
worked 4.92145822067e-05
direct 9.66641466928e-05
others 0.000832132540732
currently 2.7067963336e-05
better 0.00180082530518
please 0.000524762312126
social 2.54901617625e-05
anxiety 0.0
around 0.000337654744721
people 0.000945433285219
morning 0.000203687945968
traditional 4.31970671516e-05
general 8.7506684469e-05
damage 0.0
everything 0.000271583927958
twitter 0.00011346540187
present 5.15378617048e-05
though 0.000282793992794
friend 0.000204788996759
watched 0.000408952496817
beautiful 6.99397155084e-05
anything 0.000552024572163
previous 0.0
helped 7.44239362781e-05
updated 0.0
thinking 4.62507810899e-05
finally 0.00018500312436
caught 0.000127450808813
believe 0.000451421458817
already 0.000564276823521
couple 0.000148445303263
orlando 0.0
chance 0.000203687945968
meaning 0.000100408825908
growing 8.14271330178e-05
probably 0.000122703954295
password 0.0
changed 7.26336148123e-05
history 0.000349698577542
center 8.89909408965e-05
museum 0.0
behind 0.000135061897888
screaming 4.18682036825e-05
pretty 0.000901890231254
really 0.000814751783873
little 0.000473992531758
happiest 0.0
earlier 2.64813420917e-05
forget 9.1756388835e-05
someone 9.12630108046e-05
safety 0.0
program 0.000346349147923
things 0.000450206326295
related 3.32730107374e-05
visiting 0.0
available 2.35026672474e-05
perfect 7.06984981985e-05
different 0.000989044025126
search 6.05098926143e-05
connect 8.46049995665e-05
numbers 0.00036775909653
person 0.0012254263402
watching 0.000159280330813
exhibit 0.0
passed 2.75941048645e-05
prefer 3.41715461963e-05
minutes 0.000420771680345
travel 0.000166021691884
outside 0.000311362573188
looking 0.00027085287529
forward 0.000162753137256
agreed 0.000273066299971
raising 0.0
listened 7.1726515498e-05
afraid 0.0
impression 0.0
christian 0.0
profile 6.19006018822e-05
instant 0.0
drawing 8.06876923285e-05
wheels 0.0
favorite 0.000262652413954
picture 0.0
instead 5.09803235251e-05
appreciate 0.0
international 0.0
station 0.0
toddler 0.0
market 0.00216643675172
couldn 0.000164963162463
remember 0.000430007885933
vintage 0.000103152590304
holidays 3.23149803546e-05
friends 2.27543329732e-05
everyone 0.000746855801884
florida 0.000367082045655
always 0.000742840438386
months 2.36298445141e-05
moving 0.00012171230399
meeting 9.27513300661e-05
answer 0.000324629655231
sweetie 0.0
together 0.000204237723366
inside 4.71323321323e-05
section 3.47911353008e-05
missed 0.000894624791141
button 0.0
longer 0.000235100864448
enough 0.000709197554641
driving 8.30108459418e-05
building 0.000101684022362
enjoying 0.0
london 2.69198686156e-05
exploring 0.0
posting 0.0
amazing 0.000744845407048
attention 0.000230662032962
gordon 0.0
progress 0.0
tomorrow 0.000181055951972
george 2.81328390022e-05
feeling 4.73874072205e-05
excited 0.0
understand 0.000123369941928
following 9.50309775306e-05
asleep 0.0
learning 0.0
evening 5.18192415747e-05
special 0.000182526021609
secret 0.0
across 7.58499821569e-05
surprised 5.39875883743e-05
anymore 0.000115379999166
sophia 0.0
precious 9.54622679306e-05
rejoice 6.80797901753e-05
version 0.0
rather 0.000228789050314
avatar 5.73282428461e-05
showing 0.000144875177396
saying 0.000236298445141
tweeted 0.0
thoughts 4.80314902034e-05
exactly 0.000440540756858
except 0.000201914998541
getting 0.000475271873926
nothing 0.00083738377787
tweets 0.000149656628852
course 0.000327266862491
photos 2.73671081546e-05
looked 7.70967427799e-05
difficult 0.000178986064098
stages 0.0
office 2.44744864921e-05
decisions 0.000307543915767
brought 0.0
biggest 9.32529540112e-05
thrilled 3.44792090674e-05
something 0.000271583927958
closing 0.0
anyone 0.000616025322931
taking 0.000248951933961
recently 5.88298233154e-05
interesting 0.000353007238888
original 5.35454836828e-05
flying 2.84465767124e-05
happening 7.40219651571e-05
sometimes 0.0
lessons 6.55777985104e-05
village 0.0
stopped 5.31076782946e-05
yesterday 9.12630108046e-05
service 4.9750548449e-05
serious 9.68448197497e-05
digital 0.0
hoarder 0.0
wearing 0.000185876874031
british 0.0
either 0.000444131790942
second 0.000319420537816
checking 2.9332606936e-05
indeed 6.17243956587e-05
island 6.40706910001e-05
hearing 0.000176983291699
choose 0.000346145415754
staying 3.05999387505e-05
another 0.000835129698812
clothes 0.000187868622753
slowly 0.0
weekend 0.000137634583252
hashtag 0.0
delivery 0.0
theory 0.000111314227993
working 0.00045263987993
bigger 0.000159323034884
screen 9.17998162514e-05
riding 0.0
laughing 0.000107384740107
wanted 0.000205896064251
trends 5.13566805678e-05
stripes 6.42840395805e-05
clothing 0.0
current 5.33990749924e-05
adorable 0.0
grateful 5.91608588704e-05
friendship 0.0
family 9.05279759859e-05
listening 7.44239362781e-05
stream 0.0
expressions 0.0
wedding 3.43761868449e-05
sharing 7.98797113278e-05
double 0.000205032918189
especially 0.000125391881003
middle 0.000207842375022
waiting 2.31878325165e-05
definitely 2.47408838772e-05
walking 0.0
account 2.65538391473e-05
completely 5.36923700533e-05
thought 0.000410683548621
reaction 0.000185701805647
accept 0.000896691668137
simple 0.00102714474323
professional 6.71371104816e-05
friendly 0.0
supposed 9.02532383766e-05
business 0.000610209421297
absolutely 0.000290534459249
anywhere 0.000120678072237
sending 0.0
introducing 3.6306825132e-05
congrats 0.000570185865184
beauty 0.0
community 0.0
greatest 0.000123704419386
selfie 0.0
posted 0.0
saturday 0.000119431875558
wednesday 0.0
confused 6.59625925847e-05
expression 0.0
chicago 6.15488764008e-05
closest 4.31970671516e-05
relationship 0.0
actually 0.000811574138079
easter 0.0
basket 5.27077049513e-05
myself 5.9327293931e-05
argument 0.000558337259048
school 0.00271412081314
thursday 0.00075054735306
selling 0.000154751504705
talented 0.000178483039689
celebrate 5.00209434517e-05
falcon 0.0
celebrating 0.0
contest 0.0
experiences 0.0
students 0.00176997805631
internet 5.62656780045e-05
figure 0.0
opened 0.0
featuring 2.94149116577e-05
inspired 8.21013244638e-05
sitting 0.000102238124204
playing 0.000276012286082
street 7.52351286019e-05
points 0.00107323549602
memory 6.26124053677e-05
forever 0.000204476248409
imagine 7.56444083331e-05
problem 0.000121383686
played 0.000530949875098
canadian 0.0
pulling 0.0
keeping 2.52833273856e-05
lovely 2.84465767124e-05
dressed 0.0
specifically 0.0
unlike 4.18682036825e-05
disappointed 0.0
otherwise 0.000224897201748
afternoon 5.32531408852e-05
planned 9.75100569052e-05
strange 0.0
images 3.98141672245e-05
noticed 3.5863257749e-05
notice 0.000184122116318
stretch 8.34505611181e-05
inspiration 9.31162507047e-05
letting 2.78234139746e-05
system 0.000169734967629
possibility 4.38138267273e-05
almost 0.000135791963979
details 2.47408838772e-05
experience 0.000236298445141
living 4.72596890281e-05
weather 2.89255376818e-05
normal 6.06813999937e-05
launching 0.0
before 0.000220867117732
captured 0.0
colors 4.3503334683e-05
monday 0.00011814922257
example 0.000149575807481
realize 0.0
autographed 0.0
sleeping 0.0
authentic 5.59468084513e-05
science 9.58287016177e-05
tweeting 2.58391659057e-05
forgot 5.67354627816e-05
chasing 4.69990266325e-05
gorgeous 3.67593090368e-05
herself 0.0
happens 0.000187514776378
silence 7.12894185439e-05
learned 0.00010477466561
congratulations 0.000174599400328
natural 3.21281716782e-05
raised 0.0
babies 0.0
mission 0.0
smelled 0.0
ironic 5.02896411762e-05
testing 3.96836722717e-05
deleted 4.49355692231e-05
barely 3.9424930155e-05
unforgettable 0.0
forgotten 0.0
trouble 0.0
fantastic 0.0
loving 2.66995374962e-05
complete 0.000181862078144
nearly 8.92415198443e-05
spirit 0.0
launched 0.0
finding 0.0
mercury 0.0
stories 2.44744864921e-05
including 0.000427490264304
mature 6.17191182603e-05
stuffed 0.0
ancient 0.0
bottle 0.0
somewhere 5.89950368316e-05
wouldn 0.000317308899075
choice 0.00101412624177
conversation 5.50363693402e-05
making 0.000496563604699
expect 0.000298566154399
occasions 0.0
subject 0.00060691178374
flights 9.18873245678e-05
location 0.0
vacation 0.0
seriously 0.000250104717259
spending 0.000281328390022
groups 0.0
childhood 0.0
modern 0.0
welcome 0.000388914788029
moments 2.81328390022e-05
degrees 8.48982946275e-05
jacket 0.0
halloween 3.39687491822e-05
costume 0.0
totally 7.8366954816e-05
laughed 0.0
flight 0.00010856951069
kidding 0.000106284786765
regular 0.000369254107649
context 7.63480704559e-05
running 7.1273233148e-05
finished 0.000108271853344
strong 0.000116566192514
tracking 0.0
respond 3.41715461963e-05
message 2.40157451017e-05
coming 0.000315995021172
thankful 3.5644709272e-05
cheese 7.1726515498e-05
greens 0.0
issues 0.000404906912807
intolerance 0.0
happen 0.000115315606519
giving 6.86320214169e-05
turkey 0.0
excellent 0.000117990073663
limits 0.000336096320471
common 0.000251798353435
pressed 6.20681224035e-05
situation 8.87412883055e-05
options 0.000141283256962
health 5.33990749924e-05
insurance 3.90423093343e-05
change 0.000294215921954
singing 0.0
august 0.0
crying 3.5644709272e-05
mental 0.0
happened 7.14659036037e-05
demand 5.96620213661e-05
generally 4.57724803463e-05
personal 2.46072911034e-05
beyond 0.000151699964314
bruised 0.0
question 0.000647510935259
chicken 0.0
reward 4.71798333581e-05
tunnel 0.0
losing 8.37011171879e-05
respect 0.000296890606526
caption 0.0
shouldn 0.00027067963336
visited 3.55362256099e-05
reason 0.000547905260962
simply 0.000763807354332
darlin 0.0
audience 0.0
involved 2.63370446981e-05
unhappy 0.000109799256369
reality 8.07596058467e-05
extremely 0.0
without 0.000684472581034
falling 0.0
countdown 0.0
locations 0.0
timing 8.04205067809e-05
crabby 0.0
classic 0.00036070733092
highly 3.22213822309e-05
online 0.0
finger 3.85420594958e-05
animals 0.0
planets 0.0
called 0.000750892988117
delicious 4.00774487792e-05
almond 0.0
compliment 0.0
pictures 8.58153021658e-05
camera 8.87412883055e-05
pillow 0.0
checked 3.21281716782e-05
heading 0.0
theater 0.0
paying 0.000735372791443
planning 2.94149116577e-05
complex 0.000148884301229
sunday 7.01286133908e-05
nights 6.67421901191e-05
descending 0.0
traffic 6.79374983645e-05
opposite 0.000111314227993
through 3.17591418346e-05
lookout 0.0
reached 0.0
harder 0.000125945144699
random 0.0
changes 2.79775948261e-05
speaking 7.7728862362e-05
recorded 0.0
washed 0.0
november 3.03406999968e-05
answered 7.15074365614e-05
enchanted 0.0
number 4.63756650331e-05
adventures 0.0
eclipse 0.0
chocolate 0.0
unless 0.000251103351564
calling 0.000190061955061
mermaid 0.0
distraction 5.64892519598e-05
levels 0.000104373405902
option 3.27888992552e-05
shopping 0.0
former 0.000853397301373
actual 3.00844127922e-05
covers 3.66453325082e-05
mountain 3.99454230851e-05
friday 0.00073405111068
winner 7.54394584066e-05
closes 0.0
quality 8.77518061499e-05
father 7.73067925572e-05
wishes 8.84925552474e-05
hourly 0.0
matter 0.000291320846401
themselves 7.91078589108e-05
usually 9.05085541777e-05
period 0.0010130328864
parents 0.0
balance 3.52138766698e-05
publishing 0.0
mobile 0.0
woohoo 0.0
bracelets 0.0
summer 0.000122041884259
reminded 3.92966658973e-05
impressed 6.85472679473e-05
necklace 0.0
shutdown 0.0
dinner 0.000100041886903
single 0.000186505908022
packed 3.71047426642e-05
definition 0.000223326451843
energy 0.0
preview 3.22213822309e-05
monster 0.0
material 3.86660835909e-05
admission 6.03748193971e-05
europe 0.000125224810735
holiday 0.0
emotional 0.0
update 0.0
customers 9.7751946049e-05
messing 0.0
holding 0.000107090967366
electric 0.0
eating 5.65783225431e-05
outfit 0.0
picked 0.0
fabulous 0.000275974511085
missing 0.000120729314497
surprise 4.84224098748e-05
officially 0.0
french 0.0
global 3.02549463072e-05
follow 6.82629989197e-05
opinion 0.000442462776237
backwards 0.0
design 0.0
secrets 0.0
request 3.48960786905e-05
breaks 0.0
allows 4.25967564742e-05
promoting 0.0
volunteer 0.0
wondering 3.07744382004e-05
official 0.000280514453563
sweater 0.0
jersey 0.00015221074208
mistake 3.13062026839e-05
france 0.0
proper 3.59733328648e-05
ginger 0.0
peaceful 0.0
lighter 0.0
thinks 5.28181555436e-05
competition 9.17998162514e-05
hospital 0.0
industry 0.00175685952966
trending 0.0
leadership 3.54282622551e-05
organized 0.0
showed 8.53397301373e-05
circle 0.0
success 7.66785931532e-05
ladies 6.20775004698e-05
dreams 8.92415198443e-05
protect 2.90063647573e-05
onesie 0.0
explanation 0.000161912946046
control 0.000278116601242
coincidence 9.54622679306e-05
discovering 0.0
laying 0.0
invited 3.18508336775e-05
healthy 0.000153435096932
surgery 8.48982946275e-05
allowing 7.93673445434e-05
arrived 0.000164202648928
opening 2.46072911034e-05
popular 6.19006018822e-05
pleasure 0.000141838656954
spectacular 0.000165207506188
animal 3.39687491822e-05
luggage 0.000135250041686
wonder 2.45407908591e-05
matters 0.000178483039689
reader 0.0
function 5.04990409776e-05
marketing 0.0
connection 0.0
improves 6.03748193971e-05
benefit 0.000170206388345
continues 5.51882097291e-05
cuddle 0.0
routine 4.59436622839e-05
exciting 5.42847553452e-05
corner 0.0
imagination 0.0
sangria 0.0
mystery 4.11624933381e-05
spring 0.0
beautifully 0.0
places 8.09813825615e-05
feedback 0.0
continue 0.00013061159136
attend 0.00010220975794
creative 0.0
memories 0.000154751504705
female 0.0
grandma 0.0
closer 8.51031941724e-05
accent 0.0
beginning 2.84465767124e-05
sooner 0.0
everywhere 5.39875883743e-05
scenes 0.0
bought 0.000193691973864
wishing 0.0
discovered 3.76925127751e-05
remove 0.000195211546672
predict 9.05332185051e-05
parrot 0.0
several 0.000162990663605
teacher 0.0
passing 3.05999387505e-05
become 9.45193780562e-05
spread 5.16783318113e-05
netflix 3.75737245505e-05
season 0.00122219580229
putting 4.75154887653e-05
weight 3.52138766698e-05
outfits 0.0
notification 0.0
annoying 0.0
necessity 0.0
knocks 0.0
processed 0.0
necessarily 0.000198691526402
effects 4.20120400589e-05
lighting 0.000150246514063
headed 5.98303229925e-05
returns 3.03406999968e-05
expected 0.000194453815715
bucket 4.25967564742e-05
constantly 8.34505611181e-05
sweetest 0.0
struggling 0.0
register 3.36679386972e-05
transition 0.0
flowers 0.0
sprain 0.0
savage 5.29409745654e-05
somebody 0.00010130328864
covering 0.0
gloves 0.0
repeat 9.47306132129e-05
managers 0.0028670362113
brothers 0.000104060036668
patriots 0.0
seahawks 0.0
player 0.00179988165105
chemistry 4.94709940023e-05
moonlight 0.0
comment 2.9168894823e-05
columbia 0.0
physical 0.000226155076651
kingdom 0.0
pretend 0.00023810203363
charles 0.000108920475396
fighting 7.73067925572e-05
rooting 0.0
donald 0.0
mexico 0.0
police 2.9168894823e-05
represent 0.0
president 5.02929722711e-05
talking 0.000363089285985
unbelievable 0.0
shrimp 0.0
giants 4.38138267273e-05
conference 0.000701377077068
america 0.000144484259908
everybody 0.000362704841148
houston 0.0
everyday 0.0
michael 0.000102238124204
protecting 0.000121031538493
unconditional 0.0
million 0.000213819699444
election 3.12166983261e-05
telling 0.00010279565704
correct 0.0011375868981
pulled 0.000203812495093
starbucks 4.98765962607e-05
americans 0.0
killed 2.52148027777e-05
cowboys 0.0
cowboy 0.0
coverage 0.000153435096932
dallas 0.0
coffee 8.55770975133e-05
timeline 7.75815896072e-05
refuse 8.12268680259e-05
barackobama 0.0
hillary 0.0
clinton 0.0
gatorade 0.000150039502603
sharper 0.0
american 0.000240157451017
deserved 3.45827049569e-05
realist 0.0
illegal 3.76925127751e-05
arizona 0.0013431557133
waffle 6.80797901753e-05
scared 9.95260558354e-05
pieces 6.69392172722e-05
taught 6.67421901191e-05
golden 6.10263873724e-05
straight 0.000225705385806
massage 0.0
filter 0.0
answers 8.7506684469e-05
smoking 0.0
created 5.44340776467e-05
beside 5.97316237452e-05
worlds 0.0
record 0.000141779067084
freddie 0.0
africa 0.0
recruiting 0.000271968785453
journey 5.88298233154e-05
snapchat 0.0
brother 0.000110376419458
prayers 0.0
trolling 0.0
hungry 0.0
nflnetwork 0.0
documentary 3.38680317153e-05
boston 0.0
addition 3.9424930155e-05
church 0.0
honestly 3.23149803546e-05
lounge 0.0
lifetime 0.0
captain 0.000115256144965
favorites 4.02102533904e-05
country 0.000280514453563
valley 0.0
huddle 0.000230935214761
dressing 0.0
finish 0.000111293655899
favourite 0.0
prayer 5.00821713545e-05
nominated 0.0
praying 4.64651601164e-05
insane 6.69392172722e-05
national 0.00034264281089
reform 4.47718571101e-05
shooting 0.000311180773987
australia 3.35685552408e-05
deserve 0.000138733588815
legend 9.05085541777e-05
mother 5.04296055554e-05
realest 0.000237371601648
creating 3.1127548442e-05
powerful 2.75941048645e-05
chilling 0.0
wisdom 0.0
breaking 0.000146054764788
parked 0.0
angeles 0.0
dollars 0.000189659932419
questions 0.000115939162583
racist 0.0
girlfriend 4.77311339653e-05
performance 0.000183355664817
refreshing 0.0
educated 0.0
reading 7.20472353051e-05
denver 0.0
videos 0.0
harmony 0.0
create 0.000183355664817
jordan 0.000197124650775
admire 8.37364073649e-05
nobody 0.00227523085657
government 0.000135472126861
politics 0.0
paradise 0.0
recover 0.0
spotted 0.0
blessing 0.0
coolest 0.0
banana 4.82962761913e-05
donate 0.0
sandwich 0.0
lookin 0.000147812702953
method 4.73621041217e-05
bullshit 0.0
slight 5.29409745654e-05
bringing 0.0
deserves 9.02532383766e-05
regret 0.0
celebs 0.0
victim 0.0
stadium 7.65920853222e-05
funniest 4.1301876547e-05
according 0.000209997396512
pumped 4.51004807029e-05
hamburger 0.0
heaven 0.0
honest 2.81328390022e-05
rolling 0.000203812495093
became 2.82891612715e-05
feature 0.00012415500094
waking 0.0
breakfast 2.84465767124e-05
counting 3.21281716782e-05
signing 5.9327293931e-05
adding 7.1726515498e-05
awareness 3.24089692858e-05
kindest 0.0
trainer 5.79054620703e-05
facebook 0.0
insanity 0.0
repost 0.0
brazilian 0.0
campaign 0.0
borrow 0.0
scorpion 0.0
popcorn 0.0
factory 0.0
teenage 0.0
endorsement 0.0
williams 0.000360839488923
custom 9.08679459402e-05
drinks 4.04782365116e-05
future 0.000233132385028
angels 0.0
fingers 0.0
sister 9.12803448518e-05
earrings 7.50197513014e-05
warrior 0.0
dancing 0.0
voting 2.7900372396e-05
individuals 0.0
presence 0.0
commercial 9.31162507047e-05
chopped 0.0
religion 0.0
century 0.0
submit 0.0
serving 3.89162007899e-05
because 0.0
aggressive 9.02009614057e-05
sensitive 0.000142086312365
smiling 0.0
besides 0.0
cleveland 0.0
hometown 0.0
killing 0.0
breath 3.84187149882e-05
phillips 5.91062969701e-05
instagram 0.0
sharks 0.0
cousin 4.44479620787e-05
honored 9.41881930362e-05
dedication 0.0
lifting 0.0
lyrical 0.0
talent 0.000603390361184
goodnight 0.0
stores 0.0
rushing 0.0
brains 0.0
sandwiches 0.0
drinking 6.73358773944e-05
brazil 0.0
tattoo 0.0
ravens 0.0
regardless 3.99454230851e-05
skills 6.27921286908e-05
cameras 0.0
phones 0.0
california 6.48179385716e-05
seconds 0.0
listen 0.000444147884809
smiled 0.0
kicking 6.38858010785e-05
homies 0.0
billion 0.000842633201431
shades 0.0
shoutout 0.0
grammy 5.34148934659e-05
guilty 0.0
stevie 0.0
ceiling 0.000776971101918
carpet 0.0
grammys 0.0
harvard 0.000256783402839
panther 0.0
nelson 0.0
mandela 0.0
handle 8.84925552474e-05
sexiest 0.0
promise 8.053855508e-05
hosting 2.96636469655e-05
hahahaha 0.0
longest 0.0
tuesday 5.13978285199e-05
locker 0.000101420814006
workout 0.0
ingredient 0.0
leader 0.000176985110495
pageant 0.0
character 9.07648389215e-05
idiotic 0.000345089278765
mirror 0.000110621596804
jackson 0.000328787371539
interview 0.000161007166881
battles 0.0
bleach 0.0
insight 4.02102533904e-05
obviously 0.0
replay 0.000300493028127
battle 0.000157591448372
stomped 0.0
destroy 7.85933317946e-05
killer 0.0
personally 0.0
winning 0.000169021040295
gettin 0.000196290283693
japanese 0.0
writing 2.61936664025e-05
society 3.12166983261e-05
officers 0.0
brooklyn 4.57724803463e-05
sources 0.0
incredible 0.000122041884259
poster 7.1726515498e-05
celebrity 3.69890081352e-05
memorable 0.0
werent 0.0
chased 0.0
minute 7.64704852876e-05
confession 0.0
pregnant 0.0
cherry 4.96728816006e-05
twinning 0.0
phoenix 0.0
orange 3.38680317153e-05
policy 0.000431279575287
comedy 0.0
illuminati 0.0
reminder 2.72170388233e-05
evidence 0.000369254107649
iphone 0.0
kicked 3.71047426642e-05
intentions 0.0
freedom 0.000125945144699
patient 7.91078589108e-05
utterly 0.0
mississippi 0.000255596953914
download 0.0
assistant 0.000228862401731
invite 6.40706910001e-05
central 2.9831010683e-05
washington 0.00023932129197
stronger 3.59733328648e-05
promised 0.0
worried 0.0
throwing 0.0
security 5.99992561462e-05
cologne 0.0
headphones 0.0
sanctuary 0.0
fantasy 0.0
monkey 0.0
approve 0.0
spinach 0.0
turning 0.0
helping 7.46258226734e-05
tickets 0.000109468432618
collector 0.0
physically 4.98765962607e-05
slavery 0.0
december 6.27921286908e-05
basically 0.0
return 0.0
yassss 0.0
goddess 0.0
locked 0.00011415805656
feelings 0.0
language 0.0
motion 0.0
obsessed 0.0
creation 0.0
followers 0.0
schools 0.00106022966538
gallery 0.0
movies 3.38680317153e-05
foster 9.36393212264e-05
children 0.0
nation 0.000625824687674
theaters 0.0
between 4.96728816006e-05
knowledge 0.000257025373426
begins 2.7067963336e-05
robinthicke 0.0
faithful 0.0
peeing 0.0
closet 0.0
bodies 0.0
italian 0.0
highlights 6.8139838627e-05
spanking 0.0
forbes 9.85418019685e-05
parade 0.0
tasted 0.0
consider 0.000239997024585
reunion 0.0
latest 0.000171321405445
dedicated 3.85420594958e-05
beyonce 0.0
perform 7.23902223482e-05
signed 2.49427714754e-05
tuxedo 0.0
princess 0.0
shelter 0.0
germany 0.0
explaining 0.0
married 0.0
millions 0.000305999387505
blessings 0.0
iconic 0.00013834846792
indonesia 0.0
braids 0.0
dollar 0.000761053710399
rigged 0.0
replied 0.0
lights 6.50067046034e-05
turned 0.000148847872556
excuses 0.000150868923529
jackie 0.0
charge 0.000313062026839
performing 0.0
ticket 3.03406999968e-05
steady 0.0
whispers 6.95019672352e-05
finest 8.92186540886e-05
confucius 0.0
diamonds 0.00019767781039
vancouver 0.0
addicts 0.0
collection 0.0
families 0.0
select 0.000121031538493
hitting 6.03390361184e-05
announced 2.75181846701e-05
decided 5.4135926672e-05
jewels 0.0
lottery 5.38990049482e-05
owners 0.0
respects 0.0
celebration 3.17591418346e-05
memorial 0.00011027792711
landed 0.000141283256962
pastor 0.0
ultimate 9.83666977655e-05
incase 0.0
rapper 0.0
episode 0.000161962765123
bounce 5.38990049482e-05
disney 0.0
muffin 0.0
kansas 0.000724265748041
sherman 0.0
retweet 2.86847833408e-05
midnight 3.05131936862e-05
patience 0.000135799827758
cereal 0.0
joining 2.66265704426e-05
released 2.63370446981e-05
release 4.96159575187e-05
models 0.0
classics 0.0
popped 0.0
mileycyrus 0.0
highlight 3.57537182807e-05
scholarship 0.00115829472659
within 8.65349993748e-05
hahahahaha 0.0
standing 7.7517497717e-05
higher 0.000242725599975
purple 0.0
skinny 0.0
justice 3.04267816173e-05
served 0.0
speaks 3.26933139043e-05
horses 0.0
houses 0.0
purchase 3.87907948036e-05
dropped 8.37011171879e-05
conversations 0.0
consideration 0.0
seattle 8.26037530941e-05
cookie 0.0
slurpee 0.0
strength 0.000125224810735
screens 0.000108290043566
monica 0.0
incredibly 0.000159714502696
streets 0.00013309204295
boyfriend 0.0
private 5.80127295145e-05
skittles 0.0
barbie 0.0
apologizes 0.0
designer 0.0
impress 0.0
cooking 0.0
exclusive 0.000214769480213
fashion 3.26933139043e-05
petite 0.0
talkin 0.000265883434188
peaches 0.0
bitches 0.0
nailed 4.56025903601e-05
weirdest 0.0
whomever 7.69784049204e-05
teaching 6.89584181348e-05
disgusting 0.0
chillin 0.0
philly 8.46049995665e-05
rights 0.000335645130548
dinosaur 0.0
exotic 0.0
dancers 0.0
cheers 0.0
presents 0.0
flawless 0.0
dating 0.0
victory 0.000290834823192
marley 0.0
productive 4.49355692231e-05
smurfs 0.0
halftime 0.000160244680398
insecure 0.0
horror 0.0
warning 3.26933139043e-05
discovery 0.0
convention 0.0
understanding 3.2598132721e-05
action 0.000364151058001
having 0.0
speaker 3.76925127751e-05
clever 0.0
theatre 0.0
honors 5.59468084513e-05
evolution 0.0
produce 0.0
spider 0.0
apologize 8.34505611181e-05
formation 0.0
letter 5.5800744792e-05
therapy 4.73621041217e-05
untrue 0.000297083945072
written 8.27823145936e-05
communication 4.92709009843e-05
disease 0.0
marching 4.86810772935e-05
suggest 0.000245010595341
georgetakei 0.0
hairstyle 0.0
humans 0.0
journal 9.36393212264e-05
foundation 3.22213822309e-05
access 8.34702419239e-05
venture 0.0
syndrome 0.0
writes 0.000221243193607
colorado 0.0
medicine 0.0
tremendous 0.000170981359839
nytimes 0.000308462705763
kindness 0.0
cannot 0.000428651647221
reveals 0.0
invented 4.23024997832e-05
sapphire 0.0
candidate 7.19466657295e-05
sexual 0.0
madison 0.0
illustration 0.0
newark 0.0
globally 0.0
incorrect 0.00109799256369
headline 3.54282622551e-05
reflect 8.34505611181e-05
streaming 3.69890081352e-05
leaders 0.0
supreme 7.80846186687e-05
protest 0.000191480213306
policies 0.000369215710898
silenced 0.0
defend 0.000110967024406
communicating 0.0
climate 7.65920853222e-05
wrapped 4.24491473137e-05
studio 9.44588585245e-05
conspiracy 0.000223046635222
interviews 0.0
differentiation 0.0
confusing 4.56025903601e-05
february 6.65460214749e-05
hamilton 0.0
loneliest 0.0
amazon 0.0
scattered 9.06227135885e-05
francis 0.000155394220384
headlines 0.0
january 0.000125224810735
diversity 0.0
universal 0.0
hurricane 0.0
identifying 0.0
countries 3.2598132721e-05
tickled 0.0
becker 0.0
connected 0.000132385984375
suggestion 4.36580453698e-05
filled 3.17591418346e-05
education 0.000486828505876
mentioned 6.65460214749e-05
defining 0.0
exists 8.40240801177e-05
unexpected 4.36580453698e-05
plants 0.0
orders 4.06134340129e-05
olympics 0.000120232346338
ability 0.000230194245545
director 2.82108644402e-05
content 0.0
cycling 0.0
previously 0.0
correction 0.0
pearls 0.0
ambassador 7.80846186687e-05
preparing 7.56238623577e-05
depend 0.0
downloads 0.0
lovers 0.0
weekly 0.0
hudson 0.0
bridge 0.0
becoming 5.80127295145e-05
magazine 3.13960643454e-05
appropriate 0.0
shakespeare 0.0
travesty 0.0
discoveries 0.0
fellow 0.0
reviewed 5.20220585561e-05
copies 0.0
driven 0.0
aussies 0.0
result 0.000195588796326
announcing 0.0
visual 0.0
restrictions 0.000779525754928
culture 3.12166983261e-05
edition 9.07648389215e-05
prince 3.27888992552e-05
shocks 0.0
symmetry 0.0
clicks 0.0
disagree 3.50015136201e-05
experiments 0.0
mistakes 4.03438461642e-05
trolls 0.0
blossoms 0.0
offered 0.0
inspiring 9.15395810586e-05
counter 0.0
approach 0.000101003816092
embarrassing 4.06134340129e-05
creators 0.0
edited 5.31766868376e-05
berniesanders 0.0
overnight 4.84878545078e-05
spotlight 0.0
probable 0.0
repeating 0.000116399437523
concerns 8.26037530941e-05
massive 0.0
promising 0.0
promises 0.0
colored 6.58926034633e-05
production 3.60839488923e-05
header 6.27827956451e-05
itunes 0.0
secretary 0.0
highway 0.0
dangerous 3.03406999968e-05
letters 4.18682036825e-05
typically 0.0
saving 0.0
pioneer 5.07104070029e-05
visuals 0.0
universe 0.0
ordering 0.0
victims 0.0
privacy 0.0
disclosure 0.0
proceeds 0.0
musical 0.0
collide 0.0
melbourne 0.0
correctly 0.0
campus 0.0
debate 0.00014543741551
conflict 0.00140997079897
meanwhile 3.96836722717e-05
petition 0.0
contribution 0.0
stated 0.000273226358107
humanity 3.85420594958e-05
illness 0.0
flawed 0.000167041233199
breathe 4.41286614582e-05
winners 5.98303229925e-05
spanish 0.0
comedic 0.0
awards 0.0
presidential 7.53850255502e-05
candidates 0.0
glasgow 0.0
smells 0.0
treasure 0.0
greater 0.000110621596804
themed 0.0
distribution 0.0
absurd 0.00189856201445
squirrel 0.0
sisters 0.0
stress 0.0
leading 8.60543500223e-05
resolution 0.0
achieved 0.0
interacting 0.0
boiling 0.0
examples 0.0
diverse 0.0
suicide 0.0
parallel 0.0
minneapolis 0.0
impairs 0.0
pumping 0.0
slides 0.0
choreography 0.0
element 0.0
serves 0.0
jumping 0.0
rising 0.000109257288807
believed 0.0
features 0.0
environment 4.15832591648e-05
revealed 0.0
classical 0.0
confirmed 3.28848922208e-05
origins 0.0
combination 0.000152771329583
consumption 0.0
worldwide 0.0
deaths 0.0
responsible 3.68738656012e-05
overwhelmed 0.0
household 5.07104070029e-05
munich 0.0
alternate 0.0
blockers 0.0
restaurant 0.0
canada 0.0
versions 0.0
technology 3.78119311789e-05
identify 0.0
combined 0.000168048160235
santiago 0.0
branches 0.0
october 0.0
netherlands 0.0
belgium 0.0
european 3.89162007899e-05
imperial 0.0
perspective 6.67421901191e-05
cities 0.0
guinea 0.0
americas 0.0
posters 5.09237765276e-05
elastic 8.94056433354e-05
flames 0.0
presumably 0.0
exquisite 0.0
spreading 0.0
happiness 0.0
ashamed 0.0
naturally 0.0
malbec 0.0
wasting 5.56804110663e-05
hidden 0.0
coffin 0.0
freudian 0.0
genius 2.99996280731e-05
cultured 0.0
malaysia 0.0
traveling 0.0
prepared 6.83430923927e-05
county 4.17252805591e-05
quinoa 0.0
district 0.0
chosen 0.000127790269423
toilet 0.0
yorkers 0.0
ignores 6.20681224035e-05
messages 0.0
creativity 0.0
conventional 0.0
berlin 4.64651601164e-05
montreal 0.0
wonders 0.0
upcoming 3.19429005392e-05
lonely 0.0
australian 0.0
positions 4.77311339653e-05
singapore 0.0
scratch 0.0
deficiency 0.0
elevated 0.0
triggers 0.0
delicate 0.0
barrier 5.56804110663e-05
reflection 0.0
sydney 0.0
separates 8.41468991395e-05
centuries 0.0
israel 0.0
overwhelming 0.00153337416453
assault 4.31970671516e-05
protection 0.0
picker 0.0
additional 9.39980532649e-05
machine 3.04267816173e-05
samples 0.0
contrary 0.0
immediate 0.0
michelle 0.0
inspire 0.0
lyrics 4.23024997832e-05
missyelliott 0.0
constant 4.38138267273e-05
tuning 0.0
pandora 0.0
preshow 0.0
buenos 0.0
poland 0.0
philippines 0.0
nicely 0.000172788268606
september 3.16678219677e-05
manchester 0.0
checks 8.73160907396e-05
screenshot 0.0
universalorl 0.0
remarkable 0.00011674860237
rihanna 0.0
disgusted 0.0
flattered 0.0
fiction 0.0
angela 5.24768278883e-05
bitmoji 0.0
process 5.75294980491e-05
genuine 0.0
performances 4.42877456278e-05
comedians 0.0
flotus 0.0
strangers 0.0
hungover 0.0
confidence 0.0
studios 0.0
stjude 0.0
memphis 0.000116399437523
mikeypiff 0.0
chancetherapper 0.0
scream 0.0
jennifer 0.0
disappoint 0.0
newcastle 0.0
castle 0.0
literally 0.0
chrisrock 0.0
gentlemen 9.69757090156e-05
mtvnews 0.0
hillaryclinton 0.0
iamrashidajones 0.0
champagne 5.09237765276e-05
raleigh 0.0
ijessewilliams 0.0
acknowledge 0.0
buzzfeed 0.0
puppet 0.0
rehearsal 0.0
billboard 0.0
austria 0.0
sweden 0.0
republic 0.0
grilled 0.0
waltdisneyworld 0.0
katyperry 0.0
ronanfarrow 0.0
measly 0.0
bragging 6.54795585478e-05
treats 0.0
literal 0.000179194871236
cooper 4.79179426417e-05
counts 3.74555598891e-05
theellenshow 0.0
basking 0.0
cookies 0.0
festival 0.0
amsterdam 0.0
soundcheck 0.0
downloaded 0.0
encouraged 5.59468084513e-05
alright 0.0
jtimberlake 0.0
backstage 0.0
collab 0.0
joined 2.77467177631e-05
issarae 0.0
playlist 8.92186540886e-05
madness 0.000107919998594
romantic 0.0
selfies 0.0
exclusively 4.62899816735e-05
disneyland 6.54795585478e-05
refused 0.0
characters 0.0
amazingly 4.73621041217e-05
auction 4.51004807029e-05
express 3.48960786905e-05
gratitude 0.000191671770567
sesamestreet 0.0
thegrammys 0.0
throughout 0.000107261154842
awkward 0.0
shining 0.0
thrown 0.0
stylist 0.0
fighter 0.0
accepting 8.26037530941e-05
playin 0.0001841263279
applemusic 0.0
filmed 4.33496800502e-05
makeawish 0.0
bieber 0.0
remixes 0.0
toronto 0.0
capitolrecords 0.0
shazam 0.0
anthem 4.11624933381e-05
cosmopolitan 0.0
khloekardashian 0.0
cookin 0.0
songwriters 0.0
reveal 3.28848922208e-05
stands 3.13062026839e-05
spotify 0.0
phvegas 0.0
rocked 0.0
glasses 4.14421281927e-05
iambeckyg 0.0
relive 6.20681224035e-05
acoustic 0.0
announce 0.0
although 7.35186180737e-05
isaacfromct 0.0
shampoo 0.0
interactive 0.0
todayshow 0.0
haters 9.50917256526e-05
appreciation 0.0
floating 5.27077049513e-05
shondarhimes 0.0
showtime 5.41450217829e-05
premiere 0.0
broadway 0.0
makeup 0.0
starring 0.0
newest 0.0
designed 6.95822706016e-05
arianagrande 0.0
aladdin 0.0
swaggy 0.0
owning 0.0
producer 0.0
legendary 0.000108251846677
jasmine 0.0
costumes 0.0
square 3.05131936862e-05
emojis 0.0
jessica 0.0
magical 0.0
thedoctorluke 0.0
thirsty 0.0
therealjuicyj 0.0
symbols 0.0
privilege 4.17252805591e-05
spiral 0.0
retrograde 0.0
footage 0.0
theirs 0.0
universes 0.0
remembering 3.68738656012e-05
floated 0.0
construction 0.0
consciousness 6.42840395805e-05
delights 0.0
explodes 0.0
submissions 0.0
pleased 0.0
shredding 0.0
filters 0.0
weasel 0.0
reflective 7.50197513014e-05
firework 0.0
islands 0.0
interstellar 0.0
bubble 0.000212983782371
customs 0.0
festive 0.0
window 6.61562300128e-05
senator 0.0
slightly 0.0
therealbuzz 0.0
printing 0.0
snowflake 0.0
applications 0.0
elephant 0.0
fifteen 0.0
editions 0.0
newspaper 0.0
rainbow 0.0
unlimited 0.0
sirius 0.0
matthew 0.0
affected 0.0
capturing 0.0
canyon 0.0
rivers 0.0
spoken 3.76925127751e-05
accidentally 0.0
bizarre 4.68196606132e-05
dolphin 0.0
successfully 0.0
liquid 0.0
graffiti 0.0
swallowing 0.0
messenger 0.0
heroes 0.0
disturbing 4.77311339653e-05
graduates 0.0
rewrite 0.0
describe 6.53866278085e-05
hollywood 0.0
equality 0.0
announcement 2.89255376818e-05
breakout 0.0
dreaming 0.0
animation 0.0
calendar 4.39706936779e-05
circling 0.0
garden 6.73358773944e-05
enhanced 0.0
journalists 4.03438461642e-05
stirring 6.76250208432e-05
nominations 0.0
yelling 0.0
teachers 0.000121031538493
chapter 7.51474491011e-05
napoleon 0.0
aliens 0.000109290543243
subjects 0.0
revolution 0.0
mountains 0.0
wonderland 0.0
storage 0.0
crystals 0.0
circuit 0.0
invitation 4.73621041217e-05
kettle 0.0
adjective 0.0
woodpecker 0.0
operate 6.31488251134e-05
exhibition 0.0
learnt 0.0
nomination 0.0
madonna 0.0
questioning 5.54171295116e-05
unplug 0.0
initiatives 0.0
switzerland 0.0
represents 4.62899816735e-05
throat 0.0
touchdown 0.0
desire 0.0
forced 0.000172913524785
swedish 0.0
hundred 0.000380366902611
prompts 0.0
rainbows 0.0
creates 0.0
oxford 0.000202841628012
balloons 0.0
liverpool 0.0
recreate 0.0
glorious 0.000130510004049
newton 0.0
creature 0.0
finalist 0.00011821259394
scouts 6.35209049288e-05
treading 0.0
tragedy 0.0
nottingham 0.0
debacle 0.0
legends 0.000187278642453
noises 0.0
addiction 0.0
survived 0.0
idioms 0.0
greeted 0.0
basics 0.0
masses 0.00011699574601
confirm 0.000109935997525
cadence 0.0
spaghetti 0.0
prepare 0.0
calendars 6.76250208432e-05
narrative 9.85418019685e-05
application 0.0
octopus 0.0
drumming 0.0
bloody 0.0
confetti 0.0
translate 0.0
birmingham 0.0
singles 0.0
completes 0.0
laptop 0.0
obvious 7.63480704559e-05
darling 0.0
deserving 5.38990049482e-05
miller 0.000203747242113
ordered 0.0
feelin 0.000120101848731
alicia 0.0
picasso 0.0
recipe 0.0
alphabetical 0.0
butterfly 0.0
timothy 0.0
mancini 0.0
untold 0.0
directed 0.0
hacked 0.0
admits 0.0
clocks 0.0
nugget 0.0
cnnopinion 0.0
grabbed 0.000127798476957
russia 0.0
surprises 0.0
waterfalls 0.0
olympic 4.17252805591e-05
magnificent 0.000188719333432
casual 0.0
assume 3.69890081352e-05
relief 0.0
subscribe 4.42877456278e-05
landslide 0.0
telegraph 0.0
standby 0.0
admitting 0.0
complacency 0.0
voices 0.000218514577614
sounding 0.0
douglas 0.0
democracy 0.0
locals 0.0
gossip 0.0
nickname 0.0
subtle 0.0
embarrassed 0.0
ireland 4.00774487792e-05
mornings 0.0
democratic 0.0
impressions 0.0
outgoing 0.0
treasury 0.0
refugees 0.0
unveiling 0.0
listing 0.0
deliver 0.0
negotiating 0.0
roller 0.0
prosperous 0.0
desperate 0.0
acknowledgement 0.0
executive 3.75737245505e-05
republicans 0.0
weapons 0.0
dropping 0.00010220975794
meaningful 4.90725709232e-05
nightmare 7.83382567065e-05
goodies 0.0
scandalous 0.0
rhetoric 0.000105881949131
divisive 0.0
vision 0.0
confirmation 4.64651601164e-05
throne 0.0
records 0.000102514638589
quoting 0.0
impatient 0.0
refugee 0.0
texted 0.0
exposed 0.0
stoked 0.0
priority 0.0
freedoms 0.0
notorious 0.000141005180943
empowering 0.0
unconstitutional 0.0
turkish 6.10369352572e-05
concerned 0.0
realdonaldtrump 0.0
goodwill 0.0
imagined 0.0
belfast 0.0
sleeve 0.0
basement 0.0
preposterous 0.0
griffith 0.0
timeless 0.0
truman 0.0
intended 4.77311339653e-05
inappropriate 0.000169467755879
industries 6.54795585478e-05
responsibility 0.0
documentaries 0.0
vulnerable 0.0
respectful 0.0
markets 0.000246354504921
claire 0.0
nuggets 6.54795585478e-05
boards 0.0
sequins 0.0
capitol 0.0
technical 4.71798333581e-05
applying 0.0
guitar 0.0
donating 0.0
continually 0.0
norway 0.0
applause 5.34148934659e-05
ballot 0.0
finely 0.0
shakes 0.0
varied 0.0
proverb 0.0
vibrant 0.0
flower 0.0
survives 0.0
fierce 0.0
shopped 0.0
sincerely 0.0
apology 4.24491473137e-05
sweaty 0.0
conspiracies 0.0
climbing 0.0
relaxed 0.0
encourage 0.0
funnyordie 0.0
essentials 0.0
jimmykimmellive 0.0
rejectedjokes 0.0
protesting 0.0
releasing 0.0
cleaner 6.07034429899e-05
preferred 0.0
incarceration 0.0
jkcorden 0.0
koppel 0.0
bikini 0.0
transparency 0.0
kamalaharris 0.0
nutshell 0.0
walled 0.0
floored 0.0
plotting 0.0
gandhi 7.76710846905e-05
vilify 0.0
meditate 0.0
violent 0.0
preschool 0.0
rhythm 0.0
matching 0.0
senwarren 0.0
venezuela 0.0
candle 0.0
donates 0.0
peacefully 0.0
chelseahandler 0.0
experiencing 0.0
sarabareilles 0.0
haunting 0.0
constitution 0.0
explode 0.0
deeper 0.000143753827925
empathy 0.0
mrgaryhuang 0.0
scored 0.000182410361441
charitable 6.71792574389e-05
perfume 0.0
giraffe 0.0
noticing 0.00018944647534
noodle 0.0
wrongly 6.6742150184e-05
marshmallow 0.0
fraudulent 0.0
everytime 0.0
helluva 7.38026810484e-05
therapists 0.0
tangible 0.0
sarahksilverman 0.0
johnfugelsang 0.0
exceptional 5.38990049482e-05
miracle 4.6641712522e-05
avocado 0.0
snacks 0.0
spelled 0.0
parental 0.0
superbowl 0.0
shoulders 5.84978730051e-05
valentine 3.74555598891e-05
glitter 0.0
stocking 0.0
poehler 0.0
thumbs 0.0
tinatbh 0.0
educational 0.000108290043566
voicemail 0.0
thetweetofgod 0.0
esteem 0.0
teaches 0.0
goodbye 0.000106284786765
reminding 4.96728816006e-05
supplies 0.0
ryanseacrest 0.0
okmagazine 0.0
shoots 0.000105415409903
bowing 0.0
jennyslate 0.0
craigyferg 0.0
masterpiece 5.02896411762e-05
sneaky 0.0
nashville 0.0
chronicles 0.0
potato 0.0
freakin 0.00011409018096
perezhilton 0.0
unethical 0.0
paparazzi 0.0
mantra 0.0
consuming 0.0
unauthorized 0.0
vanityfair 0.0
stalking 0.0
shoulda 6.85439368524e-05
yeppers 0.0
sacred 5.91062969701e-05
existed 0.0
earned 7.9628334449e-05
woulda 0.0
ellenpage 0.0
choker 0.0
contribute 0.0
mustache 6.50739562894e-05
washes 0.0
creeps 0.0
champion 0.000107589773247
auntie 7.26480527669e-05
magazines 0.0
waited 0.0
conscious 0.0
cracker 0.0
denmark 0.0
potion 0.0
windex 0.0
scarfing 0.0
ladygaga 0.0
purposely 0.0
pretending 9.22323119466e-05
luckiest 0.0
mascara 0.0
tastes 0.0
gardening 0.0
leashes 0.0
hippie 0.0
womensmarch 0.0
reunited 0.0
clique 0.0
premiering 0.0
rollingstone 0.0
childrensla 0.0
dollywood 0.0
godmother 9.79480747582e-05
eltonofficial 0.0
vmagazine 0.0
donorschoose 0.0
yesssssss 0.0
bettemidler 0.0
rehearsing 0.0
trevorproject 0.0
unicef 0.0
ellemagazine 0.0
yasssss 0.0
acceptance 0.0
solidarity 0.0
pharrell 0.0
greece 0.0
papermagazine 0.0
johnmayer 0.0
lipstick 0.0
tumblr 0.0
coldplay 0.0
colorful 0.0
translifeline 0.0
newsstands 0.0
feminist 0.0
pitchfork 0.0
labels 0.0
jenner 0.0
arkansas 6.631336929e-05
beanie 0.0
sparkly 0.0
moschino 0.0
britneyspears 0.0
itsjeremyscott 0.0
nickiminaj 0.0
appstore 0.0
poetry 0.0
puttin 0.0
rubbed 0.0
shrine 0.0
skyferreira 0.0
freaking 0.0
besties 0.0
chanel 0.0
bedazzled 0.0
rubber 0.0
kendricklamar 0.0
popstar 0.0
sosadtoday 0.0
copenhagen 0.0
lenadunham 0.0
wearin 0.0
stoned 0.0
facetime 0.0
barclays 0.0
meditation 0.0
harpersbazaarus 0.0
stared 0.0
ritual 0.0
iconapop 0.0
doubted 0.0
staples 6.50739562894e-05
anaheim 0.0
jingle 7.10200917986e-05
tacoma 0.0
rehearsals 0.0
treadmill 0.0
metamorphosis 0.0
dental 0.0
jodyhighroller 0.0
versace 0.0
werking 0.0
couture 0.0
eggplant 0.0
bangin 0.0
cardigans 0.0
obnoxious 0.0
bestie 0.0
teganandsara 0.0
barrel 0.0
dedicating 0.0
jefferson 6.10369352572e-05
pumpkin 0.0
derekblasberg 0.0
glamourmag 0.0
presale 0.0
mtvstyle 0.0
deluxe 0.0
mtvema 0.0
reggae 0.0
azealiabanks 0.0
nominating 0.0
sailor 8.41468991395e-05
mornin 0.0
itunesmusic 0.0
bananas 0.0
lordemusic 0.0
vietnam 0.0
milwaukee 0.0
neworleans 0.0
circus 0.0
strolling 0.0
rapids 0.0
collegegameday 0.000797998891413
aaaaand 0.0
godfather 0.0
bestow 0.0
allison 0.0
rockthevote 0.0
birbigs 0.0
lucille 0.0
louder 0.0
farmers 0.0
shaved 0.0
niagara 0.0
realmattlucas 0.0
ferguson 0.0
painful 0.0
exchange 0.0
nickkroll 0.0
edmonton 0.0
mickey 0.0
angelenos 0.0
pooping 0.0
located 0.0
onslaught 0.0
finalists 5.46452716214e-05
bumped 0.0
sherlock 0.0
stockholm 0.0
casually 0.0
jjwatt 0.0
itstonybennett 0.0
mariolopezextra 0.0
klgandhoda 0.0
entrance 0.0
calgary 0.0
bowling 0.0
winnipeg 0.0
cheeto 0.0
gloriasteinem 0.0
feather 0.0
nathan 0.0
smelling 0.0
narnia 0.0
llamas 0.0
actuallynph 0.0
mourning 0.0
obsession 0.0
chilled 0.0
medically 0.0
hyperloop 0.0
aussie 0.0
flaring 0.0
eyeballs 0.0
stuffing 0.0
pitched 0.0
condiments 0.0
relatable 0.0
olivia 0.0
painted 0.0
mykonos 0.0
eyebrow 0.0
capitalcities 0.0
jackpot 0.0
hipster 0.0
sweating 0.0
restaurants 0.0
superfan 0.0
restraint 0.0
craziest 0.0
catheter 0.0
delivers 0.0
kanyewest 0.0
paints 0.0
dissect 0.0
billboards 0.000153956809841
milano 0.0
bjnovak 0.0
snapping 0.0
croissant 0.0
repjohnlewis 0.0
blklivesmatter 0.0
mydaughtersarmy 0.0
huddled 0.0
yearning 0.0
thereaibanksy 0.0
affordable 0.0
foodie 0.0
colombia 0.0
peeled 9.62798808635e-05
shootings 0.0
playground 6.03748193971e-05
breaky 0.0
photoshoot 0.0
smokin 0.0
accents 0.0
sweats 0.0
postmates 0.0
armband 0.0
unconscious 0.0
maddow 0.0
aquarium 0.0
holler 0.0
photoshop 0.0
robbie 0.0
espnmag 0.0
laundry 5.97316237452e-05
examining 0.0
zealand 0.0
stuntin 0.000111882843151
hehehe 0.0
nostalgia 0.0
buttons 0.0
slaying 0.0
monument 0.0
bringin 0.0
lining 0.0
muchas 0.0
gracias 0.0
madame 0.0
illustrated 0.000118833578029
boxers 0.0
grazie 0.0
winters 0.0
plastic 0.0
unbreakable 0.0
licking 0.0
cheeky 0.0
twerking 0.0
danish 0.0
drummer 0.0
florence 6.35209049288e-05
revoir 0.0
resume 0.000163935814864
dodger 7.38026810484e-05
brazilians 0.0
grimezsz 0.0
crocodile 0.0
hahahahahaha 0.0
parisians 0.0
taipei 0.0
taiwan 0.0
bangkok 0.0
uploaded 0.0
manila 0.0
hamburg 0.0
curating 0.0
aaaand 0.0
skating 0.0
brisbane 0.0
googleplay 0.0
raincoat 0.0
glastofest 0.0
vienna 0.0
burning 0.0
jamming 0.0
reaches 0.0
subtitles 0.0
wristband 0.0
barcelona 0.0
credits 0.0
dreamers 0.0
bogota 0.0
bursting 0.0
brunomars 0.0
beyoncé 0.0
subscribers 0.0
unlock 0.0
onedirection 0.0
amazonmusic 0.0
snippets 0.0
preorder 0.0
rehearse 0.0
bahnhof 0.0
delorean 0.0
fragrance 0.0
curate 0.0
samsmithworld 0.0
guitars 0.0
storyline 0.0
registering 0.0
beatsbydre 0.0
panama 0.0
celestial 0.0
orchestra 0.0
finland 0.0
climbed 0.0
topping 0.0
méxico 0.0
vasconcelos 0.0
leicester 0.0
itunesfestival 0.0
pondering 0.0
millennials 0.0
struck 0.0
watermelon 0.0
benefited 0.0
sophisticated 0.0
couples 0.0
villain 0.0
mindful 0.0
catholic 5.97316237452e-05
airline 5.59468084513e-05
secretly 0.0
playlists 0.0
veggie 0.0
receipts 0.0
foremost 0.0
bagpipe 0.0
drifting 0.0
trader 0.0
influenced 5.79054620703e-05
moscow 0.0
cobain 0.0
reaper 0.0
commune 0.0
handshake 0.000195221868868
despair 0.0
silicon 0.0
investing 0.0
construct 0.0
garland 0.0
coachella 0.0
offline 0.0
realisation 0.0
payback 0.0
educate 0.000103152590304
alliances 0.0
etched 0.0
momentarily 8.23451124711e-05
pronoun 0.0
lenses 0.0
validated 0.0
authenticity 0.0
choreographed 0.0
pokemon 0.0
disneyworld 0.0
patriotic 0.0
embody 0.0
snickers 0.0
impactful 0.0
refocus 0.0
eminem 0.0
mahatma 0.0
ecstatic 0.0
snfonnbc 0.0
avenue 0.0
picchu 0.0
doubters 0.0
beverly 0.0
intensity 0.0
outtake 0.0
temple 5.88000294387e-05
purchased 0.0
fountain 0.0
punched 6.58926034633e-05
goldfish 0.0
comparable 0.0
buyers 0.0
barbara 0.0
corybooker 0.0
listens 6.42840395805e-05
timeout 0.0
inducing 0.0
signage 0.0
penthouse 9.19093675641e-05
ahahaha 0.0
phenom 0.0
brilliantly 0.0
siphoning 0.0
herstory 0.0
prostitute 0.0
survivors 0.0
courageous 0.000162435065349
cruelty 0.0
margot 0.0
xenophobic 0.0
mcginley 0.0
yorkshire 0.0
chants 0.0
alancarr 0.0
chained 0.0
skillz 0.0
debunked 0.0
floods 0.0
fleetwood 0.0
cheesecake 0.0
adidas 0.0
uneven 0.0
raging 0.0
connections 0.0
headlining 0.0
devhynes 0.0
charli_xcx 0.0
shawnmendes 0.0
tavitulle 0.0
bahjournalist 0.0
tyleroakley 0.0
marquee 0.0
grease 0.000146435929266
screenshots 0.0
ddlovato 0.0
chattyman 0.0
grimmers 0.0
vevo_uk 0.0
bonniemckee 0.0
electrifying 0.0
idolator 0.0
onairromeo 0.0
godven 0.0
lookie 0.0
preordered 0.0
elvisduran 0.0
shanghai 0.0
tripped 8.41468991395e-05
konnichiwa 0.0
etnad_olegnad 0.0
unannounced 0.0
swedes 0.0
cinderella 0.000313543031729
slipper 0.0
jessesaintjohn 0.0
adorbs 0.0
onesies 0.0
jahnsuxx 0.0
walgreens 0.0
aphrodite 0.0
danceonfox 0.0
difficulties 0.0
mermaids 0.0
antique 0.0
girlshbo 0.0
yaaaaasss 0.0
lifesaving 0.0
queens 0.0
yaaaas 0.0
rollin 0.0
bestest 0.0
cleanse 0.0
iamtovelo 0.0
glamour 0.0
emelisande 0.0
lashes 0.0
austrian 0.0
magritte 0.0
misogynoir 0.0
litter 0.0
spiritual 0.0
preaching 0.0
adelaide 0.0
sheffield 0.0
impending 0.0
starve 0.0
excess 0.0
conciousness 0.0
vitamins 0.0
generator 0.0
purposefully 9.32740469776e-05
profiles 0.0
petals 0.0
persist 0.0
alexis 0.0
covergirl 0.0
sneezed 0.0
cushion 0.0
demconvention 0.0
directv 0.0
flo_tweet 0.0
billclinton 0.0
grounded 0.0
sunrise 0.0
fightin 0.0
sagekotsenburg 0.0
pwease 0.0
sadder 0.0
waterfall 0.0
sighting 0.0
firsts 0.0
muller 0.0
burritos 0.0
bungee 0.0
potting 0.0
dipping 0.0
closets 0.0
scratched 0.0
decorating 0.0
summers 0.0
havana 0.0
fresher 0.0
mowing 0.0
invading 0.0
addict 0.0
aesthetics 0.0
footwear 0.0
protector 0.0
hammock 0.0
repurpose 0.0
mishap 0.0
hamster 0.0
cellar 0.0
groove 0.0
mentored 0.0
exaggerate 0.0
scraping 0.0
apropos 0.0
trolled 0.0
jonlovett 0.0
rheabutcher 0.0
sickening 0.0
flustered 0.0
compiled 0.0
shirley 0.0
subtweet 0.0
pantsuit 0.0
patting 0.0
atrocious 0.0
amoeba 0.0
platter 0.0
aficionado 0.0
bearer 0.0
manifest 0.0
transformation 0.0
thighs 0.0
tapper 0.0
foaming 0.0
sophie 0.0
sabbath 0.0
vibrations 0.0
nutella 0.0
wilder 6.9017855753e-05
distractions 0.0
stripping 0.0
downloading 0.0
judith 0.0
crossroads 0.0
parsons 0.0
stella 0.0
narcissism 0.0
fawcett 0.0
trainers 0.0
surrounding 0.0
longtime 0.000131785206927
frosting 0.0
laurent 0.0
savory 0.0
acupuncture 0.0
cancelling 0.0
nutcracker 0.0
ballet 0.0
tempura 0.0
burner 0.0
voguemagazine 0.0
lagged 0.0
cuttlefish 0.0
passwords 0.0
funfetti 0.0
anagasteyer 0.0
gabbana 0.0
budapest 0.0
montage 0.0
crowns 0.0
scheduling 0.0
possessed 0.0
syncing 0.0
creatively 0.0
hieroglyphics 0.0
halftimes 0.0
floppy 0.0
nessie 0.0
feathers 7.83857579322e-05
kaceymusgraves 0.0
roaring 0.0
rightful 0.0
balconies 0.0
prodigy 0.0
raquin 0.0
gianni 0.0
monsieuradi 0.0
drowned 0.0
tropicana 0.0
diesel 0.0
shabbat 0.0
voiceless 0.0
passover 0.0
elevating 0.0
traumatic 0.0
dreamer 0.0
iwillharness 0.0
classrooms 0.0
eligibility 8.61055527585e-05
counselors 0.0
wainwright 0.000195896149516
moveon 0.0
runaway 0.0
baghdad 0.0
zaralarsson 0.0
snooze 0.0
iggyazalea 0.0
harviikills 0.0
bolognese 0.0
babysitting 0.0
mohegan 0.0
hooters 0.0
crusts 0.0
tracksuit 0.0
cupcake 0.0
xfactor 0.0
vitamin 0.0
lichtenstein 0.0
concourse 0.0
hitchcock 0.0
teller 0.0
pastels 0.0
remnants 0.0
banger 0.0
lyrically 0.0
boogers 0.0
ritaora 0.0
bumpin 0.000186548093955
dabbed 0.0
sleepin 0.0
tinashe 0.0
octaviaspencer 0.0
linder 0.0
musicallyapp 0.0
scavenger 0.0
sanging 0.0
corinthians 0.0
hollywoodbowl 0.0
kraken 0.0
discontinue 0.0
cypress 0.0
schooling 0.0
maritime 0.0
narration 0.0
zeitgeist 0.0
sampler 0.0
pseudo 0.0
bangladesh 0.0
hungary 0.0
mumble 0.0
sisterhood 0.0
soulful 0.0
lennykravitz 0.0
londontown 0.0
andradaymusic 0.0
lipsticks 0.0
realization 0.0
unconditionally 0.0
wildfire 0.0
goldie 0.0
minnie 0.0
solitude 0.0
waddle 0.0
westworldhbo 0.0
statuesque 0.0
uncasville 0.0
demented 0.0
skyway 0.0
twentyonepilots 0.0
rejoicing 0.0
clenching 0.0
adelphia 0.0
entirety 0.0
redhourben 0.0
lakewood 0.0
drjillstein 0.0
entail 0.0
whammy 0.0
smokers 0.0
gobble 0.0
topshop 0.0
cleowade 0.0
mkives 0.0
sweetbabayjamie 0.0
marchesafashion 0.0
hamsters 0.0
gurrrl 0.0
sofifii 0.0
sumthin 0.0
nicomiz 0.0
maisonvalentino 0.0
coziest 0.0
accessorize 0.0
thejgold 0.0
peruvian 0.0
amazeballs 0.0
sendin 0.0
fantabulous 0.0
timelines 0.0
regina 0.0
slovakia 0.0
graves 0.0
embracing 0.0
larsson 0.0
cullen 0.0
psychiatric 0.0
officialadele 0.0
butters 0.0
verrrry 0.0
buttered 0.0
winged 0.0
pedialyte 0.0
topanga 0.0
armpit 0.0
kittens 0.0
dueling 0.0
eagerly 0.0
surrealist 0.0
dethroned 0.0
manolos 0.0
señorita 0.0
monterrey 0.0
parque 0.0
retiree 0.0
batches 0.0
reservations 0.0
sickos 0.0
aplusk 0.0
kirkherbstreit 0.000115352823714
fanbases 0.0
indexing 0.0
chuckles 0.0
incorporated 0.0
washboard 0.0
earbuds 0.0
pantone 0.0
knotts 0.0
dismaland 0.0
pollock 0.0
iamkidpresident 0.0
mariah 0.0
teevee 0.0
santorini 0.0
appalachian 0.0
sunburnt 0.0
caliente 0.0
juicery 0.0
karlihenriquez 0.0
trillest 0.0
tommorrow 0.0
crumpets 0.0
fishin 0.0
grillin 0.0
jambalaya 0.0
pepperoni 0.0
cashew 0.0
graceland 0.0
pussies 0.0
delicately 0.0
eraser 0.0
choreo 0.0
snatched 0.0
elliptical 0.0
mooore 0.0
unborn 0.0
georgina 0.0
stalkers 0.0
sallykohn 0.0
expectancy 0.0
phillipines 0.0
appstoregames 0.0
wilkinson 0.0
puddings 0.0
loveland 0.0
spaced 0.0
shanny 0.0
dripping 0.0
gerber 0.0
shakey 0.0
weaves 0.0
unbeatable 0.0
linguist 0.0
prosthetics 0.0
battleship 0.0
serotonin 0.0
machiavellian 0.0
girlies 0.0
guangzhou 0.0
debuting 0.0
dissecting 0.0
warped 0.0
luckyjess 0.0
ermahgerd 0.0
fabulousness 0.0
elliegoulding 0.0
activewear 0.0
yelyahwilliams 0.0
prismatic 0.0
evaluations 0.000203417030091
skywalk 0.0
sparklers 0.0
palettes 0.0
gemmaanningram 0.0
trueeee 0.0
invisalign 0.0
pounded 0.0
lolgop 0.0
procession 0.0
stanning 0.0
squeals 0.0
continual 0.0
luminary 0.0
cummin 0.0
shaves 0.0
epixhd 0.0
preacher 0.0
boogiecousins 0.0
changers 9.79480747582e-05
autismspeaks 0.0
massaged 0.0
psssssst 0.0
literati 0.0
utilization 0.0
endangerment 0.0
purposeful 0.0
unlabeled 0.0
undiagnosed 0.0
snotty 0.0
gallops 0.0
slovenia 0.0
sequin 0.0
akerlund 0.0
jumbotron 0.0
edibles 0.0
knowles 0.0
caeser 0.0
thehollywoodbowl 0.0
elvispresley 0.0
adoring 0.0
ageist 0.0
thérèse 0.0
confessed 0.0
blackvoices 0.0
patties 0.0
graphically 0.0
wildflowers 0.0
groundhogs 0.0
eataly 0.0
poodles 0.0
hillaryforia 0.0
roadshow 0.0
sweety 0.0
boppin 0.0
bettywho 0.0
johnnywujek 0.0
earring 0.0
itsbennyblanco 0.0
curitiba 0.0
purrfect 0.0
shellback 0.0
chokers 0.0
hairbrush 0.0
hakuna 0.0
matata 0.0
hazing 0.0
mathew 0.0
aegean 0.0
lullaby 0.0
musiciansoncall 0.0
headpiece 0.0
morsel 0.0
whistled 0.0
conquest 0.0
viceland 0.0
lambily 0.0
scalped 0.0
graced 0.0
emblazoned 0.0
hrclosangeles 0.0
kawaii 0.0
glittery 0.0
wonderlandmag 0.0
jumpsmokers 0.0
radiodotcom 0.0
missyfranklin 0.0
pleaaaaase 0.0
lilbthebasedgod 0.0
waaaay 0.0
flossy 0.0
aria_official 0.0
berliners 0.0
matriarchy 0.0
cornered 0.0
limping 0.0
peasant 0.0
feasibly 0.0
waaaaay 0.0
slayyy 0.0
fashionistas 0.0
sangin 0.0
worldstarfunny 0.0
pliers 0.0
babyanimalpics 0.0
mediation 0.0
quests 0.0
aaaaaaah 0.0
honked 0.0
rauschenberg 0.0
whitneymuseum 0.0
lonsdale 0.0
transcendental 0.0
roarin 0.0
facetune 0.0
fausto 0.0
herning 0.0
cazzette 0.0
annnnnnnnnd 0.0
shinier 0.0
giambattista 0.0
katys_teddybear 0.0
gnight 0.0
katheryn 0.0
psychoanalysis 0.0
bckgrnd 0.0
kingman 0.0
gracevanderwaal 0.0
fecking 0.0
ihrcountdown 0.0
stubbies 0.0
xfactor_italia 0.0
aaronpauley 0.0
purity_ring 0.0
scorpios 0.0
ayyyye 0.0
capitalizes 0.0
flamin 0.0
motherfucking 0.0
jingled 0.0
pharrellhat 0.0
ontarioglow 0.0
teached 0.0
umusic 0.0
auroramusic 0.0
dailymendeslife 0.0
soloing 0.0
universalse 0.0
dustinkloeppel 0.0
robynkonichiwa 0.0
charli 0.0
lonelydot 0.0
adamselman 0.0
sorrenti 0.0
offish 0.0
vinoodh 0.0
guitarists 0.0
cocking 0.0
cabbages 0.0
amelia_libman 0.0
flutter 0.0
lolita 0.0
kingladygaga 0.0
breakthecycledv 0.0
howbow 0.0
curveballs 0.0
tamagotchi 0.0
jarryd 0.0
alliseeisgold 0.0
thebroadmuseum 0.0
sarahsowitty 0.0
brillz 0.0
jackgarratt 0.0
markryden 0.0
duffscakemix 0.0
sanrio 0.0
theniceguyla 0.0
trills 0.0
susangkomen 0.0
faustopuglisi 0.0
gurlll 0.0
cheesecakes 0.0
scorpio 0.0
oblivia 0.0
skipmarley 0.0
correcto 0.0
jessirklein 0.0
unpatr 0.0
squish 0.0
greg_wells 0.0
onlyleah 0.0
gittin 0.0
popstars 0.0
krafts 0.0
bouche 0.0
problemo 0.0
wheezing 0.0
patmcgrathreal 0.0
cienega 0.0
thundering 0.0
nastialiukin 0.0
janell 0.0
katelyntarver 0.0
miamoretti 0.0
missoni 0.0
dannymoonsworld 0.0
mrchrismcmillan 0.0
madge_freak 0.0
woridstarcomedy 0.0
ikissedasoldier 0.0
kpezandchez 0.0
perrysoldier 0.0
emilynotchez 0.0
iickmekaty 0.0
basicallyadam 0.0
katysangelegg 0.0
nicolasjebran 0.0
xchadballx 0.0
scott_myrick 0.0
lockoir 0.0
shannonwoodward 0.0
calluses 0.0
chamomile 0.0
trollin 0.0
sleighing 0.0
chestercheetah 0.0
royksopp 0.0
scottsimonswvla 0.0
sirenscaiiing 0.0
slowdownkaty 0.0
chefantoniopark 0.0
garnished 0.0
endive 0.0
mdmolinari 0.0
prezzy 0.0
motioning 0.0
hernameisbanks 0.0
rockcampla 0.0
jenniefinch 0.0
getglucky 0.0
stendhal 0.0
ryanphillippe 0.0
hotncolds 0.0
kpcollections 0.0
katie_wignall 0.0
katysdrugx 0.0
evrenperry 0.0
katycatwendy 0.0
yungskeeter 0.0
sarahhudsonuvs 0.0
mothern 0.0
oliverheldens 0.0
marrymemargot 0.0
katyperrylately 0.0
kewlest 0.0
katyshellokitty 0.0
pqgerry 0.0
rasarioatelier 0.0
anakhouri 0.0
romaneperry 0.0
hot_chip 0.0
agador 0.0
freddietinkles 0.0
cynthialovely 0.0
augustgettyatelier 0.0
tbsnetworks 0.0
ronyalwin 0.0
justinandersoncolor 0.0
mmillerrider 0.0
jpgaultier 0.0
harharharhar 0.0
iikeanangel 0.0
vonnypoo 0.0
jcoopkp 0.0
itzmero 0.0
katysprismlight 0.0
hatérs 0.0
awkwardaya 0.0
katysredskittle 0.0
tiedye_princess 0.0
adelshahal 0.0
marinadiamandis 0.0
samadizayee 0.0
itsslatykaty 0.0
johnlordperry 0.0
nuggetperry 0.0
kthnkzbye 0.0
teamkpbrasil 0.0
twenagedream 0.0
ashleyegreer 0.0
perryllover 0.0
perry_slays 0.0
_andresgalvis 0.0
poplitics 0.0
likerotica 0.0
sweetxjaureguix 0.0
jessiambriz 0.0
perryncolds 0.0
pwideawake 0.0
brunastrait_ 0.0
anafalqueto 0.0
pessoalmente 0.0
mark_hodson_ 0.0
sumtxkid 0.0
arpoador 0.0
katysmychampion 0.0
amnattg 0.0
osullivanluke 0.0
stephiruth 0.0
katy_pizza_bae 0.0
kpcatt 0.0
pedroeugeniio 0.0
gugs_prismatic 0.0
zeeusmtz 0.0
legendarycold 0.0
robynxkatheryn 0.0
écouter 0.0
energyberlin 0.0
karysjones 0.0
lilzariya 0.0
puroland 0.0
pavlovitz 0.0
dreamhampton 0.0
prismsperry 0.0
perrysmic 0.0
focusonreid 0.0
tonyatalterian 0.0
makeup_man 0.0
wtfkates 0.0
sella_sandra 0.0
katycute_ 0.0
caitsperry 0.0
katyperryforum 0.0
radiantjareau 0.0
lillysgomez 0.0
katycatsweden 0.0
perryicecream 0.0
xamyrosex 0.0
wtvrlara 0.0
bijanstephen 0.0
ameliashowalter 0.0
screamkng 0.0
tvmcgee 0.0
liiife 0.0
itskatcombs 0.0
yaaaaaasssssssssss 0.0
katysmyhabibi 0.0
skottpeace 0.0
ferras 0.0
kweens 0.0
habibi 0.0
orlandobloom 0.0
huckchinn 0.0
katycatkenzie 0.0
matarazzo 0.0
fkatwigor 0.0
perryschild 0.0
hotxcolds 0.0
maddisonxperry 0.0
akaruikaty 0.0
chillinlaidback 0.0
erryone 0.0
chrisanokute 0.0
beyelite 0.0
kuntyewest 0.0
chiroprac 0.0
katyperryrises 0.0
godneybjs 0.0
liquoronurlips 0.0
katystumblrr 0.0
holiestkaty 0.0
hollykittykaty 0.0
katysprincess 0.0
katysdonut 0.0
carlythekatycat 0.0
katycatsophia 0.0
fridaaperry 0.0
iegendarylovers 0.0
katycatveronica 0.0
katyperryslave 0.0
hakimkharbouch 0.0
keonovak 0.0
plaaaaay 0.0
scatting 0.0
shotted 0.0
dizzycoco 0.0
fkinsnapss 0.0
junkygs 0.0
ミニチュア料理 0.0
エビフライとエビ天 0.0
adidasboosts 0.0
lilithia 0.0
cottoncandizzle 0.0
ultimatebeyhive 0.0
paramorewebnews 0.0
royale_lala 0.0
musicnews_feed 0.0
katyperryextra 0.0
greeniight 0.0
gagas_illusion 0.0
lesbiyonce 0.0
blurryhface 0.0
lordofgiraffex 0.0
ifuseekamy_ 0.0
legendarymalek 0.0
hausoframez 0.0
unstan 0.0
chioekardashian 0.0
theiife 0.0
handstomyseif 0.0
legendarylovers 0.0
gagas_fandom 0.0
thinagedream 0.0
conditionalbabe 0.0
dannysuschrist 0.0
prismdluxe 0.0
herwonkeye 0.0
camilasviews 0.0
gagalovesbey 0.0
shadykatyfacts 0.0
limalimoncia 0.0
heavymetaiovers 0.0
katyscrush 0.0
waikingonair 0.0
eduardo_katycat 0.0
katyswetdream 0.0
katherynsgod 0.0
katystddbr 0.0
katyboobies 0.0
royaityler 0.0
nothingfaiis 0.0
kathrynluck_ 0.0
prismaticiights 0.0
mendesperry 0.0
katycatghita 0.0
mark_katycat 0.0
iwasdivine 0.0
skywaterr 0.0
xjojospearsx 0.0
alwaysbeperry 0.0
skoglyrihanna 0.0
legendarydurk 0.0
halseysfirework 0.0
rainbowspatrick 0.0
katysfood 0.0
honeymoonprism 0.0
onepulsetony 0.0
butcha 0.0
okurrr 0.0
the_mpt 0.0
talaofficial 0.0
miniatures 0.0
ohmyjurassic 0.0
katysmoonlight 0.0
lilly_jnes 0.0
coco_ho 0.0
perryhumorr 0.0
yikesjonathan 0.0
rubyrankin 0.0
thealekovski 0.0
cydney_moore 0.0
truebluedeluxe 0.0
thedutchass 0.0
katyskettle 0.0
ferraseu 0.0
katyssunlight 0.0
typosqween 0.0
adoreeeperry 0.0
katyperryfrance 0.0
snowiner 0.0
_coolkatycat 0.0
nicothekatycat 0.0
adorbies 0.0
jackygerardchan 0.0
brewmystew 0.0
katyswildfire 0.0
rihftperry 0.0
theolagu 0.0
ritajoness 0.0
iitsjackie 0.0
mjjperry 0.0
jesuskylie 0.0
holyerotica 0.0
graceofkaty 0.0
redsvelvets 0.0
booyakasha 0.0
tariqterry 0.0
katycatalannah 0.0
taylxre 0.0
pacifyher 0.0
basedkatyperry 0.0
diddleurskittle 0.0
katysanalien 0.0
gagasspace 0.0
tayiorhq 0.0
givenchydress 0.0
augustryder 0.0
perrysmoschino 0.0
kittehn 0.0
katrieber 0.0
legendaryhunty 0.0
katyslegs 0.0
katyfroot 0.0
winesandlines 0.0
sam_incolour 0.0
wakingonair 0.0
drwssinup 0.0
huffdaddysays 0.0
fiwwwwine 0.0
matthewroper 0.0
emmabruhhh 0.0
gingerwesson 0.0
nicholas_sewell 0.0
perfectlyperry 0.0
bustabusta 0.0
mynameisziam 0.0
venuzszfly 0.0
katherynsus 0.0
sacredperry 0.0
thedollsftkaty 0.0
_cafajeff 0.0
debkatycat 0.0
katycats 0.0
eastonjames_ 0.0
oliviabooker_ 0.0
protecti 0.0
outrageousness 0.0
joanneprada 0.0
scuffed 0.0
catoure 0.0
blanged 0.0
tahmorrow 0.0
glukatyperrypop 0.0
jamesjoint 0.0
pressin 0.0
bourree 0.0
honeysuckle 0.0
meowings 0.0
fashun 0.0
happun 0.0
vikander 0.0
thekatyperrypopgame 0.0
karolfabianaros 0.0
nico_thekatycat 0.0
miss_lilyjames 0.0
stylinfunk 0.0
hudsontheband 0.0
jere_my 0.0
crabitat 0.0
tiersz 0.0
unrehearsed 0.0
fanclub_kp 0.0
oneofthesophies 0.0
fusterlandia 0.0
lazyblazy 0.0
katycatchloe 0.0
figali 0.0
prismaticness 0.0
titicaca 0.0
ancientaliens_ 0.0
sneezin 0.0
cristos 0.0
mallman 0.0
prismaticlife_ 0.0
ravensuxx 0.0
perrypositive 0.0
derkwhore 0.0
alekjandro 0.0
havss_ 0.0
hqzaynmaiik 0.0
thique 0.0
bbhmms 0.0
jkatharineb 0.0
jennyformica 0.0
tiiiiiight 0.0
ikissedagay 0.0
harryvuitton 0.0
aeschleahd 0.0
princessjavonda 0.0
errrythang 0.0
kooning 0.0
sugarray 0.0
empaths 0.0
goldenboyz_inc 0.0
voguejp 0.0
chickenwingguardingthemimosa 0.0
katyperrypopup 0.0
unmeasurably 0.0
transviolet 0.0
beauteous 0.0
katyskidrauhl 0.0
thooooooseee 0.0
clairesstores 0.0
nailsbymh 0.0
katysacutie 0.0
psychokatycat 0.0
kaceymusgrave 0.0
refueled 0.0
hyungsunju 0.0
okuurrrr 0.0
cholewheeler 0.0
leftshark 0.0
momchella 0.0
crotches 0.0
hookedondolls 0.0
fyuseapp 0.0
mogonoloball 0.0
atletica 0.0
katycatsclub 0.0
catacombs 0.0
poppycorn 0.0
cupped 0.0
christiania 0.0
residenz 0.0
lindseyweber 0.0
butterballface 0.0
joshlecash 0.0
myassistant 0.0
swiftschrist 0.0
snowhiteperry 0.0
emmakphughes 0.0
katyslegend 0.0
dansnierson 0.0
scressful 0.0
prismaticwitch 0.0
finnin 0.0
habibis 0.0
mophies 0.0
strongé 0.0
drumkit 0.0
anamanaguchi 0.0
gaultier 0.0
ngvmelbourne 0.0
dukedumont 0.0
legendaryasmyn 0.0
highlarious 0.0
calpurnia 0.0
waaaaait 0.0
mktfah 0.0
fwding 0.0
caseyhoops 0.0
worldstarvlne 0.0
flapfkp 0.0
bettycrocker 0.0
mexxxico 0.0
whhhhhhhhuuuuuutttt 0.0
yelletweets 0.0
gucciqxxn 0.0
luckyladyrebelettes 0.0
junglejulia 0.0
charlottes_web 0.0
istarbucksniall 0.0
katysroaaar 0.0
fiorucci 0.0
whuteva 0.0
sirdavidd 0.0
fudgery 0.0
bizquick 0.0
itsgrandtheft 0.0
grandtheft 0.0
katysfancy 0.0
ameezyyrush 0.0
mykectown 0.0
itsvalkubus 0.0
walkslikeperry 0.0
iwantperry 0.0
exausto 0.0
selfeh 0.0
aquaberry 0.0
sidepiece 0.0
versacness 0.0
iamleslii 0.0
alocalgyro 0.0
cutina 0.0
theoutslder 0.0
prism_katy_cat 0.0
katyshoodrat 0.0
thestevetisch 0.0
ronysphotobooth 0.0
schlitterbahn 0.0
kpsnosecrinkle 0.0
alwz_katycat 0.0
whykph 0.0
californiagurls 0.0
katycattt 0.0
varicose 0.0
itsbrillz 0.0
perrystiger 0.0
katysmyaura 0.0
paolablancokp 0.0
callmemargot 0.0
indiggynado 0.0
katycat 0.0
anylinden 0.0
kpkillerqueen 0.0
katyslilacwine 0.0
katypvenezuela 0.0
franzikaty 0.0
katherynelperry 0.0
doessss 0.0
katysleftarm 0.0
datingprism 0.0
_smiler_katycat 0.0
kepyterry 0.0
katycat_camille 0.0
vckatyperry 0.0
bowzerjoe 0.0
taishrox 0.0
mütter 0.0
arianperryarian 0.0
lisasigh 0.0
fridiskp 0.0
kevinruda 0.0
katyperrydaily 0.0
wakingupvegas 0.0
marlyins 0.0
drankin 0.0
herkatycat 0.0
luvhudson 0.0
yaeltsairi 0.0
felipinhoofm_ 0.0
renanmarcall 0.0
kariseperry 0.0
emojing 0.0
konnie 0.0
mcperry 0.0
iturnmycanonon 0.0
katycatelysha 0.0
andrewnavs 0.0
katycatkrystal 0.0
lovelyandlaugh 0.0
lampoonians 0.0
perrytuuda 0.0
katymyhaven 0.0
ruletheschool 0.0
cheapandchic 0.0
sically 0.0
crazyforperry 0.0
kpdaily 0.0
getonupmovie 0.0
cutetina 0.0
chimiuzz 0.0
kefali 0.0
joelkefali 0.0
siclly 0.0
mtvother 0.0
lydiaacav 0.0
prismaticperry 0.0
jwujek 0.0
adorbie 0.0
errone 0.0
kaliyah 0.0
katysweirdness 0.0
vinbiodiesel 0.0
katysfxb 0.0
katyspurrfect_ 0.0
shannonmwoodward 0.0
bippity 0.0
boppity 0.0
swiggty 0.0
swoogity 0.0
pizzarella 0.0
firewerk 0.0
katyslayed 0.0
emerald_epelman 0.0
madkatydisease 0.0
mandee 0.0
ohferras 0.0
sarahh 0.0
iaustinhunt 0.0
lanawhore 0.0
spaceykacey 0.0
crazay 0.0
elektrikpeople 0.0
visa_nz 0.0
fvckin 0.0
nathanspicer 0.0
cashcash 0.0
ashish_uk 0.0
xokatic 0.0
turnting 0.0
scorpiomystique 0.0
toddthomasnyc 0.0
kohngallery 0.0
discnt_universe 0.0
dressinkaty 0.0
lee_cook 0.0
bloodshot 0.0
yaddlizc 0.0
elnett 0.0
itsthekatycats 0.0
kelly_moritz 0.0
katyslaykaty 0.0
skintxghtjeans 0.0
socarrer 0.0
errrday 0.0
therealslacker 0.0
wendywild 0.0
welkys 0.0
sohohouse 0.0
selfing 0.0
camiilaruales 0.0
nexxxt 0.0
turrell 0.0
alliexxxxandra 0.0
surfboardt 0.0
telstra_news 0.0
juanitadele 0.0
oopskatycat 0.0
sophkatycat 0.0
katyschild 0.0
katysconverrse 0.0
katycat_leah 0.0
katycatverified 0.0
katycat_libby 0.0
katyswonk 0.0
kittless 0.0
jlrcukp 0.0
siiiiiiiiiiiiii 0.0
ermagherd 0.0
imlynsey 0.0
perrys_cherry 0.0
casemcgase 0.0
hazzaily 0.0
herses 0.0
gaypropaganda 0.0
tixforcharity 0.0
hudsons 0.0
nomers 0.0
mommacat 0.0
superlove 0.0
bonacorso 0.0
levi_leet 0.0
thinkingofbecki 0.0
cybering 0.0
pamyurin 0.0
idreamofkaty 0.0
xfactor_au 0.0
glohudsonperry 0.0
aubreyplzza 0.0
eeshhuhhayniac 0.0
bonkay 0.0
katysbum 0.0
nevillebradley 0.0
curryswift 0.0
zinepack 0.0
katykatt_suraya 0.0
sweetkatybird 0.0
yohkatheryn 0.0
cottoncandykaty 0.0
karolynadiaz 0.0
maayansharvit 0.0
theprismcess 0.0
camisp_ 0.0
lucasgaldin 0.0
prixy_mtz 0.0
niggasperry 0.0
kaksperry 0.0
zennnnaaa 0.0
katyissmurfy 0.0
dadehoward 0.0
kyledsaavedra 0.0
katysdoritos 0.0
pendejabardera 0.0
rosenilsou 0.0
hackensucks 0.0
gottabesheerio 0.0
ismaellgarcia 0.0
milegendz 0.0
alexskarev 0.0
ladycrystalb 0.0
katyspad 0.0
xcallmechrissyx 0.0
arianastylesss 0.0
jorgebaker 0.0
matty_zee 0.0
katycatzilla 0.0
adorie 0.0
meowwdison 0.0
alvin_koopa 0.0
lexyauditore 0.0
kease_it_raw 0.0
katysking 0.0
chris__kirby 0.0
katysbestfrwend 0.0
katyslildancer 0.0
sssshhh 0.0
conorhughess 0.0
tanimura 0.0
thekatycatlife 0.0
weefififookface 0.0
breakalioz 0.0
hudsonhelper 0.0
lariitaa 0.0
meeeeeooooooooowwwww 0.0
legend__dary 0.0
katyandliam 0.0
_theatrekid 0.0
babybritney 0.0
erinlorimer 0.0
_zacmoore_ 0.0
itscezzurryo 0.0
katycatskp 0.0
larissafilipo 0.0
siaylorswift 0.0
shitkittens 0.0
thefrankradical 0.0
katysprism 0.0
katytinalevine 0.0
serjeeoh 0.0
kayz_perry 0.0
katyslaysurfav 0.0
fuckyeahitskath 0.0
sweetyitosan 0.0
pickerington 0.0
verrado 0.0
retweete 0.0
jameswaterhouse 0.0
hunnah 0.0
truth_ispeak 0.0
_emilybarbarrr 0.0
nbllrrr 0.0
jmoneygraves 0.0
eaglenationnews 0.0
tauentzienstrasse 0.0
avontbh 0.0
vinnie_mate 0.0
demilovve 0.0
coolestkatycat 0.0
terri_katycat 0.0
beeeaaatttt 0.0
laurenfrancisco 0.0
victaytayp 0.0
aylajaye 0.0
iloveu 0.0
augustvaz 0.0
lizzievang_ 0.0
edsssss_ 0.0
hhhhhholly 0.0
holly_hickin 0.0
trixxx 0.0
killah 0.0
treasurefingers 0.0
最強ガール宣言 0.0
voykovic 0.0
annunaki 0.0
katyshomie_ 0.0
katyselephant 0.0
caitlynsmith 0.0
lightsperry 0.0
elizagilham 0.0
ohmyjatyfeels 0.0
junglescope 0.0
drunkskaty 0.0
malikpom 0.0
dancerlaurena 0.0
brirad 0.0
elisa_rv 0.0
moooom 0.0
pattymeagher 0.0
iwasemily 0.0
shahrzadphoto 0.0
tvjohnny 0.0
cstonethebreadwinner 0.0
katysrightboob 0.0
cyberdlck 0.0
beatforkaty 0.0
igabriiel 0.0
duuuuddddeeeee 0.0
redrum 0.0
srbuhiii 0.0
kayleighcat 0.0
applekatycat 0.0
ikatycats 0.0
wehryspencer 0.0
emilyjonesphoto 0.0
coxgabe 0.0
drugmoneyx 0.0
steven_drum 0.0
victoriacha 0.0
hashtaggin 0.0
perryandemetria 0.0
katycatfurlife 0.0
iammelissalynn 0.0
qewtie 0.0
yscheecat 0.0
slayty 0.0
katystree 0.0
katherynsboy 0.0
anapurry 0.0
nenedez 0.0
kevinn_perry 0.0
gloria_swag_ 0.0
andyamaziing 0.0
roarsana 0.0
brighthudson 0.0
fixingperry 0.0
roooooooooooooar 0.0
gretschusa 0.0
katys_cupcake 0.0
wonderation 0.0
kasek_craig 0.0
katysgurll 0.0
pepperperry_ 0.0
teamkatyperry 0.0
meandnutella 0.0
lovatokitten 0.0
katyslolly 0.0
astixxx 0.0
ravemomentz 0.0
erzaabrianto 0.0
katyperryindo 0.0
seeingdaisies 0.0
gillian_e_dubbs 0.0
samanthachazene 0.0
perryprism_ 0.0
katycompletesme 0.0
ltskatyperry 0.0
kittenscks 0.0
nihanofficial 0.0
momcat 0.0
kaytehperreh 0.0
__grazi 0.0
clairekatycat 0.0
fangurl 0.0
rrrrrrrrrrrroooooooooooooaaaaaaaaaaaaar 0.0
marispiva 0.0
mattdrobins 0.0
deihemmings 0.0
rooaaarr 0.0
katycatobsessed 0.0
katycatnick 0.0
tigerkats 0.0
kristenanzelc 0.0
taylermckellop 0.0
essesfadaperry 0.0
imjare 0.0
smganonymous 0.0
roaaaar 0.0
phuckyotweet 0.0
evvvvvverrrr 0.0
melvynmarrero 0.0
zouisashton 0.0
trillneyspears 0.0
rooooooar 0.0
fanwars 0.0
fentyncold 0.0
ttish_ 0.0
rachelacogan 0.0
makesmariana 0.0
kkaplon 0.0
rafaelmoncada 0.0
yaaaassssgrl 0.0
oioianna 0.0
katycatrazan 0.0
megaan_katycat 0.0
thekaelynn 0.0
hannahloupunton 0.0
thumbelinafairy 0.0
nic_kathryn 0.0
dannahfields 0.0
rodneybroaddus 0.0
noxisanasshole 0.0
soedesh__ 0.0
hookerofversace 0.0
thinkingofkaty_ 0.0
msgracevalerie 0.0
francfernandez 0.0
katysring 0.0
a_little_spark 0.0
laaxiss 0.0
