awesome 0.000159403787322
christmas 0.000190766112295
trying 0.000229534779097
launch 3.51806940581e-05
moment 0.000173081714738
wonderful 0.000290061303295
seeing 0.000176855939943
hanging 3.61697891524e-05
sounds 3.06115076904e-05
recommend 0.0
worked 3.10283163114e-05
direct 0.000121887683896
others 0.000216026003704
currently 0.000102393228669
better 0.00133405538064
please 0.00169738834455
social 0.00125352096451
anxiety 0.0
around 0.000425762355524
people 0.00315064143088
morning 0.0012841913378
traditional 0.000381282352605
general 0.000147120898634
damage 0.0
everything 0.000228300682275
twitter 0.000371989949994
present 9.74792228207e-05
though 0.00017829312098
friend 0.00120505759026
watched 0.000161145168497
beautiful 0.000146982968476
anything 0.000232023278044
previous 0.000135249874778
helped 3.12813713934e-05
updated 0.0
thinking 0.000145798643507
finally 0.00020411810091
caught 6.4283126385e-05
believe 0.000739979954786
already 0.000426911512377
couple 3.11967687763e-05
orlando 0.000145797667241
chance 8.56127558531e-05
meaning 4.22031665012e-05
growing 0.000102674724698
probably 0.000340389098466
password 0.0
changed 0.000122115501771
history 0.000205776155867
center 0.00022442446439
museum 0.000148652207306
behind 0.00017030494221
screaming 0.000105586580968
pretty 0.000262437558313
really 0.000513676535119
little 0.000142303837459
happiest 0.0
earlier 0.000200348292378
forget 5.78496479844e-05
someone 0.000719232349387
safety 0.000124034498554
program 0.000357320843858
things 0.000397378198489
related 8.39105367149e-05
visiting 0.000590435728454
available 0.000148177259831
perfect 0.000118862080653
different 0.000174017458533
search 0.0
connect 0.0
numbers 0.000107012800446
person 0.00042921917307
watching 0.000459069558193
exhibit 0.0
passed 0.000139178036374
prefer 4.30882676104e-05
minutes 0.000294759899905
travel 0.000244233947036
outside 0.000120802924977
looking 0.000512293814852
forward 0.000644983215104
agreed 7.6515601222e-05
raising 0.0
listened 0.0
afraid 0.00014753301026
impression 0.0
christian 0.000350271092957
profile 7.80529415853e-05
instant 0.0
drawing 0.0
wheels 0.0
favorite 0.000132475568251
picture 3.0364329144e-05
instead 0.000449981884695
appreciate 0.00016787253146
international 0.000176390334525
station 0.0
toddler 7.53179904108e-05
market 0.000115425914383
couldn 0.00017829312098
remember 0.000370988608697
vintage 0.0
holidays 0.0
friends 0.000803371726838
everyone 0.000399526193981
florida 4.20789467973e-05
always 0.000681219768838
months 0.00014897907431
moving 6.13887624009e-05
meeting 0.000409338499888
answer 0.000350861571333
sweetie 0.0
together 0.000228916892304
inside 5.94310403267e-05
section 0.0
missed 0.00026032341593
button 4.73782102001e-05
longer 3.29386745873e-05
enough 0.000605786001582
driving 0.000139562255449
building 0.000448761059777
enjoying 3.48905638622e-05
london 3.39443376744e-05
exploring 6.01860934775e-05
posting 0.0
amazing 0.000227686139934
attention 6.46335491895e-05
gordon 0.0
progress 0.0
tomorrow 0.000799052387962
george 0.00035473820488
feeling 0.000179258024084
excited 0.000327753963482
understand 0.000217786923052
following 0.000209699622407
asleep 5.26130730087e-05
learning 7.07515498862e-05
evening 0.000294034282493
special 0.000201385057828
secret 0.000191804560282
across 0.000382569089574
surprised 6.80751067612e-05
anymore 0.000181859062376
sophia 0.0
precious 6.01860934775e-05
rejoice 0.0
version 3.15367028637e-05
rather 0.000288489252714
avatar 0.0
showing 0.000121785932227
saying 0.000327753963482
tweeted 3.77212221171e-05
thoughts 0.000726777895873
exactly 9.25825730161e-05
except 3.63718124752e-05
getting 0.00065636446154
nothing 0.000770514802678
tweets 0.000220159358394
course 8.84279699715e-05
photos 0.000103524839623
looked 9.7214362666e-05
difficult 7.52302259906e-05
stages 0.0
office 0.000462912865081
decisions 0.000430882676104
brought 0.00018973395797
biggest 8.81897810858e-05
thrilled 8.69524240287e-05
something 0.000599289290972
closing 0.000297172741584
anyone 0.000287692939755
taking 0.000285375852844
recently 7.41808742256e-05
interesting 0.0
original 6.75176392954e-05
flying 0.000107608274698
happening 0.000155562087895
sometimes 0.0
lessons 8.26896657025e-05
village 5.72895114166e-05
stopped 0.000200896778979
yesterday 0.000258923645779
service 0.00043912717707
serious 9.15866263281e-05
digital 4.23279322275e-05
hoarder 0.0
wearing 6.69655929929e-05
british 0.0
either 0.000124449670316
second 0.000172615763853
checking 0.0
indeed 0.000116746134179
island 4.03946468201e-05
hearing 0.000255046059716
choose 0.000134298025168
staying 0.000115754055333
another 0.000825362257262
clothes 0.000236891051
slowly 0.0
weekend 0.000173548943953
hashtag 0.0
delivery 5.22560348792e-05
theory 0.0
working 0.000627826876256
bigger 0.000133931185986
screen 0.000115754055333
riding 0.000246949592923
laughing 0.000101554281281
wanted 0.000115387809825
trends 0.0
stripes 0.0
clothing 0.0
current 6.73330267292e-05
adorable 0.0
grateful 0.000186495725451
friendship 0.0
family 0.000741977217394
listening 3.12813713934e-05
stream 0.0
expressions 0.0
wedding 8.66926143575e-05
sharing 3.3574506292e-05
double 6.46335491895e-05
especially 0.000158111631642
middle 0.000425874723796
waiting 0.000204669249944
definitely 6.23935375526e-05
walking 0.0
account 6.69655929929e-05
completely 0.000135405708375
thought 0.000345231527706
reaction 7.80529415853e-05
accept 0.000182366829591
simple 0.000232466022008
professional 0.0
friendly 4.24532487977e-05
supposed 3.79346378371e-05
business 9.23324921576e-05
absolutely 9.15866263281e-05
anywhere 7.60839009357e-05
sending 0.0
introducing 0.0
congrats 0.000389442155899
beauty 0.0
community 7.03613881163e-05
greatest 0.000187180612658
selfie 0.000128116662231
posted 3.37588196477e-05
saturday 3.01192845397e-05
wednesday 6.88270159533e-05
confused 0.0
expression 0.0
chicago 0.000155218873752
closest 0.0
relationship 0.000153465377459
actually 0.000350861571333
easter 0.000117079412378
basket 6.64612506271e-05
myself 0.000112212232195
argument 0.000132005578723
school 0.000203020368288
thursday 0.000213702128099
selling 7.80529415853e-05
talented 3.75093990666e-05
celebrate 6.30734057273e-05
falcon 0.0
celebrating 3.40375533806e-05
contest 3.71945992739e-05
experiences 5.31571949178e-05
students 0.00018913864699
internet 0.000141895281952
figure 3.41310762231e-05
opened 0.0
featuring 7.41808742256e-05
inspired 6.90165597489e-05
sitting 6.44580673989e-05
playing 0.000348034917065
street 0.000695691179225
points 0.000256026988044
memory 0.000197376207585
forever 3.22290336994e-05
imagine 3.17943520491e-05
problem 0.000275503569214
played 6.3761514929e-05
canadian 0.0
pulling 4.85992224135e-05
keeping 6.3761514929e-05
lovely 7.17388497987e-05
dressed 4.60645700516e-05
specifically 0.0
unlike 0.000105586580968
disappointed 0.0
otherwise 4.05116950562e-05
afternoon 0.000235021544044
planned 0.000696741179951
strange 0.0
images 0.0
noticed 0.0
notice 0.0
stretch 0.0
inspiration 7.82760000808e-05
letting 0.000140334616442
system 0.0003923802683
possibility 0.0
almost 0.000370988608697
details 9.35903063289e-05
experience 0.00029795814862
living 0.000387345593205
weather 0.000474153756936
normal 3.8257800611e-05
launching 9.29914601888e-05
before 3.09444634969e-05
captured 0.0
colors 0.0
monday 0.000327753963482
example 0.0
realize 0.00032787820233
autographed 0.0
sleeping 4.53602123945e-05
authentic 7.0545565619e-05
science 8.05561585524e-05
tweeting 9.77449093736e-05
forgot 0.0
chasing 0.0
gorgeous 4.63512811463e-05
herself 0.000137174522241
happens 8.86668269895e-05
silence 8.98916755584e-05
learned 9.90859208852e-05
congratulations 0.000220159358394
natural 4.05116950562e-05
raised 0.0
babies 0.000488428421152
mission 7.73889771266e-05
smelled 0.0
ironic 0.0
testing 0.0
deleted 5.66610542228e-05
barely 0.0
unforgettable 0.0
forgotten 4.24532487977e-05
trouble 0.000105834200715
fantastic 0.0
loving 3.36665133646e-05
complete 9.82787824145e-05
nearly 7.50187981332e-05
spirit 0.0
launched 8.51582421945e-05
finding 6.97811277244e-05
mercury 0.0
stories 3.0860857672e-05
including 0.000126832835464
mature 0.0
stuffed 0.0
ancient 0.0
bottle 0.0
somewhere 3.71945992739e-05
wouldn 0.000276997476473
choice 0.000791608559475
conversation 0.000104096334863
making 0.000284607674918
expect 3.42249082327e-05
occasions 0.0
subject 0.0
flights 0.000289660995162
location 0.000179236185585
vacation 0.0
seriously 0.000252293622909
spending 0.000496633486833
groups 0.0
childhood 0.0
modern 4.11042877079e-05
welcome 0.000144234762281
moments 3.5473820488e-05
degrees 0.0
jacket 5.03687796218e-05
halloween 0.000214162763772
costume 0.0
totally 9.8816023762e-05
laughed 0.0
flight 0.000479148715257
kidding 4.46729110895e-05
regular 8.4655864455e-05
context 0.0
running 0.000659055956138
finished 0.000136524304893
strong 0.000705518248686
tracking 0.0
respond 0.000129264802831
message 0.000484518597249
coming 0.000597676117327
thankful 0.000359566702233
cheese 4.5221414284e-05
greens 6.95495280869e-05
issues 0.00108920170818
intolerance 9.45954011436e-05
happen 8.72436327839e-05
giving 0.000375010381932
turkey 0.000166349735844
excellent 0.000111583797822
limits 0.000264873297584
common 0.000846673605721
pressed 0.0
situation 7.45982901803e-05
options 0.000178149702383
health 0.000605997240563
insurance 0.000147690022254
change 0.000570751705687
singing 0.000152598681433
august 4.02780792762e-05
crying 8.98916755584e-05
mental 8.49064975953e-05
happened 0.000210266496114
demand 0.000150460451981
generally 0.0
personal 0.000124113265245
beyond 0.000159403787322
bruised 0.0
question 0.000233277829612
chicken 0.0
reward 0.000118981873039
tunnel 0.0
losing 7.03613881163e-05
respect 0.00059273860675
caption 0.0
shouldn 0.000580228295793
visited 8.96180927924e-05
reason 0.000210266496114
simply 0.000142683733927
darlin 0.0
audience 0.000315801932135
involved 3.32094317154e-05
unhappy 6.92251341899e-05
reality 0.000101833013023
extremely 0.000124397622648
without 0.000345231527706
falling 0.0
countdown 5.19034321208e-05
locations 0.0
timing 0.0
crabby 0.0
classic 6.99738895873e-05
highly 0.0
online 0.000122777524802
finger 0.000194396889654
animals 0.000143035723359
planets 0.0
called 0.000459069558193
delicious 0.0
almond 0.0
compliment 0.0
pictures 3.60693141553e-05
camera 7.45982901803e-05
pillow 7.0545565619e-05
checked 0.000121535085168
heading 3.39443376744e-05
theater 0.000161697919962
paying 0.000111271311338
planning 3.70904371128e-05
complex 4.69335406823e-05
sunday 0.000501091829838
nights 0.0
descending 0.0
traffic 4.28325527544e-05
opposite 4.67868522058e-05
through 4.00463705851e-05
lookout 0.0
reached 0.0
harder 7.94046319685e-05
random 0.0
changes 3.5278066905e-05
speaking 0.000555398089153
recorded 0.0
washed 0.0
november 0.0
answered 9.01665831855e-05
enchanted 0.0
number 2.92384642777e-05
adventures 0.0
eclipse 0.0
chocolate 0.0
unless 0.000246264858407
calling 0.000179742533492
mermaid 0.0
distraction 0.0
levels 0.0
option 0.000124034498554
shopping 0.0
former 3.58694248994e-05
actual 3.79346378371e-05
covers 0.0
mountain 0.0
friday 0.000202473767945
winner 0.000285373879794
closes 0.0
quality 7.37665051298e-05
father 0.0
wishes 7.43891985477e-05
hourly 0.0
matter 0.000397949599975
themselves 0.000149625388997
usually 0.0
period 0.0
parents 0.000136899632931
balance 0.000222012918705
publishing 0.0
mobile 0.0
woohoo 0.0
bracelets 0.0
summer 0.0
reminded 9.91014715372e-05
impressed 4.32169941668e-05
necklace 0.0
shutdown 8.7637806802e-05
dinner 0.0003469037315
single 5.87931873905e-05
packed 0.000421081669852
definition 4.69335406823e-05
energy 0.000509165065115
preview 4.06292279654e-05
monster 0.0
material 4.87556093493e-05
admission 0.000152258043002
europe 0.000118425724551
holiday 6.56979862638e-05
emotional 4.11042877079e-05
update 0.000199801566573
customers 0.0
messing 0.0
holding 0.000135035278591
electric 0.00010208125071
eating 3.56709334818e-05
outfit 0.0
picked 7.11444117591e-05
fabulous 0.0
missing 3.04464830567e-05
surprise 0.000122115501771
officially 0.000266402088764
french 7.33551387351e-05
global 0.000114449011075
follow 0.000717296184677
opinion 7.43891985477e-05
backwards 6.13839149663e-05
design 0.0
secrets 0.00010705165103
request 0.0
breaks 3.76151129953e-05
allows 0.000107423903604
promoting 4.90709921166e-05
volunteer 5.97207690064e-05
wondering 0.0
official 0.000117903959962
sweater 0.0
jersey 0.000239910756095
mistake 7.89504830338e-05
france 0.000158354206702
proper 4.53602123945e-05
ginger 0.0
peaceful 0.000180558280432
lighter 0.0
thinks 0.00036630287205
competition 7.71693702219e-05
hospital 0.0
industry 0.000161112317105
trending 4.72292116583e-05
leadership 0.000804112399611
organized 0.0
showed 0.000107608274698
circle 0.0
success 3.22290336994e-05
ladies 0.000117414000121
dreams 3.75093990666e-05
protect 0.00153616192826
onesie 0.0
explanation 5.10406253549e-05
control 0.000733257421683
coincidence 0.0
discovering 0.0
laying 0.0
invited 4.01619884925e-05
healthy 3.86944885633e-05
surgery 0.000160577476545
allowing 0.000150116182696
arrived 0.000103524839623
opening 0.000124113265245
popular 7.80529415853e-05
pleasure 7.15400113675e-05
spectacular 5.20791859766e-05
animal 0.0
luggage 0.0
wonder 0.000123777853988
matters 0.000675169183199
reader 0.0
function 0.000318381289978
marketing 0.0
connection 4.64957300944e-05
improves 0.0
benefit 3.57700056838e-05
continues 0.000208767054562
cuddle 0.0
routine 0.0
exciting 3.42249082327e-05
corner 8.14944991569e-05
imagination 0.0
sangria 0.0
mystery 5.19034321208e-05
spring 3.64733659182e-05
beautifully 0.0
places 0.000136150213522
feedback 0.000111287183979
continue 0.000164693372937
attend 8.59202444284e-05
creative 0.0
memories 0.000117079412378
female 3.80419504679e-05
grandma 0.0
closer 3.57700056838e-05
accent 0.0
beginning 7.17388497987e-05
sooner 0.000113322108446
everywhere 3.40375533806e-05
scenes 0.0
bought 6.97811277244e-05
wishing 0.0
discovered 4.75279950175e-05
remove 9.84600148357e-05
predict 5.70784758197e-05
parrot 9.62177945379e-05
several 0.000123312863124
teacher 0.0
passing 0.000115754055333
become 0.000208570704034
spread 3.25816364579e-05
netflix 4.73782102001e-05
season 6.2902673827e-05
putting 0.000179742533492
weight 4.44025837411e-05
outfits 0.0
notification 0.0
annoying 0.0
necessity 0.0
knocks 0.0
processed 0.0
necessarily 0.0
effects 0.0
lighting 6.31506104357e-05
headed 0.000301769776937
returns 0.000267804604277
expected 0.000122597291929
bucket 0.000161135855406
constantly 0.000105226146017
sweetest 0.0
struggling 4.93899185847e-05
register 8.49064975953e-05
transition 0.000110493208602
flowers 0.0
sprain 0.0
savage 0.000133510779203
somebody 0.000170316484389
covering 4.41348066887e-05
gloves 6.58819620098e-05
repeat 7.96330761966e-05
managers 0.0
brothers 0.0
patriots 0.000123755129845
seahawks 0.0
player 3.98165380983e-05
chemistry 0.0
moonlight 0.0
comment 7.35604493172e-05
columbia 0.000206713217518
physical 0.0
kingdom 0.0
pretend 0.000200154910261
charles 9.15614522318e-05
fighting 0.000584875336924
rooting 0.0
donald 8.19695505824e-05
mexico 0.000123672916392
police 0.000183901123293
represent 4.82890099593e-05
president 0.00535868729836
talking 0.000686750676911
unbelievable 9.07204247889e-05
shrimp 0.0
giants 0.0
conference 0.000106127324829
america 0.00321861888926
everybody 0.000105542082174
houston 4.85992224135e-05
everyday 0.0
michael 9.66871010983e-05
protecting 0.000610454006372
unconditional 0.0
million 0.000479313422645
election 0.00106278431122
telling 0.000356452663109
correct 0.000147120898634
pulled 4.28325527544e-05
starbucks 0.0
americans 0.00337469685866
killed 0.000222560464344
cowboys 0.000146030620415
cowboy 7.08854997063e-05
coverage 0.00011608346569
dallas 9.41619823606e-05
coffee 0.000107907580704
timeline 0.0
refuse 0.00061453321542
barackobama 0.0017065553743
hillary 0.00571655003975
clinton 0.0018656367166
gatorade 0.0
sharper 0.0
american 0.00311908846979
deserved 0.0
realist 0.0
illegal 0.000475279950175
arizona 0.0
waffle 0.000257533580811
scared 4.18321264852e-05
pieces 0.0
taught 4.20789467973e-05
golden 3.84753047944e-05
straight 0.000158111631642
massage 7.73907473105e-05
filter 6.31506104357e-05
answers 0.000147120898634
smoking 5.68689976952e-05
created 6.86381029201e-05
beside 0.0
worlds 0.0
record 0.000446937222929
freddie 0.0
africa 0.0
recruiting 0.0
journey 0.0
snapchat 0.0
brother 3.47945090936e-05
prayers 0.000536074933074
trolling 0.0
hungry 9.18445865547e-05
nflnetwork 0.0
documentary 4.2705554077e-05
boston 4.12243054641e-05
addition 4.97124692947e-05
church 0.00069354091486
honestly 8.14944991569e-05
lounge 0.0
lifetime 8.61765352207e-05
captain 0.0
favorites 0.0
country 0.00159170345949
valley 0.000145797667241
huddle 0.000194130291464
dressing 0.00011088880821
finish 0.000140334616442
favourite 0.0
prayer 0.000378903662614
nominated 0.0
praying 0.000527307988329
insane 0.000126609499504
national 0.000555495438097
reform 0.000395182361559
shooting 0.000285367467855
australia 4.23279322275e-05
deserve 0.000349869447937
legend 3.80419504679e-05
mother 0.000222560464344
realest 0.0
creating 0.000117749907741
powerful 0.000278356072749
chilling 0.0
wisdom 0.0
breaking 0.000276249430804
parked 0.0
angeles 0.0
dollars 4.78299569828e-05
questions 0.000409338499888
racist 0.000205530429149
girlfriend 0.0
performance 3.30286402951e-05
refreshing 0.000200266168805
educated 0.0
reading 3.0282412328e-05
denver 0.0
videos 3.67802246586e-05
harmony 0.0
create 9.90859208852e-05
jordan 9.94249385894e-05
admire 5.27932904841e-05
nobody 0.000174934723968
government 0.00128116662231
politics 0.000646314349121
paradise 0.0
recover 6.44834448175e-05
spotted 4.81351659131e-05
blessing 0.0
coolest 0.0
banana 0.0
donate 0.000153901219177
sandwich 0.0
lookin 0.0
method 0.0
bullshit 0.0
slight 0.0
bringing 9.61630842378e-05
deserves 0.000151738551348
regret 0.0
celebs 0.000513704451563
victim 0.000108555535376
stadium 0.0
funniest 0.0
according 0.0
pumped 0.0
hamburger 0.0
heaven 4.5221414284e-05
honest 0.00017736910244
rolling 0.000128497658263
became 3.56709334818e-05
feature 0.0
waking 5.52466043009e-05
breakfast 0.000215216549396
counting 0.0
signing 0.000336636696585
adding 4.5221414284e-05
awareness 8.17315279525e-05
kindest 9.62177945379e-05
trainer 0.0
facebook 9.15866263281e-05
insanity 0.0
repost 0.0
brazilian 0.0
campaign 0.00268263025709
borrow 0.0
scorpion 0.0
popcorn 0.0
factory 5.81497032157e-05
teenage 0.0
endorsement 0.000318381289978
williams 0.0
custom 5.72895114166e-05
drinks 0.0
future 0.000146982968476
angels 6.2127647219e-05
fingers 4.42683794389e-05
sister 3.83663443648e-05
earrings 0.0
warrior 6.06591737125e-05
dancing 4.00463705851e-05
voting 0.000211084164349
individuals 0.000115004255639
presence 0.000169983162668
commercial 0.0
chopped 0.0
religion 5.90367803182e-05
century 0.0
submit 0.0
serving 4.90709921166e-05
because 8.22085754159e-05
aggressive 0.0
sensitive 5.97207690064e-05
smiling 5.03687796218e-05
besides 0.0
cleveland 5.62496824276e-05
hometown 0.000153121876065
killing 0.000254602687326
breath 0.00014533107719
phillips 0.0
instagram 0.0
sharks 0.000202969648921
cousin 0.0
honored 0.00035629696508
dedication 0.0
lifting 7.228747143e-05
lyrical 0.0
talent 0.000114125851404
goodnight 0.0
stores 5.17287598339e-05
rushing 0.0
brains 6.28913925881e-05
sandwiches 0.0
drinking 0.0
brazil 0.0
tattoo 5.99524776975e-05
ravens 0.0
regardless 5.03687796218e-05
skills 3.95885516755e-05
cameras 0.0
phones 0.0
california 0.000245194583858
seconds 0.0
listen 0.000294759899905
smiled 0.0
kicking 0.000120834237829
homies 0.0
billion 0.000245194583858
shades 0.0
shoutout 0.0
grammy 6.73529728744e-05
guilty 4.82890099593e-05
stevie 0.0
ceiling 0.00013062851989
carpet 4.90709921166e-05
grammys 0.0
harvard 6.47576900141e-05
panther 0.0
nelson 0.0
mandela 0.0
handle 0.000185972996369
sexiest 0.0
promise 0.000236959989656
hosting 0.000261828541788
hahahaha 0.0
longest 5.07027147327e-05
tuesday 0.000194428725332
locker 0.0
workout 0.0
ingredient 0.0
leader 0.000371945992739
pageant 0.0
character 0.0
idiotic 0.000261082113887
mirror 4.64957300944e-05
jackson 4.60645700516e-05
interview 0.000609061104864
battles 0.0
bleach 0.0
insight 5.07027147327e-05
obviously 4.00463705851e-05
replay 0.0
battle 0.000165594460314
stomped 0.0
destroy 0.000545058093455
killer 0.0
personally 0.000164897221856
winning 0.000152232415284
gettin 0.0
japanese 0.000104512069758
writing 6.60572805902e-05
society 3.93623818969e-05
officers 6.04216479998e-05
brooklyn 0.0
sources 9.81419842332e-05
incredible 3.07774973859e-05
poster 0.0
celebrity 0.0
memorable 0.0
werent 0.0
chased 0.0
minute 9.64246895776e-05
confession 8.88995326112e-05
pregnant 0.0
cherry 0.0
twinning 0.0
phoenix 0.0
orange 0.000128116662231
policy 0.000711146150249
comedy 4.45374255958e-05
illuminati 0.0
reminder 0.00027455241168
evidence 4.23279322275e-05
iphone 9.09993851246e-05
kicked 0.0
intentions 0.0
freedom 0.00083374863567
patient 4.98751296656e-05
utterly 0.0
mississippi 0.0
download 4.02780792762e-05
assistant 5.77163488892e-05
invite 0.0
central 7.52302259906e-05
washington 0.00297997654725
stronger 0.0
promised 0.000140360556617
worried 0.0
throwing 0.0
security 0.00200486965809
cologne 0.0
headphones 0.0
sanctuary 0.000236133536219
fantasy 0.0
monkey 0.0
approve 5.64546230799e-05
spinach 0.0
turning 7.13418669637e-05
helping 0.000156831134668
tickets 6.90165597489e-05
collector 0.0
physically 0.000125782785176
slavery 0.000143155661084
december 0.0
basically 0.0
return 0.000252293622909
yassss 0.0
goddess 0.0
locked 9.59643024378e-05
feelings 4.92300074178e-05
language 0.000159724886868
motion 0.0
obsessed 0.000100077455131
creation 0.0
followers 0.0
schools 0.000162046780225
gallery 0.0
movies 4.2705554077e-05
foster 0.0
children 0.000345028496269
nation 0.000681519073088
theaters 0.000181977521138
between 6.26345206355e-05
knowledge 4.05116950562e-05
begins 0.0
robinthicke 0.0
faithful 0.000423545046186
peeing 0.0
closet 0.0
bodies 0.0
italian 0.0
highlights 0.0
spanking 0.0
forbes 6.2127647219e-05
parade 5.26130730087e-05
tasted 0.0
consider 7.56554587959e-05
reunion 0.0
latest 0.000216026003704
dedicated 0.0
beyonce 0.0
perform 0.000136919584572
signed 0.000220159358394
tuxedo 0.0
princess 0.0
shelter 6.42118240171e-05
germany 8.66926143575e-05
explaining 4.92300074178e-05
married 8.44063330024e-05
millions 0.000424431536221
blessings 7.41433059363e-05
iconic 0.0
indonesia 0.0
braids 0.0
dollar 0.00043183936097
rigged 0.0
replied 0.0
lights 4.09847752912e-05
turned 3.12813713934e-05
excuses 0.000190236652265
jackie 0.0
charge 0.000118425724551
performing 0.0
ticket 0.000114773401833
steady 0.0
whispers 0.0
finest 5.62496824276e-05
confucius 0.0
diamonds 0.0
vancouver 0.0
addicts 0.0
collection 0.0
families 0.00102125424571
select 0.000101742334395
hitting 3.80419504679e-05
announced 0.000104096334863
decided 6.82621524463e-05
jewels 0.0
lottery 6.79634083806e-05
owners 0.000109710184959
respects 0.00014457494286
celebration 0.000120139111755
memorial 9.27025622926e-05
landed 0.0
pastor 0.00124459345656
ultimate 0.0
incase 0.0
rapper 0.0
episode 0.0
bounce 0.0
disney 5.75021278193e-05
muffin 0.0
kansas 5.70784758197e-05
sherman 9.09039527285e-05
retweet 0.00318294144541
midnight 0.000153901219177
patience 0.0
cereal 7.26490579381e-05
joining 0.00016787253146
released 9.96282951463e-05
release 0.000344095085328
models 0.0
classics 0.0
popped 0.0
mileycyrus 0.0
highlight 4.50832915928e-05
scholarship 0.0
within 0.0
hahahahaha 0.0
standing 0.000619051092699
higher 0.000344320205499
purple 5.31571949178e-05
skinny 0.0
justice 0.000460396132378
served 4.30882676104e-05
speaks 0.000164897221856
horses 0.0
houses 0.0
purchase 0.0
dropped 3.51806940581e-05
conversations 5.29746595168e-05
consideration 0.0
seattle 0.0
cookie 0.0
slurpee 0.0
strength 0.000118425724551
screens 0.0
monica 0.0
incredibly 0.0
streets 0.0
boyfriend 0.0
private 0.000109725852019
skittles 0.0
barbie 0.0
apologizes 0.0
designer 0.0
impress 0.0
cooking 4.87556093493e-05
exclusive 0.000236959989656
fashion 4.12243054641e-05
petite 0.0
talkin 0.0
peaches 0.0
bitches 0.0
nailed 5.75021278193e-05
weirdest 0.0
whomever 0.0
teaching 8.69524240287e-05
disgusting 0.000111688375147
chillin 0.0
philly 0.0
rights 0.000731030791093
dinosaur 0.0
exotic 0.0
dancers 0.0
cheers 0.0
presents 0.0
flawless 0.0
dating 0.0
victory 0.000122241748735
marley 0.0
productive 0.000169983162668
smurfs 0.0
halftime 0.0
insecure 0.0
horror 0.0
warning 0.000123672916392
discovery 0.0
convention 0.000219420369918
understanding 8.22085754159e-05
action 0.000153057538452
having 0.00010705165103
speaker 0.000285167970105
clever 0.0
theatre 0.0
honors 0.0
evolution 0.0
produce 0.0
spider 0.0
apologize 0.000368291511061
formation 0.0
letter 0.00242746789001
therapy 0.0
untrue 0.0
written 6.95890181872e-05
communication 6.2127647219e-05
disease 0.000335065125442
marching 6.13839149663e-05
suggest 8.82696133774e-05
georgetakei 0.0
hairstyle 0.000112735147066
humans 0.0
journal 0.0
foundation 0.000203146139827
access 0.000280669232884
venture 0.0
syndrome 6.50346108158e-05
writes 4.64957300944e-05
colorado 6.28913925881e-05
medicine 5.75021278193e-05
tremendous 5.3899306654e-05
nytimes 8.64339883335e-05
kindness 0.0
cannot 0.000254354816393
reveals 8.51582421945e-05
invented 0.0
sapphire 0.0
candidate 0.00108864509747
sexual 0.000100077455131
madison 6.28913925881e-05
illustration 0.0
newark 0.0
globally 0.0
incorrect 0.0
headline 4.46729110895e-05
reflect 5.26130730087e-05
streaming 0.0
leaders 0.00045746177357
supreme 0.000492300074178
protest 0.000193156039837
policies 0.000620745118007
silenced 0.0
defend 0.00303165966447
communicating 0.0
climate 0.000193156039837
wrapped 0.0
studio 0.000158809263937
conspiracy 0.000112499364855
interviews 3.86944885633e-05
differentiation 0.0
confusing 0.0
february 0.0
hamilton 0.0
loneliest 0.0
amazon 0.0
scattered 0.0
francis 6.53142599452e-05
headlines 0.0
january 0.000157900966068
diversity 0.000157839219026
universal 5.03687796218e-05
hurricane 0.000120843296
identifying 0.0
countries 0.000246625726248
tickled 0.0
becker 0.0
connected 0.000278217959947
suggestion 0.0
filled 0.000120139111755
education 0.000728960542932
mentioned 8.39105367149e-05
defining 0.0
exists 5.29746595168e-05
unexpected 0.0
plants 0.0
orders 0.000460899911565
olympics 5.05352560934e-05
ability 8.29317484321e-05
director 0.000249005441157
content 0.0
cycling 0.0
previously 0.0
correction 5.77163488892e-05
pearls 0.0
ambassador 4.92300074178e-05
preparing 9.53571489062e-05
depend 0.0
downloads 0.0
lovers 0.0
weekly 0.0
hudson 0.000165131582019
bridge 0.0
becoming 7.31505680125e-05
magazine 0.000118765655027
appropriate 5.15551558858e-05
shakespeare 0.0
travesty 0.0
discoveries 0.0
fellow 0.0
reviewed 0.0
copies 0.0
driven 0.0
aussies 0.0
result 4.11042877079e-05
announcing 0.0
visual 0.0
restrictions 0.000140419309029
culture 3.93623818969e-05
edition 7.62993407164e-05
prince 8.26896657025e-05
shocks 0.0
symmetry 0.0
clicks 0.0
disagree 4.41348066887e-05
experiments 0.0
mistakes 0.0
trolls 0.000325173054079
blossoms 0.0
offered 4.69335406823e-05
inspiring 3.84753047944e-05
counter 0.000107798613308
approach 4.24532487977e-05
embarrassing 0.00020484440514
creators 0.0
edited 0.0
berniesanders 0.000660526328075
overnight 0.0
spotlight 5.83688869846e-05
probable 0.0
repeating 7.33863502232e-05
concerns 5.20791859766e-05
massive 0.000144679156609
promising 0.0
promises 0.000488499909192
colored 0.0
production 0.0
header 0.0
itunes 4.70809911803e-05
secretary 0.000198849877179
highway 0.0
dangerous 0.000535609208554
letters 0.0
typically 0.0
saving 4.13448328513e-05
pioneer 0.0
visuals 0.0
universe 0.0
ordering 0.0
victims 0.000537482827066
privacy 0.0
disclosure 7.73907473105e-05
proceeds 0.0
musical 4.64957300944e-05
collide 8.30866158428e-05
melbourne 0.0
correctly 0.0
campus 0.0
debate 0.00102697194229
conflict 0.0
meanwhile 0.0
petition 0.00149009561133
contribution 5.88123984617e-05
stated 6.89044058392e-05
humanity 0.0
illness 0.0
flawed 0.000140419309029
breathe 0.000111287183979
winners 0.000188606110586
spanish 5.24339925595e-05
comedic 8.527109012e-05
awards 0.0
presidential 0.000998087895368
candidates 0.000866432986436
glasgow 0.0
smells 0.0
treasure 0.0
greater 0.000139487190283
themed 0.0
distribution 0.0
absurd 0.000122767829933
squirrel 0.0
sisters 5.4277767688e-05
stress 0.0
leading 0.000542546837285
resolution 5.75021278193e-05
achieved 0.0
interacting 0.0
boiling 0.0
examples 0.0
diverse 0.0
suicide 0.000112499364855
parallel 0.0
minneapolis 0.0
impairs 0.0
pumping 0.0
slides 0.0
choreography 0.0
element 0.0
serves 0.000195942779836
jumping 5.35258255151e-05
rising 0.000137766879832
believed 0.000156768104638
features 0.0
environment 0.0
revealed 9.29914601888e-05
classical 0.0
confirmed 0.0
origins 0.0
combination 0.0
consumption 8.00960464211e-05
worldwide 4.73782102001e-05
deaths 5.97207690064e-05
responsible 0.0
overwhelmed 0.0
household 0.0
munich 0.0
alternate 0.0
blockers 0.0
restaurant 0.0
canada 0.0
versions 0.0
technology 0.0
identify 0.00024456109055
combined 0.0
santiago 0.0
branches 8.88995326112e-05
october 0.0
netherlands 0.0
belgium 0.0
european 0.0
imperial 0.0
perspective 0.0
cities 0.000170822216308
guinea 0.0
americas 0.0
posters 0.0
elastic 0.0
flames 0.0
presumably 0.0
exquisite 0.0
spreading 0.000195022437397
happiness 0.0
ashamed 0.0
naturally 0.0
malbec 0.0
wasting 0.0
hidden 4.67868522058e-05
coffin 0.0
freudian 0.0
genius 0.0
cultured 0.0
malaysia 0.0
traveling 0.000107423903604
prepared 0.000129264802831
county 0.000210452292035
quinoa 0.0
district 6.08987038854e-05
chosen 0.0
toilet 0.000118073560636
yorkers 0.0
ignores 0.0
messages 4.75279950175e-05
creativity 6.08987038854e-05
conventional 0.0
berlin 0.0
montreal 0.0
wonders 0.0
upcoming 0.000120834237829
lonely 0.0
australian 0.0
positions 0.0
singapore 0.0
scratch 0.0
deficiency 0.0
elevated 0.0
triggers 0.0
delicate 0.0
barrier 0.0
reflection 0.0
sydney 0.0
separates 0.0
centuries 0.0
israel 0.00715778249808
overwhelming 0.0
assault 0.000272344537575
protection 4.93899185847e-05
picker 0.0
additional 0.0
machine 0.000728960542932
samples 0.0
contrary 0.0
immediate 0.000118525900194
michelle 0.000109710184959
inspire 0.0
lyrics 0.0
missyelliott 0.0
constant 0.0
tuning 6.28913925881e-05
pandora 0.0
preshow 0.0
buenos 0.0
poland 0.0
philippines 0.0
nicely 0.0
september 7.98624434342e-05
manchester 0.000103457519668
checks 0.000110100346729
screenshot 0.0
universalorl 0.0
remarkable 0.0
rihanna 0.0
disgusted 0.000166173231686
flattered 0.0
fiction 0.0
angela 0.0
bitmoji 0.0
process 0.000217623726464
genuine 5.15551558858e-05
performances 0.0
comedians 0.0
flotus 0.0
strangers 0.0
hungover 0.0
confidence 8.90748511916e-05
studios 6.08987038854e-05
stjude 0.0
memphis 0.0
mikeypiff 0.0
chancetherapper 0.0
scream 0.000119904955395
jennifer 5.66610542228e-05
disappoint 0.0
newcastle 0.0
castle 0.0
literally 0.0
chrisrock 0.0
gentlemen 0.0
mtvnews 0.0
hillaryclinton 0.00385295168715
iamrashidajones 0.0
champagne 0.0
raleigh 0.000272711858185
ijessewilliams 0.0
acknowledge 0.000198510385547
buzzfeed 5.66610542228e-05
puppet 0.0
rehearsal 0.0
billboard 0.0
austria 0.0
sweden 0.0
republic 0.000119904955395
grilled 0.0
waltdisneyworld 0.0
katyperry 0.0
ronanfarrow 0.0
measly 0.0
bragging 0.0
treats 0.00024263669485
literal 0.0
cooper 0.0
counts 0.0
theellenshow 0.0
basking 0.0
cookies 0.0
festival 0.0
amsterdam 7.26490579381e-05
soundcheck 0.0
downloaded 0.0
encouraged 0.0
alright 0.0
jtimberlake 0.0
backstage 0.00040968881028
collab 0.0
joined 0.000139947779175
issarae 0.0
playlist 0.0
madness 0.0
romantic 0.0
selfies 0.000125269041271
exclusively 0.0
disneyland 0.0
refused 0.000120843296
characters 0.0
amazingly 0.0
auction 0.0
express 8.80037191486e-05
gratitude 6.04216479998e-05
sesamestreet 0.0
thegrammys 0.0
throughout 4.50832915928e-05
awkward 0.0
shining 0.0
thrown 0.0
stylist 0.0
fighter 0.0
accepting 0.000104158371953
playin 0.0
applemusic 0.0
filmed 0.0
makeawish 0.0
bieber 0.0
remixes 0.0
toronto 0.0
capitolrecords 0.0
shazam 0.0
anthem 0.000155710296362
cosmopolitan 0.0
khloekardashian 0.0
cookin 0.0
songwriters 0.0
reveal 0.000124397622648
stands 0.000157900966068
spotify 0.0
phvegas 0.0
rocked 0.0
glasses 0.0
iambeckyg 0.0
relive 0.0
acoustic 0.0
announce 6.60572805902e-05
although 0.0
isaacfromct 0.0
shampoo 0.0
interactive 0.0
todayshow 0.0
haters 0.000119904955395
appreciation 0.0
floating 0.0
shondarhimes 0.0
showtime 0.0
premiere 0.0
broadway 0.0
makeup 0.0
starring 0.0
newest 9.18445865547e-05
designed 8.77390645244e-05
arianagrande 0.0
aladdin 0.0
swaggy 0.0
owning 0.0
producer 0.0
legendary 4.54996925623e-05
jasmine 0.0
costumes 0.0
square 7.69506095887e-05
emojis 0.0
jessica 0.0
magical 0.0
thedoctorluke 0.0
thirsty 0.0
therealjuicyj 0.0
symbols 0.0
privilege 5.26130730087e-05
spiral 0.0
retrograde 0.0
footage 0.0
theirs 0.0
universes 0.0
remembering 0.0
floated 0.0
construction 0.0
consciousness 8.10583133876e-05
delights 0.0
explodes 0.0
submissions 0.0
pleased 0.0
shredding 0.000108573931033
filters 0.0
weasel 0.0
reflective 0.0
firework 0.0
islands 0.0
interstellar 0.0
bubble 0.000107423903604
customs 0.0
festive 0.0
window 0.000125128549635
senator 0.000235249593847
slightly 0.0
therealbuzz 0.0
printing 0.0
snowflake 0.0
applications 0.0
elephant 0.0
fifteen 0.0
editions 0.0
newspaper 0.0
rainbow 5.81497032157e-05
unlimited 7.45294909008e-05
sirius 0.0
matthew 5.4277767688e-05
affected 4.38695322622e-05
capturing 0.0
canyon 0.0
rivers 0.0
spoken 0.000142583985053
accidentally 5.44689075149e-05
bizarre 5.90367803182e-05
dolphin 0.0
successfully 6.23799524984e-05
liquid 0.0
graffiti 0.0
swallowing 0.000111279230143
messenger 0.0
heroes 0.000476809378966
disturbing 0.000120372186955
graduates 0.0
rewrite 0.00017054218024
describe 4.12243054641e-05
hollywood 0.000292824885396
equality 0.00010242220257
announcement 0.000692993952445
breakout 0.0
dreaming 0.0
animation 0.0
calendar 5.54444041051e-05
circling 0.0
garden 8.49064975953e-05
enhanced 0.0
journalists 0.000101742334395
stirring 0.0
nominations 0.0
yelling 0.0
teachers 0.0
chapter 0.0
napoleon 0.0
aliens 6.89044058392e-05
subjects 0.0
revolution 0.00047841475426
mountains 6.79634083806e-05
wonderland 0.0
storage 0.0
crystals 0.0
circuit 0.000154781494621
invitation 5.97207690064e-05
kettle 0.0
adjective 0.0
woodpecker 0.0
operate 0.0
exhibition 0.0
learnt 0.0
nomination 5.17287598339e-05
madonna 0.0
questioning 0.0
unplug 0.0
initiatives 0.0
switzerland 0.0
represents 0.0
throat 0.0
touchdown 0.0
desire 0.0
forced 0.000130820142347
swedish 0.0
hundred 0.0
prompts 0.0
rainbows 0.0
creates 0.0
oxford 0.0
balloons 0.0
liverpool 0.0
recreate 0.0
glorious 5.48550924795e-05
newton 0.0
creature 0.0
finalist 0.0
scouts 8.00960464211e-05
treading 0.0
tragedy 0.000233204589575
nottingham 0.0
debacle 0.0
legends 0.0
noises 0.0
addiction 0.0
survived 0.0
idioms 0.0
greeted 0.0
basics 0.0
masses 7.37623048193e-05
confirm 9.24151271769e-05
cadence 0.0
spaghetti 0.0
prepare 8.41578935946e-05
calendars 0.0
narrative 6.2127647219e-05
application 0.0
octopus 0.0
drumming 0.0
bloody 5.3899306654e-05
confetti 0.0
translate 0.0
birmingham 0.0
singles 0.0
completes 9.23234563594e-05
laptop 0.000127352515991
obvious 4.81351659131e-05
darling 0.0
deserving 0.0
miller 0.0
ordered 0.000125496379456
feelin 0.0
alicia 0.0
picasso 0.0
recipe 0.000118525900194
alphabetical 0.0
butterfly 0.0
timothy 0.0
mancini 0.0
untold 0.0
directed 4.85992224135e-05
hacked 0.00022177761642
admits 6.23799524984e-05
clocks 8.00960464211e-05
nugget 0.0
cnnopinion 0.0
grabbed 8.05731023067e-05
russia 0.000529617680265
surprises 0.0
waterfalls 0.0
olympic 0.000157839219026
magnificent 0.0
casual 0.0
assume 0.0
relief 4.72292116583e-05
subscribe 0.0
landslide 0.0
telegraph 0.0
standby 0.0
admitting 0.0
complacency 0.0
voices 4.59222932774e-05
sounding 0.0
douglas 0.0
democracy 9.97502593311e-05
locals 0.0
gossip 0.0
nickname 7.26490579381e-05
subtle 0.0
embarrassed 0.0
ireland 0.0
mornings 0.0
democratic 5.79321990323e-05
impressions 0.0
outgoing 0.0
treasury 7.33863502232e-05
refugees 0.0002822731154
unveiling 0.0
listing 0.0
deliver 4.50832915928e-05
negotiating 0.000135926816761
roller 0.0
prosperous 0.0
desperate 5.4087906398e-05
acknowledgement 0.0
executive 0.000663294942801
republicans 0.000811050786453
weapons 0.000277222020525
dropping 0.0
meaningful 0.0
nightmare 4.93899185847e-05
goodies 0.0
scandalous 0.0
rhetoric 6.67553896016e-05
divisive 0.0
vision 8.41578935946e-05
confirmation 0.000117179552962
throne 0.0
records 0.0
quoting 6.79634083806e-05
impatient 0.0
refugee 0.000395182361559
texted 0.0
exposed 0.000231728796129
stoked 0.0
priority 0.000109710184959
freedoms 0.000156528349805
notorious 0.0
empowering 7.57206093179e-05
unconstitutional 0.00132938585349
turkish 0.0
concerned 0.000136919584572
realdonaldtrump 0.00356765297534
goodwill 0.0
imagined 0.0
belfast 0.0
sleeve 0.0
basement 0.0
preposterous 0.0
griffith 0.0
timeless 0.0
truman 0.0
intended 0.0
inappropriate 0.0
industries 0.0
responsibility 0.000280721113235
documentaries 0.0
vulnerable 0.0
respectful 7.61290215012e-05
markets 0.000124255294438
claire 0.0
nuggets 0.0
boards 6.70526086214e-05
sequins 0.0
capitol 0.0
technical 0.0
applying 6.98776722854e-05
guitar 0.000181977521138
donating 0.0
continually 0.0
norway 0.000127352515991
applause 0.0
ballot 0.000414840650678
finely 0.0
shakes 0.0
varied 0.0
proverb 0.000100732711809
vibrant 0.0
flower 0.0
survives 0.0
fierce 0.0
shopped 0.0
sincerely 6.76565496402e-05
apology 0.000160577476545
sweaty 0.0
conspiracies 0.0
climbing 0.0
relaxed 7.15778305421e-05
encourage 0.000289734059756
funnyordie 0.0
essentials 0.0
jimmykimmellive 0.0
rejectedjokes 0.0
protesting 0.0
releasing 5.88123984617e-05
cleaner 7.65433961165e-05
preferred 0.0
incarceration 0.0
jkcorden 0.0
koppel 0.0
bikini 0.0
transparency 0.000186382941657
kamalaharris 0.0
nutshell 8.70273712957e-05
walled 0.0
floored 0.0
plotting 0.0
gandhi 0.0
vilify 0.000130953628564
meditate 0.0
violent 0.000177788850291
preschool 0.0
rhythm 0.0
matching 0.0
senwarren 0.0
venezuela 8.30866158428e-05
candle 7.57206093179e-05
donates 0.0
peacefully 0.0
chelseahandler 0.0
experiencing 0.0
sarabareilles 0.0
haunting 0.0
constitution 0.00150222797874
explode 0.0
deeper 0.0
empathy 0.0
mrgaryhuang 0.0
scored 0.0
charitable 0.0
perfume 0.0
giraffe 0.0
noticing 0.0
noodle 0.0
wrongly 0.0
marshmallow 0.0
fraudulent 0.0
everytime 0.0
helluva 0.0
therapists 0.0
tangible 0.0
sarahksilverman 0.0
johnfugelsang 0.0
exceptional 0.000135926816761
miracle 0.0
avocado 0.0
snacks 7.26490579381e-05
spelled 0.0
parental 0.0
superbowl 0.0
shoulders 0.0
valentine 0.0
glitter 0.0
stocking 0.0
poehler 0.0
thumbs 0.0
tinatbh 0.0
educational 0.0
voicemail 0.0
thetweetofgod 0.0
esteem 0.0
teaches 0.0
goodbye 4.46729110895e-05
reminding 6.26345206355e-05
supplies 0.0
ryanseacrest 0.0
okmagazine 0.0
shoots 0.0
bowing 0.0
jennyslate 0.0
craigyferg 0.0
masterpiece 6.34122174215e-05
sneaky 0.0
nashville 0.00024751025969
chronicles 9.38177043576e-05
potato 0.0
freakin 0.0
perezhilton 0.0
unethical 0.0
paparazzi 0.0
mantra 0.0
consuming 0.0
unauthorized 0.0
vanityfair 0.0
stalking 0.0
shoulda 0.0
yeppers 0.0
sacred 0.000149058981802
existed 0.0
earned 0.000301219643184
woulda 0.0
ellenpage 0.0
choker 0.0
contribute 5.92629500968e-05
mustache 0.0
washes 0.0
creeps 0.0
champion 0.000180885657136
auntie 0.0
magazines 0.0
waited 0.0
conscious 0.0
cracker 0.0
denmark 0.0
potion 0.0
windex 0.0
scarfing 0.0
ladygaga 7.26490579381e-05
purposely 0.0
pretending 0.000116299406431
luckiest 0.0
mascara 0.0
tastes 0.0
gardening 0.0
leashes 0.0
hippie 0.0
womensmarch 0.0
reunited 0.0
clique 0.0
premiering 0.0
rollingstone 0.0
childrensla 0.0
dollywood 0.0
godmother 0.0
eltonofficial 0.0
vmagazine 0.0
donorschoose 0.0
yesssssss 0.0
bettemidler 0.0
rehearsing 0.0
trevorproject 0.0
unicef 0.0
ellemagazine 0.0
yasssss 0.0
acceptance 0.0
solidarity 0.0
pharrell 0.0
greece 0.0
papermagazine 0.0
johnmayer 0.0
lipstick 0.000180439928081
tumblr 0.0
coldplay 0.0
colorful 0.0
translifeline 0.0
newsstands 0.0
feminist 7.53179904108e-05
pitchfork 0.0
labels 0.0
jenner 0.0
arkansas 0.000836171762816
beanie 0.0
sparkly 0.0
moschino 0.0
britneyspears 0.0
itsjeremyscott 0.0
nickiminaj 0.0
appstore 0.0
poetry 0.0
puttin 0.0
rubbed 0.0
shrine 0.0
skyferreira 0.0
freaking 0.0
besties 0.0
chanel 0.0
bedazzled 0.0
rubber 0.0
kendricklamar 0.0
popstar 0.0
sosadtoday 0.0
copenhagen 0.0
lenadunham 0.0
wearin 0.0
stoned 0.0
facetime 0.0
barclays 0.0
meditation 0.0
harpersbazaarus 0.0
stared 0.0
ritual 0.0
iconapop 0.0
doubted 0.0
staples 0.0
anaheim 0.0
jingle 0.0
tacoma 0.0
rehearsals 0.0
treadmill 0.0
metamorphosis 0.0
dental 0.0
jodyhighroller 0.0
versace 0.0
werking 0.0
couture 0.0
eggplant 0.0
bangin 0.0
cardigans 0.0
obnoxious 9.30607486446e-05
bestie 0.0
teganandsara 0.0
barrel 0.0
dedicating 0.0
jefferson 0.0
pumpkin 0.0
derekblasberg 0.0
glamourmag 0.0
presale 0.0
mtvstyle 0.0
deluxe 0.0
mtvema 0.0
reggae 0.0
azealiabanks 0.0
nominating 0.0
sailor 0.000106104186444
mornin 9.02199640403e-05
itunesmusic 0.0
bananas 0.0
lordemusic 0.0
vietnam 7.15778305421e-05
milwaukee 0.0
neworleans 0.0
circus 0.000221286914458
strolling 0.0
rapids 0.000101728749341
collegegameday 0.0
aaaaand 0.0
godfather 0.0
bestow 0.0
allison 9.30607486446e-05
rockthevote 0.0
birbigs 0.0
lucille 0.0
louder 7.69639098379e-05
farmers 0.000205761783361
shaved 0.0
niagara 0.0
realmattlucas 0.0
ferguson 7.65433961165e-05
painful 0.0
exchange 0.0
nickkroll 0.0
edmonton 0.0
mickey 0.000158330669882
angelenos 0.0
pooping 0.0
located 0.0
onslaught 0.0
finalists 6.89044058392e-05
bumped 0.000143155661084
sherlock 0.0
stockholm 0.0
casually 0.0
jjwatt 0.0
itstonybennett 0.0
mariolopezextra 0.0
klgandhoda 0.0
entrance 0.0
calgary 0.0
bowling 0.0
winnipeg 0.0
cheeto 0.0
gloriasteinem 0.0
feather 0.0
nathan 0.0
smelling 0.0
narnia 0.0
llamas 0.0
actuallynph 0.0
mourning 8.88995326112e-05
obsession 5.94909365196e-05
chilled 0.0
medically 0.0
hyperloop 0.0
aussie 0.0
flaring 0.0
eyeballs 0.0
stuffing 0.0
pitched 0.0
condiments 0.0
relatable 9.30607486446e-05
olivia 0.0
painted 0.0
mykonos 0.0
eyebrow 9.79385733237e-05
capitalcities 0.0
jackpot 0.0
hipster 0.0
sweating 7.96268761189e-05
restaurants 0.0
superfan 0.0
restraint 0.0
craziest 0.0
catheter 0.0
delivers 6.13839149663e-05
kanyewest 0.0
paints 0.0
dissect 0.0
billboards 0.0
milano 0.0
bjnovak 0.0
snapping 0.0
croissant 0.0
repjohnlewis 0.0
blklivesmatter 0.0
mydaughtersarmy 0.0
huddled 0.0
yearning 0.0
thereaibanksy 0.0
affordable 0.000236147121273
foodie 0.0
colombia 0.0
peeled 0.0
shootings 0.000376589952054
playground 7.61290215012e-05
breaky 0.0
photoshoot 0.0
smokin 0.0
accents 0.0
sweats 0.0
postmates 0.0
armband 0.0
unconscious 0.0
maddow 0.00103715745628
aquarium 0.0
holler 0.0
photoshop 0.0
robbie 0.0
espnmag 0.0
laundry 7.53179904108e-05
examining 0.0
zealand 0.0
stuntin 0.0
hehehe 0.0
nostalgia 0.0
buttons 8.527109012e-05
slaying 0.0
monument 0.0
bringin 0.0
lining 6.98776722854e-05
muchas 0.0
gracias 0.0
madame 0.0
illustrated 0.0
boxers 0.0
grazie 0.0
winters 0.0
plastic 0.0
unbreakable 0.0
licking 0.0
cheeky 0.0
twerking 0.0
danish 0.0
drummer 0.0
florence 8.00960464211e-05
revoir 0.0
resume 0.0
dodger 0.0
brazilians 0.0
grimezsz 0.0
crocodile 9.45954011436e-05
hahahahahaha 0.0
parisians 0.0
taipei 0.0
taiwan 0.0
bangkok 0.0
uploaded 0.0
manila 0.0
hamburg 0.0
curating 0.0
aaaand 0.0
skating 8.95520707067e-05
brisbane 0.0
googleplay 0.0
raincoat 0.0
glastofest 0.0
vienna 0.0
burning 0.000250193637827
jamming 8.05731023067e-05
reaches 0.0
subtitles 0.0
wristband 0.0
barcelona 0.0
credits 0.00013176392402
dreamers 0.0
bogota 0.0
bursting 0.0
brunomars 0.0
beyoncé 0.0
subscribers 0.0
unlock 0.0
onedirection 0.0
amazonmusic 0.0
snippets 0.0
preorder 0.000145298115876
rehearse 0.0
bahnhof 0.0
delorean 0.0
fragrance 0.0
curate 0.0
samsmithworld 0.0
guitars 0.000201465423618
storyline 0.0
registering 0.0
beatsbydre 0.0
panama 8.88995326112e-05
celestial 0.0
orchestra 0.0
finland 0.0
climbed 0.0
topping 0.0
méxico 0.0
vasconcelos 0.0
leicester 0.0
itunesfestival 0.0
pondering 0.0
millennials 0.0
struck 0.0
watermelon 0.0
benefited 0.0
sophisticated 0.0
couples 0.000225953971232
villain 0.0
mindful 0.0
catholic 7.53179904108e-05
airline 7.0545565619e-05
secretly 0.0
playlists 0.0
veggie 0.0
receipts 0.0
foremost 9.70651457319e-05
bagpipe 0.0
drifting 0.0
trader 0.0
influenced 0.0
moscow 0.0
cobain 0.0
reaper 0.0
commune 0.0
handshake 0.0
despair 0.0
silicon 7.9165334941e-05
investing 0.0
construct 0.0
garland 0.0
coachella 0.0
offline 0.0
realisation 0.0
payback 0.0
educate 0.0
alliances 0.0
etched 0.0
momentarily 0.0
pronoun 0.0
lenses 0.0
validated 0.0
authenticity 0.000513805071321
choreographed 0.0
pokemon 0.0
disneyworld 0.0
patriotic 0.0
embody 0.0
snickers 0.0
impactful 0.0
refocus 0.000485612591049
eminem 0.0
mahatma 0.0
ecstatic 0.0
snfonnbc 0.0
avenue 0.0
picchu 0.0
doubters 0.0
beverly 0.0
intensity 8.7637806802e-05
outtake 0.0
temple 0.0
purchased 0.0
fountain 0.0
punched 0.000166173231686
goldfish 0.0
comparable 0.0
buyers 0.0
barbara 0.0
corybooker 0.0
listens 0.0
timeout 0.0
inducing 0.000104945488541
signage 0.0
penthouse 0.0
ahahaha 0.0
phenom 0.0
brilliantly 7.30153102073e-05
siphoning 0.0
herstory 0.0
prostitute 0.0
survivors 0.0
courageous 0.00013654724167
cruelty 0.0
margot 0.0
xenophobic 0.0
mcginley 0.0
yorkshire 0.0
chants 9.70651457319e-05
alancarr 0.0
chained 0.0
skillz 0.0
debunked 0.0
floods 0.000165131582019
fleetwood 0.0
cheesecake 0.0
adidas 0.0
uneven 0.0
raging 9.16048317218e-05
connections 0.000199383751881
headlining 0.0
devhynes 0.0
charli_xcx 0.0
shawnmendes 0.0
tavitulle 0.0
bahjournalist 0.0
tyleroakley 0.0
marquee 0.0
grease 0.0
screenshots 0.0
ddlovato 0.0
chattyman 0.0
grimmers 0.0
vevo_uk 0.0
bonniemckee 0.0
electrifying 0.0
idolator 0.0
onairromeo 0.0
godven 0.0
lookie 0.0
preordered 0.0
elvisduran 0.0
shanghai 0.0
tripped 0.0
konnichiwa 0.0
etnad_olegnad 0.0
unannounced 0.0
swedes 0.0
cinderella 0.0
slipper 0.0
jessesaintjohn 0.0
adorbs 0.0
onesies 0.0
jahnsuxx 0.0
walgreens 0.0
aphrodite 0.0
danceonfox 0.0
difficulties 0.0
mermaids 0.0
antique 0.0
girlshbo 0.0
yaaaaasss 0.0
lifesaving 0.0
queens 0.0
yaaaas 0.0
rollin 0.0
bestest 0.0
cleanse 0.00010383224166
iamtovelo 0.0
glamour 0.0
emelisande 0.0
lashes 0.0
austrian 0.0
magritte 0.0
misogynoir 0.0
litter 0.0
spiritual 0.0
preaching 9.79385733237e-05
adelaide 0.0
sheffield 9.23234563594e-05
impending 0.0
starve 0.0
excess 0.0
conciousness 0.0
vitamins 0.0
generator 0.0
purposefully 0.0
profiles 0.0
petals 0.0
persist 0.0
alexis 0.0
covergirl 0.0
sneezed 0.0
cushion 0.0
demconvention 0.0
directv 0.0
flo_tweet 0.0
billclinton 0.0
grounded 0.0
sunrise 0.000145298115876
fightin 0.0
sagekotsenburg 0.0
pwease 0.0
sadder 0.0
waterfall 0.0
sighting 0.0
firsts 0.0
muller 0.0
burritos 0.0
bungee 0.0
potting 0.0
dipping 0.0
closets 0.0
scratched 0.0
decorating 0.0
summers 0.0
havana 0.0
fresher 0.0
mowing 0.0
invading 0.0
addict 0.0
aesthetics 0.0
footwear 0.0
protector 0.0
hammock 0.0
repurpose 0.0
mishap 0.0
hamster 0.0
cellar 0.0
groove 0.0
mentored 0.0
exaggerate 0.0
scraping 0.0
apropos 0.0
trolled 0.0
jonlovett 0.0
rheabutcher 0.0
sickening 0.0
flustered 0.0
compiled 0.0
shirley 0.0
subtweet 0.0
pantsuit 0.0
patting 0.0
atrocious 0.0
amoeba 0.0
platter 0.0
aficionado 0.0
bearer 0.0
manifest 0.0
transformation 0.0
thighs 0.0
tapper 0.000225470294132
foaming 0.0
sophie 0.0
sabbath 0.0
vibrations 0.0
nutella 0.0
wilder 0.0
distractions 9.97704448424e-05
stripping 0.0
downloading 0.0
judith 0.0
crossroads 9.79385733237e-05
parsons 0.0
stella 0.0
narcissism 0.0
fawcett 0.0
trainers 0.0
surrounding 7.08854997063e-05
longtime 0.0
frosting 0.0
laurent 0.0
savory 0.0
acupuncture 0.0
cancelling 0.0
nutcracker 0.0
ballet 0.0
tempura 0.0
burner 0.0
voguemagazine 0.0
lagged 0.0
cuttlefish 0.0
passwords 9.53950077392e-05
funfetti 0.0
anagasteyer 0.0
gabbana 0.0
budapest 0.0
montage 0.0
crowns 0.0
scheduling 0.0
possessed 0.0
syncing 0.0
creatively 0.0
hieroglyphics 0.0
halftimes 0.0
floppy 0.0
nessie 0.0
feathers 0.0
kaceymusgraves 0.0
roaring 0.0
rightful 0.000112735147066
balconies 0.0
prodigy 0.0
raquin 0.0
gianni 0.0
monsieuradi 0.0
drowned 0.0
tropicana 0.0
diesel 0.0
shabbat 0.0
voiceless 0.0
passover 0.0
elevating 0.0
traumatic 0.0
dreamer 0.0
iwillharness 0.0
classrooms 0.0
eligibility 0.0
counselors 0.0
wainwright 0.0
moveon 0.0
runaway 9.70651457319e-05
baghdad 0.000101728749341
zaralarsson 0.0
snooze 0.0
iggyazalea 0.0
harviikills 0.0
bolognese 0.0
babysitting 0.000115892192959
mohegan 0.0
hooters 0.0
crusts 0.0
tracksuit 0.0
cupcake 8.20543509197e-05
xfactor 0.0
vitamin 0.0
lichtenstein 0.0
concourse 0.0
hitchcock 0.0
teller 0.0
pastels 0.0
remnants 0.0
banger 0.0
lyrically 0.0
boogers 0.0
ritaora 0.0
bumpin 0.0
dabbed 0.0
sleepin 0.0
tinashe 0.0
octaviaspencer 0.0
linder 0.000313923537175
musicallyapp 0.0
scavenger 0.0
sanging 0.0
corinthians 0.0
hollywoodbowl 0.0
kraken 0.0
discontinue 0.0
cypress 0.0
schooling 0.0
maritime 0.0
narration 0.0
zeitgeist 0.0
sampler 0.0
pseudo 0.0
bangladesh 0.0
hungary 0.0
mumble 0.0
sisterhood 0.0
soulful 0.0
lennykravitz 0.0
londontown 0.0
andradaymusic 0.0
lipsticks 0.0
realization 0.0
unconditionally 0.0
wildfire 0.0
goldie 0.0
minnie 0.0
solitude 0.0
waddle 0.0
westworldhbo 0.0
statuesque 0.0
uncasville 0.0
demented 0.0
skyway 0.0
twentyonepilots 0.0
rejoicing 0.0
clenching 0.0
adelphia 0.0
entirety 0.0
redhourben 0.0
lakewood 0.0
drjillstein 0.0
entail 0.0
whammy 0.0
smokers 0.000111279230143
gobble 0.0
topshop 0.0
cleowade 0.0
mkives 0.0
sweetbabayjamie 0.0
marchesafashion 0.0
hamsters 0.0
gurrrl 0.0
sofifii 0.0
sumthin 0.0
nicomiz 0.0
maisonvalentino 0.0
coziest 0.0
accessorize 0.0
thejgold 0.0
peruvian 0.0
amazeballs 0.0
sendin 0.0
fantabulous 0.0
timelines 0.0
regina 0.0
slovakia 0.0
graves 0.0
embracing 8.00960464211e-05
larsson 0.0
cullen 0.0
psychiatric 0.0
officialadele 0.0
butters 0.0
verrrry 0.0
buttered 0.0
winged 0.0
pedialyte 0.0
topanga 0.0
armpit 0.0
kittens 0.0
dueling 0.0
eagerly 0.0
surrealist 0.0
dethroned 0.0
manolos 0.0
señorita 0.0
monterrey 0.0
parque 0.0
retiree 0.0
batches 0.0
reservations 0.0
sickos 0.0
aplusk 0.0
kirkherbstreit 0.0
fanbases 0.0
indexing 0.0
chuckles 0.0
incorporated 0.0
washboard 0.0
earbuds 0.0
pantone 0.0
knotts 0.0
dismaland 0.0
pollock 0.0
iamkidpresident 0.0
mariah 0.0
teevee 0.0
santorini 0.0
appalachian 0.0
sunburnt 0.0
caliente 0.0
juicery 0.0
karlihenriquez 0.0
trillest 0.0
tommorrow 0.0
crumpets 0.0
fishin 0.0
grillin 0.0
jambalaya 0.0
pepperoni 0.0
cashew 0.0
graceland 0.0
pussies 0.0
delicately 0.0
eraser 0.0
choreo 0.0
snatched 0.0
elliptical 0.0
mooore 0.0
unborn 0.00118043425746
georgina 0.0
stalkers 0.0
sallykohn 0.0
expectancy 0.0
phillipines 0.0
appstoregames 0.0
wilkinson 0.0
puddings 0.0
loveland 0.0
spaced 0.0
shanny 0.0
dripping 0.0
gerber 0.0
shakey 0.0
weaves 0.0
unbeatable 0.0
linguist 0.0
prosthetics 0.0
battleship 0.0
serotonin 0.0
machiavellian 0.0
girlies 0.0
guangzhou 0.0
debuting 0.0
dissecting 0.0
warped 0.0
luckyjess 0.0
ermahgerd 0.0
fabulousness 0.0
elliegoulding 0.0
activewear 0.0
yelyahwilliams 0.0
prismatic 0.0
evaluations 0.0
skywalk 0.0
sparklers 0.0
palettes 0.0
gemmaanningram 0.0
trueeee 0.0
invisalign 0.0
pounded 0.0
lolgop 0.0
procession 0.0
stanning 0.0
squeals 0.0
continual 0.0
luminary 0.0
cummin 0.0
shaves 0.0
epixhd 0.0
preacher 0.0
boogiecousins 0.0
changers 0.0
autismspeaks 0.0
massaged 0.0
psssssst 0.0
literati 0.0
utilization 0.000150628026986
endangerment 0.0
purposeful 0.0
unlabeled 0.0
undiagnosed 0.0
snotty 0.0
gallops 0.0
slovenia 0.0
sequin 0.0
akerlund 0.0
jumbotron 0.0
edibles 0.0
knowles 0.0
caeser 0.0
thehollywoodbowl 0.0
elvispresley 0.0
adoring 0.0
ageist 0.0
thérèse 0.0
confessed 0.0
blackvoices 0.0
patties 0.0
graphically 0.0
wildflowers 0.0
groundhogs 0.0
eataly 0.0
poodles 0.0
hillaryforia 0.0
roadshow 0.0
sweety 0.0
boppin 0.0
bettywho 0.0
johnnywujek 0.0
earring 0.0
itsbennyblanco 0.0
curitiba 0.0
purrfect 0.0
shellback 0.0
chokers 0.0
hairbrush 0.0
hakuna 0.0
matata 0.0
hazing 0.0
mathew 0.0
aegean 0.0
lullaby 0.0
musiciansoncall 0.0
headpiece 0.0
morsel 0.0
whistled 0.0
conquest 0.000133944197986
viceland 0.0
lambily 0.0
scalped 0.0
graced 0.0
emblazoned 0.0
hrclosangeles 0.0
kawaii 0.0
glittery 0.0
wonderlandmag 0.0
jumpsmokers 0.0
radiodotcom 0.0
missyfranklin 0.0
pleaaaaase 0.0
lilbthebasedgod 0.0
waaaay 0.0
flossy 0.0
aria_official 0.0
berliners 0.0
matriarchy 0.0
cornered 0.0
limping 0.0
peasant 0.0
feasibly 0.0
waaaaay 0.0
slayyy 0.0
fashionistas 0.0
sangin 0.0
worldstarfunny 0.0
pliers 0.0
babyanimalpics 0.0
mediation 0.0
quests 0.0
aaaaaaah 0.0
honked 0.0
rauschenberg 0.0
whitneymuseum 0.0
lonsdale 0.0
transcendental 0.0
roarin 0.0
facetune 0.0
fausto 0.0
herning 0.0
cazzette 0.0
annnnnnnnnd 0.0
shinier 0.0
giambattista 0.0
katys_teddybear 0.0
gnight 0.0
katheryn 0.0
psychoanalysis 0.0
bckgrnd 0.000176636167009
kingman 0.0
gracevanderwaal 0.0
fecking 0.0
ihrcountdown 0.0
stubbies 0.0
xfactor_italia 0.0
aaronpauley 0.0
purity_ring 0.0
scorpios 0.0
ayyyye 0.0
capitalizes 0.0
flamin 0.0
motherfucking 0.0
jingled 0.0
pharrellhat 0.0
ontarioglow 0.0
teached 0.0
umusic 0.0
auroramusic 0.0
dailymendeslife 0.0
soloing 0.0
universalse 0.0
dustinkloeppel 0.0
robynkonichiwa 0.0
charli 0.0
lonelydot 0.0
adamselman 0.0
sorrenti 0.0
offish 0.0
vinoodh 0.0
guitarists 0.0
cocking 0.0
cabbages 0.0
amelia_libman 0.0
flutter 0.0
lolita 0.0
kingladygaga 0.0
breakthecycledv 0.0
howbow 0.0
curveballs 0.0
tamagotchi 0.0
jarryd 0.0
alliseeisgold 0.0
thebroadmuseum 0.0
sarahsowitty 0.0
brillz 0.0
jackgarratt 0.0
markryden 0.0
duffscakemix 0.0
sanrio 0.0
theniceguyla 0.0
trills 0.0
susangkomen 0.0
faustopuglisi 0.0
gurlll 0.0
cheesecakes 0.0
scorpio 0.0
oblivia 0.0
skipmarley 0.0
correcto 0.0
jessirklein 0.0
unpatr 0.0
squish 0.0
greg_wells 0.0
onlyleah 0.0
gittin 0.0
popstars 0.0
krafts 0.0
bouche 0.0
problemo 0.0
wheezing 0.0
patmcgrathreal 0.0
cienega 0.0
thundering 0.0
nastialiukin 0.0
janell 0.0
katelyntarver 0.0
miamoretti 0.0
missoni 0.0
dannymoonsworld 0.0
mrchrismcmillan 0.0
madge_freak 0.0
woridstarcomedy 0.0
ikissedasoldier 0.0
kpezandchez 0.0
perrysoldier 0.0
emilynotchez 0.0
iickmekaty 0.0
basicallyadam 0.0
katysangelegg 0.0
nicolasjebran 0.0
xchadballx 0.0
scott_myrick 0.0
lockoir 0.0
shannonwoodward 0.0
calluses 0.0
chamomile 0.0
trollin 0.0
sleighing 0.0
chestercheetah 0.0
royksopp 0.0
scottsimonswvla 0.0
sirenscaiiing 0.0
slowdownkaty 0.0
chefantoniopark 0.0
garnished 0.0
endive 0.0
mdmolinari 0.0
prezzy 0.0
motioning 0.0
hernameisbanks 0.0
rockcampla 0.0
jenniefinch 0.0
getglucky 0.0
stendhal 0.0
ryanphillippe 0.0
hotncolds 0.0
kpcollections 0.0
katie_wignall 0.0
katysdrugx 0.0
evrenperry 0.0
katycatwendy 0.0
yungskeeter 0.0
sarahhudsonuvs 0.0
mothern 0.0
oliverheldens 0.0
marrymemargot 0.0
katyperrylately 0.0
kewlest 0.0
katyshellokitty 0.0
pqgerry 0.0
rasarioatelier 0.0
anakhouri 0.0
romaneperry 0.0
hot_chip 0.0
agador 0.0
freddietinkles 0.0
cynthialovely 0.0
augustgettyatelier 0.0
tbsnetworks 0.0
ronyalwin 0.0
justinandersoncolor 0.0
mmillerrider 0.0
jpgaultier 0.0
harharharhar 0.0
iikeanangel 0.0
vonnypoo 0.0
jcoopkp 0.0
itzmero 0.0
katysprismlight 0.0
hatérs 0.0
awkwardaya 0.0
katysredskittle 0.0
tiedye_princess 0.0
adelshahal 0.0
marinadiamandis 0.0
samadizayee 0.0
itsslatykaty 0.0
johnlordperry 0.0
nuggetperry 0.0
kthnkzbye 0.0
teamkpbrasil 0.0
twenagedream 0.0
ashleyegreer 0.0
perryllover 0.0
perry_slays 0.0
_andresgalvis 0.0
poplitics 0.0
likerotica 0.0
sweetxjaureguix 0.0
jessiambriz 0.0
perryncolds 0.0
pwideawake 0.0
brunastrait_ 0.0
anafalqueto 0.0
pessoalmente 0.0
mark_hodson_ 0.0
sumtxkid 0.0
arpoador 0.0
katysmychampion 0.0
amnattg 0.0
osullivanluke 0.0
stephiruth 0.0
katy_pizza_bae 0.0
kpcatt 0.0
pedroeugeniio 0.0
gugs_prismatic 0.0
zeeusmtz 0.0
legendarycold 0.0
robynxkatheryn 0.0
écouter 0.0
energyberlin 0.0
karysjones 0.0
lilzariya 0.0
puroland 0.0
pavlovitz 0.0
dreamhampton 0.0
prismsperry 0.0
perrysmic 0.0
focusonreid 0.0
tonyatalterian 0.0
makeup_man 0.0
wtfkates 0.0
sella_sandra 0.0
katycute_ 0.0
caitsperry 0.0
katyperryforum 0.0
radiantjareau 0.0
lillysgomez 0.0
katycatsweden 0.0
perryicecream 0.0
xamyrosex 0.0
wtvrlara 0.0
bijanstephen 0.0
ameliashowalter 0.0
screamkng 0.0
tvmcgee 0.0
liiife 0.0
itskatcombs 0.0
yaaaaaasssssssssss 0.0
katysmyhabibi 0.0
skottpeace 0.0
ferras 0.0
kweens 0.0
habibi 0.0
orlandobloom 0.0
huckchinn 0.0
katycatkenzie 0.0
matarazzo 0.0
fkatwigor 0.0
perryschild 0.0
hotxcolds 0.0
maddisonxperry 0.0
akaruikaty 0.0
chillinlaidback 0.0
erryone 0.0
chrisanokute 0.0
beyelite 0.0
kuntyewest 0.0
chiroprac 0.0
katyperryrises 0.0
godneybjs 0.0
liquoronurlips 0.0
katystumblrr 0.0
holiestkaty 0.0
hollykittykaty 0.0
katysprincess 0.0
katysdonut 0.0
carlythekatycat 0.0
katycatsophia 0.0
fridaaperry 0.0
iegendarylovers 0.0
katycatveronica 0.0
katyperryslave 0.0
hakimkharbouch 0.0
keonovak 0.0
plaaaaay 0.0
scatting 0.0
shotted 0.0
dizzycoco 0.0
fkinsnapss 0.0
junkygs 0.0
ミニチュア料理 0.0
エビフライとエビ天 0.0
adidasboosts 0.0
lilithia 0.0
cottoncandizzle 0.0
ultimatebeyhive 0.0
paramorewebnews 0.0
royale_lala 0.0
musicnews_feed 0.0
katyperryextra 0.0
greeniight 0.0
gagas_illusion 0.0
lesbiyonce 0.0
blurryhface 0.0
lordofgiraffex 0.0
ifuseekamy_ 0.0
legendarymalek 0.0
hausoframez 0.0
unstan 0.0
chioekardashian 0.0
theiife 0.0
handstomyseif 0.0
legendarylovers 0.0
gagas_fandom 0.0
thinagedream 0.0
conditionalbabe 0.0
dannysuschrist 0.0
prismdluxe 0.0
herwonkeye 0.0
camilasviews 0.0
gagalovesbey 0.0
shadykatyfacts 0.0
limalimoncia 0.0
heavymetaiovers 0.0
katyscrush 0.0
waikingonair 0.0
eduardo_katycat 0.0
katyswetdream 0.0
katherynsgod 0.0
katystddbr 0.0
katyboobies 0.0
royaityler 0.0
nothingfaiis 0.0
kathrynluck_ 0.0
prismaticiights 0.0
mendesperry 0.0
katycatghita 0.0
mark_katycat 0.0
iwasdivine 0.0
skywaterr 0.0
xjojospearsx 0.0
alwaysbeperry 0.0
skoglyrihanna 0.0
legendarydurk 0.0
halseysfirework 0.0
rainbowspatrick 0.0
katysfood 0.0
honeymoonprism 0.0
onepulsetony 0.0
butcha 0.0
okurrr 0.0
the_mpt 0.0
talaofficial 0.0
miniatures 0.0
ohmyjurassic 0.0
katysmoonlight 0.0
lilly_jnes 0.0
coco_ho 0.0
perryhumorr 0.0
yikesjonathan 0.0
rubyrankin 0.0
thealekovski 0.0
cydney_moore 0.0
truebluedeluxe 0.0
thedutchass 0.0
katyskettle 0.0
ferraseu 0.0
katyssunlight 0.0
typosqween 0.0
adoreeeperry 0.0
katyperryfrance 0.0
snowiner 0.0
_coolkatycat 0.0
nicothekatycat 0.0
adorbies 0.0
jackygerardchan 0.0
brewmystew 0.0
katyswildfire 0.0
rihftperry 0.0
theolagu 0.0
ritajoness 0.0
iitsjackie 0.0
mjjperry 0.0
jesuskylie 0.0
holyerotica 0.0
graceofkaty 0.0
redsvelvets 0.0
booyakasha 0.0
tariqterry 0.0
katycatalannah 0.0
taylxre 0.0
pacifyher 0.0
basedkatyperry 0.0
diddleurskittle 0.0
katysanalien 0.0
gagasspace 0.0
tayiorhq 0.0
givenchydress 0.0
augustryder 0.0
perrysmoschino 0.0
kittehn 0.0
katrieber 0.0
legendaryhunty 0.0
katyslegs 0.0
katyfroot 0.0
winesandlines 0.0
sam_incolour 0.0
wakingonair 0.0
drwssinup 0.0
huffdaddysays 0.0
fiwwwwine 0.0
matthewroper 0.0
emmabruhhh 0.0
gingerwesson 0.0
nicholas_sewell 0.0
perfectlyperry 0.0
bustabusta 0.0
mynameisziam 0.0
venuzszfly 0.0
katherynsus 0.0
sacredperry 0.0
thedollsftkaty 0.0
_cafajeff 0.0
debkatycat 0.0
katycats 0.0
eastonjames_ 0.0
oliviabooker_ 0.0
protecti 0.0
outrageousness 0.0
joanneprada 0.0
scuffed 0.0
catoure 0.0
blanged 0.0
tahmorrow 0.0
glukatyperrypop 0.0
jamesjoint 0.0
pressin 0.0
bourree 0.0
honeysuckle 0.0
meowings 0.0
fashun 0.0
happun 0.0
vikander 0.0
thekatyperrypopgame 0.0
karolfabianaros 0.0
nico_thekatycat 0.0
miss_lilyjames 0.0
stylinfunk 0.0
hudsontheband 0.0
jere_my 0.0
crabitat 0.0
tiersz 0.0
unrehearsed 0.0
fanclub_kp 0.0
oneofthesophies 0.0
fusterlandia 0.0
lazyblazy 0.0
katycatchloe 0.0
figali 0.0
prismaticness 0.0
titicaca 0.0
ancientaliens_ 0.0
sneezin 0.0
cristos 0.0
mallman 0.0
prismaticlife_ 0.0
ravensuxx 0.0
perrypositive 0.0
derkwhore 0.0
alekjandro 0.0
havss_ 0.0
hqzaynmaiik 0.0
thique 0.0
bbhmms 0.0
jkatharineb 0.0
jennyformica 0.0
tiiiiiight 0.0
ikissedagay 0.0
harryvuitton 0.0
aeschleahd 0.0
princessjavonda 0.0
errrythang 0.0
kooning 0.0
sugarray 0.0
empaths 0.0
goldenboyz_inc 0.0
voguejp 0.0
chickenwingguardingthemimosa 0.0
katyperrypopup 0.0
unmeasurably 0.0
transviolet 0.0
beauteous 0.0
katyskidrauhl 0.0
thooooooseee 0.0
clairesstores 0.0
nailsbymh 0.0
katysacutie 0.0
psychokatycat 0.0
kaceymusgrave 0.0
refueled 0.0
hyungsunju 0.0
okuurrrr 0.0
cholewheeler 0.0
leftshark 0.0
momchella 0.0
crotches 0.0
hookedondolls 0.0
fyuseapp 0.0
mogonoloball 0.0
atletica 0.0
katycatsclub 0.0
catacombs 0.0
poppycorn 0.0
cupped 0.0
christiania 0.0
residenz 0.0
lindseyweber 0.0
butterballface 0.0
joshlecash 0.0
myassistant 0.0
swiftschrist 0.0
snowhiteperry 0.0
emmakphughes 0.0
katyslegend 0.0
dansnierson 0.0
scressful 0.0
prismaticwitch 0.0
finnin 0.0
habibis 0.0
mophies 0.0
strongé 0.0
drumkit 0.0
anamanaguchi 0.0
gaultier 0.0
ngvmelbourne 0.0
dukedumont 0.0
legendaryasmyn 0.0
highlarious 0.0
calpurnia 0.0
waaaaait 0.0
mktfah 0.0
fwding 0.0
caseyhoops 0.0
worldstarvlne 0.0
flapfkp 0.0
bettycrocker 0.0
mexxxico 0.0
whhhhhhhhuuuuuutttt 0.0
yelletweets 0.0
gucciqxxn 0.0
luckyladyrebelettes 0.0
junglejulia 0.0
charlottes_web 0.0
istarbucksniall 0.0
katysroaaar 0.0
fiorucci 0.0
whuteva 0.0
sirdavidd 0.0
fudgery 0.0
bizquick 0.0
itsgrandtheft 0.0
grandtheft 0.0
katysfancy 0.0
ameezyyrush 0.0
mykectown 0.0
itsvalkubus 0.0
walkslikeperry 0.0
iwantperry 0.0
exausto 0.0
selfeh 0.0
aquaberry 0.0
sidepiece 0.0
versacness 0.0
iamleslii 0.0
alocalgyro 0.0
cutina 0.0
theoutslder 0.0
prism_katy_cat 0.0
katyshoodrat 0.0
thestevetisch 0.0
ronysphotobooth 0.0
schlitterbahn 0.0
kpsnosecrinkle 0.0
alwz_katycat 0.0
whykph 0.0
californiagurls 0.0
katycattt 0.0
varicose 0.0
itsbrillz 0.0
perrystiger 0.0
katysmyaura 0.0
paolablancokp 0.0
callmemargot 0.0
indiggynado 0.0
katycat 0.0
anylinden 0.0
kpkillerqueen 0.0
katyslilacwine 0.0
katypvenezuela 0.0
franzikaty 0.0
katherynelperry 0.0
doessss 0.0
katysleftarm 0.0
datingprism 0.0
_smiler_katycat 0.0
kepyterry 0.0
katycat_camille 0.0
vckatyperry 0.0
bowzerjoe 0.0
taishrox 0.0
mütter 0.0
arianperryarian 0.0
lisasigh 0.0
fridiskp 0.0
kevinruda 0.0
katyperrydaily 0.0
wakingupvegas 0.0
marlyins 0.0
drankin 0.0
herkatycat 0.0
luvhudson 0.0
yaeltsairi 0.0
felipinhoofm_ 0.0
renanmarcall 0.0
kariseperry 0.0
emojing 0.0
konnie 0.0
mcperry 0.0
iturnmycanonon 0.0
katycatelysha 0.0
andrewnavs 0.0
katycatkrystal 0.0
lovelyandlaugh 0.0
lampoonians 0.0
perrytuuda 0.0
katymyhaven 0.0
ruletheschool 0.0
cheapandchic 0.0
sically 0.0
crazyforperry 0.0
kpdaily 0.0
getonupmovie 0.0
cutetina 0.0
chimiuzz 0.0
kefali 0.0
joelkefali 0.0
siclly 0.0
mtvother 0.0
lydiaacav 0.0
prismaticperry 0.0
jwujek 0.0
adorbie 0.0
errone 0.0
kaliyah 0.0
katysweirdness 0.0
vinbiodiesel 0.0
katysfxb 0.0
katyspurrfect_ 0.0
shannonmwoodward 0.0
bippity 0.0
boppity 0.0
swiggty 0.0
swoogity 0.0
pizzarella 0.0
firewerk 0.0
katyslayed 0.0
emerald_epelman 0.0
madkatydisease 0.0
mandee 0.0
ohferras 0.0
sarahh 0.0
iaustinhunt 0.0
lanawhore 0.0
spaceykacey 0.0
crazay 0.0
elektrikpeople 0.0
visa_nz 0.0
fvckin 0.0
nathanspicer 0.0
cashcash 0.0
ashish_uk 0.0
xokatic 0.0
turnting 0.0
scorpiomystique 0.0
toddthomasnyc 0.0
kohngallery 0.0
discnt_universe 0.0
dressinkaty 0.0
lee_cook 0.0
bloodshot 0.0
yaddlizc 0.0
elnett 0.0
itsthekatycats 0.0
kelly_moritz 0.0
katyslaykaty 0.0
skintxghtjeans 0.0
socarrer 0.0
errrday 0.0
therealslacker 0.0
wendywild 0.0
welkys 0.0
sohohouse 0.0
selfing 0.0
camiilaruales 0.0
nexxxt 0.0
turrell 0.0
alliexxxxandra 0.0
surfboardt 0.0
telstra_news 0.0
juanitadele 0.0
oopskatycat 0.0
sophkatycat 0.0
katyschild 0.0
katysconverrse 0.0
katycat_leah 0.0
katycatverified 0.0
katycat_libby 0.0
katyswonk 0.0
kittless 0.0
jlrcukp 0.0
siiiiiiiiiiiiii 0.0
ermagherd 0.0
imlynsey 0.0
perrys_cherry 0.0
casemcgase 0.0
hazzaily 0.0
herses 0.0
gaypropaganda 0.0
tixforcharity 0.0
hudsons 0.0
nomers 0.0
mommacat 0.0
superlove 0.0
bonacorso 0.0
levi_leet 0.0
thinkingofbecki 0.0
cybering 0.0
pamyurin 0.0
idreamofkaty 0.0
xfactor_au 0.0
glohudsonperry 0.0
aubreyplzza 0.0
eeshhuhhayniac 0.0
bonkay 0.0
katysbum 0.0
nevillebradley 0.0
curryswift 0.0
zinepack 0.0
katykatt_suraya 0.0
sweetkatybird 0.0
yohkatheryn 0.0
cottoncandykaty 0.0
karolynadiaz 0.0
maayansharvit 0.0
theprismcess 0.0
camisp_ 0.0
lucasgaldin 0.0
prixy_mtz 0.0
niggasperry 0.0
kaksperry 0.0
zennnnaaa 0.0
katyissmurfy 0.0
dadehoward 0.0
kyledsaavedra 0.0
katysdoritos 0.0
pendejabardera 0.0
rosenilsou 0.0
hackensucks 0.0
gottabesheerio 0.0
ismaellgarcia 0.0
milegendz 0.0
alexskarev 0.0
ladycrystalb 0.0
katyspad 0.0
xcallmechrissyx 0.0
arianastylesss 0.0
jorgebaker 0.0
matty_zee 0.0
katycatzilla 0.0
adorie 0.0
meowwdison 0.0
alvin_koopa 0.0
lexyauditore 0.0
kease_it_raw 0.0
katysking 0.0
chris__kirby 0.0
katysbestfrwend 0.0
katyslildancer 0.0
sssshhh 0.0
conorhughess 0.0
tanimura 0.0
thekatycatlife 0.0
weefififookface 0.0
breakalioz 0.0
hudsonhelper 0.0
lariitaa 0.0
meeeeeooooooooowwwww 0.0
legend__dary 0.0
katyandliam 0.0
_theatrekid 0.0
babybritney 0.0
erinlorimer 0.0
_zacmoore_ 0.0
itscezzurryo 0.0
katycatskp 0.0
larissafilipo 0.0
siaylorswift 0.0
shitkittens 0.0
thefrankradical 0.0
katysprism 0.0
katytinalevine 0.0
serjeeoh 0.0
kayz_perry 0.0
katyslaysurfav 0.0
fuckyeahitskath 0.0
sweetyitosan 0.0
pickerington 0.0
verrado 0.0
retweete 0.0
jameswaterhouse 0.0
hunnah 0.0
truth_ispeak 0.0
_emilybarbarrr 0.0
nbllrrr 0.0
jmoneygraves 0.0
eaglenationnews 0.0
tauentzienstrasse 0.0
avontbh 0.0
vinnie_mate 0.0
demilovve 0.0
coolestkatycat 0.0
terri_katycat 0.0
beeeaaatttt 0.0
laurenfrancisco 0.0
victaytayp 0.0
aylajaye 0.0
iloveu 0.0
augustvaz 0.0
lizzievang_ 0.0
edsssss_ 0.0
hhhhhholly 0.0
holly_hickin 0.0
trixxx 0.0
killah 0.0
treasurefingers 0.0
最強ガール宣言 0.0
voykovic 0.0
annunaki 0.0
katyshomie_ 0.0
katyselephant 0.0
caitlynsmith 0.0
lightsperry 0.0
elizagilham 0.0
ohmyjatyfeels 0.0
junglescope 0.0
drunkskaty 0.0
malikpom 0.0
dancerlaurena 0.0
brirad 0.0
elisa_rv 0.0
moooom 0.0
pattymeagher 0.0
iwasemily 0.0
shahrzadphoto 0.0
tvjohnny 0.0
cstonethebreadwinner 0.0
katysrightboob 0.0
cyberdlck 0.0
beatforkaty 0.0
igabriiel 0.0
duuuuddddeeeee 0.0
redrum 0.0
srbuhiii 0.0
kayleighcat 0.0
applekatycat 0.0
ikatycats 0.0
wehryspencer 0.0
emilyjonesphoto 0.0
coxgabe 0.0
drugmoneyx 0.0
steven_drum 0.0
victoriacha 0.0
hashtaggin 0.0
perryandemetria 0.0
katycatfurlife 0.0
iammelissalynn 0.0
qewtie 0.0
yscheecat 0.0
slayty 0.0
katystree 0.0
katherynsboy 0.0
anapurry 0.0
nenedez 0.0
kevinn_perry 0.0
gloria_swag_ 0.0
andyamaziing 0.0
roarsana 0.0
brighthudson 0.0
fixingperry 0.0
roooooooooooooar 0.0
gretschusa 0.0
katys_cupcake 0.0
wonderation 0.0
kasek_craig 0.0
katysgurll 0.0
pepperperry_ 0.0
teamkatyperry 0.0
meandnutella 0.0
lovatokitten 0.0
katyslolly 0.0
astixxx 0.0
ravemomentz 0.0
erzaabrianto 0.0
katyperryindo 0.0
seeingdaisies 0.0
gillian_e_dubbs 0.0
samanthachazene 0.0
perryprism_ 0.0
katycompletesme 0.0
ltskatyperry 0.0
kittenscks 0.0
nihanofficial 0.0
momcat 0.0
kaytehperreh 0.0
__grazi 0.0
clairekatycat 0.0
fangurl 0.0
rrrrrrrrrrrroooooooooooooaaaaaaaaaaaaar 0.0
marispiva 0.0
mattdrobins 0.0
deihemmings 0.0
rooaaarr 0.0
katycatobsessed 0.0
katycatnick 0.0
tigerkats 0.0
kristenanzelc 0.0
taylermckellop 0.0
essesfadaperry 0.0
imjare 0.0
smganonymous 0.0
roaaaar 0.0
phuckyotweet 0.0
evvvvvverrrr 0.0
melvynmarrero 0.0
zouisashton 0.0
trillneyspears 0.0
rooooooar 0.0
fanwars 0.0
fentyncold 0.0
ttish_ 0.0
rachelacogan 0.0
makesmariana 0.0
kkaplon 0.0
rafaelmoncada 0.0
yaaaassssgrl 0.0
oioianna 0.0
katycatrazan 0.0
megaan_katycat 0.0
thekaelynn 0.0
hannahloupunton 0.0
thumbelinafairy 0.0
nic_kathryn 0.0
dannahfields 0.0
rodneybroaddus 0.0
noxisanasshole 0.0
soedesh__ 0.0
hookerofversace 0.0
thinkingofkaty_ 0.0
msgracevalerie 0.0
francfernandez 0.0
katysring 0.0
a_little_spark 0.0
laaxiss 0.0
