awesome 2.9280098942e-05
christmas 0.000467211872155
trying 0.000342567196101
launch 0.000387730136218
moment 0.000503381729173
wonderful 0.000207199752893
seeing 0.0
hanging 3.32192547894e-05
sounds 0.000196800713551
recommend 0.000313774940923
worked 0.000227977562356
direct 0.000149259667508
others 0.00042515095528
currently 0.000156734244775
better 0.00125129914213
please 0.000422759227114
social 8.85588886785e-05
anxiety 0.0
around 0.000312824785532
people 0.00255473574851
morning 0.000681450757944
traditional 0.000100051261522
general 0.000641817991556
damage 0.000128910707027
everything 0.000419354312581
twitter 0.000683290072601
present 0.00020889726397
though 0.000436663838475
friend 0.000158107936662
watched 0.000147999823495
beautiful 8.09957391615e-05
anything 0.000612651238554
previous 8.28112845147e-05
helped 8.61888225644e-05
updated 8.33199467372e-05
thinking 0.000187467258178
finally 0.000428496590122
caught 5.9039259119e-05
believe 0.000810311886744
already 0.000548920955536
couple 5.73038126499e-05
orlando 0.0
chance 0.000314515734436
meaning 0.0
growing 3.14330266604e-05
probably 0.000397882558302
password 0.0
changed 8.41154882734e-05
history 0.000431977275528
center 0.0
museum 0.0
behind 0.000260687321276
screaming 4.84867014396e-05
pretty 0.000321372442591
really 0.000786289336089
little 0.000235251838087
happiest 5.54927791049e-05
earlier 6.133499003e-05
forget 0.000159391766519
someone 0.000449181678809
safety 0.0
program 0.0
things 0.00054744337468
related 0.0
visiting 3.61514132096e-05
available 0.000136089766175
perfect 5.45829798094e-05
different 0.000213096082975
search 7.00752561439e-05
connect 0.0
numbers 9.82832791409e-05
person 0.000289084261485
watching 0.000131756613885
exhibit 0.0
passed 6.3912325172e-05
prefer 0.000158293445854
minutes 0.000297786492283
travel 0.0
outside 0.000194159840762
looking 0.000470503676174
forward 0.000161555181268
agreed 0.000175684688239
raising 3.74233109298e-05
listened 4.15324976518e-05
afraid 0.000135498070974
impression 4.81567130824e-05
christian 0.0
profile 3.58429039034e-05
instant 5.38103416854e-05
drawing 4.67213745e-05
wheels 5.44286014648e-05
favorite 0.0
picture 0.000223098980665
instead 0.000442794443392
appreciate 3.0835680967e-05
international 3.24002743853e-05
station 3.67796058267e-05
toddler 6.91739590503e-05
market 0.000318030291222
couldn 0.000191040429333
remember 0.00020967715629
vintage 0.0
holidays 7.48466218597e-05
friends 0.000210810582216
everyone 0.000393144668045
florida 3.8646375544e-05
always 0.000938474356595
months 0.000410478518988
moving 0.000112762003163
meeting 0.000322240195673
answer 0.000214826797116
sweetie 0.0
together 0.000289084261485
inside 0.000300206388951
section 0.000161163579204
missed 0.000159391766519
button 0.000174053415625
longer 0.000242013735592
enough 0.000609356830052
driving 3.20443817298e-05
building 0.000117758164903
enjoying 0.000352488199028
london 0.000467630152797
exploring 0.0
posting 0.0
amazing 0.000601199141778
attention 8.90416445101e-05
gordon 5.20389540822e-05
progress 7.27182665795e-05
tomorrow 0.000655241113408
george 0.000944821724266
feeling 8.23175654964e-05
excited 0.000109460938397
understand 0.000400042104542
following 0.000165080116763
asleep 0.0
learning 3.2490011934e-05
evening 0.000180032378326
special 0.00034349187203
secret 0.000322956680045
across 0.000117120395768
surprised 0.000281348596768
anymore 3.34047981501e-05
sophia 0.0
precious 0.0
rejoice 0.0
version 0.000144820552206
rather 0.00105982348413
avatar 0.0
showing 0.000111851299309
saying 0.000492574222786
tweeted 0.000103932390913
thoughts 0.000111248552379
exactly 0.000396807558262
except 6.68095963002e-05
getting 0.000602821824335
nothing 0.00049798324619
tweets 0.000231085665442
course 0.00100164547404
photos 0.0
looked 0.000119045526051
difficult 0.000172733384933
stages 0.0
office 0.000481837749318
decisions 0.0
brought 8.71282476306e-05
biggest 0.000188990058044
thrilled 7.98593189526e-05
something 0.000576612179799
closing 3.89901440262e-05
anyone 0.000766251099144
taking 0.000288306089899
recently 3.40648013045e-05
interesting 0.000817620776272
original 9.30148771294e-05
flying 0.0
happening 0.000171446616232
sometimes 0.000173314249082
lessons 3.79721466146e-05
village 0.0
stopped 9.22543570708e-05
yesterday 0.000237802065252
service 0.000201652787062
serious 0.000336461953094
digital 0.0
hoarder 0.0
wearing 0.0
british 0.000802094110593
either 0.000400042104542
second 0.000528449033893
checking 3.39694859072e-05
indeed 0.000536113102656
island 3.70994715836e-05
hearing 0.000117120395768
choose 3.0835680967e-05
staying 3.54371566909e-05
another 0.000784172793623
clothes 0.0
slowly 4.75090094008e-05
weekend 0.000425044710718
hashtag 0.0
delivery 0.0
theory 8.59404713514e-05
working 0.000419354312581
bigger 0.000215260166498
screen 0.000141748626764
riding 0.0
laughing 0.000124360048313
wanted 0.000370912853075
trends 0.0
stripes 0.0
clothing 0.0
current 6.18403652075e-05
adorable 0.0
grateful 6.8512968044e-05
friendship 5.12887229645e-05
family 7.86289336089e-05
listening 8.61888225644e-05
stream 0.0
expressions 0.0
wedding 3.98103515695e-05
sharing 0.0
double 0.00011872219268
especially 5.80854984204e-05
middle 0.000240697959259
waiting 0.000107413398558
definitely 0.0001146076253
walking 0.0
account 0.000676531951852
completely 0.000186540072469
thought 0.000766251099144
reaction 0.000179214519517
accept 6.69961348329e-05
simple 0.000122001548742
professional 3.88750500992e-05
friendly 7.79802880524e-05
supposed 0.000209040820395
business 0.000310935204916
absolutely 0.000308423457003
anywhere 6.98773907669e-05
sending 0.0
introducing 0.0
congrats 8.25400583816e-05
beauty 3.75321575687e-05
community 0.0
greatest 5.73038126499e-05
selfie 0.0
posted 0.0
saturday 2.76623173828e-05
wednesday 9.48187243938e-05
confused 3.81949576473e-05
expression 0.0
chicago 3.56392408977e-05
closest 5.0025630761e-05
relationship 0.000211419761961
actually 0.00096672058702
easter 3.58429039034e-05
basket 6.10397038508e-05
myself 3.43528565241e-05
argument 0.000161649710287
school 7.99110311157e-05
thursday 0.0
selling 3.58429039034e-05
talented 0.0
celebrate 2.89641104413e-05
falcon 0.0
celebrating 0.0
contest 0.000273283731871
experiences 0.0
students 0.000138967797206
internet 3.25800594574e-05
figure 3.1346848955e-05
opened 0.0
featuring 0.0
inspired 3.16932823873e-05
sitting 0.000118399858796
playing 0.000213096082975
street 0.000406598488943
points 0.000335916715821
memory 3.62550663566e-05
forever 2.9599964699e-05
imagine 0.000292007420097
problem 0.000337372651803
played 0.00014640049471
canadian 0.0
pulling 4.46347625949e-05
keeping 2.9280098942e-05
lovely 0.000131773570464
dressed 8.46137467301e-05
specifically 5.20389540822e-05
unlike 0.0
disappointed 0.0
otherwise 7.44139433245e-05
afternoon 3.0835680967e-05
planned 0.000150565842355
strange 0.000120872684403
images 4.61079642662e-05
noticed 4.15324976518e-05
notice 0.0
stretch 0.0
inspiration 0.0
letting 6.4443441455e-05
system 6.55221860939e-05
possibility 0.0
almost 0.000131048222682
details 0.000143259531625
experience 0.0
living 2.73652345992e-05
weather 3.34980674164e-05
normal 3.51369376478e-05
launching 0.0
before 0.000113680730943
captured 5.26161451617e-05
colors 0.0
monday 0.000136826172996
example 0.0
realize 0.0
autographed 0.0
sleeping 0.0
authentic 0.0
science 0.0
tweeting 5.98476080903e-05
forgot 6.57041669567e-05
chasing 0.0
gorgeous 0.0
herself 0.000125984571979
happens 5.42892468394e-05
silence 0.000123838203531
learned 9.10030312332e-05
congratulations 5.77714163606e-05
natural 0.0
raised 3.4256484022e-05
babies 0.0
mission 0.0
smelled 0.0
ironic 5.82393941644e-05
testing 0.0
deleted 0.000260194770411
barely 9.13143937199e-05
unforgettable 0.0
forgotten 0.000116970432079
trouble 3.24002743853e-05
fantastic 0.000278281643434
loving 0.00024736146083
complete 9.02617347221e-05
nearly 0.000206697519747
spirit 3.39694859072e-05
launched 0.0
finding 3.20443817298e-05
mercury 0.0
stories 0.000226747176149
including 0.000203851381428
mature 0.0
stuffed 0.0
ancient 0.0
bottle 0.000122712915104
somewhere 3.41604664839e-05
wouldn 0.000226134694485
choice 5.59256496544e-05
conversation 9.56047229333e-05
making 0.000548920955536
expect 0.000345763293264
occasions 0.0
subject 8.78564992948e-05
flights 0.0
location 4.11537684899e-05
vacation 0.0
seriously 0.000202748773089
spending 0.000162900297287
groups 4.23068733651e-05
childhood 0.0
modern 0.000113253671501
welcome 0.000238443976977
moments 9.77401783723e-05
degrees 0.0
jacket 9.25199379317e-05
halloween 0.0
costume 0.0
totally 0.000242013735592
laughed 0.0
flight 6.28660533207e-05
kidding 0.0
regular 3.88750500992e-05
context 0.0
running 0.00035767358632
finished 0.00103444601552
strong 0.000107994318882
tracking 0.0
respond 0.0
message 0.000278121380947
coming 0.000392086396812
thankful 0.0
cheese 4.15324976518e-05
greens 6.38760564589e-05
issues 6.2521910393e-05
intolerance 0.0
happen 0.000106835696645
giving 0.000158962651318
turkey 0.000458339491767
excellent 0.000444086064291
limits 0.0
common 6.48005487707e-05
pressed 0.0
situation 0.0
options 8.18086100696e-05
health 0.000123680730415
insurance 9.04281831895e-05
change 0.000681450757944
singing 0.0
august 0.0
crying 0.0
mental 0.000155960576105
happened 0.000386228201589
demand 0.00010364003096
generally 0.000106016327117
personal 0.000142485976472
beyond 0.000204960692594
bruised 0.0
question 0.000830212143361
chicken 0.0
reward 0.0
tunnel 6.18586842548e-05
losing 6.46216893697e-05
respect 0.00017191143795
caption 0.0
shouldn 9.4040546865e-05
visited 0.0
reason 0.000193114100794
simply 0.000196566558282
darlin 0.0
audience 0.0
involved 3.05003871856e-05
unhappy 0.0
reality 0.000124701374079
extremely 0.0
without 0.000554871485587
falling 3.8646375544e-05
countdown 0.0
locations 0.0
timing 0.000279399980817
crabby 0.0
classic 0.000257063203439
highly 0.00026120441814
online 2.81905007908e-05
finger 4.46347625949e-05
animals 0.0
planets 0.0
called 0.000395269841655
delicious 0.0
almond 0.0
compliment 5.24223246992e-05
pictures 0.000132507903981
camera 6.8512968044e-05
pillow 0.0
checked 3.72069716623e-05
heading 3.11753435198e-05
theater 0.0
paying 0.000204388807827
planning 0.000170324006523
complex 0.0
sunday 0.00262593543195
nights 3.8646375544e-05
descending 0.0
traffic 3.93385064324e-05
opposite 0.000128910707027
through 3.67796058267e-05
lookout 0.0
reached 0.000116625150298
harder 7.29272346519e-05
random 3.81949576473e-05
changes 9.7200823156e-05
speaking 0.00012002158555
recorded 0.0
washed 0.0
november 3.51369376478e-05
answered 4.14056422573e-05
enchanted 0.0
number 5.37066992789e-05
adventures 0.0
eclipse 0.0
chocolate 0.0
unless 0.000258486757479
calling 0.000247620175145
mermaid 0.0
distraction 0.0
levels 0.0
option 3.79721466146e-05
shopping 3.98103515695e-05
former 0.000296490533543
actual 0.00013936054693
covers 4.24382022681e-05
mountain 0.0
friday 5.31305888397e-05
winner 0.000116486503673
closes 0.0
quality 6.77490354868e-05
father 2.98424662814e-05
wishes 0.0
hourly 0.0
matter 0.000112457550601
themselves 4.58065882838e-05
usually 0.000139754781534
period 7.82114966986e-05
parents 6.28660533207e-05
balance 0.0
publishing 0.00016779275811
mobile 4.35133539063e-05
woohoo 0.0
bracelets 0.0
summer 5.65336736211e-05
reminded 0.0
impressed 3.96915872086e-05
necklace 0.0
shutdown 0.0
dinner 0.000173784662648
single 0.000350981536367
packed 8.59404713514e-05
definition 4.31049581054e-05
energy 0.000280578091678
preview 0.0
monster 9.04281831895e-05
material 0.000134335177009
admission 0.0
europe 0.000290040530853
holiday 0.000120677404873
emotional 0.0
update 0.000214086650397
customers 0.000113204508585
messing 0.0
holding 0.000124019836172
electric 4.68770091839e-05
eating 0.000131044372188
outfit 0.0
picked 9.8011257314e-05
fabulous 0.0
missing 8.38884744816e-05
surprise 0.000168230976547
officially 0.0
french 0.000269484904486
global 0.0
follow 0.000184459259439
opinion 0.000136641865936
backwards 0.000112753099148
design 0.0
secrets 4.91594802532e-05
request 4.04124275718e-05
breaks 6.90933539734e-05
allows 0.0
promoting 0.0
volunteer 0.0
wondering 7.12784817954e-05
official 0.000243643493686
sweater 0.0
jersey 0.0
mistake 0.000145020265427
france 0.000109077399869
proper 0.000374939760317
ginger 0.0
peaceful 5.52764398373e-05
lighter 0.0
thinks 0.000367005686395
competition 0.000177185783455
hospital 0.0
industry 7.398482597e-05
trending 4.33765098539e-05
leadership 0.00196937944128
organized 0.0
showed 9.88301778478e-05
circle 4.64128651937e-05
success 8.87998940969e-05
ladies 7.18906704053e-05
dreams 0.0
protect 3.35916715821e-05
onesie 0.0
explanation 0.000140631027552
control 0.00043920148413
coincidence 0.0
discovering 0.0
laying 0.0
invited 0.000184428961275
healthy 7.10760059516e-05
surgery 0.0
allowing 0.0
arrived 9.50798471619e-05
opening 8.54915858833e-05
popular 0.000358429039034
pleasure 3.28520834784e-05
spectacular 9.56616993755e-05
animal 0.0
luggage 0.0
wonder 0.000312622010094
matters 0.000137798346498
reader 5.54927791049e-05
function 0.0
marketing 0.0
connection 0.0
improves 0.0
benefit 6.57041669567e-05
continues 0.000127824650344
cuddle 0.0
routine 0.0
exciting 3.14330266604e-05
corner 0.000112269932789
imagination 0.0
sangria 0.0
mystery 0.0
spring 0.000234486471915
beautifully 5.18493624675e-05
places 9.37828655895e-05
feedback 0.0
continue 6.0503433898e-05
attend 0.0
creative 0.0
memories 3.58429039034e-05
female 0.0
grandma 0.0
closer 9.85562504351e-05
accent 5.72913357904e-05
beginning 9.88301778478e-05
sooner 0.000104077908164
everywhere 6.2521910393e-05
scenes 6.68095963002e-05
bought 0.000128177526919
wishing 3.79721466146e-05
discovered 4.36509200943e-05
remove 0.0
predict 0.000104844649398
parrot 0.0
several 0.000113253671501
teacher 0.0
passing 7.08743133819e-05
become 0.000191556642194
spread 0.0
netflix 0.0
season 0.000115542832721
putting 0.000137566763969
weight 0.0
outfits 0.0
notification 0.0
annoying 0.0
necessity 0.0
knocks 7.40003875451e-05
processed 0.0
necessarily 0.0
effects 0.0
lighting 0.0
headed 3.46441303044e-05
returns 0.000105410812943
expected 0.000337789418118
bucket 4.93304233715e-05
constantly 0.000144963555372
sweetest 0.0
struggling 0.0
register 3.89901440262e-05
transition 0.000101479774559
flowers 0.0
sprain 0.0
savage 0.0
somebody 3.91057483493e-05
covering 0.000162138118339
gloves 0.0
repeat 3.65685218221e-05
managers 6.51030467914e-05
brothers 4.01699259893e-05
patriots 0.0
seahawks 0.0
player 0.000109705565466
chemistry 0.0
moonlight 0.0
comment 0.000202679365754
columbia 0.0
physical 0.0
kingdom 5.66022542926e-05
pretend 0.000275741044549
charles 8.40923677427e-05
fighting 2.98424662814e-05
rooting 0.0
donald 0.000602263369422
mexico 0.0
police 0.000101339682877
represent 4.43498555828e-05
president 0.000465946014692
talking 0.000499327360747
unbelievable 0.00029161981358
shrimp 0.0
giants 5.07398872797e-05
conference 0.00032490011934
america 0.000278873725831
everybody 3.23108446849e-05
houston 0.0
everyday 7.44139433245e-05
michael 0.000503199399882
protecting 4.67213745e-05
unconditional 0.0
million 0.000137566763969
election 0.00234984185863
telling 0.000208329670589
correct 0.000472918520094
pulled 0.0
starbucks 0.0
americans 0.0
killed 0.000116802968039
cowboys 0.0
cowboy 0.0
coverage 0.000106614008927
dallas 0.0
coffee 0.0
timeline 8.9845635629e-05
refuse 4.70335786163e-05
barackobama 0.0
hillary 0.00023438504592
clinton 0.000514034470913
gatorade 0.0
sharper 0.0
american 8.34364142842e-05
deserved 8.00990318542e-05
realist 0.0
illegal 4.36509200943e-05
arizona 0.0
waffle 0.0
scared 7.68393789769e-05
pieces 7.75209241623e-05
taught 7.72927510881e-05
golden 3.53366990247e-05
straight 0.000174256495261
massage 0.0
filter 0.0
answers 6.75597885848e-05
smoking 5.2229934659e-05
created 0.0
beside 0.0
worlds 0.0
record 0.000109460938397
freddie 0.0
africa 0.0
recruiting 6.29922859895e-05
journey 6.8129602609e-05
snapchat 0.0
brother 0.0
prayers 0.0
trolling 0.00030654924285
hungry 4.2176202755e-05
nflnetwork 0.0
documentary 3.92218676153e-05
boston 0.0
addition 0.0
church 3.98103515695e-05
honestly 0.000112269932789
lounge 0.0
lifetime 3.95733614635e-05
captain 4.44919198697e-05
favorites 0.0
country 0.000730930481059
valley 4.46347625949e-05
huddle 0.0
dressing 0.0
finish 0.00012888688291
favourite 0.000549989353746
prayer 0.0
nominated 0.0
praying 0.0
insane 3.87604620812e-05
national 0.000311777367206
reform 0.000103698724935
shooting 0.0
australia 0.0
deserve 0.0
legend 3.49386953835e-05
mother 5.84014840194e-05
realest 0.0
creating 3.60481705712e-05
powerful 3.1956162586e-05
chilling 0.0
wisdom 0.0
breaking 0.000563810015816
parked 7.40003875451e-05
angeles 0.0
dollars 4.39282496474e-05
questions 0.000375946894952
racist 0.0
girlfriend 5.52764398373e-05
performance 0.000121337374978
refreshing 0.00012261969714
educated 5.75251376457e-05
reading 0.000750927728558
denver 0.0
videos 3.37798942924e-05
harmony 0.0
create 0.000182006062466
jordan 0.0
admire 0.000145460104319
nobody 0.00016066450215
government 0.00058832801423
politics 0.00196627199393
paradise 0.0
recover 0.0
spotted 8.84171225916e-05
blessing 0.0
coolest 0.0
banana 0.0
donate 7.06733980494e-05
sandwich 0.0
lookin 0.0
method 5.48490740017e-05
bullshit 0.0
slight 0.0
bringing 0.0
deserves 0.0
regret 9.22159285324e-05
celebs 0.0
victim 0.0
stadium 0.0
funniest 0.000143492549063
according 0.000173709746507
pumped 0.0
hamburger 0.0
heaven 0.0
honest 0.00013032023783
rolling 7.86770128648e-05
became 6.55221860939e-05
feature 0.0
waking 0.0
breakfast 3.29433926159e-05
counting 0.0
signing 0.000103058569572
adding 4.15324976518e-05
awareness 0.0
kindest 0.0
trainer 0.0
facebook 5.60769921823e-05
insanity 0.0
repost 0.0
brazilian 0.0
campaign 0.00167294782955
borrow 0.0
scorpion 0.0
popcorn 0.00042171969651
factory 0.0
teenage 0.0
endorsement 0.000116963791494
williams 4.17880755041e-05
custom 0.0
drinks 4.68770091839e-05
future 0.000107994318882
angels 0.0
fingers 4.06572061977e-05
sister 7.04732539869e-05
earrings 0.0
warrior 0.0
dancing 0.00011033881748
voting 0.000161554223424
individuals 0.0
presence 0.0
commercial 3.59453352026e-05
chopped 0.0
religion 0.0
century 0.000171880942703
submit 0.0
serving 0.000135204143687
because 0.0
aggressive 0.000104459869318
sensitive 5.48490740017e-05
smiling 0.0
besides 0.0
cleveland 0.0
hometown 0.0
killing 0.000200428788901
breath 4.44919198697e-05
phillips 0.0
instagram 0.0
sharks 0.0
cousin 0.0
honored 0.0
dedication 0.0
lifting 6.63906532991e-05
lyrical 0.0
talent 3.49386953835e-05
goodnight 0.0
stores 0.0
rushing 6.63906532991e-05
brains 5.77610553837e-05
sandwiches 0.0
drinking 3.89901440262e-05
brazil 0.0
tattoo 0.0
ravens 0.0
regardless 0.0
skills 3.63591332898e-05
cameras 5.26161451617e-05
phones 0.0
california 7.50643151373e-05
seconds 3.5037628072e-05
listen 8.12144978955e-05
smiled 0.0
kicking 0.000110977238955
homies 0.0
billion 0.0
shades 5.89737732098e-05
shoutout 0.0
grammy 0.0
guilty 0.000133049566748
stevie 0.0
ceiling 0.000119972556841
carpet 0.0
grammys 0.0
harvard 0.0
panther 0.0
nelson 0.0
mandela 0.0
handle 6.83209329678e-05
sexiest 0.0
promise 0.000124360048313
hosting 0.0
hahahaha 0.0
longest 0.000186266653878
tuesday 5.95227630254e-05
locker 0.0
workout 0.0
ingredient 0.0
leader 0.00129809772639
pageant 0.0
character 7.00752561439e-05
idiotic 0.0
mirror 0.000170811446881
jackson 0.0
interview 0.00101220639413
battles 0.0
bleach 0.0
insight 0.000139699990408
obviously 0.00022067763496
replay 0.0
battle 0.000243337866117
stomped 0.0
destroy 9.10173133477e-05
killer 0.000119431054709
personally 0.000113584353585
winning 0.000307591073099
gettin 0.0
japanese 9.59865444404e-05
writing 0.000333677781189
society 0.000144605652839
officers 0.00011098555821
brooklyn 0.0
sources 0.000270408287373
incredible 0.0
poster 8.30649953037e-05
celebrity 4.28362059094e-05
memorable 0.0
werent 0.0
chased 0.0
minute 8.85588886785e-05
confession 0.0
pregnant 0.0
cherry 0.0
twinning 0.0
phoenix 0.0
orange 3.92218676153e-05
policy 0.000614715031815
comedy 0.000163617220139
illuminati 0.0
reminder 6.30389803922e-05
evidence 0.000116625150298
iphone 4.17880755041e-05
kicked 0.000128910707027
intentions 7.22903495597e-05
freedom 0.000328172555933
patient 4.58065882838e-05
utterly 0.000845648243613
mississippi 0.0
download 0.0
assistant 0.0
invite 0.000148397886335
central 0.00010364003096
washington 6.92882606088e-05
stronger 0.000208299866843
promised 0.000128910707027
worried 0.000113584353585
throwing 4.29702356757e-05
security 0.000104225847904
cologne 0.0
headphones 0.0
sanctuary 0.0
fantasy 9.93514192793e-05
monkey 0.0
approve 5.18493624675e-05
spinach 0.0
turning 9.82832791409e-05
helping 2.88075410089e-05
tickets 3.16932823873e-05
collector 0.0
physically 0.0
slavery 0.0
december 7.27182665795e-05
basically 0.000114584872942
return 0.000318605214854
yassss 0.0
goddess 0.0
locked 4.40680287068e-05
feelings 0.0
language 7.33477003521e-05
motion 0.000138323892799
obsessed 4.59568407582e-05
creation 0.0
followers 3.38745177434e-05
schools 7.44139433245e-05
gallery 0.000263080725809
movies 0.0
foster 0.0
children 8.64226230267e-05
nation 6.58867852319e-05
theaters 0.0
between 5.75251376457e-05
knowledge 3.72069716623e-05
begins 6.269369791e-05
robinthicke 0.0
faithful 0.0
peeing 0.0
closet 0.000123165644163
bodies 0.0
italian 0.0
highlights 7.89113389413e-05
spanking 0.0
forbes 0.0
parade 0.0
tasted 0.0
consider 0.0
reunion 0.0
latest 0.000255090573168
dedicated 0.0
beyonce 0.0
perform 0.0
signed 0.000144428540901
tuxedo 0.0
princess 0.0
shelter 0.0
germany 0.000278672460987
explaining 4.52140915948e-05
married 3.87604620812e-05
millions 0.000106311470073
blessings 0.0
iconic 0.0
indonesia 0.0
braids 0.0
dollar 0.00013220408612
rigged 6.67227435497e-05
replied 0.0
lights 0.0
turned 0.000143648037607
excuses 0.000116478788329
jackie 0.0
charge 0.00032629559721
performing 0.0
ticket 0.0
steady 0.000125984571979
whispers 0.0
finest 0.000103322279514
confucius 0.0
diamonds 0.0
vancouver 0.0
addicts 9.34302721405e-05
collection 0.0
families 6.69961348329e-05
select 0.0001401641235
hitting 6.98773907669e-05
announced 0.000223077686844
decided 0.00018808109373
jewels 0.0
lottery 0.0
owners 0.0
respects 0.0
celebration 3.67796058267e-05
memorial 0.0
landed 0.000122712915104
pastor 0.0
ultimate 3.79721466146e-05
incase 0.0
rapper 0.0
episode 3.12609551965e-05
bounce 6.24193237578e-05
disney 0.0
muffin 0.0
kansas 0.0
sherman 0.0
retweet 9.96577643683e-05
midnight 7.06733980494e-05
patience 0.0
cereal 0.0
joining 0.000185014085802
released 6.10007743711e-05
release 8.61888225644e-05
models 0.0
classics 0.0
popped 0.0
mileycyrus 0.0
highlight 8.28112845147e-05
scholarship 0.0
within 0.00010021439445
hahahahaha 0.0
standing 0.000299238040452
higher 0.000175684688239
purple 4.8820920532e-05
skinny 0.0
justice 0.000176183134967
served 7.91467229269e-05
speaks 0.00022716870717
horses 0.0
houses 5.36074711509e-05
purchase 0.0
dropped 9.69325340546e-05
conversations 0.000145959826124
consideration 0.0
seattle 0.0
cookie 0.0
slurpee 0.0
strength 3.62550663566e-05
screens 0.0
monica 0.0
incredibly 3.6992412985e-05
streets 3.85327861176e-05
boyfriend 0.0
private 0.00016795835791
skittles 0.0
barbie 0.0
apologizes 0.0
designer 0.0
impress 6.57389010491e-05
cooking 8.95567846727e-05
exclusive 0.000310900120782
fashion 3.78614511951e-05
petite 0.0
talkin 0.0
peaches 0.0
bitches 0.0
nailed 5.28114174765e-05
weirdest 0.0
whomever 0.0
teaching 0.0
disgusting 0.000153866168893
chillin 0.0
philly 0.0
rights 0.000176683495124
dinosaur 0.0
exotic 0.0
dancers 0.0
cheers 0.000162138118339
presents 4.28362059094e-05
flawless 0.0
dating 0.0
victory 0.000224539865579
marley 0.0
productive 0.0
smurfs 0.0
halftime 6.18586842548e-05
insecure 7.35622472799e-05
horror 0.000260194770411
warning 3.78614511951e-05
discovery 0.0
convention 0.0
understanding 0.000113253671501
action 0.000168686325901
having 4.91594802532e-05
speaker 4.36509200943e-05
clever 0.000313448746354
theatre 9.56616993755e-05
honors 0.0
evolution 0.0
produce 0.0
spider 0.0
apologize 0.0
formation 0.0
letter 0.000452351825588
therapy 0.0
untrue 6.88093554548e-05
written 0.000607167089134
communication 5.70596122013e-05
disease 0.0
marching 0.0
suggest 0.000162138118339
georgetakei 0.0
hairstyle 0.0
humans 0.0
journal 0.0
foundation 3.73149168771e-05
access 9.66651621826e-05
venture 0.0
syndrome 0.0
writes 0.000170811446881
colorado 0.0
medicine 0.0
tremendous 9.90049896708e-05
nytimes 0.0
kindness 0.0
cannot 0.000146003710049
reveals 0.000156422993397
invented 0.0
sapphire 0.0
candidate 0.000541579653791
sexual 9.19136815163e-05
madison 0.0
illustration 0.0
newark 0.0
globally 0.0
incorrect 0.0
headline 8.20574767199e-05
reflect 0.0
streaming 0.0
leaders 0.000190974788236
supreme 0.0
protest 0.000266099133497
policies 0.000142527028202
silenced 0.0
defend 0.000257017235456
communicating 0.0
climate 8.86997111656e-05
wrapped 0.0
studio 0.0
conspiracy 0.000206644559029
interviews 0.000106614008927
differentiation 0.0
confusing 5.28114174765e-05
february 0.0
hamilton 0.000155548087402
loneliest 0.0
amazon 0.000198457936043
scattered 0.0
francis 0.0
headlines 9.66423702481e-05
january 3.62550663566e-05
diversity 0.0
universal 0.0
hurricane 0.00011098555821
identifying 0.0
countries 0.000188756119168
tickled 0.0
becker 0.0
connected 5.11044908752e-05
suggestion 0.0
filled 0.0
education 0.00010570988098
mentioned 0.000115598358353
defining 6.70591189539e-05
exists 4.86532753746e-05
unexpected 5.0559480109e-05
plants 0.0
orders 0.0
olympics 0.0
ability 0.0
director 6.53408382093e-05
content 8.18086100696e-05
cycling 0.0
previously 5.2229934659e-05
correction 0.0
pearls 0.0
ambassador 0.000135642274784
preparing 4.37892160798e-05
depend 0.0
downloads 0.0
lovers 0.0
weekly 4.52140915948e-05
hudson 0.0
bridge 8.435240551e-05
becoming 0.000268733372657
magazine 0.000145436533159
appropriate 9.46991342341e-05
shakespeare 0.0
travesty 0.0
discoveries 0.0
fellow 6.64385095788e-05
reviewed 0.0
copies 0.00019940033232
driven 0.000142527028202
aussies 0.0
result 0.000377512238337
announcing 4.56571968599e-05
visual 0.0
restrictions 0.0
culture 0.0
edition 0.000280301024576
prince 3.79721466146e-05
shocks 0.0
symmetry 0.0
clicks 0.0
disagree 0.000202672647924
experiments 0.0
mistakes 0.0002336068725
trolls 5.97294415436e-05
blossoms 0.0
offered 0.000172419832422
inspiring 3.53366990247e-05
counter 0.000148507484506
approach 0.000233940864157
embarrassing 0.0
creators 0.0
edited 0.0
berniesanders 0.0
overnight 5.61527822593e-05
spotlight 0.0
probable 0.0
repeating 0.000134799783093
concerns 9.56616993755e-05
massive 0.000298973293105
promising 5.72913357904e-05
promises 4.985008308e-05
colored 0.0
production 0.0
header 0.0
itunes 0.0
secretary 0.000776172346619
highway 0.0
dangerous 3.51369376478e-05
letters 4.84867014396e-05
typically 0.0
saving 3.79721466146e-05
pioneer 0.0
visuals 0.0
universe 4.20461838714e-05
ordering 0.0
victims 7.59442932292e-05
privacy 0.0
disclosure 7.10776317336e-05
proceeds 0.0
musical 0.0
collide 0.0
melbourne 0.0
correctly 5.24223246992e-05
campus 0.0
debate 0.000202113678365
conflict 0.0
meanwhile 0.000137870522274
petition 0.0
contribution 0.0
stated 6.32835597698e-05
humanity 4.46347625949e-05
illness 0.0
flawed 0.0
breathe 0.0
winners 0.0
spanish 9.63134261648e-05
comedic 0.0
awards 6.83209329678e-05
presidential 4.36509200943e-05
candidates 0.000442085612958
glasgow 0.0
smells 0.0
treasure 0.0
greater 0.0
themed 0.0
distribution 0.0
absurd 0.000112753099148
squirrel 0.0
sisters 0.0
stress 0.0
leading 9.96577643683e-05
resolution 0.000105622834953
achieved 5.40148033777e-05
interacting 0.0
boiling 8.34885034671e-05
examples 0.0
diverse 0.0
suicide 0.000103322279514
parallel 6.44823333688e-05
minneapolis 0.0
impairs 0.0
pumping 0.0
slides 0.0
choreography 0.0
element 6.70591189539e-05
serves 0.0
jumping 9.83189605065e-05
rising 8.435240551e-05
believed 4.79932722202e-05
features 0.0
environment 0.0
revealed 0.000341622893762
classical 0.0
confirmed 0.000152333256337
origins 0.0
combination 0.00011794754642
consumption 0.0
worldwide 0.0
deaths 0.0
responsible 4.27028617203e-05
overwhelmed 0.0
household 0.000117453348746
munich 7.35622472799e-05
alternate 0.0
blockers 0.0
restaurant 0.0
canada 6.9680273465e-05
versions 0.0
technology 4.37892160798e-05
identify 5.61527822593e-05
combined 0.0
santiago 0.0
branches 0.0
october 3.65685218221e-05
netherlands 0.0
belgium 0.000127752112918
european 0.000315476335269
imperial 0.0
perspective 0.000154585502176
cities 0.0
guinea 0.0
americas 0.0
posters 0.0
elastic 0.0
flames 0.0
presumably 0.000372824981291
exquisite 0.0
spreading 0.0
happiness 4.55086566738e-05
ashamed 0.0
naturally 0.0
malbec 0.0
wasting 0.000128964666738
hidden 0.0
coffin 0.0
freudian 0.000108018746211
genius 3.47419493015e-05
cultured 0.0
malaysia 7.83151391051e-05
traveling 0.0
prepared 0.000356160253171
county 0.0
quinoa 0.0
district 5.59309193701e-05
chosen 9.86608467431e-05
toilet 0.0
yorkers 0.0
ignores 0.000143759619721
messages 4.36509200943e-05
creativity 0.0
conventional 0.0
berlin 0.000161431025056
montreal 0.0
wonders 0.0
upcoming 0.0
lonely 0.0
australian 0.000101843103307
positions 0.0
singapore 0.0
scratch 5.61527822593e-05
deficiency 0.0
elevated 0.0
triggers 0.0
delicate 0.0
barrier 0.0
reflection 0.0
sydney 0.0
separates 0.0
centuries 0.0
israel 0.000111421857528
overwhelming 0.0
assault 5.0025630761e-05
protection 0.0
picker 0.0
additional 0.0
machine 0.00010570988098
samples 0.0
contrary 6.60627403953e-05
immediate 0.000163285804394
michelle 5.03803128599e-05
inspire 4.44919198697e-05
lyrics 0.0
missyelliott 0.0
constant 0.0
tuning 0.0
pandora 0.0
preshow 0.0
buenos 0.0
poland 0.0
philippines 0.0
nicely 0.000150076892283
september 0.0
manchester 4.75090094008e-05
checks 5.0559480109e-05
screenshot 0.0
universalorl 0.0
remarkable 0.000135204143687
rihanna 0.0
disgusted 0.000152617724679
flattered 0.0
fiction 5.24223246992e-05
angela 0.000243089319581
bitmoji 0.0
process 9.99355841858e-05
genuine 0.000189398268468
performances 0.0
comedians 0.0
flotus 0.0
strangers 0.0
hungover 0.0
confidence 0.000122712915104
studios 0.0
stjude 0.0
memphis 0.0
mikeypiff 0.0
chancetherapper 0.0
scream 5.50618811601e-05
jennifer 0.0
disappoint 0.0
newcastle 7.58305235587e-05
castle 5.84818957468e-05
literally 0.000387730136218
chrisrock 0.0
gentlemen 0.000112305564519
mtvnews 0.0
hillaryclinton 5.20389540822e-05
iamrashidajones 0.0
champagne 0.0
raleigh 0.0
ijessewilliams 0.0
acknowledge 0.0
buzzfeed 5.20389540822e-05
puppet 0.0
rehearsal 0.0
billboard 0.0
austria 0.0
sweden 0.0
republic 0.0
grilled 0.0
waltdisneyworld 0.0
katyperry 0.0
ronanfarrow 0.0
measly 0.0
bragging 0.0
treats 0.0
literal 0.0
cooper 0.000221971116419
counts 0.0
theellenshow 0.0
basking 0.0
cookies 0.0
festival 3.84196894884e-05
amsterdam 0.0
soundcheck 0.0
downloaded 0.0
encouraged 0.000323954213375
alright 0.0
jtimberlake 0.0
backstage 0.0
collab 0.0
joined 0.00019279740258
issarae 0.0
playlist 0.0
madness 0.000208299866843
romantic 6.24193237578e-05
selfies 0.0
exclusively 0.0
disneyland 0.0
refused 0.000166478337315
characters 0.000124979920106
amazingly 0.000109698148003
auction 0.0
express 0.000121237282715
gratitude 0.0
sesamestreet 0.0
thegrammys 0.0
throughout 0.0
awkward 4.35133539063e-05
shining 0.0
thrown 0.000198702838559
stylist 7.67961425478e-05
fighter 5.52764398373e-05
accepting 0.0
playin 0.0
applemusic 0.0
filmed 0.0
makeawish 0.0
bieber 0.0
remixes 0.0
toronto 0.0
capitolrecords 0.0
shazam 0.0
anthem 0.000190677731496
cosmopolitan 0.0
khloekardashian 0.0
cookin 0.0
songwriters 0.0
reveal 7.61666281685e-05
stands 3.62550663566e-05
spotify 0.0
phvegas 0.0
rocked 0.0
glasses 0.0
iambeckyg 0.0
relive 7.18798098605e-05
acoustic 0.0
announce 0.0
although 0.0
isaacfromct 0.0
shampoo 0.0
interactive 0.0
todayshow 0.0
haters 0.0
appreciation 0.0
floating 0.0
shondarhimes 0.0
showtime 0.0
premiere 0.0
broadway 0.0
makeup 0.0
starring 0.0
newest 0.0
designed 4.0290894801e-05
arianagrande 0.0
aladdin 0.0
swaggy 0.0
owning 0.0
producer 4.73495671171e-05
legendary 0.000125364226512
jasmine 0.0
costumes 0.0
square 7.06733980494e-05
emojis 0.0
jessica 0.0
magical 0.0
thedoctorluke 0.0
thirsty 0.0
therealjuicyj 0.0
symbols 0.0
privilege 0.0
spiral 0.0
retrograde 0.0
footage 0.000170811446881
theirs 7.63088623394e-05
universes 0.0
remembering 0.0
floated 0.0
construction 0.0
consciousness 0.0
delights 0.0
explodes 8.16475930239e-05
submissions 0.0
pleased 0.000215524790527
shredding 0.0
filters 0.0
weasel 0.0
reflective 0.0
firework 0.0
islands 0.0
interstellar 0.0
bubble 4.93304233715e-05
customs 0.000135490355629
festive 6.51030467914e-05
window 0.0
senator 0.0
slightly 0.000450680478956
therealbuzz 0.0
printing 0.000206428066364
snowflake 0.0
applications 0.0
elephant 0.0
fifteen 0.0
editions 9.07769263473e-05
newspaper 0.000146462761596
rainbow 0.0
unlimited 0.0
sirius 0.0
matthew 0.00014955024924
affected 0.0
capturing 0.0
canyon 0.0
rivers 0.0
spoken 0.000218254600472
accidentally 0.0
bizarre 5.42208813847e-05
dolphin 0.0
successfully 5.72913357904e-05
liquid 0.0
graffiti 0.0
swallowing 0.000102201676745
messenger 0.000162123508329
heroes 3.98103515695e-05
disturbing 0.0
graduates 0.0
rewrite 0.0
describe 3.78614511951e-05
hollywood 0.0
equality 0.0
announcement 3.34980674164e-05
breakout 0.0
dreaming 0.0
animation 0.0
calendar 0.0
circling 0.0
garden 0.0
enhanced 0.0
journalists 0.0006073778685
stirring 0.0
nominations 0.0
yelling 0.0
teachers 0.0
chapter 0.000261080123438
napoleon 0.0
aliens 0.0
subjects 0.0
revolution 0.0
mountains 0.0
wonderland 0.0
storage 0.0
crystals 0.0
circuit 0.0
invitation 0.0
kettle 0.0
adjective 0.0
woodpecker 0.0
operate 0.0
exhibition 0.0
learnt 0.0
nomination 4.75090094008e-05
madonna 0.0
questioning 0.0
unplug 0.0
initiatives 0.0
switzerland 0.0
represents 0.0
throat 0.0
touchdown 0.0
desire 0.000108441762769
forced 8.00990318542e-05
swedish 0.0
hundred 5.50618811601e-05
prompts 0.0
rainbows 0.0
creates 0.0
oxford 0.000234906697491
balloons 0.0
liverpool 6.24193237578e-05
recreate 0.0
glorious 0.0
newton 0.0
creature 0.0
finalist 0.0
scouts 0.0
treading 0.0
tragedy 4.28362059094e-05
nottingham 0.0
debacle 0.0
legends 0.0
noises 7.99281524299e-05
addiction 0.0
survived 0.0
idioms 0.0
greeted 7.93793167451e-05
basics 0.0
masses 0.0
confirm 0.000169752809073
cadence 0.0
spaghetti 0.0
prepare 3.8646375544e-05
calendars 0.0
narrative 0.0
application 0.0
octopus 0.0
drumming 0.0
bloody 0.000396019958683
confetti 0.0
translate 0.0
birmingham 0.0
singles 7.06856133368e-05
completes 0.0
laptop 0.000116963791494
obvious 0.000176834245183
darling 6.21374968819e-05
deserving 0.0
miller 4.71910940933e-05
ordered 3.84196894884e-05
feelin 0.0
alicia 0.0
picasso 0.0
recipe 5.44286014648e-05
alphabetical 0.0
butterfly 0.0
timothy 0.000166977006934
mancini 0.0
untold 8.91470999086e-05
directed 0.0
hacked 0.0
admits 0.000114582671581
clocks 0.0
nugget 0.0
cnnopinion 0.0
grabbed 0.0
russia 0.000405345295849
surprises 0.0
waterfalls 0.0
olympic 0.0
magnificent 0.000109275979994
casual 0.0
assume 0.000299853441366
relief 8.67530197078e-05
subscribe 5.12887229645e-05
landslide 7.06856133368e-05
telegraph 0.000246331288325
standby 0.0
admitting 0.000141371226674
complacency 0.0
voices 0.0
sounding 5.84818957468e-05
douglas 0.000407675759151
democracy 0.000366452706271
locals 0.0
gossip 0.000138347918101
nickname 0.0
subtle 0.00012371736851
embarrassed 0.0
ireland 0.000185651460775
mornings 0.0
democratic 0.000159619217468
impressions 0.000151661047117
outgoing 0.0
treasury 6.73998915466e-05
refugees 0.000103698724935
unveiling 0.0
listing 0.0
deliver 0.000124216926772
negotiating 0.000124838647516
roller 0.0
prosperous 0.0
desperate 4.96757096397e-05
acknowledgement 0.0
executive 4.35133539063e-05
republicans 5.32064058228e-05
weapons 0.000101843103307
dropping 7.89113389413e-05
meaningful 5.68299302562e-05
nightmare 0.0
goodies 0.0
scandalous 0.0
rhetoric 0.0
divisive 0.0
vision 0.000231878253264
confirmation 0.000107620683371
throne 0.0
records 0.0
quoting 6.24193237578e-05
impatient 0.0
refugee 0.000103698724935
texted 0.000149798796863
exposed 0.0
stoked 0.0
priority 0.0
freedoms 7.18798098605e-05
notorious 0.0
empowering 0.0
unconstitutional 0.0
turkish 0.000706856133368
concerned 0.0
realdonaldtrump 0.000318560596717
goodwill 0.0
imagined 0.0
belfast 8.10617541646e-05
sleeve 0.0
basement 0.0
preposterous 0.0
griffith 0.0
timeless 0.0
truman 0.0
intended 0.000110552879675
inappropriate 0.0
industries 0.0
responsibility 8.59404713514e-05
documentaries 8.8368871009e-05
vulnerable 0.0
respectful 0.0
markets 0.000114119224403
claire 0.0
nuggets 0.0
boards 0.0
sequins 0.0
capitol 0.0
technical 0.0
applying 0.0
guitar 0.0
donating 0.0
continually 0.0
norway 5.84818957468e-05
applause 0.0
ballot 0.00010885720293
finely 0.0
shakes 0.0
varied 0.0
proverb 0.0
vibrant 0.0
flower 0.0
survives 8.41322085703e-05
fierce 0.0
shopped 0.0
sincerely 0.0
apology 9.83189605065e-05
sweaty 0.0
conspiracies 0.0
climbing 0.0
relaxed 6.57389010491e-05
encourage 8.86997111656e-05
funnyordie 0.0
essentials 0.0
jimmykimmellive 0.0
rejectedjokes 0.0
protesting 0.0
releasing 0.0
cleaner 0.0
preferred 0.0
incarceration 0.0
jkcorden 0.0
koppel 0.0
bikini 0.0
transparency 0.0
kamalaharris 0.0
nutshell 0.0
walled 0.0
floored 0.0
plotting 0.000164493801233
gandhi 0.0
vilify 0.0
meditate 0.0
violent 0.0
preschool 0.0
rhythm 0.0
matching 0.0
senwarren 0.0
venezuela 0.0
candle 0.0
donates 0.0
peacefully 0.000172329134222
chelseahandler 0.0
experiencing 0.0
sarabareilles 0.0
haunting 0.0
constitution 0.0
explode 6.91739590503e-05
deeper 0.0
empathy 0.0
mrgaryhuang 0.0
scored 0.000211245669906
charitable 0.0
perfume 0.0
giraffe 0.0
noticing 7.31313493351e-05
noodle 0.0
wrongly 0.0
marshmallow 0.0
fraudulent 0.0
everytime 0.0
helluva 0.0
therapists 0.0
tangible 0.0
sarahksilverman 0.0
johnfugelsang 0.0
exceptional 0.0
miracle 0.0
avocado 0.0
snacks 0.0
spelled 0.0
parental 0.0
superbowl 0.0
shoulders 6.77451778147e-05
valentine 0.0
glitter 0.0
stocking 0.0
poehler 0.0
thumbs 0.000109275979994
tinatbh 0.0
educational 0.0
voicemail 0.0
thetweetofgod 0.0
esteem 0.0
teaches 0.0
goodbye 4.102873836e-05
reminding 0.000172575412937
supplies 0.0
ryanseacrest 0.0
okmagazine 0.0
shoots 0.0
bowing 0.0
jennyslate 0.0
craigyferg 0.0
masterpiece 5.82393941644e-05
sneaky 0.0
nashville 0.0
chronicles 0.0
potato 0.0
freakin 0.0
perezhilton 0.0
unethical 0.0
paparazzi 0.0
mantra 0.0
consuming 0.0
unauthorized 0.0
vanityfair 0.0
stalking 0.0
shoulda 0.0
yeppers 0.0
sacred 0.0
existed 0.0
earned 0.0
woulda 0.0
ellenpage 0.0
choker 0.0
contribute 0.0
mustache 0.0
washes 0.0
creeps 0.0
champion 4.15324976518e-05
auntie 0.0
magazines 0.0
waited 0.0
conscious 0.0
cracker 8.22469006163e-05
denmark 0.0
potion 0.0
windex 0.0
scarfing 0.0
ladygaga 6.67227435497e-05
purposely 0.0
pretending 0.000160218501599
luckiest 0.0
mascara 0.0
tastes 0.0
gardening 8.8368871009e-05
leashes 0.0
hippie 0.0
womensmarch 0.0
reunited 0.0
clique 9.34302721405e-05
premiering 0.0
rollingstone 0.0
childrensla 0.0
dollywood 0.0
godmother 0.0
eltonofficial 0.0
vmagazine 0.0
donorschoose 0.0
yesssssss 0.0
bettemidler 0.0
rehearsing 0.0
trevorproject 0.0
unicef 0.0
ellemagazine 0.0
yasssss 0.0
acceptance 0.0
solidarity 0.0
pharrell 0.0
greece 0.0
papermagazine 0.0
johnmayer 0.0
lipstick 0.0
tumblr 0.0
coldplay 8.22469006163e-05
colorful 0.0
translifeline 0.0
newsstands 0.0
feminist 0.0
pitchfork 0.0
labels 0.000132125480791
jenner 0.0
arkansas 0.0
beanie 0.0
sparkly 0.0
moschino 0.0
britneyspears 0.0
itsjeremyscott 0.0
nickiminaj 0.0
appstore 0.0
poetry 0.0
puttin 0.0
rubbed 9.9717061199e-05
shrine 9.63846072801e-05
skyferreira 0.0
freaking 0.0
besties 0.0
chanel 0.0
bedazzled 0.0
rubber 6.60627403953e-05
kendricklamar 0.0
popstar 0.0
sosadtoday 0.0
copenhagen 0.0
lenadunham 0.0
wearin 0.0
stoned 0.0
facetime 8.10617541646e-05
barclays 0.0
meditation 0.0
harpersbazaarus 0.0
stared 0.0
ritual 0.0
iconapop 0.0
doubted 8.76132026753e-05
staples 0.0
anaheim 0.0
jingle 0.0
tacoma 0.0
rehearsals 0.0
treadmill 0.0
metamorphosis 0.0
dental 0.0
jodyhighroller 0.0
versace 0.0
werking 0.0
couture 0.0
eggplant 0.0
bangin 0.0
cardigans 0.0
obnoxious 0.0
bestie 8.04887919329e-05
teganandsara 0.0
barrel 0.0
dedicating 0.0
jefferson 0.0
pumpkin 0.0
derekblasberg 0.0
glamourmag 0.0
presale 0.0
mtvstyle 0.0
deluxe 0.0
mtvema 0.0
reggae 0.0
azealiabanks 0.0
nominating 0.0
sailor 0.0
mornin 0.0
itunesmusic 0.0
bananas 6.47908426751e-05
lordemusic 0.0
vietnam 0.0
milwaukee 0.0
neworleans 0.0
circus 0.0
strolling 0.0
rapids 0.0
collegegameday 0.0
aaaaand 0.0
godfather 0.0
bestow 0.0
allison 0.0
rockthevote 0.0
birbigs 0.0
lucille 0.0
louder 0.0
farmers 0.0
shaved 7.729270484e-05
niagara 0.0
realmattlucas 0.0
ferguson 0.0
painful 0.000102577445929
exchange 0.000146968952336
nickkroll 0.0
edmonton 0.0
mickey 0.0
angelenos 0.0
pooping 0.0
located 0.0
onslaught 0.0
finalists 0.0
bumped 0.0
sherlock 0.0
stockholm 0.0
casually 0.0
jjwatt 0.0
itstonybennett 0.0
mariolopezextra 0.0
klgandhoda 0.0
entrance 0.0
calgary 0.0
bowling 6.32835597698e-05
winnipeg 0.0
cheeto 0.0
gloriasteinem 0.0
feather 0.0
nathan 0.0
smelling 0.0
narnia 0.0
llamas 0.0
actuallynph 0.0
mourning 0.0
obsession 0.0
chilled 0.0
medically 0.0
hyperloop 0.0
aussie 0.0
flaring 0.0
eyeballs 0.0
stuffing 0.0
pitched 0.0
condiments 0.0
relatable 0.0
olivia 0.0
painted 0.0
mykonos 0.0
eyebrow 0.0
capitalcities 0.0
jackpot 0.0
hipster 0.0
sweating 0.0
restaurants 0.0
superfan 0.0
restraint 0.0
craziest 0.0
catheter 0.0
delivers 0.000169129648723
kanyewest 0.0
paints 9.43783305145e-05
dissect 0.0
billboards 0.0
milano 0.0
bjnovak 0.0
snapping 0.0
croissant 0.0
repjohnlewis 0.0
blklivesmatter 0.0
mydaughtersarmy 0.0
huddled 0.0
yearning 0.0
thereaibanksy 0.0
affordable 0.0
foodie 0.0
colombia 0.0
peeled 0.0
shootings 0.0
playground 0.0
breaky 0.0
photoshoot 0.0
smokin 0.0
accents 0.0
sweats 0.0
postmates 0.0
armband 0.0
unconscious 0.0
maddow 0.0
aquarium 0.0
holler 0.0
photoshop 0.0
robbie 0.0
espnmag 0.0
laundry 0.0
examining 0.0
zealand 0.0
stuntin 0.0
hehehe 0.0
nostalgia 0.0
buttons 0.0
slaying 0.0
monument 0.0
bringin 0.0
lining 6.41774324412e-05
muchas 0.0
gracias 0.0
madame 0.0
illustrated 0.0
boxers 0.0
grazie 0.0
winters 0.0
plastic 0.0
unbreakable 0.0
licking 0.0
cheeky 0.0
twerking 0.0
danish 0.0
drummer 0.0
florence 0.0
revoir 0.000106438339184
resume 0.0
dodger 0.0
brazilians 0.0
grimezsz 0.0
crocodile 0.0
hahahahahaha 0.0
parisians 0.0
taipei 0.0
taiwan 8.16475930239e-05
bangkok 0.0
uploaded 0.0
manila 0.0
hamburg 0.0
curating 0.0
aaaand 0.0
skating 0.0
brisbane 0.0
googleplay 0.0
raincoat 0.0
glastofest 0.0
vienna 0.0
burning 4.59568407582e-05
jamming 0.0
reaches 6.21374968819e-05
subtitles 0.0
wristband 0.0
barcelona 0.0
credits 6.05076704432e-05
dreamers 0.0
bogota 0.0
bursting 0.0
brunomars 0.0
beyoncé 0.0
subscribers 0.0
unlock 0.0
onedirection 0.0
amazonmusic 0.0
snippets 0.0
preorder 0.0
rehearse 0.0
bahnhof 0.0
delorean 0.0
fragrance 0.0
curate 0.0
samsmithworld 0.0
guitars 0.0
storyline 0.0
registering 0.0
beatsbydre 0.0
panama 0.0
celestial 0.0
orchestra 0.0
finland 0.0
climbed 0.0
topping 0.0
méxico 0.0
vasconcelos 0.0
leicester 0.0
itunesfestival 0.0
pondering 0.0
millennials 0.0
struck 0.000105622834953
watermelon 0.0
benefited 0.0
sophisticated 0.0
couples 0.0
villain 0.0
mindful 0.0
catholic 0.0
airline 0.0
secretly 0.0
playlists 0.0
veggie 0.0
receipts 9.34302721405e-05
foremost 0.0
bagpipe 0.0
drifting 0.0
trader 0.0
influenced 6.70591189539e-05
moscow 0.0
cobain 0.0
reaper 0.0
commune 0.0
handshake 0.0
despair 6.70591189539e-05
silicon 0.0
investing 0.0
construct 0.0
garland 0.0
coachella 0.0
offline 0.0
realisation 0.0
payback 0.0
educate 5.97294415436e-05
alliances 0.0
etched 0.0
momentarily 0.0
pronoun 0.0
lenses 0.0
validated 0.0
authenticity 0.0
choreographed 0.0
pokemon 0.0
disneyworld 0.0
patriotic 0.0
embody 0.0
snickers 0.0
impactful 0.0
refocus 0.0
eminem 0.0
mahatma 0.0
ecstatic 0.0
snfonnbc 0.0
avenue 0.0
picchu 0.0
doubters 0.0
beverly 0.0
intensity 0.0
outtake 0.0
temple 0.0
purchased 0.0
fountain 0.0
punched 0.0
goldfish 0.0
comparable 0.0
buyers 0.0
barbara 0.0
corybooker 0.0
listens 0.0
timeout 0.0
inducing 0.0
signage 0.0
penthouse 0.0
ahahaha 0.0
phenom 0.0
brilliantly 0.000268236475815
siphoning 0.0
herstory 0.0
prostitute 0.0
survivors 0.0
courageous 0.0
cruelty 0.0
margot 0.0
xenophobic 0.0
mcginley 0.0
yorkshire 8.34885034671e-05
chants 0.0
alancarr 0.0
chained 0.0
skillz 0.0
debunked 0.0
floods 0.0
fleetwood 0.0
cheesecake 0.0
adidas 0.0
uneven 0.0
raging 0.0
connections 0.0
headlining 0.0
devhynes 0.0
charli_xcx 0.0
shawnmendes 0.0
tavitulle 0.0
bahjournalist 0.0
tyleroakley 0.0
marquee 0.0
grease 0.0
screenshots 0.0
ddlovato 0.0
chattyman 0.0
grimmers 0.0
vevo_uk 0.0
bonniemckee 0.0
electrifying 0.0
idolator 0.0
onairromeo 0.0
godven 0.0
lookie 0.0
preordered 0.0
elvisduran 0.0
shanghai 0.0
tripped 0.0
konnichiwa 0.0
etnad_olegnad 0.0
unannounced 0.0
swedes 0.0
cinderella 0.0
slipper 0.0
jessesaintjohn 0.0
adorbs 0.0
onesies 0.0
jahnsuxx 0.0
walgreens 0.0
aphrodite 0.0
danceonfox 0.0
difficulties 0.0
mermaids 0.0
antique 0.0
girlshbo 0.0
yaaaaasss 0.0
lifesaving 0.0
queens 0.0
yaaaas 0.0
rollin 0.0
bestest 0.0
cleanse 0.0
iamtovelo 0.0
glamour 0.0
emelisande 0.0
lashes 0.0
austrian 9.85582601079e-05
magritte 0.0
misogynoir 0.0
litter 0.0
spiritual 0.0
preaching 0.0
adelaide 0.0
sheffield 8.47922117247e-05
impending 0.0
starve 0.0
excess 0.0
conciousness 0.0
vitamins 0.0
generator 0.0
purposefully 0.000108018746211
profiles 7.10776317336e-05
petals 0.0
persist 0.0
alexis 0.0
covergirl 0.0
sneezed 0.0
cushion 0.0
demconvention 0.0
directv 0.0
flo_tweet 0.0
billclinton 0.0
grounded 0.000151661047117
sunrise 0.0
fightin 0.0
sagekotsenburg 0.0
pwease 0.0
sadder 0.0
waterfall 0.0
sighting 0.0
firsts 0.0
muller 0.0
burritos 0.0
bungee 0.0
potting 0.0
dipping 0.0
closets 0.0
scratched 0.0
decorating 0.0
summers 8.68788236298e-05
havana 0.000102201676745
fresher 0.0
mowing 0.0
invading 8.99492780355e-05
addict 0.0
aesthetics 0.0
footwear 0.0
protector 0.0
hammock 0.0
repurpose 0.0
mishap 0.0
hamster 0.0
cellar 0.0
groove 0.0
mentored 0.0
exaggerate 0.0
scraping 0.0
apropos 9.63846072801e-05
trolled 0.0
jonlovett 0.0
rheabutcher 0.0
sickening 0.0
flustered 0.0
compiled 0.0
shirley 0.0
subtweet 0.0
pantsuit 0.0
patting 0.0
atrocious 0.0
amoeba 0.0
platter 0.0
aficionado 0.0
bearer 0.0
manifest 0.0
transformation 0.0
thighs 9.25154859243e-05
tapper 0.0
foaming 0.0
sophie 0.0
sabbath 0.0
vibrations 0.0
nutella 0.0
wilder 7.99281524299e-05
distractions 0.0
stripping 0.0
downloading 0.0
judith 0.0
crossroads 0.0
parsons 0.0
stella 0.0
narcissism 0.0
fawcett 0.0
trainers 0.0
surrounding 0.0
longtime 0.0
frosting 0.0
laurent 0.0
savory 0.0
acupuncture 0.0
cancelling 8.91470999086e-05
nutcracker 0.0
ballet 0.0
tempura 0.0
burner 0.0
voguemagazine 0.0
lagged 0.0
cuttlefish 0.0
passwords 0.0
funfetti 0.0
anagasteyer 0.0
gabbana 0.0
budapest 0.0
montage 7.88417980704e-05
crowns 0.0
scheduling 0.0
possessed 0.0
syncing 0.0
creatively 0.0
hieroglyphics 0.0
halftimes 0.0
floppy 0.0
nessie 0.0
feathers 0.0
kaceymusgraves 0.0
roaring 0.0
rightful 0.000103538827897
balconies 0.0
prodigy 0.0
raquin 0.0
gianni 0.0
monsieuradi 0.0
drowned 0.0
tropicana 0.0
diesel 8.41322085703e-05
shabbat 0.0
voiceless 0.0
passover 0.0
elevating 0.0
traumatic 0.0
dreamer 0.0
iwillharness 0.0
classrooms 0.0
eligibility 0.0
counselors 0.0
wainwright 0.0
moveon 0.0
runaway 0.0
baghdad 9.34302721405e-05
zaralarsson 0.0
snooze 0.0
iggyazalea 0.0
harviikills 0.0
bolognese 0.0
babysitting 0.0
mohegan 0.0
hooters 0.0
crusts 0.0
tracksuit 0.0
cupcake 0.0
xfactor 0.0
vitamin 0.0
lichtenstein 0.0
concourse 0.0
hitchcock 0.0
teller 0.0
pastels 0.0
remnants 0.0
banger 0.0
lyrically 0.0
boogers 0.0
ritaora 0.0
bumpin 0.0
dabbed 0.0
sleepin 0.0
tinashe 0.0
octaviaspencer 0.0
linder 0.0
musicallyapp 0.0
scavenger 0.0
sanging 0.0
corinthians 0.0
hollywoodbowl 0.0
kraken 0.0
discontinue 0.0
cypress 0.0
schooling 0.0
maritime 0.0
narration 0.0
zeitgeist 0.0
sampler 0.0
pseudo 0.0
bangladesh 9.53621730151e-05
hungary 0.0
mumble 0.0
sisterhood 0.0
soulful 0.0
lennykravitz 0.0
londontown 0.0
andradaymusic 0.0
lipsticks 0.0
realization 0.0
unconditionally 0.0
wildfire 0.0
goldie 0.0
minnie 0.0
solitude 0.0
waddle 0.0
westworldhbo 0.0
statuesque 0.0
uncasville 0.0
demented 0.000216037492421
skyway 0.0
twentyonepilots 0.0
rejoicing 0.0
clenching 0.0
adelphia 0.0
entirety 0.0
redhourben 0.0
lakewood 0.0
drjillstein 0.0
entail 0.0
whammy 0.0
smokers 0.0
gobble 0.0
topshop 0.0
cleowade 0.0
mkives 0.0
sweetbabayjamie 0.0
marchesafashion 0.0
hamsters 0.0
gurrrl 0.0
sofifii 0.0
sumthin 0.0
nicomiz 0.0
maisonvalentino 0.0
coziest 0.0
accessorize 0.0
thejgold 0.0
peruvian 0.0
amazeballs 0.0
sendin 0.0
fantabulous 0.0
timelines 0.0
regina 0.0
slovakia 0.0
graves 0.0
embracing 0.0
larsson 0.0
cullen 0.0
psychiatric 0.0
officialadele 0.0
butters 0.0
verrrry 0.0
buttered 0.0
winged 0.0
pedialyte 0.0
topanga 0.0
armpit 0.0
kittens 0.0
dueling 0.0
eagerly 0.0
surrealist 0.0
dethroned 0.0
manolos 0.0
señorita 0.0
monterrey 0.0
parque 0.0
retiree 0.0
batches 0.0
reservations 0.0
sickos 0.0
aplusk 0.0
kirkherbstreit 0.0
fanbases 0.0
indexing 0.0
chuckles 0.0
incorporated 0.0
washboard 0.0
earbuds 0.0
pantone 0.0
knotts 0.0
dismaland 0.0
pollock 0.0
iamkidpresident 0.0
mariah 0.0
teevee 0.0
santorini 0.0
appalachian 0.0
sunburnt 0.0
caliente 0.0
juicery 0.0
karlihenriquez 0.0
trillest 0.0
tommorrow 0.0
crumpets 0.0
fishin 0.0
grillin 0.0
jambalaya 0.0
pepperoni 0.0
cashew 0.0
graceland 0.0
pussies 0.0
delicately 0.0
eraser 0.0
choreo 0.0
snatched 0.0
elliptical 0.0
mooore 0.0
unborn 0.0
georgina 0.0
stalkers 0.0
sallykohn 0.0
expectancy 0.0
phillipines 0.0
appstoregames 0.0
wilkinson 0.0
puddings 0.0
loveland 0.0
spaced 0.0
shanny 0.0
dripping 0.0
gerber 0.0
shakey 0.0
weaves 0.0
unbeatable 0.0
linguist 0.0
prosthetics 0.0
battleship 0.0
serotonin 0.0
machiavellian 0.0
girlies 0.0
guangzhou 0.0
debuting 0.0
dissecting 0.0
warped 0.0
luckyjess 0.0
ermahgerd 0.0
fabulousness 0.0
elliegoulding 0.0
activewear 0.0
yelyahwilliams 0.0
prismatic 0.0
evaluations 0.0
skywalk 0.0
sparklers 0.0
palettes 0.0
gemmaanningram 0.0
trueeee 0.0
invisalign 0.0
pounded 0.0
lolgop 0.0
procession 0.0
stanning 0.0
squeals 0.0
continual 0.0
luminary 0.0
cummin 0.0
shaves 0.0
epixhd 0.0
preacher 0.000103538827897
boogiecousins 0.0
changers 0.0
autismspeaks 0.0
massaged 0.000144157682561
psssssst 0.0
literati 0.0
utilization 0.0
endangerment 0.0
purposeful 0.0
unlabeled 0.0
undiagnosed 0.0
snotty 0.0
gallops 0.0
slovenia 0.0
sequin 0.0
akerlund 0.0
jumbotron 0.0
edibles 0.0
knowles 0.0
caeser 0.0
thehollywoodbowl 0.0
elvispresley 0.0
adoring 0.0
ageist 0.0
thérèse 0.0
confessed 0.0
blackvoices 0.0
patties 0.0
graphically 0.0
wildflowers 0.0
groundhogs 0.0
eataly 0.0
poodles 0.0
hillaryforia 0.0
roadshow 0.0
sweety 0.0
boppin 0.0
bettywho 0.0
johnnywujek 0.0
earring 0.0
itsbennyblanco 0.0
curitiba 0.0
purrfect 0.0
shellback 0.0
chokers 0.0
hairbrush 0.0
hakuna 0.0
matata 0.0
hazing 0.0
mathew 0.0
aegean 0.0
lullaby 0.0
musiciansoncall 0.0
headpiece 0.0
morsel 0.0
whistled 0.0
conquest 0.0
viceland 0.0
lambily 0.0
scalped 0.0
graced 0.0
emblazoned 0.0
hrclosangeles 0.0
kawaii 0.0
glittery 0.0
wonderlandmag 0.0
jumpsmokers 0.0
radiodotcom 0.0
missyfranklin 0.0
pleaaaaase 0.0
lilbthebasedgod 0.0
waaaay 0.0
flossy 0.0
aria_official 0.0
berliners 0.0
matriarchy 0.0
cornered 0.0
limping 0.0
peasant 0.0
feasibly 0.0
waaaaay 0.0
slayyy 0.0
fashionistas 0.0
sangin 0.0
worldstarfunny 0.0
pliers 0.0
babyanimalpics 0.0
mediation 0.0
quests 0.0
aaaaaaah 0.0
honked 0.0
rauschenberg 0.0
whitneymuseum 0.0
lonsdale 0.0
transcendental 0.0
roarin 0.0
facetune 0.0
fausto 0.0
herning 0.0
cazzette 0.0
annnnnnnnnd 0.0
shinier 0.0
giambattista 0.0
katys_teddybear 0.0
gnight 0.0
katheryn 0.0
psychoanalysis 0.0
bckgrnd 0.0
kingman 0.000151657189445
gracevanderwaal 0.0
fecking 0.0
ihrcountdown 0.0
stubbies 0.0
xfactor_italia 0.0
aaronpauley 0.0
purity_ring 0.0
scorpios 0.0
ayyyye 0.0
capitalizes 0.0
flamin 0.0
motherfucking 0.0
jingled 0.0
pharrellhat 0.0
ontarioglow 0.0
teached 0.0
umusic 0.0
auroramusic 0.0
dailymendeslife 0.0
soloing 0.0
universalse 0.0
dustinkloeppel 0.0
robynkonichiwa 0.0
charli 0.0
lonelydot 0.0
adamselman 0.0
sorrenti 0.0
offish 0.0
vinoodh 0.0
guitarists 0.0
cocking 0.0
cabbages 0.0
amelia_libman 0.0
flutter 0.0
lolita 0.0
kingladygaga 0.0
breakthecycledv 0.0
howbow 0.0
curveballs 0.0
tamagotchi 0.0
jarryd 0.0
alliseeisgold 0.0
thebroadmuseum 0.0
sarahsowitty 0.0
brillz 0.0
jackgarratt 0.0
markryden 0.0
duffscakemix 0.0
sanrio 0.0
theniceguyla 0.0
trills 0.0
susangkomen 0.0
faustopuglisi 0.0
gurlll 0.0
cheesecakes 0.0
scorpio 0.0
oblivia 0.0
skipmarley 0.0
correcto 0.0
jessirklein 0.0
unpatr 0.0
squish 0.0
greg_wells 0.0
onlyleah 0.0
gittin 0.0
popstars 0.0
krafts 0.0
bouche 0.0
problemo 0.0
wheezing 0.0
patmcgrathreal 0.0
cienega 0.0
thundering 0.0
nastialiukin 0.0
janell 0.0
katelyntarver 0.0
miamoretti 0.0
missoni 0.0
dannymoonsworld 0.0
mrchrismcmillan 0.0
madge_freak 0.0
woridstarcomedy 0.0
ikissedasoldier 0.0
kpezandchez 0.0
perrysoldier 0.0
emilynotchez 0.0
iickmekaty 0.0
basicallyadam 0.0
katysangelegg 0.0
nicolasjebran 0.0
xchadballx 0.0
scott_myrick 0.0
lockoir 0.0
shannonwoodward 0.0
calluses 0.0
chamomile 0.0
trollin 0.0
sleighing 0.0
chestercheetah 0.0
royksopp 0.0
scottsimonswvla 0.0
sirenscaiiing 0.0
slowdownkaty 0.0
chefantoniopark 0.0
garnished 0.0
endive 0.0
mdmolinari 0.0
prezzy 0.0
motioning 0.0
hernameisbanks 0.0
rockcampla 0.0
jenniefinch 0.0
getglucky 0.0
stendhal 0.0
ryanphillippe 0.0
hotncolds 0.0
kpcollections 0.0
katie_wignall 0.0
katysdrugx 0.0
evrenperry 0.0
katycatwendy 0.0
yungskeeter 0.0
sarahhudsonuvs 0.0
mothern 0.0
oliverheldens 0.0
marrymemargot 0.0
katyperrylately 0.0
kewlest 0.0
katyshellokitty 0.0
pqgerry 0.0
rasarioatelier 0.0
anakhouri 0.0
romaneperry 0.0
hot_chip 0.0
agador 0.0
freddietinkles 0.0
cynthialovely 0.0
augustgettyatelier 0.0
tbsnetworks 0.0
ronyalwin 0.0
justinandersoncolor 0.0
mmillerrider 0.0
jpgaultier 0.0
harharharhar 0.0
iikeanangel 0.0
vonnypoo 0.0
jcoopkp 0.0
itzmero 0.0
katysprismlight 0.0
hatérs 0.0
awkwardaya 0.0
katysredskittle 0.0
tiedye_princess 0.0
adelshahal 0.0
marinadiamandis 0.0
samadizayee 0.0
itsslatykaty 0.0
johnlordperry 0.0
nuggetperry 0.0
kthnkzbye 0.0
teamkpbrasil 0.0
twenagedream 0.0
ashleyegreer 0.0
perryllover 0.0
perry_slays 0.0
_andresgalvis 0.0
poplitics 0.0
likerotica 0.0
sweetxjaureguix 0.0
jessiambriz 0.0
perryncolds 0.0
pwideawake 0.0
brunastrait_ 0.0
anafalqueto 0.0
pessoalmente 0.0
mark_hodson_ 0.0
sumtxkid 0.0
arpoador 0.0
katysmychampion 0.0
amnattg 0.0
osullivanluke 0.0
stephiruth 0.0
katy_pizza_bae 0.0
kpcatt 0.0
pedroeugeniio 0.0
gugs_prismatic 0.0
zeeusmtz 0.0
legendarycold 0.0
robynxkatheryn 0.0
écouter 0.0
energyberlin 0.0
karysjones 0.0
lilzariya 0.0
puroland 0.0
pavlovitz 0.0
dreamhampton 0.0
prismsperry 0.0
perrysmic 0.0
focusonreid 0.0
tonyatalterian 0.0
makeup_man 0.0
wtfkates 0.0
sella_sandra 0.0
katycute_ 0.0
caitsperry 0.0
katyperryforum 0.0
radiantjareau 0.0
lillysgomez 0.0
katycatsweden 0.0
perryicecream 0.0
xamyrosex 0.0
wtvrlara 0.0
bijanstephen 0.0
ameliashowalter 0.0
screamkng 0.0
tvmcgee 0.0
liiife 0.0
itskatcombs 0.0
yaaaaaasssssssssss 0.0
katysmyhabibi 0.0
skottpeace 0.0
ferras 0.0
kweens 0.0
habibi 0.0
orlandobloom 0.0
huckchinn 0.0
katycatkenzie 0.0
matarazzo 0.0
fkatwigor 0.0
perryschild 0.0
hotxcolds 0.0
maddisonxperry 0.0
akaruikaty 0.0
chillinlaidback 0.0
erryone 0.0
chrisanokute 0.0
beyelite 0.0
kuntyewest 0.0
chiroprac 0.0
katyperryrises 0.0
godneybjs 0.0
liquoronurlips 0.0
katystumblrr 0.0
holiestkaty 0.0
hollykittykaty 0.0
katysprincess 0.0
katysdonut 0.0
carlythekatycat 0.0
katycatsophia 0.0
fridaaperry 0.0
iegendarylovers 0.0
katycatveronica 0.0
katyperryslave 0.0
hakimkharbouch 0.0
keonovak 0.0
plaaaaay 0.0
scatting 0.0
shotted 0.0
dizzycoco 0.0
fkinsnapss 0.0
junkygs 0.0
ミニチュア料理 0.0
エビフライとエビ天 0.0
adidasboosts 0.0
lilithia 0.0
cottoncandizzle 0.0
ultimatebeyhive 0.0
paramorewebnews 0.0
royale_lala 0.0
musicnews_feed 0.0
katyperryextra 0.0
greeniight 0.0
gagas_illusion 0.0
lesbiyonce 0.0
blurryhface 0.0
lordofgiraffex 0.0
ifuseekamy_ 0.0
legendarymalek 0.0
hausoframez 0.0
unstan 0.0
chioekardashian 0.0
theiife 0.0
handstomyseif 0.0
legendarylovers 0.0
gagas_fandom 0.0
thinagedream 0.0
conditionalbabe 0.0
dannysuschrist 0.0
prismdluxe 0.0
herwonkeye 0.0
camilasviews 0.0
gagalovesbey 0.0
shadykatyfacts 0.0
limalimoncia 0.0
heavymetaiovers 0.0
katyscrush 0.0
waikingonair 0.0
eduardo_katycat 0.0
katyswetdream 0.0
katherynsgod 0.0
katystddbr 0.0
katyboobies 0.0
royaityler 0.0
nothingfaiis 0.0
kathrynluck_ 0.0
prismaticiights 0.0
mendesperry 0.0
katycatghita 0.0
mark_katycat 0.0
iwasdivine 0.0
skywaterr 0.0
xjojospearsx 0.0
alwaysbeperry 0.0
skoglyrihanna 0.0
legendarydurk 0.0
halseysfirework 0.0
rainbowspatrick 0.0
katysfood 0.0
honeymoonprism 0.0
onepulsetony 0.0
butcha 0.0
okurrr 0.0
the_mpt 0.0
talaofficial 0.0
miniatures 0.0
ohmyjurassic 0.0
katysmoonlight 0.0
lilly_jnes 0.0
coco_ho 0.0
perryhumorr 0.0
yikesjonathan 0.0
rubyrankin 0.0
thealekovski 0.0
cydney_moore 0.0
truebluedeluxe 0.0
thedutchass 0.0
katyskettle 0.0
ferraseu 0.0
katyssunlight 0.0
typosqween 0.0
adoreeeperry 0.0
katyperryfrance 0.0
snowiner 0.0
_coolkatycat 0.0
nicothekatycat 0.0
adorbies 0.0
jackygerardchan 0.0
brewmystew 0.0
katyswildfire 0.0
rihftperry 0.0
theolagu 0.0
ritajoness 0.0
iitsjackie 0.0
mjjperry 0.0
jesuskylie 0.0
holyerotica 0.0
graceofkaty 0.0
redsvelvets 0.0
booyakasha 0.0
tariqterry 0.0
katycatalannah 0.0
taylxre 0.0
pacifyher 0.0
basedkatyperry 0.0
diddleurskittle 0.0
katysanalien 0.0
gagasspace 0.0
tayiorhq 0.0
givenchydress 0.0
augustryder 0.0
perrysmoschino 0.0
kittehn 0.0
katrieber 0.0
legendaryhunty 0.0
katyslegs 0.0
katyfroot 0.0
winesandlines 0.0
sam_incolour 0.0
wakingonair 0.0
drwssinup 0.0
huffdaddysays 0.0
fiwwwwine 0.0
matthewroper 0.0
emmabruhhh 0.0
gingerwesson 0.0
nicholas_sewell 0.0
perfectlyperry 0.0
bustabusta 0.0
mynameisziam 0.0
venuzszfly 0.0
katherynsus 0.0
sacredperry 0.0
thedollsftkaty 0.0
_cafajeff 0.0
debkatycat 0.0
katycats 0.0
eastonjames_ 0.0
oliviabooker_ 0.0
protecti 0.0
outrageousness 0.0
joanneprada 0.0
scuffed 0.0
catoure 0.0
blanged 0.0
tahmorrow 0.0
glukatyperrypop 0.0
jamesjoint 0.0
pressin 0.0
bourree 0.0
honeysuckle 0.0
meowings 0.0
fashun 0.0
happun 0.0
vikander 0.0
thekatyperrypopgame 0.0
karolfabianaros 0.0
nico_thekatycat 0.0
miss_lilyjames 0.0
stylinfunk 0.0
hudsontheband 0.0
jere_my 0.0
crabitat 0.0
tiersz 0.0
unrehearsed 0.0
fanclub_kp 0.0
oneofthesophies 0.0
fusterlandia 0.0
lazyblazy 0.0
katycatchloe 0.0
figali 0.0
prismaticness 0.0
titicaca 0.0
ancientaliens_ 0.0
sneezin 0.0
cristos 0.0
mallman 0.0
prismaticlife_ 0.0
ravensuxx 0.0
perrypositive 0.0
derkwhore 0.0
alekjandro 0.0
havss_ 0.0
hqzaynmaiik 0.0
thique 0.0
bbhmms 0.0
jkatharineb 0.0
jennyformica 0.0
tiiiiiight 0.0
ikissedagay 0.0
harryvuitton 0.0
aeschleahd 0.0
princessjavonda 0.0
errrythang 0.0
kooning 0.0
sugarray 0.0
empaths 0.0
goldenboyz_inc 0.0
voguejp 0.0
chickenwingguardingthemimosa 0.0
katyperrypopup 0.0
unmeasurably 0.0
transviolet 0.0
beauteous 0.0
katyskidrauhl 0.0
thooooooseee 0.0
clairesstores 0.0
nailsbymh 0.0
katysacutie 0.0
psychokatycat 0.0
kaceymusgrave 0.0
refueled 0.0
hyungsunju 0.0
okuurrrr 0.0
cholewheeler 0.0
leftshark 0.0
momchella 0.0
crotches 0.0
hookedondolls 0.0
fyuseapp 0.0
mogonoloball 0.0
atletica 0.0
katycatsclub 0.0
catacombs 0.0
poppycorn 0.0
cupped 0.0
christiania 0.0
residenz 0.0
lindseyweber 0.0
butterballface 0.0
joshlecash 0.0
myassistant 0.0
swiftschrist 0.0
snowhiteperry 0.0
emmakphughes 0.0
katyslegend 0.0
dansnierson 0.0
scressful 0.0
prismaticwitch 0.0
finnin 0.0
habibis 0.0
mophies 0.0
strongé 0.0
drumkit 0.0
anamanaguchi 0.0
gaultier 0.0
ngvmelbourne 0.0
dukedumont 0.0
legendaryasmyn 0.0
highlarious 0.0
calpurnia 0.0
waaaaait 0.0
mktfah 0.0
fwding 0.0
caseyhoops 0.0
worldstarvlne 0.0
flapfkp 0.0
bettycrocker 0.0
mexxxico 0.0
whhhhhhhhuuuuuutttt 0.0
yelletweets 0.0
gucciqxxn 0.0
luckyladyrebelettes 0.0
junglejulia 0.0
charlottes_web 0.0
istarbucksniall 0.0
katysroaaar 0.0
fiorucci 0.0
whuteva 0.0
sirdavidd 0.0
fudgery 0.0
bizquick 0.0
itsgrandtheft 0.0
grandtheft 0.0
katysfancy 0.0
ameezyyrush 0.0
mykectown 0.0
itsvalkubus 0.0
walkslikeperry 0.0
iwantperry 0.0
exausto 0.0
selfeh 0.0
aquaberry 0.0
sidepiece 0.0
versacness 0.0
iamleslii 0.0
alocalgyro 0.0
cutina 0.0
theoutslder 0.0
prism_katy_cat 0.0
katyshoodrat 0.0
thestevetisch 0.0
ronysphotobooth 0.0
schlitterbahn 0.0
kpsnosecrinkle 0.0
alwz_katycat 0.0
whykph 0.0
californiagurls 0.0
katycattt 0.0
varicose 0.0
itsbrillz 0.0
perrystiger 0.0
katysmyaura 0.0
paolablancokp 0.0
callmemargot 0.0
indiggynado 0.0
katycat 0.0
anylinden 0.0
kpkillerqueen 0.0
katyslilacwine 0.0
katypvenezuela 0.0
franzikaty 0.0
katherynelperry 0.0
doessss 0.0
katysleftarm 0.0
datingprism 0.0
_smiler_katycat 0.0
kepyterry 0.0
katycat_camille 0.0
vckatyperry 0.0
bowzerjoe 0.0
taishrox 0.0
mütter 0.0
arianperryarian 0.0
lisasigh 0.0
fridiskp 0.0
kevinruda 0.0
katyperrydaily 0.0
wakingupvegas 0.0
marlyins 0.0
drankin 0.0
herkatycat 0.0
luvhudson 0.0
yaeltsairi 0.0
felipinhoofm_ 0.0
renanmarcall 0.0
kariseperry 0.0
emojing 0.0
konnie 0.0
mcperry 0.0
iturnmycanonon 0.0
katycatelysha 0.0
andrewnavs 0.0
katycatkrystal 0.0
lovelyandlaugh 0.0
lampoonians 0.0
perrytuuda 0.0
katymyhaven 0.0
ruletheschool 0.0
cheapandchic 0.0
sically 0.0
crazyforperry 0.0
kpdaily 0.0
getonupmovie 0.0
cutetina 0.0
chimiuzz 0.0
kefali 0.0
joelkefali 0.0
siclly 0.0
mtvother 0.0
lydiaacav 0.0
prismaticperry 0.0
jwujek 0.0
adorbie 0.0
errone 0.0
kaliyah 0.0
katysweirdness 0.0
vinbiodiesel 0.0
katysfxb 0.0
katyspurrfect_ 0.0
shannonmwoodward 0.0
bippity 0.0
boppity 0.0
swiggty 0.0
swoogity 0.0
pizzarella 0.0
firewerk 0.0
katyslayed 0.0
emerald_epelman 0.0
madkatydisease 0.0
mandee 0.0
ohferras 0.0
sarahh 0.0
iaustinhunt 0.0
lanawhore 0.0
spaceykacey 0.0
crazay 0.0
elektrikpeople 0.0
visa_nz 0.0
fvckin 0.0
nathanspicer 0.0
cashcash 0.0
ashish_uk 0.0
xokatic 0.0
turnting 0.0
scorpiomystique 0.0
toddthomasnyc 0.0
kohngallery 0.0
discnt_universe 0.0
dressinkaty 0.0
lee_cook 0.0
bloodshot 0.0
yaddlizc 0.0
elnett 0.0
itsthekatycats 0.0
kelly_moritz 0.0
katyslaykaty 0.0
skintxghtjeans 0.0
socarrer 0.0
errrday 0.0
therealslacker 0.0
wendywild 0.0
welkys 0.0
sohohouse 0.0
selfing 0.0
camiilaruales 0.0
nexxxt 0.0
turrell 0.0
alliexxxxandra 0.0
surfboardt 0.0
telstra_news 0.0
juanitadele 0.0
oopskatycat 0.0
sophkatycat 0.0
katyschild 0.0
katysconverrse 0.0
katycat_leah 0.0
katycatverified 0.0
katycat_libby 0.0
katyswonk 0.0
kittless 0.0
jlrcukp 0.0
siiiiiiiiiiiiii 0.0
ermagherd 0.0
imlynsey 0.0
perrys_cherry 0.0
casemcgase 0.0
hazzaily 0.0
herses 0.0
gaypropaganda 0.0
tixforcharity 0.0
hudsons 0.0
nomers 0.0
mommacat 0.0
superlove 0.0
bonacorso 0.0
levi_leet 0.0
thinkingofbecki 0.0
cybering 0.0
pamyurin 0.0
idreamofkaty 0.0
xfactor_au 0.0
glohudsonperry 0.0
aubreyplzza 0.0
eeshhuhhayniac 0.0
bonkay 0.0
katysbum 0.0
nevillebradley 0.0
curryswift 0.0
zinepack 0.0
katykatt_suraya 0.0
sweetkatybird 0.0
yohkatheryn 0.0
cottoncandykaty 0.0
karolynadiaz 0.0
maayansharvit 0.0
theprismcess 0.0
camisp_ 0.0
lucasgaldin 0.0
prixy_mtz 0.0
niggasperry 0.0
kaksperry 0.0
zennnnaaa 0.0
katyissmurfy 0.0
dadehoward 0.0
kyledsaavedra 0.0
katysdoritos 0.0
pendejabardera 0.0
rosenilsou 0.0
hackensucks 0.0
gottabesheerio 0.0
ismaellgarcia 0.0
milegendz 0.0
alexskarev 0.0
ladycrystalb 0.0
katyspad 0.0
xcallmechrissyx 0.0
arianastylesss 0.0
jorgebaker 0.0
matty_zee 0.0
katycatzilla 0.0
adorie 0.0
meowwdison 0.0
alvin_koopa 0.0
lexyauditore 0.0
kease_it_raw 0.0
katysking 0.0
chris__kirby 0.0
katysbestfrwend 0.0
katyslildancer 0.0
sssshhh 0.0
conorhughess 0.0
tanimura 0.0
thekatycatlife 0.0
weefififookface 0.0
breakalioz 0.0
hudsonhelper 0.0
lariitaa 0.0
meeeeeooooooooowwwww 0.0
legend__dary 0.0
katyandliam 0.0
_theatrekid 0.0
babybritney 0.0
erinlorimer 0.0
_zacmoore_ 0.0
itscezzurryo 0.0
katycatskp 0.0
larissafilipo 0.0
siaylorswift 0.0
shitkittens 0.0
thefrankradical 0.0
katysprism 0.0
katytinalevine 0.0
serjeeoh 0.0
kayz_perry 0.0
katyslaysurfav 0.0
fuckyeahitskath 0.0
sweetyitosan 0.0
pickerington 0.0
verrado 0.0
retweete 0.0
jameswaterhouse 0.0
hunnah 0.0
truth_ispeak 0.0
_emilybarbarrr 0.0
nbllrrr 0.0
jmoneygraves 0.0
eaglenationnews 0.0
tauentzienstrasse 0.0
avontbh 0.0
vinnie_mate 0.0
demilovve 0.0
coolestkatycat 0.0
terri_katycat 0.0
beeeaaatttt 0.0
laurenfrancisco 0.0
victaytayp 0.0
aylajaye 0.0
iloveu 0.0
augustvaz 0.0
lizzievang_ 0.0
edsssss_ 0.0
hhhhhholly 0.0
holly_hickin 0.0
trixxx 0.0
killah 0.0
treasurefingers 0.0
最強ガール宣言 0.0
voykovic 0.0
annunaki 0.0
katyshomie_ 0.0
katyselephant 0.0
caitlynsmith 0.0
lightsperry 0.0
elizagilham 0.0
ohmyjatyfeels 0.0
junglescope 0.0
drunkskaty 0.0
malikpom 0.0
dancerlaurena 0.0
brirad 0.0
elisa_rv 0.0
moooom 0.0
pattymeagher 0.0
iwasemily 0.0
shahrzadphoto 0.0
tvjohnny 0.0
cstonethebreadwinner 0.0
katysrightboob 0.0
cyberdlck 0.0
beatforkaty 0.0
igabriiel 0.0
duuuuddddeeeee 0.0
redrum 0.0
srbuhiii 0.0
kayleighcat 0.0
applekatycat 0.0
ikatycats 0.0
wehryspencer 0.0
emilyjonesphoto 0.0
coxgabe 0.0
drugmoneyx 0.0
steven_drum 0.0
victoriacha 0.0
hashtaggin 0.0
perryandemetria 0.0
katycatfurlife 0.0
iammelissalynn 0.0
qewtie 0.0
yscheecat 0.0
slayty 0.0
katystree 0.0
katherynsboy 0.0
anapurry 0.0
nenedez 0.0
kevinn_perry 0.0
gloria_swag_ 0.0
andyamaziing 0.0
roarsana 0.0
brighthudson 0.0
fixingperry 0.0
roooooooooooooar 0.0
gretschusa 0.0
katys_cupcake 0.0
wonderation 0.0
kasek_craig 0.0
katysgurll 0.0
pepperperry_ 0.0
teamkatyperry 0.0
meandnutella 0.0
lovatokitten 0.0
katyslolly 0.0
astixxx 0.0
ravemomentz 0.0
erzaabrianto 0.0
katyperryindo 0.0
seeingdaisies 0.0
gillian_e_dubbs 0.0
samanthachazene 0.0
perryprism_ 0.0
katycompletesme 0.0
ltskatyperry 0.0
kittenscks 0.0
nihanofficial 0.0
momcat 0.0
kaytehperreh 0.0
__grazi 0.0
clairekatycat 0.0
fangurl 0.0
rrrrrrrrrrrroooooooooooooaaaaaaaaaaaaar 0.0
marispiva 0.0
mattdrobins 0.0
deihemmings 0.0
rooaaarr 0.0
katycatobsessed 0.0
katycatnick 0.0
tigerkats 0.0
kristenanzelc 0.0
taylermckellop 0.0
essesfadaperry 0.0
imjare 0.0
smganonymous 0.0
roaaaar 0.0
phuckyotweet 0.0
evvvvvverrrr 0.0
melvynmarrero 0.0
zouisashton 0.0
trillneyspears 0.0
rooooooar 0.0
fanwars 0.0
fentyncold 0.0
ttish_ 0.0
rachelacogan 0.0
makesmariana 0.0
kkaplon 0.0
rafaelmoncada 0.0
yaaaassssgrl 0.0
oioianna 0.0
katycatrazan 0.0
megaan_katycat 0.0
thekaelynn 0.0
hannahloupunton 0.0
thumbelinafairy 0.0
nic_kathryn 0.0
dannahfields 0.0
rodneybroaddus 0.0
noxisanasshole 0.0
soedesh__ 0.0
hookerofversace 0.0
thinkingofkaty_ 0.0
msgracevalerie 0.0
francfernandez 0.0
katysring 0.0
a_little_spark 0.0
laaxiss 0.0
