awesome 0.000689233511878
christmas 0.0
trying 0.0001550730308
launch 2.7163399811e-05
moment 6.68191453191e-05
wonderful 0.000199075123749
seeing 6.8276205661e-05
hanging 5.5854181967e-05
sounds 0.000118177404465
recommend 0.0
worked 4.79146068031e-05
direct 9.41108178321e-05
others 0.000381248107986
currently 7.90589350992e-05
better 0.000701303008577
please 0.000821884236566
social 0.000322619095899
anxiety 0.0
around 0.000131494314108
people 0.000745134446613
morning 0.000286444374483
traditional 0.0
general 8.51952448029e-05
damage 0.000288997134681
everything 0.000110170913263
twitter 0.000331404832019
present 0.00010035303637
though 0.000114718395472
friend 4.43065802285e-05
watched 2.48843904686e-05
beautiful 0.000136184594819
anything 0.000111967323906
previous 6.9618607996e-05
helped 2.41526900064e-05
updated 7.00462351736e-05
thinking 0.000202630917688
finally 0.000202630917688
caught 2.48168535307e-05
believe 0.000307648191091
already 0.000241723578714
couple 2.40873673976e-05
orlando 0.0
chance 6.61025479576e-05
meaning 6.51710556402e-05
growing 0.000132127135451
probably 0.000645099112539
password 0.0
changed 4.71433592561e-05
history 0.000204276892228
center 8.66402954348e-05
museum 0.000114775999961
behind 0.00010957859509
screaming 0.0
pretty 2.25145464097e-05
really 0.00026441019183
little 0.000175798966337
happiest 0.0
earlier 2.5781852391e-05
forget 0.000156332217348
someone 0.000266557049697
safety 6.38455979863e-05
program 0.000153272968509
things 0.000241072909198
related 0.000356335352383
visiting 0.000395097649232
available 0.000114409287806
perfect 0.000183549432755
different 0.000627017013874
search 0.000117823115927
connect 0.0
numbers 0.0
person 0.000243030210147
watching 8.86131604571e-05
exhibit 0.0
passed 0.000161191332981
prefer 0.0
minutes 6.8276205661e-05
travel 0.000161636322624
outside 0.000116591579463
looking 0.00070319586535
forward 0.000384817112196
agreed 0.000265853407824
raising 0.0
listened 0.000174579750215
afraid 0.000142389819555
impression 0.0
christian 0.000115906351419
profile 6.0265532431e-05
instant 0.0
drawing 7.85563724899e-05
wheels 0.0
favorite 0.000153428759236
picture 4.68892632515e-05
instead 0.000148901121184
appreciate 5.18464892341e-05
international 5.44771649085e-05
station 0.0
toddler 0.0
market 0.0
couldn 0.0
remember 6.61025479576e-05
vintage 0.0
holidays 0.0
friends 0.000132919740686
everyone 0.000330512739788
florida 0.000129958465696
always 0.000788965884649
months 4.60113510241e-05
moving 7.10984053176e-05
meeting 0.000451506780238
answer 0.00036120542419
sweetie 0.0
together 0.000220936554679
inside 2.29436790944e-05
section 0.000101616441312
missed 6.69995217204e-05
button 0.0
longer 7.62969359485e-05
enough 0.000378641823475
driving 0.000161636322624
building 9.89980963193e-05
enjoying 5.38787742081e-05
london 0.000104835181938
exploring 9.29406860188e-05
posting 9.92144515515e-05
amazing 0.000307648191091
attention 4.99042723528e-05
gordon 4.37486215315e-05
progress 9.17002650934e-05
tomorrow 0.000330512739788
george 2.73897259431e-05
feeling 2.30678478063e-05
excited 0.00011502837756
understand 0.000408378061518
following 4.62603939556e-05
asleep 0.0
learning 5.46280478046e-05
evening 5.04504655643e-05
special 0.000177704699798
secret 2.46824008451e-05
across 0.000147692895402
surprised 0.0
anymore 2.80830754073e-05
sophia 0.0
precious 0.0
rejoice 0.0
version 9.73993369421e-05
rather 7.42485722395e-05
avatar 0.0
showing 9.4032254252e-05
saying 0.000161039728584
tweeted 0.0
thoughts 0.000116906913768
exactly 0.000119140033746
except 8.42492262218e-05
getting 0.000220341826525
nothing 0.00017627346122
tweets 2.42839222489e-05
course 0.000614485850949
photos 0.000239797992991
looked 0.00020016073559
difficult 0.000145215206888
stages 5.39533173226e-05
office 0.000142968040495
decisions 9.98067722879e-05
brought 9.76637802077e-05
biggest 2.26974324698e-05
thrilled 0.0
something 0.00017627346122
closing 0.0
anyone 0.000288770137172
taking 6.61025479576e-05
recently 0.000200465533612
interesting 0.00024548767998
original 0.000182458884866
flying 0.000166171058693
happening 7.20667167384e-05
sometimes 4.85678444979e-05
lessons 0.0
village 0.0
stopped 2.58524344779e-05
yesterday 0.000333196312121
service 4.84364157996e-05
serious 7.07150388841e-05
digital 3.26818608061e-05
hoarder 0.0
wearing 0.000129262172389
british 6.42202279424e-05
either 2.40222389128e-05
second 0.000177704699798
checking 0.0
indeed 0.000540845825359
island 3.1189149935e-05
hearing 4.92309651341e-05
choose 0.000103692978468
staying 0.0
another 0.000395547674259
clothes 0.0
slowly 0.0
weekend 8.93326956273e-05
hashtag 9.74688492722e-05
delivery 4.03474577737e-05
theory 7.22492836703e-05
working 0.000396615287745
bigger 2.58524344779e-05
screen 2.97916586443e-05
riding 0.0
laughing 0.0
wanted 8.90921937588e-05
trends 5.00001228453e-05
stripes 0.0
clothing 0.0
current 0.000129971421436
adorable 0.0
grateful 5.7598158184e-05
friendship 0.0
family 0.000110170913263
listening 0.000362290350096
stream 3.03053318238e-05
expressions 0.0
wedding 0.000100404477832
sharing 0.000155539467702
double 4.99042723528e-05
especially 4.88318901038e-05
middle 2.52940420036e-05
waiting 0.000135452034071
definitely 4.81747347953e-05
walking 2.64254270903e-05
account 0.0
completely 0.000156822349235
thought 0.000333196312121
reaction 0.0
accept 0.0
simple 0.000102565466127
professional 3.26818608061e-05
friendly 3.27786191046e-05
supposed 0.0
business 7.12909300731e-05
absolutely 0.000259288475908
anywhere 0.0
sending 2.55714598726e-05
introducing 0.000106043402532
congrats 0.000254432166756
beauty 3.15529046594e-05
community 0.000108653599244
greatest 7.22621021929e-05
selfie 0.000197840560671
posted 0.000104262219923
saturday 0.0
wednesday 5.3142094043e-05
confused 6.42202279424e-05
expression 0.000221990118409
chicago 5.99230975796e-05
closest 8.41120820215e-05
relationship 2.96230753591e-05
actually 0.000112876695059
easter 0.0
basket 0.0
myself 0.0
argument 0.0
school 0.000246328112593
thursday 4.71433592561e-05
selling 6.0265532431e-05
talented 0.0
celebrate 9.73993369421e-05
falcon 0.0
celebrating 2.62807683537e-05
contest 0.000287183581204
experiences 4.10432533252e-05
students 0.000467315277353
internet 0.0
figure 0.000105411913466
opened 0.0
featuring 0.0
inspired 0.000106576885774
sitting 4.97687809373e-05
playing 4.47869295624e-05
street 2.44159450519e-05
points 8.47205340254e-05
memory 3.04792670147e-05
forever 2.48843904686e-05
imagine 4.9097535996e-05
problem 0.000425438656073
played 0.0
canadian 0.0
pulling 0.0
keeping 2.46154825671e-05
lovely 0.00022156141159
dressed 0.0
specifically 0.0
unlike 4.07622787199e-05
disappointed 0.0
otherwise 6.25590483242e-05
afternoon 2.59232446171e-05
planned 0.0
strange 0.0
images 7.75249969507e-05
noticed 0.000104747850129
notice 8.96293172832e-05
stretch 0.0
inspiration 3.02188791711e-05
letting 0.0
system 0.000605922219054
possibility 0.0
almost 8.81367306101e-05
details 7.22621021929e-05
experience 0.000299073781656
living 0.00011502837756
weather 0.000112645943738
normal 0.000177235605216
launching 7.17997265188e-05
before 2.38925597237e-05
captured 4.4233860225e-05
colors 0.0
monday 2.3005675512e-05
example 0.000116499877579
realize 6.32895892025e-05
autographed 0.0
sleeping 7.00462351736e-05
authentic 0.0
science 0.00320321212613
tweeting 0.000226409750338
forgot 5.52368275637e-05
chasing 0.0
gorgeous 0.00017894166321
herself 0.0
happens 0.000205381889355
silence 6.94063488013e-05
learned 5.10035509854e-05
congratulations 0.000291407066987
natural 0.000250236193297
raised 0.0
babies 3.42837219984e-05
mission 2.98764390944e-05
smelled 0.0
ironic 0.0
testing 3.8635450473e-05
deleted 0.0
barely 0.0
unforgettable 0.0
forgotten 0.000163893095523
trouble 0.000136192912271
fantastic 5.19885685742e-05
loving 2.59942842871e-05
complete 0.000101176168014
nearly 5.79228369874e-05
spirit 2.85578026842e-05
launched 0.0
finding 0.000215515096832
mercury 0.0
stories 0.000142968040495
including 7.34467677041e-05
mature 0.000120177685193
stuffed 0.0
ancient 0.000423185015904
bottle 3.43878348736e-05
somewhere 5.74367162408e-05
wouldn 4.75272867154e-05
choice 0.000188064508504
conversation 0.000321495688297
making 0.00019777383713
expect 2.64254270903e-05
occasions 0.0
subject 3.69300344763e-05
flights 8.94601727666e-05
location 3.45975562733e-05
vacation 0.0
seriously 2.43498342355e-05
spending 0.000109558903772
groups 0.000142267839442
childhood 0.0
modern 9.52112143477e-05
welcome 0.000311822678156
moments 0.0
degrees 4.13278770532e-05
jacket 3.88902872865e-05
halloween 0.0
costume 0.0
totally 0.000101729247931
laughed 4.17618658688e-05
flight 0.000105701708361
kidding 0.0
regular 0.0
context 0.0
running 0.000115650984889
finished 5.27059567328e-05
strong 4.53948649396e-05
tracking 5.20039692117e-05
respond 3.3268924096e-05
message 2.33813827535e-05
coming 0.000219748707922
thankful 6.94063488013e-05
cheese 0.0
greens 5.36999535873e-05
issues 7.88423050612e-05
intolerance 0.0
happen 0.000134723531853
giving 6.68191453191e-05
turkey 0.0
excellent 0.000201028506843
limits 4.09023157396e-05
common 0.000217908659634
pressed 0.0
situation 0.000115196316368
options 0.0
health 0.000311931411445
insurance 3.80110287756e-05
change 0.000330512739788
singing 0.0
august 6.21982937113e-05
crying 0.0
mental 3.27786191046e-05
happened 4.63854480719e-05
demand 0.0
generally 8.91268522399e-05
personal 7.18719102046e-05
beyond 4.92309651341e-05
bruised 0.0
question 0.000562863660243
chicken 0.000221513562209
reward 9.18672093929e-05
tunnel 0.0
losing 0.0
respect 7.22621021929e-05
caption 0.0
shouldn 2.63529783664e-05
visited 6.91951125465e-05
reason 6.95781721079e-05
simply 0.000247877271431
darlin 0.0
audience 0.000274313403132
involved 0.000512827330633
unhappy 0.0
reality 2.62087954844e-05
extremely 0.000128065025435
without 0.000310983224646
falling 3.24896164241e-05
countdown 0.0
locations 0.0
timing 7.82962444977e-05
crabby 0.0
classic 2.70138038785e-05
highly 0.000282332453496
online 0.000142196810635
finger 0.0
animals 0.000404944654009
planets 6.37499529769e-05
called 0.000110766450571
delicious 0.0
almond 0.0
compliment 0.0
pictures 0.0
camera 0.0
pillow 0.0
checked 3.12795241621e-05
heading 0.0
theater 0.0
paying 0.0
planning 0.000114551733493
complex 0.000108713704851
sunday 0.000386898498746
nights 6.49792328481e-05
descending 0.0
traffic 6.6142967701e-05
opposite 0.0
through 3.09202420334e-05
lookout 0.0
reached 0.0
harder 3.06545937019e-05
random 3.21101139712e-05
changes 0.000572010231539
speaking 0.000126126163911
recorded 0.000267745274219
washed 0.0
november 8.8617802608e-05
answered 0.0
enchanted 0.0
number 0.000180602712095
adventures 0.000157425879487
eclipse 0.0
chocolate 6.75408996991e-05
unless 2.7163399811e-05
calling 6.93905909334e-05
mermaid 0.0
distraction 0.0
levels 0.000237105029728
option 0.0
shopping 0.0
former 0.000138475882244
actual 0.0
covers 3.5677366739e-05
mountain 0.000272232011005
friday 0.000156332217348
winner 2.44822559014e-05
closes 0.0
quality 5.6955927822e-05
father 0.0
wishes 0.0
hourly 0.0
matter 9.45419235718e-05
themselves 0.0
usually 0.0
period 0.000131503225952
parents 5.28508541806e-05
balance 0.00020570233199
publishing 0.00018808222929
mobile 0.000109743707489
woohoo 0.0
bracelets 0.0
summer 0.000118818216789
reminded 0.0
impressed 3.33683152823e-05
necklace 0.0
shutdown 0.0
dinner 0.000292198010826
single 0.000249671757168
packed 3.61246418352e-05
definition 7.24758032341e-05
energy 5.24175909688e-05
preview 3.13702726107e-05
monster 0.0
material 0.000112934222468
admission 0.0
europe 0.000121917068059
holiday 0.0
emotional 0.0
update 0.000102845987569
customers 0.0
messing 0.0
holding 5.21311099617e-05
electric 0.0
eating 0.0
outfit 0.0
picked 0.000164794142299
fabulous 0.00011515062865
missing 0.000117540317815
surprise 0.0
officially 2.57114968923e-05
french 5.66383073159e-05
global 0.000294557789816
follow 0.000243686191257
opinion 0.000143591790602
backwards 0.0
design 0.0
secrets 0.0
request 0.00010192295542
breaks 2.90430413777e-05
allows 0.000331772697608
promoting 0.0
volunteer 4.61110608807e-05
wondering 2.99615487898e-05
official 0.0
sweater 0.0
jersey 3.70475453155e-05
mistake 0.0
france 0.000122267020125
proper 0.00010506935276
ginger 0.0
peaceful 0.0
lighter 0.0
thinks 2.57114968923e-05
competition 5.95833172886e-05
hospital 0.000192660683827
industry 3.10991468557e-05
trending 0.0
leadership 3.44924447096e-05
organized 0.0
showed 0.000110780705795
circle 7.80376511928e-05
success 4.97687809373e-05
ladies 3.02188791711e-05
dreams 0.0
protect 0.000197681246059
onesie 0.0
explanation 0.000118227080241
control 0.000246154825671
coincidence 0.0
discovering 0.000113905369432
laying 4.55829457113e-05
invited 6.20190237762e-05
healthy 5.97528781888e-05
surgery 0.0
allowing 3.8635450473e-05
arrived 0.000133221107217
opening 0.0
popular 0.0
pleasure 0.000110473655127
spectacular 0.0
animal 0.000396857806206
luggage 0.0
wonder 0.000143355358342
matters 2.89614184937e-05
reader 4.66522172401e-05
function 0.000589981647848
marketing 0.0
connection 0.0
improves 0.000176340157887
benefit 5.52368275637e-05
continues 0.0
cuddle 0.0
routine 0.00013419025915
exciting 5.28508541806e-05
corner 3.14613983928e-05
imagination 0.0
sangria 0.0
mystery 0.000120225627948
spring 2.81614859346e-05
beautifully 0.0
places 0.000105123073415
feedback 0.0
continue 5.08646239657e-05
attend 0.000132679926519
creative 3.10991468557e-05
memories 9.03982986465e-05
female 0.000146863036363
grandma 0.0
closer 0.0
accent 0.0
beginning 8.30855293464e-05
sooner 0.0
everywhere 5.25615367074e-05
scenes 2.80830754073e-05
bought 2.6939387104e-05
wishing 0.0
discovered 0.000293575090643
remove 0.000152044115102
predict 8.81418346511e-05
parrot 0.0
several 9.52112143477e-05
teacher 0.0
passing 5.95833172886e-05
become 0.000161039728584
spread 0.000276723028191
netflix 0.0
season 7.28517667468e-05
putting 9.25207879113e-05
weight 3.42837219984e-05
outfits 0.0
notification 0.0
annoying 0.0
necessity 0.0
knocks 6.22113761699e-05
processed 7.0187939109e-05
necessarily 9.67216009543e-05
effects 0.000327218525917
lighting 4.87592790733e-05
headed 2.91249693947e-05
returns 2.9539267536e-05
expected 0.0
bucket 4.1471587201e-05
constantly 0.0
sweetest 0.0
struggling 0.0
register 3.27786191046e-05
transition 8.53130184609e-05
flowers 0.0
sprain 0.0
savage 0.0
somebody 0.0
covering 6.81539367976e-05
gloves 0.0
repeat 0.0
managers 0.0
brothers 0.0
patriots 0.0
seahawks 0.0
player 0.0
chemistry 4.81642456258e-05
moonlight 0.0
comment 5.67968298686e-05
columbia 0.000904431409589
physical 7.33937726608e-05
kingdom 0.0
pretend 0.0
charles 0.0
fighting 7.52647772772e-05
rooting 0.0
donald 3.16447946012e-05
mexico 0.000127318953901
police 2.83984149343e-05
represent 3.72844743152e-05
president 0.000220340303112
talking 0.000375592142954
unbelievable 0.0
shrimp 6.45617390791e-05
giants 0.0
conference 0.000273140239023
america 7.03338948773e-05
everybody 8.1490199433e-05
houston 0.0
everyday 3.12795241621e-05
michael 0.000223959514218
protecting 3.92781862449e-05
unconditional 0.0
million 0.000346952954667
election 3.0392126864e-05
telling 0.0
correct 0.000425976224014
pulled 0.0
starbucks 0.0
americans 3.06545937019e-05
killed 9.81950719919e-05
cowboys 0.0
cowboy 0.0
coverage 0.000179258634566
dallas 0.0
coffee 8.33166267972e-05
timeline 0.0
refuse 0.0
barackobama 0.0
hillary 0.0
clinton 0.0
gatorade 0.0
sharper 0.0
american 0.000187051062028
deserved 0.0
realist 0.0
illegal 0.0
arizona 4.35892337816e-05
waffle 0.0
scared 3.22990437535e-05
pieces 3.25855278201e-05
taught 6.49792328481e-05
golden 0.0
straight 4.88318901038e-05
massage 0.0
filter 0.0
answers 8.51952448029e-05
smoking 4.39091769677e-05
created 5.29962322178e-05
beside 0.0
worlds 0.000124848737813
record 0.00011502837756
freddie 0.0
africa 0.000365812358297
recruiting 0.0
journey 2.86379333732e-05
snapchat 0.0
brother 0.0
prayers 0.0
trolling 0.0
hungry 0.0
nflnetwork 0.0
documentary 3.29734267785e-05
boston 0.000222808169327
addition 3.83835428833e-05
church 3.34681592774e-05
honestly 0.0
lounge 0.0
lifetime 0.0
captain 0.0
favorites 0.0
country 4.55174704407e-05
valley 3.75239927541e-05
huddle 0.0
dressing 0.0
finish 0.0
favourite 3.55669598606e-05
prayer 0.0
nominated 0.0
praying 0.0
insane 0.0
national 7.14840202473e-05
reform 0.0
shooting 0.0
australia 0.000359500468867
deserve 0.0
legend 0.0
mother 9.81950719919e-05
realest 0.0
creating 6.06106636475e-05
powerful 8.05956664904e-05
chilling 9.29406860188e-05
wisdom 0.0
breaking 9.47978737567e-05
parked 0.00012442275234
angeles 0.0
dollars 0.000110790103429
questions 0.000293479407154
racist 0.0
girlfriend 0.0
performance 0.0
refreshing 0.0
educated 0.0
reading 0.000163669679275
denver 0.0
videos 0.000255585734409
harmony 0.0
create 5.10035509854e-05
jordan 0.0
admire 0.0
nobody 0.0
government 0.0
politics 0.00012475659974
paradise 0.0
recover 4.97883751206e-05
spotted 0.000297325517116
blessing 0.0
coolest 0.0
banana 0.0
donate 0.0
sandwich 0.0
lookin 0.0
method 0.0
bullshit 0.0
slight 5.15425686114e-05
bringing 4.94990481597e-05
deserves 2.92897500132e-05
regret 7.75249969507e-05
celebs 0.0
victim 0.0
stadium 0.0
funniest 4.0210910796e-05
according 0.000116828819338
pumped 0.0
hamburger 0.0
heaven 0.0
honest 0.0
rolling 9.92144515515e-05
became 2.75419190479e-05
feature 0.000120875516685
waking 0.0
breakfast 5.53903528976e-05
counting 3.12795241621e-05
signing 2.88800984783e-05
adding 3.49159500431e-05
awareness 3.15529046594e-05
kindest 0.0
trainer 0.0
facebook 0.0
insanity 0.0
repost 0.0
brazilian 0.000114493719716
campaign 0.0
borrow 0.0
scorpion 0.0
popcorn 0.0
factory 8.97960474985e-05
teenage 0.0
endorsement 0.0
williams 0.0
custom 4.4233860225e-05
drinks 3.94090267471e-05
future 0.000158882027289
angels 0.0
fingers 6.8360202769e-05
sister 2.96230753591e-05
earrings 0.0
warrior 4.68356134485e-05
dancing 0.0
voting 0.0
individuals 0.000177592094727
presence 0.000131245864595
commercial 0.0
chopped 0.0
religion 0.0
century 0.0
submit 0.0
serving 3.78882513171e-05
because 0.0
aggressive 0.0
sensitive 0.000138333182642
smiling 3.88902872865e-05
besides 0.000137272721635
cleveland 0.0
hometown 0.0
killing 0.000112332301629
breath 7.48078126441e-05
phillips 0.0
instagram 3.05667550311e-05
sharks 0.0
cousin 0.0
honored 9.17002650934e-05
dedication 4.64703430094e-05
lifting 0.0
lyrical 0.0
talent 0.0
goodnight 0.0
stores 3.99403429271e-05
rushing 0.0
brains 0.0
sandwiches 0.0
drinking 0.0
brazil 0.000355865877745
tattoo 4.6289965703e-05
ravens 0.0
regardless 3.88902872865e-05
skills 3.05667550311e-05
cameras 0.0
phones 0.0
california 9.46587139783e-05
seconds 2.94557789816e-05
listen 0.000386898498746
smiled 0.0
kicking 3.10991468557e-05
homies 0.0
billion 0.000220870332616
shades 0.0
shoutout 4.16162459376e-05
grammy 0.0
guilty 0.0
stevie 0.0
ceiling 5.04298565946e-05
carpet 0.0
grammys 0.0
harvard 0.000150000368536
panther 0.0
nelson 9.44141504121e-05
mandela 0.0
handle 2.87183581204e-05
sexiest 0.0
promise 2.61370582059e-05
hosting 0.0
hahahaha 0.0
longest 0.0
tuesday 5.00401838975e-05
locker 0.0
workout 0.0
ingredient 0.0
leader 0.0
pageant 0.0
character 0.0
idiotic 0.0
mirror 0.0
jackson 7.11339197212e-05
interview 0.000627017013874
battles 0.0
bleach 0.0
insight 7.82962444977e-05
obviously 3.09202420334e-05
replay 4.87592790733e-05
battle 7.67143796179e-05
stomped 0.0
destroy 3.82586666536e-05
killer 0.0
personally 0.0
winning 2.3508063563e-05
gettin 0.0
japanese 0.0
writing 0.000153010652956
society 0.000243137014912
officers 0.0
brooklyn 8.91268522399e-05
sources 7.57765026342e-05
incredible 4.75272867154e-05
poster 0.000104747850129
celebrity 0.0
memorable 9.11658914226e-05
werent 0.0
chased 0.0
minute 0.0
confession 0.0
pregnant 4.50672579417e-05
cherry 0.000145082401431
twinning 0.0
phoenix 0.0
orange 3.29734267785e-05
policy 9.68971312605e-05
comedy 0.0
illuminati 0.0
reminder 2.64981161089e-05
evidence 0.000228773025642
iphone 0.000175654058772
kicked 0.0
intentions 0.0
freedom 0.0
patient 0.00034658221266
utterly 0.0
mississippi 0.00012442275234
download 0.0
assistant 0.0
invite 0.0
central 8.71291241331e-05
washington 0.000232999755157
stronger 3.50231175868e-05
promised 0.0
worried 0.0
throwing 0.0
security 5.84144096691e-05
cologne 0.0
headphones 0.0
sanctuary 0.0
fantasy 0.0
monkey 9.08193960369e-05
approve 0.0
spinach 0.0
turning 2.75419190479e-05
helping 0.000121091039499
tickets 2.66442214435e-05
collector 0.0
physically 0.0
slavery 0.0
december 6.11335100623e-05
basically 3.21101139712e-05
return 0.000146099005413
yassss 0.0
goddess 0.0
locked 0.0
feelings 0.0
language 0.0
motion 0.0
obsessed 0.0
creation 8.91268522399e-05
followers 8.54338917329e-05
schools 0.0
gallery 0.0
movies 3.29734267785e-05
foster 0.0
children 4.84364157996e-05
nation 2.76951764488e-05
theaters 0.0
between 0.0
knowledge 6.25590483242e-05
begins 2.63529783664e-05
robinthicke 0.0
faithful 0.0
peeing 0.0
closet 0.0
bodies 0.000130767701345
italian 0.0
highlights 0.0
spanking 0.0
forbes 0.0
parade 0.0
tasted 0.0
consider 2.92072048346e-05
reunion 0.0
latest 0.000119140033746
dedicated 0.0
beyonce 0.0
perform 0.0
signed 2.42839222489e-05
tuxedo 0.0
princess 0.0
shelter 4.95786537209e-05
germany 0.000167340796387
explaining 0.000152044115102
married 3.25855278201e-05
millions 0.0
blessings 0.0
iconic 0.0
indonesia 0.0
braids 0.0
dollar 3.70475453155e-05
rigged 0.0
replied 0.0
lights 0.0
turned 2.41526900064e-05
excuses 0.0
jackie 0.0
charge 3.04792670147e-05
performing 0.0
ticket 0.0
steady 5.29569767065e-05
whispers 0.0
finest 0.0
confucius 0.0
diamonds 0.0
vancouver 0.0
addicts 0.0
collection 9.06566375134e-05
families 8.44844578039e-05
select 7.85563724899e-05
hitting 2.93726072726e-05
announced 8.03739220743e-05
decided 5.27059567328e-05
jewels 0.0
lottery 0.0
owners 0.0
respects 0.0
celebration 9.27607261003e-05
memorial 0.0
landed 6.87756697473e-05
pastor 0.0
ultimate 9.57683969794e-05
incase 0.0
rapper 0.0
episode 0.00181337301641
bounce 0.0
disney 0.0
muffin 0.0
kansas 0.0
sherman 0.0
retweet 2.79270909835e-05
midnight 2.9707204902e-05
patience 0.0
cereal 0.0
joining 2.59232446171e-05
released 0.00015384819919
release 0.000193221520051
models 0.000212524213748
classics 0.0
popped 0.0
mileycyrus 0.0
highlight 0.0
scholarship 0.0
within 0.000112332301629
hahahahaha 0.0
standing 0.000176096472485
higher 0.000324931942896
purple 4.10432533252e-05
skinny 0.0
justice 0.0
served 0.0
speaks 0.0
horses 0.000408725456854
houses 0.0
purchase 3.77661578592e-05
dropped 0.0
conversations 0.000245413894438
consideration 0.0
seattle 4.0210910796e-05
cookie 0.0
slurpee 0.0
strength 0.0
screens 0.000105429623203
monica 0.0
incredibly 0.0
streets 0.0
boyfriend 0.0
private 2.82401780085e-05
skittles 0.0
barbie 0.0
apologizes 7.49450638145e-05
designer 0.000145082401431
impress 0.0
cooking 0.0
exclusive 0.0
fashion 6.36594769506e-05
petite 0.0
talkin 0.0
peaches 0.0
bitches 0.0
nailed 0.0
weirdest 0.0
whomever 0.0
teaching 0.0
disgusting 0.0
chillin 0.0
philly 4.11851031344e-05
rights 0.0
dinosaur 0.0
exotic 0.0
dancers 0.0
cheers 0.0
presents 0.0
flawless 0.0
dating 0.0
victory 0.0
marley 0.0
productive 0.0
smurfs 0.0
halftime 0.0
insecure 0.0
horror 0.0
warning 0.0
discovery 0.000269388142496
convention 4.23542186583e-05
understanding 0.000222159500145
action 2.36354808929e-05
having 0.0
speaker 0.000880725271929
clever 0.000112934222468
theatre 4.0210910796e-05
honors 5.44690050922e-05
evolution 0.00189037322231
produce 0.000247967262319
spider 5.10906821067e-05
apologize 8.12462616603e-05
formation 0.000268779152236
letter 0.000353124197543
therapy 0.000276666365284
untrue 5.78473280778e-05
written 0.000107460888654
communication 0.000335786065663
disease 0.00202654176205
marching 9.47903882418e-05
suggest 0.000170384841994
georgetakei 6.29671655147e-05
hairstyle 8.70440437429e-05
humans 0.00144027134457
journal 0.000182331782845
foundation 9.41108178321e-05
access 0.000108353896812
venture 5.36999535873e-05
syndrome 0.000652781173643
writes 7.17997265188e-05
colorado 0.000194236536518
medicine 0.000221990118409
tremendous 4.16162459376e-05
nytimes 0.00030031483754
kindness 4.66522172401e-05
cannot 0.00024548767998
reveals 0.000131503225952
invented 8.23702062688e-05
sapphire 9.37367021677e-05
candidate 0.00010506935276
sexual 0.000231812702838
madison 9.71182682591e-05
illustration 0.000126710128946
newark 0.000222872443987
globally 0.00028476342358
incorrect 0.000106898971002
headline 0.000172462223548
reflect 8.12462616603e-05
streaming 7.20239287367e-05
leaders 3.21101139712e-05
supreme 3.80110287756e-05
protest 3.72844743152e-05
policies 3.99403429271e-05
silenced 6.37499529769e-05
defend 3.60119643684e-05
communicating 6.67333874587e-05
climate 7.45689486304e-05
wrapped 4.13278770532e-05
studio 0.000153272968509
conspiracy 4.34309968558e-05
interviews 8.96293172832e-05
differentiation 9.71150251533e-05
confusing 4.43980236819e-05
february 3.23941229439e-05
hamilton 0.000392303104034
loneliest 0.000106001084534
amazon 3.33683152823e-05
scattered 8.82289657724e-05
francis 0.000100859713189
headlines 4.06231308301e-05
january 3.04792670147e-05
diversity 0.000446854439132
universal 3.88902872865e-05
hurricane 4.66522172401e-05
identifying 7.07290954683e-05
countries 0.000380844857391
tickled 8.48506427868e-05
becker 9.37367021677e-05
connected 8.59260555594e-05
suggestion 4.25048427496e-05
filled 6.18404840669e-05
education 8.88692260772e-05
mentioned 0.000291547106495
defining 0.000112751843963
exists 4.09023157396e-05
unexpected 0.000170019370998
plants 0.000354535476748
orders 3.95406530828e-05
olympics 3.90188255964e-05
ability 3.20162563587e-05
director 8.23970711495e-05
content 0.000206327009242
cycling 6.33550644731e-05
previously 0.000219545884838
correction 0.00013369027836
pearls 7.24376787054e-05
ambassador 3.80110287756e-05
preparing 7.36263007289e-05
depend 5.66624060483e-05
downloads 0.00027657654468
lovers 4.4233860225e-05
weekly 0.000114033086327
hudson 0.000127499905954
bridge 7.09142128048e-05
becoming 0.000112960712034
magazine 3.05667550311e-05
appropriate 3.98063014144e-05
shakespeare 5.97542449672e-05
travesty 7.42908146623e-05
discoveries 6.45617390791e-05
fellow 5.5854181967e-05
reviewed 5.06479252497e-05
copies 8.38169197073e-05
driven 0.000119821028781
aussies 7.07290954683e-05
result 6.34741428985e-05
announcing 0.00011515062865
visual 4.59336046965e-05
restrictions 5.42096444437e-05
culture 0.00015196063432
edition 8.83673369449e-05
prince 3.19227989931e-05
shocks 7.49450638145e-05
symmetry 9.2224673782e-05
clicks 6.76661120098e-05
disagree 0.000170384841994
experiments 0.00024737214435
mistakes 3.92781862449e-05
trolls 5.02139364341e-05
blossoms 9.08102656869e-05
offered 7.24758032341e-05
inspiring 8.91216147059e-05
counter 0.000124848737813
approach 0.000163893095523
embarrassing 3.95406530828e-05
creators 5.94246790723e-05
edited 0.000155316164031
berniesanders 6.37499529769e-05
overnight 4.7207075206e-05
spotlight 9.01345158834e-05
probable 7.24376787054e-05
repeating 5.66624060483e-05
concerns 8.04218215921e-05
massive 2.79270909835e-05
promising 4.81642456258e-05
promises 4.19084598536e-05
colored 6.41520875441e-05
production 0.000210784870527
header 0.000122248847087
itunes 3.63517497641e-05
secretary 3.83835428833e-05
highway 5.44690050922e-05
dangerous 0.00014769633768
letters 8.15245574399e-05
typically 5.47314719301e-05
saving 9.57683969794e-05
pioneer 4.93709202318e-05
visuals 7.07290954683e-05
universe 3.53478008441e-05
ordering 5.24752931625e-05
victims 3.19227989931e-05
privacy 4.73951941209e-05
disclosure 5.97542449672e-05
proceeds 4.40709173256e-05
musical 3.58998632594e-05
collide 6.41520875441e-05
melbourne 0.000972380232938
correctly 4.40709173256e-05
campus 8.71784675632e-05
debate 0.00014159576829
conflict 4.57575738784e-05
meanwhile 3.8635450473e-05
petition 3.96730747487e-05
contribution 9.08193960369e-05
stated 5.32018476229e-05
humanity 3.75239927541e-05
illness 4.79694379519e-05
flawed 5.42096444437e-05
breathe 4.29630277797e-05
winners 2.91249693947e-05
spanish 4.04848608509e-05
comedic 6.5838744097e-05
awards 5.74367162408e-05
presidential 3.66968863304e-05
candidates 3.71656896395e-05
glasgow 0.000264784883532
smells 4.81642456258e-05
treasure 4.7207075206e-05
greater 0.000215399179556
themed 0.000104476728326
distribution 5.72468598581e-05
absurd 4.73951941209e-05
squirrel 0.00018026652779
sisters 4.19084598536e-05
stress 0.000243738784981
leading 0.000167562545901
resolution 4.43980236819e-05
achieved 9.08193960369e-05
interacting 7.42908146623e-05
boiling 0.000140375878218
examples 0.000140506840346
diverse 0.000406945484691
suicide 4.34309968558e-05
parallel 5.42096444437e-05
minneapolis 6.41520875441e-05
impairs 0.000106001084534
pumping 7.18532248956e-05
slides 0.000483429023938
choreography 7.70338549347e-05
element 0.000451007375854
serves 5.04298565946e-05
jumping 4.13278770532e-05
rising 3.54571064024e-05
believed 4.03474577737e-05
features 3.51308117544e-05
environment 0.000121454582553
revealed 3.58998632594e-05
classical 0.000254999811907
confirmed 6.40325127175e-05
origins 0.000129123478158
combination 9.91573074419e-05
consumption 6.18430360874e-05
worldwide 3.65812358297e-05
deaths 9.22221217615e-05
responsible 3.58998632594e-05
overwhelmed 5.24752931625e-05
household 4.93709202318e-05
munich 6.18430360874e-05
alternate 5.9099995815e-05
blockers 9.37367021677e-05
restaurant 3.64661924211e-05
canada 2.92897500132e-05
versions 5.32018476229e-05
technology 7.36263007289e-05
identify 9.44141504121e-05
combined 4.09023157396e-05
santiago 7.77768318155e-05
branches 0.000137280608696
october 3.07427858492e-05
netherlands 0.000111076553242
belgium 5.36999535873e-05
european 7.57765026342e-05
imperial 6.11244235437e-05
perspective 3.24896164241e-05
cities 3.29734267785e-05
guinea 0.000144875357411
americas 6.54047552814e-05
posters 4.95786537209e-05
elastic 8.70440437429e-05
flames 5.87800526289e-05
presumably 5.22383641628e-05
exquisite 6.96598239395e-05
spreading 3.76447408228e-05
happiness 3.82586666536e-05
ashamed 4.77763466674e-05
naturally 4.85591341296e-05
malbec 0.000224611688001
wasting 5.42096444437e-05
hidden 7.22492836703e-05
coffin 0.000151238893679
freudian 9.08102656869e-05
genius 2.92072048346e-05
cultured 9.2224673782e-05
malaysia 6.5838744097e-05
traveling 4.1471587201e-05
prepared 6.65378481919e-05
county 8.12462616603e-05
quinoa 7.6315242391e-05
district 4.70205573226e-05
chosen 4.1471587201e-05
toilet 9.11658914226e-05
yorkers 6.76661120098e-05
ignores 6.04286279923e-05
messages 3.66968863304e-05
creativity 4.70205573226e-05
conventional 0.000201584364177
berlin 4.5237809145e-05
montreal 0.000105429623203
wonders 5.02139364341e-05
upcoming 6.21982937113e-05
lonely 5.08681855863e-05
australian 8.56184652582e-05
positions 4.64703430094e-05
singapore 0.000113324812097
scratch 4.7207075206e-05
deficiency 9.71150251533e-05
elevated 7.30381469251e-05
triggers 6.96598239395e-05
delicate 7.30381469251e-05
barrier 5.42096444437e-05
reflection 4.68356134485e-05
sydney 0.000296225521391
separates 8.1924206306e-05
centuries 0.000122248847087
israel 9.36712268971e-05
overwhelming 9.33044344802e-05
assault 4.20560410108e-05
protection 0.000190672489708
picker 0.000206839569239
additional 4.57575738784e-05
machine 2.96230753591e-05
samples 0.000122961569101
contrary 5.5538276621e-05
immediate 4.57575738784e-05
michelle 4.23542186583e-05
inspire 0.0
lyrics 0.0
missyelliott 0.0
constant 0.0
tuning 0.0
pandora 0.0
preshow 0.0
buenos 0.0
poland 0.0
philippines 0.0
nicely 0.0
september 0.0
manchester 0.0
checks 0.0
screenshot 0.0
universalorl 0.0
remarkable 0.0
rihanna 0.0
disgusted 0.0
flattered 0.0
fiction 0.0
angela 0.0
bitmoji 0.0
process 0.0
genuine 0.0
performances 0.0
comedians 0.0
flotus 0.0
strangers 0.0
hungover 0.0
confidence 0.0
studios 0.0
stjude 0.0
memphis 0.0
mikeypiff 0.0
chancetherapper 0.0
scream 0.0
jennifer 0.0
disappoint 0.0
newcastle 0.0
castle 0.0
literally 0.0
chrisrock 0.0
gentlemen 0.0
mtvnews 0.0
hillaryclinton 0.0
iamrashidajones 0.0
champagne 0.0
raleigh 0.0
ijessewilliams 0.0
acknowledge 0.0
buzzfeed 0.0
puppet 0.0
rehearsal 0.0
billboard 0.0
austria 0.0
sweden 0.0
republic 0.0
grilled 0.0
waltdisneyworld 0.0
katyperry 0.0
ronanfarrow 0.0
measly 0.0
bragging 0.0
treats 0.0
literal 0.0
cooper 0.0
counts 0.0
theellenshow 0.0
basking 0.0
cookies 0.0
festival 0.0
amsterdam 0.0
soundcheck 0.0
downloaded 0.0
encouraged 0.0
alright 0.0
jtimberlake 0.0
backstage 0.0
collab 0.0
joined 0.0
issarae 0.0
playlist 0.0
madness 0.0
romantic 0.0
selfies 0.0
exclusively 0.0
disneyland 0.0
refused 0.0
characters 0.0
amazingly 0.0
auction 0.0
express 0.0
gratitude 0.0
sesamestreet 0.0
thegrammys 0.0
throughout 0.0
awkward 0.0
shining 0.0
thrown 0.0
stylist 0.0
fighter 0.0
accepting 0.0
playin 0.0
applemusic 0.0
filmed 0.0
makeawish 0.0
bieber 0.0
remixes 0.0
toronto 0.0
capitolrecords 0.0
shazam 0.0
anthem 0.0
cosmopolitan 0.0
khloekardashian 0.0
cookin 0.0
songwriters 0.0
reveal 0.0
stands 0.0
spotify 0.0
phvegas 0.0
rocked 0.0
glasses 0.0
iambeckyg 0.0
relive 0.0
acoustic 0.0
announce 0.0
although 0.0
isaacfromct 0.0
shampoo 0.0
interactive 0.0
todayshow 0.0
haters 0.0
appreciation 0.0
floating 0.0
shondarhimes 0.0
showtime 0.0
premiere 0.0
broadway 0.0
makeup 0.0
starring 0.0
newest 0.0
designed 0.0
arianagrande 0.0
aladdin 0.0
swaggy 0.0
owning 0.0
producer 0.0
legendary 0.0
jasmine 0.0
costumes 0.0
square 0.0
emojis 0.0
jessica 0.0
magical 0.0
thedoctorluke 0.0
thirsty 0.0
therealjuicyj 0.0
symbols 0.0
privilege 0.0
spiral 0.0
retrograde 0.0
footage 0.0
theirs 0.0
universes 0.0
remembering 0.0
floated 0.0
construction 0.0
consciousness 0.0
delights 0.0
explodes 0.0
submissions 0.0
pleased 0.0
shredding 0.0
filters 0.0
weasel 0.0
reflective 0.0
firework 0.0
islands 0.0
interstellar 0.0
bubble 0.0
customs 0.0
festive 0.0
window 0.0
senator 0.0
slightly 0.0
therealbuzz 0.0
printing 0.0
snowflake 0.0
applications 0.0
elephant 0.0
fifteen 0.0
editions 0.0
newspaper 0.0
rainbow 0.0
unlimited 0.0
sirius 0.0
matthew 0.0
affected 0.0
capturing 0.0
canyon 0.0
rivers 0.0
spoken 0.0
accidentally 0.0
bizarre 0.0
dolphin 0.0
successfully 0.0
liquid 0.0
graffiti 0.0
swallowing 0.0
messenger 0.0
heroes 0.0
disturbing 0.0
graduates 0.0
rewrite 0.0
describe 0.0
hollywood 0.0
equality 0.0
announcement 0.0
breakout 0.0
dreaming 0.0
animation 0.0
calendar 0.0
circling 0.0
garden 0.0
enhanced 0.0
journalists 0.0
stirring 0.0
nominations 0.0
yelling 0.0
teachers 0.0
chapter 0.0
napoleon 0.0
aliens 0.0
subjects 0.0
revolution 0.0
mountains 0.0
wonderland 0.0
storage 0.0
crystals 0.0
circuit 0.0
invitation 0.0
kettle 0.0
adjective 0.0
woodpecker 0.0
operate 0.0
exhibition 0.0
learnt 0.0
nomination 0.0
madonna 0.0
questioning 0.0
unplug 0.0
initiatives 0.0
switzerland 0.0
represents 0.0
throat 0.0
touchdown 0.0
desire 0.0
forced 0.0
swedish 0.0
hundred 0.0
prompts 0.0
rainbows 0.0
creates 0.0
oxford 0.0
balloons 0.0
liverpool 0.0
recreate 0.0
glorious 0.0
newton 0.0
creature 0.0
finalist 0.0
scouts 0.0
treading 0.0
tragedy 0.0
nottingham 0.0
debacle 0.0
legends 0.0
noises 0.0
addiction 0.0
survived 0.0
idioms 0.0
greeted 0.0
basics 0.0
masses 0.0
confirm 0.0
cadence 0.0
spaghetti 0.0
prepare 0.0
calendars 0.0
narrative 0.0
application 0.0
octopus 0.0
drumming 0.0
bloody 0.0
confetti 0.0
translate 0.0
birmingham 0.0
singles 0.0
completes 0.0
laptop 0.0
obvious 0.0
darling 0.0
deserving 0.0
miller 0.0
ordered 0.0
feelin 0.0
alicia 0.0
picasso 0.0
recipe 0.0
alphabetical 0.0
butterfly 0.0
timothy 0.0
mancini 0.0
untold 0.0
directed 0.0
hacked 0.0
admits 0.0
clocks 0.0
nugget 0.0
cnnopinion 0.0
grabbed 0.0
russia 0.0
surprises 0.0
waterfalls 0.0
olympic 0.0
magnificent 0.0
casual 0.0
assume 0.0
relief 0.0
subscribe 0.0
landslide 0.0
telegraph 0.0
standby 0.0
admitting 0.0
complacency 0.0
voices 0.0
sounding 0.0
douglas 0.0
democracy 0.0
locals 0.0
gossip 0.0
nickname 0.0
subtle 0.0
embarrassed 0.0
ireland 0.0
mornings 0.0
democratic 0.0
impressions 0.0
outgoing 0.0
treasury 0.0
refugees 0.0
unveiling 0.0
listing 0.0
deliver 0.0
negotiating 0.0
roller 0.0
prosperous 0.0
desperate 0.0
acknowledgement 0.0
executive 0.0
republicans 0.0
weapons 0.0
dropping 0.0
meaningful 0.0
nightmare 0.0
goodies 0.0
scandalous 0.0
rhetoric 0.0
divisive 0.0
vision 0.0
confirmation 0.0
throne 0.0
records 0.0
quoting 0.0
impatient 0.0
refugee 0.0
texted 0.0
exposed 0.0
stoked 0.0
priority 0.0
freedoms 0.0
notorious 0.0
empowering 0.0
unconstitutional 0.0
turkish 0.0
concerned 0.0
realdonaldtrump 0.0
goodwill 0.0
imagined 0.0
belfast 0.0
sleeve 0.0
basement 0.0
preposterous 0.0
griffith 0.0
timeless 0.0
truman 0.0
intended 0.0
inappropriate 0.0
industries 0.0
responsibility 0.0
documentaries 0.0
vulnerable 0.0
respectful 0.0
markets 0.0
claire 0.0
nuggets 0.0
boards 0.0
sequins 0.0
capitol 0.0
technical 0.0
applying 0.0
guitar 0.0
donating 0.0
continually 0.0
norway 0.0
applause 0.0
ballot 0.0
finely 0.0
shakes 0.0
varied 0.0
proverb 0.0
vibrant 0.0
flower 0.0
survives 0.0
fierce 0.0
shopped 0.0
sincerely 0.0
apology 0.0
sweaty 0.0
conspiracies 0.0
climbing 0.0
relaxed 0.0
encourage 0.0
funnyordie 0.0
essentials 0.0
jimmykimmellive 0.0
rejectedjokes 0.0
protesting 0.0
releasing 0.0
cleaner 0.0
preferred 0.0
incarceration 0.0
jkcorden 0.0
koppel 0.0
bikini 0.0
transparency 0.0
kamalaharris 0.0
nutshell 0.0
walled 0.0
floored 0.0
plotting 0.0
gandhi 0.0
vilify 0.0
meditate 0.0
violent 0.0
preschool 0.0
rhythm 0.0
matching 0.0
senwarren 0.0
venezuela 0.0
candle 0.0
donates 0.0
peacefully 0.0
chelseahandler 0.0
experiencing 0.0
sarabareilles 0.0
haunting 0.0
constitution 0.0
explode 0.0
deeper 0.0
empathy 0.0
mrgaryhuang 0.0
scored 0.0
charitable 0.0
perfume 0.0
giraffe 0.0
noticing 0.0
noodle 0.0
wrongly 0.0
marshmallow 0.0
fraudulent 0.0
everytime 0.0
helluva 0.0
therapists 0.0
tangible 0.0
sarahksilverman 0.0
johnfugelsang 0.0
exceptional 0.0
miracle 0.0
avocado 0.0
snacks 0.0
spelled 0.0
parental 0.0
superbowl 0.0
shoulders 0.0
valentine 0.0
glitter 0.0
stocking 0.0
poehler 0.0
thumbs 0.0
tinatbh 0.0
educational 0.0
voicemail 0.0
thetweetofgod 0.0
esteem 0.0
teaches 0.0
goodbye 0.0
reminding 0.0
supplies 0.0
ryanseacrest 0.0
okmagazine 0.0
shoots 0.0
bowing 0.0
jennyslate 0.0
craigyferg 0.0
masterpiece 0.0
sneaky 0.0
nashville 0.0
chronicles 0.0
potato 0.0
freakin 0.0
perezhilton 0.0
unethical 0.0
paparazzi 0.0
mantra 0.0
consuming 0.0
unauthorized 0.0
vanityfair 0.0
stalking 0.0
shoulda 0.0
yeppers 0.0
sacred 0.0
existed 0.0
earned 0.0
woulda 0.0
ellenpage 0.0
choker 0.0
contribute 0.0
mustache 0.0
washes 0.0
creeps 0.0
champion 0.0
auntie 0.0
magazines 0.0
waited 0.0
conscious 0.0
cracker 0.0
denmark 0.0
potion 0.0
windex 0.0
scarfing 0.0
ladygaga 0.0
purposely 0.0
pretending 0.0
luckiest 0.0
mascara 0.0
tastes 0.0
gardening 0.0
leashes 0.0
hippie 0.0
womensmarch 0.0
reunited 0.0
clique 0.0
premiering 0.0
rollingstone 0.0
childrensla 0.0
dollywood 0.0
godmother 0.0
eltonofficial 0.0
vmagazine 0.0
donorschoose 0.0
yesssssss 0.0
bettemidler 0.0
rehearsing 0.0
trevorproject 0.0
unicef 0.0
ellemagazine 0.0
yasssss 0.0
acceptance 0.0
solidarity 0.0
pharrell 0.0
greece 0.0
papermagazine 0.0
johnmayer 0.0
lipstick 0.0
tumblr 0.0
coldplay 0.0
colorful 0.0
translifeline 0.0
newsstands 0.0
feminist 0.0
pitchfork 0.0
labels 0.0
jenner 0.0
arkansas 0.0
beanie 0.0
sparkly 0.0
moschino 0.0
britneyspears 0.0
itsjeremyscott 0.0
nickiminaj 0.0
appstore 0.0
poetry 0.0
puttin 0.0
rubbed 0.0
shrine 0.0
skyferreira 0.0
freaking 0.0
besties 0.0
chanel 0.0
bedazzled 0.0
rubber 0.0
kendricklamar 0.0
popstar 0.0
sosadtoday 0.0
copenhagen 0.0
lenadunham 0.0
wearin 0.0
stoned 0.0
facetime 0.0
barclays 0.0
meditation 0.0
harpersbazaarus 0.0
stared 0.0
ritual 0.0
iconapop 0.0
doubted 0.0
staples 0.0
anaheim 0.0
jingle 0.0
tacoma 0.0
rehearsals 0.0
treadmill 0.0
metamorphosis 0.0
dental 0.0
jodyhighroller 0.0
versace 0.0
werking 0.0
couture 0.0
eggplant 0.0
bangin 0.0
cardigans 0.0
obnoxious 0.0
bestie 0.0
teganandsara 0.0
barrel 0.0
dedicating 0.0
jefferson 0.0
pumpkin 0.0
derekblasberg 0.0
glamourmag 0.0
presale 0.0
mtvstyle 0.0
deluxe 0.0
mtvema 0.0
reggae 0.0
azealiabanks 0.0
nominating 0.0
sailor 0.0
mornin 0.0
itunesmusic 0.0
bananas 0.0
lordemusic 0.0
vietnam 0.0
milwaukee 0.0
neworleans 0.0
circus 0.0
strolling 0.0
rapids 0.0
collegegameday 0.0
aaaaand 0.0
godfather 0.0
bestow 0.0
allison 0.0
rockthevote 0.0
birbigs 0.0
lucille 0.0
louder 0.0
farmers 0.0
shaved 0.0
niagara 0.0
realmattlucas 0.0
ferguson 0.0
painful 0.0
exchange 0.0
nickkroll 0.0
edmonton 0.0
mickey 0.0
angelenos 0.0
pooping 0.0
located 0.0
onslaught 0.0
finalists 0.0
bumped 0.0
sherlock 0.0
stockholm 0.0
casually 0.0
jjwatt 0.0
itstonybennett 0.0
mariolopezextra 0.0
klgandhoda 0.0
entrance 0.0
calgary 0.0
bowling 0.0
winnipeg 0.0
cheeto 0.0
gloriasteinem 0.0
feather 0.0
nathan 0.0
smelling 0.0
narnia 0.0
llamas 0.0
actuallynph 0.0
mourning 0.0
obsession 0.0
chilled 0.0
medically 0.0
hyperloop 0.0
aussie 0.0
flaring 0.0
eyeballs 0.0
stuffing 0.0
pitched 0.0
condiments 0.0
relatable 0.0
olivia 0.0
painted 0.0
mykonos 0.0
eyebrow 0.0
capitalcities 0.0
jackpot 0.0
hipster 0.0
sweating 0.0
restaurants 0.0
superfan 0.0
restraint 0.0
craziest 0.0
catheter 0.0
delivers 0.0
kanyewest 0.0
paints 0.0
dissect 0.0
billboards 0.0
milano 0.0
bjnovak 0.0
snapping 0.0
croissant 0.0
repjohnlewis 0.0
blklivesmatter 0.0
mydaughtersarmy 0.0
huddled 0.0
yearning 0.0
thereaibanksy 0.0
affordable 0.0
foodie 0.0
colombia 0.0
peeled 0.0
shootings 0.0
playground 0.0
breaky 0.0
photoshoot 0.0
smokin 0.0
accents 0.0
sweats 0.0
postmates 0.0
armband 0.0
unconscious 0.0
maddow 0.0
aquarium 0.0
holler 0.0
photoshop 0.0
robbie 0.0
espnmag 0.0
laundry 0.0
examining 0.0
zealand 0.0
stuntin 0.0
hehehe 0.0
nostalgia 0.0
buttons 0.0
slaying 0.0
monument 0.0
bringin 0.0
lining 0.0
muchas 0.0
gracias 0.0
madame 0.0
illustrated 0.0
boxers 0.0
grazie 0.0
winters 0.0
plastic 0.0
unbreakable 0.0
licking 0.0
cheeky 0.0
twerking 0.0
danish 0.0
drummer 0.0
florence 0.0
revoir 0.0
resume 0.0
dodger 0.0
brazilians 0.0
grimezsz 0.0
crocodile 0.0
hahahahahaha 0.0
parisians 0.0
taipei 0.0
taiwan 0.0
bangkok 0.0
uploaded 0.0
manila 0.0
hamburg 0.0
curating 0.0
aaaand 0.0
skating 0.0
brisbane 0.0
googleplay 0.0
raincoat 0.0
glastofest 0.0
vienna 0.0
burning 0.0
jamming 0.0
reaches 0.0
subtitles 0.0
wristband 0.0
barcelona 0.0
credits 0.0
dreamers 0.0
bogota 0.0
bursting 0.0
brunomars 0.0
beyoncé 0.0
subscribers 0.0
unlock 0.0
onedirection 0.0
amazonmusic 0.0
snippets 0.0
preorder 0.0
rehearse 0.0
bahnhof 0.0
delorean 0.0
fragrance 0.0
curate 0.0
samsmithworld 0.0
guitars 0.0
storyline 0.0
registering 0.0
beatsbydre 0.0
panama 0.0
celestial 0.0
orchestra 0.0
finland 0.0
climbed 0.0
topping 0.0
méxico 0.0
vasconcelos 0.0
leicester 0.0
itunesfestival 0.0
pondering 0.0
millennials 0.0
struck 0.0
watermelon 0.0
benefited 0.0
sophisticated 0.0
couples 0.0
villain 0.0
mindful 0.0
catholic 0.0
airline 0.0
secretly 0.0
playlists 0.0
veggie 0.0
receipts 0.0
foremost 0.0
bagpipe 0.0
drifting 0.0
trader 0.0
influenced 0.0
moscow 0.0
cobain 0.0
reaper 0.0
commune 0.0
handshake 0.0
despair 0.0
silicon 0.0
investing 0.0
construct 0.0
garland 0.0
coachella 0.0
offline 0.0
realisation 0.0
payback 0.0
educate 0.0
alliances 0.0
etched 0.0
momentarily 0.0
pronoun 0.0
lenses 0.0
validated 0.0
authenticity 0.0
choreographed 0.0
pokemon 0.0
disneyworld 0.0
patriotic 0.0
embody 0.0
snickers 0.0
impactful 0.0
refocus 0.0
eminem 0.0
mahatma 0.0
ecstatic 0.0
snfonnbc 0.0
avenue 0.0
picchu 0.0
doubters 0.0
beverly 0.0
intensity 0.0
outtake 0.0
temple 0.0
purchased 0.0
fountain 0.0
punched 0.0
goldfish 0.0
comparable 0.0
buyers 0.0
barbara 0.0
corybooker 0.0
listens 0.0
timeout 0.0
inducing 0.0
signage 0.0
penthouse 0.0
ahahaha 0.0
phenom 0.0
brilliantly 0.0
siphoning 0.0
herstory 0.0
prostitute 0.0
survivors 0.0
courageous 0.0
cruelty 0.0
margot 0.0
xenophobic 0.0
mcginley 0.0
yorkshire 0.0
chants 0.0
alancarr 0.0
chained 0.0
skillz 0.0
debunked 0.0
floods 0.0
fleetwood 0.0
cheesecake 0.0
adidas 0.0
uneven 0.0
raging 0.0
connections 0.0
headlining 0.0
devhynes 0.0
charli_xcx 0.0
shawnmendes 0.0
tavitulle 0.0
bahjournalist 0.0
tyleroakley 0.0
marquee 0.0
grease 0.0
screenshots 0.0
ddlovato 0.0
chattyman 0.0
grimmers 0.0
vevo_uk 0.0
bonniemckee 0.0
electrifying 0.0
idolator 0.0
onairromeo 0.0
godven 0.0
lookie 0.0
preordered 0.0
elvisduran 0.0
shanghai 0.0
tripped 0.0
konnichiwa 0.0
etnad_olegnad 0.0
unannounced 0.0
swedes 0.0
cinderella 0.0
slipper 0.0
jessesaintjohn 0.0
adorbs 0.0
onesies 0.0
jahnsuxx 0.0
walgreens 0.0
aphrodite 0.0
danceonfox 0.0
difficulties 0.0
mermaids 0.0
antique 0.0
girlshbo 0.0
yaaaaasss 0.0
lifesaving 0.0
queens 0.0
yaaaas 0.0
rollin 0.0
bestest 0.0
cleanse 0.0
iamtovelo 0.0
glamour 0.0
emelisande 0.0
lashes 0.0
austrian 0.0
magritte 0.0
misogynoir 0.0
litter 0.0
spiritual 0.0
preaching 0.0
adelaide 0.0
sheffield 0.0
impending 0.0
starve 0.0
excess 0.0
conciousness 0.0
vitamins 0.0
generator 0.0
purposefully 0.0
profiles 0.0
petals 0.0
persist 0.0
alexis 0.0
covergirl 0.0
sneezed 0.0
cushion 0.0
demconvention 0.0
directv 0.0
flo_tweet 0.0
billclinton 0.0
grounded 0.0
sunrise 0.0
fightin 0.0
sagekotsenburg 0.0
pwease 0.0
sadder 0.0
waterfall 0.0
sighting 0.0
firsts 0.0
muller 0.0
burritos 0.0
bungee 0.0
potting 0.0
dipping 0.0
closets 0.0
scratched 0.0
decorating 0.0
summers 0.0
havana 0.0
fresher 0.0
mowing 0.0
invading 0.0
addict 0.0
aesthetics 0.0
footwear 0.0
protector 0.0
hammock 0.0
repurpose 0.0
mishap 0.0
hamster 0.0
cellar 0.0
groove 0.0
mentored 0.0
exaggerate 0.0
scraping 0.0
apropos 0.0
trolled 0.0
jonlovett 0.0
rheabutcher 0.0
sickening 0.0
flustered 0.0
compiled 0.0
shirley 0.0
subtweet 0.0
pantsuit 0.0
patting 0.0
atrocious 0.0
amoeba 0.0
platter 0.0
aficionado 0.0
bearer 0.0
manifest 0.0
transformation 0.0
thighs 0.0
tapper 0.0
foaming 0.0
sophie 0.0
sabbath 0.0
vibrations 0.0
nutella 0.0
wilder 0.0
distractions 0.0
stripping 0.0
downloading 0.0
judith 0.0
crossroads 0.0
parsons 0.0
stella 0.0
narcissism 0.0
fawcett 0.0
trainers 0.0
surrounding 0.0
longtime 0.0
frosting 0.0
laurent 0.0
savory 0.0
acupuncture 0.0
cancelling 0.0
nutcracker 0.0
ballet 0.0
tempura 0.0
burner 0.0
voguemagazine 0.0
lagged 0.0
cuttlefish 0.0
passwords 0.0
funfetti 0.0
anagasteyer 0.0
gabbana 0.0
budapest 0.0
montage 0.0
crowns 0.0
scheduling 0.0
possessed 0.0
syncing 0.0
creatively 0.0
hieroglyphics 0.0
halftimes 0.0
floppy 0.0
nessie 0.0
feathers 0.0
kaceymusgraves 0.0
roaring 0.0
rightful 0.0
balconies 0.0
prodigy 0.0
raquin 0.0
gianni 0.0
monsieuradi 0.0
drowned 0.0
tropicana 0.0
diesel 0.0
shabbat 0.0
voiceless 0.0
passover 0.0
elevating 0.0
traumatic 0.0
dreamer 0.0
iwillharness 0.0
classrooms 0.0
eligibility 0.0
counselors 0.0
wainwright 0.0
moveon 0.0
runaway 0.0
baghdad 0.0
zaralarsson 0.0
snooze 0.0
iggyazalea 0.0
harviikills 0.0
bolognese 0.0
babysitting 0.0
mohegan 0.0
hooters 0.0
crusts 0.0
tracksuit 0.0
cupcake 0.0
xfactor 0.0
vitamin 0.0
lichtenstein 0.0
concourse 0.0
hitchcock 0.0
teller 0.0
pastels 0.0
remnants 0.0
banger 0.0
lyrically 0.0
boogers 0.0
ritaora 0.0
bumpin 0.0
dabbed 0.0
sleepin 0.0
tinashe 0.0
octaviaspencer 0.0
linder 0.0
musicallyapp 0.0
scavenger 0.0
sanging 0.0
corinthians 0.0
hollywoodbowl 0.0
kraken 0.0
discontinue 0.0
cypress 0.0
schooling 0.0
maritime 0.0
narration 0.0
zeitgeist 0.0
sampler 0.0
pseudo 0.0
bangladesh 0.0
hungary 0.0
mumble 0.0
sisterhood 0.0
soulful 0.0
lennykravitz 0.0
londontown 0.0
andradaymusic 0.0
lipsticks 0.0
realization 0.0
unconditionally 0.0
wildfire 0.0
goldie 0.0
minnie 0.0
solitude 0.0
waddle 0.0
westworldhbo 0.0
statuesque 0.0
uncasville 0.0
demented 0.0
skyway 0.0
twentyonepilots 0.0
rejoicing 0.0
clenching 0.0
adelphia 0.0
entirety 0.0
redhourben 0.0
lakewood 0.0
drjillstein 0.0
entail 0.0
whammy 0.0
smokers 0.0
gobble 0.0
topshop 0.0
cleowade 0.0
mkives 0.0
sweetbabayjamie 0.0
marchesafashion 0.0
hamsters 0.0
gurrrl 0.0
sofifii 0.0
sumthin 0.0
nicomiz 0.0
maisonvalentino 0.0
coziest 0.0
accessorize 0.0
thejgold 0.0
peruvian 0.0
amazeballs 0.0
sendin 0.0
fantabulous 0.0
timelines 0.0
regina 0.0
slovakia 0.0
graves 0.0
embracing 0.0
larsson 0.0
cullen 0.0
psychiatric 0.0
officialadele 0.0
butters 0.0
verrrry 0.0
buttered 0.0
winged 0.0
pedialyte 0.0
topanga 0.0
armpit 0.0
kittens 0.0
dueling 0.0
eagerly 0.0
surrealist 0.0
dethroned 0.0
manolos 0.0
señorita 0.0
monterrey 0.0
parque 0.0
retiree 0.0
batches 0.0
reservations 0.0
sickos 0.0
aplusk 0.0
kirkherbstreit 0.0
fanbases 0.0
indexing 0.0
chuckles 0.0
incorporated 0.0
washboard 0.0
earbuds 0.0
pantone 0.0
knotts 0.0
dismaland 0.0
pollock 0.0
iamkidpresident 0.0
mariah 0.0
teevee 0.0
santorini 0.0
appalachian 0.0
sunburnt 0.0
caliente 0.0
juicery 0.0
karlihenriquez 0.0
trillest 0.0
tommorrow 0.0
crumpets 0.0
fishin 0.0
grillin 0.0
jambalaya 0.0
pepperoni 0.0
cashew 0.0
graceland 0.0
pussies 0.0
delicately 0.0
eraser 0.0
choreo 0.0
snatched 0.0
elliptical 0.0
mooore 0.0
unborn 0.0
georgina 0.0
stalkers 0.0
sallykohn 0.0
expectancy 0.0
phillipines 0.0
appstoregames 0.0
wilkinson 0.0
puddings 0.0
loveland 0.0
spaced 0.0
shanny 0.0
dripping 0.0
gerber 0.0
shakey 0.0
weaves 0.0
unbeatable 0.0
linguist 0.0
prosthetics 0.0
battleship 0.0
serotonin 0.0
machiavellian 0.0
girlies 0.0
guangzhou 0.0
debuting 0.0
dissecting 0.0
warped 0.0
luckyjess 0.0
ermahgerd 0.0
fabulousness 0.0
elliegoulding 0.0
activewear 0.0
yelyahwilliams 0.0
prismatic 0.0
evaluations 0.0
skywalk 0.0
sparklers 0.0
palettes 0.0
gemmaanningram 0.0
trueeee 0.0
invisalign 0.0
pounded 0.0
lolgop 0.0
procession 0.0
stanning 0.0
squeals 0.0
continual 0.0
luminary 0.0
cummin 0.0
shaves 0.0
epixhd 0.0
preacher 0.0
boogiecousins 0.0
changers 0.0
autismspeaks 0.0
massaged 0.0
psssssst 0.0
literati 0.0
utilization 0.0
endangerment 0.0
purposeful 0.0
unlabeled 0.0
undiagnosed 0.0
snotty 0.0
gallops 0.0
slovenia 0.0
sequin 0.0
akerlund 0.0
jumbotron 0.0
edibles 0.0
knowles 0.0
caeser 0.0
thehollywoodbowl 0.0
elvispresley 0.0
adoring 0.0
ageist 0.0
thérèse 0.0
confessed 0.0
blackvoices 0.0
patties 0.0
graphically 0.0
wildflowers 0.0
groundhogs 0.0
eataly 0.0
poodles 0.0
hillaryforia 0.0
roadshow 0.0
sweety 0.0
boppin 0.0
bettywho 0.0
johnnywujek 0.0
earring 0.0
itsbennyblanco 0.0
curitiba 0.0
purrfect 0.0
shellback 0.0
chokers 0.0
hairbrush 0.0
hakuna 0.0
matata 0.0
hazing 0.0
mathew 0.0
aegean 0.0
lullaby 0.0
musiciansoncall 0.0
headpiece 0.0
morsel 0.0
whistled 0.0
conquest 0.0
viceland 0.0
lambily 0.0
scalped 0.0
graced 0.0
emblazoned 0.0
hrclosangeles 0.0
kawaii 0.0
glittery 0.0
wonderlandmag 0.0
jumpsmokers 0.0
radiodotcom 0.0
missyfranklin 0.0
pleaaaaase 0.0
lilbthebasedgod 0.0
waaaay 0.0
flossy 0.0
aria_official 0.0
berliners 0.0
matriarchy 0.0
cornered 0.0
limping 0.0
peasant 0.0
feasibly 0.0
waaaaay 0.0
slayyy 0.0
fashionistas 0.0
sangin 0.0
worldstarfunny 0.0
pliers 0.0
babyanimalpics 0.0
mediation 0.0
quests 0.0
aaaaaaah 0.0
honked 0.0
rauschenberg 0.0
whitneymuseum 0.0
lonsdale 0.0
transcendental 0.0
roarin 0.0
facetune 0.0
fausto 0.0
herning 0.0
cazzette 0.0
annnnnnnnnd 0.0
shinier 0.0
giambattista 0.0
katys_teddybear 0.0
gnight 0.0
katheryn 0.0
psychoanalysis 0.0
bckgrnd 0.0
kingman 0.0
gracevanderwaal 0.0
fecking 0.0
ihrcountdown 0.0
stubbies 0.0
xfactor_italia 0.0
aaronpauley 0.0
purity_ring 0.0
scorpios 0.0
ayyyye 0.0
capitalizes 0.0
flamin 0.0
motherfucking 0.0
jingled 0.0
pharrellhat 0.0
ontarioglow 0.0
teached 0.0
umusic 0.0
auroramusic 0.0
dailymendeslife 0.0
soloing 0.0
universalse 0.0
dustinkloeppel 0.0
robynkonichiwa 0.0
charli 0.0
lonelydot 0.0
adamselman 0.0
sorrenti 0.0
offish 0.0
vinoodh 0.0
guitarists 0.0
cocking 0.0
cabbages 0.0
amelia_libman 0.0
flutter 0.0
lolita 0.0
kingladygaga 0.0
breakthecycledv 0.0
howbow 0.0
curveballs 0.0
tamagotchi 0.0
jarryd 0.0
alliseeisgold 0.0
thebroadmuseum 0.0
sarahsowitty 0.0
brillz 0.0
jackgarratt 0.0
markryden 0.0
duffscakemix 0.0
sanrio 0.0
theniceguyla 0.0
trills 0.0
susangkomen 0.0
faustopuglisi 0.0
gurlll 0.0
cheesecakes 0.0
scorpio 0.0
oblivia 0.0
skipmarley 0.0
correcto 0.0
jessirklein 0.0
unpatr 0.0
squish 0.0
greg_wells 0.0
onlyleah 0.0
gittin 0.0
popstars 0.0
krafts 0.0
bouche 0.0
problemo 0.0
wheezing 0.0
patmcgrathreal 0.0
cienega 0.0
thundering 0.0
nastialiukin 0.0
janell 0.0
katelyntarver 0.0
miamoretti 0.0
missoni 0.0
dannymoonsworld 0.0
mrchrismcmillan 0.0
madge_freak 0.0
woridstarcomedy 0.0
ikissedasoldier 0.0
kpezandchez 0.0
perrysoldier 0.0
emilynotchez 0.0
iickmekaty 0.0
basicallyadam 0.0
katysangelegg 0.0
nicolasjebran 0.0
xchadballx 0.0
scott_myrick 0.0
lockoir 0.0
shannonwoodward 0.0
calluses 0.0
chamomile 0.0
trollin 0.0
sleighing 0.0
chestercheetah 0.0
royksopp 0.0
scottsimonswvla 0.0
sirenscaiiing 0.0
slowdownkaty 0.0
chefantoniopark 0.0
garnished 0.0
endive 0.0
mdmolinari 0.0
prezzy 0.0
motioning 0.0
hernameisbanks 0.0
rockcampla 0.0
jenniefinch 0.0
getglucky 0.0
stendhal 0.0
ryanphillippe 0.0
hotncolds 0.0
kpcollections 0.0
katie_wignall 0.0
katysdrugx 0.0
evrenperry 0.0
katycatwendy 0.0
yungskeeter 0.0
sarahhudsonuvs 0.0
mothern 0.0
oliverheldens 0.0
marrymemargot 0.0
katyperrylately 0.0
kewlest 0.0
katyshellokitty 0.0
pqgerry 0.0
rasarioatelier 0.0
anakhouri 0.0
romaneperry 0.0
hot_chip 0.0
agador 0.0
freddietinkles 0.0
cynthialovely 0.0
augustgettyatelier 0.0
tbsnetworks 0.0
ronyalwin 0.0
justinandersoncolor 0.0
mmillerrider 0.0
jpgaultier 0.0
harharharhar 0.0
iikeanangel 0.0
vonnypoo 0.0
jcoopkp 0.0
itzmero 0.0
katysprismlight 0.0
hatérs 0.0
awkwardaya 0.0
katysredskittle 0.0
tiedye_princess 0.0
adelshahal 0.0
marinadiamandis 0.0
samadizayee 0.0
itsslatykaty 0.0
johnlordperry 0.0
nuggetperry 0.0
kthnkzbye 0.0
teamkpbrasil 0.0
twenagedream 0.0
ashleyegreer 0.0
perryllover 0.0
perry_slays 0.0
_andresgalvis 0.0
poplitics 0.0
likerotica 0.0
sweetxjaureguix 0.0
jessiambriz 0.0
perryncolds 0.0
pwideawake 0.0
brunastrait_ 0.0
anafalqueto 0.0
pessoalmente 0.0
mark_hodson_ 0.0
sumtxkid 0.0
arpoador 0.0
katysmychampion 0.0
amnattg 0.0
osullivanluke 0.0
stephiruth 0.0
katy_pizza_bae 0.0
kpcatt 0.0
pedroeugeniio 0.0
gugs_prismatic 0.0
zeeusmtz 0.0
legendarycold 0.0
robynxkatheryn 0.0
écouter 0.0
energyberlin 0.0
karysjones 0.0
lilzariya 0.0
puroland 0.0
pavlovitz 0.0
dreamhampton 0.0
prismsperry 0.0
perrysmic 0.0
focusonreid 0.0
tonyatalterian 0.0
makeup_man 0.0
wtfkates 0.0
sella_sandra 0.0
katycute_ 0.0
caitsperry 0.0
katyperryforum 0.0
radiantjareau 0.0
lillysgomez 0.0
katycatsweden 0.0
perryicecream 0.0
xamyrosex 0.0
wtvrlara 0.0
bijanstephen 0.0
ameliashowalter 0.0
screamkng 0.0
tvmcgee 0.0
liiife 0.0
itskatcombs 0.0
yaaaaaasssssssssss 0.0
katysmyhabibi 0.0
skottpeace 0.0
ferras 0.0
kweens 0.0
habibi 0.0
orlandobloom 0.0
huckchinn 0.0
katycatkenzie 0.0
matarazzo 0.0
fkatwigor 0.0
perryschild 0.0
hotxcolds 0.0
maddisonxperry 0.0
akaruikaty 0.0
chillinlaidback 0.0
erryone 0.0
chrisanokute 0.0
beyelite 0.0
kuntyewest 0.0
chiroprac 0.0
katyperryrises 0.0
godneybjs 0.0
liquoronurlips 0.0
katystumblrr 0.0
holiestkaty 0.0
hollykittykaty 0.0
katysprincess 0.0
katysdonut 0.0
carlythekatycat 0.0
katycatsophia 0.0
fridaaperry 0.0
iegendarylovers 0.0
katycatveronica 0.0
katyperryslave 0.0
hakimkharbouch 0.0
keonovak 0.0
plaaaaay 0.0
scatting 0.0
shotted 0.0
dizzycoco 0.0
fkinsnapss 0.0
junkygs 0.0
ミニチュア料理 0.0
エビフライとエビ天 0.0
adidasboosts 0.0
lilithia 0.0
cottoncandizzle 0.0
ultimatebeyhive 0.0
paramorewebnews 0.0
royale_lala 0.0
musicnews_feed 0.0
katyperryextra 0.0
greeniight 0.0
gagas_illusion 0.0
lesbiyonce 0.0
blurryhface 0.0
lordofgiraffex 0.0
ifuseekamy_ 0.0
legendarymalek 0.0
hausoframez 0.0
unstan 0.0
chioekardashian 0.0
theiife 0.0
handstomyseif 0.0
legendarylovers 0.0
gagas_fandom 0.0
thinagedream 0.0
conditionalbabe 0.0
dannysuschrist 0.0
prismdluxe 0.0
herwonkeye 0.0
camilasviews 0.0
gagalovesbey 0.0
shadykatyfacts 0.0
limalimoncia 0.0
heavymetaiovers 0.0
katyscrush 0.0
waikingonair 0.0
eduardo_katycat 0.0
katyswetdream 0.0
katherynsgod 0.0
katystddbr 0.0
katyboobies 0.0
royaityler 0.0
nothingfaiis 0.0
kathrynluck_ 0.0
prismaticiights 0.0
mendesperry 0.0
katycatghita 0.0
mark_katycat 0.0
iwasdivine 0.0
skywaterr 0.0
xjojospearsx 0.0
alwaysbeperry 0.0
skoglyrihanna 0.0
legendarydurk 0.0
halseysfirework 0.0
rainbowspatrick 0.0
katysfood 0.0
honeymoonprism 0.0
onepulsetony 0.0
butcha 0.0
okurrr 0.0
the_mpt 0.0
talaofficial 0.0
miniatures 0.0
ohmyjurassic 0.0
katysmoonlight 0.0
lilly_jnes 0.0
coco_ho 0.0
perryhumorr 0.0
yikesjonathan 0.0
rubyrankin 0.0
thealekovski 0.0
cydney_moore 0.0
truebluedeluxe 0.0
thedutchass 0.0
katyskettle 0.0
ferraseu 0.0
katyssunlight 0.0
typosqween 0.0
adoreeeperry 0.0
katyperryfrance 0.0
snowiner 0.0
_coolkatycat 0.0
nicothekatycat 0.0
adorbies 0.0
jackygerardchan 0.0
brewmystew 0.0
katyswildfire 0.0
rihftperry 0.0
theolagu 0.0
ritajoness 0.0
iitsjackie 0.0
mjjperry 0.0
jesuskylie 0.0
holyerotica 0.0
graceofkaty 0.0
redsvelvets 0.0
booyakasha 0.0
tariqterry 0.0
katycatalannah 0.0
taylxre 0.0
pacifyher 0.0
basedkatyperry 0.0
diddleurskittle 0.0
katysanalien 0.0
gagasspace 0.0
tayiorhq 0.0
givenchydress 0.0
augustryder 0.0
perrysmoschino 0.0
kittehn 0.0
katrieber 0.0
legendaryhunty 0.0
katyslegs 0.0
katyfroot 0.0
winesandlines 0.0
sam_incolour 0.0
wakingonair 0.0
drwssinup 0.0
huffdaddysays 0.0
fiwwwwine 0.0
matthewroper 0.0
emmabruhhh 0.0
gingerwesson 0.0
nicholas_sewell 0.0
perfectlyperry 0.0
bustabusta 0.0
mynameisziam 0.0
venuzszfly 0.0
katherynsus 0.0
sacredperry 0.0
thedollsftkaty 0.0
_cafajeff 0.0
debkatycat 0.0
katycats 0.0
eastonjames_ 0.0
oliviabooker_ 0.0
protecti 0.0
outrageousness 0.0
joanneprada 0.0
scuffed 0.0
catoure 0.0
blanged 0.0
tahmorrow 0.0
glukatyperrypop 0.0
jamesjoint 0.0
pressin 0.0
bourree 0.0
honeysuckle 0.0
meowings 0.0
fashun 0.0
happun 0.0
vikander 0.0
thekatyperrypopgame 0.0
karolfabianaros 0.0
nico_thekatycat 0.0
miss_lilyjames 0.0
stylinfunk 0.0
hudsontheband 0.0
jere_my 0.0
crabitat 0.0
tiersz 0.0
unrehearsed 0.0
fanclub_kp 0.0
oneofthesophies 0.0
fusterlandia 0.0
lazyblazy 0.0
katycatchloe 0.0
figali 0.0
prismaticness 0.0
titicaca 0.0
ancientaliens_ 0.0
sneezin 0.0
cristos 0.0
mallman 0.0
prismaticlife_ 0.0
ravensuxx 0.0
perrypositive 0.0
derkwhore 0.0
alekjandro 0.0
havss_ 0.0
hqzaynmaiik 0.0
thique 0.0
bbhmms 0.0
jkatharineb 0.0
jennyformica 0.0
tiiiiiight 0.0
ikissedagay 0.0
harryvuitton 0.0
aeschleahd 0.0
princessjavonda 0.0
errrythang 0.0
kooning 0.0
sugarray 0.0
empaths 0.0
goldenboyz_inc 0.0
voguejp 0.0
chickenwingguardingthemimosa 0.0
katyperrypopup 0.0
unmeasurably 0.0
transviolet 0.0
beauteous 0.0
katyskidrauhl 0.0
thooooooseee 0.0
clairesstores 0.0
nailsbymh 0.0
katysacutie 0.0
psychokatycat 0.0
kaceymusgrave 0.0
refueled 0.0
hyungsunju 0.0
okuurrrr 0.0
cholewheeler 0.0
leftshark 0.0
momchella 0.0
crotches 0.0
hookedondolls 0.0
fyuseapp 0.0
mogonoloball 0.0
atletica 0.0
katycatsclub 0.0
catacombs 0.0
poppycorn 0.0
cupped 0.0
christiania 0.0
residenz 0.0
lindseyweber 0.0
butterballface 0.0
joshlecash 0.0
myassistant 0.0
swiftschrist 0.0
snowhiteperry 0.0
emmakphughes 0.0
katyslegend 0.0
dansnierson 0.0
scressful 0.0
prismaticwitch 0.0
finnin 0.0
habibis 0.0
mophies 0.0
strongé 0.0
drumkit 0.0
anamanaguchi 0.0
gaultier 0.0
ngvmelbourne 0.0
dukedumont 0.0
legendaryasmyn 0.0
highlarious 0.0
calpurnia 0.0
waaaaait 0.0
mktfah 0.0
fwding 0.0
caseyhoops 0.0
worldstarvlne 0.0
flapfkp 0.0
bettycrocker 0.0
mexxxico 0.0
whhhhhhhhuuuuuutttt 0.0
yelletweets 0.0
gucciqxxn 0.0
luckyladyrebelettes 0.0
junglejulia 0.0
charlottes_web 0.0
istarbucksniall 0.0
katysroaaar 0.0
fiorucci 0.0
whuteva 0.0
sirdavidd 0.0
fudgery 0.0
bizquick 0.0
itsgrandtheft 0.0
grandtheft 0.0
katysfancy 0.0
ameezyyrush 0.0
mykectown 0.0
itsvalkubus 0.0
walkslikeperry 0.0
iwantperry 0.0
exausto 0.0
selfeh 0.0
aquaberry 0.0
sidepiece 0.0
versacness 0.0
iamleslii 0.0
alocalgyro 0.0
cutina 0.0
theoutslder 0.0
prism_katy_cat 0.0
katyshoodrat 0.0
thestevetisch 0.0
ronysphotobooth 0.0
schlitterbahn 0.0
kpsnosecrinkle 0.0
alwz_katycat 0.0
whykph 0.0
californiagurls 0.0
katycattt 0.0
varicose 0.0
itsbrillz 0.0
perrystiger 0.0
katysmyaura 0.0
paolablancokp 0.0
callmemargot 0.0
indiggynado 0.0
katycat 0.0
anylinden 0.0
kpkillerqueen 0.0
katyslilacwine 0.0
katypvenezuela 0.0
franzikaty 0.0
katherynelperry 0.0
doessss 0.0
katysleftarm 0.0
datingprism 0.0
_smiler_katycat 0.0
kepyterry 0.0
katycat_camille 0.0
vckatyperry 0.0
bowzerjoe 0.0
taishrox 0.0
mütter 0.0
arianperryarian 0.0
lisasigh 0.0
fridiskp 0.0
kevinruda 0.0
katyperrydaily 0.0
wakingupvegas 0.0
marlyins 0.0
drankin 0.0
herkatycat 0.0
luvhudson 0.0
yaeltsairi 0.0
felipinhoofm_ 0.0
renanmarcall 0.0
kariseperry 0.0
emojing 0.0
konnie 0.0
mcperry 0.0
iturnmycanonon 0.0
katycatelysha 0.0
andrewnavs 0.0
katycatkrystal 0.0
lovelyandlaugh 0.0
lampoonians 0.0
perrytuuda 0.0
katymyhaven 0.0
ruletheschool 0.0
cheapandchic 0.0
sically 0.0
crazyforperry 0.0
kpdaily 0.0
getonupmovie 0.0
cutetina 0.0
chimiuzz 0.0
kefali 0.0
joelkefali 0.0
siclly 0.0
mtvother 0.0
lydiaacav 0.0
prismaticperry 0.0
jwujek 0.0
adorbie 0.0
errone 0.0
kaliyah 0.0
katysweirdness 0.0
vinbiodiesel 0.0
katysfxb 0.0
katyspurrfect_ 0.0
shannonmwoodward 0.0
bippity 0.0
boppity 0.0
swiggty 0.0
swoogity 0.0
pizzarella 0.0
firewerk 0.0
katyslayed 0.0
emerald_epelman 0.0
madkatydisease 0.0
mandee 0.0
ohferras 0.0
sarahh 0.0
iaustinhunt 0.0
lanawhore 0.0
spaceykacey 0.0
crazay 0.0
elektrikpeople 0.0
visa_nz 0.0
fvckin 0.0
nathanspicer 0.0
cashcash 0.0
ashish_uk 0.0
xokatic 0.0
turnting 0.0
scorpiomystique 0.0
toddthomasnyc 0.0
kohngallery 0.0
discnt_universe 0.0
dressinkaty 0.0
lee_cook 0.0
bloodshot 0.0
yaddlizc 0.0
elnett 0.0
itsthekatycats 0.0
kelly_moritz 0.0
katyslaykaty 0.0
skintxghtjeans 0.0
socarrer 0.0
errrday 0.0
therealslacker 0.0
wendywild 0.0
welkys 0.0
sohohouse 0.0
selfing 0.0
camiilaruales 0.0
nexxxt 0.0
turrell 0.0
alliexxxxandra 0.0
surfboardt 0.0
telstra_news 0.0
juanitadele 0.0
oopskatycat 0.0
sophkatycat 0.0
katyschild 0.0
katysconverrse 0.0
katycat_leah 0.0
katycatverified 0.0
katycat_libby 0.0
katyswonk 0.0
kittless 0.0
jlrcukp 0.0
siiiiiiiiiiiiii 0.0
ermagherd 0.0
imlynsey 0.0
perrys_cherry 0.0
casemcgase 0.0
hazzaily 0.0
herses 0.0
gaypropaganda 0.0
tixforcharity 0.0
hudsons 0.0
nomers 0.0
mommacat 0.0
superlove 0.0
bonacorso 0.0
levi_leet 0.0
thinkingofbecki 0.0
cybering 0.0
pamyurin 0.0
idreamofkaty 0.0
xfactor_au 0.0
glohudsonperry 0.0
aubreyplzza 0.0
eeshhuhhayniac 0.0
bonkay 0.0
katysbum 0.0
nevillebradley 0.0
curryswift 0.0
zinepack 0.0
katykatt_suraya 0.0
sweetkatybird 0.0
yohkatheryn 0.0
cottoncandykaty 0.0
karolynadiaz 0.0
maayansharvit 0.0
theprismcess 0.0
camisp_ 0.0
lucasgaldin 0.0
prixy_mtz 0.0
niggasperry 0.0
kaksperry 0.0
zennnnaaa 0.0
katyissmurfy 0.0
dadehoward 0.0
kyledsaavedra 0.0
katysdoritos 0.0
pendejabardera 0.0
rosenilsou 0.0
hackensucks 0.0
gottabesheerio 0.0
ismaellgarcia 0.0
milegendz 0.0
alexskarev 0.0
ladycrystalb 0.0
katyspad 0.0
xcallmechrissyx 0.0
arianastylesss 0.0
jorgebaker 0.0
matty_zee 0.0
katycatzilla 0.0
adorie 0.0
meowwdison 0.0
alvin_koopa 0.0
lexyauditore 0.0
kease_it_raw 0.0
katysking 0.0
chris__kirby 0.0
katysbestfrwend 0.0
katyslildancer 0.0
sssshhh 0.0
conorhughess 0.0
tanimura 0.0
thekatycatlife 0.0
weefififookface 0.0
breakalioz 0.0
hudsonhelper 0.0
lariitaa 0.0
meeeeeooooooooowwwww 0.0
legend__dary 0.0
katyandliam 0.0
_theatrekid 0.0
babybritney 0.0
erinlorimer 0.0
_zacmoore_ 0.0
itscezzurryo 0.0
katycatskp 0.0
larissafilipo 0.0
siaylorswift 0.0
shitkittens 0.0
thefrankradical 0.0
katysprism 0.0
katytinalevine 0.0
serjeeoh 0.0
kayz_perry 0.0
katyslaysurfav 0.0
fuckyeahitskath 0.0
sweetyitosan 0.0
pickerington 0.0
verrado 0.0
retweete 0.0
jameswaterhouse 0.0
hunnah 0.0
truth_ispeak 0.0
_emilybarbarrr 0.0
nbllrrr 0.0
jmoneygraves 0.0
eaglenationnews 0.0
tauentzienstrasse 0.0
avontbh 0.0
vinnie_mate 0.0
demilovve 0.0
coolestkatycat 0.0
terri_katycat 0.0
beeeaaatttt 0.0
laurenfrancisco 0.0
victaytayp 0.0
aylajaye 0.0
iloveu 0.0
augustvaz 0.0
lizzievang_ 0.0
edsssss_ 0.0
hhhhhholly 0.0
holly_hickin 0.0
trixxx 0.0
killah 0.0
treasurefingers 0.0
最強ガール宣言 0.0
voykovic 0.0
annunaki 0.0
katyshomie_ 0.0
katyselephant 0.0
caitlynsmith 0.0
lightsperry 0.0
elizagilham 0.0
ohmyjatyfeels 0.0
junglescope 0.0
drunkskaty 0.0
malikpom 0.0
dancerlaurena 0.0
brirad 0.0
elisa_rv 0.0
moooom 0.0
pattymeagher 0.0
iwasemily 0.0
shahrzadphoto 0.0
tvjohnny 0.0
cstonethebreadwinner 0.0
katysrightboob 0.0
cyberdlck 0.0
beatforkaty 0.0
igabriiel 0.0
duuuuddddeeeee 0.0
redrum 0.0
srbuhiii 0.0
kayleighcat 0.0
applekatycat 0.0
ikatycats 0.0
wehryspencer 0.0
emilyjonesphoto 0.0
coxgabe 0.0
drugmoneyx 0.0
steven_drum 0.0
victoriacha 0.0
hashtaggin 0.0
perryandemetria 0.0
katycatfurlife 0.0
iammelissalynn 0.0
qewtie 0.0
yscheecat 0.0
slayty 0.0
katystree 0.0
katherynsboy 0.0
anapurry 0.0
nenedez 0.0
kevinn_perry 0.0
gloria_swag_ 0.0
andyamaziing 0.0
roarsana 0.0
brighthudson 0.0
fixingperry 0.0
roooooooooooooar 0.0
gretschusa 0.0
katys_cupcake 0.0
wonderation 0.0
kasek_craig 0.0
katysgurll 0.0
pepperperry_ 0.0
teamkatyperry 0.0
meandnutella 0.0
lovatokitten 0.0
katyslolly 0.0
astixxx 0.0
ravemomentz 0.0
erzaabrianto 0.0
katyperryindo 0.0
seeingdaisies 0.0
gillian_e_dubbs 0.0
samanthachazene 0.0
perryprism_ 0.0
katycompletesme 0.0
ltskatyperry 0.0
kittenscks 0.0
nihanofficial 0.0
momcat 0.0
kaytehperreh 0.0
__grazi 0.0
clairekatycat 0.0
fangurl 0.0
rrrrrrrrrrrroooooooooooooaaaaaaaaaaaaar 0.0
marispiva 0.0
mattdrobins 0.0
deihemmings 0.0
rooaaarr 0.0
katycatobsessed 0.0
katycatnick 0.0
tigerkats 0.0
kristenanzelc 0.0
taylermckellop 0.0
essesfadaperry 0.0
imjare 0.0
smganonymous 0.0
roaaaar 0.0
phuckyotweet 0.0
evvvvvverrrr 0.0
melvynmarrero 0.0
zouisashton 0.0
trillneyspears 0.0
rooooooar 0.0
fanwars 0.0
fentyncold 0.0
ttish_ 0.0
rachelacogan 0.0
makesmariana 0.0
kkaplon 0.0
rafaelmoncada 0.0
yaaaassssgrl 0.0
oioianna 0.0
katycatrazan 0.0
megaan_katycat 0.0
thekaelynn 0.0
hannahloupunton 0.0
thumbelinafairy 0.0
nic_kathryn 0.0
dannahfields 0.0
rodneybroaddus 0.0
noxisanasshole 0.0
soedesh__ 0.0
hookerofversace 0.0
thinkingofkaty_ 0.0
msgracevalerie 0.0
francfernandez 0.0
katysring 0.0
a_little_spark 0.0
laaxiss 0.0
