awesome 0.00160767240157
christmas 0.000951968386679
trying 0.000542573658016
launch 0.0
moment 0.000409130065041
wonderful 0.00025394299399
seeing 0.000464501742052
hanging 0.000113997392972
sounds 0.000192958386179
recommend 0.00013459635636
worked 9.77928611335e-05
direct 0.0
others 0.000486325383965
currently 0.0
better 0.00116296942099
please 0.000498701685367
social 0.000101301514216
anxiety 0.0
around 0.000536755117381
people 0.00174445413149
morning 0.000449713752882
traditional 0.0
general 0.00011592132059
damage 0.0
everything 0.000809484755188
twitter 0.000270556549486
present 0.0
though 0.000374621130928
friend 0.000180857886005
watched 0.0
beautiful 4.63250563806e-05
anything 0.00050275130102
previous 0.0
helped 0.0
updated 0.000929260289104
thinking 9.19035783631e-05
finally 0.000229758945908
caught 0.000253253785539
believe 0.000538203850021
already 8.97006416702e-05
couple 0.000294971333231
orlando 7.6585802481e-05
chance 0.00310302489489
meaning 6.65064832979e-05
growing 5.39338271616e-05
probably 0.000146292869612
password 0.0
changed 0.00014432813789
history 0.000185300225522
center 0.000235775071398
museum 0.0
behind 0.00017891837246
screaming 0.0
pretty 0.000321662524271
really 0.000854456130476
little 0.000717605133362
happiest 9.52163464657e-05
earlier 5.26203026355e-05
forget 0.000455816111257
someone 0.00086139382018
safety 6.51538655375e-05
program 0.0
things 0.00111823982788
related 0.0
visiting 0.000124059581838
available 0.000513716111866
perfect 0.00023413820683
different 4.57046637291e-05
search 6.01187215283e-05
connect 0.0
numbers 0.000281062837046
person 0.000405834824229
watching 0.000542573658016
exhibit 0.0
passed 5.48314410917e-05
prefer 0.0
minutes 0.0
travel 0.000109965620835
outside 0.000285553610488
looking 0.00116610834171
forward 0.000554403450722
agreed 0.000120578240369
raising 0.000128424310221
listened 0.0
afraid 0.000116246036686
impression 0.0
christian 0.000157708535874
profile 0.0
instant 0.0
drawing 8.01660802271e-05
wheels 0.0
favorite 0.0008350543239
picture 4.78500765816e-05
instead 0.0
appreciate 0.00412689276921
international 5.55934628112e-05
station 0.0
toddler 0.0
market 6.06318773643e-05
couldn 0.000327793489562
remember 0.000269828251729
vintage 0.0
holidays 0.000770545861324
friends 0.000271286829008
everyone 0.00125919850807
florida 6.63107298427e-05
always 0.00246012762133
months 4.69541749529e-05
moving 4.83701939898e-05
meeting 0.000184303463209
answer 0.000691137987035
sweetie 0.0
together 0.000496020340724
inside 9.36552827321e-05
section 0.0
missed 0.000136744833377
button 0.0
longer 5.19068968731e-05
enough 0.000227294480578
driving 5.49828104176e-05
building 0.000252566694474
enjoying 0.000109965620835
london 0.0
exploring 0.0
posting 0.000134996621843
amazing 0.00103155737921
attention 0.000152780599752
gordon 0.0
progress 0.000124772407811
tomorrow 0.00224856876441
george 0.0
feeling 0.000188324270003
excited 0.000892129324105
understand 0.00068640547908
following 4.7208321052e-05
asleep 0.0
learning 0.0
evening 0.000102968503808
special 0.00108807640444
secret 0.000151129024696
across 5.0239762549e-05
surprised 5.36385812506e-05
anymore 0.0
sophia 0.0
precious 0.0
rejoice 0.0
version 4.96975790244e-05
rather 0.0
avatar 0.0
showing 0.000431815860346
saying 0.0
tweeted 0.0
thoughts 0.000811256774871
exactly 0.000340427768775
except 0.0
getting 0.00116925575749
nothing 0.0007645133799
tweets 4.95630538309e-05
course 9.29003484103e-05
photos 0.000217521530196
looked 0.0
difficult 0.000296381657061
stages 0.0
office 4.86325383965e-05
decisions 6.79012829542e-05
brought 0.000149497530078
biggest 0.000277950338284
thrilled 0.0
something 0.000854456130476
closing 0.0
anyone 0.000226682584258
taking 0.000539656503458
recently 0.0
interesting 0.000300621595793
original 0.0
flying 0.0
happening 4.90289627914e-05
sometimes 0.000148689161493
lessons 0.000130307731075
village 0.000180561045535
stopped 0.000105528718841
yesterday 0.000362692134813
service 0.000197715728048
serious 0.000240546896484
digital 0.0
hoarder 0.0
wearing 0.000158293078262
british 0.0
either 0.000245144813957
second 9.06730337031e-05
checking 0.0
indeed 0.0
island 0.000127313001691
hearing 0.0
choose 0.0
staying 0.000182412737856
another 0.00103155737921
clothes 0.0
slowly 8.15175302502e-05
weekend 0.00104837705589
hashtag 0.000132621459685
delivery 8.23484444184e-05
theory 0.0
working 0.0007645133799
bigger 0.000316586156524
screen 0.0
riding 0.0
laughing 0.0102956373787
wanted 0.000227294480578
trends 0.0
stripes 0.0
clothing 9.59681220294e-05
current 0.0
adorable 0.0
grateful 0.000293892043609
friendship 0.0
family 0.000989370256341
listening 0.0
stream 0.000247410575136
expressions 0.0
wedding 0.0
sharing 0.000423271053253
double 0.000356488066088
especially 4.9832510026e-05
middle 5.16246903022e-05
waiting 9.21517316046e-05
definitely 0.000147485666615
walking 0.000161801481485
account 0.0
completely 0.0
thought 0.00058937471907
reaction 0.000123000880888
accept 0.000114954184833
simple 0.000261667867463
professional 6.67030972105e-05
friendly 0.0
supposed 0.0
business 0.000194004695433
absolutely 4.81093792968e-05
anywhere 5.9948969548e-05
sending 0.000730672533413
introducing 0.0
congrats 0.00240762437365
beauty 6.43989177747e-05
community 0.000110880032744
greatest 9.83237777436e-05
selfie 6.72981781798e-05
posted 5.31993345805e-05
saturday 0.000427175274802
wednesday 0.000162693104561
confused 0.0
expression 0.0
chicago 0.0
closest 8.5835632447e-05
relationship 0.0
actually 0.000138227597407
easter 0.000123000880888
basket 0.0
myself 0.000412606374947
argument 0.0
school 0.000868388610852
thursday 0.00221303144765
selling 6.15004404438e-05
talented 0.000177329221669
celebrate 4.96975790244e-05
falcon 0.0
celebrating 0.000107277162501
contest 0.000117227317306
experiences 0.0
students 0.000536502474997
internet 0.0
figure 0.00016135788181
opened 0.000131457115446
featuring 5.8449513173e-05
inspired 0.000108760765098
sitting 5.07885987981e-05
playing 0.00146254923933
street 9.9665020052e-05
points 0.000230550806164
memory 0.000124415284836
forever 0.000152365796394
imagine 0.000100207198598
problem 9.64791930897e-05
played 0.000552637388039
canadian 0.0
pulling 0.0
keeping 0.000150719287647
lovely 0.0
dressed 7.25915331181e-05
specifically 0.0
unlike 0.0
disappointed 6.76993431389e-05
otherwise 6.38409530371e-05
afternoon 5.29088816566e-05
planned 0.0
strange 0.0
images 0.0
noticed 0.0
notice 6.09772813441e-05
stretch 0.0
inspiration 0.000246704781825
letting 5.52870945374e-05
system 5.62125674092e-05
possibility 0.0
almost 0.000224856876441
details 0.00181898988826
experience 0.000234770874764
living 9.39083499058e-05
weather 0.000114954184833
normal 0.0
launching 0.0
before 0.000146292869612
captured 9.02805227675e-05
colors 0.0
monday 0.000469541749529
example 0.000237774180156
realize 0.0
autographed 0.000115646963961
sleeping 0.0
authentic 0.000111170271582
science 0.0
tweeting 0.000102688506126
forgot 5.63686918019e-05
chasing 0.000186780790521
gorgeous 0.0
herself 0.0
happens 0.000186302571967
silence 0.0
learned 0.00020819468265
congratulations 0.000247815269154
natural 0.0
raised 0.0
babies 6.99724674421e-05
mission 0.000182931844032
smelled 0.0
ironic 0.0
testing 0.0
deleted 0.0
barely 0.0
unforgettable 0.000104275174395
forgotten 0.0
trouble 5.55934628112e-05
fantastic 0.000424430978887
loving 5.30538723609e-05
complete 0.000103249380604
nearly 0.0
spirit 0.000174857903582
launched 6.70989369011e-05
finding 5.49828104176e-05
mercury 0.0
stories 0.000194530153586
including 0.000149903547874
mature 0.0
stuffed 0.0
ancient 0.0
bottle 7.01849599706e-05
somewhere 0.0
wouldn 0.000339508217008
choice 4.79795400384e-05
conversation 0.000218722329149
making 0.000493353529186
expect 0.000161801481485
occasions 0.0
subject 0.0
flights 0.0
location 0.0
vacation 0.0
seriously 9.93951580487e-05
spending 0.0
groups 0.0
childhood 0.0
modern 0.0
welcome 0.000772801233966
moments 0.000167705831959
degrees 0.0
jacket 0.0
halloween 0.000202494932764
costume 8.89648516503e-05
totally 0.0
laughed 0.0
flight 0.000161801481485
kidding 7.0398466787e-05
regular 0.000133406194421
context 0.0
running 0.00023604160526
finished 5.37859606034e-05
strong 0.000416925507425
tracking 0.0
respond 0.000135802565908
message 0.000286325920543
coming 0.00183886315424
thankful 0.000495799936396
cheese 0.0
greens 0.0
issues 0.000107277162501
intolerance 0.0
happen 0.000504108613672
giving 0.0023184037019
turkey 0.000196608516238
excellent 0.0
limits 0.0
common 5.55934628112e-05
pressed 0.0
situation 0.0
options 0.0
health 0.000106107744722
insurance 7.75798343471e-05
change 0.00049468512817
singing 0.0
august 0.0
crying 0.0
mental 6.69005791786e-05
happened 9.46718753335e-05
demand 0.0
generally 0.0
personal 4.88964305667e-05
beyond 0.0
bruised 0.0
question 0.000367614313452
chicken 0.0
reward 9.37496710325e-05
tunnel 0.0
losing 0.000110880032744
respect 0.00137653288841
caption 0.00218997596871
shouldn 5.37859606034e-05
visited 7.06129976208e-05
reason 0.000284015626
simply 0.0
darlin 0.0
audience 0.0
involved 0.000104667146985
unhappy 0.0
reality 0.000267458429515
extremely 0.0
without 0.000272019101109
falling 0.0
countdown 0.0
locations 0.0
timing 0.0
crabby 0.0
classic 0.000220538774928
highly 0.0
online 0.0
finger 0.0
animals 0.0
planets 0.0
called 0.000135643414504
delicious 0.0
almond 0.0
compliment 8.99479592049e-05
pictures 0.000170521084433
camera 5.87784087218e-05
pillow 0.0
checked 0.0
heading 0.000481425173128
theater 0.0
paying 0.0
planning 0.0
complex 0.0
sunday 0.00315861184595
nights 0.000132621459685
descending 0.0
traffic 0.0
opposite 0.000147459504239
through 6.31076645963e-05
lookout 0.000142174462938
reached 0.0
harder 0.000250261924287
random 0.00144179578575
changes 0.0
speaking 0.000154452755712
recorded 0.0
washed 0.0
november 0.000120578240369
answered 0.0
enchanted 0.0
number 9.21517316046e-05
adventures 0.0
eclipse 0.0
chocolate 0.0
unless 0.0
calling 0.000330458247364
mermaid 0.0
distraction 0.0
levels 6.91324503956e-05
option 6.51538655375e-05
shopping 6.83079184195e-05
former 5.65253630413e-05
actual 5.97798593537e-05
covers 0.0
mountain 0.0
friday 0.000364652889006
winner 0.00169890687591
closes 9.19814726994e-05
quality 0.000116246036686
father 0.000460842219332
wishes 0.000175840975959
hourly 0.0
matter 0.000289437579269
themselves 7.85964597701e-05
usually 5.9948969548e-05
period 0.0
parents 5.39338271616e-05
balance 0.0
publishing 0.0
mobile 0.0
woohoo 0.0
bracelets 0.000327251143374
summer 9.70023477165e-05
reminded 0.000156170517712
impressed 0.0
necklace 0.0
shutdown 0.00179536932008
dinner 0.000646068527317
single 0.000185300225522
packed 7.37297521193e-05
definition 0.0
energy 0.000267458429515
preview 0.000192078507025
monster 0.000155159668694
material 0.0
admission 0.0
europe 6.22076424182e-05
holiday 0.00082824913643
emotional 0.0
update 0.0
customers 0.0
messing 0.000113915279584
holding 5.31993345805e-05
electric 8.04331233672e-05
eating 0.0
outfit 0.0
picked 5.60569860589e-05
fabulous 0.0
missing 9.59590800768e-05
surprise 4.81093792968e-05
officially 0.000104953416626
french 0.0
global 0.0
follow 0.000813860487024
opinion 0.000175840975959
backwards 0.0
design 6.79012829542e-05
secrets 8.43494627476e-05
request 0.00013868196069
breaks 0.0
allows 8.46427726059e-05
promoting 0.0
volunteer 0.0
wondering 0.0
official 0.000836103135693
sweater 0.0
jersey 0.000907360580693
mistake 0.000124415284836
france 0.0
proper 0.0
ginger 0.0
peaceful 0.0
lighter 0.0
thinks 5.24767083128e-05
competition 0.000304021229759
hospital 0.0
industry 0.0
trending 0.0
leadership 7.0398466787e-05
organized 0.0
showed 0.000508728267372
circle 0.0
success 0.000660251784375
ladies 0.000123352390912
dreams 0.00047287792445
protect 0.0
onesie 0.000152961543614
explanation 0.0
control 5.0239762549e-05
coincidence 9.48451443924e-05
discovering 0.0
laying 0.0
invited 0.0
healthy 6.09772813441e-05
surgery 0.0
allowing 0.000315417071748
arrived 0.0
opening 0.000342275013967
popular 0.0
pleasure 0.000338212150812
spectacular 0.0
animal 0.0
luggage 0.0
wonder 0.000195057159482
matters 0.000118219481112
reader 0.0
function 0.0
marketing 0.0
connection 0.0
improves 0.0
benefit 5.63686918019e-05
continues 0.0
cuddle 0.0
routine 9.12933115396e-05
exciting 0.000107867654323
corner 0.000449485085773
imagination 0.000107589993836
sangria 0.0
mystery 0.0
spring 0.0
beautifully 0.0
places 5.36385812506e-05
feedback 0.0
continue 0.000519068968731
attend 0.000135398686278
creative 0.0
memories 0.000123000880888
female 0.0
grandma 0.0
closer 5.63686918019e-05
accent 0.0
beginning 0.000339152178248
sooner 0.0
everywhere 0.000107277162501
scenes 0.000114634115847
bought 0.0
wishing 6.51538655375e-05
discovered 0.0
remove 0.0
predict 0.0
parrot 0.0
several 0.0
teacher 0.000134197873802
passing 6.08042459518e-05
become 4.69541749529e-05
spread 5.13442530631e-05
netflix 0.0
season 0.00322159849901
putting 0.000283249926312
weight 0.0
outfits 0.0
notification 0.0
annoying 0.0
necessity 0.0
knocks 0.0
processed 0.0
necessarily 9.87035344943e-05
effects 0.0
lighting 0.0
headed 5.94435450391e-05
returns 6.02891201843e-05
expected 0.0
bucket 0.0
constantly 8.29110882284e-05
sweetest 0.0
struggling 0.0
register 6.69005791786e-05
transition 0.0
flowers 8.52352262091e-05
sprain 0.0
savage 0.0
somebody 0.0
covering 6.95504870189e-05
gloves 0.0
repeat 0.000250981918709
managers 0.0
brothers 0.000551399104849
patriots 0.0
seahawks 0.0147568396233
player 0.0013804005529
chemistry 9.83023695351e-05
moonlight 0.0
comment 0.00162289848826
columbia 0.0
physical 7.48976929663e-05
kingdom 0.0
pretend 0.0
charles 0.0
fighting 0.000204818764148
rooting 0.00017989591841
donald 6.45864635132e-05
mexico 0.0
police 5.7960660295e-05
represent 0.000228290848809
president 0.0
talking 0.000676391373715
unbelievable 7.14815607003e-05
shrimp 0.0
giants 0.000174122354828
conference 5.57474374662e-05
america 9.57001531631e-05
everybody 0.000166320049117
houston 0.0
everyday 6.38409530371e-05
michael 0.000457097389183
protecting 8.01660802271e-05
unconditional 0.0
million 4.7208321052e-05
election 0.0
telling 0.000102131126216
correct 0.00011592132059
pulled 0.0
starbucks 0.000297324989864
americans 0.0
killed 0.0
cowboys 0.000230124510143
cowboy 0.0
coverage 0.00103661378285
dallas 0.000222579826101
coffee 0.0
timeline 7.70800571576e-05
refuse 0.000161403540759
barackobama 0.0
hillary 0.0
clinton 0.0
gatorade 0.0
sharper 0.0
american 0.0
deserved 0.000343591422687
realist 0.0
illegal 7.48976929663e-05
arizona 8.89648516503e-05
waffle 0.0
scared 0.0
pieces 0.0
taught 0.0
golden 0.000121263754729
straight 9.9665020052e-05
massage 0.0
filter 0.0
answers 5.7960660295e-05
smoking 0.0
created 0.0
beside 0.0
worlds 0.0
record 0.000187816699812
freddie 0.0
africa 0.0
recruiting 0.0
journey 0.000116899026346
snapchat 8.34808996681e-05
brother 0.000712808734192
prayers 0.00070398466787
trolling 0.0
hungry 0.000289469296647
nflnetwork 0.0015048526449
documentary 6.72981781798e-05
boston 0.0
addition 7.83401290221e-05
church 0.0
honestly 6.42121551104e-05
lounge 0.000105665843705
lifetime 0.0
captain 0.0
favorites 0.00039950310961
country 0.000371601393641
valley 0.0
huddle 0.0
dressing 0.0
finish 0.000387009661762
favourite 0.0
prayer 0.0
nominated 0.000269993243685
praying 0.00055397738805
insane 6.65064832979e-05
national 9.7265076793e-05
reform 0.0
shooting 0.000112425134818
australia 0.0
deserve 0.000165404081196
legend 0.000239795878192
mother 0.000400828794391
realest 0.0
creating 0.0
powerful 5.48314410917e-05
chilling 0.000189690288785
wisdom 0.000151709024381
breaking 4.83701939898e-05
parked 0.0
angeles 7.83401290221e-05
dollars 0.0
questions 9.21517316046e-05
racist 0.0
girlfriend 9.48451443924e-05
performance 0.000260243353313
refreshing 0.000105197466722
educated 0.0
reading 0.000143162960271
denver 0.000282335567855
videos 0.00023184264118
harmony 0.0
create 0.000156146011988
jordan 7.83401290221e-05
admire 0.000166390173198
nobody 0.000165404081196
government 0.0
politics 0.0
paradise 0.0
recover 0.0
spotted 7.58545121904e-05
blessing 0.000856947118191
coolest 0.000159273459504
banana 0.0
donate 0.000545686896279
sandwich 0.0
lookin 0.0
method 0.0
bullshit 0.0
slight 0.0
bringing 0.000404106711159
deserves 0.000538018734183
regret 7.91135706521e-05
celebs 0.0
victim 0.0
stadium 0.0
funniest 0.00024620926339
according 0.0
pumped 0.000179235700017
hamburger 0.0
heaven 0.0
honest 0.0
rolling 6.74983109214e-05
became 5.62125674092e-05
feature 0.0
waking 0.0
breakfast 0.0
counting 0.0
signing 0.000176831303549
adding 0.0
awareness 0.000128797835549
kindest 0.0
trainer 0.0
facebook 4.81093792968e-05
insanity 0.0
repost 0.0
brazilian 0.0
campaign 0.000104381790488
borrow 0.000102485752056
scorpion 0.0
popcorn 0.0
factory 0.0
teenage 0.0
endorsement 0.0
williams 7.1701362583e-05
custom 0.000270841568302
drinks 0.0
future 0.000509575620187
angels 9.79047705339e-05
fingers 0.0
sister 0.0
earrings 0.0
warrior 9.55906548685e-05
dancing 0.0
voting 0.000221760065489
individuals 9.06155774661e-05
presence 0.0
commercial 0.000246704781825
chopped 0.0
religion 0.0
century 0.0
submit 0.0
serving 0.0
because 0.0
aggressive 0.0
sensitive 0.0
smiling 0.0
besides 9.33903952606e-05
cleveland 0.000177283785792
hometown 0.000160866246734
killing 0.0
breath 0.0
phillips 0.0
instagram 0.000187158611716
sharks 0.0
cousin 0.0
honored 0.000311931019527
dedication 0.00037938057757
lifting 0.0
lyrical 0.0
talent 0.000479591756384
goodnight 0.0
stores 0.0
rushing 0.0
brains 9.91083299548e-05
sandwiches 0.0
drinking 0.0
brazil 0.0
tattoo 0.0
ravens 0.0
regardless 0.00015874877069
skills 0.000187158611716
cameras 0.0
phones 0.0
california 0.0
seconds 6.01187215283e-05
listen 0.0
smiled 0.0
kicking 0.000190418418479
homies 0.000133489943411
billion 0.0
shades 0.000505945756629
shoutout 0.000424690092585
grammy 0.0
guilty 0.0
stevie 0.0
ceiling 0.0
carpet 7.73292477359e-05
grammys 0.0
harvard 0.0
panther 0.0
nelson 0.0
mandela 0.0
handle 5.8613658653e-05
sexiest 0.0
promise 0.0
hosting 0.000294718839248
hahahaha 0.000396433319819
longest 0.0
tuesday 0.000102131126216
locker 0.000403060683862
workout 0.000174745766314
ingredient 0.0
leader 0.000117227317306
pageant 0.0
character 6.01187215283e-05
idiotic 0.0
mirror 0.0
jackson 0.0
interview 0.000228523318645
battles 9.30339822744e-05
bleach 0.0
insight 0.0
obviously 6.31076645963e-05
replay 0.0
battle 0.000469718057194
stomped 0.0
destroy 0.0
killer 0.0
personally 6.49639306741e-05
winning 0.000671713560538
gettin 0.000195021349306
japanese 0.0
writing 0.0
society 6.20297909191e-05
officers 0.0
brooklyn 0.0
sources 0.0
incredible 0.000630515260157
poster 0.0
celebrity 0.00205799382352
memorable 0.0
werent 0.0
chased 0.0
minute 0.000101301514216
confession 0.0
pregnant 0.0
cherry 0.0
twinning 0.0
phoenix 0.000186067964549
orange 6.72981781798e-05
policy 0.0
comedy 0.0
illuminati 0.0
reminder 5.4082184157e-05
evidence 0.0
iphone 0.000143402725166
kicked 0.0
intentions 0.0
freedom 6.25654810716e-05
patient 7.85964597701e-05
utterly 0.0
mississippi 0.0
download 0.000317364030798
assistant 0.0
invite 0.000190969502536
central 0.0
washington 0.0
stronger 7.14815607003e-05
promised 0.0
worried 0.000129927861348
throwing 0.000884757025431
security 0.0
cologne 0.0
headphones 0.0
sanctuary 0.0
fantasy 0.0018751749766
monkey 0.0
approve 0.0
spinach 0.0
turning 0.0
helping 0.000593147184143
tickets 0.00407852869117
collector 0.0
physically 0.00019821665991
slavery 0.0
december 6.23862039053e-05
basically 0.0
return 0.000149092737073
yassss 0.0
goddess 0.0
locked 0.000302453526898
feelings 0.0
language 0.0
motion 0.0
obsessed 7.88542679369e-05
creation 0.0
followers 0.000116246036686
schools 6.38409530371e-05
gallery 0.000180561045535
movies 0.00013459635636
foster 9.30339822744e-05
children 0.000197715728048
nation 0.000113050726083
theaters 0.000191181309737
between 0.0
knowledge 0.000127681906074
begins 5.37859606034e-05
robinthicke 0.0
faithful 0.0
peeing 0.0
closet 0.0
bodies 0.0
italian 0.0
highlights 0.000135398686278
spanking 0.0
forbes 0.0
parade 0.0
tasted 0.0
consider 0.0
reunion 9.02805227675e-05
latest 0.000243162691982
dedicated 7.6585802481e-05
beyonce 0.0
perform 0.0
signed 0.00297378322985
tuxedo 0.0
princess 0.0
shelter 0.0
germany 0.0
explaining 0.0
married 0.0
millions 6.08042459518e-05
blessings 0.000467359295209
iconic 0.0
indonesia 0.0
braids 0.0
dollar 0.0
rigged 0.0
replied 0.0
lights 0.000129172927026
turned 4.92952111556e-05
excuses 0.00069950355623
jackie 0.0
charge 6.22076424182e-05
performing 0.0
ticket 0.000241156480737
steady 0.0
whispers 0.0
finest 8.86418928962e-05
confucius 0.0
diamonds 0.0
vancouver 0.000111170271582
addicts 0.0
collection 0.000123352390912
families 0.000172431277249
select 0.0
hitting 0.000179846908644
announced 0.000109361164574
decided 5.37859606034e-05
jewels 0.0
lottery 0.000107101140958
owners 8.64442077275e-05
respects 0.0
celebration 6.31076645963e-05
memorial 7.30433510316e-05
landed 0.000140369919941
pastor 0.0
ultimate 6.51538655375e-05
incase 0.0
rapper 0.0
episode 0.0
bounce 0.000107101140958
disney 9.06155774661e-05
muffin 0.0
kansas 8.99479592049e-05
sherman 0.00472732710829
retweet 0.000113997392972
midnight 6.06318773643e-05
patience 8.99479592049e-05
cereal 0.0
joining 0.000264544408283
released 5.23335734927e-05
release 4.92952111556e-05
models 0.0
classics 0.000249507724776
popped 0.0
mileycyrus 0.0
highlight 7.10451709646e-05
scholarship 0.0
within 5.73170579233e-05
hahahahaha 0.0
standing 0.0
higher 0.000120578240369
purple 0.0
skinny 0.0
justice 0.0
served 0.000135802565908
speaks 0.0
horses 0.0
houses 0.0
purchase 0.000385400285788
dropped 0.000277200081861
conversations 0.0
consideration 0.000114485091023
seattle 0.00238002287943
cookie 0.0
slurpee 0.0
strength 0.000124415284836
screens 0.0
monica 0.0
incredibly 0.000126945612319
streets 0.0
boyfriend 0.0
private 5.76377015409e-05
skittles 0.0
barbie 0.0
apologizes 0.0
designer 0.0
impress 0.0
cooking 0.0
exclusive 0.000586797985315
fashion 0.000129927861348
petite 0.0
talkin 0.0
peaches 0.0
bitches 0.0
nailed 0.0
weirdest 0.0
whomever 0.0
teaching 0.000137025261747
disgusting 0.0
chillin 0.0
philly 0.000168116127432
rights 6.06318773643e-05
dinosaur 0.0
exotic 0.0
dancers 0.0
cheers 0.0
presents 0.000293999117646
flawless 0.000230124510143
dating 0.0
victory 0.000128424310221
marley 0.0
productive 0.0
smurfs 0.0
halftime 0.0
insecure 0.0
horror 0.0
warning 6.49639306741e-05
discovery 0.000183272137439
convention 0.0
understanding 0.000194324396761
action 0.000289437579269
having 0.0
speaker 0.0
clever 7.68322471437e-05
theatre 0.0
honors 0.000222340543165
evolution 8.76867763269e-05
produce 8.43494627476e-05
spider 0.0
apologize 0.000165822176457
formation 0.0
letter 0.0
therapy 0.0
untrue 0.0
written 0.000219325764367
communication 9.79047705339e-05
disease 0.0
marching 0.0
suggest 0.0
georgetakei 0.0
hairstyle 0.0
humans 7.53735441894e-05
journal 0.0
foundation 0.00179273273223
access 0.0
venture 0.0
syndrome 0.0
writes 0.0
colorado 0.0
medicine 0.0
tremendous 8.49380185169e-05
nytimes 0.0
kindness 0.000190432692931
cannot 0.000150310797897
reveals 0.0
invented 0.0
sapphire 0.0
candidate 0.0
sexual 0.0
madison 0.0
illustration 0.0
newark 0.0
globally 0.0
incorrect 0.0
headline 0.0
reflect 0.0
streaming 0.000146999558823
leaders 0.000131072344159
supreme 0.0
protest 0.0
policies 0.0
silenced 0.0
defend 0.0
communicating 0.0
climate 0.0
wrapped 0.0
studio 6.25654810716e-05
conspiracy 0.0
interviews 6.09772813441e-05
differentiation 0.0
confusing 0.0
february 6.61158293465e-05
hamilton 0.0
loneliest 0.0
amazon 0.0
scattered 0.0
francis 0.0
headlines 0.0
january 0.0
diversity 0.0
universal 0.0
hurricane 0.0
identifying 0.0
countries 0.0
tickled 0.0
becker 0.0
connected 8.76867763269e-05
suggestion 8.67516288216e-05
filled 0.000189322993789
education 6.0460170462e-05
mentioned 0.0
defining 0.0
exists 0.0
unexpected 0.0
plants 0.0
orders 0.00112982478532
olympics 0.000159273459504
ability 0.00013068922072
director 0.000112113972118
content 0.0
cycling 0.0
previously 0.0
correction 0.0
pearls 0.0
ambassador 0.0
preparing 0.000150269971588
depend 0.0
downloads 0.0
lovers 0.0
weekly 7.75798343471e-05
hudson 0.00013011252131
bridge 7.23673241619e-05
becoming 0.000115275403082
magazine 0.0
appropriate 8.12439539043e-05
shakespeare 0.0
travesty 0.0
discoveries 0.000131769362321
fellow 0.0
reviewed 0.000103371515517
copies 0.0
driven 0.0
aussies 0.0
result 0.0
announcing 0.000548380903154
visual 0.0
restrictions 0.0
culture 0.0
edition 0.000180356164585
prince 0.0
shocks 0.0
symmetry 0.0
clicks 0.0
disagree 0.0
experiments 0.0
mistakes 0.000160332160454
trolls 0.0
blossoms 0.0
offered 0.0
inspiring 0.000242527509457
counter 0.0
approach 6.69005791786e-05
embarrassing 8.07017703797e-05
creators 0.0
edited 0.000105665843705
berniesanders 0.0
overnight 9.63488017154e-05
spotlight 9.19814726994e-05
probable 0.0
repeating 0.0
concerns 0.0
massive 0.000113997392972
promising 0.0
promises 0.0
colored 0.0
production 0.0
header 0.0
itunes 7.41932753669e-05
secretary 0.0
highway 0.0
dangerous 0.0
letters 0.000249585259797
typically 0.0
saving 0.000130307731075
pioneer 0.0
visuals 0.0
universe 0.0
ordering 0.000321303422875
victims 0.0
privacy 9.67327490781e-05
disclosure 0.0
proceeds 0.000449739796025
musical 0.0
collide 0.0
melbourne 0.0
correctly 0.0
campus 0.0
debate 5.77988894383e-05
conflict 0.0
meanwhile 0.0
petition 8.09720406468e-05
contribution 0.0
stated 0.0
humanity 0.0
illness 0.0
flawed 0.0
breathe 0.0
winners 0.000534991905352
spanish 0.0
comedic 0.0
awards 0.0
presidential 7.48976929663e-05
candidates 0.0
glasgow 0.0
smells 0.0
treasure 0.0
greater 7.327098304e-05
themed 0.0
distribution 0.0
absurd 0.0
squirrel 0.0
sisters 0.0
stress 0.0
leading 0.000113997392972
resolution 0.0
achieved 0.0
interacting 0.0
boiling 0.0
examples 0.0
diverse 0.0
suicide 0.0
parallel 0.0
minneapolis 0.0
impairs 0.0
pumping 0.0
slides 0.0
choreography 0.0
element 0.0
serves 0.0
jumping 0.0
rising 0.0
believed 0.0
features 0.0
environment 0.000165257763315
revealed 0.0
classical 0.0
confirmed 0.00045741227252
origins 0.0
combination 0.0
consumption 0.0
worldwide 0.0
deaths 0.0
responsible 0.0
overwhelmed 0.0
household 0.000100765170966
munich 0.0
alternate 0.0
blockers 0.000191314943601
restaurant 0.0
canada 5.97798593537e-05
versions 0.0
technology 0.0
identify 0.0
combined 8.34808996681e-05
santiago 0.0
branches 0.0
october 0.0
netherlands 0.0
belgium 0.0
european 0.0
imperial 0.0
perspective 0.000132621459685
cities 6.72981781798e-05
guinea 0.0
americas 0.0
posters 0.0
elastic 0.0
flames 0.0
presumably 0.0
exquisite 0.0
spreading 0.000230496741431
happiness 0.0
ashamed 0.0
naturally 0.0
malbec 0.0
wasting 0.0
hidden 0.0
coffin 0.0
freudian 0.0
genius 0.000119222772222
cultured 0.0
malaysia 0.0
traveling 0.0
prepared 6.79012829542e-05
county 0.0
quinoa 0.0
district 0.0
chosen 0.0
toilet 0.0
yorkers 0.0
ignores 0.0
messages 0.0
creativity 9.59681220294e-05
conventional 0.0
berlin 0.0
montreal 0.0
wonders 0.0
upcoming 0.000317364030798
lonely 0.0
australian 0.0
positions 0.0
singapore 0.0
scratch 0.0
deficiency 0.0
elevated 0.0
triggers 0.0
delicate 0.0
barrier 0.000221281842214
reflection 9.55906548685e-05
sydney 0.0
separates 0.0
centuries 0.0
israel 0.0
overwhelming 0.0
assault 0.0
protection 0.0
picker 0.0
additional 0.0
machine 6.0460170462e-05
samples 0.0
contrary 0.0
immediate 0.0
michelle 0.0
inspire 0.000152681416414
lyrics 0.0
missyelliott 0.0
constant 8.70611774142e-05
tuning 0.0
pandora 0.0
preshow 0.0
buenos 0.0
poland 0.0
philippines 0.0
nicely 0.0
september 0.0
manchester 0.0
checks 0.0
screenshot 0.0
universalorl 0.0
remarkable 7.73292477359e-05
rihanna 0.0
disgusted 0.0
flattered 0.0
fiction 0.0
angela 0.000521375871977
bitmoji 0.0
process 0.000114315187929
genuine 0.000162487907809
performances 0.0
comedians 0.0
flotus 0.0
strangers 0.0
hungover 0.0
confidence 7.01849599706e-05
studios 0.0
stjude 0.0
memphis 0.0
mikeypiff 0.0
chancetherapper 0.0
scream 0.0
jennifer 8.92901592159e-05
disappoint 0.0
newcastle 0.0
castle 0.0
literally 5.54400163722e-05
chrisrock 0.0
gentlemen 0.0
mtvnews 0.0
hillaryclinton 0.0
iamrashidajones 0.0
champagne 0.0
raleigh 0.0
ijessewilliams 0.0
acknowledge 0.000104275174395
buzzfeed 0.0
puppet 0.0
rehearsal 0.0
billboard 0.0
austria 0.0
sweden 0.0
republic 0.0
grilled 0.0
waltdisneyworld 0.0
katyperry 0.0
ronanfarrow 0.0
measly 0.0
bragging 0.0
treats 0.0
literal 0.0
cooper 9.52163464657e-05
counts 0.0
theellenshow 0.0
basking 0.0
cookies 0.0
festival 0.0
amsterdam 0.0
soundcheck 0.0
downloaded 0.0
encouraged 0.0
alright 7.85964597701e-05
jtimberlake 0.0
backstage 0.0
collab 0.0
joined 0.00027567346866
issarae 0.0
playlist 8.86418928962e-05
madness 7.14815607003e-05
romantic 0.0
selfies 0.0
exclusively 0.0
disneyland 0.0
refused 0.0
characters 7.14815607003e-05
amazingly 0.0
auction 0.000716942800067
express 0.00013868196069
gratitude 0.0
sesamestreet 0.0
thegrammys 0.0
throughout 0.000213135512894
awkward 0.0
shining 0.0
thrown 8.52352262091e-05
stylist 0.0
fighter 9.48451443924e-05
accepting 0.000164139508926
playin 0.000121957352259
applemusic 0.0
filmed 8.61388850873e-05
makeawish 0.000163625571687
bieber 0.0
remixes 0.0
toronto 0.0
capitolrecords 0.0
shazam 0.0
anthem 0.0
cosmopolitan 0.0
khloekardashian 0.0
cookin 0.0
songwriters 0.0
reveal 0.0
stands 6.22076424182e-05
spotify 0.0
phvegas 0.0
rocked 0.0
glasses 0.0
iambeckyg 0.0
relive 0.0
acoustic 0.0
announce 0.000312292023975
although 0.0
isaacfromct 0.00020636520984
shampoo 0.0
interactive 0.000199033644457
todayshow 0.000102485752056
haters 0.00018895399503
appreciation 9.71200207018e-05
floating 0.0
shondarhimes 0.0
showtime 0.0
premiere 0.000292173404126
broadway 0.0
makeup 0.0
starring 8.76867763269e-05
newest 0.000289469296647
designed 6.91324503956e-05
arianagrande 0.0
aladdin 0.0
swaggy 0.0
owning 0.0
producer 0.0
legendary 0.000143402725166
jasmine 0.0
costumes 0.0
square 0.0
emojis 0.0
jessica 0.000110117762007
magical 0.0
thedoctorluke 0.0
thirsty 0.0
therealjuicyj 0.0
symbols 0.0
privilege 0.0
spiral 0.0
retrograde 0.0
footage 0.0
theirs 0.0
universes 0.0
remembering 0.0
floated 0.0
construction 0.0
consciousness 0.0
delights 0.0
explodes 0.0
submissions 0.0
pleased 0.0
shredding 0.0
filters 0.0
weasel 0.0
reflective 0.0
firework 0.0
islands 0.0
interstellar 0.0
bubble 0.0
customs 0.0
festive 0.0
window 0.0
senator 0.0
slightly 0.0
therealbuzz 0.0
printing 0.0
snowflake 0.0
applications 0.0
elephant 0.0
fifteen 0.0
editions 0.0
newspaper 0.0
rainbow 0.0
unlimited 0.0
sirius 0.0
matthew 0.0
affected 0.0
capturing 0.000128514866008
canyon 0.00012548118887
rivers 0.0
spoken 0.000149795385933
accidentally 0.0
bizarre 0.0
dolphin 0.0
successfully 0.0
liquid 0.0
graffiti 0.0
swallowing 0.0
messenger 0.0
heroes 6.83079184195e-05
disturbing 0.0
graduates 0.0
rewrite 0.0
describe 6.49639306741e-05
hollywood 0.0
equality 0.0
announcement 0.000229908369666
breakout 0.0
dreaming 0.0
animation 0.0
calendar 0.0
circling 0.0
garden 0.0
enhanced 0.0
journalists 0.0
stirring 0.0
nominations 0.000366544274878
yelling 0.000101617188976
teachers 0.000160332160454
chapter 7.46616523494e-05
napoleon 0.0
aliens 0.0
subjects 0.0
revolution 0.0
mountains 0.0
wonderland 0.0
storage 0.0
crystals 0.0
circuit 0.0
invitation 0.0
kettle 0.0
adjective 0.0
woodpecker 0.0
operate 0.0
exhibition 0.0
learnt 0.0
nomination 0.0
madonna 0.0
questioning 0.0
unplug 0.0
initiatives 0.0
switzerland 0.0
represents 0.0
throat 0.0
touchdown 0.000341745838751
desire 0.000186067964549
forced 6.87182845374e-05
swedish 0.000110117762007
hundred 0.0
prompts 0.0
rainbows 0.0
creates 0.0
oxford 0.0
balloons 0.0
liverpool 0.0
recreate 0.0
glorious 0.0
newton 0.0
creature 0.0
finalist 0.0
scouts 0.0
treading 0.0
tragedy 0.0
nottingham 0.0
debacle 0.0
legends 0.000186067964549
noises 0.0
addiction 0.0
survived 0.0
idioms 0.0
greeted 0.0
basics 0.0
masses 0.0
confirm 0.0
cadence 0.0
spaghetti 0.0
prepare 0.000132621459685
calendars 0.000134375706873
narrative 0.0
application 0.0
octopus 0.0
drumming 0.0
bloody 0.0
confetti 0.0
translate 0.0
birmingham 0.0
singles 0.000121284714123
completes 0.0
laptop 0.0
obvious 7.58545121904e-05
darling 0.00010661757308
deserving 0.00064260684575
miller 0.0
ordered 6.59217744082e-05
feelin 0.0
alicia 0.0
picasso 0.0
recipe 0.0
alphabetical 0.0
butterfly 0.0
timothy 0.0
mancini 0.0
untold 0.0
directed 7.6585802481e-05
hacked 0.0
admits 9.83023695351e-05
clocks 0.0
nugget 0.0
cnnopinion 0.0
grabbed 0.0
russia 0.0
surprises 8.55344219275e-05
waterfalls 0.0
olympic 0.000248733264685
magnificent 0.0
casual 0.0
assume 7.34997794116e-05
relief 0.0
subscribe 0.000264008663524
landslide 0.0
telegraph 0.0
standby 0.0
admitting 0.0
complacency 0.000152961543614
voices 0.0
sounding 0.0001003451717
douglas 0.0
democracy 0.0
locals 0.0
gossip 0.0
nickname 0.0
subtle 0.0
embarrassed 0.0
ireland 7.96367297518e-05
mornings 0.0
democratic 0.0
impressions 0.0
outgoing 0.0
treasury 0.0
refugees 0.0
unveiling 0.0
listing 0.0
deliver 0.0
negotiating 0.0
roller 0.000116239417564
prosperous 0.0
desperate 0.0
acknowledgement 0.0
executive 0.000149323304699
republicans 0.0
weapons 0.0
dropping 0.000135398686278
meaningful 9.75106746532e-05
nightmare 0.0
goodies 0.0
scandalous 0.0
rhetoric 0.0
divisive 0.0
vision 0.0
confirmation 9.2329564675e-05
throne 0.0
records 0.0
quoting 0.0
impatient 0.0
refugee 0.0
texted 0.0
exposed 9.12933115396e-05
stoked 0.0
priority 0.0
freedoms 0.00012333375603
notorious 0.0
empowering 0.0
unconstitutional 0.0
turkish 0.0
concerned 0.0
realdonaldtrump 0.0
goodwill 0.0
imagined 0.0
belfast 0.0
sleeve 0.0
basement 0.0
preposterous 0.0
griffith 0.0
timeless 0.0
truman 0.0
intended 0.000189690288785
inappropriate 0.0
industries 0.0
responsibility 7.37297521193e-05
documentaries 0.0
vulnerable 0.0
respectful 0.0
markets 0.0
claire 0.0
nuggets 0.0
boards 0.0
sequins 0.0
capitol 0.0
technical 0.0
applying 0.0
guitar 0.0
donating 0.000566804284527
continually 0.0
norway 0.0
applause 0.0
ballot 0.0
finely 0.0
shakes 0.0
varied 0.0
proverb 0.0
vibrant 0.0
flower 0.0
survives 0.0
fierce 0.0
shopped 0.0
sincerely 0.0
apology 0.000168698925495
sweaty 0.0
conspiracies 0.0
climbing 0.0
relaxed 0.0
encourage 0.000152193899206
funnyordie 0.0
essentials 0.000278176879737
jimmykimmellive 0.0
rejectedjokes 0.0
protesting 0.0
releasing 0.0
cleaner 0.0
preferred 0.0
incarceration 0.0
jkcorden 0.0
koppel 0.0
bikini 0.0
transparency 0.0
kamalaharris 0.0
nutshell 0.0
walled 0.0
floored 0.0
plotting 0.0
gandhi 0.000154337947386
vilify 0.0
meditate 0.0
violent 0.0
preschool 0.0
rhythm 0.000128514866008
matching 0.000101189151326
senwarren 0.0
venezuela 0.0
candle 0.0
donates 0.0
peacefully 0.0
chelseahandler 0.0
experiencing 0.0
sarabareilles 0.0
haunting 0.0
constitution 0.0
explode 0.0
deeper 0.0
empathy 0.0
mrgaryhuang 0.0
scored 0.000181231154932
charitable 0.0
perfume 0.0
giraffe 0.0
noticing 0.0
noodle 0.0
wrongly 0.0
marshmallow 0.0
fraudulent 0.0
everytime 0.000116839823802
helluva 0.0
therapists 0.0
tangible 0.0
sarahksilverman 0.0
johnfugelsang 0.0
exceptional 0.0
miracle 0.0
avocado 0.0
snacks 0.0
spelled 0.0
parental 0.0
superbowl 0.0
shoulders 0.0
valentine 7.44268507965e-05
glitter 0.0
stocking 0.0
poehler 0.0
thumbs 0.0
tinatbh 0.0
educational 0.0
voicemail 0.0
thetweetofgod 0.0
esteem 0.0
teaches 0.000116839823802
goodbye 0.0
reminding 0.0
supplies 0.0
ryanseacrest 0.0
okmagazine 0.0
shoots 0.0
bowing 0.0
jennyslate 0.0
craigyferg 0.0
masterpiece 0.0
sneaky 0.0
nashville 0.0
chronicles 0.0
potato 0.0
freakin 0.0
perezhilton 0.0
unethical 0.0
paparazzi 0.0
mantra 0.000131769362321
consuming 0.0
unauthorized 0.0
vanityfair 0.0
stalking 0.0
shoulda 0.0
yeppers 0.0
sacred 0.0
existed 0.0
earned 0.000316454282609
woulda 0.0
ellenpage 0.0
choker 0.0
contribute 0.0
mustache 0.0
washes 0.0
creeps 0.0
champion 0.000285051334591
auntie 0.0
magazines 0.0
waited 0.0
conscious 0.0
cracker 0.0
denmark 0.0
potion 0.0
windex 0.0
scarfing 0.0
ladygaga 0.0
purposely 0.0
pretending 0.0
luckiest 0.0
mascara 0.0
tastes 0.0
gardening 0.000151626232719
leashes 0.0
hippie 0.0
womensmarch 0.0
reunited 0.0
clique 0.0
premiering 0.0
rollingstone 0.0
childrensla 0.0
dollywood 0.0
godmother 0.0
eltonofficial 0.0
vmagazine 0.0
donorschoose 0.0
yesssssss 0.0
bettemidler 0.0
rehearsing 0.0
trevorproject 0.0
unicef 0.0
ellemagazine 0.0
yasssss 0.0
acceptance 0.0
solidarity 0.0
pharrell 0.0
greece 0.0
papermagazine 0.0
johnmayer 0.0
lipstick 0.0
tumblr 0.0
coldplay 0.0
colorful 0.0
translifeline 0.0
newsstands 0.0
feminist 0.0
pitchfork 0.0
labels 0.0
jenner 0.0
arkansas 0.0
beanie 0.000155758053743
sparkly 0.0
moschino 0.0
britneyspears 0.0
itsjeremyscott 0.0
nickiminaj 0.0
appstore 0.0
poetry 0.0
puttin 0.0
rubbed 0.0
shrine 0.0
skyferreira 0.0
freaking 0.0
besties 0.0
chanel 0.0
bedazzled 0.0
rubber 0.0
kendricklamar 0.0
popstar 0.0
sosadtoday 0.0
copenhagen 0.0
lenadunham 0.0
wearin 0.0
stoned 0.0
facetime 0.0
barclays 0.0
meditation 0.0
harpersbazaarus 0.0
stared 0.0
ritual 0.0
iconapop 0.0
doubted 0.0
staples 0.0
anaheim 0.0
jingle 0.0
tacoma 0.000198210040788
rehearsals 0.0
treadmill 0.0
metamorphosis 0.0
dental 0.0
jodyhighroller 0.0
versace 0.0
werking 0.0
couture 0.0
eggplant 0.0
bangin 0.0
cardigans 0.0
obnoxious 0.0
bestie 0.0
teganandsara 0.0
barrel 0.0
dedicating 0.0
jefferson 0.000121284714123
pumpkin 0.000103371515517
derekblasberg 0.0
glamourmag 0.0
presale 0.0
mtvstyle 0.0
deluxe 0.0
mtvema 0.0
reggae 0.0
azealiabanks 0.0
nominating 0.0
sailor 0.0
mornin 0.0
itunesmusic 0.0
bananas 0.0
lordemusic 0.0
vietnam 0.0
milwaukee 0.0
neworleans 0.0
circus 0.0
strolling 0.0
rapids 0.0
collegegameday 0.0
aaaaand 0.0
godfather 0.0
bestow 0.0
allison 0.0
rockthevote 0.0
birbigs 0.0
lucille 0.0
louder 0.000121284714123
farmers 0.0
shaved 0.0
niagara 0.0
realmattlucas 0.0
ferguson 0.0
painful 0.0
exchange 0.0
nickkroll 0.0
edmonton 0.0
mickey 0.0
angelenos 0.0
pooping 0.0
located 0.0
onslaught 0.0
finalists 0.000108584025702
bumped 0.0
sherlock 0.0
stockholm 0.0
casually 0.0
jjwatt 0.0
itstonybennett 0.0
mariolopezextra 0.0
klgandhoda 0.0
entrance 0.000100765170966
calgary 0.0
bowling 0.0
winnipeg 0.0
cheeto 0.00020636520984
gloriasteinem 0.0
feather 0.0
nathan 0.0
smelling 0.0
narnia 0.0
llamas 0.0
actuallynph 0.0
mourning 0.0
obsession 0.0
chilled 0.0
medically 0.0
hyperloop 0.0
aussie 0.0
flaring 0.0
eyeballs 0.0
stuffing 0.000311516107486
pitched 0.0
condiments 0.0
relatable 0.0
olivia 0.0
painted 0.0
mykonos 0.0
eyebrow 0.0
capitalcities 0.0
jackpot 0.0
hipster 0.0
sweating 0.0
restaurants 0.000107101140958
superfan 0.0
restraint 0.0
craziest 0.0
catheter 0.0
delivers 0.0
kanyewest 0.0
paints 0.0
dissect 0.0
billboards 0.0
milano 0.0
bjnovak 0.0
snapping 0.0
croissant 0.0
repjohnlewis 0.0
blklivesmatter 0.0
mydaughtersarmy 0.0
huddled 0.0
yearning 0.0
thereaibanksy 0.000177655346672
affordable 0.0
foodie 0.0
colombia 0.0
peeled 0.0
shootings 0.0
playground 0.0
breaky 0.0
photoshoot 0.0
smokin 0.0
accents 0.0
sweats 0.0
postmates 0.0
armband 0.0
unconscious 0.0
maddow 0.0
aquarium 0.0
holler 0.0
photoshop 0.0
robbie 0.0
espnmag 0.0
laundry 0.0
examining 0.0
zealand 0.0
stuntin 0.0
hehehe 0.0
nostalgia 0.0
buttons 0.0
slaying 0.0
monument 0.0
bringin 0.0
lining 0.0
muchas 0.0
gracias 0.0
madame 0.0
illustrated 0.0
boxers 0.0
grazie 0.0
winters 0.0
plastic 0.0
unbreakable 0.0
licking 0.0
cheeky 0.0
twerking 0.0
danish 0.0
drummer 0.0
florence 0.0
revoir 0.0
resume 0.0
dodger 0.0
brazilians 0.0
grimezsz 0.0
crocodile 0.0
hahahahahaha 0.0
parisians 0.0
taipei 0.0
taiwan 0.0
bangkok 0.0
uploaded 0.0
manila 0.0
hamburg 0.0
curating 0.0
aaaand 0.0
skating 0.0
brisbane 0.0
googleplay 0.0
raincoat 0.0
glastofest 0.0
vienna 0.0
burning 0.0
jamming 0.0
reaches 0.0
subtitles 0.0
wristband 0.000865893271465
barcelona 0.0
credits 0.0
dreamers 0.0
bogota 0.0
bursting 0.0
brunomars 0.0
beyoncé 0.0
subscribers 0.0
unlock 0.0
onedirection 0.0
amazonmusic 0.0
snippets 0.0
preorder 0.0
rehearse 0.0
bahnhof 0.0
delorean 0.0
fragrance 0.0
curate 0.0
samsmithworld 0.0
guitars 0.0
storyline 0.0
registering 0.0
beatsbydre 0.00080968731086
panama 0.0
celestial 0.0
orchestra 0.0
finland 0.0
climbed 0.0
topping 0.0
méxico 0.0
vasconcelos 0.0
leicester 0.0
itunesfestival 0.0
pondering 0.0
millennials 0.0
struck 0.0
watermelon 0.0
benefited 0.0
sophisticated 0.0
couples 0.000118690967682
villain 0.0
mindful 0.0
catholic 0.0
airline 0.0
secretly 0.0
playlists 0.0
veggie 0.0
receipts 0.0
foremost 0.0
bagpipe 0.0
drifting 0.0
trader 0.0
influenced 0.0
moscow 0.0
cobain 0.0
reaper 0.0
commune 0.0
handshake 0.0
despair 0.0
silicon 0.0
investing 0.0
construct 0.0
garland 0.0
coachella 0.0
offline 0.0
realisation 0.0
payback 0.0
educate 0.0
alliances 0.0
etched 0.0
momentarily 0.0
pronoun 0.0
lenses 0.0
validated 0.0
authenticity 0.0
choreographed 0.000182630424074
pokemon 0.00152997283855
disneyworld 0.000194629763042
patriotic 0.000116839823802
embody 0.000188228920532
snickers 0.00054022125444
impactful 0.000177655346672
refocus 0.000191314943601
eminem 0.000140093641567
mahatma 0.000198210040788
ecstatic 0.000163625571687
snfonnbc 0.000211077942835
avenue 0.000119969043006
picchu 0.000222319134956
doubters 0.000188228920532
beverly 0.00012930656089
intensity 0.000138105332314
outtake 0.000194629763042
temple 0.0
purchased 0.0
fountain 0.0
punched 0.0
goldfish 0.0
comparable 0.0
buyers 0.0
barbara 0.0
corybooker 0.0
listens 0.0
timeout 0.0
inducing 0.0
signage 0.0
penthouse 0.0
ahahaha 0.0
phenom 0.0
brilliantly 0.0
siphoning 0.0
herstory 0.0
prostitute 0.0
survivors 0.0
courageous 0.0
cruelty 0.0
margot 0.0
xenophobic 0.0
mcginley 0.0
yorkshire 0.0
chants 0.0
alancarr 0.0
chained 0.0
skillz 0.0
debunked 0.0
floods 0.0
fleetwood 0.0
cheesecake 0.0
adidas 0.0
uneven 0.0
raging 0.0
connections 0.0
headlining 0.0
devhynes 0.0
charli_xcx 0.0
shawnmendes 0.0
tavitulle 0.0
bahjournalist 0.0
tyleroakley 0.0
marquee 0.0
grease 0.0
screenshots 0.0
ddlovato 0.0
chattyman 0.0
grimmers 0.0
vevo_uk 0.0
bonniemckee 0.0
electrifying 0.0
idolator 0.0
onairromeo 0.0
godven 0.0
lookie 0.0
preordered 0.0
elvisduran 0.0
shanghai 0.0
tripped 0.0
konnichiwa 0.0
etnad_olegnad 0.0
unannounced 0.0
swedes 0.0
cinderella 0.0
slipper 0.0
jessesaintjohn 0.0
adorbs 0.0
onesies 0.0
jahnsuxx 0.0
walgreens 0.0
aphrodite 0.0
danceonfox 0.0
difficulties 0.0
mermaids 0.0
antique 0.0
girlshbo 0.0
yaaaaasss 0.0
lifesaving 0.0
queens 0.0
yaaaas 0.0
rollin 0.0
bestest 0.0
cleanse 0.0
iamtovelo 0.0
glamour 0.0
emelisande 0.0
lashes 0.0
austrian 0.0
magritte 0.0
misogynoir 0.0
litter 0.0
spiritual 0.0
preaching 0.0
adelaide 0.0
sheffield 0.0
impending 0.0
starve 0.0
excess 0.0
conciousness 0.0
vitamins 0.0
generator 0.0
purposefully 0.0
profiles 0.0
petals 0.0
persist 0.0
alexis 0.0
covergirl 0.0
sneezed 0.0
cushion 0.0
demconvention 0.0
directv 0.0
flo_tweet 0.0
billclinton 0.0
grounded 0.0
sunrise 0.0
fightin 0.0
sagekotsenburg 0.0
pwease 0.0
sadder 0.0
waterfall 0.0
sighting 0.0
firsts 0.0
muller 0.0
burritos 0.0
bungee 0.0
potting 0.0
dipping 0.0
closets 0.0
scratched 0.0
decorating 0.0
summers 0.0
havana 0.0
fresher 0.0
mowing 0.0
invading 0.0
addict 0.0
aesthetics 0.0
footwear 0.0
protector 0.0
hammock 0.0
repurpose 0.0
mishap 0.0
hamster 0.0
cellar 0.0
groove 0.0
mentored 0.0
exaggerate 0.0
scraping 0.0
apropos 0.0
trolled 0.0
jonlovett 0.0
rheabutcher 0.0
sickening 0.0
flustered 0.0
compiled 0.0
shirley 0.0
subtweet 0.0
pantsuit 0.0
patting 0.0
atrocious 0.0
amoeba 0.0
platter 0.0
aficionado 0.0
bearer 0.0
manifest 0.0
transformation 0.0
thighs 0.0
tapper 0.0
foaming 0.0
sophie 0.0
sabbath 0.0
vibrations 0.0
nutella 0.0
wilder 0.0
distractions 0.0
stripping 0.0
downloading 0.0
judith 0.0
crossroads 0.0
parsons 0.0
stella 0.0
narcissism 0.0
fawcett 0.0
trainers 0.0
surrounding 0.0
longtime 0.0
frosting 0.0
laurent 0.0
savory 0.0
acupuncture 0.0
cancelling 0.0
nutcracker 0.0
ballet 0.0
tempura 0.0
burner 0.0
voguemagazine 0.0
lagged 0.0
cuttlefish 0.0
passwords 0.0
funfetti 0.0
anagasteyer 0.0
gabbana 0.0
budapest 0.0
montage 0.0
crowns 0.0
scheduling 0.0
possessed 0.0
syncing 0.0
creatively 0.0
hieroglyphics 0.0
halftimes 0.0
floppy 0.0
nessie 0.0
feathers 0.0
kaceymusgraves 0.0
roaring 0.0
rightful 0.0
balconies 0.0
prodigy 0.0
raquin 0.0
gianni 0.0
monsieuradi 0.0
drowned 0.0
tropicana 0.0
diesel 0.0
shabbat 0.0
voiceless 0.0
passover 0.0
elevating 0.0
traumatic 0.0
dreamer 0.0
iwillharness 0.0
classrooms 0.0
eligibility 0.0
counselors 0.0
wainwright 0.0
moveon 0.0
runaway 0.0
baghdad 0.0
zaralarsson 0.0
snooze 0.0
iggyazalea 0.0
harviikills 0.0
bolognese 0.0
babysitting 0.0
mohegan 0.0
hooters 0.0
crusts 0.0
tracksuit 0.0
cupcake 0.0
xfactor 0.0
vitamin 0.0
lichtenstein 0.0
concourse 0.0
hitchcock 0.0
teller 0.0
pastels 0.0
remnants 0.0
banger 0.0
lyrically 0.0
boogers 0.0
ritaora 0.0
bumpin 0.0
dabbed 0.0
sleepin 0.0
tinashe 0.0
octaviaspencer 0.0
linder 0.0
musicallyapp 0.0
scavenger 0.0
sanging 0.0
corinthians 0.0
hollywoodbowl 0.0
kraken 0.0
discontinue 0.0
cypress 0.0
schooling 0.0
maritime 0.0
narration 0.0
zeitgeist 0.0
sampler 0.0
pseudo 0.0
bangladesh 0.0
hungary 0.0
mumble 0.0
sisterhood 0.0
soulful 0.0
lennykravitz 0.0
londontown 0.0
andradaymusic 0.0
lipsticks 0.0
realization 0.0
unconditionally 0.0
wildfire 0.0
goldie 0.0
minnie 0.0
solitude 0.0
waddle 0.0
westworldhbo 0.0
statuesque 0.0
uncasville 0.0
demented 0.0
skyway 0.0
twentyonepilots 0.0
rejoicing 0.0
clenching 0.0
adelphia 0.0
entirety 0.0
redhourben 0.0
lakewood 0.0
drjillstein 0.0
entail 0.0
whammy 0.0
smokers 0.0
gobble 0.0
topshop 0.0
cleowade 0.0
mkives 0.0
sweetbabayjamie 0.0
marchesafashion 0.0
hamsters 0.0
gurrrl 0.0
sofifii 0.0
sumthin 0.0
nicomiz 0.0
maisonvalentino 0.0
coziest 0.0
accessorize 0.0
thejgold 0.0
peruvian 0.0
amazeballs 0.0
sendin 0.0
fantabulous 0.0
timelines 0.0
regina 0.0
slovakia 0.0
graves 0.0
embracing 0.0
larsson 0.0
cullen 0.0
psychiatric 0.0
officialadele 0.0
butters 0.0
verrrry 0.0
buttered 0.0
winged 0.0
pedialyte 0.0
topanga 0.0
armpit 0.0
kittens 0.0
dueling 0.0
eagerly 0.0
surrealist 0.0
dethroned 0.0
manolos 0.0
señorita 0.0
monterrey 0.0
parque 0.0
retiree 0.0
batches 0.0
reservations 0.0
sickos 0.0
aplusk 0.0
kirkherbstreit 0.0
fanbases 0.0
indexing 0.0
chuckles 0.0
incorporated 0.0
washboard 0.0
earbuds 0.0
pantone 0.0
knotts 0.0
dismaland 0.0
pollock 0.0
iamkidpresident 0.0
mariah 0.0
teevee 0.0
santorini 0.0
appalachian 0.0
sunburnt 0.0
caliente 0.0
juicery 0.0
karlihenriquez 0.0
trillest 0.0
tommorrow 0.0
crumpets 0.0
fishin 0.0
grillin 0.0
jambalaya 0.0
pepperoni 0.0
cashew 0.0
graceland 0.0
pussies 0.0
delicately 0.0
eraser 0.0
choreo 0.0
snatched 0.0
elliptical 0.0
mooore 0.0
unborn 0.0
georgina 0.0
stalkers 0.0
sallykohn 0.0
expectancy 0.0
phillipines 0.0
appstoregames 0.0
wilkinson 0.0
puddings 0.0
loveland 0.0
spaced 0.0
shanny 0.0
dripping 0.0
gerber 0.0
shakey 0.0
weaves 0.0
unbeatable 0.0
linguist 0.0
prosthetics 0.0
battleship 0.0
serotonin 0.0
machiavellian 0.0
girlies 0.0
guangzhou 0.0
debuting 0.0
dissecting 0.0
warped 0.0
luckyjess 0.0
ermahgerd 0.0
fabulousness 0.0
elliegoulding 0.0
activewear 0.0
yelyahwilliams 0.0
prismatic 0.0
evaluations 0.0
skywalk 0.0
sparklers 0.0
palettes 0.0
gemmaanningram 0.0
trueeee 0.0
invisalign 0.0
pounded 0.0
lolgop 0.0
procession 0.0
stanning 0.0
squeals 0.0
continual 0.0
luminary 0.0
cummin 0.0
shaves 0.0
epixhd 0.0
preacher 0.0
boogiecousins 0.0
changers 0.0
autismspeaks 0.0
massaged 0.0
psssssst 0.0
literati 0.0
utilization 0.0
endangerment 0.0
purposeful 0.0
unlabeled 0.0
undiagnosed 0.0
snotty 0.0
gallops 0.0
slovenia 0.0
sequin 0.0
akerlund 0.0
jumbotron 0.0
edibles 0.0
knowles 0.0
caeser 0.0
thehollywoodbowl 0.0
elvispresley 0.0
adoring 0.0
ageist 0.0
thérèse 0.0
confessed 0.0
blackvoices 0.0
patties 0.0
graphically 0.0
wildflowers 0.0
groundhogs 0.0
eataly 0.0
poodles 0.0
hillaryforia 0.0
roadshow 0.0
sweety 0.0
boppin 0.0
bettywho 0.0
johnnywujek 0.0
earring 0.0
itsbennyblanco 0.0
curitiba 0.0
purrfect 0.0
shellback 0.0
chokers 0.0
hairbrush 0.0
hakuna 0.0
matata 0.0
hazing 0.0
mathew 0.0
aegean 0.0
lullaby 0.0
musiciansoncall 0.0
headpiece 0.0
morsel 0.0
whistled 0.0
conquest 0.0
viceland 0.0
lambily 0.0
scalped 0.0
graced 0.0
emblazoned 0.0
hrclosangeles 0.0
kawaii 0.0
glittery 0.0
wonderlandmag 0.0
jumpsmokers 0.0
radiodotcom 0.0
missyfranklin 0.0
pleaaaaase 0.0
lilbthebasedgod 0.0
waaaay 0.0
flossy 0.0
aria_official 0.0
berliners 0.0
matriarchy 0.0
cornered 0.0
limping 0.0
peasant 0.0
feasibly 0.0
waaaaay 0.0
slayyy 0.0
fashionistas 0.0
sangin 0.0
worldstarfunny 0.0
pliers 0.0
babyanimalpics 0.0
mediation 0.0
quests 0.0
aaaaaaah 0.0
honked 0.0
rauschenberg 0.0
whitneymuseum 0.0
lonsdale 0.0
transcendental 0.0
roarin 0.0
facetune 0.0
fausto 0.0
herning 0.0
cazzette 0.0
annnnnnnnnd 0.0
shinier 0.0
giambattista 0.0
katys_teddybear 0.0
gnight 0.0
katheryn 0.0
psychoanalysis 0.0
bckgrnd 0.0
kingman 0.0
gracevanderwaal 0.0
fecking 0.0
ihrcountdown 0.0
stubbies 0.0
xfactor_italia 0.0
aaronpauley 0.0
purity_ring 0.0
scorpios 0.0
ayyyye 0.0
capitalizes 0.0
flamin 0.0
motherfucking 0.0
jingled 0.0
pharrellhat 0.0
ontarioglow 0.0
teached 0.0
umusic 0.0
auroramusic 0.0
dailymendeslife 0.0
soloing 0.0
universalse 0.0
dustinkloeppel 0.0
robynkonichiwa 0.0
charli 0.0
lonelydot 0.0
adamselman 0.0
sorrenti 0.0
offish 0.0
vinoodh 0.0
guitarists 0.0
cocking 0.0
cabbages 0.0
amelia_libman 0.0
flutter 0.0
lolita 0.0
kingladygaga 0.0
breakthecycledv 0.0
howbow 0.0
curveballs 0.0
tamagotchi 0.0
jarryd 0.0
alliseeisgold 0.0
thebroadmuseum 0.0
sarahsowitty 0.0
brillz 0.0
jackgarratt 0.0
markryden 0.0
duffscakemix 0.0
sanrio 0.0
theniceguyla 0.0
trills 0.0
susangkomen 0.0
faustopuglisi 0.0
gurlll 0.0
cheesecakes 0.0
scorpio 0.0
oblivia 0.0
skipmarley 0.0
correcto 0.0
jessirklein 0.0
unpatr 0.0
squish 0.0
greg_wells 0.0
onlyleah 0.0
gittin 0.0
popstars 0.0
krafts 0.0
bouche 0.0
problemo 0.0
wheezing 0.0
patmcgrathreal 0.0
cienega 0.0
thundering 0.0
nastialiukin 0.0
janell 0.0
katelyntarver 0.0
miamoretti 0.0
missoni 0.0
dannymoonsworld 0.0
mrchrismcmillan 0.0
madge_freak 0.0
woridstarcomedy 0.0
ikissedasoldier 0.0
kpezandchez 0.0
perrysoldier 0.0
emilynotchez 0.0
iickmekaty 0.0
basicallyadam 0.0
katysangelegg 0.0
nicolasjebran 0.0
xchadballx 0.0
scott_myrick 0.0
lockoir 0.0
shannonwoodward 0.0
calluses 0.0
chamomile 0.0
trollin 0.0
sleighing 0.0
chestercheetah 0.0
royksopp 0.0
scottsimonswvla 0.0
sirenscaiiing 0.0
slowdownkaty 0.0
chefantoniopark 0.0
garnished 0.0
endive 0.0
mdmolinari 0.0
prezzy 0.0
motioning 0.0
hernameisbanks 0.0
rockcampla 0.0
jenniefinch 0.0
getglucky 0.0
stendhal 0.0
ryanphillippe 0.0
hotncolds 0.0
kpcollections 0.0
katie_wignall 0.0
katysdrugx 0.0
evrenperry 0.0
katycatwendy 0.0
yungskeeter 0.0
sarahhudsonuvs 0.0
mothern 0.0
oliverheldens 0.0
marrymemargot 0.0
katyperrylately 0.0
kewlest 0.0
katyshellokitty 0.0
pqgerry 0.0
rasarioatelier 0.0
anakhouri 0.0
romaneperry 0.0
hot_chip 0.0
agador 0.0
freddietinkles 0.0
cynthialovely 0.0
augustgettyatelier 0.0
tbsnetworks 0.0
ronyalwin 0.0
justinandersoncolor 0.0
mmillerrider 0.0
jpgaultier 0.0
harharharhar 0.0
iikeanangel 0.0
vonnypoo 0.0
jcoopkp 0.0
itzmero 0.0
katysprismlight 0.0
hatérs 0.0
awkwardaya 0.0
katysredskittle 0.0
tiedye_princess 0.0
adelshahal 0.0
marinadiamandis 0.0
samadizayee 0.0
itsslatykaty 0.0
johnlordperry 0.0
nuggetperry 0.0
kthnkzbye 0.0
teamkpbrasil 0.0
twenagedream 0.0
ashleyegreer 0.0
perryllover 0.0
perry_slays 0.0
_andresgalvis 0.0
poplitics 0.0
likerotica 0.0
sweetxjaureguix 0.0
jessiambriz 0.0
perryncolds 0.0
pwideawake 0.0
brunastrait_ 0.0
anafalqueto 0.0
pessoalmente 0.0
mark_hodson_ 0.0
sumtxkid 0.0
arpoador 0.0
katysmychampion 0.0
amnattg 0.0
osullivanluke 0.0
stephiruth 0.0
katy_pizza_bae 0.0
kpcatt 0.0
pedroeugeniio 0.0
gugs_prismatic 0.0
zeeusmtz 0.0
legendarycold 0.0
robynxkatheryn 0.0
écouter 0.0
energyberlin 0.0
karysjones 0.0
lilzariya 0.0
puroland 0.0
pavlovitz 0.0
dreamhampton 0.0
prismsperry 0.0
perrysmic 0.0
focusonreid 0.0
tonyatalterian 0.0
makeup_man 0.0
wtfkates 0.0
sella_sandra 0.0
katycute_ 0.0
caitsperry 0.0
katyperryforum 0.0
radiantjareau 0.0
lillysgomez 0.0
katycatsweden 0.0
perryicecream 0.0
xamyrosex 0.0
wtvrlara 0.0
bijanstephen 0.0
ameliashowalter 0.0
screamkng 0.0
tvmcgee 0.0
liiife 0.0
itskatcombs 0.0
yaaaaaasssssssssss 0.0
katysmyhabibi 0.0
skottpeace 0.0
ferras 0.0
kweens 0.0
habibi 0.0
orlandobloom 0.0
huckchinn 0.0
katycatkenzie 0.0
matarazzo 0.0
fkatwigor 0.0
perryschild 0.0
hotxcolds 0.0
maddisonxperry 0.0
akaruikaty 0.0
chillinlaidback 0.0
erryone 0.0
chrisanokute 0.0
beyelite 0.0
kuntyewest 0.0
chiroprac 0.0
katyperryrises 0.0
godneybjs 0.0
liquoronurlips 0.0
katystumblrr 0.0
holiestkaty 0.0
hollykittykaty 0.0
katysprincess 0.0
katysdonut 0.0
carlythekatycat 0.0
katycatsophia 0.0
fridaaperry 0.0
iegendarylovers 0.0
katycatveronica 0.0
katyperryslave 0.0
hakimkharbouch 0.0
keonovak 0.0
plaaaaay 0.0
scatting 0.0
shotted 0.0
dizzycoco 0.0
fkinsnapss 0.0
junkygs 0.0
ミニチュア料理 0.0
エビフライとエビ天 0.0
adidasboosts 0.0
lilithia 0.0
cottoncandizzle 0.0
ultimatebeyhive 0.0
paramorewebnews 0.0
royale_lala 0.0
musicnews_feed 0.0
katyperryextra 0.0
greeniight 0.0
gagas_illusion 0.0
lesbiyonce 0.0
blurryhface 0.0
lordofgiraffex 0.0
ifuseekamy_ 0.0
legendarymalek 0.0
hausoframez 0.0
unstan 0.0
chioekardashian 0.0
theiife 0.0
handstomyseif 0.0
legendarylovers 0.0
gagas_fandom 0.0
thinagedream 0.0
conditionalbabe 0.0
dannysuschrist 0.0
prismdluxe 0.0
herwonkeye 0.0
camilasviews 0.0
gagalovesbey 0.0
shadykatyfacts 0.0
limalimoncia 0.0
heavymetaiovers 0.0
katyscrush 0.0
waikingonair 0.0
eduardo_katycat 0.0
katyswetdream 0.0
katherynsgod 0.0
katystddbr 0.0
katyboobies 0.0
royaityler 0.0
nothingfaiis 0.0
kathrynluck_ 0.0
prismaticiights 0.0
mendesperry 0.0
katycatghita 0.0
mark_katycat 0.0
iwasdivine 0.0
skywaterr 0.0
xjojospearsx 0.0
alwaysbeperry 0.0
skoglyrihanna 0.0
legendarydurk 0.0
halseysfirework 0.0
rainbowspatrick 0.0
katysfood 0.0
honeymoonprism 0.0
onepulsetony 0.0
butcha 0.0
okurrr 0.0
the_mpt 0.0
talaofficial 0.0
miniatures 0.0
ohmyjurassic 0.0
katysmoonlight 0.0
lilly_jnes 0.0
coco_ho 0.0
perryhumorr 0.0
yikesjonathan 0.0
rubyrankin 0.0
thealekovski 0.0
cydney_moore 0.0
truebluedeluxe 0.0
thedutchass 0.0
katyskettle 0.0
ferraseu 0.0
katyssunlight 0.0
typosqween 0.0
adoreeeperry 0.0
katyperryfrance 0.0
snowiner 0.0
_coolkatycat 0.0
nicothekatycat 0.0
adorbies 0.0
jackygerardchan 0.0
brewmystew 0.0
katyswildfire 0.0
rihftperry 0.0
theolagu 0.0
ritajoness 0.0
iitsjackie 0.0
mjjperry 0.0
jesuskylie 0.0
holyerotica 0.0
graceofkaty 0.0
redsvelvets 0.0
booyakasha 0.0
tariqterry 0.0
katycatalannah 0.0
taylxre 0.0
pacifyher 0.0
basedkatyperry 0.0
diddleurskittle 0.0
katysanalien 0.0
gagasspace 0.0
tayiorhq 0.0
givenchydress 0.0
augustryder 0.0
perrysmoschino 0.0
kittehn 0.0
katrieber 0.0
legendaryhunty 0.0
katyslegs 0.0
katyfroot 0.0
winesandlines 0.0
sam_incolour 0.0
wakingonair 0.0
drwssinup 0.0
huffdaddysays 0.0
fiwwwwine 0.0
matthewroper 0.0
emmabruhhh 0.0
gingerwesson 0.0
nicholas_sewell 0.0
perfectlyperry 0.0
bustabusta 0.0
mynameisziam 0.0
venuzszfly 0.0
katherynsus 0.0
sacredperry 0.0
thedollsftkaty 0.0
_cafajeff 0.0
debkatycat 0.0
katycats 0.0
eastonjames_ 0.0
oliviabooker_ 0.0
protecti 0.0
outrageousness 0.0
joanneprada 0.0
scuffed 0.0
catoure 0.0
blanged 0.0
tahmorrow 0.0
glukatyperrypop 0.0
jamesjoint 0.0
pressin 0.0
bourree 0.0
honeysuckle 0.0
meowings 0.0
fashun 0.0
happun 0.0
vikander 0.0
thekatyperrypopgame 0.0
karolfabianaros 0.0
nico_thekatycat 0.0
miss_lilyjames 0.0
stylinfunk 0.0
hudsontheband 0.0
jere_my 0.0
crabitat 0.0
tiersz 0.0
unrehearsed 0.0
fanclub_kp 0.0
oneofthesophies 0.0
fusterlandia 0.0
lazyblazy 0.0
katycatchloe 0.0
figali 0.0
prismaticness 0.0
titicaca 0.0
ancientaliens_ 0.0
sneezin 0.0
cristos 0.0
mallman 0.0
prismaticlife_ 0.0
ravensuxx 0.0
perrypositive 0.0
derkwhore 0.0
alekjandro 0.0
havss_ 0.0
hqzaynmaiik 0.0
thique 0.0
bbhmms 0.0
jkatharineb 0.0
jennyformica 0.0
tiiiiiight 0.0
ikissedagay 0.0
harryvuitton 0.0
aeschleahd 0.0
princessjavonda 0.0
errrythang 0.0
kooning 0.0
sugarray 0.0
empaths 0.0
goldenboyz_inc 0.0
voguejp 0.0
chickenwingguardingthemimosa 0.0
katyperrypopup 0.0
unmeasurably 0.0
transviolet 0.0
beauteous 0.0
katyskidrauhl 0.0
thooooooseee 0.0
clairesstores 0.0
nailsbymh 0.0
katysacutie 0.0
psychokatycat 0.0
kaceymusgrave 0.0
refueled 0.0
hyungsunju 0.0
okuurrrr 0.0
cholewheeler 0.0
leftshark 0.0
momchella 0.0
crotches 0.0
hookedondolls 0.0
fyuseapp 0.0
mogonoloball 0.0
atletica 0.0
katycatsclub 0.0
catacombs 0.0
poppycorn 0.0
cupped 0.0
christiania 0.0
residenz 0.0
lindseyweber 0.0
butterballface 0.0
joshlecash 0.0
myassistant 0.0
swiftschrist 0.0
snowhiteperry 0.0
emmakphughes 0.0
katyslegend 0.0
dansnierson 0.0
scressful 0.0
prismaticwitch 0.0
finnin 0.0
habibis 0.0
mophies 0.0
strongé 0.0
drumkit 0.0
anamanaguchi 0.0
gaultier 0.0
ngvmelbourne 0.0
dukedumont 0.0
legendaryasmyn 0.0
highlarious 0.0
calpurnia 0.0
waaaaait 0.0
mktfah 0.0
fwding 0.0
caseyhoops 0.0
worldstarvlne 0.0
flapfkp 0.0
bettycrocker 0.0
mexxxico 0.0
whhhhhhhhuuuuuutttt 0.0
yelletweets 0.0
gucciqxxn 0.0
luckyladyrebelettes 0.0
junglejulia 0.0
charlottes_web 0.0
istarbucksniall 0.0
katysroaaar 0.0
fiorucci 0.0
whuteva 0.0
sirdavidd 0.0
fudgery 0.0
bizquick 0.0
itsgrandtheft 0.0
grandtheft 0.0
katysfancy 0.0
ameezyyrush 0.0
mykectown 0.0
itsvalkubus 0.0
walkslikeperry 0.0
iwantperry 0.0
exausto 0.0
selfeh 0.0
aquaberry 0.0
sidepiece 0.0
versacness 0.0
iamleslii 0.0
alocalgyro 0.0
cutina 0.0
theoutslder 0.0
prism_katy_cat 0.0
katyshoodrat 0.0
thestevetisch 0.0
ronysphotobooth 0.0
schlitterbahn 0.0
kpsnosecrinkle 0.0
alwz_katycat 0.0
whykph 0.0
californiagurls 0.0
katycattt 0.0
varicose 0.0
itsbrillz 0.0
perrystiger 0.0
katysmyaura 0.0
paolablancokp 0.0
callmemargot 0.0
indiggynado 0.0
katycat 0.0
anylinden 0.0
kpkillerqueen 0.0
katyslilacwine 0.0
katypvenezuela 0.0
franzikaty 0.0
katherynelperry 0.0
doessss 0.0
katysleftarm 0.0
datingprism 0.0
_smiler_katycat 0.0
kepyterry 0.0
katycat_camille 0.0
vckatyperry 0.0
bowzerjoe 0.0
taishrox 0.0
mütter 0.0
arianperryarian 0.0
lisasigh 0.0
fridiskp 0.0
kevinruda 0.0
katyperrydaily 0.0
wakingupvegas 0.0
marlyins 0.0
drankin 0.0
herkatycat 0.0
luvhudson 0.0
yaeltsairi 0.0
felipinhoofm_ 0.0
renanmarcall 0.0
kariseperry 0.0
emojing 0.0
konnie 0.0
mcperry 0.0
iturnmycanonon 0.0
katycatelysha 0.0
andrewnavs 0.0
katycatkrystal 0.0
lovelyandlaugh 0.0
lampoonians 0.0
perrytuuda 0.0
katymyhaven 0.0
ruletheschool 0.0
cheapandchic 0.0
sically 0.0
crazyforperry 0.0
kpdaily 0.0
getonupmovie 0.0
cutetina 0.0
chimiuzz 0.0
kefali 0.0
joelkefali 0.0
siclly 0.0
mtvother 0.0
lydiaacav 0.0
prismaticperry 0.0
jwujek 0.0
adorbie 0.0
errone 0.0
kaliyah 0.0
katysweirdness 0.0
vinbiodiesel 0.0
katysfxb 0.0
katyspurrfect_ 0.0
shannonmwoodward 0.0
bippity 0.0
boppity 0.0
swiggty 0.0
swoogity 0.0
pizzarella 0.0
firewerk 0.0
katyslayed 0.0
emerald_epelman 0.0
madkatydisease 0.0
mandee 0.0
ohferras 0.0
sarahh 0.0
iaustinhunt 0.0
lanawhore 0.0
spaceykacey 0.0
crazay 0.0
elektrikpeople 0.0
visa_nz 0.0
fvckin 0.0
nathanspicer 0.0
cashcash 0.0
ashish_uk 0.0
xokatic 0.0
turnting 0.0
scorpiomystique 0.0
toddthomasnyc 0.0
kohngallery 0.0
discnt_universe 0.0
dressinkaty 0.0
lee_cook 0.0
bloodshot 0.0
yaddlizc 0.0
elnett 0.0
itsthekatycats 0.0
kelly_moritz 0.0
katyslaykaty 0.0
skintxghtjeans 0.0
socarrer 0.0
errrday 0.0
therealslacker 0.0
wendywild 0.0
welkys 0.0
sohohouse 0.0
selfing 0.0
camiilaruales 0.0
nexxxt 0.0
turrell 0.0
alliexxxxandra 0.0
surfboardt 0.0
telstra_news 0.0
juanitadele 0.0
oopskatycat 0.0
sophkatycat 0.0
katyschild 0.0
katysconverrse 0.0
katycat_leah 0.0
katycatverified 0.0
katycat_libby 0.0
katyswonk 0.0
kittless 0.0
jlrcukp 0.0
siiiiiiiiiiiiii 0.0
ermagherd 0.0
imlynsey 0.0
perrys_cherry 0.0
casemcgase 0.0
hazzaily 0.0
herses 0.0
gaypropaganda 0.0
tixforcharity 0.0
hudsons 0.0
nomers 0.0
mommacat 0.0
superlove 0.0
bonacorso 0.0
levi_leet 0.0
thinkingofbecki 0.0
cybering 0.0
pamyurin 0.0
idreamofkaty 0.0
xfactor_au 0.0
glohudsonperry 0.0
aubreyplzza 0.0
eeshhuhhayniac 0.0
bonkay 0.0
katysbum 0.0
nevillebradley 0.0
curryswift 0.0
zinepack 0.0
katykatt_suraya 0.0
sweetkatybird 0.0
yohkatheryn 0.0
cottoncandykaty 0.0
karolynadiaz 0.0
maayansharvit 0.0
theprismcess 0.0
camisp_ 0.0
lucasgaldin 0.0
prixy_mtz 0.0
niggasperry 0.0
kaksperry 0.0
zennnnaaa 0.0
katyissmurfy 0.0
dadehoward 0.0
kyledsaavedra 0.0
katysdoritos 0.0
pendejabardera 0.0
rosenilsou 0.0
hackensucks 0.0
gottabesheerio 0.0
ismaellgarcia 0.0
milegendz 0.0
alexskarev 0.0
ladycrystalb 0.0
katyspad 0.0
xcallmechrissyx 0.0
arianastylesss 0.0
jorgebaker 0.0
matty_zee 0.0
katycatzilla 0.0
adorie 0.0
meowwdison 0.0
alvin_koopa 0.0
lexyauditore 0.0
kease_it_raw 0.0
katysking 0.0
chris__kirby 0.0
katysbestfrwend 0.0
katyslildancer 0.0
sssshhh 0.0
conorhughess 0.0
tanimura 0.0
thekatycatlife 0.0
weefififookface 0.0
breakalioz 0.0
hudsonhelper 0.0
lariitaa 0.0
meeeeeooooooooowwwww 0.0
legend__dary 0.0
katyandliam 0.0
_theatrekid 0.0
babybritney 0.0
erinlorimer 0.0
_zacmoore_ 0.0
itscezzurryo 0.0
katycatskp 0.0
larissafilipo 0.0
siaylorswift 0.0
shitkittens 0.0
thefrankradical 0.0
katysprism 0.0
katytinalevine 0.0
serjeeoh 0.0
kayz_perry 0.0
katyslaysurfav 0.0
fuckyeahitskath 0.0
sweetyitosan 0.0
pickerington 0.0
verrado 0.0
retweete 0.0
jameswaterhouse 0.0
hunnah 0.0
truth_ispeak 0.0
_emilybarbarrr 0.0
nbllrrr 0.0
jmoneygraves 0.0
eaglenationnews 0.0
tauentzienstrasse 0.0
avontbh 0.0
vinnie_mate 0.0
demilovve 0.0
coolestkatycat 0.0
terri_katycat 0.0
beeeaaatttt 0.0
laurenfrancisco 0.0
victaytayp 0.0
aylajaye 0.0
iloveu 0.0
augustvaz 0.0
lizzievang_ 0.0
edsssss_ 0.0
hhhhhholly 0.0
holly_hickin 0.0
trixxx 0.0
killah 0.0
treasurefingers 0.0
最強ガール宣言 0.0
voykovic 0.0
annunaki 0.0
katyshomie_ 0.0
katyselephant 0.0
caitlynsmith 0.0
lightsperry 0.0
elizagilham 0.0
ohmyjatyfeels 0.0
junglescope 0.0
drunkskaty 0.0
malikpom 0.0
dancerlaurena 0.0
brirad 0.0
elisa_rv 0.0
moooom 0.0
pattymeagher 0.0
iwasemily 0.0
shahrzadphoto 0.0
tvjohnny 0.0
cstonethebreadwinner 0.0
katysrightboob 0.0
cyberdlck 0.0
beatforkaty 0.0
igabriiel 0.0
duuuuddddeeeee 0.0
redrum 0.0
srbuhiii 0.0
kayleighcat 0.0
applekatycat 0.0
ikatycats 0.0
wehryspencer 0.0
emilyjonesphoto 0.0
coxgabe 0.0
drugmoneyx 0.0
steven_drum 0.0
victoriacha 0.0
hashtaggin 0.0
perryandemetria 0.0
katycatfurlife 0.0
iammelissalynn 0.0
qewtie 0.0
yscheecat 0.0
slayty 0.0
katystree 0.0
katherynsboy 0.0
anapurry 0.0
nenedez 0.0
kevinn_perry 0.0
gloria_swag_ 0.0
andyamaziing 0.0
roarsana 0.0
brighthudson 0.0
fixingperry 0.0
roooooooooooooar 0.0
gretschusa 0.0
katys_cupcake 0.0
wonderation 0.0
kasek_craig 0.0
katysgurll 0.0
pepperperry_ 0.0
teamkatyperry 0.0
meandnutella 0.0
lovatokitten 0.0
katyslolly 0.0
astixxx 0.0
ravemomentz 0.0
erzaabrianto 0.0
katyperryindo 0.0
seeingdaisies 0.0
gillian_e_dubbs 0.0
samanthachazene 0.0
perryprism_ 0.0
katycompletesme 0.0
ltskatyperry 0.0
kittenscks 0.0
nihanofficial 0.0
momcat 0.0
kaytehperreh 0.0
__grazi 0.0
clairekatycat 0.0
fangurl 0.0
rrrrrrrrrrrroooooooooooooaaaaaaaaaaaaar 0.0
marispiva 0.0
mattdrobins 0.0
deihemmings 0.0
rooaaarr 0.0
katycatobsessed 0.0
katycatnick 0.0
tigerkats 0.0
kristenanzelc 0.0
taylermckellop 0.0
essesfadaperry 0.0
imjare 0.0
smganonymous 0.0
roaaaar 0.0
phuckyotweet 0.0
evvvvvverrrr 0.0
melvynmarrero 0.0
zouisashton 0.0
trillneyspears 0.0
rooooooar 0.0
fanwars 0.0
fentyncold 0.0
ttish_ 0.0
rachelacogan 0.0
makesmariana 0.0
kkaplon 0.0
rafaelmoncada 0.0
yaaaassssgrl 0.0
oioianna 0.0
katycatrazan 0.0
megaan_katycat 0.0
thekaelynn 0.0
hannahloupunton 0.0
thumbelinafairy 0.0
nic_kathryn 0.0
dannahfields 0.0
rodneybroaddus 0.0
noxisanasshole 0.0
soedesh__ 0.0
hookerofversace 0.0
thinkingofkaty_ 0.0
msgracevalerie 0.0
francfernandez 0.0
katysring 0.0
a_little_spark 0.0
laaxiss 0.0
