awesome 0.000386357733794
christmas 0.000128436866855
trying 0.000289759874411
launch 0.000177645471106
moment 0.000524387313741
wonderful 0.000325482030876
seeing 0.000506054224127
hanging 0.000255695891401
sounds 0.000247317267633
recommend 0.000129385422476
worked 0.000219349163593
direct 0.000287221100953
others 0.000249331822315
currently 0.0
better 0.000802626999471
please 0.0013655474468
social 0.000259678930768
anxiety 0.000125485814927
around 0.000372648249754
people 0.00214989374858
morning 0.000345842371867
traditional 0.000110016644017
general 7.42889304693e-05
damage 0.0
everything 0.000374662569523
twitter 0.00031787785384
present 9.84445754962e-05
though 0.000150048989081
friend 0.00052156777394
watched 0.000618415858665
beautiful 0.000890631389015
anything 0.000263611172798
previous 0.000136589276393
helped 0.000252729247415
updated 0.0
thinking 0.000206139515825
finally 0.000147242511303
caught 9.7379599038e-05
believe 0.000862278573715
already 0.000459881905981
couple 0.000126022861905
orlando 0.00024540254228
chance 0.000288201976556
meaning 0.0
growing 0.00013825537237
probably 0.000125003646306
password 0.0
changed 9.24936236574e-05
history 0.000979694527916
center 0.00011332348827
museum 0.0
behind 0.000372648249754
screaming 0.000159948333205
pretty 0.000265036520346
really 0.00126808869685
little 0.000661080239848
happiest 6.10200134552e-05
earlier 6.74441247542e-05
forget 0.000292112712516
someone 0.000174325205974
safety 0.0
program 0.000120286483525
things 0.000544639749641
related 4.23707582371e-05
visiting 0.000159008775993
available 0.000149644683453
perfect 0.000240078382529
different 0.000146450651555
search 7.70549455578e-05
connect 5.38691555533e-05
numbers 0.000216145131397
person 0.000433469800691
watching 0.000840303635792
exhibit 6.80199803729e-05
passed 0.000210834508824
prefer 4.35149777668e-05
minutes 5.95357910738e-05
travel 0.000211416544912
outside 0.00018299888413
looking 0.000344911429486
forward 0.000414508556826
agreed 0.00011591002159
raising 8.23015525014e-05
listened 4.56692493406e-05
afraid 3.72485134432e-05
impression 0.0
christian 0.000151602807788
profile 0.0
instant 0.0
drawing 0.0
wheels 0.0
favorite 0.000668937477276
picture 0.000122660128233
instead 0.000292138797114
appreciate 0.000169535000576
international 0.000106882294102
station 0.000121328869014
toddler 7.60638767797e-05
market 0.000233137992156
couldn 0.000180058786897
remember 0.000634044348423
vintage 0.0
holidays 0.000164603105003
friends 0.000318735861852
everyone 0.000345842371867
florida 0.0
always 0.00077396174949
months 0.000180545326118
moving 9.29950580224e-05
meeting 8.85840527045e-05
answer 0.000177168105409
sweetie 0.0
together 0.00031787785384
inside 0.000180058786897
section 4.43039794102e-05
missed 0.00017526762751
button 0.0
longer 9.97946149956e-05
enough 0.000291326285412
driving 7.04721816372e-05
building 6.47436019852e-05
enjoying 0.000458069180642
london 0.000205682963989
exploring 6.07821261979e-05
posting 4.32567305248e-05
amazing 0.00143713095619
attention 6.52736257908e-05
gordon 0.0
progress 0.000199903017865
tomorrow 0.000489943360145
george 0.000322426111771
feeling 9.05166227969e-05
excited 0.000270817989177
understand 0.000282784760416
following 0.000181522553178
asleep 0.0
learning 7.14522140483e-05
evening 0.000263952135154
special 0.000232433607966
secret 0.000258272042921
across 0.000160982389081
surprised 0.000206247797009
anymore 0.000146928033915
sophia 0.0
precious 6.07821261979e-05
rejoice 0.0
version 6.36980319729e-05
rather 0.000161859004963
avatar 7.30033460741e-05
showing 0.000184487997327
saying 0.000270817989177
tweeted 0.000152379126179
thoughts 0.000214076128046
exactly 0.000186998866736
except 7.34640169574e-05
getting 0.000605224150767
nothing 0.000489943360145
tweets 0.000222339632503
course 0.000416750537516
photos 0.00024395014707
looked 6.54513949253e-05
difficult 3.7987621607e-05
stages 0.0
office 0.000623329555788
decisions 0.0001305449333
brought 0.0
biggest 0.000178126277803
thrilled 0.000219533820238
something 0.000461123162489
closing 8.5747340518e-05
anyone 0.00061013822091
taking 8.64605929667e-05
recently 3.74577497735e-05
interesting 0.000481638250708
original 0.000170465693781
flying 3.62246456766e-05
happening 9.42615868055e-05
sometimes 3.17628046433e-05
lessons 4.17542774883e-05
village 5.78568588115e-05
stopped 0.000169071910513
yesterday 0.00040675881394
service 0.000126707407221
serious 6.16624157716e-05
digital 0.000213735563292
hoarder 0.0
wearing 3.38143821026e-05
british 0.0
either 0.000219943702546
second 0.00020337940697
checking 0.000112058822097
indeed 0.000235804580453
island 0.000122384044829
hearing 0.000225375344713
choose 0.000203442000691
staying 3.89667955538e-05
another 0.000603595001601
clothes 0.0
slowly 5.2241038197e-05
weekend 0.00035053525502
hashtag 4.24956614848e-05
delivery 0.0
theory 4.72501900499e-05
working 0.000605224150767
bigger 0.000101443146308
screen 0.000779335911077
riding 9.97580700412e-05
laughing 6.83733266178e-05
wanted 5.82652570823e-05
trends 0.0
stripes 0.0
clothing 0.0
current 6.79998366977e-05
adorable 0.000108866160594
grateful 0.000452022295441
friendship 0.0
family 0.00123926849919
listening 9.47734677808e-05
stream 0.000118916004322
expressions 0.0
wedding 0.00013132671823
sharing 0.000135628000461
double 0.000130547251582
especially 0.000159677436972
middle 0.000330840177531
waiting 0.000177168105409
definitely 0.000189034292858
walking 3.45638430926e-05
account 6.76287642051e-05
completely 6.83733266178e-05
thought 0.000522975617923
reaction 0.0
accept 7.3669135244e-05
simple 6.70766202908e-05
professional 4.27471126584e-05
friendly 0.0
supposed 0.000114930932267
business 0.000745975007345
absolutely 0.000462468118287
anywhere 3.84186861209e-05
sending 6.68937477276e-05
introducing 4.62341001289e-05
congrats 0.000453806382945
beauty 0.000123811392948
community 0.000177645471106
greatest 0.000378068585715
selfie 8.62569483176e-05
posted 0.000136372555025
saturday 0.000121670242949
wednesday 6.95086211412e-05
confused 0.0
expression 0.0
chicago 0.000235134047441
closest 0.000110016644017
relationship 0.000116238877631
actually 0.000354336210818
easter 0.0
basket 0.0
myself 7.55489921802e-05
argument 0.0
school 0.000205030912177
thursday 0.0
selling 3.94129563113e-05
talented 0.000265166025432
celebrate 3.18490159864e-05
falcon 8.97799192123e-05
celebrating 0.000103123898504
contest 0.0
experiences 5.3683619307e-05
students 3.82023435847e-05
internet 7.16502470603e-05
figure 0.000137876327397
opened 0.0
featuring 7.49154995471e-05
inspired 0.00031365018909
sitting 9.76446092629e-05
playing 0.000205030912177
street 9.5806462183e-05
points 0.000147749980086
memory 0.000358795541569
forever 9.76446092629e-05
imagine 0.000385310600566
problem 9.27439753625e-05
played 0.00025757182253
canadian 0.0
pulling 0.0
keeping 6.43929556324e-05
lovely 0.000181123228383
dressed 4.65207550176e-05
specifically 0.0
unlike 5.33161110683e-05
disappointed 0.0
otherwise 0.00012273866698
afternoon 0.000101721000346
planned 8.27813084388e-05
strange 8.86079588203e-05
images 0.000152101335271
noticed 0.000137007748022
notice 0.0
stretch 0.0
inspiration 7.90511801029e-05
letting 3.54310932712e-05
system 0.000144096754264
possibility 0.0
almost 0.000230561581245
details 0.000126022861905
experience 0.000812453967531
living 9.02726630589e-05
weather 0.000110503702866
normal 3.86366738633e-05
launching 0.000140868554726
before 9.37527347294e-05
captured 0.0
colors 0.0
monday 0.000150454438432
example 0.000190473907724
realize 8.27813084388e-05
autographed 0.0
sleeping 9.16188439828e-05
authentic 0.0
science 0.000284738717748
tweeting 0.000329042977288
forgot 3.61242418962e-05
chasing 0.0
gorgeous 9.36206109182e-05
herself 0.0
happens 8.95449090688e-05
silence 0.000226954718783
learned 0.000266845826545
congratulations 0.000158814023217
natural 4.09128889935e-05
raised 3.76685246201e-05
babies 0.0
mission 0.000312621491262
smelled 0.0
ironic 0.0
testing 5.05342692627e-05
deleted 5.72221779033e-05
barely 5.02047800031e-05
unforgettable 0.0
forgotten 4.2873670259e-05
trouble 0.0
fantastic 0.000475998856884
loving 0.000237999428442
complete 3.30840177531e-05
nearly 7.57617215521e-05
spirit 0.000186764703494
launched 4.30007890925e-05
finding 0.000105708272456
mercury 0.0
stories 0.000186998866736
including 0.000128088881763
mature 0.0
stuffed 0.0
ancient 0.000123003587406
bottle 0.0
somewhere 0.000150251773878
wouldn 0.000217576043809
choice 0.000215235996882
conversation 0.000245296841722
making 0.000661080239848
expect 0.000207383058555
occasions 0.0
subject 0.0
flights 0.0
location 0.000135758393119
vacation 0.000103436506382
seriously 9.55470479593e-05
spending 0.00010747537059
groups 0.0
childhood 0.000328693294361
modern 0.000249068101123
welcome 0.000145663142706
moments 0.00010747537059
degrees 0.000108111801027
jacket 5.08675898786e-05
halloween 0.000129770191574
costume 5.70137024391e-05
totally 3.32648716652e-05
laughed 0.000163870643325
flight 0.000103691529278
kidding 0.0
regular 0.0
context 0.0
running 0.000242030070904
finished 0.000137876327397
strong 0.000237501703737
tracking 0.0
respond 0.0
message 0.00018349382404
coming 0.00037365404861
thankful 9.07818875132e-05
cheese 0.0
greens 0.0
issues 0.000240622429843
intolerance 0.0
happen 8.81076207383e-05
giving 0.000174795771247
turkey 8.39985622328e-05
excellent 0.000638570038982
limits 5.34992762281e-05
common 0.000320646882306
pressed 0.0
situation 0.00015067409848
options 8.99569740012e-05
health 0.000203999510093
insurance 9.94350804548e-05
change 0.000230561581245
singing 0.000115582418337
august 0.0
crying 4.53909437566e-05
mental 0.000128621010777
happened 0.000151677713993
demand 0.000341888594463
generally 0.0
personal 0.000219349163593
beyond 9.65894334486e-05
bruised 0.0
question 0.000265036520346
chicken 0.0
reward 0.0
tunnel 0.0
losing 7.10581884425e-05
respect 0.00050409144762
caption 6.10200134552e-05
shouldn 0.000172345409247
visited 9.05055954123e-05
reason 9.10066283958e-05
simply 7.20483771322e-05
darlin 0.0
audience 0.000159464685142
involved 0.000268306481163
unhappy 0.0
reality 0.000342804939982
extremely 0.000125629552637
without 0.000319596210953
falling 0.0
countdown 0.0
locations 0.000137272922243
timing 0.00015361449601
crabby 0.0
classic 7.06668524523e-05
highly 0.000164126343401
online 0.000216988468719
finger 0.0
animals 0.0
planets 8.33834535322e-05
called 0.000289759874411
delicious 0.000255178574969
almond 0.0
compliment 0.000115287466589
pictures 3.64265144685e-05
camera 0.00011300557386
pillow 0.0
checked 0.000163651555974
heading 6.85609879963e-05
theater 0.000435464642376
paying 7.49154995471e-05
planning 7.49154995471e-05
complex 4.73983312064e-05
sunday 5.95357910738e-05
nights 8.49913229695e-05
descending 0.0
traffic 0.000129770191574
opposite 4.72501900499e-05
through 4.04429563381e-05
lookout 0.0
reached 4.27471126584e-05
harder 4.00954945083e-05
random 0.0
changes 7.12548627348e-05
speaking 9.89820506829e-05
recorded 8.75511454864e-05
washed 0.0
november 7.72733477265e-05
answered 0.0
enchanted 0.0
number 0.000147640087841
adventures 0.000137272922243
eclipse 0.0
chocolate 4.41709617702e-05
unless 0.000106587282664
calling 6.0507517726e-05
mermaid 0.0
distraction 0.0
levels 0.000132911938231
option 0.0
shopping 8.75511454864e-05
former 0.000398471102442
actual 0.000153241243022
covers 9.33303292856e-05
mountain 0.0
friday 0.000262901441265
winner 0.000160111102204
closes 0.0
quality 0.0
father 0.000196889150992
wishes 0.000112688830409
hourly 0.0
matter 0.000123658633817
themselves 0.0
usually 3.84186861209e-05
period 4.30007890925e-05
parents 0.00013825537237
balance 4.4842309785e-05
publishing 0.0
mobile 0.000143542213077
woohoo 0.0
bracelets 0.0
summer 3.10822919727e-05
reminded 5.00414448034e-05
impressed 0.0
necklace 0.0
shutdown 0.0
dinner 3.18490159864e-05
single 0.000118750851869
packed 4.72501900499e-05
definition 4.73983312064e-05
energy 0.000239963457987
preview 0.000205157929252
monster 4.97175402274e-05
material 4.92384441172e-05
admission 0.0
europe 0.000159464685142
holiday 0.000232220114558
emotional 0.000207556750936
update 6.72600780473e-05
customers 0.0
messing 0.0
holding 3.40931387562e-05
electric 5.15460890098e-05
eating 0.000108072565698
outfit 0.0
picked 0.0
fabulous 5.02047800031e-05
missing 9.22439986637e-05
surprise 6.16624157716e-05
officially 0.000100890117071
french 3.70407933315e-05
global 0.000269692309452
follow 0.000202831912088
opinion 0.000150251773878
backwards 0.0
design 4.35149777668e-05
secrets 5.40559005133e-05
request 0.0
breaks 7.59752432141e-05
allows 5.42438700392e-05
promoting 0.000247784750858
volunteer 0.0
wondering 3.91890079068e-05
official 0.000208375268758
sweater 0.0
jersey 0.0
mistake 3.98661712854e-05
france 3.99806035731e-05
proper 4.58094219914e-05
ginger 0.0
peaceful 0.0
lighter 0.0
thinks 0.000134520156095
competition 0.0
hospital 0.000125997843349
industry 0.000122030879035
trending 4.76969302604e-05
leadership 0.000270691885376
organized 0.0
showed 7.24492913532e-05
circle 5.10357149939e-05
success 0.0
ladies 7.90511801029e-05
dreams 7.57617215521e-05
protect 0.000147749980086
onesie 0.0
explanation 0.0
control 0.0
coincidence 0.0
discovering 7.44927849795e-05
laying 0.0
invited 8.11194384572e-05
healthy 0.000156310745631
surgery 5.40559005133e-05
allowing 0.0
arrived 6.97000420201e-05
opening 3.1335594799e-05
popular 0.000275890694179
pleasure 0.000108372725689
spectacular 0.000157784804001
animal 4.32567305248e-05
luggage 0.0
wonder 9.37527347294e-05
matters 0.000227285164656
reader 0.0
function 0.0
marketing 0.0
connection 0.0
improves 7.68829396436e-05
benefit 0.000180621209481
continues 0.000210834508824
cuddle 0.0
routine 0.0
exciting 0.000414766117111
corner 0.0
imagination 0.000275798982642
sangria 0.0
mystery 0.00026208720146
spring 7.3669135244e-05
beautifully 0.000171041107317
places 6.87492656695e-05
feedback 0.000561946395752
continue 6.65297433304e-05
attend 8.67711266517e-05
creative 0.000203384798391
memories 0.000354716606802
female 0.000384186861209
grandma 0.0
closer 7.22484837925e-05
accent 0.0
beginning 0.00010867393703
sooner 0.0
everywhere 0.000103123898504
scenes 0.00029385606783
bought 7.04721816372e-05
wishing 4.17542774883e-05
discovered 9.59973450402e-05
remove 4.97175402274e-05
predict 0.000172931199884
parrot 0.0
several 8.30227003742e-05
teacher 0.00034400631274
passing 0.000116900386662
become 0.000210636213804
spread 3.29042977288e-05
netflix 0.000478474043591
season 0.00047644206965
putting 3.0253758863e-05
weight 0.0
outfits 0.0
notification 0.0
annoying 0.0
necessity 0.0
knocks 0.0
processed 0.0
necessarily 6.32548005303e-05
effects 5.34992762281e-05
lighting 6.3776001252e-05
headed 3.80947815448e-05
returns 0.000502276760222
expected 8.25409286319e-05
bucket 0.0
constantly 0.0
sweetest 6.92664919771e-05
struggling 0.0
register 0.000214368351295
transition 5.57937204527e-05
flowers 0.000163870643325
sprain 0.0
savage 0.0
somebody 4.30007890925e-05
covering 4.45718808927e-05
gloves 0.0
repeat 0.0
managers 0.0
brothers 0.0
patriots 0.000124980697122
seahawks 0.0
player 4.02108477826e-05
chemistry 0.0
moonlight 0.0
comment 0.000111433395704
columbia 0.0
physical 9.59973450402e-05
kingdom 6.22399954416e-05
pretend 0.0
charles 0.0
fighting 3.28148584987e-05
rooting 5.76437332945e-05
donald 0.00182118878565
mexico 0.000208162782494
police 0.000260011256643
represent 4.87672239172e-05
president 0.0015690888016
talking 0.000346775840553
unbelievable 9.16188439828e-05
shrimp 0.0
giants 0.0
conference 0.000142904428097
america 0.000245320256466
everybody 7.10581884425e-05
houston 4.90805084561e-05
everyday 8.1825777987e-05
michael 0.000195289218526
protecting 0.000205499810723
unconditional 0.0
million 0.000332791347493
election 0.00127207020794
telling 0.000261805579701
correct 0.000111433395704
pulled 4.32567305248e-05
starbucks 0.0
americans 0.000400954945083
killed 9.63276501416e-05
cowboys 0.0
cowboy 0.0
coverage 0.000195388432039
dallas 0.00142641725792
coffee 3.63254023708e-05
timeline 0.0
refuse 0.000206873012764
barackobama 0.000111190688457
hillary 0.00164947484831
clinton 0.00136598150589
gatorade 0.0
sharper 0.0
american 0.000733975296159
deserved 4.40385585326e-05
realist 0.0
illegal 0.000335990707641
arizona 5.70137024391e-05
waffle 0.0
scared 8.44927937416e-05
pieces 8.52422227134e-05
taught 4.24956614848e-05
golden 0.00019428166013
straight 0.00022354841176
massage 0.0
filter 0.000127552002504
answers 0.000111433395704
smoking 0.0
created 0.000173294593179
beside 0.000152127753559
worlds 0.000163299240891
record 0.000180545326118
freddie 0.0
africa 0.0
recruiting 0.0
journey 0.000374577497735
snapchat 0.0
brother 0.000245973593628
prayers 9.02306284586e-05
trolling 0.0
hungry 4.63770692531e-05
nflnetwork 0.0
documentary 0.000948826431493
boston 0.000166530225995
addition 0.0
church 0.00013132671823
honestly 0.000288055433755
lounge 0.0
lifetime 4.35149777668e-05
captain 0.0
favorites 0.00015361449601
country 0.00104187634379
valley 0.0
huddle 0.0
dressing 0.0
finish 0.000141724373085
favourite 9.30415100351e-05
prayer 6.3776001252e-05
nominated 0.000129770191574
praying 0.0
insane 8.52422227134e-05
national 0.000467497166841
reform 0.0
shooting 7.20483771322e-05
australia 0.000128241337975
deserve 0.0
legend 7.68373722417e-05
mother 0.000128436866855
realest 0.0
creating 7.92773362146e-05
powerful 0.000456808102451
chilling 0.000243128504792
wisdom 4.86118563283e-05
breaking 0.000154991763371
parked 0.0
angeles 0.000100409560006
dollars 0.0
questions 0.000295280175682
racist 5.18914576452e-05
girlfriend 6.07821261979e-05
performance 0.000333557283181
refreshing 0.0
educated 0.000126509601061
reading 0.000244658432053
denver 6.03121935426e-05
videos 0.0
harmony 0.0
create 0.00016677864159
jordan 0.0
admire 0.000106632222137
nobody 0.000141333704905
government 0.000301899319112
politics 0.000285562771267
paradise 0.0
recover 0.0
spotted 0.0
blessing 0.0
coolest 5.10357149939e-05
banana 0.0
donate 7.77126640522e-05
sandwich 5.34992762281e-05
lookin 0.0
method 6.03121935426e-05
bullshit 5.52026634306e-05
slight 0.0
bringing 0.00012948720397
deserves 0.000114930932267
regret 5.07004450903e-05
celebs 0.000148226214487
victim 0.0
stadium 0.0
funniest 0.000157784804001
according 0.000152809374339
pumped 5.7432180674e-05
hamburger 0.0
heaven 4.56692493406e-05
honest 0.000179125617651
rolling 8.65134610496e-05
became 0.000324217697095
feature 3.95255900515e-05
waking 0.0
breakfast 0.00010867393703
counting 8.1825777987e-05
signing 0.0
adding 4.56692493406e-05
awareness 8.25409286319e-05
kindest 9.71706550829e-05
trainer 0.0
facebook 0.000154156039429
insanity 7.37383927578e-05
repost 0.0
brazilian 7.48775592128e-05
campaign 0.000334468738638
borrow 0.0
scorpion 0.000115401432066
popcorn 0.0
factory 5.87255692305e-05
teenage 0.000126509601061
endorsement 6.43068543857e-05
williams 4.59502834541e-05
custom 5.78568588115e-05
drinks 0.0
future 0.000504691120442
angels 6.27429074635e-05
fingers 8.94135528713e-05
sister 3.87462925436e-05
earrings 0.0
warrior 6.12598914239e-05
dancing 0.0
voting 0.000710581884425
individuals 0.0
presence 0.0
commercial 7.90511801029e-05
chopped 0.0
religion 0.00023848572481
century 0.0
submit 0.0
serving 4.95569501716e-05
because 0.000124534050561
aggressive 5.7432180674e-05
sensitive 0.0
smiling 0.0
besides 5.98498407775e-05
cleveland 0.0
hometown 0.0
killing 3.67320084787e-05
breath 0.0
phillips 0.0
instagram 7.99612071461e-05
sharks 0.000273306254036
cousin 0.0
honored 0.000399806035731
dedication 0.0
lifting 7.30033460741e-05
lyrical 0.0
talent 0.000115256058363
goodnight 5.52026634306e-05
stores 5.2241038197e-05
rushing 0.0
brains 6.35142163278e-05
sandwiches 0.0
drinking 0.0
brazil 5.17182531909e-05
tattoo 0.0
ravens 0.0
regardless 5.08675898786e-05
skills 0.0
cameras 0.000115713717623
phones 0.000159402326609
california 0.00020635232158
seconds 3.85274727789e-05
listen 0.000238143164295
smiled 0.0
kicking 0.0
homies 0.0
billion 0.000165081857264
shades 0.0
shoutout 5.4433080297e-05
grammy 0.000204059941119
guilty 9.75344478344e-05
stevie 0.0
ceiling 0.0
carpet 0.000495569501716
grammys 0.0
harvard 0.0
panther 0.0
nelson 0.0
mandela 0.0
handle 0.000112688830409
sexiest 0.0
promise 3.41866633089e-05
hosting 3.77744960901e-05
hahahaha 6.35142163278e-05
longest 0.0
tuesday 0.000163628487313
locker 6.45760136401e-05
workout 0.000167980437302
ingredient 0.0
leader 0.000187814717348
pageant 0.0
character 0.000115582418337
idiotic 0.0
mirror 0.00070434277363
jackson 0.00018608302007
interview 0.000556512475908
battles 0.0
bleach 0.0
insight 0.000204819328014
obviously 0.0
replay 0.0
battle 3.34468738638e-05
stomped 0.0
destroy 0.000100082889607
killer 0.0
personally 0.000166530225995
winning 3.07479995546e-05
gettin 0.0
japanese 5.27735349332e-05
writing 0.000133422913272
society 0.000198760969991
officers 6.10200134552e-05
brooklyn 0.0
sources 9.91139003432e-05
incredible 0.000404069795645
poster 9.13384986811e-05
celebrity 9.4205621096e-05
memorable 0.000357728587216
werent 0.0
chased 0.0
minute 0.000129839465384
confession 8.97799192123e-05
pregnant 0.0
cherry 0.0
twinning 0.0
phoenix 0.0
orange 4.31284741588e-05
policy 0.000337971174966
comedy 0.000539741844007
illuminati 0.0
reminder 0.000173294593179
evidence 0.000170988450633
iphone 4.59502834541e-05
kicked 4.72501900499e-05
intentions 0.0
freedom 0.000280668461558
patient 0.0
utterly 0.0
mississippi 0.0
download 8.13539193565e-05
assistant 0.0
invite 0.0
central 3.7987621607e-05
washington 0.000457137378538
stronger 0.0
promised 0.0
worried 8.32651129974e-05
throwing 9.45003800998e-05
security 0.000152809374339
cologne 0.0
headphones 0.0
sanctuary 7.94906684071e-05
fantasy 0.00010924709555
monkey 0.0
approve 0.000114027404878
spinach 0.0
turning 3.60241885661e-05
helping 0.000190061110832
tickets 6.97000420201e-05
collector 0.0
physically 0.0
slavery 0.0
december 7.99612071461e-05
basically 8.39985622328e-05
return 0.000127396063946
yassss 0.0
goddess 0.0
locked 0.0
feelings 0.0
language 0.0
motion 0.0
obsessed 0.0
creation 0.0
followers 0.000260739594103
schools 4.09128889935e-05
gallery 0.0
movies 0.00107821185397
foster 5.96214312026e-05
children 0.000380122221664
nation 3.62246456766e-05
theaters 0.000490079131391
between 6.32548005303e-05
knowledge 8.1825777987e-05
begins 0.000103407245548
robinthicke 0.0
faithful 0.0
peeing 0.0
closet 0.0
bodies 0.0
italian 0.0
highlights 8.67711266517e-05
spanking 0.0
forbes 0.0
parade 0.0
tasted 0.0
consider 7.64046871693e-05
reunion 5.78568588115e-05
latest 0.000186998866736
dedicated 0.000294483050736
beyonce 0.0001234915095
perform 0.0
signed 3.17628046433e-05
tuxedo 0.0
princess 0.000116143161578
shelter 0.0
germany 0.000175102290973
explaining 0.0
married 4.26211113567e-05
millions 3.89667955538e-05
blessings 0.0
iconic 0.0
indonesia 8.49912721151e-05
braids 0.0
dollar 4.84573263046e-05
rigged 0.000220105540298
replied 0.0
lights 0.000124171962658
turned 6.31823118539e-05
excuses 0.0
jackie 0.0
charge 7.97323425709e-05
performing 4.62341001289e-05
ticket 7.72733477265e-05
steady 0.0
whispers 0.0
finest 0.0
confucius 0.0
diamonds 0.0
vancouver 0.0
addicts 0.0
collection 3.95255900515e-05
families 0.000257841973354
select 5.13749526807e-05
hitting 3.84186861209e-05
announced 3.50424059602e-05
decided 3.44690818493e-05
jewels 0.0
lottery 0.0
owners 0.0
respects 7.30033460741e-05
celebration 4.04429563381e-05
memorial 4.68103054591e-05
landed 0.000134935461002
pastor 0.0
ultimate 8.35085549766e-05
incase 0.0
rapper 8.08892506596e-05
episode 0.000653118023861
bounce 6.86364611217e-05
disney 5.80715807891e-05
muffin 0.0
kansas 0.0
sherman 0.0
retweet 7.30559689717e-05
midnight 3.88563320261e-05
patience 5.76437332945e-05
cereal 0.0
joining 6.78140002304e-05
released 0.000167691550727
release 9.47734677808e-05
models 0.0
classics 0.0
popped 7.02382884306e-05
mileycyrus 0.0
highlight 0.000136589276393
scholarship 0.0
within 3.67320084787e-05
hahahahaha 0.0
standing 0.000230330084102
higher 0.00011591002159
purple 0.000107367238614
skinny 0.0
justice 7.74925850872e-05
served 0.0
speaks 8.32651129974e-05
horses 0.0
houses 0.0
purchase 4.93972547726e-05
dropped 0.0
conversations 0.0
consideration 0.0
seattle 0.0
cookie 0.000115713717623
slurpee 0.0
strength 7.97323425709e-05
screens 0.0
monica 6.95867774318e-05
incredibly 0.000162707838713
streets 8.47415164742e-05
boyfriend 0.0
private 0.000110812485065
skittles 0.0
barbie 0.0
apologizes 0.0
designer 0.0
impress 0.0
cooking 4.92384441172e-05
exclusive 0.000239306643162
fashion 0.0
petite 0.0
talkin 0.0
peaches 0.0
bitches 0.0
nailed 5.80715807891e-05
weirdest 0.0
whomever 0.0
teaching 8.78135280952e-05
disgusting 0.000112794443381
chillin 0.0
philly 0.0
rights 0.000116568996078
dinosaur 0.0
exotic 0.0
dancers 0.0
cheers 0.0
presents 4.7102810548e-05
flawless 0.0
dating 0.0
victory 0.0
marley 0.0
productive 5.72221779033e-05
smurfs 0.0
halftime 6.80199803729e-05
insecure 0.0
horror 5.72221779033e-05
warning 0.000124897669496
discovery 5.87255692305e-05
convention 0.000110796662851
understanding 0.000124534050561
action 0.000432805218358
having 0.0
speaker 0.0
clever 4.92384441172e-05
theatre 0.000105189869334
honors 7.12441898852e-05
evolution 0.00011238927915
produce 5.40559005133e-05
spider 0.000200476266339
apologize 0.000159402326609
formation 0.0
letter 3.55290942213e-05
therapy 6.03121935426e-05
untrue 7.56629576572e-05
written 0.000210834508824
communication 6.27429074635e-05
disease 0.000169191665071
marching 0.000123983619817
suggest 8.91437617854e-05
georgetakei 0.0
hairstyle 0.0
humans 0.000193214499456
journal 5.96214312026e-05
foundation 0.000205157929252
access 7.08621865424e-05
venture 0.000140476576861
syndrome 0.000131357318392
writes 9.39123698174e-05
colorado 0.0
medicine 0.0
tremendous 0.000163299240891
nytimes 0.00200766903967
kindness 6.10200134552e-05
cannot 6.42184334277e-05
reveals 8.6001578185e-05
invented 5.38691555533e-05
sapphire 0.0
candidate 0.00064133190788
sexual 0.000101068538525
madison 0.0
illustration 0.0
newark 0.0
globally 7.44927849795e-05
incorrect 0.0
headline 0.0
reflect 5.31341088697e-05
streaming 0.000188411242192
leaders 0.000125997843349
supreme 0.000248587701137
protest 0.000390137791338
policies 0.000156723114591
silenced 0.0
defend 0.000188411242192
communicating 0.0
climate 0.000243836119586
wrapped 0.0
studio 8.01909890167e-05
conspiracy 0.000170420196678
interviews 0.000312621491262
differentiation 0.0
confusing 5.80715807891e-05
february 4.23707582371e-05
hamilton 0.000171041107317
loneliest 0.0
amazon 8.72899582466e-05
scattered 0.0
francis 0.0
headlines 0.000106268217739
january 3.98661712854e-05
diversity 5.31341088697e-05
universal 0.000152602769636
hurricane 0.0
identifying 9.25120093421e-05
countries 0.000166045400748
tickled 0.0
becker 0.0
connected 5.61946395752e-05
suggestion 5.55953442286e-05
filled 0.0
education 7.74925850872e-05
mentioned 0.0
defining 7.37383927578e-05
exists 0.000106998552456
unexpected 5.55953442286e-05
plants 6.62463064576e-05
orders 0.000155154759573
olympics 0.0
ability 4.18765175455e-05
director 0.00107773449745
content 4.49784870006e-05
cycling 0.0
previously 0.0
correction 0.0
pearls 0.0
ambassador 0.0
preparing 4.81507431684e-05
depend 0.0
downloads 0.0
lovers 0.0
weekly 0.0
hudson 0.0
bridge 0.0
becoming 7.38749900432e-05
magazine 0.000119941810719
appropriate 0.0
shakespeare 0.0
travesty 0.0
discoveries 8.44452508445e-05
fellow 0.000146111937943
reviewed 0.0
copies 0.0
driven 0.0
aussies 0.0
result 8.30227003742e-05
announcing 0.0
visual 0.0
restrictions 0.0
culture 3.97521939982e-05
edition 3.85274727789e-05
prince 4.17542774883e-05
shocks 0.0
symmetry 0.0
clicks 0.0
disagree 8.91437617854e-05
experiments 8.08892506596e-05
mistakes 0.0
trolls 6.56786591959e-05
blossoms 0.0
offered 4.73983312064e-05
inspiring 0.000427419652287
counter 0.0
approach 4.2873670259e-05
embarrassing 0.0
creators 0.0
edited 0.0
berniesanders 0.000333533814129
overnight 0.0
spotlight 5.89469236122e-05
probable 9.47467964173e-05
repeating 0.0
concerns 0.000157784804001
massive 0.000146111937943
promising 6.29977113632e-05
promises 0.0
colored 0.0
production 0.000459502834541
header 0.0
itunes 4.75472419308e-05
secretary 0.000200819120012
highway 0.0
dangerous 0.000154546695453
letters 0.0
typically 7.15874903953e-05
saving 0.000125262832465
pioneer 0.0
visuals 0.0
universe 0.000138702300387
ordering 0.0
victims 8.35085549766e-05
privacy 0.0
disclosure 0.0
proceeds 0.000172931199884
musical 0.000234780924543
collide 0.0
melbourne 0.0
correctly 0.000115287466589
campus 0.0
debate 0.000296326346652
conflict 5.98498407775e-05
meanwhile 0.000101068538525
petition 0.00010378291529
contribution 5.93948272559e-05
stated 6.95867774318e-05
humanity 0.000343563559193
illness 6.27429074635e-05
flawed 0.0
breathe 0.0
winners 0.0
spanish 0.0
comedic 0.0
awards 0.000150251773878
presidential 0.000479986725201
candidates 4.86118563283e-05
glasgow 0.0
smells 0.0
treasure 6.174575475e-05
greater 0.0
themed 0.0
distribution 7.48775592128e-05
absurd 0.0
squirrel 0.0
sisters 0.0
stress 0.0
leading 0.0
resolution 0.0
achieved 0.000118789654512
interacting 0.0
boiling 0.0
examples 6.12598914239e-05
diverse 0.000133068803694
suicide 0.0
parallel 0.0
minneapolis 0.000167818872358
impairs 0.0
pumping 0.0
slides 0.0
choreography 0.000100758487864
element 7.37383927578e-05
serves 6.59610777363e-05
jumping 0.0
rising 0.000139131207759
believed 0.000105547069866
features 4.59502834541e-05
environment 0.000105906509915
revealed 4.69561849087e-05
classical 8.33834535322e-05
confirmed 0.000125629552637
origins 8.44452508445e-05
combination 0.00012969544841
consumption 0.0
worldwide 0.0
deaths 0.0
responsible 0.000234780924543
overwhelmed 0.0
household 0.00012915202728
munich 8.08892506596e-05
alternate 0.0
blockers 0.0
restaurant 0.0
canada 0.000153241243022
versions 0.0
technology 9.63014863368e-05
identify 0.0
combined 5.34992762281e-05
santiago 0.0
branches 0.0
october 0.000241265086696
netherlands 0.0
belgium 0.0
european 4.95569501716e-05
imperial 0.0
perspective 4.24956614848e-05
cities 4.31284741588e-05
guinea 0.0
americas 0.0
posters 6.48477242051e-05
elastic 0.0
flames 0.0
presumably 0.0
exquisite 9.11134270896e-05
spreading 0.0
happiness 0.0
ashamed 0.000124980697122
naturally 6.35142163278e-05
malbec 0.0
wasting 0.0
hidden 0.0
coffin 0.0
freudian 0.0
genius 0.000687642184524
cultured 0.0
malaysia 0.0
traveling 0.000216975480157
prepared 0.000174059911067
county 5.31341088697e-05
quinoa 0.0
district 0.0
chosen 0.0
toilet 0.0
yorkers 0.0
ignores 0.0
messages 0.0
creativity 6.15017937032e-05
conventional 0.0
berlin 0.000118340001227
montreal 6.89497456605e-05
wonders 6.56786591959e-05
upcoming 0.000122030879035
lonely 6.65344018472e-05
australian 0.0
positions 0.0
singapore 7.41131072437e-05
scratch 0.0
deficiency 0.0
elevated 0.0
triggers 0.0
delicate 0.0
barrier 0.0
reflection 6.12598914239e-05
sydney 0.0
separates 0.0
centuries 0.0
israel 0.0
overwhelming 0.0
assault 5.50083220084e-05
protection 0.0
picker 0.0
additional 0.0
machine 0.0
samples 0.0
contrary 0.0
immediate 0.0
michelle 0.000166194994277
inspire 4.89234382002e-05
lyrics 0.0
missyelliott 0.0
constant 0.000167381161358
tuning 6.35142163278e-05
pandora 0.0
preshow 0.0
buenos 0.0
poland 7.48775592128e-05
philippines 0.0
nicely 0.0
september 0.000161306668528
manchester 0.0
checks 0.0
screenshot 8.08892506596e-05
universalorl 0.0
remarkable 0.000346898651201
rihanna 0.0
disgusted 0.0
flattered 0.0
fiction 5.76437332945e-05
angela 0.0
bitmoji 0.0
process 0.000109889444898
genuine 0.0
performances 0.000112794443381
comedians 8.04154340872e-05
flotus 0.0
strangers 0.0
hungover 0.0
confidence 8.99569740012e-05
studios 6.15017937032e-05
stjude 0.0
memphis 0.0
mikeypiff 0.0
chancetherapper 0.0
scream 0.0
jennifer 0.0
disappoint 0.0
newcastle 8.33834535322e-05
castle 0.0
literally 0.000106587282664
chrisrock 0.0
gentlemen 0.0
mtvnews 0.0
hillaryclinton 0.000629443956937
iamrashidajones 0.0
champagne 0.0
raleigh 0.0
ijessewilliams 0.0
acknowledge 0.000133650844226
buzzfeed 0.000114444355807
puppet 0.0
rehearsal 6.43068543857e-05
billboard 0.0
austria 0.0
sweden 0.0
republic 6.05461968827e-05
grilled 0.0
waltdisneyworld 0.0
katyperry 0.00015631432106
ronanfarrow 0.0
measly 0.0
bragging 0.0
treats 6.12598914239e-05
literal 0.0
cooper 6.10200134552e-05
counts 4.76969302604e-05
theellenshow 0.000367559348543
basking 0.0
cookies 5.98498407775e-05
festival 0.0
amsterdam 0.0
soundcheck 0.0
downloaded 0.0
encouraged 0.0
alright 0.0
jtimberlake 0.0
backstage 5.17182531909e-05
collab 7.77260960159e-05
joined 0.000106000278678
issarae 0.0
playlist 0.0
madness 4.58094219914e-05
romantic 6.86364611217e-05
selfies 0.0
exclusively 0.0
disneyland 8.33834535322e-05
refused 6.10200134552e-05
characters 0.000229047109957
amazingly 0.0
auction 0.000172296542022
express 8.88752343625e-05
gratitude 6.10200134552e-05
sesamestreet 0.0
thegrammys 0.0
throughout 0.0
awkward 4.78474043591e-05
shining 5.80715807891e-05
thrown 5.46235477751e-05
stylist 0.0
fighter 0.0
accepting 5.25949346671e-05
playin 0.0
applemusic 0.0
filmed 5.52026634306e-05
makeawish 0.0
bieber 8.08892506596e-05
remixes 0.0
toronto 0.0
capitolrecords 0.0
shazam 0.0
anthem 0.0
cosmopolitan 0.0
khloekardashian 0.0
cookin 0.0
songwriters 0.0
reveal 0.000125629552637
stands 0.0
spotify 0.0
phvegas 0.0
rocked 0.0
glasses 5.27735349332e-05
iambeckyg 0.0
relive 0.0
acoustic 0.0
announce 6.67114566361e-05
although 4.68103054591e-05
isaacfromct 0.0
shampoo 0.0
interactive 0.0
todayshow 0.000131357318392
haters 0.0
appreciation 6.22399954416e-05
floating 6.71194272544e-05
shondarhimes 0.0
showtime 6.89497456605e-05
premiere 0.0012638782474
broadway 0.000192920563157
makeup 0.0
starring 0.000280973197876
newest 0.0
designed 4.43039794102e-05
arianagrande 0.0
aladdin 0.0
swaggy 0.0
owning 0.0
producer 0.000208262860083
legendary 4.59502834541e-05
jasmine 0.0
costumes 0.0
square 3.88563320261e-05
emojis 0.0
jessica 0.0
magical 5.38691555533e-05
thedoctorluke 0.0
thirsty 0.0
therealjuicyj 0.0
symbols 0.0
privilege 0.000106268217739
spiral 0.0
retrograde 0.0
footage 0.00037564947927
theirs 0.0
universes 0.0
remembering 0.000140868554726
floated 0.0
construction 6.00800849871e-05
consciousness 0.0
delights 0.0
explodes 0.0
submissions 0.0
pleased 9.47966624128e-05
shredding 0.0
filters 0.0
weasel 0.0
reflective 9.55321948616e-05
firework 0.0
islands 0.0
interstellar 0.0
bubble 5.42438700392e-05
customs 0.0
festive 0.0
window 4.21225727042e-05
senator 0.000237579309024
slightly 0.0
therealbuzz 0.0
printing 0.0
snowflake 0.0
applications 0.0
elephant 0.0
fifteen 0.0
editions 0.0
newspaper 0.000107367238614
rainbow 0.0
unlimited 0.0
sirius 0.0
matthew 5.48152892925e-05
affected 4.43039794102e-05
capturing 0.0
canyon 0.0
rivers 0.0
spoken 4.79986725201e-05
accidentally 5.50083220084e-05
bizarre 0.0
dolphin 0.0
successfully 6.29977113632e-05
liquid 0.0
graffiti 0.0
swallowing 0.0
messenger 0.0
heroes 4.37755727432e-05
disturbing 6.07821261979e-05
graduates 8.04154340872e-05
rewrite 8.6115543662e-05
describe 0.0
hollywood 0.000760435143674
equality 0.0
announcement 3.6834567622e-05
breakout 8.55478964003e-05
dreaming 0.0
animation 7.60638767797e-05
calendar 5.59934791007e-05
circling 0.0
garden 4.2873670259e-05
enhanced 0.0
journalists 5.13749526807e-05
stirring 0.0
nominations 0.000117451138461
yelling 6.51220349106e-05
teachers 0.000154124858042
chapter 9.56948087182e-05
napoleon 0.0
aliens 0.0
subjects 0.0
revolution 0.000107367238614
mountains 0.0
wonderland 0.0
storage 0.0
crystals 0.0
circuit 0.0
invitation 0.000120624387085
kettle 0.0
adjective 0.0
woodpecker 0.0
operate 0.0
exhibition 0.0
learnt 0.0
nomination 0.000208964152788
madonna 0.0
questioning 0.0
unplug 0.0
initiatives 0.0
switzerland 0.0
represents 5.89469236122e-05
throat 0.0
touchdown 0.0
desire 0.00023848572481
forced 0.0
swedish 0.0
hundred 0.0
prompts 0.0
rainbows 0.0
creates 5.66012456831e-05
oxford 0.0
balloons 0.0
liverpool 0.0
recreate 0.0
glorious 5.53983314257e-05
newton 0.0
creature 8.49912721151e-05
finalist 0.0
scouts 8.08892506596e-05
treading 0.0
tragedy 0.000141308431644
nottingham 0.0
debacle 0.0
legends 0.0
noises 0.0
addiction 6.35142163278e-05
survived 5.7432180674e-05
idioms 0.0
greeted 0.000261857149019
basics 0.0
masses 0.0
confirm 0.0
cadence 0.0
spaghetti 0.0
prepare 0.0
calendars 0.0
narrative 0.0
application 0.0
octopus 0.0
drumming 0.000117039892287
bloody 0.0
confetti 0.0
translate 0.0
birmingham 0.0
singles 0.0
completes 0.0
laptop 0.0
obvious 0.0
darling 0.0
deserving 6.86364611217e-05
miller 0.0
ordered 0.0
feelin 0.0
alicia 0.0
picasso 0.0
recipe 0.0
alphabetical 0.0
butterfly 0.0
timothy 0.0
mancini 0.0
untold 0.0
directed 0.000588966101473
hacked 5.59934791007e-05
admits 0.0
clocks 0.0
nugget 0.0
cnnopinion 0.0
grabbed 0.0
russia 0.000312003166249
surprises 5.48152892925e-05
waterfalls 0.0
olympic 5.31341088697e-05
magnificent 0.0
casual 0.0
assume 9.4205621096e-05
relief 4.76969302604e-05
subscribe 5.63972216903e-05
landslide 0.0
telegraph 0.0
standby 0.0
admitting 7.77260960159e-05
complacency 0.0
voices 0.000139131207759
sounding 0.000128613708771
douglas 6.40401989746e-05
democracy 0.000402952409809
locals 0.0
gossip 0.0
nickname 0.0
subtle 0.0
embarrassed 6.174575475e-05
ireland 0.000102071429988
mornings 0.0
democratic 0.000409541377474
impressions 8.33834535322e-05
outgoing 0.0
treasury 0.0
refugees 0.000342082214635
unveiling 0.0
listing 0.0
deliver 4.55297587978e-05
negotiating 0.0
roller 0.0
prosperous 0.0
desperate 5.46235477751e-05
acknowledgement 0.0
executive 0.000143542213077
republicans 0.000643565021745
weapons 0.0
dropping 0.0
meaningful 0.0
nightmare 0.0
goodies 0.0
scandalous 0.0
rhetoric 0.0
divisive 0.0
vision 8.49913229695e-05
confirmation 0.0
throne 0.0
records 0.000174059911067
quoting 6.86364611217e-05
impatient 0.0
refugee 0.000342082214635
texted 0.0
exposed 0.0
stoked 0.0
priority 0.0
freedoms 0.0
notorious 0.0
empowering 7.64704828876e-05
unconstitutional 0.000251728308537
turkish 7.77260960159e-05
concerned 0.000230459202659
realdonaldtrump 0.00130107756489
goodwill 0.0
imagined 6.43068543857e-05
belfast 0.0
sleeve 0.0
basement 0.0
preposterous 0.0
griffith 0.000415114693534
timeless 0.0
truman 0.0
intended 0.0
inappropriate 7.19349522251e-05
industries 0.0
responsibility 4.72501900499e-05
documentaries 0.000194341310166
vulnerable 0.0
respectful 7.68829396436e-05
markets 0.0
claire 7.30033460741e-05
nuggets 0.0
boards 6.77166415636e-05
sequins 0.0
capitol 0.0
technical 0.0
applying 0.0
guitar 6.12598914239e-05
donating 0.0
continually 9.04389194992e-05
norway 0.0
applause 0.0
ballot 0.000179549522333
finely 0.0
shakes 7.64704828876e-05
varied 0.0
proverb 0.0
vibrant 0.0
flower 0.0
survives 0.0
fierce 0.000270866566254
shopped 0.0
sincerely 0.0
apology 0.000108111801027
sweaty 0.0
conspiracies 0.0
climbing 0.0
relaxed 0.0
encourage 9.75344478344e-05
funnyordie 0.000375929377792
essentials 0.0
jimmykimmellive 0.0
rejectedjokes 0.0
protesting 0.0
releasing 0.0
cleaner 0.0
preferred 0.0
incarceration 0.0
jkcorden 0.0
koppel 0.0
bikini 0.0
transparency 0.000941143611952
kamalaharris 0.0
nutshell 0.0
walled 0.0
floored 0.0
plotting 9.04389194992e-05
gandhi 0.0
vilify 0.0
meditate 0.0
violent 0.0
preschool 0.0
rhythm 0.0
matching 0.00012969544841
senwarren 0.0
venezuela 0.0
candle 0.0
donates 0.0
peacefully 9.47467964173e-05
chelseahandler 0.0
experiencing 7.64704828876e-05
sarabareilles 0.0
haunting 0.0
constitution 0.000263844310945
explode 0.0
deeper 0.00012204002691
empathy 7.77260960159e-05
mrgaryhuang 0.0
scored 0.0
charitable 0.000171095792801
perfume 0.0
giraffe 0.0
noticing 0.0
noodle 0.0
wrongly 0.0
marshmallow 0.0
fraudulent 0.0
everytime 0.0
helluva 0.0
therapists 0.0
tangible 0.0
sarahksilverman 0.00115057407824
johnfugelsang 0.000109649156417
exceptional 6.86364611217e-05
miracle 0.0
avocado 8.55478964003e-05
snacks 0.0
spelled 0.0
parental 0.0
superbowl 7.90392378178e-05
shoulders 7.44927849795e-05
valentine 4.76969302604e-05
glitter 0.0
stocking 0.0
poehler 0.0
thumbs 6.00800849871e-05
tinatbh 0.0
educational 6.89497456605e-05
voicemail 0.0
thetweetofgod 0.0
esteem 0.0
teaches 0.0
goodbye 4.51153142293e-05
reminding 6.32548005303e-05
supplies 0.0
ryanseacrest 0.0
okmagazine 0.0
shoots 0.0
bowing 0.000122605422977
jennyslate 0.0
craigyferg 0.0
masterpiece 0.000128080397949
sneaky 0.0
nashville 0.0
chronicles 9.47467964173e-05
potato 0.0
freakin 0.0
perezhilton 0.0
unethical 0.0
paparazzi 0.0
mantra 0.0
consuming 0.0
unauthorized 0.0
vanityfair 0.000155452192032
stalking 0.0
shoulda 0.0
yeppers 0.0
sacred 0.0
existed 6.62463064576e-05
earned 0.000101400890181
woulda 0.0
ellenpage 0.0
choker 0.0
contribute 0.0
mustache 0.0
washes 0.0
creeps 9.55321948616e-05
champion 0.0
auntie 0.0
magazines 0.0
waited 6.00800849871e-05
conscious 7.81571605298e-05
cracker 0.0
denmark 0.0
potion 0.0
windex 0.0
scarfing 0.0
ladygaga 7.33685134325e-05
purposely 0.0
pretending 0.0
luckiest 0.0
mascara 0.0
tastes 0.0
gardening 0.0
leashes 0.0
hippie 0.0
womensmarch 0.0
reunited 0.0
clique 0.0
premiering 0.000133068803694
rollingstone 0.000141809904397
childrensla 0.0
dollywood 0.0
godmother 0.0
eltonofficial 0.0
vmagazine 0.0
donorschoose 0.0
yesssssss 0.0
bettemidler 0.0
rehearsing 0.0
trevorproject 0.0
unicef 8.49912721151e-05
ellemagazine 9.25120093421e-05
yasssss 0.0
acceptance 0.0
solidarity 0.000131357318392
pharrell 0.0
greece 7.09049521983e-05
papermagazine 0.0
johnmayer 0.0
lipstick 0.0
tumblr 7.77260960159e-05
coldplay 0.0
colorful 0.0
translifeline 0.0
newsstands 0.0
feminist 0.0
pitchfork 0.0
labels 7.26427721377e-05
jenner 0.0
arkansas 0.0
beanie 0.0
sparkly 0.000100758487864
moschino 0.0
britneyspears 0.0
itsjeremyscott 0.0
nickiminaj 0.0
appstore 0.0
poetry 0.0
puttin 0.0
rubbed 0.0
shrine 0.0
skyferreira 0.0
freaking 6.22399954416e-05
besties 0.0
chanel 0.0
bedazzled 0.0
rubber 0.0
kendricklamar 0.0
popstar 0.0
sosadtoday 0.0
copenhagen 0.0
lenadunham 0.000189493592835
wearin 0.0
stoned 0.0
facetime 0.0
barclays 0.0
meditation 0.0
harpersbazaarus 0.000112381246547
stared 0.0
ritual 0.0
iconapop 0.0
doubted 0.0
staples 0.0
anaheim 0.0
jingle 0.0
tacoma 0.0
rehearsals 0.0
treadmill 0.0
metamorphosis 0.0
dental 9.25120093421e-05
jodyhighroller 0.0
versace 0.0
werking 0.0
couture 0.0
eggplant 0.0
bangin 0.0
cardigans 0.0
obnoxious 0.0
bestie 0.0
teganandsara 0.0
barrel 8.04154340872e-05
dedicating 0.0
jefferson 7.77260960159e-05
pumpkin 0.0
derekblasberg 0.0
glamourmag 0.0
presale 0.0
mtvstyle 0.0
deluxe 0.0
mtvema 0.0
reggae 0.0
azealiabanks 0.0
nominating 9.18041894295e-05
sailor 0.0
mornin 0.0
itunesmusic 0.0
bananas 0.0
lordemusic 0.0
vietnam 7.22866774965e-05
milwaukee 0.0
neworleans 0.0
circus 7.44927849795e-05
strolling 0.000219298312834
rapids 0.0
collegegameday 0.0
aaaaand 0.0
godfather 0.0
bestow 0.0
allison 9.39823444481e-05
rockthevote 0.0
birbigs 0.0
lucille 0.000113851581653
louder 0.0
farmers 6.92664919771e-05
shaved 0.0
niagara 0.000120627725068
realmattlucas 0.0
ferguson 0.0
painful 5.63972216903e-05
exchange 0.0
nickkroll 0.0
edmonton 0.0
mickey 0.0
angelenos 0.0
pooping 0.0
located 0.0
onslaught 0.0
finalists 0.0
bumped 0.0
sherlock 0.0
stockholm 7.52675686302e-05
casually 0.0
jjwatt 0.0
itstonybennett 0.0
mariolopezextra 0.0
klgandhoda 0.0
entrance 0.0
calgary 0.0
bowling 0.0
winnipeg 0.0
cheeto 0.0
gloriasteinem 0.0
feather 0.0
nathan 0.0
smelling 0.0
narnia 0.0
llamas 0.0
actuallynph 0.000102736185772
mourning 0.0
obsession 0.0
chilled 0.0
medically 0.0
hyperloop 0.0
aussie 0.0
flaring 0.0
eyeballs 0.0
stuffing 0.0
pitched 0.0
condiments 0.0
relatable 0.0
olivia 0.0
painted 6.45760136401e-05
mykonos 0.0
eyebrow 0.0
capitalcities 0.0
jackpot 0.0
hipster 0.0
sweating 0.0
restaurants 0.0
superfan 0.0
restraint 0.000194341310166
craziest 7.41131072437e-05
catheter 0.0
delivers 0.0
kanyewest 0.0
paints 0.0
dissect 0.000115401432066
billboards 0.0
milano 0.0
bjnovak 0.0
snapping 8.55478964003e-05
croissant 0.0
repjohnlewis 0.0
blklivesmatter 0.0
mydaughtersarmy 0.0
huddled 0.0
yearning 0.0
thereaibanksy 0.00045540632661
affordable 5.96214312026e-05
foodie 0.0
colombia 0.0
peeled 0.0
shootings 0.000152127753559
playground 7.68829396436e-05
breaky 0.0
photoshoot 0.0
smokin 0.0
accents 0.0
sweats 0.0
postmates 0.0
armband 0.0
unconscious 0.0
maddow 8.72857163397e-05
aquarium 0.0
holler 0.0
photoshop 0.0
robbie 0.0
espnmag 0.0
laundry 0.0
examining 0.0
zealand 6.35142163278e-05
stuntin 0.0
hehehe 0.0
nostalgia 0.0
buttons 0.0
slaying 0.0
monument 0.0
bringin 0.0
lining 0.000141139364589
muchas 0.0
gracias 7.48775592128e-05
madame 0.0
illustrated 0.0
boxers 0.0
grazie 0.0
winters 0.0
plastic 0.0
unbreakable 0.0
licking 0.0
cheeky 0.0
twerking 0.0
danish 0.0
drummer 0.0
florence 8.08892506596e-05
revoir 0.0
resume 6.95867774318e-05
dodger 0.0
brazilians 0.0
grimezsz 0.0
crocodile 9.55321948616e-05
hahahahahaha 0.0
parisians 0.0
taipei 0.0
taiwan 8.97799192123e-05
bangkok 0.0
uploaded 0.0
manila 0.0
hamburg 0.0
curating 0.0
aaaand 0.0
skating 0.0
brisbane 9.25120093421e-05
googleplay 0.0
raincoat 0.0
glastofest 0.0
vienna 8.49912721151e-05
burning 0.0
jamming 0.0
reaches 0.0
subtitles 0.0
wristband 0.0
barcelona 0.0
credits 0.0
dreamers 0.0
bogota 0.0
bursting 0.0
brunomars 0.0
beyoncé 0.0
subscribers 0.0
unlock 0.0
onedirection 0.0
amazonmusic 0.0
snippets 0.0
preorder 0.0
rehearse 0.0
bahnhof 0.0
delorean 0.0
fragrance 0.0
curate 0.0
samsmithworld 0.0
guitars 0.0
storyline 0.0
registering 0.0
beatsbydre 0.0
panama 0.0
celestial 0.0
orchestra 8.66946593176e-05
finland 0.0
climbed 0.0
topping 0.0
méxico 0.0
vasconcelos 0.0
leicester 0.0
itunesfestival 0.0
pondering 0.0
millennials 0.0
struck 5.80715807891e-05
watermelon 0.0
benefited 0.0
sophisticated 0.0
couples 0.0
villain 0.0
mindful 0.0
catholic 0.0
airline 0.0
secretly 0.0
playlists 0.0
veggie 9.47467964173e-05
receipts 0.0
foremost 0.0
bagpipe 0.0
drifting 0.0
trader 0.0
influenced 7.37383927578e-05
moscow 7.05696822947e-05
cobain 0.0
reaper 0.0
commune 0.0
handshake 0.0
despair 0.0
silicon 0.0
investing 7.15874903953e-05
construct 9.3237750637e-05
garland 0.0
coachella 8.6115543662e-05
offline 0.0
realisation 0.0
payback 0.0
educate 0.0
alliances 0.0
etched 0.0
momentarily 0.0
pronoun 0.0
lenses 0.0
validated 0.0
authenticity 0.0
choreographed 0.0
pokemon 0.0
disneyworld 0.0
patriotic 0.000299510236851
embody 0.0
snickers 0.0
impactful 0.0
refocus 0.0
eminem 8.97799192123e-05
mahatma 0.0
ecstatic 0.0
snfonnbc 0.0
avenue 0.0
picchu 0.0
doubters 0.000120627725068
beverly 0.000165733897135
intensity 0.0
outtake 0.0
temple 7.48775592128e-05
purchased 0.0
fountain 0.0
punched 0.0
goldfish 0.0
comparable 0.0
buyers 0.0
barbara 6.77166415636e-05
corybooker 0.000186475501274
listens 0.0
timeout 0.0
inducing 0.0
signage 0.0
penthouse 0.0
ahahaha 0.0
phenom 0.0
brilliantly 7.37383927578e-05
siphoning 0.0
herstory 0.0
prostitute 0.0
survivors 7.05696822947e-05
courageous 0.0
cruelty 0.0
margot 0.0
xenophobic 0.0
mcginley 0.0
yorkshire 0.0
chants 9.80263977342e-05
alancarr 0.0
chained 0.0
skillz 0.0
debunked 0.0
floods 8.33834535322e-05
fleetwood 0.0
cheesecake 0.0
adidas 0.0
uneven 0.0
raging 0.0
connections 0.0
headlining 0.0
devhynes 0.0
charli_xcx 0.0
shawnmendes 0.0
tavitulle 0.0
bahjournalist 0.0
tyleroakley 0.0
marquee 0.0
grease 0.0
screenshots 0.0
ddlovato 0.0
chattyman 0.0
grimmers 0.0
vevo_uk 0.0
bonniemckee 0.0
electrifying 0.0
idolator 0.0
onairromeo 0.0
godven 0.0
lookie 0.0
preordered 0.0
elvisduran 0.0
shanghai 0.0
tripped 0.0
konnichiwa 0.0
etnad_olegnad 0.0
unannounced 0.0
swedes 0.0
cinderella 9.9818559396e-05
slipper 0.0
jessesaintjohn 0.0
adorbs 0.0
onesies 0.0
jahnsuxx 0.0
walgreens 0.0
aphrodite 0.0
danceonfox 0.0
difficulties 0.0
mermaids 0.0
antique 0.0
girlshbo 0.0
yaaaaasss 0.0
lifesaving 0.0
queens 0.0
yaaaas 0.0
rollin 0.0
bestest 0.0
cleanse 0.00010486050932
iamtovelo 0.0
glamour 0.0
emelisande 0.0
lashes 0.0
austrian 0.0
magritte 0.0
misogynoir 0.0
litter 0.0
spiritual 0.0
preaching 0.0
adelaide 0.0
sheffield 0.0
impending 0.0
starve 0.0
excess 0.0
conciousness 0.0
vitamins 0.000100758487864
generator 0.0
purposefully 0.0
profiles 0.0
petals 0.0
persist 0.0
alexis 0.0
covergirl 0.0
sneezed 0.0
cushion 0.0
demconvention 0.000122605422977
directv 0.0
flo_tweet 0.0
billclinton 0.000436428581698
grounded 8.33834535322e-05
sunrise 0.0
fightin 0.0
sagekotsenburg 0.0
pwease 0.0
sadder 0.0
waterfall 0.0
sighting 8.97799192123e-05
firsts 0.0
muller 0.0
burritos 0.0
bungee 0.0
potting 0.0
dipping 0.0
closets 0.0
scratched 0.0
decorating 0.000296725425067
summers 0.0
havana 0.0
fresher 0.0
mowing 0.0
invading 0.0
addict 0.0
aesthetics 0.0
footwear 0.0
protector 0.0
hammock 0.0
repurpose 0.0
mishap 0.0
hamster 0.0
cellar 0.0
groove 0.0
mentored 0.0
exaggerate 0.0
scraping 0.0
apropos 0.0
trolled 0.0
jonlovett 0.0
rheabutcher 0.0
sickening 0.0
flustered 0.0
compiled 0.0
shirley 8.28669485677e-05
subtweet 0.0
pantsuit 0.0
patting 0.0
atrocious 0.0
amoeba 0.0
platter 0.0
aficionado 0.0
bearer 0.0
manifest 0.0
transformation 0.0
thighs 0.0
tapper 0.0
foaming 0.0
sophie 0.0
sabbath 0.0
vibrations 0.0
nutella 0.0
wilder 0.000263667652732
distractions 0.000100758487864
stripping 0.0
downloading 0.0
judith 0.0
crossroads 0.0
parsons 0.0
stella 0.0
narcissism 0.0
fawcett 0.0
trainers 0.0
surrounding 7.15874903953e-05
longtime 0.0
frosting 0.0
laurent 0.0
savory 0.0
acupuncture 0.0
cancelling 0.0
nutcracker 0.0
ballet 0.0
tempura 0.0
burner 0.0
voguemagazine 0.0
lagged 0.0
cuttlefish 0.0
passwords 0.0
funfetti 0.0
anagasteyer 0.0
gabbana 0.0
budapest 0.0
montage 0.0
crowns 0.0
scheduling 0.0
possessed 0.0
syncing 0.0
creatively 0.0
hieroglyphics 0.0
halftimes 0.0
floppy 0.0
nessie 0.0
feathers 0.0
kaceymusgraves 0.0
roaring 0.0
rightful 0.0
balconies 0.0
prodigy 0.0
raquin 0.0
gianni 0.0
monsieuradi 0.0
drowned 0.0
tropicana 0.0
diesel 0.0
shabbat 0.0
voiceless 0.0
passover 9.25120093421e-05
elevating 0.0
traumatic 0.0
dreamer 0.0
iwillharness 0.0
classrooms 0.0
eligibility 0.0
counselors 0.0
wainwright 0.0
moveon 0.0
runaway 0.0
baghdad 0.0
zaralarsson 0.0
snooze 0.0
iggyazalea 0.0
harviikills 0.0
bolognese 0.0
babysitting 0.0
mohegan 0.0
hooters 0.0
crusts 0.0
tracksuit 0.0
cupcake 0.0
xfactor 0.0
vitamin 0.0
lichtenstein 0.0
concourse 0.0
hitchcock 0.0
teller 0.0
pastels 0.0
remnants 0.0
banger 0.0
lyrically 0.0
boogers 0.0
ritaora 0.0
bumpin 0.0
dabbed 0.0
sleepin 0.0
tinashe 0.0
octaviaspencer 0.000115401432066
linder 0.0
musicallyapp 0.0
scavenger 0.0
sanging 0.0
corinthians 0.0
hollywoodbowl 0.0
kraken 0.0
discontinue 0.0
cypress 0.0
schooling 0.000101730284318
maritime 0.0
narration 0.0
zeitgeist 0.0
sampler 0.0
pseudo 0.0
bangladesh 0.0
hungary 0.0
mumble 0.000122605422977
sisterhood 0.0
soulful 9.6339720092e-05
lennykravitz 0.0
londontown 0.0
andradaymusic 0.0
lipsticks 0.0
realization 0.0
unconditionally 0.0
wildfire 0.0
goldie 0.0
minnie 0.0
solitude 0.0
waddle 0.0
westworldhbo 0.000152119720955
statuesque 0.0
uncasville 0.0
demented 0.000118777712227
skyway 0.0
twentyonepilots 0.0
rejoicing 0.0
clenching 0.0
adelphia 0.0
entirety 0.0
redhourben 0.000428619814177
lakewood 0.0
drjillstein 0.0
entail 0.0
whammy 0.0
smokers 0.0
gobble 0.0
topshop 0.000127024190749
cleowade 0.0
mkives 0.0
sweetbabayjamie 0.0
marchesafashion 0.0
hamsters 0.0
gurrrl 0.0
sofifii 0.0
sumthin 0.0
nicomiz 0.0
maisonvalentino 0.0
coziest 0.0
accessorize 0.0
thejgold 0.0
peruvian 0.0
amazeballs 0.0
sendin 0.0
fantabulous 0.0
timelines 0.0
regina 0.0
slovakia 0.0
graves 0.0
embracing 0.0
larsson 0.000132250483751
cullen 0.0
psychiatric 0.0
officialadele 0.0
butters 0.0
verrrry 0.0
buttered 0.0
winged 0.0
pedialyte 0.0
topanga 0.0
armpit 0.0
kittens 0.0
dueling 0.0
eagerly 0.0
surrealist 0.0
dethroned 0.0
manolos 0.0
señorita 0.0
monterrey 0.0
parque 0.0
retiree 0.0
batches 0.0
reservations 0.0
sickos 0.0
aplusk 0.0
kirkherbstreit 0.0
fanbases 0.0
indexing 0.0
chuckles 0.0
incorporated 0.0
washboard 0.0
earbuds 0.0
pantone 0.0
knotts 0.0
dismaland 0.0
pollock 0.0
iamkidpresident 0.0
mariah 0.0
teevee 0.0
santorini 0.0
appalachian 0.0
sunburnt 0.0
caliente 0.0
juicery 0.0
karlihenriquez 0.0
trillest 0.0
tommorrow 0.0
crumpets 0.0
fishin 0.0
grillin 0.0
jambalaya 0.0
pepperoni 0.0
cashew 0.0
graceland 0.0
pussies 0.0
delicately 0.0
eraser 0.0
choreo 0.0
snatched 0.0
elliptical 0.0
mooore 0.0
unborn 0.0
georgina 0.0
stalkers 0.0
sallykohn 0.0
expectancy 0.0
phillipines 0.0
appstoregames 0.0
wilkinson 0.000122605422977
puddings 0.0
loveland 0.0
spaced 0.0
shanny 0.0
dripping 0.0
gerber 0.0
shakey 0.0
weaves 0.0
unbeatable 0.0
linguist 0.0
prosthetics 0.0
battleship 0.0
serotonin 0.0
machiavellian 0.0
girlies 0.0
guangzhou 0.0
debuting 9.55321948616e-05
dissecting 0.0
warped 0.0
luckyjess 0.0
ermahgerd 0.0
fabulousness 0.0
elliegoulding 0.0
activewear 0.0
yelyahwilliams 0.0
prismatic 0.0
evaluations 0.000129518393621
skywalk 0.0
sparklers 0.0
palettes 0.0
gemmaanningram 0.0
trueeee 0.0
invisalign 0.0
pounded 0.0
lolgop 0.0
procession 0.0
stanning 0.0
squeals 0.0
continual 0.0
luminary 0.0
cummin 0.0
shaves 0.0
epixhd 0.0
preacher 0.0
boogiecousins 0.0
changers 0.0
autismspeaks 0.0
massaged 0.0
psssssst 0.0
literati 0.0
utilization 0.0
endangerment 0.0
purposeful 0.0
unlabeled 0.0
undiagnosed 0.0
snotty 0.0
gallops 0.0
slovenia 0.0
sequin 0.0
akerlund 0.0
jumbotron 0.0
edibles 0.0
knowles 0.0
caeser 0.0
thehollywoodbowl 0.0
elvispresley 0.0
adoring 0.0
ageist 0.0
thérèse 0.0
confessed 0.0
blackvoices 0.0
patties 0.0
graphically 0.0
wildflowers 0.0
groundhogs 0.0
eataly 0.0
poodles 0.0
hillaryforia 0.0
roadshow 0.0
sweety 0.0
boppin 0.0
bettywho 0.0
johnnywujek 0.0
earring 0.0
itsbennyblanco 0.0
curitiba 0.0
purrfect 0.0
shellback 0.0
chokers 0.0
hairbrush 0.0
hakuna 0.0
matata 0.0
hazing 0.0
mathew 0.0
aegean 0.0
lullaby 0.0
musiciansoncall 0.0
headpiece 0.0
morsel 0.0
whistled 0.0
conquest 0.0
viceland 0.0
lambily 0.0
scalped 0.0
graced 0.0
emblazoned 0.0
hrclosangeles 0.0
kawaii 0.0
glittery 0.0
wonderlandmag 0.0
jumpsmokers 0.0
radiodotcom 0.0
missyfranklin 0.0
pleaaaaase 0.0
lilbthebasedgod 0.0
waaaay 0.0
flossy 0.0
aria_official 0.0
berliners 0.0
matriarchy 0.0
cornered 0.0
limping 0.0
peasant 0.0
feasibly 0.0
waaaaay 0.0
slayyy 0.0
fashionistas 0.0
sangin 0.0
worldstarfunny 0.0
pliers 0.0
babyanimalpics 0.0
mediation 0.0
quests 0.0
aaaaaaah 0.0
honked 0.0
rauschenberg 0.0
whitneymuseum 0.0
lonsdale 0.0
transcendental 0.0
roarin 0.0
facetune 0.0
fausto 0.0
herning 0.0
cazzette 0.0
annnnnnnnnd 0.0
shinier 0.0
giambattista 0.0
katys_teddybear 0.0
gnight 0.0
katheryn 0.0
psychoanalysis 0.0
bckgrnd 0.0
kingman 0.0
gracevanderwaal 0.0
fecking 0.0
ihrcountdown 0.0
stubbies 0.0
xfactor_italia 0.0
aaronpauley 0.0
purity_ring 0.0
scorpios 0.0
ayyyye 0.0
capitalizes 0.0
flamin 0.0
motherfucking 0.0
jingled 0.0
pharrellhat 0.0
ontarioglow 0.0
teached 0.0
umusic 0.0
auroramusic 0.0
dailymendeslife 0.0
soloing 0.0
universalse 0.0
dustinkloeppel 0.0
robynkonichiwa 0.0
charli 0.0
lonelydot 0.0
adamselman 0.0
sorrenti 0.0
offish 0.0
vinoodh 0.0
guitarists 0.0
cocking 0.0
cabbages 0.0
amelia_libman 0.0
flutter 0.0
lolita 0.0
kingladygaga 0.0
breakthecycledv 0.0
howbow 0.0
curveballs 0.0
tamagotchi 0.0
jarryd 0.0
alliseeisgold 0.0
thebroadmuseum 0.0
sarahsowitty 0.0
brillz 0.0
jackgarratt 0.0
markryden 0.0
duffscakemix 0.0
sanrio 0.0
theniceguyla 0.0
trills 0.0
susangkomen 0.0
faustopuglisi 0.0
gurlll 0.0
cheesecakes 0.0
scorpio 0.0
oblivia 0.0
skipmarley 0.0
correcto 0.0
jessirklein 0.0
unpatr 0.0
squish 0.0
greg_wells 0.0
onlyleah 0.0
gittin 0.0
popstars 0.0
krafts 0.0
bouche 0.0
problemo 0.0
wheezing 0.0
patmcgrathreal 0.0
cienega 0.0
thundering 0.0
nastialiukin 0.0
janell 0.0
katelyntarver 0.0
miamoretti 0.0
missoni 0.0
dannymoonsworld 0.0
mrchrismcmillan 0.0
madge_freak 0.0
woridstarcomedy 0.0
ikissedasoldier 0.0
kpezandchez 0.0
perrysoldier 0.0
emilynotchez 0.0
iickmekaty 0.0
basicallyadam 0.0
katysangelegg 0.0
nicolasjebran 0.0
xchadballx 0.0
scott_myrick 0.0
lockoir 0.0
shannonwoodward 0.0
calluses 0.0
chamomile 0.0
trollin 0.0
sleighing 0.0
chestercheetah 0.0
royksopp 0.0
scottsimonswvla 0.0
sirenscaiiing 0.0
slowdownkaty 0.0
chefantoniopark 0.0
garnished 0.0
endive 0.0
mdmolinari 0.0
prezzy 0.000166762665157
motioning 0.0
hernameisbanks 0.0
rockcampla 0.0
jenniefinch 0.0
getglucky 0.0
stendhal 0.0
ryanphillippe 0.0
hotncolds 0.0
kpcollections 0.0
katie_wignall 0.0
katysdrugx 0.0
evrenperry 0.0
katycatwendy 0.0
yungskeeter 0.0
sarahhudsonuvs 0.0
mothern 0.0
oliverheldens 0.0
marrymemargot 0.0
katyperrylately 0.0
kewlest 0.0
katyshellokitty 0.0
pqgerry 0.0
rasarioatelier 0.0
anakhouri 0.0
romaneperry 0.0
hot_chip 0.0
agador 0.0
freddietinkles 0.0
cynthialovely 0.0
augustgettyatelier 0.0
tbsnetworks 0.0
ronyalwin 0.0
justinandersoncolor 0.0
mmillerrider 0.0
jpgaultier 0.0
harharharhar 0.0
iikeanangel 0.0
vonnypoo 0.0
jcoopkp 0.0
itzmero 0.0
katysprismlight 0.0
hatérs 0.0
awkwardaya 0.0
katysredskittle 0.0
tiedye_princess 0.0
adelshahal 0.0
marinadiamandis 0.0
samadizayee 0.0
itsslatykaty 0.0
johnlordperry 0.0
nuggetperry 0.0
kthnkzbye 0.0
teamkpbrasil 0.0
twenagedream 0.0
ashleyegreer 0.0
perryllover 0.0
perry_slays 0.0
_andresgalvis 0.0
poplitics 0.0
likerotica 0.0
sweetxjaureguix 0.0
jessiambriz 0.0
perryncolds 0.0
pwideawake 0.0
brunastrait_ 0.0
anafalqueto 0.0
pessoalmente 0.0
mark_hodson_ 0.0
sumtxkid 0.0
arpoador 0.0
katysmychampion 0.0
amnattg 0.0
osullivanluke 0.0
stephiruth 0.0
katy_pizza_bae 0.0
kpcatt 0.0
pedroeugeniio 0.0
gugs_prismatic 0.0
zeeusmtz 0.0
legendarycold 0.0
robynxkatheryn 0.0
écouter 0.0
energyberlin 0.0
karysjones 0.0
lilzariya 0.0
puroland 0.0
pavlovitz 0.0
dreamhampton 0.0
prismsperry 0.0
perrysmic 0.0
focusonreid 0.0
tonyatalterian 0.0
makeup_man 0.0
wtfkates 0.0
sella_sandra 0.0
katycute_ 0.0
caitsperry 0.0
katyperryforum 0.0
radiantjareau 0.0
lillysgomez 0.0
katycatsweden 0.0
perryicecream 0.0
xamyrosex 0.0
wtvrlara 0.0
bijanstephen 0.0
ameliashowalter 0.0
screamkng 0.0
tvmcgee 0.0
liiife 0.0
itskatcombs 0.0
yaaaaaasssssssssss 0.0
katysmyhabibi 0.0
skottpeace 0.0
ferras 0.0
kweens 0.0
habibi 0.0
orlandobloom 0.0
huckchinn 0.0
katycatkenzie 0.0
matarazzo 0.0
fkatwigor 0.0
perryschild 0.0
hotxcolds 0.0
maddisonxperry 0.0
akaruikaty 0.0
chillinlaidback 0.0
erryone 0.0
chrisanokute 0.0
beyelite 0.0
kuntyewest 0.0
chiroprac 0.0
katyperryrises 0.0
godneybjs 0.0
liquoronurlips 0.0
katystumblrr 0.0
holiestkaty 0.0
hollykittykaty 0.0
katysprincess 0.0
katysdonut 0.0
carlythekatycat 0.0
katycatsophia 0.0
fridaaperry 0.0
iegendarylovers 0.0
katycatveronica 0.0
katyperryslave 0.0
hakimkharbouch 0.0
keonovak 0.0
plaaaaay 0.0
scatting 0.0
shotted 0.0
dizzycoco 0.0
fkinsnapss 0.0
junkygs 0.0
ミニチュア料理 0.0
エビフライとエビ天 0.0
adidasboosts 0.0
lilithia 0.0
cottoncandizzle 0.0
ultimatebeyhive 0.0
paramorewebnews 0.0
royale_lala 0.0
musicnews_feed 0.0
katyperryextra 0.0
greeniight 0.0
gagas_illusion 0.0
lesbiyonce 0.0
blurryhface 0.0
lordofgiraffex 0.0
ifuseekamy_ 0.0
legendarymalek 0.0
hausoframez 0.0
unstan 0.0
chioekardashian 0.0
theiife 0.0
handstomyseif 0.0
legendarylovers 0.0
gagas_fandom 0.0
thinagedream 0.0
conditionalbabe 0.0
dannysuschrist 0.0
prismdluxe 0.0
herwonkeye 0.0
camilasviews 0.0
gagalovesbey 0.0
shadykatyfacts 0.0
limalimoncia 0.0
heavymetaiovers 0.0
katyscrush 0.0
waikingonair 0.0
eduardo_katycat 0.0
katyswetdream 0.0
katherynsgod 0.0
katystddbr 0.0
katyboobies 0.0
royaityler 0.0
nothingfaiis 0.0
kathrynluck_ 0.0
prismaticiights 0.0
mendesperry 0.0
katycatghita 0.0
mark_katycat 0.0
iwasdivine 0.0
skywaterr 0.0
xjojospearsx 0.0
alwaysbeperry 0.0
skoglyrihanna 0.0
legendarydurk 0.0
halseysfirework 0.0
rainbowspatrick 0.0
katysfood 0.0
honeymoonprism 0.0
onepulsetony 0.0
butcha 0.0
okurrr 0.0
the_mpt 0.0
talaofficial 0.0
miniatures 0.0
ohmyjurassic 0.0
katysmoonlight 0.0
lilly_jnes 0.0
coco_ho 0.0
perryhumorr 0.0
yikesjonathan 0.0
rubyrankin 0.0
thealekovski 0.0
cydney_moore 0.0
truebluedeluxe 0.0
thedutchass 0.0
katyskettle 0.0
ferraseu 0.0
katyssunlight 0.0
typosqween 0.0
adoreeeperry 0.0
katyperryfrance 0.0
snowiner 0.0
_coolkatycat 0.0
nicothekatycat 0.0
adorbies 0.0
jackygerardchan 0.0
brewmystew 0.0
katyswildfire 0.0
rihftperry 0.0
theolagu 0.0
ritajoness 0.0
iitsjackie 0.0
mjjperry 0.0
jesuskylie 0.0
holyerotica 0.0
graceofkaty 0.0
redsvelvets 0.0
booyakasha 0.0
tariqterry 0.0
katycatalannah 0.0
taylxre 0.0
pacifyher 0.0
basedkatyperry 0.0
diddleurskittle 0.0
katysanalien 0.0
gagasspace 0.0
tayiorhq 0.0
givenchydress 0.0
augustryder 0.0
perrysmoschino 0.0
kittehn 0.0
katrieber 0.0
legendaryhunty 0.0
katyslegs 0.0
katyfroot 0.0
winesandlines 0.0
sam_incolour 0.0
wakingonair 0.0
drwssinup 0.0
huffdaddysays 0.0
fiwwwwine 0.0
matthewroper 0.0
emmabruhhh 0.0
gingerwesson 0.0
nicholas_sewell 0.0
perfectlyperry 0.0
bustabusta 0.0
mynameisziam 0.0
venuzszfly 0.0
katherynsus 0.0
sacredperry 0.0
thedollsftkaty 0.0
_cafajeff 0.0
debkatycat 0.0
katycats 0.0
eastonjames_ 0.0
oliviabooker_ 0.0
protecti 0.0
outrageousness 0.0
joanneprada 0.0
scuffed 0.0
catoure 0.0
blanged 0.0
tahmorrow 0.0
glukatyperrypop 0.0
jamesjoint 0.0
pressin 0.0
bourree 0.0
honeysuckle 0.0
meowings 0.0
fashun 0.0
happun 0.0
vikander 0.0
thekatyperrypopgame 0.0
karolfabianaros 0.0
nico_thekatycat 0.0
miss_lilyjames 0.0
stylinfunk 0.0
hudsontheband 0.0
jere_my 0.0
crabitat 0.0
tiersz 0.0
unrehearsed 0.0
fanclub_kp 0.0
oneofthesophies 0.0
fusterlandia 0.0
lazyblazy 0.0
katycatchloe 0.0
figali 0.0
prismaticness 0.0
titicaca 0.0
ancientaliens_ 0.0
sneezin 0.0
cristos 0.0
mallman 0.0
prismaticlife_ 0.0
ravensuxx 0.0
perrypositive 0.0
derkwhore 0.0
alekjandro 0.0
havss_ 0.0
hqzaynmaiik 0.0
thique 0.0
bbhmms 0.0
jkatharineb 0.0
jennyformica 0.0
tiiiiiight 0.0
ikissedagay 0.0
harryvuitton 0.0
aeschleahd 0.0
princessjavonda 0.0
errrythang 0.0
kooning 0.0
sugarray 0.0
empaths 0.0
goldenboyz_inc 0.0
voguejp 0.0
chickenwingguardingthemimosa 0.0
katyperrypopup 0.0
unmeasurably 0.0
transviolet 0.0
beauteous 0.0
katyskidrauhl 0.0
thooooooseee 0.0
clairesstores 0.0
nailsbymh 0.0
katysacutie 0.0
psychokatycat 0.0
kaceymusgrave 0.0
refueled 0.0
hyungsunju 0.0
okuurrrr 0.0
cholewheeler 0.0
leftshark 0.0
momchella 0.0
crotches 0.0
hookedondolls 0.0
fyuseapp 0.0
mogonoloball 0.0
atletica 0.0
katycatsclub 0.0
catacombs 0.0
poppycorn 0.0
cupped 0.0
christiania 0.0
residenz 0.0
lindseyweber 0.0
butterballface 0.0
joshlecash 0.0
myassistant 0.0
swiftschrist 0.0
snowhiteperry 0.0
emmakphughes 0.0
katyslegend 0.0
dansnierson 0.0
scressful 0.0
prismaticwitch 0.0
finnin 0.0
habibis 0.0
mophies 0.0
strongé 0.0
drumkit 0.0
anamanaguchi 0.0
gaultier 0.0
ngvmelbourne 0.0
dukedumont 0.0
legendaryasmyn 0.0
highlarious 0.0
calpurnia 0.0
waaaaait 0.0
mktfah 0.0
fwding 0.0
caseyhoops 0.0
worldstarvlne 0.0
flapfkp 0.0
bettycrocker 0.0
mexxxico 0.0
whhhhhhhhuuuuuutttt 0.0
yelletweets 0.0
gucciqxxn 0.0
luckyladyrebelettes 0.0
junglejulia 0.0
charlottes_web 0.0
istarbucksniall 0.0
katysroaaar 0.0
fiorucci 0.0
whuteva 0.0
sirdavidd 0.0
fudgery 0.0
bizquick 0.0
itsgrandtheft 0.0
grandtheft 0.0
katysfancy 0.0
ameezyyrush 0.0
mykectown 0.0
itsvalkubus 0.0
walkslikeperry 0.0
iwantperry 0.0
exausto 0.0
selfeh 0.0
aquaberry 0.0
sidepiece 0.0
versacness 0.0
iamleslii 0.0
alocalgyro 0.0
cutina 0.0
theoutslder 0.0
prism_katy_cat 0.0
katyshoodrat 0.0
thestevetisch 0.0
ronysphotobooth 0.0
schlitterbahn 0.0
kpsnosecrinkle 0.0
alwz_katycat 0.0
whykph 0.0
californiagurls 0.0
katycattt 0.0
varicose 0.0
itsbrillz 0.0
perrystiger 0.0
katysmyaura 0.0
paolablancokp 0.0
callmemargot 0.0
indiggynado 0.0
katycat 0.0
anylinden 0.0
kpkillerqueen 0.0
katyslilacwine 0.0
katypvenezuela 0.0
franzikaty 0.0
katherynelperry 0.0
doessss 0.0
katysleftarm 0.0
datingprism 0.0
_smiler_katycat 0.0
kepyterry 0.0
katycat_camille 0.0
vckatyperry 0.0
bowzerjoe 0.0
taishrox 0.0
mütter 0.0
arianperryarian 0.0
lisasigh 0.0
fridiskp 0.0
kevinruda 0.0
katyperrydaily 0.0
wakingupvegas 0.0
marlyins 0.0
drankin 0.0
herkatycat 0.0
luvhudson 0.0
yaeltsairi 0.0
felipinhoofm_ 0.0
renanmarcall 0.0
kariseperry 0.0
emojing 0.0
konnie 0.0
mcperry 0.0
iturnmycanonon 0.0
katycatelysha 0.0
andrewnavs 0.0
katycatkrystal 0.0
lovelyandlaugh 0.0
lampoonians 0.0
perrytuuda 0.0
katymyhaven 0.0
ruletheschool 0.0
cheapandchic 0.0
sically 0.0
crazyforperry 0.0
kpdaily 0.0
getonupmovie 0.0
cutetina 0.0
chimiuzz 0.0
kefali 0.0
joelkefali 0.0
siclly 0.0
mtvother 0.0
lydiaacav 0.0
prismaticperry 0.0
jwujek 0.0
adorbie 0.0
errone 0.0
kaliyah 0.0
katysweirdness 0.0
vinbiodiesel 0.0
katysfxb 0.0
katyspurrfect_ 0.0
shannonmwoodward 0.0
bippity 0.0
boppity 0.0
swiggty 0.0
swoogity 0.0
pizzarella 0.0
firewerk 0.0
katyslayed 0.0
emerald_epelman 0.0
madkatydisease 0.0
mandee 0.0
ohferras 0.0
sarahh 0.0
iaustinhunt 0.0
lanawhore 0.0
spaceykacey 0.0
crazay 0.0
elektrikpeople 0.0
visa_nz 0.0
fvckin 0.0
nathanspicer 0.0
cashcash 0.0
ashish_uk 0.0
xokatic 0.0
turnting 0.0
scorpiomystique 0.0
toddthomasnyc 0.0
kohngallery 0.0
discnt_universe 0.0
dressinkaty 0.0
lee_cook 0.0
bloodshot 0.0
yaddlizc 0.0
elnett 0.0
itsthekatycats 0.0
kelly_moritz 0.0
katyslaykaty 0.0
skintxghtjeans 0.0
socarrer 0.0
errrday 0.0
therealslacker 0.0
wendywild 0.0
welkys 0.0
sohohouse 0.0
selfing 0.0
camiilaruales 0.0
nexxxt 0.0
turrell 0.0
alliexxxxandra 0.0
surfboardt 0.0
telstra_news 0.0
juanitadele 0.0
oopskatycat 0.0
sophkatycat 0.0
katyschild 0.0
katysconverrse 0.0
katycat_leah 0.0
katycatverified 0.0
katycat_libby 0.0
katyswonk 0.0
kittless 0.0
jlrcukp 0.0
siiiiiiiiiiiiii 0.0
ermagherd 0.0
imlynsey 0.0
perrys_cherry 0.0
casemcgase 0.0
hazzaily 0.0
herses 0.0
gaypropaganda 0.0
tixforcharity 0.0
hudsons 0.0
nomers 0.0
mommacat 0.0
superlove 0.0
bonacorso 0.0
levi_leet 0.0
thinkingofbecki 0.0
cybering 0.0
pamyurin 0.0
idreamofkaty 0.0
xfactor_au 0.0
glohudsonperry 0.0
aubreyplzza 0.0
eeshhuhhayniac 0.0
bonkay 0.0
katysbum 0.0
nevillebradley 0.0
curryswift 0.0
zinepack 0.0
katykatt_suraya 0.0
sweetkatybird 0.0
yohkatheryn 0.0
cottoncandykaty 0.0
karolynadiaz 0.0
maayansharvit 0.0
theprismcess 0.0
camisp_ 0.0
lucasgaldin 0.0
prixy_mtz 0.0
niggasperry 0.0
kaksperry 0.0
zennnnaaa 0.0
katyissmurfy 0.0
dadehoward 0.0
kyledsaavedra 0.0
katysdoritos 0.0
pendejabardera 0.0
rosenilsou 0.0
hackensucks 0.0
gottabesheerio 0.0
ismaellgarcia 0.0
milegendz 0.0
alexskarev 0.0
ladycrystalb 0.0
katyspad 0.0
xcallmechrissyx 0.0
arianastylesss 0.0
jorgebaker 0.0
matty_zee 0.0
katycatzilla 0.0
adorie 0.0
meowwdison 0.0
alvin_koopa 0.0
lexyauditore 0.0
kease_it_raw 0.0
katysking 0.0
chris__kirby 0.0
katysbestfrwend 0.0
katyslildancer 0.0
sssshhh 0.0
conorhughess 0.0
tanimura 0.0
thekatycatlife 0.0
weefififookface 0.0
breakalioz 0.0
hudsonhelper 0.0
lariitaa 0.0
meeeeeooooooooowwwww 0.0
legend__dary 0.0
katyandliam 0.0
_theatrekid 0.0
babybritney 0.0
erinlorimer 0.0
_zacmoore_ 0.0
itscezzurryo 0.0
katycatskp 0.0
larissafilipo 0.0
siaylorswift 0.0
shitkittens 0.0
thefrankradical 0.0
katysprism 0.0
katytinalevine 0.0
serjeeoh 0.0
kayz_perry 0.0
katyslaysurfav 0.0
fuckyeahitskath 0.0
sweetyitosan 0.0
pickerington 0.0
verrado 0.0
retweete 0.0
jameswaterhouse 0.0
hunnah 0.0
truth_ispeak 0.0
_emilybarbarrr 0.0
nbllrrr 0.0
jmoneygraves 0.0
eaglenationnews 0.0
tauentzienstrasse 0.0
avontbh 0.0
vinnie_mate 0.0
demilovve 0.0
coolestkatycat 0.0
terri_katycat 0.0
beeeaaatttt 0.0
laurenfrancisco 0.0
victaytayp 0.0
aylajaye 0.0
iloveu 0.0
augustvaz 0.0
lizzievang_ 0.0
edsssss_ 0.0
hhhhhholly 0.0
holly_hickin 0.0
trixxx 0.0
killah 0.0
treasurefingers 0.0
最強ガール宣言 0.0
voykovic 0.0
annunaki 0.0
katyshomie_ 0.0
katyselephant 0.0
caitlynsmith 0.0
lightsperry 0.0
elizagilham 0.0
ohmyjatyfeels 0.0
junglescope 0.0
drunkskaty 0.0
malikpom 0.0
dancerlaurena 0.0
brirad 0.0
elisa_rv 0.0
moooom 0.0
pattymeagher 0.0
iwasemily 0.0
shahrzadphoto 0.0
tvjohnny 0.0
cstonethebreadwinner 0.0
katysrightboob 0.0
cyberdlck 0.0
beatforkaty 0.0
igabriiel 0.0
duuuuddddeeeee 0.0
redrum 0.0
srbuhiii 0.0
kayleighcat 0.0
applekatycat 0.0
ikatycats 0.0
wehryspencer 0.0
emilyjonesphoto 0.0
coxgabe 0.0
drugmoneyx 0.0
steven_drum 0.0
victoriacha 0.0
hashtaggin 0.0
perryandemetria 0.0
katycatfurlife 0.0
iammelissalynn 0.0
qewtie 0.0
yscheecat 0.0
slayty 0.0
katystree 0.0
katherynsboy 0.0
anapurry 0.0
nenedez 0.0
kevinn_perry 0.0
gloria_swag_ 0.0
andyamaziing 0.0
roarsana 0.0
brighthudson 0.0
fixingperry 0.0
roooooooooooooar 0.0
gretschusa 0.0
katys_cupcake 0.0
wonderation 0.0
kasek_craig 0.0
katysgurll 0.0
pepperperry_ 0.0
teamkatyperry 0.0
meandnutella 0.0
lovatokitten 0.0
katyslolly 0.0
astixxx 0.0
ravemomentz 0.0
erzaabrianto 0.0
katyperryindo 0.0
seeingdaisies 0.0
gillian_e_dubbs 0.0
samanthachazene 0.0
perryprism_ 0.0
katycompletesme 0.0
ltskatyperry 0.0
kittenscks 0.0
nihanofficial 0.0
momcat 0.0
kaytehperreh 0.0
__grazi 0.0
clairekatycat 0.0
fangurl 0.0
rrrrrrrrrrrroooooooooooooaaaaaaaaaaaaar 0.0
marispiva 0.0
mattdrobins 0.0
deihemmings 0.0
rooaaarr 0.0
katycatobsessed 0.0
katycatnick 0.0
tigerkats 0.0
kristenanzelc 0.0
taylermckellop 0.0
essesfadaperry 0.0
imjare 0.0
smganonymous 0.0
roaaaar 0.0
phuckyotweet 0.0
evvvvvverrrr 0.0
melvynmarrero 0.0
zouisashton 0.0
trillneyspears 0.0
rooooooar 0.0
fanwars 0.0
fentyncold 0.0
ttish_ 0.0
rachelacogan 0.0
makesmariana 0.0
kkaplon 0.0
rafaelmoncada 0.0
yaaaassssgrl 0.0
oioianna 0.0
katycatrazan 0.0
megaan_katycat 0.0
thekaelynn 0.0
hannahloupunton 0.0
thumbelinafairy 0.0
nic_kathryn 0.0
dannahfields 0.0
rodneybroaddus 0.0
noxisanasshole 0.0
soedesh__ 0.0
hookerofversace 0.0
thinkingofkaty_ 0.0
msgracevalerie 0.0
francfernandez 0.0
katysring 0.0
a_little_spark 0.0
laaxiss 0.0
