awesome 0.00145878665404
christmas 0.00152757459792
trying 0.00111593933991
launch 0.0
moment 0.000197995056892
wonderful 7.37361467738e-05
seeing 0.000202312543203
hanging 0.000289632421904
sounds 0.000245124047397
recommend 0.0
worked 7.0989050029e-05
direct 9.29547793615e-05
others 0.000176514812086
currently 3.90438954734e-05
better 0.0013312604085
please 0.00174424799477
social 3.67680123953e-05
anxiety 0.0
around 0.000714334853339
people 0.0024027626885
morning 0.000457033902321
traditional 0.0
general 4.20743617244e-05
damage 0.000107042681872
everything 0.000424388623584
twitter 0.00117840211675
present 0.000223020719403
though 0.000543884244661
friend 0.000820543632286
watched 0.00047928495403
beautiful 0.000235395528346
anything 0.000530841310487
previous 0.0
helped 0.000107352014361
updated 5.18893509188e-05
thinking 0.000500354600017
finally 0.000533711573352
caught 7.35360247907e-05
believe 0.00042324624952
already 0.0010418369219
couple 0.00103492951017
orlando 0.0
chance 0.000522324459795
meaning 0.0001448336417
growing 0.000430663570048
probably 0.000991160868469
password 0.0
changed 0.000209539168454
history 0.000100883797863
center 0.0
museum 0.0
behind 0.000487046490913
screaming 6.03923445566e-05
pretty 0.00156777774672
really 0.00186078088802
little 0.000879049902849
happiest 6.91187260961e-05
earlier 0.000114593189719
forget 0.000397059077945
someone 0.000691117130002
safety 0.0
program 0.0
things 0.00038963719273
related 4.79943000214e-05
visiting 0.000225140970404
available 0.000203407032579
perfect 0.000101978295874
different 0.00036495340096
search 4.36409251226e-05
connect 0.0
numbers 0.000163221597725
person 0.000261867137056
watching 0.00147697853812
exhibit 0.0
passed 7.96056454368e-05
prefer 9.85807658515e-05
minutes 3.37187572006e-05
travel 0.000159650814353
outside 6.90956350869e-05
looking 0.000976722114277
forward 0.000402448336652
agreed 4.37646196191e-05
raising 0.00018644959719
listened 5.17305742403e-05
afraid 0.0
impression 5.99813293715e-05
christian 0.0
profile 0.000267863592058
instant 0.0
drawing 0.0
wheels 6.77932454839e-05
favorite 0.00109869451499
picture 0.000486289491621
instead 0.000330912111558
appreciate 0.000268850490962
international 0.0
station 9.16212718866e-05
toddler 8.61592446026e-05
market 0.0
couldn 0.000305934887622
remember 0.000554969738532
vintage 0.0
holidays 0.000139837197893
friends 0.000557969669955
everyone 0.00176284505181
florida 0.000144407342122
always 0.00129879064243
months 0.000136338470361
moving 0.000175562616803
meeting 0.000501705631372
answer 0.000167235210457
sweetie 0.0
together 0.000261867137056
inside 0.000101978295874
section 0.000150552307895
missed 0.000264706051964
button 0.0
longer 0.000113039579462
enough 0.00069298269912
driving 0.000119738110765
building 0.0
enjoying 0.00023947622153
london 0.0
exploring 0.0
posting 4.89978605323e-05
amazing 0.000651148076185
attention 0.000110905331059
gordon 0.0
progress 9.05738373707e-05
tomorrow 0.000489679181058
george 4.05799140385e-05
feeling 0.000341767304637
excited 0.000749861586988
understand 0.000177953658996
following 0.000102807316182
asleep 0.000120372373239
learning 4.04677558404e-05
evening 3.73730565989e-05
special 0.00016455169762
secret 7.31376215035e-05
across 7.29393327018e-05
surprised 0.000155747643898
anymore 0.000332857302283
sophia 0.0
precious 0.0
rejoice 0.0
version 0.0
rather 0.000110004776434
avatar 0.0
showing 0.000104486828446
saying 0.000340846175904
tweeted 0.000129452418421
thoughts 0.000554260092538
exactly 7.06059248345e-05
except 4.16071627854e-05
getting 0.00153432810065
nothing 0.000718196132218
tweets 0.000395762786152
course 0.000708093901212
photos 7.89507874628e-05
looked 0.000296553001698
difficult 0.0
stages 0.0
office 7.06059248345e-05
decisions 0.0
brought 7.23480733932e-05
biggest 0.000437163124072
thrilled 9.94683359158e-05
something 0.000783486689693
closing 0.0
anyone 0.000724027469526
taking 0.000261162229898
recently 0.0
interesting 0.00021822494256
original 7.72361127444e-05
flying 0.000123097384973
happening 0.000177953658996
sometimes 3.59784351047e-05
lessons 4.7295998569e-05
village 6.55357504945e-05
stopped 0.000306418420097
yesterday 0.000855668827622
service 0.000107643223242
serious 0.000209539168454
digital 0.0
hoarder 0.0
wearing 0.000344720722609
british 4.75735196265e-05
either 0.000355907317992
second 0.000394924074287
checking 0.000126931519555
indeed 4.45168486143e-05
island 0.000462090429793
hearing 7.29393327018e-05
choose 3.84072129946e-05
staying 0.000132415667396
another 0.00117206653713
clothes 0.000108395637728
slowly 5.91745856099e-05
weekend 0.000463235590936
hashtag 4.81357807074e-05
delivery 5.97777565037e-05
theory 5.35213409359e-05
working 0.000293807508635
bigger 0.000114906907536
screen 4.41385557987e-05
riding 5.64990920899e-05
laughing 0.000813203867966
wanted 0.000329991761486
trends 0.0
stripes 0.0
clothing 6.9664449296e-05
current 0.000231074781264
adorable 0.0
grateful 4.26679754434e-05
friendship 0.0
family 0.00101200364085
listening 0.0
stream 4.48996007799e-05
expressions 0.0
wedding 0.000148756693951
sharing 0.000115221638984
double 0.000110905331059
especially 0.000253218256876
middle 0.000149900010292
waiting 0.000501705631372
definitely 0.000321185020396
walking 0.000274058635485
account 0.000191511512561
completely 7.74479874254e-05
thought 0.000691117130002
reaction 0.0
accept 8.34466676152e-05
simple 3.79895896675e-05
professional 4.8420605043e-05
friendly 0.0
supposed 0.00030376458609
business 0.000105622809812
absolutely 0.000174615973711
anywhere 0.0
sending 0.000113658053274
introducing 5.23703932884e-05
congrats 0.00174772437509
beauty 0.000467479726305
community 4.02445950578e-05
greatest 0.000107061673465
selfie 0.000195410326778
posted 3.86180563722e-05
saturday 0.000172273237095
wednesday 3.93669803884e-05
confused 4.75735196265e-05
expression 0.0
chicago 0.000177561042688
closest 0.0
relationship 0.000131666361408
actually 0.000200682252549
easter 0.000267863592058
basket 0.0
myself 0.0
argument 5.03354771066e-05
school 0.000331775819055
thursday 3.49231947423e-05
selling 4.46439320096e-05
talented 0.0
celebrate 0.00018038044305
falcon 0.0
celebrating 0.000194684554872
contest 0.000170193525306
experiences 0.0
students 0.000129817932164
internet 0.000243479484231
figure 0.000507570641154
opened 4.77131747496e-05
featuring 4.24292260879e-05
inspired 3.94753937314e-05
sitting 0.000147472293548
playing 0.000928972293353
street 3.61740366966e-05
points 0.000125519765885
memory 0.0
forever 0.0
imagine 0.0
problem 0.000595301257963
played 0.000656453994316
canadian 0.0
pulling 0.0
keeping 3.64696663509e-05
lovely 4.10324616576e-05
dressed 5.26950936549e-05
specifically 0.0
unlike 6.03923445566e-05
disappointed 9.82875846216e-05
otherwise 0.000139028817335
afternoon 7.68144259891e-05
planned 0.00014065234322
strange 0.0
images 5.74295215408e-05
noticed 0.000206922296961
notice 0.0
stretch 6.01861866193e-05
inspiration 0.0
letting 4.01335872024e-05
system 0.0
possibility 0.0
almost 0.000326452787372
details 0.000107061673465
experience 0.000340846175904
living 0.000102253852771
weather 0.000333786670461
normal 8.75292392382e-05
launching 0.0
before 7.07972048906e-05
captured 0.0
colors 0.000125501843713
monday 0.000238592323133
example 4.31508061404e-05
realize 9.37682288134e-05
autographed 0.000167899129143
sleeping 0.000103778701838
authentic 0.0
science 0.0
tweeting 0.000335442867346
forgot 0.000327349856504
chasing 0.0
gorgeous 0.0
herself 0.0
happens 0.000371908202028
silence 0.0
learned 0.000113348325515
congratulations 0.000287827480838
natural 9.26858782231e-05
raised 0.000213339877217
babies 5.07938814176e-05
mission 0.0
smelled 0.0
ironic 0.0
testing 0.0
deleted 0.0
barely 0.00011373614135
unforgettable 0.0
forgotten 4.85639596514e-05
trouble 8.07119674596e-05
fantastic 3.8512463544e-05
loving 0.000154049854176
complete 0.0
nearly 0.0
spirit 0.0
launched 0.0
finding 0.0
mercury 0.0
stories 3.53029624172e-05
including 0.000181361405735
mature 0.0
stuffed 0.000246852249907
ancient 0.0
bottle 0.000101896264756
somewhere 0.000127645143979
wouldn 0.00049290644579
choice 0.000348289428153
conversation 3.96933124424e-05
making 0.000390688845711
expect 0.000195756168204
occasions 0.000100252372528
subject 0.0
flights 6.62709464176e-05
location 0.0
vacation 0.000175747246226
seriously 0.000324684797491
spending 8.1159828077e-05
groups 0.0
childhood 0.0
modern 0.0
welcome 0.000560985994526
moments 0.0
degrees 6.12303205112e-05
jacket 0.000172856550478
halloween 0.000293987163194
costume 6.45806885229e-05
totally 0.000113039579462
laughed 0.000123746614374
flight 0.000469814803689
kidding 0.000408824956978
regular 4.8420605043e-05
context 0.0
running 0.000239883737757
finished 0.000195219477367
strong 0.000134511730484
tracking 0.0
respond 9.85807658515e-05
message 0.000242488790485
coming 0.0010743943257
thankful 0.000102830662634
cheese 0.0
greens 0.0
issues 3.89369109744e-05
intolerance 0.0
happen 0.000133068614923
giving 0.000329991761486
turkey 0.000142720558879
excellent 4.25483813264e-05
limits 0.0
common 0.0
pressed 0.0
situation 0.00012800392633
options 5.09481323778e-05
health 0.00019256231772
insurance 0.0
change 0.00022851695116
singing 0.0
august 0.0
crying 5.14153313168e-05
mental 0.000194255838606
happened 0.000309255694886
demand 0.0
generally 6.60240268546e-05
personal 0.000106483575044
beyond 3.64696663509e-05
bruised 0.0
question 0.000333569733345
chicken 4.68841144067e-05
reward 0.0
tunnel 0.0
losing 0.000120733785173
respect 0.000356872244885
caption 0.0
shouldn 0.000156175581893
visited 0.0
reason 0.000309255694886
simply 8.16107988624e-05
darlin 0.0
audience 0.0
involved 0.000227937538005
unhappy 0.0
reality 3.88302778209e-05
extremely 9.48689251999e-05
without 0.000427834413811
falling 0.0
countdown 0.000178123200556
locations 0.0
timing 0.0
crabby 0.0
classic 0.000200114787844
highly 0.0
online 0.000175562616803
finger 0.000166783749882
animals 0.0
planets 0.0
called 0.000131286981166
delicious 0.000231237156863
almond 0.0
compliment 0.0
pictures 0.0
camera 8.53359508868e-05
pillow 8.06998780855e-05
checked 4.63429391116e-05
heading 0.000388302778209
theater 0.0
paying 4.24292260879e-05
planning 4.24292260879e-05
complex 0.0
sunday 0.00060693762961
nights 0.000192543122829
descending 0.0
traffic 4.89978605323e-05
opposite 0.0
through 4.58106359433e-05
lookout 0.0
reached 4.8420605043e-05
harder 0.0
random 9.5147039253e-05
changes 0.0
speaking 7.47461131979e-05
recorded 4.95855646502e-05
washed 0.0
november 0.000262587717715
answered 0.0
enchanted 0.0
number 0.000434811547189
adventures 0.0
eclipse 0.0
chocolate 0.000200133722372
unless 0.000160978380231
calling 0.000102807316182
mermaid 0.0
distraction 0.0
levels 0.0
option 0.000141887995707
shopping 0.000198342258601
former 0.000246194769946
actual 4.33949408699e-05
covers 0.0
mountain 0.0
friday 0.000132353025982
winner 0.000290178249175
closes 0.0
quality 0.0
father 0.000334531079104
wishes 0.000255290287958
hourly 0.0
matter 0.000385194931623
themselves 0.0
usually 0.000304623900393
period 0.000194831799923
parents 0.000117453700922
balance 0.0
publishing 0.0
mobile 0.000108395637728
woohoo 0.0
bracelets 0.0
summer 0.000563321652331
reminded 0.0
impressed 9.88752767061e-05
necklace 0.0
shutdown 0.0
dinner 0.000360760886101
single 0.000134511730484
packed 0.000107042681872
definition 0.0
energy 7.76605556418e-05
preview 0.0
monster 0.0
material 0.000167320441588
admission 0.0
europe 0.000225786493443
holiday 0.000150309078549
emotional 0.0
update 0.000380934930076
customers 0.0
messing 0.0
holding 7.72361127444e-05
electric 0.0
eating 0.0
outfit 6.70231754128e-05
picked 0.000244154766004
fabulous 5.68680706748e-05
missing 0.000208973656892
surprise 0.000174615973711
officially 7.61869860151e-05
french 8.39138605088e-05
global 0.0
follow 0.000754900141703
opinion 0.000595677338569
backwards 0.0
design 9.85807658515e-05
secrets 0.0
request 0.00015100643132
breaks 8.6058847392e-05
allows 0.0
promoting 0.0
volunteer 0.0
wondering 0.000266341564032
official 0.000101156271602
sweater 0.000385238721383
jersey 0.00197599287649
mistake 0.0
france 4.52869186853e-05
proper 0.0
ginger 0.0
peaceful 0.0
lighter 0.0
thinks 3.80934930076e-05
competition 8.82771115974e-05
hospital 0.000285441117759
industry 0.0
trending 0.0
leadership 5.11031196223e-05
organized 0.0
showed 0.000123097384973
circle 0.0
success 0.000147472293548
ladies 0.000179086059007
dreams 0.0
protect 0.0
onesie 0.0
explanation 0.0
control 3.64696663509e-05
coincidence 0.00013769853182
discovering 0.0
laying 0.000135069041759
invited 0.0
healthy 0.000309849150343
surgery 0.000183690961534
allowing 5.72412904858e-05
arrived 0.0
opening 0.000106483575044
popular 0.0
pleasure 8.18374641261e-05
spectacular 0.0
animal 4.89978605323e-05
luggage 0.0
wonder 0.000389384626898
matters 4.29084933288e-05
reader 0.0
function 0.0
marketing 0.0
connection 0.00010637662955
improves 0.0
benefit 0.000163674928252
continues 7.96056454368e-05
cuddle 0.0
routine 0.0
exciting 0.000234907401844
corner 0.0
imagination 0.0
sangria 0.0
mystery 0.0
spring 0.0
beautifully 0.0
places 3.89369109744e-05
feedback 6.36529178041e-05
continue 7.53597196414e-05
attend 9.82875846216e-05
creative 4.607569673e-05
memories 8.92878640193e-05
female 0.0
grandma 0.00013769853182
closer 0.000286431124441
accent 7.13589084931e-05
beginning 4.10324616576e-05
sooner 0.0
everywhere 7.78738219488e-05
scenes 4.16071627854e-05
bought 7.98254071766e-05
wishing 4.7295998569e-05
discovered 5.43691636733e-05
remove 0.0
predict 0.0
parrot 0.0
several 4.70208294131e-05
teacher 9.74158999616e-05
passing 0.000264831334792
become 0.000136338470361
spread 0.000260900007936
netflix 5.41978188638e-05
season 0.00183490019034
putting 6.85382107877e-05
weight 0.000406351051341
outfits 0.0
notification 0.0
annoying 6.38823870706e-05
necessity 0.0
knocks 0.0
processed 0.0
necessarily 0.000143300238219
effects 0.0
lighting 0.0
headed 0.0
returns 4.37646196191e-05
expected 9.34959452609e-05
bucket 0.0
constantly 0.0
sweetest 0.0
struggling 0.0
register 0.0
transition 0.0
flowers 0.0
sprain 0.0
savage 0.0
somebody 0.0
covering 5.0487560598e-05
gloves 0.0
repeat 4.55477214213e-05
managers 0.0
brothers 0.000100066861186
patriots 0.000212352622096
seahawks 0.000531182121919
player 0.0012753361998
chemistry 0.0
moonlight 0.0
comment 0.000210371808622
columbia 0.0
physical 0.000108738327347
kingdom 0.0
pretend 0.0
charles 5.23703932884e-05
fighting 0.000223020719403
rooting 0.000326471692412
donald 9.37682288134e-05
mexico 0.0
police 0.0
represent 0.000110479437861
president 0.0
talking 0.000229133744924
unbelievable 0.000207557403675
shrimp 0.0
giants 0.0
conference 4.04677558404e-05
america 0.0
everybody 4.02445950578e-05
houston 5.5594583294e-05
everyday 9.26858782231e-05
michael 0.00188027174273
protecting 0.0
unconditional 0.0
million 0.000308421948545
election 4.50281940809e-05
telling 0.000111207375637
correct 4.20743617244e-05
pulled 9.79957210646e-05
starbucks 0.000143887930303
americans 4.54170582025e-05
killed 3.63708237599e-05
cowboys 0.0
cowboy 0.0
coverage 0.000265584986008
dallas 0.0
coffee 0.000205732955028
timeline 0.00016786010667
refuse 0.000117164830817
barackobama 6.29740826389e-05
hillary 0.0
clinton 5.33544008969e-05
gatorade 0.000216422882792
sharper 0.0
american 0.000173206278918
deserved 0.000349184181511
realist 0.0
illegal 0.0
arizona 0.0
waffle 0.0
scared 0.000143560299409
pieces 4.82778805668e-05
taught 0.0
golden 8.8026862609e-05
straight 0.00021704422018
massage 0.0
filter 0.0
answers 8.41487234488e-05
smoking 0.0
created 0.0
beside 0.0
worlds 6.16575604393e-05
record 0.000272676940723
freddie 0.0
africa 0.0
recruiting 0.0
journey 0.000254575356527
snapchat 0.0
brother 0.000358225404466
prayers 0.000357721837356
trolling 7.63641450052e-05
hungry 0.000105064675189
nflnetwork 0.0
documentary 4.88525816946e-05
boston 9.43162449949e-05
addition 0.00011373614135
church 0.0
honestly 4.66123992975e-05
lounge 0.0
lifetime 0.0
captain 0.000387916664257
favorites 0.000174002555439
country 0.000269750057605
valley 0.0
huddle 0.0
dressing 6.34250588616e-05
finish 0.000120400761607
favourite 5.26950936549e-05
prayer 0.0
nominated 9.79957210646e-05
praying 0.000134046350826
insane 4.82778805668e-05
national 0.000105908887252
reform 0.0
shooting 0.000163221597725
australia 0.0
deserve 8.00459151376e-05
legend 0.000261106200336
mother 0.00014548329504
realest 0.0
creating 0.0
powerful 0.0
chilling 0.0
wisdom 0.0
breaking 0.000105337570082
parked 0.0
angeles 0.0
dollars 0.000109429179949
questions 0.000100341126274
racist 0.0
girlfriend 6.88492659101e-05
performance 3.77827751717e-05
refreshing 0.0
educated 0.0
reading 0.000242488790485
denver 0.0
videos 4.20743617244e-05
harmony 0.0
create 7.55655503435e-05
jordan 5.68680706748e-05
admire 0.0
nobody 4.00229575688e-05
government 0.0
politics 0.0
paradise 0.0
recover 0.000295060708049
spotted 0.000165191191823
blessing 0.0
coolest 0.000115618578432
banana 0.0
donate 0.000924282057395
sandwich 6.05998198061e-05
lookin 7.107028645e-05
method 0.0
bullshit 0.0
slight 0.0
bringing 0.000146673035245
deserves 0.0
regret 5.74295215408e-05
celebs 0.0
victim 0.0
stadium 5.52397189305e-05
funniest 5.95754520108e-05
according 8.65452881094e-05
pumped 0.00013010941625
hamburger 0.0
heaven 0.0
honest 0.0
rolling 0.0
became 0.0
feature 0.000134314544255
waking 0.0
breakfast 0.000246194769946
counting 9.26858782231e-05
signing 0.000599032163574
adding 0.0
awareness 0.000280487835783
kindest 0.0
trainer 8.3525117141e-05
facebook 6.98463894846e-05
insanity 0.0
repost 0.0
brazilian 0.0
campaign 0.0
borrow 0.0
scorpion 0.000130717768195
popcorn 7.5038664393e-05
factory 0.0
teenage 0.0
endorsement 0.0
williams 0.00015614672349
custom 0.0
drinks 0.0
future 0.000201767595725
angels 7.107028645e-05
fingers 0.0
sister 8.77775742717e-05
earrings 0.0
warrior 0.00013878088241
dancing 0.0
voting 0.000120733785173
individuals 0.0
presence 0.0
commercial 4.47715147516e-05
chopped 0.0
religion 0.0
century 0.0
submit 0.0
serving 0.0
because 4.70208294131e-05
aggressive 0.0
sensitive 6.83169627418e-05
smiling 0.000172856550478
besides 0.000203379736452
cleveland 6.43462487603e-05
hometown 0.00023354960485
killing 0.000166428651142
breath 0.0
phillips 8.52572486548e-05
instagram 9.05738373707e-05
sharks 0.0
cousin 0.0
honored 9.05738373707e-05
dedication 0.0
lifting 0.0
lyrical 0.0
talent 8.70354001122e-05
goodnight 0.0
stores 0.0
rushing 0.0
brains 0.0
sandwiches 0.0
drinking 9.71279193029e-05
brazil 5.85824154086e-05
tattoo 0.00102873035293
ravens 0.0
regardless 0.0
skills 0.000543443024224
cameras 0.0
phones 0.000120372373239
california 0.0
seconds 4.36409251226e-05
listen 0.0
smiled 0.0
kicking 9.21513934601e-05
homies 0.0
billion 0.0
shades 0.000220363377529
shoutout 0.000123315120879
grammy 0.0
guilty 0.0
stevie 0.0
ceiling 0.0
carpet 0.0
grammys 0.0
harvard 0.0
panther 0.0
nelson 0.0
mandela 0.0
handle 4.25483813264e-05
sexiest 0.0
promise 0.0
hosting 8.55760233677e-05
hahahaha 0.000215831895455
longest 5.8000851813e-05
tuesday 0.000296553001698
locker 0.000219440059733
workout 0.000507400470893
ingredient 0.0
leader 4.25483813264e-05
pageant 0.0
character 4.36409251226e-05
idiotic 0.0
mirror 5.31883147749e-05
jackson 5.26950936549e-05
interview 0.00036495340096
battles 0.0
bleach 0.0
insight 5.8000851813e-05
obviously 9.16212718866e-05
replay 0.0
battle 0.000378860177581
stomped 0.0
destroy 0.0
killer 4.95855646502e-05
personally 0.00018863248999
winning 0.000348289428153
gettin 7.07842073653e-05
japanese 0.0
writing 0.000264479426202
society 9.00563881618e-05
officers 0.0
brooklyn 0.000132048053709
sources 0.000112268518839
incredible 7.04152065414e-05
poster 5.17305742403e-05
celebrity 5.33544008969e-05
memorable 0.000135069041759
werent 0.0
chased 0.0
minute 0.000147072049581
confession 0.000101695710859
pregnant 6.67704911332e-05
cherry 7.16501191093e-05
twinning 0.0
phoenix 0.000135069041759
orange 0.000195410326778
policy 0.0
comedy 0.0
illuminati 0.0
reminder 3.92589278226e-05
evidence 0.0
iphone 0.00015614672349
kicked 0.0
intentions 0.0
freedom 0.0
patient 0.0
utterly 0.0
mississippi 0.0
download 4.607569673e-05
assistant 0.000264096107418
invite 4.62090429793e-05
central 0.0
washington 0.000129452418421
stronger 0.0
promised 0.0
worried 4.71581224974e-05
throwing 5.35213409359e-05
security 0.0
cologne 0.0
headphones 0.0
sanctuary 0.0
fantasy 0.000989972914991
monkey 0.0
approve 6.45806885229e-05
spinach 0.0
turning 0.0
helping 0.000179405372069
tickets 0.000394753937314
collector 0.0
physically 0.0
slavery 0.0
december 0.000226434593427
basically 0.000142720558879
return 0.0
yassss 0.0
goddess 0.0
locked 0.000164666073041
feelings 5.63161633465e-05
language 0.0
motion 0.0
obsessed 5.72412904858e-05
creation 0.0
followers 0.000295345536107
schools 4.63429391116e-05
gallery 0.0
movies 0.000146557745084
foster 0.0
children 0.000179405372069
nation 0.0
theaters 0.0
between 0.0
knowledge 4.63429391116e-05
begins 3.90438954734e-05
robinthicke 0.0
faithful 0.0
peeing 0.0
closet 0.0
bodies 0.0
italian 0.0
highlights 0.000147431376932
spanking 0.000130717768195
forbes 0.0
parade 6.01861866193e-05
tasted 0.0
consider 8.65452881094e-05
reunion 0.0
latest 0.000141211849669
dedicated 0.0
beyonce 0.0
perform 5.22092526795e-05
signed 0.000215870610628
tuxedo 0.0
princess 0.0
shelter 0.000146908918353
germany 0.000446270081852
explaining 5.63161633465e-05
married 4.82778805668e-05
millions 0.0
blessings 0.0
iconic 0.0
indonesia 0.0
braids 0.0
dollar 0.000109777382027
rigged 8.31061466046e-05
replied 0.0
lights 0.000187536457627
turned 0.000143136019147
excuses 0.000217619272175
jackie 0.0
charge 0.000135471896066
performing 0.0
ticket 0.000218823098096
steady 0.0
whispers 0.0
finest 0.0
confucius 0.0
diamonds 9.50460841901e-05
vancouver 8.06998780855e-05
addicts 0.0
collection 4.47715147516e-05
families 0.000250340002846
select 0.0
hitting 0.0
announced 3.96933124424e-05
decided 0.00011713168642
jewels 0.0
lottery 7.77460457291e-05
owners 0.00138052028084
respects 0.0
celebration 0.00013743190783
memorial 0.0
landed 0.000203792529511
pastor 0.0
ultimate 4.7295998569e-05
incase 0.0
rapper 0.0
episode 0.000272558376821
bounce 7.77460457291e-05
disney 0.0
muffin 0.0
kansas 0.0
sherman 0.0
retweet 0.000703393024625
midnight 8.8026862609e-05
patience 0.0
cereal 0.0
joining 7.68144259891e-05
released 7.5979179335e-05
release 3.57840047868e-05
models 0.0
classics 0.0
popped 0.0
mileycyrus 0.0
highlight 0.0
scholarship 0.0
within 0.0
hahahahaha 0.0
standing 0.0
higher 4.37646196191e-05
purple 0.0
skinny 0.000325929279792
justice 0.0
served 9.85807658515e-05
speaks 4.71581224974e-05
horses 0.0
houses 0.000133540982266
purchase 0.0
dropped 4.02445950578e-05
conversations 0.0
consideration 0.0
seattle 0.000238301808043
cookie 0.000131071500989
slurpee 0.0
strength 4.51572986886e-05
screens 0.0
monica 0.0
incredibly 4.607569673e-05
streets 4.79943000214e-05
boyfriend 7.70477442767e-05
private 0.0
skittles 0.0
barbie 0.0
apologizes 0.0
designer 7.16501191093e-05
impress 0.0
cooking 0.000167320441588
exclusive 3.87239937127e-05
fashion 0.0
petite 0.0
talkin 7.67041456623e-05
peaches 0.0
bitches 0.0
nailed 0.0
weirdest 0.0
whomever 0.0
teaching 0.0
disgusting 0.0
chillin 0.0
philly 6.10187903425e-05
rights 0.000132040293914
dinosaur 0.0
exotic 0.0
dancers 0.0
cheers 0.000100975121196
presents 0.000160063202691
flawless 0.0
dating 0.0
victory 9.32247985951e-05
marley 0.0
productive 6.4816833317e-05
smurfs 0.0
halftime 0.0
insecure 9.16250528946e-05
horror 0.0
warning 0.0
discovery 0.0
convention 0.0
understanding 0.0
action 0.00021010632634
having 0.0
speaker 0.0
clever 5.57734805292e-05
theatre 0.0
honors 8.06998780855e-05
evolution 0.0
produce 0.0
spider 0.0
apologize 6.01861866193e-05
formation 0.0
letter 4.02445950578e-05
therapy 0.0
untrue 0.0
written 0.0
communication 0.0
disease 0.0
marching 0.0
suggest 0.0
georgetakei 0.0
hairstyle 0.0
humans 5.47145899743e-05
journal 6.75345208794e-05
foundation 0.000232386948404
access 0.0
venture 0.0
syndrome 0.0
writes 0.0
colorado 0.0
medicine 0.0
tremendous 0.0
nytimes 0.0
kindness 0.0
cannot 3.63708237599e-05
reveals 0.0
invented 6.10187903425e-05
sapphire 0.0
candidate 0.0
sexual 0.0
madison 0.0
illustration 0.0
newark 0.0
globally 0.0
incorrect 0.0
headline 0.0
reflect 0.0
streaming 5.33544008969e-05
leaders 0.0
supreme 0.0
protest 0.0
policies 0.0
silenced 0.0
defend 0.0
communicating 0.0
climate 0.0
wrapped 0.0
studio 4.54170582025e-05
conspiracy 0.0
interviews 4.42641643347e-05
differentiation 0.0
confusing 0.000131557941706
february 4.79943000214e-05
hamilton 0.0
loneliest 0.0
amazon 4.9437638353e-05
scattered 0.0
francis 0.0
headlines 0.0
january 0.0
diversity 0.0
universal 0.0
hurricane 6.91187260961e-05
identifying 0.0
countries 4.70208294131e-05
tickled 0.0
becker 0.0
connected 0.0
suggestion 0.0
filled 0.0
education 8.77775742717e-05
mentioned 9.59886000427e-05
defining 0.0
exists 0.0
unexpected 0.0
plants 0.0
orders 0.0
olympics 0.000231237156863
ability 0.0
director 0.0
content 0.0
cycling 0.0
previously 6.50547081249e-05
correction 6.60240268546e-05
pearls 0.0
ambassador 0.0
preparing 0.0
depend 0.0
downloads 0.0
lovers 6.55357504945e-05
weekly 5.63161633465e-05
hudson 0.0
bridge 0.0
becoming 4.18399219618e-05
magazine 4.52869186853e-05
appropriate 0.0
shakespeare 0.0
travesty 0.0
discoveries 0.0
fellow 0.000289632421904
reviewed 0.0
copies 0.0
driven 0.0
aussies 0.0
result 0.0
announcing 0.0
visual 0.0
restrictions 0.0
culture 0.0
edition 0.000130922775368
prince 9.4591997138e-05
shocks 0.0
symmetry 0.0
clicks 0.0
disagree 5.0487560598e-05
experiments 0.0
mistakes 5.8193551287e-05
trolls 7.43956777173e-05
blossoms 0.0
offered 5.3689143718e-05
inspiring 0.000132040293914
counter 0.000123315120879
approach 4.85639596514e-05
embarrassing 0.000117164830817
creators 0.0
edited 0.0
berniesanders 0.0
overnight 0.0
spotlight 0.0
probable 0.0
repeating 0.0
concerns 0.0
massive 8.27521205441e-05
promising 7.13589084931e-05
promises 0.0
colored 0.0
production 0.0
header 9.05603750184e-05
itunes 0.0
secretary 5.68680706748e-05
highway 0.0
dangerous 4.37646196191e-05
letters 0.0
typically 0.0
saving 4.7295998569e-05
pioneer 0.0
visuals 0.0
universe 0.0
ordering 0.0
victims 9.4591997138e-05
privacy 0.0
disclosure 0.0
proceeds 0.000195883015447
musical 0.0
collide 0.0
melbourne 0.0
correctly 0.0
campus 0.0
debate 0.000167827721018
conflict 0.0
meanwhile 0.0
petition 0.0
contribution 0.0
stated 0.0
humanity 0.0
illness 7.107028645e-05
flawed 0.0
breathe 0.0
winners 4.31508061404e-05
spanish 0.0
comedic 0.0
awards 0.0
presidential 5.43691636733e-05
candidates 0.0
glasgow 0.0
smells 0.0
treasure 0.0
greater 0.0
themed 0.0
distribution 0.0
absurd 0.0
squirrel 0.0
sisters 6.20904970674e-05
stress 0.000120372373239
leading 4.1376060272e-05
resolution 0.0
achieved 0.0
interacting 0.0
boiling 0.0
examples 0.00013878088241
diverse 0.0
suicide 0.0
parallel 0.0
minneapolis 0.0
impairs 0.0
pumping 0.00010645589137
slides 0.0
choreography 0.0
element 0.0
serves 7.4715579478e-05
jumping 0.0
rising 0.0
believed 5.97777565037e-05
features 0.0
environment 0.0
revealed 5.31883147749e-05
classical 0.0
confirmed 4.74344626e-05
origins 0.0
combination 0.0
consumption 0.0
worldwide 0.0
deaths 6.83169627418e-05
responsible 0.00010637662955
overwhelmed 0.0
household 7.31466865776e-05
munich 9.16250528946e-05
alternate 8.75610349234e-05
blockers 0.0
restaurant 0.000270136867531
canada 0.00013018482261
versions 0.0
technology 0.0
identify 0.0
combined 0.0
santiago 0.0
branches 0.0
october 9.10954428426e-05
netherlands 0.000164568166604
belgium 7.95604711405e-05
european 0.000112268518839
imperial 0.0
perspective 4.81357807074e-05
cities 0.0
guinea 0.0
americas 0.0
posters 0.0
elastic 0.0
flames 8.70870153215e-05
presumably 0.0
exquisite 0.0
spreading 5.57734805292e-05
happiness 0.0
ashamed 0.0
naturally 0.0
malbec 0.0
wasting 0.0
hidden 0.0
coffin 0.0
freudian 0.0
genius 4.32726440547e-05
cultured 0.0
malaysia 0.0
traveling 0.000184329713319
prepared 0.0
county 6.01861866193e-05
quinoa 0.0
district 0.0
chosen 0.0
toilet 0.0
yorkers 0.0
ignores 0.0
messages 0.000108738327347
creativity 6.9664449296e-05
conventional 0.0
berlin 0.000201069526238
montreal 7.81009100925e-05
wonders 0.0
upcoming 0.00013822709019
lonely 0.0
australian 0.0
positions 0.0
singapore 0.0
scratch 0.0
deficiency 0.0
elevated 0.0
triggers 0.0
delicate 0.0
barrier 0.0
reflection 0.0
sydney 0.0
separates 0.0
centuries 0.0
israel 0.0
overwhelming 0.0
assault 0.0
protection 0.0
picker 0.0
additional 6.77932454839e-05
machine 0.000175555148543
samples 0.0
contrary 0.0
immediate 0.0
michelle 6.27509218563e-05
inspire 0.0
lyrics 0.0
missyelliott 0.0
constant 0.0
tuning 0.0
pandora 0.0
preshow 0.0
buenos 0.0
poland 0.0
philippines 0.0
nicely 6.23091495169e-05
september 4.56789125738e-05
manchester 0.0
checks 0.0
screenshot 0.0
universalorl 0.0
remarkable 0.0
rihanna 0.0
disgusted 0.0
flattered 0.0
fiction 0.0
angela 0.0
bitmoji 0.0
process 8.29828118422e-05
genuine 0.0
performances 0.0
comedians 0.0
flotus 0.0
strangers 0.0
hungover 0.0
confidence 0.0
studios 0.0
stjude 0.0
memphis 0.0
mikeypiff 0.0
chancetherapper 0.0
scream 0.0
jennifer 0.0
disappoint 0.0
newcastle 0.0
castle 7.28418039051e-05
literally 4.02445950578e-05
chrisrock 0.0
gentlemen 0.0
mtvnews 0.0
hillaryclinton 0.0
iamrashidajones 0.0
champagne 0.0
raleigh 0.0
ijessewilliams 0.0
acknowledge 0.0
buzzfeed 0.0
puppet 0.0
rehearsal 0.0
billboard 0.0
austria 0.00354504029823
sweden 0.000193742065569
republic 6.85820235286e-05
grilled 0.0
waltdisneyworld 0.0
katyperry 0.0
ronanfarrow 0.0
measly 0.0
bragging 0.0
treats 6.93904412052e-05
literal 0.0
cooper 0.0
counts 5.40273735062e-05
theellenshow 0.0
basking 0.0
cookies 0.0
festival 0.0
amsterdam 0.0
soundcheck 0.0
downloaded 7.91893840607e-05
encouraged 0.0
alright 0.000228216577368
jtimberlake 0.0
backstage 0.0
collab 0.0
joined 4.00229575688e-05
issarae 0.0
playlist 0.0
madness 0.0
romantic 0.0
selfies 0.000143300238219
exclusively 0.0
disneyland 0.0
refused 0.0
characters 0.0
amazingly 0.0
auction 0.00013010941625
express 5.03354771066e-05
gratitude 0.0
sesamestreet 0.0
thegrammys 0.0
throughout 5.15725702007e-05
awkward 0.000108395637728
shining 0.0
thrown 0.0
stylist 0.0
fighter 0.0
accepting 0.0
playin 0.0
applemusic 0.0
filmed 0.0
makeawish 0.0
bieber 9.16250528946e-05
remixes 0.0
toronto 0.000174002555439
capitolrecords 0.0
shazam 0.0
anthem 0.0
cosmopolitan 0.0
khloekardashian 0.0
cookin 0.0
songwriters 0.0
reveal 0.0
stands 9.03145973772e-05
spotify 0.0
phvegas 0.0
rocked 6.83169627418e-05
glasses 0.0
iambeckyg 0.0
relive 0.0
acoustic 0.0
announce 7.55655503435e-05
although 0.0
isaacfromct 0.0
shampoo 0.0
interactive 0.0
todayshow 0.0
haters 0.0
appreciation 7.05006268199e-05
floating 0.0
shondarhimes 0.0
showtime 0.0
premiere 0.000106046147757
broadway 7.28418039051e-05
makeup 0.0
starring 0.0
newest 0.000525323375945
designed 5.01841026316e-05
arianagrande 0.0
aladdin 0.0
swaggy 0.0
owning 0.0
producer 0.0
legendary 5.20489078299e-05
jasmine 0.0
costumes 0.000332424586418
square 0.0
emojis 0.0
jessica 0.0
magical 0.0
thedoctorluke 0.0
thirsty 0.0
therealjuicyj 0.0
symbols 0.0
privilege 0.0
spiral 0.0
retrograde 0.0
footage 0.0
theirs 0.0
universes 0.0
remembering 5.31883147749e-05
floated 0.000127296736899
construction 0.0
consciousness 0.0
delights 0.0
explodes 0.0
submissions 0.0
pleased 0.0
shredding 0.0
filters 8.90260849016e-05
weasel 0.0
reflective 0.000108211441396
firework 0.0
islands 0.0
interstellar 0.0
bubble 0.0
customs 0.0
festive 0.0
window 0.0
senator 0.0
slightly 0.000112268518839
therealbuzz 0.0
printing 8.57051145977e-05
snowflake 0.0
applications 7.4715579478e-05
elephant 0.0
fifteen 0.0
editions 0.0
newspaper 0.0
rainbow 0.0
unlimited 8.52572486548e-05
sirius 0.0
matthew 0.0
affected 5.01841026316e-05
capturing 0.0
canyon 0.0
rivers 0.0
spoken 0.0
accidentally 0.0
bizarre 0.0
dolphin 0.0
successfully 7.13589084931e-05
liquid 0.0
graffiti 0.0
swallowing 0.0
messenger 0.0
heroes 0.0
disturbing 0.0
graduates 0.0
rewrite 0.0
describe 4.71581224974e-05
hollywood 0.0
equality 0.0
announcement 4.17233338076e-05
breakout 9.69020045159e-05
dreaming 7.22404947564e-05
animation 0.0
calendar 6.34250588616e-05
circling 0.0
garden 9.71279193029e-05
enhanced 0.0
journalists 0.0
stirring 0.0
nominations 0.0
yelling 0.000147530354024
teachers 0.0
chapter 5.41978188638e-05
napoleon 0.0
aliens 0.0
subjects 0.0
revolution 0.0
mountains 7.77460457291e-05
wonderland 0.0
storage 0.0
crystals 0.0
circuit 0.0
invitation 6.83169627418e-05
kettle 0.0
adjective 0.0
woodpecker 0.0
operate 0.0
exhibition 8.3525117141e-05
learnt 0.0
nomination 5.91745856099e-05
madonna 0.0
questioning 0.0
unplug 0.0
initiatives 9.69020045159e-05
switzerland 0.0
represents 0.0
throat 0.0
touchdown 0.0
desire 0.0
forced 0.0
swedish 0.0
hundred 0.0
prompts 0.0
rainbows 0.0
creates 0.0
oxford 0.0
balloons 0.0
liverpool 0.0
recreate 0.0
glorious 0.0
newton 0.0
creature 0.0
finalist 8.52572486548e-05
scouts 0.0
treading 0.0
tragedy 5.33544008969e-05
nottingham 0.0
debacle 0.0
legends 0.0
noises 0.0
addiction 0.0
survived 0.0
idioms 0.0
greeted 0.0
basics 0.0
masses 0.0
confirm 0.0
cadence 0.0
spaghetti 0.0
prepare 0.0
calendars 0.0
narrative 0.0
application 0.0
octopus 0.0
drumming 0.0
bloody 0.0
confetti 0.0
translate 0.0
birmingham 0.0
singles 8.80420772931e-05
completes 0.0
laptop 0.0
obvious 0.0
darling 0.0
deserving 0.0
miller 0.000117557215891
ordered 9.57068662728e-05
feelin 0.0
alicia 0.0
picasso 0.0
recipe 0.0
alphabetical 0.0
butterfly 0.0
timothy 0.0
mancini 0.0
untold 0.000111036680452
directed 0.0
hacked 0.000190275176585
admits 7.13589084931e-05
clocks 9.16250528946e-05
nugget 0.000114131379693
cnnopinion 0.0
grabbed 0.0
russia 0.0
surprises 0.0
waterfalls 0.0
olympic 0.000180558559858
magnificent 0.0
casual 0.000158378768121
assume 5.33544008969e-05
relief 5.40273735062e-05
subscribe 0.0
landslide 0.0
telegraph 0.0
standby 0.0
admitting 0.0
complacency 0.0
voices 0.0
sounding 7.28418039051e-05
douglas 0.0
democracy 0.0
locals 0.0
gossip 0.0
nickname 0.000166212293209
subtle 0.0
embarrassed 0.0
ireland 0.0
mornings 0.0
democratic 0.0
impressions 0.0
outgoing 0.0
treasury 0.0
refugees 0.0
unveiling 0.0
listing 0.0
deliver 0.0
negotiating 0.000233238137187
roller 0.0
prosperous 0.0
desperate 6.18733071869e-05
acknowledgement 0.0
executive 0.0
republicans 0.0
weapons 0.0
dropping 0.0
meaningful 0.0
nightmare 0.00011299818418
goodies 0.0
scandalous 0.0
rhetoric 7.63641450052e-05
divisive 0.0
vision 0.0
confirmation 0.0
throne 0.0
records 0.0
quoting 0.0
impatient 0.0
refugee 0.0
texted 0.0
exposed 0.0
stoked 7.40788969992e-05
priority 0.0
freedoms 0.0
notorious 0.0
empowering 0.0
unconstitutional 0.0
turkish 0.0
concerned 0.0
realdonaldtrump 0.0
goodwill 0.0
imagined 0.0
belfast 0.0
sleeve 0.000276512328283
basement 0.0
preposterous 0.0
griffith 0.0
timeless 0.0
truman 0.0
intended 0.0
inappropriate 0.0
industries 0.0
responsibility 0.0
documentaries 0.0
vulnerable 0.0
respectful 0.0
markets 7.107028645e-05
claire 0.0
nuggets 0.0
boards 7.67041456623e-05
sequins 0.0
capitol 0.0
technical 6.80540482198e-05
applying 0.0
guitar 0.00013878088241
donating 0.000352671647673
continually 0.0
norway 0.0
applause 0.0
ballot 0.0
finely 0.0
shakes 0.0
varied 0.0
proverb 0.0
vibrant 0.0
flower 0.0
survives 0.0
fierce 0.0
shopped 0.0
sincerely 7.73950178123e-05
apology 0.0
sweaty 0.0
conspiracies 0.0
climbing 0.0
relaxed 0.0
encourage 0.0
funnyordie 0.0
essentials 0.0
jimmykimmellive 0.0
rejectedjokes 0.0
protesting 0.0
releasing 0.0
cleaner 8.75610349234e-05
preferred 0.0
incarceration 0.0
jkcorden 0.0
koppel 0.0
bikini 0.0
transparency 0.0
kamalaharris 0.0
nutshell 0.0
walled 0.0
floored 0.0
plotting 0.0
gandhi 0.0
vilify 0.0
meditate 0.0
violent 0.0
preschool 0.0
rhythm 0.0
matching 0.0
senwarren 0.0
venezuela 0.0
candle 0.0
donates 0.0
peacefully 0.0
chelseahandler 0.0
experiencing 0.0
sarabareilles 0.0
haunting 0.0
constitution 0.0
explode 0.0
deeper 0.0
empathy 0.0
mrgaryhuang 0.0
scored 0.000394673825119
charitable 0.0
perfume 0.0
giraffe 0.0
noticing 0.0
noodle 0.0
wrongly 0.0
marshmallow 0.0
fraudulent 0.0
everytime 0.0
helluva 0.0
therapists 0.0
tangible 0.0
sarahksilverman 0.0
johnfugelsang 0.0
exceptional 0.0
miracle 6.72778415502e-05
avocado 0.0
snacks 0.0
spelled 0.0
parental 0.0
superbowl 8.95295022114e-05
shoulders 8.43796339854e-05
valentine 0.000108054747012
glitter 0.0
stocking 0.0
poehler 0.0
thumbs 6.80540482198e-05
tinatbh 0.0
educational 0.0
voicemail 0.0
thetweetofgod 0.0
esteem 0.0
teaches 0.0
goodbye 5.11031196223e-05
reminding 0.0
supplies 0.0
ryanseacrest 0.0
okmagazine 0.0
shoots 0.000152055335469
bowing 0.0
jennyslate 0.0
craigyferg 0.0
masterpiece 7.25397573915e-05
sneaky 0.0
nashville 7.07842073653e-05
chronicles 0.0
potato 0.0
freakin 0.0
perezhilton 9.16250528946e-05
unethical 0.0
paparazzi 0.0
mantra 0.0
consuming 0.0
unauthorized 0.0
vanityfair 0.0
stalking 0.0
shoulda 0.0
yeppers 0.0
sacred 0.0
existed 0.0
earned 0.000172288564622
woulda 0.000102442175138
ellenpage 0.0
choker 0.0
contribute 6.77932454839e-05
mustache 0.000375460941167
washes 0.0
creeps 0.0
champion 0.000258652871201
auntie 0.0
magazines 0.0
waited 0.0
conscious 0.0
cracker 0.0
denmark 0.0
potion 0.0
windex 0.0
scarfing 0.0
ladygaga 0.0
purposely 0.0
pretending 6.6519758103e-05
luckiest 0.0
mascara 0.0
tastes 0.0
gardening 0.0
leashes 0.0
hippie 0.0
womensmarch 0.0
reunited 0.0
clique 0.0
premiering 0.0
rollingstone 0.0
childrensla 0.0
dollywood 0.0
godmother 0.0
eltonofficial 0.0
vmagazine 0.0
donorschoose 0.000153224094993
yesssssss 0.0
bettemidler 0.0
rehearsing 0.0
trevorproject 0.0
unicef 0.0
ellemagazine 0.0
yasssss 0.0
acceptance 7.05006268199e-05
solidarity 0.0
pharrell 0.0
greece 0.0
papermagazine 0.0
johnmayer 0.0
lipstick 0.0
tumblr 0.0
coldplay 0.0
colorful 9.62715038107e-05
translifeline 0.0
newsstands 0.0
feminist 0.0
pitchfork 0.0
labels 0.0
jenner 0.0
arkansas 0.0
beanie 0.0
sparkly 0.0
moschino 0.0
britneyspears 0.0
itsjeremyscott 0.0
nickiminaj 0.0
appstore 0.0
poetry 0.0
puttin 0.0
rubbed 0.0
shrine 0.0
skyferreira 0.0
freaking 0.0
besties 0.0
chanel 0.0
bedazzled 0.0
rubber 8.22840833022e-05
kendricklamar 0.0
popstar 0.0
sosadtoday 0.0
copenhagen 0.0
lenadunham 0.0
wearin 0.0
stoned 0.0
facetime 0.0
barclays 0.000103206204884
meditation 0.0
harpersbazaarus 0.0
stared 0.0
ritual 0.0
iconapop 0.0
doubted 0.000109126143181
staples 0.0
anaheim 0.0
jingle 0.0
tacoma 0.0
rehearsals 0.0
treadmill 0.0
metamorphosis 0.0
dental 0.0
jodyhighroller 0.0
versace 0.0
werking 0.0
couture 0.000111036680452
eggplant 0.0
bangin 0.0
cardigans 0.0
obnoxious 0.0
bestie 0.0
teganandsara 0.0
barrel 0.0
dedicating 0.0
jefferson 0.0
pumpkin 0.000225115993179
derekblasberg 0.0
glamourmag 0.0
presale 9.8200968372e-05
mtvstyle 0.0
deluxe 0.0
mtvema 0.0
reggae 0.0
azealiabanks 0.0
nominating 0.0
sailor 0.0
mornin 0.0
itunesmusic 0.0
bananas 0.0
lordemusic 0.0
vietnam 0.0
milwaukee 0.0
neworleans 0.0
circus 0.0
strolling 0.0
rapids 0.0
collegegameday 0.0
aaaaand 0.0
godfather 0.0
bestow 0.0
allison 0.0
rockthevote 0.0
birbigs 0.0
lucille 0.0
louder 0.0
farmers 0.0
shaved 9.62715038107e-05
niagara 0.0
realmattlucas 0.0
ferguson 0.0
painful 0.0
exchange 0.0
nickkroll 0.0
edmonton 0.000102442175138
mickey 0.0
angelenos 0.0
pooping 0.0
located 8.80420772931e-05
onslaught 0.0
finalists 0.0
bumped 0.0
sherlock 0.0
stockholm 0.0
casually 0.0
jjwatt 0.0
itstonybennett 0.0
mariolopezextra 0.0
klgandhoda 0.0
entrance 0.0
calgary 0.0
bowling 0.0
winnipeg 0.000349114686271
cheeto 0.0
gloriasteinem 0.0
feather 0.0
nathan 0.0
smelling 0.0
narnia 0.0
llamas 0.0
actuallynph 0.0
mourning 0.0
obsession 0.0
chilled 0.0
medically 0.0
hyperloop 0.0
aussie 0.0
flaring 0.0
eyeballs 0.0
stuffing 0.0
pitched 0.0
condiments 0.0
relatable 0.0
olivia 0.000185451656693
painted 0.0
mykonos 0.0
eyebrow 0.0
capitalcities 0.0
jackpot 0.0
hipster 0.0
sweating 0.0
restaurants 0.0
superfan 0.0
restraint 0.0
craziest 0.0
catheter 0.0
delivers 0.0
kanyewest 0.000101695710859
paints 0.0
dissect 0.0
billboards 0.0
milano 0.0
bjnovak 0.0
snapping 0.0
croissant 0.0
repjohnlewis 0.0
blklivesmatter 0.0
mydaughtersarmy 0.0
huddled 0.0
yearning 0.0
thereaibanksy 0.0
affordable 0.0
foodie 0.0
colombia 0.0
peeled 0.0
shootings 0.0
playground 0.0
breaky 0.0
photoshoot 0.000200504745055
smokin 0.0
accents 0.0
sweats 0.0
postmates 0.0
armband 0.0
unconscious 0.0
maddow 0.0
aquarium 0.0
holler 0.0
photoshop 0.0
robbie 0.000101695710859
espnmag 0.0
laundry 0.0
examining 0.0
zealand 0.0
stuntin 0.0
hehehe 0.0
nostalgia 0.0
buttons 0.0
slaying 0.0
monument 0.0
bringin 0.0
lining 0.0
muchas 0.0
gracias 0.0
madame 0.0
illustrated 0.0
boxers 0.0
grazie 0.0
winters 0.0
plastic 0.0
unbreakable 0.0
licking 0.0
cheeky 0.0
twerking 0.0
danish 0.000195089982383
drummer 0.0
florence 0.0
revoir 0.0
resume 7.8822490145e-05
dodger 0.0
brazilians 0.0
grimezsz 0.0
crocodile 0.0
hahahahahaha 0.0
parisians 0.0
taipei 0.0
taiwan 0.0
bangkok 0.0
uploaded 0.0
manila 0.0
hamburg 0.0
curating 0.0
aaaand 0.0
skating 0.00122930610165
brisbane 0.0
googleplay 0.0
raincoat 0.0
glastofest 0.0
vienna 0.000288814511432
burning 0.0
jamming 0.0
reaches 0.0
subtitles 0.0
wristband 0.0
barcelona 8.10887422071e-05
credits 0.0
dreamers 0.0
bogota 0.0
bursting 0.0
brunomars 0.0
beyoncé 0.0
subscribers 0.0
unlock 0.0
onedirection 0.0
amazonmusic 0.0
snippets 0.0
preorder 0.0
rehearse 0.0
bahnhof 0.0
delorean 0.0
fragrance 0.0
curate 0.0
samsmithworld 0.0
guitars 0.0
storyline 0.0
registering 0.0
beatsbydre 0.0
panama 0.0
celestial 0.0
orchestra 0.0
finland 0.0
climbed 0.0
topping 0.0
méxico 0.0
vasconcelos 0.0
leicester 0.0
itunesfestival 0.0
pondering 0.0
millennials 0.0
struck 0.0
watermelon 0.0
benefited 0.0
sophisticated 0.0
couples 0.0
villain 8.70870153215e-05
mindful 0.0
catholic 0.000258477733808
airline 0.0
secretly 0.0
playlists 0.0
veggie 0.0
receipts 0.0
foremost 0.0
bagpipe 0.0
drifting 0.0
trader 0.0
influenced 0.0
moscow 0.0
cobain 0.0
reaper 0.0
commune 0.0
handshake 9.38652352917e-05
despair 0.0
silicon 0.0
investing 0.0
construct 0.0
garland 0.0
coachella 0.0
offline 0.0
realisation 0.0
payback 0.0
educate 0.0
alliances 0.0
etched 0.0
momentarily 0.0
pronoun 0.0
lenses 0.0
validated 0.0
authenticity 0.0
choreographed 0.0
pokemon 0.000100966022487
disneyworld 0.0
patriotic 0.0
embody 0.0
snickers 0.0
impactful 0.0
refocus 0.0
eminem 0.0
mahatma 0.0
ecstatic 0.0
snfonnbc 0.0
avenue 0.0
picchu 0.0
doubters 0.0
beverly 0.0
intensity 0.0
outtake 0.0
temple 0.0
purchased 0.0
fountain 0.0
punched 0.0
goldfish 0.0
comparable 0.0
buyers 0.0
barbara 0.0
corybooker 0.0
listens 0.0
timeout 0.000107321803114
inducing 0.0
signage 0.0
penthouse 0.0
ahahaha 0.0
phenom 0.0
brilliantly 0.0
siphoning 0.0
herstory 0.0
prostitute 0.0
survivors 0.0
courageous 0.0
cruelty 0.0
margot 0.0
xenophobic 0.0
mcginley 0.0
yorkshire 0.0
chants 0.000222073360903
alancarr 0.0
chained 0.0
skillz 0.000254593473799
debunked 0.0
floods 0.0
fleetwood 0.0
cheesecake 0.0
adidas 0.000209580820201
uneven 0.0
raging 0.0
connections 0.0
headlining 0.000103206204884
devhynes 0.0
charli_xcx 0.0
shawnmendes 0.0
tavitulle 0.0
bahjournalist 0.0
tyleroakley 0.0
marquee 0.0
grease 0.0
screenshots 0.0
ddlovato 0.0
chattyman 0.0
grimmers 0.0
vevo_uk 0.0
bonniemckee 0.0
electrifying 0.0
idolator 0.0
onairromeo 0.0
godven 0.0
lookie 0.0
preordered 0.0
elvisduran 0.0
shanghai 9.44502919501e-05
tripped 0.0
konnichiwa 0.0
etnad_olegnad 0.0
unannounced 0.0
swedes 0.0
cinderella 0.0
slipper 0.0
jessesaintjohn 0.0
adorbs 0.0
onesies 0.0
jahnsuxx 0.0
walgreens 0.0
aphrodite 0.0
danceonfox 0.0
difficulties 0.0
mermaids 0.0
antique 0.0
girlshbo 0.0
yaaaaasss 0.0
lifesaving 0.0
queens 7.60276677345e-05
yaaaas 0.0
rollin 0.000204884350276
bestest 0.0
cleanse 0.0
iamtovelo 0.0
glamour 0.0
emelisande 0.0
lashes 0.0
austrian 0.0028234500845
magritte 0.0
misogynoir 0.0
litter 0.0
spiritual 0.0
preaching 0.0
adelaide 0.0
sheffield 0.0
impending 0.0
starve 0.0
excess 0.0
conciousness 0.0
vitamins 0.0
generator 0.0
purposefully 0.0
profiles 0.0
petals 0.0
persist 0.0
alexis 0.0
covergirl 0.0
sneezed 0.0
cushion 0.0
demconvention 0.0
directv 0.0
flo_tweet 0.0
billclinton 0.0
grounded 0.0
sunrise 0.0
fightin 0.0
sagekotsenburg 0.0
pwease 0.0
sadder 0.0
waterfall 0.0
sighting 0.0
firsts 0.0
muller 0.0
burritos 0.0
bungee 0.0
potting 0.0
dipping 0.0
closets 0.0
scratched 0.00012005131799
decorating 0.0
summers 0.000216422882792
havana 0.0
fresher 0.0
mowing 0.000143883125401
invading 0.0
addict 0.0
aesthetics 0.0
footwear 0.0
protector 0.0
hammock 0.0
repurpose 0.0
mishap 0.0
hamster 0.000124202037658
cellar 0.0
groove 0.0
mentored 0.0
exaggerate 0.0
scraping 0.0
apropos 0.0
trolled 0.0
jonlovett 0.0
rheabutcher 0.0
sickening 0.0
flustered 0.0
compiled 0.0
shirley 0.0
subtweet 0.0
pantsuit 0.0
patting 0.0
atrocious 0.0
amoeba 0.0
platter 0.0
aficionado 0.0
bearer 0.0
manifest 0.0
transformation 0.0
thighs 0.0
tapper 0.0
foaming 0.0
sophie 0.0
sabbath 0.0
vibrations 0.0
nutella 0.0
wilder 0.0
distractions 0.0
stripping 0.0
downloading 0.0
judith 0.0
crossroads 0.0
parsons 0.0
stella 0.0
narcissism 0.0
fawcett 0.0
trainers 0.000100252372528
surrounding 0.0
longtime 0.0
frosting 0.0
laurent 0.0
savory 0.0
acupuncture 0.0
cancelling 0.0
nutcracker 0.0
ballet 0.0
tempura 0.0
burner 0.0
voguemagazine 0.0
lagged 0.0
cuttlefish 0.0
passwords 0.0
funfetti 0.0
anagasteyer 0.0
gabbana 0.0
budapest 0.0
montage 0.0
crowns 0.0
scheduling 0.0
possessed 0.0
syncing 0.0
creatively 0.0
hieroglyphics 0.0
halftimes 0.0
floppy 0.0
nessie 0.0
feathers 0.0
kaceymusgraves 0.0
roaring 0.0
rightful 0.0
balconies 0.0
prodigy 0.0
raquin 0.0
gianni 0.0
monsieuradi 0.0
drowned 0.0
tropicana 0.0
diesel 0.000419161640403
shabbat 0.0
voiceless 0.0
passover 0.0
elevating 0.0
traumatic 0.0
dreamer 0.0
iwillharness 0.0
classrooms 0.0
eligibility 0.0
counselors 0.0
wainwright 0.0
moveon 0.0
runaway 0.0
baghdad 0.0
zaralarsson 0.0
snooze 0.0
iggyazalea 0.0
harviikills 0.0
bolognese 0.0
babysitting 0.0
mohegan 0.0
hooters 0.0
crusts 0.0
tracksuit 0.0
cupcake 0.0
xfactor 0.0
vitamin 0.0
lichtenstein 0.0
concourse 0.0
hitchcock 0.0
teller 0.000452266807268
pastels 0.0
remnants 0.0
banger 0.0
lyrically 0.0
boogers 0.0
ritaora 0.0
bumpin 0.0
dabbed 0.0
sleepin 0.0
tinashe 0.0
octaviaspencer 0.0
linder 0.0
musicallyapp 0.0
scavenger 0.0
sanging 0.0
corinthians 0.0
hollywoodbowl 0.0
kraken 0.0
discontinue 0.0
cypress 0.0
schooling 0.0
maritime 0.0
narration 0.0
zeitgeist 0.0
sampler 0.0
pseudo 0.0
bangladesh 0.0
hungary 0.0
mumble 0.0
sisterhood 0.0
soulful 0.0
lennykravitz 0.0
londontown 0.0
andradaymusic 0.0
lipsticks 0.0
realization 0.0
unconditionally 0.0
wildfire 0.0
goldie 0.0
minnie 0.0
solitude 0.0
waddle 0.0
westworldhbo 0.0
statuesque 0.0
uncasville 0.0
demented 0.0
skyway 0.0
twentyonepilots 0.0
rejoicing 0.0
clenching 0.0
adelphia 0.0
entirety 0.0
redhourben 0.0
lakewood 0.0
drjillstein 0.0
entail 0.0
whammy 0.0
smokers 0.0
gobble 0.0
topshop 0.0
cleowade 0.0
mkives 0.0
sweetbabayjamie 0.0
marchesafashion 0.0
hamsters 0.0
gurrrl 0.0
sofifii 0.0
sumthin 0.0
nicomiz 0.0
maisonvalentino 0.0
coziest 0.0
accessorize 0.0
thejgold 0.0
peruvian 0.0
amazeballs 0.0
sendin 0.0
fantabulous 0.0
timelines 0.0
regina 0.0
slovakia 0.000141284157408
graves 0.0
embracing 0.0
larsson 0.0
cullen 0.0
psychiatric 0.0
officialadele 0.0
butters 0.0
verrrry 0.0
buttered 0.0
winged 0.0
pedialyte 0.0
topanga 0.0
armpit 0.0
kittens 0.0
dueling 0.0
eagerly 0.0
surrealist 0.0
dethroned 0.0
manolos 0.0
señorita 0.0
monterrey 0.0
parque 0.0
retiree 0.0
batches 0.0
reservations 0.000113066701817
sickos 0.0
aplusk 0.0
kirkherbstreit 0.0
fanbases 0.0
indexing 0.0
chuckles 0.0
incorporated 0.0
washboard 0.0
earbuds 0.0
pantone 0.0
knotts 0.0
dismaland 0.0
pollock 0.0
iamkidpresident 0.0
mariah 0.0
teevee 0.0
santorini 0.0
appalachian 0.0
sunburnt 0.0
caliente 0.0
juicery 0.0
karlihenriquez 0.0
trillest 0.0
tommorrow 0.0
crumpets 0.0
fishin 0.0
grillin 0.0
jambalaya 0.0
pepperoni 0.0
cashew 0.0
graceland 0.0
pussies 0.0
delicately 0.0
eraser 0.0
choreo 0.0
snatched 0.000146708364456
elliptical 0.0
mooore 0.0
unborn 0.0
georgina 0.0
stalkers 0.0
sallykohn 0.0
expectancy 0.0
phillipines 0.0
appstoregames 0.0
wilkinson 0.0
puddings 0.0
loveland 0.0
spaced 0.0
shanny 0.0
dripping 0.0
gerber 0.0
shakey 0.000499168356598
weaves 0.0
unbeatable 0.0
linguist 0.0
prosthetics 0.0
battleship 0.0
serotonin 0.0
machiavellian 0.0
girlies 0.0
guangzhou 0.0
debuting 0.0
dissecting 0.0
warped 0.0
luckyjess 0.0
ermahgerd 0.0
fabulousness 0.0
elliegoulding 0.0
activewear 0.0
yelyahwilliams 0.0
prismatic 0.0
evaluations 0.0
skywalk 0.0
sparklers 0.0
palettes 0.0
gemmaanningram 0.0
trueeee 0.0
invisalign 0.0
pounded 0.0
lolgop 0.0
procession 0.0
stanning 0.0
squeals 0.0
continual 0.0
luminary 0.0
cummin 0.0
shaves 0.0
epixhd 0.0
preacher 0.0
boogiecousins 0.0
changers 0.0
autismspeaks 0.0
massaged 0.0
psssssst 0.0
literati 0.0
utilization 0.0
endangerment 0.0
purposeful 0.0
unlabeled 0.0
undiagnosed 0.0
snotty 0.0
gallops 0.0
slovenia 0.000136637706492
sequin 0.0
akerlund 0.0
jumbotron 0.0
edibles 0.0
knowles 0.0
caeser 0.0
thehollywoodbowl 0.0
elvispresley 0.0
adoring 0.0
ageist 0.0
thérèse 0.0
confessed 0.0
blackvoices 0.0
patties 0.0
graphically 0.0
wildflowers 0.0
groundhogs 0.0
eataly 0.0
poodles 0.0
hillaryforia 0.0
roadshow 0.0
sweety 0.0
boppin 0.0
bettywho 0.0
johnnywujek 0.0
earring 0.0
itsbennyblanco 0.0
curitiba 0.0
purrfect 0.0
shellback 0.0
chokers 0.0
hairbrush 0.0
hakuna 0.0
matata 0.0
hazing 0.0
mathew 0.0
aegean 0.0
lullaby 0.0
musiciansoncall 0.0
headpiece 0.0
morsel 0.0
whistled 0.0
conquest 0.0
viceland 0.0
lambily 0.0
scalped 0.0
graced 0.0
emblazoned 0.0
hrclosangeles 0.0
kawaii 0.0
glittery 0.0
wonderlandmag 0.0
jumpsmokers 0.0
radiodotcom 0.0
missyfranklin 0.0
pleaaaaase 0.0
lilbthebasedgod 0.0
waaaay 0.0
flossy 0.0
aria_official 0.0
berliners 0.0
matriarchy 0.0
cornered 0.0
limping 0.0
peasant 0.0
feasibly 0.0
waaaaay 0.0
slayyy 0.0
fashionistas 0.0
sangin 0.0
worldstarfunny 0.0
pliers 0.0
babyanimalpics 0.0
mediation 0.0
quests 0.0
aaaaaaah 0.0
honked 0.0
rauschenberg 0.0
whitneymuseum 0.0
lonsdale 0.0
transcendental 0.0
roarin 0.0
facetune 0.0
fausto 0.0
herning 0.0
cazzette 0.0
annnnnnnnnd 0.0
shinier 0.0
giambattista 0.0
katys_teddybear 0.0
gnight 0.0
katheryn 0.0
psychoanalysis 0.0
bckgrnd 0.0
kingman 0.0
gracevanderwaal 0.0
fecking 0.0
ihrcountdown 0.0
stubbies 0.0
xfactor_italia 0.0
aaronpauley 0.0
purity_ring 0.0
scorpios 0.0
ayyyye 0.0
capitalizes 0.0
flamin 0.0
motherfucking 0.0
jingled 0.0
pharrellhat 0.0
ontarioglow 0.0
teached 0.0
umusic 0.0
auroramusic 0.0
dailymendeslife 0.0
soloing 0.000179554809405
universalse 0.0
dustinkloeppel 0.0
robynkonichiwa 0.0
charli 0.0
lonelydot 0.0
adamselman 0.0
sorrenti 0.0
offish 0.0
vinoodh 0.0
guitarists 0.0
cocking 0.0
cabbages 0.0
amelia_libman 0.0
flutter 0.0
lolita 0.0
kingladygaga 0.0
breakthecycledv 0.0
howbow 0.0
curveballs 0.0
tamagotchi 0.0
jarryd 0.0
alliseeisgold 0.0
thebroadmuseum 0.0
sarahsowitty 0.0
brillz 0.0
jackgarratt 0.0
markryden 0.0
duffscakemix 0.0
sanrio 0.0
theniceguyla 0.0
trills 0.0
susangkomen 0.0
faustopuglisi 0.0
gurlll 0.0
cheesecakes 0.0
scorpio 0.0
oblivia 0.0
skipmarley 0.0
correcto 0.0
jessirklein 0.0
unpatr 0.0
squish 0.0
greg_wells 0.0
onlyleah 0.0
gittin 0.0
popstars 0.0
krafts 0.0
bouche 0.0
problemo 0.0
wheezing 0.0
patmcgrathreal 0.0
cienega 0.0
thundering 0.0
nastialiukin 0.0
janell 0.0
katelyntarver 0.0
miamoretti 0.0
missoni 0.0
dannymoonsworld 0.0
mrchrismcmillan 0.0
madge_freak 0.0
woridstarcomedy 0.0
ikissedasoldier 0.0
kpezandchez 0.0
perrysoldier 0.0
emilynotchez 0.0
iickmekaty 0.0
basicallyadam 0.0
katysangelegg 0.0
nicolasjebran 0.0
xchadballx 0.0
scott_myrick 0.0
lockoir 0.0
shannonwoodward 0.0
calluses 0.0
chamomile 0.0
trollin 0.0
sleighing 0.0
chestercheetah 0.0
royksopp 0.0
scottsimonswvla 0.0
sirenscaiiing 0.0
slowdownkaty 0.0
chefantoniopark 0.0
garnished 0.0
endive 0.0
mdmolinari 0.0
prezzy 0.0
motioning 0.0
hernameisbanks 0.0
rockcampla 0.0
jenniefinch 0.0
getglucky 0.0
stendhal 0.0
ryanphillippe 0.0
hotncolds 0.0
kpcollections 0.0
katie_wignall 0.0
katysdrugx 0.0
evrenperry 0.0
katycatwendy 0.0
yungskeeter 0.0
sarahhudsonuvs 0.0
mothern 0.0
oliverheldens 0.0
marrymemargot 0.0
katyperrylately 0.0
kewlest 0.0
katyshellokitty 0.0
pqgerry 0.0
rasarioatelier 0.0
anakhouri 0.0
romaneperry 0.0
hot_chip 0.0
agador 0.0
freddietinkles 0.0
cynthialovely 0.0
augustgettyatelier 0.0
tbsnetworks 0.0
ronyalwin 0.0
justinandersoncolor 0.0
mmillerrider 0.0
jpgaultier 0.0
harharharhar 0.0
iikeanangel 0.0
vonnypoo 0.0
jcoopkp 0.0
itzmero 0.0
katysprismlight 0.0
hatérs 0.0
awkwardaya 0.0
katysredskittle 0.0
tiedye_princess 0.0
adelshahal 0.0
marinadiamandis 0.0
samadizayee 0.0
itsslatykaty 0.0
johnlordperry 0.0
nuggetperry 0.0
kthnkzbye 0.0
teamkpbrasil 0.0
twenagedream 0.0
ashleyegreer 0.0
perryllover 0.0
perry_slays 0.0
_andresgalvis 0.0
poplitics 0.0
likerotica 0.0
sweetxjaureguix 0.0
jessiambriz 0.0
perryncolds 0.0
pwideawake 0.0
brunastrait_ 0.0
anafalqueto 0.0
pessoalmente 0.0
mark_hodson_ 0.0
sumtxkid 0.0
arpoador 0.0
katysmychampion 0.0
amnattg 0.0
osullivanluke 0.0
stephiruth 0.0
katy_pizza_bae 0.0
kpcatt 0.0
pedroeugeniio 0.0
gugs_prismatic 0.0
zeeusmtz 0.0
legendarycold 0.0
robynxkatheryn 0.0
écouter 0.0
energyberlin 0.0
karysjones 0.0
lilzariya 0.0
puroland 0.0
pavlovitz 0.0
dreamhampton 0.0
prismsperry 0.0
perrysmic 0.0
focusonreid 0.0
tonyatalterian 0.0
makeup_man 0.0
wtfkates 0.0
sella_sandra 0.0
katycute_ 0.0
caitsperry 0.0
katyperryforum 0.0
radiantjareau 0.0
lillysgomez 0.0
katycatsweden 0.0
perryicecream 0.0
xamyrosex 0.0
wtvrlara 0.0
bijanstephen 0.0
ameliashowalter 0.0
screamkng 0.0
tvmcgee 0.0
liiife 0.0
itskatcombs 0.0
yaaaaaasssssssssss 0.0
katysmyhabibi 0.0
skottpeace 0.0
ferras 0.0
kweens 0.0
habibi 0.0
orlandobloom 0.0
huckchinn 0.0
katycatkenzie 0.0
matarazzo 0.0
fkatwigor 0.0
perryschild 0.0
hotxcolds 0.0
maddisonxperry 0.0
akaruikaty 0.0
chillinlaidback 0.0
erryone 0.0
chrisanokute 0.0
beyelite 0.0
kuntyewest 0.0
chiroprac 0.0
katyperryrises 0.0
godneybjs 0.0
liquoronurlips 0.0
katystumblrr 0.0
holiestkaty 0.0
hollykittykaty 0.0
katysprincess 0.0
katysdonut 0.0
carlythekatycat 0.0
katycatsophia 0.0
fridaaperry 0.0
iegendarylovers 0.0
katycatveronica 0.0
katyperryslave 0.0
hakimkharbouch 0.0
keonovak 0.0
plaaaaay 0.0
scatting 0.0
shotted 0.0
dizzycoco 0.0
fkinsnapss 0.0
junkygs 0.0
ミニチュア料理 0.0
エビフライとエビ天 0.0
adidasboosts 0.0
lilithia 0.0
cottoncandizzle 0.0
ultimatebeyhive 0.0
paramorewebnews 0.0
royale_lala 0.0
musicnews_feed 0.0
katyperryextra 0.0
greeniight 0.0
gagas_illusion 0.0
lesbiyonce 0.0
blurryhface 0.0
lordofgiraffex 0.0
ifuseekamy_ 0.0
legendarymalek 0.0
hausoframez 0.0
unstan 0.0
chioekardashian 0.0
theiife 0.0
handstomyseif 0.0
legendarylovers 0.0
gagas_fandom 0.0
thinagedream 0.0
conditionalbabe 0.0
dannysuschrist 0.0
prismdluxe 0.0
herwonkeye 0.0
camilasviews 0.0
gagalovesbey 0.0
shadykatyfacts 0.0
limalimoncia 0.0
heavymetaiovers 0.0
katyscrush 0.0
waikingonair 0.0
eduardo_katycat 0.0
katyswetdream 0.0
katherynsgod 0.0
katystddbr 0.0
katyboobies 0.0
royaityler 0.0
nothingfaiis 0.0
kathrynluck_ 0.0
prismaticiights 0.0
mendesperry 0.0
katycatghita 0.0
mark_katycat 0.0
iwasdivine 0.0
skywaterr 0.0
xjojospearsx 0.0
alwaysbeperry 0.0
skoglyrihanna 0.0
legendarydurk 0.0
halseysfirework 0.0
rainbowspatrick 0.0
katysfood 0.0
honeymoonprism 0.0
onepulsetony 0.0
butcha 0.0
okurrr 0.0
the_mpt 0.0
talaofficial 0.0
miniatures 0.0
ohmyjurassic 0.0
katysmoonlight 0.0
lilly_jnes 0.0
coco_ho 0.0
perryhumorr 0.0
yikesjonathan 0.0
rubyrankin 0.0
thealekovski 0.0
cydney_moore 0.0
truebluedeluxe 0.0
thedutchass 0.0
katyskettle 0.0
ferraseu 0.0
katyssunlight 0.0
typosqween 0.0
adoreeeperry 0.0
katyperryfrance 0.0
snowiner 0.0
_coolkatycat 0.0
nicothekatycat 0.0
adorbies 0.0
jackygerardchan 0.0
brewmystew 0.0
katyswildfire 0.0
rihftperry 0.0
theolagu 0.0
ritajoness 0.0
iitsjackie 0.0
mjjperry 0.0
jesuskylie 0.0
holyerotica 0.0
graceofkaty 0.0
redsvelvets 0.0
booyakasha 0.0
tariqterry 0.0
katycatalannah 0.0
taylxre 0.0
pacifyher 0.0
basedkatyperry 0.0
diddleurskittle 0.0
katysanalien 0.0
gagasspace 0.0
tayiorhq 0.0
givenchydress 0.0
augustryder 0.0
perrysmoschino 0.0
kittehn 0.0
katrieber 0.0
legendaryhunty 0.0
katyslegs 0.0
katyfroot 0.0
winesandlines 0.0
sam_incolour 0.0
wakingonair 0.0
drwssinup 0.0
huffdaddysays 0.0
fiwwwwine 0.0
matthewroper 0.0
emmabruhhh 0.0
gingerwesson 0.0
nicholas_sewell 0.0
perfectlyperry 0.0
bustabusta 0.0
mynameisziam 0.0
venuzszfly 0.0
katherynsus 0.0
sacredperry 0.0
thedollsftkaty 0.0
_cafajeff 0.0
debkatycat 0.0
katycats 0.0
eastonjames_ 0.0
oliviabooker_ 0.0
protecti 0.0
outrageousness 0.0
joanneprada 0.0
scuffed 0.0
catoure 0.0
blanged 0.0
tahmorrow 0.0
glukatyperrypop 0.0
jamesjoint 0.0
pressin 0.0
bourree 0.0
honeysuckle 0.0
meowings 0.0
fashun 0.0
happun 0.0
vikander 0.0
thekatyperrypopgame 0.0
karolfabianaros 0.0
nico_thekatycat 0.0
miss_lilyjames 0.0
stylinfunk 0.0
hudsontheband 0.0
jere_my 0.0
crabitat 0.0
tiersz 0.0
unrehearsed 0.0
fanclub_kp 0.0
oneofthesophies 0.0
fusterlandia 0.0
lazyblazy 0.0
katycatchloe 0.0
figali 0.0
prismaticness 0.0
titicaca 0.0
ancientaliens_ 0.0
sneezin 0.0
cristos 0.0
mallman 0.0
prismaticlife_ 0.0
ravensuxx 0.0
perrypositive 0.0
derkwhore 0.0
alekjandro 0.0
havss_ 0.0
hqzaynmaiik 0.0
thique 0.0
bbhmms 0.0
jkatharineb 0.0
jennyformica 0.0
tiiiiiight 0.0
ikissedagay 0.0
harryvuitton 0.0
aeschleahd 0.0
princessjavonda 0.0
errrythang 0.0
kooning 0.0
sugarray 0.0
empaths 0.0
goldenboyz_inc 0.0
voguejp 0.0
chickenwingguardingthemimosa 0.0
katyperrypopup 0.0
unmeasurably 0.0
transviolet 0.0
beauteous 0.0
katyskidrauhl 0.0
thooooooseee 0.0
clairesstores 0.0
nailsbymh 0.0
katysacutie 0.0
psychokatycat 0.0
kaceymusgrave 0.0
refueled 0.0
hyungsunju 0.0
okuurrrr 0.0
cholewheeler 0.0
leftshark 0.0
momchella 0.0
crotches 0.0
hookedondolls 0.0
fyuseapp 0.0
mogonoloball 0.0
atletica 0.0
katycatsclub 0.0
catacombs 0.0
poppycorn 0.0
cupped 0.0
christiania 0.0
residenz 0.0
lindseyweber 0.0
butterballface 0.0
joshlecash 0.0
myassistant 0.0
swiftschrist 0.0
snowhiteperry 0.0
emmakphughes 0.0
katyslegend 0.0
dansnierson 0.0
scressful 0.0
prismaticwitch 0.0
finnin 0.0
habibis 0.0
mophies 0.0
strongé 0.0
drumkit 0.0
anamanaguchi 0.0
gaultier 0.0
ngvmelbourne 0.0
dukedumont 0.0
legendaryasmyn 0.0
highlarious 0.0
calpurnia 0.0
waaaaait 0.0
mktfah 0.0
fwding 0.0
caseyhoops 0.0
worldstarvlne 0.0
flapfkp 0.0
bettycrocker 0.0
mexxxico 0.0
whhhhhhhhuuuuuutttt 0.0
yelletweets 0.0
gucciqxxn 0.0
luckyladyrebelettes 0.0
junglejulia 0.0
charlottes_web 0.0
istarbucksniall 0.0
katysroaaar 0.0
fiorucci 0.0
whuteva 0.0
sirdavidd 0.0
fudgery 0.0
bizquick 0.0
itsgrandtheft 0.0
grandtheft 0.0
katysfancy 0.0
ameezyyrush 0.0
mykectown 0.0
itsvalkubus 0.0
walkslikeperry 0.0
iwantperry 0.0
exausto 0.0
selfeh 0.0
aquaberry 0.0
sidepiece 0.0
versacness 0.0
iamleslii 0.0
alocalgyro 0.0
cutina 0.0
theoutslder 0.0
prism_katy_cat 0.0
katyshoodrat 0.0
thestevetisch 0.0
ronysphotobooth 0.0
schlitterbahn 0.0
kpsnosecrinkle 0.0
alwz_katycat 0.0
whykph 0.0
californiagurls 0.0
katycattt 0.0
varicose 0.0
itsbrillz 0.0
perrystiger 0.0
katysmyaura 0.0
paolablancokp 0.0
callmemargot 0.0
indiggynado 0.0
katycat 0.0
anylinden 0.0
kpkillerqueen 0.0
katyslilacwine 0.0
katypvenezuela 0.0
franzikaty 0.0
katherynelperry 0.0
doessss 0.0
katysleftarm 0.0
datingprism 0.0
_smiler_katycat 0.0
kepyterry 0.0
katycat_camille 0.0
vckatyperry 0.0
bowzerjoe 0.0
taishrox 0.0
mütter 0.0
arianperryarian 0.0
lisasigh 0.0
fridiskp 0.0
kevinruda 0.0
katyperrydaily 0.0
wakingupvegas 0.0
marlyins 0.0
drankin 0.0
herkatycat 0.0
luvhudson 0.0
yaeltsairi 0.0
felipinhoofm_ 0.0
renanmarcall 0.0
kariseperry 0.0
emojing 0.0
konnie 0.0
mcperry 0.0
iturnmycanonon 0.0
katycatelysha 0.0
andrewnavs 0.0
katycatkrystal 0.0
lovelyandlaugh 0.0
lampoonians 0.0
perrytuuda 0.0
katymyhaven 0.0
ruletheschool 0.0
cheapandchic 0.0
sically 0.0
crazyforperry 0.0
kpdaily 0.0
getonupmovie 0.0
cutetina 0.0
chimiuzz 0.0
kefali 0.0
joelkefali 0.0
siclly 0.0
mtvother 0.0
lydiaacav 0.0
prismaticperry 0.0
jwujek 0.0
adorbie 0.0
errone 0.0
kaliyah 0.0
katysweirdness 0.0
vinbiodiesel 0.0
katysfxb 0.0
katyspurrfect_ 0.0
shannonmwoodward 0.0
bippity 0.0
boppity 0.0
swiggty 0.0
swoogity 0.0
pizzarella 0.0
firewerk 0.0
katyslayed 0.0
emerald_epelman 0.0
madkatydisease 0.0
mandee 0.0
ohferras 0.0
sarahh 0.0
iaustinhunt 0.0
lanawhore 0.0
spaceykacey 0.0
crazay 0.0
elektrikpeople 0.0
visa_nz 0.0
fvckin 0.0
nathanspicer 0.0
cashcash 0.0
ashish_uk 0.0
xokatic 0.0
turnting 0.0
scorpiomystique 0.0
toddthomasnyc 0.0
kohngallery 0.0
discnt_universe 0.0
dressinkaty 0.0
lee_cook 0.0
bloodshot 0.0
yaddlizc 0.0
elnett 0.0
itsthekatycats 0.0
kelly_moritz 0.0
katyslaykaty 0.0
skintxghtjeans 0.0
socarrer 0.0
errrday 0.0
therealslacker 0.0
wendywild 0.0
welkys 0.0
sohohouse 0.0
selfing 0.0
camiilaruales 0.0
nexxxt 0.0
turrell 0.0
alliexxxxandra 0.0
surfboardt 0.0
telstra_news 0.0
juanitadele 0.0
oopskatycat 0.0
sophkatycat 0.0
katyschild 0.0
katysconverrse 0.0
katycat_leah 0.0
katycatverified 0.0
katycat_libby 0.0
katyswonk 0.0
kittless 0.0
jlrcukp 0.0
siiiiiiiiiiiiii 0.0
ermagherd 0.0
imlynsey 0.0
perrys_cherry 0.0
casemcgase 0.0
hazzaily 0.0
herses 0.0
gaypropaganda 0.0
tixforcharity 0.0
hudsons 0.0
nomers 0.0
mommacat 0.0
superlove 0.0
bonacorso 0.0
levi_leet 0.0
thinkingofbecki 0.0
cybering 0.0
pamyurin 0.0
idreamofkaty 0.0
xfactor_au 0.0
glohudsonperry 0.0
aubreyplzza 0.0
eeshhuhhayniac 0.0
bonkay 0.0
katysbum 0.0
nevillebradley 0.0
curryswift 0.0
zinepack 0.0
katykatt_suraya 0.0
sweetkatybird 0.0
yohkatheryn 0.0
cottoncandykaty 0.0
karolynadiaz 0.0
maayansharvit 0.0
theprismcess 0.0
camisp_ 0.0
lucasgaldin 0.0
prixy_mtz 0.0
niggasperry 0.0
kaksperry 0.0
zennnnaaa 0.0
katyissmurfy 0.0
dadehoward 0.0
kyledsaavedra 0.0
katysdoritos 0.0
pendejabardera 0.0
rosenilsou 0.0
hackensucks 0.0
gottabesheerio 0.0
ismaellgarcia 0.0
milegendz 0.0
alexskarev 0.0
ladycrystalb 0.0
katyspad 0.0
xcallmechrissyx 0.0
arianastylesss 0.0
jorgebaker 0.0
matty_zee 0.0
katycatzilla 0.0
adorie 0.0
meowwdison 0.0
alvin_koopa 0.0
lexyauditore 0.0
kease_it_raw 0.0
katysking 0.0
chris__kirby 0.0
katysbestfrwend 0.0
katyslildancer 0.0
sssshhh 0.0
conorhughess 0.0
tanimura 0.0
thekatycatlife 0.0
weefififookface 0.0
breakalioz 0.0
hudsonhelper 0.0
lariitaa 0.0
meeeeeooooooooowwwww 0.0
legend__dary 0.0
katyandliam 0.0
_theatrekid 0.0
babybritney 0.0
erinlorimer 0.0
_zacmoore_ 0.0
itscezzurryo 0.0
katycatskp 0.0
larissafilipo 0.0
siaylorswift 0.0
shitkittens 0.0
thefrankradical 0.0
katysprism 0.0
katytinalevine 0.0
serjeeoh 0.0
kayz_perry 0.0
katyslaysurfav 0.0
fuckyeahitskath 0.0
sweetyitosan 0.0
pickerington 0.0
verrado 0.0
retweete 0.0
jameswaterhouse 0.0
hunnah 0.0
truth_ispeak 0.0
_emilybarbarrr 0.0
nbllrrr 0.0
jmoneygraves 0.0
eaglenationnews 0.0
tauentzienstrasse 0.0
avontbh 0.0
vinnie_mate 0.0
demilovve 0.0
coolestkatycat 0.0
terri_katycat 0.0
beeeaaatttt 0.0
laurenfrancisco 0.0
victaytayp 0.0
aylajaye 0.0
iloveu 0.0
augustvaz 0.0
lizzievang_ 0.0
edsssss_ 0.0
hhhhhholly 0.0
holly_hickin 0.0
trixxx 0.0
killah 0.0
treasurefingers 0.0
最強ガール宣言 0.0
voykovic 0.0
annunaki 0.0
katyshomie_ 0.0
katyselephant 0.0
caitlynsmith 0.0
lightsperry 0.0
elizagilham 0.0
ohmyjatyfeels 0.0
junglescope 0.0
drunkskaty 0.0
malikpom 0.0
dancerlaurena 0.0
brirad 0.0
elisa_rv 0.0
moooom 0.0
pattymeagher 0.0
iwasemily 0.0
shahrzadphoto 0.0
tvjohnny 0.0
cstonethebreadwinner 0.0
katysrightboob 0.0
cyberdlck 0.0
beatforkaty 0.0
igabriiel 0.0
duuuuddddeeeee 0.0
redrum 0.0
srbuhiii 0.0
kayleighcat 0.0
applekatycat 0.0
ikatycats 0.0
wehryspencer 0.0
emilyjonesphoto 0.0
coxgabe 0.0
drugmoneyx 0.0
steven_drum 0.0
victoriacha 0.0
hashtaggin 0.0
perryandemetria 0.0
katycatfurlife 0.0
iammelissalynn 0.0
qewtie 0.0
yscheecat 0.0
slayty 0.0
katystree 0.0
katherynsboy 0.0
anapurry 0.0
nenedez 0.0
kevinn_perry 0.0
gloria_swag_ 0.0
andyamaziing 0.0
roarsana 0.0
brighthudson 0.0
fixingperry 0.0
roooooooooooooar 0.0
gretschusa 0.0
katys_cupcake 0.0
wonderation 0.0
kasek_craig 0.0
katysgurll 0.0
pepperperry_ 0.0
teamkatyperry 0.0
meandnutella 0.0
lovatokitten 0.0
katyslolly 0.0
astixxx 0.0
ravemomentz 0.0
erzaabrianto 0.0
katyperryindo 0.0
seeingdaisies 0.0
gillian_e_dubbs 0.0
samanthachazene 0.0
perryprism_ 0.0
katycompletesme 0.0
ltskatyperry 0.0
kittenscks 0.0
nihanofficial 0.0
momcat 0.0
kaytehperreh 0.0
__grazi 0.0
clairekatycat 0.0
fangurl 0.0
rrrrrrrrrrrroooooooooooooaaaaaaaaaaaaar 0.0
marispiva 0.0
mattdrobins 0.0
deihemmings 0.0
rooaaarr 0.0
katycatobsessed 0.0
katycatnick 0.0
tigerkats 0.0
kristenanzelc 0.0
taylermckellop 0.0
essesfadaperry 0.0
imjare 0.0
smganonymous 0.0
roaaaar 0.0
phuckyotweet 0.0
evvvvvverrrr 0.0
melvynmarrero 0.0
zouisashton 0.0
trillneyspears 0.0
rooooooar 0.0
fanwars 0.0
fentyncold 0.0
ttish_ 0.0
rachelacogan 0.0
makesmariana 0.0
kkaplon 0.0
rafaelmoncada 0.0
yaaaassssgrl 0.0
oioianna 0.0
katycatrazan 0.0
megaan_katycat 0.0
thekaelynn 0.0
hannahloupunton 0.0
thumbelinafairy 0.0
nic_kathryn 0.0
dannahfields 0.0
rodneybroaddus 0.0
noxisanasshole 0.0
soedesh__ 0.0
hookerofversace 0.0
thinkingofkaty_ 0.0
msgracevalerie 0.0
francfernandez 0.0
katysring 0.0
a_little_spark 0.0
laaxiss 0.0
