awesome 0.000144230494692
christmas 0.00046747867177
trying 0.0005516656003
launch 0.0
moment 0.000130505375469
wonderful 7.29030588295e-05
seeing 0.000233364564489
hanging 0.000122725752082
sounds 0.000276976662326
recommend 9.66012679828e-05
worked 0.000175467498539
direct 9.19045548863e-05
others 3.49041014288e-05
currently 7.72055371258e-05
better 0.000642058303529
please 0.00208246470011
social 0.000254468192547
anxiety 0.0
around 0.000192617491059
people 0.0012199107767
morning 0.000290488003832
traditional 0.0
general 4.15989959093e-05
damage 0.0
everything 0.000387317338442
twitter 0.0013916331978
present 3.67501633373e-05
though 0.00110908733797
friend 0.000356960094312
watched 7.29030588295e-05
beautiful 0.000132991986017
anything 0.000229619137684
previous 5.09898914418e-05
helped 0.0
updated 0.0
thinking 6.59601971565e-05
finally 0.000428741281517
caught 0.000109057796806
believe 0.00038627475328
already 0.000997876445975
couple 0.000211704132113
orlando 0.000164899388718
chance 0.000193658669221
meaning 0.0
growing 7.74177879979e-05
probably 0.000664974556983
password 8.05617139577e-05
changed 6.90572489127e-05
history 0.000199487979026
center 0.000126913748662
museum 0.00011208527809
behind 0.000128411660706
screaming 0.0
pretty 0.000362781084361
really 0.00103284623585
little 0.00028970606496
happiest 0.0
earlier 3.7766163169e-05
forget 9.81432532915e-05
someone 0.000650770218784
safety 4.67616374999e-05
program 8.98078516676e-05
things 0.000577852473176
related 0.000237260246909
visiting 0.0
available 0.000167590744287
perfect 0.000235260950479
different 0.000295224605593
search 4.31478599139e-05
connect 0.0
numbers 0.000121033111932
person 0.000388362752875
watching 0.000292058258982
exhibit 7.61772411422e-05
passed 0.0
prefer 0.000146200466531
minutes 0.000133351179708
travel 3.94617606839e-05
outside 0.000136629953422
looking 0.000257516502187
forward 0.000132633794263
agreed 0.000129810470645
raising 9.21715233805e-05
listened 0.000153438330946
afraid 0.0
impression 5.93036465176e-05
christian 0.0
profile 0.0
instant 0.0
drawing 0.000115072134322
wheels 0.0
favorite 0.000449495673796
picture 0.000171712600395
instead 0.000436231187224
appreciate 0.000189866397346
international 0.0
station 4.52930568428e-05
toddler 0.0
market 8.70323148706e-05
couldn 0.000100826121634
remember 0.000451870228183
vintage 0.0
holidays 9.21715233805e-05
friends 0.000227156423653
everyone 0.000484146673053
florida 0.00138016601601
always 0.000930984540117
months 0.00016849760871
moving 3.47158139965e-05
meeting 9.9207449153e-05
answer 0.000330691497177
sweetie 0.0
together 0.000291272064656
inside 0.000201652243268
section 9.92342221973e-05
missed 9.81432532915e-05
button 0.000160756438325
longer 0.000149016576395
enough 0.000391516126407
driving 7.89235213678e-05
building 7.25079447804e-05
enjoying 0.0
london 3.83915644118e-05
exploring 0.0
posting 0.0
amazing 0.00019313737664
attention 0.000109652297123
gordon 6.40845178274e-05
progress 0.0
tomorrow 0.000258211558961
george 0.0
feeling 3.37905939028e-05
excited 3.3699521742e-05
understand 0.000246320336682
following 3.38819251598e-05
asleep 5.95061892411e-05
learning 4.0010541828e-05
evening 3.69508072103e-05
special 0.000195231065635
secret 0.000325400831259
across 7.21152473462e-05
surprised 0.000115490978398
anymore 8.22741509827e-05
sophia 0.0
precious 0.0
rejoice 0.0
version 0.000142673970656
rather 0.000108761917171
avatar 0.0
showing 0.000103306312228
saying 0.000471793304388
tweeted 4.26632784087e-05
thoughts 0.000205499225454
exactly 0.000104712304286
except 0.000164548301965
getting 0.000677805342274
nothing 0.000193658669221
tweets 0.000249003597293
course 0.000133351179708
photos 3.90293916544e-05
looked 7.33006194208e-05
difficult 8.50865347422e-05
stages 7.9032714741e-05
office 0.000349041014288
decisions 0.0
brought 0.000178826670553
biggest 0.000166239982522
thrilled 4.91722598903e-05
something 0.000451870228183
closing 0.0
anyone 0.000325385109392
taking 0.000451870228183
recently 0.000125849552801
interesting 0.000179799489142
original 0.000114545222069
flying 4.05688674691e-05
happening 0.000105565858578
sometimes 0.000213431654823
lessons 4.67616374999e-05
village 6.47953125134e-05
stopped 3.78695542895e-05
yesterday 3.25385109392e-05
service 7.09513635663e-05
serious 6.90572489127e-05
digital 0.0
hoarder 0.0
wearing 0.000151478217158
british 4.70360230607e-05
either 0.000387074814787
second 0.000325385109392
checking 8.36649453703e-05
indeed 8.80277740411e-05
island 9.13739251689e-05
hearing 7.21152473462e-05
choose 0.000227839676815
staying 4.36398682442e-05
another 0.000450653878827
clothes 5.35854794417e-05
slowly 5.85060175325e-05
weekend 0.000130857671055
hashtag 9.51838631731e-05
delivery 5.91023736629e-05
theory 0.000158749933551
working 0.000193658669221
bigger 0.0
screen 8.72797364884e-05
riding 0.0
laughing 0.000229718886755
wanted 9.78790316017e-05
trends 7.32419365841e-05
stripes 0.0
clothing 0.0
current 3.80773408737e-05
adorable 0.0
grateful 4.2185902844e-05
friendship 0.0
family 0.000258211558961
listening 7.07594177421e-05
stream 0.0
expressions 0.0
wedding 0.000245126677685
sharing 0.0
double 3.65507657076e-05
especially 3.57653341106e-05
middle 0.000148206405501
waiting 0.000132276598871
definitely 0.000388124242207
walking 3.8708893999e-05
account 0.000643782422922
completely 3.82864811259e-05
thought 0.000520616175027
reaction 0.0
accept 0.00024751160392
simple 0.0
professional 0.000143620613734
friendly 0.0
supposed 0.000128713964544
business 0.000278478557374
absolutely 0.000276228995651
anywhere 0.0
sending 0.000262205809715
introducing 5.17787005408e-05
congrats 0.000237173476119
beauty 0.0
community 0.0
greatest 0.000211704132113
selfie 0.0
posted 0.0
saturday 3.40653708886e-05
wednesday 0.0
confused 9.40720461213e-05
expression 0.0
chicago 0.0
closest 6.16051664157e-05
relationship 8.67858430503e-05
actually 0.000892867042377
easter 4.41395345985e-05
basket 0.0
myself 0.0
argument 0.00014930032593
school 0.000590449211187
thursday 0.000103585873369
selling 4.41395345985e-05
talented 4.2423703303e-05
celebrate 3.56684926641e-05
falcon 0.00010054672933
celebrating 3.84969927994e-05
contest 0.000210338299644
experiences 0.0
students 8.55674795404e-05
internet 0.000561700059718
figure 7.72055371258e-05
opened 0.0
featuring 0.0
inspired 3.90293916544e-05
sitting 3.64515294148e-05
playing 0.000262421871639
street 0.000143061336442
points 0.000330937639208
memory 8.92942022853e-05
forever 3.64515294148e-05
imagine 0.00046747867177
problem 0.000173110413954
played 0.000288460989385
canadian 0.0
pulling 0.0
keeping 0.000108172871019
lovely 0.0
dressed 0.000104199464736
specifically 0.000192253553482
unlike 0.0
disappointed 0.000145765663329
otherwise 4.58193459274e-05
afternoon 0.0
planned 0.0
strange 4.96171110987e-05
images 0.0
noticed 0.000102292220631
notice 0.000131292172878
stretch 5.95061892411e-05
inspiration 0.0
letting 3.96801487042e-05
system 8.06887412878e-05
possibility 6.248475336e-05
almost 0.000258211558961
details 3.52840220188e-05
experience 0.000101098565226
living 0.000235896652194
weather 4.12519339866e-05
normal 4.32701568816e-05
launching 0.0
before 6.99973217877e-05
captured 6.47953125134e-05
colors 6.20419475095e-05
monday 0.000134798086968
example 0.0
realize 0.000324480848297
autographed 0.0
sleeping 0.000102606186197
authentic 0.0
science 0.000182220491647
tweeting 7.37006570411e-05
forgot 8.09128456352e-05
chasing 6.70273018051e-05
gorgeous 5.24240069955e-05
herself 0.0
happens 0.000133711380956
silence 0.0
learned 3.73558966885e-05
congratulations 3.55719424705e-05
natural 4.58193459274e-05
raised 4.2185902844e-05
babies 5.02200004637e-05
mission 4.37640576261e-05
smelled 0.0
ironic 0.0
testing 5.65945652214e-05
deleted 0.0
barely 0.0
unforgettable 0.0
forgotten 4.80152728664e-05
trouble 0.000159600130178
fantastic 0.0
loving 0.0
complete 0.000148206405501
nearly 4.2423703303e-05
spirit 0.000167329890741
launched 0.0
finding 0.0
mercury 8.70473576557e-05
stories 0.000139616405715
including 7.17249371451e-05
mature 8.80202477199e-05
stuffed 0.0
ancient 0.0
bottle 0.000201490034644
somewhere 0.000210338299644
wouldn 0.000348098196718
choice 0.000344354374093
conversation 7.84896965393e-05
making 0.000257516502187
expect 0.000116126681997
occasions 0.0
subject 0.000216385647813
flights 6.55222020239e-05
location 0.0
vacation 0.000231682151226
seriously 7.13369853282e-05
spending 8.0242865674e-05
groups 0.0
childhood 0.0
modern 9.29791545369e-05
welcome 0.000522021501876
moments 8.0242865674e-05
degrees 0.0
jacket 5.69678591388e-05
halloween 0.0
costume 0.000127702082103
totally 0.000335287296889
laughed 0.0
flight 7.74177879979e-05
kidding 0.000151577234472
regular 0.000191494151645
context 0.000272208039578
running 0.000203291550959
finished 7.72055371258e-05
strong 0.000132991986017
tracking 0.0
respond 0.0
message 3.42498709089e-05
coming 0.000160947813867
thankful 0.0
cheese 0.000306876661892
greens 0.0
issues 0.000115490978398
intolerance 0.0
happen 6.5782587554e-05
giving 0.000261010750938
turkey 0.0
excellent 0.0
limits 0.0
common 3.99000325445e-05
pressed 0.0
situation 0.000168743611376
options 5.03725086611e-05
health 0.000114232022621
insurance 0.000111359780763
change 0.000258211558961
singing 4.31478599139e-05
august 4.55551229118e-05
crying 5.0834429079e-05
mental 4.80152728664e-05
happened 0.00023781461894
demand 0.000127629802113
generally 0.0
personal 7.01869994156e-05
beyond 0.0
bruised 0.0
question 0.000329800985782
chicken 0.000185417627598
reward 0.0
tunnel 7.61772411422e-05
losing 3.97899023672e-05
respect 0.000176420110094
caption 0.0
shouldn 3.86027685629e-05
visited 0.0
reason 0.000135894067965
simply 4.03443706439e-05
darlin 0.0
audience 8.92942022853e-05
involved 7.5120749093e-05
unhappy 7.82946841874e-05
reality 3.83915644118e-05
extremely 9.37970742649e-05
without 0.000553154685966
falling 4.75919315865e-05
countdown 0.0
locations 7.68676530242e-05
timing 0.0
crabby 0.0
classic 0.000158283075958
highly 9.19045548863e-05
online 0.000173579069982
finger 5.49664629061e-05
animals 5.39251959999e-05
planets 0.0
called 0.000356960094312
delicious 0.000171468439713
almond 0.0
compliment 6.45566280297e-05
pictures 0.000122384835813
camera 0.0
pillow 7.97881123034e-05
checked 4.58193459274e-05
heading 3.83915644118e-05
theater 6.09609391413e-05
paying 4.19498509335e-05
planning 0.000125849552801
complex 5.30825514247e-05
sunday 0.000100013384781
nights 0.0
descending 0.0
traffic 0.0
opposite 0.000105833289034
through 0.000135879170528
lookout 0.0
reached 0.0
harder 0.0
random 0.0
changes 0.000119700097633
speaking 7.39016144207e-05
recorded 4.90253355369e-05
washed 8.85179773052e-05
november 8.65403137631e-05
answered 0.000152969674325
enchanted 0.0
number 0.000231484048024
adventures 0.0
eclipse 0.0
chocolate 0.000197872565549
unless 0.000159159609469
calling 0.000169409625799
mermaid 0.0001061092567
distraction 8.05617139577e-05
levels 0.0
option 9.35232749998e-05
shopping 0.0
former 4.05688674691e-05
actual 8.58093096958e-05
covers 5.22614602422e-05
mountain 5.69678591388e-05
friday 9.81432532915e-05
winner 0.0
closes 6.60161027684e-05
quality 8.34310440903e-05
father 0.000147000653349
wishes 8.41353198576e-05
hourly 0.0
matter 0.000138488331163
themselves 0.0
usually 0.000129078081218
period 0.0
parents 0.000193544469995
balance 5.02200004637e-05
publishing 0.0
mobile 0.0
woohoo 0.0
bracelets 0.0
summer 0.0
reminded 5.60426390451e-05
impressed 4.88790805451e-05
necklace 0.0
shutdown 0.00218063335966
dinner 0.000285347941313
single 0.000132991986017
packed 0.0
definition 5.30825514247e-05
energy 0.0
preview 9.19045548863e-05
monster 0.000278399451906
material 5.51433389193e-05
admission 0.0
europe 0.0
holiday 3.71527130028e-05
emotional 4.64895772685e-05
update 7.53262079255e-05
customers 0.0
messing 0.0
holding 0.000114545222069
electric 0.0
eating 0.000161377482576
outfit 0.0
picked 0.000241396249306
fabulous 5.62255621337e-05
missing 0.000103306312228
surprise 0.000103585873369
officially 0.000150652415851
french 4.14828912071e-05
global 0.0
follow 0.000194705505988
opinion 4.20676599288e-05
backwards 6.94261454703e-05
design 0.0
secrets 6.05385262682e-05
request 0.0
breaks 0.0
allows 0.0
promoting 0.0
volunteer 0.0
wondering 4.3888729298e-05
official 6.6675589854e-05
sweater 0.0
jersey 0.000217074183837
mistake 4.46471011426e-05
france 4.47752566628e-05
proper 5.13030930985e-05
ginger 0.0
peaceful 0.0
lighter 0.0
thinks 0.000112989311888
competition 0.000130919604733
hospital 4.70360230607e-05
industry 4.55551229118e-05
trending 0.0
leadership 0.0
organized 0.0
showed 4.05688674691e-05
circle 0.0
success 0.0
ladies 0.0
dreams 0.0
protect 0.000124101614703
onesie 0.0
explanation 0.0
control 0.000144230494692
coincidence 0.0
discovering 0.0
laying 0.0
invited 4.54238224622e-05
healthy 4.37640576261e-05
surgery 6.05385262682e-05
allowing 5.65945652214e-05
arrived 0.0
opening 0.000140373998831
popular 4.41395345985e-05
pleasure 4.04564228176e-05
spectacular 0.0
animal 4.84442714354e-05
luggage 0.0
wonder 0.000174993304469
matters 0.000339389626424
reader 0.0
function 0.0
marketing 0.0
connection 5.25873809622e-05
improves 0.0
benefit 4.04564228176e-05
continues 7.87062425468e-05
cuddle 0.0
routine 0.0
exciting 0.0
corner 0.0
imagination 7.72185080484e-05
sangria 0.0
mystery 0.000176110723671
spring 8.25038679732e-05
beautifully 0.0
places 7.69939855988e-05
feedback 0.0
continue 3.72541440988e-05
attend 9.71771088862e-05
creative 0.0
memories 4.41395345985e-05
female 4.30260270725e-05
grandma 6.80713910697e-05
closer 8.09128456352e-05
accent 7.05526791337e-05
beginning 0.0
sooner 0.0
everywhere 0.0
scenes 0.0
bought 0.000236770564104
wishing 4.67616374999e-05
discovered 5.37548883582e-05
remove 5.56798903813e-05
predict 6.45566280297e-05
parrot 0.0
several 0.000139468731805
teacher 0.0
passing 4.36398682442e-05
become 0.00016849760871
spread 3.68503285206e-05
netflix 0.0
season 0.00106715827411
putting 0.000135527700639
weight 0.000100440000927
outfits 0.0
notification 0.0
annoying 6.31606291696e-05
necessity 0.0
knocks 0.0
processed 0.0
necessarily 0.0
effects 0.0
lighting 0.000142848610065
headed 0.0
returns 4.32701568816e-05
expected 9.24396065689e-05
bucket 0.000182247113825
constantly 0.000119012378482
sweetest 0.0
struggling 0.0
register 0.0
transition 6.248475336e-05
flowers 0.0
sprain 0.0
savage 7.55013653326e-05
somebody 0.00028894581816
covering 4.99171405271e-05
gloves 0.0
repeat 0.0
managers 0.0
brothers 0.000197872565549
patriots 6.99844711114e-05
seahawks 0.000175060234714
player 0.000315231789527
chemistry 0.0
moonlight 9.33831708297e-05
comment 0.000166395983637
columbia 0.0
physical 0.000161264665075
kingdom 0.0
pretend 0.000282972826107
charles 0.000155336101622
fighting 0.000147000653349
rooting 0.000451896396208
donald 0.000139063220699
mexico 0.0
police 0.000166395983637
represent 0.0
president 0.000466212091443
talking 0.000291272064656
unbelievable 0.0
shrimp 0.000283716910898
giants 0.00012496950672
conference 0.000480126501936
america 0.000171712600395
everybody 0.0
houston 0.000109932925812
everyday 4.58193459274e-05
michael 7.29030588295e-05
protecting 5.75360671611e-05
unconditional 0.0
million 0.000101645775479
election 0.0
telling 0.000256552167973
correct 0.000124796987728
pulled 0.000290665628612
starbucks 7.11311256874e-05
americans 0.0
killed 7.19197956569e-05
cowboys 8.25814311583e-05
cowboy 8.01725829487e-05
coverage 8.75281152521e-05
dallas 5.32493201903e-05
coffee 4.06817073574e-05
timeline 0.00011064238972
refuse 0.000231682151226
barackobama 0.0
hillary 5.77277269254e-05
clinton 0.0
gatorade 0.000106988843645
sharper 0.0
american 0.000171249354545
deserved 4.93198597603e-05
realist 0.0
illegal 5.37548883582e-05
arizona 0.000127702082103
waffle 0.000194182942494
scared 4.73127740434e-05
pieces 9.54648519382e-05
taught 4.75919315865e-05
golden 4.35161574353e-05
straight 0.000107296002332
massage 0.0
filter 0.0
answers 8.31979918186e-05
smoking 0.0
created 3.88153714272e-05
beside 0.0
worlds 0.0
record 0.000404394260904
freddie 0.0
africa 0.0
recruiting 0.000310292960009
journey 8.38997018671e-05
snapchat 0.0
brother 0.000157412485094
prayers 0.0
trolling 0.0
hungry 5.19388151628e-05
nflnetwork 0.0
documentary 9.66012679828e-05
boston 0.00023312659592
addition 0.0
church 4.90253355369e-05
honestly 0.00124431556564
lounge 0.0
lifetime 9.74669776871e-05
captain 0.000164371668244
favorites 0.0
country 6.6675589854e-05
valley 0.0
huddle 0.0
dressing 0.0
finish 3.96801487042e-05
favourite 0.0
prayer 0.000142848610065
nominated 0.0
praying 6.62659321629e-05
insane 4.77324259691e-05
national 0.000453753318574
reform 0.0
shooting 0.000121033111932
australia 4.78735379114e-05
deserve 0.000197853844948
legend 0.0
mother 0.000107879693485
realest 0.0
creating 0.0
powerful 0.0
chilling 0.0
wisdom 0.000163324823747
breaking 0.000104147441989
parked 0.000182258818937
angeles 0.0
dollars 0.000270482059767
questions 0.000529106395482
racist 0.00011622902743
girlfriend 0.0
performance 0.0
refreshing 0.0
educated 7.08405995854e-05
reading 0.000136999483636
denver 0.0
videos 0.000207994979546
harmony 0.0
create 0.0
jordan 0.000168676686401
admire 0.000119420035917
nobody 0.000435278458886
government 0.000386405071931
politics 0.000137060887753
paradise 0.0
recover 0.0
spotted 0.0
blessing 0.0
coolest 5.71561465711e-05
banana 0.0
donate 0.000261096944612
sandwich 0.000179745447315
lookin 7.02673180087e-05
method 0.0
bullshit 0.000247291256528
slight 0.0
bringing 0.0
deserves 0.0
regret 0.000227122678395
celebs 0.0
victim 0.0
stadium 0.000109231215764
funniest 5.89023548527e-05
according 8.55674795404e-05
pumped 0.0
hamburger 0.000348672830443
heaven 0.000102292220631
honest 0.000120364298511
rolling 0.0
became 4.03443706439e-05
feature 0.0
waking 6.248475336e-05
breakfast 0.000121706602407
counting 4.58193459274e-05
signing 8.46091657747e-05
adding 0.000102292220631
awareness 0.0
kindest 0.000108823795356
trainer 0.0
facebook 0.000517929366845
insanity 8.25814311583e-05
repost 0.0
brazilian 0.0
campaign 0.0
borrow 7.35551382408e-05
scorpion 0.0
popcorn 0.0
factory 0.000131536405155
teenage 0.0
endorsement 0.0
williams 0.0
custom 6.47953125134e-05
drinks 0.0
future 0.000199487979026
angels 0.000140534636017
fingers 0.000100136426696
sister 0.0
earrings 0.0
warrior 0.0
dancing 0.0
voting 3.97899023672e-05
individuals 0.0
presence 0.0
commercial 0.000132797027644
chopped 0.0
religion 0.0
century 0.0
submit 5.58607523536e-05
serving 0.0
because 0.0
aggressive 0.000128639410142
sensitive 0.0
smiling 0.0
besides 0.0
cleveland 0.0
hometown 0.0
killing 0.0
breath 0.0
phillips 0.0
instagram 8.95505133257e-05
sharks 0.0
cousin 0.000253556482535
honored 4.47752566628e-05
dedication 0.0
lifting 0.0
lyrical 0.0
talent 4.30260270725e-05
goodnight 0.0
stores 5.85060175325e-05
rushing 0.0
brains 7.11311256874e-05
sandwiches 0.0
drinking 9.60305457329e-05
brazil 0.0
tattoo 0.0
ravens 0.0
regardless 0.0
skills 0.000134325769989
cameras 6.47953125134e-05
phones 0.0
california 0.0
seconds 0.000129443579742
listen 0.000866782668102
smiled 0.0
kicking 4.55551229118e-05
homies 0.0
billion 0.0
shades 0.0
shoutout 0.000243843756565
grammy 0.0
guilty 0.0
stevie 0.000170371595284
ceiling 0.0
carpet 5.55000416466e-05
grammys 9.16781906126e-05
harvard 0.0
panther 0.0
nelson 0.000138301164549
mandela 0.0
handle 0.000168270639715
sexiest 0.0
promise 3.82864811259e-05
hosting 0.0
hahahaha 0.0
longest 5.73455448501e-05
tuesday 7.33006194208e-05
locker 7.23202584902e-05
workout 6.27084679599e-05
ingredient 0.0
leader 4.20676599288e-05
pageant 0.0
character 0.000258887159484
idiotic 0.0
mirror 5.25873809622e-05
jackson 5.20997323678e-05
interview 0.000164013669774
battles 6.67715003308e-05
bleach 0.0
insight 5.73455448501e-05
obviously 9.05861136856e-05
replay 0.000142848610065
battle 7.49159456327e-05
stomped 0.0
destroy 5.60426390451e-05
killer 0.0
personally 4.66253191839e-05
winning 0.000309918936684
gettin 0.0
japanese 0.0
writing 0.000186779483442
society 0.000133558365565
officers 0.0
brooklyn 6.52780722148e-05
sources 5.55000416466e-05
incredible 0.000104429459015
poster 0.0
celebrity 0.0
memorable 0.0
werent 0.0
chased 0.0
minute 3.63525989353e-05
confession 0.0
pregnant 6.60161027684e-05
cherry 0.0
twinning 0.0
phoenix 6.67715003308e-05
orange 0.000144901901974
policy 9.46255480867e-05
comedy 0.000100745017322
illuminati 0.0
reminder 0.000116446114282
evidence 0.000143620613734
iphone 0.0
kicked 5.29166445171e-05
intentions 0.0
freedom 4.49039258338e-05
patient 0.0
utterly 0.0
mississippi 9.11294094685e-05
download 4.55551229118e-05
assistant 0.00013055614443
invite 4.56869625845e-05
central 4.25432673711e-05
washington 0.000213316392043
stronger 5.13030930985e-05
promised 0.0
worried 0.000186501276736
throwing 0.000158749933551
security 8.55674795404e-05
cologne 0.00010054672933
headphones 0.0
sanctuary 0.0
fantasy 0.0
monkey 0.0
approve 0.0
spinach 0.0
turning 4.03443706439e-05
helping 0.000106427045349
tickets 3.90293916544e-05
collector 0.0
physically 0.0
slavery 0.0
december 0.0
basically 9.40720461213e-05
return 0.0
yassss 0.0
goddess 0.0
locked 0.0
feelings 0.0
language 0.0
motion 0.0
obsessed 0.0
creation 0.0
followers 0.000166862088181
schools 0.000137458037782
gallery 0.0
movies 0.000144901901974
foster 0.0
children 0.000283805454265
nation 0.0
theaters 0.0
between 0.0
knowledge 9.16386918549e-05
begins 3.86027685629e-05
robinthicke 0.0
faithful 0.0
peeing 0.0
closet 0.0
bodies 6.38510410516e-05
italian 0.000121077052536
highlights 0.0
spanking 0.0
forbes 0.0
parade 0.0
tasted 0.0
consider 0.000385053657932
reunion 0.0
latest 0.000104712304286
dedicated 0.0
beyonce 6.91505822747e-05
perform 0.0
signed 3.55719424705e-05
tuxedo 0.0
princess 0.0
shelter 0.0
germany 0.0
explaining 0.0
married 9.54648519382e-05
millions 0.0
blessings 0.0
iconic 0.0
indonesia 0.0
braids 0.0
dollar 5.42685459592e-05
rigged 0.0
replied 0.0
lights 0.0
turned 0.000176898544355
excuses 0.0
jackie 0.0
charge 0.000312529707998
performing 0.0
ticket 8.65403137631e-05
steady 0.0
whispers 0.000297359094499
finest 6.36192500433e-05
confucius 0.0
diamonds 9.3972231672e-05
vancouver 0.0
addicts 0.0
collection 0.000132797027644
families 4.12519339866e-05
select 0.0
hitting 8.60520541451e-05
announced 0.0
decided 0.000193013842814
jewels 0.0
lottery 0.0
owners 6.20419475095e-05
respects 0.000163516468767
celebration 4.52930568428e-05
memorial 0.0
landed 0.0
pastor 0.00010054672933
ultimate 0.00018704655
incase 0.0
rapper 0.0
episode 0.000500460906392
bounce 7.68676530242e-05
disney 0.0
muffin 0.0
kansas 6.45566280297e-05
sherman 0.0
retweet 0.000122725752082
midnight 4.35161574353e-05
patience 0.0
cereal 0.0
joining 0.0
released 0.0
release 7.07594177421e-05
models 0.0
classics 0.0
popped 0.0
mileycyrus 0.0
highlight 0.000152969674325
scholarship 7.866157864e-05
within 0.000164548301965
hahahahaha 0.0
standing 7.37006570411e-05
higher 4.32701568816e-05
purple 0.000120243198864
skinny 8.05617139577e-05
justice 4.33929215251e-05
served 0.0
speaks 0.0
horses 7.48394261045e-05
houses 0.0
purchase 5.532119486e-05
dropped 0.0
conversations 0.0
consideration 0.000164334388495
seattle 0.0
cookie 0.000129590625027
slurpee 0.0
strength 0.0
screens 0.0
monica 0.0
incredibly 0.000136665368735
streets 4.74520493819e-05
boyfriend 0.0
private 8.27344098021e-05
skittles 0.0
barbie 0.0
apologizes 0.0
designer 0.0
impress 0.0
cooking 5.51433389193e-05
exclusive 7.65729622518e-05
fashion 0.0
petite 0.0
talkin 0.0
peaches 0.000124292202588
bitches 0.0
nailed 6.50357849125e-05
weirdest 8.42939926518e-05
whomever 0.0
teaching 9.83445197806e-05
disgusting 0.0
chillin 0.0
philly 6.0329386016e-05
rights 4.35161574353e-05
dinosaur 0.0
exotic 0.000103606463947
dancers 0.0
cheers 0.0
presents 0.0
flawless 0.0
dating 6.38510410516e-05
victory 0.0
marley 0.0
productive 0.0
smurfs 0.0
halftime 0.000228531723427
insecure 0.0
horror 0.0
warning 4.66253191839e-05
discovery 6.57682025776e-05
convention 0.0
understanding 0.0
action 3.46220827907e-05
having 0.0
speaker 5.37548883582e-05
clever 5.51433389193e-05
theatre 0.0
honors 0.0
evolution 0.0
produce 0.0
spider 0.0
apologize 0.000238024756964
formation 0.0
letter 3.97899023672e-05
therapy 6.75451019851e-05
untrue 0.0
written 0.000157412485094
communication 0.0
disease 6.31606291696e-05
marching 0.0
suggest 9.98342810542e-05
georgetakei 0.0
hairstyle 0.0
humans 0.000108192823907
journal 0.0
foundation 9.19045548863e-05
access 0.000119040446113
venture 0.0
syndrome 0.0
writes 0.0
colorado 0.0
medicine 0.000195107354738
tremendous 0.0
nytimes 4.88790805451e-05
kindness 0.0
cannot 0.000107879693485
reveals 0.0
invented 0.000180988158048
sapphire 0.0
candidate 5.13030930985e-05
sexual 5.65945652214e-05
madison 0.0
illustration 0.0
newark 0.000108823795356
globally 0.0
incorrect 7.82946841874e-05
headline 0.000151577234472
reflect 0.0
streaming 0.0
leaders 0.0
supreme 0.0
protest 0.0
policies 0.0
silenced 0.0
defend 0.00010550318121
communicating 0.0
climate 0.0
wrapped 6.05385262682e-05
studio 8.98078516676e-05
conspiracy 0.0
interviews 4.37640576261e-05
differentiation 0.0
confusing 6.50357849125e-05
february 4.74520493819e-05
hamilton 0.000127702082103
loneliest 0.0
amazon 4.88790805451e-05
scattered 0.0
francis 7.38714256778e-05
headlines 0.0
january 0.0
diversity 0.0
universal 0.0
hurricane 0.0
identifying 0.0
countries 0.0
tickled 0.0
becker 0.0
connected 0.0
suggestion 0.0
filled 0.000135879170528
education 0.0
mentioned 4.74520493819e-05
defining 0.0
exists 0.0
unexpected 0.0
plants 0.0
orders 0.0
olympics 0.0
ability 9.37970742649e-05
director 0.0
content 0.000251862543305
cycling 0.0
previously 6.43197050711e-05
correction 6.52780722148e-05
pearls 0.0
ambassador 0.0
preparing 0.000107850392
depend 0.0
downloads 0.0
lovers 0.0
weekly 0.000111359780763
hudson 0.0
bridge 0.0
becoming 8.27344098021e-05
magazine 8.95505133257e-05
appropriate 5.83096688154e-05
shakespeare 0.0
travesty 0.0
discoveries 0.0
fellow 0.0
reviewed 0.0
copies 6.13889843518e-05
driven 0.0
aussies 0.0
result 0.000185958309074
announcing 0.000112451124267
visual 0.0
restrictions 0.0
culture 8.9038910377e-05
edition 0.0
prince 0.0
shocks 0.000109782162499
symmetry 0.0
clicks 0.0
disagree 0.000249585702636
experiments 0.0
mistakes 0.0
trolls 0.0
blossoms 0.0
offered 0.000106165102849
inspiring 0.0
counter 0.000121921878283
approach 9.60305457329e-05
embarrassing 0.000115841075613
creators 0.0
edited 7.5837524584e-05
berniesanders 0.0
overnight 6.91505822747e-05
spotlight 0.0
probable 0.0
repeating 0.0
concerns 0.000117804709705
massive 0.0
promising 0.0
promises 6.13889843518e-05
colored 9.3972231672e-05
production 0.0
header 0.0
itunes 5.32493201903e-05
secretary 5.62255621337e-05
highway 0.0
dangerous 0.0
letters 0.0
typically 0.0
saving 0.0001402849125
pioneer 0.0
visuals 0.0
universe 0.000207114802163
ordering 0.0
victims 0.0
privacy 6.94261454703e-05
disclosure 0.0
proceeds 0.0
musical 0.000105174761924
collide 0.0
melbourne 0.0
correctly 0.0
campus 0.000127702082103
debate 0.0
conflict 0.0
meanwhile 0.000113189130443
petition 0.0
contribution 0.0
stated 0.0
humanity 0.0
illness 0.0
flawed 0.0
breathe 0.000125867504999
winners 8.53265568174e-05
spanish 5.93036465176e-05
comedic 0.0
awards 4.20676599288e-05
presidential 0.0
candidates 0.0
glasgow 0.0
smells 7.05526791337e-05
treasure 6.91505822747e-05
greater 0.0
themed 0.0
distribution 0.0
absurd 0.0
squirrel 0.0
sisters 0.0
stress 5.95061892411e-05
leading 0.0
resolution 0.0
achieved 0.0
interacting 0.0
boiling 0.0
examples 0.0
diverse 0.0
suicide 6.36192500433e-05
parallel 0.0
minneapolis 9.3972231672e-05
impairs 0.0
pumping 0.0
slides 0.0
choreography 0.0
element 0.0
serves 0.0
jumping 0.0
rising 0.0
believed 0.0
features 0.000154382541897
environment 0.0
revealed 0.000105174761924
classical 0.0
confirmed 4.68985371324e-05
origins 0.0
combination 0.0
consumption 0.0
worldwide 5.35854794417e-05
deaths 0.0
responsible 0.0
overwhelmed 0.0
household 0.0
munich 0.0
alternate 0.00025971525064
blockers 0.0
restaurant 0.00032050175889
canada 0.0
versions 0.0
technology 5.39251959999e-05
identify 0.0
combined 0.0
santiago 0.0
branches 0.0
october 0.0
netherlands 0.0
belgium 0.0
european 0.0
imperial 0.0
perspective 9.51838631731e-05
cities 0.0
guinea 0.0
americas 0.0
posters 0.0
elastic 0.0
flames 8.61030861939e-05
presumably 0.0
exquisite 0.0
spreading 0.0
happiness 0.0
ashamed 0.0
naturally 0.0
malbec 0.0
wasting 0.0
hidden 5.29166445171e-05
coffin 0.0
freudian 0.0
genius 4.27837397702e-05
cultured 0.0
malaysia 0.0
traveling 6.07490379417e-05
prepared 0.000146200466531
county 0.0
quinoa 0.0
district 0.0
chosen 0.0
toilet 6.67715003308e-05
yorkers 9.91196981665e-05
ignores 0.0
messages 0.000107509776716
creativity 0.0
conventional 0.0
berlin 0.0
montreal 0.0
wonders 7.35551382408e-05
upcoming 0.0
lonely 0.0
australian 0.0
positions 0.0
singapore 0.0
scratch 0.000138301164549
deficiency 0.0
elevated 0.0
triggers 0.0
delicate 0.0
barrier 0.0
reflection 6.86064520419e-05
sydney 0.0
separates 0.0
centuries 0.0
israel 0.0
overwhelming 6.83378068326e-05
assault 0.0
protection 0.0
picker 0.0
additional 6.70273018051e-05
machine 0.000130178764575
samples 0.0
contrary 0.00016270883761
immediate 0.0
michelle 0.0
inspire 0.0
lyrics 6.0329386016e-05
missyelliott 0.0
constant 6.248475336e-05
tuning 0.0
pandora 0.0
preshow 0.0
buenos 0.0
poland 0.0
philippines 0.0
nicely 6.16051664157e-05
september 4.51628217142e-05
manchester 0.0
checks 0.000186787760911
screenshot 0.00018117970395
universalorl 0.0
remarkable 0.0
rihanna 0.0
disgusted 0.0
flattered 9.22365162537e-05
fiction 0.0
angela 0.0
bitmoji 0.0
process 4.10226264747e-05
genuine 0.0
performances 0.0
comedians 0.0
flotus 0.0
strangers 0.000222572580915
hungover 0.0
confidence 0.0
studios 0.0
stjude 0.0
memphis 8.3001083084e-05
mikeypiff 0.0
chancetherapper 0.0
scream 6.78071680541e-05
jennifer 6.40845178274e-05
disappoint 0.0
newcastle 0.0
castle 7.20188204522e-05
literally 0.000238739414203
chrisrock 0.0
gentlemen 0.0
mtvnews 0.000106988843645
hillaryclinton 0.0
iamrashidajones 0.0
champagne 0.0
raleigh 0.0
ijessewilliams 0.0
acknowledge 7.48394261045e-05
buzzfeed 6.40845178274e-05
puppet 0.0
rehearsal 0.0
billboard 0.0
austria 0.0
sweden 0.0
republic 0.0
grilled 0.0
waltdisneyworld 0.0
katyperry 0.0
ronanfarrow 0.0
measly 0.0
bragging 0.000186766341659
treats 0.0
literal 0.0
cooper 6.83378068326e-05
counts 0.000160250879445
theellenshow 0.0
basking 0.0
cookies 6.70273018051e-05
festival 4.73127740434e-05
amsterdam 0.0
soundcheck 0.0
downloaded 0.0
encouraged 0.0
alright 0.0
jtimberlake 0.0
backstage 0.0
collab 0.0
joined 0.0
issarae 0.0
playlist 0.0
madness 0.000307818558591
romantic 0.0
selfies 0.0
exclusively 6.60161027684e-05
disneyland 0.0
refused 0.0
characters 0.0
amazingly 0.0
auction 0.0
express 0.0
gratitude 0.0
sesamestreet 0.0
thegrammys 0.0
throughout 0.0
awkward 0.0
shining 6.50357849125e-05
thrown 0.000122348496665
stylist 0.0
fighter 6.80713910697e-05
accepting 0.0
playin 0.0
applemusic 0.0
filmed 6.18228141319e-05
makeawish 0.0
bieber 0.0
remixes 0.0
toronto 0.0
capitolrecords 0.0
shazam 0.0
anthem 5.87035745571e-05
cosmopolitan 0.0
khloekardashian 0.0
cookin 0.0
songwriters 0.0
reveal 0.000281391222795
stands 4.46471011426e-05
spotify 0.0
phvegas 0.0
rocked 0.0
glasses 5.91023736629e-05
iambeckyg 0.0
relive 0.0
acoustic 0.0
announce 0.000112067690065
although 5.24240069955e-05
isaacfromct 0.0
shampoo 0.0
interactive 0.0
todayshow 0.0
haters 0.0
appreciation 0.0
floating 0.0
shondarhimes 0.0
showtime 7.72185080484e-05
premiere 0.0
broadway 7.20188204522e-05
makeup 6.91505822747e-05
starring 0.0
newest 0.0
designed 0.0
arianagrande 0.0
aladdin 0.0
swaggy 0.0
owning 0.0
producer 0.0
legendary 0.0
jasmine 0.0
costumes 0.0
square 0.000130548472306
emojis 0.0
jessica 0.000237098144223
magical 6.0329386016e-05
thedoctorluke 0.0
thirsty 0.0
therealjuicyj 0.0
symbols 0.0
privilege 0.0
spiral 0.0
retrograde 0.0
footage 0.000105174761924
theirs 0.0
universes 0.000129240888787
remembering 5.25873809622e-05
floated 0.0
construction 0.0
consciousness 0.0
delights 0.0
explodes 0.00010054672933
submissions 9.58071833831e-05
pleased 0.000106165102849
shredding 0.0
filters 0.0
weasel 0.0
reflective 0.0
firework 0.0
islands 0.0
interstellar 0.0
bubble 0.0
customs 0.0
festive 0.0
window 9.43482006561e-05
senator 0.000199553163071
slightly 5.55000416466e-05
therealbuzz 0.0
printing 0.0
snowflake 0.0
applications 0.0
elephant 0.0
fifteen 0.0
editions 0.0
newspaper 0.0
rainbow 6.57682025776e-05
unlimited 8.42939926518e-05
sirius 0.0
matthew 6.13889843518e-05
affected 0.0
capturing 0.0
canyon 0.0
rivers 7.9032714741e-05
spoken 0.000215019553433
accidentally 0.000246420665663
bizarre 0.0
dolphin 0.000101284759883
successfully 0.0
liquid 0.0
graffiti 0.0
swallowing 0.0
messenger 0.0
heroes 0.0
disturbing 0.000136142782139
graduates 0.0
rewrite 0.0
describe 0.0
hollywood 4.73127740434e-05
equality 0.0
announcement 0.0
breakout 9.58071833831e-05
dreaming 0.0
animation 0.0
calendar 6.27084679599e-05
circling 0.0
garden 9.60305457329e-05
enhanced 0.0
journalists 0.0
stirring 0.0
nominations 0.0
yelling 0.0
teachers 5.75360671611e-05
chapter 0.0
napoleon 0.0
aliens 0.0
subjects 0.0
revolution 0.0
mountains 0.0
wonderland 0.0
storage 0.0
crystals 0.0
circuit 0.0
invitation 0.0
kettle 0.0
adjective 0.0
woodpecker 0.0
operate 0.0
exhibition 0.0
learnt 0.0
nomination 0.0
madonna 0.0
questioning 0.0
unplug 0.000139687896505
initiatives 0.0
switzerland 0.0
represents 0.0
throat 0.00014838172061
touchdown 0.00024527470315
desire 0.0
forced 4.93198597603e-05
swedish 0.0
hundred 0.000135614336108
prompts 0.0
rainbows 0.0
creates 6.33891206337e-05
oxford 7.23202584902e-05
balloons 0.0
liverpool 0.0
recreate 0.0
glorious 0.0
newton 0.0
creature 0.0
finalist 0.0
scouts 0.0
treading 0.0
tragedy 0.0
nottingham 0.0
debacle 0.0
legends 0.0
noises 0.000196858572569
addiction 0.0
survived 0.0
idioms 0.0
greeted 0.0
basics 0.0
masses 0.0
confirm 0.000156784380727
cadence 0.0
spaghetti 9.51838062199e-05
prepare 4.75919315865e-05
calendars 0.000192885810895
narrative 0.0
application 7.38714256778e-05
octopus 0.0
drumming 0.0
bloody 0.0
confetti 0.0
translate 0.0
birmingham 0.000142848610065
singles 0.0
completes 0.00010441923939
laptop 0.0
obvious 0.0
darling 0.0
deserving 0.0
miller 0.0
ordered 0.0
feelin 0.0
alicia 9.70914712468e-05
picasso 0.0
recipe 6.70273018051e-05
alphabetical 0.0
butterfly 8.90235454731e-05
timothy 0.0
mancini 0.0
untold 0.0
directed 0.0
hacked 0.00012541693592
admits 0.0
clocks 0.0
nugget 0.0
cnnopinion 0.0
grabbed 0.0
russia 0.0
surprises 0.0
waterfalls 0.0
olympic 0.0
magnificent 6.72851579318e-05
casual 0.000156589368375
assume 0.00063301908726
relief 0.0
subscribe 0.0
landslide 0.0
telegraph 0.0
standby 0.0
admitting 0.000174094715311
complacency 0.0
voices 5.19388151628e-05
sounding 7.20188204522e-05
douglas 0.0
democracy 0.0
locals 0.0
gossip 0.0
nickname 0.0
subtle 0.0
embarrassed 6.91505822747e-05
ireland 5.71561465711e-05
mornings 0.0
democratic 0.0
impressions 0.0
outgoing 0.0
treasury 0.0
refugees 0.0
unveiling 0.0
listing 0.0
deliver 0.000101979782884
negotiating 7.68676530242e-05
roller 0.00016685258695
prosperous 0.0
desperate 0.0
acknowledgement 0.0
executive 0.0
republicans 0.0
weapons 0.00012541693592
dropping 4.85885544431e-05
meaningful 0.0
nightmare 0.0
goodies 0.0
scandalous 0.0
rhetoric 0.0
divisive 0.0
vision 0.0
confirmation 6.62659321629e-05
throne 0.0
records 0.0
quoting 0.000153735306048
impatient 0.0
refugee 6.38510410516e-05
texted 0.0
exposed 6.55222020239e-05
stoked 0.0
priority 0.0
freedoms 0.0
notorious 0.0
empowering 0.0
unconstitutional 0.0
turkish 0.0
concerned 0.000103238761071
realdonaldtrump 5.60426390451e-05
goodwill 0.0
imagined 7.20188204522e-05
belfast 0.0
sleeve 9.11294094685e-05
basement 0.0
preposterous 0.0
griffith 0.0
timeless 0.0
truman 0.0
intended 0.0
inappropriate 0.0
industries 9.33831708297e-05
responsibility 5.29166445171e-05
documentaries 0.0
vulnerable 0.0
respectful 8.61030861939e-05
markets 0.0
claire 0.000327032937533
nuggets 9.33831708297e-05
boards 0.000151675049168
sequins 0.0
capitol 0.0
technical 0.0
applying 0.0
guitar 0.0
donating 5.81145137148e-05
continually 0.0
norway 0.0
applause 0.0
ballot 0.00013405460361
finely 0.0
shakes 0.0
varied 0.0
proverb 0.0
vibrant 0.0
flower 0.0
survives 0.0
fierce 0.0
shopped 0.00012585850909
sincerely 0.000229561773305
apology 0.0
sweaty 0.0
conspiracies 0.0
climbing 0.0
relaxed 0.0
encourage 5.46156078819e-05
funnyordie 0.0
essentials 0.0
jimmykimmellive 0.0
rejectedjokes 0.0
protesting 0.0
releasing 0.0
cleaner 0.0
preferred 7.65205911015e-05
incarceration 0.0
jkcorden 0.0
koppel 0.0
bikini 0.0
transparency 0.0
kamalaharris 0.0
nutshell 0.0
walled 0.0
floored 0.0
plotting 0.0
gandhi 0.0
vilify 0.0
meditate 0.0
violent 0.0
preschool 0.0
rhythm 0.0
matching 0.0
senwarren 0.0
venezuela 0.0
candle 0.0
donates 0.0
peacefully 0.0
chelseahandler 0.0
experiencing 0.0
sarabareilles 0.0
haunting 0.0
constitution 0.0
explode 0.0
deeper 0.0
empathy 0.0
mrgaryhuang 0.0
scored 0.000195107354738
charitable 0.0
perfume 0.0
giraffe 0.00010441923939
noticing 9.00592131964e-05
noodle 0.0
wrongly 0.0
marshmallow 0.0
fraudulent 0.00011869495059
everytime 0.0
helluva 0.0
therapists 0.0
tangible 0.0
sarahksilverman 0.0
johnfugelsang 0.0
exceptional 0.0
miracle 6.65177210236e-05
avocado 0.000191614366766
snacks 0.000246501582742
spelled 0.0
parental 0.0
superbowl 0.0
shoulders 0.0
valentine 0.00010683391963
glitter 0.0
stocking 0.0
poehler 0.0
thumbs 0.0
tinatbh 0.0
educational 0.0
voicemail 0.0
thetweetofgod 0.0
esteem 0.000102040157446
teaches 0.0
goodbye 5.0525744824e-05
reminding 0.0
supplies 0.0
ryanseacrest 0.0
okmagazine 0.0
shoots 0.0
bowing 0.0
jennyslate 0.0
craigyferg 0.0
masterpiece 0.0
sneaky 0.0
nashville 6.99844711114e-05
chronicles 0.0
potato 7.65205911015e-05
freakin 8.13544188052e-05
perezhilton 0.0
unethical 0.0
paparazzi 0.0
mantra 0.0
consuming 0.0
unauthorized 0.000255010346737
vanityfair 0.0
stalking 0.0
shoulda 0.00019550682095
yeppers 0.0
sacred 0.0
existed 7.41908603051e-05
earned 0.0
woulda 0.000405139039533
ellenpage 0.0
choker 0.0
contribute 0.00013405460361
mustache 0.000185609448552
washes 0.0
creeps 0.0
champion 5.11461103154e-05
auntie 0.0
magazines 0.0
waited 0.0
conscious 0.0
cracker 0.0
denmark 0.0
potion 0.0
windex 0.0
scarfing 0.0
ladygaga 0.0
purposely 0.0
pretending 0.0
luckiest 0.0
mascara 0.0
tastes 7.94081917134e-05
gardening 0.0
leashes 0.0
hippie 0.0
womensmarch 0.0
reunited 0.0
clique 0.0
premiering 0.0
rollingstone 0.0
childrensla 0.0
dollywood 0.0
godmother 0.0
eltonofficial 0.0
vmagazine 0.0
donorschoose 0.0
yesssssss 0.0
bettemidler 0.0
rehearsing 0.0
trevorproject 0.0
unicef 0.0
ellemagazine 0.0
yasssss 0.0
acceptance 0.0
solidarity 0.0
pharrell 0.0
greece 0.0
papermagazine 0.0
johnmayer 0.0
lipstick 0.0
tumblr 8.70473576557e-05
coldplay 0.0
colorful 0.0
translifeline 0.0
newsstands 0.0
feminist 0.0
pitchfork 0.0
labels 0.0
jenner 0.0
arkansas 0.00075657842906
beanie 0.0
sparkly 0.0
moschino 0.0
britneyspears 0.0
itsjeremyscott 0.0
nickiminaj 0.0
appstore 0.0
poetry 0.0
puttin 0.0
rubbed 0.0
shrine 0.0
skyferreira 0.0
freaking 0.0
besties 0.0
chanel 0.000106988843645
bedazzled 0.0
rubber 8.13544188052e-05
kendricklamar 0.0
popstar 0.0
sosadtoday 0.0
copenhagen 0.0
lenadunham 0.0
wearin 0.000131075840498
stoned 0.0
facetime 0.0
barclays 0.0
meditation 0.0
harpersbazaarus 0.0
stared 0.0
ritual 0.0
iconapop 0.0
doubted 0.0
staples 0.0
anaheim 0.0
jingle 0.0
tacoma 0.0
rehearsals 0.0
treadmill 0.0
metamorphosis 0.0
dental 0.0
jodyhighroller 0.0
versace 0.0
werking 0.0
couture 0.0
eggplant 0.0
bangin 0.0
cardigans 0.0
obnoxious 0.0
bestie 0.0
teganandsara 0.0
barrel 0.000270177639589
dedicating 0.0
jefferson 0.0
pumpkin 7.41908603051e-05
derekblasberg 0.0
glamourmag 0.0
presale 0.0
mtvstyle 0.0
deluxe 0.0
mtvema 0.0
reggae 0.0
azealiabanks 0.0
nominating 0.0
sailor 0.000120005455617
mornin 0.000102040157446
itunesmusic 0.0
bananas 7.97881123034e-05
lordemusic 0.0
vietnam 0.0
milwaukee 0.0
neworleans 0.0
circus 0.0
strolling 0.0
rapids 0.0
collegegameday 0.0
aaaaand 0.00012585850909
godfather 0.0
bestow 0.0
allison 0.0
rockthevote 0.0
birbigs 0.0
lucille 0.0
louder 0.0
farmers 7.75732400023e-05
shaved 9.51838062199e-05
niagara 0.0
realmattlucas 0.0
ferguson 0.0
painful 6.31606291696e-05
exchange 0.0
nickkroll 0.0
edmonton 0.0
mickey 0.0
angelenos 0.0
pooping 0.000255010346737
located 0.0
onslaught 0.0
finalists 0.0
bumped 8.09556196994e-05
sherlock 0.0
stockholm 0.0
casually 0.0
jjwatt 0.000127505173369
itstonybennett 0.0
mariolopezextra 0.0
klgandhoda 0.0
entrance 0.000216960775471
calgary 0.0
bowling 0.0
winnipeg 0.0
cheeto 0.0
gloriasteinem 0.0
feather 0.0
nathan 0.0
smelling 0.0
narnia 0.0
llamas 0.0
actuallynph 0.0
mourning 0.0
obsession 0.0
chilled 0.0
medically 0.0
hyperloop 0.0
aussie 0.0
flaring 0.0
eyeballs 0.0
stuffing 0.0
pitched 0.0
condiments 0.0
relatable 0.000105253128226
olivia 0.0
painted 7.23202584902e-05
mykonos 0.0
eyebrow 0.0
capitalcities 0.0
jackpot 0.0
hipster 0.0
sweating 0.0
restaurants 0.0
superfan 0.0
restraint 0.000108823795356
craziest 0.0
catheter 0.0
delivers 0.0
kanyewest 0.0
paints 0.0
dissect 0.0
billboards 0.0
milano 0.0
bjnovak 0.0
snapping 0.0
croissant 0.0
repjohnlewis 0.0
blklivesmatter 0.0
mydaughtersarmy 0.0
huddled 0.0
yearning 0.0
thereaibanksy 0.0
affordable 0.0
foodie 0.0
colombia 0.0
peeled 0.0
shootings 0.0
playground 0.0
breaky 0.0
photoshoot 0.0
smokin 0.0
accents 0.0
sweats 0.0
postmates 0.0
armband 0.0
unconscious 0.0
maddow 0.0
aquarium 0.0
holler 0.0
photoshop 0.0
robbie 0.0
espnmag 0.0
laundry 8.5185797642e-05
examining 0.0
zealand 0.0
stuntin 0.0
hehehe 0.0
nostalgia 0.0
buttons 0.0
slaying 0.0
monument 0.0
bringin 0.0
lining 0.0
muchas 0.0
gracias 0.0
madame 0.0
illustrated 0.0
boxers 0.0
grazie 0.0
winters 0.0
plastic 0.0
unbreakable 0.0
licking 0.000121371743309
cheeky 0.0
twerking 0.0
danish 9.64429054474e-05
drummer 0.0
florence 0.0
revoir 0.0
resume 7.79319355236e-05
dodger 0.0
brazilians 0.0
grimezsz 0.0
crocodile 0.0
hahahahahaha 0.0
parisians 0.0
taipei 0.0
taiwan 0.0
bangkok 0.0
uploaded 9.3972231672e-05
manila 0.000106988843645
hamburg 0.0
curating 0.0
aaaand 0.0
skating 0.0
brisbane 0.0
googleplay 0.0
raincoat 0.0
glastofest 0.0
vienna 0.0
burning 5.65945652214e-05
jamming 0.0
reaches 0.0
subtitles 0.0
wristband 0.0
barcelona 0.000160345165897
credits 0.0
dreamers 0.0
bogota 0.0
bursting 0.0
brunomars 0.0
beyoncé 0.0
subscribers 8.70473576557e-05
unlock 0.0
onedirection 0.0
amazonmusic 0.0
snippets 0.0
preorder 0.0
rehearse 0.0
bahnhof 0.0
delorean 0.0
fragrance 0.0
curate 0.0
samsmithworld 0.0
guitars 0.0
storyline 0.0
registering 0.0
beatsbydre 0.0
panama 0.0
celestial 0.000129240888787
orchestra 0.0
finland 0.0
climbed 0.0
topping 0.0
méxico 0.0
vasconcelos 0.0
leicester 0.0
itunesfestival 0.0
pondering 0.0
millennials 0.0
struck 0.0
watermelon 0.0
benefited 0.0
sophisticated 0.0
couples 0.0
villain 8.61030861939e-05
mindful 0.0
catholic 0.0
airline 7.97881123034e-05
secretly 0.000147110276482
playlists 0.0
veggie 0.0
receipts 0.0
foremost 0.0
bagpipe 0.0
drifting 0.0
trader 0.0
influenced 0.0
moscow 7.9032714741e-05
cobain 0.0
reaper 0.0
commune 0.0
handshake 0.0
despair 0.0
silicon 0.0
investing 0.0
construct 0.0
garland 0.0
coachella 0.0
offline 0.0
realisation 0.0
payback 0.0
educate 0.0
alliances 0.0
etched 0.0
momentarily 0.0
pronoun 0.0
lenses 0.0
validated 0.0
authenticity 0.0
choreographed 0.0
pokemon 0.0
disneyworld 0.0
patriotic 0.0
embody 0.0
snickers 0.000129240888787
impactful 0.0
refocus 0.0
eminem 0.0
mahatma 0.0
ecstatic 0.0
snfonnbc 0.0
avenue 0.0
picchu 0.0
doubters 0.0
beverly 0.0
intensity 0.0
outtake 0.0
temple 8.3857211558e-05
purchased 8.21671942473e-05
fountain 9.3972231672e-05
punched 9.3972231672e-05
goldfish 0.0
comparable 0.0
buyers 0.0
barbara 0.0
corybooker 0.0
listens 9.16781906126e-05
timeout 0.0001061092567
inducing 0.0
signage 0.0
penthouse 0.0
ahahaha 0.0
phenom 0.0
brilliantly 0.0
siphoning 0.0
herstory 0.0
prostitute 0.0
survivors 0.0
courageous 0.0
cruelty 0.0
margot 0.0
xenophobic 0.0
mcginley 0.0
yorkshire 0.0
chants 0.0
alancarr 0.0
chained 0.0
skillz 0.0
debunked 0.0
floods 0.0
fleetwood 0.0
cheesecake 0.0
adidas 0.0
uneven 0.0
raging 0.0
connections 0.0
headlining 0.0
devhynes 0.0
charli_xcx 0.0
shawnmendes 0.0
tavitulle 0.0
bahjournalist 0.0
tyleroakley 0.0
marquee 0.0
grease 0.00010441923939
screenshots 0.000242743486618
ddlovato 0.0
chattyman 0.0
grimmers 0.0
vevo_uk 0.0
bonniemckee 0.0
electrifying 0.0
idolator 0.0
onairromeo 0.0
godven 0.0
lookie 0.0
preordered 0.0
elvisduran 0.0
shanghai 0.0
tripped 0.0
konnichiwa 0.0
etnad_olegnad 0.0
unannounced 0.0
swedes 0.0
cinderella 0.000111789248216
slipper 0.0
jessesaintjohn 0.0
adorbs 0.0
onesies 0.0
jahnsuxx 0.0
walgreens 0.0
aphrodite 0.0
danceonfox 0.0
difficulties 0.0
mermaids 0.0
antique 0.0
girlshbo 0.0
yaaaaasss 0.0
lifesaving 0.0
queens 0.0
yaaaas 0.0
rollin 0.0
bestest 0.0
cleanse 0.0
iamtovelo 0.0
glamour 0.0
emelisande 0.0
lashes 0.0
austrian 0.0
magritte 0.0
misogynoir 0.0
litter 0.000110770022447
spiritual 0.0
preaching 0.0
adelaide 0.0
sheffield 0.0
impending 0.0
starve 0.0
excess 0.0
conciousness 0.0
vitamins 0.0
generator 0.0
purposefully 0.0
profiles 0.0
petals 0.0
persist 0.000212218513401
alexis 0.0
covergirl 0.0
sneezed 0.0
cushion 0.0
demconvention 0.0
directv 0.0
flo_tweet 0.0
billclinton 0.0
grounded 0.0
sunrise 0.0
fightin 0.0
sagekotsenburg 0.0
pwease 0.0
sadder 0.0
waterfall 0.0
sighting 0.0
firsts 0.0
muller 0.0
burritos 0.000127505173369
bungee 0.0
potting 0.0
dipping 0.0
closets 0.0
scratched 0.0
decorating 0.0
summers 0.0
havana 0.0
fresher 0.0
mowing 0.0
invading 0.0
addict 0.0
aesthetics 0.0
footwear 0.0
protector 0.0
hammock 0.0
repurpose 0.0
mishap 0.0
hamster 0.0
cellar 0.0
groove 0.0
mentored 0.0
exaggerate 0.0
scraping 0.0
apropos 0.00011869495059
trolled 0.0
jonlovett 0.0
rheabutcher 0.0
sickening 0.0
flustered 0.0
compiled 0.0
shirley 0.0
subtweet 0.000121371743309
pantsuit 0.0
patting 0.0
atrocious 0.0
amoeba 0.0
platter 0.0
aficionado 0.0
bearer 0.0
manifest 0.0
transformation 8.61030861939e-05
thighs 0.0
tapper 0.0
foaming 0.0
sophie 0.0
sabbath 0.0
vibrations 0.0
nutella 0.000124292202588
wilder 9.84292862845e-05
distractions 0.0
stripping 0.0
downloading 0.0
judith 0.0
crossroads 0.0
parsons 0.0
stella 0.0
narcissism 0.0
fawcett 0.0
trainers 0.0
surrounding 0.0
longtime 0.0
frosting 0.0
laurent 0.0
savory 0.0
acupuncture 0.0
cancelling 0.0
nutcracker 0.0
ballet 0.0
tempura 0.0
burner 0.0
voguemagazine 0.0
lagged 0.0
cuttlefish 0.0
passwords 0.0
funfetti 0.0
anagasteyer 0.0
gabbana 0.0
budapest 0.0
montage 0.000194182942494
crowns 0.0
scheduling 0.0
possessed 0.0
syncing 0.0
creatively 0.0
hieroglyphics 0.0
halftimes 0.0
floppy 0.0
nessie 0.0
feathers 0.0
kaceymusgraves 0.0
roaring 0.0
rightful 0.0
balconies 0.0
prodigy 0.0
raquin 0.0
gianni 0.0
monsieuradi 0.0
drowned 0.000106988843645
tropicana 0.0
diesel 0.000103606463947
shabbat 0.0
voiceless 0.0
passover 0.0
elevating 0.0
traumatic 0.0
dreamer 0.0
iwillharness 0.0
classrooms 0.0
eligibility 0.000122798774472
counselors 0.0
wainwright 0.0
moveon 0.0
runaway 0.0
baghdad 0.0
zaralarsson 0.0
snooze 0.0
iggyazalea 0.0
harviikills 0.0
bolognese 0.0
babysitting 0.0
mohegan 0.0
hooters 0.0
crusts 0.0
tracksuit 0.0
cupcake 0.0
xfactor 0.0
vitamin 0.0
lichtenstein 0.0
concourse 0.0
hitchcock 0.0
teller 0.0
pastels 0.0
remnants 0.0
banger 0.0
lyrically 0.0
boogers 0.0
ritaora 0.0
bumpin 0.0
dabbed 0.0
sleepin 0.0
tinashe 0.0
octaviaspencer 0.0
linder 0.0
musicallyapp 0.0
scavenger 0.0
sanging 0.0
corinthians 0.0
hollywoodbowl 0.0
kraken 0.0
discontinue 0.0
cypress 0.0
schooling 0.0
maritime 0.0
narration 0.0
zeitgeist 0.0
sampler 0.0
pseudo 0.0
bangladesh 0.0
hungary 0.0
mumble 0.0
sisterhood 0.0
soulful 0.0
lennykravitz 0.0
londontown 0.0
andradaymusic 0.0
lipsticks 0.0
realization 0.0
unconditionally 0.0
wildfire 0.0
goldie 0.0
minnie 0.0
solitude 0.0
waddle 0.0
westworldhbo 0.0
statuesque 0.0
uncasville 0.0
demented 0.0
skyway 0.0
twentyonepilots 0.0
rejoicing 0.0
clenching 0.0
adelphia 0.0
entirety 0.000201093458659
redhourben 0.0
lakewood 0.0
drjillstein 0.0
entail 0.0
whammy 0.0
smokers 0.0
gobble 0.0
topshop 0.0
cleowade 0.0
mkives 0.0
sweetbabayjamie 0.0
marchesafashion 0.0
hamsters 0.0
gurrrl 0.0
sofifii 0.0
sumthin 0.0
nicomiz 0.0
maisonvalentino 0.0
coziest 0.0
accessorize 0.0
thejgold 0.0
peruvian 0.0
amazeballs 0.0
sendin 0.0
fantabulous 0.0
timelines 0.0
regina 0.0
slovakia 0.0
graves 0.000111789248216
embracing 0.0
larsson 0.0
cullen 0.0
psychiatric 0.0
officialadele 0.0
butters 0.0
verrrry 0.0
buttered 0.0
winged 0.0
pedialyte 0.0
topanga 0.0
armpit 0.0
kittens 0.0
dueling 0.0
eagerly 0.0
surrealist 0.0
dethroned 0.0
manolos 0.0
señorita 0.0
monterrey 0.0
parque 0.0
retiree 0.0
batches 0.0
reservations 0.0
sickos 0.0
aplusk 0.0
kirkherbstreit 0.0
fanbases 0.0
indexing 0.0
chuckles 0.000159560859703
incorporated 0.0
washboard 0.0
earbuds 0.0
pantone 0.0
knotts 0.0
dismaland 0.0
pollock 0.0
iamkidpresident 0.0
mariah 0.0
teevee 0.0
santorini 0.0
appalachian 0.0
sunburnt 0.0
caliente 0.0
juicery 0.0
karlihenriquez 0.0
trillest 0.0
tommorrow 0.0
crumpets 0.0
fishin 0.0
grillin 0.0
jambalaya 0.0
pepperoni 0.000274617629121
cashew 0.0
graceland 0.0
pussies 0.0
delicately 0.000137308814561
eraser 0.0
choreo 0.0
snatched 0.0
elliptical 0.0
mooore 0.0
unborn 0.0
georgina 0.0
stalkers 0.0
sallykohn 0.0
expectancy 0.0
phillipines 0.0
appstoregames 0.0
wilkinson 0.0
puddings 0.0
loveland 0.0
spaced 0.0
shanny 0.0
dripping 0.0
gerber 0.0
shakey 0.0
weaves 0.0
unbeatable 0.0
linguist 0.0
prosthetics 0.0
battleship 0.0
serotonin 0.0
machiavellian 0.0
girlies 0.0
guangzhou 0.0
debuting 0.0
dissecting 0.0
warped 0.0
luckyjess 0.0
ermahgerd 0.0
fabulousness 0.0
elliegoulding 0.0
activewear 0.0
yelyahwilliams 0.0
prismatic 0.0
evaluations 0.0
skywalk 0.0
sparklers 0.0
palettes 0.0
gemmaanningram 0.0
trueeee 0.0
invisalign 0.0
pounded 0.0
lolgop 0.0
procession 0.0
stanning 0.0
squeals 0.0
continual 0.0
luminary 0.0
cummin 0.0
shaves 0.0
epixhd 0.0
preacher 0.0
boogiecousins 0.0
changers 0.0
autismspeaks 0.0
massaged 0.0
psssssst 0.0
literati 0.0
utilization 0.0
endangerment 0.0
purposeful 0.0
unlabeled 0.0
undiagnosed 0.0
snotty 0.0
gallops 0.0
slovenia 0.0
sequin 0.0
akerlund 0.0
jumbotron 0.0
edibles 0.0
knowles 0.0
caeser 0.0
thehollywoodbowl 0.0
elvispresley 0.0
adoring 0.0
ageist 0.0
thérèse 0.0
confessed 0.0
blackvoices 0.0
patties 0.0
graphically 0.0
wildflowers 0.0
groundhogs 0.0
eataly 0.0
poodles 0.0
hillaryforia 0.0
roadshow 0.0
sweety 0.0
boppin 0.0
bettywho 0.0
johnnywujek 0.0
earring 0.0
itsbennyblanco 0.0
curitiba 0.0
purrfect 0.0
shellback 0.0
chokers 0.0
hairbrush 0.0
hakuna 0.0
matata 0.0
hazing 0.0
mathew 0.0
aegean 0.0
lullaby 0.000137308814561
musiciansoncall 0.0
headpiece 0.0
morsel 0.0
whistled 0.0
conquest 0.0
viceland 0.0
lambily 0.0
scalped 0.0
graced 0.0
emblazoned 0.0
hrclosangeles 0.0
kawaii 0.0
glittery 0.0
wonderlandmag 0.0
jumpsmokers 0.0
radiodotcom 0.0
missyfranklin 0.0
pleaaaaase 0.0
lilbthebasedgod 0.0
waaaay 0.0
flossy 0.0
aria_official 0.0
berliners 0.0
matriarchy 0.0
cornered 0.0
limping 0.0
peasant 0.0
feasibly 0.0
waaaaay 0.0
slayyy 0.0
fashionistas 0.0
sangin 0.0
worldstarfunny 0.0
pliers 0.0
babyanimalpics 0.0
mediation 0.0
quests 0.0
aaaaaaah 0.0
honked 0.000164509545902
rauschenberg 0.0
whitneymuseum 0.0
lonsdale 0.0
transcendental 0.0
roarin 0.0
facetune 0.0
fausto 0.0
herning 0.0
cazzette 0.0
annnnnnnnnd 0.0
shinier 0.0
giambattista 0.0
katys_teddybear 0.0
gnight 0.0
katheryn 0.0
psychoanalysis 0.0
bckgrnd 0.0
kingman 0.0
gracevanderwaal 0.0
fecking 0.0
ihrcountdown 0.0
stubbies 0.0
xfactor_italia 0.0
aaronpauley 0.0
purity_ring 0.0
scorpios 0.0
ayyyye 0.0
capitalizes 0.0
flamin 0.0
motherfucking 0.0
jingled 0.0
pharrellhat 0.0
ontarioglow 0.0
teached 0.0
umusic 0.0
auroramusic 0.0
dailymendeslife 0.0
soloing 0.0
universalse 0.0
dustinkloeppel 0.0
robynkonichiwa 0.0
charli 0.0
lonelydot 0.0
adamselman 0.0
sorrenti 0.0
offish 0.0
vinoodh 0.0
guitarists 0.0
cocking 0.0
cabbages 0.0
amelia_libman 0.0
flutter 0.0
lolita 0.0
kingladygaga 0.0
breakthecycledv 0.0
howbow 0.0
curveballs 0.0
tamagotchi 0.0
jarryd 0.0
alliseeisgold 0.0
thebroadmuseum 0.0
sarahsowitty 0.0
brillz 0.0
jackgarratt 0.0
markryden 0.0
duffscakemix 0.0
sanrio 0.0
theniceguyla 0.0
trills 0.0
susangkomen 0.0
faustopuglisi 0.0
gurlll 0.0
cheesecakes 0.0
scorpio 0.0
oblivia 0.0
skipmarley 0.0
correcto 0.0
jessirklein 0.0
unpatr 0.0
squish 0.0
greg_wells 0.0
onlyleah 0.0
gittin 0.0
popstars 0.0
krafts 0.0
bouche 0.0
problemo 0.0
wheezing 0.0
patmcgrathreal 0.0
cienega 0.0
thundering 0.0
nastialiukin 0.0
janell 0.0
katelyntarver 0.0
miamoretti 0.0
missoni 0.0
dannymoonsworld 0.0
mrchrismcmillan 0.0
madge_freak 0.0
woridstarcomedy 0.0
ikissedasoldier 0.0
kpezandchez 0.0
perrysoldier 0.0
emilynotchez 0.0
iickmekaty 0.0
basicallyadam 0.0
katysangelegg 0.0
nicolasjebran 0.0
xchadballx 0.0
scott_myrick 0.0
lockoir 0.0
shannonwoodward 0.0
calluses 0.0
chamomile 0.0
trollin 0.0
sleighing 0.0
chestercheetah 0.0
royksopp 0.0
scottsimonswvla 0.0
sirenscaiiing 0.0
slowdownkaty 0.0
chefantoniopark 0.0
garnished 0.0
endive 0.0
mdmolinari 0.0
prezzy 0.0
motioning 0.0
hernameisbanks 0.0
rockcampla 0.0
jenniefinch 0.0
getglucky 0.0
stendhal 0.0
ryanphillippe 0.0
hotncolds 0.0
kpcollections 0.0
katie_wignall 0.0
katysdrugx 0.0
evrenperry 0.0
katycatwendy 0.0
yungskeeter 0.0
sarahhudsonuvs 0.0
mothern 0.0
oliverheldens 0.0
marrymemargot 0.0
katyperrylately 0.0
kewlest 0.0
katyshellokitty 0.0
pqgerry 0.0
rasarioatelier 0.0
anakhouri 0.0
romaneperry 0.0
hot_chip 0.0
agador 0.0
freddietinkles 0.0
cynthialovely 0.0
augustgettyatelier 0.0
tbsnetworks 0.0
ronyalwin 0.0
justinandersoncolor 0.0
mmillerrider 0.0
jpgaultier 0.0
harharharhar 0.0
iikeanangel 0.0
vonnypoo 0.0
jcoopkp 0.0
itzmero 0.0
katysprismlight 0.0
hatérs 0.0
awkwardaya 0.0
katysredskittle 0.0
tiedye_princess 0.0
adelshahal 0.0
marinadiamandis 0.0
samadizayee 0.0
itsslatykaty 0.0
johnlordperry 0.0
nuggetperry 0.0
kthnkzbye 0.0
teamkpbrasil 0.0
twenagedream 0.0
ashleyegreer 0.0
perryllover 0.0
perry_slays 0.0
_andresgalvis 0.0
poplitics 0.0
likerotica 0.0
sweetxjaureguix 0.0
jessiambriz 0.0
perryncolds 0.0
pwideawake 0.0
brunastrait_ 0.0
anafalqueto 0.0
pessoalmente 0.0
mark_hodson_ 0.0
sumtxkid 0.0
arpoador 0.0
katysmychampion 0.0
amnattg 0.0
osullivanluke 0.0
stephiruth 0.0
katy_pizza_bae 0.0
kpcatt 0.0
pedroeugeniio 0.0
gugs_prismatic 0.0
zeeusmtz 0.0
legendarycold 0.0
robynxkatheryn 0.0
écouter 0.0
energyberlin 0.0
karysjones 0.0
lilzariya 0.0
puroland 0.0
pavlovitz 0.0
dreamhampton 0.0
prismsperry 0.0
perrysmic 0.0
focusonreid 0.0
tonyatalterian 0.0
makeup_man 0.0
wtfkates 0.0
sella_sandra 0.0
katycute_ 0.0
caitsperry 0.0
katyperryforum 0.0
radiantjareau 0.0
lillysgomez 0.0
katycatsweden 0.0
perryicecream 0.0
xamyrosex 0.0
wtvrlara 0.0
bijanstephen 0.0
ameliashowalter 0.0
screamkng 0.0
tvmcgee 0.0
liiife 0.0
itskatcombs 0.0
yaaaaaasssssssssss 0.0
katysmyhabibi 0.0
skottpeace 0.0
ferras 0.0
kweens 0.0
habibi 0.0
orlandobloom 0.0
huckchinn 0.0
katycatkenzie 0.0
matarazzo 0.0
fkatwigor 0.0
perryschild 0.0
hotxcolds 0.0
maddisonxperry 0.0
akaruikaty 0.0
chillinlaidback 0.0
erryone 0.0
chrisanokute 0.0
beyelite 0.0
kuntyewest 0.0
chiroprac 0.0
katyperryrises 0.0
godneybjs 0.0
liquoronurlips 0.0
katystumblrr 0.0
holiestkaty 0.0
hollykittykaty 0.0
katysprincess 0.0
katysdonut 0.0
carlythekatycat 0.0
katycatsophia 0.0
fridaaperry 0.0
iegendarylovers 0.0
katycatveronica 0.0
katyperryslave 0.0
hakimkharbouch 0.0
keonovak 0.0
plaaaaay 0.0
scatting 0.0
shotted 0.0
dizzycoco 0.0
fkinsnapss 0.0
junkygs 0.0
ミニチュア料理 0.0
エビフライとエビ天 0.0
adidasboosts 0.0
lilithia 0.0
cottoncandizzle 0.0
ultimatebeyhive 0.0
paramorewebnews 0.0
royale_lala 0.0
musicnews_feed 0.0
katyperryextra 0.0
greeniight 0.0
gagas_illusion 0.0
lesbiyonce 0.0
blurryhface 0.0
lordofgiraffex 0.0
ifuseekamy_ 0.0
legendarymalek 0.0
hausoframez 0.0
unstan 0.0
chioekardashian 0.0
theiife 0.0
handstomyseif 0.0
legendarylovers 0.0
gagas_fandom 0.0
thinagedream 0.0
conditionalbabe 0.0
dannysuschrist 0.0
prismdluxe 0.0
herwonkeye 0.0
camilasviews 0.0
gagalovesbey 0.0
shadykatyfacts 0.0
limalimoncia 0.0
heavymetaiovers 0.0
katyscrush 0.0
waikingonair 0.0
eduardo_katycat 0.0
katyswetdream 0.0
katherynsgod 0.0
katystddbr 0.0
katyboobies 0.0
royaityler 0.0
nothingfaiis 0.0
kathrynluck_ 0.0
prismaticiights 0.0
mendesperry 0.0
katycatghita 0.0
mark_katycat 0.0
iwasdivine 0.0
skywaterr 0.0
xjojospearsx 0.0
alwaysbeperry 0.0
skoglyrihanna 0.0
legendarydurk 0.0
halseysfirework 0.0
rainbowspatrick 0.0
katysfood 0.0
honeymoonprism 0.0
onepulsetony 0.0
butcha 0.0
okurrr 0.0
the_mpt 0.0
talaofficial 0.0
miniatures 0.0
ohmyjurassic 0.0
katysmoonlight 0.0
lilly_jnes 0.0
coco_ho 0.0
perryhumorr 0.0
yikesjonathan 0.0
rubyrankin 0.0
thealekovski 0.0
cydney_moore 0.0
truebluedeluxe 0.0
thedutchass 0.0
katyskettle 0.0
ferraseu 0.0
katyssunlight 0.0
typosqween 0.0
adoreeeperry 0.0
katyperryfrance 0.0
snowiner 0.0
_coolkatycat 0.0
nicothekatycat 0.0
adorbies 0.0
jackygerardchan 0.0
brewmystew 0.0
katyswildfire 0.0
rihftperry 0.0
theolagu 0.0
ritajoness 0.0
iitsjackie 0.0
mjjperry 0.0
jesuskylie 0.0
holyerotica 0.0
graceofkaty 0.0
redsvelvets 0.0
booyakasha 0.0
tariqterry 0.0
katycatalannah 0.0
taylxre 0.0
pacifyher 0.0
basedkatyperry 0.0
diddleurskittle 0.0
katysanalien 0.0
gagasspace 0.0
tayiorhq 0.0
givenchydress 0.0
augustryder 0.0
perrysmoschino 0.0
kittehn 0.0
katrieber 0.0
legendaryhunty 0.0
katyslegs 0.0
katyfroot 0.0
winesandlines 0.0
sam_incolour 0.0
wakingonair 0.0
drwssinup 0.0
huffdaddysays 0.0
fiwwwwine 0.0
matthewroper 0.0
emmabruhhh 0.0
gingerwesson 0.0
nicholas_sewell 0.0
perfectlyperry 0.0
bustabusta 0.0
mynameisziam 0.0
venuzszfly 0.0
katherynsus 0.0
sacredperry 0.0
thedollsftkaty 0.0
_cafajeff 0.0
debkatycat 0.0
katycats 0.0
eastonjames_ 0.0
oliviabooker_ 0.0
protecti 0.0
outrageousness 0.0
joanneprada 0.0
scuffed 0.0
catoure 0.0
blanged 0.0
tahmorrow 0.0
glukatyperrypop 0.0
jamesjoint 0.0
pressin 0.0
bourree 0.0
honeysuckle 0.0
meowings 0.0
fashun 0.0
happun 0.0
vikander 0.0
thekatyperrypopgame 0.0
karolfabianaros 0.0
nico_thekatycat 0.0
miss_lilyjames 0.0
stylinfunk 0.0
hudsontheband 0.0
jere_my 0.0
crabitat 0.0
tiersz 0.0
unrehearsed 0.0
fanclub_kp 0.0
oneofthesophies 0.0
fusterlandia 0.0
lazyblazy 0.0
katycatchloe 0.0
figali 0.0
prismaticness 0.0
titicaca 0.0
ancientaliens_ 0.0
sneezin 0.0
cristos 0.0
mallman 0.0
prismaticlife_ 0.0
ravensuxx 0.0
perrypositive 0.0
derkwhore 0.0
alekjandro 0.0
havss_ 0.0
hqzaynmaiik 0.0
thique 0.0
bbhmms 0.0
jkatharineb 0.0
jennyformica 0.0
tiiiiiight 0.0
ikissedagay 0.0
harryvuitton 0.0
aeschleahd 0.0
princessjavonda 0.0
errrythang 0.0
kooning 0.0
sugarray 0.0
empaths 0.0
goldenboyz_inc 0.0
voguejp 0.0
chickenwingguardingthemimosa 0.0
katyperrypopup 0.0
unmeasurably 0.0
transviolet 0.0
beauteous 0.0
katyskidrauhl 0.0
thooooooseee 0.0
clairesstores 0.0
nailsbymh 0.0
katysacutie 0.0
psychokatycat 0.0
kaceymusgrave 0.0
refueled 0.0
hyungsunju 0.0
okuurrrr 0.0
cholewheeler 0.0
leftshark 0.0
momchella 0.0
crotches 0.0
hookedondolls 0.0
fyuseapp 0.0
mogonoloball 0.0
atletica 0.0
katycatsclub 0.0
catacombs 0.0
poppycorn 0.0
cupped 0.0
christiania 0.0
residenz 0.0
lindseyweber 0.0
butterballface 0.0
joshlecash 0.0
myassistant 0.0
swiftschrist 0.0
snowhiteperry 0.0
emmakphughes 0.0
katyslegend 0.0
dansnierson 0.0
scressful 0.0
prismaticwitch 0.0
finnin 0.0
habibis 0.0
mophies 0.0
strongé 0.0
drumkit 0.0
anamanaguchi 0.0
gaultier 0.0
ngvmelbourne 0.0
dukedumont 0.0
legendaryasmyn 0.0
highlarious 0.0
calpurnia 0.0
waaaaait 0.0
mktfah 0.0
fwding 0.0
caseyhoops 0.0
worldstarvlne 0.0
flapfkp 0.0
bettycrocker 0.0
mexxxico 0.0
whhhhhhhhuuuuuutttt 0.0
yelletweets 0.0
gucciqxxn 0.0
luckyladyrebelettes 0.0
junglejulia 0.0
charlottes_web 0.0
istarbucksniall 0.0
katysroaaar 0.0
fiorucci 0.0
whuteva 0.0
sirdavidd 0.0
fudgery 0.0
bizquick 0.0
itsgrandtheft 0.0
grandtheft 0.0
katysfancy 0.0
ameezyyrush 0.0
mykectown 0.0
itsvalkubus 0.0
walkslikeperry 0.0
iwantperry 0.0
exausto 0.0
selfeh 0.0
aquaberry 0.0
sidepiece 0.0
versacness 0.0
iamleslii 0.0
alocalgyro 0.0
cutina 0.0
theoutslder 0.0
prism_katy_cat 0.0
katyshoodrat 0.0
thestevetisch 0.0
ronysphotobooth 0.0
schlitterbahn 0.0
kpsnosecrinkle 0.0
alwz_katycat 0.0
whykph 0.0
californiagurls 0.0
katycattt 0.0
varicose 0.0
itsbrillz 0.0
perrystiger 0.0
katysmyaura 0.0
paolablancokp 0.0
callmemargot 0.0
indiggynado 0.0
katycat 0.0
anylinden 0.0
kpkillerqueen 0.0
katyslilacwine 0.0
katypvenezuela 0.0
franzikaty 0.0
katherynelperry 0.0
doessss 0.0
katysleftarm 0.0
datingprism 0.0
_smiler_katycat 0.0
kepyterry 0.0
katycat_camille 0.0
vckatyperry 0.0
bowzerjoe 0.0
taishrox 0.0
mütter 0.0
arianperryarian 0.0
lisasigh 0.0
fridiskp 0.0
kevinruda 0.0
katyperrydaily 0.0
wakingupvegas 0.0
marlyins 0.0
drankin 0.0
herkatycat 0.0
luvhudson 0.0
yaeltsairi 0.0
felipinhoofm_ 0.0
renanmarcall 0.0
kariseperry 0.0
emojing 0.0
konnie 0.0
mcperry 0.0
iturnmycanonon 0.0
katycatelysha 0.0
andrewnavs 0.0
katycatkrystal 0.0
lovelyandlaugh 0.0
lampoonians 0.0
perrytuuda 0.0
katymyhaven 0.0
ruletheschool 0.0
cheapandchic 0.0
sically 0.0
crazyforperry 0.0
kpdaily 0.0
getonupmovie 0.0
cutetina 0.0
chimiuzz 0.0
kefali 0.0
joelkefali 0.0
siclly 0.0
mtvother 0.0
lydiaacav 0.0
prismaticperry 0.0
jwujek 0.0
adorbie 0.0
errone 0.0
kaliyah 0.0
katysweirdness 0.0
vinbiodiesel 0.0
katysfxb 0.0
katyspurrfect_ 0.0
shannonmwoodward 0.0
bippity 0.0
boppity 0.0
swiggty 0.0
swoogity 0.0
pizzarella 0.0
firewerk 0.0
katyslayed 0.0
emerald_epelman 0.0
madkatydisease 0.0
mandee 0.0
ohferras 0.0
sarahh 0.0
iaustinhunt 0.0
lanawhore 0.0
spaceykacey 0.0
crazay 0.0
elektrikpeople 0.0
visa_nz 0.0
fvckin 0.0
nathanspicer 0.0
cashcash 0.0
ashish_uk 0.0
xokatic 0.0
turnting 0.0
scorpiomystique 0.0
toddthomasnyc 0.0
kohngallery 0.0
discnt_universe 0.0
dressinkaty 0.0
lee_cook 0.0
bloodshot 0.0
yaddlizc 0.0
elnett 0.0
itsthekatycats 0.0
kelly_moritz 0.0
katyslaykaty 0.0
skintxghtjeans 0.0
socarrer 0.0
errrday 0.0
therealslacker 0.0
wendywild 0.0
welkys 0.0
sohohouse 0.0
selfing 0.0
camiilaruales 0.0
nexxxt 0.0
turrell 0.0
alliexxxxandra 0.0
surfboardt 0.0
telstra_news 0.0
juanitadele 0.0
oopskatycat 0.0
sophkatycat 0.0
katyschild 0.0
katysconverrse 0.0
katycat_leah 0.0
katycatverified 0.0
katycat_libby 0.0
katyswonk 0.0
kittless 0.0
jlrcukp 0.0
siiiiiiiiiiiiii 0.0
ermagherd 0.0
imlynsey 0.0
perrys_cherry 0.0
casemcgase 0.0
hazzaily 0.0
herses 0.0
gaypropaganda 0.0
tixforcharity 0.0
hudsons 0.0
nomers 0.0
mommacat 0.0
superlove 0.0
bonacorso 0.0
levi_leet 0.0
thinkingofbecki 0.0
cybering 0.0
pamyurin 0.0
idreamofkaty 0.0
xfactor_au 0.0
glohudsonperry 0.0
aubreyplzza 0.0
eeshhuhhayniac 0.0
bonkay 0.0
katysbum 0.0
nevillebradley 0.0
curryswift 0.0
zinepack 0.0
katykatt_suraya 0.0
sweetkatybird 0.0
yohkatheryn 0.0
cottoncandykaty 0.0
karolynadiaz 0.0
maayansharvit 0.0
theprismcess 0.0
camisp_ 0.0
lucasgaldin 0.0
prixy_mtz 0.0
niggasperry 0.0
kaksperry 0.0
zennnnaaa 0.0
katyissmurfy 0.0
dadehoward 0.0
kyledsaavedra 0.0
katysdoritos 0.0
pendejabardera 0.0
rosenilsou 0.0
hackensucks 0.0
gottabesheerio 0.0
ismaellgarcia 0.0
milegendz 0.0
alexskarev 0.0
ladycrystalb 0.0
katyspad 0.0
xcallmechrissyx 0.0
arianastylesss 0.0
jorgebaker 0.0
matty_zee 0.0
katycatzilla 0.0
adorie 0.0
meowwdison 0.0
alvin_koopa 0.0
lexyauditore 0.0
kease_it_raw 0.0
katysking 0.0
chris__kirby 0.0
katysbestfrwend 0.0
katyslildancer 0.0
sssshhh 0.0
conorhughess 0.0
tanimura 0.0
thekatycatlife 0.0
weefififookface 0.0
breakalioz 0.0
hudsonhelper 0.0
lariitaa 0.0
meeeeeooooooooowwwww 0.0
legend__dary 0.0
katyandliam 0.0
_theatrekid 0.0
babybritney 0.0
erinlorimer 0.0
_zacmoore_ 0.0
itscezzurryo 0.0
katycatskp 0.0
larissafilipo 0.0
siaylorswift 0.0
shitkittens 0.0
thefrankradical 0.0
katysprism 0.0
katytinalevine 0.0
serjeeoh 0.0
kayz_perry 0.0
katyslaysurfav 0.0
fuckyeahitskath 0.0
sweetyitosan 0.0
pickerington 0.0
verrado 0.0
retweete 0.0
jameswaterhouse 0.0
hunnah 0.0
truth_ispeak 0.0
_emilybarbarrr 0.0
nbllrrr 0.0
jmoneygraves 0.0
eaglenationnews 0.0
tauentzienstrasse 0.0
avontbh 0.0
vinnie_mate 0.0
demilovve 0.0
coolestkatycat 0.0
terri_katycat 0.0
beeeaaatttt 0.0
laurenfrancisco 0.0
victaytayp 0.0
aylajaye 0.0
iloveu 0.0
augustvaz 0.0
lizzievang_ 0.0
edsssss_ 0.0
hhhhhholly 0.0
holly_hickin 0.0
trixxx 0.0
killah 0.0
treasurefingers 0.0
最強ガール宣言 0.0
voykovic 0.0
annunaki 0.0
katyshomie_ 0.0
katyselephant 0.0
caitlynsmith 0.0
lightsperry 0.0
elizagilham 0.0
ohmyjatyfeels 0.0
junglescope 0.0
drunkskaty 0.0
malikpom 0.0
dancerlaurena 0.0
brirad 0.0
elisa_rv 0.0
moooom 0.0
pattymeagher 0.0
iwasemily 0.0
shahrzadphoto 0.0
tvjohnny 0.0
cstonethebreadwinner 0.0
katysrightboob 0.0
cyberdlck 0.0
beatforkaty 0.0
igabriiel 0.0
duuuuddddeeeee 0.0
redrum 0.0
srbuhiii 0.0
kayleighcat 0.0
applekatycat 0.0
ikatycats 0.0
wehryspencer 0.0
emilyjonesphoto 0.0
coxgabe 0.0
drugmoneyx 0.0
steven_drum 0.0
victoriacha 0.0
hashtaggin 0.0
perryandemetria 0.0
katycatfurlife 0.0
iammelissalynn 0.0
qewtie 0.0
yscheecat 0.0
slayty 0.0
katystree 0.0
katherynsboy 0.0
anapurry 0.0
nenedez 0.0
kevinn_perry 0.0
gloria_swag_ 0.0
andyamaziing 0.0
roarsana 0.0
brighthudson 0.0
fixingperry 0.0
roooooooooooooar 0.0
gretschusa 0.0
katys_cupcake 0.0
wonderation 0.0
kasek_craig 0.0
katysgurll 0.0
pepperperry_ 0.0
teamkatyperry 0.0
meandnutella 0.0
lovatokitten 0.0
katyslolly 0.0
astixxx 0.0
ravemomentz 0.0
erzaabrianto 0.0
katyperryindo 0.0
seeingdaisies 0.0
gillian_e_dubbs 0.0
samanthachazene 0.0
perryprism_ 0.0
katycompletesme 0.0
ltskatyperry 0.0
kittenscks 0.0
nihanofficial 0.0
momcat 0.0
kaytehperreh 0.0
__grazi 0.0
clairekatycat 0.0
fangurl 0.0
rrrrrrrrrrrroooooooooooooaaaaaaaaaaaaar 0.0
marispiva 0.0
mattdrobins 0.0
deihemmings 0.0
rooaaarr 0.0
katycatobsessed 0.0
katycatnick 0.0
tigerkats 0.0
kristenanzelc 0.0
taylermckellop 0.0
essesfadaperry 0.0
imjare 0.0
smganonymous 0.0
roaaaar 0.0
phuckyotweet 0.0
evvvvvverrrr 0.0
melvynmarrero 0.0
zouisashton 0.0
trillneyspears 0.0
rooooooar 0.0
fanwars 0.0
fentyncold 0.0
ttish_ 0.0
rachelacogan 0.0
makesmariana 0.0
kkaplon 0.0
rafaelmoncada 0.0
yaaaassssgrl 0.0
oioianna 0.0
katycatrazan 0.0
megaan_katycat 0.0
thekaelynn 0.0
hannahloupunton 0.0
thumbelinafairy 0.0
nic_kathryn 0.0
dannahfields 0.0
rodneybroaddus 0.0
noxisanasshole 0.0
soedesh__ 0.0
hookerofversace 0.0
thinkingofkaty_ 0.0
msgracevalerie 0.0
francfernandez 0.0
katysring 0.0
a_little_spark 0.0
laaxiss 0.0
