awesome 0.00190998960298
christmas 0.000349863615581
trying 0.000245562951081
launch 0.000172056342346
moment 0.000352700626034
wonderful 0.000315241629201
seeing 0.000432469952105
hanging 0.000486457556533
sounds 3.74275166246e-05
recommend 0.0003132866603
worked 3.79371325425e-05
direct 4.96757990655e-05
others 0.000301859098284
currently 0.000125192274325
better 0.0014575772563
please 0.00288435922966
social 0.000117894770447
anxiety 7.59610919087e-05
around 0.000485859085433
people 0.00301926717376
morning 0.000662944413281
traditional 0.0
general 0.0
damage 0.0
everything 0.000348918112253
twitter 0.000629747788895
present 0.000119184107806
though 0.000508648378458
friend 0.00119273433382
watched 0.000315241629201
beautiful 0.000718841757396
anything 0.000283685964902
previous 0.000110243223734
helped 0.000152986133151
updated 0.000110920384625
thinking 7.13049642494e-05
finally 0.000534787231871
caught 0.000117894770447
believe 0.000904745115455
already 0.000417574668672
couple 0.000190715464559
orlando 0.00017826121698
chance 0.000383809923478
meaning 5.16001933589e-05
growing 0.000209227414541
probably 0.000189173044608
password 8.70896446837e-05
changed 0.000298611882751
history 0.000431305054437
center 0.0
museum 0.0
behind 0.000138816881552
screaming 0.000129096663728
pretty 0.00110522694587
really 0.00177948237249
little 0.00125272400601
happiest 7.38752320816e-05
earlier 8.1652724846e-05
forget 0.000353652731443
someone 0.000597976913466
safety 0.000202202966875
program 0.000145627497988
things 0.000798197068925
related 5.12970978045e-05
visiting 9.62537499119e-05
available 3.62341307185e-05
perfect 0.000617644459556
different 0.000283685964902
search 9.32882781204e-05
connect 0.0
numbers 0.0
person 0.000419831859263
watching 0.00136813644174
exhibit 0.0
passed 0.0
prefer 0.0
minutes 0.000576626602807
travel 0.00034127483617
outside 0.000110775828046
looking 0.000591564113951
forward 0.000537679257675
agreed 0.000187105383096
raising 0.000199280398264
listened 0.0
afraid 9.01914771728e-05
impression 6.41090320693e-05
christian 0.000244721733639
profile 0.000143148507989
instant 0.000214906419061
drawing 6.21982254274e-05
wheels 7.24585365871e-05
favorite 0.00170071437264
picture 0.000631130115201
instead 3.92982568155e-05
appreciate 0.000164201045583
international 8.62662792649e-05
station 4.89631616968e-05
toddler 0.000184176837465
market 0.000141126839395
couldn 0.000690308513622
remember 0.000558268979605
vintage 7.95153248281e-05
holidays 0.000398560796528
friends 0.00126289517699
everyone 0.00216329229597
florida 0.000463034832213
always 0.00100642239125
months 0.000145720801127
moving 0.00015011537155
meeting 0.000536231236419
answer 0.000107246247284
sweetie 0.0
together 0.000594761800623
inside 7.26640540655e-05
section 0.000214550379506
missed 0.000389018004588
button 0.0
longer 8.05457087038e-05
enough 0.000317430563431
driving 0.000298615481648
building 7.83832770861e-05
enjoying 0.0
london 8.30048800906e-05
exploring 0.0
posting 5.23697197962e-05
amazing 0.00358418257276
attention 3.95124810784e-05
gordon 0.000346386491371
progress 4.84034040715e-05
tomorrow 0.00163991512759
george 0.0
feeling 0.000328757868331
excited 0.00182151001409
understand 0.000266279719561
following 3.66273838826e-05
asleep 0.000385967921205
learning 4.32526035039e-05
evening 0.0
special 0.0010552533767
secret 0.000117256040461
across 0.000233876277916
surprised 0.000374547701834
anymore 4.44704204004e-05
sophia 0.0
precious 7.35872285997e-05
rejoice 0.0
version 0.000115676151856
rather 0.000117574915629
avatar 0.0
showing 0.000223354483998
saying 0.000145720801127
tweeted 0.000138360875475
thoughts 0.000555377165167
exactly 0.000113197161857
except 0.0
getting 0.00139567244901
nothing 0.00108164614798
tweets 0.000192271718058
course 0.000324352464079
photos 0.000295343653839
looked 0.000237720546902
difficult 9.19811125413e-05
stages 0.0
office 0.000150929549142
decisions 5.2682372545e-05
brought 0.000115990217437
biggest 0.000179710439349
thrilled 0.000106313394583
something 0.00059316079083
closing 5.19059593932e-05
anyone 0.00165323029017
taking 0.000314026301028
recently 4.53490551884e-05
interesting 0.000194368675323
original 8.25512285359e-05
flying 0.00021928085188
happening 7.60799198747e-05
sometimes 7.69086872231e-05
lessons 5.05507417188e-05
village 0.000140091377572
stopped 8.18762626907e-05
yesterday 0.000633152026023
service 0.000306802263222
serious 0.000149305941376
digital 5.17527396282e-05
hoarder 0.0
wearing 0.000122814394036
british 0.0
either 0.000418439559311
second 0.000281400900455
checking 9.04443315172e-05
indeed 0.0
island 9.87779713885e-05
hearing 3.89793796527e-05
choose 0.0
staying 0.000141528044752
another 0.00121792611696
clothes 5.79275208474e-05
slowly 6.32467710586e-05
weekend 0.000424383277732
hashtag 5.14483146903e-05
delivery 6.38914500375e-05
theory 0.0
working 0.000209350867352
bigger 0.000122814394036
screen 4.71760149173e-05
riding 6.03871595483e-05
laughing 0.00037249957657
wanted 0.000282160500827
trends 0.0
stripes 0.0
clothing 7.44585100197e-05
current 0.000123488264746
adorable 0.000197701846271
grateful 0.000136812703288
friendship 6.82785467458e-05
family 0.00150034788269
listening 7.64930665754e-05
stream 0.000527883755512
expressions 0.0
wedding 0.0
sharing 8.21005227913e-05
double 0.000158049924314
especially 0.000270643840687
middle 0.000120161698661
waiting 0.000357487490946
definitely 7.62861858238e-05
walking 0.000376609346174
account 4.09381313453e-05
completely 8.27776836822e-05
thought 0.000527626688352
reaction 4.77161693296e-05
accept 4.45945859009e-05
simple 0.00012181169613
professional 0.000155258218885
friendly 0.000103811918786
supposed 0.000185524908169
business 7.52609317204e-05
absolutely 7.46529706878e-05
anywhere 0.0
sending 0.000202465996743
introducing 0.0
congrats 0.00362611100438
beauty 0.000199860010303
community 0.000172056342346
greatest 0.000152572371648
selfie 0.000104428886767
posted 0.00020637807134
saturday 0.000405082636783
wednesday 0.000420760765831
confused 5.08473607928e-05
expression 0.000140611293417
chicago 0.000332115288601
closest 0.000133194089109
relationship 4.69090580595e-05
actually 0.000536231236419
easter 0.000143148507989
basket 8.12596226194e-05
myself 0.000228662655693
argument 5.37993864067e-05
school 0.000496450438579
thursday 0.000373264853439
selling 4.77161693296e-05
talented 4.58613039038e-05
celebrate 0.000308469738283
falcon 0.0
celebrating 0.000249698467889
contest 9.0952820537e-05
experiences 0.0
students 9.25010283864e-05
internet 0.000130117440096
figure 0.000208653790541
opened 0.0
featuring 4.53490551884e-05
inspired 0.000253151703291
sitting 0.000236431221901
playing 0.000921979385932
street 0.000115990217437
points 0.000581349564108
memory 0.000144794592257
forever 0.000197026018251
imagine 7.77474701292e-05
problem 0.000224565099747
played 0.000545711315138
canadian 0.0
pulling 5.94204056598e-05
keeping 0.000194896898263
lovely 0.000175424681504
dressed 0.000168964150232
specifically 0.0
unlike 0.0
disappointed 5.2525694083e-05
otherwise 0.0
afternoon 0.000123150784187
planned 0.0
strange 5.36375948765e-05
images 0.0
noticed 0.0
notice 0.000189241069552
stretch 6.43279868674e-05
inspiration 0.000191410127456
letting 0.000257372631381
system 0.0
possibility 0.0
almost 0.000209350867352
details 0.000114429278736
experience 0.000400732203099
living 0.000109290600845
weather 0.000133783757703
normal 0.0
launching 0.0
before 0.000113503826765
captured 0.0
colors 0.0
monday 7.28604005635e-05
example 0.000138360875475
realize 0.000150331539441
autographed 8.97266763459e-05
sleeping 0.0
authentic 8.62533579429e-05
science 9.84929260565e-05
tweeting 0.000119508952566
forgot 0.000174938457253
chasing 0.000144917073174
gorgeous 0.000113343868144
herself 0.0
happens 0.000144546039124
silence 0.0002747677618
learned 8.07657039459e-05
congratulations 0.000461452123339
natural 0.000148596288253
raised 4.56042344292e-05
babies 5.42893364793e-05
mission 4.7310267388e-05
smelled 0.0
ironic 0.0
testing 0.0
deleted 0.0
barely 0.0
unforgettable 0.0
forgotten 0.0
trouble 4.31331396325e-05
fantastic 0.000535115813898
loving 0.000288139284406
complete 0.000120161698661
nearly 4.58613039038e-05
spirit 0.00031655516031
launched 0.0
finding 4.26593545212e-05
mercury 0.0
stories 0.000113197161857
including 0.000116305233294
mature 0.000190305089659
stuffed 0.0
ancient 7.44585100197e-05
bottle 0.000163362607333
somewhere 9.0952820537e-05
wouldn 0.000376304658602
choice 0.000223354483998
conversation 0.000296974059575
making 0.000382776779616
expect 8.36909658164e-05
occasions 0.0
subject 0.0
flights 7.08314782894e-05
location 0.0
vacation 0.000187841549403
seriously 0.000809733062993
spending 0.000260234880192
groups 5.63213834107e-05
childhood 0.0
modern 0.000100513272792
welcome 0.000881751565086
moments 0.00021686240016
degrees 0.0
jacket 6.1583975403e-05
halloween 0.00041895775837
costume 0.000276099611326
totally 0.000402728543519
laughed 0.000198393627296
flight 0.0010042915898
kidding 0.000163859566087
regular 0.0
context 5.88530215715e-05
running 0.000476155990474
finished 0.000125192274325
strong 0.000467247142307
tracking 0.0
respond 5.2682372545e-05
message 0.000370251443445
coming 0.00160070289657
thankful 0.00043962841888
cheese 0.000165871467556
greens 0.0
issues 4.16164113148e-05
intolerance 0.0
happen 0.000497790740354
giving 0.000246890438224
turkey 0.000305084164757
excellent 0.0
limits 6.47700848255e-05
common 0.0
pressed 0.0
situation 4.56042344292e-05
options 0.0
health 0.000123488264746
insurance 0.0
change 0.000383809923478
singing 0.000139932417181
august 4.92464630283e-05
crying 0.00010990710472
mental 0.0
happened 0.000293811179339
demand 9.19811125413e-05
generally 0.0
personal 0.000227622795255
beyond 7.79587593054e-05
bruised 0.0
question 0.000392177303372
chicken 5.01105131469e-05
reward 0.0
tunnel 0.0
losing 0.000129042256759
respect 0.000305144743295
caption 0.0
shouldn 4.17307581082e-05
visited 0.0
reason 0.000183631987087
simply 8.72269650621e-05
darlin 0.0
audience 0.0
involved 8.120779742e-05
unhappy 0.0
reality 4.15024400453e-05
extremely 0.0
without 0.000492451575795
falling 0.000102896629381
countdown 0.000253841344663
locations 0.0
timing 0.0
crabby 0.0
classic 0.000128331587371
highly 0.0
online 0.000337759585987
finger 0.0
animals 5.82947647018e-05
planets 0.0
called 0.000140321686332
delicious 6.1787519801e-05
almond 0.0
compliment 6.97876636542e-05
pictures 8.82011346084e-05
camera 9.12084688584e-05
pillow 0.0
checked 4.95320960842e-05
heading 0.000498029280543
theater 0.0
paying 0.0
planning 4.53490551884e-05
complex 5.73838404793e-05
sunday 0.000252274138728
nights 5.14483146903e-05
descending 0.0
traffic 0.000157109159389
opposite 0.0
through 0.0
lookout 0.000110308490458
reached 5.17527396282e-05
harder 0.0
random 0.000152542082378
changes 4.31331396325e-05
speaking 7.98898760375e-05
recorded 0.0
washed 0.0
november 0.0
answered 5.51216118671e-05
enchanted 0.0
number 0.000178743745473
adventures 0.0
eclipse 0.000204471030113
chocolate 0.0
unless 0.0
calling 7.32547677652e-05
mermaid 0.0
distraction 0.0
levels 0.0
option 0.000151652225156
shopping 0.000317987205783
former 0.000306993192631
actual 0.000139143681127
covers 5.6496216125e-05
mountain 0.000123167950806
friday 0.000141461092577
winner 0.000232610466587
closes 0.000142730799807
quality 9.01914771728e-05
father 0.000198640179676
wishes 0.000363811282148
hourly 0.0
matter 7.48550332491e-05
themselves 0.0
usually 0.000325587038566
period 0.000104119717254
parents 0.000209227414541
balance 0.0
publishing 7.44585100197e-05
mobile 0.0
woohoo 0.0
bracelets 0.0
summer 0.000338674192742
reminded 0.000121167569105
impressed 0.000898275946679
necklace 0.0
shutdown 0.0
dinner 0.000308469738283
single 0.000179710439349
packed 5.72044901039e-05
definition 0.000172151521438
energy 0.000166009760181
preview 4.96757990655e-05
monster 6.01916422965e-05
material 0.0
admission 0.0
europe 9.65297281712e-05
holiday 0.000240979225652
emotional 0.000201026545584
update 0.0
customers 0.0
messing 0.0
holding 8.25512285359e-05
electric 0.0
eating 0.000174453930124
outfit 7.16354730205e-05
picked 8.69855441552e-05
fabulous 0.000486252239463
missing 0.000558386209995
surprise 0.000149305941376
officially 0.0
french 4.48442576281e-05
global 0.000186576556241
follow 0.000315723794247
opinion 0.0
backwards 0.0
design 0.00010536474509
secrets 0.0
request 0.0
breaks 0.000137971668812
allows 0.000131343087661
promoting 5.99972203853e-05
volunteer 0.0
wondering 0.000332115288601
official 0.000108117488026
sweater 0.0
jersey 0.000703991236469
mistake 4.82648640856e-05
france 0.000242017020358
proper 0.000166380576938
ginger 0.0
peaceful 0.0
lighter 0.0
thinks 4.071495231e-05
competition 4.71760149173e-05
hospital 0.000101694721586
industry 0.0
trending 0.000173236038131
leadership 0.000218479421449
organized 0.0
showed 8.77123407518e-05
circle 6.1787519801e-05
success 0.000275836425551
ladies 0.00105275570101
dreams 9.17226078076e-05
protect 8.94383944781e-05
onesie 0.0
explanation 0.0
control 7.79587593054e-05
coincidence 0.0
discovering 0.0
laying 7.21820074715e-05
invited 9.82090465574e-05
healthy 0.00023655133694
surgery 0.00019633192307
allowing 0.0
arrived 0.000126575851645
opening 7.58742650849e-05
popular 4.77161693296e-05
pleasure 0.00052481537176
spectacular 6.36752236658e-05
animal 0.000209478879185
luggage 0.000208515384171
wonder 0.000340511480295
matters 4.58613039038e-05
reader 0.0
function 0.0
marketing 0.0
connection 0.000113697092523
improves 0.0
benefit 0.000218673071567
continues 4.25419120389e-05
cuddle 0.0
routine 0.0
exciting 0.000125536448725
corner 9.96401991321e-05
imagination 0.0
sangria 0.0
mystery 6.34603361657e-05
spring 4.45945859009e-05
beautifully 6.90249028315e-05
places 0.000166465645259
feedback 0.0
continue 0.000120818563056
attend 5.2525694083e-05
creative 9.84929260565e-05
memories 0.000143148507989
female 0.000232562170404
grandma 0.0
closer 0.00013120384294
accent 7.62695758989e-05
beginning 0.000131568511128
sooner 0.0
everywhere 8.32328226297e-05
scenes 0.0
bought 4.26593545212e-05
wishing 0.000101101483438
discovered 0.0
remove 6.01916422965e-05
predict 0.0
parrot 0.0
several 0.0
teacher 0.0
passing 9.43520298346e-05
become 0.000218581201691
spread 0.00019918158761
netflix 5.79275208474e-05
season 0.000653723841396
putting 0.0
weight 0.0
outfits 9.11243506174e-05
notification 0.0
annoying 6.82785467458e-05
necessity 0.0
knocks 0.0
processed 0.0
necessarily 0.0
effects 0.0
lighting 7.72118298072e-05
headed 0.000461202918251
returns 0.0
expected 0.0
bucket 0.000131343087661
constantly 0.0
sweetest 8.38590141256e-05
struggling 0.000120774319097
register 0.000415247675145
transition 6.75479045931e-05
flowers 0.0
sprain 0.0
savage 0.0
somebody 5.20598586271e-05
covering 0.0
gloves 8.05513486405e-05
repeat 4.86821543283e-05
managers 0.0
brothers 0.0
patriots 0.0
seahawks 0.000189245398224
player 0.000973643086566
chemistry 0.0
moonlight 0.0
comment 4.4969770316e-05
columbia 0.0
physical 0.0
kingdom 0.0
pretend 0.0
charles 0.000111948676629
fighting 7.94560718705e-05
rooting 0.000209362990963
donald 0.000200442052588
mexico 0.000655243907554
police 8.9939540632e-05
represent 0.000295205603937
president 0.000465220933175
talking 0.000314873894447
unbelievable 0.000166380576938
shrimp 0.0
giants 0.0
conference 0.000173010414016
america 0.000408378309836
everybody 4.30140855864e-05
houston 0.000356522433959
everyday 9.90641921684e-05
michael 0.000118215610951
protecting 6.21982254274e-05
unconditional 0.0
million 3.66273838826e-05
election 9.62537499119e-05
telling 0.000158480364601
correct 0.000179879081264
pulled 5.23697197962e-05
starbucks 7.68948940849e-05
americans 0.000145627497988
killed 7.77474701292e-05
cowboys 0.0
cowboy 0.0
coverage 4.7310267388e-05
dallas 5.7564122549e-05
coffee 0.000131934461104
timeline 0.0
refuse 0.000125227699602
barackobama 0.000269230944078
hillary 0.000124810830837
clinton 0.000114052123685
gatorade 0.00532027580271
sharper 0.0
american 0.000370251443445
deserved 0.000853060115307
realist 0.0
illegal 0.0
arizona 0.0
waffle 0.0
scared 0.000153439610878
pieces 0.0
taught 0.0
golden 4.70422797985e-05
straight 7.73268116248e-05
massage 0.000189245398224
filter 7.72118298072e-05
answers 4.4969770316e-05
smoking 0.0
created 0.0
beside 0.0
worlds 0.000197701846271
record 0.000473592603663
freddie 0.0
africa 0.0
recruiting 0.0
journey 0.000362792441507
snapchat 0.0
brother 0.000467961032428
prayers 0.000218479421449
trolling 0.0
hungry 0.0
nflnetwork 0.0
documentary 0.000208857773533
boston 0.000504033775042
addition 6.07815299329e-05
church 0.0
honestly 4.98200995661e-05
lounge 0.0
lifetime 0.000158047117635
captain 5.92302450723e-05
favorites 0.0
country 0.000576626602807
valley 0.0
huddle 0.0
dressing 0.0
finish 0.000257372631381
favourite 0.0
prayer 0.0
nominated 5.23697197962e-05
praying 7.16354730205e-05
insane 0.000258000966795
national 0.000679182971139
reform 6.90249028315e-05
shooting 0.000218067412655
australia 0.000207010958513
deserve 0.000213885978951
legend 0.000558149208971
mother 0.000427611085711
realest 0.0
creating 4.79894323193e-05
powerful 0.000255251472234
chilling 0.0
wisdom 0.000117706043143
breaking 0.000337759585987
parked 0.0
angeles 0.000121563059866
dollars 0.000116959708632
questions 7.14974981892e-05
racist 6.28235436134e-05
girlfriend 0.000147174457199
performance 8.07657039459e-05
refreshing 0.0
educated 7.65808265985e-05
reading 0.000148100577378
denver 0.000146036588425
videos 8.9939540632e-05
harmony 0.0
create 8.07657039459e-05
jordan 0.000182344589799
admire 6.45483318641e-05
nobody 0.000171108783161
government 0.0
politics 4.93889856942e-05
paradise 0.0
recover 0.000157682870594
spotted 0.0
blessing 0.0
coolest 0.000370725118806
banana 0.0
donate 0.000423380518186
sandwich 0.0
lookin 0.0
method 0.0
bullshit 0.0
slight 0.0
bringing 0.000156766554172
deserves 0.000185524908169
regret 0.0
celebs 0.0
victim 6.63633452175e-05
stadium 0.000885616811812
funniest 6.36752236658e-05
according 4.62505141932e-05
pumped 0.0013210993129
hamburger 0.0
heaven 5.52904891852e-05
honest 0.00021686240016
rolling 0.000157109159389
became 0.0
feature 0.000287115191185
waking 0.000202643713779
breakfast 0.0
counting 0.000148596288253
signing 0.000274395186832
adding 0.0
awareness 0.000199860010303
kindest 0.0
trainer 0.0
facebook 7.46529706878e-05
insanity 0.000178546039892
repost 0.0
brazilian 0.0
campaign 0.000161972797394
borrow 7.95153248281e-05
scorpion 0.0
popcorn 8.020255957e-05
factory 0.0
teenage 7.65808265985e-05
endorsement 7.78545189222e-05
williams 0.0
custom 0.000210137066359
drinks 0.0
future 0.000431305054437
angels 0.0
fingers 5.41252500252e-05
sister 0.000797453987012
earrings 0.0
warrior 0.0
dancing 4.89631616968e-05
voting 4.30140855864e-05
individuals 7.03056467087e-05
presence 0.0
commercial 9.57050637282e-05
chopped 0.0
religion 0.000216546022414
century 0.0
submit 6.03871595483e-05
serving 0.000179991661156
because 0.000100513272792
aggressive 0.0
sensitive 0.0
smiling 6.1583975403e-05
besides 0.0
cleveland 0.0
hometown 0.000187216246255
killing 0.000133411261201
breath 5.92302450723e-05
phillips 0.0
instagram 0.000242017020358
sharks 0.0
cousin 0.000137051105832
honored 0.000774454465145
dedication 7.35872285997e-05
lifting 0.0
lyrical 0.0
talent 4.65124340809e-05
goodnight 0.0
stores 6.32467710586e-05
rushing 8.83831193829e-05
brains 7.68948940849e-05
sandwiches 0.0
drinking 5.19059593932e-05
brazil 0.000313069249004
tattoo 0.0
ravens 0.000101586819153
regardless 0.0
skills 0.000193613616286
cameras 0.0
phones 0.0
california 0.000199860010303
seconds 0.000186576556241
listen 7.20783253508e-05
smiled 0.0
kicking 9.84929260565e-05
homies 0.0
billion 0.0
shades 7.85093349599e-05
shoutout 0.000197701846271
grammy 0.0
guilty 5.90411207875e-05
stevie 0.0
ceiling 0.0
carpet 0.000119994440771
grammys 9.91068915179e-05
harvard 0.0
panther 0.0
nelson 0.0
mandela 0.0
handle 0.000181905641074
sexiest 0.0
promise 0.000124166525523
hosting 0.000365860249109
hahahaha 0.000384474470424
longest 0.000247969060232
tuesday 0.000277340638052
locker 0.000234541147622
workout 0.000135579493658
ingredient 0.0
leader 0.000136429230806
pageant 0.0
character 4.66441390602e-05
idiotic 0.0
mirror 0.0
jackson 0.0
interview 0.000283685964902
battles 0.0
bleach 0.0
insight 0.000123984530116
obviously 9.79263233935e-05
replay 0.0
battle 0.000202465996743
stomped 0.0
destroy 0.0
killer 0.0
personally 0.000100806755008
winning 0.000893417935992
gettin 7.56553258744e-05
japanese 6.38914500375e-05
writing 0.000121148555919
society 0.0
officers 0.0
brooklyn 0.0
sources 0.0
incredible 0.000526826522042
poster 5.52904891852e-05
celebrity 5.70260618426e-05
memorable 0.000144364014943
werent 0.0
chased 0.0
minute 3.92982568155e-05
confession 0.0
pregnant 0.000142730799807
cherry 0.0
twinning 0.0
phoenix 0.0
orange 0.000104428886767
policy 0.0
comedy 0.0
illuminati 0.0
reminder 0.000209802941111
evidence 0.0
iphone 0.000111261458731
kicked 5.72044901039e-05
intentions 0.0
freedom 0.000194169997318
patient 6.0980408531e-05
utterly 0.0
mississippi 0.0
download 0.000196985852113
assistant 0.000141135133193
invite 4.93889856942e-05
central 9.19811125413e-05
washington 0.0
stronger 5.54601923126e-05
promised 0.0
worried 0.000151210132513
throwing 0.0
security 9.25010283864e-05
cologne 0.0
headphones 0.0
sanctuary 0.0
fantasy 6.61312090986e-05
monkey 0.0
approve 0.0
spinach 0.000118677831627
turning 4.36134825311e-05
helping 0.000115050848708
tickets 0.000379727554936
collector 0.0
physically 0.0
slavery 8.75154686812e-05
december 9.68068081431e-05
basically 5.08473607928e-05
return 7.71174345708e-05
yassss 0.0
goddess 0.0
locked 0.0
feelings 0.0
language 0.0
motion 6.13816178594e-05
obsessed 0.000122360866819
creation 0.0
followers 4.50957385864e-05
schools 9.90641921684e-05
gallery 0.0
movies 0.000208857773533
foster 0.0
children 0.000115050848708
nation 0.000131568511128
theaters 0.0
between 0.0
knowledge 4.95320960842e-05
begins 0.000250384548649
robinthicke 0.0
faithful 0.000207140914687
peeing 0.0
closet 0.0
bodies 6.90249028315e-05
italian 0.0
highlights 0.000157577082249
spanking 0.0
forbes 0.000151922183817
parade 0.0
tasted 0.0
consider 0.0
reunion 0.0
latest 0.000113197161857
dedicated 0.00011884081132
beyonce 0.000149507733739
perform 5.58021085797e-05
signed 0.000384543436116
tuxedo 0.0
princess 0.0
shelter 0.0
germany 0.000476980808674
explaining 0.0
married 0.000103200386718
millions 0.0
blessings 0.0
iconic 7.1097412314e-05
indonesia 0.0
braids 0.0
dollar 5.86659363724e-05
rigged 0.0
replied 0.0
lights 0.000100221026294
turned 0.000152986133151
excuses 0.0
jackie 0.0
charge 9.65297281712e-05
performing 5.59743383147e-05
ticket 0.000187105383096
steady 0.0
whispers 0.0
finest 0.0
confucius 0.0
diamonds 0.0
vancouver 8.62533579429e-05
addicts 0.0
collection 0.0
families 0.000222972929505
select 0.0
hitting 0.000139537302243
announced 4.24248656535e-05
decided 4.17307581082e-05
jewels 0.0
lottery 0.0
owners 6.70692181019e-05
respects 0.0
celebration 0.00014688948509
memorial 0.00028335967036
landed 0.000108908404889
pastor 0.0
ultimate 5.05507417188e-05
incase 0.0
rapper 0.0
episode 8.32328226297e-05
bounce 0.0
disney 0.000140611293417
muffin 0.000530996728396
kansas 6.97876636542e-05
sherman 0.0
retweet 0.000353787313842
midnight 4.70422797985e-05
patience 0.0
cereal 0.0
joining 8.21005227913e-05
released 4.060389871e-05
release 3.82465332877e-05
models 0.0
classics 0.0
popped 8.50355410465e-05
mileycyrus 0.0
highlight 5.51216118671e-05
scholarship 0.0
within 4.44704204004e-05
hahahahaha 0.0
standing 0.000159345270088
higher 4.67763457739e-05
purple 6.49932638608e-05
skinny 0.0
justice 9.3818116119e-05
served 0.00021072949018
speaks 5.04033775042e-05
horses 0.000161807357554
houses 0.0
purchase 5.98038816101e-05
dropped 4.30140855864e-05
conversations 0.0
consideration 0.0
seattle 0.000318376118329
cookie 0.000140091377572
slurpee 0.0
strength 0.000337854048599
screens 0.0
monica 0.0
incredibly 4.92464630283e-05
streets 0.0
boyfriend 8.23498972173e-05
private 4.47191972391e-05
skittles 0.0
barbie 0.000108694049583
apologizes 0.0
designer 0.000153161653197
impress 0.0
cooking 0.0
exclusive 4.13888418411e-05
fashion 0.000100806755008
petite 0.0
talkin 0.0
peaches 0.0
bitches 0.0
nailed 0.0
weirdest 0.0
whomever 0.0
teaching 0.000159470091875
disgusting 6.82785467458e-05
chillin 0.000351786330212
philly 0.000130435774861
rights 0.000282253678791
dinosaur 0.0
exotic 0.0
dancers 0.0
cheers 0.000107923871491
presents 5.70260618426e-05
flawless 0.0
dating 6.90249028315e-05
victory 0.000199280398264
marley 0.000111144777199
productive 6.92772982741e-05
smurfs 0.0
halftime 0.000164699794435
insecure 0.0
horror 0.0
warning 5.04033775042e-05
discovery 0.0
convention 0.000134138436204
understanding 5.0256636396e-05
action 0.000187137583123
having 0.0
speaker 0.0
clever 5.96116139694e-05
theatre 0.0
honors 0.0
evolution 0.0
produce 0.0
spider 0.0
apologize 0.0
formation 0.0
letter 0.000215070427932
therapy 0.0
untrue 0.0
written 0.0
communication 0.0
disease 6.82785467458e-05
marching 7.50517590024e-05
suggest 5.39619357455e-05
georgetakei 0.0
hairstyle 0.0
humans 5.84798543159e-05
journal 0.0
foundation 4.96757990655e-05
access 8.57908771271e-05
venture 0.0
syndrome 0.0
writes 5.68485462617e-05
colorado 0.0
medicine 0.0
tremendous 6.59006154237e-05
nytimes 0.000211359046277
kindness 0.000295500928326
cannot 0.000116621205194
reveals 5.20598586271e-05
invented 0.0
sapphire 0.0
candidate 5.54601923126e-05
sexual 0.0
madison 7.68948940849e-05
illustration 0.0
newark 0.000117641807815
globally 9.01863416141e-05
incorrect 0.0
headline 0.0
reflect 0.0
streaming 0.0
leaders 5.08473607928e-05
supreme 6.01916422965e-05
protest 0.000118082241575
policies 0.0
silenced 0.0
defend 5.70260618426e-05
communicating 0.0
climate 0.000177123362362
wrapped 0.0
studio 0.0
conspiracy 6.87743297546e-05
interviews 0.0
differentiation 0.0
confusing 0.0
february 0.0
hamilton 6.90249028315e-05
loneliest 0.0
amazon 0.0
scattered 0.0
francis 0.0
headlines 0.0
january 0.0
diversity 0.0
universal 6.1583975403e-05
hurricane 0.000221625696245
identifying 0.0
countries 0.0
tickled 0.0
becker 0.0
connected 0.0
suggestion 6.73077360194e-05
filled 0.00014688948509
education 9.3818116119e-05
mentioned 0.0
defining 0.0
exists 0.0
unexpected 0.0
plants 0.0
orders 0.0
olympics 0.000185362559403
ability 0.0
director 4.34927720776e-05
content 0.0
cycling 0.0
previously 0.0
correction 7.05675665964e-05
pearls 0.0
ambassador 0.0
preparing 5.82947647018e-05
depend 0.000179453352692
downloads 0.0
lovers 7.00456887862e-05
weekly 0.0
hudson 0.0
bridge 0.000112294854109
becoming 8.94383944781e-05
magazine 9.68068081431e-05
appropriate 0.0
shakespeare 0.0
travesty 0.0
discoveries 0.0
fellow 4.42234142303e-05
reviewed 0.0
copies 0.000132726690435
driven 6.32467710586e-05
aussies 0.000224003430137
result 0.000150769909188
announcing 0.0
visual 0.0
restrictions 0.0
culture 4.81268749559e-05
edition 0.0
prince 0.0
shocks 0.0
symmetry 0.0
clicks 0.0
disagree 5.39619357455e-05
experiments 0.0
mistakes 0.0
trolls 7.95153248281e-05
blossoms 0.0
offered 0.000114767680959
inspiring 0.000470422797985
counter 0.0
approach 0.0
embarrassing 6.26138498009e-05
creators 0.0
edited 0.0
berniesanders 0.0
overnight 0.0
spotlight 7.13653999035e-05
probable 0.0
repeating 0.0
concerns 0.0
massive 0.000265340485382
promising 0.0
promises 0.0
colored 0.0
production 0.0
header 0.000290377258078
itunes 0.0
secretary 0.0
highway 0.0
dangerous 9.35526915478e-05
letters 0.0
typically 0.0
saving 0.000101101483438
pioneer 0.0
visuals 0.0
universe 0.0
ordering 8.3096253303e-05
victims 0.000202202966875
privacy 7.50517590024e-05
disclosure 0.0
proceeds 0.000139575327308
musical 5.68485462617e-05
collide 0.000101586819153
melbourne 0.0
correctly 0.0
campus 0.000138049805663
debate 8.96885152561e-05
conflict 0.0
meanwhile 0.0
petition 0.000125647087227
contribution 0.0
stated 0.0
humanity 5.94204056598e-05
illness 0.0
flawed 0.0
breathe 6.8033286217e-05
winners 9.22405836502e-05
spanish 6.41090320693e-05
comedic 0.0
awards 0.000136429230806
presidential 0.000116221314
candidates 0.0
glasgow 0.0
smells 0.0
treasure 0.0
greater 0.000113697092523
themed 0.0
distribution 0.0
absurd 0.0
squirrel 9.51525448295e-05
sisters 0.0
stress 0.0
leading 8.84468284606e-05
resolution 7.03056467087e-05
achieved 7.19076643796e-05
interacting 0.0
boiling 0.0
examples 0.0
diverse 0.0
suicide 0.0
parallel 0.0
minneapolis 0.0
impairs 0.0
pumping 0.0
slides 0.0
choreography 0.0
element 8.92730199462e-05
serves 7.98572410952e-05
jumping 0.0
rising 0.0
believed 0.000191674350113
features 0.0
environment 0.0
revealed 5.68485462617e-05
classical 0.0
confirmed 0.0
origins 0.0
combination 0.0
consumption 0.0
worldwide 0.0
deaths 0.0
responsible 0.0
overwhelmed 0.0
household 0.0
munich 9.79303645971e-05
alternate 0.0
blockers 0.0
restaurant 0.000230981384175
canada 0.000463812270422
versions 0.0
technology 0.0
identify 0.0
combined 0.0
santiago 0.0
branches 0.0
october 4.86821543283e-05
netherlands 0.000263839747659
belgium 0.0
european 0.0
imperial 0.0
perspective 0.000154344944071
cities 0.0
guinea 0.0
americas 0.0
posters 0.0
elastic 0.0
flames 0.0
presumably 0.0
exquisite 0.0
spreading 0.0
happiness 0.000302918922762
ashamed 7.56553258744e-05
naturally 0.0
malbec 0.0
wasting 0.0
hidden 5.72044901039e-05
coffin 0.0
freudian 0.0
genius 9.25010283864e-05
cultured 0.0
malaysia 0.0
traveling 0.000459700806813
prepared 5.2682372545e-05
county 0.0
quinoa 0.0
district 0.0
chosen 0.0
toilet 0.0
yorkers 0.0
ignores 0.0
messages 0.0
creativity 0.0
conventional 0.0
berlin 0.0
montreal 0.0
wonders 7.95153248281e-05
upcoming 0.0
lonely 8.05513486405e-05
australian 6.77897468289e-05
positions 0.0
singapore 0.0
scratch 0.0
deficiency 0.0
elevated 0.0
triggers 0.0
delicate 0.0
barrier 8.58426523166e-05
reflection 0.0
sydney 7.81803825407e-05
separates 0.0
centuries 0.0
israel 0.0
overwhelming 0.0
assault 6.65970445545e-05
protection 0.0
picker 0.0
additional 7.24585365871e-05
machine 9.3818116119e-05
samples 0.0
contrary 0.0
immediate 0.0
michelle 0.0
inspire 0.000177690735217
lyrics 0.000130435774861
missyelliott 0.0
constant 6.75479045931e-05
tuning 0.0
pandora 0.0
preshow 0.0
buenos 0.0
poland 0.0
philippines 8.7946582553e-05
nicely 0.0
september 4.88223735913e-05
manchester 0.0
checks 0.0
screenshot 0.0
universalorl 0.0
remarkable 0.000119994440771
rihanna 0.0
disgusted 0.0
flattered 0.0
fiction 0.0
angela 0.0
bitmoji 0.0
process 0.0
genuine 0.0
performances 6.82785467458e-05
comedians 0.0
flotus 0.000265149358149
strangers 0.0
hungover 0.0
confidence 0.0
studios 0.0
stjude 0.0
memphis 0.0
mikeypiff 0.0
chancetherapper 0.0
scream 7.33015955438e-05
jennifer 6.92772982741e-05
disappoint 8.5436750375e-05
newcastle 0.0
castle 0.0
literally 0.000301098599105
chrisrock 0.0
gentlemen 7.47538668696e-05
mtvnews 0.0
hillaryclinton 0.000554218386193
iamrashidajones 0.0
champagne 0.0
raleigh 0.0
ijessewilliams 0.0
acknowledge 8.09036787772e-05
buzzfeed 6.92772982741e-05
puppet 0.0
rehearsal 0.0
billboard 0.0
austria 0.0
sweden 6.90249028315e-05
republic 0.0
grilled 0.0
waltdisneyworld 0.0
katyperry 9.46226991119e-05
ronanfarrow 0.0
measly 0.0
bragging 0.0
treats 7.41656456624e-05
literal 0.0
cooper 0.0
counts 5.77453460438e-05
theellenshow 0.000964153393611
basking 0.0
cookies 0.000144917073174
festival 5.11465369593e-05
amsterdam 0.0
soundcheck 0.0
downloaded 8.46389170679e-05
encouraged 0.0
alright 0.000365882451186
jtimberlake 0.0
backstage 6.26138498009e-05
collab 0.0
joined 0.000213885978951
issarae 0.0
playlist 0.0
madness 0.000110920384625
romantic 0.0
selfies 7.65808265985e-05
exclusively 0.0
disneyland 0.0
refused 0.0
characters 5.54601923126e-05
amazingly 7.30182942123e-05
auction 0.000139063085568
express 5.37993864067e-05
gratitude 0.000147750464163
sesamestreet 0.0
thegrammys 0.0
throughout 0.0
awkward 5.79275208474e-05
shining 0.0
thrown 0.000132262418197
stylist 0.000102235515056
fighter 7.35872285997e-05
accepting 0.0
playin 0.0
applemusic 9.35866752995e-05
filmed 0.0
makeawish 0.0
bieber 0.0
remixes 0.0
toronto 6.1992265058e-05
capitolrecords 0.0
shazam 0.0
anthem 0.000253841344663
cosmopolitan 0.0
khloekardashian 0.0
cookin 0.0
songwriters 0.0
reveal 5.06987343541e-05
stands 9.65297281712e-05
spotify 0.0
phvegas 0.0
rocked 0.0
glasses 0.0
iambeckyg 0.0
relive 0.0
acoustic 0.0
announce 4.0382851973e-05
although 5.66719340719e-05
isaacfromct 0.0
shampoo 0.0
interactive 0.0
todayshow 7.95153248281e-05
haters 0.0
appreciation 0.0
floating 0.0
shondarhimes 0.0
showtime 0.0
premiere 0.000113343868144
broadway 0.0
makeup 7.47538668696e-05
starring 0.0
newest 0.0
designed 5.36375948765e-05
arianagrande 0.0
aladdin 0.0
swaggy 0.0
owning 9.25806854314e-05
producer 0.0
legendary 0.000111261458731
jasmine 0.0
costumes 0.000266475652023
square 4.70422797985e-05
emojis 0.0
jessica 8.5436750375e-05
magical 0.0
thedoctorluke 0.0
thirsty 0.0
therealjuicyj 0.0
symbols 0.0
privilege 0.0
spiral 0.0
retrograde 0.0
footage 0.000113697092523
theirs 0.0
universes 0.0
remembering 0.0
floated 0.0
construction 0.0
consciousness 0.0
delights 0.0
explodes 0.0
submissions 0.0
pleased 0.0
shredding 0.0
filters 0.0
weasel 0.0
reflective 0.0
firework 0.0
islands 0.000266475652023
interstellar 0.0
bubble 0.0
customs 0.0
festive 8.66689823164e-05
window 5.09966264869e-05
senator 0.0
slightly 0.0
therealbuzz 0.0
printing 9.16030371086e-05
snowflake 0.0
applications 0.0
elephant 0.0
fifteen 0.0
editions 0.0
newspaper 0.0
rainbow 0.000142194824628
unlimited 0.0
sirius 0.0
matthew 0.0
affected 0.000375463164135
capturing 0.0
canyon 0.0
rivers 0.0
spoken 0.0
accidentally 6.65970445545e-05
bizarre 0.0
dolphin 0.0
successfully 0.0
liquid 0.0
graffiti 0.0
swallowing 0.0
messenger 0.0
heroes 0.000105995735261
disturbing 0.0
graduates 9.73567280593e-05
rewrite 0.0
describe 0.000100806755008
hollywood 0.0
equality 0.000500910798407
announcement 4.45945859009e-05
breakout 0.0
dreaming 0.000386059149036
animation 0.0
calendar 6.77897468289e-05
circling 0.0
garden 5.19059593932e-05
enhanced 0.0
journalists 0.0
stirring 0.0
nominations 0.0
yelling 0.0
teachers 0.0
chapter 5.79275208474e-05
napoleon 0.0
aliens 0.0
subjects 9.79303645971e-05
revolution 0.0
mountains 0.0
wonderland 0.0
storage 0.0
crystals 0.0
circuit 0.0
invitation 0.0
kettle 0.0
adjective 0.0
woodpecker 0.0
operate 0.0
exhibition 8.92730199462e-05
learnt 0.0
nomination 0.0
madonna 0.0
questioning 0.0
unplug 0.0
initiatives 0.0
switzerland 0.0
represents 0.0
throat 8.020255957e-05
touchdown 8.83831193829e-05
desire 0.0
forced 0.0
swedish 8.5436750375e-05
hundred 7.33015955438e-05
prompts 0.0
rainbows 0.000120847551875
creates 0.0
oxford 0.0
balloons 0.000200649416829
liverpool 8.3096253303e-05
recreate 0.0
glorious 0.0
newton 0.0
creature 0.0
finalist 9.11243506174e-05
scouts 0.0
treading 0.0
tragedy 0.000285130309213
nottingham 0.0
debacle 0.0
legends 0.0
noises 0.0
addiction 0.00015378978817
survived 0.0
idioms 0.0
greeted 0.0
basics 0.0
masses 0.0
confirm 0.000169488648375
cadence 0.0
spaghetti 0.000205793135625
prepare 0.000102896629381
calendars 0.0
narrative 0.0
application 0.0
octopus 0.0
drumming 0.0
bloody 0.0
confetti 0.0
translate 0.0
birmingham 0.0
singles 0.0
completes 0.0
laptop 0.0
obvious 5.88530215715e-05
darling 0.0
deserving 0.0
miller 0.0
ordered 0.000153439610878
feelin 0.0
alicia 0.0
picasso 0.0
recipe 7.24585365871e-05
alphabetical 0.0
butterfly 0.0
timothy 0.0
mancini 0.0
untold 0.0
directed 0.0
hacked 6.77897468289e-05
admits 0.0
clocks 0.0
nugget 0.0
cnnopinion 0.0
grabbed 0.0
russia 5.39619357455e-05
surprises 0.0
waterfalls 0.0
olympic 0.000578951881807
magnificent 0.0
casual 0.0
assume 0.0
relief 5.77453460438e-05
subscribe 6.82785467458e-05
landslide 0.0
telegraph 0.0
standby 0.0
admitting 9.41008213017e-05
complacency 0.0
voices 5.61474270545e-05
sounding 0.0
douglas 0.0
democracy 0.0
locals 0.0
gossip 0.0
nickname 0.0
subtle 8.23498972173e-05
embarrassed 0.000224261600609
ireland 0.0
mornings 0.0
democratic 7.08314782894e-05
impressions 0.0
outgoing 0.0
treasury 0.0
refugees 0.0
unveiling 0.0
listing 0.0
deliver 5.51216118671e-05
negotiating 0.0
roller 0.0
prosperous 0.0
desperate 0.000264524836394
acknowledgement 0.0
executive 0.0
republicans 0.0
weapons 0.0
dropping 0.000105051388166
meaningful 0.0
nightmare 0.0
goodies 0.0
scandalous 0.0
rhetoric 0.0
divisive 0.0
vision 0.0
confirmation 0.0
throne 0.0
records 5.2682372545e-05
quoting 0.0
impatient 0.0
refugee 0.0
texted 0.0
exposed 0.0
stoked 0.000158353488765
priority 6.70692181019e-05
freedoms 0.0
notorious 0.000108694049583
empowering 0.0
unconstitutional 0.0
turkish 0.0
concerned 0.000111604217159
realdonaldtrump 6.05837845524e-05
goodwill 0.0
imagined 0.0
belfast 0.0
sleeve 0.0
basement 9.01863416141e-05
preposterous 0.0
griffith 0.0
timeless 0.0
truman 0.0
intended 0.0
inappropriate 0.0
industries 0.0
responsibility 5.72044901039e-05
documentaries 0.0
vulnerable 0.0
respectful 9.3080035347e-05
markets 0.0
claire 0.0
nuggets 0.0
boards 8.19826533629e-05
sequins 0.0
capitol 0.0
technical 7.27372868438e-05
applying 0.0
guitar 0.000222496936987
donating 0.00018847063084
continually 0.0
norway 0.0
applause 0.0
ballot 0.0
finely 0.0
shakes 0.0
varied 0.0
proverb 0.0
vibrant 0.0
flower 0.0
survives 0.0
fierce 8.19826533629e-05
shopped 0.0
sincerely 0.000165442137776
apology 6.54439743566e-05
sweaty 0.0
conspiracies 0.0
climbing 0.0
relaxed 0.0
encourage 5.90411207875e-05
funnyordie 0.0
essentials 0.0
jimmykimmellive 0.0
rejectedjokes 0.0
protesting 8.7946582553e-05
releasing 0.000143815328759
cleaner 0.0
preferred 0.0
incarceration 0.0
jkcorden 9.51525448295e-05
koppel 0.0
bikini 0.000117641807815
transparency 0.0
kamalaharris 0.0
nutshell 0.0
walled 0.0
floored 0.0
plotting 0.0
gandhi 0.0
vilify 0.0
meditate 0.0
violent 0.0
preschool 0.0
rhythm 0.0
matching 7.85093349599e-05
senwarren 0.0
venezuela 0.0
candle 0.0
donates 0.0
peacefully 0.000114707309586
chelseahandler 0.000106405029733
experiencing 0.0
sarabareilles 0.000778377120574
haunting 0.0
constitution 7.98572410952e-05
explode 0.0
deeper 0.000147750464163
empathy 0.0
mrgaryhuang 0.0
scored 0.000421833880252
charitable 0.0
perfume 0.0
giraffe 0.0
noticing 0.0
noodle 0.0
wrongly 0.0
marshmallow 0.0
fraudulent 0.0
everytime 0.0
helluva 0.0
therapists 0.0
tangible 0.0
sarahksilverman 0.0
johnfugelsang 0.0
exceptional 0.0
miracle 0.0
avocado 0.0
snacks 8.88252173411e-05
spelled 0.0
parental 0.0
superbowl 0.0
shoulders 9.01863416141e-05
valentine 5.77453460438e-05
glitter 0.0
stocking 0.0
poehler 0.0
thumbs 7.27372868438e-05
tinatbh 0.0
educational 0.0
voicemail 0.000117641807815
thetweetofgod 0.0
esteem 0.0
teaches 0.0
goodbye 0.000163859566087
reminding 0.000153161653197
supplies 0.000172506715886
ryanseacrest 0.0
okmagazine 0.0
shoots 0.0
bowing 0.0
jennyslate 0.0
craigyferg 0.0
masterpiece 0.0
sneaky 0.000203173638305
nashville 0.000453931955247
chronicles 0.0
potato 0.0
freakin 0.0
perezhilton 0.0
unethical 0.0
paparazzi 0.0
mantra 0.0
consuming 0.0
unauthorized 0.0
vanityfair 9.41008213017e-05
stalking 0.000106405029733
shoulda 0.0
yeppers 0.0
sacred 0.0
existed 0.0
earned 0.000122763235719
woulda 0.0
ellenpage 0.0
choker 0.0
contribute 0.0
mustache 0.0
washes 0.0
creeps 0.0
champion 0.000387033424297
auntie 0.0
magazines 0.0
waited 7.27372868438e-05
conscious 0.0
cracker 0.0
denmark 0.0
potion 0.0
windex 0.0
scarfing 0.0
ladygaga 0.0
purposely 0.0
pretending 0.0
luckiest 0.000121985497113
mascara 0.0
tastes 0.0
gardening 0.0
leashes 0.0
hippie 0.0
womensmarch 0.000123162024033
reunited 8.4246774812e-05
clique 0.0
premiering 0.0
rollingstone 0.0
childrensla 0.0
dollywood 0.0
godmother 0.000151006832844
eltonofficial 0.0
vmagazine 0.0
donorschoose 0.0
yesssssss 0.000128312824601
bettemidler 0.0
rehearsing 0.0
trevorproject 0.0
unicef 0.0
ellemagazine 0.0
yasssss 0.0
acceptance 0.00015070446064
solidarity 0.000159030649656
pharrell 0.0
greece 0.0
papermagazine 0.0
johnmayer 0.0
lipstick 0.0
tumblr 0.0
coldplay 0.0
colorful 0.0
translifeline 0.0
newsstands 0.0
feminist 0.0
pitchfork 0.000120847551875
labels 0.000263839747659
jenner 0.0
arkansas 0.0
beanie 0.0
sparkly 0.0
moschino 0.0
britneyspears 0.0
itsjeremyscott 0.0
nickiminaj 0.0
appstore 0.0
poetry 0.0
puttin 0.0
rubbed 0.0
shrine 0.0
skyferreira 0.0
freaking 0.00015070446064
besties 0.000239491476103
chanel 0.0
bedazzled 0.0
rubber 0.0
kendricklamar 0.0
popstar 0.0
sosadtoday 0.0
copenhagen 0.0
lenadunham 0.00126178040544
wearin 0.0
stoned 0.0
facetime 0.0
barclays 0.0
meditation 0.000106405029733
harpersbazaarus 0.0
stared 0.0
ritual 0.0
iconapop 0.0
doubted 0.0
staples 0.0
anaheim 0.0
jingle 0.0
tacoma 0.0
rehearsals 0.0
treadmill 0.0
metamorphosis 0.0
dental 0.000112001715069
jodyhighroller 0.0
versace 0.0
werking 0.0
couture 0.0
eggplant 0.0
bangin 0.0
cardigans 0.0
obnoxious 0.0
bestie 0.000214302771637
teganandsara 0.000151006832844
barrel 0.0
dedicating 0.0
jefferson 0.0
pumpkin 0.0
derekblasberg 0.0
glamourmag 0.0
presale 0.000104958811293
mtvstyle 0.0
deluxe 0.0
mtvema 0.0
reggae 0.0
azealiabanks 0.0
nominating 0.0
sailor 0.0
mornin 0.000110308490458
itunesmusic 0.000218983765781
bananas 0.0
lordemusic 0.0
vietnam 0.0
milwaukee 0.0
neworleans 0.0
circus 0.0
strolling 0.0
rapids 0.0
collegegameday 0.0
aaaaand 0.0
godfather 0.0
bestow 0.0
allison 0.0
rockthevote 0.0
birbigs 0.0
lucille 0.0
louder 9.41008213017e-05
farmers 0.0
shaved 0.0
niagara 0.000146040629628
realmattlucas 0.0
ferguson 0.0
painful 0.0
exchange 0.0
nickkroll 0.0
edmonton 0.00010949188289
mickey 0.0
angelenos 0.0
pooping 0.0
located 9.41008213017e-05
onslaught 0.0
finalists 0.0
bumped 8.75154686812e-05
sherlock 0.0
stockholm 0.0
casually 0.0
jjwatt 0.000689184706885
itstonybennett 0.0
mariolopezextra 0.0
klgandhoda 0.0
entrance 0.0
calgary 0.0
bowling 8.4246774812e-05
winnipeg 0.00012437984093
cheeto 0.0
gloriasteinem 0.000302013665687
feather 0.0
nathan 0.0
smelling 0.0
narnia 0.0
llamas 0.0
actuallynph 0.0
mourning 0.0
obsession 0.0
chilled 0.0
medically 0.0
hyperloop 0.0
aussie 9.11243506174e-05
flaring 0.0
eyeballs 0.0
stuffing 0.0
pitched 0.0
condiments 0.0
relatable 0.0
olivia 9.91068915179e-05
painted 7.81803825407e-05
mykonos 0.0
eyebrow 0.0
capitalcities 0.0
jackpot 0.0
hipster 0.0
sweating 0.0
restaurants 0.000249288759909
superfan 0.0
restraint 0.0
craziest 0.0
catheter 0.0
delivers 7.50517590024e-05
kanyewest 0.0
paints 0.0
dissect 0.0
billboards 0.000118677831627
milano 0.0
bjnovak 0.0
snapping 0.0
croissant 0.0
repjohnlewis 0.0
blklivesmatter 0.0
mydaughtersarmy 0.0
huddled 0.0
yearning 0.0
thereaibanksy 0.0
affordable 0.0
foodie 0.0
colombia 0.000102235515056
peeled 0.0
shootings 0.000184176837465
playground 9.3080035347e-05
breaky 0.0
photoshoot 0.0
smokin 0.0
accents 0.0
sweats 0.0
postmates 0.0
armband 0.000167856003083
unconscious 0.0
maddow 0.0
aquarium 0.000237355663255
holler 0.0
photoshop 0.0
robbie 0.000108694049583
espnmag 0.000313608629229
laundry 0.0
examining 0.0
zealand 7.68948940849e-05
stuntin 0.0
hehehe 0.0
nostalgia 0.0
buttons 0.0
slaying 0.0
monument 0.0
bringin 0.0
lining 0.0
muchas 0.0
gracias 0.0
madame 0.0
illustrated 0.0
boxers 0.0
grazie 0.0
winters 0.000132749182099
plastic 7.41656456624e-05
unbreakable 0.0
licking 0.0
cheeky 0.000200649416829
twerking 0.0
danish 0.0
drummer 0.0
florence 0.0
revoir 0.0
resume 0.0
dodger 0.0
brazilians 0.0
grimezsz 0.0
crocodile 0.0
hahahahahaha 0.0
parisians 0.0
taipei 0.0
taiwan 0.0
bangkok 0.0
uploaded 0.0
manila 0.0
hamburg 0.000120847551875
curating 0.0
aaaand 0.0
skating 0.0
brisbane 0.0
googleplay 0.0
raincoat 0.0
glastofest 0.0
vienna 0.0
burning 0.0
jamming 0.0
reaches 0.0
subtitles 0.0
wristband 0.0
barcelona 8.66689823164e-05
credits 0.0
dreamers 0.0
bogota 0.0
bursting 0.0
brunomars 0.000112001715069
beyoncé 0.000102235515056
subscribers 0.0
unlock 0.0
onedirection 0.0
amazonmusic 0.0
snippets 0.0
preorder 0.0
rehearse 0.0
bahnhof 0.0
delorean 0.0
fragrance 0.0
curate 0.0
samsmithworld 0.000119745738052
guitars 0.0
storyline 0.0
registering 0.0
beatsbydre 0.0
panama 0.0
celestial 0.0
orchestra 0.0
finland 0.0
climbed 0.0
topping 0.0
méxico 0.0
vasconcelos 0.0
leicester 0.0
itunesfestival 0.0
pondering 0.0
millennials 0.0
struck 0.0
watermelon 0.0
benefited 0.0
sophisticated 0.0
couples 0.0
villain 0.0
mindful 0.000137836941377
catholic 0.0
airline 0.0
secretly 0.0
playlists 0.0
veggie 0.0
receipts 0.0
foremost 0.0
bagpipe 0.0
drifting 0.0
trader 0.0
influenced 0.0
moscow 0.0
cobain 0.0
reaper 0.0
commune 0.0
handshake 0.0
despair 0.0
silicon 0.0
investing 0.0
construct 0.0
garland 0.0
coachella 0.000417030768342
offline 0.0
realisation 0.0
payback 0.0
educate 7.95153248281e-05
alliances 0.0
etched 0.0
momentarily 0.0
pronoun 0.0
lenses 0.0
validated 0.0
authenticity 0.0
choreographed 0.0
pokemon 0.0
disneyworld 0.0
patriotic 0.0
embody 0.0
snickers 0.0
impactful 0.0
refocus 0.0
eminem 0.0
mahatma 0.0
ecstatic 0.0
snfonnbc 0.0
avenue 0.0
picchu 0.0
doubters 0.000146040629628
beverly 0.0
intensity 0.0
outtake 0.0
temple 0.0
purchased 0.0
fountain 0.0
punched 0.000101586819153
goldfish 0.0
comparable 0.0
buyers 0.0
barbara 0.0
corybooker 0.0
listens 0.0
timeout 0.0
inducing 0.0
signage 0.0
penthouse 0.0
ahahaha 0.0
phenom 0.000296869946891
brilliantly 0.0
siphoning 0.0
herstory 0.0
prostitute 0.0
survivors 0.0
courageous 8.34755381754e-05
cruelty 0.0001009500266
margot 0.0
xenophobic 0.0
mcginley 0.0
yorkshire 0.0
chants 0.000118677831627
alancarr 0.0
chained 0.0
skillz 0.0
debunked 0.0
floods 0.0
fleetwood 0.0
cheesecake 0.0
adidas 0.0
uneven 0.0
raging 0.0
connections 8.12596226194e-05
headlining 0.0
devhynes 0.0
charli_xcx 0.0
shawnmendes 0.0
tavitulle 0.0
bahjournalist 0.0
tyleroakley 0.0
marquee 0.0
grease 0.0
screenshots 0.0
ddlovato 0.0
chattyman 0.0
grimmers 0.0
vevo_uk 0.0
bonniemckee 0.0
electrifying 0.0
idolator 0.0
onairromeo 0.0
godven 0.0
lookie 0.0
preordered 0.0
elvisduran 0.0
shanghai 0.0
tripped 0.0
konnichiwa 0.0
etnad_olegnad 0.0
unannounced 0.0
swedes 0.0
cinderella 0.000120847551875
slipper 0.0
jessesaintjohn 0.0
adorbs 0.000146040629628
onesies 0.000136056847584
jahnsuxx 0.0
walgreens 0.000131206518334
aphrodite 0.0
danceonfox 0.0
difficulties 0.0
mermaids 0.0
antique 0.0
girlshbo 0.0
yaaaaasss 0.0
lifesaving 0.0
queens 0.0
yaaaas 0.0
rollin 0.0
bestest 0.0
cleanse 0.000253903400656
iamtovelo 0.0
glamour 0.0
emelisande 0.0
lashes 0.0
austrian 0.0
magritte 0.0
misogynoir 0.0
litter 0.0
spiritual 0.000102896567813
preaching 0.0
adelaide 0.0
sheffield 0.0
impending 0.0
starve 0.0
excess 0.0
conciousness 0.0
vitamins 0.0
generator 0.0
purposefully 0.0
profiles 0.0
petals 0.0
persist 0.0
alexis 0.00012437984093
covergirl 0.000163768434655
sneezed 0.000163768434655
cushion 0.000143800870567
demconvention 0.000148434973445
directv 0.00021134877516
flo_tweet 0.000184167112615
billclinton 0.00010567438758
grounded 0.0001009500266
sunrise 8.88252173411e-05
fightin 0.000151006832844
sagekotsenburg 0.000201894917642
pwease 0.000184167112615
sadder 0.000125641951668
waterfall 0.000151006832844
sighting 0.000108694049583
firsts 0.000148434973445
muller 0.000156804314614
burritos 0.000137836941377
bungee 0.0
potting 0.0
dipping 0.0
closets 0.0
scratched 0.0
decorating 0.0
summers 0.0
havana 0.0
fresher 0.0
mowing 0.0
invading 0.0
addict 0.0
aesthetics 0.0
footwear 0.0
protector 0.0
hammock 0.0
repurpose 0.0
mishap 0.0
hamster 0.0
cellar 0.0
groove 0.0
mentored 0.0
exaggerate 0.0
scraping 0.0
apropos 0.0
trolled 0.0
jonlovett 0.0
rheabutcher 0.0
sickening 0.0
flustered 0.0
compiled 0.0
shirley 0.0
subtweet 0.0
pantsuit 0.0
patting 0.0
atrocious 0.0
amoeba 0.0
platter 0.0
aficionado 0.0
bearer 0.0
manifest 0.0
transformation 0.0
thighs 0.0
tapper 0.0
foaming 0.0
sophie 0.0
sabbath 0.0
vibrations 0.0
nutella 0.0
wilder 0.0
distractions 0.0
stripping 0.0
downloading 0.0
judith 0.0
crossroads 0.0
parsons 0.0
stella 0.0
narcissism 0.0
fawcett 0.0
trainers 0.0
surrounding 0.0
longtime 0.0
frosting 0.0
laurent 0.0
savory 0.0
acupuncture 0.0
cancelling 0.0
nutcracker 0.0
ballet 0.0
tempura 0.0
burner 0.0
voguemagazine 0.0
lagged 0.0
cuttlefish 0.0
passwords 0.0
funfetti 0.0
anagasteyer 0.0
gabbana 0.0
budapest 0.0
montage 0.0
crowns 0.0
scheduling 0.0
possessed 0.0
syncing 0.0
creatively 0.0
hieroglyphics 0.0
halftimes 0.0
floppy 0.0
nessie 0.0
feathers 0.0
kaceymusgraves 0.0
roaring 0.0
rightful 0.0
balconies 0.0
prodigy 0.0
raquin 0.0
gianni 0.0
monsieuradi 0.0
drowned 0.0
tropicana 0.0
diesel 0.0
shabbat 0.0
voiceless 0.0
passover 0.0
elevating 0.0
traumatic 0.0
dreamer 0.0
iwillharness 0.0
classrooms 0.0
eligibility 0.0
counselors 0.0
wainwright 0.0
moveon 0.0
runaway 0.0
baghdad 0.0
zaralarsson 0.0
snooze 0.0
iggyazalea 0.0
harviikills 0.0
bolognese 0.0
babysitting 0.0
mohegan 0.0
hooters 0.0
crusts 0.0
tracksuit 0.0
cupcake 0.0
xfactor 0.0
vitamin 0.0
lichtenstein 0.0
concourse 0.0
hitchcock 0.0
teller 0.0
pastels 0.0
remnants 0.0
banger 0.0
lyrically 0.0
boogers 0.0
ritaora 0.0
bumpin 0.0
dabbed 0.0
sleepin 0.0
tinashe 0.0
octaviaspencer 0.0
linder 0.0
musicallyapp 0.0
scavenger 0.0
sanging 0.0
corinthians 0.0
hollywoodbowl 0.0
kraken 0.0
discontinue 0.0
cypress 0.0
schooling 0.0
maritime 0.0
narration 0.0
zeitgeist 0.0
sampler 0.0
pseudo 0.0
bangladesh 0.0
hungary 0.0
mumble 0.0
sisterhood 0.0
soulful 0.0
lennykravitz 0.0
londontown 0.0
andradaymusic 0.0
lipsticks 0.0
realization 0.0
unconditionally 0.0
wildfire 0.0
goldie 0.0
minnie 0.0
solitude 0.0
waddle 0.0
westworldhbo 0.0
statuesque 0.0
uncasville 0.0
demented 0.0
skyway 0.0
twentyonepilots 0.0
rejoicing 0.0
clenching 0.0
adelphia 0.0
entirety 0.0
redhourben 0.0
lakewood 0.0
drjillstein 0.0
entail 0.0
whammy 0.0
smokers 0.0
gobble 0.0
topshop 0.0
cleowade 0.0
mkives 0.0
sweetbabayjamie 0.0
marchesafashion 0.0
hamsters 0.0
gurrrl 0.0
sofifii 0.0
sumthin 0.0
nicomiz 0.0
maisonvalentino 0.0
coziest 0.0
accessorize 0.0
thejgold 0.0
peruvian 0.0
amazeballs 0.0
sendin 0.0
fantabulous 0.0
timelines 0.0
regina 0.0
slovakia 0.0
graves 0.0
embracing 0.0
larsson 0.0
cullen 0.0
psychiatric 0.0
officialadele 0.0
butters 0.0
verrrry 0.0
buttered 0.0
winged 0.0
pedialyte 0.0
topanga 0.0
armpit 0.0
kittens 0.0
dueling 0.0
eagerly 0.0
surrealist 0.0
dethroned 0.0
manolos 0.0
señorita 0.0
monterrey 0.0
parque 0.0
retiree 0.0
batches 0.0
reservations 0.0
sickos 0.0
aplusk 0.0
kirkherbstreit 0.0
fanbases 0.0
indexing 0.0
chuckles 0.0
incorporated 0.0
washboard 0.0
earbuds 0.0
pantone 0.0
knotts 0.0
dismaland 0.0
pollock 0.0
iamkidpresident 0.0
mariah 0.0
teevee 0.0
santorini 0.0
appalachian 0.0
sunburnt 0.0
caliente 0.0
juicery 0.0
karlihenriquez 0.0
trillest 0.0
tommorrow 0.0
crumpets 0.0
fishin 0.0
grillin 0.0
jambalaya 0.0
pepperoni 0.0
cashew 0.0
graceland 0.0
pussies 0.0
delicately 0.0
eraser 0.0
choreo 0.0
snatched 0.0
elliptical 0.0
mooore 0.0
unborn 0.0
georgina 0.0
stalkers 0.0
sallykohn 0.0
expectancy 0.0
phillipines 0.0
appstoregames 0.0
wilkinson 0.0
puddings 0.0
loveland 0.0
spaced 0.0
shanny 0.0
dripping 0.0
gerber 0.0
shakey 0.0
weaves 0.0
unbeatable 0.0
linguist 0.0
prosthetics 0.0
battleship 0.0
serotonin 0.0
machiavellian 0.0
girlies 0.0
guangzhou 0.0
debuting 0.0
dissecting 0.0
warped 0.0
luckyjess 0.0
ermahgerd 0.0
fabulousness 0.0
elliegoulding 0.0
activewear 0.0
yelyahwilliams 0.0
prismatic 0.0
evaluations 0.0
skywalk 0.0
sparklers 0.0
palettes 0.0
gemmaanningram 0.0
trueeee 0.0
invisalign 0.0
pounded 0.0
lolgop 0.0
procession 0.0
stanning 0.0
squeals 0.0
continual 0.0
luminary 0.0
cummin 0.0
shaves 0.0
epixhd 0.0
preacher 0.0
boogiecousins 0.0
changers 0.0
autismspeaks 0.0
massaged 0.0
psssssst 0.0
literati 0.0
utilization 0.0
endangerment 0.0
purposeful 0.0
unlabeled 0.0
undiagnosed 0.0
snotty 0.0
gallops 0.0
slovenia 0.0
sequin 0.0
akerlund 0.0
jumbotron 0.0
edibles 0.0
knowles 0.0
caeser 0.0
thehollywoodbowl 0.0
elvispresley 0.0
adoring 0.0
ageist 0.0
thérèse 0.0
confessed 0.0
blackvoices 0.0
patties 0.0
graphically 0.0
wildflowers 0.0
groundhogs 0.0
eataly 0.0
poodles 0.0
hillaryforia 0.0
roadshow 0.0
sweety 0.0
boppin 0.0
bettywho 0.0
johnnywujek 0.0
earring 0.0
itsbennyblanco 0.0
curitiba 0.0
purrfect 0.0
shellback 0.0
chokers 0.0
hairbrush 0.0
hakuna 0.0
matata 0.0
hazing 0.0
mathew 0.0
aegean 0.0
lullaby 0.0
musiciansoncall 0.0
headpiece 0.0
morsel 0.0
whistled 0.0
conquest 0.0
viceland 0.0
lambily 0.0
scalped 0.0
graced 0.0
emblazoned 0.0
hrclosangeles 0.0
kawaii 0.0
glittery 0.0
wonderlandmag 0.0
jumpsmokers 0.0
radiodotcom 0.0
missyfranklin 0.0
pleaaaaase 0.0
lilbthebasedgod 0.0
waaaay 0.0
flossy 0.0
aria_official 0.0
berliners 0.0
matriarchy 0.0
cornered 0.0
limping 0.0
peasant 0.0
feasibly 0.0
waaaaay 0.0
slayyy 0.0
fashionistas 0.0
sangin 0.0
worldstarfunny 0.0
pliers 0.0
babyanimalpics 0.0
mediation 0.0
quests 0.0
aaaaaaah 0.0
honked 0.0
rauschenberg 0.0
whitneymuseum 0.0
lonsdale 0.0
transcendental 0.0
roarin 0.0
facetune 0.0
fausto 0.0
herning 0.0
cazzette 0.0
annnnnnnnnd 0.0
shinier 0.0
giambattista 0.0
katys_teddybear 0.0
gnight 0.0
katheryn 0.0
psychoanalysis 0.0
bckgrnd 0.0
kingman 0.0
gracevanderwaal 0.0
fecking 0.0
ihrcountdown 0.0
stubbies 0.0
xfactor_italia 0.0
aaronpauley 0.0
purity_ring 0.0
scorpios 0.0
ayyyye 0.0
capitalizes 0.0
flamin 0.0
motherfucking 0.0
jingled 0.0
pharrellhat 0.0
ontarioglow 0.0
teached 0.0
umusic 0.0
auroramusic 0.0
dailymendeslife 0.0
soloing 0.0
universalse 0.0
dustinkloeppel 0.0
robynkonichiwa 0.0
charli 0.0
lonelydot 0.0
adamselman 0.0
sorrenti 0.0
offish 0.0
vinoodh 0.0
guitarists 0.0
cocking 0.0
cabbages 0.0
amelia_libman 0.0
flutter 0.0
lolita 0.0
kingladygaga 0.0
breakthecycledv 0.0
howbow 0.0
curveballs 0.0
tamagotchi 0.0
jarryd 0.0
alliseeisgold 0.0
thebroadmuseum 0.0
sarahsowitty 0.0
brillz 0.0
jackgarratt 0.0
markryden 0.0
duffscakemix 0.0
sanrio 0.0
theniceguyla 0.0
trills 0.0
susangkomen 0.0
faustopuglisi 0.0
gurlll 0.0
cheesecakes 0.0
scorpio 0.0
oblivia 0.0
skipmarley 0.0
correcto 0.0
jessirklein 0.0
unpatr 0.0
squish 0.0
greg_wells 0.0
onlyleah 0.0
gittin 0.0
popstars 0.0
krafts 0.0
bouche 0.0
problemo 0.0
wheezing 0.0
patmcgrathreal 0.0
cienega 0.0
thundering 0.0
nastialiukin 0.0
janell 0.0
katelyntarver 0.0
miamoretti 0.0
missoni 0.0
dannymoonsworld 0.0
mrchrismcmillan 0.0
madge_freak 0.0
woridstarcomedy 0.0
ikissedasoldier 0.0
kpezandchez 0.0
perrysoldier 0.0
emilynotchez 0.0
iickmekaty 0.0
basicallyadam 0.0
katysangelegg 0.0
nicolasjebran 0.0
xchadballx 0.0
scott_myrick 0.0
lockoir 0.0
shannonwoodward 0.0
calluses 0.0
chamomile 0.0
trollin 0.0
sleighing 0.0
chestercheetah 0.0
royksopp 0.0
scottsimonswvla 0.0
sirenscaiiing 0.0
slowdownkaty 0.0
chefantoniopark 0.0
garnished 0.0
endive 0.0
mdmolinari 0.0
prezzy 0.0
motioning 0.0
hernameisbanks 0.0
rockcampla 0.0
jenniefinch 0.0
getglucky 0.0
stendhal 0.0
ryanphillippe 0.0
hotncolds 0.0
kpcollections 0.0
katie_wignall 0.0
katysdrugx 0.0
evrenperry 0.0
katycatwendy 0.0
yungskeeter 0.0
sarahhudsonuvs 0.0
mothern 0.0
oliverheldens 0.0
marrymemargot 0.0
katyperrylately 0.0
kewlest 0.0
katyshellokitty 0.0
pqgerry 0.0
rasarioatelier 0.0
anakhouri 0.0
romaneperry 0.0
hot_chip 0.0
agador 0.0
freddietinkles 0.0
cynthialovely 0.0
augustgettyatelier 0.0
tbsnetworks 0.0
ronyalwin 0.0
justinandersoncolor 0.0
mmillerrider 0.0
jpgaultier 0.0
harharharhar 0.0
iikeanangel 0.0
vonnypoo 0.0
jcoopkp 0.0
itzmero 0.0
katysprismlight 0.0
hatérs 0.0
awkwardaya 0.0
katysredskittle 0.0
tiedye_princess 0.0
adelshahal 0.0
marinadiamandis 0.0
samadizayee 0.0
itsslatykaty 0.0
johnlordperry 0.0
nuggetperry 0.0
kthnkzbye 0.0
teamkpbrasil 0.0
twenagedream 0.0
ashleyegreer 0.0
perryllover 0.0
perry_slays 0.0
_andresgalvis 0.0
poplitics 0.0
likerotica 0.0
sweetxjaureguix 0.0
jessiambriz 0.0
perryncolds 0.0
pwideawake 0.0
brunastrait_ 0.0
anafalqueto 0.0
pessoalmente 0.0
mark_hodson_ 0.0
sumtxkid 0.0
arpoador 0.0
katysmychampion 0.0
amnattg 0.0
osullivanluke 0.0
stephiruth 0.0
katy_pizza_bae 0.0
kpcatt 0.0
pedroeugeniio 0.0
gugs_prismatic 0.0
zeeusmtz 0.0
legendarycold 0.0
robynxkatheryn 0.0
écouter 0.0
energyberlin 0.0
karysjones 0.0
lilzariya 0.0
puroland 0.0
pavlovitz 0.0
dreamhampton 0.0
prismsperry 0.0
perrysmic 0.0
focusonreid 0.0
tonyatalterian 0.0
makeup_man 0.0
wtfkates 0.0
sella_sandra 0.0
katycute_ 0.0
caitsperry 0.0
katyperryforum 0.0
radiantjareau 0.0
lillysgomez 0.0
katycatsweden 0.0
perryicecream 0.0
xamyrosex 0.0
wtvrlara 0.0
bijanstephen 0.0
ameliashowalter 0.0
screamkng 0.0
tvmcgee 0.0
liiife 0.0
itskatcombs 0.0
yaaaaaasssssssssss 0.0
katysmyhabibi 0.0
skottpeace 0.0
ferras 0.0
kweens 0.0
habibi 0.0
orlandobloom 0.0
huckchinn 0.0
katycatkenzie 0.0
matarazzo 0.0
fkatwigor 0.0
perryschild 0.0
hotxcolds 0.0
maddisonxperry 0.0
akaruikaty 0.0
chillinlaidback 0.0
erryone 0.0
chrisanokute 0.0
beyelite 0.0
kuntyewest 0.0
chiroprac 0.0
katyperryrises 0.0
godneybjs 0.0
liquoronurlips 0.0
katystumblrr 0.0
holiestkaty 0.0
hollykittykaty 0.0
katysprincess 0.0
katysdonut 0.0
carlythekatycat 0.0
katycatsophia 0.0
fridaaperry 0.0
iegendarylovers 0.0
katycatveronica 0.0
katyperryslave 0.0
hakimkharbouch 0.0
keonovak 0.0
plaaaaay 0.0
scatting 0.0
shotted 0.0
dizzycoco 0.0
fkinsnapss 0.0
junkygs 0.0
ミニチュア料理 0.0
エビフライとエビ天 0.0
adidasboosts 0.0
lilithia 0.0
cottoncandizzle 0.0
ultimatebeyhive 0.0
paramorewebnews 0.0
royale_lala 0.0
musicnews_feed 0.0
katyperryextra 0.0
greeniight 0.0
gagas_illusion 0.0
lesbiyonce 0.0
blurryhface 0.0
lordofgiraffex 0.0
ifuseekamy_ 0.0
legendarymalek 0.0
hausoframez 0.0
unstan 0.0
chioekardashian 0.0
theiife 0.0
handstomyseif 0.0
legendarylovers 0.0
gagas_fandom 0.0
thinagedream 0.0
conditionalbabe 0.0
dannysuschrist 0.0
prismdluxe 0.0
herwonkeye 0.0
camilasviews 0.0
gagalovesbey 0.0
shadykatyfacts 0.0
limalimoncia 0.0
heavymetaiovers 0.0
katyscrush 0.0
waikingonair 0.0
eduardo_katycat 0.0
katyswetdream 0.0
katherynsgod 0.0
katystddbr 0.0
katyboobies 0.0
royaityler 0.0
nothingfaiis 0.0
kathrynluck_ 0.0
prismaticiights 0.0
mendesperry 0.0
katycatghita 0.0
mark_katycat 0.0
iwasdivine 0.0
skywaterr 0.0
xjojospearsx 0.0
alwaysbeperry 0.0
skoglyrihanna 0.0
legendarydurk 0.0
halseysfirework 0.0
rainbowspatrick 0.0
katysfood 0.0
honeymoonprism 0.0
onepulsetony 0.0
butcha 0.0
okurrr 0.0
the_mpt 0.0
talaofficial 0.0
miniatures 0.0
ohmyjurassic 0.0
katysmoonlight 0.0
lilly_jnes 0.0
coco_ho 0.0
perryhumorr 0.0
yikesjonathan 0.0
rubyrankin 0.0
thealekovski 0.0
cydney_moore 0.0
truebluedeluxe 0.0
thedutchass 0.0
katyskettle 0.0
ferraseu 0.0
katyssunlight 0.0
typosqween 0.0
adoreeeperry 0.0
katyperryfrance 0.0
snowiner 0.0
_coolkatycat 0.0
nicothekatycat 0.0
adorbies 0.0
jackygerardchan 0.0
brewmystew 0.0
katyswildfire 0.0
rihftperry 0.0
theolagu 0.0
ritajoness 0.0
iitsjackie 0.0
mjjperry 0.0
jesuskylie 0.0
holyerotica 0.0
graceofkaty 0.0
redsvelvets 0.0
booyakasha 0.0
tariqterry 0.0
katycatalannah 0.0
taylxre 0.0
pacifyher 0.0
basedkatyperry 0.0
diddleurskittle 0.0
katysanalien 0.0
gagasspace 0.0
tayiorhq 0.0
givenchydress 0.0
augustryder 0.0
perrysmoschino 0.0
kittehn 0.0
katrieber 0.0
legendaryhunty 0.0
katyslegs 0.0
katyfroot 0.0
winesandlines 0.0
sam_incolour 0.0
wakingonair 0.0
drwssinup 0.0
huffdaddysays 0.0
fiwwwwine 0.0
matthewroper 0.0
emmabruhhh 0.0
gingerwesson 0.0
nicholas_sewell 0.0
perfectlyperry 0.0
bustabusta 0.0
mynameisziam 0.0
venuzszfly 0.0
katherynsus 0.0
sacredperry 0.0
thedollsftkaty 0.0
_cafajeff 0.0
debkatycat 0.0
katycats 0.0
eastonjames_ 0.0
oliviabooker_ 0.0
protecti 0.0
outrageousness 0.0
joanneprada 0.0
scuffed 0.0
catoure 0.0
blanged 0.0
tahmorrow 0.0
glukatyperrypop 0.0
jamesjoint 0.0
pressin 0.0
bourree 0.0
honeysuckle 0.0
meowings 0.0
fashun 0.0
happun 0.0
vikander 0.0
thekatyperrypopgame 0.0
karolfabianaros 0.0
nico_thekatycat 0.0
miss_lilyjames 0.0
stylinfunk 0.0
hudsontheband 0.0
jere_my 0.0
crabitat 0.0
tiersz 0.0
unrehearsed 0.0
fanclub_kp 0.0
oneofthesophies 0.0
fusterlandia 0.0
lazyblazy 0.0
katycatchloe 0.0
figali 0.0
prismaticness 0.0
titicaca 0.0
ancientaliens_ 0.0
sneezin 0.0
cristos 0.0
mallman 0.0
prismaticlife_ 0.0
ravensuxx 0.0
perrypositive 0.0
derkwhore 0.0
alekjandro 0.0
havss_ 0.0
hqzaynmaiik 0.0
thique 0.0
bbhmms 0.0
jkatharineb 0.0
jennyformica 0.0
tiiiiiight 0.0
ikissedagay 0.0
harryvuitton 0.0
aeschleahd 0.0
princessjavonda 0.0
errrythang 0.0
kooning 0.0
sugarray 0.0
empaths 0.0
goldenboyz_inc 0.0
voguejp 0.0
chickenwingguardingthemimosa 0.0
katyperrypopup 0.0
unmeasurably 0.0
transviolet 0.0
beauteous 0.0
katyskidrauhl 0.0
thooooooseee 0.0
clairesstores 0.0
nailsbymh 0.0
katysacutie 0.0
psychokatycat 0.0
kaceymusgrave 0.0
refueled 0.0
hyungsunju 0.0
okuurrrr 0.0
cholewheeler 0.0
leftshark 0.0
momchella 0.0
crotches 0.0
hookedondolls 0.0
fyuseapp 0.0
mogonoloball 0.0
atletica 0.0
katycatsclub 0.0
catacombs 0.0
poppycorn 0.0
cupped 0.0
christiania 0.0
residenz 0.0
lindseyweber 0.0
butterballface 0.0
joshlecash 0.0
myassistant 0.0
swiftschrist 0.0
snowhiteperry 0.0
emmakphughes 0.0
katyslegend 0.0
dansnierson 0.0
scressful 0.0
prismaticwitch 0.0
finnin 0.0
habibis 0.0
mophies 0.0
strongé 0.0
drumkit 0.0
anamanaguchi 0.0
gaultier 0.0
ngvmelbourne 0.0
dukedumont 0.0
legendaryasmyn 0.0
highlarious 0.0
calpurnia 0.0
waaaaait 0.0
mktfah 0.0
fwding 0.0
caseyhoops 0.0
worldstarvlne 0.0
flapfkp 0.0
bettycrocker 0.0
mexxxico 0.0
whhhhhhhhuuuuuutttt 0.0
yelletweets 0.0
gucciqxxn 0.0
luckyladyrebelettes 0.0
junglejulia 0.0
charlottes_web 0.0
istarbucksniall 0.0
katysroaaar 0.0
fiorucci 0.0
whuteva 0.0
sirdavidd 0.0
fudgery 0.0
bizquick 0.0
itsgrandtheft 0.0
grandtheft 0.0
katysfancy 0.0
ameezyyrush 0.0
mykectown 0.0
itsvalkubus 0.0
walkslikeperry 0.0
iwantperry 0.0
exausto 0.0
selfeh 0.0
aquaberry 0.0
sidepiece 0.0
versacness 0.0
iamleslii 0.0
alocalgyro 0.0
cutina 0.0
theoutslder 0.0
prism_katy_cat 0.0
katyshoodrat 0.0
thestevetisch 0.0
ronysphotobooth 0.0
schlitterbahn 0.0
kpsnosecrinkle 0.0
alwz_katycat 0.0
whykph 0.0
californiagurls 0.0
katycattt 0.0
varicose 0.0
itsbrillz 0.0
perrystiger 0.0
katysmyaura 0.0
paolablancokp 0.0
callmemargot 0.0
indiggynado 0.0
katycat 0.0
anylinden 0.0
kpkillerqueen 0.0
katyslilacwine 0.0
katypvenezuela 0.0
franzikaty 0.0
katherynelperry 0.0
doessss 0.0
katysleftarm 0.0
datingprism 0.0
_smiler_katycat 0.0
kepyterry 0.0
katycat_camille 0.0
vckatyperry 0.0
bowzerjoe 0.0
taishrox 0.0
mütter 0.0
arianperryarian 0.0
lisasigh 0.0
fridiskp 0.0
kevinruda 0.0
katyperrydaily 0.0
wakingupvegas 0.0
marlyins 0.0
drankin 0.0
herkatycat 0.0
luvhudson 0.0
yaeltsairi 0.0
felipinhoofm_ 0.0
renanmarcall 0.0
kariseperry 0.0
emojing 0.0
konnie 0.0
mcperry 0.0
iturnmycanonon 0.0
katycatelysha 0.0
andrewnavs 0.0
katycatkrystal 0.0
lovelyandlaugh 0.0
lampoonians 0.0
perrytuuda 0.0
katymyhaven 0.0
ruletheschool 0.0
cheapandchic 0.0
sically 0.0
crazyforperry 0.0
kpdaily 0.0
getonupmovie 0.0
cutetina 0.0
chimiuzz 0.0
kefali 0.0
joelkefali 0.0
siclly 0.0
mtvother 0.0
lydiaacav 0.0
prismaticperry 0.0
jwujek 0.0
adorbie 0.0
errone 0.0
kaliyah 0.0
katysweirdness 0.0
vinbiodiesel 0.0
katysfxb 0.0
katyspurrfect_ 0.0
shannonmwoodward 0.0
bippity 0.0
boppity 0.0
swiggty 0.0
swoogity 0.0
pizzarella 0.0
firewerk 0.0
katyslayed 0.0
emerald_epelman 0.0
madkatydisease 0.0
mandee 0.0
ohferras 0.0
sarahh 0.0
iaustinhunt 0.0
lanawhore 0.0
spaceykacey 0.0
crazay 0.0
elektrikpeople 0.0
visa_nz 0.0
fvckin 0.0
nathanspicer 0.0
cashcash 0.0
ashish_uk 0.0
xokatic 0.0
turnting 0.0
scorpiomystique 0.0
toddthomasnyc 0.0
kohngallery 0.0
discnt_universe 0.0
dressinkaty 0.0
lee_cook 0.0
bloodshot 0.0
yaddlizc 0.0
elnett 0.0
itsthekatycats 0.0
kelly_moritz 0.0
katyslaykaty 0.0
skintxghtjeans 0.0
socarrer 0.0
errrday 0.0
therealslacker 0.0
wendywild 0.0
welkys 0.0
sohohouse 0.0
selfing 0.0
camiilaruales 0.0
nexxxt 0.0
turrell 0.0
alliexxxxandra 0.0
surfboardt 0.0
telstra_news 0.0
juanitadele 0.0
oopskatycat 0.0
sophkatycat 0.0
katyschild 0.0
katysconverrse 0.0
katycat_leah 0.0
katycatverified 0.0
katycat_libby 0.0
katyswonk 0.0
kittless 0.0
jlrcukp 0.0
siiiiiiiiiiiiii 0.0
ermagherd 0.0
imlynsey 0.0
perrys_cherry 0.0
casemcgase 0.0
hazzaily 0.0
herses 0.0
gaypropaganda 0.0
tixforcharity 0.0
hudsons 0.0
nomers 0.0
mommacat 0.0
superlove 0.0
bonacorso 0.0
levi_leet 0.0
thinkingofbecki 0.0
cybering 0.0
pamyurin 0.0
idreamofkaty 0.0
xfactor_au 0.0
glohudsonperry 0.0
aubreyplzza 0.0
eeshhuhhayniac 0.0
bonkay 0.0
katysbum 0.0
nevillebradley 0.0
curryswift 0.0
zinepack 0.0
katykatt_suraya 0.0
sweetkatybird 0.0
yohkatheryn 0.0
cottoncandykaty 0.0
karolynadiaz 0.0
maayansharvit 0.0
theprismcess 0.0
camisp_ 0.0
lucasgaldin 0.0
prixy_mtz 0.0
niggasperry 0.0
kaksperry 0.0
zennnnaaa 0.0
katyissmurfy 0.0
dadehoward 0.0
kyledsaavedra 0.0
katysdoritos 0.0
pendejabardera 0.0
rosenilsou 0.0
hackensucks 0.0
gottabesheerio 0.0
ismaellgarcia 0.0
milegendz 0.0
alexskarev 0.0
ladycrystalb 0.0
katyspad 0.0
xcallmechrissyx 0.0
arianastylesss 0.0
jorgebaker 0.0
matty_zee 0.0
katycatzilla 0.0
adorie 0.0
meowwdison 0.0
alvin_koopa 0.0
lexyauditore 0.0
kease_it_raw 0.0
katysking 0.0
chris__kirby 0.0
katysbestfrwend 0.0
katyslildancer 0.0
sssshhh 0.0
conorhughess 0.0
tanimura 0.0
thekatycatlife 0.0
weefififookface 0.0
breakalioz 0.0
hudsonhelper 0.0
lariitaa 0.0
meeeeeooooooooowwwww 0.0
legend__dary 0.0
katyandliam 0.0
_theatrekid 0.0
babybritney 0.0
erinlorimer 0.0
_zacmoore_ 0.0
itscezzurryo 0.0
katycatskp 0.0
larissafilipo 0.0
siaylorswift 0.0
shitkittens 0.0
thefrankradical 0.0
katysprism 0.0
katytinalevine 0.0
serjeeoh 0.0
kayz_perry 0.0
katyslaysurfav 0.0
fuckyeahitskath 0.0
sweetyitosan 0.0
pickerington 0.0
verrado 0.0
retweete 0.0
jameswaterhouse 0.0
hunnah 0.0
truth_ispeak 0.0
_emilybarbarrr 0.0
nbllrrr 0.0
jmoneygraves 0.0
eaglenationnews 0.0
tauentzienstrasse 0.0
avontbh 0.0
vinnie_mate 0.0
demilovve 0.0
coolestkatycat 0.0
terri_katycat 0.0
beeeaaatttt 0.0
laurenfrancisco 0.0
victaytayp 0.0
aylajaye 0.0
iloveu 0.0
augustvaz 0.0
lizzievang_ 0.0
edsssss_ 0.0
hhhhhholly 0.0
holly_hickin 0.0
trixxx 0.0
killah 0.0
treasurefingers 0.0
最強ガール宣言 0.0
voykovic 0.0
annunaki 0.0
katyshomie_ 0.0
katyselephant 0.0
caitlynsmith 0.0
lightsperry 0.0
elizagilham 0.0
ohmyjatyfeels 0.0
junglescope 0.0
drunkskaty 0.0
malikpom 0.0
dancerlaurena 0.0
brirad 0.0
elisa_rv 0.0
moooom 0.0
pattymeagher 0.0
iwasemily 0.0
shahrzadphoto 0.0
tvjohnny 0.0
cstonethebreadwinner 0.0
katysrightboob 0.0
cyberdlck 0.0
beatforkaty 0.0
igabriiel 0.0
duuuuddddeeeee 0.0
redrum 0.0
srbuhiii 0.0
kayleighcat 0.0
applekatycat 0.0
ikatycats 0.0
wehryspencer 0.0
emilyjonesphoto 0.0
coxgabe 0.0
drugmoneyx 0.0
steven_drum 0.0
victoriacha 0.0
hashtaggin 0.0
perryandemetria 0.0
katycatfurlife 0.0
iammelissalynn 0.0
qewtie 0.0
yscheecat 0.0
slayty 0.0
katystree 0.0
katherynsboy 0.0
anapurry 0.0
nenedez 0.0
kevinn_perry 0.0
gloria_swag_ 0.0
andyamaziing 0.0
roarsana 0.0
brighthudson 0.0
fixingperry 0.0
roooooooooooooar 0.0
gretschusa 0.0
katys_cupcake 0.0
wonderation 0.0
kasek_craig 0.0
katysgurll 0.0
pepperperry_ 0.0
teamkatyperry 0.0
meandnutella 0.0
lovatokitten 0.0
katyslolly 0.0
astixxx 0.0
ravemomentz 0.0
erzaabrianto 0.0
katyperryindo 0.0
seeingdaisies 0.0
gillian_e_dubbs 0.0
samanthachazene 0.0
perryprism_ 0.0
katycompletesme 0.0
ltskatyperry 0.0
kittenscks 0.0
nihanofficial 0.0
momcat 0.0
kaytehperreh 0.0
__grazi 0.0
clairekatycat 0.0
fangurl 0.0
rrrrrrrrrrrroooooooooooooaaaaaaaaaaaaar 0.0
marispiva 0.0
mattdrobins 0.0
deihemmings 0.0
rooaaarr 0.0
katycatobsessed 0.0
katycatnick 0.0
tigerkats 0.0
kristenanzelc 0.0
taylermckellop 0.0
essesfadaperry 0.0
imjare 0.0
smganonymous 0.0
roaaaar 0.0
phuckyotweet 0.0
evvvvvverrrr 0.0
melvynmarrero 0.0
zouisashton 0.0
trillneyspears 0.0
rooooooar 0.0
fanwars 0.0
fentyncold 0.0
ttish_ 0.0
rachelacogan 0.0
makesmariana 0.0
kkaplon 0.0
rafaelmoncada 0.0
yaaaassssgrl 0.0
oioianna 0.0
katycatrazan 0.0
megaan_katycat 0.0
thekaelynn 0.0
hannahloupunton 0.0
thumbelinafairy 0.0
nic_kathryn 0.0
dannahfields 0.0
rodneybroaddus 0.0
noxisanasshole 0.0
soedesh__ 0.0
hookerofversace 0.0
thinkingofkaty_ 0.0
msgracevalerie 0.0
francfernandez 0.0
katysring 0.0
a_little_spark 0.0
laaxiss 0.0
