awesome 0.00019719852744
christmas 0.000196664066466
trying 0.000228180232207
launch 6.21743702321e-05
moment 0.000509808333833
wonderful 8.54369105172e-05
seeing 0.000182323830525
hanging 3.19611923838e-05
sounds 0.000108198616512
recommend 3.77364773669e-05
worked 8.22538928382e-05
direct 3.59017456789e-05
others 5.45399811445e-05
currently 6.0319394666e-05
better 0.000802607059565
please 0.000940606388886
social 2.84016774437e-05
anxiety 0.0
around 0.000150488823668
people 0.000275896176725
morning 0.000504340929167
traditional 0.0
general 0.000227504197466
damage 0.0
everything 0.000353038650417
twitter 0.000176995771347
present 5.74245757212e-05
though 0.000393868811092
friend 0.000228180232207
watched 0.000370226612241
beautiful 0.000233784931482
anything 0.000153769363899
previous 0.0
helped 0.0
updated 4.00822484423e-05
thinking 0.000180367595308
finally 0.000283434792627
caught 0.000142008387219
believe 0.000226342502365
already 0.000427535837801
couple 2.75668161739e-05
orlando 8.58887559847e-05
chance 0.000252170464583
meaning 0.000111877637832
growing 3.0242611361e-05
probably 5.4687736601e-05
password 0.0
changed 2.69766366947e-05
history 0.000311713241976
center 0.0
museum 4.37851764075e-05
behind 0.000300977647337
screaming 4.66504382049e-05
pretty 0.000515335986595
really 0.000655643207916
little 0.00045268500473
happiest 5.33911853269e-05
earlier 2.95060715334e-05
forget 0.000178914591476
someone 0.000406748708707
safety 0.0
program 0.0
things 0.000225733235503
related 3.70734924066e-05
visiting 3.47823056196e-05
available 0.000418994704198
perfect 0.000183805445176
different 5.12564546328e-05
search 0.0
connect 0.000141403020322
numbers 0.0
person 7.58553305772e-05
watching 0.00124231459757
exhibit 0.0
passed 9.22378060616e-05
prefer 3.80746596221e-05
minutes 0.000651156537588
travel 0.00015415406754
outside 5.33733485347e-05
looking 0.000377237503942
forward 0.000129530705958
agreed 0.0
raising 7.20120693766e-05
listened 0.00011987880126
afraid 0.0
impression 9.26658939916e-05
christian 0.000707462193543
profile 3.44854800179e-05
instant 0.0
drawing 0.0
wheels 0.0
favorite 0.000526775176194
picture 0.000134156182289
instead 8.52050323311e-05
appreciate 0.000118671552137
international 0.000280559051831
station 0.0
toddler 0.0
market 6.79968917362e-05
couldn 0.000262579207394
remember 0.000226953418125
vintage 0.0
holidays 0.000180030173441
friends 0.000228180232207
everyone 0.000176519325208
florida 3.71827800331e-05
always 0.000702281177119
months 0.000105315490452
moving 5.42457695021e-05
meeting 2.58363734953e-05
answer 0.000568400216897
sweetie 0.0
together 0.000176995771347
inside 0.000210063365916
section 0.000426415207997
missed 7.66776820613e-05
button 0.000251192632276
longer 0.0
enough 0.000178432916841
driving 6.1661627016e-05
building 5.66492443477e-05
enjoying 0.00015415406754
london 0.000209962809439
exploring 0.0
posting 0.0
amazing 0.000528132505518
attention 2.8556501828e-05
gordon 0.0
progress 3.49821590324e-05
tomorrow 0.00075651139375
george 0.000125384817305
feeling 0.000343200334996
excited 0.00034227534397
understand 5.49845596045e-05
following 0.0
asleep 0.0
learning 0.0
evening 2.88690475622e-05
special 0.000864341006003
secret 0.000197734620358
across 0.0
surprised 6.01541129968e-05
anymore 6.4279417885e-05
sophia 0.0
precious 0.0
rejoice 0.0
version 0.000250804769919
rather 8.49738665216e-05
avatar 0.0
showing 8.07114936408e-05
saying 7.89866178393e-05
tweeted 6.66642115031e-05
thoughts 0.000187311958477
exactly 0.000109079962289
except 9.64191268274e-05
getting 0.000403472743333
nothing 0.000327821603958
tweets 0.0
course 5.2092523007e-05
photos 0.0
looked 2.86342738922e-05
difficult 0.0
stages 0.000123493875944
office 0.000109079962289
decisions 3.80746596221e-05
brought 2.79428572599e-05
biggest 0.000103904413992
thrilled 0.000345757176911
something 0.000252170464583
closing 0.0
anyone 0.000305061531531
taking 0.000176519325208
recently 3.27747167994e-05
interesting 2.8094866638e-05
original 2.98307552987e-05
flying 6.33915550392e-05
happening 0.000109969119209
sometimes 8.33752908196e-05
lessons 0.0
village 5.0623493774e-05
stopped 2.95868492864e-05
yesterday 0.000381326914413
service 2.77165567417e-05
serious 2.69766366947e-05
digital 7.4805588688e-05
hoarder 0.0
wearing 0.000177521095718
british 0.000220490748006
either 2.74922798022e-05
second 0.000457592297296
checking 0.0
indeed 0.000137549254668
island 0.0
hearing 8.4513654617e-05
choose 8.90036641025e-05
staying 3.40950990537e-05
another 0.000301790003153
clothes 0.0
slowly 0.0
weekend 0.000638980683844
hashtag 3.71827800331e-05
delivery 0.0
theory 0.0
working 0.000100868185833
bigger 2.95868492864e-05
screen 0.000170475495268
riding 4.3643071378e-05
laughing 0.000209388110745
wanted 0.00015294250015
trends 0.0
stripes 0.0
clothing 0.0
current 0.000148745947344
adorable 0.000142883285999
grateful 0.0
friendship 0.0
family 0.000277387511042
listening 0.000248774172399
stream 0.000312146756396
expressions 7.38877588273e-05
wedding 0.000153210698247
sharing 5.93357760683e-05
double 0.000114226007312
especially 5.58857145198e-05
middle 2.89477963572e-05
waiting 0.000206690987963
definitely 0.00013783408087
walking 0.0
account 0.0
completely 0.0
thought 0.000457592297296
reaction 3.44854800179e-05
accept 3.22294459635e-05
simple 2.93452923251e-05
professional 0.000112208383032
friendly 3.75135294935e-05
supposed 0.0
business 5.43926596253e-05
absolutely 5.39532733893e-05
anywhere 0.0
sending 2.92652875663e-05
introducing 4.0453832581e-05
congrats 0.000105885525409
beauty 0.000144443036574
community 0.0
greatest 0.000578903139652
selfie 3.77364773669e-05
posted 0.0
saturday 0.000159688226589
wednesday 0.000304092662639
confused 3.67484580011e-05
expression 5.08113708368e-05
chicago 0.00017144765016
closest 0.0
relationship 3.3902163713e-05
actually 0.000232527361458
easter 6.89709600358e-05
basket 0.0
myself 0.0
argument 0.0
school 0.000128141136582
thursday 2.69766366947e-05
selling 0.000137941920072
talented 6.62898594581e-05
celebrate 0.000250804769919
falcon 0.0
celebrating 3.00770564984e-05
contest 9.860027699e-05
experiences 0.0
students 0.000100278660595
internet 6.26924086525e-05
figure 0.0
opened 3.68563354603e-05
featuring 9.83241503981e-05
inspired 3.04930108178e-05
sitting 5.69579403448e-05
playing 0.000691962137543
street 0.000251485715339
points 0.000161597526003
memory 6.97640665366e-05
forever 5.69579403448e-05
imagine 5.6189733276e-05
problem 0.000108198616512
played 0.000225369745645
canadian 0.0
pulling 0.0
keeping 8.4513654617e-05
lovely 0.000126783110078
dressed 0.0
specifically 5.0068161776e-05
unlike 4.66504382049e-05
disappointed 7.5922849599e-05
otherwise 3.57978885094e-05
afternoon 0.000385682544444
planned 3.62159226965e-05
strange 0.0
images 8.87235746665e-05
noticed 0.0
notice 0.0
stretch 0.0
inspiration 6.91680641841e-05
letting 0.000155007182075
system 6.30407638109e-05
possibility 0.0
almost 0.000252170464583
details 0.000110267264696
experience 5.26577452262e-05
living 0.000157973235679
weather 0.000193376675781
normal 0.0
launching 0.0
before 0.000136719341503
captured 5.0623493774e-05
colors 0.0
monday 0.00076353730578
example 0.0
realize 0.000289727381572
autographed 0.0
sleeping 4.00822484423e-05
authentic 0.0
science 3.55914554872e-05
tweeting 2.87905452427e-05
forgot 0.0
chasing 0.0
gorgeous 8.19159994388e-05
herself 0.0
happens 0.000104466465224
silence 3.97160890836e-05
learned 0.000145927685976
congratulations 0.000111167054426
natural 7.15957770188e-05
raised 0.0
babies 0.0
mission 0.0
smelled 0.0
ironic 0.0
testing 0.0
deleted 0.0
barely 4.39280911567e-05
unforgettable 0.0
forgotten 0.000150054117974
trouble 0.0
fantastic 0.000446237842031
loving 0.000118996757875
complete 0.000115791185429
nearly 0.0
spirit 6.53660222748e-05
launched 0.0
finding 6.1661627016e-05
mercury 0.0
stories 2.72699905722e-05
including 2.80187467902e-05
mature 0.0
stuffed 6.35608465198e-05
ancient 0.0
bottle 0.0
somewhere 0.0
wouldn 0.0
choice 0.000134519156068
conversation 6.13226869345e-05
making 0.000377237503942
expect 9.07278340829e-05
occasions 0.0
subject 0.0
flights 0.0
location 7.91904285851e-05
vacation 0.0
seriously 0.000167203179946
spending 3.13462043262e-05
groups 0.0
childhood 8.21712821334e-05
modern 3.63215290445e-05
welcome 0.000433337083758
moments 6.26924086525e-05
degrees 0.0
jacket 8.90160707793e-05
halloween 0.0
costume 0.0
totally 8.73181187967e-05
laughed 4.77944169025e-05
flight 0.000151213056805
kidding 0.0
regular 3.7402794344e-05
context 4.2534317568e-05
running 7.94141440567e-05
finished 3.0159697333e-05
strong 7.7928310494e-05
tracking 0.0
respond 0.0
message 0.0
coming 0.000326939170083
thankful 0.0
cheese 0.0
greens 0.0
issues 6.01541129968e-05
intolerance 0.0
happen 5.13948352481e-05
giving 0.00015294250015
turkey 0.0
excellent 9.860027699e-05
limits 0.0
common 6.23464559625e-05
pressed 0.0
situation 3.29591402083e-05
options 0.0
health 0.000356990273625
insurance 0.0
change 0.000201736371667
singing 6.74214023511e-05
august 0.0
crying 7.94321781673e-05
mental 0.0
happened 0.000159257643108
demand 3.32383431354e-05
generally 5.10006658531e-05
personal 8.22538928382e-05
beyond 8.4513654617e-05
bruised 0.0
question 0.000103067197319
chicken 7.24318453929e-05
reward 0.0
tunnel 0.000297580021077
losing 0.00015543592558
respect 2.75668161739e-05
caption 0.000106782370654
shouldn 6.0319394666e-05
visited 7.91904285851e-05
reason 2.65429405181e-05
simply 0.000252163055244
darlin 0.0
audience 0.0
involved 2.93452923251e-05
unhappy 6.11703270461e-05
reality 8.99840611883e-05
extremely 7.32820850904e-05
without 0.000508435885884
falling 3.71827800331e-05
countdown 0.0
locations 0.0
timing 0.0
crabby 0.0
classic 0.000123663919495
highly 3.59017456789e-05
online 0.0
finger 8.58887559847e-05
animals 8.42617071535e-05
planets 0.0
called 0.000253533591341
delicious 0.0
almond 0.0
compliment 0.0
pictures 3.18724083243e-05
camera 9.8877420625e-05
pillow 0.0
checked 0.0
heading 0.0
theater 0.0
paying 3.27747167994e-05
planning 0.0
complex 0.0
sunday 0.000312555138042
nights 0.000111548340099
descending 0.0
traffic 0.0
opposite 0.0
through 0.0
lookout 0.0
reached 0.0
harder 0.000140330744413
random 0.0
changes 3.11732279813e-05
speaking 2.88690475622e-05
recorded 3.83026745617e-05
washed 6.91576149442e-05
november 3.38062497506e-05
answered 0.0
enchanted 0.0
number 7.7509120486e-05
adventures 0.0
eclipse 0.0
chocolate 0.0
unless 6.21743702321e-05
calling 7.94141440567e-05
mermaid 0.0
distraction 0.0
levels 0.000116295056727
option 0.0
shopping 0.0
former 0.0
actual 3.35206891258e-05
covers 0.0
mountain 8.90160707793e-05
friday 0.000153355364123
winner 0.000532356189013
closes 0.0
quality 0.000293324756028
father 5.74245757212e-05
wishes 6.57335179933e-05
hourly 0.0
matter 8.11489623838e-05
themselves 0.0
usually 3.36155152146e-05
period 3.76247557095e-05
parents 3.0242611361e-05
balance 0.0
publishing 0.0
mobile 0.0
woohoo 0.0
bracelets 0.0
summer 0.000108785319251
reminded 0.0
impressed 7.63768159662e-05
necklace 0.0
shutdown 0.0
dinner 0.000111468786631
single 0.000207808827984
packed 4.13428891742e-05
definition 8.29450189317e-05
energy 2.99946870628e-05
preview 0.000251312219753
monster 0.0
material 0.0
admission 0.00013454180183
europe 0.000139528133073
holiday 0.000290267931803
emotional 0.000108964587134
update 8.82766592987e-05
customers 0.0
messing 0.0
holding 2.98307552987e-05
electric 0.0
eating 0.000252163055244
outfit 0.000155317392917
picked 6.28662838395e-05
fabulous 0.0
missing 0.000134519156068
surprise 8.0929910084e-05
officially 0.000117702212398
french 0.000129639555905
global 0.000134842804702
follow 0.000126766795671
opinion 3.28667589967e-05
backwards 5.42414860989e-05
design 3.80746596221e-05
secrets 4.72977378879e-05
request 0.0
breaks 9.97150294062e-05
allows 0.0
promoting 0.0
volunteer 0.0
wondering 3.42895300321e-05
official 7.81387845105e-05
sweater 0.000119032008431
jersey 0.000763183928816
mistake 0.000104646099805
france 0.00013992863613
proper 0.000320657987538
ginger 0.000263429945573
peaceful 0.0
lighter 0.0
thinks 8.82766592987e-05
competition 3.40950990537e-05
hospital 3.67484580011e-05
industry 0.0
trending 0.0
leadership 7.89498384777e-05
organized 0.0
showed 0.0
circle 0.0
success 0.00011391588069
ladies 6.91680641841e-05
dreams 0.000232014508103
protect 3.23195052007e-05
onesie 0.0
explanation 9.02034147607e-05
control 5.63424364113e-05
coincidence 5.3183039148e-05
discovering 0.0
laying 0.0
invited 7.09777452846e-05
healthy 3.41921261403e-05
surgery 0.0
allowing 4.42163870964e-05
arrived 6.09860216357e-05
opening 0.000109671857118
popular 0.0
pleasure 9.48237791832e-05
spectacular 0.0
animal 0.0
luggage 0.0
wonder 0.000191407078104
matters 0.0
reader 0.0
function 0.0
marketing 0.000207876730923
connection 0.0
improves 0.0
benefit 3.16079263944e-05
continues 6.14918707077e-05
cuddle 7.5349228734e-05
routine 5.11914003891e-05
exciting 0.000120970445444
corner 0.000108018104065
imagination 0.0
sangria 0.0
mystery 4.5864120811e-05
spring 3.22294459635e-05
beautifully 9.97715005532e-05
places 0.0
feedback 0.0
continue 2.91060395989e-05
attend 3.79614247995e-05
creative 0.0
memories 3.44854800179e-05
female 3.36155152146e-05
grandma 0.000106366078296
closer 0.0
accent 0.000165364884016
beginning 6.33915550392e-05
sooner 5.0068161776e-05
everywhere 3.00770564984e-05
scenes 0.000160698544712
bought 0.000277477321572
wishing 0.000146136340609
discovered 0.0
remove 0.0
predict 0.0
parrot 0.0
several 3.63215290445e-05
teacher 7.5249511419e-05
passing 0.000136380396215
become 0.000131644363065
spread 5.75810904853e-05
netflix 0.0
season 0.00161192228918
putting 2.64713813522e-05
weight 0.0
outfits 0.0
notification 0.0
annoying 4.93463430224e-05
necessity 0.0
knocks 0.0
processed 0.0
necessarily 0.0
effects 4.68107037382e-05
lighting 0.0
headed 3.33321057515e-05
returns 6.76124995011e-05
expected 0.0
bucket 0.0
constantly 4.64911902375e-05
sweetest 6.06066747725e-05
struggling 0.0
register 0.0
transition 0.0
flowers 4.77944169025e-05
sprain 0.0
savage 0.000117975907503
somebody 0.000112874267129
covering 0.0
gloves 0.0
repeat 7.03672354216e-05
managers 0.000313187489674
brothers 3.86486313654e-05
patriots 0.000164033089748
seahawks 0.000136771632983
player 0.000633305118794
chemistry 5.51216280055e-05
moonlight 7.29587092603e-05
comment 3.2500599638e-05
columbia 0.0
physical 4.19977950652e-05
kingdom 0.00010891728609
pretend 0.0
charles 8.0907665162e-05
fighting 0.000143561439303
rooting 0.000302622081477
donald 7.24318453929e-05
mexico 0.000254993073527
police 3.2500599638e-05
represent 4.2670260831e-05
president 2.80187467902e-05
talking 0.000252851101924
unbelievable 4.00822484423e-05
shrimp 0.0
giants 0.0
conference 3.12595670359e-05
america 0.00104641822186
everybody 0.0
houston 0.0
everyday 0.000143191554038
michael 0.000341747642069
protecting 0.0
unconditional 0.0
million 7.94141440567e-05
election 0.0
telling 0.000114537095569
correct 9.75017989141e-05
pulled 3.78486988991e-05
starbucks 0.0
americans 0.000140330744413
killed 5.6189733276e-05
cowboys 0.0
cowboy 0.0
coverage 6.83842522806e-05
dallas 8.32056062254e-05
coffee 9.53518123104e-05
timeline 4.32215241339e-05
refuse 0.0
barackobama 0.0
hillary 0.0
clinton 0.0
gatorade 0.0
sharper 0.0
american 0.000909800941175
deserved 7.70655628212e-05
realist 0.0
illegal 0.0
arizona 0.0
waffle 7.58559423439e-05
scared 3.69646789144e-05
pieces 0.0
taught 0.000148731120132
golden 0.00183591607688
straight 8.38285717797e-05
massage 6.83858164917e-05
filter 0.0
answers 0.0
smoking 0.0
created 0.0
beside 6.6554238714e-05
worlds 4.76277619995e-05
record 0.000131644363065
freddie 0.0
africa 0.0
recruiting 0.0
journey 3.27747167994e-05
snapchat 0.0
brother 3.07459353539e-05
prayers 3.94749192389e-05
trolling 0.000117975907503
hungry 4.05789274568e-05
nflnetwork 0.0
documentary 0.000264155341568
boston 3.64275819324e-05
addition 0.0
church 3.83026745617e-05
honestly 7.20120693766e-05
lounge 5.92505893512e-05
lifetime 7.61493192442e-05
captain 0.000214034724664
favorites 4.4803114918e-05
country 0.000156277569021
valley 0.0
huddle 0.0
dressing 0.0
finish 0.000341015800566
favourite 0.0
prayer 5.58026147398e-05
nominated 0.0
praying 0.000103544928611
insane 7.45850918881e-05
national 0.000272699905722
reform 0.0
shooting 3.15203819055e-05
australia 3.7402794344e-05
deserve 3.09159798737e-05
legend 0.00073954133472
mother 0.000252853799742
realest 0.0
creating 3.46829729328e-05
powerful 0.0
chilling 0.000106366078296
wisdom 4.2534317568e-05
breaking 0.000135614423755
parked 0.0
angeles 0.00013178427347
dollars 0.0
questions 0.000361709228935
racist 0.0
girlfriend 0.0
performance 0.000350226446342
refreshing 5.89879537513e-05
educated 5.53465754381e-05
reading 0.000107035404844
denver 0.0
videos 3.2500599638e-05
harmony 6.95526068967e-05
create 2.91855371951e-05
jordan 0.00013178427347
admire 0.00018660175282
nobody 3.09159798737e-05
government 0.0
politics 0.0
paradise 0.0
recover 0.0
spotted 0.000127602952704
blessing 0.0
coolest 0.0
banana 0.0
donate 3.39984458681e-05
sandwich 4.68107037382e-05
lookin 0.0
method 0.0
bullshit 0.0
slight 0.0
bringing 0.000141623110869
deserves 0.000100562067377
regret 0.0
celebs 0.0
victim 0.0
stadium 0.000298691825817
funniest 0.0
according 0.0
pumped 0.0
hamburger 0.0
heaven 3.99596004198e-05
honest 3.13462043262e-05
rolling 0.0
became 9.45611457164e-05
feature 3.45840320921e-05
waking 9.76365851167e-05
breakfast 3.16957775196e-05
counting 7.15957770188e-05
signing 0.000132207451764
adding 0.0
awareness 7.22215182872e-05
kindest 0.0
trainer 0.0
facebook 2.69766366947e-05
insanity 0.0
repost 0.0
brazilian 0.000196548709893
campaign 5.85305751327e-05
borrow 0.0
scorpion 0.000605842466845
popcorn 0.0
factory 0.0
teenage 0.000110693150876
endorsement 0.0
williams 0.00012061649748
custom 0.000101246987548
drinks 4.51017073803e-05
future 0.000467569862964
angels 0.0
fingers 7.82349151003e-05
sister 3.3902163713e-05
earrings 0.0
warrior 0.00010720214667
dancing 0.0
voting 0.0
individuals 0.0
presence 5.0068161776e-05
commercial 0.000242088224644
chopped 7.69011548539e-05
religion 0.0
century 8.26857783484e-05
submit 4.3643071378e-05
serving 0.00013008376241
because 3.63215290445e-05
aggressive 0.0
sensitive 0.0
smiling 4.45080353897e-05
besides 5.2367309671e-05
cleveland 4.97046558392e-05
hometown 4.51017073803e-05
killing 0.0
breath 0.0
phillips 0.0
instagram 3.49821590324e-05
sharks 0.0
cousin 0.0
honored 0.000104946477097
dedication 0.0
lifting 0.0
lyrical 0.0
talent 0.000235308606502
goodnight 9.66022610246e-05
stores 0.0
rushing 0.0
brains 0.0
sandwiches 0.0
drinking 0.000225081176961
brazil 0.000135757041889
tattoo 0.000158929818377
ravens 0.0
regardless 4.45080353897e-05
skills 6.99643180649e-05
cameras 5.0623493774e-05
phones 0.0
california 0.0
seconds 0.000235974908229
listen 0.000807434106609
smiled 0.0
kicking 3.55914554872e-05
homies 0.0
billion 7.22215182872e-05
shades 0.0
shoutout 9.52555239991e-05
grammy 5.95160042154e-05
guilty 4.2670260831e-05
stevie 0.0
ceiling 0.0
carpet 4.33612541366e-05
grammys 0.0
harvard 0.0
panther 0.0
nelson 0.0
mandela 0.0
handle 0.0
sexiest 0.0
promise 0.0
hosting 6.61037258819e-05
hahahaha 0.0
longest 0.00022401557459
tuesday 0.000114537095569
locker 0.0
workout 0.000195972308132
ingredient 0.0
leader 3.28667589967e-05
pageant 0.0
character 0.0
idiotic 0.0
mirror 0.0
jackson 4.07046493773e-05
interview 0.000743218592176
battles 0.0
bleach 0.0
insight 0.000134409344754
obviously 0.000141546830605
replay 0.0
battle 0.000351183450796
stomped 0.0
destroy 4.37851764075e-05
killer 7.66053491233e-05
personally 0.0
winning 0.000269038312136
gettin 0.0
japanese 9.23513917625e-05
writing 2.91855371951e-05
society 3.47823056196e-05
officers 0.0
brooklyn 0.0
sources 8.67225082732e-05
incredible 0.000244766968314
poster 3.99596004198e-05
celebrity 4.12139353137e-05
memorable 5.21674562581e-05
werent 0.0
chased 0.0
minute 0.000113606709775
confession 0.0
pregnant 0.0
cherry 0.0
twinning 0.0
phoenix 0.0
orange 0.0
policy 0.0
comedy 0.0
illuminati 0.000201947488948
reminder 0.000181954802367
evidence 0.0
iphone 0.0
kicked 4.13428891742e-05
intentions 0.0
freedom 0.0
patient 4.4071824906e-05
utterly 0.0
mississippi 0.0
download 0.000142365821949
assistant 0.0
invite 0.0
central 6.64766862708e-05
washington 9.99963172546e-05
stronger 4.00822484423e-05
promised 4.13428891742e-05
worried 3.64275819324e-05
throwing 8.26857783484e-05
security 0.000100278660595
cologne 0.0
headphones 0.0
sanctuary 0.0
fantasy 9.55888338049e-05
monkey 5.19691827307e-05
approve 0.0
spinach 0.0
turning 6.30407638109e-05
helping 2.77165567417e-05
tickets 0.000640353227175
collector 0.0
physically 5.55735586217e-05
slavery 0.0
december 6.99643180649e-05
basically 3.67484580011e-05
return 0.000390140753208
yassss 0.0
goddess 0.000153802309708
locked 0.0
feelings 0.000174007067778
language 3.52849571239e-05
motion 0.0
obsessed 0.0
creation 5.10006658531e-05
followers 3.25916395587e-05
schools 3.57978885094e-05
gallery 0.0
movies 0.000113209432101
foster 0.0
children 0.000110866226967
nation 6.33915550392e-05
theaters 0.0
between 0.0
knowledge 7.15957770188e-05
begins 3.0159697333e-05
robinthicke 0.0
faithful 0.0
peeing 0.0
closet 5.92505893512e-05
bodies 0.0
italian 0.000141893213664
highlights 3.79614247995e-05
spanking 0.0
forbes 0.0
parade 0.0
tasted 0.0
consider 6.68524403964e-05
reunion 0.0
latest 0.000190889934006
dedicated 4.29443779923e-05
beyonce 5.40261931838e-05
perform 8.0658717052e-05
signed 5.5583527213e-05
tuxedo 0.0
princess 0.0
shelter 0.0
germany 3.83026745617e-05
explaining 0.0
married 0.0
millions 0.000102285297161
blessings 0.0
iconic 0.0
indonesia 0.0
braids 0.0
dollar 0.000127197321469
rigged 0.0
replied 0.0
lights 7.24318453929e-05
turned 0.0
excuses 5.6033782004e-05
jackie 0.0
charge 6.97640665366e-05
performing 8.0907665162e-05
ticket 0.000405674997007
steady 0.0
whispers 0.0
finest 9.94093116785e-05
confucius 0.0
diamonds 0.0
vancouver 0.0
addicts 0.0
collection 3.45840320921e-05
families 3.22294459635e-05
select 4.49519668125e-05
hitting 0.000100846545644
announced 3.06613434672e-05
decided 3.0159697333e-05
jewels 0.0
lottery 0.0
owners 0.000145417007264
respects 0.000191629022628
celebration 0.000247706953559
memorial 0.0
landed 3.93551983881e-05
pastor 0.0
ultimate 0.0
incase 0.0
rapper 0.0
episode 0.000451155847476
bounce 0.0
disney 0.0
muffin 0.0
kansas 0.0
sherman 0.0
retweet 6.39223847676e-05
midnight 0.0
patience 0.0
cereal 0.0
joining 0.000415350432478
released 5.86905846502e-05
release 5.5283149422e-05
models 0.0
classics 0.0
popped 0.0
mileycyrus 0.0
highlight 0.000119512647681
scholarship 0.0
within 6.4279417885e-05
hahahahaha 0.0
standing 0.0
higher 3.38062497506e-05
purple 4.6971999925e-05
skinny 0.0
justice 6.7804327426e-05
served 3.80746596221e-05
speaks 3.64275819324e-05
horses 0.0
houses 0.0
purchase 0.0
dropped 3.1087185116e-05
conversations 4.68107037382e-05
consideration 0.0
seattle 0.00225495180201
cookie 0.0
slurpee 0.0
strength 0.0
screens 6.03295286309e-05
monica 0.0
incredibly 0.000142365821949
streets 0.0
boyfriend 5.95160042154e-05
private 0.0
skittles 0.0
barbie 0.0
apologizes 0.0
designer 0.0
impress 0.0
cooking 0.0
exclusive 0.000119650348997
fashion 3.64275819324e-05
petite 0.0
talkin 0.0
peaches 0.0
bitches 0.0
nailed 0.0
weirdest 0.0
whomever 0.0
teaching 0.0
disgusting 0.0
chillin 0.0
philly 0.000141403020322
rights 3.39984458681e-05
dinosaur 0.0
exotic 0.0
dancers 0.0
cheers 0.000467993122589
presents 4.12139353137e-05
flawless 0.0
dating 0.0
victory 0.000144024138753
marley 0.0
productive 5.0068161776e-05
smurfs 0.0
halftime 0.000178548012646
insecure 0.0
horror 0.000400545294208
warning 0.000109282745797
discovery 0.0
convention 0.0
understanding 0.0
action 0.000243446887151
having 0.0
speaker 0.0
clever 4.30825682626e-05
theatre 0.0
honors 0.0
evolution 0.0
produce 9.45954757758e-05
spider 0.0
apologize 4.64911902375e-05
formation 0.0
letter 6.21743702321e-05
therapy 0.0
untrue 0.0
written 3.07459353539e-05
communication 0.0
disease 0.0
marching 0.0
suggest 3.89994268824e-05
georgetakei 0.0
hairstyle 0.0
humans 0.0
journal 0.0
foundation 0.0
access 0.00012400574566
venture 6.14569755445e-05
syndrome 0.0
writes 0.000205428205333
colorado 0.0
medicine 5.08113708368e-05
tremendous 0.0
nytimes 3.81884079831e-05
kindness 0.0
cannot 0.000365233266294
reveals 3.76247557095e-05
invented 0.0
sapphire 0.0
candidate 0.0
sexual 0.0
madison 0.0
illustration 0.0
newark 0.0
globally 0.0
incorrect 0.0
headline 0.0
reflect 4.64911902375e-05
streaming 0.0
leaders 0.0
supreme 4.35017669445e-05
protest 0.000213351304155
policies 0.0
silenced 0.0
defend 0.0
communicating 0.0
climate 0.0
wrapped 0.0
studio 0.000245578802723
conspiracy 4.97046558392e-05
interviews 3.41921261403e-05
differentiation 0.0
confusing 0.0
february 3.70734924066e-05
hamilton 0.0
loneliest 0.0
amazon 0.0
scattered 0.0
francis 0.0
headlines 4.64911902375e-05
january 0.000104646099805
diversity 4.64911902375e-05
universal 4.45080353897e-05
hurricane 0.0
identifying 0.0
countries 0.0
tickled 0.0
becker 0.0
connected 0.0
suggestion 0.000194578870698
filled 0.000247706953559
education 0.0
mentioned 3.70734924066e-05
defining 0.0
exists 4.68107037382e-05
unexpected 0.0
plants 0.0
orders 0.0
olympics 4.46551412108e-05
ability 0.000109923127636
director 0.0
content 3.93551983881e-05
cycling 0.0
previously 0.0
correction 0.0
pearls 0.0
ambassador 0.0
preparing 8.42617071535e-05
depend 0.0
downloads 0.0
lovers 0.000151870481322
weekly 4.35017669445e-05
hudson 0.000802545801863
bridge 0.000162315709827
becoming 0.000193917031204
magazine 0.0
appropriate 9.11127376885e-05
shakespeare 0.000273543265967
travesty 0.0
discoveries 0.0
fellow 0.0
reviewed 0.0
copies 0.0
driven 0.0
aussies 0.0
result 0.000108964587134
announcing 4.39280911567e-05
visual 0.0
restrictions 0.0
culture 6.95646112391e-05
edition 6.74214023511e-05
prince 0.0
shocks 0.0
symmetry 0.0
clicks 0.0
disagree 0.0
experiments 0.0
mistakes 4.49519668125e-05
trolls 0.0
blossoms 0.0
offered 8.29450189317e-05
inspiring 3.39984458681e-05
counter 0.000142883285999
approach 3.75135294935e-05
embarrassing 0.0
creators 0.0
edited 5.92505893512e-05
berniesanders 0.0
overnight 0.0
spotlight 0.000103154553558
probable 0.0
repeating 0.0
concerns 0.0
massive 0.000191767154303
promising 5.51216280055e-05
promises 0.0
colored 0.0
production 0.0
header 0.000139907837976
itunes 0.0
secretary 4.39280911567e-05
highway 6.23371174511e-05
dangerous 6.76124995011e-05
letters 0.0
typically 0.0
saving 0.0
pioneer 0.0
visuals 0.0
universe 0.0
ordering 0.0
victims 3.65340851524e-05
privacy 5.42414860989e-05
disclosure 0.0
proceeds 0.0
musical 8.21712821334e-05
collide 0.0
melbourne 6.95526068967e-05
correctly 0.000100874027159
campus 4.98857502766e-05
debate 6.48197779527e-05
conflict 0.0
meanwhile 4.42163870964e-05
petition 0.0
contribution 5.19691827307e-05
stated 0.0
humanity 0.0
illness 5.48986801321e-05
flawed 6.20402918494e-05
breathe 0.0
winners 0.000199992634509
spanish 0.000138998840987
comedic 7.5349228734e-05
awards 0.0
presidential 0.0
candidates 0.0
glasgow 0.0
smells 0.000220486512022
treasure 0.000162078579551
greater 0.0
themed 5.9784257795e-05
distribution 0.0
absurd 0.0
squirrel 0.0
sisters 0.0
stress 0.0
leading 0.0
resolution 0.0
achieved 0.000155907548192
interacting 0.0
boiling 0.0
examples 0.0
diverse 0.0
suicide 0.0
parallel 0.0
minneapolis 7.34189326425e-05
impairs 0.0
pumping 0.0
slides 0.0
choreography 0.0
element 0.0
serves 0.0
jumping 4.72977378879e-05
rising 0.0
believed 4.61756958813e-05
features 0.0
environment 0.0
revealed 0.0
classical 0.0
confirmed 0.000109923127636
origins 0.0
combination 0.0
consumption 0.0
worldwide 4.18654387126e-05
deaths 5.27718582899e-05
responsible 0.0
overwhelmed 6.00554114696e-05
household 0.0
munich 0.000141552671931
alternate 0.0
blockers 0.0
restaurant 8.34675542944e-05
canada 6.70413782515e-05
versions 0.0
technology 0.0
identify 5.40261931838e-05
combined 9.36214074763e-05
santiago 0.0
branches 0.0
october 3.51836177108e-05
netherlands 6.35608465198e-05
belgium 6.14569755445e-05
european 8.67225082732e-05
imperial 0.0
perspective 0.0
cities 0.0
guinea 0.0
americas 0.0
posters 0.0
elastic 0.0
flames 0.0
presumably 0.0
exquisite 7.97222680897e-05
spreading 0.0
happiness 0.000656777646113
ashamed 0.0
naturally 0.0
malbec 0.0
wasting 0.0
hidden 0.0
coffin 0.0
freudian 0.0
genius 6.68524403964e-05
cultured 0.0
malaysia 0.0
traveling 0.0
prepared 3.80746596221e-05
county 4.64911902375e-05
quinoa 0.0
district 0.000161438197713
chosen 4.7462207137e-05
toilet 5.21674562581e-05
yorkers 0.0
ignores 0.0
messages 0.0
creativity 0.0
conventional 0.0
berlin 0.0
montreal 0.0
wonders 0.0
upcoming 7.11829109743e-05
lonely 0.0
australian 0.0
positions 0.0
singapore 0.0
scratch 5.40261931838e-05
deficiency 0.0
elevated 0.0
triggers 0.0
delicate 0.0
barrier 0.0
reflection 0.0
sydney 0.0
separates 0.0
centuries 0.0
israel 0.0
overwhelming 0.0
assault 0.0
protection 0.0
picker 0.0
additional 0.0
machine 0.000135608654852
samples 0.0
contrary 0.0
immediate 0.0
michelle 0.0
inspire 4.28069449328e-05
lyrics 4.71343401073e-05
missyelliott 0.0
constant 0.0
tuning 5.55735586217e-05
pandora 0.0
preshow 0.0
buenos 8.03266701214e-05
poland 0.0
philippines 0.0
nicely 0.0
september 0.0
manchester 0.00114274432031
checks 0.0
screenshot 0.0
universalorl 0.0
remarkable 0.00026016752482
rihanna 0.0
disgusted 0.0
flattered 0.0
fiction 5.04370135795e-05
angela 0.0
bitmoji 0.0
process 6.41005836805e-05
genuine 0.0
performances 0.0
comedians 0.0
flotus 0.0
strangers 0.0
hungover 9.59406283233e-05
confidence 0.000236131190329
studios 0.000430501860568
stjude 0.0
memphis 0.0
mikeypiff 0.0
chancetherapper 0.0
scream 0.0
jennifer 0.0
disappoint 0.0
newcastle 0.000145917418521
castle 0.0
literally 3.1087185116e-05
chrisrock 0.0
gentlemen 5.40261931838e-05
mtvnews 0.0
hillaryclinton 0.0
iamrashidajones 0.0
champagne 5.67403490267e-05
raleigh 0.0
ijessewilliams 0.0
acknowledge 0.0
buzzfeed 0.0
puppet 6.95526068967e-05
rehearsal 0.0
billboard 0.0
austria 0.0
sweden 0.0
republic 0.0
grilled 0.0
waltdisneyworld 0.0
katyperry 0.0
ronanfarrow 0.0
measly 0.0
bragging 0.0
treats 0.0
literal 0.0
cooper 0.0
counts 0.0
theellenshow 0.0
basking 0.0
cookies 0.0
festival 7.39293578287e-05
amsterdam 0.0
soundcheck 0.0
downloaded 0.0
encouraged 6.23371174511e-05
alright 0.0
jtimberlake 0.0
backstage 0.0
collab 0.0
joined 0.000123663919495
issarae 0.0
playlist 4.97046558392e-05
madness 4.00822484423e-05
romantic 6.00554114696e-05
selfies 0.0
exclusively 0.0
disneyland 0.0
refused 0.0
characters 0.000761562720403
amazingly 0.0
auction 5.02519096352e-05
express 3.88819490535e-05
gratitude 0.0
sesamestreet 0.0
thegrammys 0.0
throughout 0.0
awkward 0.000209327193563
shining 0.0
thrown 0.0
stylist 0.0
fighter 0.0
accepting 0.0
playin 0.0
applemusic 0.0
filmed 0.0
makeawish 0.0
bieber 0.0
remixes 0.0
toronto 4.4803114918e-05
capitolrecords 0.0
shazam 0.0
anthem 0.0
cosmopolitan 0.0
khloekardashian 0.0
cookin 0.0
songwriters 0.0
reveal 3.66410425452e-05
stands 6.97640665366e-05
spotify 0.0
phvegas 0.0
rocked 0.0
glasses 0.0
iambeckyg 0.0
relive 6.91576149442e-05
acoustic 0.0
announce 0.000116742148781
although 0.0
isaacfromct 0.0
shampoo 0.0
interactive 0.0
todayshow 0.0
haters 0.0
appreciation 0.0
floating 0.0
shondarhimes 0.0
showtime 0.000120659057262
premiere 0.0
broadway 0.0
makeup 5.40261931838e-05
starring 9.83381761508e-05
newest 8.11578549137e-05
designed 0.000116295056727
arianagrande 0.0
aladdin 0.0
swaggy 0.0
owning 6.69100102197e-05
producer 0.000455563688442
legendary 4.02054991601e-05
jasmine 0.0
costumes 0.0
square 3.39984458681e-05
emojis 0.0
jessica 0.0
magical 9.42686802147e-05
thedoctorluke 0.0
thirsty 0.0
therealjuicyj 0.0
symbols 0.0
privilege 4.64911902375e-05
spiral 0.0
retrograde 0.0
footage 8.21712821334e-05
theirs 0.0
universes 0.0
remembering 0.0
floated 0.0
construction 0.0
consciousness 0.0
delights 0.0
explodes 0.0
submissions 7.48525497195e-05
pleased 0.0
shredding 0.0
filters 0.0
weasel 0.0
reflective 0.0
firework 0.0
islands 0.0
interstellar 0.0
bubble 0.0
customs 0.0
festive 6.26374979349e-05
window 7.37126709207e-05
senator 0.000103938365461
slightly 0.00013008376241
therealbuzz 0.0
printing 0.0
snowflake 0.0
applications 0.0
elephant 5.58026147398e-05
fifteen 0.0
editions 0.0
newspaper 0.0
rainbow 0.0
unlimited 0.0
sirius 0.0
matthew 0.000143886559687
affected 0.0
capturing 0.0
canyon 0.0
rivers 0.0
spoken 0.0
accidentally 4.81310859924e-05
bizarre 0.0
dolphin 0.0
successfully 5.51216280055e-05
liquid 6.29415194828e-05
graffiti 0.0
swallowing 0.0
messenger 0.0
heroes 0.0
disturbing 0.0
graduates 0.0
rewrite 0.0
describe 7.28551638648e-05
hollywood 0.0
equality 9.05046945926e-05
announcement 0.0
breakout 0.0
dreaming 0.0
animation 0.0
calendar 0.0
circling 0.0
garden 0.0
enhanced 0.0
journalists 0.0
stirring 0.0
nominations 5.13835965067e-05
yelling 0.0
teachers 0.0
chapter 0.0
napoleon 0.0
aliens 0.0
subjects 0.0
revolution 0.0
mountains 0.0
wonderland 0.000220256797928
storage 0.0
crystals 0.0
circuit 0.0
invitation 0.0
kettle 0.0
adjective 0.000103927916221
woodpecker 0.0
operate 0.0
exhibition 0.0
learnt 0.0
nomination 0.0
madonna 0.0
questioning 0.0
unplug 0.0
initiatives 0.0
switzerland 0.0
represents 0.000825236428462
throat 5.79640780954e-05
touchdown 6.38763408761e-05
desire 5.21674562581e-05
forced 7.70655628212e-05
swedish 0.0
hundred 0.0
prompts 0.0
rainbows 0.0
creates 0.0
oxford 0.0
balloons 0.0
liverpool 0.00246227187025
recreate 0.0
glorious 0.000193889343019
newton 0.0
creature 7.43655155697e-05
finalist 0.0
scouts 7.07763359655e-05
treading 0.0
tragedy 0.0
nottingham 0.0
debacle 0.0
legends 5.21674562581e-05
noises 0.0
addiction 0.0
survived 5.02519096352e-05
idioms 0.0
greeted 0.0
basics 0.0
masses 6.51795675411e-05
confirm 0.0
cadence 0.0
spaghetti 0.0
prepare 3.71827800331e-05
calendars 0.0
narrative 0.0
application 0.0
octopus 0.0
drumming 0.000102407361551
bloody 9.52555239991e-05
confetti 0.0
translate 0.000129038981492
birmingham 0.0
singles 0.0
completes 8.15810050153e-05
laptop 0.0
obvious 0.0
darling 0.0
deserving 0.0
miller 0.0
ordered 7.39293578287e-05
feelin 0.0
alicia 0.0
picasso 0.0
recipe 0.0
alphabetical 0.0
butterfly 0.0
timothy 0.0
mancini 0.0
untold 0.0
directed 4.29443779923e-05
hacked 0.0
admits 0.0
clocks 0.0
nugget 0.0
cnnopinion 0.0
grabbed 0.0
russia 0.000116998280647
surprises 0.0
waterfalls 0.0
olympic 0.000278947141425
magnificent 0.000105137536699
casual 0.000122340654092
assume 8.24278706275e-05
relief 4.17337771472e-05
subscribe 9.86926860448e-05
landslide 0.0
telegraph 0.0
standby 9.17506662083e-05
admitting 6.80086444126e-05
complacency 0.0
voices 4.05789274568e-05
sounding 0.0
douglas 5.6033782004e-05
democracy 0.0
locals 0.0
gossip 0.0
nickname 6.41958543767e-05
subtle 0.0
embarrassed 0.0
ireland 4.46551412108e-05
mornings 0.000125883038966
democratic 0.0
impressions 0.0
outgoing 0.0
treasury 0.0
refugees 0.0
unveiling 0.0
listing 0.0
deliver 7.96750984542e-05
negotiating 0.0
roller 0.0
prosperous 0.0
desperate 9.55888338049e-05
acknowledgement 0.0
executive 0.0
republicans 0.0
weapons 4.8993077033e-05
dropping 0.000113884274398
meaningful 0.0
nightmare 0.000130929214134
goodies 0.0
scandalous 0.0
rhetoric 0.0
divisive 0.0
vision 0.0
confirmation 0.0
throne 0.0
records 0.0
quoting 0.0
impatient 0.0
refugee 9.97715005532e-05
texted 0.0
exposed 0.0
stoked 5.72226998657e-05
priority 0.0
freedoms 6.91576149442e-05
notorious 0.0
empowering 6.69100102197e-05
unconstitutional 0.0
turkish 0.0
concerned 4.0329358526e-05
realdonaldtrump 0.0
goodwill 7.91320886104e-05
imagined 0.000168801299076
belfast 0.0
sleeve 0.0
basement 0.0
preposterous 0.0
griffith 0.0
timeless 0.0
truman 8.98919292826e-05
intended 0.0
inappropriate 0.0
industries 7.29587092603e-05
responsibility 0.0
documentaries 0.0
vulnerable 0.0
respectful 0.0
markets 0.0
claire 0.0
nuggets 0.0
boards 0.0
sequins 0.000115716298436
capitol 0.0
technical 5.25687683494e-05
applying 0.0
guitar 0.00010720214667
donating 0.0
continually 0.0
norway 0.000168801299076
applause 5.95160042154e-05
ballot 0.0
finely 0.0
shakes 6.69100102197e-05
varied 0.0
proverb 0.0
vibrant 0.0
flower 0.0
survives 0.0
fierce 0.0
shopped 0.0
sincerely 0.0
apology 0.0
sweaty 0.0
conspiracies 0.0
climbing 0.0
relaxed 0.0
encourage 4.2670260831e-05
funnyordie 0.0
essentials 0.0
jimmykimmellive 0.0
rejectedjokes 0.0
protesting 0.0
releasing 0.0
cleaner 0.0
preferred 0.0
incarceration 0.0
jkcorden 6.87687471453e-05
koppel 0.0
bikini 0.0
transparency 0.0
kamalaharris 0.0
nutshell 0.0
walled 0.0
floored 0.0
plotting 0.0
gandhi 0.0
vilify 0.0
meditate 0.0
violent 0.0
preschool 0.0
rhythm 7.20628472212e-05
matching 0.0
senwarren 0.0
venezuela 0.0
candle 0.0
donates 0.0
peacefully 0.0
chelseahandler 0.0
experiencing 6.69100102197e-05
sarabareilles 0.0
haunting 0.0
constitution 0.0
explode 0.0
deeper 0.0
empathy 6.80086444126e-05
mrgaryhuang 0.0
scored 0.000660547820878
charitable 0.0
perfume 0.0
giraffe 0.0
noticing 0.0
noodle 0.0
wrongly 7.43655155697e-05
marshmallow 0.0
fraudulent 0.0
everytime 0.0
helluva 0.0
therapists 0.0
tangible 0.0
sarahksilverman 0.0
johnfugelsang 0.0
exceptional 0.000120110822939
miracle 5.19691827307e-05
avocado 0.0
snacks 0.0
spelled 6.69100102197e-05
parental 0.0
superbowl 0.0
shoulders 0.0
valentine 4.17337771472e-05
glitter 0.0
stocking 7.43655155697e-05
poehler 0.0
thumbs 0.0
tinatbh 0.0
educational 0.0
voicemail 0.0
thetweetofgod 0.0
esteem 0.0
teaches 0.0
goodbye 3.94749192389e-05
reminding 0.0
supplies 0.0
ryanseacrest 0.0
okmagazine 0.0
shoots 0.0
bowing 0.0
jennyslate 0.0
craigyferg 0.0
masterpiece 0.000112067564008
sneaky 7.34189326425e-05
nashville 0.0
chronicles 0.0
potato 0.0
freakin 6.35608465198e-05
perezhilton 0.0
unethical 0.0
paparazzi 0.0
mantra 0.0
consuming 0.0
unauthorized 0.0
vanityfair 0.0
stalking 0.0
shoulda 0.0
yeppers 0.0
sacred 0.0
existed 0.0
earned 4.43617873332e-05
woulda 0.0
ellenpage 0.0
choker 0.0
contribute 0.0
mustache 7.25067786441e-05
washes 0.0
creeps 0.0
champion 0.000199798002099
auntie 0.0
magazines 0.0
waited 0.0
conscious 6.83858164917e-05
cracker 0.0
denmark 0.0
potion 0.0
windex 0.0
scarfing 0.0
ladygaga 0.0
purposely 0.0
pretending 0.000102767193013
luckiest 0.000264484459812
mascara 0.0
tastes 0.000124080583699
gardening 0.0
leashes 0.0
hippie 0.0
womensmarch 0.0
reunited 0.0
clique 0.0
premiering 0.0
rollingstone 0.0
childrensla 0.0
dollywood 0.0
godmother 0.0
eltonofficial 0.0
vmagazine 0.0
donorschoose 0.0
yesssssss 9.27343793726e-05
bettemidler 0.0
rehearsing 0.0
trevorproject 0.0
unicef 0.0
ellemagazine 0.0
yasssss 0.0
acceptance 0.0
solidarity 0.000172402197243
pharrell 0.0
greece 0.0
papermagazine 0.0
johnmayer 0.0
lipstick 0.0
tumblr 0.0
coldplay 0.0
colorful 0.0
translifeline 0.0
newsstands 0.0
feminist 0.0
pitchfork 0.0
labels 0.0
jenner 0.0
arkansas 0.0
beanie 0.0
sparkly 0.0
moschino 0.0
britneyspears 0.0
itsjeremyscott 0.0
nickiminaj 0.0
appstore 0.0
poetry 0.000122913951089
puttin 0.0
rubbed 0.0
shrine 0.0
skyferreira 0.0
freaking 0.0
besties 0.0
chanel 0.0
bedazzled 0.0
rubber 0.0
kendricklamar 0.0
popstar 0.0
sosadtoday 0.0
copenhagen 0.0
lenadunham 0.0
wearin 0.0
stoned 0.0
facetime 0.0
barclays 0.0
meditation 0.0
harpersbazaarus 0.0
stared 0.0
ritual 0.0
iconapop 0.0
doubted 0.0
staples 0.0
anaheim 0.0
jingle 0.0
tacoma 0.0
rehearsals 0.0
treadmill 0.0
metamorphosis 0.0
dental 0.0
jodyhighroller 0.0
versace 0.0
werking 0.0
couture 0.0
eggplant 0.0
bangin 0.0
cardigans 0.0
obnoxious 0.0
bestie 0.0
teganandsara 0.0
barrel 7.03617567643e-05
dedicating 0.0
jefferson 0.0
pumpkin 0.0
derekblasberg 0.0
glamourmag 0.0
presale 0.000455135654063
mtvstyle 0.0
deluxe 0.0
mtvema 0.0
reggae 0.0
azealiabanks 0.0
nominating 0.0
sailor 0.0
mornin 0.0
itunesmusic 0.0
bananas 6.23371174511e-05
lordemusic 0.0
vietnam 0.0
milwaukee 0.0
neworleans 0.0
circus 6.51795675411e-05
strolling 0.0
rapids 8.98919292826e-05
collegegameday 0.0
aaaaand 0.0
godfather 0.0
bestow 0.0
allison 0.0
rockthevote 0.0
birbigs 0.0
lucille 0.0
louder 6.80086444126e-05
farmers 0.0
shaved 0.0
niagara 0.0
realmattlucas 0.0
ferguson 6.76370602738e-05
painful 4.93463430224e-05
exchange 0.0
nickkroll 0.0
edmonton 0.0
mickey 0.0
angelenos 0.0
pooping 0.0
located 0.000748095088538
onslaught 0.0
finalists 0.0
bumped 0.0
sherlock 0.0
stockholm 0.0
casually 0.0
jjwatt 0.0
itstonybennett 0.0
mariolopezextra 0.0
klgandhoda 0.0
entrance 5.65026081888e-05
calgary 0.0
bowling 0.0
winnipeg 0.0
cheeto 0.0
gloriasteinem 0.0
feather 0.0
nathan 6.62034431969e-05
smelling 0.0
narnia 0.0
llamas 0.0
actuallynph 0.0
mourning 7.85554776847e-05
obsession 5.25687683494e-05
chilled 0.0
medically 0.0
hyperloop 0.0
aussie 0.0
flaring 0.0
eyeballs 0.0
stuffing 8.73390696266e-05
pitched 0.0
condiments 0.0
relatable 0.0
olivia 0.0
painted 0.0
mykonos 0.0
eyebrow 0.0
capitalcities 0.0
jackpot 0.0
hipster 0.0
sweating 0.0
restaurants 0.0
superfan 0.0
restraint 0.0
craziest 0.0
catheter 0.0
delivers 0.0
kanyewest 0.0
paints 0.0
dissect 0.0
billboards 0.0
milano 0.0
bjnovak 0.0
snapping 0.0
croissant 0.0
repjohnlewis 0.0
blklivesmatter 0.0
mydaughtersarmy 0.0
huddled 0.0
yearning 0.0
thereaibanksy 0.0
affordable 0.0
foodie 0.0
colombia 0.0
peeled 0.0
shootings 0.0
playground 0.0
breaky 0.0
photoshoot 0.0
smokin 0.0
accents 8.22325084142e-05
sweats 8.90117873761e-05
postmates 0.0
armband 0.0
unconscious 0.0
maddow 0.0
aquarium 0.0
holler 0.0
photoshop 0.0
robbie 0.0010212212099
espnmag 0.0
laundry 0.0
examining 0.0
zealand 0.0
stuntin 0.0
hehehe 0.0
nostalgia 7.07763359655e-05
buttons 0.0
slaying 0.0
monument 0.0
bringin 0.0
lining 0.0
muchas 0.0
gracias 0.0
madame 0.0
illustrated 0.0
boxers 0.0
grazie 9.8331147797e-05
winters 0.0
plastic 0.0
unbreakable 0.0
licking 0.0
cheeky 0.000145013557288
twerking 0.0
danish 0.0
drummer 7.91320886104e-05
florence 0.0
revoir 0.0
resume 0.0
dodger 0.0
brazilians 0.0
grimezsz 0.0
crocodile 0.0
hahahahahaha 0.0
parisians 0.0
taipei 0.0
taiwan 0.0
bangkok 0.0
uploaded 0.0
manila 0.0
hamburg 0.000174678139253
curating 0.0
aaaand 0.0
skating 0.0
brisbane 0.0
googleplay 0.0
raincoat 0.0
glastofest 0.0
vienna 0.0
burning 4.42163870964e-05
jamming 0.0
reaches 5.9784257795e-05
subtitles 9.08040832811e-05
wristband 0.0
barcelona 0.00106483746489
credits 0.0
dreamers 0.0
bogota 0.0
bursting 0.0
brunomars 0.0
beyoncé 0.0
subscribers 0.000340043222063
unlock 0.0
onedirection 0.0
amazonmusic 0.0
snippets 0.0
preorder 0.0
rehearse 0.0
bahnhof 0.0
delorean 0.0
fragrance 0.0
curate 0.0
samsmithworld 0.0
guitars 0.0
storyline 0.000257312901391
registering 0.0
beatsbydre 0.0
panama 0.000471332866108
celestial 0.0
orchestra 0.0
finland 0.0
climbed 0.0
topping 8.09459971584e-05
méxico 0.0
vasconcelos 0.0
leicester 0.00139495972021
itunesfestival 0.0
pondering 0.0
millennials 0.0
struck 0.0
watermelon 0.0
benefited 0.0
sophisticated 0.0
couples 0.0
villain 0.0
mindful 0.0
catholic 0.0
airline 0.0
secretly 0.0
playlists 0.0
veggie 0.0
receipts 0.0
foremost 0.0
bagpipe 0.0
drifting 0.0
trader 0.0
influenced 0.0
moscow 6.17469379718e-05
cobain 0.0
reaper 0.0
commune 0.0
handshake 0.000507547450508
despair 0.000193558472238
silicon 0.0
investing 0.0
construct 0.0
garland 0.0
coachella 7.5349228734e-05
offline 0.0
realisation 0.0
payback 0.0
educate 0.0
alliances 0.0
etched 0.0
momentarily 0.0
pronoun 0.0
lenses 0.0
validated 0.0
authenticity 0.0
choreographed 0.0
pokemon 0.0
disneyworld 0.0
patriotic 0.0
embody 0.0
snickers 0.0
impactful 0.0
refocus 0.0
eminem 0.0
mahatma 0.0
ecstatic 0.0
snfonnbc 0.0
avenue 0.0
picchu 0.0
doubters 0.0
beverly 0.0
intensity 0.000232321686324
outtake 0.0
temple 0.0
purchased 6.41958543767e-05
fountain 0.0
punched 0.0
goldfish 0.0
comparable 0.0
buyers 0.0
barbara 0.0
corybooker 0.0
listens 7.16266367375e-05
timeout 0.0
inducing 0.0
signage 0.000111143405667
penthouse 0.0
ahahaha 0.0
phenom 0.0
brilliantly 0.0
siphoning 0.0
herstory 0.0
prostitute 0.0
survivors 0.0
courageous 0.0
cruelty 0.0
margot 0.0
xenophobic 0.0
mcginley 0.0
yorkshire 0.0
chants 0.0
alancarr 0.0
chained 0.0
skillz 0.0
debunked 0.0
floods 0.0
fleetwood 0.0
cheesecake 0.0
adidas 0.0
uneven 0.0
raging 0.0
connections 0.0
headlining 0.0
devhynes 0.0
charli_xcx 0.0
shawnmendes 0.0
tavitulle 0.0
bahjournalist 0.0
tyleroakley 0.0
marquee 0.0
grease 0.0
screenshots 0.0
ddlovato 0.0
chattyman 0.0
grimmers 0.0
vevo_uk 0.0
bonniemckee 0.0
electrifying 0.0
idolator 0.0
onairromeo 0.0
godven 0.0
lookie 0.0
preordered 0.0
elvisduran 0.0
shanghai 0.0
tripped 0.0
konnichiwa 0.0
etnad_olegnad 0.0
unannounced 0.0
swedes 0.0
cinderella 0.0
slipper 0.0
jessesaintjohn 0.0
adorbs 0.0
onesies 0.0
jahnsuxx 0.0
walgreens 0.0
aphrodite 0.0
danceonfox 0.0
difficulties 7.25067786441e-05
mermaids 0.0
antique 0.0
girlshbo 0.0
yaaaaasss 0.0
lifesaving 0.0
queens 0.0
yaaaas 0.0
rollin 0.0
bestest 0.0
cleanse 0.0
iamtovelo 0.0
glamour 0.0
emelisande 0.0
lashes 0.0
austrian 0.0
magritte 0.0
misogynoir 0.0
litter 0.0
spiritual 7.43655155697e-05
preaching 0.0
adelaide 0.0
sheffield 0.0
impending 0.0
starve 0.0
excess 0.0
conciousness 0.0
vitamins 0.0
generator 0.0
purposefully 0.0
profiles 0.0
petals 0.0
persist 0.0
alexis 0.000449459646413
covergirl 0.0
sneezed 0.0
cushion 0.0
demconvention 0.0
directv 7.63731043899e-05
flo_tweet 0.0
billclinton 0.0
grounded 0.0
sunrise 0.0
fightin 0.0
sagekotsenburg 0.0
pwease 0.0
sadder 0.000363216333125
waterfall 0.0
sighting 0.0
firsts 0.0
muller 0.0
burritos 0.0
bungee 0.0
potting 0.0
dipping 0.0
closets 0.0
scratched 0.0
decorating 0.0
summers 0.0
havana 0.0
fresher 0.0
mowing 0.0
invading 0.0
addict 0.0
aesthetics 0.0
footwear 0.0
protector 9.08040832811e-05
hammock 0.0
repurpose 0.0
mishap 0.0
hamster 0.0
cellar 0.0
groove 0.0
mentored 0.0
exaggerate 0.0
scraping 0.0
apropos 0.0
trolled 0.0
jonlovett 0.0
rheabutcher 0.0
sickening 0.0
flustered 0.0
compiled 0.0
shirley 0.0
subtweet 0.0
pantsuit 0.0
patting 0.00012466223056
atrocious 0.0
amoeba 0.0
platter 0.0
aficionado 0.0
bearer 9.48257127467e-05
manifest 0.0
transformation 0.0
thighs 0.0
tapper 0.0
foaming 0.0
sophie 0.0
sabbath 0.0
vibrations 0.0
nutella 0.0
wilder 0.0
distractions 0.0
stripping 0.0
downloading 0.0
judith 0.0
crossroads 0.0
parsons 0.0
stella 0.0
narcissism 0.0
fawcett 0.0
trainers 0.0
surrounding 6.26374979349e-05
longtime 0.0
frosting 0.0
laurent 0.0
savory 0.0
acupuncture 0.0
cancelling 0.0
nutcracker 0.0
ballet 0.0
tempura 0.0
burner 0.0
voguemagazine 0.0
lagged 0.0
cuttlefish 0.0
passwords 0.0
funfetti 0.0
anagasteyer 0.0
gabbana 0.0
budapest 0.0
montage 0.0
crowns 0.0
scheduling 8.09459971584e-05
possessed 0.0
syncing 0.0
creatively 0.0
hieroglyphics 0.0
halftimes 0.0
floppy 0.0
nessie 0.0
feathers 0.0
kaceymusgraves 0.0
roaring 0.0
rightful 0.0
balconies 0.0
prodigy 0.0
raquin 0.0
gianni 0.0
monsieuradi 0.0
drowned 0.0
tropicana 0.000118358895113
diesel 0.0
shabbat 0.0
voiceless 0.0
passover 0.0
elevating 0.0
traumatic 0.0
dreamer 0.0
iwillharness 0.0
classrooms 0.0
eligibility 0.0
counselors 0.0
wainwright 0.0
moveon 0.0
runaway 0.0
baghdad 0.0
zaralarsson 0.0
snooze 0.0
iggyazalea 0.0
harviikills 0.0
bolognese 0.0
babysitting 0.0
mohegan 0.0
hooters 0.0
crusts 0.0
tracksuit 0.0
cupcake 0.0
xfactor 0.0
vitamin 0.0
lichtenstein 0.0
concourse 0.0
hitchcock 0.0
teller 0.0
pastels 0.0
remnants 0.000105546637243
banger 0.0
lyrically 0.0
boogers 0.0
ritaora 0.0
bumpin 0.0
dabbed 0.0
sleepin 0.0
tinashe 0.0
octaviaspencer 0.0
linder 0.0
musicallyapp 0.0
scavenger 0.0
sanging 0.0
corinthians 0.0
hollywoodbowl 0.0
kraken 0.0
discontinue 0.0
cypress 0.0
schooling 0.0
maritime 0.0
narration 0.0
zeitgeist 0.0
sampler 0.0
pseudo 0.0
bangladesh 0.0
hungary 0.0
mumble 0.0
sisterhood 0.0
soulful 0.0
lennykravitz 0.0
londontown 0.0
andradaymusic 0.0
lipsticks 0.0
realization 0.0
unconditionally 0.0
wildfire 0.0
goldie 0.0
minnie 0.000226651557924
solitude 0.0
waddle 0.0
westworldhbo 0.0
statuesque 0.0
uncasville 0.0
demented 0.0
skyway 0.0
twentyonepilots 0.0
rejoicing 0.0
clenching 0.0
adelphia 0.0
entirety 0.0
redhourben 0.0
lakewood 0.0
drjillstein 0.0
entail 0.000128528556306
whammy 0.0
smokers 0.0
gobble 0.0
topshop 0.0
cleowade 0.0
mkives 0.0
sweetbabayjamie 0.0
marchesafashion 0.0
hamsters 0.0
gurrrl 0.0
sofifii 0.0
sumthin 0.0
nicomiz 0.0
maisonvalentino 0.0
coziest 0.0
accessorize 0.0
thejgold 0.0
peruvian 0.0
amazeballs 0.0
sendin 0.0
fantabulous 0.0
timelines 0.0
regina 0.0
slovakia 0.0
graves 0.0
embracing 0.0
larsson 0.0
cullen 0.0
psychiatric 0.0
officialadele 0.0
butters 0.0
verrrry 0.0
buttered 0.0
winged 0.0
pedialyte 0.0
topanga 0.0
armpit 0.0
kittens 0.0
dueling 0.000103927916221
eagerly 8.50222109124e-05
surrealist 0.0
dethroned 0.0
manolos 0.0
señorita 0.0
monterrey 0.0
parque 0.0
retiree 0.0
batches 0.0
reservations 0.0
sickos 0.0
aplusk 0.0
kirkherbstreit 0.0
fanbases 0.0
indexing 0.0
chuckles 0.0
incorporated 0.0
washboard 0.0
earbuds 0.0
pantone 0.0
knotts 0.0
dismaland 0.0
pollock 0.0
iamkidpresident 0.0
mariah 0.0
teevee 0.0
santorini 0.0
appalachian 0.0
sunburnt 0.0
caliente 0.0
juicery 0.0
karlihenriquez 0.0
trillest 0.0
tommorrow 0.0
crumpets 0.0
fishin 0.0
grillin 0.0
jambalaya 0.0
pepperoni 0.0
cashew 0.0
graceland 0.0
pussies 0.0
delicately 0.0
eraser 0.0
choreo 0.0
snatched 0.0
elliptical 0.0
mooore 0.0
unborn 0.0
georgina 0.0
stalkers 0.0
sallykohn 0.0
expectancy 0.0
phillipines 0.0
appstoregames 0.0
wilkinson 0.0
puddings 0.0
loveland 0.0
spaced 0.0
shanny 0.0
dripping 0.0
gerber 0.0
shakey 0.0
weaves 0.0
unbeatable 0.0
linguist 0.0
prosthetics 0.0
battleship 0.0
serotonin 0.0
machiavellian 0.0
girlies 0.0
guangzhou 0.0
debuting 0.000167177187671
dissecting 0.0
warped 0.0
luckyjess 0.0
ermahgerd 0.0
fabulousness 0.0
elliegoulding 0.0
activewear 0.0
yelyahwilliams 0.0
prismatic 0.0
evaluations 0.0
skywalk 0.0
sparklers 0.0
palettes 0.0
gemmaanningram 0.0
trueeee 0.0
invisalign 0.0
pounded 0.0
lolgop 0.0
procession 0.0
stanning 0.0
squeals 0.0
continual 0.0
luminary 0.0
cummin 0.0
shaves 0.0
epixhd 0.0
preacher 0.0
boogiecousins 0.0
changers 0.0
autismspeaks 0.0
massaged 0.0
psssssst 0.0
literati 0.0
utilization 0.0
endangerment 0.0
purposeful 0.0
unlabeled 0.0
undiagnosed 0.0
snotty 0.0
gallops 0.0
slovenia 0.0
sequin 0.0
akerlund 0.0
jumbotron 0.0
edibles 0.0
knowles 0.0
caeser 0.0
thehollywoodbowl 0.0
elvispresley 0.0
adoring 0.0
ageist 0.0
thérèse 0.0
confessed 0.0
blackvoices 0.0
patties 0.0
graphically 0.0
wildflowers 0.0
groundhogs 0.0
eataly 0.0
poodles 0.0
hillaryforia 0.0
roadshow 0.0
sweety 0.0
boppin 0.0
bettywho 0.0
johnnywujek 0.0
earring 0.0
itsbennyblanco 0.0
curitiba 0.0
purrfect 0.0
shellback 0.0
chokers 0.0
hairbrush 0.0
hakuna 0.0
matata 0.0
hazing 0.0
mathew 0.0
aegean 0.0
lullaby 0.0
musiciansoncall 0.0
headpiece 0.0
morsel 0.0
whistled 0.0
conquest 0.0
viceland 0.0
lambily 0.0
scalped 0.0
graced 0.0
emblazoned 0.0
hrclosangeles 0.0
kawaii 0.0
glittery 0.0
wonderlandmag 0.0
jumpsmokers 0.0
radiodotcom 0.0
missyfranklin 0.0
pleaaaaase 0.0
lilbthebasedgod 0.0
waaaay 0.0
flossy 0.0
aria_official 0.0
berliners 0.0
matriarchy 0.0
cornered 0.0
limping 0.0
peasant 0.0
feasibly 0.0
waaaaay 0.0
slayyy 0.0
fashionistas 0.0
sangin 0.0
worldstarfunny 0.0
pliers 0.0
babyanimalpics 0.0
mediation 0.0
quests 0.0
aaaaaaah 0.0
honked 0.0
rauschenberg 0.0
whitneymuseum 0.0
lonsdale 0.0
transcendental 0.0
roarin 0.0
facetune 0.0
fausto 0.0
herning 0.0
cazzette 0.0
annnnnnnnnd 0.0
shinier 0.0
giambattista 0.0
katys_teddybear 0.0
gnight 0.0
katheryn 0.0
psychoanalysis 0.0
bckgrnd 0.0
kingman 0.0
gracevanderwaal 0.0
fecking 0.0
ihrcountdown 0.0
stubbies 0.0
xfactor_italia 0.0
aaronpauley 0.0
purity_ring 0.0
scorpios 0.0
ayyyye 0.0
capitalizes 0.0
flamin 0.0
motherfucking 0.0
jingled 0.0
pharrellhat 0.0
ontarioglow 0.0
teached 0.0
umusic 0.0
auroramusic 0.0
dailymendeslife 0.0
soloing 0.0
universalse 0.0
dustinkloeppel 0.0
robynkonichiwa 0.0
charli 0.0
lonelydot 0.0
adamselman 0.0
sorrenti 0.0
offish 0.0
vinoodh 0.0
guitarists 0.0
cocking 0.0
cabbages 0.0
amelia_libman 0.0
flutter 0.0
lolita 0.0
kingladygaga 0.0
breakthecycledv 0.0
howbow 0.0
curveballs 0.0
tamagotchi 0.0
jarryd 0.0
alliseeisgold 0.0
thebroadmuseum 0.0
sarahsowitty 0.0
brillz 0.0
jackgarratt 0.0
markryden 0.0
duffscakemix 0.0
sanrio 0.0
theniceguyla 0.0
trills 0.0
susangkomen 0.0
faustopuglisi 0.0
gurlll 0.0
cheesecakes 0.0
scorpio 0.0
oblivia 0.0
skipmarley 0.0
correcto 0.0
jessirklein 0.0
unpatr 0.0
squish 0.0
greg_wells 0.0
onlyleah 0.0
gittin 0.0
popstars 0.0
krafts 0.0
bouche 0.0
problemo 0.0
wheezing 0.0
patmcgrathreal 0.0
cienega 0.0
thundering 0.0
nastialiukin 0.0
janell 0.0
katelyntarver 0.0
miamoretti 0.0
missoni 0.0
dannymoonsworld 0.0
mrchrismcmillan 0.0
madge_freak 0.0
woridstarcomedy 0.0
ikissedasoldier 0.0
kpezandchez 0.0
perrysoldier 0.0
emilynotchez 0.0
iickmekaty 0.0
basicallyadam 0.0
katysangelegg 0.0
nicolasjebran 0.0
xchadballx 0.0
scott_myrick 0.0
lockoir 0.0
shannonwoodward 0.0
calluses 0.0
chamomile 0.0
trollin 0.0
sleighing 0.0
chestercheetah 0.0
royksopp 0.0
scottsimonswvla 0.0
sirenscaiiing 0.0
slowdownkaty 0.0
chefantoniopark 0.0
garnished 0.0
endive 0.0
mdmolinari 0.0
prezzy 0.0
motioning 0.0
hernameisbanks 0.0
rockcampla 0.0
jenniefinch 0.0
getglucky 0.0
stendhal 0.0
ryanphillippe 0.0
hotncolds 0.0
kpcollections 0.0
katie_wignall 0.0
katysdrugx 0.0
evrenperry 0.0
katycatwendy 0.0
yungskeeter 0.0
sarahhudsonuvs 0.0
mothern 0.0
oliverheldens 0.0
marrymemargot 0.0
katyperrylately 0.0
kewlest 0.0
katyshellokitty 0.0
pqgerry 0.0
rasarioatelier 0.0
anakhouri 0.0
romaneperry 0.0
hot_chip 0.0
agador 0.0
freddietinkles 0.0
cynthialovely 0.0
augustgettyatelier 0.0
tbsnetworks 0.0
ronyalwin 0.0
justinandersoncolor 0.0
mmillerrider 0.0
jpgaultier 0.0
harharharhar 0.0
iikeanangel 0.0
vonnypoo 0.0
jcoopkp 0.0
itzmero 0.0
katysprismlight 0.0
hatérs 0.0
awkwardaya 0.0
katysredskittle 0.0
tiedye_princess 0.0
adelshahal 0.0
marinadiamandis 0.0
samadizayee 0.0
itsslatykaty 0.0
johnlordperry 0.0
nuggetperry 0.0
kthnkzbye 0.0
teamkpbrasil 0.0
twenagedream 0.0
ashleyegreer 0.0
perryllover 0.0
perry_slays 0.0
_andresgalvis 0.0
poplitics 0.0
likerotica 0.0
sweetxjaureguix 0.0
jessiambriz 0.0
perryncolds 0.0
pwideawake 0.0
brunastrait_ 0.0
anafalqueto 0.0
pessoalmente 0.0
mark_hodson_ 0.0
sumtxkid 0.0
arpoador 0.0
katysmychampion 0.0
amnattg 0.0
osullivanluke 0.0
stephiruth 0.0
katy_pizza_bae 0.0
kpcatt 0.0
pedroeugeniio 0.0
gugs_prismatic 0.0
zeeusmtz 0.0
legendarycold 0.0
robynxkatheryn 0.0
écouter 0.0
energyberlin 0.0
karysjones 0.0
lilzariya 0.0
puroland 0.0
pavlovitz 0.0
dreamhampton 0.0
prismsperry 0.0
perrysmic 0.0
focusonreid 0.0
tonyatalterian 0.0
makeup_man 0.0
wtfkates 0.0
sella_sandra 0.0
katycute_ 0.0
caitsperry 0.0
katyperryforum 0.0
radiantjareau 0.0
lillysgomez 0.0
katycatsweden 0.0
perryicecream 0.0
xamyrosex 0.0
wtvrlara 0.0
bijanstephen 0.0
ameliashowalter 0.0
screamkng 0.0
tvmcgee 0.0
liiife 0.0
itskatcombs 0.0
yaaaaaasssssssssss 0.0
katysmyhabibi 0.0
skottpeace 0.0
ferras 0.0
kweens 0.0
habibi 0.0
orlandobloom 0.0
huckchinn 0.0
katycatkenzie 0.0
matarazzo 0.0
fkatwigor 0.0
perryschild 0.0
hotxcolds 0.0
maddisonxperry 0.0
akaruikaty 0.0
chillinlaidback 0.0
erryone 0.0
chrisanokute 0.0
beyelite 0.0
kuntyewest 0.0
chiroprac 0.0
katyperryrises 0.0
godneybjs 0.0
liquoronurlips 0.0
katystumblrr 0.0
holiestkaty 0.0
hollykittykaty 0.0
katysprincess 0.0
katysdonut 0.0
carlythekatycat 0.0
katycatsophia 0.0
fridaaperry 0.0
iegendarylovers 0.0
katycatveronica 0.0
katyperryslave 0.0
hakimkharbouch 0.0
keonovak 0.0
plaaaaay 0.0
scatting 0.0
shotted 0.0
dizzycoco 0.0
fkinsnapss 0.0
junkygs 0.0
ミニチュア料理 0.0
エビフライとエビ天 0.0
adidasboosts 0.0
lilithia 0.0
cottoncandizzle 0.0
ultimatebeyhive 0.0
paramorewebnews 0.0
royale_lala 0.0
musicnews_feed 0.0
katyperryextra 0.0
greeniight 0.0
gagas_illusion 0.0
lesbiyonce 0.0
blurryhface 0.0
lordofgiraffex 0.0
ifuseekamy_ 0.0
legendarymalek 0.0
hausoframez 0.0
unstan 0.0
chioekardashian 0.0
theiife 0.0
handstomyseif 0.0
legendarylovers 0.0
gagas_fandom 0.0
thinagedream 0.0
conditionalbabe 0.0
dannysuschrist 0.0
prismdluxe 0.0
herwonkeye 0.0
camilasviews 0.0
gagalovesbey 0.0
shadykatyfacts 0.0
limalimoncia 0.0
heavymetaiovers 0.0
katyscrush 0.0
waikingonair 0.0
eduardo_katycat 0.0
katyswetdream 0.0
katherynsgod 0.0
katystddbr 0.0
katyboobies 0.0
royaityler 0.0
nothingfaiis 0.0
kathrynluck_ 0.0
prismaticiights 0.0
mendesperry 0.0
katycatghita 0.0
mark_katycat 0.0
iwasdivine 0.0
skywaterr 0.0
xjojospearsx 0.0
alwaysbeperry 0.0
skoglyrihanna 0.0
legendarydurk 0.0
halseysfirework 0.0
rainbowspatrick 0.0
katysfood 0.0
honeymoonprism 0.0
onepulsetony 0.0
butcha 0.0
okurrr 0.0
the_mpt 0.0
talaofficial 0.0
miniatures 0.0
ohmyjurassic 0.0
katysmoonlight 0.0
lilly_jnes 0.0
coco_ho 0.0
perryhumorr 0.0
yikesjonathan 0.0
rubyrankin 0.0
thealekovski 0.0
cydney_moore 0.0
truebluedeluxe 0.0
thedutchass 0.0
katyskettle 0.0
ferraseu 0.0
katyssunlight 0.0
typosqween 0.0
adoreeeperry 0.0
katyperryfrance 0.0
snowiner 0.0
_coolkatycat 0.0
nicothekatycat 0.0
adorbies 0.0
jackygerardchan 0.0
brewmystew 0.0
katyswildfire 0.0
rihftperry 0.0
theolagu 0.0
ritajoness 0.0
iitsjackie 0.0
mjjperry 0.0
jesuskylie 0.0
holyerotica 0.0
graceofkaty 0.0
redsvelvets 0.0
booyakasha 0.0
tariqterry 0.0
katycatalannah 0.0
taylxre 0.0
pacifyher 0.0
basedkatyperry 0.0
diddleurskittle 0.0
katysanalien 0.0
gagasspace 0.0
tayiorhq 0.0
givenchydress 0.0
augustryder 0.0
perrysmoschino 0.0
kittehn 0.0
katrieber 0.0
legendaryhunty 0.0
katyslegs 0.0
katyfroot 0.0
winesandlines 0.0
sam_incolour 0.0
wakingonair 0.0
drwssinup 0.0
huffdaddysays 0.0
fiwwwwine 0.0
matthewroper 0.0
emmabruhhh 0.0
gingerwesson 0.0
nicholas_sewell 0.0
perfectlyperry 0.0
bustabusta 0.0
mynameisziam 0.0
venuzszfly 0.0
katherynsus 0.0
sacredperry 0.0
thedollsftkaty 0.0
_cafajeff 0.0
debkatycat 0.0
katycats 0.0
eastonjames_ 0.0
oliviabooker_ 0.0
protecti 0.0
outrageousness 0.0
joanneprada 0.0
scuffed 0.0
catoure 0.0
blanged 0.0
tahmorrow 0.0
glukatyperrypop 0.0
jamesjoint 0.0
pressin 0.0
bourree 0.0
honeysuckle 0.0
meowings 0.0
fashun 0.0
happun 0.0
vikander 0.0
thekatyperrypopgame 0.0
karolfabianaros 0.0
nico_thekatycat 0.0
miss_lilyjames 0.0
stylinfunk 0.0
hudsontheband 0.0
jere_my 0.0
crabitat 0.0
tiersz 0.0
unrehearsed 0.0
fanclub_kp 0.0
oneofthesophies 0.0
fusterlandia 0.0
lazyblazy 0.0
katycatchloe 0.0
figali 0.0
prismaticness 0.0
titicaca 0.0
ancientaliens_ 0.0
sneezin 0.0
cristos 0.0
mallman 0.0
prismaticlife_ 0.0
ravensuxx 0.0
perrypositive 0.0
derkwhore 0.0
alekjandro 0.0
havss_ 0.0
hqzaynmaiik 0.0
thique 0.0
bbhmms 0.0
jkatharineb 0.0
jennyformica 0.0
tiiiiiight 0.0
ikissedagay 0.0
harryvuitton 0.0
aeschleahd 0.0
princessjavonda 0.0
errrythang 0.0
kooning 0.0
sugarray 0.0
empaths 0.0
goldenboyz_inc 0.0
voguejp 0.0
chickenwingguardingthemimosa 0.0
katyperrypopup 0.0
unmeasurably 0.0
transviolet 0.0
beauteous 0.0
katyskidrauhl 0.0
thooooooseee 0.0
clairesstores 0.0
nailsbymh 0.0
katysacutie 0.0
psychokatycat 0.0
kaceymusgrave 0.0
refueled 0.0
hyungsunju 0.0
okuurrrr 0.0
cholewheeler 0.0
leftshark 0.0
momchella 0.0
crotches 0.0
hookedondolls 0.0
fyuseapp 0.0
mogonoloball 0.0
atletica 0.0
katycatsclub 0.0
catacombs 0.0
poppycorn 0.0
cupped 0.0
christiania 0.0
residenz 0.0
lindseyweber 0.0
butterballface 0.0
joshlecash 0.0
myassistant 0.0
swiftschrist 0.0
snowhiteperry 0.0
emmakphughes 0.0
katyslegend 0.0
dansnierson 0.0
scressful 0.0
prismaticwitch 0.0
finnin 0.0
habibis 0.0
mophies 0.0
strongé 0.0
drumkit 0.0
anamanaguchi 0.0
gaultier 0.0
ngvmelbourne 0.0
dukedumont 0.0
legendaryasmyn 0.0
highlarious 0.0
calpurnia 0.0
waaaaait 0.0
mktfah 0.0
fwding 0.0
caseyhoops 0.0
worldstarvlne 0.0
flapfkp 0.0
bettycrocker 0.0
mexxxico 0.0
whhhhhhhhuuuuuutttt 0.0
yelletweets 0.0
gucciqxxn 0.0
luckyladyrebelettes 0.0
junglejulia 0.0
charlottes_web 0.0
istarbucksniall 0.0
katysroaaar 0.0
fiorucci 0.0
whuteva 0.0
sirdavidd 0.0
fudgery 0.0
bizquick 0.0
itsgrandtheft 0.0
grandtheft 0.0
katysfancy 0.0
ameezyyrush 0.0
mykectown 0.0
itsvalkubus 0.0
walkslikeperry 0.0
iwantperry 0.0
exausto 0.0
selfeh 0.0
aquaberry 0.0
sidepiece 0.0
versacness 0.0
iamleslii 0.0
alocalgyro 0.0
cutina 0.0
theoutslder 0.0
prism_katy_cat 0.0
katyshoodrat 0.0
thestevetisch 0.0
ronysphotobooth 0.0
schlitterbahn 0.0
kpsnosecrinkle 0.0
alwz_katycat 0.0
whykph 0.0
californiagurls 0.0
katycattt 0.0
varicose 0.0
itsbrillz 0.0
perrystiger 0.0
katysmyaura 0.0
paolablancokp 0.0
callmemargot 0.0
indiggynado 0.0
katycat 0.0
anylinden 0.0
kpkillerqueen 0.0
katyslilacwine 0.0
katypvenezuela 0.0
franzikaty 0.0
katherynelperry 0.0
doessss 0.0
katysleftarm 0.0
datingprism 0.0
_smiler_katycat 0.0
kepyterry 0.0
katycat_camille 0.0
vckatyperry 0.0
bowzerjoe 0.0
taishrox 0.0
mütter 0.0
arianperryarian 0.0
lisasigh 0.0
fridiskp 0.0
kevinruda 0.0
katyperrydaily 0.0
wakingupvegas 0.0
marlyins 0.0
drankin 0.0
herkatycat 0.0
luvhudson 0.0
yaeltsairi 0.0
felipinhoofm_ 0.0
renanmarcall 0.0
kariseperry 0.0
emojing 0.0
konnie 0.0
mcperry 0.0
iturnmycanonon 0.0
katycatelysha 0.0
andrewnavs 0.0
katycatkrystal 0.0
lovelyandlaugh 0.0
lampoonians 0.0
perrytuuda 0.0
katymyhaven 0.0
ruletheschool 0.0
cheapandchic 0.0
sically 0.0
crazyforperry 0.0
kpdaily 0.0
getonupmovie 0.0
cutetina 0.0
chimiuzz 0.0
kefali 0.0
joelkefali 0.0
siclly 0.0
mtvother 0.0
lydiaacav 0.0
prismaticperry 0.0
jwujek 0.0
adorbie 0.0
errone 0.0
kaliyah 0.0
katysweirdness 0.0
vinbiodiesel 0.0
katysfxb 0.0
katyspurrfect_ 0.0
shannonmwoodward 0.0
bippity 0.0
boppity 0.0
swiggty 0.0
swoogity 0.0
pizzarella 0.0
firewerk 0.0
katyslayed 0.0
emerald_epelman 0.0
madkatydisease 0.0
mandee 0.0
ohferras 0.0
sarahh 0.0
iaustinhunt 0.0
lanawhore 0.0
spaceykacey 0.0
crazay 0.0
elektrikpeople 0.0
visa_nz 0.0
fvckin 0.0
nathanspicer 0.0
cashcash 0.0
ashish_uk 0.0
xokatic 0.0
turnting 0.0
scorpiomystique 0.0
toddthomasnyc 0.0
kohngallery 0.0
discnt_universe 0.0
dressinkaty 0.0
lee_cook 0.0
bloodshot 0.0
yaddlizc 0.0
elnett 0.0
itsthekatycats 0.0
kelly_moritz 0.0
katyslaykaty 0.0
skintxghtjeans 0.0
socarrer 0.0
errrday 0.0
therealslacker 0.0
wendywild 0.0
welkys 0.0
sohohouse 0.0
selfing 0.0
camiilaruales 0.0
nexxxt 0.0
turrell 0.0
alliexxxxandra 0.0
surfboardt 0.0
telstra_news 0.0
juanitadele 0.0
oopskatycat 0.0
sophkatycat 0.0
katyschild 0.0
katysconverrse 0.0
katycat_leah 0.0
katycatverified 0.0
katycat_libby 0.0
katyswonk 0.0
kittless 0.0
jlrcukp 0.0
siiiiiiiiiiiiii 0.0
ermagherd 0.0
imlynsey 0.0
perrys_cherry 0.0
casemcgase 0.0
hazzaily 0.0
herses 0.0
gaypropaganda 0.0
tixforcharity 0.0
hudsons 0.0
nomers 0.0
mommacat 0.0
superlove 0.0
bonacorso 0.0
levi_leet 0.0
thinkingofbecki 0.0
cybering 0.0
pamyurin 0.0
idreamofkaty 0.0
xfactor_au 0.0
glohudsonperry 0.0
aubreyplzza 0.0
eeshhuhhayniac 0.0
bonkay 0.0
katysbum 0.0
nevillebradley 0.0
curryswift 0.0
zinepack 0.0
katykatt_suraya 0.0
sweetkatybird 0.0
yohkatheryn 0.0
cottoncandykaty 0.0
karolynadiaz 0.0
maayansharvit 0.0
theprismcess 0.0
camisp_ 0.0
lucasgaldin 0.0
prixy_mtz 0.0
niggasperry 0.0
kaksperry 0.0
zennnnaaa 0.0
katyissmurfy 0.0
dadehoward 0.0
kyledsaavedra 0.0
katysdoritos 0.0
pendejabardera 0.0
rosenilsou 0.0
hackensucks 0.0
gottabesheerio 0.0
ismaellgarcia 0.0
milegendz 0.0
alexskarev 0.0
ladycrystalb 0.0
katyspad 0.0
xcallmechrissyx 0.0
arianastylesss 0.0
jorgebaker 0.0
matty_zee 0.0
katycatzilla 0.0
adorie 0.0
meowwdison 0.0
alvin_koopa 0.0
lexyauditore 0.0
kease_it_raw 0.0
katysking 0.0
chris__kirby 0.0
katysbestfrwend 0.0
katyslildancer 0.0
sssshhh 0.0
conorhughess 0.0
tanimura 0.0
thekatycatlife 0.0
weefififookface 0.0
breakalioz 0.0
hudsonhelper 0.0
lariitaa 0.0
meeeeeooooooooowwwww 0.0
legend__dary 0.0
katyandliam 0.0
_theatrekid 0.0
babybritney 0.0
erinlorimer 0.0
_zacmoore_ 0.0
itscezzurryo 0.0
katycatskp 0.0
larissafilipo 0.0
siaylorswift 0.0
shitkittens 0.0
thefrankradical 0.0
katysprism 0.0
katytinalevine 0.0
serjeeoh 0.0
kayz_perry 0.0
katyslaysurfav 0.0
fuckyeahitskath 0.0
sweetyitosan 0.0
pickerington 0.0
verrado 0.0
retweete 0.0
jameswaterhouse 0.0
hunnah 0.0
truth_ispeak 0.0
_emilybarbarrr 0.0
nbllrrr 0.0
jmoneygraves 0.0
eaglenationnews 0.0
tauentzienstrasse 0.0
avontbh 0.0
vinnie_mate 0.0
demilovve 0.0
coolestkatycat 0.0
terri_katycat 0.0
beeeaaatttt 0.0
laurenfrancisco 0.0
victaytayp 0.0
aylajaye 0.0
iloveu 0.0
augustvaz 0.0
lizzievang_ 0.0
edsssss_ 0.0
hhhhhholly 0.0
holly_hickin 0.0
trixxx 0.0
killah 0.0
treasurefingers 0.0
最強ガール宣言 0.0
voykovic 0.0
annunaki 0.0
katyshomie_ 0.0
katyselephant 0.0
caitlynsmith 0.0
lightsperry 0.0
elizagilham 0.0
ohmyjatyfeels 0.0
junglescope 0.0
drunkskaty 0.0
malikpom 0.0
dancerlaurena 0.0
brirad 0.0
elisa_rv 0.0
moooom 0.0
pattymeagher 0.0
iwasemily 0.0
shahrzadphoto 0.0
tvjohnny 0.0
cstonethebreadwinner 0.0
katysrightboob 0.0
cyberdlck 0.0
beatforkaty 0.0
igabriiel 0.0
duuuuddddeeeee 0.0
redrum 0.0
srbuhiii 0.0
kayleighcat 0.0
applekatycat 0.0
ikatycats 0.0
wehryspencer 0.0
emilyjonesphoto 0.0
coxgabe 0.0
drugmoneyx 0.0
steven_drum 0.0
victoriacha 0.0
hashtaggin 0.0
perryandemetria 0.0
katycatfurlife 0.0
iammelissalynn 0.0
qewtie 0.0
yscheecat 0.0
slayty 0.0
katystree 0.0
katherynsboy 0.0
anapurry 0.0
nenedez 0.0
kevinn_perry 0.0
gloria_swag_ 0.0
andyamaziing 0.0
roarsana 0.0
brighthudson 0.0
fixingperry 0.0
roooooooooooooar 0.0
gretschusa 0.0
katys_cupcake 0.0
wonderation 0.0
kasek_craig 0.0
katysgurll 0.0
pepperperry_ 0.0
teamkatyperry 0.0
meandnutella 0.0
lovatokitten 0.0
katyslolly 0.0
astixxx 0.0
ravemomentz 0.0
erzaabrianto 0.0
katyperryindo 0.0
seeingdaisies 0.0
gillian_e_dubbs 0.0
samanthachazene 0.0
perryprism_ 0.0
katycompletesme 0.0
ltskatyperry 0.0
kittenscks 0.0
nihanofficial 0.0
momcat 0.0
kaytehperreh 0.0
__grazi 0.0
clairekatycat 0.0
fangurl 0.0
rrrrrrrrrrrroooooooooooooaaaaaaaaaaaaar 0.0
marispiva 0.0
mattdrobins 0.0
deihemmings 0.0
rooaaarr 0.0
katycatobsessed 0.0
katycatnick 0.0
tigerkats 0.0
kristenanzelc 0.0
taylermckellop 0.0
essesfadaperry 0.0
imjare 0.0
smganonymous 0.0
roaaaar 0.0
phuckyotweet 0.0
evvvvvverrrr 0.0
melvynmarrero 0.0
zouisashton 0.0
trillneyspears 0.0
rooooooar 0.0
fanwars 0.0
fentyncold 0.0
ttish_ 0.0
rachelacogan 0.0
makesmariana 0.0
kkaplon 0.0
rafaelmoncada 0.0
yaaaassssgrl 0.0
oioianna 0.0
katycatrazan 0.0
megaan_katycat 0.0
thekaelynn 0.0
hannahloupunton 0.0
thumbelinafairy 0.0
nic_kathryn 0.0
dannahfields 0.0
rodneybroaddus 0.0
noxisanasshole 0.0
soedesh__ 0.0
hookerofversace 0.0
thinkingofkaty_ 0.0
msgracevalerie 0.0
francfernandez 0.0
katysring 0.0
a_little_spark 0.0
laaxiss 0.0
