awesome 0.0
christmas 0.0
trying 0.000252928469461
launch 0.00130254548364
moment 0.000508591547624
wonderful 0.000227287983401
seeing 0.000519681910584
hanging 0.0
sounds 0.0
recommend 0.000150585638972
worked 0.000109410097561
direct 0.000143264228421
others 0.000272049038598
currently 0.000180526281638
better 0.000200172858832
please 0.000862278038127
social 0.00039667445545
anxiety 0.0
around 0.00120103715299
people 0.00200172858832
morning 0.000704392069218
traditional 9.60324180254e-05
general 0.000194538172544
damage 0.000412442139388
everything 0.0
twitter 0.000302697130773
present 5.72875174835e-05
though 5.23904991739e-05
friend 0.0026304560824
watched 5.68219958502e-05
beautiful 0.000207312839788
anything 5.11341181723e-05
previous 0.0
helped 0.000496360820146
updated 0.000239919492264
thinking 0.000205642402899
finally 0.000154231802174
caught 0.0
believe 5.01782841953e-05
already 0.000551961126149
couple 0.0
orlando 0.0
chance 0.000251568596149
meaning 0.0
growing 0.000362045156868
probably 0.0
password 0.0
changed 5.38245002905e-05
history 0.000881079569098
center 0.000263783810651
museum 0.000262084032225
behind 0.000200172858832
screaming 0.0
pretty 0.0
really 5.03137192298e-05
little 5.01782841953e-05
happiest 0.0
earlier 0.000176613887098
forget 0.000152989342856
someone 5.07222375369e-05
safety 7.28937746818e-05
program 0.000139995809688
things 0.00025021607354
related 0.000369850071636
visiting 0.000277594310975
available 0.000470244001082
perfect 5.23904991739e-05
different 5.11341181723e-05
search 0.0
connect 0.000282131052679
numbers 0.000188670903371
person 0.000100899043591
watching 0.000961128183953
exhibit 0.000237495817024
passed 6.13451048444e-05
prefer 0.0
minutes 0.000207872764234
travel 6.15144559865e-05
outside 0.0
looking 0.000853030831321
forward 0.00196416753338
agreed 6.7451125213e-05
raising 0.00014368038881
listened 0.0
afraid 0.0
impression 0.0
christian 0.0
profile 0.000137612686878
instant 0.0
drawing 0.0
wheels 0.0
favorite 0.000116781754297
picture 0.000214137575542
instead 0.0
appreciate 0.0
international 0.0
station 0.0
toddler 0.0
market 0.000610511399992
couldn 5.23904991739e-05
remember 0.000201254876919
vintage 0.0
holidays 7.1840194405e-05
friends 0.000404685551138
everyone 0.000603764630758
florida 0.000519316475268
always 0.000200172858832
months 0.000262660321161
moving 0.000162348894863
meeting 0.000876340088038
answer 0.000360845918604
sweetie 0.0
together 0.00161438469745
inside 0.0
section 7.73449928223e-05
missed 0.00035697513333
button 0.0
longer 0.000232292565538
enough 0.000152577464287
driving 0.0
building 0.000226056146536
enjoying 0.0
london 0.000179538583048
exploring 0.0
posting 7.55167268606e-05
amazing 0.000250891420977
attention 5.69766890637e-05
gordon 0.0
progress 0.0011167572891
tomorrow 0.000955960665367
george 6.25427774025e-05
feeling 0.0
excited 0.00194368637659
understand 0.000164559975243
following 0.000158449204333
asleep 0.0
learning 0.000124739832771
evening 0.000288001442968
special 0.000253611187684
secret 0.0001690822944
across 0.000562079609721
surprised 0.0
anymore 0.0
sophia 0.0
precious 0.0
rejoice 0.0
version 5.56013691245e-05
rather 0.0
avatar 0.0
showing 0.000107358473731
saying 0.000315192385393
tweeted 0.0
thoughts 0.000800849533848
exactly 5.44098077196e-05
except 0.0
getting 0.00010062743846
nothing 0.000251568596149
tweets 0.0
course 0.000155904573175
photos 0.000182521389327
looked 0.0
difficult 0.000132636045775
stages 0.0
office 0.000163229423159
decisions 0.000151935139364
brought 0.0
biggest 0.000259141049735
thrilled 0.000919818507138
something 0.00010062743846
closing 0.000299391951928
anyone 0.000101444475074
taking 0.000855333226907
recently 0.0
interesting 0.00039238935611
original 0.0
flying 0.0
happening 0.000219413300324
sometimes 0.0
lessons 7.28937746818e-05
village 0.0
stopped 0.0
yesterday 0.000304333425221
service 0.000276504041864
serious 5.38245002905e-05
digital 0.000298508185111
hoarder 0.0
wearing 0.0
british 7.33214970695e-05
either 0.0
second 0.000152166712611
checking 0.0
indeed 0.0
island 7.12185315695e-05
hearing 0.000112415921944
choose 0.000177582468807
staying 6.80274449958e-05
another 0.00185659651523
clothes 0.0
slowly 9.12013498149e-05
weekend 0.00035697513333
hashtag 0.000148376135791
delivery 9.21309718666e-05
theory 8.24884278775e-05
working 0.000503137192298
bigger 0.000177097396836
screen 0.0
riding 8.70778123549e-05
laughing 0.0
wanted 0.0
trends 0.000114172246911
stripes 0.0
clothing 0.0
current 0.00362073863376
adorable 0.0
grateful 0.00019728284943
friendship 0.0
family 0.000402509753839
listening 0.0
stream 0.0
expressions 0.0
wedding 0.0
sharing 5.91941562688e-05
double 0.000113953378127
especially 5.57523291627e-05
middle 0.000115514820552
waiting 0.000103098833887
definitely 0.0
walking 0.0
account 0.0
completely 5.96823866264e-05
thought 0.000253611187684
reaction 0.0
accept 0.0
simple 0.000351303028577
professional 0.0
friendly 0.0
supposed 0.0
business 0.000379839864743
absolutely 0.000107649000581
anywhere 0.0
sending 0.0
introducing 8.07145586068e-05
congrats 0.000633796817332
beauty 0.000144098286826
community 0.000372155852469
greatest 0.000495018378221
selfie 0.0
posted 0.000297595566752
saturday 0.000106204726899
wednesday 0.000121346747512
confused 0.0
expression 0.0
chicago 0.000136830757671
closest 0.0
relationship 0.0
actually 5.15494169434e-05
easter 0.0
basket 0.0
myself 0.0
argument 0.0
school 0.0
thursday 5.38245002905e-05
selling 0.000137612686878
talented 0.000132263283968
celebrate 0.000222405476498
falcon 0.0
celebrating 0.000240042160119
contest 6.55766283687e-05
experiences 0.000281159336379
students 0.000266771520725
internet 0.000437799441818
figure 0.0
opened 0.0
featuring 0.0
inspired 0.000730085557306
sitting 5.68219958502e-05
playing 0.0
street 0.000223009316651
points 0.0
memory 6.95975569909e-05
forever 0.0001136439917
imagine 5.60556223014e-05
problem 0.000431761492863
played 0.0
canadian 0.000260387634016
pulling 0.0
keeping 5.62079609721e-05
lovely 0.0
dressed 0.0
specifically 0.0
unlike 0.0
disappointed 0.0
otherwise 0.0
afternoon 0.000177582468807
planned 0.0
strange 7.73449928223e-05
images 0.000265535440414
noticed 0.0
notice 0.0
stretch 0.0
inspiration 0.000207008931445
letting 0.0
system 0.000377341806741
possibility 0.0
almost 0.000352196034609
details 0.000495018378221
experience 0.000367724449625
living 0.000210128256929
weather 0.00154332106845
normal 0.0
launching 8.19751596375e-05
before 5.45572105204e-05
captured 0.0
colors 0.0
monday 0.000210128256929
example 0.000332525502718
realize 0.0
autographed 0.000258770332783
sleeping 7.9973164088e-05
authentic 0.0
science 0.00113620823998
tweeting 0.0
forgot 0.0
chasing 0.0
gorgeous 0.0
herself 0.0
happens 0.000104217129648
silence 7.92425932341e-05
learned 0.0
congratulations 0.00216258366098
natural 0.00035712447817
raised 0.0
babies 0.0
mission 0.000341105180049
smelled 0.0
ironic 0.0
testing 0.0
deleted 0.0
barely 8.76464913689e-05
unforgettable 0.000116662472818
forgotten 7.4847987982e-05
trouble 0.0
fantastic 0.000178069113136
loving 0.0
complete 0.0
nearly 0.000264526567937
spirit 0.000130420019543
launched 0.000450419456851
finding 0.000123028911973
mercury 0.0
stories 0.000761737308074
including 5.59037459641e-05
mature 0.0
stuffed 0.0
ancient 0.0
bottle 0.0
somewhere 6.55766283687e-05
wouldn 5.42628378204e-05
choice 0.000697830079253
conversation 0.001896466071
making 0.000652317694539
expect 0.0
occasions 0.0
subject 0.0
flights 0.0
location 0.0
vacation 0.0
seriously 0.0
spending 0.0
groups 8.12149949243e-05
childhood 0.0
modern 0.0
welcome 0.000356014083337
moments 0.0
degrees 0.0
jacket 0.0
halloween 0.0
costume 0.0
totally 0.0
laughed 0.0
flight 0.000120681718956
kidding 0.0
regular 0.000149254092556
context 8.48655973763e-05
running 5.28164014443e-05
finished 6.01754272126e-05
strong 0.00051828209947
tracking 0.0
respond 0.0
message 0.000480509720309
coming 0.000501782841953
thankful 0.0
cheese 0.0
greens 0.0
issues 0.000300052700149
intolerance 0.0
happen 0.000256360842537
giving 5.08591547624e-05
turkey 0.000146642994139
excellent 0.000393459770212
limits 0.000280193869103
common 0.00031098825208
pressed 0.0
situation 6.57609498099e-05
options 0.0
health 0.00124648379195
insurance 8.67958780052e-05
change 0.00372321522301
singing 0.0
august 0.000355065074993
crying 0.0
mental 0.0
happened 0.0
demand 0.0005305441831
generally 0.0
personal 0.000109410097561
beyond 0.000168623882916
bruised 0.0
question 0.000257053003624
chicken 0.0
reward 0.0
tunnel 0.0
losing 0.000310129877058
respect 0.000220008168098
caption 0.0
shouldn 0.000120350854425
visited 7.90014206482e-05
reason 0.000476632603692
simply 6.28903011235e-05
darlin 0.0
audience 6.95975569909e-05
involved 0.0
unhappy 0.0
reality 0.00371046404966
extremely 7.31071789059e-05
without 0.000152166712611
falling 0.000148376135791
countdown 9.15093090311e-05
locations 0.0
timing 8.93923619616e-05
crabby 0.0
classic 0.0
highly 7.16321142104e-05
online 0.000162348894863
finger 0.0
animals 8.40605953309e-05
planets 0.0
called 0.000101171387785
delicious 0.0
almond 0.0
compliment 0.0
pictures 0.0
camera 6.57609498099e-05
pillow 0.0
checked 0.0
heading 0.000179538583048
theater 0.0
paying 0.000261571933352
planning 0.000130785966676
complex 0.000165494099436
sunday 0.000207872764234
nights 0.0
descending 0.0
traffic 0.0
opposite 0.0
through 0.000141208993383
lookout 0.0
reached 0.000522389323945
harder 0.0
random 0.0
changes 0.000124395300832
speaking 0.000518402597342
recorded 0.00114633766696
washed 0.0
november 0.000269804500852
answered 0.000238454801191
enchanted 0.0
number 0.000103098833887
adventures 0.0
eclipse 0.0
chocolate 0.0
unless 0.000124051950823
calling 0.000105632802889
mermaid 0.0
distraction 0.0
levels 0.000309379971289
option 0.000145787549364
shopping 0.0
former 0.0005059220408
actual 0.0
covers 8.14671023325e-05
mountain 0.000266410834405
friday 0.000305978685712
winner 0.0
closes 0.000102908349191
quality 6.50277027766e-05
father 5.72875174835e-05
wishes 6.55766283687e-05
hourly 0.0
matter 0.000161910559824
themselves 0.0
usually 0.0
period 0.000300279637901
parents 0.0
balance 7.82847991225e-05
publishing 0.0
mobile 0.0
woohoo 0.0
bracelets 0.0
summer 0.000759679729485
reminded 0.0
impressed 0.0
necklace 0.0
shutdown 0.0
dinner 0.0
single 0.000155484629841
packed 0.0
definition 0.0
energy 0.00795954384847
preview 7.16321142104e-05
monster 8.67958780052e-05
material 0.0
admission 0.0
europe 0.000139195113982
holiday 5.79150268305e-05
emotional 0.0
update 5.87106431866e-05
customers 0.0
messing 0.0
holding 0.0
electric 8.99881215538e-05
eating 0.0
outfit 0.0
picked 0.0
fabulous 0.0
missing 5.36792368656e-05
surprise 0.000322947001743
officially 5.87106431866e-05
french 0.000129330138398
global 0.00551535970149
follow 0.000303514163354
opinion 6.55766283687e-05
backwards 0.000108224050215
design 7.59675696821e-05
secrets 9.43696998073e-05
request 0.0
breaks 6.63180228875e-05
allows 9.46978532108e-05
promoting 0.0
volunteer 0.0
wondering 0.0
official 0.000103936382117
sweater 0.0
jersey 8.45958219806e-05
mistake 6.95975569909e-05
france 0.000139594661137
proper 0.0
ginger 0.0
peaceful 0.0
lighter 0.0
thinks 5.87106431866e-05
competition 0.0
hospital 0.0
industry 0.000994182209979
trending 0.0
leadership 0.0041743544528
organized 0.0
showed 0.0
circle 0.0
success 0.000227287983401
ladies 0.0
dreams 0.0
protect 0.000773816797142
onesie 0.0
explanation 0.0
control 0.000168623882916
coincidence 0.0
discovering 0.0
laying 0.0
invited 0.0
healthy 6.82210360098e-05
surgery 0.0
allowing 0.000264665121199
arrived 6.08404631088e-05
opening 0.000492345439026
popular 0.0
pleasure 0.000315324861037
spectacular 9.18191751277e-05
animal 0.0
luggage 0.0
wonder 0.0
matters 0.000132263283968
reader 0.000106527507586
function 0.0
marketing 0.0
connection 8.19751596375e-05
improves 0.000134220683877
benefit 0.0
continues 0.000245380419378
cuddle 0.0
routine 0.0
exciting 0.00060340859478
corner 7.1840194405e-05
imagination 0.000120371073981
sangria 0.0
mystery 0.0
spring 0.000128610089038
beautifully 9.95333706957e-05
places 6.00105400298e-05
feedback 0.0
continue 0.000464585131076
attend 0.000151483281128
creative 0.000213039044996
memories 0.000206419030317
female 0.0
grandma 0.0
closer 6.30649722073e-05
accent 0.0
beginning 0.0002529610204
sooner 9.98973229523e-05
everywhere 0.0
scenes 0.0
bought 6.15144559865e-05
wishing 0.0
discovered 0.0
remove 0.0
predict 0.0
parrot 0.0
several 7.24696771038e-05
teacher 0.0
passing 0.000612247004962
become 0.000682916835018
spread 0.0004021056108
netflix 0.0
season 0.000110901726204
putting 0.000211265605777
weight 0.0
outfits 0.0
notification 0.0
annoying 0.0
necessity 0.0
knocks 0.0
processed 0.0
necessarily 0.0
effects 0.000653785694573
lighting 0.0
headed 0.000332525502718
returns 0.000134902250426
expected 0.000144098286826
bucket 0.0
constantly 0.0
sweetest 0.0
struggling 0.0
register 0.0
transition 0.000487017753867
flowers 0.0
sprain 0.0
savage 0.0
somebody 0.0
covering 0.0
gloves 0.0
repeat 0.0
managers 0.0
brothers 0.000462676639871
patriots 0.0
seahawks 0.0
player 7.01992862613e-05
chemistry 0.0
moonlight 0.0
comment 0.0
columbia 0.000121483191186
physical 0.0
kingdom 0.0
pretend 0.0
charles 0.0
fighting 0.000286437587418
rooting 0.0
donald 7.225896852e-05
mexico 0.000290725106542
police 0.0
represent 0.000255410504929
president 0.00145349739507
talking 0.000252247608977
unbelievable 0.0
shrimp 0.0
giants 0.0
conference 0.000374219498312
america 0.000428275151084
everybody 0.0
houston 0.000257051282399
everyday 7.1424895634e-05
michael 0.000227287983401
protecting 0.000358757420822
unconditional 0.0
million 0.00116196083177
election 0.000346992888719
telling 5.71318619468e-05
correct 0.0
pulled 0.0
starbucks 0.0
americans 0.00055998323875
killed 5.60556223014e-05
cowboys 0.0
cowboy 0.0
coverage 0.0021148521163
dallas 0.0
coffee 0.0
timeline 8.62367301243e-05
refuse 0.000180577364611
barackobama 0.000970572295663
hillary 0.000179976243108
clinton 0.000164462271437
gatorade 0.0
sharper 0.0
american 0.000320339813539
deserved 7.68816264126e-05
realist 0.0
illegal 0.0
arizona 0.000199066741391
waffle 0.0
scared 0.0
pieces 0.0
taught 0.0
golden 0.0
straight 0.000167256987488
massage 0.0
filter 0.000111338855442
answers 6.48460575148e-05
smoking 0.0
created 0.000302534202209
beside 0.000132790780464
worlds 0.0
record 0.00257407114738
freddie 0.0
africa 0.00050118619537
recruiting 0.0
journey 0.00032696491669
snapchat 0.0
brother 0.0
prayers 0.000393807023849
trolling 0.0
hungry 0.0
nflnetwork 0.0
documentary 0.000301171277945
boston 0.000145362553271
addition 8.76464913689e-05
church 7.64225111308e-05
honestly 0.0
lounge 0.0
lifetime 7.59675696821e-05
captain 0.0
favorites 8.93923619616e-05
country 0.000519681910584
valley 0.0
huddle 0.0
dressing 0.0
finish 6.18548873313e-05
favourite 0.0
prayer 0.0
nominated 0.0
praying 0.0
insane 0.0
national 0.000652917692635
reform 9.95333706957e-05
shooting 0.0
australia 0.000746270462779
deserve 6.16843821759e-05
legend 6.70705666132e-05
mother 5.60556223014e-05
realest 0.0
creating 0.000207601159606
powerful 0.00128824720173
chilling 0.0
wisdom 8.48655973763e-05
breaking 0.000487046684588
parked 0.0
angeles 8.76464913689e-05
dollars 8.43274931087e-05
questions 0.000670142420264
racist 0.0
girlfriend 0.0
performance 5.82317570948e-05
refreshing 0.0
educated 0.0
reading 0.00016016990677
denver 0.00105291809872
videos 0.00012969211503
harmony 0.0
create 0.00011646351419
jordan 0.0
admire 0.0
nobody 0.0
government 0.000150585638972
politics 0.000427311189417
paradise 0.0
recover 0.000113688733829
spotted 0.0
blessing 0.0
coolest 8.90971209005e-05
banana 0.0
donate 0.000271338399996
sandwich 0.0
lookin 0.0
method 0.0
bullshit 0.0
slight 0.0
bringing 5.6514036634e-05
deserves 0.0
regret 0.0
celebs 0.0
victim 0.0
stadium 0.0
funniest 0.0
according 0.000600235921631
pumped 0.0
hamburger 0.0
heaven 7.9728453504e-05
honest 0.0
rolling 7.55167268606e-05
became 6.28903011235e-05
feature 0.0
waking 9.74035507735e-05
breakfast 6.32402551e-05
counting 0.0
signing 0.000131891905325
adding 7.9728453504e-05
awareness 0.000144098286826
kindest 0.0
trainer 0.0
facebook 0.000215298001162
insanity 0.000128730997407
repost 0.0
brazilian 0.0
campaign 0.000700690525781
borrow 0.0
scorpion 0.0
popcorn 0.0
factory 0.0
teenage 0.0
endorsement 0.0
williams 0.0
custom 0.0
drinks 0.0
future 0.00373163111618
angels 0.0
fingers 0.0
sister 0.0
earrings 0.0
warrior 0.000106946281701
dancing 0.0
voting 6.20259754115e-05
individuals 0.0
presence 0.0
commercial 6.90029771485e-05
chopped 0.0
religion 0.0
century 0.000494930567265
submit 0.00034831124942
serving 8.65155231279e-05
because 0.0
aggressive 0.0
sensitive 0.0
smiling 8.88036114685e-05
besides 0.000104484643749
cleveland 0.0
hometown 8.99881215538e-05
killing 0.0
breath 0.0
phillips 0.0
instagram 0.0
sharks 0.0
cousin 0.0
honored 0.000418783983411
dedication 0.000318336626445
lifting 0.0
lyrical 0.0
talent 6.70705666132e-05
goodnight 0.0
stores 9.12013498149e-05
rushing 0.0
brains 0.0
sandwiches 0.0
drinking 0.0
brazil 0.000361154729222
tattoo 0.0
ravens 0.0
regardless 8.88036114685e-05
skills 0.0
cameras 0.0
phones 0.0
california 0.00072049143413
seconds 0.0
listen 0.000363777337409
smiled 0.0
kicking 0.000142026029997
homies 0.0
billion 0.00100868800778
shades 0.0
shoutout 0.0
grammy 0.0
guilty 0.0
stevie 0.0
ceiling 0.000115153517855
carpet 0.0
grammys 0.0
harvard 0.000228344493823
panther 0.0
nelson 0.000107794492087
mandela 0.000137985105697
handle 0.0
sexiest 0.0
promise 0.0
hosting 0.000857297384615
hahahaha 0.0
longest 8.93923619616e-05
tuesday 0.00017139558584
locker 0.0
workout 0.0
ingredient 0.0
leader 0.00216402873617
pageant 0.0
character 0.0
idiotic 0.0
mirror 0.0
jackson 0.0
interview 0.000613609418068
battles 0.0
bleach 0.0
insight 8.93923619616e-05
obviously 0.0
replay 0.0
battle 0.000175172631445
stomped 0.0
destroy 8.73613440749e-05
killer 7.64225111308e-05
personally 0.0
winning 0.000107358473731
gettin 0.0
japanese 0.0
writing 5.82317570948e-05
society 0.000277594310975
officers 0.0
brooklyn 0.000101757879794
sources 8.65155231279e-05
incredible 0.000542628378204
poster 0.0
celebrity 0.0
memorable 0.0
werent 0.0
chased 0.0
minute 0.0
confession 0.0
pregnant 0.0
cherry 0.0
twinning 0.0
phoenix 0.0
orange 0.0
policy 0.000442517440588
comedy 0.0
illuminati 0.0
reminder 0.000242027361767
evidence 0.000298508185111
iphone 0.0
kicked 0.0
intentions 0.0
freedom 6.99979048438e-05
patient 0.0
utterly 0.000108224050215
mississippi 0.000284111805995
download 0.000142026029997
assistant 0.0
invite 0.000213655594709
central 0.00026527209155
washington 0.000399030603261
stronger 0.00039986582044
promised 0.0
worried 0.0
throwing 0.0
security 0.000266771520725
cologne 0.0
headphones 0.0
sanctuary 0.0
fantasy 0.0
monkey 0.0
approve 0.0
spinach 0.0
turning 0.000628903011235
helping 0.00038710565861
tickets 0.000243361852435
collector 0.0
physically 0.0
slavery 0.0
december 0.000139594661137
basically 0.0
return 5.56013691245e-05
yassss 0.0
goddess 0.0
locked 8.45958219806e-05
feelings 0.0
language 0.0
motion 0.0
obsessed 0.0
creation 0.000407031519177
followers 0.000130055405553
schools 0.000142849791268
gallery 0.0
movies 0.0
foster 0.0
children 0.000165902425119
nation 0.0010750843367
theaters 0.000213892563402
between 0.0
knowledge 0.0
begins 0.000180526281638
robinthicke 0.0
faithful 0.0
peeing 0.0
closet 0.0
bodies 0.0
italian 0.0
highlights 0.000151483281128
spanking 0.0
forbes 0.0
parade 0.0
tasted 0.0
consider 0.0
reunion 0.0
latest 0.000598507884915
dedicated 0.000171367521599
beyonce 0.0
perform 0.0
signed 5.54508631021e-05
tuxedo 0.0
princess 0.0
shelter 0.0
germany 0.000152845022262
explaining 8.67958780052e-05
married 0.0
millions 0.000612247004962
blessings 0.0
iconic 0.00010252191318
indonesia 0.00014837604701
braids 0.0
dollar 8.45958219806e-05
rigged 0.0
replied 0.0
lights 0.0
turned 0.0
excuses 0.0
jackie 0.0
charge 6.95975569909e-05
performing 8.07145586068e-05
ticket 0.0
steady 0.0
whispers 0.0
finest 0.0
confucius 0.0
diamonds 0.0
vancouver 0.000124376668386
addicts 0.0
collection 0.0
families 0.000128610089038
select 8.96893552055e-05
hitting 0.0
announced 0.000183528974613
decided 0.000120350854425
jewels 0.0
lottery 0.0
owners 0.0
respects 0.0
celebration 0.0
memorial 8.17204862395e-05
landed 0.0
pastor 0.0
ultimate 0.0
incase 0.0
rapper 0.0
episode 6.00105400298e-05
bounce 0.0
disney 0.0
muffin 0.0
kansas 0.0
sherman 0.0
retweet 0.0
midnight 6.78345999991e-05
patience 0.0
cereal 0.0
joining 0.000710329875226
released 0.000234202019052
release 0.000275756011192
models 9.70572295663e-05
classics 0.0
popped 0.0
mileycyrus 0.0
highlight 7.94849337305e-05
scholarship 0.0
within 6.41259988371e-05
hahahahaha 0.0
standing 0.000229774634743
higher 0.000269804500852
purple 9.37197787931e-05
skinny 0.0
justice 0.000270569981169
served 0.000227902709046
speaks 0.000363406383178
horses 0.0
houses 0.0
purchase 8.62367301243e-05
dropped 0.0
conversations 0.000186795912735
consideration 0.0
seattle 9.18191751277e-05
cookie 0.0
slurpee 0.0
strength 0.0
screens 0.0
monica 0.0
incredibly 0.0
streets 7.39700143273e-05
boyfriend 0.0
private 6.44847330952e-05
skittles 0.0
barbie 0.0
apologizes 0.0
designer 0.000110428953745
impress 0.0
cooking 8.59594816883e-05
exclusive 0.0
fashion 0.0
petite 0.0
talkin 0.0
peaches 0.0
bitches 0.0
nailed 0.0
weirdest 0.0
whomever 0.0
teaching 7.66515422615e-05
disgusting 9.84571310503e-05
chillin 0.0
philly 9.40436842262e-05
rights 0.000203503799997
dinosaur 0.0
exotic 0.0
dancers 0.0
cheers 0.0
presents 0.000328924542874
flawless 0.0
dating 0.0
victory 7.1840194405e-05
marley 0.0
productive 0.0
smurfs 0.0
halftime 0.0
insecure 0.0
horror 0.0
warning 0.000218043829907
discovery 0.00010252191318
convention 0.000290139865777
understanding 0.000144939354208
action 0.00345409194291
having 9.43696998073e-05
speaker 8.37951134632e-05
clever 0.0
theatre 0.0
honors 0.0
evolution 9.81034672835e-05
produce 0.000283109099422
spider 0.0
apologize 0.0
formation 0.0
letter 0.000434181827881
therapy 0.0
untrue 0.0
written 0.0
communication 0.0
disease 0.0
marching 0.000108224050215
suggest 0.0
georgetakei 0.0
hairstyle 0.0
humans 0.000252982479326
journal 0.000520429454624
foundation 0.0
access 0.000123709774663
venture 0.0
syndrome 0.0
writes 0.0
colorado 0.00033264550982
medicine 0.000101380193362
tremendous 0.000855253553931
nytimes 0.000761945234257
kindness 0.0
cannot 5.60556223014e-05
reveals 0.000225209728426
invented 0.0
sapphire 0.0
candidate 7.9973164088e-05
sexual 0.0
madison 0.0
illustration 0.0
newark 0.0
globally 0.000260096000236
incorrect 0.0
headline 0.0
reflect 9.27604545654e-05
streaming 0.000164462271437
leaders 0.00513250479486
supreme 0.00017359175601
protest 8.51368349764e-05
policies 9.12013498149e-05
silenced 0.0
defend 0.0
communicating 0.000152381641416
climate 0.0388223967492
wrapped 0.0
studio 0.0
conspiracy 0.000198344092552
interviews 0.0
differentiation 0.0
confusing 0.0
february 7.39700143273e-05
hamilton 0.0
loneliest 0.0
amazon 0.000228583570277
scattered 0.0
francis 0.000115153517855
headlines 9.27604545654e-05
january 6.95975569909e-05
diversity 9.27604545654e-05
universal 0.0
hurricane 0.000213055015172
identifying 0.0
countries 0.000652227093934
tickled 0.0
becker 0.0
connected 9.81034672835e-05
suggestion 0.0
filled 7.06044966915e-05
education 0.000270569981169
mentioned 0.000147940028655
defining 0.000257461994814
exists 0.0
unexpected 0.0
plants 0.00115651464398
orders 0.0
olympics 0.0
ability 0.000146214357812
director 0.000125432475185
content 7.85225345564e-05
cycling 0.0
previously 0.00010026394155
correction 0.0
pearls 0.0
ambassador 0.000260387634016
preparing 0.0
depend 0.0
downloads 0.0
lovers 0.0
weekly 8.67958780052e-05
hudson 0.0
bridge 0.0
becoming 0.000451393131666
magazine 0.000488581313979
appropriate 0.0
shakespeare 0.0
travesty 0.0
discoveries 0.000147422814099
fellow 6.37698178693e-05
reviewed 0.000231302928797
copies 0.0
driven 0.000273604049445
aussies 0.0
result 0.000362348385519
announcing 0.0
visual 0.0
restrictions 0.000123784434081
culture 0.0
edition 0.000403562904987
prince 0.0
shocks 0.0
symmetry 0.0
clicks 0.0
disagree 0.0
experiments 0.0
mistakes 0.0
trolls 0.0
blossoms 0.0
offered 0.0
inspiring 0.00108535359999
counter 0.0
approach 0.000149695975964
embarrassing 0.0
creators 0.0
edited 0.0
berniesanders 0.0
overnight 0.0
spotlight 0.0
probable 0.0
repeating 0.000129385166392
concerns 9.18191751277e-05
massive 6.37698178693e-05
promising 0.000109980132667
promises 0.0
colored 0.0
production 0.000160438154372
header 0.0
itunes 0.000166014030108
secretary 8.76464913689e-05
highway 0.0
dangerous 0.000337255626065
letters 0.000186156380659
typically 0.0
saving 7.28937746818e-05
pioneer 0.000112735500918
visuals 0.0
universe 8.07145586068e-05
ordering 0.0
victims 0.000218681324046
privacy 0.000216448100431
disclosure 0.0
proceeds 0.000201266531687
musical 0.0
collide 0.0
melbourne 0.000138773204106
correctly 0.0
campus 0.0
debate 0.00122863631478
conflict 0.000208969287499
meanwhile 0.0
petition 0.00018118211829
contribution 0.000207380580659
stated 0.0
humanity 0.000514102564797
illness 0.000109535301163
flawed 0.000123784434081
breathe 0.0
winners 0.0
spanish 0.0
comedic 0.0
awards 0.0
presidential 0.000418975567316
candidates 0.000169731194753
glasgow 0.0
smells 0.0
treasure 0.0
greater 8.19751596375e-05
themed 0.0
distribution 0.0
absurd 0.0
squirrel 0.0
sisters 0.0
stress 9.27604545654e-05
leading 0.000829007632301
resolution 0.0
achieved 0.0
interacting 0.0
boiling 0.0
examples 0.0
diverse 0.0
suicide 0.0
parallel 0.0
minneapolis 0.0
impairs 0.0
pumping 0.0
slides 0.0
choreography 0.0
element 0.0
serves 0.0
jumping 0.0
rising 0.000971569814611
believed 0.0
features 0.0
environment 0.000554668340741
revealed 0.0
classical 0.0
confirmed 0.00036553589453
origins 0.0
combination 0.000113209847737
consumption 0.000564859283068
worldwide 0.000167062065123
deaths 0.000210583619745
responsible 0.000163950319275
overwhelmed 0.0
household 0.0
munich 0.0
alternate 0.0
blockers 0.0
restaurant 0.0
canada 0.000334406835442
versions 0.0
technology 8.40605953309e-05
identify 0.0
combined 0.000280193869103
santiago 0.0
branches 0.0
october 0.000491395003829
netherlands 0.0
belgium 0.0
european 0.0
imperial 0.0
perspective 0.000148376135791
cities 0.000527049736403
guinea 0.0
americas 0.0
posters 0.0
elastic 0.0
flames 0.0
presumably 0.0
exquisite 0.0
spreading 0.000171918963377
happiness 0.0
ashamed 0.0
naturally 0.0
malbec 0.0
wasting 0.0
hidden 0.000247465283633
coffin 0.0
freudian 0.0
genius 0.0
cultured 0.0
malaysia 0.000451016332738
traveling 0.0
prepared 0.0
county 0.0
quinoa 0.0
district 0.0
chosen 9.46978532108e-05
toilet 0.0
yorkers 0.0
ignores 0.000137985105697
messages 0.0
creativity 0.0
conventional 0.0
berlin 0.000103297792516
montreal 0.0
wonders 0.0
upcoming 0.0
lonely 0.0
australian 0.000293256856165
positions 0.000106112208815
singapore 0.000129385166392
scratch 0.0
deficiency 0.0
elevated 0.0
triggers 0.0
delicate 0.000333556354271
barrier 0.000123784434081
reflection 0.0
sydney 0.0
separates 0.0
centuries 0.0
israel 0.000106946281701
overwhelming 0.000106527507586
assault 0.0
protection 0.00017415562471
picker 0.0
additional 0.0
machine 0.000135284990584
samples 0.0
contrary 0.0
immediate 0.000417938574998
michelle 0.0
inspire 0.0
lyrics 0.0
missyelliott 0.0
constant 0.0
tuning 0.000443527346427
pandora 0.0
preshow 0.0
buenos 0.0
poland 0.000130719731206
philippines 0.000380454855143
nicely 0.0
september 0.000281605925373
manchester 0.0
checks 0.0
screenshot 0.0
universalorl 0.0
remarkable 0.000173031046256
rihanna 0.0
disgusted 0.0
flattered 0.0
fiction 0.000100633265844
angela 0.0
bitmoji 0.0
process 0.0
genuine 0.0
performances 0.0
comedians 0.0
flotus 0.0
strangers 0.0
hungover 0.0
confidence 0.0
studios 0.0
stjude 0.0
memphis 0.000258770332783
mikeypiff 0.0
chancetherapper 0.0
scream 0.0
jennifer 0.000199794645905
disappoint 0.0
newcastle 0.0
castle 0.0
literally 0.0
chrisrock 0.0
gentlemen 0.0
mtvnews 0.0
hillaryclinton 0.000399589291809
iamrashidajones 0.0
champagne 0.0
raleigh 0.0
ijessewilliams 0.0
acknowledge 0.000116662472818
buzzfeed 9.98973229523e-05
puppet 0.0
rehearsal 0.0
billboard 0.000105700328179
austria 0.0
sweden 9.95333706957e-05
republic 0.000105700328179
grilled 0.0
waltdisneyworld 0.0
katyperry 0.0
ronanfarrow 0.0
measly 0.0
bragging 0.0
treats 0.0
literal 0.0
cooper 0.0
counts 0.0
theellenshow 0.000106946281701
basking 0.0
cookies 0.0
festival 7.37529067646e-05
amsterdam 0.0
soundcheck 0.0
downloaded 0.0
encouraged 0.000248753336773
alright 0.0
jtimberlake 0.0
backstage 0.0
collab 0.0
joined 0.000555159439583
issarae 0.0
playlist 0.0
madness 7.9973164088e-05
romantic 0.0
selfies 0.0
exclusively 0.0
disneyland 0.0
refused 0.0
characters 0.0
amazingly 0.0
auction 0.0
express 0.0
gratitude 0.0
sesamestreet 0.0
thegrammys 0.0
throughout 0.000317939734922
awkward 0.0
shining 0.0
thrown 0.0
stylist 0.0
fighter 0.000106112208815
accepting 0.0
playin 0.0
applemusic 0.0
filmed 0.0
makeawish 0.0
bieber 0.0
remixes 0.0
toronto 8.93923619616e-05
capitolrecords 0.0
shazam 0.0
anthem 0.0
cosmopolitan 0.0
khloekardashian 0.0
cookin 0.0
songwriters 0.0
reveal 7.31071789059e-05
stands 0.0
spotify 0.0
phvegas 0.0
rocked 0.0
glasses 0.0
iambeckyg 0.0
relive 0.0
acoustic 0.0
announce 0.000232927028379
although 0.0
isaacfromct 0.0
shampoo 0.0
interactive 0.000111338855442
todayshow 0.000343981431807
haters 0.0
appreciation 0.0
floating 0.0
shondarhimes 0.0
showtime 0.000120371073981
premiere 0.000572043403676
broadway 0.0
makeup 0.0
starring 0.0
newest 0.0
designed 0.0
arianagrande 0.0
aladdin 0.0
swaggy 0.0
owning 0.000133500625199
producer 0.0
legendary 0.0
jasmine 0.0
costumes 0.0
square 0.0
emojis 0.0
jessica 0.0
magical 0.0
thedoctorluke 0.0
thirsty 0.0
therealjuicyj 0.0
symbols 0.0
privilege 9.27604545654e-05
spiral 0.000144667445848
retrograde 0.0
footage 0.0
theirs 0.0
universes 0.0
remembering 0.0
floated 0.0
construction 0.0
consciousness 0.0
delights 0.0
explodes 0.0
submissions 0.0
pleased 0.000248241149153
shredding 0.0
filters 0.0
weasel 0.0
reflective 0.0
firework 0.0
islands 0.0
interstellar 0.0
bubble 0.000284093559632
customs 0.0
festive 0.0
window 7.35367370345e-05
senator 0.000725832032306
slightly 0.0
therealbuzz 0.0
printing 0.000132090863954
snowflake 0.0
applications 0.0
elephant 0.0
fifteen 0.0
editions 0.0
newspaper 0.0
rainbow 0.0
unlimited 0.000131400601773
sirius 0.0
matthew 0.0
affected 0.000696104935401
capturing 0.000287563404222
canyon 0.0
rivers 0.000123199126652
spoken 8.37951134632e-05
accidentally 0.0
bizarre 0.0
dolphin 0.0
successfully 0.000109980132667
liquid 0.0
graffiti 0.0
swallowing 0.0
messenger 0.0
heroes 0.0
disturbing 0.00021222441763
graduates 0.0
rewrite 0.0
describe 0.0
hollywood 7.37529067646e-05
equality 9.02886823054e-05
announcement 0.000707355489709
breakout 0.00014934779045
dreaming 0.0
animation 0.0
calendar 0.0
circling 0.0
garden 0.0
enhanced 0.0
journalists 8.96893552055e-05
stirring 0.0
nominations 0.0
yelling 0.0
teachers 8.96893552055e-05
chapter 0.000167062065123
napoleon 0.0
aliens 0.0
subjects 0.000141214820767
revolution 0.000374879115172
mountains 0.0
wonderland 0.0
storage 0.000264181727909
crystals 0.0
circuit 0.0
invitation 0.0
kettle 0.0
adjective 0.0
woodpecker 0.0
operate 0.0
exhibition 0.0
learnt 0.0
nomination 9.12013498149e-05
madonna 0.0
questioning 0.0
unplug 0.0
initiatives 0.0
switzerland 0.0
represents 0.000205816698381
throat 0.0
touchdown 0.0
desire 0.0
forced 0.0
swedish 0.0
hundred 0.0
prompts 0.0
rainbows 0.0
creates 0.0
oxford 0.0
balloons 0.0
liverpool 0.0
recreate 0.0
glorious 0.0
newton 0.0
creature 0.0
finalist 0.0
scouts 0.0
treading 0.0
tragedy 8.22311357184e-05
nottingham 0.0
debacle 0.0
legends 0.0
noises 0.0
addiction 0.000110881836607
survived 0.0
idioms 0.0
greeted 0.0
basics 0.0
masses 0.0
confirm 0.000162934204665
cadence 0.0
spaghetti 0.0
prepare 0.0
calendars 0.0
narrative 0.000109535301163
application 0.000115153517855
octopus 0.0
drumming 0.0
bloody 0.0
confetti 0.0
translate 0.0
birmingham 0.0
singles 0.0
completes 0.0
laptop 0.0
obvious 0.0
darling 0.0
deserving 0.0
miller 9.05910591451e-05
ordered 0.0
feelin 0.0
alicia 0.0
picasso 0.0
recipe 0.0
alphabetical 0.0
butterfly 0.0
timothy 0.0
mancini 0.0
untold 0.0
directed 0.0
hacked 9.77522853883e-05
admits 0.000219960265334
clocks 0.0
nugget 0.0
cnnopinion 0.0
grabbed 0.0
russia 0.0
surprises 0.0
waterfalls 0.0
olympic 0.000185520909131
magnificent 0.0
casual 0.0
assume 0.0
relief 0.00041634168959
subscribe 0.0
landslide 0.0
telegraph 0.0
standby 0.0
admitting 0.0
complacency 0.000171132506156
voices 0.000404820756088
sounding 0.0
douglas 0.000111800086493
democracy 0.0011431325458
locals 0.0
gossip 0.0
nickname 0.0
subtle 0.0
embarrassed 0.0
ireland 8.90971209005e-05
mornings 0.0
democratic 0.000204276876788
impressions 0.0
outgoing 0.0
treasury 0.0
refugees 0.000298600112087
unveiling 0.0
listing 0.0
deliver 0.000158969867461
negotiating 0.0
roller 0.0
prosperous 0.000339277135823
desperate 0.0
acknowledgement 0.0
executive 0.000167062065123
republicans 0.00051069219197
weapons 9.77522853883e-05
dropping 7.57416405638e-05
meaningful 0.00010909438893
nightmare 0.0
goodies 0.0
scandalous 0.0
rhetoric 0.0
divisive 0.0
vision 0.0
confirmation 0.0
throne 0.0
records 0.000531772987775
quoting 0.0
impatient 0.0
refugee 0.0
texted 0.0
exposed 0.000204276876788
stoked 0.0
priority 0.00038685315437
freedoms 0.0
notorious 0.0
empowering 0.000133500625199
unconstitutional 0.0
turkish 0.0
concerned 0.0
realdonaldtrump 0.0
goodwill 0.0
imagined 0.0
belfast 0.0
sleeve 0.0
basement 0.0
preposterous 0.0
griffith 0.0
timeless 0.000285822726793
truman 0.0
intended 0.0
inappropriate 0.0
industries 0.0
responsibility 0.0
documentaries 0.0
vulnerable 0.0
respectful 0.0
markets 0.000328605903489
claire 0.0
nuggets 0.0
boards 0.0
sequins 0.0
capitol 0.000123199126652
technical 0.0
applying 0.0
guitar 0.0
donating 0.00018118211829
continually 0.0
norway 0.000112265608126
applause 0.0
ballot 0.0
finely 0.0
shakes 0.0
varied 0.0
proverb 0.0
vibrant 0.0
flower 0.0
survives 0.0
fierce 0.0
shopped 0.0
sincerely 0.0
apology 0.0
sweaty 0.0
conspiracies 0.0
climbing 0.0
relaxed 0.0
encourage 0.000255410504929
funnyordie 0.0
essentials 0.0
jimmykimmellive 0.0
rejectedjokes 0.0
protesting 0.0
releasing 0.0
cleaner 0.000134951254731
preferred 0.0
incarceration 0.0
jkcorden 0.0
koppel 0.0
bikini 0.0
transparency 0.0
kamalaharris 0.0
nutshell 0.0
walled 0.0
floored 0.0
plotting 0.0
gandhi 0.0
vilify 0.0
meditate 0.0
violent 0.0
preschool 0.0
rhythm 0.0
matching 0.0
senwarren 0.0
venezuela 0.0
candle 0.0
donates 0.0
peacefully 0.0
chelseahandler 0.000153435221693
experiencing 0.00106800500159
sarabareilles 0.0
haunting 0.000146487399674
constitution 0.000115153517855
explode 0.000132790780464
deeper 0.0
empathy 0.000135692649249
mrgaryhuang 0.0
scored 0.0
charitable 0.0
perfume 0.0
giraffe 0.0
noticing 0.0
noodle 0.0
wrongly 0.0
marshmallow 0.0
fraudulent 0.0
everytime 0.0
helluva 0.0
therapists 0.0
tangible 0.0
sarahksilverman 0.0
johnfugelsang 0.000382846567235
exceptional 0.0
miracle 0.0
avocado 0.0
snacks 0.0
spelled 0.0
parental 0.0
superbowl 0.0
shoulders 0.0
valentine 0.0
glitter 0.0
stocking 0.0
poehler 0.0
thumbs 0.0
tinatbh 0.0
educational 0.0
voicemail 0.0
thetweetofgod 0.0
esteem 0.0
teaches 0.0
goodbye 0.0
reminding 0.0
supplies 0.000248753336773
ryanseacrest 0.0
okmagazine 0.0
shoots 0.0
bowing 0.0
jennyslate 0.0
craigyferg 0.0
masterpiece 0.0
sneaky 0.0
nashville 0.000981849500371
chronicles 0.0
potato 0.0
freakin 0.0
perezhilton 0.0
unethical 0.000174261225804
paparazzi 0.0
mantra 0.0
consuming 0.000187068954597
unauthorized 0.0
vanityfair 0.0
stalking 0.0
shoulda 0.0
yeppers 0.0
sacred 0.0
existed 0.0
earned 0.000177023626943
woulda 0.0
ellenpage 0.0
choker 0.0
contribute 0.000104484643749
mustache 0.0
washes 0.0
creeps 0.0
champion 0.000637827628032
auntie 0.0
magazines 0.0
waited 0.0
conscious 0.0
cracker 0.0
denmark 0.000128085269548
potion 0.0
windex 0.0
scarfing 0.0
ladygaga 0.0
purposely 0.0
pretending 0.0
luckiest 0.0
mascara 0.0
tastes 0.0
gardening 0.0
leashes 0.0
hippie 0.0
womensmarch 0.0
reunited 0.0
clique 0.0
premiering 0.000232308831027
rollingstone 0.000495137736326
childrensla 0.0
dollywood 0.0
godmother 0.0
eltonofficial 0.000217750673372
vmagazine 0.0
donorschoose 0.0
yesssssss 0.0
bettemidler 0.0
rehearsing 0.0
trevorproject 0.0
unicef 0.0
ellemagazine 0.0
yasssss 0.0
acceptance 0.0
solidarity 0.000114660477269
pharrell 0.00080532410326
greece 0.0
papermagazine 0.000177598676577
johnmayer 0.0
lipstick 0.0
tumblr 0.0
coldplay 0.0
colorful 0.0
translifeline 0.0
newsstands 0.0
feminist 0.0
pitchfork 0.0
labels 0.0
jenner 0.0
arkansas 0.0
beanie 0.0
sparkly 0.0
moschino 0.0
britneyspears 0.0
itsjeremyscott 0.0
nickiminaj 0.0
appstore 0.0
poetry 0.0
puttin 0.0
rubbed 0.0
shrine 0.0
skyferreira 0.0
freaking 0.0
besties 0.0
chanel 0.0
bedazzled 0.0
rubber 0.0
kendricklamar 0.0
popstar 0.0
sosadtoday 0.0
copenhagen 0.000318127963135
lenadunham 0.0
wearin 0.0
stoned 0.0
facetime 0.0
barclays 0.0
meditation 0.0
harpersbazaarus 0.0
stared 0.0
ritual 0.0
iconapop 0.0
doubted 0.0
staples 0.0
anaheim 0.0
jingle 0.0
tacoma 0.0
rehearsals 0.0
treadmill 0.0
metamorphosis 0.0
dental 0.0
jodyhighroller 0.0
versace 0.0
werking 0.0
couture 0.0
eggplant 0.0
bangin 0.0
cardigans 0.0
obnoxious 0.0
bestie 0.0
teganandsara 0.0
barrel 0.0
dedicating 0.0
jefferson 0.0
pumpkin 0.0
derekblasberg 0.0
glamourmag 0.0
presale 0.0
mtvstyle 0.0
deluxe 0.0
mtvema 0.0
reggae 0.0
azealiabanks 0.0
nominating 0.0
sailor 0.0
mornin 0.0
itunesmusic 0.0
bananas 0.0
lordemusic 0.0
vietnam 0.0
milwaukee 0.0
neworleans 0.0
circus 0.0
strolling 0.0
rapids 0.000358709518058
collegegameday 0.0
aaaaand 0.0
godfather 0.0
bestow 0.0
allison 0.0
rockthevote 0.0
birbigs 0.0
lucille 0.0
louder 0.0
farmers 0.000483696173221
shaved 0.0
niagara 0.0
realmattlucas 0.0
ferguson 0.0
painful 9.84571310503e-05
exchange 0.0
nickkroll 0.0
edmonton 0.0
mickey 0.0
angelenos 0.0
pooping 0.0
located 0.0
onslaught 0.0
finalists 0.0
bumped 0.0
sherlock 0.0
stockholm 0.0
casually 0.0
jjwatt 0.0
itstonybennett 0.0
mariolopezextra 0.0
klgandhoda 0.0
entrance 0.0
calgary 0.0
bowling 0.000121483191186
winnipeg 0.0
cheeto 0.0
gloriasteinem 0.0
feather 0.0
nathan 0.0
smelling 0.0
narnia 0.0
llamas 0.0
actuallynph 0.0
mourning 0.000156735970437
obsession 0.0
chilled 0.0
medically 0.0
hyperloop 0.0
aussie 0.0
flaring 0.0
eyeballs 0.0
stuffing 0.0
pitched 0.000153435221693
condiments 0.0
relatable 0.0
olivia 0.0
painted 0.0
mykonos 0.0
eyebrow 0.0
capitalcities 0.0
jackpot 0.0
hipster 0.0
sweating 0.0
restaurants 0.000119824148157
superfan 0.0
restraint 0.0
craziest 0.0
catheter 0.0
delivers 0.000108224050215
kanyewest 0.0
paints 0.0
dissect 0.0
billboards 0.0
milano 0.0
bjnovak 0.0
snapping 0.0
croissant 0.0
repjohnlewis 0.0
blklivesmatter 0.0
mydaughtersarmy 0.0
huddled 0.0
yearning 0.0
thereaibanksy 0.0
affordable 0.0
foodie 0.0
colombia 0.0
peeled 0.0
shootings 0.0
playground 0.0
breaky 0.0
photoshoot 0.0
smokin 0.0
accents 0.0
sweats 0.0
postmates 0.0
armband 0.0
unconscious 0.0
maddow 0.0
aquarium 0.000171132506156
holler 0.0
photoshop 0.0
robbie 0.0
espnmag 0.0
laundry 0.0
examining 0.0
zealand 0.000110881836607
stuntin 0.0
hehehe 0.0
nostalgia 0.0
buttons 0.0
slaying 0.0
monument 0.0
bringin 0.0
lining 0.0
muchas 0.0
gracias 0.0
madame 0.0
illustrated 0.0
boxers 0.0
grazie 0.0
winters 0.000382846567235
plastic 0.0
unbreakable 0.0
licking 0.0
cheeky 0.0
twerking 0.0
danish 0.0
drummer 0.0
florence 0.0
revoir 0.0
resume 0.0
dodger 0.0
brazilians 0.0
grimezsz 0.0
crocodile 0.0
hahahahahaha 0.0
parisians 0.0
taipei 0.0
taiwan 0.0
bangkok 0.000191423283618
uploaded 0.0
manila 0.000333556354271
hamburg 0.0
curating 0.0
aaaand 0.0
skating 0.0
brisbane 0.0
googleplay 0.0
raincoat 0.0
glastofest 0.0
vienna 0.0
burning 8.82217070664e-05
jamming 0.0
reaches 0.0
subtitles 0.0
wristband 0.0
barcelona 0.0
credits 0.0
dreamers 0.0
bogota 0.0
bursting 0.0
brunomars 0.0
beyoncé 0.0
subscribers 0.0
unlock 0.0
onedirection 0.0
amazonmusic 0.0
snippets 0.0
preorder 0.0
rehearse 0.0
bahnhof 0.0
delorean 0.0
fragrance 0.0
curate 0.0
samsmithworld 0.0
guitars 0.0
storyline 0.0
registering 0.0
beatsbydre 0.0
panama 0.0
celestial 0.0
orchestra 0.000151349785999
finland 0.0
climbed 0.0
topping 0.0
méxico 0.0
vasconcelos 0.0
leicester 0.0
itunesfestival 0.0
pondering 0.0
millennials 0.000271385298499
struck 0.0
watermelon 0.0
benefited 0.0
sophisticated 0.0
couples 0.0
villain 0.0
mindful 0.0
catholic 0.0
airline 0.0
secretly 0.0
playlists 0.0
veggie 0.0
receipts 0.0
foremost 0.0
bagpipe 0.0
drifting 0.0
trader 0.0
influenced 0.0
moscow 0.0
cobain 0.0
reaper 0.0
commune 0.00024204704524
handshake 0.0
despair 0.0
silicon 0.0
investing 0.0
construct 0.0
garland 0.0
coachella 0.0
offline 0.0
realisation 0.0
payback 0.0
educate 0.0
alliances 0.0
etched 0.0
momentarily 0.0
pronoun 0.0
lenses 0.0
validated 0.0
authenticity 0.0
choreographed 0.0
pokemon 0.0
disneyworld 0.0
patriotic 0.0
embody 0.0
snickers 0.0
impactful 0.0
refocus 0.0
eminem 0.0
mahatma 0.0
ecstatic 0.0
snfonnbc 0.0
avenue 0.0
picchu 0.0
doubters 0.0
beverly 0.0
intensity 0.0
outtake 0.0
temple 0.0
purchased 0.0
fountain 0.0
punched 0.0
goldfish 0.0
comparable 0.0
buyers 0.0
barbara 0.000236436691485
corybooker 0.0
listens 0.0
timeout 0.0
inducing 0.0
signage 0.0
penthouse 0.0
ahahaha 0.0
phenom 0.0
brilliantly 0.0
siphoning 0.0
herstory 0.0
prostitute 0.0
survivors 0.0
courageous 0.000120371073981
cruelty 0.0
margot 0.0
xenophobic 0.0
mcginley 0.0
yorkshire 0.0
chants 0.0
alancarr 0.0
chained 0.0
skillz 0.0
debunked 0.0
floods 0.00101898404851
fleetwood 0.0
cheesecake 0.0
adidas 0.0
uneven 0.0
raging 0.0
connections 0.0
headlining 0.0
devhynes 0.0
charli_xcx 0.0
shawnmendes 0.0
tavitulle 0.0
bahjournalist 0.0
tyleroakley 0.0
marquee 0.0
grease 0.0
screenshots 0.0
ddlovato 0.0
chattyman 0.0
grimmers 0.0
vevo_uk 0.0
bonniemckee 0.0
electrifying 0.0
idolator 0.0
onairromeo 0.0
godven 0.0
lookie 0.0
preordered 0.0
elvisduran 0.0
shanghai 0.000291138299575
tripped 0.0
konnichiwa 0.0
etnad_olegnad 0.0
unannounced 0.0
swedes 0.0
cinderella 0.0
slipper 0.0
jessesaintjohn 0.0
adorbs 0.0
onesies 0.0
jahnsuxx 0.0
walgreens 0.0
aphrodite 0.0
danceonfox 0.0
difficulties 0.0
mermaids 0.0
antique 0.0
girlshbo 0.0
yaaaaasss 0.0
lifesaving 0.0
queens 0.0
yaaaas 0.0
rollin 0.0
bestest 0.0
cleanse 0.0
iamtovelo 0.0
glamour 0.0
emelisande 0.0
lashes 0.0
austrian 0.0
magritte 0.0
misogynoir 0.0
litter 0.0
spiritual 0.0
preaching 0.0
adelaide 0.0
sheffield 0.0
impending 0.0
starve 0.0
excess 0.0
conciousness 0.0
vitamins 0.0
generator 0.0
purposefully 0.0
profiles 0.0
petals 0.0
persist 0.0
alexis 0.0
covergirl 0.0
sneezed 0.0
cushion 0.0
demconvention 0.0
directv 0.0
flo_tweet 0.0
billclinton 0.000457144924248
grounded 0.0
sunrise 0.0
fightin 0.0
sagekotsenburg 0.0
pwease 0.0
sadder 0.0
waterfall 0.0
sighting 0.0
firsts 0.0
muller 0.0
burritos 0.0
bungee 0.0
potting 0.0
dipping 0.0
closets 0.0
scratched 0.0
decorating 0.0
summers 0.000166778177135
havana 0.0
fresher 0.0
mowing 0.0
invading 0.0
addict 0.0
aesthetics 0.0
footwear 0.0
protector 0.0
hammock 0.0
repurpose 0.0
mishap 0.0
hamster 0.0
cellar 0.0
groove 0.0
mentored 0.0
exaggerate 0.000210589447129
scraping 0.0
apropos 0.0
trolled 0.0
jonlovett 0.0
rheabutcher 0.0
sickening 0.0
flustered 0.0
compiled 0.0
shirley 0.0
subtweet 0.0
pantsuit 0.0
patting 0.0
atrocious 0.0
amoeba 0.0
platter 0.0
aficionado 0.0
bearer 0.0
manifest 0.0
transformation 0.0
thighs 0.0
tapper 0.0
foaming 0.0
sophie 0.0
sabbath 0.0
vibrations 0.0
nutella 0.0
wilder 0.0
distractions 0.0
stripping 0.0
downloading 0.0
judith 0.0
crossroads 0.0
parsons 0.0
stella 0.0
narcissism 0.0
fawcett 0.0
trainers 0.0
surrounding 0.000249951990973
longtime 0.000292974799347
frosting 0.0
laurent 0.0
savory 0.0
acupuncture 0.0
cancelling 0.0
nutcracker 0.0
ballet 0.0
tempura 0.0
burner 0.0
voguemagazine 0.0
lagged 0.0
cuttlefish 0.0
passwords 0.0
funfetti 0.0
anagasteyer 0.0
gabbana 0.0
budapest 0.0
montage 0.0
crowns 0.0
scheduling 0.0
possessed 0.0
syncing 0.0
creatively 0.0
hieroglyphics 0.0
halftimes 0.0
floppy 0.0
nessie 0.0
feathers 0.0
kaceymusgraves 0.0
roaring 0.0
rightful 0.0
balconies 0.0
prodigy 0.0
raquin 0.0
gianni 0.0
monsieuradi 0.0
drowned 0.0
tropicana 0.0
diesel 0.0
shabbat 0.0
voiceless 0.0
passover 0.0
elevating 0.0
traumatic 0.0
dreamer 0.0
iwillharness 0.0
classrooms 0.0
eligibility 0.0
counselors 0.0
wainwright 0.0
moveon 0.0
runaway 0.0
baghdad 0.0
zaralarsson 0.0
snooze 0.0
iggyazalea 0.0
harviikills 0.0
bolognese 0.0
babysitting 0.0
mohegan 0.0
hooters 0.0
crusts 0.0
tracksuit 0.0
cupcake 0.0
xfactor 0.0
vitamin 0.0
lichtenstein 0.0
concourse 0.0
hitchcock 0.0
teller 0.0
pastels 0.0
remnants 0.0
banger 0.0
lyrically 0.0
boogers 0.0
ritaora 0.0
bumpin 0.0
dabbed 0.0
sleepin 0.0
tinashe 0.0
octaviaspencer 0.0
linder 0.0
musicallyapp 0.0
scavenger 0.0
sanging 0.0
corinthians 0.0
hollywoodbowl 0.0
kraken 0.0
discontinue 0.0
cypress 0.0
schooling 0.0
maritime 0.0
narration 0.0
zeitgeist 0.0
sampler 0.0
pseudo 0.0
bangladesh 0.000366126720382
hungary 0.0
mumble 0.0
sisterhood 0.0
soulful 0.0
lennykravitz 0.0
londontown 0.0
andradaymusic 0.0
lipsticks 0.0
realization 0.0
unconditionally 0.0
wildfire 0.000724698851419
goldie 0.0
minnie 0.0
solitude 0.0
waddle 0.0
westworldhbo 0.0
statuesque 0.0
uncasville 0.0
demented 0.0
skyway 0.0
twentyonepilots 0.0
rejoicing 0.0
clenching 0.0
adelphia 0.0
entirety 0.0
redhourben 0.0
lakewood 0.0
drjillstein 0.0
entail 0.0
whammy 0.0
smokers 0.0
gobble 0.0
topshop 0.0
cleowade 0.0
mkives 0.0
sweetbabayjamie 0.0
marchesafashion 0.0
hamsters 0.0
gurrrl 0.0
sofifii 0.0
sumthin 0.0
nicomiz 0.0
maisonvalentino 0.0
coziest 0.0
accessorize 0.0
thejgold 0.0
peruvian 0.0
amazeballs 0.0
sendin 0.0
fantabulous 0.0
timelines 0.0
regina 0.0
slovakia 0.0
graves 0.0
embracing 0.0
larsson 0.0
cullen 0.000204325881092
psychiatric 0.0
officialadele 0.0
butters 0.0
verrrry 0.0
buttered 0.0
winged 0.0
pedialyte 0.0
topanga 0.0
armpit 0.0
kittens 0.0
dueling 0.0
eagerly 0.0
surrealist 0.0
dethroned 0.0
manolos 0.0
señorita 0.0
monterrey 0.0
parque 0.0
retiree 0.0
batches 0.0
reservations 0.0
sickos 0.0
aplusk 0.0
kirkherbstreit 0.0
fanbases 0.0
indexing 0.0
chuckles 0.0
incorporated 0.0
washboard 0.0
earbuds 0.0
pantone 0.0
knotts 0.0
dismaland 0.0
pollock 0.0
iamkidpresident 0.0
mariah 0.0
teevee 0.0
santorini 0.0
appalachian 0.0
sunburnt 0.0
caliente 0.0
juicery 0.0
karlihenriquez 0.0
trillest 0.0
tommorrow 0.0
crumpets 0.0
fishin 0.0
grillin 0.0
jambalaya 0.0
pepperoni 0.0
cashew 0.0
graceland 0.0
pussies 0.0
delicately 0.0
eraser 0.0
choreo 0.0
snatched 0.0
elliptical 0.0
mooore 0.0
unborn 0.0
georgina 0.0
stalkers 0.0
sallykohn 0.0
expectancy 0.0
phillipines 0.0
appstoregames 0.0
wilkinson 0.0
puddings 0.0
loveland 0.0
spaced 0.0
shanny 0.0
dripping 0.0
gerber 0.0
shakey 0.0
weaves 0.0
unbeatable 0.0
linguist 0.0
prosthetics 0.0
battleship 0.0
serotonin 0.0
machiavellian 0.0
girlies 0.0
guangzhou 0.0
debuting 0.0
dissecting 0.0
warped 0.0
luckyjess 0.0
ermahgerd 0.0
fabulousness 0.0
elliegoulding 0.0
activewear 0.0
yelyahwilliams 0.0
prismatic 0.0
evaluations 0.0
skywalk 0.0
sparklers 0.0
palettes 0.0
gemmaanningram 0.0
trueeee 0.0
invisalign 0.0
pounded 0.0
lolgop 0.0
procession 0.0
stanning 0.0
squeals 0.0
continual 0.0
luminary 0.0
cummin 0.0
shaves 0.0
epixhd 0.0
preacher 0.0
boogiecousins 0.0
changers 0.0
autismspeaks 0.0
massaged 0.0
psssssst 0.0
literati 0.0
utilization 0.0
endangerment 0.0
purposeful 0.0
unlabeled 0.0
undiagnosed 0.0
snotty 0.0
gallops 0.0
slovenia 0.0
sequin 0.0
akerlund 0.0
jumbotron 0.0
edibles 0.0
knowles 0.0
caeser 0.0
thehollywoodbowl 0.0
elvispresley 0.0
adoring 0.0
ageist 0.0
thérèse 0.0
confessed 0.0
blackvoices 0.0
patties 0.0
graphically 0.0
wildflowers 0.0
groundhogs 0.0
eataly 0.0
poodles 0.0
hillaryforia 0.0
roadshow 0.0
sweety 0.0
boppin 0.0
bettywho 0.0
johnnywujek 0.0
earring 0.0
itsbennyblanco 0.0
curitiba 0.0
purrfect 0.0
shellback 0.0
chokers 0.0
hairbrush 0.0
hakuna 0.0
matata 0.0
hazing 0.0
mathew 0.0
aegean 0.0
lullaby 0.0
musiciansoncall 0.0
headpiece 0.0
morsel 0.0
whistled 0.0
conquest 0.0
viceland 0.0
lambily 0.0
scalped 0.0
graced 0.0
emblazoned 0.0
hrclosangeles 0.0
kawaii 0.0
glittery 0.0
wonderlandmag 0.0
jumpsmokers 0.0
radiodotcom 0.0
missyfranklin 0.0
pleaaaaase 0.0
lilbthebasedgod 0.0
waaaay 0.0
flossy 0.0
aria_official 0.0
berliners 0.0
matriarchy 0.0
cornered 0.0
limping 0.0
peasant 0.0
feasibly 0.0
waaaaay 0.0
slayyy 0.0
fashionistas 0.0
sangin 0.0
worldstarfunny 0.0
pliers 0.0
babyanimalpics 0.0
mediation 0.0
quests 0.0
aaaaaaah 0.0
honked 0.0
rauschenberg 0.0
whitneymuseum 0.0
lonsdale 0.0
transcendental 0.0
roarin 0.0
facetune 0.0
fausto 0.0
herning 0.0
cazzette 0.0
annnnnnnnnd 0.0
shinier 0.0
giambattista 0.0
katys_teddybear 0.0
gnight 0.0
katheryn 0.0
psychoanalysis 0.0
bckgrnd 0.0
kingman 0.0
gracevanderwaal 0.0
fecking 0.0
ihrcountdown 0.0
stubbies 0.0
xfactor_italia 0.0
aaronpauley 0.0
purity_ring 0.0
scorpios 0.0
ayyyye 0.0
capitalizes 0.0
flamin 0.0
motherfucking 0.0
jingled 0.0
pharrellhat 0.0
ontarioglow 0.0
teached 0.0
umusic 0.0
auroramusic 0.0
dailymendeslife 0.0
soloing 0.0
universalse 0.0
dustinkloeppel 0.0
robynkonichiwa 0.0
charli 0.0
lonelydot 0.0
adamselman 0.0
sorrenti 0.0
offish 0.0
vinoodh 0.0
guitarists 0.0
cocking 0.0
cabbages 0.0
amelia_libman 0.0
flutter 0.0
lolita 0.0
kingladygaga 0.0
breakthecycledv 0.0
howbow 0.0
curveballs 0.0
tamagotchi 0.0
jarryd 0.0
alliseeisgold 0.0
thebroadmuseum 0.0
sarahsowitty 0.0
brillz 0.0
jackgarratt 0.0
markryden 0.0
duffscakemix 0.0
sanrio 0.0
theniceguyla 0.0
trills 0.0
susangkomen 0.0
faustopuglisi 0.0
gurlll 0.0
cheesecakes 0.0
scorpio 0.0
oblivia 0.0
skipmarley 0.0
correcto 0.0
jessirklein 0.0
unpatr 0.0
squish 0.0
greg_wells 0.0
onlyleah 0.0
gittin 0.0
popstars 0.0
krafts 0.0
bouche 0.0
problemo 0.0
wheezing 0.0
patmcgrathreal 0.0
cienega 0.0
thundering 0.0
nastialiukin 0.0
janell 0.0
katelyntarver 0.0
miamoretti 0.0
missoni 0.0
dannymoonsworld 0.0
mrchrismcmillan 0.0
madge_freak 0.0
woridstarcomedy 0.0
ikissedasoldier 0.0
kpezandchez 0.0
perrysoldier 0.0
emilynotchez 0.0
iickmekaty 0.0
basicallyadam 0.0
katysangelegg 0.0
nicolasjebran 0.0
xchadballx 0.0
scott_myrick 0.0
lockoir 0.0
shannonwoodward 0.0
calluses 0.0
chamomile 0.0
trollin 0.0
sleighing 0.0
chestercheetah 0.0
royksopp 0.0
scottsimonswvla 0.0
sirenscaiiing 0.0
slowdownkaty 0.0
chefantoniopark 0.0
garnished 0.0
endive 0.0
mdmolinari 0.0
prezzy 0.0
motioning 0.0
hernameisbanks 0.0
rockcampla 0.0
jenniefinch 0.0
getglucky 0.0
stendhal 0.0
ryanphillippe 0.0
hotncolds 0.0
kpcollections 0.0
katie_wignall 0.0
katysdrugx 0.0
evrenperry 0.0
katycatwendy 0.0
yungskeeter 0.0
sarahhudsonuvs 0.0
mothern 0.0
oliverheldens 0.0
marrymemargot 0.0
katyperrylately 0.0
kewlest 0.0
katyshellokitty 0.0
pqgerry 0.0
rasarioatelier 0.0
anakhouri 0.0
romaneperry 0.0
hot_chip 0.0
agador 0.0
freddietinkles 0.0
cynthialovely 0.0
augustgettyatelier 0.0
tbsnetworks 0.0
ronyalwin 0.0
justinandersoncolor 0.0
mmillerrider 0.0
jpgaultier 0.0
harharharhar 0.0
iikeanangel 0.0
vonnypoo 0.0
jcoopkp 0.0
itzmero 0.0
katysprismlight 0.0
hatérs 0.0
awkwardaya 0.0
katysredskittle 0.0
tiedye_princess 0.0
adelshahal 0.0
marinadiamandis 0.0
samadizayee 0.0
itsslatykaty 0.0
johnlordperry 0.0
nuggetperry 0.0
kthnkzbye 0.0
teamkpbrasil 0.0
twenagedream 0.0
ashleyegreer 0.0
perryllover 0.0
perry_slays 0.0
_andresgalvis 0.0
poplitics 0.0
likerotica 0.0
sweetxjaureguix 0.0
jessiambriz 0.0
perryncolds 0.0
pwideawake 0.0
brunastrait_ 0.0
anafalqueto 0.0
pessoalmente 0.0
mark_hodson_ 0.0
sumtxkid 0.0
arpoador 0.0
katysmychampion 0.0
amnattg 0.0
osullivanluke 0.0
stephiruth 0.0
katy_pizza_bae 0.0
kpcatt 0.0
pedroeugeniio 0.0
gugs_prismatic 0.0
zeeusmtz 0.0
legendarycold 0.0
robynxkatheryn 0.0
écouter 0.0
energyberlin 0.0
karysjones 0.0
lilzariya 0.0
puroland 0.0
pavlovitz 0.0
dreamhampton 0.0
prismsperry 0.0
perrysmic 0.0
focusonreid 0.0
tonyatalterian 0.0
makeup_man 0.0
wtfkates 0.0
sella_sandra 0.0
katycute_ 0.0
caitsperry 0.0
katyperryforum 0.0
radiantjareau 0.0
lillysgomez 0.0
katycatsweden 0.0
perryicecream 0.0
xamyrosex 0.0
wtvrlara 0.0
bijanstephen 0.0
ameliashowalter 0.0
screamkng 0.0
tvmcgee 0.0
liiife 0.0
itskatcombs 0.0
yaaaaaasssssssssss 0.0
katysmyhabibi 0.0
skottpeace 0.0
ferras 0.0
kweens 0.0
habibi 0.0
orlandobloom 0.0
huckchinn 0.0
katycatkenzie 0.0
matarazzo 0.0
fkatwigor 0.0
perryschild 0.0
hotxcolds 0.0
maddisonxperry 0.0
akaruikaty 0.0
chillinlaidback 0.0
erryone 0.0
chrisanokute 0.0
beyelite 0.0
kuntyewest 0.0
chiroprac 0.0
katyperryrises 0.0
godneybjs 0.0
liquoronurlips 0.0
katystumblrr 0.0
holiestkaty 0.0
hollykittykaty 0.0
katysprincess 0.0
katysdonut 0.0
carlythekatycat 0.0
katycatsophia 0.0
fridaaperry 0.0
iegendarylovers 0.0
katycatveronica 0.0
katyperryslave 0.0
hakimkharbouch 0.0
keonovak 0.0
plaaaaay 0.0
scatting 0.0
shotted 0.0
dizzycoco 0.0
fkinsnapss 0.0
junkygs 0.0
ミニチュア料理 0.0
エビフライとエビ天 0.0
adidasboosts 0.0
lilithia 0.0
cottoncandizzle 0.0
ultimatebeyhive 0.0
paramorewebnews 0.0
royale_lala 0.0
musicnews_feed 0.0
katyperryextra 0.0
greeniight 0.0
gagas_illusion 0.0
lesbiyonce 0.0
blurryhface 0.0
lordofgiraffex 0.0
ifuseekamy_ 0.0
legendarymalek 0.0
hausoframez 0.0
unstan 0.0
chioekardashian 0.0
theiife 0.0
handstomyseif 0.0
legendarylovers 0.0
gagas_fandom 0.0
thinagedream 0.0
conditionalbabe 0.0
dannysuschrist 0.0
prismdluxe 0.0
herwonkeye 0.0
camilasviews 0.0
gagalovesbey 0.0
shadykatyfacts 0.0
limalimoncia 0.0
heavymetaiovers 0.0
katyscrush 0.0
waikingonair 0.0
eduardo_katycat 0.0
katyswetdream 0.0
katherynsgod 0.0
katystddbr 0.0
katyboobies 0.0
royaityler 0.0
nothingfaiis 0.0
kathrynluck_ 0.0
prismaticiights 0.0
mendesperry 0.0
katycatghita 0.0
mark_katycat 0.0
iwasdivine 0.0
skywaterr 0.0
xjojospearsx 0.0
alwaysbeperry 0.0
skoglyrihanna 0.0
legendarydurk 0.0
halseysfirework 0.0
rainbowspatrick 0.0
katysfood 0.0
honeymoonprism 0.0
onepulsetony 0.0
butcha 0.0
okurrr 0.0
the_mpt 0.0
talaofficial 0.0
miniatures 0.0
ohmyjurassic 0.0
katysmoonlight 0.0
lilly_jnes 0.0
coco_ho 0.0
perryhumorr 0.0
yikesjonathan 0.0
rubyrankin 0.0
thealekovski 0.0
cydney_moore 0.0
truebluedeluxe 0.0
thedutchass 0.0
katyskettle 0.0
ferraseu 0.0
katyssunlight 0.0
typosqween 0.0
adoreeeperry 0.0
katyperryfrance 0.0
snowiner 0.0
_coolkatycat 0.0
nicothekatycat 0.0
adorbies 0.0
jackygerardchan 0.0
brewmystew 0.0
katyswildfire 0.0
rihftperry 0.0
theolagu 0.0
ritajoness 0.0
iitsjackie 0.0
mjjperry 0.0
jesuskylie 0.0
holyerotica 0.0
graceofkaty 0.0
redsvelvets 0.0
booyakasha 0.0
tariqterry 0.0
katycatalannah 0.0
taylxre 0.0
pacifyher 0.0
basedkatyperry 0.0
diddleurskittle 0.0
katysanalien 0.0
gagasspace 0.0
tayiorhq 0.0
givenchydress 0.0
augustryder 0.0
perrysmoschino 0.0
kittehn 0.0
katrieber 0.0
legendaryhunty 0.0
katyslegs 0.0
katyfroot 0.0
winesandlines 0.0
sam_incolour 0.0
wakingonair 0.0
drwssinup 0.0
huffdaddysays 0.0
fiwwwwine 0.0
matthewroper 0.0
emmabruhhh 0.0
gingerwesson 0.0
nicholas_sewell 0.0
perfectlyperry 0.0
bustabusta 0.0
mynameisziam 0.0
venuzszfly 0.0
katherynsus 0.0
sacredperry 0.0
thedollsftkaty 0.0
_cafajeff 0.0
debkatycat 0.0
katycats 0.0
eastonjames_ 0.0
oliviabooker_ 0.0
protecti 0.0
outrageousness 0.0
joanneprada 0.0
scuffed 0.0
catoure 0.0
blanged 0.0
tahmorrow 0.0
glukatyperrypop 0.0
jamesjoint 0.0
pressin 0.0
bourree 0.0
honeysuckle 0.0
meowings 0.0
fashun 0.0
happun 0.0
vikander 0.0
thekatyperrypopgame 0.0
karolfabianaros 0.0
nico_thekatycat 0.0
miss_lilyjames 0.0
stylinfunk 0.0
hudsontheband 0.0
jere_my 0.0
crabitat 0.0
tiersz 0.0
unrehearsed 0.0
fanclub_kp 0.0
oneofthesophies 0.0
fusterlandia 0.0
lazyblazy 0.0
katycatchloe 0.0
figali 0.0
prismaticness 0.0
titicaca 0.0
ancientaliens_ 0.0
sneezin 0.0
cristos 0.0
mallman 0.0
prismaticlife_ 0.0
ravensuxx 0.0
perrypositive 0.0
derkwhore 0.0
alekjandro 0.0
havss_ 0.0
hqzaynmaiik 0.0
thique 0.0
bbhmms 0.0
jkatharineb 0.0
jennyformica 0.0
tiiiiiight 0.0
ikissedagay 0.0
harryvuitton 0.0
aeschleahd 0.0
princessjavonda 0.0
errrythang 0.0
kooning 0.0
sugarray 0.0
empaths 0.0
goldenboyz_inc 0.0
voguejp 0.0
chickenwingguardingthemimosa 0.0
katyperrypopup 0.0
unmeasurably 0.0
transviolet 0.0
beauteous 0.0
katyskidrauhl 0.0
thooooooseee 0.0
clairesstores 0.0
nailsbymh 0.0
katysacutie 0.0
psychokatycat 0.0
kaceymusgrave 0.0
refueled 0.0
hyungsunju 0.0
okuurrrr 0.0
cholewheeler 0.0
leftshark 0.0
momchella 0.0
crotches 0.0
hookedondolls 0.0
fyuseapp 0.0
mogonoloball 0.0
atletica 0.0
katycatsclub 0.0
catacombs 0.0
poppycorn 0.0
cupped 0.0
christiania 0.0
residenz 0.0
lindseyweber 0.0
butterballface 0.0
joshlecash 0.0
myassistant 0.0
swiftschrist 0.0
snowhiteperry 0.0
emmakphughes 0.0
katyslegend 0.0
dansnierson 0.0
scressful 0.0
prismaticwitch 0.0
finnin 0.0
habibis 0.0
mophies 0.0
strongé 0.0
drumkit 0.0
anamanaguchi 0.0
gaultier 0.0
ngvmelbourne 0.0
dukedumont 0.0
legendaryasmyn 0.0
highlarious 0.0
calpurnia 0.0
waaaaait 0.0
mktfah 0.0
fwding 0.0
caseyhoops 0.0
worldstarvlne 0.0
flapfkp 0.0
bettycrocker 0.0
mexxxico 0.0
whhhhhhhhuuuuuutttt 0.0
yelletweets 0.0
gucciqxxn 0.0
luckyladyrebelettes 0.0
junglejulia 0.0
charlottes_web 0.0
istarbucksniall 0.0
katysroaaar 0.0
fiorucci 0.0
whuteva 0.0
sirdavidd 0.0
fudgery 0.0
bizquick 0.0
itsgrandtheft 0.0
grandtheft 0.0
katysfancy 0.0
ameezyyrush 0.0
mykectown 0.0
itsvalkubus 0.0
walkslikeperry 0.0
iwantperry 0.0
exausto 0.0
selfeh 0.0
aquaberry 0.0
sidepiece 0.0
versacness 0.0
iamleslii 0.0
alocalgyro 0.0
cutina 0.0
theoutslder 0.0
prism_katy_cat 0.0
katyshoodrat 0.0
thestevetisch 0.0
ronysphotobooth 0.0
schlitterbahn 0.0
kpsnosecrinkle 0.0
alwz_katycat 0.0
whykph 0.0
californiagurls 0.0
katycattt 0.0
varicose 0.0
itsbrillz 0.0
perrystiger 0.0
katysmyaura 0.0
paolablancokp 0.0
callmemargot 0.0
indiggynado 0.0
katycat 0.0
anylinden 0.0
kpkillerqueen 0.0
katyslilacwine 0.0
katypvenezuela 0.0
franzikaty 0.0
katherynelperry 0.0
doessss 0.0
katysleftarm 0.0
datingprism 0.0
_smiler_katycat 0.0
kepyterry 0.0
katycat_camille 0.0
vckatyperry 0.0
bowzerjoe 0.0
taishrox 0.0
mütter 0.0
arianperryarian 0.0
lisasigh 0.0
fridiskp 0.0
kevinruda 0.0
katyperrydaily 0.0
wakingupvegas 0.0
marlyins 0.0
drankin 0.0
herkatycat 0.0
luvhudson 0.0
yaeltsairi 0.0
felipinhoofm_ 0.0
renanmarcall 0.0
kariseperry 0.0
emojing 0.0
konnie 0.0
mcperry 0.0
iturnmycanonon 0.0
katycatelysha 0.0
andrewnavs 0.0
katycatkrystal 0.0
lovelyandlaugh 0.0
lampoonians 0.0
perrytuuda 0.0
katymyhaven 0.0
ruletheschool 0.0
cheapandchic 0.0
sically 0.0
crazyforperry 0.0
kpdaily 0.0
getonupmovie 0.0
cutetina 0.0
chimiuzz 0.0
kefali 0.0
joelkefali 0.0
siclly 0.0
mtvother 0.0
lydiaacav 0.0
prismaticperry 0.0
jwujek 0.0
adorbie 0.0
errone 0.0
kaliyah 0.0
katysweirdness 0.0
vinbiodiesel 0.0
katysfxb 0.0
katyspurrfect_ 0.0
shannonmwoodward 0.0
bippity 0.0
boppity 0.0
swiggty 0.0
swoogity 0.0
pizzarella 0.0
firewerk 0.0
katyslayed 0.0
emerald_epelman 0.0
madkatydisease 0.0
mandee 0.0
ohferras 0.0
sarahh 0.0
iaustinhunt 0.0
lanawhore 0.0
spaceykacey 0.0
crazay 0.0
elektrikpeople 0.0
visa_nz 0.0
fvckin 0.0
nathanspicer 0.0
cashcash 0.0
ashish_uk 0.0
xokatic 0.0
turnting 0.0
scorpiomystique 0.0
toddthomasnyc 0.0
kohngallery 0.0
discnt_universe 0.0
dressinkaty 0.0
lee_cook 0.0
bloodshot 0.0
yaddlizc 0.0
elnett 0.0
itsthekatycats 0.0
kelly_moritz 0.0
katyslaykaty 0.0
skintxghtjeans 0.0
socarrer 0.0
errrday 0.0
therealslacker 0.0
wendywild 0.0
welkys 0.0
sohohouse 0.0
selfing 0.0
camiilaruales 0.0
nexxxt 0.0
turrell 0.0
alliexxxxandra 0.0
surfboardt 0.0
telstra_news 0.0
juanitadele 0.0
oopskatycat 0.0
sophkatycat 0.0
katyschild 0.0
katysconverrse 0.0
katycat_leah 0.0
katycatverified 0.0
katycat_libby 0.0
katyswonk 0.0
kittless 0.0
jlrcukp 0.0
siiiiiiiiiiiiii 0.0
ermagherd 0.0
imlynsey 0.0
perrys_cherry 0.0
casemcgase 0.0
hazzaily 0.0
herses 0.0
gaypropaganda 0.0
tixforcharity 0.0
hudsons 0.0
nomers 0.0
mommacat 0.0
superlove 0.0
bonacorso 0.0
levi_leet 0.0
thinkingofbecki 0.0
cybering 0.0
pamyurin 0.0
idreamofkaty 0.0
xfactor_au 0.0
glohudsonperry 0.0
aubreyplzza 0.0
eeshhuhhayniac 0.0
bonkay 0.0
katysbum 0.0
nevillebradley 0.0
curryswift 0.0
zinepack 0.0
katykatt_suraya 0.0
sweetkatybird 0.0
yohkatheryn 0.0
cottoncandykaty 0.0
karolynadiaz 0.0
maayansharvit 0.0
theprismcess 0.0
camisp_ 0.0
lucasgaldin 0.0
prixy_mtz 0.0
niggasperry 0.0
kaksperry 0.0
zennnnaaa 0.0
katyissmurfy 0.0
dadehoward 0.0
kyledsaavedra 0.0
katysdoritos 0.0
pendejabardera 0.0
rosenilsou 0.0
hackensucks 0.0
gottabesheerio 0.0
ismaellgarcia 0.0
milegendz 0.0
alexskarev 0.0
ladycrystalb 0.0
katyspad 0.0
xcallmechrissyx 0.0
arianastylesss 0.0
jorgebaker 0.0
matty_zee 0.0
katycatzilla 0.0
adorie 0.0
meowwdison 0.0
alvin_koopa 0.0
lexyauditore 0.0
kease_it_raw 0.0
katysking 0.0
chris__kirby 0.0
katysbestfrwend 0.0
katyslildancer 0.0
sssshhh 0.0
conorhughess 0.0
tanimura 0.0
thekatycatlife 0.0
weefififookface 0.0
breakalioz 0.0
hudsonhelper 0.0
lariitaa 0.0
meeeeeooooooooowwwww 0.0
legend__dary 0.0
katyandliam 0.0
_theatrekid 0.0
babybritney 0.0
erinlorimer 0.0
_zacmoore_ 0.0
itscezzurryo 0.0
katycatskp 0.0
larissafilipo 0.0
siaylorswift 0.0
shitkittens 0.0
thefrankradical 0.0
katysprism 0.0
katytinalevine 0.0
serjeeoh 0.0
kayz_perry 0.0
katyslaysurfav 0.0
fuckyeahitskath 0.0
sweetyitosan 0.0
pickerington 0.0
verrado 0.0
retweete 0.0
jameswaterhouse 0.0
hunnah 0.0
truth_ispeak 0.0
_emilybarbarrr 0.0
nbllrrr 0.0
jmoneygraves 0.0
eaglenationnews 0.0
tauentzienstrasse 0.0
avontbh 0.0
vinnie_mate 0.0
demilovve 0.0
coolestkatycat 0.0
terri_katycat 0.0
beeeaaatttt 0.0
laurenfrancisco 0.0
victaytayp 0.0
aylajaye 0.0
iloveu 0.0
augustvaz 0.0
lizzievang_ 0.0
edsssss_ 0.0
hhhhhholly 0.0
holly_hickin 0.0
trixxx 0.0
killah 0.0
treasurefingers 0.0
最強ガール宣言 0.0
voykovic 0.0
annunaki 0.0
katyshomie_ 0.0
katyselephant 0.0
caitlynsmith 0.0
lightsperry 0.0
elizagilham 0.0
ohmyjatyfeels 0.0
junglescope 0.0
drunkskaty 0.0
malikpom 0.0
dancerlaurena 0.0
brirad 0.0
elisa_rv 0.0
moooom 0.0
pattymeagher 0.0
iwasemily 0.0
shahrzadphoto 0.0
tvjohnny 0.0
cstonethebreadwinner 0.0
katysrightboob 0.0
cyberdlck 0.0
beatforkaty 0.0
igabriiel 0.0
duuuuddddeeeee 0.0
redrum 0.0
srbuhiii 0.0
kayleighcat 0.0
applekatycat 0.0
ikatycats 0.0
wehryspencer 0.0
emilyjonesphoto 0.0
coxgabe 0.0
drugmoneyx 0.0
steven_drum 0.0
victoriacha 0.0
hashtaggin 0.0
perryandemetria 0.0
katycatfurlife 0.0
iammelissalynn 0.0
qewtie 0.0
yscheecat 0.0
slayty 0.0
katystree 0.0
katherynsboy 0.0
anapurry 0.0
nenedez 0.0
kevinn_perry 0.0
gloria_swag_ 0.0
andyamaziing 0.0
roarsana 0.0
brighthudson 0.0
fixingperry 0.0
roooooooooooooar 0.0
gretschusa 0.0
katys_cupcake 0.0
wonderation 0.0
kasek_craig 0.0
katysgurll 0.0
pepperperry_ 0.0
teamkatyperry 0.0
meandnutella 0.0
lovatokitten 0.0
katyslolly 0.0
astixxx 0.0
ravemomentz 0.0
erzaabrianto 0.0
katyperryindo 0.0
seeingdaisies 0.0
gillian_e_dubbs 0.0
samanthachazene 0.0
perryprism_ 0.0
katycompletesme 0.0
ltskatyperry 0.0
kittenscks 0.0
nihanofficial 0.0
momcat 0.0
kaytehperreh 0.0
__grazi 0.0
clairekatycat 0.0
fangurl 0.0
rrrrrrrrrrrroooooooooooooaaaaaaaaaaaaar 0.0
marispiva 0.0
mattdrobins 0.0
deihemmings 0.0
rooaaarr 0.0
katycatobsessed 0.0
katycatnick 0.0
tigerkats 0.0
kristenanzelc 0.0
taylermckellop 0.0
essesfadaperry 0.0
imjare 0.0
smganonymous 0.0
roaaaar 0.0
phuckyotweet 0.0
evvvvvverrrr 0.0
melvynmarrero 0.0
zouisashton 0.0
trillneyspears 0.0
rooooooar 0.0
fanwars 0.0
fentyncold 0.0
ttish_ 0.0
rachelacogan 0.0
makesmariana 0.0
kkaplon 0.0
rafaelmoncada 0.0
yaaaassssgrl 0.0
oioianna 0.0
katycatrazan 0.0
megaan_katycat 0.0
thekaelynn 0.0
hannahloupunton 0.0
thumbelinafairy 0.0
nic_kathryn 0.0
dannahfields 0.0
rodneybroaddus 0.0
noxisanasshole 0.0
soedesh__ 0.0
hookerofversace 0.0
thinkingofkaty_ 0.0
msgracevalerie 0.0
francfernandez 0.0
katysring 0.0
a_little_spark 0.0
laaxiss 0.0
