awesome 0.000986946405969
christmas 0.000182272502987
trying 0.000361869826034
moment 0.000529201535633
wonderful 0.0
seeing 0.000270370660313
recommend 0.0
anybody 0.0
worked 0.000106728557364
direct 0.0
others 0.0
currently 0.000117401166407
better 0.000325444678976
please 0.000494790824545
social 0.000110557809085
around 0.000260355743181
people 0.000781067229543
leaving 0.000372556356453
morning 0.00107977268417
general 0.0
investigate 0.0
damage 0.0
everything 9.81611531059e-05
twitter 0.000328087004823
though 0.000340709710289
friend 0.000296075312209
watched 3.69528942259e-05
beautiful 0.000337052990032
anything 0.000266031297477
helped 0.000251064320881
managing 0.0
updated 0.0
thinking 3.3433716332e-05
finally 0.000468072028648
caught 0.000110557809085
believe 9.78969218115e-05
already 0.000326323072705
couple 7.15386571953e-05
orlando 5.57224874334e-05
research 4.38653070544e-05
chance 0.000654407687373
meaning 4.83889514734e-05
annual 0.0
quickly 0.0
growing 7.84826145026e-05
probably 0.000106440127601
should 0.0
changed 3.50035410801e-05
history 0.000202231794019
center 0.00021443226139
museum 0.0
behind 0.00117160084431
pretty 0.000300903446988
really 0.000523526149898
expensive 5.62634051692e-05
little 0.00150108613444
earlier 3.82856098306e-05
realized 0.000284067328042
forget 0.000232150668871
someone 0.000164930274848
mostly 4.9699644091e-05
worker 0.0
safety 4.74048105006e-05
shuttle 0.0
program 0.000182086189337
things 0.000390533614771
related 0.0
visiting 0.000270790731416
available 0.000203875002656
afternoons 0.0
perfect 0.000170354855144
different 6.65078243692e-05
numbers 8.17985574241e-05
delays 0.0
person 0.000196852202894
watching 0.00115140399192
passed 0.0
celebrates 6.52043767791e-05
minutes 0.0
travel 4.0004529081e-05
daughter 0.000118698639371
average 4.68555237417e-05
positive 7.76261687804e-05
outside 0.0
looking 0.000424219994517
forward 0.000268916155172
plenty 9.70640086197e-05
agreed 0.0
raising 0.0
listened 0.0
afraid 4.22892893237e-05
impression 6.01193259147e-05
drawing 0.000116654869527
favorite 0.00053162452755
magnet 0.0
picture 0.000626667785455
historic 0.000148211349763
instead 0.000110557809085
appreciate 0.000384955748679
husband 0.000102130693243
international 4.04488290587e-05
market 0.000176458764682
couldn 0.000817703304694
remember 9.81611531059e-05
impressive 0.000135008698257
familiar 0.0
friends 0.000263178055297
despite 4.6449558379e-05
impossible 4.44923874937e-05
everyone 0.00134153575911
florida 0.0
always 0.000650889357952
months 0.000102489103946
moving 3.5193305279e-05
meeting 0.000201143953838
google 0.000329014906649
answer 0.000134095969226
together 0.000229660903376
inside 0.000136283884116
smaller 6.24525015789e-05
missed 0.000364808193941
active 0.0
longer 0.0
enough 0.000496126439656
driving 0.000200022645405
building 0.0
technician 0.0
enjoying 4.0004529081e-05
london 0.0
kennedy 0.0
recent 0.0
gotten 0.0
amazing 0.00133792459809
attention 7.41069908865e-05
richard 0.0
progress 0.000272346650464
tomorrow 0.000818009609216
george 0.0
excited 0.000478282485082
campaigning 0.0
understand 0.000107017841735
following 0.000137391787582
learning 0.000243365149912
evening 7.49180784635e-05
special 0.000230902384788
secret 0.000146611772359
across 0.000109660711774
comparison 0.0
surprised 0.000117079474505
anymore 0.000208514433249
rather 0.0
showing 6.98181446232e-05
saying 0.000170815173244
tweeted 4.32500814007e-05
updates 4.754359309e-05
thoughts 3.47209534762e-05
exactly 0.000176920912353
except 8.34057732996e-05
getting 0.000785289224847
nothing 0.000163601921843
tweets 3.606120919e-05
course 0.000304166992852
stephen 0.0
looked 0.000148617634411
difficult 0.0
stages 0.0
office 0.000106152547412
decisions 0.0
brought 3.62572607943e-05
biggest 3.37052990032e-05
thrilled 4.98485892841e-05
entire 0.000109067193815
something 0.000261763074949
closing 4.86756887282e-05
anyone 0.000560762934485
taking 0.000458085381161
recently 0.0
interesting 0.0
original 0.000116120709972
flying 0.000123380589993
happening 0.0
sometimes 0.00014424483676
stopped 7.67808460446e-05
yesterday 0.00105555375903
service 3.59636245055e-05
serious 7.00070821602e-05
emails 0.0
afford 5.28163270594e-05
british 4.76829700392e-05
contact 0.000224372593543
either 3.56726139116e-05
second 0.000164930274848
accident 6.0324654469e-05
checking 8.48156970728e-05
volunteers 0.0
indeed 4.46192666715e-05
island 0.00018526141679
hearing 3.65535705914e-05
choose 0.0
staying 4.42401035334e-05
another 0.000848439989033
address 4.41146911705e-05
display 0.000117043461343
originally 7.58687890788e-05
compare 0.0
landing 5.97125147689e-05
perhaps 0.0
weekend 0.000232150668871
appear 9.9102754932e-05
anyway 0.0
theory 0.0
recognize 0.0
working 0.000294483459318
bigger 0.0
screen 8.84802070668e-05
treated 0.0
laughing 0.00294979441365
wanted 0.000165375479885
current 0.0
grateful 0.000213830699376
friendship 0.0
family 0.000425364996792
listening 0.0
stream 4.50028994191e-05
wedding 4.9699644091e-05
sharing 7.69911497358e-05
double 0.000333481458989
especially 3.62572607943e-05
middle 0.000225367318492
waiting 6.70479846128e-05
definitely 0.000107307985793
walking 0.000313930458011
account 0.000153561692089
completely 0.0
thought 0.000329860549697
reaction 0.000134239927327
accept 0.0
possible 0.0001038819008
simple 0.0
manufacturing 0.0
destroyed 0.0
professional 4.85320043099e-05
friendly 4.86756887282e-05
members 4.12412552517e-05
supposed 0.0
astronauts 0.0
component 0.0
business 0.000458751851159
absolutely 0.0001750177054
sending 0.000113919541618
delivering 0.0
heavily 0.0
biased 0.0
introducing 5.24908796684e-05
congrats 0.00127087403514
community 0.0
greatest 0.000178846642988
posted 0.00263206942604
saturday 0.000379873073686
wednesday 0.000118372651076
confused 0.0
explain 0.000152724532474
broken 4.05608583187e-05
chicago 0.000222461937468
fairly 0.0
hoping 3.93492492007e-05
relationship 0.0
actually 0.000268191938451
basket 0.0
myself 8.57729045561e-05
pocket 0.0
argument 0.000100902563679
decent 5.81342919541e-05
school 0.000399046946215
thursday 0.00185518767724
selling 4.47466424423e-05
talented 0.0
discuss 0.0
celebrate 3.61590873627e-05
celebrating 0.000117079474505
anniversary 0.000118698639371
contest 0.00042646270613
internet 4.06732745545e-05
figure 0.000117401166407
inspired 3.95662131236e-05
sitting 0.000147811576904
complaining 0.0
playing 0.000166269560923
street 0.000108771782383
points 0.000125808543977
advice 3.83904230223e-05
forever 0.000110858682678
congress 0.0
imagine 0.000109363501792
problem 0.000105294854602
played 7.31071411829e-05
canadian 0.0
pulling 0.0
keeping 3.65535705914e-05
lovely 0.000123380589993
chinese 0.0
unlike 0.0
allowed 0.0
otherwise 0.0
afternoon 7.69911497358e-05
planned 0.0
strange 0.0
notice 0.0
difference 0.000107307985793
author 0.0
intent 0.0
letting 8.04518417458e-05
system 4.0899278712e-05
almost 0.000261763074949
details 0.000250385300184
experience 0.000239141242541
viewed 0.0
living 0.000136652138595
bright 0.0
normal 0.0
practically 0.0
before 7.09600850676e-05
monday 0.00027330427719
realize 4.69919787336e-05
currency 0.0
sleeping 5.20087305846e-05
wanting 0.0
science 0.0
tweeting 0.000149428714117
forgot 8.20257441671e-05
herself 0.0
disaster 5.01485404203e-05
happens 0.000101662864287
silence 5.15336204255e-05
congratulations 0.00010818362757
natural 0.000139348675137
raised 8.55322797504e-05
mission 0.0
ironic 0.0
testing 0.0
deleted 0.0
channels 0.0
surprising 0.0
reference 0.0
forgotten 9.73513774565e-05
trouble 8.08976581174e-05
setting 0.0
reminds 4.63153541975e-05
fantastic 3.86010675628e-05
loving 7.72021351257e-05
hardly 0.0
complete 0.000112683659246
membership 0.0
nearly 0.0
spirit 4.24078485364e-05
launched 0.0
stories 7.07683649414e-05
including 0.000145422925086
inviting 0.0
wouldn 3.52886039353e-05
choice 3.49090723116e-05
offended 0.0
conversation 0.000238707799146
disrespectful 0.0
making 0.000881072296304
expect 0.0
discussion 0.0
believes 5.73729831358e-05
occasions 0.0
response 0.000115486724604
brings 0.0
subject 0.0
greetings 0.0
anytime 0.0
protected 0.0
location 0.0
thomas 0.0
missile 0.0
needed 6.98181446232e-05
seriously 7.23181747255e-05
spending 8.1346549109e-05
groups 0.0
modern 0.0
welcome 0.000198450575862
totally 7.55330966058e-05
evenings 0.0
laughed 0.000620156565246
running 0.000583915097225
finished 0.000430470943491
strong 0.000235937093022
hopefully 4.15868634685e-05
respond 0.0
message 6.94419069525e-05
coming 0.000228426150894
thankful 0.000257668102128
temporary 0.0
issues 0.0
challenge 0.000143465326218
happen 0.000100031070252
giving 0.000429976247702
turkey 0.0
common 0.0
pressed 0.0
healthcare 0.0
benefits 0.000102753558626
situation 4.27661398752e-05
workers 0.0
company 0.000148213981773
health 0.0
insurance 0.0
change 3.27203843686e-05
august 0.000277090206985
mental 4.86756887282e-05
carrier 0.0
neither 0.0
lowest 0.0
decide 8.11217166374e-05
happened 0.0
demand 0.0
generally 0.0
personal 7.11523715761e-05
beyond 3.65535705914e-05
passion 0.000148654132398
question 0.0
doctor 0.0
sacrifices 0.0
respected 0.0
position 0.0
increased 0.0
losing 4.03371841194e-05
strain 0.0
respect 0.000143077314391
collapse 0.0
shouldn 7.8267444271e-05
career 0.000189865902696
visited 0.0
challenger 0.000189335179596
reason 6.8881597015e-05
simply 4.0899278712e-05
audience 4.52611902026e-05
employees 0.0
accounts 0.0
attacked 6.40293586145e-05
involved 0.0
extreme 0.0
unhappy 0.0
caused 0.0
knocked 7.09470576394e-05
reality 3.89196130218e-05
mention 0.0
extremely 4.754359309e-05
burned 0.0
without 0.000164930274848
falling 4.82465246907e-05
problems 4.03371841194e-05
timing 0.0
highly 9.31686365461e-05
online 7.03866105579e-05
animals 0.0
called 0.000164486284561
scientists 0.0
pictures 0.000124068152016
camera 8.55322797504e-05
heading 0.000272437291153
terribly 0.0
theater 0.0
paying 4.2526841239e-05
complex 0.0
sunday 0.000304166992852
nights 4.82465246907e-05
enthusiastic 0.0
increasing 0.0
traffic 0.0001473317636
opposite 0.0
lookout 0.0
reached 0.0
changing 8.02300734365e-05
harder 0.000136564642003
silent 5.55441611357e-05
speaking 7.49180784635e-05
careful 0.0
november 0.0
answered 0.0
number 3.35239923064e-05
atlantic 0.0
stupid 0.0
budget 0.0
unless 0.000121011552358
calling 0.0
lately 0.000284994523368
levels 0.0
focused 0.000106290123707
ridiculous 9.02635771386e-05
financially 0.0
knowing 0.0
former 0.0
covers 0.0
mountain 0.00034650846867
suffers 9.07687234967e-05
schedule 0.000152270597829
greatly 0.0
friday 0.000265315050139
dramatic 0.0
failure 0.000210612786212
achieve 0.0
winner 3.63557312716e-05
closes 6.69241072178e-05
bother 0.0
directly 0.0
quality 8.45785786474e-05
tearing 0.0
father 0.000149022542581
wishes 0.000170585082452
collar 0.0
ground 0.000212039242682
matter 0.0
strategy 0.0
themselves 5.71854064326e-05
asking 6.92546005332e-05
mobile 0.000217290038102
device 0.000143046161916
computer 0.0
impressed 9.9102754932e-05
complain 0.0
dinner 0.000108477262088
suffering 0.0
single 0.0
parent 0.0
packed 0.0
catching 0.000241944757367
neglected 0.0
somewhat 0.0
approved 0.0
definition 0.0
energy 0.0
meltdown 0.0
events 8.11217166374e-05
europe 0.0
holiday 0.000112991166283
status 0.0
update 0.000496354730539
outage 0.0
customers 0.0
holding 7.74138066481e-05
survive 0.0
electric 5.85217306716e-05
picked 0.000122358241346
missing 3.49090723116e-05
surprise 7.00070821602e-05
german 0.0
officially 0.000152724532474
french 8.41069176284e-05
global 0.0
follow 0.000263178055297
opinion 0.0
design 0.00034582648278
allows 6.15845976678e-05
promoting 0.000225053620677
volunteer 0.0
negative 0.0
official 0.000473148655548
brutal 5.69989046735e-05
cotton 0.0
jersey 0.0
mistake 0.0
fixing 0.0
france 0.0
proper 0.0
peaceful 6.90076645451e-05
thinks 3.81811331184e-05
competition 4.42401035334e-05
industry 4.61817011641e-05
easier 0.0
successful 4.47466424423e-05
trending 5.41516720314e-05
leadership 5.12206904386e-05
agrees 0.0
organized 0.0
enthusiasm 0.0
turnout 0.0
showed 0.000205634316655
attended 0.0
trumps 0.0
networks 0.0
experienced 0.0
interested 4.20534588142e-05
effect 0.0
dislike 0.0
success 0.00018476447113
dreams 0.0
protect 0.000125808543977
rumors 0.0
arguing 0.0
referred 0.0
waving 0.0
growth 0.0
control 3.65535705914e-05
happier 5.97125147689e-05
likely 4.37413279792e-05
coincidence 0.0
cancel 0.0
project 3.69528942259e-05
laying 0.0
lesson 0.000227607736672
replacement 0.0
invited 0.0
continuing 0.0
clearance 0.0
treating 0.0
allowing 0.0
arrived 0.000197831065618
unable 0.0
opening 0.000142304743152
popular 0.0
followed 4.34947778008e-05
statement 4.24078485364e-05
enjoyed 0.0
spectacular 5.97125147689e-05
smoothly 0.0
length 6.44942874916e-05
wonder 0.000141920170135
matters 0.0
function 0.0
shared 0.0
connection 0.0
benefit 0.000205064360418
terrible 4.17028866498e-05
continues 0.000398943954128
equally 0.0
session 0.000128298419626
routine 6.64234132205e-05
associated 0.0
exciting 3.92413072513e-05
imagination 0.0
decides 0.0
cheering 0.00012945853324
spring 0.0
fallen 0.0
beautifully 0.0
places 0.0
entered 0.0
feedback 0.0
thousands 0.0
properly 5.9511000392e-05
informed 0.0
typical 0.0
continue 0.0
attend 4.92568553844e-05
excuse 4.74048105006e-05
female 0.00078512074945
recovery 0.000108303344063
closer 0.000205064360418
beginning 0.000164507453324
introduce 5.75616472461e-05
bought 8.0009058162e-05
multiple 0.0
slogan 0.0
covered 0.0
choices 5.29802793855e-05
unpredictable 0.0
enterprise 0.0
several 0.0
surrounded 0.0
dealing 0.0
teacher 4.88200103302e-05
training 0.00508894182437
auditorium 0.0
passing 0.0001327203106
become 3.41630346487e-05
presentation 0.0
spread 3.73571785292e-05
sooooo 0.0
season 0.00028848967352
putting 0.000240435628269
weight 0.000509107407825
stephanie 0.0
rapidly 0.0
follows 6.07392392844e-05
explained 0.0
stance 0.0
storms 0.0
headed 8.65001628013e-05
sleepy 0.0
returns 4.38653070544e-05
expected 0.0
resources 0.0
considering 0.0
fabric 0.0
suspect 5.87171935288e-05
constantly 0.000120649308938
condolences 0.0
appreciated 0.000103067240851
register 4.86756887282e-05
manage 0.0
transition 0.0
smooth 0.0
flowers 0.0
gained 0.0
savage 0.0
somebody 0.0
contract 0.0
furious 0.0001448133909
covering 5.06037152233e-05
boxing 0.000868880345402
credit 4.03371841194e-05
patriots 0.0
player 9.13050223292e-05
chemistry 0.0
grandkids 0.0
offensive 0.0
charles 0.0
fighting 0.000670601441615
atlanta 0.00011325815439
donald 0.0
mexico 4.72666172233e-05
unreal 0.0
police 4.21711604539e-05
represent 0.000110733613297
president 0.0
talking 0.000164043502411
unbelievable 5.20087305846e-05
alabama 0.0
slowest 0.0
conference 0.000486730299825
america 3.48148769697e-05
michigan 0.0
everybody 0.000282360288836
judgment 0.0
carolina 0.0
amount 0.0
houston 0.0
everyday 0.0
michael 0.0
protecting 0.0
million 0.000137391787582
election 0.0
honesty 0.0
telling 3.71544086029e-05
correct 0.0
pulled 4.91105878668e-05
attack 0.0
americans 0.0
salaries 0.0
killed 0.000109363501792
louisville 0.0
horrible 0.0
coverage 0.0
dallas 0.000107963453286
jacksonville 9.84268952448e-05
league 5.04512818397e-05
united 0.0
college 0.0
refuse 0.0
barackobama 0.0
hillary 0.0
clinton 0.0
presidency 0.0
manning 0.0
stupidity 0.0
american 3.47209534762e-05
remain 0.0
founder 0.0
illegal 0.0
arizona 0.0
opinions 0.0
retire 0.000145413293173
triumph 0.0
stealing 0.000134354745675
speeches 0.0
innocent 0.0
scared 0.000191854110138
golden 0.000176458764682
straight 3.62572607943e-05
removed 0.0
answers 0.0
product 5.24908796684e-05
created 3.93492492007e-05
snoopdogg 0.0
worlds 0.000123598826835
record 0.000102489103946
stamina 0.0
weapon 0.000132846826441
funeral 0.0
registered 0.0
minnesota 0.0
committed 0.0
journey 0.000170107364956
disrespect 0.0
brother 0.0
prayers 0.0
documentary 9.79299495842e-05
boston 0.000330866320563
addition 0.0
korean 0.0
church 0.0
advantage 0.0
honestly 0.0
defeat 0.0
baltimore 7.58687890788e-05
lifetime 0.0
captain 0.000111088322271
retired 0.0
country 3.37963325392e-05
valley 0.0
mailbox 0.000115497264959
speedy 8.50106077449e-05
ending 8.79795204764e-05
finish 0.000362033287856
employee 0.0
university 0.0
remembered 0.0
nominated 0.000245552939334
praying 0.0
insane 0.0
national 7.07683649414e-05
reform 0.0
oregon 0.0
shooting 0.000327194229696
cancer 4.11268633311e-05
australia 0.000194128017239
deserve 0.000120345110155
legend 0.000218089097069
mother 0.00014581800239
murder 0.0
creating 0.0
powerful 0.0
carson 0.0
palmer 0.0
branch 0.0
breaking 0.000281546442232
dollars 0.0
questions 0.000335239923064
racist 0.0
charged 0.0
girlfriend 0.0
performance 3.7869700427e-05
refreshing 0.0
reading 0.000104162860429
corrupt 0.0
penalty 0.0
writer 0.0
denver 6.84741367291e-05
create 0.0
admire 0.0
nobody 4.01150367183e-05
government 0.0
politics 9.26307083951e-05
comeback 0.000119830569391
charities 0.000153761231383
method 0.0
sample 0.0
bringing 3.67526199453e-05
celebs 0.0
stadium 0.0
funniest 5.97125147689e-05
according 0.0
threat 0.0
heroin 0.0
honest 0.0
rolling 0.0
became 4.0899278712e-05
feature 0.000269247112252
decision 0.0
counting 0.0
verified 0.0
signing 0.000471750975058
adding 5.18495886152e-05
embrace 0.0
pressure 0.000177969549975
celebrities 0.0
dearly 0.0
facebook 0.00010501062324
divided 0.0
extension 0.0
lawyer 0.0
charleston 0.0
brazilian 8.50106077449e-05
basketball 0.0
campaign 0.000113919541618
determine 0.0
whether 0.0
praise 5.55441611357e-05
factory 0.0
arrested 0.0
investments 0.0
activity 0.0
comments 3.98943954128e-05
wounded 0.0
endorsement 0.0
williams 0.0
future 6.74105980063e-05
struggled 0.0
blessed 0.0
sabotage 0.0
warrior 6.95500848996e-05
softball 0.0
cheating 0.0
voting 0.000322697472955
instincts 0.0
collins 0.0
succeed 0.0
commercial 0.00062824326192
religion 0.0
boring 0.0
acting 4.68555237417e-05
established 0.0
warriors 0.000134865249749
because 4.71290082746e-05
sensitive 0.0
smiling 5.7751411445e-05
traitor 0.0
cleveland 0.0
agents 6.98247233894e-05
periscope 0.0
killing 0.0
choosing 0.0
phillips 0.0
instagram 0.000136173325232
opponent 0.0
detroit 6.07392392844e-05
cousin 6.42609928159e-05
honored 0.000408519975696
nonsense 0.0
dedication 0.0
hammer 0.0
proven 0.0
talent 8.72356388277e-05
governors 0.0
knocking 0.0
russian 0.000108988497082
consecutive 0.0
skills 4.53911084106e-05
citizens 0.0
cameras 0.0
phones 6.0324654469e-05
california 4.68555237417e-05
commitment 5.41516720314e-05
maryland 0.0
seconds 0.000131223983938
placed 0.0
listen 0.000101388997617
dominating 0.0
whatever 3.75612197487e-05
wherever 6.26731428843e-05
fought 0.000264901396927
compete 0.000122742381113
lauderdale 0.0
injured 5.79422886367e-05
billion 4.68555237417e-05
shoutout 0.000185398240252
depressing 0.0
guilty 0.0
carpet 0.000337580431015
harvard 7.42493272284e-05
absolute 0.0
handle 0.000341170164904
promise 0.000116439253171
hosting 8.57729045561e-05
longest 0.0
generation 8.97490374172e-05
criminal 0.0
tuesday 0.000148617634411
garbage 0.0
goldman 0.0
ronald 0.0
locker 0.0
leader 0.0
desperately 7.68806156916e-05
character 0.000218706639896
chancellor 0.0
proving 0.000135898429153
jackson 0.0
interview 0.000565316507138
buffalo 0.000221804656437
insight 5.81342919541e-05
obviously 0.0
battle 3.79731805393e-05
destroy 5.68134656083e-05
killer 0.000149098932273
personally 0.0
relentless 8.8734031746e-05
winning 0.000523636084674
charlotte 0.0
trafficking 0.0
defense 0.000209963518673
japanese 5.99152846953e-05
causing 0.0
arabia 0.0
rapist 0.0
writing 7.5739400854e-05
society 4.51317885693e-05
officers 0.0
ambushed 0.0
sources 0.0
kentucky 0.0
incredible 7.05772078707e-05
ungrateful 0.0
kissing 0.0
minute 0.000110557809085
luther 0.0
foreign 0.0
phoenix 6.76898947354e-05
champions 0.000184113571669
virginia 0.0
streak 0.0
orange 4.89649747921e-05
policy 0.0
intentional 0.0
reminder 3.93492492007e-05
evidence 0.0
presidents 0.0
judged 0.0
accused 0.0
intentions 0.0
facing 5.3812664092e-05
freedom 4.55215473344e-05
actions 0.0
debating 0.0
consequence 0.0
coughing 0.0
clearly 0.0
invite 0.0
central 4.31284196967e-05
washington 0.0
tougher 0.0
veteran 0.000192782978448
division 0.000180357977744
overrated 0.000182595826992
veterans 6.40293586145e-05
stronger 0.0
bowden 0.0
promised 0.0
catches 0.000161000789606
worried 0.0
security 0.000130116598867
sanctuary 0.0
reverse 6.11591737289e-05
immediately 0.0
television 0.0
entitled 0.0
racism 0.0
highest 4.61817011641e-05
approve 0.0
turning 0.0
georgia 0.0
tennessee 0.0
legacy 0.00010369917723
leaked 7.03810526271e-05
choked 0.0
helping 0.000215781747033
tickets 0.000989155328089
suspending 0.0
suspend 0.0
willing 4.9699644091e-05
december 0.000181564433643
beating 0.0
basically 0.0
return 7.23181747255e-05
escape 0.000117043461343
locked 0.0
unacceptable 0.0
network 0.0
language 0.0
invest 0.0
creation 0.0
followers 4.22892893237e-05
schools 0.0
menace 0.0
movies 0.000195859899168
entity 0.0
children 0.000107890873517
nation 8.22537266622e-05
flexible 0.0
review 0.0
knowledge 9.28991167581e-05
begins 3.91337221355e-05
vanessa 0.0
forbes 0.000142467589789
parade 0.0
fireworks 0.0
shoulder 0.000194897864107
produced 0.0
consider 0.0
latest 0.000283073459766
signed 0.00054091813785
shower 5.75616472461e-05
thunder 0.0
charity 0.000228262555823
germany 4.9699644091e-05
advance 0.0
explaining 0.0
millions 0.000176960414134
blessings 8.50106077449e-05
diamond 0.0
dollar 0.000110029942272
monsters 0.0
rigged 0.0
conduct 0.0
cooked 0.0
turned 0.0
criticism 0.0
responded 0.0
depending 0.0
jackie 0.0
charge 0.0
ticket 0.000219326535272
finest 6.44942874916e-05
sanders 0.0
includes 0.0
dealers 0.0
against 0.0
benjamin 0.0
impact 0.0
families 0.0
selection 0.0
hitting 0.000261706916483
announced 0.000119353899573
decided 3.91337221355e-05
professor 0.000123598826835
itself 0.0
promote 0.000105306393106
mexican 0.0
owners 0.000377371741713
guards 9.18358508329e-05
guarantee 0.0
beliefs 0.0
citizen 0.0
states 0.0
memorial 5.31450618535e-05
decades 0.0
landed 0.000102130693243
ultimate 0.000331833673504
mcdonald 0.0
twenty 0.0
hispanics 0.0
financial 0.0
payments 0.0
grabbing 7.97435125987e-05
permit 0.0
shield 8.8734031746e-05
disney 0.0
kansas 0.000130889116888
agreement 0.0
source 0.0
dismiss 0.0
talents 0.0
homework 0.0
expectations 5.97125147689e-05
joining 7.69911497358e-05
eugene 0.0
reasons 7.61539814645e-05
talked 4.11268633311e-05
released 0.000418846898055
reaching 0.0
release 7.17326631089e-05
promoter 0.000120327515051
circumstances 0.0
scheme 7.15230809582e-05
warwick 0.0
highlight 0.000258456105312
within 8.34057732996e-05
stacked 0.000109377205148
speech 7.84826145026e-05
standing 3.73571785292e-05
higher 0.0
justice 4.39897602382e-05
served 0.0
speaks 0.0
navarro 0.0
dropped 4.03371841194e-05
consideration 0.0
predicted 0.0
strength 4.52611902026e-05
andrew 0.0
replace 0.0
incredibly 0.0
private 4.19361813255e-05
integrity 0.0
sanford 0.0
ignored 0.0
neighbors 0.0
affection 0.0
minimum 6.74326248747e-05
direction 0.0
enemies 0.0
exclusive 0.000271691590731
prison 0.0
himself 0.0
investigation 0.0
disgusting 0.0
congratulate 0.0
philly 0.0
rights 0.0
replaced 0.0
recognition 0.0
maintain 0.0
tallahassee 0.0
handed 0.0
victory 9.34392770017e-05
classy 6.52043767791e-05
lifted 0.0
terrorist 0.0
productive 0.0
tribute 0.000134623556126
threatened 0.0
insecure 9.18358508329e-05
horror 6.49659547025e-05
discovery 0.0
convention 6.28952902854e-05
understanding 0.0
action 0.000140393139469
figures 0.0
having 0.0
marine 6.90076645451e-05
announces 4.99982192852e-05
wallace 0.0
speaker 5.44942485409e-05
stevens 0.0
cybersecurity 0.0
apologize 6.0324654469e-05
continued 0.00022432839389
journalist 0.0
libelous 0.0
formation 0.0
letter 8.06743682387e-05
discussed 0.0
therapy 0.0
widespread 0.0
untrue 0.0
written 3.98943954128e-05
conferences 0.0
results 4.27661398752e-05
papers 5.99152846953e-05
winter 0.0
marching 0.0
sessions 5.79422886367e-05
democrats 0.0
eastern 0.0
scientist 0.0
represented 0.0
waters 0.0
journal 0.0
foundation 4.6584318273e-05
access 8.04518417458e-05
analysis 0.0
writes 5.33106829127e-05
colorado 0.0
medical 0.0
tremendous 0.0
nytimes 0.0
public 7.59463610786e-05
cheaters 0.0
cannot 7.29090011949e-05
reveals 0.0
immunity 0.0
threatens 0.0
candidate 0.0
brilliant 0.000200575183591
wisconsin 0.0
studies 0.0
measure 0.0
compared 0.0
donors 0.0
graham 0.0
incorrect 0.0
headline 0.0
careers 0.0
answering 4.92568553844e-05
streaming 0.0
leaders 0.0
supreme 0.0
nominee 6.61759255799e-05
gorsuch 0.0
protest 5.53668066483e-05
immigration 0.0
policies 0.0
administration 0.0
defend 0.000320862906853
excitement 0.0
funding 5.21686545816e-05
surveillance 8.05003948028e-05
transfer 0.0
conspiracy 0.000128988574983
horrifying 0.0
formed 0.0
interviews 0.00026619600631
retreat 0.0
alliance 0.0
platform 5.18495886152e-05
editing 0.0
february 4.8104718506e-05
association 0.0
airwaves 0.0
hamilton 0.0
futures 0.0
borders 0.0
border 6.37993614177e-05
uranium 0.0
misleading 0.0
january 9.05223804052e-05
topics 0.0
unprecedented 7.27066465864e-05
airplane 0.0
tragic 5.91116767575e-05
philadelphia 0.0
funded 0.0
secure 5.97125147689e-05
income 0.0
hurricane 0.0
breakdown 0.000346388723334
countries 0.0
linked 0.0
broadcast 0.0
african 6.0324654469e-05
triple 5.97125147689e-05
provide 0.0
enhance 0.0
development 0.0
companies 5.41516720314e-05
discussions 0.0
developing 0.0
proposal 0.0
potential 4.51317885693e-05
moderator 0.0
suggestion 0.0
attending 6.0324654469e-05
filled 0.0
schultz 0.0
education 0.0
sickness 0.0
mentioned 0.0
exists 0.0
henderson 0.0
plants 0.0
orders 0.0
officials 0.0
strategic 0.0
ability 0.0
political 0.0
director 4.07860804487e-05
behaving 0.0
deficits 0.0
sufficient 0.0
prevent 5.43225095255e-05
shoddy 0.0
capacity 0.0
donations 0.0
editors 0.0
discussing 4.94037832543e-05
persistent 0.0
treatment 0.0
establishment 0.0
protects 0.0
critical 0.0
ambassador 0.0
preparing 0.0
capable 0.0
bishop 0.0
producers 0.0
bombed 0.0
weekly 5.64457275951e-05
becoming 0.0
magazine 0.000136173325232
lawyers 0.0
summary 0.0
standard 0.0
controlled 0.0
hiring 0.0
defending 0.0001118035925
pushes 0.0
admitted 0.0
failed 0.0
independent 0.0
copies 0.000311166730424
politically 0.0
driven 0.0
agenda 0.0
blocked 0.0
result 4.71290082746e-05
announcing 0.0
destruction 0.0
culture 0.0
insider 0.0
traitors 0.0
prince 0.0
solutions 0.0
indiana 0.0
mongering 0.0
claims 0.0
editorial 0.0
prospects 0.0
mistakes 5.83274347637e-05
offered 0.0
founded 7.7225004809e-05
ignorance 6.54445584441e-05
inspiring 0.000132344073512
majority 5.48404695498e-05
embarrassing 0.0
creators 0.0
server 0.0
berniesanders 0.0
spotlight 0.0
readout 0.0
tactics 0.0
irrelevant 0.0
massive 0.0
receiving 0.0
promising 0.0
promises 0.0
consequences 0.0
production 0.0
proposals 0.0
elsewhere 0.0
bernie 0.0
hacking 0.0
guests 0.000102441380877
interviewed 5.2653196553e-05
secretary 0.0
rebuttal 0.0
reduce 5.91116767575e-05
arriving 7.18149615505e-05
dangerous 0.000175461228218
shutting 0.0
arrival 7.15230809582e-05
canceled 0.0
typically 0.0
saving 0.0
pioneer 0.0
incident 0.0
ordering 0.0
victims 4.74048105006e-05
raises 0.0
receive 9.20971895408e-05
reputation 0.000155849825629
intention 0.0
commentary 0.0
disclosure 0.0
terrific 0.0
berkeley 0.0
melbourne 0.000180496001803
received 8.3872362651e-05
correctly 0.0
inherited 0.0
displayed 0.00010192967794
joseph 0.0
offices 0.0
necessary 0.0
largely 0.0
inaccurate 0.0
debate 8.41069176284e-05
conflict 0.0
interest 0.0
controversy 0.0
stated 0.0
rating 0.0
nominate 0.0
outstanding 0.0
devastating 0.0
accurate 0.0
southeastern 0.0
romney 0.0
scotland 0.0
delayed 0.0
rarely 0.0
abroad 0.0
winners 0.000216250407003
profit 0.0
reviews 0.0
republican 0.0
presidential 0.0
candidates 0.0
politicians 0.0
epidemic 0.0
greater 5.33106829127e-05
booths 0.0
arnold 0.0
principles 0.0
deadline 0.0
speakers 0.0
incoming 0.0
various 0.0
nuclear 0.0
danger 0.0
leading 0.0
restored 0.0
conditions 0.0
however 0.0
resolution 0.0
remained 0.0
member 7.67808460446e-05
examples 0.0
employ 0.0
courses 0.0
largest 0.0
hallmark 0.0
mentor 0.0
increase 5.31450618535e-05
transcript 0.0
disrupt 0.0
provided 0.0
binding 0.0
decreased 0.0
revival 0.0
crashing 0.0
reception 0.000284935179577
rising 5.2653196553e-05
primary 0.0
reduction 0.0
surrogate 0.0
provides 0.0
environment 0.0
revealed 5.33106829127e-05
confirmed 9.508718618e-05
controls 0.0
behavior 0.0
introduced 0.0
carbon 0.0
communities 0.0
region 0.0
deaths 0.0
responsible 0.0
household 0.0
munich 0.0
canada 0.0
regions 0.0
movement 8.72356388277e-05
midwest 0.0
segment 6.52043767791e-05
emerged 0.0
hundreds 0.0
information 0.0
combined 0.0
easily 4.8104718506e-05
towards 4.754359309e-05
inform 0.0
mathematically 0.0
october 4.56525111646e-05
investigating 0.0
predators 0.0
innovation 6.90076645451e-05
perspective 9.64930493814e-05
cities 0.0
todays 0.0
julian 0.0
eliminated 0.0
interests 0.0
toledo 0.0
extraordinary 0.0
eradicate 0.0
retains 0.0
ashamed 0.0
meetings 0.0
describing 0.0
eliminate 0.0
obligation 0.0
gender 0.0
committee 0.0
wasting 0.0
numerous 0.0
examination 0.0
inflammatory 0.0
practices 0.0
management 0.0
nordstrom 0.0
genius 0.000390349796601
warren 0.0
traveling 6.15845976678e-05
billions 0.0
prepared 4.94037832543e-05
fraction 0.0
equipment 7.36234527875e-05
procedures 0.0
rasmussen 0.0
county 0.0
developer 0.0
anthony 0.0
shadow 0.000254283912998
district 6.98247233894e-05
considered 0.0
lobbyist 0.0
chosen 6.15845976678e-05
hospitalized 0.0
outright 0.0
yorkers 0.0
naming 0.0
conventions 0.0
deficit 0.0
interventions 0.0
focusing 0.0
sensible 0.0
hosted 5.55441611357e-05
batman 0.0
column 0.000106621365825
upcoming 0.000230908505821
positions 0.0
favors 0.0
regulation 0.0
distributed 0.0
weakness 0.0
introduction 0.0
western 0.0
pacific 6.64234132205e-05
larger 0.0
increases 0.0
effective 0.0
situations 0.0
harbor 0.0
wealth 0.0
underway 0.0
israel 0.0
hysteria 0.0
overwhelming 0.0
protection 5.6629077195e-05
prisoners 0.0
guidance 0.0
montana 0.0
determination 0.0
restore 0.0
acquire 9.46675897981e-05
additional 0.0
exception 0.0
machine 4.39897602382e-05
honoring 0.0
visually 0.0
contrary 0.0
immediate 0.0
politico 0.0
ignoring 0.0
judges 0.0
federal 0.0
constant 0.0
philippines 8.24733908613e-05
nicely 0.0
september 0.000137352012429
manchester 0.0
fiction 0.0
priest 0.0
angela 0.0
process 0.0
destructive 0.0
genuine 5.91116767575e-05
surreal 7.09470576394e-05
whitehouse 0.0
flotus 0.0
crisis 0.0
judgement 0.0
confidence 0.0
voters 0.0
diamondandsilk 0.0
oldest 6.56865258628e-05
inauguration 0.0
gracious 0.0
scream 6.87398073302e-05
postponed 0.0
disappoint 0.0
believing 0.0
hillaryclinton 0.0
electoral 0.0
crashed 0.0
citizenship 0.0
closed 0.0
religious 0.0
apprentice 0.0
conservative 0.0
economists 0.0
buzzfeed 0.0
puppet 0.0
sweden 0.0
andersoncooper 0.0
treats 0.0
qualified 0.0
missouri 0.0
cooper 0.0
debates 0.0
endorsements 0.0
strike 0.0
shouting 0.0
empire 0.0
encouraged 0.0
regard 0.0
concerning 0.0
misinformed 0.0
disregard 0.0
barack 0.0
joined 8.02300734365e-05
terrorism 0.0
pushing 5.21686545816e-05
cracking 0.0
muhammad 0.0
refused 0.0
amazingly 0.0
express 5.04512818397e-05
gratitude 6.92777446669e-05
congratulation 0.0
throughout 0.0
shining 0.0
fighter 0.00220824526544
anticipated 0.0
presented 5.31450618535e-05
reveal 0.0
stands 4.52611902026e-05
native 0.0
harvey 0.0
featured 0.0
announce 0.000151478801708
surround 0.0
although 5.31450618535e-05
senior 5.10653466214e-05
todayshow 0.0
convincingly 0.0
haters 0.00020621942199
returning 0.0
laughs 0.0
touched 0.0
corruption 0.0
violence 0.0
runnin 0.000102677859578
delivered 0.0
owning 0.0
legendary 5.21686545816e-05
stabbing 0.0
independence 0.0
approval 0.0
magical 6.11591737289e-05
alongside 6.24525015789e-05
percent 0.0
spiral 0.0
differently 0.0
sweeping 0.0
spoiler 6.84741367291e-05
theirs 0.0
offering 0.0
remembering 0.0
floated 0.0
professionals 0.0
construction 0.0
searching 0.0
flexibility 0.0
sinking 0.0
detail 0.0
document 0.000153761231383
cabinet 0.0
pleased 5.3812664092e-05
carrying 6.05312867053e-05
statements 0.0
decade 0.0
prague 0.0
crossing 0.0
bigotry 0.0
happily 0.0
therefore 0.0
belong 0.0
customs 0.0
trillion 0.0
backed 6.47292666199e-05
electricity 0.0
observing 0.0
russell 0.0
engineers 0.0
operations 0.0
values 0.0
senator 0.0
confirms 0.0
removing 0.0
payment 0.0
consistently 0.0
posing 8.2069106558e-05
everett 0.0
wondered 0.0
generic 0.0
fields 0.0
mining 0.0
newspaper 0.0
detailed 0.0
rainbow 6.66727973366e-05
childcare 0.0
unlimited 8.54533964515e-05
exploded 0.0
thoroughly 0.0
adviser 0.0
leaves 0.0
matthew 0.0
intersection 0.0
affected 0.0
newspapers 0.0
corporate 0.0
economy 0.0
explores 0.0
spoken 5.44942485409e-05
during 8.2069106558e-05
credible 0.0
competitive 0.0
carefully 0.0
returned 6.40293586145e-05
blasts 0.0
guarding 0.0
hornet 0.0
successfully 0.0
southern 5.73729831358e-05
dakota 0.0
belief 0.0
messenger 0.0
heroes 0.0
russians 0.0
intelligence 0.0
deepest 0.0
graduates 0.0
describe 0.000189066468893
hollywood 4.79635275345e-05
reclaim 0.0
equality 0.0
announcement 0.0
interfere 0.0
interrupted 0.0
nationwide 0.0
questionable 8.92309035026e-05
garden 4.86756887282e-05
survey 0.0
journalists 0.0
delighted 0.0
minister 0.0
golfer 0.0
capital 0.0
penguins 0.0
regarding 6.0324654469e-05
teachers 0.0
devastated 0.0
phrase 0.0
immigrants 0.0
aliens 0.0
subjects 0.0
revolution 0.0
median 0.0
twelve 0.0
releases 0.0
accomplish 0.0
debbie 0.0
sebastian 0.0
briefing 0.0
advisor 0.0
commission 6.84741367291e-05
deadlines 0.0
hereby 0.0
invitation 6.84741367291e-05
alternatives 0.0
villages 0.0
accepted 0.000108988497082
commentators 0.0
depression 0.0
comprehensive 0.0
committees 0.0
pushed 0.0
statistic 0.0
donation 0.0
electronic 0.0
nomination 0.0
britain 0.0
questioning 0.0
attempt 9.28991167581e-05
investment 0.0
terror 0.0
homeland 0.0
polish 0.0
switzerland 0.0
represents 6.69241072178e-05
announcer 0.0
churchill 0.0
ambassadors 0.0
anchors 0.0
endorse 0.0
urgent 0.0
forced 0.0
expenses 8.63574675838e-05
preparations 0.0
string 0.0
morocco 0.0
thrill 0.0
watchdog 0.0
agencies 0.0
scrutiny 0.0
glorious 0.0
approaching 0.0
tragedy 0.0
handled 0.0
offers 0.0
requested 8.01197534122e-05
improvements 0.0
destroying 0.0
inexpensive 0.0
opposition 0.0
smithsonian 0.0
addiction 0.0
challenged 0.0
manhattan 0.0
richmond 0.0
forces 0.0
nations 0.0
anderson 6.54445584441e-05
builds 0.0
sexist 0.0
narrative 0.0
application 0.0
cannon 0.0
ethical 0.0
representation 7.75730773023e-05
obvious 0.0
statistics 0.0
military 5.07568659431e-05
housing 0.0
wonderfully 8.8734031746e-05
miller 0.0
copying 0.0
advised 0.0
ordered 0.0
unions 0.0
useless 0.0
alicia 0.0
economic 0.0
radical 0.0
planted 0.0
theories 0.000161000789606
conceived 0.0
readers 0.0
bombing 0.0
products 0.0
phenomena 0.0
classroom 0.0
classified 0.0
purely 0.0
hacked 0.0
taxpayers 0.0
opposed 0.0
pressing 0.0
russia 0.0
abraham 0.0
lincoln 6.66727973366e-05
observer 0.0
intelligent 6.64234132205e-05
lawsuit 0.0
detective 0.0
magnificent 0.0
heritage 0.0
beloved 7.03810526271e-05
dignity 0.0
priorities 0.0
repealing 0.0
murdoch 0.0
coalition 0.0
theresa 0.0
charges 0.0
activists 0.0
elected 0.0
relief 0.0
congratulates 0.0
pledge 0.0
elections 0.0
landslide 0.0
council 0.0
imperative 0.0
catastrophic 0.0
douglas 0.0
brexit 0.0
democracy 0.0
disastrous 0.0
rebuild 0.0
pundits 0.0
nickname 0.0
poison 0.0
interfering 0.0
negotiations 0.0
summit 6.31189644848e-05
dossier 0.0
unleash 0.0
negotiation 0.0
sticking 0.0
openly 0.0
embarrassed 7.01016992561e-05
ireland 0.0
attacks 0.0
remarks 0.0
democratic 0.0
outgoing 0.0
maureen 0.0
treasury 0.0
refugees 0.0
snatch 0.0
morgan 0.0
grieve 0.0
vicious 0.0
essentially 0.0
restoring 0.0
extended 0.0
referendum 0.0
ovation 0.0
bankrupt 9.18358508329e-05
proudly 0.0
oppose 0.0
refusal 0.0
urging 0.0
strengthen 0.0
deliver 0.0
negotiating 0.0
remaining 0.0
merkel 0.0
repeal 0.0
formal 7.86402046385e-05
reckless 0.0
prosperous 0.0
servant 0.0
desperate 0.0
secretaries 0.0
formally 0.0
breach 0.0
gloomy 0.0
outlines 0.0
concessions 0.0
executive 0.0
extend 0.0
republicans 0.0
terrorists 0.0
weapons 0.0
bodyguards 0.0
outrage 0.0
representative 0.0
prevail 0.0
searched 0.0
policemen 0.0
islamic 0.0
islamist 0.0
ingrained 0.0
humbled 0.0
courage 0.0
chamber 0.0
commander 0.0
formula 0.0
brigade 0.0
respecting 0.0
lectured 0.0
devices 0.0
enormous 0.0
verdict 0.0
refusing 7.4887474496e-05
energies 0.0
carried 0.0
behalf 0.0
tariff 0.0
amendment 0.0
nightmare 0.0
employment 0.0
legislation 0.0
referring 0.0
scrapping 0.0
handling 0.000148498654457
goodies 0.0
proves 0.0
prominently 0.0
crackdown 0.0
unfair 0.0
fiscal 0.0
humiliating 0.0
strongly 0.000128988574983
vision 0.0
resignation 0.0
confirmation 0.0
records 0.0
disabled 0.0
quoting 0.0
reductions 0.0
deeply 5.2653196553e-05
commerce 0.0
accumulation 0.0
overplaying 0.0
refugee 0.0
conway 0.0
exposed 0.0
netanyahu 0.0
israeli 0.0
priority 6.28952902854e-05
strongest 0.0
freedoms 0.0
treaties 0.0
empowering 0.0
laughter 0.0
syrian 0.0
uphold 0.0
praising 0.0
renewal 0.0
penned 0.0
condemns 0.0
realdonaldtrump 0.0
goodwill 0.0
attorney 0.0
settled 7.5211302719e-05
chairman 0.0
capability 0.0
firing 7.03810526271e-05
seanspicer 0.0
inaugural 0.0
carnage 0.0
optimism 0.0
rulers 0.0
clintons 0.0
melania 0.0
bikers 0.0
handing 8.08855409298e-05
intended 0.0
optimistic 0.0
campaigned 0.0
finance 0.0
allies 0.0
compromised 0.0
governor 0.0
bosses 0.0
attempts 0.0
irresponsible 0.0
incidents 0.0
merely 0.0
documents 0.0
tariffs 0.0
purpose 4.98485892841e-05
architect 0.000101198310805
arlene 0.0
resign 0.0
reuters 0.0
mainstream 0.0
dozens 0.0
donnell 0.0
clarified 0.0
gathering 6.98247233894e-05
crimes 0.0
vulnerable 0.0
commentator 0.0
overwhelmingly 0.0
respectful 0.0
markets 0.0
inspector 0.0
nigel_farage 0.0
drudge 0.0
abused 0.0
infrastructure 0.0
projected 0.0
boards 0.0
allegations 0.0
bloomberg 0.0
insulting 0.0
leaking 0.0
liberal 0.0
chairs 0.0
podium 0.0
conceded 0.0
capitol 0.0
consulting 0.0
wannabe 0.0
powell 0.0
reforms 0.0
technical 0.0
securing 0.0
steven 0.0
rumsfeld 0.0
businesses 6.40293586145e-05
balancing 0.000190529505505
socialist 0.0
complaints 0.0
politician 0.0
representatives 0.0
rallies 0.0
belittle 0.0
ballot 0.0
failing 0.0
refuses 0.0
conclude 0.0
vibrant 0.0
tarmac 0.0
spinning 7.62025814192e-05
appointments 0.0
farewell 0.0
opponents 0.0
unopposed 0.0
polling 0.0
prosperity 0.0
apology 0.0
outline 0.0
losers 0.0
battlefield 0.0
abandoned 0.0
endorsed 0.0
negotiate 0.0
negotiated 0.0
unwilling 0.0
appointed 0.0
slaughter 0.0
betray 0.0
donated 0.000176151580586
immigrant 0.0
prosecuted 0.0
criminals 0.0
elizabethforma 0.0
protesting 0.0
releasing 0.0
screening 0.0
sponsor 0.00035050849628
pocketbook 0.0
transparency 0.0
austin 0.0
obamacare 0.0
acceptable 0.0
schwarzenegger 9.52647527524e-05
congressman 0.0
profits 7.36234527875e-05
toward 0.0
fleeing 0.0
bravery 0.0
protests 0.0
recieved 0.0
violent 6.79492145767e-05
remarkably 0.0
senators 0.0
ratings 0.0
spouses 0.0
fundraiser 0.000138555489334
senate 0.0
louisiana 0.0
giuliani 0.0
venezuela 9.52647527524e-05
parenthood 0.0
organizations 0.0
generations 0.0
minorities 0.0
underestimate 0.0
terrified 0.0
discourse 0.0
pennsylvania 0.0
hackers 0.0
nbcnews 0.0
mccain 0.0
scandal 0.0
constitution 0.0
sensanders 0.0
abandon 0.0
explode 0.0
reopening 0.0
governments 0.0
competent 0.0
mike_pence 0.0
stinks 0.0
logical 0.0
accurately 0.0
righteous 0.0
thursdays 0.0
fitting 6.92777446669e-05
category 0.0
swearing 9.9783110975e-05
politifact 0.0
abolish 0.0
surging 0.0
murders 0.0
reagan 0.0
vetting 0.0
vetted 0.0
pouring 0.0
fraudulent 0.0
ballots 0.0
fading 0.0
speakerryan 0.0
civilized 0.0
commercials 7.5211302719e-05
luxurious 0.000139197399456
outraged 0.0
nypost 0.0
statute 0.0
enforcement 0.0
accountability 0.0
truthful 0.0
springfield 0.0
cancelled 0.0
conflicts 0.0
suffer 0.0
selfishly 0.0
educational 7.82805935995e-05
stolen 0.000317854891248
visionary 0.0
wounds 0.0
disgraceful 0.0
hatred 0.0
persuasion 0.0
exposing 8.92309035026e-05
teaches 0.00017002121549
sellers 0.0
refers 0.0
trusted 0.0
sheriff 0.0
samsung 9.35051638055e-05
ranking 0.0
undecided 0.0
nebraska 0.0
abusive 0.0
abuser 0.0
nashville 0.0
lightweight 0.0
victories 0.0
consumer 0.0
violation 0.0
sarcasm 0.0
freaky 0.0
jimmyfallon 0.0
outlets 0.0
vanityfair 8.82446320288e-05
harassed 0.0
leverage 0.0
sacred 0.0
horrific 0.0
contribute 6.79492145767e-05
indicted 0.0
chooses 0.0
defended 0.0
champion 0.000674044651998
waited 0.0
denmark 0.0
conviction 0.0
retail 0.0
distract 0.0
globes 0.0
endorsing 0.0
pathetic 7.55383855516e-05
purposely 0.000126001753262
expose 0.0
representing 6.37993614177e-05
mmflint 0.0
registration 0.0
acceptance 0.0
defeated 0.0
prosecutor 0.0
nbcsnl 0.000181537446993
nevada 0.0
illinois 8.8734031746e-05
massachusetts 0.0
spontaneous 0.0
entrepreneur 0.0
arkansas 0.0
hotels 0.00017552496589
exhausted 0.0
puppets 0.0
protesters 0.0
natalie 0.0
anaheim 0.0
nominating 0.0
vietnam 0.0
claimed 0.0
indianapolis 0.0
loudly 0.0
sarasota 0.0
rapids 0.0
oklahoma 0.0
devoted 0.0
sacramento 0.0
arranged 0.000110320589111
baldwin 0.0
crushed 0.0
reflects 0.0
replacing 0.0
louder 0.0
flashback 0.0
farmers 0.0
unleashed 0.0
tourists 0.0
steals 0.0
albany 0.000336880755509
devastation 0.0
meantime 0.0
donlemon 0.0
wilbur 0.0
finalists 0.000632030670089
ransom 0.0
normmacdonald 0.0
vanishing 0.0
clarence 0.0
jaketapper 0.0
clowns 0.0
elizabeth 0.0
microphone 0.0
machines 0.0
premium 0.0
championships 0.000263287448835
impersonation 0.0
horribly 0.0
stakes 0.0
mouthed 0.0
reservation 0.0
delaware 0.0
springs 7.5211302719e-05
columbus 0.0
slackers 0.0
toyota 0.0
chucktodd 0.0
correspondents 0.0
soldier 0.0
panels 0.0
broadcasting 0.0
sparks 0.0
warned 0.0
jclayfield 0.0
kellogg 0.0
anchor 0.0
heated 0.0
congressional 0.0
boeing 0.0
usatoday 7.82805935995e-05
endlessly 0.0
craziest 0.0
viewers 0.0
delivers 0.0
pittsburgh 0.0
marshal 0.0
reverend 0.0
lifelong 0.0
disdain 0.0
hispanic 0.0
defrauded 0.0
oppression 0.0
crowds 0.0
washingtonpost 0.0
affordable 0.0
tapping 0.0
ginsburg 0.0
reilly 0.0
illegally 0.0
shootings 0.0
destiny 8.50106077449e-05
serenawilliams 0.0
motors 0.0
redding 0.0
initially 0.0
travis 0.0
accomplishments 0.0
misconduct 0.0
mocked 0.0
disgrace 8.16697829236e-05
greeley 0.0
carmel 0.0
outcry 0.0
playbook 0.0
zealand 0.0
fearless 0.0
lining 0.0
sidekick 0.0
madame 0.0
grandstand 0.0
rochester 0.0
speechless 0.0
fletcher 0.0
begged 0.0
wintour 0.0
inspires 0.0
carlos 0.0
missiles 0.0
chelsea 0.0
oppressive 0.0
forgiven 0.0
killings 0.0
taiwan 0.0
somalia 0.0
burning 0.0
subscribers 0.0
chester 0.0
newtown 0.0
booker 0.0
heights 8.16697829236e-05
leicester 0.0
chiefs 0.0
joenbc 0.0
opioid 0.0
separately 0.0
intros 0.0
columnist 0.0
manages 0.0
financed 0.0
mnuchin 0.0
delegate 0.0
vicente 0.0
struck 0.000131860611577
trudeau 0.0
oreillyfactor 0.0
vulgarian 0.0
publicity 0.0
amnesty 0.0
ivankatrump 0.0
communism 0.0
linkedin 0.0
avoided 0.0
sophisticated 0.0
seanhannity 0.0
anncoulter 0.0
foolish 0.0
catholics 0.0
bogged 0.0
catholic 0.0
thriving 0.0
newtgingrich 0.0
abedin 0.0
secretly 0.0
undermines 0.0
americanism 0.0
christians 0.0
rationally 0.0
deplorable 0.0
wikileaks 0.0
execution 0.0
enduring 0.0
foxandfriends 0.0
losses 0.0
kevcirilli 0.0
staffers 0.0
barron 0.0
jihadis 0.0
hampshire 0.0
pandering 0.0
donaldjtrumpjr 0.0
moines 0.0
lobbying 9.84268952448e-05
careless 0.0
piersmorgan 0.0
palestinian 0.0
kellyanne 0.0
democrat 0.0
unfunny 0.0
condemned 0.0
despair 0.0
louvre 0.0
crooked 0.0
lynden 0.0
outperform 0.0
tedcruz 0.0
majors 0.0
schumer 0.0
credibility 0.0
flooding 0.0
hannity 0.0
beneficiary 0.0
sanctions 0.0
nominates 0.0
existent 0.0
criticized 0.0
senatemajldr 0.0
workforce 0.0
issued 0.0
outsider 0.0
declare 0.0
ivanka 0.0
dignified 0.0
threaten 0.0
outcomes 0.0
ukraine 0.0
justintrudeau 0.0
vladimir 0.0
businessman 0.0
regards 0.0
assange 0.0
malicious 0.0
garners 0.0
ethics 0.0
wrecked 0.0
regimes 0.0
incorrectly 0.0
hostile 0.0
defenders 0.0
deceived 0.0
hypocritical 0.0
favorably 0.0
shatter 0.0
changer 0.0
spokane 0.0
unnecessary 0.0
cwaunion 0.0
expand 0.0
apologized 0.0
criticizing 0.0
legion 0.0
hershey 0.0
intensity 0.0
tigerwoods 0.0
amercan 0.0
reince 0.0
chriscjackson 0.0
hypocrites 0.0
billkristol 0.0
govmikehuckabee 0.0
dustin 0.0
bullied 0.0
anonymous 0.0
yankees 0.0
thehill 0.0
infiltrated 0.0
somali 0.0
invention 0.0
frontrunner 0.0
patriot 0.0
poorly 7.39348854789e-05
prisonplanet 0.0
daytona 0.0
comparable 0.0
shouted 0.0
holocaust 0.0
kellyannepolls 0.0
foxnews 8.45737626906e-05
initiated 0.0
tiffany 0.0
mikeandmike 0.0
barbara 7.68806156916e-05
litigation 0.0
frankcaliendo 0.0
toughness 0.0
suffered 0.0
streep 0.0
billionaire 0.0
percentage 0.0
insiders 0.0
premiums 0.0
congratulatory 0.0
treasurer 0.0
incompetence 0.0
delegates 0.0
rollout 0.0
appalled 0.0
misquoted 0.0
pledged 0.0
demanded 9.84268952448e-05
andrews 0.0
lowlife 0.0
courageous 0.0
betrayed 0.0
horrors 0.0
warheads 0.0
pledges 0.0
interrupts 0.0
blacks 0.0
elaine 0.000105855451617
candidacy 0.0
discredited 0.0
cringing 0.0
estates 0.0
laughable 0.0
aberdeen 0.0
healed 0.000224587170339
floods 0.0
swiftly 0.0
cheryl 0.0
syracuse 0.0
difficulties 0.0
flipping 0.0
wilkes 0.0
lisbon 0.0
suckers 0.0
golfdigest 0.0
jeffrey 0.0
sixteen 0.000226653659326
scandals 0.0
circuits 0.0
regulations 0.0
monitoring 0.0
swamped 0.0
costing 0.0
detained 0.0
warmest 0.0
marginalize 0.0
miners 0.0
unemployment 0.0
paragon 0.0
obsolete 0.0
subsidies 0.0
exercised 0.0
evangelicals 0.0
franklin 0.0
molten 0.0
servers 0.0
billgates 0.0
excessive 0.0
coordinated 0.0
geneva 0.0
soaring 0.0
unsecured 0.0
corporations 0.0
rifles 0.0
innovative 0.0
pillar 0.0
bashing 0.0
organize 0.0
panelists 0.0
frontiers 0.0
pricing 0.0
platforms 0.0
scaling 0.0
pretends 0.0
forensic 0.0
roundtable 0.0
inherit 0.0
fabrication 0.0
brewer 0.0
unaffordable 0.0
reinforcing 0.0
eventful 0.0
wasserman 0.0
lindsey 0.0
billclinton 0.0
upstate 0.0
empowerment 0.00010048301898
penalties 0.0
responders 0.0
civilization 0.0
occupy 0.0
approximately 0.0
knight 0.0
homeownership 0.0
scratched 0.0
screws 0.0
contractor 0.0
havana 0.0
lowering 0.0
foundations 0.0
revitalize 0.0
counters 0.0
foreclosed 0.0
renovated 0.0
delaying 0.0
employer 0.0
executed 0.0
subpoena 0.0
grifters 0.0
cincinnati 0.0
disgraced 0.0
falsely 0.0
strengthening 0.0
abcworldnews 0.0
skyrocketing 0.0
pipelines 0.0
likewise 0.0
dishonest 0.0
surges 0.0
woefully 0.0
pressured 0.0
erratic 0.0
temperament 0.0
emboldened 0.0
keystone 0.0
mandated 0.0
crumbling 0.0
johnkasich 0.0
latinos 0.0
combating 0.0
incompetent 0.0
loopholes 0.0
incapable 0.0
unqualified 0.0
melaniatrump 0.0
recount 0.0
voluntarily 0.0
desperation 0.0
denounce 0.0
demoralized 0.0
incited 0.0
fawning 0.0
accuser 0.0
electing 0.0
patrol 0.0
connecticut 0.0
amounts 0.0
govpencein 0.0
squandered 0.0
enforce 0.0
epipens 0.0
deplorables 0.0
generals 0.0
timkaine 0.0
benghazi 0.0
moderators 0.0
sheriffclarke 0.0
unfairly 0.0
competence 0.0
dysfunctional 0.0
eleventh 0.0
instructed 0.0
restrict 0.0
battleground 0.0
jilted 0.0
blazing 0.0
hypocrite 0.0
mcconnell 0.0
circulated 0.0
flailing 0.0
pathological 0.0
deflect 0.0
undoing 0.0
predictable 0.0
phoney 0.0
perils 0.0
governing 0.0
likeable 0.0
tumble 0.0
praised 0.0
extraordinarily 0.0
jinping 0.0
trashes 0.0
knowingly 0.0
disloyal 0.0
woodward 0.0
magnificently 0.0
pretended 0.0
slaughtered 0.0
climber 0.0
americ 0.0
unprofessional 0.0
diplomats 0.0
resulted 0.0
crossroads 0.0
syrians 0.0
suppress 0.0
remembrance 0.0
infighting 0.0
castro 0.0
unquestionably 0.0
corrupted 0.0
kasich 0.0
readership 0.0
fraternal 0.0
frankluntz 0.0
demagogue 0.0
unanimous 0.0
bedford 0.0
longtime 0.0
complexities 0.0
dailymail 0.0
couric 0.0
cancelling 0.0
morningmika 0.0
concord 0.0
recounts 0.0
shouldered 0.0
patmccrorync 0.0
executives 0.0
westfield 0.0
graydon 0.0
sheldon 0.0
tanking 0.0
morning_joe 0.0
fabricated 0.0
corolla 0.0
groveling 0.0
unfolding 0.0
polled 0.0
influx 0.0
underachieving 0.0
antics 0.0
disenfranchised 0.0
golfing 0.0
xfinity 0.0
defies 0.0
fictitious 0.0
districts 0.0
vigilant 0.0
obstruction 0.0
rebuilding 0.0
preserving 0.0
passover 0.0
dhsgov 0.0
thejusticedept 0.0
repealed 0.0
intends 0.0
wildfires 0.0
usedgov 0.0
fresno 0.0
usnavy 0.0
scotus 0.0
tillerson 0.0
ineffective 0.0
senjohnmccain 0.0
cbsnews 0.0
lawsuits 0.0
caucus 0.0
shimon 0.0
wilmington 0.0
stagnant 0.0
gouging 0.0
baghdad 0.0
wiesel 0.0
obstruct 0.0
gonzalo 0.0
curiel 0.0
hostage 0.0
unnamed 0.0
truckers 0.0
boldly 0.0
scarborough 0.0
evangelical 0.0
cyberattack 0.0
marines 0.0
crimea 0.0
earners 0.000228787913998
oversaw 0.0
lobbyists 0.0
rosiegray 0.0
briefings 0.0
actresses 0.0
purchases 0.0
myanmar 0.0
heightened 0.0
shackles 0.0
perjury 0.0
dallaspd 0.0
respectfully 0.0
canton 0.0
approx 0.0
admirals 0.0
naples 0.0
brainwashed 0.0
albuquerque 0.0
supposedly 0.0
coliseum 0.0
greensboro 0.0
sheriffs 0.0
hostages 0.0
explorers 0.0
confidential 0.0
tamara 0.0
infested 0.0
depicted 0.0
devote 0.0
payroll 0.0
bombshell 0.0
advisers 0.0
watergate 0.0
mcmaster 0.0
renews 0.0
housegop 0.0
katyturnbc 0.0
pocahontas 0.0
wherein 0.0
shreds 0.0
pelosi 0.0
chrysler 0.0
collusion 0.0
deductibles 0.0
repmarkmeadows 0.0
darrellissa 0.0
insurer 0.0
dishonesty 0.0
hotlinejosh 0.0
quinnipiacpoll 0.0
apologizing 0.0
priebus 0.0
clapper 0.0
tapped 0.0
operatives 0.0
senschumer 0.0
marcorubio 0.0
viciously 0.0
leakers 0.0
bangladesh 0.0
favorable 0.0
nbcnightlynews 0.0
lockheed 0.0
untruthful 0.0
resonating 0.0
transferring 0.0
staten 0.0
humana 0.0
juanita 0.0
senses 0.0
stimulate 0.0
drooling 0.0
lakeland 0.0
burying 0.0
crafted 0.0
misrepresent 0.0
fabled 0.0
railing 0.0
billyjoel 0.0
sniper 0.0
cnnsotu 0.0
independents 0.0
detroitnews 0.0
foxbusiness 0.0
washtimes 0.0
realbencarson 0.0
meetthepress 0.0
newday 0.0
thebrodyfile 0.0
bostonherald 0.0
foxnewssunday 0.0
thefive 0.0
chriscuomo 0.0
randpaul 0.0
dcexaminer 0.0
facethenation 0.0
bretbaier 0.0
interruption 0.0
allenwest 0.0
cvpayne 0.0
dailycaller 0.0
prosecution 0.0
ballistic 0.0
vetoed 0.0
gettysburg 0.0
groping 0.0
brennan 0.0
nielson 0.0
justices 0.0
operative 0.0
surged 0.0
megynkelly 0.000119051097811
terminated 0.0
softbank 0.0
fronting 0.0
rigging 0.0
reprieve 0.0
pocketed 0.0
colluded 0.0
coffers 0.0
stairway 0.0
ellison 0.0
selflessly 0.0
tornadoes 0.0
levine 0.0
scranton 0.0
enslave 0.0
inappropriately 0.0
devalue 0.0
presumptive 0.0
fournier 0.0
terminate 0.0
reptommarino 0.0
kimberly 0.0
subscriptions 0.0
ingrahamangle 0.0
trajectory 0.0
natalie_gulbis 0.0
unheard 0.0
objectified 0.0
turnberry 0.0
djohnsonpga 0.0
bedminster 0.0
golf_com 0.0
elevation 0.0
litany 0.0
unaccountable 0.0
primaries 0.0
disrupter 0.0
runways 0.0
hashanah 0.0
unenthusiastic 0.0
undecideds 0.0
richardtrumka 0.0
renegotiate 0.0
rapists 0.0
aldridge 0.0
unsubstantiated 0.0
misrepresented 0.0
prisoner 0.0
mattis 0.0
weakening 0.0
endakennytd 0.0
taoiseach 0.0
lifeboat 0.0
enabler 0.0
emanated 0.0
lindseygrahamsc 0.0
renegotiating 0.0
waterville 0.0
zucker 0.0
berglund 0.0
suboptimal 0.0
steelworkers 0.0
postpone 0.0
mohammed 0.0
indignant 0.0
comprised 0.0
stupidest 0.0
exxonmobil 0.0
precluded 0.0
instruct 0.0
gonzales 0.0
scorned 0.0
davidmuir 0.0
harrisburg 0.0
caesars 0.000150147709359
borisep 0.0
lapierre 0.0
limbaugh 0.0
petraeus 0.0
phyllis 0.0
illegals 0.0
sanctity 0.0
neurotic 0.0
negligence 0.0
alvarez 0.000123041125146
roseanne 0.0
roanoke 0.0
theleegreenwood 0.0
mcallen 0.0
deduct 0.0
chokes 0.0
vigilance 0.0
pensacola 0.0
tuckercarlson 0.0
repcummings 0.0
windham 0.0
teleprompter 0.0
paulareidcbs 0.0
jeffzeleny 0.0
condoleezza 0.0
genflynn 0.0
donaldtrump 0.0
demeanor 0.0
baiting 0.0
plotted 0.0
aptitude 0.0
billings 0.0
approving 0.0
disconnected 0.0
superstorm 0.0
brainpower 0.0
exclaim 0.0
skyrocketed 0.0
globalism 0.0
israelipm 0.0
insurgent 0.0
sneers 0.0
unrest 0.0
scaramucci 0.0
disapproval 0.0
katiepavlich 0.0
overflow 0.0
warped 0.0
scottwalker 0.0
kirstenpowers 0.0
usarmy 0.0
schlafly 0.0
alisonforky 0.0
oppresses 0.0
pedantic 0.0
highness 0.0
benefitted 0.0
fundraisers 0.0
shinzo 0.0
augustine 0.0
ranchers 0.0
middletown 0.0
fiorina 0.0
pueblo 0.0
lindasuhler 0.0
lightweights 0.0
kimguilfoyle 0.0
perdue 0.0
unmasked 0.0
unmasking 0.0
judgejeanine 0.0
boycotted 0.0
outnumberedfnc 0.0
jessebwatters 0.0
podesta 0.0
kristol 0.0
interruptions 0.0
broaddrick 0.0
erictrump 0.0
outspending 0.0
irredeemable 0.0
begala 0.0
brazile 0.0
dinesh 0.0
markings 0.0
ericbolling 0.0
loudobbs 0.0
skyrocket 0.0
blumenthal 0.0
cochran 0.0
imploding 0.0
discord 0.0
jeffflake 0.0
davidwohl 0.0
bribery 0.0
repkenbuck 0.0
joshrogin 0.0
enrique 0.0
unverified 0.0
retribution 0.0
dwindling 0.0
automobile 0.0
teamtrump 0.0
subpoenaed 0.0
danscavino 0.0
joniernst 0.0
scottadamssays 0.0
senatorfischer 0.0
tabulation 0.0
trafficked 0.0
depict 0.0
unrelenting 0.0
imitating 0.0
dutchess 0.0
adelson 0.0
valuing 0.0
ricksantorum 0.0
chuckgrassley 0.0
laraleatrump 0.0
abingdon 0.0
equating 0.0
ministries 0.0
brzezinski 0.0
sentedcruz 0.0
jamesrosenfnc 0.0
leaker 0.0
realjameswoods 0.0
jim_jordan 0.0
marshablackburn 0.0
boynton 0.0
betsydevos 0.0
lawfare 0.0
larry_kudlow 0.0
stranahan 0.0
waynedupreeshow 0.0
phillypolice 0.0
scottwrasmussen 0.0
johnstown 0.0
raul_labrador 0.0
statewide 0.0
reviewjournal 0.0
oppress 0.0
underlings 0.0
bankrupted 0.0
collude 0.0
fayetteville 0.0
disqualifying 0.0
mahoning 0.0
disloyalty 0.0
americanlegion 0.0
bankruptcies 0.0
morell 0.0
ambridge 0.0
emboldens 0.0
asheville 0.0
grievous 0.0
ricketts 0.0
benefactor 0.0
dwyane 0.0
markhalperin 0.0
mayorbowser 0.0
unverifiable 0.0
savaged 0.0
wheeling 0.0
technocratic 0.0
countr 0.0
thealabamaband 0.0
relives 0.0
unwatchable 0.0
residences 0.0
gatekeeper 0.0
defections 0.0
senatorsessions 0.0
drmoore 0.0
honorably 0.0
billhemmer 0.0
shultz 0.0
aflcio 0.0
trucking 0.0
fabrications 0.0
malleable 0.0
misrepresents 0.0
decimated 0.0
arabella 0.0
mishandled 0.0
interfe 0.0
speach 0.0
iranians 0.0
fraudulently 0.0
enablers 0.0
dealmaker 0.0
terrori 0.0
anarchists 0.0
krzanich 0.0
foxnation 0.0
permeated 0.0
overruns 0.0
disposed 0.0
inaccurately 0.0
peebles 0.0
conditioners 0.0
classifie 0.0
forewarned 0.0
karlrove 0.0
palazzo 0.000161755505622
evansville 0.0
rebroadcast 0.0
bangor 0.0
secpricemd 0.0
realdonaldtru 0.0
uschamber 0.0
trumpinaugural 0.0
rawlings 0.0
churchillian 0.0
hemmer 0.0
rudygiuliani 0.0
pynance 0.0
terrybranstad 0.0
cbnnews 0.0
faithandfreedom 0.0
ovations 0.0
scpioneer 0.0
dwstweets 0.0
tgowdysc 0.0
bluffs 0.0
marist 0.0
spluttering 0.0
thetodaysgolfer 0.0
thebig_easy 0.0
hoosier 0.0
senbobcorker 0.0
larsloekke 0.0
roadblocks 0.0
manheim 0.0
greenblatt 0.0
jtanews 0.0
mitchellvii 0.0
bemoan 0.0
michiga 0.0
gennifer 0.0
gulbis 0.0
liyuan 0.0
enlisting 0.0
ainsleyearhardt 0.0
stevedoocy 0.0
foxfriendsfirst 0.0
pastormarkburns 0.0
marksimoneny 0.0
gov_gilmore 0.0
flunky 0.0
agitators 0.0
overdoses 0.0
liliantintori 0.0
leopoldo 0.0
traceadkins 0.0
gopconvention 0.0
governorsununu 0.0
laconia 0.0
teamsters 0.0
gatewaypundit 0.0
lawyerly 0.0
dissipates 0.0
realjeffreylord 0.0
nytimesdowd 0.0
scalise 0.0
straightening 0.0
energizer 0.0
montgomeriefdn 0.0
shulkin 0.0
ericgreitens 0.0
circuited 0.0
govbrewer 0.0
infringed 0.0
mcgarvey 0.0
republicanstudy 0.0
americafirstpol 0.0
fheile 0.0
phadraig 0.0
wiedefeld 0.0
coddington 0.0
kravis 0.0
fighterjet 0.0
shinzō 0.0
votestand 0.0
romoabcnews 0.0
moskowitzeva 0.0
drgoodspine 0.0
levisteveholt 0.0
untrusting 0.0
sleazebag 0.0
lbperfectmaine 0.0
timken 0.0
newhouse 0.0
evancho 0.0
franklin_graham 0.0
eazymf_e 0.0
busineses 0.0
substantialy 0.0
rexnord 0.0
sdcritic 0.0
highonhillcrest 0.0
fiiibuster 0.0
koster 0.0
saucier 0.0
t_lineberger 0.0
cissieglynch 0.0
saysgabrielle 0.0
ravenrantz 0.0
mayorrgiuliani 0.0
deplorablecbtp 0.0
tanden 0.0
keithrowland 0.0
kinston 0.0
sjsopio 0.0
aztrumptrain 0.0
therealmogul 0.0
unclassify 0.0
firebombed 0.0
wikileakes 0.0
davidshiloach 0.0
trumpwomenstour 0.0
mistreats 0.0
willey 0.0
dornsife 0.0
henryleledog 0.0
eericmyers 0.0
atensnut 0.0
arouses 0.0
anyonetennis 0.0
flifeforce 0.0
geeveem 0.0
susiesentinel 0.0
bcuzimdamomma 0.0
freedavidking 0.0
ifdanyt 0.0
arsenmissyirvin 0.0
nycmia 0.0
bigdog_joey 0.0
roadkingl 0.0
decieved 0.0
waukesha 0.0
creati 0.0
thallensboucher 0.0
kenansville 0.0
tarukmatuk 0.0
angpiazza 0.0
laughingstock 0.0
ak_tweet 0.0
kiiara 0.0
jerryjrfalwell 0.0
ghfanlovessonny 0.0
bishopwtjackson 0.0
cynthialummis 0.0
repreneeellmers 0.0
trumpdc 0.0
stvzbnk 0.0
bakari 0.0
adhd_fa 0.0
parisdennard 0.0
ronnieclemmons 0.0
takouis 0.0
lblackvelvet 0.0
chernuna 0.0
annebellar 0.0
presidencies 0.0
rsbnetwork 0.0
meequalsfree 0.0
pmnorlando 0.0
rhondar 0.0
patrici 0.0
lindaharden 0.0
trumpocrats 0.0
lewenskimo 0.0
trump_videos 0.0
sinabunz_tm 0.0
eyecandytmgayle 0.0
catonglass 0.0
billynungesser 0.0
samaritanspurse 0.0
zulu_out 0.0
willspeakout 0.0
laurencristmann 0.0
c_lynne_ryan 0.0
enemywithinn 0.0
elsolarverde 0.0
creats 0.0
dbongino 0.0
bongino 0.0
carl_c_icahn 0.0
fieldoffight 0.0
reploubarletta 0.0
mainegop 0.0
gatewaypun 0.0
mechanicsburg 0.0
pnehlen 0.0
patrioticpepe 0.0
insticts 0.0
borderless 0.0
lallyray 0.0
glowingly 0.0
spinnnn 0.0
flamed 0.0
nancynielsenn 0.0
olimauritania 0.0
theresa_cali 0.0
roxanetancredi 0.0
litigate 0.0
trumpdoonbeg 0.0
berrien 0.0
nbcpolitics 0.0
jakeda 0.0
barrasso 0.0
bluedogdemky 0.0
iowa_trump 0.0
arnold_ziffel 0.0
patricia_graf 0.0
brazosboys 0.0
jimvitari 0.0
trumpturnberry 0.0
trumpscotland 0.0
darrenwaggener 0.0
allegrettivicki 0.0
justininglv 0.0
chrisboydbrew 0.0
votetrumpmaga 0.0
realericjallen 0.0
insinuated 0.0
clubgoers 0.0
ausbiz 0.0
freemarketsara 0.0
senatorjeffsessions 0.0
mabynshingleton 0.0
dale_dangler 0.0
nauthizjane 0.0
richardweaving 0.0
mariadaq 0.0
sara_wejesa 0.0
jimhewitt 0.0
joedefranco 0.0
wolfstopper 0.0
djd_thunder 0.0
excoriates 0.0
rapidcraft 0.0
telepromter 0.0
liliannyleebou 0.0
lunsfordwhitney 0.0
free_sa_bd 0.0
stockdaleism 0.0
admonished 0.0
nbcdfw 0.0
frankylamouche 0.0
sandiegopd 0.0
tombarrackjr 0.0
buiidthewall 0.0
pipersul 0.0
oasisupernova 0.0
jknatter 0.0
jasondovesq 0.0
ed_klein 0.0
overregulates 0.0
dubilujane 0.0
rbacliff 0.0
ltstevenlrogers 0.0
rowanne 0.0
shoneep 0.0
magicmetalninja 0.0
barbaro 0.0
michael_favreau 0.0
christichat 0.0
mai_ttag 0.0
thydanielflores 0.0
costakenneth 0.0
svhlevi 0.0
johnjohnlacca 0.0
ladytsbrug 0.0
frankdallasagg 0.0
ladyjoanne 0.0
gerriweth 0.0
longbyfive 0.0
wesleyfelixpsi 0.0
manakoa 0.0
ragdollive 0.0
xgodfatherxzx 0.0
trumptrainrider 0.0
aprillajune 0.0
takingit_back 0.0
distlerjoyce 0.0
queencharlotteo 0.0
kellyriddell 0.0
valdosta_monkey 0.0
daybastrop 0.0
nathandwilsonfl 0.0
mathewjmari 0.0
stupor 0.0
matandsher 0.0
edgoeas 0.0
lynnepatton 0.0
erictrumpfdn 0.0
mikeozanian 0.0
lexingtonbobby 0.0
annettejeanne 0.0
andrebauer 0.0
waterbury 0.0
greenskydeb 0.0
keksec__org 0.0
ashleyedam 0.0
trumptbird 0.0
herb_stamper 0.0
senfrankniceley 0.0
anneslimo 0.0
agentvf 0.0
hornick 0.0
gqforbes 0.0
governor_savage 0.0
carolde 0.0
fugedaboudit 0.0
dnglax 0.0
alexnightrasor 0.0
lilrachiepoo 0.0
