awesome 0.00539508935136
christmas 0.000288239314831
trying 0.000173408543742
moment 8.71729859246e-05
wonderful 0.00034087669637
seeing 0.000668054120565
recommend 0.000193578715296
anybody 0.0
worked 0.0
direct 0.0
others 0.000186517665292
currently 5.15705745988e-05
better 0.00137239133343
please 0.000652037315532
social 9.71290135421e-05
around 0.000471759520868
people 0.00128661687509
leaving 0.000147286874268
morning 0.000948619157082
general 0.000111146645779
investigate 0.0
damage 0.0
everything 0.000344952420757
twitter 0.00108088589801
though 0.000448988610645
friend 0.00108380339839
watched 0.00029218002546
beautiful 0.000444169770154
anything 0.000131466413014
helped 0.000189059177209
managing 0.0
updated 6.85373119152e-05
thinking 8.81181685834e-05
finally 0.000352472674333
caught 9.71290135421e-05
believe 0.000344023873957
already 0.000516035810935
couple 9.42739268403e-05
orlando 0.000220293946362
research 0.0
chance 0.000474309578541
meaning 6.37671526127e-05
annual 0.00011593976183
quickly 0.0
growing 5.17123506921e-05
probably 0.000327290187666
should 0.0
changed 4.61278055852e-05
history 4.44169770154e-05
center 5.65159372989e-05
museum 0.0
behind 0.000514646750038
pretty 0.00171830428738
really 0.00258714315568
expensive 0.0
little 0.00180612533827
earlier 0.000252264644159
realized 0.0
forget 0.000218520767364
someone 0.000260814926213
mostly 0.0
worker 0.0
safety 0.0
shuttle 0.000131494580312
program 0.000239953904158
things 0.000686195666717
related 0.0
visiting 0.000356849102337
available 0.0
afternoons 0.0
perfect 0.000179595444258
different 0.000262932826029
numbers 5.3897232074e-05
delays 0.0
person 0.000475589795123
watching 0.00112715553433
passed 5.25729928676e-05
celebrates 0.0
minutes 0.000133610824113
travel 0.000210872509813
daughter 0.0
average 0.000123492790904
positive 0.000204592147614
outside 9.12639878911e-05
looking 0.00103207162187
forward 0.000620162862043
plenty 6.39556682093e-05
agreed 0.0
raising 6.15673253414e-05
listened 6.83275939952e-05
afraid 0.0
impression 0.0
drawing 7.68641254012e-05
favorite 0.000200164833079
magnet 0.0
picture 0.000367033466165
historic 0.000130209003936
instead 4.85645067711e-05
appreciate 0.00055802583752
husband 0.000134588233556
international 0.000213214510921
market 5.8134515394e-05
couldn 0.000404089749581
remember 0.000301833368162
impressive 0.000296524998774
familiar 6.91726898944e-05
friends 0.000823690582776
despite 0.0
impossible 0.0
everyone 0.00137980968303
florida 0.000508635696258
always 0.00115795518758
months 4.50201828687e-05
moving 4.63778776009e-05
meeting 0.000441780503296
google 5.41971439897e-05
answer 0.000353424402637
together 0.000821473282485
inside 0.000179595444258
smaller 0.0
missed 0.000480745688201
active 0.0
longer 4.97689074873e-05
enough 0.000261518957774
driving 5.27181274533e-05
building 9.68654973338e-05
technician 0.0
enjoying 0.000263590637267
london 0.000564172628334
kennedy 0.0
recent 5.69951292022e-05
gotten 7.20402563494e-05
amazing 0.00249417308619
attention 4.88292435942e-05
richard 0.0
progress 5.98165831072e-05
tomorrow 0.00366511947054
george 0.0
excited 0.00310639261794
campaigning 0.0
understand 9.40190248449e-05
following 0.000181055443851
learning 0.000160353781003
evening 0.000148091012433
special 0.000782444778638
secret 0.000144904182331
across 9.63408812743e-05
comparison 0.0
surprised 5.14292656434e-05
anymore 0.0
rather 4.84327486669e-05
showing 0.000184013257066
saying 0.000270121097212
tweeted 5.69951292022e-05
updates 6.26531359745e-05
thoughts 0.000640575747245
exactly 4.66294163229e-05
except 0.000164868689427
getting 0.00129357157784
nothing 0.000474309578541
tweets 9.50432096501e-05
course 0.000267221648226
stephen 0.0
looked 4.89622273571e-05
difficult 0.00011366960585
stages 0.0
office 9.32588326459e-05
decisions 0.0
brought 0.000286679774452
biggest 0.000133250931046
thrilled 0.0
entire 0.0
something 0.000388071473352
closing 0.0
anyone 0.000304284080582
taking 0.000215595262973
recently 0.0
interesting 0.000240199429026
original 0.0
flying 5.41971439897e-05
happening 0.0
sometimes 4.7521604825e-05
stopped 0.000101182104145
yesterday 0.000652037315532
service 4.73930073399e-05
serious 0.000230639027926
emails 0.0
afford 0.0
british 0.0
contact 5.91358191443e-05
either 0.0
second 0.000434691543688
accident 7.94960694684e-05
checking 0.000111770462771
volunteers 0.0
indeed 5.87994469951e-05
island 0.000122069115759
hearing 9.63408812743e-05
choose 0.000101459243185
staying 0.000408098490131
another 0.00111807759036
address 5.8134515394e-05
display 0.0
originally 0.0
compare 0.0
landing 0.0
perhaps 6.51045019678e-05
weekend 0.00126742045071
appear 0.0
anyway 0.000111457987168
theory 0.0
recognize 0.000154240338642
working 0.000431190525946
bigger 5.05910520726e-05
screen 5.82997843044e-05
treated 0.0
laughing 0.00015344411071
wanted 0.000261518957774
current 0.0
grateful 0.000225429556545
friendship 0.0
family 0.000344952420757
listening 0.0
stream 0.000474439998039
wedding 0.000458460719882
sharing 0.000152188864778
double 4.88292435942e-05
especially 0.00033445973686
middle 4.94983247022e-05
waiting 8.83561006592e-05
definitely 0.000282821780521
walking 0.000103424701384
account 0.0
completely 0.0
thought 0.000391222389319
reaction 5.89673032922e-05
accept 0.000110219345306
possible 9.12639878911e-05
simple 5.01780097548e-05
manufacturing 0.0
destroyed 8.28836635664e-05
professional 0.000447689677465
friendly 0.000128290032214
members 0.000163043670352
supposed 5.7317591091e-05
astronauts 0.0
component 0.0
business 0.000325524237844
absolutely 0.000138383416756
sending 5.00412082698e-05
delivering 0.0
heavily 0.0
biased 0.0
introducing 0.0
congrats 0.00484323312301
community 0.000265782507926
greatest 9.42739268403e-05
posted 0.0
saturday 0.000364071452084
wednesday 0.000259986583592
confused 6.28368074722e-05
explain 0.000150945747016
broken 0.000106902520669
chicago 0.000351793470661
fairly 8.98882226766e-05
hoping 0.000311127582133
relationship 5.79698809148e-05
actually 0.000176712201318
basket 0.0
myself 0.000226063749196
pocket 0.0
argument 0.0
decent 0.000153219202078
school 0.000569687789729
thursday 0.000415150250267
selling 0.0
talented 0.000113350147536
discuss 0.0
celebrate 0.000333554123491
celebrating 0.000257146328217
anniversary 5.21405129422e-05
contest 0.000168598274838
internet 0.000107198805793
figure 0.0
inspired 0.000573545642364
sitting 4.86966709101e-05
complaining 0.0
playing 0.000920264891101
street 4.77799624086e-05
points 0.00033158199876
advice 0.000101182104145
forever 0.00024348335455
congress 0.000149738021659
imagine 4.80398858052e-05
problem 4.62526593246e-05
played 0.000818897490832
canadian 7.4384404214e-05
pulling 7.34313154539e-05
keeping 0.000192681762549
lovely 0.0
chinese 0.0
unlike 0.0
allowed 0.000170025221303
otherwise 0.0
afternoon 0.000152188864778
planned 6.19262163828e-05
strange 0.0
notice 5.84656925545e-05
difference 4.71369634201e-05
author 0.0
intent 0.0
letting 0.000106019756874
system 0.0
almost 0.000258714315568
details 0.000471369634201
experience 0.000225100914343
viewed 0.0
living 0.000225100914343
bright 0.000121366042492
normal 0.0
practically 0.0
before 0.000233778705476
monday 0.000180080731475
realize 0.000123852432766
currency 0.0
sleeping 0.0
wanting 0.0
science 0.0
tweeting 4.92294383721e-05
forgot 0.000270234629353
herself 0.0
disaster 0.0
happens 8.93144844659e-05
silence 6.79112098588e-05
congratulations 0.0001900864193
natural 0.0
raised 0.0
mission 5.84656925545e-05
ironic 0.0
testing 0.0
deleted 0.0
channels 0.0
surprising 0.0
reference 0.0
forgotten 0.0
trouble 0.0
setting 0.0
reminds 6.10345578794e-05
fantastic 0.000305211841713
loving 0.000661292323711
hardly 0.0
complete 0.0
membership 0.0
nearly 0.0
spirit 0.000223540925542
launched 0.0
stories 0.000326405914261
including 9.58194543899e-05
inviting 0.0
wouldn 9.30069250982e-05
choice 9.20066285331e-05
offended 0.0
conversation 0.000104856695551
disrespectful 0.0
making 0.000258017905467
expect 5.17123506921e-05
discussion 6.28368074722e-05
believes 0.0
occasions 0.0
response 5.07296215927e-05
brings 0.000103994633437
subject 0.0
greetings 0.0
anytime 7.09145426625e-05
protected 0.0
location 0.0
thomas 0.0
missile 0.0
needed 9.20066285331e-05
seriously 0.00014295176721
spending 5.35994028967e-05
groups 6.96015657601e-05
modern 6.21067944566e-05
welcome 0.000740970380359
totally 0.000199075629949
evenings 0.000138410924315
laughed 0.000163448957399
running 0.000316847026739
finished 0.000154711723796
strong 0.00106600744837
hopefully 0.000328820003996
respond 0.0
message 0.000274532463105
coming 0.00193513429101
thankful 0.000407467259153
temporary 0.0
issues 0.0
challenge 0.000189059177209
happen 0.000219702236721
giving 0.000392278436661
turkey 0.0
common 0.0
pressed 0.0
healthcare 0.0
benefits 0.0
situation 0.0
workers 0.0
company 4.88292435942e-05
health 0.000203474561142
insurance 0.0
change 0.000431190525946
august 0.000121716858761
mental 0.0
carrier 0.0
neither 0.000118949700779
lowest 0.0
decide 0.0
happened 0.00022693110593
demand 0.00011366960585
generally 0.0
personal 9.37648781157e-05
beyond 4.81704406371e-05
passion 0.000130598004413
question 0.00026435450575
doctor 0.0
sacrifices 0.0
respected 0.0
position 5.87994469951e-05
increased 0.0
losing 5.31565015853e-05
strain 0.0
respect 0.000707054451302
collapse 0.0
shouldn 0.0
career 0.000750618124047
visited 6.7704524017e-05
challenger 0.0
reason 0.0
simply 0.000107794464148
audience 0.0
employees 0.0
accounts 0.0
attacked 0.0
involved 0.000150534029264
extreme 0.0
unhappy 0.0
caused 0.0
knocked 0.0
reality 5.12884207576e-05
mention 5.31565015853e-05
extremely 0.0
burned 0.0
without 0.000130407463106
falling 0.0
problems 5.31565015853e-05
timing 0.0
highly 0.000122777999615
online 0.000278267265605
animals 0.0
called 0.000130056407807
scientists 0.0
pictures 0.0
camera 0.0
heading 0.000615461049091
terribly 0.0
theater 0.0
paying 0.0
complex 0.0
sunday 0.000801664944677
nights 0.0
enthusiastic 0.0
increasing 0.0
traffic 0.0
opposite 7.06929027419e-05
lookout 0.000272636898727
reached 0.000127911336419
changing 0.000211455019428
harder 5.99884760394e-05
silent 0.0
speaking 0.000148091012433
careful 0.0
november 0.0
answered 6.81188966045e-05
number 8.83561006592e-05
atlantic 0.0
stupid 0.0
budget 0.0
unless 5.31565015853e-05
calling 0.000135791582888
lately 7.51133831671e-05
levels 0.0
focused 0.000140069547557
ridiculous 0.000118949700779
financially 0.0
knowing 5.96453763762e-05
former 0.000270985719948
covers 0.000139635245574
mountain 7.61050395819e-05
suffers 0.0
schedule 0.000535100797712
greatly 8.98882226766e-05
friday 0.000174816613891
dramatic 0.0
failure 0.0
achieve 7.22689887805e-05
winner 0.000239548635975
closes 8.81928545356e-05
bother 8.23001548486e-05
directly 0.0
quality 0.000167186980751
tearing 0.0
father 9.8191249512e-05
wishes 0.000393395974621
collar 0.0
ground 0.000111770462771
matter 0.000138757977974
strategy 0.0
themselves 0.0
asking 0.000228159969728
mobile 0.0
device 0.0
computer 0.0
impressed 0.0
complain 8.14395126732e-05
dinner 0.000285903534421
suffering 0.0
single 0.000133250931046
parent 0.0
packed 0.0
catching 0.000127534305225
neglected 0.0
somewhat 0.0
approved 0.0
definition 7.09145426625e-05
energy 0.000153865262273
meltdown 0.0
events 0.000106902520669
europe 5.96453763762e-05
holiday 0.000843767845918
status 6.49108798368e-05
update 0.000150945747016
outage 0.0
customers 0.0
holding 5.10081110724e-05
survive 0.0
electric 0.0
picked 0.000107496117905
missing 9.20066285331e-05
surprise 0.000322894639097
german 0.0
officially 0.000150945747016
french 0.000110836430402
global 0.000172927487689
follow 0.00039016922342
opinion 0.000112398849892
design 6.51045019678e-05
allows 0.0
promoting 0.0
volunteer 9.02354895875e-05
negative 0.0
official 0.000267221648226
brutal 7.51133831671e-05
cotton 0.0
jersey 0.00210246948228
mistake 0.0
fixing 0.0
france 0.000598165831072
proper 0.0
peaceful 0.0
thinks 5.03152490052e-05
competition 5.82997843044e-05
industry 0.0
easier 0.0
successful 0.0
trending 7.13612886726e-05
leadership 0.000134997658956
agrees 8.468339179e-05
organized 0.0
enthusiasm 0.000205379519765
turnout 0.0
showed 5.41971439897e-05
attended 0.0
trumps 0.0
networks 0.0
experienced 0.0
interested 0.000166254645603
effect 0.0
dislike 0.0
success 4.86966709101e-05
dreams 0.000113350147536
protect 0.0
rumors 0.0
arguing 0.0
referred 0.0
waving 0.0
growth 7.06929027419e-05
control 0.0
happier 0.000236068168015
likely 0.0
coincidence 0.0
cancel 0.0
project 9.73933418201e-05
laying 0.000178404024741
lesson 0.0
replacement 0.0
invited 0.0
continuing 0.0
clearance 0.0
treating 0.0
allowing 7.56063452517e-05
arrived 5.21405129422e-05
unable 0.0
opening 0.000468824390578
popular 0.000117934606584
followed 0.000114635182182
statement 0.0
enjoyed 0.000255740184517
spectacular 0.0
smoothly 0.0
length 0.0
wonder 0.0
matters 0.0
function 0.0
shared 0.000118271638289
connection 7.02530298688e-05
benefit 5.40469258705e-05
terrible 0.0
continues 0.000105145985735
equally 0.0
session 0.000112714778272
routine 0.0
associated 0.0
exciting 0.000206849402768
imagination 0.0
decides 0.0
cheering 0.000511802909224
spring 0.000275548363265
fallen 0.0
beautifully 0.0
places 0.00015428779693
entered 0.0
feedback 0.0
thousands 0.0
properly 7.84238328911e-05
informed 7.58549675663e-05
typical 0.0
continue 0.000149306722462
attend 6.49108798368e-05
excuse 0.0
female 0.000114959471636
recovery 0.000428167732036
closer 0.0
beginning 5.41971439897e-05
introduce 0.0
bought 0.0
multiple 0.0
slogan 0.000105582129547
covered 0.0
choices 6.98176227872e-05
unpredictable 0.0
enterprise 0.0
several 0.0
surrounded 0.0
dealing 0.0
teacher 0.000128670407375
training 0.00335311388313
auditorium 0.0
passing 0.000116599568609
become 9.00403657374e-05
presentation 0.0
spread 0.0
sooooo 0.0
season 0.00204342900748
putting 0.000135791582888
weight 0.000201271129767
stephanie 0.0
rapidly 0.0
follows 0.0
explained 0.0
stance 0.0
storms 0.0
headed 0.000227980516809
sleepy 0.0
returns 0.0
expected 0.0
resources 0.0
considering 0.0
fabric 0.0
suspect 7.73777510512e-05
constantly 0.0
condolences 9.4253400413e-05
appreciated 6.79112098588e-05
register 0.000128290032214
manage 0.0
transition 0.0
smooth 0.000343706347708
flowers 0.0
gained 9.78460585856e-05
savage 0.000100864495945
somebody 0.0
contract 0.0
furious 0.0
covering 0.0
boxing 0.0
credit 0.0
patriots 0.0
player 0.000902415910433
chemistry 0.0
grandkids 0.0
offensive 0.0
charles 0.0
fighting 0.000343669373292
atlanta 0.000298504092182
donald 0.0
mexico 0.000747457632916
unreal 0.000176385709071
police 0.0
represent 0.000218887793704
president 0.000143729181585
talking 0.000129706307761
unbelievable 0.000205611935746
alabama 0.0
slowest 0.0
conference 0.000106902520669
america 0.000458791832706
michigan 0.0
everybody 5.31565015853e-05
judgment 0.0
carolina 0.0009507058402
amount 0.0
houston 0.000367156577269
everyday 6.12114126832e-05
michael 0.0
protecting 0.0
million 4.52638609627e-05
election 0.0
honesty 0.0
telling 9.79244547142e-05
correct 0.000166719968669
pulled 0.0
attack 0.0
americans 0.000239953904158
salaries 0.0
killed 9.60797716104e-05
louisville 0.0
horrible 0.0
coverage 5.84656925545e-05
dallas 0.000284549335857
jacksonville 0.0
league 0.000997273496517
united 0.000447081851085
college 0.00053897232074
refuse 0.0
barackobama 0.0
hillary 0.0
clinton 0.0
presidency 0.0
manning 0.0
stupidity 0.0
american 0.000228777052588
remain 0.000182049063737
founder 0.0
illegal 0.0
arizona 0.000170600969741
opinions 0.0
retire 0.000383252431612
triumph 9.86870115917e-05
stealing 0.0
speeches 0.0
innocent 8.25909168381e-05
scared 0.00012641305451
golden 0.000116269030788
straight 0.000238899812043
removed 0.0
answers 5.55733228895e-05
product 0.000138345379789
created 0.0
snoopdogg 0.0
worlds 0.0
record 0.000225100914343
stamina 0.00013735192658
weapon 0.0
funeral 0.0
registered 0.0
minnesota 0.0
committed 6.79112098588e-05
journey 0.000336252242652
disrespect 0.0
brother 0.0
prayers 0.00033749414739
documentary 6.45262384319e-05
boston 0.00292754239559
addition 0.000150226766334
korean 0.0
church 6.54943885546e-05
advantage 0.000221002827976
honestly 6.15673253414e-05
defeat 7.73777510512e-05
baltimore 0.0
lifetime 6.51045019678e-05
captain 0.00021958894905
retired 8.75330379956e-05
country 0.000178147765484
valley 0.0
mailbox 0.0
speedy 0.00011202731683
ending 0.000173909642744
finish 5.30098784368e-05
employee 9.50261641878e-05
university 0.000185239186356
remembered 0.0
nominated 0.0
praying 0.0
insane 6.37671526127e-05
national 0.000699441244844
reform 8.53004848706e-05
oregon 0.0
shooting 5.3897232074e-05
cancer 0.000108394287979
australia 0.000255822672837
deserve 0.000105727509714
legend 0.000689756829815
mother 4.80398858052e-05
murder 0.0
creating 0.0
powerful 0.000368010950073
carson 0.0
palmer 0.0
branch 0.0
breaking 9.27557552017e-05
dollars 0.0
questions 0.000132534150989
racist 0.0
charged 0.0
girlfriend 0.0
performance 0.000249524208832
refreshing 0.0
reading 0.000274532463105
corrupt 0.0
penalty 0.0
writer 6.52990022067e-05
denver 0.000270706468763
create 9.98096835329e-05
admire 0.0
nobody 0.0
government 0.0
politics 6.10345578794e-05
comeback 0.0
charities 0.000202627161965
method 0.0
sample 0.0
bringing 0.000339029240668
celebs 0.000110883589606
stadium 0.00124036416432
funniest 0.0
according 0.0
threat 0.0
heroin 0.0
honest 5.35994028967e-05
rolling 0.0
became 0.0
feature 5.91358191443e-05
decision 0.000161244176858
counting 0.0
verified 0.0
signing 0.000113031874598
adding 0.0
embrace 0.0
pressure 5.86322451101e-05
celebrities 0.0
dearly 0.0
facebook 0.000138383416756
divided 0.0
extension 0.0
lawyer 0.0
charleston 0.0
brazilian 0.0
basketball 0.000247772750514
campaign 0.000150123624809
determine 0.0
whether 5.44991679785e-05
praise 7.31963163499e-05
factory 0.0
arrested 0.0
investments 0.0
activity 0.0
comments 5.25729928676e-05
wounded 0.0
endorsement 9.62120617489e-05
williams 0.0
future 0.000177667908061
struggled 0.0
blessed 0.000147810424621
sabotage 0.0
warrior 9.16533783638e-05
softball 0.0
cheating 0.0
voting 0.000318939009512
instincts 0.0
collins 0.0
succeed 8.08751988845e-05
commercial 0.000236543276577
religion 0.0
boring 0.0
acting 0.0
established 0.0
warriors 8.88629811254e-05
because 0.0
sensitive 0.0
smiling 0.0
traitor 0.0
cleveland 0.000339963313764
agents 0.000184030596115
periscope 0.0
killing 0.0
choosing 0.0
phillips 0.0
instagram 0.0
opponent 9.31197512594e-05
detroit 8.00424109863e-05
cousin 0.0
honored 0.000239266332429
nonsense 0.0
dedication 0.0
hammer 0.0
proven 0.0
talent 0.0
governors 0.0
knocking 0.0
russian 0.0
consecutive 0.00021216748057
skills 0.0
citizens 0.0
cameras 0.0
phones 0.0
california 0.0
commitment 0.00028544515469
maryland 0.000115027646852
seconds 0.000172927487689
placed 0.0
listen 4.4536941371e-05
dominating 0.0
whatever 0.000148494974107
wherever 0.0
fought 0.000139635245574
compete 0.000242625596653
lauderdale 0.0
injured 0.0
billion 0.0
shoutout 0.000814395126732
depressing 9.09385746643e-05
guilty 7.29625979013e-05
carpet 7.41441389964e-05
harvard 0.000782768468685
absolute 0.000316032636274
handle 5.61994249459e-05
promise 0.00015344411071
hosting 0.000452127498391
longest 0.0
generation 0.000236543276577
criminal 0.0
tuesday 9.79244547142e-05
garbage 0.0
goldman 0.0
ronald 0.0
locker 0.00038645904678
leader 0.000168598274838
desperately 0.0
character 0.000115284991793
chancellor 0.0
proving 0.0
jackson 0.0
interview 0.000262932826029
buffalo 0.0
insight 0.0
obviously 0.000242033310426
battle 0.000250206041349
destroy 0.0
killer 0.000196483165664
personally 6.22881360763e-05
relentless 0.0
winning 0.000414029828399
charlotte 0.0
trafficking 0.0
defense 6.91726898944e-05
japanese 0.000157913200706
causing 0.0
arabia 0.0
rapist 0.0
writing 9.98096835329e-05
society 5.94748503894e-05
officers 0.0
ambushed 0.0
sources 0.0
kentucky 0.0
incredible 0.00190664196451
ungrateful 0.0
kissing 0.0
minute 4.85645067711e-05
luther 0.0
foreign 0.0
phoenix 8.92020123705e-05
champions 0.0010513775855
virginia 8.5926586927e-05
streak 0.000195692117171
orange 6.45262384319e-05
policy 0.0
intentional 0.0
reminder 0.00025927298511
evidence 0.0
presidents 0.0
judged 0.0
accused 0.0
intentions 0.0
facing 0.0
freedom 0.000119976952079
actions 7.31963163499e-05
debating 0.0
consequence 0.0
coughing 0.0
clearly 0.0
invite 0.0
central 0.0
washington 0.000170985387607
tougher 0.0
veteran 8.468339179e-05
division 0.0
overrated 0.0
veterans 0.0
stronger 0.0
bowden 0.0
promised 0.0
catches 0.0
worried 0.000124576272153
security 0.0
sanctuary 0.0
reverse 0.0
immediately 0.0
television 7.58549675663e-05
entitled 0.0
racism 0.0
highest 0.0
approve 0.0
turning 0.0
georgia 0.0
tennessee 0.0
legacy 0.00013665518799
leaked 0.0
choked 0.0
helping 0.000236965036699
tickets 0.000990669745901
suspending 0.0
suspend 0.0
willing 6.54943885546e-05
december 0.000119633166214
beating 7.34313154539e-05
basically 0.0
return 4.76505890701e-05
escape 0.0
locked 0.0
unacceptable 9.31197512594e-05
network 0.000180483182087
language 0.0
invest 8.5926586927e-05
creation 0.0
followers 5.57289935838e-05
schools 0.0
menace 0.0
movies 6.45262384319e-05
entity 0.0
children 0.000331751051379
nation 0.000162591431969
flexible 0.0
review 0.0
knowledge 0.0
begins 0.000257852872994
vanessa 0.0
forbes 0.0
parade 0.000238488208405
fireworks 0.0
shoulder 8.56123933667e-05
produced 0.0
consider 0.00011431211416
latest 4.66294163229e-05
signed 0.00028512962895
shower 7.58549675663e-05
thunder 0.0
charity 0.000120322121391
germany 0.000785932662655
advance 0.000125306271949
explaining 0.0
millions 0.0
blessings 0.0
diamond 0.0
dollar 0.0
monsters 0.0
rigged 0.0
conduct 0.0
cooked 0.0
turned 0.000141794382907
criticism 0.0
responded 0.0
depending 0.0
jackie 0.0
charge 0.0
ticket 0.000346835256087
finest 8.49908284411e-05
sanders 0.0
includes 0.0
dealers 0.0
against 0.0
benjamin 0.0
impact 0.000115284991793
families 0.0
selection 0.0
hitting 0.0
announced 0.000104856695551
decided 0.0
professor 0.0
itself 0.0
promote 0.0
mexican 8.56123933667e-05
owners 0.0
guards 0.0
guarantee 0.0
beliefs 0.0
citizen 0.0
states 0.000108695780235
memorial 0.000140069547557
decades 0.0
landed 6.72941167782e-05
ultimate 0.0
mcdonald 0.0
twenty 9.31197512594e-05
hispanics 0.0
financial 0.0
payments 0.0
grabbing 0.0
permit 0.0
shield 0.0
disney 0.0
kansas 0.0008624309928
agreement 7.97683702509e-05
source 0.0
dismiss 0.0
talents 0.0
homework 0.0
expectations 0.0
joining 0.000202918486371
eugene 0.0
reasons 0.00010035601951
talked 0.000108394287979
released 5.01780097548e-05
reaching 0.000157913200706
release 4.72647943022e-05
promoter 0.0
circumstances 0.0
scheme 0.0
warwick 0.0
highlight 0.0
within 5.4956229809e-05
stacked 0.0
speech 0.000103424701384
standing 0.000147688315116
higher 0.000173417628043
justice 5.79698809148e-05
served 0.0
speaks 0.0
navarro 0.0
dropped 5.31565015853e-05
consideration 0.0
predicted 0.0
strength 0.000119290752752
andrew 0.0
replace 6.79112098588e-05
incredibly 0.000547725864425
private 5.526366646e-05
integrity 0.0
sanford 0.0
ignored 0.0
neighbors 0.000194863371996
affection 0.0
minimum 0.0
direction 0.0
enemies 0.0
exclusive 0.0
prison 0.0
himself 0.0
investigation 0.0
disgusting 0.0
congratulate 0.000104111566195
philly 0.000483574813599
rights 0.0
replaced 0.0
recognition 0.0
maintain 0.0
tallahassee 0.0
handed 0.0
victory 0.000307836626707
classy 8.5926586927e-05
lifted 0.000106083740285
terrorist 0.0
productive 0.000171224786733
tribute 0.000118271638289
threatened 0.0
insecure 0.0
horror 0.0
discovery 0.0
convention 0.0
understanding 0.0
action 9.25053186491e-05
figures 0.0
having 0.0
marine 0.0
announces 0.000131775704265
wallace 0.0
speaker 0.0
stevens 0.0
cybersecurity 0.0
apologize 7.94960694684e-05
continued 0.0
journalist 0.0
libelous 0.0
formation 0.0
letter 0.000159469504756
discussed 0.0
therapy 0.0
widespread 0.0
untrue 0.0
written 5.25729928676e-05
conferences 0.0
results 0.000225429556545
papers 0.0
winter 0.000116599568609
marching 0.0
sessions 7.6356578304e-05
democrats 0.0
eastern 7.7636889176e-05
scientist 0.0
represented 0.0
waters 0.0
journal 8.92020123705e-05
foundation 6.13889998073e-05
access 5.30098784368e-05
analysis 0.0
writes 7.02530298688e-05
colorado 0.0
medical 0.0
tremendous 0.0
nytimes 0.000130598004413
public 0.000150123624809
cheaters 0.0
cannot 4.80398858052e-05
reveals 0.0
immunity 0.0
threatens 0.0
candidate 0.0
brilliant 5.2863754857e-05
wisconsin 0.0
studies 0.0
measure 0.0
compared 0.0
donors 0.0
graham 8.95437450883e-05
incorrect 0.0
headline 0.0
careers 0.0
answering 0.0
streaming 0.0
leaders 6.28368074722e-05
supreme 0.0
nominee 0.0
gorsuch 0.0
protest 0.0
immigration 8.00424109863e-05
policies 0.0
administration 0.0
defend 7.04724023633e-05
excitement 0.0
funding 0.0
surveillance 0.0
transfer 0.0
conspiracy 0.0
horrifying 0.0
formed 0.0
interviews 5.84656925545e-05
retreat 0.0
alliance 0.0
platform 0.0
editing 0.0
february 6.33925892784e-05
association 0.0
airwaves 0.0
hamilton 0.0
futures 0.0
borders 0.0
border 0.0
uranium 0.0
misleading 0.0
january 5.96453763762e-05
topics 0.0
unprecedented 0.0
airplane 0.0
tragic 7.78976026182e-05
philadelphia 0.000190835662207
funded 0.0
secure 0.0
income 0.0
hurricane 0.0
breakdown 0.0
countries 0.0
linked 0.0
broadcast 0.000142274667929
african 0.0
triple 0.0
provide 0.0
enhance 0.0
development 0.0
companies 0.0
discussions 0.0
developing 8.68832190613e-05
proposal 8.05958022666e-05
potential 0.000118949700779
moderator 0.0
suggestion 0.0
attending 0.0
filled 0.000181524982819
schultz 0.0
education 5.79698809148e-05
sickness 0.0
mentioned 6.33925892784e-05
exists 0.0
henderson 0.0
plants 0.0
orders 7.73777510512e-05
officials 0.0
strategic 0.0
ability 6.26531359745e-05
political 6.17463954519e-05
director 0.0
behaving 0.0
deficits 0.0
sufficient 0.0
prevent 0.0
shoddy 0.0
capacity 0.0
donations 0.0
editors 0.0
discussing 0.0
persistent 0.0
treatment 0.0
establishment 0.0
protects 0.0
critical 6.85373119152e-05
ambassador 7.4384404214e-05
preparing 0.000144080512699
capable 8.85266089762e-05
bishop 0.0
producers 0.0
bombed 0.0
weekly 0.0
becoming 0.00011052733292
magazine 0.0
lawyers 0.0
summary 0.0
standard 6.22881360763e-05
controlled 0.0
hiring 0.0
defending 7.36676093253e-05
pushes 0.0
admitted 0.0
failed 6.39556682093e-05
independent 0.0
copies 0.0
politically 0.0
driven 0.0
agenda 0.0
blocked 0.0
result 0.000931601916849
announcing 0.0
destruction 0.0
culture 0.0
insider 0.0
traitors 0.0
prince 0.0
solutions 0.0
indiana 0.0
mongering 0.0
claims 6.91726898944e-05
editorial 0.0
prospects 0.0
mistakes 0.0
offered 0.0
founded 0.0
ignorance 0.0
inspiring 0.000232538061576
majority 0.0
embarrassing 0.0
creators 0.0
server 0.0
berniesanders 0.0
spotlight 0.0
readout 0.0
tactics 0.0
irrelevant 0.0
massive 0.000710462757389
receiving 8.08751988845e-05
promising 0.0
promises 0.0
consequences 0.0
production 0.0
proposals 0.0
elsewhere 0.0
bernie 0.0
hacking 0.0
guests 0.000134997658956
interviewed 0.0
secretary 0.0
rebuttal 0.0
reduce 0.0
arriving 0.0
dangerous 5.78058760145e-05
shutting 0.0
arrival 0.0
canceled 0.0
typically 0.0
saving 0.000124940495453
pioneer 9.66147616951e-05
incident 0.0
ordering 0.000205379519765
victims 6.24702477265e-05
raises 0.0
receive 0.0
reputation 0.0
intention 0.0
commentary 0.0
disclosure 0.0
terrific 0.0
berkeley 0.0
melbourne 0.0
received 5.526366646e-05
correctly 0.00017248619856
inherited 0.0
displayed 0.0
joseph 9.66147616951e-05
offices 0.0
necessary 0.0
largely 0.0
inaccurate 0.0
debate 0.000110836430402
conflict 0.0
interest 0.0
controversy 0.0
stated 0.0
rating 0.0
nominate 9.02354895875e-05
outstanding 0.0
devastating 0.0
accurate 0.0
southeastern 0.0
romney 0.0
scotland 0.000169981656882
delayed 0.0
rarely 0.0
abroad 0.0
winners 0.000113990258404
profit 0.0
reviews 0.0
republican 8.49908284411e-05
presidential 0.0
candidates 0.0
politicians 0.0
epidemic 0.0
greater 0.0
booths 0.0
arnold 0.0
principles 0.0
deadline 6.93865917302e-05
speakers 0.0
incoming 0.0
various 0.0
nuclear 0.0
danger 7.53591559266e-05
leading 0.000273254906688
restored 0.0
conditions 0.0
however 0.0
resolution 0.0
remained 0.0
member 0.0
examples 0.0
employ 0.0
courses 0.000108683762334
largest 6.79112098588e-05
hallmark 0.0
mentor 0.000285078492563
increase 7.00347737786e-05
transcript 0.0
disrupt 0.0
provided 8.85266089762e-05
binding 0.0
decreased 0.0
revival 0.0
crashing 0.0
reception 0.000187744356176
rising 0.0
primary 0.0
reduction 0.0
surrogate 0.0
provides 8.43781433187e-05
environment 0.0
revealed 7.02530298688e-05
confirmed 6.26531359745e-05
controls 0.0
behavior 0.0
introduced 0.0
carbon 0.0
communities 0.000164022701734
region 0.0
deaths 0.0
responsible 0.0
household 0.0
munich 0.000484086597214
canada 0.000802446275275
regions 0.0
movement 5.74797358179e-05
midwest 0.0
segment 0.0
emerged 0.0
hundreds 0.0
information 0.000233199137218
combined 0.0
easily 0.0
towards 0.000125306271949
inform 0.0
mathematically 0.0
october 0.000120322121391
investigating 0.0
predators 0.0
innovation 0.0
perspective 0.000190738386097
cities 0.0
todays 0.0
julian 0.000105086317908
eliminated 0.0
interests 0.0
toledo 0.0
extraordinary 7.27301462257e-05
eradicate 0.0
retains 0.0
ashamed 0.0
meetings 7.6356578304e-05
describing 0.0
eliminate 0.0
obligation 0.0
gender 7.86893893382e-05
committee 7.04724023633e-05
wasting 0.0
numerous 0.0
examination 0.0
inflammatory 0.0
practices 0.0
management 0.0
nordstrom 0.0
genius 0.0
warren 0.0
traveling 0.000162312855249
billions 0.0
prepared 6.51045019678e-05
fraction 0.0
equipment 9.70212787593e-05
procedures 0.0
rasmussen 0.0
county 0.0
developer 0.0
anthony 0.0
shadow 0.0
district 0.0
considered 0.0
lobbyist 0.0
chosen 0.000162312855249
hospitalized 0.0
outright 0.0
yorkers 0.0
naming 0.0
conventions 0.0
deficit 0.0
interventions 0.0
focusing 9.09385746643e-05
sensible 0.0
hosted 7.31963163499e-05
batman 0.0
column 0.0
upcoming 0.000304292146903
positions 0.0
favors 0.0
regulation 0.0
distributed 0.0
weakness 0.0
introduction 0.0
western 0.000153728250802
pacific 0.0
larger 0.0
increases 0.0
effective 0.0
situations 0.0
harbor 0.0
wealth 0.0
underway 0.0
israel 0.0
hysteria 0.0
overwhelming 0.0
protection 0.0
prisoners 0.00011380221408
guidance 0.000107624764599
montana 0.0
determination 0.000105582129547
restore 0.0
acquire 0.0
additional 0.0
exception 0.0
machine 0.0
honoring 0.000268631235265
visually 0.0
contrary 0.0
immediate 0.0
politico 0.0
ignoring 0.0
judges 0.0
federal 0.0
constant 0.0
philippines 0.0
nicely 0.0
september 6.03343426653e-05
manchester 0.00039079955324
fiction 0.0
priest 0.0
angela 0.0
process 0.0
destructive 0.0
genuine 7.78976026182e-05
surreal 0.0
whitehouse 9.27484309384e-05
flotus 0.0
crisis 0.0
judgement 0.0
confidence 0.0
voters 7.36676093253e-05
diamondandsilk 0.0
oldest 0.0
inauguration 0.0
gracious 0.0
scream 9.05855913617e-05
postponed 0.000236507541914
disappoint 0.000105582129547
believing 0.000260649657184
hillaryclinton 8.56123933667e-05
electoral 0.0
crashed 0.0
citizenship 0.000106591287382
closed 0.0
religious 0.0
apprentice 0.0
conservative 0.0
economists 0.0
buzzfeed 0.0
puppet 0.0
sweden 0.000682403878965
andersoncooper 0.0
treats 0.0
qualified 9.20152980574e-05
missouri 0.0
cooper 0.0
debates 0.0
endorsements 0.0
strike 0.000198257837766
shouting 0.0
empire 8.20113508672e-05
encouraged 0.000106591287382
regard 0.0
concerning 0.0
misinformed 0.0
disregard 0.0
barack 0.0
joined 0.000105727509714
terrorism 0.0
pushing 0.000206244181183
cracking 8.92020123705e-05
muhammad 0.0
refused 0.0
amazingly 0.0
express 6.64848997678e-05
gratitude 9.12944873225e-05
congratulation 0.0
throughout 6.81188966045e-05
shining 0.0
fighter 9.09385746643e-05
anticipated 0.0
presented 0.000140069547557
reveal 6.26531359745e-05
stands 5.96453763762e-05
native 0.0
harvey 0.000105086317908
featured 6.7498829478e-05
announce 0.000299429050599
surround 0.000121021649304
although 0.000210104321336
senior 0.0
todayshow 9.82644738963e-05
convincingly 0.0
haters 0.0
returning 7.34313154539e-05
laughs 0.000242625596653
touched 8.03182140536e-05
corruption 0.0
violence 0.000126042537915
runnin 0.0
delivered 0.0
owning 0.0
legendary 6.87480603942e-05
stabbing 0.0
independence 7.7636889176e-05
approval 0.0
magical 0.0
alongside 0.0
percent 0.00023767646005
spiral 0.0
differently 0.0
sweeping 0.0
spoiler 0.0
theirs 0.0
offering 0.0
remembering 0.0
floated 0.0
professionals 0.0
construction 0.0
searching 0.0
flexibility 0.000126341923676
sinking 0.0
detail 0.0
document 0.0
cabinet 0.0
pleased 7.09145426625e-05
carrying 7.97683702509e-05
statements 0.0
decade 0.000134180753178
prague 0.0
crossing 0.0
bigotry 0.0
happily 0.0
therefore 0.0
belong 0.0
customs 0.0
trillion 0.0
backed 0.0
electricity 0.0
observing 0.0
russell 0.0
engineers 0.0
operations 0.0
values 0.0
senator 0.0
confirms 0.0
removing 0.0
payment 0.0
consistently 0.0
posing 0.0
everett 0.0
wondered 0.0
generic 0.0
fields 0.000186239502519
mining 0.0
newspaper 0.0
detailed 0.0
rainbow 0.0
childcare 0.0
unlimited 0.0
exploded 0.000127991635877
thoroughly 0.0
adviser 0.0
leaves 6.22881360763e-05
matthew 0.0
intersection 0.0
affected 0.000132569917887
newspapers 0.0
corporate 0.000181877149329
economy 0.0
explores 0.0
spoken 0.0
during 0.0
credible 0.0
competitive 8.624309928e-05
carefully 0.0
returned 8.43781433187e-05
blasts 0.0
guarding 0.0
hornet 0.0
successfully 9.4253400413e-05
southern 0.0
dakota 0.0
belief 0.000239305110753
messenger 0.0
heroes 6.54943885546e-05
russians 0.0
intelligence 0.0
deepest 0.0
graduates 0.0
describe 6.22881360763e-05
hollywood 0.0
reclaim 0.0
equality 0.000154755502102
announcement 0.000110219345306
interfere 0.0
interrupted 0.0
nationwide 0.0
questionable 0.0
garden 6.4145016107e-05
survey 0.0
journalists 0.0
delighted 8.95437450883e-05
minister 0.0
golfer 0.0
capital 0.0
penguins 0.000118253770957
regarding 0.0
teachers 0.0
devastated 0.0
phrase 8.05958022666e-05
immigrants 0.0
aliens 0.0
subjects 0.0
revolution 0.0
median 0.0
twelve 0.0
releases 0.0
accomplish 0.000109223231449
debbie 0.000123221476575
sebastian 0.0
briefing 9.38721780881e-05
advisor 0.0
commission 9.02354895875e-05
deadlines 0.0
hereby 0.0
invitation 9.02354895875e-05
alternatives 0.0
villages 0.0
accepted 7.18127373587e-05
commentators 0.0
depression 9.31197512594e-05
comprehensive 0.0
committees 0.0
pushed 8.34752209337e-05
statistic 0.0
donation 0.0
electronic 0.0
nomination 0.0
britain 0.0
questioning 0.0
attempt 0.0
investment 0.0
terror 0.0
homeland 0.0
polish 0.0
switzerland 0.000222903281361
represents 8.81928545356e-05
announcer 0.0
churchill 0.0
ambassadors 0.000121021649304
anchors 0.0
endorse 0.0
urgent 0.0
forced 6.58878521324e-05
expenses 0.0
preparations 0.000141754478811
string 0.0
morocco 0.0
thrill 0.0
watchdog 0.0
agencies 0.0
scrutiny 0.0
glorious 0.0
approaching 0.0
tragedy 0.000140944804727
handled 0.0
offers 6.85373119152e-05
requested 0.0
improvements 0.0
destroying 0.0
inexpensive 0.000180475973266
opposition 8.68832190613e-05
smithsonian 0.0
addiction 0.0
challenged 0.0
manhattan 0.0
richmond 0.0
forces 6.98176227872e-05
nations 0.0
anderson 0.0
builds 0.0
sexist 0.0
narrative 0.0
application 0.0
cannon 0.0
ethical 0.0
representation 0.0
obvious 0.0
statistics 0.0
military 0.0
housing 0.0
wonderfully 0.0
miller 0.0
copying 0.0
advised 0.0
ordered 0.0
unions 0.0
useless 0.0
alicia 0.0
economic 0.0
radical 0.0
planted 0.0
theories 0.0
conceived 0.0
readers 8.14395126732e-05
bombing 0.0
products 7.78976026182e-05
phenomena 0.0
classroom 0.0
classified 0.0
purely 0.0
hacked 0.0
taxpayers 0.0
opposed 0.0
pressing 0.0
russia 0.000266743108347
abraham 0.0
lincoln 8.78616773751e-05
observer 0.0
intelligent 0.0
lawsuit 0.0
detective 0.0
magnificent 0.0
heritage 0.000101767418331
beloved 0.0
dignity 0.0
priorities 0.0
repealing 0.0
murdoch 0.0
coalition 0.0
theresa 0.0
charges 9.02354895875e-05
activists 0.0
elected 0.0
relief 0.000142722577345
congratulates 0.0
pledge 0.000240954642161
elections 0.0
landslide 0.0
council 0.0
imperative 0.0
catastrophic 0.0
douglas 0.0
brexit 0.0
democracy 0.0
disastrous 0.0
rebuild 0.0
pundits 0.0
nickname 0.000219539145935
poison 0.0
interfering 0.0
negotiations 9.74316859981e-05
summit 0.0
dossier 0.0
unleash 0.0
negotiation 0.0
sticking 0.000168150104197
openly 0.0
embarrassed 0.0
ireland 7.6356578304e-05
attacks 0.0
remarks 0.0
democratic 0.0
outgoing 0.0
maureen 0.0
treasury 0.0
refugees 8.53004848706e-05
snatch 0.0
morgan 0.00025872929784
grieve 0.0
vicious 0.0
essentially 0.0
restoring 0.0
extended 0.0
referendum 0.0
ovation 0.0
bankrupt 0.0
proudly 0.0
oppose 0.0
refusal 0.0
urging 0.0
strengthen 0.0
deliver 0.0
negotiating 0.0
remaining 0.0
merkel 0.0
repeal 0.0
formal 0.0
reckless 0.0
prosperous 0.0
servant 0.0
desperate 0.0
secretaries 0.0
formally 0.0
breach 0.0
gloomy 0.0
outlines 0.0
concessions 0.0
executive 7.15864190015e-05
extend 9.38721780881e-05
republicans 0.0
terrorists 0.0
weapons 0.0
bodyguards 0.0
outrage 0.0
representative 0.000102689759882
prevail 0.0
searched 0.0
policemen 0.0
islamic 0.0
islamist 0.0
ingrained 0.0
humbled 0.0
courage 0.000141829085325
chamber 0.0
commander 0.0
formula 0.0
brigade 0.0
respecting 0.0
lectured 0.0
devices 0.0
enormous 0.0
verdict 0.0
refusing 0.0
energies 0.0
carried 0.0
behalf 0.0
tariff 0.0
amendment 0.0
nightmare 0.0
employment 0.0
legislation 0.0
referring 0.0
scrapping 0.0
handling 0.0
goodies 0.000484086597214
proves 0.0
prominently 0.0
crackdown 0.0
unfair 0.0
fiscal 0.0
humiliating 0.0
strongly 0.0
vision 0.0
resignation 0.0
confirmation 0.0
records 0.0
disabled 0.0
quoting 0.0
reductions 0.0
deeply 6.93865917302e-05
commerce 0.0
accumulation 0.0
overplaying 0.0
refugee 8.53004848706e-05
conway 0.0
exposed 0.0
netanyahu 0.0
israeli 0.0
priority 0.0
strongest 0.0
freedoms 0.0
treaties 0.0
empowering 0.0
laughter 0.0
syrian 0.0
uphold 0.0
praising 0.0
renewal 0.0
penned 0.0
condemns 0.0
realdonaldtrump 0.0
goodwill 0.0
attorney 0.000100420064723
settled 9.91137537113e-05
chairman 0.0
capability 0.0
firing 0.0
seanspicer 0.0
inaugural 9.86870115917e-05
carnage 0.0
optimism 9.82644738963e-05
rulers 0.0
clintons 0.0
melania 0.0
bikers 0.0
handing 0.0
intended 0.0
optimistic 0.0
campaigned 0.0
finance 0.0
allies 0.0
compromised 0.0
governor 0.0
bosses 0.0
attempts 0.0
irresponsible 0.0
incidents 0.0
merely 0.0
documents 0.0
tariffs 0.0
purpose 0.0
architect 0.0
arlene 0.0
resign 0.0
reuters 0.0
mainstream 0.0
dozens 0.0
donnell 0.0
clarified 0.0
gathering 0.0
crimes 0.0
vulnerable 0.0
commentator 0.0
overwhelmingly 0.0
respectful 0.0
markets 0.0
inspector 0.0
nigel_farage 0.0
drudge 0.0
abused 0.0
infrastructure 0.0
projected 0.0
boards 0.0
allegations 0.0
bloomberg 0.0
insulting 0.0
leaking 0.0
liberal 0.0
chairs 0.0
podium 0.0
conceded 0.0
capitol 0.0
consulting 0.0
wannabe 0.0
powell 0.0
reforms 0.00011693405978
technical 0.000179776445353
securing 0.0
steven 0.0
rumsfeld 0.0
businesses 0.0
balancing 0.0
socialist 0.0
complaints 0.0
politician 0.0
representatives 0.0
rallies 0.0
belittle 0.0
ballot 0.0
failing 0.0
refuses 0.0
conclude 0.0
vibrant 0.0
tarmac 0.0
spinning 0.0
appointments 0.0
farewell 9.02354895875e-05
opponents 0.0
unopposed 0.0
polling 9.23802979556e-05
prosperity 0.0
apology 0.0
outline 0.0
losers 0.0
battlefield 0.0
abandoned 0.0
endorsed 0.0
negotiate 0.0
negotiated 0.0
unwilling 0.0
appointed 0.0
slaughter 0.0
betray 0.0
donated 0.000154755502102
immigrant 0.0
prosecuted 0.0
criminals 0.0
elizabethforma 0.0
protesting 0.0
releasing 0.0
screening 0.0
sponsor 0.0
pocketbook 0.0
transparency 0.0
austin 0.0
obamacare 0.0
acceptable 0.000171224786733
schwarzenegger 0.0
congressman 0.0
profits 0.0
toward 0.0
fleeing 0.0
bravery 0.0
protests 0.0
recieved 0.0
violent 0.0
remarkably 0.0
senators 9.99801918499e-05
ratings 0.0
spouses 0.0
fundraiser 9.12944873225e-05
senate 0.0
louisiana 0.0
giuliani 0.0
venezuela 0.0
parenthood 0.0
organizations 0.00011202731683
generations 0.0
minorities 0.0
underestimate 0.0
terrified 0.0
discourse 0.0
pennsylvania 0.0
hackers 0.0
nbcnews 0.0
mccain 0.0
scandal 0.0
constitution 0.0
sensanders 0.0
abandon 0.0
explode 0.0
reopening 0.0
governments 0.0
competent 0.0
mike_pence 0.0
stinks 0.0
logical 0.0
accurately 0.0
righteous 0.0
thursdays 0.0
fitting 0.0
category 0.0
swearing 0.0
politifact 0.0
abolish 0.0
surging 0.0
murders 0.0
reagan 0.0
vetting 0.0
vetted 0.0
pouring 0.0
fraudulent 0.0
ballots 0.0
fading 0.0
speakerryan 0.0
civilized 0.0
commercials 0.0
luxurious 0.0
outraged 0.0
nypost 0.0
statute 0.0
enforcement 0.0
accountability 0.0
truthful 0.0
springfield 0.000301497622569
cancelled 0.0
conflicts 0.0
suffer 0.0
selfishly 0.0
educational 0.0
stolen 0.0
visionary 0.0
wounds 0.0
disgraceful 0.0
hatred 0.0
persuasion 0.0
exposing 0.0
teaches 0.0
sellers 0.0
refers 0.0
trusted 0.0
sheriff 0.0
samsung 0.0
ranking 0.0
undecided 0.0
nebraska 0.0
abusive 0.0
abuser 0.0
nashville 0.000560965887562
lightweight 0.0
victories 0.0
consumer 0.0
violation 0.0
sarcasm 0.0
freaky 0.0
jimmyfallon 0.0
outlets 0.0
vanityfair 0.0
harassed 0.0
leverage 0.0
sacred 0.0
horrific 0.0
contribute 0.0
indicted 0.0
chooses 0.0
defended 0.0
champion 0.000341637969976
waited 0.0
denmark 0.000109769572967
conviction 0.0
retail 0.0
distract 0.000117588839356
globes 0.0
endorsing 0.0
pathetic 0.0
purposely 0.0
expose 0.0
representing 0.000168150104197
mmflint 0.0
registration 0.000185496861877
acceptance 9.31197512594e-05
defeated 0.0
prosecutor 0.0
nbcsnl 0.0
nevada 0.0
illinois 0.0
massachusetts 0.0
spontaneous 0.0
entrepreneur 0.0
arkansas 0.0
hotels 0.000115653748908
exhausted 0.0
puppets 0.0
protesters 0.0
natalie 0.0
anaheim 0.0
nominating 0.00013735192658
vietnam 0.0
claimed 0.0
indianapolis 0.0
loudly 0.0
sarasota 0.0
rapids 0.0
oklahoma 0.0
devoted 0.0
sacramento 0.0
arranged 0.0
baldwin 0.0
crushed 0.000350132151982
reflects 9.27484309384e-05
replacing 0.0
louder 0.0
flashback 0.0
farmers 0.0
unleashed 0.0
tourists 0.0
steals 0.0
albany 0.0
devastation 0.0
meantime 0.0
donlemon 0.000183434886356
wilbur 0.0
finalists 0.000104111566195
ransom 0.0
normmacdonald 0.0
vanishing 0.0
clarence 0.0
jaketapper 0.0
clowns 0.000122475592919
elizabeth 8.65619649062e-05
microphone 0.0
machines 0.0
premium 0.0
championships 0.000231307497816
impersonation 0.0
horribly 0.0
stakes 0.0
mouthed 0.0
reservation 0.0
delaware 0.0
springs 0.0
columbus 0.000301260194169
slackers 0.0
toyota 0.000257681831385
chucktodd 0.0
correspondents 0.0
soldier 0.0
panels 0.0
broadcasting 9.78460585856e-05
sparks 0.0
warned 0.0
jclayfield 0.0
kellogg 0.0
anchor 0.0
heated 0.0
congressional 0.0
boeing 0.0
usatoday 0.0
endlessly 0.0
craziest 0.0
viewers 9.54178311033e-05
delivers 0.0
pittsburgh 0.00042232851819
marshal 0.0
reverend 0.0
lifelong 0.0
disdain 0.0
hispanic 0.0
defrauded 0.0
oppression 0.0
crowds 0.0
washingtonpost 0.0
affordable 0.0
tapping 0.0
ginsburg 0.0
reilly 0.00181123812664
illegally 0.0
shootings 0.00011380221408
destiny 0.0
serenawilliams 0.0
motors 0.0
redding 0.0
initially 0.0
travis 0.0
accomplishments 0.000128840915692
misconduct 0.0
mocked 0.0
disgrace 0.0
greeley 0.0
carmel 0.0
outcry 0.0
playbook 0.0
zealand 0.000285078492563
fearless 0.0
lining 0.0
sidekick 0.0
madame 0.0
grandstand 0.0
rochester 0.000448027639916
speechless 0.000215249529199
fletcher 0.0
begged 0.0
wintour 0.0
inspires 0.0
carlos 0.0
missiles 0.0
chelsea 0.000184030596115
oppressive 0.0
forgiven 0.0
killings 0.0
taiwan 0.0
somalia 0.0
burning 7.56063452517e-05
subscribers 0.0
chester 0.0
newtown 0.0
booker 0.0
heights 0.000107624764599
leicester 0.000125540269884
chiefs 0.000108683762334
joenbc 0.0
opioid 0.0
separately 0.000139496734948
intros 0.0
columnist 0.0
manages 0.0
financed 0.0
mnuchin 0.0
delegate 0.0
vicente 0.0
struck 0.0
trudeau 0.0
oreillyfactor 0.0
vulgarian 0.0
publicity 0.0
amnesty 0.0
ivankatrump 0.0
communism 0.0
linkedin 0.0
avoided 0.0
sophisticated 0.0
seanhannity 0.0
anncoulter 0.0
foolish 0.0
catholics 0.0
bogged 0.0
catholic 0.0
thriving 0.0
newtgingrich 0.0
abedin 0.0
secretly 0.0
undermines 0.0
americanism 0.0
christians 0.0
rationally 0.0
deplorable 0.0
wikileaks 0.0
execution 0.0
enduring 0.0
foxandfriends 0.0
losses 0.0
kevcirilli 0.0
staffers 0.0
barron 0.0
jihadis 0.0
hampshire 0.0
pandering 0.0
donaldjtrumpjr 0.0
moines 0.0
lobbying 0.0
careless 0.0
piersmorgan 0.0
palestinian 0.0
kellyanne 0.0
democrat 0.0
unfunny 0.0
condemned 0.0
despair 0.0
louvre 0.0
crooked 0.0
lynden 0.0
outperform 0.0
tedcruz 0.0
majors 0.0
schumer 0.0
credibility 0.0
flooding 0.0
hannity 0.0
beneficiary 0.0
sanctions 0.0
nominates 0.0
existent 0.0
criticized 0.0
senatemajldr 0.0
workforce 0.0
issued 0.0
outsider 0.0
declare 0.0
ivanka 0.0
dignified 0.0
threaten 0.0
outcomes 0.0
ukraine 0.0
justintrudeau 0.0
vladimir 0.0
businessman 0.0
regards 0.0
assange 0.0
malicious 0.0
garners 0.0
ethics 0.0
wrecked 0.0
regimes 0.0
incorrectly 0.0
hostile 0.0
defenders 0.0
deceived 0.0
hypocritical 0.0
favorably 0.0
shatter 0.0
changer 0.0
spokane 0.0
unnecessary 0.0
cwaunion 0.0
expand 0.0
apologized 0.0
criticizing 0.0
legion 0.00015688600996
hershey 0.0
intensity 0.0
tigerwoods 0.0
amercan 0.0
reince 0.0
chriscjackson 0.0
hypocrites 0.0
billkristol 0.0
govmikehuckabee 0.0
dustin 0.0
bullied 0.0
anonymous 0.0
yankees 0.000376620809652
thehill 0.0
infiltrated 0.0
somali 0.0
invention 0.0
frontrunner 0.0
patriot 0.0
poorly 0.0
prisonplanet 0.0
daytona 0.0
comparable 0.0
shouted 0.0
holocaust 0.0
kellyannepolls 0.0
foxnews 0.0
initiated 0.0
tiffany 0.0
mikeandmike 0.0
barbara 0.000101313580983
litigation 0.0
frankcaliendo 0.0
toughness 0.0
suffered 0.0
streep 0.0
billionaire 0.0
percentage 0.0
insiders 0.0
premiums 0.0
congratulatory 0.0
treasurer 0.0
incompetence 0.0
delegates 0.0
rollout 0.0
appalled 0.0
misquoted 0.0
pledged 0.0
demanded 0.0
andrews 0.0
lowlife 0.0
courageous 0.0
betrayed 0.0
horrors 0.0
warheads 0.0
pledges 0.0
interrupts 0.0
blacks 0.0
elaine 0.0
candidacy 0.0
discredited 0.0
cringing 0.0
estates 0.0
laughable 0.0
aberdeen 0.0
healed 0.0
floods 0.0
swiftly 0.0
cheryl 0.0
syracuse 0.0
difficulties 0.0
flipping 0.0
wilkes 0.0
lisbon 0.0
suckers 0.0
golfdigest 0.0
jeffrey 0.0
sixteen 0.0
scandals 0.0
circuits 0.0
regulations 0.0
monitoring 0.0
swamped 0.0
costing 0.0
detained 0.0
warmest 0.0
marginalize 0.0
miners 0.000141754478811
unemployment 0.0
paragon 0.0
obsolete 0.0
subsidies 0.0
exercised 0.0
evangelicals 0.0
franklin 0.0
molten 0.0
servers 0.0
billgates 0.0
excessive 0.0
coordinated 0.0
geneva 0.0
soaring 0.0
unsecured 0.0
corporations 0.0
rifles 0.0
innovative 0.0
pillar 0.0
bashing 0.0
organize 0.000125540269884
panelists 0.0
frontiers 0.0
pricing 0.0
platforms 0.0
scaling 0.0
pretends 0.0
forensic 0.0
roundtable 0.0
inherit 0.0
fabrication 0.0
brewer 0.0
unaffordable 0.0
reinforcing 0.0
eventful 0.0
wasserman 0.000387555317508
lindsey 0.0
billclinton 0.0
upstate 0.0
empowerment 0.0
penalties 0.0
responders 0.000136318449363
civilization 0.0
occupy 0.0
approximately 0.0
knight 0.0
homeownership 0.0
scratched 0.0
screws 0.0
contractor 0.0
havana 0.0
lowering 0.0
foundations 0.0
revitalize 0.0
counters 0.0
foreclosed 0.0
renovated 0.0
delaying 0.0
employer 0.0
executed 0.0
subpoena 0.0
grifters 0.0
cincinnati 0.0
disgraced 0.0
falsely 0.0
strengthening 0.0
abcworldnews 0.0
skyrocketing 0.0
pipelines 0.0
likewise 0.0
dishonest 0.0
surges 0.0
woefully 0.0
pressured 0.0
erratic 0.0
temperament 0.0
emboldened 0.0
keystone 0.0
mandated 0.0
crumbling 0.0
johnkasich 0.0
latinos 0.0
combating 0.0
incompetent 0.0
loopholes 0.0
incapable 0.0
unqualified 0.0
melaniatrump 0.0
recount 0.0
voluntarily 0.0
desperation 0.0
denounce 0.0
demoralized 0.0
incited 0.0
fawning 0.0
accuser 0.0
electing 0.0
patrol 0.0
connecticut 0.0
amounts 0.0
govpencein 0.0
squandered 0.0
enforce 0.0
epipens 0.0
deplorables 0.0
generals 0.0
timkaine 0.0
benghazi 0.0
moderators 0.0
sheriffclarke 0.0
unfairly 0.0
competence 0.0
dysfunctional 0.0
eleventh 0.0
instructed 0.0
restrict 0.0
battleground 0.0
jilted 0.0
blazing 0.0
hypocrite 0.0
mcconnell 0.0
circulated 0.0
flailing 0.0
pathological 0.0
deflect 0.0
undoing 0.0
predictable 0.000114410553771
phoney 0.0
perils 0.0
governing 0.0
likeable 0.0
tumble 0.0
praised 0.0
extraordinarily 0.0
jinping 0.0
trashes 0.0
knowingly 0.0
disloyal 0.0
woodward 0.0
magnificently 0.0
pretended 0.000142929544896
slaughtered 0.0
climber 0.0
americ 0.0
unprofessional 0.0
diplomats 0.0
resulted 0.0
crossroads 0.0
syrians 0.0
suppress 0.0
remembrance 0.000117588839356
infighting 0.0
castro 0.0
unquestionably 0.0
corrupted 0.0
kasich 0.0
readership 0.0
fraternal 0.0
frankluntz 0.0
demagogue 0.0
unanimous 0.0
bedford 0.0
longtime 0.0
complexities 0.0
dailymail 0.0
couric 0.0
cancelling 0.0
morningmika 0.0
concord 0.0
recounts 0.0
shouldered 0.0
patmccrorync 0.00021977314387
executives 0.0
westfield 0.0
graydon 0.0
sheldon 0.0
tanking 0.0
morning_joe 0.0
fabricated 0.0
corolla 0.0
groveling 0.0
unfolding 0.0
polled 0.0
influx 0.0
underachieving 0.0
antics 0.0
disenfranchised 0.0
golfing 0.0
xfinity 0.0
defies 0.0
fictitious 0.0
districts 0.0
vigilant 0.0
obstruction 0.0
rebuilding 0.0
preserving 0.0
passover 0.0
dhsgov 0.000193777658754
thejusticedept 0.0
repealed 0.0
intends 0.0
wildfires 0.0
usedgov 0.0
fresno 0.0
usnavy 0.0
scotus 0.0
tillerson 0.0
ineffective 0.0
senjohnmccain 0.0
cbsnews 0.0
lawsuits 0.0
caucus 0.0
shimon 0.0
wilmington 0.0
stagnant 0.0
gouging 0.0
baghdad 0.0
wiesel 0.0
obstruct 0.0
gonzalo 0.0
curiel 0.0
hostage 0.0
unnamed 0.0
truckers 0.0
boldly 0.000170337913568
scarborough 0.0
evangelical 0.0
cyberattack 0.0
marines 0.0
crimea 0.0
earners 0.0
oversaw 0.0
lobbyists 0.0
rosiegray 0.0
briefings 0.0
actresses 0.0
purchases 0.0
myanmar 0.0
heightened 0.0
shackles 0.0
perjury 0.0
dallaspd 0.0
respectfully 0.0
canton 0.0
approx 0.0
admirals 0.0
naples 0.0
brainwashed 0.0
albuquerque 0.0
supposedly 0.0
coliseum 0.0
greensboro 0.0
sheriffs 0.0
hostages 0.0
explorers 0.0
confidential 0.0
tamara 0.0
infested 0.0
depicted 0.0
devote 0.0
payroll 0.0
bombshell 0.0
advisers 0.0
watergate 0.0
mcmaster 0.0
renews 0.0
housegop 0.0
katyturnbc 0.0
pocahontas 0.0
wherein 0.0
shreds 0.0
pelosi 0.0
chrysler 0.0
collusion 0.0
deductibles 0.0
repmarkmeadows 0.0
darrellissa 0.0
insurer 0.0
dishonesty 0.0
hotlinejosh 0.0
quinnipiacpoll 0.0
apologizing 0.0
priebus 0.0
clapper 0.0
tapped 0.0
operatives 0.0
senschumer 0.0
marcorubio 0.0
viciously 0.0
leakers 0.0
bangladesh 0.0
favorable 0.0
nbcnightlynews 0.0
lockheed 0.0
untruthful 0.0
resonating 0.0
transferring 0.0
staten 0.0
humana 0.0
juanita 0.0
senses 0.0
stimulate 0.0
drooling 0.0
lakeland 0.0
burying 0.0
crafted 0.0
misrepresent 0.0
fabled 0.0
railing 0.0
billyjoel 0.0
sniper 0.0
cnnsotu 0.0
independents 0.0
detroitnews 0.0
foxbusiness 0.0
washtimes 0.0
realbencarson 0.0
meetthepress 0.0
newday 0.0
thebrodyfile 0.0
bostonherald 0.0
foxnewssunday 0.0
thefive 0.0
chriscuomo 0.0
randpaul 0.0
dcexaminer 0.0
facethenation 0.0
bretbaier 0.0
interruption 0.0
allenwest 0.0
cvpayne 0.0
dailycaller 0.0
prosecution 0.0
ballistic 0.0
vetoed 0.0
gettysburg 0.0
groping 0.0
brennan 0.0
nielson 0.0
justices 0.0
operative 0.0
surged 0.0
megynkelly 0.0
terminated 0.0
softbank 0.0
fronting 0.0
rigging 0.0
reprieve 0.0
pocketed 0.0
colluded 0.0
coffers 0.0
stairway 0.0
ellison 0.0
selflessly 0.0
tornadoes 0.0
levine 0.0
scranton 0.0
enslave 0.0
inappropriately 0.0
devalue 0.0
presumptive 0.0
fournier 0.0
terminate 0.0
reptommarino 0.0
kimberly 0.0
subscriptions 0.0
ingrahamangle 0.0
trajectory 0.0
natalie_gulbis 0.0
unheard 0.0
objectified 0.0
turnberry 0.0
djohnsonpga 0.0
bedminster 0.0
golf_com 0.0
elevation 0.0
litany 0.0
unaccountable 0.0
primaries 0.0
disrupter 0.0
runways 0.0
hashanah 0.0
unenthusiastic 0.0
undecideds 0.0
richardtrumka 0.0
renegotiate 0.0
rapists 0.0
aldridge 0.0
unsubstantiated 0.0
misrepresented 0.0
prisoner 0.0
mattis 0.0
weakening 0.0
endakennytd 0.0
taoiseach 0.0
lifeboat 0.0
enabler 0.0
emanated 0.0
lindseygrahamsc 0.0
renegotiating 0.0
waterville 0.0
zucker 0.0
berglund 0.0
suboptimal 0.0
steelworkers 0.0
postpone 0.0
mohammed 0.0
indignant 0.0
comprised 0.0
stupidest 0.0
exxonmobil 0.0
precluded 0.0
instruct 0.0
gonzales 0.0
scorned 0.0
davidmuir 0.0
harrisburg 0.0
caesars 0.0
borisep 0.0
lapierre 0.0
limbaugh 0.0
petraeus 0.0
phyllis 0.0
illegals 0.0
sanctity 0.0
neurotic 0.0
negligence 0.0
alvarez 0.0
roseanne 0.0
roanoke 0.0
theleegreenwood 0.0
mcallen 0.0
deduct 0.0
chokes 0.0
vigilance 0.0
pensacola 0.0
tuckercarlson 0.0
repcummings 0.0
windham 0.0
teleprompter 0.0
paulareidcbs 0.0
jeffzeleny 0.0
condoleezza 0.0
genflynn 0.0
donaldtrump 0.0
demeanor 0.0
baiting 0.0
plotted 0.0
aptitude 0.0
billings 0.0
approving 0.0
disconnected 0.0
superstorm 0.0
brainpower 0.0
exclaim 0.0
skyrocketed 0.0
globalism 0.0
israelipm 0.0
insurgent 0.0
sneers 0.0
unrest 0.0
scaramucci 0.0
disapproval 0.0
katiepavlich 0.0
overflow 0.0
warped 0.0
scottwalker 0.0
kirstenpowers 0.0
usarmy 0.0
schlafly 0.0
alisonforky 0.0
oppresses 0.0
pedantic 0.0
highness 0.0
benefitted 0.0
fundraisers 0.0
shinzo 0.0
augustine 0.0
ranchers 0.0
middletown 0.0
fiorina 0.0
pueblo 0.0
lindasuhler 0.0
lightweights 0.0
kimguilfoyle 0.0
perdue 0.0
unmasked 0.0
unmasking 0.0
judgejeanine 0.0
boycotted 0.0
outnumberedfnc 0.0
jessebwatters 0.0
podesta 0.0
kristol 0.0
interruptions 0.0
broaddrick 0.0
erictrump 0.0
outspending 0.0
irredeemable 0.0
begala 0.0
brazile 0.0
dinesh 0.0
markings 0.0
ericbolling 0.0
loudobbs 0.0
skyrocket 0.0
blumenthal 0.0
cochran 0.0
imploding 0.0
discord 0.0
jeffflake 0.0
davidwohl 0.0
bribery 0.0
repkenbuck 0.0
joshrogin 0.0
enrique 0.0
unverified 0.0
retribution 0.0
dwindling 0.0
automobile 0.0
teamtrump 0.0
subpoenaed 0.0
danscavino 0.0
joniernst 0.0
scottadamssays 0.0
senatorfischer 0.0
tabulation 0.0
trafficked 0.0
depict 0.0
unrelenting 0.0
imitating 0.0
dutchess 0.0
adelson 0.0
valuing 0.0
ricksantorum 0.0
chuckgrassley 0.0
laraleatrump 0.0
abingdon 0.0
equating 0.0
ministries 0.0
brzezinski 0.0
sentedcruz 0.0
jamesrosenfnc 0.0
leaker 0.0
realjameswoods 0.0
jim_jordan 0.0
marshablackburn 0.0
boynton 0.0
betsydevos 0.0
lawfare 0.0
larry_kudlow 0.0
stranahan 0.0
waynedupreeshow 0.0
phillypolice 0.0
scottwrasmussen 0.0
johnstown 0.0
raul_labrador 0.0
statewide 0.0
reviewjournal 0.0
oppress 0.0
underlings 0.0
bankrupted 0.0
collude 0.0
fayetteville 0.0
disqualifying 0.0
mahoning 0.0
disloyalty 0.0
americanlegion 0.0
bankruptcies 0.0
morell 0.0
ambridge 0.0
emboldens 0.0
asheville 0.0
grievous 0.0
ricketts 0.0
benefactor 0.0
dwyane 0.0
markhalperin 0.0
mayorbowser 0.0
unverifiable 0.0
savaged 0.0
wheeling 0.0
technocratic 0.0
countr 0.0
thealabamaband 0.0
relives 0.0
unwatchable 0.0
residences 0.0
gatekeeper 0.0
defections 0.0
senatorsessions 0.0
drmoore 0.0
honorably 0.0
billhemmer 0.0
shultz 0.0
aflcio 0.0
trucking 0.0
fabrications 0.0
malleable 0.0
misrepresents 0.0
decimated 0.0
arabella 0.0
mishandled 0.0
interfe 0.0
speach 0.0
iranians 0.0
fraudulently 0.0
enablers 0.0
dealmaker 0.0
terrori 0.0
anarchists 0.0
krzanich 0.0
foxnation 0.0
permeated 0.0
overruns 0.0
disposed 0.0
inaccurately 0.0
peebles 0.0
conditioners 0.0
classifie 0.0
forewarned 0.0
karlrove 0.0
palazzo 0.0
evansville 0.0
rebroadcast 0.0
bangor 0.0
secpricemd 0.0
realdonaldtru 0.0
uschamber 0.0
trumpinaugural 0.0
rawlings 0.0
churchillian 0.0
hemmer 0.0
rudygiuliani 0.0
pynance 0.0
terrybranstad 0.0
cbnnews 0.0
faithandfreedom 0.0
ovations 0.0
scpioneer 0.0
dwstweets 0.0
tgowdysc 0.0
bluffs 0.0
marist 0.0
spluttering 0.0
thetodaysgolfer 0.0
thebig_easy 0.0
hoosier 0.0
senbobcorker 0.0
larsloekke 0.0
roadblocks 0.0
manheim 0.0
greenblatt 0.0
jtanews 0.0
mitchellvii 0.0
bemoan 0.0
michiga 0.0
gennifer 0.0
gulbis 0.0
liyuan 0.0
enlisting 0.0
ainsleyearhardt 0.0
stevedoocy 0.0
foxfriendsfirst 0.0
pastormarkburns 0.0
marksimoneny 0.0
gov_gilmore 0.0
flunky 0.0
agitators 0.0
overdoses 0.0
liliantintori 0.0
leopoldo 0.0
traceadkins 0.0
gopconvention 0.0
governorsununu 0.0
laconia 0.0
teamsters 0.0
gatewaypundit 0.0
lawyerly 0.0
dissipates 0.0
realjeffreylord 0.0
nytimesdowd 0.0
scalise 0.0
straightening 0.0
energizer 0.0
montgomeriefdn 0.0
shulkin 0.0
ericgreitens 0.0
circuited 0.0
govbrewer 0.0
infringed 0.0
mcgarvey 0.0
republicanstudy 0.0
americafirstpol 0.0
fheile 0.0
phadraig 0.0
wiedefeld 0.0
coddington 0.0
kravis 0.0
fighterjet 0.0
shinzō 0.0
votestand 0.0
romoabcnews 0.0
moskowitzeva 0.0
drgoodspine 0.0
levisteveholt 0.0
untrusting 0.0
sleazebag 0.0
lbperfectmaine 0.0
timken 0.0
newhouse 0.0
evancho 0.0
franklin_graham 0.0
eazymf_e 0.0
busineses 0.0
substantialy 0.0
rexnord 0.0
sdcritic 0.0
highonhillcrest 0.0
fiiibuster 0.0
koster 0.0
saucier 0.0
t_lineberger 0.0
cissieglynch 0.0
saysgabrielle 0.0
ravenrantz 0.0
mayorrgiuliani 0.0
deplorablecbtp 0.0
tanden 0.0
keithrowland 0.0
kinston 0.0
sjsopio 0.0
aztrumptrain 0.0
therealmogul 0.0
unclassify 0.0
firebombed 0.0
wikileakes 0.0
davidshiloach 0.0
trumpwomenstour 0.0
mistreats 0.0
willey 0.0
dornsife 0.0
henryleledog 0.0
eericmyers 0.0
atensnut 0.0
arouses 0.0
anyonetennis 0.0
flifeforce 0.0
geeveem 0.0
susiesentinel 0.0
bcuzimdamomma 0.0
freedavidking 0.0
ifdanyt 0.0
arsenmissyirvin 0.0
nycmia 0.0
bigdog_joey 0.0
roadkingl 0.0
decieved 0.0
waukesha 0.0
creati 0.0
thallensboucher 0.0
kenansville 0.0
tarukmatuk 0.0
angpiazza 0.0
laughingstock 0.0
ak_tweet 0.0
kiiara 0.0
jerryjrfalwell 0.0
ghfanlovessonny 0.0
bishopwtjackson 0.0
cynthialummis 0.0
repreneeellmers 0.0
trumpdc 0.0
stvzbnk 0.0
bakari 0.0
adhd_fa 0.0
parisdennard 0.0
ronnieclemmons 0.0
takouis 0.0
lblackvelvet 0.0
chernuna 0.0
annebellar 0.0
presidencies 0.0
rsbnetwork 0.0
meequalsfree 0.0
pmnorlando 0.0
rhondar 0.0
patrici 0.0
lindaharden 0.0
trumpocrats 0.0
lewenskimo 0.0
trump_videos 0.0
sinabunz_tm 0.0
eyecandytmgayle 0.0
catonglass 0.0
billynungesser 0.0
samaritanspurse 0.0
zulu_out 0.0
willspeakout 0.0
laurencristmann 0.0
c_lynne_ryan 0.0
enemywithinn 0.0
elsolarverde 0.0
creats 0.0
dbongino 0.0
bongino 0.0
carl_c_icahn 0.0
fieldoffight 0.0
reploubarletta 0.0
mainegop 0.0
gatewaypun 0.0
mechanicsburg 0.0
pnehlen 0.0
patrioticpepe 0.0
insticts 0.0
borderless 0.0
lallyray 0.0
glowingly 0.0
spinnnn 0.0
flamed 0.0
nancynielsenn 0.0
olimauritania 0.0
theresa_cali 0.0
roxanetancredi 0.0
litigate 0.0
trumpdoonbeg 0.0
berrien 0.0
nbcpolitics 0.0
jakeda 0.0
barrasso 0.0
bluedogdemky 0.0
iowa_trump 0.0
arnold_ziffel 0.0
patricia_graf 0.0
brazosboys 0.0
jimvitari 0.0
trumpturnberry 0.0
trumpscotland 0.0
darrenwaggener 0.0
allegrettivicki 0.0
justininglv 0.0
chrisboydbrew 0.0
votetrumpmaga 0.0
realericjallen 0.0
insinuated 0.0
clubgoers 0.0
ausbiz 0.0
freemarketsara 0.0
senatorjeffsessions 0.0
mabynshingleton 0.0
dale_dangler 0.0
nauthizjane 0.0
richardweaving 0.0
mariadaq 0.0
sara_wejesa 0.0
jimhewitt 0.0
joedefranco 0.0
wolfstopper 0.0
djd_thunder 0.0
excoriates 0.0
rapidcraft 0.0
telepromter 0.0
liliannyleebou 0.0
lunsfordwhitney 0.0
free_sa_bd 0.0
stockdaleism 0.0
admonished 0.0
nbcdfw 0.0
frankylamouche 0.0
sandiegopd 0.0
tombarrackjr 0.0
buiidthewall 0.0
pipersul 0.0
oasisupernova 0.0
jknatter 0.0
jasondovesq 0.0
ed_klein 0.0
overregulates 0.0
dubilujane 0.0
rbacliff 0.0
ltstevenlrogers 0.0
rowanne 0.0
shoneep 0.0
magicmetalninja 0.0
barbaro 0.0
michael_favreau 0.0
christichat 0.0
mai_ttag 0.0
thydanielflores 0.0
costakenneth 0.0
svhlevi 0.0
johnjohnlacca 0.0
ladytsbrug 0.0
frankdallasagg 0.0
ladyjoanne 0.0
gerriweth 0.0
longbyfive 0.0
wesleyfelixpsi 0.0
manakoa 0.0
ragdollive 0.0
xgodfatherxzx 0.0
trumptrainrider 0.0
aprillajune 0.0
takingit_back 0.0
distlerjoyce 0.0
queencharlotteo 0.0
kellyriddell 0.0
valdosta_monkey 0.0
daybastrop 0.0
nathandwilsonfl 0.0
mathewjmari 0.0
stupor 0.0
matandsher 0.0
edgoeas 0.0
lynnepatton 0.0
erictrumpfdn 0.0
mikeozanian 0.0
lexingtonbobby 0.0
annettejeanne 0.0
andrebauer 0.0
waterbury 0.0
greenskydeb 0.0
keksec__org 0.0
ashleyedam 0.0
trumptbird 0.0
herb_stamper 0.0
senfrankniceley 0.0
anneslimo 0.0
agentvf 0.0
hornick 0.0
gqforbes 0.0
governor_savage 0.0
carolde 0.0
fugedaboudit 0.0
dnglax 0.0
alexnightrasor 0.0
lilrachiepoo 0.0
