awesome 0.00136449671218
christmas 0.000923399022592
trying 4.38575475568e-05
moment 0.00017637854714
wonderful 0.000344850734559
seeing 0.000315393160554
recommend 6.52785038065e-05
anybody 6.72599997774e-05
worked 4.74290079643e-05
direct 0.0
others 4.71730354179e-05
currently 0.000104343598265
better 0.000433872207748
please 0.00136325383696
social 0.0
around 0.000260323324649
people 0.000780969973946
leaving 0.000198671982462
morning 0.00772104919484
general 0.000168663637829
investigate 0.0
damage 0.0
everything 0.000392595721772
twitter 0.000874789740385
though 0.000136266914551
friend 0.00105258114136
watched 0.000246321953256
beautiful 0.000314543620013
anything 0.000310331200953
helped 9.56316416313e-05
managing 0.0
updated 6.93363395336e-05
thinking 0.000133718213158
finally 0.000401154639475
caught 9.82613714097e-05
believe 0.000435043253554
already 0.000174017301421
couple 0.000286118997867
orlando 0.000520011791374
research 0.0
chance 0.000305352228045
meaning 0.0
annual 0.00011729142079
quickly 6.08624355774e-05
growing 5.23152280922e-05
probably 4.73008329205e-05
should 5.76595947477e-05
changed 0.000139996730275
history 0.000674022042885
center 0.000114349632576
museum 0.0
behind 0.000173548883099
pretty 0.000267436426316
really 0.00104692192472
expensive 0.0
little 0.000435043253554
earlier 0.000102082247062
realized 0.0
forget 0.000221068345077
someone 0.000351807441796
mostly 0.0
worker 0.0
safety 0.0
shuttle 0.0
program 0.00024275135552
things 0.000390484986973
related 0.000128263276493
visiting 0.00012033645047
available 0.000226499574329
afternoons 0.0
perfect 0.000181689219402
different 8.86660574152e-05
numbers 5.45255814472e-05
delays 0.0
person 0.000306176409135
watching 0.00100872359381
passed 5.31859038807e-05
celebrates 0.000173856687391
minutes 0.000540673989521
travel 5.33327304871e-05
daughter 0.000685728965746
average 0.0
positive 0.0
outside 9.23279696093e-05
looking 0.000739573531041
forward 0.000358510227638
plenty 0.0
agreed 0.000233919173914
raising 0.000186855284578
listened 0.000138248353324
afraid 0.0
impression 0.0
drawing 0.0
favorite 0.000911242854229
magnet 0.000296742080606
picture 0.000371312447469
historic 0.0
instead 0.000147392057115
appreciate 0.000153963126166
husband 0.0
international 0.000107850113388
market 0.0
couldn 0.000408800743654
remember 0.000697947949816
impressive 0.0
familiar 6.99791249314e-05
friends 0.000438575475568
despite 0.0
impossible 0.000118631593244
everyone 0.000523460962362
florida 0.0
always 0.00082435719472
months 9.10900821179e-05
moving 9.38371283707e-05
meeting 0.000312851634882
google 5.48289898219e-05
answer 8.93861813949e-05
together 0.000306176409135
inside 0.000136266914551
smaller 0.0
missed 0.000221068345077
active 0.0
longer 5.03491276697e-05
enough 0.000396851731064
driving 0.0
building 0.000195989566108
technician 0.0
enjoying 0.000106665460974
london 0.000415090846889
kennedy 0.000177107046462
recent 0.0
gotten 0.0
amazing 0.00200119896635
attention 0.000246992544529
richard 0.0
progress 6.05139419707e-05
tomorrow 0.000959678430997
george 0.000162672840276
excited 0.0010019909033
campaigning 0.0
understand 0.00014267268836
following 9.1583120044e-05
learning 0.000162223231324
evening 0.000449452499652
special 0.00039578337202
secret 4.88645056014e-05
across 0.00019492810174
comparison 8.15354112203e-05
surprised 0.0
anymore 5.55969252812e-05
rather 9.79947830539e-05
showing 0.0
saying 9.10900821179e-05
tweeted 0.000230638378991
updates 0.0
thoughts 0.000185155360809
exactly 0.000330211247925
except 5.55969252812e-05
getting 0.000523460962362
nothing 0.000218108734318
tweets 0.000144226875927
course 9.01123315868e-05
stephen 0.0
looked 9.90660860629e-05
difficult 0.0
stages 0.0
office 0.000141519106254
decisions 0.0
brought 0.000193347979598
biggest 4.4934802859e-05
thrilled 0.00019936952929
entire 4.84682725208e-05
something 0.000261730481181
closing 0.000129785674165
anyone 0.000307831511571
taking 0.000348973974908
recently 5.66953946057e-05
interesting 0.000145799845672
original 0.000516027782452
flying 5.48289898219e-05
happening 0.000237787813933
sometimes 0.000288453751855
stopped 0.0
yesterday 0.000351807441796
service 0.000143836585793
serious 9.3331153517e-05
emails 0.0
afford 0.0
british 0.0
contact 0.000119650482933
either 4.75575627866e-05
second 0.000131927790673
accident 0.0
checking 0.0
volunteers 0.0
indeed 0.000654334425738
island 0.000123492232483
hearing 4.87320254351e-05
choose 0.000153963126166
staying 5.89794598929e-05
another 0.000435043253554
address 0.00011762452846
display 7.801925835e-05
originally 0.0
compare 0.0
landing 7.96067727838e-05
perhaps 0.0
weekend 0.000486350359168
appear 0.0
anyway 0.0
theory 0.0
recognize 0.0
working 0.000436217468635
bigger 0.0
screen 0.000353876759357
treated 0.0
laughing 5.17443353717e-05
wanted 8.81892735698e-05
current 0.000308770088808
grateful 0.000114028839451
friendship 0.0
family 0.000828813190407
listening 0.000143447462447
stream 0.000239985577732
wedding 0.0
sharing 0.000307926252332
double 0.000197594035623
especially 9.66739897989e-05
middle 0.000100150780706
waiting 0.000223465453487
definitely 9.53729992891e-05
walking 0.000104630456184
account 0.000102361714104
completely 5.17443353717e-05
thought 0.000351807441796
reaction 0.000119309522017
accept 0.000111504314012
possible 9.23279696093e-05
simple 0.0
manufacturing 0.0
destroyed 0.0
professional 0.0
friendly 0.000129785674165
members 5.49814933912e-05
supposed 0.0
astronauts 0.000262439038647
component 0.0
business 9.40912264777e-05
absolutely 0.000373324614068
sending 0.000354372221089
delivering 0.0
heavily 0.0
biased 0.0
introducing 0.000279916499726
congrats 0.00169428772081
community 0.00010755243062
greatest 0.000238432498223
posted 0.000258013891226
saturday 0.00188761899457
wednesday 0.000210414065336
confused 0.000127138753953
explain 0.000101803677187
broken 0.0
chicago 0.000949052745951
fairly 9.09361653298e-05
hoping 0.000262295663853
relationship 0.0
actually 0.00017877236279
basket 0.0
myself 0.000228699265152
pocket 0.0
argument 0.0
decent 0.0
school 0.000797994516736
thursday 0.000279993460551
selling 0.0
talented 0.000172007424046
discuss 0.000112442425219
celebrate 0.000433855019606
celebrating 0.000364201899298
anniversary 0.000210993527922
contest 0.00017056384183
internet 0.000108448560184
figure 0.000104343598265
inspired 0.000474735437824
sitting 0.000197057562605
complaining 0.0
playing 0.000398997258368
street 0.000193347979598
points 0.000111815892234
advice 0.000204723428208
forever 0.000295586343908
congress 0.000227225565624
imagine 0.0
problem 0.000140375658235
played 0.000146196076305
canadian 7.52515989097e-05
pulling 7.42873987677e-05
keeping 9.74640508701e-05
lovely 0.000603118888041
chinese 0.0
unlike 8.06983327651e-05
allowed 0.0
otherwise 0.0
afternoon 0.000205284168222
planned 6.26481699554e-05
strange 0.0
notice 0.000118294604698
difference 0.000143059498934
author 0.000364400611488
intent 0.000101590790608
letting 5.3627882787e-05
system 0.0
almost 8.7243493727e-05
details 4.76864996446e-05
experience 9.10900821179e-05
viewed 0.00010436112852
living 0.000136635123177
bright 6.13904812933e-05
normal 5.84797934786e-05
practically 0.0
before 0.000189203331682
monday 0.000182180164236
realize 6.26481699554e-05
currency 0.0
sleeping 6.93363395336e-05
wanting 6.87029382001e-05
science 0.000369407606318
tweeting 0.000547837061959
forgot 0.000164031061251
herself 0.0
disaster 0.0
happens 0.0
silence 0.0
congratulations 9.61512506183e-05
natural 0.0
raised 0.000342086518352
mission 0.000236589209396
ironic 0.0
testing 0.0
deleted 0.0
channels 0.0
surprising 0.0
reference 7.38132167716e-05
forgotten 0.0
trouble 0.000161775170082
setting 0.0
reminds 6.17461162417e-05
fantastic 0.000205846725872
loving 0.000308770088808
hardly 8.09755683459e-05
complete 0.000100150780706
membership 0.0
nearly 0.0
spirit 0.000339220544546
launched 0.000195255725773
stories 0.000283038212507
including 4.84682725208e-05
inviting 0.0
wouldn 0.000235228066194
choice 0.000186158536337
offended 0.0
conversation 0.000371277007322
disrespectful 0.0
making 0.000348034602843
expect 5.23152280922e-05
discussion 0.0
believes 0.0
occasions 0.0
response 0.0
brings 0.000105207032668
subject 0.0
greetings 0.0
anytime 7.1741284718e-05
protected 0.0
location 0.000205481528267
thomas 0.0
missile 0.0
needed 9.30792681687e-05
seriously 0.0
spending 0.000379569960645
groups 0.0
modern 0.0
welcome 0.000881892735698
totally 0.000251745638349
evenings 0.0
laughed 0.0
running 4.5791560022e-05
finished 5.21717991326e-05
strong 0.0
hopefully 5.54422469684e-05
respond 0.0
message 0.000138866520607
coming 0.000957095157818
thankful 0.0
temporary 0.0
issues 0.000104057685514
challenge 4.78158208156e-05
happen 0.00026671630601
giving 0.000132283910355
turkey 6.35693769766e-05
common 5.39250566939e-05
pressed 0.0
healthcare 8.47507501693e-05
benefits 0.0
situation 0.000342086518352
workers 0.0
company 4.93985089057e-05
health 0.0
insurance 0.0
change 0.000305352228045
august 0.0
mental 0.0
carrier 0.0
neither 0.000300841126175
lowest 0.0
decide 5.40744104412e-05
happened 0.000275492080535
demand 0.0
generally 0.0
personal 4.74290079643e-05
beyond 4.87320254351e-05
passion 0.000132120553366
question 0.000356581901755
doctor 0.000133712789626
sacrifices 0.0
respected 0.0
position 0.0
increased 0.0
losing 0.0
strain 0.0
respect 0.000143059498934
collapse 0.0
shouldn 0.0
career 5.06246030127e-05
visited 0.000410963056533
challenger 0.0
reason 0.000137746040268
simply 0.000654306977367
audience 0.000120681478525
employees 0.0
accounts 0.0
attacked 8.53618478881e-05
involved 0.0
extreme 0.0
unhappy 0.0
caused 0.0001495336409
knocked 0.0
reality 0.0
mention 0.00010755243062
extremely 0.000190150692552
burned 0.0
without 8.79518604489e-05
falling 6.43206896163e-05
problems 0.000161328645931
timing 7.75027377167e-05
highly 0.0
online 4.69185641853e-05
animals 0.0
called 0.00013157264267
scientists 0.0
pictures 0.0
camera 0.000228057678901
heading 0.000778295337916
terribly 0.0
theater 8.23889578446e-05
paying 0.0
complex 0.0
sunday 0.00144179730539
nights 0.000128641379233
enthusiastic 0.000130342980001
increasing 0.0
traffic 6.54726303978e-05
opposite 0.0
lookout 0.000137907688902
reached 0.000194103845138
changing 0.000106960111313
harder 0.0
silent 7.40496599768e-05
speaking 0.000199756666512
careful 0.0
november 0.000116959586957
answered 0.0
number 8.93861813949e-05
atlantic 0.0
stupid 6.068783888e-05
budget 7.0195520496e-05
unless 0.00010755243062
calling 0.000137374680066
lately 0.0
levels 0.0
focused 0.000141702518473
ridiculous 0.0
financially 0.0
knowing 6.03407392625e-05
former 0.000164486969466
covers 0.000141263153273
mountain 7.69922939377e-05
suffers 0.0
schedule 6.7667394515e-05
greatly 0.0
friday 0.0022991107888
dramatic 0.0
failure 0.0
achieve 0.0
winner 0.000242341362604
closes 0.0
bother 0.0
directly 0.0
quality 0.0
tearing 0.0
father 0.000347675969308
wishes 0.000227418455773
collar 0.0
ground 0.000169610272273
matter 0.000233959430392
strategy 0.0
themselves 7.6237714557e-05
asking 9.23279696093e-05
mobile 0.0
device 0.0
computer 0.000134926437963
impressed 6.60602766828e-05
complain 0.0
dinner 0.000771297812633
suffering 0.0
single 8.9869605718e-05
parent 0.000159754198043
packed 0.0
catching 0.0
neglected 0.0
somewhat 0.000107833959149
approved 0.0
definition 0.0
energy 5.18863558611e-05
meltdown 0.0
events 0.000162223231324
europe 0.0
holiday 0.000251060215649
status 0.0
update 5.09018385936e-05
outage 0.0
customers 0.0
holding 0.000361219447716
survive 0.0
electric 0.0
picked 0.000163124007668
missing 9.30792681687e-05
surprise 9.3331153517e-05
german 0.0
officially 0.000254509192968
french 0.0
global 5.83145086281e-05
follow 0.000350860380455
opinion 0.000113709227886
design 0.0
allows 0.0
promoting 7.50085326113e-05
volunteer 0.0
negative 0.0
official 9.01123315868e-05
brutal 0.0
cotton 0.0
jersey 0.0
mistake 0.0
fixing 0.0
france 0.0
proper 0.000138672679067
peaceful 0.0
thinks 0.0
competition 0.0
industry 0.0
easier 0.000177441907047
successful 0.000178964283025
trending 7.21932390211e-05
leadership 6.82857501706e-05
agrees 0.0
organized 0.0
enthusiasm 0.0
turnout 0.0
showed 5.48289898219e-05
attended 8.75711290933e-05
trumps 0.000102494723736
networks 0.0
experienced 7.59890765082e-05
interested 5.60642966311e-05
effect 0.000114994798682
dislike 0.0
success 9.85287813025e-05
dreams 5.73358080154e-05
protect 0.0
rumors 0.0
arguing 0.0
referred 0.00010295385205
waving 0.0
growth 0.0
control 4.87320254351e-05
happier 7.96067727838e-05
likely 0.0
coincidence 0.0
cancel 0.0
project 0.000295586343908
laying 0.0
lesson 0.0
replacement 0.0
invited 0.000122780962587
continuing 0.00016139666553
clearance 0.0
treating 0.0
allowing 0.0
arrived 0.000105496763961
unable 0.0
opening 0.000284574047786
popular 0.0
followed 5.79858159896e-05
statement 0.000113073514849
enjoyed 0.000206977341487
spectacular 0.0
smoothly 0.0
length 8.59816758692e-05
wonder 0.000236504164603
matters 0.000229343232061
function 0.0
shared 5.98252414664e-05
connection 0.0
benefit 0.000109354040834
terrible 0.0
continues 5.31859038807e-05
equally 0.0
session 0.000171043259176
routine 0.0
associated 0.0
exciting 5.23152280922e-05
imagination 0.00020872225704
decides 0.0
cheering 0.0
spring 0.000223008628024
fallen 0.0
beautifully 0.0
places 5.20288427569e-05
entered 8.1818065124e-05
feedback 8.50552231435e-05
thousands 0.0
properly 0.0
informed 0.0
typical 0.0
continue 5.03491276697e-05
attend 0.0
excuse 0.0
female 0.0
recovery 0.0
closer 0.0
beginning 0.000219315959288
introduce 0.0
bought 0.0
multiple 0.0
slogan 0.0
covered 0.000113073514849
choices 0.0
unpredictable 0.0
enterprise 0.000224352604523
several 6.28308532601e-05
surrounded 0.0
dealing 0.0
teacher 0.000195255725773
training 0.0
auditorium 0.000142250032014
passing 0.000176938379679
become 9.10900821179e-05
presentation 8.8553523231e-05
spread 0.000149410107807
sooooo 0.0
season 0.00057690750371
putting 4.5791560022e-05
weight 0.0
stephanie 0.000132114132889
rapidly 0.0
follows 0.0
explained 0.0
stance 0.0
storms 0.00010436112852
headed 0.000230638378991
sleepy 0.0
returns 0.000350878760872
expected 0.0
resources 0.0
considering 0.0
fabric 0.0
suspect 0.0
constantly 8.04228574221e-05
condolences 0.0
appreciated 0.0
register 0.0
manage 0.0
transition 0.0
smooth 0.0
flowers 0.0
gained 0.0
savage 0.0
somebody 0.000260340967698
contract 0.0
furious 0.0
covering 0.0
boxing 9.65302395157e-05
credit 0.0
patriots 0.0
player 0.0
chemistry 0.0
grandkids 0.0
offensive 0.0
charles 0.0
fighting 9.93359912309e-05
atlanta 0.000377480173014
donald 6.26481699554e-05
mexico 0.0
unreal 0.0
police 0.000168663637829
represent 0.000147626433543
president 0.000242341362604
talking 0.000393655383173
unbelievable 6.93363395336e-05
alabama 0.0
slowest 0.0
conference 0.000162223231324
america 0.000974695174607
michigan 0.000175792257043
everybody 5.37762153102e-05
judgment 0.00010341789092
carolina 0.0
amount 6.12137510255e-05
houston 0.000148574797535
everyday 0.000123850065739
michael 4.92643906513e-05
protecting 7.77602293969e-05
million 0.000503707160242
election 6.0168225235e-05
honesty 0.0
telling 0.000198132172126
correct 0.0
pulled 6.54726303978e-05
attack 5.62212126097e-05
americans 0.00018206351664
salaries 0.0
killed 9.7199897115e-05
louisville 0.000517935196153
horrible 0.0
coverage 5.91473023489e-05
dallas 0.000215900020154
jacksonville 0.0
league 0.0
united 0.000113073514849
college 0.000218102325789
refuse 0.0
barackobama 0.0
hillary 7.801925835e-05
clinton 0.0
presidency 0.0
manning 9.89867759697e-05
stupidity 0.0
american 9.25776804047e-05
remain 0.000122780962587
founder 8.06983327651e-05
illegal 0.0
arizona 0.0
opinions 0.0
retire 0.0
triumph 9.98375330469e-05
stealing 0.0
speeches 0.0
innocent 0.0
scared 0.0
golden 5.88122642302e-05
straight 0.0
removed 0.0
answers 5.62212126097e-05
product 6.99791249314e-05
created 0.000209836531083
snoopdogg 0.000123903448471
worlds 0.0
record 0.000182180164236
stamina 0.0
weapon 0.0
funeral 0.0
registered 0.0
minnesota 0.0
committed 0.0
journey 0.000113390789211
disrespect 0.0
brother 0.000585044942688
prayers 0.0
documentary 0.0
boston 0.000189042927037
addition 7.59890765082e-05
korean 0.0
church 6.62579409006e-05
advantage 0.0
honestly 0.0
defeat 0.0
baltimore 0.0
lifetime 0.000131727017809
captain 0.000444297959861
retired 0.0
country 0.000270336994761
valley 0.0
mailbox 0.0
speedy 0.0
ending 5.8645710395e-05
finish 0.000160883648361
employee 0.0
university 6.24662526206e-05
remembered 0.000164777915689
nominated 0.000196417891193
praying 0.0
insane 0.0
national 0.000235865177089
reform 0.0
oregon 9.81523806239e-05
shooting 0.000109051162894
cancer 0.0
australia 0.0
deserve 0.000106960111313
legend 5.81498510462e-05
mother 0.000680399279805
murder 7.06315766366e-05
creating 5.9996394433e-05
powerful 0.000106371807761
carson 0.0
palmer 0.0
branch 0.0
breaking 0.000140755692556
dollars 7.3111521357e-05
questions 0.000134079272092
racist 0.0
charged 0.000165354492173
girlfriend 0.0
performance 0.000201946586839
refreshing 0.0
reading 0.00638785994793
corrupt 0.0
penalty 0.0
writer 0.0
denver 0.000730299846223
create 0.0
admire 8.06983327651e-05
nobody 5.34800556567e-05
government 0.0
politics 0.0
comeback 0.000159754198043
charities 0.0
method 9.12874807778e-05
sample 9.30880387648e-05
bringing 0.000293984349162
celebs 0.0
stadium 0.000147626433543
funniest 0.0
according 0.0
threat 6.48928370825e-05
heroin 0.0
honest 5.42242800921e-05
rolling 6.54726303978e-05
became 0.000163576744342
feature 5.98252414664e-05
decision 0.0
counting 0.000185775098609
verified 0.000106813036263
signing 0.00102914669318
adding 6.91241766621e-05
embrace 7.6237714557e-05
pressure 5.93157966219e-05
celebrities 0.000108353572794
dearly 0.000152506284116
facebook 9.3331153517e-05
divided 0.0
extension 0.0
lawyer 0.0
charleston 0.0
brazilian 0.0
basketball 0.0
campaign 0.000708744442178
determine 0.0
whether 0.0
praise 0.000370248299884
factory 0.0
arrested 0.0
investments 0.0
activity 0.000170110446287
comments 5.31859038807e-05
wounded 0.0
endorsement 0.0
williams 0.0
future 0.000584152437167
struggled 0.0
blessed 0.0001495336409
sabotage 0.0
warrior 0.000185443799415
softball 0.0
cheating 0.0
voting 5.37762153102e-05
instincts 0.0
collins 9.85675725079e-05
succeed 8.1818065124e-05
commercial 0.0
religion 9.02419549873e-05
boring 0.0
acting 0.0
established 9.57413592235e-05
warriors 8.98989712188e-05
because 0.000376985119561
sensitive 0.0
smiling 0.0
traitor 0.0
cleveland 0.000601871731084
agents 0.0
periscope 0.0
killing 0.000111193850562
choosing 0.0
phillips 0.0
instagram 0.0
opponent 0.0
detroit 0.000161951136692
cousin 0.0
honored 0.000363083651824
nonsense 0.0
dedication 0.000183997525244
hammer 0.0
proven 0.0
talent 5.81498510462e-05
governors 0.0
knocking 0.0
russian 0.0
consecutive 0.000107320494923
skills 6.05139419707e-05
citizens 7.45264474207e-05
cameras 0.000437855645467
phones 0.0
california 0.000124932505241
commitment 0.000144386478042
maryland 0.0
seconds 0.0
placed 0.0
listen 0.000225280828967
dominating 0.0
whatever 0.0
wherever 0.000167107570818
fought 0.0
compete 8.1818065124e-05
lauderdale 0.0
injured 0.0
billion 0.0
shoutout 0.000247166873534
depressing 0.0
guilty 0.0
carpet 7.50085326113e-05
harvard 0.0
absolute 0.0
handle 0.0
promise 0.0
hosting 5.71748162879e-05
longest 0.0
generation 0.000478601931731
criminal 8.32596336331e-05
tuesday 0.000247665215157
garbage 0.0
goldman 0.0
ronald 0.0
locker 0.0
leader 5.68546139432e-05
desperately 0.0
character 0.000116629017256
chancellor 0.0
proving 0.0
jackson 7.04130007548e-05
interview 0.000265998172245
buffalo 0.0
insight 0.0
obviously 0.0
battle 0.0
destroy 0.0
killer 0.0
personally 0.0
relentless 0.0
winning 0.000139618902253
charlotte 0.0
trafficking 0.000130342980001
defense 0.000139958249863
japanese 0.0
causing 9.19987626219e-05
arabia 0.0
rapist 0.0
writing 0.000100973293419
society 6.0168225235e-05
officers 0.0
ambushed 0.0
sources 0.0
kentucky 0.0
incredible 4.70456132388e-05
ungrateful 0.0
kissing 0.0
minute 0.000147392057115
luther 0.0
foreign 7.21932390211e-05
phoenix 9.02419549873e-05
champions 0.0
virginia 0.0
streak 0.0
orange 0.000130557007613
policy 6.39434070583e-05
intentional 0.0
reminder 0.000104918265541
evidence 0.0
presidents 9.16416641388e-05
judged 0.0
accused 8.6294942362e-05
intentions 0.0
facing 0.0
freedom 0.00018206351664
actions 0.0
debating 0.0
consequence 0.0
coughing 0.0
clearly 0.000165864354407
invite 0.0
central 0.000172492198023
washington 0.000345957568486
tougher 0.0
veteran 0.0
division 0.0
overrated 0.0
veterans 8.53618478881e-05
stronger 0.0
bowden 0.0
promised 0.0
catches 0.0
worried 0.0
security 0.0
sanctuary 0.0
reverse 0.0
immediately 6.08624355774e-05
television 7.67393065108e-05
entitled 9.45842980996e-05
racism 0.000168296280387
highest 6.15679343864e-05
approve 0.0
turning 0.0
georgia 0.0
tennessee 0.0
legacy 0.00034562088331
leaked 0.0
choked 0.0
helping 0.000143836585793
tickets 0.000158245145941
suspending 0.0
suspend 0.0
willing 0.0
december 6.05139419707e-05
beating 7.42873987677e-05
basically 6.35693769766e-05
return 0.000192824453158
escape 7.801925835e-05
locked 7.33441611678e-05
unacceptable 0.0
network 0.000121724871155
language 0.000244150950872
invest 0.0
creation 8.82235807985e-05
followers 5.63786981575e-05
schools 0.000185775098609
menace 0.0
movies 0.000130557007613
entity 0.0
children 0.00167809350092
nation 0.000164486969466
flexible 0.0
review 0.000259431779305
knowledge 0.000185775098609
begins 0.000104343598265
vanessa 0.0
forbes 0.0
parade 8.04228574221e-05
fireworks 0.0
shoulder 0.000173220974353
produced 6.82857501706e-05
consider 5.7822398769e-05
latest 0.000141519106254
signed 0.000624983129019
shower 0.0
thunder 0.0
charity 0.0
germany 0.0
advance 6.3383564184e-05
explaining 0.0
millions 0.0
blessings 0.000680000180313
diamond 0.0
dollar 0.000146688322336
monsters 0.0
rigged 0.0
conduct 0.0
cooked 0.00010295385205
turned 0.0
criticism 8.09755683459e-05
responded 9.42053679987e-05
depending 0.0
jackie 0.000107833959149
charge 6.03407392625e-05
ticket 5.84797934786e-05
finest 0.0
sanders 0.0
includes 6.48928370825e-05
dealers 0.0
against 0.0
benjamin 0.0
impact 0.000174943525884
families 0.0
selection 0.0
hitting 5.81498510462e-05
announced 0.000212158289898
decided 5.21717991326e-05
professor 0.0
itself 0.000148099319954
promote 0.000140391040992
mexican 0.0
owners 0.0
guards 0.0
guarantee 0.0
beliefs 0.0
citizen 0.0
states 0.0
memorial 0.000141702518473
decades 0.0
landed 6.80786508716e-05
ultimate 0.000189595631317
mcdonald 0.0
twenty 0.0
hispanics 0.0
financial 0.0
payments 0.0
grabbing 0.0
permit 0.0
shield 0.0
disney 0.000351584514086
kansas 0.000523491276241
agreement 0.0
source 6.12137510255e-05
dismiss 0.0
talents 0.000110496587174
homework 0.0
expectations 7.96067727838e-05
joining 0.000307926252332
eugene 0.0
reasons 5.07629993686e-05
talked 0.000109657979644
released 0.000152288998106
reaching 0.0
release 9.56316416313e-05
promoter 0.0
circumstances 0.0
scheme 0.0
warwick 0.0
highlight 0.0
within 0.000111193850562
stacked 0.0
speech 0.000209260912369
standing 0.000149410107807
higher 5.84797934786e-05
justice 0.00035187426237
served 6.58635089044e-05
speaks 6.30143090124e-05
navarro 0.0
dropped 5.37762153102e-05
consideration 0.0
predicted 8.44483989752e-05
strength 6.03407392625e-05
andrew 6.80786508716e-05
replace 6.87029382001e-05
incredibly 0.0
private 0.0
integrity 0.0
sanford 0.0
ignored 0.0
neighbors 0.0
affection 0.0
minimum 0.0
direction 0.000133712789626
enemies 0.0
exclusive 5.17443353717e-05
prison 0.0
himself 0.000279916499726
investigation 0.0
disgusting 0.0
congratulate 0.0
philly 0.000489212467322
rights 0.0
replaced 0.0
recognition 0.0
maintain 0.0
tallahassee 0.0
handed 8.35537854091e-05
victory 6.22850948594e-05
classy 8.69283436956e-05
lifted 0.0
terrorist 0.0
productive 0.0
tribute 0.000179475724399
threatened 0.0
insecure 0.0
horror 0.0
discovery 0.0
convention 0.0
understanding 0.0
action 9.3583772157e-05
figures 0.0
having 0.000163636130248
marine 0.0
announces 0.000133311983179
wallace 0.0
speaker 0.000290599803301
stevens 0.0
cybersecurity 0.0
apologize 8.04228574221e-05
continued 0.0
journalist 0.0
libelous 0.0
formation 0.0
letter 5.37762153102e-05
discussed 0.0
therapy 0.0
widespread 0.0
untrue 0.0
written 0.000212743615523
conferences 0.0
results 0.0
papers 0.0
winter 5.89794598929e-05
marching 9.38297187189e-05
sessions 0.0
democrats 0.0
eastern 0.00023562600682
scientist 0.00018617607753
represented 0.000195482248535
waters 0.0
journal 0.0
foundation 0.0
access 0.000107255765574
analysis 7.1741284718e-05
writes 0.000142144119637
colorado 0.0
medical 0.0
tremendous 0.0
nytimes 6.60602766828e-05
public 0.000303747618076
cheaters 0.0
cannot 0.0
reveals 0.0
immunity 0.0
threatens 0.0
candidate 0.0
brilliant 0.000267400278284
wisconsin 0.0
studies 0.0
measure 7.98770990214e-05
compared 0.0
donors 0.0
graham 0.0
incorrect 0.0
headline 0.0
careers 0.0
answering 0.0
streaming 7.12939898206e-05
leaders 0.0
supreme 0.0
nominee 0.0
gorsuch 0.0
protest 7.38132167716e-05
immigration 0.0
policies 0.0
administration 0.0
defend 0.0
excitement 0.0
funding 6.95495449787e-05
surveillance 0.0
transfer 0.0
conspiracy 0.0
horrifying 0.0
formed 0.00020872225704
interviews 0.000118294604698
retreat 0.0
alliance 0.0
platform 0.0
editing 8.38499450626e-05
february 0.000256526552985
association 0.0
airwaves 0.0
hamilton 0.000172589884724
futures 0.000121715393891
borders 0.0
border 0.0
uranium 0.0
misleading 9.57413592235e-05
january 6.03407392625e-05
topics 0.0
unprecedented 0.0
airplane 0.00010341789092
tragic 0.0
philadelphia 0.0
funded 0.0
secure 0.0
income 0.000160298240211
hurricane 9.23588246118e-05
breakdown 0.0
countries 0.0
linked 0.0
broadcast 0.0
african 8.04228574221e-05
triple 0.0
provide 0.000255773628233
enhance 0.0
development 7.52515989097e-05
companies 0.0
discussions 0.0
developing 8.78961285214e-05
proposal 0.0
potential 0.00012033645047
moderator 0.0
suggestion 0.0
attending 0.0
filled 0.0
schultz 0.0
education 0.00070374852474
sickness 0.0
mentioned 0.0
exists 8.09755683459e-05
henderson 0.0
plants 0.0
orders 0.0
officials 0.0
strategic 0.0
ability 0.000190150692552
political 0.0
director 0.0
behaving 0.0
deficits 0.0
sufficient 0.0
prevent 0.0
shoddy 0.0
capacity 0.0
donations 8.23889578446e-05
editors 0.0
discussing 0.0
persistent 0.0
treatment 0.0
establishment 0.0
protects 0.0
critical 0.000138672679067
ambassador 0.0
preparing 0.0
capable 8.95586775467e-05
bishop 0.0
producers 0.0
bombed 0.0
weekly 0.0
becoming 0.0
magazine 0.000121027883941
lawyers 0.0
summary 0.0
standard 0.0
controlled 9.61340064351e-05
hiring 8.44483989752e-05
defending 0.0
pushes 0.0
admitted 0.0
failed 6.47012817127e-05
independent 0.0
copies 8.29674626921e-05
politically 0.0
driven 0.0
agenda 0.000157084004546
blocked 7.35780551077e-05
result 0.00012566170652
announcing 7.59890765082e-05
destruction 0.0
culture 0.00012033645047
insider 0.0
traitors 0.0
prince 0.000442389806406
solutions 0.0
indiana 0.0
mongering 0.0
claims 0.0
editorial 9.09361653298e-05
prospects 0.0
mistakes 0.0
offered 7.1741284718e-05
founded 0.0
ignorance 0.0
inspiring 0.000294061321151
majority 0.0
embarrassing 0.0
creators 0.0
server 0.0
berniesanders 0.0
spotlight 8.92210321012e-05
readout 0.0
tactics 0.0
irrelevant 0.0
massive 5.52881181357e-05
receiving 0.0
promising 0.000190704467118
promises 0.0
consequences 0.0
production 0.0
proposals 0.0
elsewhere 0.0
bernie 0.0
hacking 0.0
guests 0.0
interviewed 0.0
secretary 0.0
rebuttal 0.0
reduce 0.0
arriving 9.57413592235e-05
dangerous 0.0
shutting 0.0
arrival 0.0
canceled 0.0
typically 0.0
saving 0.0
pioneer 0.0
incident 0.0
ordering 0.000103886946524
victims 6.31985437723e-05
raises 0.000173856687391
receive 6.13904812933e-05
reputation 0.0
intention 0.0
commentary 8.12545868045e-05
disclosure 0.0
terrific 7.67393065108e-05
berkeley 0.0
melbourne 0.0
received 0.000111815892234
correctly 8.72485460402e-05
inherited 0.0
displayed 0.0
joseph 0.0
offices 0.000180483909975
necessary 0.0
largely 0.0
inaccurate 0.0
debate 0.0
conflict 0.0
interest 6.12137510255e-05
controversy 0.0
stated 0.0
rating 0.0
nominate 0.0
outstanding 7.47668204498e-05
devastating 0.0
accurate 0.0
southeastern 0.0
romney 0.0
scotland 0.0
delayed 0.000257945027607
rarely 0.0
abroad 0.0
winners 5.76595947477e-05
profit 0.0
reviews 0.0
republican 0.0
presidential 0.0
candidates 0.0
politicians 0.0
epidemic 0.0
greater 0.0
booths 0.000182580013869
arnold 0.0
principles 0.0
deadline 7.0195520496e-05
speakers 0.0
incoming 0.0
various 0.0
nuclear 0.0
danger 0.0
leading 0.0
restored 0.0
conditions 0.0
however 0.000207372529986
resolution 0.0
remained 0.0
member 5.11808570521e-05
examples 0.0
employ 0.0
courses 0.0
largest 0.0
hallmark 0.0
mentor 9.61340064351e-05
increase 0.0
transcript 0.000103886946524
disrupt 0.0
provided 0.0
binding 0.0
decreased 0.0
revival 0.0
crashing 0.0
reception 0.0
rising 0.0
primary 0.0
reduction 0.0
surrogate 0.0
provides 0.0
environment 8.01491201054e-05
revealed 0.000142144119637
confirmed 0.0
controls 0.0
behavior 0.0
introduced 8.29674626921e-05
carbon 0.0
communities 0.0
region 0.0
deaths 0.0
responsible 0.0
household 9.77411242673e-05
munich 0.0
canada 0.000347914895938
regions 0.0
movement 5.81498510462e-05
midwest 0.0
segment 0.0
emerged 0.0
hundreds 7.19666733848e-05
information 0.0
combined 0.0
easily 0.0
towards 0.0
inform 0.0
mathematically 0.0
october 6.08624355774e-05
investigating 0.0
predators 0.0
innovation 0.0
perspective 6.43206896163e-05
cities 0.000130557007613
todays 0.0
julian 0.000212622888619
eliminated 0.0
interests 0.0
toledo 0.0
extraordinary 7.35780551077e-05
eradicate 0.0
retains 0.0
ashamed 0.0
meetings 0.0
describing 0.0
eliminate 0.0
obligation 0.0
gender 7.96067727838e-05
committee 0.0
wasting 0.0
numerous 0.0
examination 0.0
inflammatory 0.0
practices 0.0
management 0.0
nordstrom 0.0
genius 0.000115644797538
warren 0.0
traveling 0.0
billions 0.0
prepared 0.0
fraction 0.0
equipment 0.0
procedures 0.0
rasmussen 0.0
county 0.0
developer 0.0
anthony 0.0
shadow 0.0
district 0.0
considered 0.0
lobbyist 0.0
chosen 0.0
hospitalized 0.0
outright 0.0
yorkers 0.0
naming 0.0004118154082
conventions 0.0
deficit 0.0
interventions 0.0
focusing 0.0
sensible 0.0
hosted 0.000148099319954
batman 0.0
column 0.0
upcoming 0.0
positions 0.0
favors 0.0
regulation 0.0
distributed 0.0
weakness 0.0
introduction 0.0
western 0.0
pacific 0.000177107046462
larger 0.0
increases 0.0
effective 0.0
situations 0.000210650657324
harbor 0.0
wealth 0.0
underway 0.0
israel 0.0
hysteria 0.0
overwhelming 0.0
protection 0.0
prisoners 0.0
guidance 0.0
montana 0.0
determination 0.0
restore 0.0
acquire 0.0
additional 0.0
exception 0.0
machine 0.0
honoring 9.05876717231e-05
visually 0.0
contrary 0.0
immediate 0.0
politico 0.0
ignoring 0.0
judges 0.0
federal 0.0
constant 0.0
philippines 0.0
nicely 0.0
september 6.1037737718e-05
manchester 0.0
fiction 0.0
priest 0.0
angela 0.000101145789571
process 0.0
destructive 0.0
genuine 0.000157611510375
surreal 0.0
whitehouse 0.00084446746847
flotus 0.000883972697395
crisis 0.000133712789626
judgement 0.0
confidence 0.0
voters 0.0
diamondandsilk 0.0
oldest 0.0
inauguration 9.19987626219e-05
gracious 0.000744180110165
scream 0.0
postponed 0.0
disappoint 0.000213626072526
believing 8.78961285214e-05
hillaryclinton 0.0
electoral 0.0
crashed 0.0
citizenship 0.0
closed 6.19250328695e-05
religious 0.0
apprentice 0.0
conservative 0.0
economists 0.0
buzzfeed 8.66104871767e-05
puppet 0.0
sweden 0.0
andersoncooper 0.0
treats 0.0
qualified 0.0
missouri 0.000119632407299
cooper 0.0
debates 0.0
endorsements 0.0
strike 0.0
shouting 0.000204080806274
empire 0.0
encouraged 0.0
regard 0.0
concerning 0.0
misinformed 0.0
disregard 0.0
barack 0.0
joined 5.34800556567e-05
terrorism 8.66104871767e-05
pushing 0.0
cracking 0.0
muhammad 0.000111609140973
refused 0.0
amazingly 0.0
express 6.72599997774e-05
gratitude 9.23588246118e-05
congratulation 0.0
throughout 0.0
shining 0.000175792257043
fighter 9.19987626219e-05
anticipated 0.0
presented 0.000141702518473
reveal 0.000253534256736
stands 0.000120681478525
native 0.0
harvey 0.0
featured 0.000136571500341
announce 0.000100973293419
surround 0.0
although 0.000141702518473
senior 0.0
todayshow 0.000198820138572
convincingly 0.0
haters 0.0
returning 7.42873987677e-05
laughs 0.0
touched 8.12545868045e-05
corruption 0.0
violence 6.37559889666e-05
runnin 0.0
delivered 7.06315766366e-05
owning 0.0
legendary 0.000139099089957
stabbing 0.0
independence 7.85420022732e-05
approval 0.0
magical 0.000163070822441
alongside 8.32596336331e-05
percent 0.0
spiral 0.0
differently 0.0
sweeping 0.0
spoiler 0.0
theirs 0.0
offering 7.19666733848e-05
remembering 0.0
floated 0.0
professionals 0.0
construction 0.0
searching 0.0
flexibility 0.0
sinking 0.0
detail 0.0
document 0.0
cabinet 0.0
pleased 0.0
carrying 0.0
statements 0.0
decade 0.0
prague 0.0
crossing 0.0
bigotry 0.0
happily 0.0
therefore 0.0
belong 0.0
customs 0.0
trillion 0.0
backed 0.000517769654172
electricity 0.0
observing 0.0
russell 8.35537854091e-05
engineers 0.0
operations 0.0
values 0.0
senator 0.000179797942438
confirms 0.0
removing 0.0
payment 0.0
consistently 0.0
posing 0.0
everett 0.0
wondered 0.0
generic 0.0
fields 0.0
mining 0.0
newspaper 8.12545868045e-05
detailed 0.0
rainbow 0.00755530948852
childcare 0.0
unlimited 0.0
exploded 0.0
thoroughly 0.0
adviser 0.0
leaves 0.0
matthew 0.0
intersection 0.0
affected 0.0
newspapers 0.0
corporate 0.0
economy 0.0
explores 0.0
spoken 0.0
during 0.0
credible 0.0
competitive 8.72485460402e-05
carefully 0.0
returned 0.0
blasts 0.0
guarding 0.0
hornet 0.0
successfully 0.0
southern 7.6487785686e-05
dakota 0.0
belief 0.0
messenger 0.0
heroes 0.000198773822702
russians 0.0
intelligence 0.0
deepest 0.000100269250248
graduates 0.0
describe 6.30143090124e-05
hollywood 0.000127886814117
reclaim 0.0
equality 7.82798430419e-05
announcement 0.000111504314012
interfere 0.0
interrupted 0.0
nationwide 0.0
questionable 0.0
garden 6.48928370825e-05
survey 0.0
journalists 0.0
delighted 0.000181175343446
minister 8.29674626921e-05
golfer 0.0
capital 0.0
penguins 0.0
regarding 0.0
teachers 0.000388801146985
devastated 0.000113923674815
phrase 0.0
immigrants 9.09361653298e-05
aliens 0.0
subjects 0.0
revolution 8.12545868045e-05
median 0.0
twelve 0.0
releases 0.0
accomplish 0.0
debbie 0.000124658027852
sebastian 0.0
briefing 0.00018993313367
advisor 0.000101145789571
commission 0.0
deadlines 0.0
hereby 0.0
invitation 0.0
alternatives 0.0
villages 0.0
accepted 0.000145299901651
commentators 0.0
depression 0.0
comprehensive 0.0
committees 0.0
pushed 0.0
statistic 0.000149706137051
donation 7.35780551077e-05
electronic 0.0
nomination 0.000237213363838
britain 0.0
questioning 0.0
attempt 6.19250328695e-05
investment 0.0
terror 8.1818065124e-05
homeland 0.0
polish 0.0
switzerland 0.0
represents 8.92210321012e-05
announcer 0.0
churchill 0.0
ambassadors 0.0
anchors 0.0
endorse 0.0
urgent 0.0
forced 0.0
expenses 0.0
preparations 0.0
string 0.0
morocco 0.0
thrill 0.0
watchdog 0.0
agencies 0.0
scrutiny 0.0
glorious 0.000167699890125
approaching 0.0
tragedy 0.000142587979641
handled 0.0
offers 0.000138672679067
requested 0.0
improvements 0.0
destroying 0.0
inexpensive 0.0
opposition 0.0
smithsonian 0.0
addiction 0.0
challenged 0.0
manhattan 0.000304772371824
richmond 0.0
forces 0.0
nations 0.0
anderson 0.00017449709208
builds 0.0
sexist 0.0
narrative 0.0
application 0.0
cannon 0.0
ethical 0.0
representation 0.00010341789092
obvious 0.0
statistics 0.0
military 0.000203002183545
housing 0.0
wonderfully 0.0
miller 0.0
copying 0.0
advised 0.0
ordered 6.39434070583e-05
unions 0.0
useless 0.0
alicia 0.0
economic 0.0
radical 9.09361653298e-05
planted 0.0
theories 0.0
conceived 0.0
readers 0.000494333747067
bombing 0.0
products 7.88057551874e-05
phenomena 0.0
classroom 0.000539169795746
classified 0.0
purely 0.0
hacked 0.0
taxpayers 0.0
opposed 0.0
pressing 0.0
russia 0.0
abraham 0.0
lincoln 0.000266657981948
observer 0.0
intelligent 0.0
lawsuit 0.0
detective 0.000118959723735
magnificent 0.0
heritage 0.0
beloved 0.000469148593595
dignity 0.0
priorities 0.0
repealing 0.0
murdoch 0.0
coalition 0.0
theresa 0.0
charges 0.0
activists 0.0
elected 0.0
relief 0.0
congratulates 0.0
pledge 0.000812545868045
elections 0.0
landslide 0.0
council 0.0
imperative 0.0
catastrophic 0.0
douglas 0.0
brexit 0.0
democracy 7.6237714557e-05
disastrous 0.0
rebuild 0.0
pundits 0.0
nickname 0.0
poison 0.0
interfering 0.0
negotiations 0.0
summit 0.000168296280387
dossier 0.0
unleash 0.0
negotiation 0.0
sticking 0.0
openly 0.0
embarrassed 0.0
ireland 0.0
attacks 0.0
remarks 0.000188410735997
democratic 0.0
outgoing 0.0
maureen 0.0
treasury 0.0
refugees 0.0
snatch 0.0
morgan 8.72485460402e-05
grieve 0.000145818114538
vicious 0.00012031568474
essentially 0.0
restoring 0.0
extended 0.0
referendum 0.000104840550202
ovation 0.000114522128728
bankrupt 0.0
proudly 0.00010341789092
oppose 0.0
refusal 0.0
urging 0.0
strengthen 0.000109950828774
deliver 0.000206739138652
negotiating 0.0
remaining 0.0
merkel 0.0
repeal 0.0
formal 0.0
reckless 0.0
prosperous 0.0
servant 0.0
desperate 0.0
secretaries 0.0
formally 0.0
breach 0.0
gloomy 0.0
outlines 0.0
concessions 0.0
executive 0.000289683975936
extend 0.0
republicans 0.0
terrorists 0.0
weapons 8.47507501693e-05
bodyguards 0.0
outrage 0.0
representative 0.0
prevail 0.0
searched 0.0
policemen 0.0
islamic 0.0
islamist 0.0
ingrained 0.0
humbled 0.0
courage 0.000143482569436
chamber 0.0
commander 0.000340000090156
formula 0.0
brigade 0.0
respecting 0.0
lectured 0.0
devices 0.000218823700312
enormous 0.0
verdict 0.0
refusing 0.0
energies 0.0
carried 0.0
behalf 0.0
tariff 0.0
amendment 0.0
nightmare 0.0
employment 0.0
legislation 0.0
referring 0.0
scrapping 0.0
handling 0.0
goodies 0.000244865108728
proves 0.0
prominently 0.0
crackdown 0.0
unfair 9.05876717231e-05
fiscal 0.0
humiliating 0.0
strongly 0.0
vision 6.43206896163e-05
resignation 0.0
confirmation 0.0
records 6.58635089044e-05
disabled 0.0
quoting 0.000311660839572
reductions 0.0
deeply 0.000140391040992
commerce 0.0
accumulation 0.0
overplaying 0.0
refugee 0.0
conway 0.0
exposed 0.0
netanyahu 0.0
israeli 0.0
priority 0.0
strongest 0.0
freedoms 0.0
treaties 0.0
empowering 0.0
laughter 8.82235807985e-05
syrian 0.0
uphold 0.0
praising 0.0
renewal 0.0
penned 0.0
condemns 0.0
realdonaldtrump 0.000151483710416
goodwill 0.0
attorney 0.0
settled 0.000100269250248
chairman 0.0
capability 0.0
firing 0.0
seanspicer 0.0
inaugural 0.000399350132188
carnage 0.000143407093138
optimism 0.0
rulers 0.0
clintons 0.0
melania 0.0
bikers 0.0
handing 0.0
intended 0.0
optimistic 9.49665668348e-05
campaigned 0.0
finance 0.0
allies 0.0
compromised 0.0
governor 0.0
bosses 0.000106311444309
attempts 0.0
irresponsible 0.0
incidents 0.0
merely 0.0
documents 0.0
tariffs 0.0
purpose 0.0
architect 0.0
arlene 0.0
resign 0.0
reuters 0.0
mainstream 0.0
dozens 0.0
donnell 0.0
clarified 0.0
gathering 0.0
crimes 0.0
vulnerable 0.0
commentator 0.0
overwhelmingly 0.0
respectful 0.0
markets 0.0
inspector 0.0
nigel_farage 0.0
drudge 0.0
abused 0.0
infrastructure 0.0
projected 0.0
boards 0.0
allegations 0.0
bloomberg 0.0
insulting 0.000111609140973
leaking 0.0
liberal 0.0
chairs 0.0
podium 0.000125425963311
conceded 0.0
capitol 0.0
consulting 0.0
wannabe 0.0
powell 0.0
reforms 0.0
technical 0.0
securing 0.0
steven 0.000175142258187
rumsfeld 0.0
businesses 0.0
balancing 0.0
socialist 0.0
complaints 0.0
politician 0.0
representatives 0.0
rallies 0.0
belittle 0.0
ballot 9.05876717231e-05
failing 0.0
refuses 0.0
conclude 0.0
vibrant 0.0
tarmac 0.0
spinning 0.0
appointments 0.0
farewell 0.0
opponents 0.0
unopposed 0.0
polling 9.34572939363e-05
prosperity 0.0
apology 0.000163636130248
outline 0.0
losers 0.0
battlefield 0.0
abandoned 0.0
endorsed 0.0
negotiate 0.0
negotiated 0.0
unwilling 0.0
appointed 0.0
slaughter 0.0
betray 0.0
donated 0.000313119372168
immigrant 0.0
prosecuted 0.0
criminals 0.0
elizabethforma 0.0
protesting 0.0
releasing 0.0
screening 8.41481401936e-05
sponsor 0.0
pocketbook 0.0
transparency 0.0
austin 0.00073129128124
obamacare 0.0
acceptable 0.0
schwarzenegger 0.0
congressman 0.0
profits 0.0
toward 7.85420022732e-05
fleeing 0.0
bravery 0.000110496587174
protests 0.0
recieved 0.0
violent 0.0
remarkably 0.0
senators 0.000101145789571
ratings 0.0
spouses 0.0
fundraiser 0.0
senate 8.88859939825e-05
louisiana 0.0
giuliani 0.0
venezuela 0.0
parenthood 0.0
organizations 0.0
generations 0.000172589884724
minorities 0.0
underestimate 0.0
terrified 0.0
discourse 0.0
pennsylvania 0.0
hackers 0.0
nbcnews 0.0
mccain 0.0
scandal 0.0
constitution 0.0
sensanders 0.0
abandon 0.0
explode 0.0
reopening 0.0
governments 0.0
competent 0.0
mike_pence 0.0
stinks 0.0
logical 0.000108353572794
accurately 0.0
righteous 0.0
thursdays 0.0
fitting 9.23588246118e-05
category 0.0
swearing 0.000266055163605
politifact 0.0
abolish 0.0
surging 0.0
murders 0.0
reagan 0.0
vetting 0.0
vetted 0.0
pouring 0.0
fraudulent 0.0
ballots 0.0
fading 0.0
speakerryan 0.0
civilized 0.0
commercials 0.0
luxurious 0.0
outraged 0.0
nypost 0.000142250032014
statute 0.0
enforcement 0.0
accountability 0.0
truthful 0.0
springfield 0.0
cancelled 0.000164777915689
conflicts 0.0
suffer 0.0
selfishly 0.0
educational 0.0005218056426
stolen 0.0
visionary 0.0
wounds 0.0
disgraceful 0.0
hatred 0.0
persuasion 0.0
exposing 0.0
teaches 0.000113333363385
sellers 0.0
refers 0.0
trusted 0.0
sheriff 0.0
samsung 0.0
ranking 0.0
undecided 0.0
nebraska 0.0
abusive 0.0
abuser 0.0
nashville 9.45842980996e-05
lightweight 0.000160416709753
victories 0.0
consumer 0.0
violation 0.000239264814598
sarcasm 0.0
freaky 0.0
jimmyfallon 0.000394270290031
outlets 0.0
vanityfair 0.0
harassed 0.0
leverage 0.0
sacred 0.0
horrific 0.0
contribute 9.05876717231e-05
indicted 0.0
chooses 0.0
defended 0.0
champion 6.91241766621e-05
waited 0.0
denmark 0.0
conviction 0.0
retail 0.0
distract 0.0
globes 0.0
endorsing 0.0
pathetic 0.0
purposely 0.0
expose 0.0
representing 0.0
mmflint 0.0
registration 0.0
acceptance 9.42053679987e-05
defeated 0.0
prosecutor 0.0
nbcsnl 0.0
nevada 0.0
illinois 0.0
massachusetts 0.0
spontaneous 0.0
entrepreneur 0.000129483799038
arkansas 0.0
hotels 0.0
exhausted 0.0
puppets 0.0
protesters 0.0
natalie 0.0
anaheim 0.000135889314713
nominating 0.0
vietnam 0.0
claimed 0.0
indianapolis 0.000369485305551
loudly 0.0
sarasota 0.000359559733608
rapids 0.0
oklahoma 0.0
devoted 0.0
sacramento 0.00114303468886
arranged 0.0
baldwin 0.000118297310551
crushed 0.0
reflects 0.0
replacing 0.0
louder 0.0
flashback 0.00022784734963
farmers 0.0
unleashed 0.0
tourists 0.0
steals 0.00012031568474
albany 0.0
devastation 0.0
meantime 0.0
donlemon 0.0
wilbur 0.0
finalists 0.0
ransom 0.0
normmacdonald 0.0
vanishing 0.0
clarence 0.0
jaketapper 0.0
clowns 0.0
elizabeth 8.75711290933e-05
microphone 0.0
machines 0.0
premium 0.0
championships 0.000117002073448
impersonation 0.0
horribly 0.0
stakes 0.0
mouthed 0.0
reservation 0.0
delaware 0.000136886766016
springs 0.0
columbus 0.0
slackers 0.0
toyota 0.0
chucktodd 0.0
correspondents 0.0
soldier 0.00010341789092
panels 0.0
broadcasting 0.0
sparks 0.0
warned 0.0
jclayfield 0.0
kellogg 0.0
anchor 0.0
heated 0.0
congressional 0.0
boeing 0.0
usatoday 0.0
endlessly 0.0
craziest 0.0
viewers 0.0
delivers 0.0
pittsburgh 0.000213626072526
marshal 0.0
reverend 0.0
lifelong 0.000333147894295
disdain 0.0
hispanic 0.0
defrauded 0.0
oppression 0.0
crowds 0.0
washingtonpost 0.000187659437438
affordable 0.0
tapping 0.0
ginsburg 0.0
reilly 0.0
illegally 0.0
shootings 0.0
destiny 0.0
serenawilliams 0.0
motors 0.0
redding 0.0
initially 0.0
travis 0.0
accomplishments 0.0
misconduct 0.0
mocked 0.0
disgrace 0.0
greeley 0.0
carmel 0.0
outcry 0.0
playbook 0.0
zealand 0.0
fearless 0.0
lining 0.0
sidekick 0.0
madame 0.0
grandstand 0.0
rochester 0.0
speechless 0.0
fletcher 0.0
begged 0.0
wintour 0.0
inspires 0.0
carlos 0.0
missiles 0.0
chelsea 0.0
oppressive 0.0
forgiven 0.0
killings 0.0
taiwan 0.0
somalia 0.0
burning 7.6487785686e-05
subscribers 0.0
chester 0.0
newtown 0.0
booker 0.000132114132889
heights 0.00021775896988
leicester 0.0
chiefs 0.0
joenbc 0.0
opioid 0.0
separately 0.0
intros 0.0
columnist 0.0
manages 0.0
financed 0.0
mnuchin 0.0
delegate 0.0
vicente 0.0
struck 0.0
trudeau 0.000133027581802
oreillyfactor 0.0
vulgarian 0.0
publicity 0.000231488769572
amnesty 0.0
ivankatrump 0.0
communism 0.0
linkedin 0.0
avoided 0.0
sophisticated 0.0
seanhannity 0.0
anncoulter 0.0
foolish 0.0
catholics 0.0
bogged 0.0
catholic 0.0
thriving 0.0
newtgingrich 0.0
abedin 0.0
secretly 0.0
undermines 0.000135889314713
americanism 0.0
christians 0.0
rationally 0.0
deplorable 0.0
wikileaks 0.0
execution 0.0
enduring 0.0
foxandfriends 0.0
losses 0.0
kevcirilli 0.0
staffers 0.0
barron 0.0
jihadis 0.0
hampshire 0.0
pandering 0.0
donaldjtrumpjr 0.0
moines 0.0
lobbying 0.0
careless 0.0
piersmorgan 0.0
palestinian 0.0
kellyanne 0.0
democrat 0.0
unfunny 0.0
condemned 0.0
despair 0.000111609140973
louvre 0.0
crooked 0.0
lynden 0.0
outperform 0.0
tedcruz 0.0
majors 0.0
schumer 0.0
credibility 0.0
flooding 0.0
hannity 0.0
beneficiary 0.0
sanctions 0.0
nominates 0.0
existent 0.0
criticized 0.0
senatemajldr 0.0
workforce 0.0
issued 9.57413592235e-05
outsider 0.0
declare 0.0
ivanka 0.0
dignified 0.0
threaten 0.0
outcomes 0.0
ukraine 0.0
justintrudeau 0.000136886766016
vladimir 0.0
businessman 0.0
regards 0.0
assange 0.0
malicious 0.0
garners 0.0
ethics 0.0
wrecked 0.0
regimes 0.0
incorrectly 0.0
hostile 0.0
defenders 0.0
deceived 0.0
hypocritical 0.0
favorably 0.0
shatter 0.0
changer 0.0
spokane 0.0
unnecessary 0.0
cwaunion 0.0
expand 0.0
apologized 0.0
criticizing 0.0
legion 0.0
hershey 0.0
intensity 0.0
tigerwoods 0.0
amercan 0.0
reince 0.0
chriscjackson 0.0
hypocrites 0.0
billkristol 0.0
govmikehuckabee 0.0
dustin 0.000135889314713
bullied 0.0
anonymous 0.0
yankees 0.0
thehill 0.0
infiltrated 0.0
somali 0.0
invention 0.0
frontrunner 0.0
patriot 0.0
poorly 9.85675725079e-05
prisonplanet 0.0
daytona 0.0
comparable 0.0
shouted 0.0
holocaust 0.0
kellyannepolls 0.0
foxnews 0.0
initiated 0.0
tiffany 0.0
mikeandmike 0.0
barbara 0.000204989447473
litigation 0.0
frankcaliendo 0.0
toughness 0.0
suffered 0.0
streep 0.000136886766016
billionaire 0.0
percentage 0.0
insiders 0.0
premiums 0.0
congratulatory 0.0
treasurer 0.0
incompetence 0.0
delegates 0.000130342980001
rollout 0.0
appalled 0.0
misquoted 0.0
pledged 0.000481262738959
demanded 0.0
andrews 0.0
lowlife 0.0
courageous 0.00010436112852
betrayed 0.0
horrors 0.0
warheads 0.0
pledges 0.0
interrupts 0.0
blacks 0.0
elaine 0.0
candidacy 0.0
discredited 0.0
cringing 0.0
estates 0.0
laughable 0.0
aberdeen 0.0
healed 0.0
floods 0.0
swiftly 0.0
cheryl 0.0
syracuse 0.0
difficulties 0.0
flipping 0.0
wilkes 0.0
lisbon 0.0
suckers 0.0
golfdigest 0.0
jeffrey 0.0
sixteen 0.0
scandals 0.0
circuits 0.0
regulations 0.0
monitoring 0.0
swamped 0.0
costing 0.0
detained 0.0
warmest 0.0
marginalize 0.0
miners 0.0
unemployment 0.0
paragon 0.0
obsolete 0.0
subsidies 0.0
exercised 0.0
evangelicals 0.0
franklin 0.0
molten 0.0
servers 0.0
billgates 0.0
excessive 0.0
coordinated 0.0
geneva 0.0
soaring 0.0
unsecured 0.0
corporations 0.0
rifles 0.0
innovative 0.0
pillar 0.0
bashing 0.0
organize 0.0
panelists 0.0
frontiers 0.000164034406029
pricing 0.0
platforms 0.0
scaling 0.0
pretends 0.0
forensic 0.0
roundtable 0.0
inherit 0.0
fabrication 0.0
brewer 0.00015707758407
unaffordable 0.0
reinforcing 0.0
eventful 0.0
wasserman 0.0
lindsey 0.0
billclinton 0.0
upstate 0.0
empowerment 0.0
penalties 0.0
responders 0.0
civilization 0.0
occupy 0.0
approximately 0.0
knight 0.000105325328662
homeownership 0.0
scratched 0.0
screws 0.0
contractor 0.0
havana 0.0
lowering 0.0
foundations 0.0
revitalize 0.0
counters 0.0
foreclosed 0.0
renovated 0.0
delaying 0.0
employer 0.0
executed 0.0
subpoena 0.0
grifters 0.0
cincinnati 0.0
disgraced 0.0
falsely 0.0
strengthening 0.0
abcworldnews 0.0
skyrocketing 0.0
pipelines 0.0
likewise 0.000119632407299
dishonest 0.0
surges 0.0
woefully 0.0
pressured 0.0
erratic 0.0
temperament 0.0
emboldened 0.0
keystone 0.0
mandated 0.0
crumbling 0.0
johnkasich 0.0
latinos 0.0
combating 0.0
incompetent 0.0
loopholes 0.0
incapable 0.0
unqualified 0.0
melaniatrump 0.0
recount 0.0
voluntarily 0.0
desperation 0.000142250032014
denounce 0.0
demoralized 0.0
incited 0.0
fawning 0.0
accuser 0.0
electing 0.0
patrol 0.0
connecticut 0.0
amounts 0.0
govpencein 0.0
squandered 0.0
enforce 0.0
epipens 0.0
deplorables 0.0
generals 0.0
timkaine 0.0
benghazi 0.0
moderators 0.0
sheriffclarke 0.0
unfairly 0.0
competence 0.0
dysfunctional 0.0
eleventh 0.0
instructed 0.0
restrict 0.0
battleground 0.0
jilted 0.0
blazing 0.0
hypocrite 0.0
mcconnell 0.0
circulated 0.0
flailing 0.0
pathological 0.0
deflect 0.0
undoing 0.0
predictable 0.0
phoney 0.0
perils 0.0
governing 0.0
likeable 0.0
tumble 0.0
praised 0.0
extraordinarily 0.0
jinping 0.0
trashes 0.0
knowingly 0.0
disloyal 0.0
woodward 0.0
magnificently 0.0
pretended 0.00014459585848
slaughtered 0.0
climber 0.0
americ 0.0
unprofessional 0.0
diplomats 0.0
resulted 0.0
crossroads 0.0
syrians 0.0
suppress 0.0
remembrance 0.0
infighting 0.0
castro 0.0
unquestionably 0.0
corrupted 0.0
kasich 0.0
readership 0.0
fraternal 0.0
frankluntz 0.0
demagogue 0.0
unanimous 0.0
bedford 0.0
longtime 0.0
complexities 0.0
dailymail 0.0
couric 0.0
cancelling 0.0
morningmika 0.0
concord 0.0
recounts 0.0
shouldered 0.0
patmccrorync 0.0
executives 0.0
westfield 0.0
graydon 0.0
sheldon 0.0
tanking 0.0
morning_joe 0.0
fabricated 0.0
corolla 0.0
groveling 0.0
unfolding 0.0
polled 0.0
influx 0.0
underachieving 0.0
antics 0.0
disenfranchised 0.0
golfing 0.0
xfinity 0.0
defies 0.0
fictitious 0.0
districts 0.0
vigilant 0.0
obstruction 0.0
rebuilding 0.0
preserving 0.0
passover 0.0
dhsgov 0.0
thejusticedept 0.0
repealed 0.0
intends 0.0
wildfires 0.0
usedgov 0.0
fresno 0.0
usnavy 0.0
scotus 0.000131219519323
tillerson 0.0
ineffective 0.0
senjohnmccain 0.0
cbsnews 0.0
lawsuits 0.0
caucus 0.0
shimon 0.0
wilmington 0.0
stagnant 0.0
gouging 0.0
baghdad 0.0
wiesel 0.0
obstruct 0.0
gonzalo 0.0
curiel 0.0
hostage 0.0
unnamed 0.0
truckers 0.0
boldly 0.000172323761766
scarborough 0.0
evangelical 0.0
cyberattack 0.0
marines 0.0
crimea 0.0
earners 0.0
oversaw 0.0
lobbyists 0.0
rosiegray 0.0
briefings 0.0
actresses 0.0
purchases 0.0
myanmar 0.0
heightened 0.0
shackles 0.000196036774218
perjury 0.0
dallaspd 0.0
respectfully 0.000282246055701
canton 0.0
approx 0.0
admirals 0.0
naples 0.0
brainwashed 0.0
albuquerque 0.0
supposedly 0.0
coliseum 0.0
greensboro 0.0
sheriffs 0.0
hostages 0.0
explorers 0.0
confidential 0.0
tamara 0.0
infested 0.0
depicted 0.0
devote 0.0
payroll 0.0
bombshell 0.0
advisers 0.0
watergate 0.0
mcmaster 0.0
renews 0.0
housegop 0.0
katyturnbc 0.0
pocahontas 0.0
wherein 0.0
shreds 0.0
pelosi 0.000167981418654
chrysler 0.0
collusion 0.0
deductibles 0.0
repmarkmeadows 0.0
darrellissa 0.0
insurer 0.0
dishonesty 0.0
hotlinejosh 0.0
quinnipiacpoll 0.0
apologizing 0.0
priebus 0.0
clapper 0.0
tapped 0.0
operatives 0.0
senschumer 0.0
marcorubio 0.0
viciously 0.0
leakers 0.0
bangladesh 0.0
favorable 0.0
nbcnightlynews 0.0
lockheed 0.0
untruthful 0.0
resonating 0.0
transferring 0.0
staten 0.0
humana 0.0
juanita 0.0
senses 0.0
stimulate 0.0
drooling 0.0
lakeland 0.0
burying 0.0
crafted 0.0
misrepresent 0.0
fabled 0.0
railing 0.0
billyjoel 0.0
sniper 0.0
cnnsotu 0.0
independents 0.0
detroitnews 0.0
foxbusiness 0.0
washtimes 0.0
realbencarson 0.000167981418654
meetthepress 0.0
newday 0.0
thebrodyfile 0.0
bostonherald 0.0
foxnewssunday 0.0
thefive 0.0
chriscuomo 0.0
randpaul 0.0
dcexaminer 0.0
facethenation 0.0
bretbaier 0.0
interruption 0.0
allenwest 0.0
cvpayne 0.0
dailycaller 0.0
prosecution 0.0
ballistic 0.0
vetoed 0.0
gettysburg 0.000730320055475
groping 0.0
brennan 0.0
nielson 0.0
justices 0.0
operative 0.0
surged 0.0
megynkelly 0.0
terminated 0.0
softbank 0.0
fronting 0.0
rigging 0.0
reprieve 0.0
pocketed 0.0
colluded 0.0
coffers 0.0
stairway 0.0
ellison 0.0
selflessly 0.0
tornadoes 0.0
levine 0.0
scranton 0.000196036774218
enslave 0.0
inappropriately 0.0
devalue 0.0
presumptive 0.0
fournier 0.0
terminate 0.0
reptommarino 0.0
kimberly 0.0
subscriptions 0.0
ingrahamangle 0.0
trajectory 0.0
natalie_gulbis 0.0
unheard 0.0
objectified 0.0
turnberry 0.0
djohnsonpga 0.0
bedminster 0.0
golf_com 0.0
elevation 0.0
litany 0.0
unaccountable 0.0
primaries 0.0
disrupter 0.0
runways 0.0
hashanah 0.0
unenthusiastic 0.0
undecideds 0.0
richardtrumka 0.0
renegotiate 0.0
rapists 0.0
aldridge 0.0
unsubstantiated 0.0
misrepresented 0.0
prisoner 0.0
mattis 0.0
weakening 0.0
endakennytd 0.0
taoiseach 0.0
lifeboat 0.0
enabler 0.0
emanated 0.0
lindseygrahamsc 0.0
renegotiating 0.0
waterville 0.0
zucker 0.0
berglund 0.0
suboptimal 0.0
steelworkers 0.0
postpone 0.0
mohammed 0.0
indignant 0.0
comprised 0.0
stupidest 0.0
exxonmobil 0.0
precluded 0.0
instruct 0.0
gonzales 0.0
scorned 0.0
davidmuir 0.0
harrisburg 0.000409486635969
caesars 0.0
borisep 0.0
lapierre 0.0
limbaugh 0.0
petraeus 0.0
phyllis 0.0
illegals 0.0
sanctity 0.0
neurotic 0.0
negligence 0.0
alvarez 0.0
roseanne 0.0
roanoke 0.0
theleegreenwood 0.0
mcallen 0.0
deduct 0.0
chokes 0.0
vigilance 0.0
pensacola 0.0
tuckercarlson 0.0
repcummings 0.0
windham 0.0
teleprompter 0.0
paulareidcbs 0.0
jeffzeleny 0.0
condoleezza 0.0
genflynn 0.0
donaldtrump 0.0
demeanor 0.0
baiting 0.000182580013869
plotted 0.0
aptitude 0.0
billings 0.0
approving 0.0
disconnected 0.0
superstorm 0.0
brainpower 0.0
exclaim 0.0
skyrocketed 0.0
globalism 0.0
israelipm 0.0
insurgent 0.0
sneers 0.0
unrest 0.0
scaramucci 0.0
disapproval 0.0
katiepavlich 0.0
overflow 0.0
warped 0.0
scottwalker 0.0
kirstenpowers 0.0
usarmy 0.0
schlafly 0.0
alisonforky 0.0
oppresses 0.0
pedantic 0.0
highness 0.0
benefitted 0.0
fundraisers 0.0
shinzo 0.0
augustine 0.0
ranchers 0.0
middletown 0.0
fiorina 0.0
pueblo 0.0
lindasuhler 0.0
lightweights 0.0
kimguilfoyle 0.0
perdue 0.0
unmasked 0.0
unmasking 0.0
judgejeanine 0.0
boycotted 0.0
outnumberedfnc 0.0
jessebwatters 0.0
podesta 0.0
kristol 0.0
interruptions 0.0
broaddrick 0.0
erictrump 0.0
outspending 0.0
irredeemable 0.0
begala 0.0
brazile 0.0
dinesh 0.0
markings 0.0
ericbolling 0.0
loudobbs 0.0
skyrocket 0.0
blumenthal 0.0
cochran 0.0
imploding 0.0
discord 0.0
jeffflake 0.0
davidwohl 0.0
bribery 0.0
repkenbuck 0.0
joshrogin 0.0
enrique 0.0
unverified 0.000182580013869
retribution 0.0
dwindling 0.0
automobile 0.0
teamtrump 0.0
subpoenaed 0.0
danscavino 0.0
joniernst 0.0
scottadamssays 0.0
senatorfischer 0.0
tabulation 0.0
trafficked 0.0
depict 0.0
unrelenting 0.0
imitating 0.0
dutchess 0.0
adelson 0.0
valuing 0.0
ricksantorum 0.0
chuckgrassley 0.0
laraleatrump 0.0
abingdon 0.0
equating 0.0
ministries 0.0
brzezinski 0.0
sentedcruz 0.0
jamesrosenfnc 0.0
leaker 0.0
realjameswoods 0.0
jim_jordan 0.0
marshablackburn 0.0
boynton 0.0
betsydevos 0.0
lawfare 0.0
larry_kudlow 0.0
stranahan 0.0
waynedupreeshow 0.0
phillypolice 0.0
scottwrasmussen 0.0
johnstown 0.0
raul_labrador 0.0
statewide 0.0
reviewjournal 0.0
oppress 0.0
underlings 0.0
bankrupted 0.0
collude 0.0
fayetteville 0.000614229953954
disqualifying 0.0
mahoning 0.0
disloyalty 0.0
americanlegion 0.0
bankruptcies 0.0
morell 0.0
ambridge 0.0
emboldens 0.0
asheville 0.0
grievous 0.0
ricketts 0.0
benefactor 0.0
dwyane 0.0
markhalperin 0.0
mayorbowser 0.0
unverifiable 0.0
savaged 0.0
wheeling 0.0
technocratic 0.0
countr 0.0
thealabamaband 0.0
relives 0.0
unwatchable 0.0
residences 0.0
gatekeeper 0.0
defections 0.0
senatorsessions 0.0
drmoore 0.0
honorably 0.0
billhemmer 0.0
shultz 0.0
aflcio 0.0
trucking 0.0
fabrications 0.0
malleable 0.0
misrepresents 0.0
decimated 0.0
arabella 0.0
mishandled 0.0
interfe 0.0
speach 0.0
iranians 0.0
fraudulently 0.0
enablers 0.0
dealmaker 0.0
terrori 0.0
anarchists 0.0
krzanich 0.0
foxnation 0.0
permeated 0.0
overruns 0.0
disposed 0.0
inaccurately 0.0
peebles 0.0
conditioners 0.0
classifie 0.0
forewarned 0.0
karlrove 0.0
palazzo 0.0
evansville 0.0
rebroadcast 0.0
bangor 0.0
secpricemd 0.0
realdonaldtru 0.0
uschamber 0.0
trumpinaugural 0.0
rawlings 0.0
churchillian 0.0
hemmer 0.0
rudygiuliani 0.0
pynance 0.0
terrybranstad 0.0
cbnnews 0.0
faithandfreedom 0.0
ovations 0.0
scpioneer 0.0
dwstweets 0.0
tgowdysc 0.0
bluffs 0.0
marist 0.0
spluttering 0.0
thetodaysgolfer 0.0
thebig_easy 0.0
hoosier 0.000209853596556
senbobcorker 0.0
larsloekke 0.0
roadblocks 0.0
manheim 0.0
greenblatt 0.0
jtanews 0.0
mitchellvii 0.0
bemoan 0.0
michiga 0.0
gennifer 0.0
gulbis 0.0
liyuan 0.0
enlisting 0.0
ainsleyearhardt 0.0
stevedoocy 0.0
foxfriendsfirst 0.0
pastormarkburns 0.0
marksimoneny 0.0
gov_gilmore 0.0
flunky 0.0
agitators 0.0
overdoses 0.0
liliantintori 0.0
leopoldo 0.0
traceadkins 0.0
gopconvention 0.0
governorsununu 0.0
laconia 0.0
teamsters 0.0
gatewaypundit 0.0
lawyerly 0.0
dissipates 0.0
realjeffreylord 0.0
nytimesdowd 0.0
scalise 0.0
straightening 0.0
energizer 0.0
montgomeriefdn 0.0
shulkin 0.0
ericgreitens 0.0
circuited 0.0
govbrewer 0.0
infringed 0.0
mcgarvey 0.0
republicanstudy 0.0
americafirstpol 0.0
fheile 0.0
phadraig 0.0
wiedefeld 0.0
coddington 0.0
kravis 0.0
fighterjet 0.0
shinzō 0.0
votestand 0.0
romoabcnews 0.0
moskowitzeva 0.0
drgoodspine 0.0
levisteveholt 0.0
untrusting 0.0
sleazebag 0.0
lbperfectmaine 0.0
timken 0.0
newhouse 0.0
evancho 0.0
franklin_graham 0.0
eazymf_e 0.0
busineses 0.0
substantialy 0.0
rexnord 0.0
sdcritic 0.0
highonhillcrest 0.0
fiiibuster 0.0
koster 0.0
saucier 0.0
t_lineberger 0.0
cissieglynch 0.0
saysgabrielle 0.0
ravenrantz 0.0
mayorrgiuliani 0.0
deplorablecbtp 0.0
tanden 0.0
keithrowland 0.0
kinston 0.0
sjsopio 0.0
aztrumptrain 0.0
therealmogul 0.0
unclassify 0.0
firebombed 0.0
wikileakes 0.0
davidshiloach 0.0
trumpwomenstour 0.0
mistreats 0.0
willey 0.0
dornsife 0.0
henryleledog 0.0
eericmyers 0.0
atensnut 0.0
arouses 0.0
anyonetennis 0.0
flifeforce 0.0
geeveem 0.0
susiesentinel 0.0
bcuzimdamomma 0.0
freedavidking 0.0
ifdanyt 0.0
arsenmissyirvin 0.0
nycmia 0.0
bigdog_joey 0.0
roadkingl 0.0
decieved 0.0
waukesha 0.0
creati 0.0
thallensboucher 0.0
kenansville 0.0
tarukmatuk 0.0
angpiazza 0.0
laughingstock 0.0
ak_tweet 0.0
kiiara 0.0
jerryjrfalwell 0.0
ghfanlovessonny 0.0
bishopwtjackson 0.0
cynthialummis 0.0
repreneeellmers 0.0
trumpdc 0.0
stvzbnk 0.0
bakari 0.0
adhd_fa 0.0
parisdennard 0.0
ronnieclemmons 0.0
takouis 0.0
lblackvelvet 0.0
chernuna 0.0
annebellar 0.0
presidencies 0.0
rsbnetwork 0.0
meequalsfree 0.0
pmnorlando 0.0
rhondar 0.0
patrici 0.0
lindaharden 0.0
trumpocrats 0.0
lewenskimo 0.0
trump_videos 0.0
sinabunz_tm 0.0
eyecandytmgayle 0.0
catonglass 0.0
billynungesser 0.0
samaritanspurse 0.0
zulu_out 0.0
willspeakout 0.0
laurencristmann 0.0
c_lynne_ryan 0.0
enemywithinn 0.0
elsolarverde 0.0
creats 0.0
dbongino 0.0
bongino 0.0
carl_c_icahn 0.0
fieldoffight 0.0
reploubarletta 0.0
mainegop 0.0
gatewaypun 0.0
mechanicsburg 0.0
pnehlen 0.0
patrioticpepe 0.0
insticts 0.0
borderless 0.0
lallyray 0.0
glowingly 0.0
spinnnn 0.0
flamed 0.0
nancynielsenn 0.0
olimauritania 0.0
theresa_cali 0.0
roxanetancredi 0.0
litigate 0.0
trumpdoonbeg 0.0
berrien 0.0
nbcpolitics 0.0
jakeda 0.0
barrasso 0.0
bluedogdemky 0.0
iowa_trump 0.0
arnold_ziffel 0.0
patricia_graf 0.0
brazosboys 0.0
jimvitari 0.0
trumpturnberry 0.0
trumpscotland 0.0
darrenwaggener 0.0
allegrettivicki 0.0
justininglv 0.0
chrisboydbrew 0.0
votetrumpmaga 0.0
realericjallen 0.0
insinuated 0.0
clubgoers 0.0
ausbiz 0.0
freemarketsara 0.0
senatorjeffsessions 0.0
mabynshingleton 0.0
dale_dangler 0.0
nauthizjane 0.0
richardweaving 0.0
mariadaq 0.0
sara_wejesa 0.0
jimhewitt 0.0
joedefranco 0.0
wolfstopper 0.0
djd_thunder 0.0
excoriates 0.0
rapidcraft 0.0
telepromter 0.0
liliannyleebou 0.0
lunsfordwhitney 0.0
free_sa_bd 0.0
stockdaleism 0.0
admonished 0.0
nbcdfw 0.0
frankylamouche 0.0
sandiegopd 0.0
tombarrackjr 0.0
buiidthewall 0.0
pipersul 0.0
oasisupernova 0.0
jknatter 0.0
jasondovesq 0.0
ed_klein 0.0
overregulates 0.0
dubilujane 0.0
rbacliff 0.0
ltstevenlrogers 0.0
rowanne 0.0
shoneep 0.0
magicmetalninja 0.0
barbaro 0.0
michael_favreau 0.0
christichat 0.0
mai_ttag 0.0
thydanielflores 0.0
costakenneth 0.0
svhlevi 0.0
johnjohnlacca 0.0
ladytsbrug 0.0
frankdallasagg 0.0
ladyjoanne 0.0
gerriweth 0.0
longbyfive 0.0
wesleyfelixpsi 0.0
manakoa 0.0
ragdollive 0.0
xgodfatherxzx 0.0
trumptrainrider 0.0
aprillajune 0.0
takingit_back 0.0
distlerjoyce 0.0
queencharlotteo 0.0
kellyriddell 0.0
valdosta_monkey 0.0
daybastrop 0.0
nathandwilsonfl 0.0
mathewjmari 0.0
stupor 0.0
matandsher 0.0
edgoeas 0.0
lynnepatton 0.0
erictrumpfdn 0.0
mikeozanian 0.0
lexingtonbobby 0.0
annettejeanne 0.0
andrebauer 0.0
waterbury 0.0
greenskydeb 0.0
keksec__org 0.0
ashleyedam 0.0
trumptbird 0.0
herb_stamper 0.0
senfrankniceley 0.0
anneslimo 0.0
agentvf 0.0
hornick 0.0
gqforbes 0.0
governor_savage 0.0
carolde 0.0
fugedaboudit 0.0
dnglax 0.0
alexnightrasor 0.0
lilrachiepoo 0.0
