awesome 2.68874295857e-05
christmas 2.681455743e-05
trying 0.000266177812707
moment 0.000170301562834
wonderful 0.000108724628036
seeing 4.97186182745e-05
recommend 0.0
anybody 7.42201249304e-05
worked 7.85055064248e-05
direct 0.000137062678923
others 0.0
currently 0.0
better 0.000718154539907
please 0.00160137776565
social 0.00013553693291
around 0.000119692423318
people 0.00117298574851
leaving 0.000191826895352
morning 0.000529493408247
general 6.20390341576e-05
investigate 0.0
damage 0.0
everything 0.000120339410965
twitter 0.000796383858581
though 0.000150367937189
friend 0.000459761676494
watched 0.000135905785045
beautiful 4.95846965946e-05
anything 0.000684889104394
helped 2.63819224378e-05
managing 5.46150082013e-05
updated 3.82556630942e-05
thinking 0.000221333240832
finally 0.000491851646294
caught 5.42147731638e-05
believe 0.000288037151969
already 0.000336043343964
couple 7.89317121505e-05
orlando 4.09873627382e-05
research 0.0
chance 0.000120339410965
meaning 0.0
annual 0.0
quickly 3.35802675221e-05
growing 5.7728854856e-05
probably 0.000208782262283
should 0.0
changed 7.72418587963e-05
history 9.91693931892e-05
center 0.000126182635201
museum 4.17898451874e-05
behind 0.000430892723944
pretty 4.91851646294e-05
really 0.00125152987404
expensive 0.0
little 0.000264034055972
earlier 5.63229048112e-05
realized 0.0
forget 0.000390311513388
someone 0.000291159593755
mostly 0.0
worker 0.0
safety 6.97383858122e-05
shuttle 0.0
program 0.000167419677309
things 0.000430892723944
related 3.53840188699e-05
visiting 3.31972435962e-05
available 0.000199950362879
afternoons 0.0
perfect 0.000125306614324
different 4.89206503139e-05
numbers 3.00839687802e-05
delays 0.0
person 9.65313767977e-05
watching 0.00135508704651
passed 8.8034443435e-05
celebrates 0.0
minutes 0.00072091996498
travel 2.9425824656e-05
daughter 0.000261930743538
average 0.0
positive 2.85494428222e-05
outside 0.000101882150783
looking 0.000600077399936
forward 0.000370883613573
plenty 0.0
agreed 6.45313350022e-05
raising 0.0
listened 3.81386042562e-05
afraid 0.000217744857579
impression 0.0
drawing 0.0
favorite 0.00153624026533
magnet 0.0
picture 0.000102434048211
historic 3.63395619641e-05
instead 8.13221597457e-05
appreciate 0.000141579473889
husband 0.000751234907747
international 2.97526349832e-05
market 0.0
couldn 0.000125306614324
remember 0.000168475175351
impressive 6.62048751848e-05
familiar 0.0
friends 0.000387167727574
despite 3.4166545429e-05
impossible 0.0
everyone 0.00055356129044
florida 0.000177441630788
always 0.000430892723944
months 5.02580827913e-05
moving 5.17737393237e-05
meeting 0.000172612901446
google 3.0251371453e-05
answer 0.000394543774733
together 0.000120664220997
inside 0.000150367937189
smaller 0.0
missed 0.000780623026776
active 0.0
longer 0.000250016852686
enough 9.7315178762e-05
driving 2.9425824656e-05
building 8.11015283771e-05
technician 0.0
enjoying 5.88516493121e-05
london 0.0
kennedy 0.00019543424261
recent 9.54393920556e-05
gotten 8.0421822774e-05
amazing 0.000192024767979
attention 2.7255155475e-05
richard 6.99425523021e-05
progress 0.0
tomorrow 0.00156441234255
george 0.000448765929529
excited 0.000477451786517
campaigning 0.0
understand 7.87182931108e-05
following 0.000151590335274
learning 0.0
evening 8.26603746279e-05
special 0.000509529289071
secret 0.000215684194017
across 2.68874295857e-05
comparison 0.0
surprised 0.000344477004655
anymore 0.000122700290032
rather 0.00010813537117
showing 5.13555971958e-05
saying 0.000276419455352
tweeted 0.000159065653426
updates 0.0
thoughts 0.000766182764066
exactly 0.00013013635867
except 0.00015337536254
getting 0.000770172230177
nothing 0.000312882468509
tweets 0.000132626335428
course 0.000124296545686
stephen 0.000158330274519
looked 0.000245964450545
difficult 3.17236409187e-05
stages 0.0
office 0.000156163630404
decisions 0.0
brought 8.00084257821e-05
biggest 7.43770448919e-05
thrilled 0.000330000700718
entire 0.000213935251476
something 0.000288814586316
closing 3.58040030575e-05
anyone 0.000679372385428
taking 0.000264746704123
recently 3.12811424661e-05
interesting 8.044367229e-05
original 2.84713400297e-05
flying 9.07541143591e-05
happening 0.0
sometimes 0.0
stopped 2.82385490412e-05
yesterday 0.000242632994796
service 7.9360462403e-05
serious 0.000102989145062
emails 0.0
afford 0.0
british 0.0
contact 0.0
either 0.000131197155185
second 0.000121316497398
accident 4.43725434499e-05
checking 6.23872318329e-05
volunteers 0.0
indeed 0.000262562014355
island 6.81356597768e-05
hearing 5.37748591714e-05
choose 0.0
staying 3.25413536728e-05
another 0.000288037151969
address 6.48982101256e-05
display 0.0
originally 0.0
compare 0.0
landing 0.0
perhaps 0.000181697809821
weekend 0.000243944695867
appear 3.64481267065e-05
anyway 6.22128164512e-05
theory 0.000315670842042
recognize 0.0
working 0.000120339410965
bigger 0.000112954196165
screen 0.0
treated 0.0
laughing 0.000114197771289
wanted 0.000243287946905
current 0.00806375150944
grateful 3.14571615288e-05
friendship 4.70975842664e-05
family 0.000409153997282
listening 7.91457673134e-05
stream 0.000165512187962
wedding 0.000658029348914
sharing 5.66317895557e-05
double 5.45103109499e-05
especially 2.66694752607e-05
middle 0.000110514473394
waiting 7.39769577625e-05
definitely 5.26211414336e-05
walking 8.6593282284e-05
account 0.000141192745206
completely 2.85494428222e-05
thought 0.000412476091153
reaction 6.58278892266e-05
accept 3.07607201294e-05
possible 0.000203764301566
simple 2.80080000554e-05
manufacturing 0.0
destroyed 4.62634063228e-05
professional 0.0
friendly 0.0
members 6.06710276815e-05
supposed 9.59793604189e-05
astronauts 0.0
component 0.0
business 0.000103827871055
absolutely 0.000128736431327
sending 8.37949235636e-05
delivering 0.0
heavily 0.0
biased 0.000148802696188
introducing 0.0
congrats 0.000404240894064
community 0.000118682052686
greatest 5.26211414336e-05
posted 2.84713400297e-05
saturday 0.000152411085553
wednesday 0.000203164413984
confused 3.50737965847e-05
explain 2.80846032717e-05
broken 0.0
chicago 6.54538485013e-05
fairly 0.0
hoping 5.78876509198e-05
relationship 0.0001294288423
actually 0.000567156676179
basket 0.000112103496813
myself 3.15456588002e-05
pocket 0.0
argument 3.71100624652e-05
decent 0.0
school 0.000171222276098
thursday 0.000154483717593
selling 3.29139446133e-05
talented 0.000221441391137
discuss 0.000310195170788
celebrate 7.97917877476e-05
celebrating 5.74128341091e-05
anniversary 0.000116413663795
contest 0.000250951921719
internet 2.99177286353e-05
figure 8.63558756084e-05
inspired 0.000116413663795
sitting 0.000135905785045
complaining 0.000137813122889
playing 0.000146761950942
street 0.000133347376303
points 6.16933505668e-05
advice 0.000367101137536
forever 2.71811570091e-05
congress 8.35796903748e-05
imagine 5.362911486e-05
problem 2.58169762263e-05
played 8.06622887572e-05
canadian 0.0
pulling 0.0
keeping 8.06622887572e-05
lovely 0.000514273314701
chinese 0.0
unlike 0.0
allowed 0.0
otherwise 0.0
afternoon 5.66317895557e-05
planned 0.000207393176456
strange 0.0
notice 6.52679182896e-05
difference 7.89317121505e-05
author 0.000562952759418
intent 5.60517484067e-05
letting 8.87660163555e-05
system 0.0
almost 0.000336950350702
details 0.0
experience 5.02580827913e-05
viewed 0.0
living 0.000125645206978
bright 0.00013548644681
normal 9.67970025034e-05
practically 0.0
before 0.0
monday 0.000879516448848
realize 3.45655294093e-05
currency 0.0
sleeping 7.65113261884e-05
wanting 0.0
science 3.39695197516e-05
tweeting 0.000274785333135
forgot 3.01675237853e-05
herself 0.0
disaster 7.37747545622e-05
happens 0.000224338120253
silence 0.0
congratulations 7.9575801257e-05
natural 6.8333090858e-05
raised 0.0
mission 0.0
ironic 5.34802704325e-05
testing 4.22014052041e-05
deleted 0.0
channels 0.000219394224983
surprising 0.0
reference 0.000122177212053
forgotten 7.16080061149e-05
trouble 0.000148763174916
setting 0.0
reminds 6.81356597768e-05
fantastic 0.000227147929844
loving 0.000227147929844
hardly 4.46774964231e-05
complete 2.76286183485e-05
membership 0.0
nearly 3.16344844482e-05
spirit 9.35808477494e-05
launched 0.0
stories 0.000182190902138
including 0.000106967625738
inviting 0.0
wouldn 0.000155741806582
choice 0.000154066791587
offended 5.37029556166e-05
conversation 0.000351168930272
disrespectful 0.0
making 0.000456058823951
expect 8.6593282284e-05
discussion 0.000210442779508
believes 0.000253208431225
occasions 0.0
response 8.49476843335e-05
brings 0.000116093950848
subject 4.03385836078e-05
greetings 0.0
anytime 0.0
protected 0.0
location 7.55816470875e-05
thomas 0.000113372470631
missile 0.0
needed 2.56777985979e-05
seriously 0.00021277810066
spending 2.99177286353e-05
groups 0.0
modern 6.93326463557e-05
welcome 0.000170301562834
totally 0.000138898251492
evenings 0.0
laughed 0.0
running 0.000126325279395
finished 0.000230282334956
strong 4.95846965946e-05
hopefully 3.05897302263e-05
respond 0.0
message 0.000102157701876
coming 0.000816105263913
thankful 0.000227437139749
temporary 0.0
issues 8.61192511637e-05
challenge 2.63819224378e-05
happen 0.000122631811989
giving 0.000194630357524
turkey 0.000245516576093
common 5.95052699664e-05
pressed 0.0
healthcare 4.67604169367e-05
benefits 7.55816470875e-05
situation 3.14571615288e-05
workers 0.0
company 0.0001090206219
health 5.67869824609e-05
insurance 0.000166077403829
change 9.62715287721e-05
august 6.79390395033e-05
mental 0.00014321601223
carrier 0.0
neither 6.63944871924e-05
lowest 0.0
decide 8.95051184605e-05
happened 0.000304000248325
demand 3.17236409187e-05
generally 0.0
personal 0.000104674008566
beyond 2.68874295857e-05
passion 0.0
question 0.00245925823147
doctor 0.000184436886406
sacrifices 0.0
respected 0.0
position 3.28202517944e-05
increased 0.0
losing 5.93410263428e-05
strain 0.0
respect 5.26211414336e-05
collapse 0.0
shouldn 0.000172711751217
career 5.58632823758e-05
visited 3.77908235437e-05
challenger 0.0
reason 7.60000620812e-05
simply 3.00839687802e-05
audience 0.000299631839069
employees 0.0
accounts 4.0210911387e-05
attacked 0.0
involved 5.60160001108e-05
extreme 4.16542160163e-05
unhappy 5.83827383389e-05
caused 0.000123755637217
knocked 0.0
reality 0.000171766807624
mention 5.93410263428e-05
extremely 0.0
burned 0.0
without 0.000145579796877
falling 3.54883261577e-05
problems 2.96705131714e-05
timing 4.2761395293e-05
highly 0.0
online 0.000232981826957
animals 0.0
called 0.000435563693521
scientists 4.62634063228e-05
pictures 9.12598590829e-05
camera 0.000157285807644
heading 5.72556025414e-05
terribly 0.0
theater 0.000136371961738
paying 3.12811424661e-05
complex 0.0
sunday 0.000223733782235
nights 3.54883261577e-05
enthusiastic 0.0
increasing 0.0
traffic 7.2247796963e-05
opposite 0.000118376565766
lookout 0.0
reached 0.000178491571059
changing 2.95071099113e-05
harder 0.0
silent 0.0
speaking 8.26603746279e-05
careful 0.0
november 3.22656675011e-05
answered 0.0
number 0.000123294929604
atlantic 4.65935975532e-05
stupid 0.000234387548233
budget 0.0
unless 5.93410263428e-05
calling 0.000151590335274
lately 8.3852494357e-05
levels 0.0
focused 3.9091505571e-05
ridiculous 9.95917307886e-05
financially 0.0
knowing 3.32924265632e-05
former 0.000332765085983
covers 0.0
mountain 0.0
suffers 6.6766053825e-05
schedule 0.0
greatly 0.0
friday 0.000439100452561
dramatic 0.0
failure 0.0
achieve 4.03385836078e-05
winner 0.000160451438607
closes 0.0
bother 0.0
directly 0.0
quality 3.11064082256e-05
tearing 0.0
father 0.000219230737545
wishes 9.41069706445e-05
collar 0.0
ground 9.35808477494e-05
matter 2.58169762263e-05
strategy 0.0
themselves 0.000126190292541
asking 0.000305646452348
mobile 7.99151834502e-05
device 5.26096841403e-05
computer 3.72221867201e-05
impressed 0.000145792506826
complain 0.0
dinner 0.000132986312913
suffering 0.0
single 0.000198338786378
parent 4.4071426465e-05
packed 7.89177105106e-05
catching 0.0
neglected 0.0
somewhat 0.0
approved 4.54573205794e-05
definition 0.0
energy 2.86278012707e-05
meltdown 0.0
events 8.95051184605e-05
europe 9.98772796896e-05
holiday 0.00019392810649
status 0.0
update 2.80846032717e-05
outage 0.0
customers 0.0
holding 5.69426800593e-05
survive 4.0856192631e-05
electric 4.30463806191e-05
picked 3.00007044017e-05
missing 5.13555971958e-05
surprise 0.000360462007716
german 0.0
officially 0.000252761429445
french 6.18658803727e-05
global 3.21744731635e-05
follow 0.000459761676494
opinion 3.13689902148e-05
design 0.0
allows 0.0
promoting 8.27704828975e-05
volunteer 0.0
negative 3.50737965847e-05
official 4.97186182745e-05
brutal 0.0
cotton 0.0
jersey 0.000121400821204
mistake 6.65848531264e-05
fixing 0.0
france 0.0
proper 0.0
peaceful 0.0
thinks 0.00033701523926
competition 3.25413536728e-05
industry 0.0
easier 3.26339591448e-05
successful 0.0
trending 3.98319300997e-05
leadership 3.76760104476e-05
agrees 0.0
organized 0.0
enthusiasm 0.000114637261005
turnout 0.0
showed 0.0
attended 0.0
trumps 0.0
networks 0.0
experienced 4.19262471785e-05
interested 9.27988205591e-05
effect 0.0
dislike 0.0
success 5.43623140181e-05
dreams 0.0
protect 9.25400258502e-05
rumors 0.00011161244667
arguing 0.0
referred 0.0
waving 0.0
growth 0.0
control 5.37748591714e-05
happier 0.0
likely 6.43489463271e-05
coincidence 5.07594385804e-05
cancel 5.03669956165e-05
project 2.71811570091e-05
laying 0.0
lesson 3.34839354619e-05
replacement 5.11584225607e-05
invited 0.000101614835107
continuing 0.0
clearance 0.0
treating 0.0
allowing 4.22014052041e-05
arrived 8.73102478462e-05
unable 0.0
opening 0.000130842510708
popular 3.29139446133e-05
followed 6.39862402793e-05
statement 6.23872318329e-05
enjoyed 0.000199846099755
spectacular 0.0
smoothly 0.0
length 0.0
wonder 0.000365368958996
matters 3.16344844482e-05
function 0.0
shared 0.0
connection 0.0
benefit 0.000271507714068
terrible 0.00015337536254
continues 5.86896289567e-05
equally 0.0
session 0.0
routine 4.88585606525e-05
associated 5.37029556166e-05
exciting 8.6593282284e-05
imagination 0.0
decides 0.0
cheering 0.0
spring 0.0
fallen 0.0
beautifully 4.76124102302e-05
places 0.0
entered 0.0
feedback 4.69284069922e-05
thousands 0.0
properly 0.0
informed 4.23401794169e-05
typical 0.0
continue 8.33389508954e-05
attend 0.0
excuse 6.97383858122e-05
female 0.000160418124577
recovery 0.000159327720399
closer 0.0
beginning 6.0502742906e-05
introduce 0.0
bought 0.00014712912328
multiple 3.64481267065e-05
slogan 0.000117866145137
covered 3.11936159165e-05
choices 0.0
unpredictable 0.0
enterprise 0.0
several 0.000103998969534
surrounded 0.0
dealing 0.0
teacher 7.18203211827e-05
training 0.0
auditorium 0.0
passing 0.000195248122037
become 0.000201032331165
presentation 9.77171213051e-05
spread 0.000577049199584
sooooo 0.0
season 0.000265252670857
putting 5.0530111758e-05
weight 7.48960463121e-05
stephanie 0.0
rapidly 0.0
follows 0.000134032489269
explained 4.2761395293e-05
stance 0.0
storms 0.0
headed 3.18131306852e-05
sleepy 0.0
returns 0.000129062670004
expected 0.000103395474772
resources 0.0
considering 8.06771672157e-05
fabric 0.0
suspect 0.0
constantly 0.0
condolences 0.0
appreciated 3.79061899582e-05
register 0.0
manage 4.39222765453e-05
transition 0.0
smooth 4.79618833663e-05
flowers 4.56163808634e-05
gained 5.46150082013e-05
savage 5.62998178252e-05
somebody 0.000107730481774
contract 0.0
furious 0.0
covering 0.000148888746881
boxing 0.0
credit 0.000118682052686
patriots 0.0
player 3.35802675221e-05
chemistry 5.26096841403e-05
grandkids 0.0
offensive 4.36267359438e-05
charles 3.86103137981e-05
fighting 0.0
atlanta 0.0
donald 0.000449351882321
mexico 0.0
unreal 0.0
police 0.000124078068315
represent 8.14514747017e-05
president 0.000534838128689
talking 0.00135143927517
unbelievable 0.0
alabama 0.0
slowest 0.0
conference 5.96700789737e-05
america 0.000332910656685
michigan 4.84958494004e-05
everybody 2.96705131714e-05
judgment 5.70598335529e-05
carolina 0.0
amount 3.37741024651e-05
houston 0.0
everyday 3.4166545429e-05
michael 0.000489260826163
protecting 0.0
million 0.000176855391153
election 0.000232380705173
honesty 0.0
telling 8.19881501816e-05
correct 0.0
pulled 7.2247796963e-05
attack 6.20390341576e-05
americans 6.69678709238e-05
salaries 0.0
killed 5.362911486e-05
louisville 0.0
horrible 4.09873627382e-05
coverage 0.000391607509738
dallas 0.0
jacksonville 0.0
league 3.71100624652e-05
united 6.23872318329e-05
college 3.00839687802e-05
refuse 4.31901557339e-05
barackobama 0.000649991056936
hillary 0.000301324664334
clinton 0.000275350445595
presidency 0.000103953824043
manning 0.0
stupidity 0.0
american 5.10788509378e-05
remain 0.0
founder 0.0
illegal 0.0
arizona 0.0
opinions 0.0
retire 5.34802704325e-05
triumph 0.0
stealing 4.94131449459e-05
speeches 5.15641693025e-05
innocent 4.61000030627e-05
scared 0.000105840492329
golden 9.73473151885e-05
straight 0.000213355802086
removed 0.0
answers 6.20390341576e-05
product 0.0
created 0.0
snoopdogg 0.0
worlds 0.0
record 0.000226161372561
stamina 0.0
weapon 0.0
funeral 0.000106519275351
registered 0.0
minnesota 0.0
committed 7.58123799163e-05
journey 9.38434273983e-05
disrespect 0.0
brother 2.93448144783e-05
prayers 0.000113028031343
documentary 0.000108050372967
boston 6.95350862739e-05
addition 0.0
korean 0.0
church 0.000182785930254
advantage 0.0
honestly 0.0
defeat 0.0
baltimore 0.0
lifetime 7.26791239283e-05
captain 4.0856192631e-05
retired 4.88585606525e-05
country 0.000248593091372
valley 4.09873627382e-05
mailbox 0.0
speedy 0.000250122403125
ending 0.000226500474025
finish 0.0
employee 0.0
university 3.44651582574e-05
remembered 9.09146411589e-05
nominated 3.61238984815e-05
praying 0.000197652579783
insane 7.11861798679e-05
national 0.00013013635867
reform 0.0
oregon 0.0
shooting 0.000120335875121
cancer 0.000151256857265
australia 0.0
deserve 0.0
legend 0.000128334499661
mother 0.00040221836145
murder 0.000155881191179
creating 3.31024375924e-05
powerful 0.0
carson 0.000120733886624
palmer 0.0
branch 0.0
breaking 0.000284755566281
dollars 0.0
questions 0.000838405521308
racist 8.66695991718e-05
charged 0.0
girlfriend 0.000101518877161
performance 0.000167133150692
refreshing 5.62998178252e-05
reading 0.000127697127344
corrupt 0.0
penalty 4.83165340701e-05
writer 0.00010934438012
denver 0.0
create 5.57110502306e-05
admire 4.45245343393e-05
nobody 0.000118028439645
government 0.000108050372967
politics 0.000170339149442
comeback 4.4071426465e-05
charities 0.0
method 0.0
sample 0.0
bringing 8.11015283771e-05
celebs 0.0
stadium 0.0
funniest 0.000219611382726
according 0.000191417737494
threat 7.16080061149e-05
heroin 0.0
honest 5.98354572705e-05
rolling 0.000108371695444
became 6.01679375603e-05
feature 0.0
decision 9.00021132052e-05
counting 6.8333090858e-05
verified 0.0
signing 6.30913176004e-05
adding 0.0
embrace 0.0
pressure 3.27269242506e-05
celebrities 0.000119566097771
dearly 0.0
facebook 0.000180231003858
divided 0.0
extension 5.30410198579e-05
lawyer 0.000137329515311
charleston 0.0
brazilian 0.0
basketball 4.61000030627e-05
campaign 0.000558632823758
determine 5.32596376757e-05
whether 6.08399060553e-05
praise 0.0
factory 0.0
arrested 0.000136371961738
investments 0.0
activity 0.0
comments 8.8034443435e-05
wounded 0.0
endorsement 0.00016110886685
williams 0.000460479565946
future 4.95846965946e-05
struggled 0.0
blessed 0.0
sabotage 0.0
warrior 0.0
softball 0.0
cheating 0.000293281619993
voting 5.93410263428e-05
instincts 0.0
collins 0.000163151150085
succeed 4.51423359736e-05
commercial 9.90240167334e-05
religion 0.000298740820486
boring 8.33084320326e-05
acting 0.000103395474772
established 0.0
warriors 0.0
because 0.0
sensitive 0.000100733991233
smiling 4.24797628133e-05
traitor 0.0
cleveland 0.0
agents 0.0
periscope 0.0
killing 9.20252175239e-05
choosing 0.0
phillips 0.000125712598949
instagram 0.000166939947516
opponent 5.19769120214e-05
detroit 4.46774964231e-05
cousin 4.72679656594e-05
honored 6.67759790063e-05
nonsense 8.99727687637e-05
dedication 0.0
hammer 0.000109697112491
proven 0.0
talent 0.0
governors 0.0
knocking 0.0
russian 0.0
consecutive 0.0
skills 0.0
citizens 4.11192555493e-05
cameras 0.00014494960221
phones 0.0
california 3.44651582574e-05
commitment 0.0
maryland 0.0
seconds 0.000128697892654
placed 0.0
listen 0.000149155854823
dominating 0.0
whatever 2.76286183485e-05
wherever 0.0
fought 0.0
compete 0.0
lauderdale 0.0
injured 0.0
billion 0.0
shoutout 0.0
depressing 0.0
guilty 0.00048870884821
carpet 4.13852414487e-05
harvard 0.0
absolute 0.0
handle 6.27379804297e-05
promise 2.85494428222e-05
hosting 0.000378547905602
longest 0.0
generation 6.60160111556e-05
criminal 4.59377076298e-05
tuesday 0.000136646916969
garbage 5.19769120214e-05
goldman 0.0
ronald 0.000127721717622
locker 0.0
leader 9.41069706445e-05
desperately 0.0
character 9.65234194906e-05
chancellor 0.0
proving 4.99808826546e-05
jackson 0.000271947904477
interview 0.00428055690246
buffalo 5.43837166952e-05
insight 0.0
obviously 6.75482049302e-05
battle 0.000111726564752
destroy 8.35796903748e-05
killer 0.000109671558152
personally 0.0
relentless 0.0
winning 0.0
charlotte 0.0
trafficking 0.0
defense 0.000386103137981
japanese 0.0
causing 0.000101518877161
arabia 0.0
rapist 0.0
writing 0.000111422100461
society 3.31972435962e-05
officers 0.0
ambushed 0.0
sources 0.0
kentucky 0.0
incredible 5.19139355274e-05
ungrateful 0.0
kissing 0.0
minute 0.000162644319491
luther 5.73186305023e-05
foreign 7.96638601994e-05
phoenix 0.0
champions 0.0
virginia 0.0
streak 0.0
orange 0.000216100745933
policy 7.05603282196e-05
intentional 0.0
reminder 8.68314763797e-05
evidence 0.000107094942635
presidents 0.0
judged 0.0
accused 9.52248204604e-05
intentions 0.0
facing 7.91651372593e-05
freedom 0.000100451806386
actions 0.0
debating 5.32596376757e-05
consequence 0.0
coughing 0.0
clearly 6.10093822299e-05
invite 3.40678298884e-05
central 3.17236409187e-05
washington 6.36262613704e-05
tougher 0.0
veteran 4.72679656594e-05
division 4.42215114999e-05
overrated 6.71553060545e-05
veterans 0.0
stronger 0.0
bowden 0.0
promised 0.0
catches 0.0
worried 0.000104302629411
security 0.000127611824996
sanctuary 0.0
reverse 4.49863843819e-05
immediately 0.0
television 8.46803588337e-05
entitled 0.0
racism 0.0
highest 0.0
approve 4.76124102302e-05
turning 0.000150419843901
georgia 0.0
tennessee 0.0
legacy 7.62772085125e-05
leaked 5.17696511192e-05
choked 0.0
helping 0.000132267437338
tickets 0.000727585398718
suspending 0.0
suspend 7.33966976899e-05
willing 3.65571860508e-05
december 0.0
beating 8.19747254763e-05
basically 0.0
return 0.000159583575495
escape 0.0
locked 4.04669404015e-05
unacceptable 0.0
network 0.00047012374531
language 6.73539776077e-05
invest 0.0
creation 0.0
followers 6.22128164512e-05
schools 3.4166545429e-05
menace 0.0
movies 3.60167909889e-05
entity 0.0
children 0.000211627899741
nation 0.0
flexible 6.96339130094e-05
review 5.72556025414e-05
knowledge 3.4166545429e-05
begins 0.000230282334956
vanessa 0.0
forbes 0.0
parade 4.43725434499e-05
fireworks 0.000220337621172
shoulder 0.0
produced 0.0
consider 0.000191417737494
latest 0.000780818152018
signed 2.65252670857e-05
shower 8.46803588337e-05
thunder 0.0
charity 0.000100740802566
germany 0.0
advance 0.0
explaining 4.15193509573e-05
millions 3.25413536728e-05
blessings 0.0
diamond 0.0
dollar 4.04669404015e-05
monsters 0.0
rigged 0.0
conduct 5.53226011355e-05
cooked 0.0
turned 0.000184673457065
criticism 4.46774964231e-05
responded 0.0
depending 0.0
jackie 0.000178489071059
charge 3.32924265632e-05
ticket 0.000225859672508
finest 4.74395684348e-05
sanders 0.0
includes 0.0
dealers 0.0
against 0.0
benjamin 0.0
impact 3.21744731635e-05
families 9.22821603883e-05
selection 0.0
hitting 6.41672498307e-05
announced 0.000175584465136
decided 0.000143926459347
professor 0.0
itself 0.0
promote 3.8729707984e-05
mexican 4.77865090679e-05
owners 0.0
guards 0.0
guarantee 0.0
beliefs 0.0
citizen 0.0
states 0.000151677569204
memorial 3.9091505571e-05
decades 0.0
landed 0.0
ultimate 6.97383858122e-05
mcdonald 5.53226011355e-05
twenty 0.0
hispanics 0.0
financial 4.23401794169e-05
payments 0.0
grabbing 5.86563239986e-05
permit 0.0
shield 0.0
disney 0.0
kansas 4.81385519516e-05
agreement 0.0
source 0.0
dismiss 0.0
talents 0.0
homework 5.34802704325e-05
expectations 0.0
joining 0.000254843053001
eugene 0.0
reasons 5.60160001108e-05
talked 9.07541143591e-05
released 0.000112032000222
reaching 0.0
release 0.000105527689751
promoter 0.0
circumstances 0.0
scheme 5.26096841403e-05
warwick 0.0
highlight 0.0
within 3.0675072508e-05
stacked 0.0
speech 0.000404101983992
standing 5.4957066627e-05
higher 0.0
justice 3.23572105751e-05
served 3.63395619641e-05
speaks 6.95350862739e-05
navarro 0.0
dropped 0.000267034618543
consideration 0.0
predicted 0.0
strength 3.32924265632e-05
andrew 0.000150246981549
replace 7.58123799163e-05
incredibly 0.0
private 3.08466752834e-05
integrity 0.0
sanford 0.000192744554015
ignored 9.18754152595e-05
neighbors 5.43837166952e-05
affection 7.666610904e-05
minimum 0.0
direction 0.0
enemies 5.11584225607e-05
exclusive 0.000171296656933
prison 0.000212398814067
himself 0.000115830941394
investigation 4.43725434499e-05
disgusting 0.0
congratulate 0.0
philly 4.49863843819e-05
rights 9.73473151885e-05
replaced 0.0
recognition 0.0
maintain 0.0
tallahassee 0.0
handed 0.0
victory 0.000103095618579
classy 4.79618833663e-05
lifted 0.000118426116074
terrorist 4.92268522962e-05
productive 4.77865090679e-05
tribute 6.60160111556e-05
threatened 5.15641693025e-05
insecure 0.0
horror 0.0
discovery 4.90419982142e-05
convention 0.000138790218969
understanding 0.0
action 5.16339524527e-05
figures 0.0
having 4.51423359736e-05
marine 0.0
announces 0.0
wallace 0.000118426116074
speaker 0.0
stevens 0.0
cybersecurity 0.0
apologize 0.00013311763035
continued 0.0
journalist 0.0
libelous 0.0
formation 0.0
letter 2.96705131714e-05
discussed 4.29034638682e-05
therapy 0.000100733991233
widespread 0.0
untrue 0.0
written 5.86896289567e-05
conferences 0.0
results 0.0
papers 0.0
winter 3.25413536728e-05
marching 0.0
sessions 0.0
democrats 0.000105648761018
eastern 0.000173339198344
scientist 5.13604362884e-05
represented 0.0
waters 0.0
journal 0.0
foundation 6.85313394614e-05
access 0.0
analysis 3.95825686297e-05
writes 0.0
colorado 0.0
medical 0.000118747705889
tremendous 0.0
nytimes 0.00010934438012
public 2.79316411879e-05
cheaters 0.0
cannot 2.681455743e-05
reveals 0.000107730481774
immunity 0.0
threatens 0.0
candidate 0.000191278315471
brilliant 0.000118028439645
wisconsin 5.58062233348e-05
studies 5.09580993443e-05
measure 8.81428529299e-05
compared 8.30387019145e-05
donors 0.0
graham 0.0
incorrect 0.0
headline 7.53520208951e-05
careers 0.0
answering 3.62314873577e-05
streaming 0.000314686223538
leaders 3.50737965847e-05
supreme 0.0
nominee 0.0
gorsuch 0.0
protest 4.07257373509e-05
immigration 0.0
policies 0.0
administration 9.09146411589e-05
defend 3.93357779422e-05
excitement 0.0
funding 3.83732971622e-05
surveillance 0.0
transfer 0.0
conspiracy 4.74395684348e-05
horrifying 0.0
formed 0.0
interviews 0.000489509387172
retreat 0.0
alliance 0.0
platform 3.81386042562e-05
editing 0.0
february 0.0
association 0.0
airwaves 8.18623043697e-05
hamilton 0.0
futures 0.0
borders 0.0
border 0.0
uranium 0.0
misleading 0.0
january 0.0
topics 0.000526096841403
unprecedented 0.0
airplane 5.70598335529e-05
tragic 4.34803227372e-05
philadelphia 5.32596376757e-05
funded 0.0
secure 0.0
income 0.0
hurricane 0.000968203887542
breakdown 0.0
countries 0.0
linked 4.48314421926e-05
broadcast 0.000119120774021
african 0.0
triple 4.39222765453e-05
provide 0.0
enhance 0.0
development 0.0
companies 0.0
discussions 5.34802704325e-05
developing 0.0
proposal 0.0
potential 6.63944871924e-05
moderator 0.0
suggestion 9.28558652765e-05
attending 0.0
filled 6.75482049302e-05
schultz 0.0
education 0.0
sickness 0.0
mentioned 3.53840188699e-05
exists 4.46774964231e-05
henderson 6.92025772917e-05
plants 0.0
orders 4.31901557339e-05
officials 8.46803588337e-05
strategic 0.0
ability 3.4971276151e-05
political 0.000103395474772
director 0.000300007044017
behaving 0.0
deficits 0.0
sufficient 0.0
prevent 3.99575917251e-05
shoddy 0.0
capacity 0.0
donations 4.54573205794e-05
editors 0.000109230016403
discussing 0.000218037371785
persistent 0.0
treatment 0.0
establishment 0.0
protects 0.0
critical 0.0
ambassador 0.0
preparing 4.0210911387e-05
capable 0.0
bishop 0.0
producers 0.00019916054699
bombed 0.0
weekly 0.0
becoming 0.000123386701134
magazine 0.000200327937019
lawyers 0.0
summary 0.0
standard 0.000104302629411
controlled 0.0
hiring 4.65935975532e-05
defending 0.0
pushes 0.0
admitted 0.0
failed 3.56983142118e-05
independent 0.0
copies 0.0
politically 0.0
driven 0.0
agenda 0.0
blocked 0.0
result 0.0
announcing 4.19262471785e-05
destruction 0.000113100969753
culture 0.000199183461577
insider 0.0
traitors 0.0
prince 3.48691929061e-05
solutions 0.0
indiana 0.0
mongering 0.0
claims 0.00019305156899
editorial 0.0
prospects 0.0
mistakes 0.0
offered 3.95825686297e-05
founded 0.0
ignorance 4.81385519516e-05
inspiring 0.0
majority 0.0
embarrassing 0.0
creators 0.0
server 0.0
berniesanders 0.000557071304075
spotlight 0.0
readout 0.0
tactics 0.0
irrelevant 5.65504848765e-05
massive 0.0
receiving 4.51423359736e-05
promising 0.0
promises 0.0
consequences 0.0
production 3.83732971622e-05
proposals 0.0
elsewhere 0.0
bernie 0.000414157208953
hacking 5.75802558896e-05
guests 0.00324013689849
interviewed 0.000154918831936
secretary 8.3852494357e-05
rebuttal 8.33589469764e-05
reduce 0.0
arriving 0.0
dangerous 0.000193594005007
shutting 0.0
arrival 5.26096841403e-05
canceled 0.000389456563329
typically 0.0
saving 0.0
pioneer 0.0
incident 4.96008987292e-05
ordering 0.0
victims 0.000592776279404
raises 0.0
receive 0.0
reputation 0.0
intention 0.0
commentary 0.0
disclosure 0.0
terrific 0.00080446340892
berkeley 0.0
melbourne 0.0
received 6.16933505668e-05
correctly 9.62771039033e-05
inherited 0.0
displayed 0.0
joseph 0.0
offices 4.97901367476e-05
necessary 0.0
largely 0.0
inaccurate 0.0
debate 0.000989854085964
conflict 0.0
interest 3.37741024651e-05
controversy 0.000224206993627
stated 0.0
rating 0.0
nominate 0.0
outstanding 0.0
devastating 0.0
accurate 0.0
southeastern 0.0
romney 0.00543957979041
scotland 0.0
delayed 4.74395684348e-05
rarely 0.0
abroad 0.0
winners 0.0
profit 0.0
reviews 8.63803114679e-05
republican 0.000569274821218
presidential 0.000160335665902
candidates 0.000121787967447
politicians 0.000131322150481
epidemic 0.0
greater 0.0
booths 0.0
arnold 0.000710102541695
principles 0.0
deadline 0.0
speakers 0.0
incoming 0.0
various 0.0
nuclear 0.00012743928844
danger 0.0
leading 6.10093822299e-05
restored 0.0
conditions 0.0
however 0.000114415812769
resolution 0.0
remained 0.0
member 2.82385490412e-05
examples 0.0
employ 0.0
courses 0.0
largest 0.0
hallmark 0.0
mentor 0.0
increase 0.0
transcript 5.73186305023e-05
disrupt 0.0
provided 0.0
binding 7.55259657197e-05
decreased 0.0
revival 0.0
crashing 0.0
reception 0.0
rising 0.0
primary 0.0
reduction 0.0
surrogate 0.000195481125641
provides 0.0
environment 0.0
revealed 3.92133301833e-05
confirmed 3.4971276151e-05
controls 0.0
behavior 0.0
introduced 9.15530102073e-05
carbon 0.0
communities 0.0
region 0.0
deaths 0.0
responsible 3.92133301833e-05
household 0.0
munich 0.0
canada 6.39862402793e-05
regions 0.0
movement 3.20836249154e-05
midwest 0.0
segment 0.00038369506693
emerged 0.0
hundreds 0.0
information 3.25413536728e-05
combined 4.46774964231e-05
easily 0.0
towards 0.0
inform 0.0
mathematically 0.0
october 3.35802675221e-05
investigating 0.0
predators 0.0
innovation 0.0
perspective 3.54883261577e-05
cities 0.0
todays 0.0
julian 5.86563239986e-05
eliminated 0.0
interests 0.0
toledo 0.0
extraordinary 0.0
eradicate 0.0
retains 0.0
ashamed 5.21859830854e-05
meetings 0.0
describing 0.0
eliminate 0.0
obligation 0.0
gender 8.78445530906e-05
committee 3.93357779422e-05
wasting 0.0
numerous 0.0
examination 0.0
inflammatory 0.0
practices 0.0
management 0.0
nordstrom 0.000160907503925
genius 9.5708868747e-05
warren 0.000387258207948
traveling 4.5299310206e-05
billions 0.0
prepared 0.0
fraction 0.0
equipment 0.0
procedures 0.0
rasmussen 0.0
county 4.43725434499e-05
developer 0.0
anthony 0.0016634139061
shadow 0.0
district 5.13604362884e-05
considered 3.72221867201e-05
lobbyist 0.0
chosen 4.5299310206e-05
hospitalized 0.0
outright 0.0
yorkers 0.0
naming 0.0
conventions 0.0
deficit 5.55631909462e-05
interventions 0.0
focusing 0.0
sensible 0.0
hosted 0.000163424770524
batman 0.0
column 0.0
upcoming 0.000271756158013
positions 0.0
favors 0.0
regulation 0.0
distributed 0.0
weakness 0.0
introduction 0.0
western 0.0
pacific 0.0
larger 0.0
increases 5.32596376757e-05
effective 0.0
situations 0.0
harbor 6.52694112182e-05
wealth 0.0
underway 4.81385519516e-05
israel 0.000204633690243
hysteria 0.0
overwhelming 0.0
protection 4.16542160163e-05
prisoners 6.35213001436e-05
guidance 0.0
montana 6.18922033574e-05
determination 0.0
restore 0.0
acquire 0.0
additional 0.0
exception 0.0
machine 9.70716317252e-05
honoring 0.0
visually 0.0
contrary 0.0
immediate 0.0
politico 0.0
ignoring 4.79618833663e-05
judges 0.0
federal 4.48314421926e-05
constant 0.0
philippines 6.06643196164e-05
nicely 4.59377076298e-05
september 6.73539776077e-05
manchester 0.0
fiction 4.81385519516e-05
priest 7.7863282726e-05
angela 0.0
process 0.0
destructive 0.0
genuine 0.0
surreal 5.21859830854e-05
whitehouse 0.0
flotus 6.09654366013e-05
crisis 3.68873772811e-05
judgement 0.0
confidence 0.0
voters 8.22385110986e-05
diamondandsilk 0.0
oldest 4.83165340701e-05
inauguration 5.07594385804e-05
gracious 5.86563239986e-05
scream 0.000101124825806
postponed 6.60060380973e-05
disappoint 0.0
believing 0.0
hillaryclinton 0.000191146036272
electoral 5.30410198579e-05
crashed 5.3927731772e-05
citizenship 0.0
closed 3.4166545429e-05
religious 4.74395684348e-05
apprentice 0.000285765797588
conservative 8.90490686786e-05
economists 0.0
buzzfeed 0.0
puppet 6.6383029899e-05
sweden 0.0
andersoncooper 0.000491173826218
treats 0.0
qualified 5.13604362884e-05
missouri 0.0
cooper 0.000407664794755
debates 0.000238062051151
endorsements 0.0
strike 7.37747545622e-05
shouting 0.0
empire 0.0
encouraged 0.0
regard 0.0
concerning 0.0
misinformed 0.0
disregard 0.0
barack 0.000106519275351
joined 0.000147535549556
terrorism 4.77865090679e-05
pushing 0.0
cracking 0.0
muhammad 0.0
refused 0.0
amazingly 5.03669956165e-05
express 3.71100624652e-05
gratitude 0.0
congratulation 0.0
throughout 7.60442300998e-05
shining 0.0
fighter 0.0
anticipated 0.0
presented 0.0
reveal 3.4971276151e-05
stands 0.0
native 0.0
harvey 0.000117312647997
featured 0.0
announce 0.000111422100461
surround 0.0
although 3.9091505571e-05
senior 0.000112685236162
todayshow 0.000109697112491
convincingly 0.0
haters 0.0
returning 8.19747254763e-05
laughs 0.000406281023762
touched 4.48314421926e-05
corruption 0.0
violence 3.51767579678e-05
runnin 0.0
delivered 7.79405955895e-05
owning 0.0
legendary 0.000383732971622
stabbing 0.0
independence 0.0
approval 0.0
magical 0.0
alongside 4.59377076298e-05
percent 8.84430229998e-05
spiral 0.0
differently 5.05624129031e-05
sweeping 0.0
spoiler 0.000100733991233
theirs 0.0
offering 0.0
remembering 0.0
floated 0.0
professionals 6.35213001436e-05
construction 0.0
searching 0.0
flexibility 0.0
sinking 0.0
detail 0.0
document 0.0
cabinet 0.00014494960221
pleased 0.0
carrying 0.000178098137357
statements 0.000152874298033
decade 0.0
prague 0.0
crossing 0.000113607609077
bigotry 0.0
happily 0.0
therefore 0.0
belong 0.0
customs 0.0
trillion 0.0
backed 0.0
electricity 0.0
observing 0.0
russell 4.61000030627e-05
engineers 0.0
operations 0.0
values 4.37740501605e-05
senator 9.92017974585e-05
confirms 0.0
removing 0.0
payment 0.0
consistently 0.0
posing 6.03669433119e-05
everett 0.0
wondered 9.25268126457e-05
generic 0.0
fields 0.0
mining 0.0
newspaper 0.0
detailed 5.30410198579e-05
rainbow 0.0
childcare 0.0
unlimited 0.0
exploded 0.0
thoroughly 0.0
adviser 0.0
leaves 0.0
matthew 0.000183106020415
intersection 0.0
affected 3.6998460936e-05
newspapers 0.0
corporate 0.0
economy 0.0
explores 0.0
spoken 0.0
during 0.0
credible 0.0
competitive 0.0
carefully 0.0
returned 0.0
blasts 0.0
guarding 0.0
hornet 0.0
successfully 0.0
southern 0.0
dakota 6.38608588108e-05
belief 0.0
messenger 0.0
heroes 7.31143721016e-05
russians 0.0
intelligence 0.0
deepest 0.0
graduates 0.0
describe 6.95350862739e-05
hollywood 0.000246961148769
reclaim 0.0
equality 4.31901557339e-05
announcement 9.22821603883e-05
interfere 0.0
interrupted 0.0
nationwide 0.0
questionable 0.0
garden 3.58040030575e-05
survey 0.0
journalists 4.29034638682e-05
delighted 0.0
minister 0.000137329515311
golfer 0.0
capital 0.0
penguins 0.000132012076195
regarding 4.43725434499e-05
teachers 4.29034638682e-05
devastated 0.0
phrase 4.49863843819e-05
immigrants 5.01731606736e-05
aliens 0.0
subjects 0.0
revolution 0.0
median 0.0
twelve 6.60060380973e-05
releases 0.0
accomplish 0.0
debbie 0.000619009886131
sebastian 0.0
briefing 0.0
advisor 5.58062233348e-05
commission 0.0
deadlines 0.0
hereby 0.0
invitation 0.0
alternatives 0.0
villages 0.0
accepted 0.0
commentators 0.0
depression 5.19769120214e-05
comprehensive 0.0
committees 0.0
pushed 9.31871951063e-05
statistic 0.0
donation 8.11919782977e-05
electronic 0.0
nomination 0.0
britain 0.0
questioning 5.89330725683e-05
attempt 0.0
investment 0.0
terror 0.0
homeland 6.38608588108e-05
polish 0.0
switzerland 0.0
represents 0.0
announcer 0.0
churchill 6.25306007812e-05
ambassadors 0.0
anchors 0.0
endorse 0.0
urgent 0.0
forced 0.0
expenses 0.0
preparations 0.0
string 0.0
morocco 0.0
thrill 0.00013590665888
watchdog 0.0
agencies 0.0
scrutiny 0.0
glorious 0.0
approaching 0.0
tragedy 0.000157343111769
handled 5.86563239986e-05
offers 7.65113261884e-05
requested 0.0
improvements 0.0
destroying 0.000105219368281
inexpensive 0.0
opposition 0.0
smithsonian 0.0
addiction 0.000159123059574
challenged 0.0
manhattan 0.000112103496813
richmond 0.0
forces 3.89702977947e-05
nations 0.0
anderson 4.81385519516e-05
builds 0.0
sexist 5.78447722237e-05
narrative 0.0
application 0.0
cannon 0.0
ethical 6.12703895745e-05
representation 0.0
obvious 0.0
statistics 0.0
military 0.000112004515862
housing 4.94131449459e-05
wonderfully 6.52694112182e-05
miller 0.0
copying 0.0
advised 0.0
ordered 7.05603282196e-05
unions 6.71553060545e-05
useless 0.0
alicia 0.0
economic 0.0
radical 0.0
planted 0.0
theories 0.0
conceived 0.0
readers 0.0
bombing 5.60517484067e-05
products 0.0
phenomena 0.0
classroom 0.0
classified 0.0
purely 0.0
hacked 0.00014028125081
taxpayers 0.0
opposed 0.0
pressing 6.22092740148e-05
russia 7.44443734403e-05
abraham 0.0
lincoln 4.90419982142e-05
observer 0.0
intelligent 4.88585606525e-05
lawsuit 0.000120146431777
detective 0.0
magnificent 0.0
heritage 5.68038045384e-05
beloved 0.0
dignity 0.0
priorities 0.0
repealing 0.0
murdoch 0.000291570843907
coalition 0.0
theresa 0.0
charges 5.03669956165e-05
activists 0.0
elected 0.000125369535562
relief 0.000398319300997
congratulates 0.0
pledge 0.0
elections 0.0
landslide 0.0
council 0.0
imperative 0.0
catastrophic 6.6383029899e-05
douglas 0.000106960540865
brexit 0.0
democracy 0.0
disastrous 0.0
rebuild 0.0
pundits 7.19154942869e-05
nickname 6.12703895745e-05
poison 5.94963570197e-05
interfering 0.0
negotiations 0.0
summit 0.000139283797915
dossier 0.0
unleash 0.0
negotiation 0.0
sticking 0.0
openly 0.0
embarrassed 0.0
ireland 0.0
attacks 3.86103137981e-05
remarks 5.19769120214e-05
democratic 0.0
outgoing 0.0
maureen 0.0
treasury 0.0
refugees 0.0
snatch 0.0
morgan 9.62771039033e-05
grieve 0.0
vicious 0.0
essentially 0.0
restoring 0.0
extended 4.36267359438e-05
referendum 0.0
ovation 6.31864907046e-05
bankrupt 0.0
proudly 0.0
oppose 0.0
refusal 0.0
urging 0.0
strengthen 0.0
deliver 0.0
negotiating 0.0
remaining 0.0
merkel 0.0
repeal 0.0
formal 0.0
reckless 0.0
prosperous 0.0
servant 0.0
desperate 0.0
secretaries 0.0
formally 0.0
breach 0.0
gloomy 0.0
outlines 0.0
concessions 0.0
executive 0.0
extend 0.0
republicans 0.000244292803263
terrorists 0.0
weapons 4.67604169367e-05
bodyguards 0.0
outrage 5.26096841403e-05
representative 0.0
prevail 0.0
searched 0.0
policemen 0.0
islamic 0.0
islamist 0.0
ingrained 0.0
humbled 0.0
courage 7.91651372593e-05
chamber 0.0
commander 0.0
formula 0.0
brigade 0.0
respecting 0.0
lectured 0.0
devices 0.0
enormous 5.68038045384e-05
verdict 0.00141439374164
refusing 0.0
energies 0.0
carried 5.11584225607e-05
behalf 0.0
tariff 0.0
amendment 0.0
nightmare 4.16542160163e-05
employment 0.0
legislation 0.0
referring 0.0
scrapping 0.0
handling 5.46150082013e-05
goodies 0.0
proves 0.0
prominently 0.0
crackdown 0.0
unfair 4.99808826546e-05
fiscal 0.000135101984992
humiliating 0.0
strongly 0.0
vision 3.54883261577e-05
resignation 0.0
confirmation 4.94131449459e-05
records 0.0
disabled 5.73186305023e-05
quoting 5.73186305023e-05
reductions 0.0
deeply 0.0
commerce 0.0
accumulation 0.0
overplaying 0.0
refugee 0.0
conway 0.00020633662871
exposed 9.77171213051e-05
netanyahu 0.000350278011992
israeli 7.0073163584e-05
priority 0.0
strongest 0.0
freedoms 0.0
treaties 0.0
empowering 0.0
laughter 0.0001460295542
syrian 0.0
uphold 0.0
praising 0.0
renewal 0.0
penned 0.0
condemns 0.0
realdonaldtrump 0.000334318761499
goodwill 0.0
attorney 0.00016815524522
settled 0.0
chairman 0.0
capability 0.0
firing 5.17696511192e-05
seanspicer 0.0
inaugural 5.50844052929e-05
carnage 0.0
optimism 0.0
rulers 0.0
clintons 0.0
melania 0.000615262898436
bikers 0.0
handing 0.0
intended 0.0
optimistic 0.0
campaigned 0.0
finance 5.53226011355e-05
allies 0.0
compromised 0.0
governor 5.01731606736e-05
bosses 0.0
attempts 4.70975842664e-05
irresponsible 0.0
incidents 0.0
merely 0.0
documents 0.0
tariffs 0.0
purpose 0.0
architect 0.0
arlene 0.0
resign 0.0
reuters 0.0
mainstream 0.0
dozens 0.0
donnell 0.000612986520986
clarified 0.0
gathering 0.0
crimes 0.0
vulnerable 0.0
commentator 0.0
overwhelmingly 0.0
respectful 0.0
markets 0.0
inspector 0.0
nigel_farage 0.0
drudge 0.0
abused 6.6383029899e-05
infrastructure 0.0
projected 0.0
boards 0.0
allegations 5.89330725683e-05
bloomberg 0.000193664329553
insulting 0.0
leaking 0.0
liberal 0.000134494326578
chairs 0.0
podium 0.0
conceded 0.0
capitol 5.89330725683e-05
consulting 0.0
wannabe 0.0
powell 0.0
reforms 0.0
technical 0.0
securing 0.0
steven 0.0
rumsfeld 0.000115784717552
businesses 0.0
balancing 0.0
socialist 0.0
complaints 0.0
politician 4.77865090679e-05
representatives 0.0
rallies 0.0
belittle 0.0
ballot 0.0
failing 0.0
refuses 0.0
conclude 0.0
vibrant 0.0
tarmac 0.0
spinning 0.0
appointments 0.0
farewell 0.00015110098685
opponents 0.0
unopposed 0.0
polling 0.0
prosperity 0.0
apology 0.000135427007921
outline 0.0
losers 0.0
battlefield 0.0
abandoned 0.0
endorsed 6.09654366013e-05
negotiate 0.0
negotiated 0.0
unwilling 0.0
appointed 0.0
slaughter 0.0
betray 0.0
donated 4.31901557339e-05
immigrant 0.0
prosecuted 0.0
criminals 0.0
elizabethforma 0.0
protesting 6.06643196164e-05
releasing 0.0
screening 4.64279326383e-05
sponsor 0.0
pocketbook 0.000132377610703
transparency 0.0
austin 0.0
obamacare 5.92130580368e-05
acceptable 0.0
schwarzenegger 0.00035036581792
congressman 6.56348913657e-05
profits 0.0
toward 4.33347995859e-05
fleeing 0.0
bravery 0.0
protests 5.50844052929e-05
recieved 0.0
violent 0.0
remarkably 0.0
senators 0.0
ratings 4.74395684348e-05
spouses 9.38501059192e-05
fundraiser 0.000203832397377
senate 4.90419982142e-05
louisiana 0.0
giuliani 0.0
venezuela 0.0
parenthood 0.000330030190486
organizations 0.0
generations 4.76124102302e-05
minorities 0.0
underestimate 5.83827383389e-05
terrified 5.73186305023e-05
discourse 0.0
pennsylvania 0.0
hackers 0.0
nbcnews 0.0
mccain 0.000278535652037
scandal 0.000370107250583
constitution 5.50844052929e-05
sensanders 0.0
abandon 0.0
explode 0.000127042600287
reopening 0.0
governments 0.0
competent 6.96339130094e-05
mike_pence 0.0
stinks 0.0
logical 0.0
accurately 0.0
righteous 0.0
thursdays 0.0
fitting 0.0
category 0.0
swearing 0.0
politifact 0.0
abolish 0.0
surging 0.0
murders 0.0
reagan 0.000172740767669
vetting 0.0
vetted 0.0
pouring 0.0
fraudulent 0.0
ballots 0.0
fading 0.0
speakerryan 0.0
civilized 0.0
commercials 5.53226011355e-05
luxurious 0.0
outraged 0.000127721717622
nypost 0.0
statute 0.0
enforcement 0.0
accountability 0.0
truthful 0.0
springfield 0.0
cancelled 0.000636402488112
conflicts 0.0
suffer 0.0
selfishly 0.0
educational 5.75802558896e-05
stolen 0.0
visionary 0.0
wounds 0.0
disgraceful 0.0
hatred 0.0
persuasion 0.0
exposing 0.0
teaches 6.25306007812e-05
sellers 0.0
refers 0.0
trusted 0.0
sheriff 0.000201465918163
samsung 0.0
ranking 0.0
undecided 0.0
nebraska 0.0
abusive 0.0
abuser 0.0
nashville 0.0
lightweight 0.0
victories 0.0
consumer 0.0
violation 0.0
sarcasm 0.0
freaky 0.0
jimmyfallon 0.000489453450256
outlets 0.0
vanityfair 0.0
harassed 7.49756314903e-05
leverage 0.0
sacred 0.0
horrific 0.0
contribute 4.99808826546e-05
indicted 0.0
chooses 0.0
defended 6.31864907046e-05
champion 0.0
waited 0.0
denmark 0.0
conviction 0.0
retail 0.0
distract 0.0
globes 7.9779383856e-05
endorsing 0.0
pathetic 0.0
purposely 0.0
expose 0.0
representing 0.0
mmflint 0.000718014454704
registration 0.0
acceptance 0.0
defeated 0.0
prosecutor 0.000380446250856
nbcsnl 0.00013353210765
nevada 0.0
illinois 6.52694112182e-05
massachusetts 0.0
spontaneous 0.0
entrepreneur 0.0
arkansas 0.0
hotels 0.0
exhausted 6.00732158886e-05
puppets 0.0
protesters 5.65504848765e-05
natalie 0.000137557752474
anaheim 0.0
nominating 0.0
vietnam 0.0
claimed 0.0
indianapolis 0.0
loudly 0.0
sarasota 0.0
rapids 0.0
oklahoma 5.50844052929e-05
devoted 0.000125061201562
sacramento 0.0
arranged 0.0
baldwin 0.000391616467309
crushed 9.77171213051e-05
reflects 0.0
replacing 0.000112103496813
louder 0.0
flashback 0.0
farmers 0.0
unleashed 0.0
tourists 0.0
steals 6.6383029899e-05
albany 0.0
devastation 0.0
meantime 0.000649094272216
donlemon 0.000307165090784
wilbur 0.0
finalists 0.0
ransom 0.0
normmacdonald 0.0
vanishing 0.0
clarence 0.000175139005996
jaketapper 0.0
clowns 6.83625442706e-05
elizabeth 0.000531481874771
microphone 6.96339130094e-05
machines 0.0
premium 0.0
championships 0.0
impersonation 8.33589469764e-05
horribly 0.0
stakes 0.0
mouthed 0.0
reservation 0.0
delaware 0.0
springs 0.0
columbus 5.60517484067e-05
slackers 0.0
toyota 0.0
chucktodd 0.0
correspondents 8.25989312487e-05
soldier 0.0
panels 0.0
broadcasting 0.000109230016403
sparks 0.0
warned 0.000193266136281
jclayfield 0.0
kellogg 0.0
anchor 0.0
heated 0.0
congressional 0.000121930873203
boeing 0.0
usatoday 0.0
endlessly 0.0
craziest 0.0
viewers 0.0
delivers 0.0
pittsburgh 0.0
marshal 0.0
reverend 0.0
lifelong 0.0
disdain 0.0
hispanic 0.0
defrauded 0.0
oppression 0.0
crowds 5.26096841403e-05
washingtonpost 0.0
affordable 0.0
tapping 0.0
ginsburg 0.0
reilly 0.000189559472114
illegally 0.0
shootings 6.35213001436e-05
destiny 0.0
serenawilliams 0.0
motors 0.0
redding 0.0
initially 0.0
travis 0.000125712598949
accomplishments 0.0
misconduct 0.0
mocked 0.0
disgrace 0.0
greeley 0.0
carmel 0.0
outcry 0.0
playbook 0.0
zealand 0.0
fearless 0.0
lining 0.0
sidekick 0.0
madame 0.0
grandstand 0.0
rochester 0.0
speechless 6.00732158886e-05
fletcher 8.7569502998e-05
begged 0.0
wintour 0.0
inspires 0.0
carlos 0.0
missiles 0.0
chelsea 5.13604362884e-05
oppressive 0.0
forgiven 0.000156970193018
killings 0.0
taiwan 0.0
somalia 0.0
burning 4.22014052041e-05
subscribers 0.0
chester 0.0
newtown 0.0
booker 0.0
heights 0.0
leicester 0.0
chiefs 0.0
joenbc 0.000262708508994
opioid 0.0
separately 0.0
intros 0.0
columnist 0.0
manages 0.0
financed 0.0
mnuchin 0.0
delegate 8.57954704432e-05
vicente 0.0
struck 0.0
trudeau 0.0
oreillyfactor 8.94856041281e-05
vulgarian 0.0
publicity 0.000127721717622
amnesty 0.0
ivankatrump 0.000265525162315
communism 9.26821433225e-05
linkedin 0.0
avoided 0.0
sophisticated 0.0
seanhannity 0.0
anncoulter 0.002975754732
foolish 0.0
catholics 0.0
bogged 0.0
catholic 0.000254085200574
thriving 0.0
newtgingrich 0.000100736778799
abedin 0.0
secretly 0.0
undermines 0.0
americanism 0.0
christians 0.0
rationally 0.0
deplorable 0.0
wikileaks 0.0
execution 0.0
enduring 0.0
foxandfriends 0.0
losses 0.0
kevcirilli 0.0
staffers 0.0
barron 0.0
jihadis 0.000100736778799
hampshire 0.0
pandering 0.0
donaldjtrumpjr 0.0
moines 0.0
lobbying 0.0
careless 0.0
piersmorgan 6.22092740148e-05
palestinian 0.0
kellyanne 7.72572127678e-05
democrat 0.0
unfunny 0.0
condemned 0.0
despair 0.0
louvre 9.63722770075e-05
crooked 0.0
lynden 0.0
outperform 0.0
tedcruz 0.0
majors 7.666610904e-05
schumer 0.0
credibility 0.0
flooding 0.0
hannity 8.11476696691e-05
beneficiary 0.0
sanctions 0.0
nominates 0.0
existent 0.0
criticized 0.0
senatemajldr 0.0
workforce 0.0
issued 0.0
outsider 0.0
declare 0.0
ivanka 0.000139267826019
dignified 0.0
threaten 0.0
outcomes 0.0
ukraine 0.0
justintrudeau 0.0
vladimir 0.000138405154583
businessman 0.0
regards 7.14414493971e-05
assange 0.0
malicious 0.0
garners 0.0
ethics 0.0
wrecked 0.0
regimes 0.0
incorrectly 0.0
hostile 0.000121328639233
defenders 0.0
deceived 0.0
hypocritical 0.0
favorably 0.0
shatter 0.0
changer 0.0
spokane 0.0
unnecessary 0.0
cwaunion 0.0
expand 5.28243805091e-05
apologized 0.000154514425536
criticizing 7.72572127678e-05
legion 8.7569502998e-05
hershey 0.0
intensity 0.0
tigerwoods 0.0
amercan 0.0
reince 8.4955437422e-05
chriscjackson 0.0
hypocrites 0.0
billkristol 0.0
govmikehuckabee 0.0
dustin 0.000149951262981
bullied 0.0
anonymous 0.0
yankees 0.0
thehill 0.0
infiltrated 0.0
somali 0.0
invention 0.0
frontrunner 0.0
patriot 0.0
poorly 0.0
prisonplanet 0.0
daytona 0.0
comparable 0.0
shouted 0.0
holocaust 0.000363985917698
kellyannepolls 0.0
foxnews 6.22092740148e-05
initiated 0.0
tiffany 0.0
mikeandmike 9.63722770075e-05
barbara 0.000282752424383
litigation 0.0
frankcaliendo 0.0
toughness 0.0
suffered 0.0
streep 0.000302103862879
billionaire 0.0
percentage 0.0
insiders 0.0
premiums 0.0
congratulatory 0.0
treasurer 0.0
incompetence 0.0
delegates 0.0
rollout 0.0
appalled 0.0
misquoted 0.0
pledged 0.0
demanded 0.0
andrews 0.0
lowlife 0.0
courageous 5.75802558896e-05
betrayed 0.0
horrors 8.11476696691e-05
warheads 0.0
pledges 0.0
interrupts 0.0
blacks 7.84850965089e-05
elaine 0.0
candidacy 0.0
discredited 0.0
cringing 0.0
estates 0.0
laughable 0.0
aberdeen 0.0
healed 0.0
floods 0.0
swiftly 0.0
cheryl 0.000271513250415
syracuse 0.0
difficulties 0.0
flipping 0.0
wilkes 0.0
lisbon 0.0
suckers 0.0
golfdigest 0.0
jeffrey 0.0
sixteen 0.0
scandals 0.0
circuits 0.0
regulations 0.0
monitoring 0.0
swamped 0.0
costing 0.0
detained 0.0
warmest 0.0
marginalize 0.0
miners 0.0
unemployment 0.000193664329553
paragon 0.0
obsolete 0.0
subsidies 0.0
exercised 0.0
evangelicals 0.0
franklin 0.0
molten 0.0
servers 0.0
billgates 0.0
excessive 0.0
coordinated 0.0
geneva 0.0
soaring 0.0
unsecured 0.0
corporations 0.0
rifles 0.0
innovative 0.0
pillar 0.0
bashing 0.0
organize 0.0
panelists 0.0
frontiers 0.0
pricing 0.0
platforms 0.0
scaling 0.0
pretends 0.0
forensic 7.91234939326e-05
roundtable 0.0
inherit 8.4955437422e-05
fabrication 0.0
brewer 0.0
unaffordable 0.0
reinforcing 0.0
eventful 0.0
wasserman 0.0
lindsey 0.0
billclinton 0.0
upstate 0.0
empowerment 0.0
penalties 0.0
responders 0.0
civilization 0.0
occupy 0.00025738641133
approximately 0.0
knight 0.0
homeownership 0.0
scratched 0.0
screws 0.0
contractor 8.25989312487e-05
havana 0.0
lowering 0.0
foundations 0.0
revitalize 0.0
counters 0.0
foreclosed 0.0
renovated 0.0
delaying 0.0
employer 0.0
executed 6.87788762368e-05
subpoena 0.0
grifters 0.0
cincinnati 0.0
disgraced 0.0
falsely 0.0
strengthening 0.0
abcworldnews 0.0
skyrocketing 0.0
pipelines 0.0
likewise 0.0
dishonest 0.0
surges 0.0
woefully 0.0
pressured 0.0
erratic 0.0
temperament 0.0
emboldened 0.0
keystone 0.0
mandated 0.0
crumbling 0.0
johnkasich 0.000183137049283
latinos 0.0
combating 0.0
incompetent 0.0
loopholes 0.000169910874844
incapable 0.0
unqualified 0.0
melaniatrump 0.000112965170159
recount 0.0
voluntarily 0.0
desperation 7.84850965089e-05
denounce 0.0
demoralized 0.0
incited 0.0
fawning 0.0
accuser 0.0
electing 0.0
patrol 0.0
connecticut 0.0
amounts 0.0
govpencein 0.0
squandered 0.0
enforce 0.0
epipens 0.0
deplorables 0.0
generals 0.0
timkaine 0.0
benghazi 0.0
moderators 0.0
sheriffclarke 0.0
unfairly 0.0
competence 0.0
dysfunctional 0.0
eleventh 0.0
instructed 0.0
restrict 0.0
battleground 0.0
jilted 0.0
blazing 0.0
hypocrite 8.41438856472e-05
mcconnell 7.91234939326e-05
circulated 0.0
flailing 0.0
pathological 0.0
deflect 0.0
undoing 0.0
predictable 0.0
phoney 0.0
perils 0.0
governing 0.0
likeable 9.77405628206e-05
tumble 0.0
praised 0.0
extraordinarily 0.0
jinping 0.0
trashes 0.0
knowingly 0.0
disloyal 0.0
woodward 0.0
magnificently 0.0
pretended 7.9779383856e-05
slaughtered 0.0
climber 0.0
americ 0.0
unprofessional 0.0
diplomats 0.0
resulted 0.0
crossroads 0.0
syrians 0.0
suppress 0.0
remembrance 6.56348913657e-05
infighting 0.0
castro 6.71553060545e-05
unquestionably 0.0
corrupted 0.0
kasich 0.0
readership 0.0
fraternal 0.0
frankluntz 0.0
demagogue 9.63722770075e-05
unanimous 0.0
bedford 0.0
longtime 0.0
complexities 0.0
dailymail 0.0
couric 0.0
cancelling 0.000245586913109
morningmika 0.000108161417793
concord 0.0
recounts 9.77405628206e-05
shouldered 0.0
patmccrorync 0.0
executives 0.0
westfield 0.0
graydon 0.0
sheldon 0.0
tanking 0.0
morning_joe 8.94856041281e-05
fabricated 0.0
corolla 0.0
groveling 0.0
unfolding 0.0
polled 0.0
influx 0.0
underachieving 0.0
antics 0.0
disenfranchised 0.0
golfing 0.0
xfinity 0.0
defies 0.0
fictitious 0.0
districts 0.0
vigilant 0.0
obstruction 8.57954704432e-05
rebuilding 0.0
preserving 0.0
passover 0.000154514425536
dhsgov 0.0
thejusticedept 0.0
repealed 0.0
intends 0.0
wildfires 0.0
usedgov 0.0
fresno 0.0
usnavy 0.0
scotus 0.0
tillerson 0.0
ineffective 0.0
senjohnmccain 0.0
cbsnews 0.0
lawsuits 0.0
caucus 0.0
shimon 0.000100736778799
wilmington 0.0
stagnant 0.0
gouging 0.0
baghdad 0.0
wiesel 0.0
obstruct 0.0
gonzalo 0.0
curiel 0.0
hostage 0.0
unnamed 0.0
truckers 0.0
boldly 0.0
scarborough 9.91918244002e-05
evangelical 0.0
cyberattack 0.0
marines 0.0
crimea 0.0
earners 0.0
oversaw 0.0
lobbyists 0.0
rosiegray 0.0
briefings 0.0
actresses 8.33589469764e-05
purchases 0.0
myanmar 0.0
heightened 0.0
shackles 0.0
perjury 9.63722770075e-05
dallaspd 0.0
respectfully 0.0
canton 0.0
approx 7.28927109767e-05
admirals 0.0
naples 0.0
brainwashed 0.0
albuquerque 0.0
supposedly 0.0
coliseum 0.0
greensboro 0.0
sheriffs 0.0
hostages 0.0
explorers 0.0
confidential 0.0
tamara 0.0
infested 0.0
depicted 0.0
devote 0.0
payroll 0.0
bombshell 0.0
advisers 0.0
watergate 0.0
mcmaster 0.0
renews 8.7569502998e-05
housegop 0.0
katyturnbc 0.0
pocahontas 0.0
wherein 0.0
shreds 0.0
pelosi 9.26821433225e-05
chrysler 0.0
collusion 0.0
deductibles 0.0
repmarkmeadows 0.0
darrellissa 0.0
insurer 0.0
dishonesty 0.0
hotlinejosh 0.0
quinnipiacpoll 0.0
apologizing 7.55259657197e-05
priebus 9.50779896603e-05
clapper 0.0
tapped 0.0
operatives 0.0
senschumer 0.0
marcorubio 8.33589469764e-05
viciously 0.0
leakers 0.0
bangladesh 0.0
favorable 0.0
nbcnightlynews 0.0
lockheed 0.0
untruthful 0.0
resonating 0.0
transferring 0.0
staten 0.0
humana 0.0
juanita 0.0
senses 0.0
stimulate 0.0
drooling 0.0
lakeland 0.0
burying 0.0
crafted 0.0
misrepresent 0.0
fabled 0.0
railing 0.0
billyjoel 0.0
sniper 0.0
cnnsotu 0.0
independents 0.0
detroitnews 0.0
foxbusiness 0.0
washtimes 0.0
realbencarson 9.26821433225e-05
meetthepress 0.0
newday 0.0
thebrodyfile 0.0
bostonherald 0.0
foxnewssunday 0.0
thefive 0.0
chriscuomo 0.000848627978236
randpaul 0.0
dcexaminer 0.0
facethenation 0.0
bretbaier 0.0
interruption 0.0
allenwest 0.0
cvpayne 0.0
dailycaller 0.0
prosecution 7.84850965089e-05
ballistic 0.0
vetoed 0.0
gettysburg 0.000100736778799
groping 0.000220885998141
brennan 0.0
nielson 0.0
justices 0.0
operative 0.0
surged 0.0
megynkelly 0.0
terminated 0.0
softbank 0.0
fronting 0.0
rigging 0.0
reprieve 0.0
pocketed 0.0
colluded 0.0
coffers 0.0
stairway 0.0
ellison 0.0
selflessly 0.0
tornadoes 0.0
levine 0.0
scranton 0.0
enslave 0.0
inappropriately 0.0
devalue 0.0
presumptive 0.0
fournier 0.0
terminate 0.0
reptommarino 0.0
kimberly 0.0
subscriptions 0.0
ingrahamangle 0.0
trajectory 0.0
natalie_gulbis 0.0
unheard 0.0
objectified 0.0
turnberry 0.0
djohnsonpga 0.0
bedminster 0.0
golf_com 0.0
elevation 0.0
litany 0.0
unaccountable 0.0
primaries 0.0
disrupter 0.0
runways 0.0
hashanah 0.0
unenthusiastic 0.0
undecideds 0.0
richardtrumka 0.0
renegotiate 0.0
rapists 0.0
aldridge 0.0
unsubstantiated 0.0
misrepresented 0.0
prisoner 0.0
mattis 0.0
weakening 0.0
endakennytd 0.0
taoiseach 0.0
lifeboat 0.0
enabler 0.0
emanated 0.0
lindseygrahamsc 0.0
renegotiating 0.0
waterville 0.0
zucker 0.0
berglund 0.0
suboptimal 0.0
steelworkers 0.0
postpone 0.000185364286645
mohammed 0.0
indignant 0.0
comprised 0.0
stupidest 0.0
exxonmobil 0.0
precluded 0.0
instruct 0.0
gonzales 0.0
scorned 0.000118981256746
davidmuir 0.000115784717552
harrisburg 0.000225930340318
caesars 0.000110442999071
borisep 0.00153190711941
lapierre 0.000118981256746
limbaugh 0.000302210336396
petraeus 0.000331328997212
phyllis 0.00010607849728
illegals 0.000100736778799
sanctity 0.000112965170159
neurotic 0.000112965170159
negligence 0.00010607849728
alvarez 9.05044168051e-05
roseanne 0.000356943770238
roanoke 0.0
theleegreenwood 0.0
mcallen 0.0
deduct 0.0
chokes 0.0
vigilance 0.0
pensacola 0.0
tuckercarlson 0.0
repcummings 0.0
windham 0.0
teleprompter 0.0
paulareidcbs 0.0
jeffzeleny 0.0
condoleezza 0.0
genflynn 0.0
donaldtrump 0.0
demeanor 0.0
baiting 0.0
plotted 0.0
aptitude 0.0
billings 0.0
approving 0.0
disconnected 0.0
superstorm 0.0
brainpower 0.0
exclaim 0.0
skyrocketed 0.0
globalism 0.0
israelipm 0.0
insurgent 0.0
sneers 0.0
unrest 0.0
scaramucci 0.0
disapproval 0.0
katiepavlich 0.0
overflow 0.0
warped 0.0
scottwalker 0.0
kirstenpowers 0.0
usarmy 0.0
schlafly 0.0
alisonforky 0.0
oppresses 0.0
pedantic 0.0
highness 0.0
benefitted 0.0
fundraisers 0.0
shinzo 0.0
augustine 0.0
ranchers 0.0
middletown 0.0
fiorina 0.0
pueblo 0.0
lindasuhler 0.0
lightweights 0.0
kimguilfoyle 0.0
perdue 0.0
unmasked 0.0
unmasking 0.0
judgejeanine 0.0
boycotted 0.0
outnumberedfnc 0.0
jessebwatters 0.0
podesta 0.0
kristol 0.0
interruptions 0.0
broaddrick 0.0
erictrump 0.0
outspending 0.0
irredeemable 0.0
begala 0.0
brazile 0.0
dinesh 0.0
markings 0.0
ericbolling 0.0
loudobbs 0.0
skyrocket 0.0
blumenthal 0.0
cochran 0.0
imploding 0.0
discord 0.0
jeffflake 0.0
davidwohl 0.0
bribery 0.0
repkenbuck 0.0
joshrogin 0.0
enrique 0.0
unverified 0.0
retribution 0.0
dwindling 0.0
automobile 0.0
teamtrump 0.0
subpoenaed 0.0
danscavino 0.0
joniernst 0.0
scottadamssays 0.0
senatorfischer 0.0
tabulation 0.0
trafficked 0.0
depict 0.0
unrelenting 0.0
imitating 0.0
dutchess 0.0
adelson 0.0
valuing 0.0
ricksantorum 0.0
chuckgrassley 0.0
laraleatrump 0.0
abingdon 0.0
equating 0.0
ministries 0.0
brzezinski 0.0
sentedcruz 0.0
jamesrosenfnc 0.0
leaker 0.0
realjameswoods 0.0
jim_jordan 0.0
marshablackburn 0.0
boynton 0.0
betsydevos 0.0
lawfare 0.0
larry_kudlow 0.0
stranahan 0.0
waynedupreeshow 0.0
phillypolice 0.0
scottwrasmussen 0.0
johnstown 0.0
raul_labrador 0.0
statewide 0.0
reviewjournal 0.0
oppress 0.0
underlings 0.0
bankrupted 0.0
collude 0.0
fayetteville 0.0
disqualifying 0.0
mahoning 0.0
disloyalty 0.0
americanlegion 0.0
bankruptcies 0.0
morell 0.0
ambridge 0.0
emboldens 0.0
asheville 0.0
grievous 0.0
ricketts 0.0
benefactor 0.0
dwyane 0.0
markhalperin 0.0
mayorbowser 0.0
unverifiable 0.0
savaged 0.0
wheeling 0.0
technocratic 0.0
countr 0.0
thealabamaband 0.0
relives 0.0
unwatchable 0.0
residences 0.0
gatekeeper 0.0
defections 0.0
senatorsessions 0.0
drmoore 0.0
honorably 0.0
billhemmer 0.0
shultz 0.0
aflcio 0.0
trucking 0.0
fabrications 0.0
malleable 0.0
misrepresents 0.0
decimated 0.0
arabella 0.0
mishandled 0.0
interfe 0.0
speach 0.0
iranians 0.0
fraudulently 0.0
enablers 0.0
dealmaker 0.0
terrori 0.0
anarchists 0.0
krzanich 0.0
foxnation 0.0
permeated 0.0
overruns 0.0
disposed 0.0
inaccurately 0.0
peebles 0.0
conditioners 0.0
classifie 0.0
forewarned 0.0
karlrove 0.0
palazzo 0.0
evansville 0.0
rebroadcast 0.0
bangor 0.0
secpricemd 0.0
realdonaldtru 0.0
uschamber 0.0
trumpinaugural 0.0
rawlings 0.0
churchillian 0.0
hemmer 0.0
rudygiuliani 0.0
pynance 0.0
terrybranstad 0.0
cbnnews 0.0
faithandfreedom 0.0
ovations 0.0
scpioneer 0.0
dwstweets 0.0
tgowdysc 0.0
bluffs 0.0
marist 0.0
spluttering 0.0
thetodaysgolfer 0.0
thebig_easy 0.0
hoosier 0.0
senbobcorker 0.0
larsloekke 0.0
roadblocks 0.0
manheim 0.0
greenblatt 0.0
jtanews 0.0
mitchellvii 0.0
bemoan 0.0
michiga 0.0
gennifer 0.0
gulbis 0.0
liyuan 0.0
enlisting 0.0
ainsleyearhardt 0.0
stevedoocy 0.0
foxfriendsfirst 0.0
pastormarkburns 0.0
marksimoneny 0.0
gov_gilmore 0.0
flunky 0.0
agitators 0.0
overdoses 0.0
liliantintori 0.0
leopoldo 0.0
traceadkins 0.0
gopconvention 0.0
governorsununu 0.0
laconia 0.0
teamsters 0.0
gatewaypundit 0.0
lawyerly 0.0
dissipates 0.0
realjeffreylord 0.0
nytimesdowd 0.0
scalise 0.0
straightening 0.0
energizer 0.0
montgomeriefdn 0.0
shulkin 0.0
ericgreitens 0.0
circuited 0.0
govbrewer 0.0
infringed 0.0
mcgarvey 0.0
republicanstudy 0.0
americafirstpol 0.0
fheile 0.0
phadraig 0.0
wiedefeld 0.0
coddington 0.0
kravis 0.0
fighterjet 0.0
shinzō 0.0
votestand 0.0
romoabcnews 0.0
moskowitzeva 0.0
drgoodspine 0.0
levisteveholt 0.0
untrusting 0.0
sleazebag 0.0
lbperfectmaine 0.0
timken 0.0
newhouse 0.0
evancho 0.0
franklin_graham 0.0
eazymf_e 0.0
busineses 0.0
substantialy 0.0
rexnord 0.0
sdcritic 0.0
highonhillcrest 0.0
fiiibuster 0.0
koster 0.0
saucier 0.0
t_lineberger 0.0
cissieglynch 0.0
saysgabrielle 0.0
ravenrantz 0.0
mayorrgiuliani 0.0
deplorablecbtp 0.0
tanden 0.0
keithrowland 0.0
kinston 0.0
sjsopio 0.0
aztrumptrain 0.0
therealmogul 0.0
unclassify 0.0
firebombed 0.0
wikileakes 0.0
davidshiloach 0.0
trumpwomenstour 0.0
mistreats 0.0
willey 0.0
dornsife 0.0
henryleledog 0.0
eericmyers 0.0
atensnut 0.0
arouses 0.0
anyonetennis 0.0
flifeforce 0.0
geeveem 0.0
susiesentinel 0.0
bcuzimdamomma 0.0
freedavidking 0.0
ifdanyt 0.0
arsenmissyirvin 0.0
nycmia 0.0
bigdog_joey 0.0
roadkingl 0.0
decieved 0.0
waukesha 0.0
creati 0.0
thallensboucher 0.0
kenansville 0.0
tarukmatuk 0.0
angpiazza 0.0
laughingstock 0.0
ak_tweet 0.0
kiiara 0.0
jerryjrfalwell 0.0
ghfanlovessonny 0.0
bishopwtjackson 0.0
cynthialummis 0.0
repreneeellmers 0.0
trumpdc 0.0
stvzbnk 0.0
bakari 0.0
adhd_fa 0.0
parisdennard 0.0
ronnieclemmons 0.0
takouis 0.0
lblackvelvet 0.0
chernuna 0.0
annebellar 0.0
presidencies 0.0
rsbnetwork 0.0
meequalsfree 0.0
pmnorlando 0.0
rhondar 0.0
patrici 0.0
lindaharden 0.0
trumpocrats 0.0
lewenskimo 0.0
trump_videos 0.0
sinabunz_tm 0.0
eyecandytmgayle 0.0
catonglass 0.0
billynungesser 0.0
samaritanspurse 0.0
zulu_out 0.0
willspeakout 0.0
laurencristmann 0.0
c_lynne_ryan 0.0
enemywithinn 0.0
elsolarverde 0.0
creats 0.0
dbongino 0.0
bongino 0.0
carl_c_icahn 0.0
fieldoffight 0.0
reploubarletta 0.0
mainegop 0.0
gatewaypun 0.0
mechanicsburg 0.0
pnehlen 0.0
patrioticpepe 0.0
insticts 0.0
borderless 0.0
lallyray 0.0
glowingly 0.0
spinnnn 0.0
flamed 0.0
nancynielsenn 0.0
olimauritania 0.0
theresa_cali 0.0
roxanetancredi 0.0
litigate 0.0
trumpdoonbeg 0.0
berrien 0.0
nbcpolitics 0.0
jakeda 0.0
barrasso 0.0
bluedogdemky 0.0
iowa_trump 0.0
arnold_ziffel 0.0
patricia_graf 0.0
brazosboys 0.0
jimvitari 0.0
trumpturnberry 0.0
trumpscotland 0.0
darrenwaggener 0.0
allegrettivicki 0.0
justininglv 0.0
chrisboydbrew 0.0
votetrumpmaga 0.0
realericjallen 0.0
insinuated 0.0
clubgoers 0.0
ausbiz 0.0
freemarketsara 0.0
senatorjeffsessions 0.0
mabynshingleton 0.0
dale_dangler 0.0
nauthizjane 0.0
richardweaving 0.0
mariadaq 0.0
sara_wejesa 0.0
jimhewitt 0.0
joedefranco 0.0
wolfstopper 0.0
djd_thunder 0.0
excoriates 0.0
rapidcraft 0.0
telepromter 0.0
liliannyleebou 0.0
lunsfordwhitney 0.0
free_sa_bd 0.0
stockdaleism 0.0
admonished 0.0
nbcdfw 0.0
frankylamouche 0.0
sandiegopd 0.0
tombarrackjr 0.0
buiidthewall 0.0
pipersul 0.0
oasisupernova 0.0
jknatter 0.0
jasondovesq 0.0
ed_klein 0.0
overregulates 0.0
dubilujane 0.0
rbacliff 0.0
ltstevenlrogers 0.0
rowanne 0.0
shoneep 0.0
magicmetalninja 0.0
barbaro 0.0
michael_favreau 0.0
christichat 0.0
mai_ttag 0.0
thydanielflores 0.0
costakenneth 0.0
svhlevi 0.0
johnjohnlacca 0.0
ladytsbrug 0.0
frankdallasagg 0.0
ladyjoanne 0.0
gerriweth 0.0
longbyfive 0.0
wesleyfelixpsi 0.0
manakoa 0.0
ragdollive 0.0
xgodfatherxzx 0.0
trumptrainrider 0.0
aprillajune 0.0
takingit_back 0.0
distlerjoyce 0.0
queencharlotteo 0.0
kellyriddell 0.0
valdosta_monkey 0.0
daybastrop 0.0
nathandwilsonfl 0.0
mathewjmari 0.0
stupor 0.0
matandsher 0.0
edgoeas 0.0
lynnepatton 0.0
erictrumpfdn 0.0
mikeozanian 0.0
lexingtonbobby 0.0
annettejeanne 0.0
andrebauer 0.0
waterbury 0.0
greenskydeb 0.0
keksec__org 0.0
ashleyedam 0.0
trumptbird 0.0
herb_stamper 0.0
senfrankniceley 0.0
anneslimo 0.0
agentvf 0.0
hornick 0.0
gqforbes 0.0
governor_savage 0.0
carolde 0.0
fugedaboudit 0.0
dnglax 0.0
alexnightrasor 0.0
lilrachiepoo 0.0
