awesome 0.000176648890296
christmas 0.000528510373075
trying 0.000476938134903
moment 0.000479516411632
wonderful 0.00013393399713
seeing 0.00028581744408
recommend 5.91570694767e-05
anybody 0.0
worked 0.000128944183265
direct 5.62808775927e-05
others 0.000256496552854
currently 0.000189117738063
better 0.00070773520093
please 0.000996303150307
social 0.000178093995309
around 0.000275230355917
people 0.00137615177959
leaving 0.0
morning 0.000790623117695
general 0.000101898235605
investigate 0.0
damage 6.48106113209e-05
everything 0.000672029650041
twitter 0.000198189275304
though 0.000205814340644
friend 0.000437193290328
watched 0.00013393399713
beautiful 0.000692258380538
anything 0.000361581641091
helped 0.000129995802713
managing 0.0
updated 6.28343852244e-05
thinking 0.000161571873635
finally 0.00149453983113
caught 0.000178093995309
believe 0.000473096945704
already 0.000670220673081
couple 0.000216073700229
orlando 0.000134642326459
research 0.0
chance 0.000355780402963
meaning 5.84611464903e-05
annual 0.0
quickly 0.0
growing 4.74094135508e-05
probably 8.57304777597e-05
should 0.0
changed 0.000211447766531
history 0.000325768649665
center 5.18132981339e-05
museum 0.000686392292955
behind 0.000432504845013
pretty 0.000161571873635
really 0.00138359045597
expensive 0.0
little 0.000906769145933
earlier 9.25095740505e-05
realized 0.0
forget 0.000480810852683
someone 0.00051807763816
mostly 0.0
worker 0.0
safety 5.72721558669e-05
shuttle 0.0
program 0.000109993780239
things 0.000550460711835
related 5.81177502266e-05
visiting 0.000109052005575
available 0.000533675417046
afternoons 0.0
perfect 0.00032930294503
different 0.000241054427394
numbers 9.88249859246e-05
delays 0.0
person 0.000396378550609
watching 0.00067566235778
passed 4.81984424823e-05
celebrates 0.0
minutes 0.000449141697841
travel 4.83315005527e-05
daughter 0.0
average 0.0
positive 0.0
outside 0.000209174988485
looking 0.000157698981901
forward 0.000162445623044
plenty 0.0
agreed 5.29959022353e-05
raising 0.000112888729646
listened 0.000187926353219
afraid 0.000102183670563
impression 0.0002178996204
drawing 0.000140936664437
favorite 0.00178921568875
magnet 0.0
picture 0.000420616186257
historic 0.0
instead 0.000178093995309
appreciate 0.000139525369308
husband 0.0
international 0.00024434140945
market 5.32971958343e-05
couldn 0.000164651472515
remember 0.000948747741234
impressive 0.0
familiar 0.0
friends 0.00075515204693
despite 0.0
impossible 0.0
everyone 0.00106734120889
florida 0.000116578146941
always 0.00110092142367
months 8.25481897143e-05
moving 8.50376341187e-05
meeting 0.000121506106176
google 0.0
answer 0.000202510176961
together 0.000634205680974
inside 0.000370465813159
smaller 0.0
missed 0.000200337855285
active 0.0
longer 0.000182510729871
enough 0.000359637308724
driving 4.83315005527e-05
building 0.000133208112582
technician 0.0
enjoying 9.66630011055e-05
london 0.000517228342799
kennedy 0.0
recent 0.0
gotten 0.0
amazing 0.000473096945704
attention 0.000223831035715
richard 0.0
progress 5.48393002401e-05
tomorrow 0.00138359045597
george 0.000147418337631
excited 0.000908030086858
campaigning 0.0
understand 0.000172391576513
following 4.14974967211e-05
learning 9.80072602419e-05
evening 0.00018102466065
special 0.000199260630061
secret 0.000265693677175
across 0.000264973335444
comparison 0.0
surprised 4.71498837486e-05
anymore 0.000151150117409
rather 4.44027041938e-05
showing 4.21754207956e-05
saying 0.000330192758857
tweeted 0.000104505233839
updates 0.0
thoughts 0.000125844434669
exactly 0.000128248276427
except 5.03833724697e-05
getting 0.000869685429465
nothing 0.000355780402963
tweets 8.71347515862e-05
course 0.0002041553172
stephen 0.0
looked 0.000134664376348
difficult 0.000156316893734
stages 0.000290390212954
office 0.000170997701903
decisions 0.000119374432471
brought 0.000306629649758
biggest 0.000244326487249
thrilled 6.02246089601e-05
entire 0.0
something 0.000751091961811
closing 0.000117615136622
anyone 0.00051807763816
taking 0.000474373870617
recently 5.13788337987e-05
interesting 8.80850621791e-05
original 9.35275461242e-05
flying 9.93748989667e-05
happening 0.000344783153027
sometimes 0.000435673757931
stopped 4.63814171581e-05
yesterday 0.000278964882086
service 0.000130348436359
serious 0.000126868659918
emails 0.0
afford 0.0
british 0.000115216429027
contact 0.0
either 8.61957882567e-05
second 0.000797042520246
accident 0.0
checking 5.12350726795e-05
volunteers 0.0
indeed 5.39067990884e-05
island 0.000111911856903
hearing 4.4162222574e-05
choose 0.00023254228218
staying 0.000267243564353
another 0.000551946436655
address 0.0
display 0.0
originally 0.0
compare 0.0
landing 0.0
perhaps 0.0
weekend 0.000801351421139
appear 0.0
anyway 0.0
theory 6.48106113209e-05
recognize 0.0
working 0.000158124623539
bigger 9.27628343163e-05
screen 0.000106897425741
treated 0.0
laughing 0.000656488781108
wanted 0.000279717906785
current 0.000373087260089
grateful 0.00025833971309
friendship 0.000154714231231
family 0.000474373870617
listening 0.000216659671188
stream 0.00027185142634
wedding 0.000120089321436
sharing 0.000139525369308
double 0.000179064828572
especially 0.000175216942719
middle 9.07592292546e-05
waiting 0.000526526460098
definitely 8.64294800915e-05
walking 0.000331865894856
account 4.63814171581e-05
completely 0.000281352334761
thought 0.000438373386135
reaction 5.40606882174e-05
accept 5.05240474759e-05
possible 0.0
simple 0.000138008231135
manufacturing 0.0
destroyed 0.0
professional 5.86339758775e-05
friendly 5.88075683108e-05
members 0.0
supposed 0.000105096494103
astronauts 0.0
component 0.0
business 8.52679043991e-05
absolutely 8.45791066123e-05
sending 0.00055052790423
delivering 0.0
heavily 0.0
biased 0.0
introducing 0.000190250681959
congrats 0.000414974967211
community 0.000146200193929
greatest 0.000129644220137
posted 0.000140291319186
saturday 0.000292055226218
wednesday 4.76706678161e-05
confused 5.76082145134e-05
explain 0.0
broken 0.0
chicago 0.000161260529756
fairly 0.0
hoping 0.0
relationship 0.000159438781316
actually 0.000526526460098
basket 9.20642034936e-05
myself 0.000259066490669
pocket 0.0
argument 0.000121905504808
decent 0.0
school 0.00076333902008
thursday 0.000803501512817
selling 0.000108121376435
talented 0.000259795965018
discuss 0.0
celebrate 0.000131056882133
celebrating 0.000141449651246
anniversary 0.0
contest 0.000257615612413
internet 0.000638812796401
figure 4.72794345158e-05
inspired 0.000621425334579
sitting 0.00013393399713
complaining 0.0
playing 0.000723163282181
street 0.000131412707039
points 5.06652275998e-05
advice 0.0
forever 8.92893314198e-05
congress 0.0
imagine 0.000132127593269
problem 4.24040180807e-05
played 4.4162222574e-05
canadian 0.000204584839052
pulling 0.000134642326459
keeping 0.000132486667722
lovely 0.000198749797933
chinese 0.0
unlike 7.31309175251e-05
allowed 0.0
otherwise 5.61180673299e-05
afternoon 9.30169128719e-05
planned 5.6773392871e-05
strange 0.000182308345415
notice 0.000214403264191
difference 0.0
author 0.0
intent 0.0
letting 0.000194395900821
system 4.94124929623e-05
almost 0.000197655779424
details 0.000129644220137
experience 0.000288918664
viewed 0.0
living 0.000536563233143
bright 0.0
normal 0.000158987706706
practically 0.0
before 8.57304777597e-05
monday 0.000536563233143
realize 0.000340640357226
currency 0.0
sleeping 0.000628343852244
wanting 0.0
science 0.000111588910886
tweeting 0.000225665510407
forgot 0.000148649192627
herself 9.50092197375e-05
disaster 0.0
happens 0.000122824062534
silence 6.22603805443e-05
congratulations 0.000174269503172
natural 0.00011223613466
raised 5.1667942618e-05
mission 5.36008160479e-05
ironic 8.78405873135e-05
testing 6.93152107983e-05
deleted 7.84886648522e-05
channels 0.0
surprising 0.0
reference 0.0
forgotten 5.88075683108e-05
trouble 4.886828189e-05
setting 0.0
reminds 0.0
fantastic 9.32718150223e-05
loving 0.000233179537556
hardly 0.0
complete 0.000226898073136
membership 0.0
nearly 5.19591930036e-05
spirit 0.000512350726795
launched 5.89819305578e-05
stories 0.000170997701903
including 0.00017569281143
inviting 0.0
wouldn 0.000213169760998
choice 0.000126526262387
offended 0.0
conversation 9.61316663506e-05
disrespectful 0.0
making 0.000709645418557
expect 4.74094135508e-05
discussion 0.0
believes 0.0
occasions 0.000121398631579
response 0.0
brings 0.0
subject 0.00013251110538
greetings 0.0
anytime 0.0
protected 0.0
location 6.20708928413e-05
thomas 0.0
missile 0.0
needed 0.0
seriously 0.000218428136889
spending 4.9139445877e-05
groups 6.38100834857e-05
modern 0.000170816835628
welcome 0.000439556710663
totally 9.12553649353e-05
evenings 0.0
laughed 7.49242599888e-05
running 0.000207487483605
finished 0.000189117738063
strong 0.000162884324833
hopefully 0.0
respond 5.96872162356e-05
message 0.000209740724448
coming 0.00220778574662
thankful 0.000124520761089
temporary 0.0
issues 9.42997674972e-05
challenge 0.0
happen 0.000241705218796
giving 0.000399597009693
turkey 0.000115216429027
common 0.00014660484567
pressed 0.000108413983434
healthcare 0.0
benefits 0.0
situation 5.1667942618e-05
workers 0.0
company 0.0
health 0.000233179537556
insurance 6.81949463506e-05
change 0.000592967338271
august 0.000278972277216
mental 0.000352845409865
carrier 0.0
neither 0.0
lowest 0.0
decide 0.0
happened 4.16096754627e-05
demand 0.000208422524979
generally 0.000159900984074
personal 0.000128944183265
beyond 0.000176648890296
passion 0.0
question 8.07859368177e-05
doctor 0.0
sacrifices 0.0
respected 0.0
position 0.0
increased 0.0
losing 0.000146200193929
strain 0.0
respect 0.000129644220137
collapse 0.0
shouldn 4.72794345158e-05
career 0.0
visited 0.000124141785683
challenger 0.0
reason 8.32193509255e-05
simply 4.94124929623e-05
audience 0.000273411697318
employees 0.0
accounts 0.0
attacked 0.0
involved 4.60027437117e-05
extreme 0.0
unhappy 9.58928214681e-05
caused 0.0
knocked 0.0
reality 0.000141062275309
mention 0.0
extremely 5.7439826152e-05
burned 0.0
without 0.000239112756074
falling 0.000233156293882
problems 0.0
timing 0.000210704959783
highly 0.000112561755185
online 0.000297631719416
animals 0.000132091705748
called 0.000317958756602
scientists 0.0
pictures 0.000449679081004
camera 5.1667942618e-05
heading 0.000141062275309
terribly 0.0
theater 7.46630057234e-05
paying 0.000102757667597
complex 6.50138087875e-05
sunday 0.00016332425376
nights 0.000291445367352
enthusiastic 0.0
increasing 0.0
traffic 5.93329920175e-05
opposite 6.48106113209e-05
lookout 0.000249951033127
reached 0.000117267951755
changing 0.0
harder 5.49968901195e-05
silent 0.0
speaking 9.05123303248e-05
careful 0.0
november 0.000317975413412
answered 6.24507858669e-05
number 0.000324016283137
atlantic 0.0
stupid 0.0
budget 0.0
unless 9.74667959526e-05
calling 8.29949934422e-05
lately 0.0
levels 6.07694484718e-05
focused 0.0
ridiculous 0.0
financially 0.0
knowing 0.0
former 4.96874494833e-05
covers 0.000128016325212
mountain 0.000209317227696
suffers 0.0
schedule 0.0
greatly 0.0
friday 0.000560945994797
dramatic 0.0
failure 0.0
achieve 0.0
winner 0.000219616014288
closes 0.000161708816441
bother 0.0
directly 0.0
quality 0.000102183670563
tearing 0.0
father 0.00013503126892
wishes 0.000103046244965
collar 0.0
ground 0.0
matter 0.000127212054242
strategy 0.0
themselves 0.000138177179739
asking 0.0
mobile 6.56297789143e-05
device 0.0
computer 0.0
impressed 5.98655322885e-05
complain 0.0
dinner 0.000218428136889
suffering 0.0
single 0.000610816218122
parent 0.0
packed 6.48106113209e-05
catching 0.0
neglected 0.0
somewhat 0.0
approved 0.0
definition 0.000130027617575
energy 0.000141062275309
meltdown 0.0
events 0.0
europe 0.000164047018391
holiday 0.00031852417037
status 0.0
update 0.000276771380462
outage 0.0
customers 8.53713423992e-05
holding 0.000187055092248
survive 0.0
electric 0.000141406141918
picked 4.92757323991e-05
missing 0.000168701683182
surprise 0.000380605979755
german 0.0
officially 0.000276771380462
french 0.000101613832964
global 0.000264230584132
follow 0.000516682979479
opinion 0.000103046244965
design 5.96872162356e-05
allows 7.44034759213e-05
promoting 6.79746733808e-05
volunteer 8.27270774884e-05
negative 0.0
official 0.00016332425376
brutal 0.0
cotton 0.0
jersey 6.64663769068e-05
mistake 5.46823394637e-05
fixing 0.0
france 0.00016451790072
proper 6.28343852244e-05
peaceful 0.000250114978508
thinks 9.22571268207e-05
competition 0.000160346138612
industry 5.57944554432e-05
easier 0.0
successful 0.0
trending 0.000261693525892
leadership 6.18823139557e-05
agrees 0.0
organized 0.000100134866813
enthusiasm 0.0
turnout 0.0
showed 4.96874494833e-05
attended 0.0
trumps 0.0
networks 0.0
experienced 0.0
interested 0.0
effect 0.0
dislike 0.0
success 4.46446657099e-05
dreams 0.000467632737032
protect 5.06652275998e-05
rumors 0.0
arguing 0.0
referred 0.0
waving 0.0
growth 0.0
control 0.000176648890296
happier 0.0
likely 0.0
coincidence 0.000166743319005
cancel 0.0
project 0.0
laying 0.00016355918992
lesson 0.0
replacement 0.0
invited 0.000111267285716
continuing 0.0
clearance 0.0
treating 0.0
allowing 6.93152107983e-05
arrived 9.56038976276e-05
unable 0.0
opening 0.000343851155372
popular 0.000162182064652
followed 0.0
statement 0.0
enjoyed 0.0
spectacular 0.000216425152866
smoothly 0.0
length 0.0
wonder 4.28652388798e-05
matters 5.19591930036e-05
function 8.82063445768e-05
shared 0.0
connection 0.00012881467973
benefit 0.000148649192627
terrible 0.0
continues 0.000144595327447
equally 0.0
session 0.0
routine 8.0249494408e-05
associated 0.0
exciting 4.74094135508e-05
imagination 0.000189149510805
decides 0.0
cheering 0.0
spring 0.000252620237379
fallen 0.0
beautifully 7.82027099752e-05
places 0.000188599534994
entered 0.0
feedback 7.7079244337e-05
thousands 0.0
properly 0.0
informed 0.0
typical 0.0
continue 0.000273766094806
attend 5.9509705224e-05
excuse 0.0
female 0.000210787599458
recovery 0.0
closer 0.000198198923503
beginning 0.000198749797933
introduce 0.0
bought 0.000289989003316
multiple 0.0
slogan 0.0
covered 0.0
choices 0.0
unpredictable 0.0
enterprise 0.0
several 0.000227755780837
surrounded 0.0
dealing 0.0
teacher 5.89819305578e-05
training 0.0
auditorium 0.0
passing 5.34487128707e-05
become 0.000288918664
presentation 0.0
spread 0.00031593171457
sooooo 0.0
season 0.000304971630552
putting 4.14974967211e-05
weight 6.1507848056e-05
stephanie 0.0
rapidly 0.0
follows 0.0
explained 0.0
stance 0.0
storms 0.0
headed 5.22526169196e-05
sleepy 0.0
returns 5.29959022353e-05
expected 5.66085346745e-05
resources 0.0
considering 0.0
fabric 0.0
suspect 0.0
constantly 7.28812746403e-05
condolences 0.0
appreciated 0.0
register 5.88075683108e-05
manage 0.0
transition 7.65293245718e-05
smooth 0.0
flowers 0.000149848519978
gained 0.0
savage 9.24716540027e-05
somebody 5.89819305578e-05
contract 0.0
furious 0.0
covering 6.11369149061e-05
boxing 0.0
credit 0.0
patriots 8.5714738663e-05
player 0.00011031022833
chemistry 8.64106616494e-05
grandkids 0.0
offensive 0.0
charles 6.34168939863e-05
fighting 4.50104229732e-05
atlanta 0.0
donald 0.000340640357226
mexico 0.000685262370716
unreal 0.0
police 0.000152847353408
represent 6.68914472335e-05
president 0.000395308825718
talking 0.000158551420244
unbelievable 6.28343852244e-05
alabama 0.0
slowest 0.0
conference 4.9003630121e-05
america 0.000630924279385
michigan 0.0
everybody 9.74667959526e-05
judgment 0.0
carolina 0.0
amount 0.0
houston 6.73211632296e-05
everyday 0.00011223613466
michael 4.46446657099e-05
protecting 0.000140936664437
million 0.000290482477048
election 0.000163578008362
honesty 0.0
telling 8.97762508984e-05
correct 0.000152847353408
pulled 0.000118665984035
attack 0.0
americans 0.000164990670358
salaries 0.0
killed 4.40425310896e-05
louisville 0.0
horrible 0.0
coverage 0.000107201632096
dallas 6.52180618301e-05
jacksonville 0.0
league 0.0
united 0.0
college 0.0
refuse 0.000141878439101
barackobama 0.000457543333762
hillary 0.000565624567672
clinton 6.4608458576e-05
presidency 0.0
manning 0.0
stupidity 0.0
american 8.38962897791e-05
remain 0.0
founder 0.0
illegal 6.58372655292e-05
arizona 7.82027099752e-05
opinions 0.0
retire 0.0
triumph 0.0
stealing 0.0
speeches 0.0
innocent 0.0
scared 0.000173841510759
golden 0.000692863545846
straight 0.000306629649758
removed 0.0
answers 5.09491178026e-05
product 0.0
created 0.000142619471083
snoopdogg 0.0
worlds 7.46630057234e-05
record 0.000866755992001
stamina 0.0
weapon 0.0
funeral 0.0
registered 0.0
minnesota 0.0
committed 0.0
journey 0.000102757667597
disrespect 0.0
brother 0.000192793769929
prayers 0.00043317619769
documentary 5.91570694767e-05
boston 0.000114210395119
addition 6.88632676354e-05
korean 0.0
church 6.0044660718e-05
advantage 0.0
honestly 0.000282221824116
defeat 0.0
baltimore 0.0
lifetime 0.000119374432471
captain 0.00013421143637
retired 0.0
country 0.00036747957096
valley 0.000134642326459
mailbox 0.0
speedy 0.0
ending 0.0
finish 9.71979504103e-05
employee 0.0
university 0.0
remembered 0.0
nominated 5.93329920175e-05
praying 8.1160391261e-05
insane 0.000350766878942
national 0.000213747127379
reform 0.00015640541995
oregon 0.0
shooting 4.94124929623e-05
cancer 0.0
australia 0.000293169879387
deserve 4.84650104341e-05
legend 0.000158090699594
mother 0.000132127593269
murder 0.0
creating 0.000163110855804
powerful 0.000289190654894
carson 0.0
palmer 0.0
branch 0.0
breaking 4.25188170594e-05
dollars 0.000198766658069
questions 8.10040707843e-05
racist 0.00014235359006
charged 0.0
girlfriend 0.000166743319005
performance 0.000320266140463
refreshing 0.000184943308005
reading 4.19481448895e-05
corrupt 0.0
penalty 0.0
writer 0.0
denver 0.000248181232465
create 9.15046115609e-05
admire 0.00014626183505
nobody 9.69300208681e-05
government 5.91570694767e-05
politics 5.59559284516e-05
comeback 0.0
charities 0.0
method 8.27270774884e-05
sample 0.0
bringing 0.000399624337745
celebs 0.000101657068094
stadium 6.68914472335e-05
funniest 7.21417176219e-05
according 0.000104800308274
threat 0.0
heroin 0.0
honest 4.9139445877e-05
rolling 0.000177998976052
became 4.94124929623e-05
feature 5.42151820204e-05
decision 0.0
counting 5.61180673299e-05
verified 0.0
signing 0.000103626596268
adding 0.000250568470959
embrace 0.0
pressure 0.0
celebrities 0.0
dearly 0.0
facebook 0.000126868659918
divided 0.0
extension 0.0
lawyer 0.0
charleston 0.0
brazilian 0.000102705626828
basketball 0.0
campaign 0.000137631976057
determine 0.0
whether 0.0
praise 0.0
factory 8.0550788007e-05
arrested 0.0
investments 0.0
activity 0.0
comments 0.0
wounded 0.0
endorsement 8.82063445768e-05
williams 0.000315137987581
future 0.000285047568457
struggled 0.0
blessed 0.0
sabotage 0.0
warrior 8.40269850437e-05
softball 0.0
cheating 0.0
voting 0.000194933591905
instincts 0.0
collins 0.0
succeed 0.0
commercial 0.000108430364041
religion 0.00016355918992
boring 0.0
acting 0.0
established 0.0
warriors 0.0
because 0.000170816835628
sensitive 8.27270774884e-05
smiling 0.000139544818464
traitor 0.0
cleveland 7.79188197725e-05
agents 0.0
periscope 0.0
killing 0.000100766744939
choosing 0.0
phillips 0.000103240582322
instagram 0.000383875101681
opponent 0.0
detroit 0.0
cousin 0.000155273929285
honored 0.000329035801441
nonsense 0.0
dedication 8.33716595026e-05
hammer 0.0
proven 0.0
talent 0.000158090699594
governors 0.0
knocking 0.0
russian 0.0
consecutive 0.0
skills 5.48393002401e-05
citizens 0.0
cameras 7.93592234173e-05
phones 0.000218643823921
california 0.000226434138698
commitment 0.0
maryland 0.0
seconds 0.000158538350479
placed 0.0
listen 0.000775790205361
dominating 0.0
whatever 0.0
wherever 0.0
fought 0.0
compete 0.0
lauderdale 0.0
injured 0.0
billion 5.66085346745e-05
shoutout 0.00022398901717
depressing 0.0
guilty 6.68914472335e-05
carpet 0.000271898693523
harvard 8.97043780395e-05
absolute 0.0
handle 5.15231224827e-05
promise 0.000234460278967
hosting 0.000155439894402
longest 0.000210704959783
generation 0.0
criminal 0.0
tuesday 0.000403993129043
garbage 0.0
goldman 0.0
ronald 0.0
locker 0.000177151072462
leader 5.15231224827e-05
desperately 0.0
character 0.000105692233653
chancellor 0.0
proving 0.0
jackson 6.38100834857e-05
interview 4.0175737899e-05
buffalo 0.0
insight 7.02349865942e-05
obviously 5.54734853157e-05
battle 4.58773253525e-05
destroy 6.86392292955e-05
killer 0.000120089321436
personally 0.000399736382918
relentless 0.0
winning 0.000126526262387
charlotte 0.0
trafficking 0.0
defense 0.0
japanese 0.000289546777016
causing 0.0
arabia 0.0
rapist 0.0
writing 9.15046115609e-05
society 5.45260027875e-05
officers 0.000167395913992
ambushed 0.0
sources 6.79746733808e-05
kentucky 0.0
incredible 0.000724777187392
ungrateful 0.0
kissing 0.0
minute 0.000267140992964
luther 0.0
foreign 0.0
phoenix 0.00024533878488
champions 0.0
virginia 0.0
streak 0.0
orange 5.91570694767e-05
policy 5.79471702528e-05
intentional 0.0
reminder 9.50796473889e-05
evidence 5.86339758775e-05
presidents 0.0
judged 0.0
accused 0.0
intentions 0.000327099561398
facing 0.0
freedom 0.000164990670358
actions 0.0
debating 0.0
consequence 0.0
coughing 0.0
clearly 0.0
invite 0.000111911856903
central 0.000104211262489
washington 5.22526169196e-05
tougher 0.0
veteran 0.0
division 0.0
overrated 0.0
veterans 0.0
stronger 0.000125668770449
bowden 0.0
promised 0.000259242445284
catches 0.0
worried 0.000171315592679
security 0.000104800308274
sanctuary 0.000109033187133
reverse 0.0
immediately 0.0
television 0.0
entitled 0.0
racism 0.0
highest 0.0
approve 7.82027099752e-05
turning 9.88249859246e-05
georgia 0.0
tennessee 0.0
legacy 0.0
leaked 0.0
choked 0.0
helping 0.000217247393932
tickets 0.000764831181021
suspending 0.0
suspend 0.0
willing 0.0
december 0.00010967860048
beating 0.0
basically 0.00034564928708
return 8.73712547556e-05
escape 0.0
locked 0.000132932753814
unacceptable 0.0
network 0.0
language 5.53139775015e-05
invest 0.0
creation 7.99504920372e-05
followers 5.10918352815e-05
schools 0.00016835420199
menace 0.0
movies 5.91570694767e-05
entity 0.0
children 0.000173797915146
nation 9.93748989667e-05
flexible 0.0
review 0.0
knowledge 5.61180673299e-05
begins 9.45588690316e-05
vanessa 0.0
forbes 8.60611604834e-05
parade 7.28812746403e-05
fireworks 0.0
shoulder 0.0
produced 0.0
consider 0.000104800308274
latest 8.54988509514e-05
signed 8.71347515862e-05
shower 0.0
thunder 0.0
charity 0.0
germany 0.000120089321436
advance 0.0
explaining 6.81949463506e-05
millions 5.34487128707e-05
blessings 0.000205411253655
diamond 0.0
dollar 6.64663769068e-05
monsters 0.0
rigged 0.000100635747756
conduct 0.0
cooked 0.0
turned 0.000129995802713
criticism 0.0
responded 0.0
depending 0.0
jackie 0.000195443848782
charge 5.46823394637e-05
ticket 0.000423967217882
finest 7.79188197725e-05
sanders 0.0
includes 0.0
dealers 0.0
against 0.0
benjamin 0.0
impact 0.0
families 0.000101048094952
selection 0.0
hitting 0.000105393799729
announced 9.61316663506e-05
decided 9.45588690316e-05
professor 0.0
itself 0.0
promote 0.0
mexican 0.0
owners 7.5986990149e-05
guards 0.0
guarantee 0.0
beliefs 0.0
citizen 0.0
states 0.0
memorial 6.42072446633e-05
decades 0.0
landed 0.000185083905634
ultimate 0.000171816467601
mcdonald 0.0
twenty 0.0
hispanics 0.0
financial 0.0
payments 0.0
grabbing 0.0
permit 0.0
shield 0.0
disney 0.000238961238929
kansas 0.000158133780613
agreement 0.0
source 0.0
dismiss 0.0
talents 0.0
homework 0.0
expectations 0.0
joining 9.30169128719e-05
eugene 0.0
reasons 0.0
talked 0.0
released 0.000138008231135
reaching 0.0
release 0.000259991605426
promoter 0.0
circumstances 0.0
scheme 0.0
warwick 0.0
highlight 0.000187352357601
within 5.03833724697e-05
stacked 0.0
speech 0.0
standing 0.000135399306244
higher 5.29959022353e-05
justice 5.31462604387e-05
served 0.000119374432471
speaks 0.000171315592679
navarro 0.0
dropped 4.87333979763e-05
consideration 0.000100635747756
predicted 0.0
strength 0.000328094036782
andrew 0.0
replace 0.0
incredibly 0.000390561188103
private 5.06652275998e-05
integrity 0.0
sanford 0.0
ignored 0.0
neighbors 0.0
affection 0.0
minimum 0.0
direction 0.0
enemies 0.0
exclusive 0.000422028502141
prison 0.0
himself 0.0
investigation 0.0
disgusting 0.000154714231231
congratulate 0.0
philly 0.00059111599747
rights 0.000159891587503
replaced 0.0
recognition 0.0
maintain 0.0
tallahassee 0.0
handed 0.0
victory 5.64443648231e-05
classy 0.0
lifted 0.0
terrorist 0.0
productive 7.84886648522e-05
tribute 0.0
threatened 0.0
insecure 0.000110951549168
horror 0.000156977329704
discovery 8.0550788007e-05
convention 7.5986990149e-05
understanding 0.000113877890419
action 0.000169616072323
figures 0.0
having 0.000148291295932
marine 0.0
announces 0.0
wallace 0.0
speaker 6.58372655292e-05
stevens 0.0
cybersecurity 0.0
apologize 0.000218643823921
continued 0.0
journalist 0.0
libelous 0.0
formation 0.000241106074438
letter 4.87333979763e-05
discussed 0.0
therapy 0.000248181232465
widespread 0.0
untrue 0.000103782916744
written 9.63968849647e-05
conferences 0.0
results 0.0
papers 0.0
winter 0.0
marching 0.000255092757902
sessions 0.0
democrats 0.0
eastern 0.0
scientist 0.0
represented 0.0
waters 0.0
journal 8.17795949601e-05
foundation 5.62808775927e-05
access 4.85989752051e-05
analysis 0.0
writes 6.4407339865e-05
colorado 8.71191244612e-05
medical 0.0
tremendous 7.46630057234e-05
nytimes 0.000119731064577
public 0.0
cheaters 0.0
cannot 4.40425310896e-05
reveals 5.89819305578e-05
immunity 0.0
threatens 0.0
candidate 6.28343852244e-05
brilliant 0.0
wisconsin 0.0
studies 0.0
measure 0.0
compared 0.0
donors 0.0
graham 0.0
incorrect 9.58928214681e-05
headline 0.000123764627911
careers 0.0
answering 0.0
streaming 0.000193825375728
leaders 5.76082145134e-05
supreme 0.000204584839052
nominee 0.0
gorsuch 0.0
protest 0.000267565788934
immigration 0.0
policies 7.16562963665e-05
administration 0.0
defend 6.4608458576e-05
excitement 0.0
funding 0.0
surveillance 0.0
transfer 0.0
conspiracy 0.000155837639545
horrifying 0.0
formed 0.0
interviews 5.36008160479e-05
retreat 0.0
alliance 0.0
platform 0.0
editing 0.0
february 0.000116235500453
association 0.0
airwaves 0.0
hamilton 7.82027099752e-05
futures 0.0
borders 0.0
border 0.0
uranium 0.0
misleading 0.0
january 5.46823394637e-05
topics 0.0
unprecedented 0.0
airplane 0.0
tragic 0.0
philadelphia 0.0
funded 0.0
secure 0.0
income 0.0
hurricane 8.36979569958e-05
breakdown 0.0
countries 0.000398572616466
linked 0.0
broadcast 0.0
african 0.0
triple 0.0
provide 0.0
enhance 0.0
development 0.0
companies 0.0
discussions 0.0
developing 0.0
proposal 0.0
potential 0.0
moderator 0.0
suggestion 7.62572222936e-05
attending 0.0
filled 0.000221893941263
schultz 0.0
education 0.000212585041755
sickness 0.0
mentioned 0.000116235500453
exists 0.000146764311166
henderson 0.0
plants 9.08665894197e-05
orders 7.09392195504e-05
officials 0.0
strategic 0.0
ability 5.7439826152e-05
political 0.0
director 9.85514647983e-05
behaving 0.0
deficits 0.0
sufficient 0.0
prevent 0.0
shoddy 0.0
capacity 0.0
donations 0.0
editors 0.0
discussing 0.0
persistent 0.0
treatment 0.0
establishment 0.0
protects 0.0
critical 0.0
ambassador 6.81949463506e-05
preparing 0.000198137558622
capable 0.0
bishop 0.0
producers 0.0
bombed 0.0
weekly 0.000136389892701
becoming 0.000151995682799
magazine 5.48393002401e-05
lawyers 0.0
summary 0.0
standard 0.0
controlled 0.0
hiring 0.0
defending 0.0
pushes 0.0
admitted 0.0
failed 0.0
independent 0.0
copies 7.51872617873e-05
politically 0.0
driven 7.16562963665e-05
agenda 0.0
blocked 0.0
result 0.000113877890419
announcing 6.88632676354e-05
destruction 0.0
culture 5.45260027875e-05
insider 0.0
traitors 0.0
prince 0.000286360779335
solutions 0.0
indiana 0.0
mongering 0.0
claims 0.0
editorial 0.0
prospects 0.0
mistakes 7.04683322184e-05
offered 6.50138087875e-05
founded 0.0
ignorance 0.0
inspiring 0.000106594391669
majority 0.0
embarrassing 7.09392195504e-05
creators 0.00010661281559
server 0.0
berniesanders 0.000114372716634
spotlight 0.000242563224662
readout 0.0
tactics 0.0
irrelevant 0.0
massive 5.0103523443e-05
receiving 0.0
promising 8.64106616494e-05
promises 7.51872617873e-05
consequences 0.0
production 0.000126055195033
proposals 0.0
elsewhere 0.0
bernie 0.0
hacking 0.0
guests 0.0
interviewed 0.0
secretary 0.000137726535271
rebuttal 0.0
reduce 0.0
arriving 0.0
dangerous 0.000158987706706
shutting 0.0
arrival 0.0
canceled 0.0
typically 9.81928117231e-05
saving 5.72721558669e-05
pioneer 8.85755362309e-05
incident 0.0
ordering 0.000188290078812
victims 5.72721558669e-05
raises 0.0
receive 0.0
reputation 0.0
intention 0.0
commentary 0.0
disclosure 0.00010720408421
terrific 0.0
berkeley 0.0
melbourne 0.000872265497062
received 0.0
correctly 7.90668903065e-05
inherited 0.0
displayed 0.0
joseph 0.0
offices 0.0
necessary 0.0
largely 0.0
inaccurate 0.0
debate 0.000101613832964
conflict 8.20928924128e-05
interest 0.0
controversy 0.0
stated 9.54485385232e-05
rating 0.0
nominate 0.0
outstanding 0.0
devastating 0.0
accurate 0.0
southeastern 0.0
romney 0.0
scotland 0.0
delayed 0.0
rarely 0.0
abroad 0.0
winners 0.000156757850759
profit 0.0
reviews 0.0
republican 0.0
presidential 0.000197511796587
candidates 0.000133356675296
politicians 0.0
epidemic 0.0
greater 6.4407339865e-05
booths 0.0
arnold 0.0
principles 0.0
deadline 0.0
speakers 0.0
incoming 0.0
various 0.0
nuclear 0.0
danger 0.0
leading 0.000100207046886
restored 0.0
conditions 0.0
however 0.0
resolution 7.96537463096e-05
remained 0.0
member 0.0
examples 0.000168053970087
employ 0.0
courses 0.0
largest 0.0
hallmark 0.0
mentor 0.0
increase 0.0
transcript 0.0
disrupt 0.0
provided 0.0
binding 0.0
decreased 0.0
revival 0.0
crashing 0.0
reception 0.0
rising 0.000190838991741
primary 0.0
reduction 0.0
surrogate 0.0
provides 0.0
environment 7.26332067999e-05
revealed 6.4407339865e-05
confirmed 5.7439826152e-05
controls 0.0
behavior 0.0
introduced 0.0
carbon 0.0
communities 0.0
region 0.0
deaths 8.27270774884e-05
responsible 6.4407339865e-05
household 8.85755362309e-05
munich 0.000221903098337
canada 0.000262741235256
regions 0.0
movement 0.0
midwest 0.0
segment 0.0
emerged 0.0
hundreds 0.0
information 0.0
combined 7.3382155583e-05
easily 0.0
towards 0.0
inform 0.0
mathematically 0.0
october 0.000827326712477
investigating 0.0
predators 0.0
innovation 0.0
perspective 5.82890734705e-05
cities 0.000118314138953
todays 0.0
julian 0.0
eliminated 0.0
interests 0.0
toledo 0.0
extraordinary 0.0
eradicate 0.0
retains 0.0
ashamed 8.5714738663e-05
meetings 0.0
describing 0.0
eliminate 0.0
obligation 0.0
gender 0.0
committee 0.0
wasting 9.7256609821e-05
numerous 0.0
examination 0.0
inflammatory 0.0
practices 0.0
management 0.0
nordstrom 0.0
genius 0.000209600616548
warren 0.0
traveling 0.000148806951843
billions 0.0
prepared 5.96872162356e-05
fraction 0.0
equipment 0.0
procedures 0.0
rasmussen 0.0
county 7.28812746403e-05
developer 0.0
anthony 0.0
shadow 0.0
district 8.43587897324e-05
considered 0.0
lobbyist 0.0
chosen 0.000148806951843
hospitalized 0.0
outright 0.0
yorkers 0.000242797263158
naming 0.0
conventions 0.0
deficit 0.0
interventions 0.0
focusing 0.0
sensible 0.0
hosted 0.0
batman 0.0
column 0.0
upcoming 0.000111588910886
positions 8.33716595026e-05
favors 0.0
regulation 0.0
distributed 0.0
weakness 0.0
introduction 0.0
western 0.0
pacific 0.0
larger 0.0
increases 0.0
effective 0.0
situations 0.0
harbor 0.0
wealth 0.0
underway 0.0
israel 8.40269850437e-05
hysteria 0.0
overwhelming 8.36979569958e-05
protection 0.000205249380904
prisoners 0.0
guidance 0.0
montana 0.0
determination 0.0
restore 0.0
acquire 0.0
additional 8.20928924128e-05
exception 0.0
machine 0.000212585041755
honoring 0.0
visually 0.0
contrary 9.96402864267e-05
immediate 8.20928924128e-05
politico 0.0
ignoring 0.0
judges 0.0
federal 0.0
constant 0.000153058649144
philippines 0.000199280572853
nicely 7.5452034655e-05
september 0.000331883865009
manchester 0.000358281481833
fiction 7.90668903065e-05
priest 0.0
angela 9.16609320377e-05
process 5.02431989798e-05
destructive 0.0
genuine 7.14158147467e-05
surreal 0.0
whitehouse 0.0
flotus 0.000100134866813
crisis 0.0
judgement 0.0
confidence 6.16946352114e-05
voters 0.0
diamondandsilk 0.0
oldest 0.0
inauguration 0.0
gracious 0.0
scream 0.000249144142848
postponed 0.0
disappoint 9.67967376515e-05
believing 0.0
hillaryclinton 0.00353198991835
electoral 0.0
crashed 0.0
citizenship 0.0
closed 0.0
religious 0.0
apprentice 0.0
conservative 0.0
economists 0.0
buzzfeed 7.84886648522e-05
puppet 0.000218066374266
sweden 7.82027099752e-05
andersoncooper 0.0
treats 8.40269850437e-05
qualified 0.0
missouri 0.0
cooper 8.36979569958e-05
debates 0.0
endorsements 0.0
strike 0.0
shouting 0.0
empire 0.0
encouraged 0.000195443848782
regard 0.0
concerning 0.0
misinformed 0.0
disregard 0.0
barack 0.0
joined 4.84650104341e-05
terrorism 0.0
pushing 0.0
cracking 0.0
muhammad 0.0
refused 8.36979569958e-05
amazingly 0.000165454154977
express 0.000121905504808
gratitude 8.36979569958e-05
congratulation 0.0
throughout 6.24507858669e-05
shining 7.96537463096e-05
fighter 8.33716595026e-05
anticipated 0.0
presented 0.0
reveal 5.7439826152e-05
stands 5.46823394637e-05
native 0.0
harvey 0.0
featured 0.0
announce 0.000549027669366
surround 0.0
although 6.42072446633e-05
senior 0.0
todayshow 0.000270263932191
convincingly 0.0
haters 8.30480476159e-05
returning 0.0
laughs 0.0
touched 0.0
corruption 0.0
violence 0.0
runnin 0.0
delivered 0.0
owning 0.000104890556815
legendary 0.000189082792549
stabbing 0.0
independence 0.0
approval 0.0
magical 0.000221668499051
alongside 0.0
percent 0.0
spiral 0.000113664253822
differently 0.0
sweeping 0.0
spoiler 0.0
theirs 0.000115094179486
offering 0.0
remembering 0.00012881467973
floated 0.000154147470772
professionals 0.0
construction 8.24087063378e-05
searching 0.0
flexibility 0.0
sinking 0.0
detail 0.0
document 0.0
cabinet 0.0
pleased 0.000195041426363
carrying 0.0
statements 0.0
decade 0.0
prague 0.0
crossing 0.0
bigotry 0.0
happily 0.0
therefore 0.0
belong 0.0
customs 0.000102177852161
trillion 0.0
backed 0.0
electricity 0.0
observing 0.0
russell 0.0
engineers 0.0
operations 0.0
values 0.0
senator 8.14687741931e-05
confirms 0.0
removing 0.0
payment 0.0
consistently 0.0
posing 0.0
everett 0.0
wondered 0.0
generic 0.0
fields 0.0
mining 0.0
newspaper 7.36350093308e-05
detailed 0.0
rainbow 0.00136936339612
childcare 0.0
unlimited 0.000103240582322
exploded 0.0
thoroughly 0.0
adviser 0.0
leaves 0.0
matthew 7.51872617873e-05
intersection 0.0
affected 6.07694484718e-05
newspapers 0.0
corporate 0.0
economy 0.0
explores 0.0
spoken 0.000263349062117
during 0.0
credible 0.0
competitive 0.0
carefully 0.0
returned 0.0
blasts 0.0
guarding 0.0
hornet 0.0
successfully 8.64106616494e-05
southern 0.0
dakota 0.0
belief 0.0
messenger 0.00012226281191
heroes 6.0044660718e-05
russians 0.0
intelligence 0.0
deepest 0.0
graduates 0.000110301639789
describe 5.71051975597e-05
hollywood 0.000115894340506
reclaim 0.0
equality 0.000425635317303
announcement 0.000303144284855
interfere 0.0
interrupted 0.0
nationwide 0.0
questionable 0.0
garden 0.000176422704932
survey 0.0
journalists 7.04683322184e-05
delighted 0.0
minister 0.0
golfer 0.0
capital 0.0
penguins 0.0
regarding 0.0
teachers 0.000281873328874
devastated 0.0
phrase 0.0
immigrants 0.0
aliens 0.000381794154093
subjects 0.000221903098337
revolution 0.000220905027992
median 0.0
twelve 0.0
releases 0.0
accomplish 0.0
debbie 0.0
sebastian 0.0
briefing 0.0
advisor 0.0
commission 0.0
deadlines 0.0
hereby 0.0
invitation 8.27270774884e-05
alternatives 0.0
villages 0.0
accepted 0.0
commentators 0.0
depression 0.0
comprehensive 0.0
committees 0.0
pushed 0.0
statistic 0.0
donation 0.0
electronic 0.0
nomination 0.000143312592733
britain 0.0
questioning 9.67967376515e-05
attempt 0.0
investment 0.0
terror 0.0
homeland 0.0
polish 0.0
switzerland 0.000102177852161
represents 8.08544082205e-05
announcer 0.0
churchill 0.0
ambassadors 0.0
anchors 0.0
endorse 0.0
urgent 0.0
forced 6.04053845534e-05
expenses 0.0
preparations 0.0
string 0.0
morocco 0.0
thrill 0.0
watchdog 0.0
agencies 0.0
scrutiny 0.0
glorious 7.5986990149e-05
approaching 0.0
tragedy 6.4608458576e-05
handled 0.0
offers 0.0
requested 0.0
improvements 0.0
destroying 0.0
inexpensive 0.0
opposition 0.0
smithsonian 0.0
addiction 8.71191244612e-05
challenged 0.0
manhattan 0.0
richmond 0.0
forces 0.0
nations 0.0
anderson 0.0
builds 0.0
sexist 0.0
narrative 8.60611604834e-05
application 9.04753561194e-05
cannon 0.0
ethical 0.0
representation 0.0
obvious 0.000133356675296
statistics 0.0
military 0.0
housing 0.0
wonderfully 0.0
miller 7.11767950302e-05
copying 0.0
advised 0.0
ordered 0.000347683021517
unions 0.0
useless 0.0
alicia 0.000237829048421
economic 0.0
radical 0.0
planted 0.0
theories 0.0
conceived 0.0
readers 0.0
bombing 0.0
products 0.0
phenomena 0.0
classroom 0.0
classified 0.0
purely 0.0
hacked 7.68033230484e-05
taxpayers 0.0
opposed 0.0
pressing 0.0
russia 0.000122273829812
abraham 0.0
lincoln 0.0
observer 0.0
intelligent 0.0
lawsuit 0.0
detective 0.0
magnificent 8.24087063378e-05
heritage 0.0
beloved 0.0
dignity 0.0
priorities 0.0
repealing 0.0
murdoch 0.0
coalition 0.0
theresa 0.0
charges 0.0
activists 0.0
elected 0.0
relief 6.5423381473e-05
congratulates 0.0
pledge 0.0
elections 0.0
landslide 0.00010661281559
council 0.0
imperative 0.0
catastrophic 0.0
douglas 8.78405873135e-05
brexit 0.0
democracy 6.90885898696e-05
disastrous 0.0
rebuild 0.0
pundits 0.0
nickname 0.000100635747756
poison 0.0
interfering 0.0
negotiations 0.0
summit 0.0
dossier 0.0
unleash 0.0
negotiation 0.0
sticking 0.0
openly 0.0
embarrassed 8.46934183247e-05
ireland 0.000140006035297
attacks 0.0
remarks 0.0
democratic 8.0249494408e-05
outgoing 0.000127889339928
maureen 0.0
treasury 0.000101657068094
refugees 7.82027099752e-05
snatch 0.0
morgan 0.0
grieve 0.0
vicious 0.0
essentially 0.0
restoring 0.0
extended 0.0
referendum 0.0
ovation 0.0
bankrupt 0.0
proudly 0.0
oppose 0.0
refusal 0.0
urging 0.0
strengthen 0.0
deliver 0.000124901571734
negotiating 9.41450394062e-05
remaining 0.0
merkel 0.0
repeal 0.0
formal 0.0
reckless 0.0
prosperous 0.000133283899001
servant 0.0
desperate 7.49242599888e-05
secretaries 0.0
formally 0.0
breach 0.0
gloomy 0.0
outlines 0.0
concessions 0.0
executive 6.56297789143e-05
extend 0.0
republicans 8.0249494408e-05
terrorists 0.0
weapons 7.68033230484e-05
bodyguards 0.0
outrage 0.0
representative 0.0
prevail 0.0
searched 0.0
policemen 0.0
islamic 0.0
islamist 0.0
ingrained 0.0
humbled 0.0
courage 0.0
chamber 0.0
commander 0.0
formula 0.0
brigade 0.0
respecting 0.0
lectured 0.0
devices 0.0
enormous 0.0
verdict 0.0
refusing 0.0
energies 0.0
carried 0.0
behalf 0.0
tariff 0.0
amendment 0.0
nightmare 0.000136832920603
employment 0.0
legislation 0.0
referring 0.0
scrapping 0.0
handling 0.0
goodies 0.000110951549168
proves 0.0
prominently 0.0
crackdown 0.0
unfair 0.0
fiscal 0.0
humiliating 0.0
strongly 0.0
vision 0.000174867220411
resignation 0.0
confirmation 8.1160391261e-05
records 0.000119374432471
disabled 0.0
quoting 9.41450394062e-05
reductions 0.0
deeply 0.0
commerce 0.0
accumulation 0.0
overplaying 0.0
refugee 7.82027099752e-05
conway 0.0
exposed 8.0249494408e-05
netanyahu 0.0
israeli 0.0
priority 7.5986990149e-05
strongest 0.0
freedoms 0.000108413983434
treaties 0.0
empowering 0.000104890556815
laughter 0.0
syrian 0.0
uphold 0.0
praising 0.0
renewal 0.0
penned 0.0
condemns 0.0
realdonaldtrump 0.000137278458591
goodwill 0.000124050329824
attorney 0.0
settled 0.0
chairman 0.0
capability 0.0
firing 0.0
seanspicer 0.0
inaugural 0.0
carnage 0.0
optimism 0.0
rulers 0.0
clintons 0.0
melania 0.0
bikers 0.0
handing 0.0
intended 8.33716595026e-05
optimistic 0.0
campaigned 0.0
finance 0.0
allies 0.0
compromised 0.0
governor 0.0
bosses 0.0
attempts 0.0
irresponsible 0.0
incidents 0.0
merely 0.0
documents 0.0
tariffs 0.0
purpose 0.0
architect 0.0
arlene 0.0
resign 0.0
reuters 0.0
mainstream 0.0
dozens 0.0
donnell 0.0
clarified 0.0
gathering 0.0
crimes 0.0
vulnerable 0.00023720067092
commentator 0.0
overwhelmingly 0.0
respectful 0.000105456302148
markets 8.60611604834e-05
inspector 0.0
nigel_farage 0.0
drudge 0.0
abused 0.0
infrastructure 0.0
projected 0.0
boards 9.28833710869e-05
allegations 0.0
bloomberg 0.0
insulting 0.0
leaking 0.0
liberal 0.0
chairs 0.0
podium 0.0
conceded 0.0
capitol 0.000193593475303
consulting 0.0
wannabe 0.0
powell 0.0
reforms 0.0
technical 8.24087063378e-05
securing 0.0
steven 0.0
rumsfeld 0.0
businesses 0.0
balancing 0.0
socialist 0.0
complaints 0.0
politician 0.0
representatives 0.0
rallies 0.0
belittle 0.0
ballot 8.20928924128e-05
failing 0.0
refuses 0.0
conclude 0.0
vibrant 0.000115094179486
tarmac 0.0
spinning 0.0
appointments 0.0
farewell 0.0
opponents 0.0
unopposed 0.0
polling 0.0
prosperity 0.0
apology 0.000148291295932
outline 0.0
losers 0.0
battlefield 0.0
abandoned 0.0
endorsed 0.0
negotiate 0.0
negotiated 0.0
unwilling 0.0
appointed 0.0
slaughter 0.0
betray 0.0
donated 0.0
immigrant 0.0
prosecuted 0.0
criminals 0.0
elizabethforma 0.0
protesting 9.96402864267e-05
releasing 0.000162937548386
screening 0.0
sponsor 0.0
pocketbook 0.0
transparency 8.60611604834e-05
austin 0.0
obamacare 0.0
acceptable 0.0
schwarzenegger 0.0
congressman 0.0
profits 0.0
toward 0.0
fleeing 0.0
bravery 0.0
protests 0.0
recieved 0.0
violent 8.20928924128e-05
remarkably 0.0
senators 0.0
ratings 0.0
spouses 0.0
fundraiser 0.0
senate 0.0
louisiana 0.0
giuliani 0.0
venezuela 0.000230188358972
parenthood 0.0
organizations 0.0
generations 0.0
minorities 0.0
underestimate 0.0
terrified 0.0
discourse 0.0
pennsylvania 0.0
hackers 0.0
nbcnews 0.0
mccain 0.0
scandal 0.0
constitution 9.04753561194e-05
sensanders 0.0
abandon 0.0
explode 0.00010433283651
reopening 0.0
governments 0.0
competent 0.0
mike_pence 0.0
stinks 0.0
logical 0.0
accurately 0.0
righteous 0.0
thursdays 0.0
fitting 0.0
category 0.0
swearing 0.0
politifact 0.0
abolish 0.0
surging 0.0
murders 0.0
reagan 0.0
vetting 0.0
vetted 0.0
pouring 0.0
fraudulent 0.000145373773765
ballots 0.0
fading 0.0
speakerryan 0.0
civilized 0.0
commercials 0.0
luxurious 0.0
outraged 0.0
nypost 0.0
statute 0.0
enforcement 0.0
accountability 0.0
truthful 0.0
springfield 0.0
cancelled 0.0
conflicts 0.0
suffer 0.0
selfishly 0.0
educational 9.45747554023e-05
stolen 0.0
visionary 0.0
wounds 0.0
disgraceful 0.0
hatred 0.0
persuasion 0.0
exposing 0.0
teaches 0.000205411253655
sellers 0.0
refers 0.0
trusted 0.0
sheriff 0.0
samsung 0.0
ranking 0.0
undecided 0.0
nebraska 0.0
abusive 0.0
abuser 0.0
nashville 0.000171429477326
lightweight 0.0
victories 0.0
consumer 0.0
violation 0.0
sarcasm 0.0
freaky 0.0
jimmyfallon 0.0
outlets 0.0
vanityfair 0.00010661281559
harassed 0.0
leverage 0.0
sacred 0.000103240582322
horrific 0.0
contribute 8.20928924128e-05
indicted 0.0
chooses 0.0
defended 0.0
champion 0.000438494824178
waited 8.24087063378e-05
denmark 0.000100635747756
conviction 0.0
retail 0.0
distract 0.0
globes 0.0
endorsing 0.0
pathetic 0.0
purposely 0.000152229108736
expose 0.0
representing 0.0
mmflint 0.0
registration 0.0
acceptance 8.53713423992e-05
defeated 0.0
prosecutor 0.0
nbcsnl 0.0
nevada 0.0
illinois 0.0
massachusetts 0.0
spontaneous 0.0
entrepreneur 0.0
arkansas 0.000115829128404
hotels 0.0
exhausted 0.0
puppets 0.0
protesters 0.0
natalie 0.0
anaheim 0.000369439240922
nominating 0.000125922999092
vietnam 9.91518500552e-05
claimed 0.0
indianapolis 0.0
loudly 0.0
sarasota 0.0
rapids 0.000140917845995
oklahoma 0.0
devoted 0.0
sacramento 0.0
arranged 0.0
baldwin 0.0
crushed 0.0
reflects 0.0
replacing 0.0
louder 0.00021322563118
flashback 0.0
farmers 0.000190018439475
unleashed 0.0
tourists 0.0
steals 0.0
albany 0.0
devastation 0.0
meantime 0.0
donlemon 0.0
wilbur 0.0
finalists 9.54485385232e-05
ransom 0.0
normmacdonald 0.0
vanishing 0.0
clarence 0.0
jaketapper 0.0
clowns 0.0
elizabeth 0.0
microphone 0.0
machines 0.0
premium 0.0
championships 0.0
impersonation 0.0
horribly 0.0
stakes 0.0
mouthed 0.0
reservation 0.0
delaware 0.0
springs 0.0
columbus 0.0
slackers 0.0
toyota 0.0
chucktodd 0.0
correspondents 0.0
soldier 0.0
panels 0.0
broadcasting 0.0
sparks 0.0
warned 0.0
jclayfield 0.0
kellogg 0.0
anchor 0.0
heated 0.0
congressional 0.0
boeing 0.0
usatoday 0.0
endlessly 0.0
craziest 0.000101657068094
viewers 0.0
delivers 8.50309193006e-05
pittsburgh 0.0
marshal 0.0
reverend 0.0
lifelong 0.0
disdain 0.0
hispanic 0.0
defrauded 0.0
oppression 0.0
crowds 0.0
washingtonpost 0.0
affordable 0.00032711837984
tapping 0.0
ginsburg 0.0
reilly 0.0
illegally 0.0
shootings 0.000208665673019
destiny 0.0
serenawilliams 0.0
motors 0.0
redding 0.0
initially 0.0
travis 0.0
accomplishments 0.0
misconduct 0.0
mocked 0.0
disgrace 0.0
greeley 0.0
carmel 0.0
outcry 0.0
playbook 0.0
zealand 0.000174238248922
fearless 0.0
lining 9.67967376515e-05
sidekick 0.0
madame 0.000135667575606
grandstand 0.0
rochester 0.0
speechless 0.0
fletcher 0.0
begged 0.0
wintour 0.0
inspires 0.0
carlos 0.0
missiles 0.0
chelsea 0.0
oppressive 0.0
forgiven 0.0
killings 0.0
taiwan 0.000123146413641
somalia 0.0
burning 0.000277260843193
subscribers 0.00010661281559
chester 0.0
newtown 0.0
booker 0.0
heights 0.0
leicester 0.000230188358972
chiefs 0.0
joenbc 0.0
opioid 0.0
separately 0.0
intros 0.0
columnist 0.0
manages 0.0
financed 0.0
mnuchin 0.0
delegate 0.0
vicente 0.0
struck 7.96537463096e-05
trudeau 0.0
oreillyfactor 0.0
vulgarian 0.0
publicity 0.0
amnesty 0.0
ivankatrump 0.0
communism 0.0
linkedin 0.0
avoided 0.0
sophisticated 0.000113664253822
seanhannity 0.0
anncoulter 0.0
foolish 0.0
catholics 0.0
bogged 0.0
catholic 0.00010433283651
thriving 0.0
newtgingrich 0.0
abedin 0.0
secretly 9.0087977397e-05
undermines 0.0
americanism 0.0
christians 0.0
rationally 0.0
deplorable 0.0
wikileaks 0.0
execution 0.0
enduring 0.0
foxandfriends 0.0
losses 0.0
kevcirilli 0.0
staffers 0.0
barron 0.0
jihadis 0.0
hampshire 0.0
pandering 0.0
donaldjtrumpjr 0.0
moines 0.0
lobbying 0.0
careless 0.0
piersmorgan 0.0
palestinian 0.0
kellyanne 0.0
democrat 0.0
unfunny 0.0
condemned 0.0
despair 0.000101143091856
louvre 0.0
crooked 0.0
lynden 0.0
outperform 0.0
tedcruz 0.0
majors 0.0
schumer 0.0
credibility 0.0
flooding 0.0
hannity 0.0
beneficiary 0.0
sanctions 0.0
nominates 0.0
existent 0.0
criticized 0.0
senatemajldr 0.0
workforce 0.0
issued 0.0
outsider 0.0
declare 0.0
ivanka 0.0
dignified 0.0
threaten 0.0
outcomes 0.0
ukraine 0.0
justintrudeau 0.0
vladimir 0.0
businessman 0.0
regards 0.0
assange 0.0
malicious 0.0
garners 0.0
ethics 0.0
wrecked 0.0
regimes 0.0
incorrectly 0.0
hostile 0.0
defenders 0.0
deceived 0.0
hypocritical 0.0
favorably 0.0
shatter 0.0
changer 0.0
spokane 0.0
unnecessary 0.0
cwaunion 0.0
expand 0.0
apologized 0.0
criticizing 0.0
legion 0.0
hershey 0.0
intensity 0.000121398631579
tigerwoods 0.0
amercan 0.0
reince 0.0
chriscjackson 0.0
hypocrites 0.0
billkristol 0.0
govmikehuckabee 0.0
dustin 0.0
bullied 0.0
anonymous 0.0
yankees 0.0
thehill 0.0
infiltrated 0.0
somali 0.0
invention 0.0
frontrunner 0.0
patriot 0.0
poorly 0.0
prisonplanet 0.0
daytona 0.0
comparable 0.000124975516564
shouted 0.0
holocaust 0.0
kellyannepolls 0.0
foxnews 0.0
initiated 0.0
tiffany 0.0
mikeandmike 0.0
barbara 0.000650183597609
litigation 0.0
frankcaliendo 0.0
toughness 0.0
suffered 0.0
streep 0.0
billionaire 0.0
percentage 0.0
insiders 0.0
premiums 0.0
congratulatory 0.0
treasurer 0.0
incompetence 0.0
delegates 0.0
rollout 0.0
appalled 0.0
misquoted 0.0
pledged 0.0
demanded 0.0
andrews 0.0
lowlife 0.0
courageous 9.45747554023e-05
betrayed 0.0
horrors 0.0
warheads 0.0
pledges 0.0
interrupts 0.0
blacks 0.0
elaine 0.0
candidacy 0.0
discredited 0.0
cringing 0.0
estates 0.0
laughable 0.0
aberdeen 0.0
healed 0.0
floods 0.000114372716634
swiftly 0.0
cheryl 0.0
syracuse 0.0
difficulties 0.000113664253822
flipping 0.0
wilkes 0.0
lisbon 0.0
suckers 0.0
golfdigest 0.0
jeffrey 0.0
sixteen 0.0
scandals 0.0
circuits 0.0
regulations 0.0
monitoring 0.0
swamped 0.0
costing 0.0
detained 0.0
warmest 0.0
marginalize 0.0
miners 0.0
unemployment 0.0
paragon 0.0
obsolete 0.0
subsidies 0.0
exercised 0.0
evangelicals 0.0
franklin 0.0
molten 0.0
servers 0.0
billgates 0.0
excessive 0.0
coordinated 0.0
geneva 0.0
soaring 0.0
unsecured 0.0
corporations 0.0
rifles 0.0
innovative 0.0
pillar 0.0
bashing 0.0
organize 0.0
panelists 0.0
frontiers 0.0
pricing 0.0
platforms 0.0
scaling 0.0
pretends 0.0
forensic 0.0
roundtable 0.0
inherit 0.0
fabrication 0.0
brewer 0.0
unaffordable 0.0
reinforcing 0.0
eventful 0.0
wasserman 0.0
lindsey 0.0
billclinton 0.000119725246175
upstate 0.0
empowerment 0.0
penalties 0.0
responders 0.0
civilization 0.0
occupy 0.0
approximately 0.0
knight 0.0
homeownership 0.0
scratched 0.000145373773765
screws 0.0
contractor 0.0
havana 0.00123317976618
lowering 0.0
foundations 0.0
revitalize 0.0
counters 0.0
foreclosed 0.0
renovated 0.0
delaying 0.0
employer 0.0
executed 0.0
subpoena 0.0
grifters 0.0
cincinnati 0.0
disgraced 0.0
falsely 0.0
strengthening 0.0
abcworldnews 0.0
skyrocketing 0.0
pipelines 0.0
likewise 0.0
dishonest 0.0
surges 0.0
woefully 0.0
pressured 0.0
erratic 0.0
temperament 0.0
emboldened 0.0
keystone 0.0
mandated 0.0
crumbling 0.0
johnkasich 0.0
latinos 0.0
combating 0.0
incompetent 0.0
loopholes 0.0
incapable 0.0
unqualified 0.0
melaniatrump 0.0
recount 0.0
voluntarily 0.0
desperation 0.0
denounce 0.0
demoralized 0.0
incited 0.0
fawning 0.0
accuser 0.0
electing 0.0
patrol 0.0
connecticut 0.0
amounts 0.0
govpencein 0.0
squandered 0.0
enforce 0.0
epipens 0.0
deplorables 0.0
generals 0.0
timkaine 0.0
benghazi 0.0
moderators 0.0
sheriffclarke 0.0
unfairly 0.0
competence 0.0
dysfunctional 0.0
eleventh 0.0
instructed 0.0
restrict 0.0
battleground 0.0
jilted 0.0
blazing 0.0
hypocrite 0.0
mcconnell 0.0
circulated 0.0
flailing 0.0
pathological 0.0
deflect 0.0
undoing 0.0
predictable 0.0
phoney 0.0
perils 0.0
governing 0.0
likeable 0.0
tumble 0.0
praised 0.0
extraordinarily 0.0
jinping 0.0
trashes 0.0
knowingly 0.0
disloyal 0.0
woodward 0.0
magnificently 0.0
pretended 0.0
slaughtered 0.0
climber 0.0
americ 0.0
unprofessional 0.0
diplomats 0.0
resulted 0.0
crossroads 0.000407002726819
syrians 0.0
suppress 0.0
remembrance 0.0
infighting 0.0
castro 0.0
unquestionably 0.0
corrupted 0.0
kasich 0.0
readership 0.0
fraternal 0.0
frankluntz 0.0
demagogue 0.0
unanimous 0.0
bedford 0.0
longtime 0.000115094179486
complexities 0.0
dailymail 0.0
couric 0.0
cancelling 0.000134457676382
morningmika 0.0
concord 0.0
recounts 0.0
shouldered 0.0
patmccrorync 0.0
executives 0.0
westfield 0.0
graydon 0.0
sheldon 0.0
tanking 0.0
morning_joe 0.0
fabricated 0.0
corolla 0.0
groveling 0.0
unfolding 0.0
polled 0.0
influx 0.0
underachieving 0.0
antics 0.0
disenfranchised 0.0
golfing 0.0
xfinity 0.0
defies 0.0
fictitious 0.0
districts 0.0
vigilant 0.0
obstruction 0.0
rebuilding 0.0
preserving 0.0
passover 0.000126893878599
dhsgov 0.0
thejusticedept 0.0
repealed 0.0
intends 0.0
wildfires 0.0
usedgov 0.0
fresno 0.0
usnavy 0.0
scotus 0.0
tillerson 0.0
ineffective 0.0
senjohnmccain 0.0
cbsnews 0.0
lawsuits 0.0
caucus 0.0
shimon 0.0
wilmington 0.0
stagnant 0.0
gouging 0.0
baghdad 0.000140917845995
wiesel 0.0
obstruct 0.0
gonzalo 0.0
curiel 0.0
hostage 0.0
unnamed 0.0
truckers 0.0
boldly 0.0
scarborough 0.0
evangelical 0.0
cyberattack 0.0
marines 0.0
crimea 0.0
earners 0.0
oversaw 0.0
lobbyists 0.0
rosiegray 0.0
briefings 0.0
actresses 0.0
purchases 0.0
myanmar 0.0
heightened 0.0
shackles 0.0
perjury 0.0
dallaspd 0.0
respectfully 0.0
canton 0.0
approx 0.0
admirals 0.0
naples 0.0
brainwashed 0.0
albuquerque 0.0
supposedly 0.0
coliseum 0.0
greensboro 0.0
sheriffs 0.0
hostages 0.0
explorers 0.0
confidential 0.0
tamara 0.0
infested 0.0
depicted 0.0
devote 0.0
payroll 0.0
bombshell 0.0
advisers 0.0
watergate 0.0
mcmaster 0.0
renews 0.0
housegop 0.0
katyturnbc 0.0
pocahontas 0.0
wherein 0.0
shreds 0.0
pelosi 0.0
chrysler 0.0
collusion 0.0
deductibles 0.0
repmarkmeadows 0.0
darrellissa 0.0
insurer 0.0
dishonesty 0.0
hotlinejosh 0.0
quinnipiacpoll 0.0
apologizing 0.0
priebus 0.0
clapper 0.0
tapped 0.0
operatives 0.0
senschumer 0.0
marcorubio 0.0
viciously 0.0
leakers 0.0
bangladesh 0.000143831669359
favorable 0.0
nbcnightlynews 0.0
lockheed 0.0
untruthful 0.0
resonating 0.0
transferring 0.0
staten 0.0
humana 0.0
juanita 0.0
senses 0.0
stimulate 0.0
drooling 0.0
lakeland 0.0
burying 0.0
crafted 0.0
misrepresent 0.0
fabled 0.0
railing 0.0
billyjoel 0.0
sniper 0.0
cnnsotu 0.0
independents 0.0
detroitnews 0.0
foxbusiness 0.0
washtimes 0.0
realbencarson 0.0
meetthepress 0.0
newday 0.0
thebrodyfile 0.0
bostonherald 0.0
foxnewssunday 0.0
thefive 0.0
chriscuomo 0.0
randpaul 0.0
dcexaminer 0.0
facethenation 0.0
bretbaier 0.0
interruption 0.0
allenwest 0.0
cvpayne 0.0
dailycaller 0.0
prosecution 0.0
ballistic 0.0
vetoed 0.0
gettysburg 0.0
groping 0.0
brennan 0.0
nielson 0.0
justices 0.0
operative 0.0
surged 0.0
megynkelly 0.0
terminated 0.0
softbank 0.0
fronting 0.0
rigging 0.0
reprieve 0.0
pocketed 0.0
colluded 0.0
coffers 0.0
stairway 0.0
ellison 0.0
selflessly 0.0
tornadoes 0.0
levine 0.0
scranton 0.0
enslave 0.0
inappropriately 0.0
devalue 0.0
presumptive 0.0
fournier 0.0
terminate 0.0
reptommarino 0.0
kimberly 0.0
subscriptions 0.0
ingrahamangle 0.0
trajectory 0.0
natalie_gulbis 0.0
unheard 0.0
objectified 0.0
turnberry 0.0
djohnsonpga 0.0
bedminster 0.0
golf_com 0.0
elevation 0.0
litany 0.0
unaccountable 0.0
primaries 0.0
disrupter 0.0
runways 0.0
hashanah 0.0
unenthusiastic 0.0
undecideds 0.0
richardtrumka 0.0
renegotiate 0.0
rapists 0.0
aldridge 0.0
unsubstantiated 0.0
misrepresented 0.0
prisoner 0.0
mattis 0.0
weakening 0.0
endakennytd 0.0
taoiseach 0.0
lifeboat 0.0
enabler 0.0
emanated 0.0
lindseygrahamsc 0.0
renegotiating 0.0
waterville 0.0
zucker 0.0
berglund 0.0
suboptimal 0.0
steelworkers 0.0
postpone 0.0
mohammed 0.0
indignant 0.0
comprised 0.0
stupidest 0.0
exxonmobil 0.0
precluded 0.0
instruct 0.0
gonzales 0.0
scorned 0.0
davidmuir 0.0
harrisburg 0.0
caesars 0.0
borisep 0.0
lapierre 0.0
limbaugh 0.0
petraeus 0.0
phyllis 0.0
illegals 0.0
sanctity 0.0
neurotic 0.0
negligence 0.0
alvarez 0.0
roseanne 0.0
roanoke 0.0
theleegreenwood 0.0
mcallen 0.0
deduct 0.0
chokes 0.0
vigilance 0.0
pensacola 0.0
tuckercarlson 0.0
repcummings 0.0
windham 0.0
teleprompter 0.0
paulareidcbs 0.0
jeffzeleny 0.0
condoleezza 0.0
genflynn 0.0
donaldtrump 0.0
demeanor 0.0
baiting 0.0
plotted 0.0
aptitude 0.0
billings 0.0
approving 0.0
disconnected 0.0
superstorm 0.0
brainpower 0.0
exclaim 0.0
skyrocketed 0.0
globalism 0.0
israelipm 0.0
insurgent 0.0
sneers 0.0
unrest 0.0
scaramucci 0.0
disapproval 0.0
katiepavlich 0.0
overflow 0.0
warped 0.000150400005813
scottwalker 0.0
kirstenpowers 0.0
usarmy 0.0
schlafly 0.0
alisonforky 0.0
oppresses 0.0
pedantic 0.0
highness 0.0
benefitted 0.0
fundraisers 0.0
shinzo 0.0
augustine 0.0
ranchers 0.0
middletown 0.0
fiorina 0.0
pueblo 0.0
lindasuhler 0.0
lightweights 0.0
kimguilfoyle 0.0
perdue 0.0
unmasked 0.0
unmasking 0.0
judgejeanine 0.0
boycotted 0.0
outnumberedfnc 0.0
jessebwatters 0.0
podesta 0.0
kristol 0.0
interruptions 0.0
broaddrick 0.0
erictrump 0.0
outspending 0.0
irredeemable 0.0
begala 0.0
brazile 0.0
dinesh 0.0
markings 0.0
ericbolling 0.0
loudobbs 0.0
skyrocket 0.0
blumenthal 0.0
cochran 0.0
imploding 0.0
discord 0.0
jeffflake 0.0
davidwohl 0.0
bribery 0.0
repkenbuck 0.0
joshrogin 0.0
enrique 0.0
unverified 0.0
retribution 0.0
dwindling 0.0
automobile 0.0
teamtrump 0.0
subpoenaed 0.0
danscavino 0.0
joniernst 0.0
scottadamssays 0.0
senatorfischer 0.0
tabulation 0.0
trafficked 0.0
depict 0.0
unrelenting 0.0
imitating 0.0
dutchess 0.0
adelson 0.0
valuing 0.0
ricksantorum 0.0
chuckgrassley 0.0
laraleatrump 0.0
abingdon 0.0
equating 0.0
ministries 0.0
brzezinski 0.0
sentedcruz 0.0
jamesrosenfnc 0.0
leaker 0.0
realjameswoods 0.0
jim_jordan 0.0
marshablackburn 0.0
boynton 0.0
betsydevos 0.0
lawfare 0.0
larry_kudlow 0.0
stranahan 0.0
waynedupreeshow 0.0
phillypolice 0.0
scottwrasmussen 0.0
johnstown 0.0
raul_labrador 0.0
statewide 0.0
reviewjournal 0.0
oppress 0.0
underlings 0.0
bankrupted 0.0
collude 0.0
fayetteville 0.0
disqualifying 0.0
mahoning 0.0
disloyalty 0.0
americanlegion 0.0
bankruptcies 0.0
morell 0.0
ambridge 0.0
emboldens 0.0
asheville 0.0
grievous 0.0
ricketts 0.0
benefactor 0.0
dwyane 0.0
markhalperin 0.0
mayorbowser 0.0
unverifiable 0.0
savaged 0.0
wheeling 0.0
technocratic 0.0
countr 0.0
thealabamaband 0.0
relives 0.0
unwatchable 0.0
residences 0.0
gatekeeper 0.0
defections 0.0
senatorsessions 0.0
drmoore 0.0
honorably 0.0
billhemmer 0.0
shultz 0.0
aflcio 0.0
trucking 0.0
fabrications 0.0
malleable 0.0
misrepresents 0.0
decimated 0.0
arabella 0.0
mishandled 0.0
interfe 0.0
speach 0.0
iranians 0.0
fraudulently 0.0
enablers 0.0
dealmaker 0.0
terrori 0.0
anarchists 0.0
krzanich 0.0
foxnation 0.0
permeated 0.0
overruns 0.0
disposed 0.0
inaccurately 0.0
peebles 0.0
conditioners 0.0
classifie 0.0
forewarned 0.0
karlrove 0.0
palazzo 0.0
evansville 0.0
rebroadcast 0.0
bangor 0.0
secpricemd 0.0
realdonaldtru 0.0
uschamber 0.0
trumpinaugural 0.0
rawlings 0.0
churchillian 0.0
hemmer 0.0
rudygiuliani 0.0
pynance 0.0
terrybranstad 0.0
cbnnews 0.0
faithandfreedom 0.0
ovations 0.0
scpioneer 0.0
dwstweets 0.0
tgowdysc 0.0
bluffs 0.0
marist 0.0
spluttering 0.0
thetodaysgolfer 0.0
thebig_easy 0.0
hoosier 0.0
senbobcorker 0.0
larsloekke 0.0
roadblocks 0.0
manheim 0.0
greenblatt 0.0
jtanews 0.0
mitchellvii 0.0
bemoan 0.0
michiga 0.0
gennifer 0.0
gulbis 0.0
liyuan 0.0
enlisting 0.0
ainsleyearhardt 0.0
stevedoocy 0.0
foxfriendsfirst 0.0
pastormarkburns 0.0
marksimoneny 0.0
gov_gilmore 0.0
flunky 0.0
agitators 0.0
overdoses 0.0
liliantintori 0.0
leopoldo 0.0
traceadkins 0.0
gopconvention 0.0
governorsununu 0.0
laconia 0.0
teamsters 0.0
gatewaypundit 0.0
lawyerly 0.0
dissipates 0.0
realjeffreylord 0.0
nytimesdowd 0.0
scalise 0.0
straightening 0.0
energizer 0.0
montgomeriefdn 0.0
shulkin 0.0
ericgreitens 0.0
circuited 0.0
govbrewer 0.0
infringed 0.0
mcgarvey 0.0
republicanstudy 0.0
americafirstpol 0.0
fheile 0.0
phadraig 0.0
wiedefeld 0.0
coddington 0.0
kravis 0.0
fighterjet 0.0
shinzō 0.0
votestand 0.0
romoabcnews 0.0
moskowitzeva 0.0
drgoodspine 0.0
levisteveholt 0.0
untrusting 0.0
sleazebag 0.0
lbperfectmaine 0.0
timken 0.0
newhouse 0.0
evancho 0.0
franklin_graham 0.0
eazymf_e 0.0
busineses 0.0
substantialy 0.0
rexnord 0.0
sdcritic 0.0
highonhillcrest 0.0
fiiibuster 0.0
koster 0.0
saucier 0.0
t_lineberger 0.0
cissieglynch 0.0
saysgabrielle 0.0
ravenrantz 0.0
mayorrgiuliani 0.0
deplorablecbtp 0.0
tanden 0.0
keithrowland 0.0
kinston 0.0
sjsopio 0.0
aztrumptrain 0.0
therealmogul 0.0
unclassify 0.0
firebombed 0.0
wikileakes 0.0
davidshiloach 0.0
trumpwomenstour 0.0
mistreats 0.0
willey 0.0
dornsife 0.0
henryleledog 0.0
eericmyers 0.0
atensnut 0.0
arouses 0.0
anyonetennis 0.0
flifeforce 0.0
geeveem 0.0
susiesentinel 0.0
bcuzimdamomma 0.0
freedavidking 0.0
ifdanyt 0.0
arsenmissyirvin 0.0
nycmia 0.0
bigdog_joey 0.0
roadkingl 0.0
decieved 0.0
waukesha 0.0
creati 0.0
thallensboucher 0.0
kenansville 0.0
tarukmatuk 0.0
angpiazza 0.0
laughingstock 0.0
ak_tweet 0.0
kiiara 0.0
jerryjrfalwell 0.0
ghfanlovessonny 0.0
bishopwtjackson 0.0
cynthialummis 0.0
repreneeellmers 0.0
trumpdc 0.0
stvzbnk 0.0
bakari 0.0
adhd_fa 0.0
parisdennard 0.0
ronnieclemmons 0.0
takouis 0.0
lblackvelvet 0.0
chernuna 0.0
annebellar 0.0
presidencies 0.0
rsbnetwork 0.0
meequalsfree 0.0
pmnorlando 0.0
rhondar 0.0
patrici 0.0
lindaharden 0.0
trumpocrats 0.0
lewenskimo 0.0
trump_videos 0.0
sinabunz_tm 0.0
eyecandytmgayle 0.0
catonglass 0.0
billynungesser 0.0
samaritanspurse 0.0
zulu_out 0.0
willspeakout 0.0
laurencristmann 0.0
c_lynne_ryan 0.0
enemywithinn 0.0
elsolarverde 0.0
creats 0.0
dbongino 0.0
bongino 0.0
carl_c_icahn 0.0
fieldoffight 0.0
reploubarletta 0.0
mainegop 0.0
gatewaypun 0.0
mechanicsburg 0.0
pnehlen 0.0
patrioticpepe 0.0
insticts 0.0
borderless 0.0
lallyray 0.0
glowingly 0.0
spinnnn 0.0
flamed 0.0
nancynielsenn 0.0
olimauritania 0.0
theresa_cali 0.0
roxanetancredi 0.0
litigate 0.0
trumpdoonbeg 0.0
berrien 0.0
nbcpolitics 0.0
jakeda 0.0
barrasso 0.0
bluedogdemky 0.0
iowa_trump 0.0
arnold_ziffel 0.0
patricia_graf 0.0
brazosboys 0.0
jimvitari 0.0
trumpturnberry 0.0
trumpscotland 0.0
darrenwaggener 0.0
allegrettivicki 0.0
justininglv 0.0
chrisboydbrew 0.0
votetrumpmaga 0.0
realericjallen 0.0
insinuated 0.0
clubgoers 0.0
ausbiz 0.0
freemarketsara 0.0
senatorjeffsessions 0.0
mabynshingleton 0.0
dale_dangler 0.0
nauthizjane 0.0
richardweaving 0.0
mariadaq 0.0
sara_wejesa 0.0
jimhewitt 0.0
joedefranco 0.0
wolfstopper 0.0
djd_thunder 0.0
excoriates 0.0
rapidcraft 0.0
telepromter 0.0
liliannyleebou 0.0
lunsfordwhitney 0.0
free_sa_bd 0.0
stockdaleism 0.0
admonished 0.0
nbcdfw 0.0
frankylamouche 0.0
sandiegopd 0.0
tombarrackjr 0.0
buiidthewall 0.0
pipersul 0.0
oasisupernova 0.0
jknatter 0.0
jasondovesq 0.0
ed_klein 0.0
overregulates 0.0
dubilujane 0.0
rbacliff 0.0
ltstevenlrogers 0.0
rowanne 0.0
shoneep 0.0
magicmetalninja 0.0
barbaro 0.0
michael_favreau 0.0
christichat 0.0
mai_ttag 0.0
thydanielflores 0.0
costakenneth 0.0
svhlevi 0.0
johnjohnlacca 0.0
ladytsbrug 0.0
frankdallasagg 0.0
ladyjoanne 0.0
gerriweth 0.0
longbyfive 0.0
wesleyfelixpsi 0.0
manakoa 0.0
ragdollive 0.0
xgodfatherxzx 0.0
trumptrainrider 0.0
aprillajune 0.0
takingit_back 0.0
distlerjoyce 0.0
queencharlotteo 0.0
kellyriddell 0.0
valdosta_monkey 0.0
daybastrop 0.0
nathandwilsonfl 0.0
mathewjmari 0.0
stupor 0.0
matandsher 0.0
edgoeas 0.0
lynnepatton 0.0
erictrumpfdn 0.0
mikeozanian 0.0
lexingtonbobby 0.0
annettejeanne 0.0
andrebauer 0.0
waterbury 0.0
greenskydeb 0.0
keksec__org 0.0
ashleyedam 0.0
trumptbird 0.0
herb_stamper 0.0
senfrankniceley 0.0
anneslimo 0.0
agentvf 0.0
hornick 0.0
gqforbes 0.0
governor_savage 0.0
carolde 0.0
fugedaboudit 0.0
dnglax 0.0
alexnightrasor 0.0
lilrachiepoo 0.0
