awesome 7.4765992521e-05
christmas 7.45633566004e-05
trying 0.00104295526755
moment 0.000473558297291
wonderful 7.5582761646e-05
seeing 0.000138252778318
recommend 5.00760237627e-05
anybody 0.000670748729819
worked 0.000145533735694
direct 0.0
others 3.61870739187e-05
currently 4.00216932185e-05
better 0.00103177065231
please 0.000843363281363
social 0.000188444069745
around 0.000366112166947
people 0.00189712668327
leaving 0.000114302974961
morning 0.000334628324047
general 8.62561062048e-05
investigate 7.22662127867e-05
damage 0.0
everything 0.000301165491643
twitter 0.000838828811793
though 0.00146345072184
friend 0.000201862309848
watched 0.000264539665761
beautiful 3.447009543e-05
anything 0.000510126995009
helped 3.66801632969e-05
managing 0.0
updated 0.000159566533406
thinking 0.000307731153251
finally 0.000444500554695
caught 0.000150755255796
believe 0.000533964108426
already 0.000433845838096
couple 0.000219485755658
orlando 0.0
research 4.4860641055e-05
chance 0.000234239826833
meaning 9.89738601571e-05
annual 4.49879181672e-05
quickly 0.000280130388337
growing 4.01317195146e-05
probably 0.000761987291364
should 4.42314555078e-05
changed 0.000250584568591
history 0.00048258133602
center 0.000219297876951
museum 0.0
behind 0.000266263394143
pretty 0.000786424058307
really 0.00190738144707
expensive 0.000230160242188
little 0.000467218594873
earlier 0.000391543366618
realized 0.0
forget 0.000135667615594
someone 0.000438548906309
mostly 0.0
worker 0.000211720487813
safety 0.00024240229135
shuttle 0.000102047258423
program 0.0
things 0.000698941409626
related 9.83924953391e-05
visiting 0.0
available 0.00034750177792
afternoons 0.0
perfect 0.000278752518445
different 0.000578143927677
numbers 0.000250963868932
delays 0.0
person 0.00020131891483
watching 0.000269149746463
passed 8.15992533918e-05
celebrates 0.00013336781791
minutes 0.000483884724114
travel 4.09122593728e-05
daughter 4.04639977247e-05
average 0.000287512246899
positive 0.000198468899911
outside 0.000354130175365
looking 0.000433845838096
forward 6.87545119432e-05
plenty 0.000198532915529
agreed 0.000134581923165
raising 4.7779739246e-05
listened 0.0
afraid 0.00017299544959
impression 6.14834747876e-05
drawing 0.000238603697574
favorite 0.000621357090158
magnet 0.0
picture 0.000356048504841
historic 5.05247890909e-05
instead 0.000188444069745
appreciate 0.000314952527602
husband 0.0
international 4.13666408227e-05
market 9.02313677366e-05
couldn 0.000383284712862
remember 0.000368091156452
impressive 4.60240461732e-05
familiar 0.000107363867694
friends 0.000269149746463
despite 0.000190014123282
impossible 0.000182007801524
everyone 0.00063579381569
florida 0.000197365086137
always 0.000832073106698
months 0.000279505739299
moving 0.000107975596776
meeting 6.85693495191e-05
google 8.41201203186e-05
answer 0.000411416097115
together 0.000100659457415
inside 0.000383284712862
smaller 0.0
missed 0.000407002846783
active 5.38479338132e-05
longer 0.000115870491813
enough 0.00084563981659
driving 4.09122593728e-05
building 0.000112759686543
technician 0.0
enjoying 0.0
london 0.000119408177465
kennedy 6.79306061721e-05
recent 0.000132694366523
gotten 0.000167721984568
amazing 0.000233609297436
attention 7.57885295024e-05
richard 0.000340356729522
progress 4.64210638939e-05
tomorrow 0.000334628324047
george 4.15961791412e-05
excited 0.000314443956711
campaigning 0.0
understand 0.00014592820027
following 7.02546508906e-05
learning 8.29624242074e-05
evening 0.0
special 0.000168672656273
secret 0.000112453870767
across 0.0
comparison 6.25469174642e-05
surprised 0.000119736088344
anymore 0.00012794746153
rather 0.000112759686543
showing 3.57011831831e-05
saying 0.000559011478597
tweeted 0.000176925822031
updates 0.0
thoughts 0.000284070366416
exactly 0.000144748295675
except 0.00012794746153
getting 0.000736182312904
nothing 0.000501942486071
tweets 0.000331915165561
course 0.000276505556637
stephen 0.0
looked 0.000227984806199
difficult 0.0
stages 0.0
office 7.23741478373e-05
decisions 0.000202099156364
brought 0.000259559740932
biggest 0.00020682057258
thrilled 0.0
entire 0.000408987346134
something 0.000769645145309
closing 9.9560347198e-05
anyone 0.000236141718782
taking 0.000301165491643
recently 4.34918045292e-05
interesting 0.000298253426401
original 0.000158340758378
flying 8.41201203186e-05
happening 7.29641001349e-05
sometimes 0.0001843973142
stopped 0.000157046112548
yesterday 0.0003710798438
service 0.00018389831946
serious 0.000286382364104
emails 0.0
afford 0.000108029531726
british 0.0
contact 9.17855048321e-05
either 0.000255374350472
second 0.00101203593764
accident 0.000123386924776
checking 4.33701118004e-05
volunteers 0.0
indeed 4.56317085346e-05
island 4.73662814537e-05
hearing 0.000112148988782
choose 0.0
staying 0.0
another 0.000767573405862
address 4.51156838683e-05
display 0.0
originally 0.0
compare 6.10674328169e-05
landing 6.10674328169e-05
perhaps 0.0
weekend 0.000373085942884
appear 0.000202702929267
anyway 0.000302742036783
theory 0.000164585115927
recognize 0.000179548887027
working 0.000133851329619
bigger 7.85230562739e-05
screen 0.000271463651544
treated 0.0
laughing 7.93875599642e-05
wanted 0.000439732704627
current 0.000118430857041
grateful 0.0
friendship 0.0
family 0.000301165491643
listening 0.000146720653187
stream 0.0
wedding 0.000101654726427
sharing 0.0
double 7.57885295024e-05
especially 0.000111239888971
middle 0.000192067548352
waiting 0.000239992723317
definitely 0.000365809592763
walking 4.01317195146e-05
account 0.000431876809506
completely 3.96937799821e-05
thought 0.000506017968818
reaction 0.000228809872747
accept 4.27682342004e-05
possible 0.000247891122756
simple 7.78819677051e-05
manufacturing 0.0
destroyed 6.43224277e-05
professional 9.92664577646e-05
friendly 9.9560347198e-05
members 0.0
supposed 0.000311371929664
astronauts 0.0
component 0.0
business 0.000108267979922
absolutely 0.000178988977565
sending 0.0
delivering 0.0
heavily 0.00014629197776
biased 0.000137925435066
introducing 5.36819338468e-05
congrats 0.000386400579898
community 0.0
greatest 0.000146323837105
posted 7.91703791891e-05
saturday 7.0635028203e-05
wednesday 0.000161411477307
confused 0.000195059717759
explain 0.000312379914409
broken 4.14812121037e-05
chicago 9.10039007618e-05
fairly 0.0
hoping 8.04842214822e-05
relationship 8.99758363344e-05
actually 0.00106282491755
basket 0.0
myself 4.38595753902e-05
pocket 0.00017206391963
argument 0.00036117239298
decent 5.94533990405e-05
school 0.000272067730672
thursday 0.000107393386539
selling 0.0
talented 8.79661486465e-05
discuss 0.0
celebrate 7.39591238718e-05
celebrating 0.000119736088344
anniversary 0.0
contest 0.000130841831514
internet 0.000166384716565
figure 0.000440238625404
inspired 0.0
sitting 0.000188956904115
complaining 6.3869591813e-05
playing 0.000680169326679
street 0.000111239888971
points 0.000600428389902
advice 3.9261528137e-05
forever 0.000264539665761
congress 0.0
imagine 0.000335535104702
problem 0.000251262823713
played 0.00074765992521
canadian 0.0
pulling 0.000113973738031
keeping 0.000112148988782
lovely 4.20600601593e-05
chinese 0.0
unlike 6.1904783252e-05
allowed 0.000659746114849
otherwise 0.000332524715743
afternoon 0.0
planned 4.8058259066e-05
strange 5.14408907108e-05
notice 9.07453922873e-05
difference 0.000109742877829
author 5.59073281892e-05
intent 7.79316704263e-05
letting 0.000205693373484
system 4.18273114886e-05
almost 0.000535405318476
details 7.31619185525e-05
experience 0.000174691087062
viewed 0.0
living 0.000244567521886
bright 0.0
normal 0.0
practically 0.0
before 7.25702182251e-05
monday 0.000209629304474
realize 9.61165181321e-05
currency 0.0
sleeping 0.000106377688937
wanting 0.000158108861199
science 4.7229595741e-05
tweeting 3.82048386153e-05
forgot 0.000377491341347
herself 0.0
disaster 0.0
happens 0.000138626219509
silence 0.000105405907466
congratulations 0.0
natural 9.50070616408e-05
raised 0.0
mission 4.53726961436e-05
ironic 7.43564104266e-05
testing 0.0
deleted 6.64400769175e-05
channels 0.0
surprising 5.40147658631e-05
reference 0.000113246235178
forgotten 9.9560347198e-05
trouble 8.27332816454e-05
setting 0.0
reminds 9.47325629073e-05
fantastic 0.0
loving 3.94769523471e-05
hardly 6.21174544182e-05
complete 0.0
membership 0.0
nearly 0.000219915371616
spirit 0.0
launched 4.99277699574e-05
stories 0.000144748295675
including 0.000223084006982
inviting 6.89627175332e-05
wouldn 0.000541339899608
choice 3.57011831831e-05
offended 0.0
conversation 0.000162749495575
disrespectful 0.0
making 0.000533964108426
expect 0.000160526878059
discussion 9.75298588797e-05
believes 0.0
occasions 0.0
response 7.87381319005e-05
brings 0.0
subject 0.0
greetings 0.0
anytime 5.50337104686e-05
protected 0.0
location 5.25425537876e-05
thomas 0.000420340430301
missile 0.0
needed 0.000249908282282
seriously 0.000110938685808
spending 0.000124788537424
groups 0.0
modern 0.000144595193705
welcome 3.38255926636e-05
totally 0.00042485846998
evenings 0.0
laughed 0.0
running 0.00052690988168
finished 0.000120065079656
strong 0.00020682057258
hopefully 0.0
respond 0.000101049578182
message 7.10175916039e-05
coming 0.000600709621979
thankful 0.0
temporary 7.22662127867e-05
issues 7.98240588958e-05
challenge 0.000110040489891
happen 0.000204601688134
giving 0.000202953555982
turkey 0.0
common 0.0
pressed 0.0
healthcare 6.5013447489e-05
benefits 0.0
situation 8.74730660323e-05
workers 0.0
company 3.78942647512e-05
health 0.000157907809388
insurance 5.77265199943e-05
change 0.000234239826833
august 0.0
mental 0.000149340520797
carrier 0.0
neither 4.61558599069e-05
lowest 0.0
decide 0.0
happened 0.000563556542787
demand 4.41070332161e-05
generally 0.0
personal 7.27668678468e-05
beyond 0.0
passion 0.0
question 0.000512885255418
doctor 0.0
sacrifices 0.0
respected 0.0
position 0.000182526834138
increased 0.000136371297971
losing 0.000371272163246
strain 0.0
respect 0.0
collapse 0.0
shouldn 0.00028015185253
career 0.000388348181349
visited 0.0
challenger 0.0
reason 0.000352222839242
simply 8.36546229773e-05
audience 0.0
employees 6.40952396215e-05
accounts 0.000167721984568
attacked 0.0
involved 0.000116822951558
extreme 0.0
unhappy 8.11725673532e-05
caused 5.73546398766e-05
knocked 0.000145113790391
reality 3.98027258217e-05
mention 0.000206262312914
extremely 0.000340356729522
burned 7.86250897628e-05
without 0.000506017968818
falling 0.000148023814603
problems 4.12524625829e-05
timing 5.94533990405e-05
highly 9.52826970182e-05
online 3.59918655921e-05
animals 0.0
called 0.000437368338003
scientists 0.0
pictures 4.22944479186e-05
camera 8.74730660323e-05
heading 7.96054516434e-05
terribly 0.0
theater 6.32016846317e-05
paying 0.000217459022646
complex 5.50337104686e-05
sunday 0.000241942362057
nights 0.0
enthusiastic 0.0
increasing 0.0
traffic 0.000100449881797
opposite 0.000274308526546
lookout 0.0
reached 0.0
changing 0.0
harder 4.65544625666e-05
silent 5.68044963716e-05
speaking 0.0
careful 5.06757323168e-05
november 0.0
answered 0.000105728260873
number 0.000205708048557
atlantic 0.0
stupid 9.31089251331e-05
budget 0.0
unless 0.000206262312914
calling 0.000245891278117
lately 0.0
levels 5.14408907108e-05
focused 5.43509598758e-05
ridiculous 0.000138467579721
financially 0.0
knowing 4.62881977523e-05
former 0.000252360360956
covers 5.41824383803e-05
mountain 5.90618307092e-05
suffers 0.0
schedule 0.000415268593255
greatly 0.0
friday 3.39169038986e-05
dramatic 6.3869591813e-05
failure 0.000107695867626
achieve 0.0
winner 7.43613356607e-05
closes 0.0
bother 0.0
directly 0.000110413218331
quality 8.6497724795e-05
tearing 0.0
father 3.81009916535e-05
wishes 0.0
collar 0.0
ground 0.000216850559002
matter 0.000287157512815
strategy 0.000166665373937
themselves 5.84829826536e-05
asking 0.000283304140292
mobile 5.55551246457e-05
device 7.31459888798e-05
computer 5.17519483419e-05
impressed 0.000101351464634
complain 0.0
dinner 0.000147918247744
suffering 0.0
single 0.00027576076344
parent 0.0
packed 0.0
catching 4.94869300785e-05
neglected 0.0
somewhat 0.0
approved 0.0
definition 0.0
energy 0.0
meltdown 0.0
events 4.14812121037e-05
europe 0.0
holiday 7.70366757301e-05
status 0.0
update 0.000195237446506
outage 0.0
customers 0.0
holding 0.000197925947973
survive 0.0
electric 0.0
picked 0.000166846178715
missing 0.000249908282282
surprise 0.000107393386539
german 0.0
officially 3.90474893011e-05
french 8.6015361463e-05
global 4.47338488092e-05
follow 0.000134574873232
opinion 0.00021806971919
design 0.0
allows 0.0
promoting 0.0
volunteer 0.0
negative 4.87649294399e-05
official 0.000207379167478
brutal 0.000116584498083
cotton 0.0
jersey 0.000112526597374
mistake 0.000185152791009
fixing 6.6683908955e-05
france 4.64210638939e-05
proper 0.0
peaceful 0.0
thinks 0.000195237446506
competition 9.0487883848e-05
industry 4.7229595741e-05
easier 9.07453922873e-05
successful 9.15239490986e-05
trending 5.53804107313e-05
leadership 0.0
agrees 0.0
organized 0.0
enthusiasm 0.0
turnout 0.0
showed 0.000126180180478
attended 0.0
trumps 0.0
networks 0.0
experienced 0.0
interested 0.0
effect 8.82140664323e-05
dislike 7.9333263804e-05
success 0.000188956904115
dreams 4.39830743232e-05
protect 0.0
rumors 0.000232770912324
arguing 6.69295405073e-05
referred 7.89772933063e-05
waving 0.0
growth 0.0
control 0.000186914981303
happier 0.0
likely 0.000447338488092
coincidence 0.0
cancel 0.0
project 3.7791380823e-05
laying 0.000207677475072
lesson 4.65544625666e-05
replacement 0.000284512896733
invited 0.0
continuing 0.0
clearance 0.0
treating 6.36454635299e-05
allowing 5.86748156012e-05
arrived 0.0
unable 7.22662127867e-05
opening 0.000145533735694
popular 0.0
followed 8.89634084753e-05
statement 0.000130110335401
enjoyed 3.96937799821e-05
spectacular 0.0
smoothly 0.0
length 0.0
wonder 0.000362851091126
matters 0.000307881520263
function 0.0
shared 0.0
connection 5.45203389908e-05
benefit 4.19434823719e-05
terrible 0.000255894923061
continues 4.07996266959e-05
equally 6.32016846317e-05
session 0.0
routine 0.0
associated 0.0
exciting 8.02634390293e-05
imagination 0.0
decides 0.0
cheering 0.0
spring 0.0
fallen 0.0
beautifully 0.0
places 7.98240588958e-05
entered 0.0
feedback 0.0
thousands 0.0
properly 0.0
informed 0.0
typical 0.0
continue 3.86234972709e-05
attend 5.03745273265e-05
excuse 0.00014544137481
female 4.46075377496e-05
recovery 0.0
closer 4.19434823719e-05
beginning 0.000126180180478
introduce 0.0
bought 0.000327298074983
multiple 0.000354730126218
slogan 8.19377257472e-05
covered 8.67402236007e-05
choices 0.0
unpredictable 0.0
enterprise 0.0
several 4.81983979016e-05
surrounded 0.0
dealing 0.000116205204472
teacher 4.99277699574e-05
training 8.67402236007e-05
auditorium 0.0
passing 0.000135731825772
become 0.0
presentation 6.79306061721e-05
spread 0.000114614515846
sooooo 0.0
season 0.00125390173656
putting 0.000175636627227
weight 0.000156197821567
stephanie 0.000202693078799
rapidly 0.0
follows 6.21174544182e-05
explained 0.000118906798081
stance 0.0
storms 0.0
headed 8.84629110157e-05
sleepy 0.0
returns 4.4860641055e-05
expected 0.0
resources 6.57191189606e-05
considering 5.60848375394e-05
fabric 0.0
suspect 0.000480396216424
constantly 0.000185080387164
condolences 0.0
appreciated 0.0
register 0.0
manage 0.0
transition 0.0
smooth 0.0
flowers 6.34228344438e-05
gained 0.0
savage 0.000156553148565
somebody 0.00114833870902
contract 0.000463312239382
furious 0.0
covering 0.000155255845026
boxing 0.0
credit 0.00028876723808
patriots 0.0034101740742
player 0.00154071713586
chemistry 0.0
grandkids 0.0
offensive 0.00115247401867
charles 0.000590501272315
fighting 0.000114302974961
atlanta 0.000521226269305
donald 0.000144174777198
mexico 0.000193356517168
unreal 0.000136885322521
police 0.000129384159307
represent 0.0
president 0.000446168013964
talking 0.000872381964265
unbelievable 5.31888444686e-05
alabama 0.000305035238343
slowest 0.0
conference 0.000124443636311
america 0.000284838803873
michigan 0.000134852619586
everybody 4.12524625829e-05
judgment 0.0
carolina 0.000307417373938
amount 9.39157937823e-05
houston 0.000455894952125
everyday 9.50070616408e-05
michael 0.000264539665761
protecting 5.96509243934e-05
million 0.00122945639059
election 9.23117198139e-05
honesty 0.0
telling 0.000303979741599
correct 0.00017251221241
pulled 5.02249408983e-05
attack 8.62561062048e-05
americans 9.31089251331e-05
salaries 0.0
killed 0.0
louisville 0.0
horrible 0.0
coverage 0.000453726961436
dallas 5.52066091653e-05
jacksonville 0.000301980807675
league 0.00170266985262
united 0.000173480447201
college 0.000418273114886
refuse 0.000120099054106
barackobama 0.0
hillary 0.0
clinton 0.0
presidency 0.0
manning 0.000227802286661
stupidity 0.0
american 0.000142035183208
remain 4.70934690716e-05
founder 0.0
illegal 0.000445846084301
arizona 6.61980182195e-05
opinions 0.00034412783926
retire 0.000148712820853
triumph 0.0
stealing 0.000137403347303
speeches 0.0
innocent 0.0
scared 0.000294311117866
golden 0.000225578419341
straight 0.000222479777941
removed 0.0
answers 0.0
product 0.000107363867694
created 0.0
snoopdogg 0.0
worlds 0.0
record 0.000419258608948
stamina 0.0
weapon 0.0
funeral 7.40496531927e-05
registered 0.0
minnesota 7.52940195912e-05
committed 5.2702953733e-05
journey 0.0
disrespect 0.0
brother 8.15992533918e-05
prayers 0.0
documentary 5.00760237627e-05
boston 0.000290034775752
addition 0.0
korean 0.0
church 5.08273632135e-05
advantage 0.000228680985891
honestly 0.000191118956984
defeat 0.0
baltimore 0.000310361216432
lifetime 0.0
captain 0.0
retired 6.79306061721e-05
country 0.000172815972898
valley 5.69868690157e-05
mailbox 0.0
speedy 0.0
ending 8.99758363344e-05
finish 0.000164554698787
employee 0.0
university 0.0
remembered 0.000189605053895
nominated 5.02249408983e-05
praying 0.0
insane 0.000197947720314
national 0.000434244887024
reform 0.0
oregon 0.000150588039182
shooting 0.000167309245955
cancer 4.20600601593e-05
australia 0.0
deserve 0.000205126372522
legend 4.46075377496e-05
mother 0.0
murder 0.0
creating 4.60240461732e-05
powerful 4.07996266959e-05
carson 0.000167862622114
palmer 8.07964851114e-05
branch 0.000222148959578
breaking 0.000251943059145
dollars 0.0
questions 0.000308562072836
racist 6.02506329474e-05
charged 0.0
girlfriend 0.0
performance 7.74579799753e-05
refreshing 0.0
reading 0.000426105549624
corrupt 0.0
penalty 0.000537415986666
writer 0.000202702929267
denver 0.000210083586025
create 0.000193644949938
admire 0.0
nobody 0.000943581313601
government 0.0
politics 4.73662814537e-05
comeback 0.0
charities 0.0
method 0.0
sample 7.14090944092e-05
bringing 0.0
celebs 0.0
stadium 0.000339738705533
funniest 0.0
according 8.8712689352e-05
threat 4.9780173599e-05
heroin 0.0
honest 0.000457557970554
rolling 0.000100449881797
became 4.18273114886e-05
feature 0.0
decision 0.000166846178715
counting 0.000142510592461
verified 0.0
signing 0.000307017027731
adding 5.30260914584e-05
embrace 0.0
pressure 0.000227509751905
celebrities 0.0
dearly 0.0
facebook 0.000107393386539
divided 0.0
extension 0.000221237092302
lawyer 0.0
charleston 0.0
brazilian 0.0
basketball 0.000769142875458
campaign 7.76696362698e-05
determine 0.0
whether 4.22944479186e-05
praise 0.0
factory 0.000340928244927
arrested 6.32016846317e-05
investments 0.0
activity 6.52470128284e-05
comments 0.000122398880088
wounded 0.0
endorsement 7.46660212571e-05
williams 0.000266761986255
future 0.00027576076344
struggled 0.0
blessed 0.0
sabotage 0.0
warrior 0.0
softball 0.0
cheating 0.0
voting 4.12524625829e-05
instincts 0.000210015381729
collins 0.000151225037809
succeed 0.000125527490198
commercial 0.000137678257248
religion 0.0
boring 0.0
acting 9.58374156329e-05
established 0.0
warriors 0.000965478045464
because 0.000192793591606
sensitive 7.00278620083e-05
smiling 0.0
traitor 0.0
cleveland 0.000395746243518
agents 0.000285636377637
periscope 0.0
killing 8.52983076869e-05
choosing 0.0
phillips 0.000174784785634
instagram 0.000139263191682
opponent 7.22662127867e-05
detroit 6.21174544182e-05
cousin 0.0
honored 4.64210638939e-05
nonsense 6.25469174642e-05
dedication 7.05734959375e-05
hammer 0.0
proven 0.0
talent 4.46075377496e-05
governors 0.0
knocking 0.0
russian 0.0
consecutive 0.000164654008306
skills 4.64210638939e-05
citizens 0.0
cameras 6.71769983332e-05
phones 0.0
california 0.0
commitment 5.53804107313e-05
maryland 0.0
seconds 0.000447338488092
placed 6.97583631733e-05
listen 0.000207379167478
dominating 0.0
whatever 7.68270193409e-05
wherever 0.0
fought 5.41824383803e-05
compete 0.0
lauderdale 0.0
injured 5.92570390358e-05
billion 4.79187078164e-05
shoutout 0.0
depressing 7.05734959375e-05
guilty 5.66231175888e-05
carpet 0.0
harvard 7.59340955538e-05
absolute 0.0
handle 4.36139438379e-05
promise 3.96937799821e-05
hosting 4.38595753902e-05
longest 0.000178360197122
generation 9.17855048321e-05
criminal 0.0
tuesday 7.59949353997e-05
garbage 0.00021679863836
goldman 0.0
ronald 8.87890840777e-05
locker 0.00037489269637
leader 0.0
desperately 7.86250897628e-05
character 4.47338488092e-05
chancellor 0.0
proving 6.9491029011e-05
jackson 0.000108029531726
interview 0.000102025399002
buffalo 0.000453675113428
insight 0.000178360197122
obviously 4.69578968912e-05
battle 3.88348181349e-05
destroy 0.0
killer 0.0
personally 9.66782585842e-05
relentless 0.0
winning 0.000428414198197
charlotte 0.000340928244927
trafficking 0.0
defense 0.000858910941549
japanese 6.12748037324e-05
causing 7.05734959375e-05
arabia 0.0
rapist 0.0
writing 0.000271102929914
society 9.23117198139e-05
officers 0.0
ambushed 0.0
sources 0.000172620181641
kentucky 0.0
incredible 0.000288714613125
ungrateful 0.0
kissing 0.0
minute 0.000188444069745
luther 0.0
foreign 0.0
phoenix 0.0
champions 6.27637450992e-05
virginia 0.0
streak 0.000151868191108
orange 5.00760237627e-05
policy 0.000147155558933
intentional 0.000188958119053
reminder 0.000201210553705
evidence 0.000545965517705
presidents 0.0
judged 0.0
accused 0.000198594054658
intentions 0.0
facing 0.0
freedom 0.0
actions 0.0
debating 0.0
consequence 0.0
coughing 0.0
clearly 0.000296885845919
invite 0.0
central 8.82140664323e-05
washington 0.000442314555078
tougher 0.000161592970223
veteran 0.0
division 0.0
overrated 0.0
veterans 0.0
stronger 0.0
bowden 0.0
promised 0.0
catches 0.0
worried 0.000870104327257
security 0.000177425378704
sanctuary 0.000184591580282
reverse 0.000250187669857
immediately 0.000280130388337
television 0.00017660328189
entitled 0.0
racism 6.45511772208e-05
highest 4.7229595741e-05
approve 6.61980182195e-05
turning 0.000209136557443
georgia 0.000421797365148
tennessee 0.000176633955891
legacy 0.0
leaked 0.0
choked 0.0
helping 3.6779663892e-05
tickets 0.000364175979522
suspending 0.0
suspend 0.0
willing 5.08273632135e-05
december 0.000185684255576
beating 0.000227947476063
basically 0.000536414223838
return 0.000221877371615
escape 5.98496290091e-05
locked 0.0
unacceptable 0.0
network 0.0
language 0.0
invest 0.0
creation 0.0
followers 8.6497724795e-05
schools 4.75035308204e-05
menace 0.000109121924799
movies 5.00760237627e-05
entity 0.0
children 3.6779663892e-05
nation 8.41201203186e-05
flexible 0.0
review 0.000199013629108
knowledge 9.50070616408e-05
begins 8.0043386437e-05
vanessa 0.000110009522047
forbes 0.0
parade 0.0
fireworks 0.0
shoulder 6.64400769175e-05
produced 5.23829231493e-05
consider 0.000177425378704
latest 0.000180935369593
signed 0.000258156239881
shower 5.88677606301e-05
thunder 0.000394886466531
charity 0.0
germany 0.0
advance 4.86223899318e-05
explaining 0.000173179559983
millions 4.5243941924e-05
blessings 0.0
diamond 0.0
dollar 0.000112526597374
monsters 8.73923928171e-05
rigged 0.0
conduct 7.69178989303e-05
cooked 0.0
turned 0.000256761143078
criticism 0.0
responded 7.22662127867e-05
depending 7.86250897628e-05
jackie 8.27208895105e-05
charge 0.000138864593257
ticket 8.97212821101e-05
finest 6.5957707253e-05
sanders 0.0
includes 4.9780173599e-05
dealers 0.0
against 0.0
benjamin 0.0
impact 4.47338488092e-05
families 0.0
selection 6.36454635299e-05
hitting 0.000223037688748
announced 4.06873738938e-05
decided 0.000360195238967
professor 0.000126403369263
itself 5.68044963716e-05
promote 0.0
mexican 0.0
owners 6.43224277e-05
guards 0.00018783933896
guarantee 0.0
beliefs 0.0
citizen 6.0049527053e-05
states 0.000126531143134
memorial 0.0
decades 5.36819338468e-05
landed 0.000104448108948
ultimate 4.84804582699e-05
mcdonald 0.0
twenty 7.22662127867e-05
hispanics 0.0
financial 0.0
payments 0.0
grabbing 0.0
permit 0.0
shield 0.0
disney 0.0
kansas 0.0
agreement 0.0
source 0.000328705278238
dismiss 0.0
talents 0.0
homework 0.0
expectations 0.0
joining 7.87381319005e-05
eugene 0.0
reasons 0.000116822951558
talked 0.000210300300796
released 0.000116822951558
reaching 0.0
release 0.000110040489891
promoter 0.0
circumstances 0.0
scheme 0.0
warwick 0.0
highlight 0.0
within 4.26491538435e-05
stacked 0.0
speech 0.000120395158544
standing 3.82048386153e-05
higher 0.000134581923165
justice 0.0
served 0.000101049578182
speaks 4.83391292921e-05
navarro 0.0
dropped 0.000206262312914
consideration 0.0
predicted 0.000194344529388
strength 4.62881977523e-05
andrew 0.000261120272371
replace 0.0
incredibly 9.44591914819e-05
private 0.000128663226408
integrity 0.0
sanford 0.0
ignored 6.3869591813e-05
neighbors 0.0
affection 0.0
minimum 0.000137925435066
direction 0.0
enemies 0.0
exclusive 0.000119081339946
prison 0.0
himself 0.0
investigation 0.0
disgusting 6.54822288198e-05
congratulate 0.0
philly 0.000125093834928
rights 9.02313677366e-05
replaced 0.0
recognition 0.0
maintain 0.0
tallahassee 0.0
handed 0.000128190479243
victory 4.7779739246e-05
classy 0.0
lifted 8.23270041529e-05
terrorist 0.000136885322521
productive 0.000132880153835
tribute 9.17855048321e-05
threatened 7.16923550489e-05
insecure 0.0
horror 6.64400769175e-05
discovery 0.0
convention 0.0
understanding 4.81983979016e-05
action 0.000107684067306
figures 0.0
having 0.0
marine 0.0
announces 0.0
wallace 0.0
speaker 0.0
stevens 9.74263755437e-05
cybersecurity 0.0
apologize 0.0
continued 5.73546398766e-05
journalist 0.0
libelous 0.0
formation 0.000204094516847
letter 8.25049251658e-05
discussed 0.0
therapy 0.0
widespread 0.0
untrue 0.0
written 4.07996266959e-05
conferences 0.0
results 8.74730660323e-05
papers 0.0
winter 4.5243941924e-05
marching 7.19780471401e-05
sessions 0.0
democrats 7.34444924436e-05
eastern 0.0
scientist 7.14090944092e-05
represented 0.0
waters 0.0
journal 0.0
foundation 0.0
access 0.000164554698787
analysis 0.000220134841874
writes 0.000109040677982
colorado 0.0
medical 5.50337104686e-05
tremendous 6.32016846317e-05
nytimes 0.00015202719695
public 0.000233008908809
cheaters 0.0
cannot 0.000260971748101
reveals 4.99277699574e-05
immunity 9.33695259752e-05
threatens 0.0
candidate 0.000106377688937
brilliant 4.10252745044e-05
wisconsin 0.000155180608216
studies 0.0
measure 0.0
compared 5.77265199943e-05
donors 0.0
graham 6.9491029011e-05
incorrect 8.11725673532e-05
headline 5.23829231493e-05
careers 0.000155863340853
answering 5.03745273265e-05
streaming 5.4690584499e-05
leaders 9.75298588797e-05
supreme 0.0
nominee 0.0
gorsuch 0.0
protest 0.000113246235178
immigration 0.000124234908836
policies 0.0
administration 6.32016846317e-05
defend 0.000164071753497
excitement 5.90618307092e-05
funding 0.0
surveillance 0.0
transfer 7.37456974339e-05
conspiracy 6.5957707253e-05
horrifying 0.0
formed 0.0
interviews 0.000136118088431
retreat 0.0
alliance 0.0
platform 5.30260914584e-05
editing 0.0
february 0.000344373733687
association 0.0
airwaves 0.0
hamilton 6.61980182195e-05
futures 0.0
borders 7.72524034974e-05
border 6.52470128284e-05
uranium 0.0
misleading 0.0
january 0.0
topics 7.31459888798e-05
unprecedented 0.0
airplane 0.000158666527608
tragic 0.0
philadelphia 7.40496531927e-05
funded 6.1693462388e-05
secure 0.0
income 0.0
hurricane 0.0
breakdown 7.08497043631e-05
countries 0.0
linked 6.23314932541e-05
broadcast 5.52066091653e-05
african 0.0
triple 0.0
provide 0.0
enhance 0.0
development 5.77265199943e-05
companies 0.0
discussions 7.43564104266e-05
developing 0.0
proposal 0.0
potential 4.61558599069e-05
moderator 0.0
suggestion 0.0
attending 0.0
filled 0.0
schultz 0.0
education 0.0
sickness 0.0
mentioned 0.000196784990678
exists 6.21174544182e-05
henderson 0.0
plants 0.0
orders 0.0
officials 0.0
strategic 0.0
ability 4.86223899318e-05
political 0.0
director 0.0
behaving 0.000109121924799
deficits 0.0
sufficient 0.0
prevent 0.000111110249291
shoddy 0.0
capacity 0.0
donations 0.0
editors 7.59340955538e-05
discussing 0.0
persistent 0.0
treatment 0.0
establishment 0.0
protects 0.0
critical 0.000106377688937
ambassador 0.0
preparing 0.000167721984568
capable 0.0
bishop 0.0
producers 6.9225825024e-05
bombed 0.0
weekly 0.0
becoming 0.000128663226408
magazine 0.0
lawyers 0.0
summary 0.0
standard 0.0
controlled 7.37456974339e-05
hiring 0.000129563019592
defending 5.71702464728e-05
pushes 0.0
admitted 0.0
failed 0.000198532915529
independent 0.00015478816842
copies 0.0
politically 0.0
driven 6.06565272983e-05
agenda 0.0
blocked 0.000225770887575
result 9.63967958031e-05
announcing 0.0
destruction 0.0
culture 9.23117198139e-05
insider 7.89772933063e-05
traitors 0.0
prince 4.84804582699e-05
solutions 0.0
indiana 0.0
mongering 0.0
claims 5.36819338468e-05
editorial 0.0
prospects 0.0
mistakes 5.96509243934e-05
offered 0.0
founded 0.0
ignorance 0.0
inspiring 0.0
majority 0.000112169675079
embarrassing 0.0
creators 9.02469634503e-05
server 0.0
berniesanders 0.0
spotlight 0.0
readout 0.0
tactics 0.000162345134706
irrelevant 0.0
massive 8.48245274055e-05
receiving 0.000188291235298
promising 7.31459888798e-05
promises 0.0
consequences 6.45511772208e-05
production 5.33523972511e-05
proposals 0.0
elsewhere 0.0002068881526
bernie 0.0
hacking 0.0
guests 0.000157148769448
interviewed 0.0
secretary 0.0
rebuttal 0.0
reduce 0.0
arriving 0.0
dangerous 4.4860641055e-05
shutting 8.92679833366e-05
arrival 0.0
canceled 0.0
typically 0.0
saving 9.69609165398e-05
pioneer 0.0
incident 0.0
ordering 0.000159386165412
victims 0.0
raises 6.6683908955e-05
receive 0.0
reputation 0.0
intention 0.0
commentary 0.000186994479762
disclosure 0.0
terrific 0.0
berkeley 0.0
melbourne 0.0
received 4.28877421359e-05
correctly 0.0
inherited 0.0
displayed 0.0
joseph 0.000149957078548
offices 6.9225825024e-05
necessary 0.0
largely 0.0
inaccurate 0.0
debate 4.30076807315e-05
conflict 6.9491029011e-05
interest 9.39157937823e-05
controversy 0.0
stated 0.0
rating 0.000853538690198
nominate 0.0
outstanding 5.73546398766e-05
devastating 0.0
accurate 0.000108029531726
southeastern 0.0
romney 0.0
scotland 0.0
delayed 6.5957707253e-05
rarely 6.08613459401e-05
abroad 0.0
winners 4.42314555078e-05
profit 6.52470128284e-05
reviews 0.0
republican 0.000131915414506
presidential 5.57307605376e-05
candidates 0.0
politicians 0.0
epidemic 0.0
greater 0.0
booths 0.0
arnold 0.000179507748144
principles 0.0
deadline 0.000107695867626
speakers 0.0
incoming 0.0
various 0.0
nuclear 0.000118123661418
danger 5.84829826536e-05
leading 8.48245274055e-05
restored 0.0
conditions 0.0
however 0.0
resolution 0.0
remained 0.0
member 3.9261528137e-05
examples 0.0
employ 0.0
courses 0.0
largest 5.2702953733e-05
hallmark 0.0
mentor 0.0
increase 0.0
transcript 7.96930827059e-05
disrupt 0.0
provided 0.0
binding 0.000105007690864
decreased 0.0
revival 0.0
crashing 0.0
reception 7.28501387161e-05
rising 5.38479338132e-05
primary 0.0
reduction 0.0
surrogate 0.0
provides 0.0
environment 0.0
revealed 0.0
confirmed 4.86223899318e-05
controls 0.0
behavior 6.57191189606e-05
introduced 0.0
carbon 0.0
communities 0.0
region 0.0
deaths 0.0
responsible 0.000109040677982
household 0.0
munich 0.0
canada 0.0
regions 0.0
movement 4.46075377496e-05
midwest 0.0
segment 0.00013336781791
emerged 0.0
hundreds 5.52066091653e-05
information 9.0487883848e-05
combined 0.000434822180928
easily 0.0
towards 0.000145867169795
inform 0.0
mathematically 0.0
october 0.000186753592225
investigating 0.0
predators 0.0
innovation 0.0
perspective 0.000197365086137
cities 5.00760237627e-05
todays 0.0
julian 0.0
eliminated 9.62159539969e-05
interests 0.00012596398913
toledo 0.0
extraordinary 0.0
eradicate 0.0
retains 0.0
ashamed 0.000145113790391
meetings 5.92570390358e-05
describing 7.9333263804e-05
eliminate 0.0
obligation 0.0
gender 6.10674328169e-05
committee 0.0
wasting 0.0
numerous 0.0
examination 0.0
inflammatory 0.0
practices 0.0
management 0.00018258403782
nordstrom 0.0
genius 0.0
warren 7.69178989303e-05
traveling 6.2981994565e-05
billions 0.0
prepared 0.000303148734545
fraction 0.0
equipment 7.52940195912e-05
procedures 0.0
rasmussen 0.0
county 0.0
developer 0.0
anthony 0.00012172269188
shadow 6.5013447489e-05
district 7.14090944092e-05
considered 5.17519483419e-05
lobbyist 0.0
chosen 6.2981994565e-05
hospitalized 0.0
outright 0.0
yorkers 0.000102763047823
naming 7.89772933063e-05
conventions 0.0
deficit 7.72524034974e-05
interventions 0.0
focusing 0.0
sensible 0.0
hosted 0.0
batman 0.0
column 0.0029986186445
upcoming 0.0
positions 0.0
favors 0.0
regulation 0.0
distributed 0.0
weakness 7.79316704263e-05
introduction 0.0
western 0.000119301848787
pacific 0.0
larger 0.000131915414506
increases 0.0
effective 0.000111110249291
situations 8.07964851114e-05
harbor 0.0
wealth 0.0
underway 0.0
israel 0.0
hysteria 0.0
overwhelming 0.0
protection 0.000173742089768
prisoners 0.0
guidance 0.0
montana 0.0
determination 0.0
restore 0.0
acquire 9.6815662551e-05
additional 6.9491029011e-05
exception 0.0
machine 0.0
honoring 6.9491029011e-05
visually 0.0
contrary 8.43447688495e-05
immediate 0.000138982058022
politico 0.0
ignoring 6.6683908955e-05
judges 0.00012729092706
federal 6.23314932541e-05
constant 0.0
philippines 0.0
nicely 0.0
september 9.36457494017e-05
manchester 6.06565272983e-05
fiction 6.69295405073e-05
priest 0.0
angela 0.0
process 0.000212652490081
destructive 0.0
genuine 0.000120905922755
surreal 0.0
whitehouse 7.19780471401e-05
flotus 0.0
crisis 5.12864453095e-05
judgement 0.0
confidence 5.22240544741e-05
voters 0.000228680985891
diamondandsilk 0.0
oldest 0.0
inauguration 7.05734959375e-05
gracious 8.15529477707e-05
scream 0.000210898682574
postponed 0.0
disappoint 0.0
believing 6.74263097931e-05
hillaryclinton 0.0
electoral 0.0
crashed 0.0
citizenship 0.0
closed 0.0
religious 0.0
apprentice 0.0
conservative 0.000123809566504
economists 0.0
buzzfeed 0.0
puppet 9.22957901411e-05
sweden 0.0
andersoncooper 0.0
treats 0.000142256448366
qualified 0.000142818188818
missouri 0.0
cooper 7.08497043631e-05
debates 0.0
endorsements 0.000110009522047
strike 5.12864453095e-05
shouting 0.0
empire 0.0
encouraged 0.0
regard 0.0
concerning 0.0
misinformed 0.0
disregard 0.0
barack 7.40496531927e-05
joined 0.000164101098018
terrorism 0.000132880153835
pushing 0.0
cracking 0.0
muhammad 0.0
refused 0.0
amazingly 0.0
express 5.159605614e-05
gratitude 0.0
congratulation 0.0
throughout 0.0
shining 6.74263097931e-05
fighter 0.0
anticipated 0.0
presented 0.0
reveal 9.72447798635e-05
stands 4.62881977523e-05
native 0.0
harvey 8.15529477707e-05
featured 0.000104765846299
announce 0.000154915959951
surround 0.0
although 0.000108701919752
senior 5.22240544741e-05
todayshow 0.0
convincingly 0.000142355884231
haters 0.0
returning 5.69868690157e-05
laughs 0.0
touched 0.0
corruption 0.0
violence 9.7816164046e-05
runnin 0.0
delivered 0.0
owning 0.0
legendary 0.000160057191753
stabbing 0.000121752449139
independence 0.0
approval 0.0
magical 6.25469174642e-05
alongside 0.0
percent 0.000122966949575
spiral 0.0
differently 7.02995608581e-05
sweeping 0.0
spoiler 7.00278620083e-05
theirs 0.0
offering 0.0
remembering 0.0
floated 0.000130484699084
professionals 0.0
construction 0.0
searching 0.0001286448554
flexibility 0.0
sinking 0.0
detail 6.12748037324e-05
document 0.0
cabinet 6.71769983332e-05
pleased 0.0
carrying 0.0
statements 0.0
decade 0.000104131881045
prague 0.0
crossing 0.000157954586613
bigotry 0.0
happily 0.0
therefore 7.46660212571e-05
belong 7.02995608581e-05
customs 0.0
trillion 0.0
backed 0.0
electricity 0.0
observing 0.0
russell 0.00044866667735
engineers 0.0
operations 0.0
values 0.0
senator 6.89627175332e-05
confirms 0.0
removing 0.0
payment 0.0
consistently 0.0
posing 8.39313110572e-05
everett 0.0
wondered 6.43224277e-05
generic 0.0
fields 0.0
mining 0.0
newspaper 0.0
detailed 0.0
rainbow 6.81856489854e-05
childcare 0.0
unlimited 0.0
exploded 0.0
thoroughly 0.0
adviser 0.0
leaves 9.66782585842e-05
matthew 0.0
intersection 0.0
affected 0.0
newspapers 0.0
corporate 0.000141146991875
economy 0.0
explores 0.0
spoken 5.57307605376e-05
during 0.0
credible 8.56168825813e-05
competitive 0.0
carefully 7.22662127867e-05
returned 0.00013096445764
blasts 0.0
guarding 0.000248833009033
hornet 0.0
successfully 7.31459888798e-05
southern 0.0
dakota 0.0
belief 0.0
messenger 0.0
heroes 0.000152482089641
russians 0.0
intelligence 0.0
deepest 0.0
graduates 0.0
describe 4.83391292921e-05
hollywood 0.0
reclaim 0.0
equality 0.000180148581159
announcement 0.0
interfere 0.00010424253247
interrupted 0.0
nationwide 0.0
questionable 0.000182511228205
garden 4.9780173599e-05
survey 0.0
journalists 0.000119301848787
delighted 6.9491029011e-05
minister 0.0
golfer 0.0
capital 0.000360297162318
penguins 0.0
regarding 6.1693462388e-05
teachers 0.0
devastated 8.73923928171e-05
phrase 6.25469174642e-05
immigrants 6.97583631733e-05
aliens 0.0
subjects 0.0
revolution 0.0
median 0.0
twelve 9.17716387688e-05
releases 0.0
accomplish 0.0
debbie 0.0
sebastian 0.000107414733967
briefing 0.0
advisor 0.0
commission 0.0
deadlines 0.0
hereby 0.0
invitation 0.0
alternatives 8.87890840777e-05
villages 0.0
accepted 0.0
commentators 9.62159539969e-05
depression 0.0
comprehensive 0.0
committees 0.0
pushed 0.0
statistic 0.0
donation 5.64427218937e-05
electronic 0.0
nomination 0.0
britain 0.0
questioning 0.0
attempt 0.000285021184922
investment 0.0
terror 0.0
homeland 0.0
polish 0.0
switzerland 0.0
represents 6.84426612607e-05
announcer 0.0
churchill 0.0
ambassadors 0.0
anchors 0.0
endorse 7.22662127867e-05
urgent 0.0
forced 0.000102265426569
expenses 0.0
preparations 0.0
string 0.000153173445644
morocco 0.0
thrill 0.0
watchdog 0.0
agencies 0.0
scrutiny 0.0
glorious 6.43224277e-05
approaching 0.0
tragedy 0.000109381168998
handled 0.0
offers 0.0
requested 0.0
improvements 0.0
destroying 7.31459888798e-05
inexpensive 0.0
opposition 0.000134852619586
smithsonian 0.0
addiction 0.0
challenged 0.0
manhattan 0.0
richmond 0.0
forces 0.0
nations 0.0
anderson 0.000200788621522
builds 8.64927995609e-05
sexist 8.04246049938e-05
narrative 0.0
application 0.0
cannon 0.000183543277538
ethical 0.0
representation 0.0
obvious 0.000169328165681
statistics 0.0
military 5.19085741569e-05
housing 0.000137403347303
wonderfully 0.0
miller 0.000180751898842
copying 0.00011092144003
advised 0.0
ordered 0.000147155558933
unions 0.0
useless 0.0
alicia 0.0
economic 6.08613459401e-05
radical 0.0
planted 0.0
theories 8.23270041529e-05
conceived 0.0
readers 0.0
bombing 0.0
products 0.0
phenomena 0.0
classroom 0.0
classified 0.0
purely 0.0
hacked 0.0
taxpayers 0.000177578168155
opposed 0.0
pressing 0.0
russia 0.0
abraham 0.0
lincoln 0.0
observer 0.0
intelligent 0.0
lawsuit 0.0
detective 0.0
magnificent 0.0
heritage 7.89772933063e-05
beloved 0.00014395609428
dignity 0.0
priorities 0.0
repealing 0.0
murdoch 0.0
coalition 0.0
theresa 7.86250897628e-05
charges 7.00278620083e-05
activists 0.0
elected 0.0
relief 0.000110760821463
congratulates 0.0
pledge 0.0
elections 0.0
landslide 0.0
council 0.0
imperative 0.0
catastrophic 0.0
douglas 0.0
brexit 0.0
democracy 5.84829826536e-05
disastrous 0.0
rebuild 8.04246049938e-05
pundits 9.99878640474e-05
nickname 0.0
poison 0.0
interfering 0.0
negotiations 7.56125189047e-05
summit 0.0
dossier 0.0
unleash 0.0
negotiation 0.0
sticking 0.000130494025657
openly 0.0
embarrassed 0.0
ireland 0.0
attacks 0.0
remarks 0.0
democratic 0.0
outgoing 0.0
maureen 0.0
treasury 0.0
refugees 0.0
snatch 0.0
morgan 0.000200788621522
grieve 0.000111859049195
vicious 0.0
essentially 7.75903041079e-05
restoring 0.0
extended 0.0
referendum 0.0
ovation 0.0
bankrupt 0.0
proudly 0.0
oppose 7.46660212571e-05
refusal 0.0
urging 0.0
strengthen 0.0
deliver 5.28641304367e-05
negotiating 0.000159386165412
remaining 0.000205327983782
merkel 0.0
repeal 0.0
formal 8.04246049938e-05
reckless 8.11725673532e-05
prosperous 0.0
servant 0.0
desperate 6.34228344438e-05
secretaries 0.0
formally 0.0
breach 0.0
gloomy 0.0
outlines 0.0
concessions 0.000110009522047
executive 5.55551246457e-05
extend 7.28501387161e-05
republicans 6.79306061721e-05
terrorists 0.0
weapons 6.5013447489e-05
bodyguards 0.0
outrage 0.0
representative 0.0
prevail 0.0
searched 0.0
policemen 0.0
islamic 0.0
islamist 0.0
ingrained 0.0
humbled 0.0
courage 5.50337104686e-05
chamber 0.0
commander 0.0
formula 0.0
brigade 0.0
respecting 0.000106592891612
lectured 0.0
devices 0.0
enormous 0.0
verdict 0.0
refusing 0.0
energies 0.0
carried 0.0
behalf 0.0
tariff 0.0
amendment 0.0
nightmare 5.79140299227e-05
employment 0.0
legislation 0.0
referring 0.000132880153835
scrapping 0.0
handling 7.59340955538e-05
goodies 0.0
proves 0.000132396036439
prominently 0.0
crackdown 0.0
unfair 0.000138982058022
fiscal 0.0
humiliating 0.0
strongly 0.000197873121759
vision 4.93412715342e-05
resignation 0.0
confirmation 0.0
records 5.05247890909e-05
disabled 0.0
quoting 7.96930827059e-05
reductions 0.0
deeply 0.0
commerce 0.0
accumulation 0.0
overplaying 0.0
refugee 0.0
conway 0.0
exposed 6.79306061721e-05
netanyahu 0.0
israeli 0.0
priority 0.0
strongest 0.000149332042514
freedoms 0.0
treaties 0.0
empowering 0.0
laughter 0.0
syrian 0.0
uphold 0.0
praising 0.0
renewal 0.0
penned 0.0
condemns 0.0
realdonaldtrump 0.0
goodwill 0.0
attorney 0.0
settled 0.0
chairman 0.0
capability 0.0
firing 0.00014395609428
seanspicer 0.0
inaugural 0.0
carnage 0.0
optimism 0.0
rulers 0.0
clintons 0.0
melania 0.0
bikers 0.0
handing 0.0
intended 0.0
optimistic 0.0
campaigned 0.0
finance 7.69178989303e-05
allies 0.0
compromised 0.0
governor 0.0
bosses 8.15529477707e-05
attempts 0.000327411144099
irresponsible 0.0
incidents 9.22957901411e-05
merely 0.0
documents 0.0
tariffs 0.0
purpose 5.09796880756e-05
architect 0.0
arlene 0.0
resign 0.0
reuters 0.0
mainstream 0.0
dozens 0.0
donnell 0.0
clarified 0.0
gathering 0.0
crimes 0.000148099306385
vulnerable 0.0
commentator 0.000102047258423
overwhelmingly 0.0
respectful 0.0
markets 0.0
inspector 0.0
nigel_farage 0.0
drudge 0.0
abused 0.0
infrastructure 7.86250897628e-05
projected 0.000188958119053
boards 0.0
allegations 0.0
bloomberg 0.0
insulting 0.0
leaking 9.12556141025e-05
liberal 6.23314932541e-05
chairs 0.0
podium 9.62159539969e-05
conceded 0.000123057829164
capitol 0.0
consulting 0.000107414733967
wannabe 0.0
powell 9.33695259752e-05
reforms 0.0
technical 0.0
securing 0.0
steven 6.71769983332e-05
rumsfeld 0.0
businesses 0.0
balancing 0.0
socialist 0.0
complaints 0.0
politician 0.0
representatives 0.0
rallies 0.0
belittle 0.0
ballot 0.000138982058022
failing 0.00017895277318
refuses 7.11282241831e-05
conclude 0.0
vibrant 0.0
tarmac 0.0
spinning 7.79316704263e-05
appointments 0.0
farewell 0.0
opponents 0.000144532425573
unopposed 0.0
polling 7.16923550489e-05
prosperity 0.0
apology 0.0
outline 0.0
losers 7.75903041079e-05
battlefield 0.0
abandoned 0.0
endorsed 0.0
negotiate 0.0
negotiated 0.0
unwilling 0.0
appointed 0.0
slaughter 0.0
betray 0.0
donated 0.0
immigrant 7.79316704263e-05
prosecuted 0.0
criminals 0.0
elizabethforma 0.0
protesting 8.43447688495e-05
releasing 6.89627175332e-05
screening 6.45511772208e-05
sponsor 0.0
pocketbook 0.0
transparency 0.0
austin 0.000124662986508
obamacare 0.0
acceptable 0.0
schwarzenegger 0.0
congressman 0.0
profits 7.52940195912e-05
toward 0.0
fleeing 0.0
bravery 0.0
protests 7.65867228221e-05
recieved 0.0
violent 6.9491029011e-05
remarkably 0.0
senators 0.0
ratings 0.0
spouses 0.0
fundraiser 7.08497043631e-05
senate 0.000136371297971
louisiana 0.0
giuliani 0.0
venezuela 0.0
parenthood 9.17716387688e-05
organizations 8.69395569301e-05
generations 0.0
minorities 0.0
underestimate 0.0
terrified 7.96930827059e-05
discourse 0.0
pennsylvania 0.0
hackers 0.0
nbcnews 0.0
mccain 0.0
scandal 0.0
constitution 0.0
sensanders 0.0
abandon 8.73923928171e-05
explode 0.0
reopening 0.0
governments 0.0
competent 0.0
mike_pence 0.0
stinks 0.000198657549406
logical 8.31194921701e-05
accurately 0.0
righteous 0.0
thursdays 0.0
fitting 0.0
category 0.0
swearing 0.0
politifact 0.0
abolish 0.0
surging 0.0
murders 0.0
reagan 0.0
vetting 0.000102763047823
vetted 0.0
pouring 0.0
fraudulent 0.0
ballots 0.0
fading 0.0
speakerryan 0.0
civilized 0.0
commercials 0.000153835797861
luxurious 0.0
outraged 0.0
nypost 0.0
statute 0.0
enforcement 0.0
accountability 0.0
truthful 0.0
springfield 0.0
cancelled 6.32016846317e-05
conflicts 0.0
suffer 0.0
selfishly 0.0
educational 0.0
stolen 0.0
visionary 0.0
wounds 0.0
disgraceful 0.0
hatred 0.0
persuasion 0.0
exposing 0.0
teaches 0.0
sellers 0.0
refers 9.02469634503e-05
trusted 0.0
sheriff 0.0
samsung 0.0
ranking 0.000170374839071
undecided 0.0
nebraska 0.0
abusive 9.44790595263e-05
abuser 0.0
nashville 0.0
lightweight 0.0
victories 9.56268603128e-05
consumer 0.0
violation 0.0
sarcasm 0.0
freaky 0.0
jimmyfallon 0.0
outlets 7.59340955538e-05
vanityfair 0.0
harassed 0.0
leverage 0.000408189033694
sacred 0.0
horrific 0.0
contribute 6.9491029011e-05
indicted 0.0
chooses 0.0
defended 0.0
champion 5.30260914584e-05
waited 6.97583631733e-05
denmark 0.0
conviction 0.0
retail 0.0
distract 0.0
globes 0.0
endorsing 0.0
pathetic 0.0
purposely 0.0
expose 0.0
representing 0.0
mmflint 0.0
registration 0.0
acceptance 0.0
defeated 0.0
prosecutor 0.0
nbcsnl 0.0
nevada 0.0
illinois 9.07474679838e-05
massachusetts 0.0
spontaneous 0.0
entrepreneur 0.0
arkansas 0.0
hotels 0.0
exhausted 8.35229264947e-05
puppets 0.0
protesters 0.0
natalie 0.0
anaheim 0.00010424253247
nominating 0.0
vietnam 0.0
claimed 0.0
indianapolis 9.44790595263e-05
loudly 0.0
sarasota 0.0
rapids 0.0
oklahoma 0.000153173445644
devoted 0.0
sacramento 9.74263755437e-05
arranged 0.0
baldwin 9.07474679838e-05
crushed 0.0
reflects 0.0
replacing 0.0
louder 0.0
flashback 0.0
farmers 0.0
unleashed 0.0
tourists 0.0
steals 0.0
albany 0.0
devastation 0.0
meantime 0.0
donlemon 0.0
wilbur 0.0
finalists 0.0
ransom 0.0
normmacdonald 0.0
vanishing 0.0
clarence 0.0
jaketapper 0.000191253720626
clowns 0.0
elizabeth 0.0
microphone 0.000193631325102
machines 0.0
premium 0.0
championships 0.000179507748144
impersonation 0.000231796586815
horribly 9.22957901411e-05
stakes 8.27208895105e-05
mouthed 0.0
reservation 0.0
delaware 0.000105007690864
springs 0.0
columbus 0.0
slackers 0.0
toyota 0.0
chucktodd 0.0
correspondents 0.0
soldier 0.0
panels 9.39196694802e-05
broadcasting 0.0
sparks 0.0
warned 6.71769983332e-05
jclayfield 0.000176624629318
kellogg 0.0
anchor 0.0
heated 0.0
congressional 0.0
boeing 0.0
usatoday 0.0
endlessly 0.0
craziest 0.0
viewers 0.0
delivers 0.0
pittsburgh 0.0
marshal 0.00012583301294
reverend 0.0
lifelong 0.0
disdain 0.0
hispanic 0.0
defrauded 0.0
oppression 0.0
crowds 0.0
washingtonpost 7.19780471401e-05
affordable 0.0
tapping 0.0
ginsburg 0.0
reilly 0.0
illegally 0.000198657549406
shootings 0.0
destiny 0.0
serenawilliams 0.0
motors 0.0
redding 0.0
initially 0.0
travis 0.0
accomplishments 0.0
misconduct 0.0
mocked 0.0
disgrace 0.0
greeley 0.0
carmel 0.0
outcry 0.0
playbook 0.0
zealand 0.0
fearless 0.0
lining 0.0
sidekick 0.0
madame 0.0
grandstand 0.0
rochester 0.0
speechless 0.0
fletcher 0.0
begged 0.0
wintour 0.0
inspires 0.0
carlos 0.0
missiles 0.0
chelsea 7.14090944092e-05
oppressive 0.0
forgiven 0.0
killings 0.0
taiwan 0.0
somalia 0.0
burning 0.000117349631202
subscribers 9.02469634503e-05
chester 0.0
newtown 0.0
booker 0.000101346539399
heights 0.0
leicester 0.00107169013098
chiefs 0.000506068613097
joenbc 0.0
opioid 0.0
separately 0.0
intros 0.000127312497587
columnist 0.0
manages 0.0
financed 0.0
mnuchin 0.0
delegate 0.0
vicente 0.0
struck 0.0
trudeau 0.000102047258423
oreillyfactor 0.0
vulgarian 0.0
publicity 0.0
amnesty 0.0
ivankatrump 0.0
communism 0.0
linkedin 0.0
avoided 0.0
sophisticated 0.0
seanhannity 0.0
anncoulter 0.0
foolish 0.0
catholics 0.0
bogged 0.0
catholic 0.0
thriving 0.0
newtgingrich 0.0
abedin 0.0
secretly 7.62588095857e-05
undermines 0.0
americanism 0.0
christians 0.0
rationally 0.0
deplorable 0.0
wikileaks 0.0
execution 0.0
enduring 0.0
foxandfriends 0.0
losses 0.000140055724017
kevcirilli 0.0
staffers 0.0
barron 0.0
jihadis 0.0
hampshire 0.0
pandering 0.0
donaldjtrumpjr 0.0
moines 0.0
lobbying 0.0
careless 0.0
piersmorgan 0.0
palestinian 0.0
kellyanne 0.0
democrat 0.0
unfunny 0.0
condemned 0.0
despair 0.0
louvre 0.0
crooked 0.0
lynden 0.0
outperform 0.0
tedcruz 0.0
majors 0.0
schumer 0.0
credibility 0.0
flooding 0.0
hannity 0.0
beneficiary 0.0
sanctions 0.0
nominates 0.0
existent 0.0
criticized 9.74263755437e-05
senatemajldr 0.0
workforce 0.0
issued 0.0
outsider 0.0
declare 0.0
ivanka 0.0
dignified 0.0
threaten 7.69178989303e-05
outcomes 0.0
ukraine 0.0
justintrudeau 0.000315023072593
vladimir 0.0
businessman 0.0
regards 9.93287747028e-05
assange 0.0
malicious 0.0
garners 0.0
ethics 0.0
wrecked 0.0
regimes 0.0
incorrectly 0.0
hostile 0.0
defenders 0.000102763047823
deceived 0.0
hypocritical 0.0
favorably 0.0
shatter 0.0
changer 0.0
spokane 0.0
unnecessary 0.0
cwaunion 0.0
expand 0.0
apologized 0.0
criticizing 0.000107414733967
legion 0.0
hershey 0.0
intensity 0.0
tigerwoods 0.0
amercan 0.0
reince 0.0
chriscjackson 0.0
hypocrites 0.0
billkristol 0.0
govmikehuckabee 0.0
dustin 0.0
bullied 0.0
anonymous 0.00014629197776
yankees 0.0
thehill 0.0
infiltrated 0.0
somali 0.0
invention 0.0
frontrunner 0.0
patriot 9.44790595263e-05
poorly 7.56125189047e-05
prisonplanet 0.0
daytona 0.0
comparable 0.0
shouted 0.0
holocaust 0.0
kellyannepolls 0.000121752449139
foxnews 0.0
initiated 0.0
tiffany 0.0
mikeandmike 0.0
barbara 7.86250897628e-05
litigation 0.0
frankcaliendo 0.0
toughness 0.0
suffered 0.0
streep 0.000105007690864
billionaire 0.0
percentage 7.62588095857e-05
insiders 0.0
premiums 0.0
congratulatory 0.0
treasurer 0.0
incompetence 0.0
delegates 0.0
rollout 0.0
appalled 0.0
misquoted 0.0
pledged 0.0
demanded 0.0
andrews 0.0
lowlife 0.0
courageous 0.0
betrayed 0.000102763047823
horrors 0.0
warheads 0.0
pledges 0.0
interrupts 0.0
blacks 0.0
elaine 0.0
candidacy 0.0
discredited 0.0
cringing 0.0
estates 0.0
laughable 0.0
aberdeen 0.0
healed 0.0
floods 0.0
swiftly 0.0
cheryl 0.0
syracuse 0.0
difficulties 0.0
flipping 0.0
wilkes 0.0
lisbon 0.0
suckers 0.0
golfdigest 0.0
jeffrey 0.0
sixteen 0.0
scandals 0.0
circuits 0.0
regulations 0.0
monitoring 0.0
swamped 0.0
costing 0.0
detained 9.50480122572e-05
warmest 0.0
marginalize 0.0
miners 0.0
unemployment 0.0
paragon 0.0
obsolete 0.0
subsidies 0.0
exercised 0.0
evangelicals 0.0
franklin 0.0
molten 0.0
servers 0.0
billgates 0.0
excessive 0.0
coordinated 0.0
geneva 0.0
soaring 0.0
unsecured 0.0
corporations 0.0
rifles 0.0
innovative 0.0
pillar 0.0
bashing 0.0
organize 0.0
panelists 0.0
frontiers 0.0
pricing 0.0
platforms 0.0
scaling 0.0
pretends 0.0
forensic 0.0
roundtable 0.0
inherit 0.0
fabrication 0.0
brewer 0.000120496340661
unaffordable 0.0
reinforcing 0.0
eventful 0.0
wasserman 0.0
lindsey 0.0
billclinton 0.0
upstate 0.0
empowerment 0.0
penalties 0.000380192049029
responders 0.0
civilization 0.0
occupy 0.0
approximately 0.000206989140222
knight 0.0
homeownership 0.0
scratched 0.0
screws 0.0
contractor 0.0
havana 0.0
lowering 0.0
foundations 0.0
revitalize 0.0
counters 0.0
foreclosed 0.0
renovated 0.0
delaying 0.0
employer 0.0
executed 0.0
subpoena 0.0
grifters 0.0
cincinnati 0.0
disgraced 0.0
falsely 0.0
strengthening 0.0
abcworldnews 0.0
skyrocketing 0.0
pipelines 0.0
likewise 9.17716387688e-05
dishonest 0.0
surges 0.0
woefully 0.0
pressured 0.00012583301294
erratic 0.0
temperament 0.0
emboldened 0.0
keystone 0.0
mandated 0.0
crumbling 0.0
johnkasich 0.0
latinos 0.0
combating 0.0
incompetent 0.0
loopholes 0.0
incapable 0.000108257384652
unqualified 0.0
melaniatrump 0.0
recount 0.0
voluntarily 0.0
desperation 0.0
denounce 0.0
demoralized 0.0
incited 0.0
fawning 0.0
accuser 0.0
electing 0.0
patrol 0.000214829467933
connecticut 0.0
amounts 0.0
govpencein 0.0
squandered 0.000140059599714
enforce 0.0
epipens 0.0
deplorables 0.0
generals 0.0
timkaine 0.0
benghazi 0.0
moderators 0.0
sheriffclarke 0.0
unfairly 0.0
competence 0.0
dysfunctional 0.0
eleventh 0.0
instructed 0.0
restrict 0.0
battleground 0.0
jilted 0.0
blazing 0.0
hypocrite 0.0
mcconnell 0.0
circulated 0.0
flailing 0.0
pathological 0.0
deflect 0.0
undoing 0.0
predictable 0.0
phoney 0.0
perils 0.0
governing 0.0
likeable 0.0
tumble 0.0
praised 9.62159539969e-05
extraordinarily 0.0
jinping 0.0
trashes 0.0
knowingly 0.0
disloyal 0.0
woodward 0.0
magnificently 0.0
pretended 0.0
slaughtered 0.0
climber 0.0
americ 0.0
unprofessional 0.0
diplomats 0.0
resulted 0.0
crossroads 0.0
syrians 0.0
suppress 0.0
remembrance 0.0
infighting 0.0
castro 0.0
unquestionably 0.0
corrupted 0.0
kasich 0.0
readership 0.0
fraternal 0.0
frankluntz 0.0
demagogue 0.0
unanimous 0.0
bedford 0.0
longtime 0.0
complexities 0.0
dailymail 0.0
couric 0.0
cancelling 0.0
morningmika 0.0
concord 0.0
recounts 0.0
shouldered 0.0
patmccrorync 0.0
executives 0.000103494570111
westfield 0.0
graydon 0.0
sheldon 0.0
tanking 0.000128860819745
morning_joe 0.0
fabricated 0.0
corolla 0.0
groveling 0.0
unfolding 0.0
polled 0.0
influx 0.0
underachieving 0.0
antics 0.00011092144003
disenfranchised 0.0
golfing 0.000109121924799
xfinity 0.0
defies 0.0
fictitious 0.0
districts 0.0
vigilant 0.0
obstruction 0.0
rebuilding 0.0
preserving 0.0
passover 0.0
dhsgov 0.0
thejusticedept 0.0
repealed 0.0
intends 0.000121752449139
wildfires 0.0
usedgov 0.0
fresno 0.0
usnavy 0.0
scotus 0.0
tillerson 0.0
ineffective 0.0
senjohnmccain 0.0
cbsnews 0.0
lawsuits 0.0
caucus 0.0
shimon 0.0
wilmington 0.0
stagnant 0.0
gouging 0.0
baghdad 0.0
wiesel 0.0
obstruct 0.0
gonzalo 0.0
curiel 0.0
hostage 0.0
unnamed 0.0
truckers 0.0
boldly 0.0
scarborough 0.0
evangelical 0.0
cyberattack 0.0
marines 0.0
crimea 0.0
earners 0.0
oversaw 0.0
lobbyists 0.0
rosiegray 0.0
briefings 0.0
actresses 0.0
purchases 0.0
myanmar 0.0
heightened 0.0
shackles 0.0
perjury 0.0
dallaspd 0.0
respectfully 0.0
canton 0.0
approx 0.0
admirals 0.0
naples 0.0
brainwashed 0.0
albuquerque 0.0
supposedly 0.0
coliseum 0.0
greensboro 0.0
sheriffs 0.0
hostages 0.0
explorers 0.0
confidential 0.0
tamara 0.0
infested 0.0
depicted 0.000280119199429
devote 0.000124416504517
payroll 0.0
bombshell 0.0
advisers 0.0
watergate 0.0
mcmaster 0.0
renews 0.0
housegop 0.0
katyturnbc 0.0
pocahontas 0.0
wherein 0.0
shreds 0.0
pelosi 0.0
chrysler 0.0
collusion 0.0
deductibles 0.0
repmarkmeadows 0.0
darrellissa 0.0
insurer 0.0
dishonesty 0.0
hotlinejosh 0.0
quinnipiacpoll 0.0
apologizing 0.0
priebus 0.0
clapper 0.0
tapped 0.0
operatives 0.0
senschumer 0.0
marcorubio 0.0
viciously 0.0
leakers 0.0
bangladesh 0.0
favorable 0.000124416504517
nbcnightlynews 0.0
lockheed 0.0
untruthful 0.0
resonating 0.0
transferring 0.0
staten 0.0
humana 0.0
juanita 0.0
senses 0.0
stimulate 0.0
drooling 0.0
lakeland 0.0
burying 0.0
crafted 0.000108257384652
misrepresent 0.0
fabled 0.0
railing 0.0
billyjoel 0.0
sniper 0.000121752449139
cnnsotu 0.0
independents 0.0
detroitnews 0.0
foxbusiness 0.0
washtimes 0.0
realbencarson 0.0
meetthepress 0.0
newday 0.0
thebrodyfile 0.0
bostonherald 0.0
foxnewssunday 0.0
thefive 0.0
chriscuomo 0.0
randpaul 0.0
dcexaminer 0.0
facethenation 0.0
bretbaier 0.0
interruption 0.0
allenwest 0.0
cvpayne 0.0
dailycaller 0.0
prosecution 0.0
ballistic 0.0
vetoed 0.0
gettysburg 0.0
groping 0.0
brennan 0.0
nielson 0.0
justices 0.0
operative 0.0
surged 0.0
megynkelly 0.0
terminated 0.0
softbank 0.0
fronting 0.0
rigging 0.0
reprieve 0.0
pocketed 0.0
colluded 0.0
coffers 0.0
stairway 0.0
ellison 0.0
selflessly 0.0
tornadoes 0.0
levine 0.0
scranton 0.0
enslave 0.0
inappropriately 0.0
devalue 0.0
presumptive 0.0
fournier 0.0
terminate 0.0
reptommarino 0.0
kimberly 0.0
subscriptions 0.0
ingrahamangle 0.0
trajectory 0.0
natalie_gulbis 0.0
unheard 0.0
objectified 0.0
turnberry 0.0
djohnsonpga 0.0
bedminster 0.0
golf_com 0.0
elevation 0.0
litany 0.0
unaccountable 0.0
primaries 0.0
disrupter 0.0
runways 0.0
hashanah 0.0
unenthusiastic 0.0
undecideds 0.0
richardtrumka 0.0
renegotiate 0.0
rapists 0.0
aldridge 0.0
unsubstantiated 0.0
misrepresented 0.0
prisoner 0.0
mattis 0.0
weakening 0.0
endakennytd 0.0
taoiseach 0.0
lifeboat 0.0
enabler 0.0
emanated 0.0
lindseygrahamsc 0.0
renegotiating 0.0
waterville 0.0
zucker 0.0
berglund 0.0
suboptimal 0.00016098153412
steelworkers 0.0
postpone 0.0
mohammed 0.0
indignant 0.0
comprised 0.0
stupidest 0.0
exxonmobil 0.0
precluded 0.0
instruct 0.0
gonzales 0.0
scorned 0.0
davidmuir 0.0
harrisburg 0.0
caesars 0.0
borisep 0.0
lapierre 0.0
limbaugh 0.0
petraeus 0.0
phyllis 0.0
illegals 0.0
sanctity 0.0
neurotic 0.0
negligence 0.0
alvarez 0.00012583301294
roseanne 0.0
roanoke 0.0
theleegreenwood 0.0
mcallen 0.0
deduct 0.0
chokes 0.0
vigilance 0.0
pensacola 0.0
tuckercarlson 0.0
repcummings 0.0
windham 0.0
teleprompter 0.0
paulareidcbs 0.0
jeffzeleny 0.0
condoleezza 0.0
genflynn 0.0
donaldtrump 0.0
demeanor 0.0
baiting 0.0
plotted 0.0
aptitude 0.0
billings 0.0
approving 0.0
disconnected 0.0
superstorm 0.0
brainpower 0.0
exclaim 0.0
skyrocketed 0.0
globalism 0.0
israelipm 0.0
insurgent 0.0
sneers 0.0
unrest 0.0
scaramucci 0.0
disapproval 0.0
katiepavlich 0.0
overflow 0.0
warped 0.0
scottwalker 0.0
kirstenpowers 0.0
usarmy 0.0
schlafly 0.0
alisonforky 0.0
oppresses 0.0
pedantic 0.0
highness 0.0
benefitted 0.0
fundraisers 0.0
shinzo 0.0
augustine 0.0
ranchers 0.0
middletown 0.0
fiorina 0.0
pueblo 0.0
lindasuhler 0.0
lightweights 0.0
kimguilfoyle 0.0
perdue 0.0
unmasked 0.0
unmasking 0.0
judgejeanine 0.0
boycotted 0.0
outnumberedfnc 0.0
jessebwatters 0.0
podesta 0.0
kristol 0.0
interruptions 0.0
broaddrick 0.0
erictrump 0.0
outspending 0.0
irredeemable 0.000176624629318
begala 0.0
brazile 0.0
dinesh 0.0
markings 0.0
ericbolling 0.0
loudobbs 0.0
skyrocket 0.0
blumenthal 0.0
cochran 0.0
imploding 0.0
discord 0.0
jeffflake 0.0
davidwohl 0.0
bribery 0.0
repkenbuck 0.0
joshrogin 0.0
enrique 0.0
unverified 0.0
retribution 0.0
dwindling 0.0
automobile 0.0
teamtrump 0.0
subpoenaed 0.0
danscavino 0.0
joniernst 0.0
scottadamssays 0.0
senatorfischer 0.0
tabulation 0.0
trafficked 0.0
depict 0.0
unrelenting 0.0
imitating 0.0
dutchess 0.0
adelson 0.0
valuing 0.0
ricksantorum 0.0
chuckgrassley 0.0
laraleatrump 0.0
abingdon 0.0
equating 0.0
ministries 0.0
brzezinski 0.0
sentedcruz 0.0
jamesrosenfnc 0.0
leaker 0.0
realjameswoods 0.0
jim_jordan 0.0
marshablackburn 0.0
boynton 0.0
betsydevos 0.0
lawfare 0.0
larry_kudlow 0.0
stranahan 0.0
waynedupreeshow 0.0
phillypolice 0.0
scottwrasmussen 0.0
johnstown 0.0
raul_labrador 0.0
statewide 0.0
reviewjournal 0.0
oppress 0.0
underlings 0.0
bankrupted 0.0
collude 0.0
fayetteville 0.0
disqualifying 0.0
mahoning 0.0
disloyalty 0.0
americanlegion 0.0
bankruptcies 0.0
morell 0.0
ambridge 0.0
emboldens 0.0
asheville 0.0
grievous 0.0
ricketts 0.0
benefactor 0.0
dwyane 0.0
markhalperin 0.0
mayorbowser 0.0
unverifiable 0.0
savaged 0.0
wheeling 0.0
technocratic 0.0
countr 0.0
thealabamaband 0.0
relives 0.0
unwatchable 0.0
residences 0.0
gatekeeper 0.0
defections 0.0
senatorsessions 0.0
drmoore 0.0
honorably 0.0
billhemmer 0.0
shultz 0.0
aflcio 0.0
trucking 0.0
fabrications 0.0
malleable 0.0
misrepresents 0.0
decimated 0.0
arabella 0.0
mishandled 0.0
interfe 0.0
speach 0.0
iranians 0.0
fraudulently 0.0
enablers 0.0
dealmaker 0.0
terrori 0.0
anarchists 0.0
krzanich 0.0
foxnation 0.0
permeated 0.0
overruns 0.0
disposed 0.0
inaccurately 0.0
peebles 0.0
conditioners 0.0
classifie 0.0
forewarned 0.0
karlrove 0.0
palazzo 0.0
evansville 0.0
rebroadcast 0.0
bangor 0.000150382462704
secpricemd 0.0
realdonaldtru 0.0
uschamber 0.0
trumpinaugural 0.0
rawlings 0.0
churchillian 0.0
hemmer 0.0
rudygiuliani 0.0
pynance 0.0
terrybranstad 0.0
cbnnews 0.0
faithandfreedom 0.0
ovations 0.0
scpioneer 0.0
dwstweets 0.0
tgowdysc 0.0
bluffs 0.0
marist 0.0
spluttering 0.0
thetodaysgolfer 0.0
thebig_easy 0.0
hoosier 0.0
senbobcorker 0.0
larsloekke 0.0
roadblocks 0.0
manheim 0.0
greenblatt 0.0
jtanews 0.0
mitchellvii 0.0
bemoan 0.0
michiga 0.0
gennifer 0.0
gulbis 0.0
liyuan 0.0
enlisting 0.0
ainsleyearhardt 0.0
stevedoocy 0.0
foxfriendsfirst 0.0
pastormarkburns 0.0
marksimoneny 0.0
gov_gilmore 0.0
flunky 0.0
agitators 0.0
overdoses 0.0
liliantintori 0.0
leopoldo 0.0
traceadkins 0.0
gopconvention 0.0
governorsununu 0.0
laconia 0.0
teamsters 0.0
gatewaypundit 0.0
lawyerly 0.0
dissipates 0.0
realjeffreylord 0.0
nytimesdowd 0.0
scalise 0.0
straightening 0.0
energizer 0.0
montgomeriefdn 0.0
shulkin 0.0
ericgreitens 0.0
circuited 0.0
govbrewer 0.0
infringed 0.0
mcgarvey 0.0
republicanstudy 0.0
americafirstpol 0.0
fheile 0.0
phadraig 0.0
wiedefeld 0.0
coddington 0.0
kravis 0.0
fighterjet 0.0
shinzō 0.0
votestand 0.0
romoabcnews 0.0
moskowitzeva 0.0
drgoodspine 0.0
levisteveholt 0.0
untrusting 0.0
sleazebag 0.0
lbperfectmaine 0.0
timken 0.0
newhouse 0.0
evancho 0.0
franklin_graham 0.0
eazymf_e 0.0
busineses 0.0
substantialy 0.0
rexnord 0.0
sdcritic 0.0
highonhillcrest 0.0
fiiibuster 0.0
koster 0.0
saucier 0.0
t_lineberger 0.0
cissieglynch 0.0
saysgabrielle 0.0
ravenrantz 0.0
mayorrgiuliani 0.0
deplorablecbtp 0.0
tanden 0.0
keithrowland 0.0
kinston 0.0
sjsopio 0.0
aztrumptrain 0.0
therealmogul 0.0
unclassify 0.0
firebombed 0.0
wikileakes 0.0
davidshiloach 0.0
trumpwomenstour 0.0
mistreats 0.0
willey 0.0
dornsife 0.0
henryleledog 0.0
eericmyers 0.0
atensnut 0.0
arouses 0.0
anyonetennis 0.0
flifeforce 0.0
geeveem 0.0
susiesentinel 0.0
bcuzimdamomma 0.0
freedavidking 0.0
ifdanyt 0.0
arsenmissyirvin 0.0
nycmia 0.0
bigdog_joey 0.0
roadkingl 0.0
decieved 0.0
waukesha 0.0
creati 0.0
thallensboucher 0.0
kenansville 0.0
tarukmatuk 0.0
angpiazza 0.0
laughingstock 0.0
ak_tweet 0.0
kiiara 0.0
jerryjrfalwell 0.0
ghfanlovessonny 0.0
bishopwtjackson 0.0
cynthialummis 0.0
repreneeellmers 0.0
trumpdc 0.0
stvzbnk 0.0
bakari 0.0
adhd_fa 0.0
parisdennard 0.0
ronnieclemmons 0.0
takouis 0.0
lblackvelvet 0.0
chernuna 0.0
annebellar 0.0
presidencies 0.0
rsbnetwork 0.0
meequalsfree 0.0
pmnorlando 0.0
rhondar 0.0
patrici 0.0
lindaharden 0.0
trumpocrats 0.0
lewenskimo 0.0
trump_videos 0.0
sinabunz_tm 0.0
eyecandytmgayle 0.0
catonglass 0.0
billynungesser 0.0
samaritanspurse 0.0
zulu_out 0.0
willspeakout 0.0
laurencristmann 0.0
c_lynne_ryan 0.0
enemywithinn 0.0
elsolarverde 0.0
creats 0.0
dbongino 0.0
bongino 0.0
carl_c_icahn 0.0
fieldoffight 0.0
reploubarletta 0.0
mainegop 0.0
gatewaypun 0.0
mechanicsburg 0.0
pnehlen 0.0
patrioticpepe 0.0
insticts 0.0
borderless 0.0
lallyray 0.0
glowingly 0.0
spinnnn 0.0
flamed 0.0
nancynielsenn 0.0
olimauritania 0.0
theresa_cali 0.0
roxanetancredi 0.0
litigate 0.0
trumpdoonbeg 0.0
berrien 0.0
nbcpolitics 0.0
jakeda 0.0
barrasso 0.0
bluedogdemky 0.0
iowa_trump 0.0
arnold_ziffel 0.0
patricia_graf 0.0
brazosboys 0.0
jimvitari 0.0
trumpturnberry 0.0
trumpscotland 0.0
darrenwaggener 0.0
allegrettivicki 0.0
justininglv 0.0
chrisboydbrew 0.0
votetrumpmaga 0.0
realericjallen 0.0
insinuated 0.0
clubgoers 0.0
ausbiz 0.0
freemarketsara 0.0
senatorjeffsessions 0.0
mabynshingleton 0.0
dale_dangler 0.0
nauthizjane 0.0
richardweaving 0.0
mariadaq 0.0
sara_wejesa 0.0
jimhewitt 0.0
joedefranco 0.0
wolfstopper 0.0
djd_thunder 0.0
excoriates 0.0
rapidcraft 0.0
telepromter 0.0
liliannyleebou 0.0
lunsfordwhitney 0.0
free_sa_bd 0.0
stockdaleism 0.0
admonished 0.0
nbcdfw 0.0
frankylamouche 0.0
sandiegopd 0.0
tombarrackjr 0.0
buiidthewall 0.0
pipersul 0.0
oasisupernova 0.0
jknatter 0.0
jasondovesq 0.0
ed_klein 0.0
overregulates 0.0
dubilujane 0.0
rbacliff 0.0
ltstevenlrogers 0.0
rowanne 0.0
shoneep 0.0
magicmetalninja 0.0
barbaro 0.0
michael_favreau 0.0
christichat 0.0
mai_ttag 0.0
thydanielflores 0.0
costakenneth 0.0
svhlevi 0.0
johnjohnlacca 0.0
ladytsbrug 0.0
frankdallasagg 0.0
ladyjoanne 0.0
gerriweth 0.0
longbyfive 0.0
wesleyfelixpsi 0.0
manakoa 0.0
ragdollive 0.0
xgodfatherxzx 0.0
trumptrainrider 0.0
aprillajune 0.0
takingit_back 0.0
distlerjoyce 0.0
queencharlotteo 0.0
kellyriddell 0.0
valdosta_monkey 0.0
daybastrop 0.0
nathandwilsonfl 0.0
mathewjmari 0.0
stupor 0.0
matandsher 0.0
edgoeas 0.0
lynnepatton 0.0
erictrumpfdn 0.0
mikeozanian 0.0
lexingtonbobby 0.0
annettejeanne 0.0
andrebauer 0.0
waterbury 0.0
greenskydeb 0.0
keksec__org 0.0
ashleyedam 0.0
trumptbird 0.0
herb_stamper 0.0
senfrankniceley 0.0
anneslimo 0.0
agentvf 0.0
hornick 0.0
gqforbes 0.0
governor_savage 0.0
carolde 0.0
fugedaboudit 0.0
dnglax 0.0
alexnightrasor 0.0
lilrachiepoo 0.0
