awesome 2.60446347428e-05
christmas 2.59740467875e-05
trying 0.000937579586842
moment 0.000117831005271
wonderful 0.0
seeing 7.22402590818e-05
recommend 0.0
anybody 0.0
worked 0.000228134180728
direct 3.31916016557e-05
others 0.000479017337323
currently 0.0
better 0.00078839626416
please 0.000728585523142
social 0.000262576971186
around 0.000347821881247
people 0.00396516944621
leaving 0.000185814021655
morning 0.000186507735521
general 0.000330519207351
investigate 0.0
damage 0.000114666015495
everything 0.000163194268581
twitter 0.000374022283075
though 0.00114096109154
friend 9.37579586842e-05
watched 5.26583103775e-05
beautiful 7.20456732871e-05
anything 0.000663421042403
helped 0.00020443978299
managing 0.0
updated 7.41130548726e-05
thinking 0.000214395481559
finally 0.000285860642079
caught 7.87730913557e-05
believe 0.000534766364223
already 0.000511515652735
couple 0.0
orlando 3.97026011053e-05
research 0.00015627145059
chance 0.000279761603281
meaning 3.44774134598e-05
annual 3.13429637459e-05
quickly 0.000162638417963
growing 8.38789889187e-05
probably 0.000151678438002
should 6.16318764188e-05
changed 0.000274342525265
history 0.000312197917577
center 3.05568503138e-05
museum 0.0
behind 0.000278257504998
pretty 0.000214395481559
really 0.00121230028089
expensive 0.0
little 0.000302259249344
earlier 0.000409180843818
realized 0.0
forget 0.0
someone 0.000846099317197
mostly 0.00017705644842
worker 0.0
safety 6.75524144189e-05
shuttle 0.0
program 0.0
things 0.000371010006663
related 0.000137099583173
visiting 9.64699970121e-05
available 0.0
afternoons 0.0
perfect 0.000218481911146
different 0.000402791347173
numbers 2.91409774221e-05
delays 0.0
person 0.000303893104999
watching 0.000210955407039
passed 0.000113699968567
celebrates 0.0
minutes 2.40800863606e-05
travel 0.000228027704242
daughter 0.000197338122269
average 0.0
positive 5.53091033149e-05
outside 0.000148032934619
looking 0.000372011383807
forward 9.58021736943e-05
plenty 0.00017289669725
agreed 6.25085802361e-05
raising 6.65760362331e-05
listened 0.0
afraid 9.03941045552e-05
impression 0.0
drawing 0.0
favorite 2.70561152076e-05
magnet 0.0
picture 4.96116105553e-05
historic 0.0
instead 0.00036760775966
appreciate 0.000109713296997
husband 3.63843607957e-05
international 0.000115280117544
market 0.000471479666585
couldn 0.000194206143241
remember 0.000186507735521
impressive 9.61944941718e-05
familiar 0.0
friends 0.000140636938026
despite 0.000364051428797
impossible 0.000126804354525
everyone 0.000442955871862
florida 6.87518670735e-05
always 0.000672455637077
months 0.000243413637775
moving 7.5226313043e-05
meeting 0.00021497438104
google 0.00014651566403
answer 0.000429948762079
together 0.000233763926922
inside 4.85515358103e-05
smaller 0.0
missed 2.36298173504e-05
active 3.75157132416e-05
longer 0.000188362219639
enough 0.000754118433735
driving 5.70069260604e-05
building 0.000157118751492
technician 0.0
enjoying 5.70069260604e-05
london 0.000831913618083
kennedy 0.0
recent 0.000308159382094
gotten 0.0
amazing 0.000255757826368
attention 0.000264008341497
richard 3.38750906233e-05
progress 9.70242977635e-05
tomorrow 0.000209821202461
george 0.000260819533136
excited 0.0
campaigning 5.2237350247e-05
understand 0.000228752531191
following 0.000122365574223
learning 2.88998508949e-05
evening 8.00693594763e-05
special 2.3502758811e-05
secret 5.22308764685e-05
across 0.0003646248864
comparison 4.35762721718e-05
surprised 0.000111226421935
anymore 8.9140658459e-05
rather 0.00039279687873
showing 0.000198983360116
saying 0.000900630459767
tweeted 9.24478146282e-05
updates 0.0
thoughts 9.89555369372e-05
exactly 0.000277325826871
except 0.000267421975377
getting 0.000419642404922
nothing 0.000606150140443
tweets 0.00025693824339
course 0.000481601727212
stephen 0.0
looked 2.64727353714e-05
difficult 0.000399480295857
stages 0.0
office 0.000126057194032
decisions 0.00017600243546
brought 2.58335122639e-05
biggest 0.000264167468719
thrilled 7.10348280261e-05
entire 0.00018132571142
something 0.000676090541263
closing 3.46817154459e-05
anyone 0.000540563452654
taking 0.000419642404922
recently 0.000181803751959
interesting 0.000337662608238
original 0.000110315588085
flying 0.0
happening 7.62508437303e-05
sometimes 0.000128469121695
stopped 0.000164120417633
yesterday 0.000305535864543
service 7.68728840263e-05
serious 0.000174581606987
emails 4.034855166e-05
afford 0.00018815972345
british 0.00146089909345
contact 9.59200781305e-05
either 0.000508338958202
second 0.000282033105732
accident 0.0
checking 9.06475269712e-05
volunteers 0.0
indeed 0.000413289380325
island 3.29999631648e-05
hearing 5.20892694857e-05
choose 2.74283242492e-05
staying 6.30426696419e-05
another 0.000604518498687
address 9.4295933317e-05
display 0.0
originally 0.0
compare 8.50910382526e-05
landing 4.25455191263e-05
perhaps 0.000880012177302
weekend 0.000165408721453
appear 3.53056488388e-05
anyway 0.000361576418221
theory 0.000114666015495
recognize 0.0
working 0.000373015471042
bigger 0.000164120417633
screen 0.0
treated 0.00023005104423
laughing 0.00011061820663
wanted 0.000306360613705
current 0.000192524418918
grateful 0.0
friendship 0.0
family 0.000256448136341
listening 0.0
stream 6.41296627812e-05
wedding 0.0
sharing 0.0
double 2.64008341497e-05
especially 5.16670245279e-05
middle 0.000267625907133
waiting 0.000119430211689
definitely 0.000127429288473
walking 0.0
account 8.20602088163e-05
completely 0.000248890964917
thought 0.00044655241741
reaction 3.18822467825e-05
accept 0.000268168642108
possible 0.000148032934619
simple 8.13902417478e-05
manufacturing 0.0
destroyed 8.96265309257e-05
professional 3.45793394499e-05
friendly 0.0
members 0.000470154203592
supposed 9.29708575152e-05
astronauts 0.0
component 0.0
business 2.5143338536e-05
absolutely 0.000249402295695
sending 2.70561152076e-05
delivering 0.0
heavily 0.000101921234457
biased 9.60922862634e-05
introducing 7.4800123007e-05
congrats 0.000146838689067
community 0.00014370240854
greatest 2.54858576946e-05
posted 8.27366910639e-05
saturday 2.46056187789e-05
wednesday 2.81137374628e-05
confused 0.00016987198761
explain 0.000326451391767
broken 2.88998508949e-05
chicago 0.0
fairly 0.00019440186939
hoping 0.000112146288995
relationship 0.000219400746221
actually 0.000764353354807
basket 0.0
myself 6.11137006276e-05
pocket 0.0
argument 0.00061109621226
decent 4.14210260579e-05
school 0.000189548869258
thursday 2.49402295695e-05
selling 0.000191293480695
talented 0.0
discuss 0.000150236003341
celebrate 5.15271262292e-05
celebrating 8.34198164512e-05
anniversary 2.81911603241e-05
contest 3.03857194602e-05
internet 8.69398443786e-05
figure 5.57660158861e-05
inspired 0.000112764641296
sitting 0.000157974931132
complaining 0.00026698665538
playing 0.000189548869258
street 7.75005367918e-05
points 0.000358557319833
advice 5.47068058776e-05
forever 2.63291551887e-05
congress 4.04799294926e-05
imagine 0.000441558795388
problem 0.000650201112001
played 2.60446347428e-05
canadian 0.0
pulling 7.94052022106e-05
keeping 2.60446347428e-05
lovely 8.79093984182e-05
chinese 3.76319446901e-05
unlike 0.000129386696887
allowed 0.000429000483719
otherwise 6.61911688721e-05
afternoon 2.74283242492e-05
planned 3.34820621394e-05
strange 7.16774653414e-05
notice 9.48331126369e-05
difference 0.000152915146168
author 7.79009757264e-05
intent 0.0
letting 0.00017196723593
system 0.000320550751643
almost 0.000303075070222
details 7.64575730838e-05
experience 0.0
viewed 0.0
living 7.30240913325e-05
bright 0.0
normal 9.37628703542e-05
practically 0.0
before 5.05594793341e-05
monday 0.0
realize 0.0
currency 0.000191811174912
sleeping 0.0
wanting 0.000110154025933
science 0.000131618938359
tweeting 5.32344202809e-05
forgot 8.76657401087e-05
herself 0.0
disaster 0.00028584904774
happens 0.000169015911633
silence 0.000183590043222
congratulations 2.5693824339e-05
natural 0.0
raised 0.000213297889118
mission 3.16110375456e-05
ironic 5.18039147224e-05
testing 0.0
deleted 0.00032402038255
channels 0.000106258622382
surprising 0.00015052777876
reference 0.0
forgotten 6.93634308918e-05
trouble 5.76400587721e-05
setting 0.0
reminds 3.29999631648e-05
fantastic 0.0
loving 0.0
hardly 0.000173108265609
complete 8.028777214e-05
membership 5.03476795482e-05
nearly 6.12857833884e-05
spirit 0.0
launched 3.47845454389e-05
stories 0.000100845755226
including 7.77110191801e-05
inviting 0.0
wouldn 0.00025143338536
choice 0.00027360212016
offended 0.000156058859311
conversation 2.8346785911e-05
disrespectful 0.0
making 0.000651019921663
expect 0.00019571764081
discussion 0.000101923192566
believes 0.00016351435613
occasions 0.0
response 0.000438853187988
brings 5.62274749256e-05
subject 7.81483163171e-05
greetings 0.0
anytime 3.8341840705e-05
protected 4.73270738729e-05
location 0.0
thomas 0.000109818775278
missile 0.0
needed 9.94916800582e-05
seriously 0.00033492632049
spending 5.79598962524e-05
groups 0.000338687502211
modern 0.000134318785984
welcome 0.000212095809488
totally 0.000188362219639
evenings 0.0
laughed 4.41865212177e-05
running 0.000244731148445
finished 2.7883007943e-05
strong 0.000360228366435
hopefully 5.92617712367e-05
respond 0.00017600243546
message 0.000197911073874
coming 0.00034876067232
thankful 0.0
temporary 0.0
issues 0.000305872660321
challenge 0.000178884810116
happen 0.000237575759403
giving 0.000212095809488
turkey 0.000135897590088
common 0.000115280117544
pressed 0.0
healthcare 4.52946971244e-05
benefits 0.000256243808983
situation 0.000213297889118
workers 0.000194137368234
company 7.92025024492e-05
health 8.25104652507e-05
insurance 4.02179139882e-05
change 0.000512896272683
august 0.0
mental 0.000104045146338
carrier 0.0
neither 0.000128626662683
lowest 9.5367642601e-05
decide 0.000115599403579
happened 0.000294471265991
demand 3.07292535274e-05
generally 9.43014749373e-05
personal 0.000152089453818
beyond 5.20892694857e-05
passion 3.53056488388e-05
question 0.000786116765718
doctor 0.0
sacrifices 0.0
respected 0.0
position 0.000317914907942
increased 9.50095230544e-05
losing 0.000114961926832
strain 6.70334009832e-05
respect 2.54858576946e-05
collapse 4.86004673474e-05
shouldn 0.000195181055601
career 0.000162336691245
visited 0.0
challenger 0.0
reason 0.000171774905161
simply 0.000291409774221
audience 0.0
employees 0.0
accounts 7.79009757264e-05
attacked 0.000364970366714
involved 0.000244170725244
extreme 8.069710332e-05
unhappy 5.65527132475e-05
caused 3.99588260926e-05
knocked 0.0
reality 8.31913618083e-05
mention 0.000172442890248
extremely 3.38750906233e-05
burned 0.0
without 0.000399546899788
falling 0.00010312780061
problems 0.000316145298788
timing 0.0
highly 0.000199149609934
online 0.000150452626086
animals 3.89504878632e-05
called 0.000281273876053
scientists 4.48132654628e-05
pictures 0.000147332150694
camera 0.0
heading 5.54609078722e-05
terribly 0.0
theater 0.0
paying 9.09018759794e-05
complex 0.0
sunday 9.63203454424e-05
nights 0.0
enthusiastic 6.96612807514e-05
increasing 4.87882264738e-05
traffic 0.0
opposite 7.64440103297e-05
lookout 0.0
reached 0.00017289669725
changing 0.0
harder 0.000129737484363
silent 0.000158302170264
speaking 0.000160138718953
careful 3.53056488388e-05
november 9.37628703542e-05
answered 0.000147321200112
number 0.000119430211689
atlantic 4.51331067464e-05
stupid 0.000291909339816
budget 0.000262609992691
unless 0.000114961926832
calling 0.000146838689067
lately 4.06120559208e-05
levels 0.000143354930683
focused 0.000302929361365
ridiculous 0.000321566656707
financially 0.0
knowing 3.2248865098e-05
former 0.000322334460867
covers 0.0
mountain 0.0
suffers 0.0
schedule 0.0
greatly 0.0
friday 0.0
dramatic 0.0
failure 0.000150062852966
achieve 0.0
winner 2.590367306e-05
closes 0.0
bother 0.00013349332769
directly 7.69245975406e-05
quality 6.02627363702e-05
tearing 0.0
father 2.65448602365e-05
wishes 3.03857194602e-05
collar 0.0
ground 0.000120863369295
matter 7.50232052308e-05
strategy 0.000387051085849
themselves 0.000244469637148
asking 0.000370082336547
mobile 0.0
device 0.0
computer 0.000108166337102
impressed 0.0
complain 4.40324467278e-05
dinner 0.0
suffering 0.0
single 0.000264167468719
parent 0.0
packed 0.0
catching 0.0
neglected 0.0
somewhat 5.76314252044e-05
approved 0.0
definition 0.00015336736282
energy 8.31913618083e-05
meltdown 0.0
events 8.66995526846e-05
europe 0.000902968222744
holiday 5.36712484792e-05
status 3.50958001178e-05
update 0.0
outage 0.0
customers 0.0
holding 5.51577940426e-05
survive 0.000118726627698
electric 0.000166788313721
picked 8.71809689744e-05
missing 0.000223856280131
surprise 0.000199521836556
german 0.000481056098207
officially 5.44085652945e-05
french 0.00059926675111
global 0.00046748931443
follow 7.03184690132e-05
opinion 0.000455785791903
design 0.0
allows 8.77587784773e-05
promoting 0.000160352032736
volunteer 0.0
negative 0.000101923192566
official 0.000192640690885
brutal 0.0
cotton 6.70334009832e-05
jersey 0.0
mistake 0.000193493190588
fixing 4.64585032151e-05
france 0.00139068160128
proper 0.000333508746926
peaceful 0.0
thinks 0.000217634261178
competition 0.0
industry 3.29047345898e-05
easier 0.000252888300365
successful 6.37644935651e-05
trending 0.0
leadership 0.000547425662732
agrees 9.15726731491e-05
organized 0.0
enthusiasm 5.5521960202e-05
turnout 0.000101508998402
showed 0.00014651566403
attended 4.68020372823e-05
trumps 0.0
networks 5.13784325937e-05
experienced 4.06120559208e-05
interested 0.000119853350222
effect 9.21877605823e-05
dislike 0.000165813825971
success 2.63291551887e-05
dreams 0.0
protect 0.000209158436569
rumors 5.40569599075e-05
arguing 0.000466296340687
referred 5.50232716181e-05
waving 0.0
growth 0.000229332030989
control 7.81339042285e-05
happier 0.0
likely 0.00046748931443
coincidence 4.9168368191e-05
cancel 0.0
project 0.000105316620755
laying 0.0
lesson 0.0
replacement 0.0
invited 0.000196859372993
continuing 0.000129386696887
clearance 0.0
treating 8.86832526277e-05
allowing 8.1757178065e-05
arrived 5.63823206482e-05
unable 0.000100695359096
opening 2.53482423031e-05
popular 0.000159411233913
followed 6.19805716768e-05
statement 0.000543885161827
enjoyed 0.0
spectacular 0.0
smoothly 0.0
length 0.0
wonder 0.000556154272676
matters 0.000122571566777
function 0.0
shared 0.000159866796884
connection 7.59683523053e-05
benefit 2.92219133696e-05
terrible 0.000356562633836
continues 8.52749764251e-05
equally 0.0
session 0.0
routine 4.73270738729e-05
associated 0.000156058859311
exciting 2.79596629729e-05
imagination 5.57753848602e-05
decides 5.24571445506e-05
cheering 4.61199844232e-05
spring 2.97965157898e-05
fallen 4.10130133244e-05
beautifully 0.00013835995327
places 8.34198164512e-05
entered 0.0
feedback 0.000136372264438
thousands 0.000136697185572
properly 0.000339215511549
informed 8.20260266489e-05
typical 0.000130278560081
continue 8.07266655596e-05
attend 3.50958001178e-05
excuse 0.000236433450466
female 0.000186467722283
recovery 0.0
closer 0.000146109566848
beginning 0.000117212531224
introduce 8.20260266489e-05
bought 8.55103890906e-05
multiple 0.000141222595355
slogan 0.0
covered 9.06475269712e-05
choices 7.54975233797e-05
unpredictable 0.0
enterprise 5.99521729935e-05
several 0.000369376661455
surrounded 5.29030837829e-05
dealing 0.00016191971797
teacher 3.47845454389e-05
training 3.02158423237e-05
auditorium 0.0
passing 3.15213348209e-05
become 0.000243413637775
presentation 0.0
spread 0.000266172101405
sooooo 0.0
season 0.0
putting 4.89462296891e-05
weight 0.0
stephanie 0.0
rapidly 0.0
follows 0.0
explained 4.14210260579e-05
stance 0.000225665533732
storms 0.0
headed 3.08159382094e-05
sleepy 0.0
returns 3.12542901181e-05
expected 0.000100154511457
resources 0.0
considering 0.0
fabric 0.0
suspect 0.000418363468695
constantly 4.29816722747e-05
condolences 0.0
appreciated 0.0
register 0.0
manage 4.25455191263e-05
transition 0.0
smooth 0.0
flowers 0.000132559563653
gained 5.29030837829e-05
savage 0.0
somebody 0.0
contract 8.069710332e-05
furious 0.0
covering 0.000144221782802
boxing 0.0
credit 0.000201183371956
patriots 0.0
player 0.0
chemistry 5.09606172283e-05
grandkids 0.0
offensive 0.000126777727011
charles 3.74000615035e-05
fighting 7.96345807094e-05
atlanta 0.0
donald 0.000267856497115
mexico 6.73554873679e-05
unreal 4.76838213005e-05
police 0.000781227217376
represent 0.000118347529341
president 0.00041445876896
talking 0.000514280639229
unbelievable 0.000259395692054
alabama 0.0
slowest 0.0
conference 0.0
america 0.000223252247499
michigan 0.0
everybody 0.0
judgment 0.0
carolina 4.28353744682e-05
amount 3.27154427189e-05
houston 0.0
everyday 6.61911688721e-05
michael 0.000105316620755
protecting 0.0
million 0.000171311803912
election 0.00160783328353
honesty 0.0
telling 0.000264727353714
correct 0.000150236003341
pulled 3.49915836484e-05
attack 0.00144226563208
americans 0.000259474968725
salaries 0.0
killed 0.000363636655025
louisville 0.0
horrible 0.000119107803316
coverage 0.000316110375456
dallas 0.0
jacksonville 0.0
league 7.18936720306e-05
united 0.000271942580914
college 5.82819548441e-05
refuse 4.18363468695e-05
barackobama 0.000179890538599
hillary 0.000208485392152
clinton 0.000533439000478
presidency 5.03476795482e-05
manning 0.0
stupidity 0.000184590615703
american 0.000371083263515
remain 0.00029528905949
founder 4.31288989625e-05
illegal 0.00011648242094
arizona 4.61199844232e-05
opinions 0.000199794130463
retire 0.0
triumph 0.0
stealing 4.78642745491e-05
speeches 0.000149843623135
innocent 4.46549841287e-05
scared 3.4174296393e-05
golden 0.0
straight 5.16670245279e-05
removed 4.37273354124e-05
answers 0.000120188802673
product 0.0
created 8.41097167463e-05
snoopdogg 0.0
worlds 4.40324467278e-05
record 0.000243413637775
stamina 0.0
weapon 4.73270738729e-05
funeral 0.0
registered 4.76838213005e-05
minnesota 0.0
committed 7.34360172887e-05
journey 0.0
disrespect 0.0
brother 5.68499842834e-05
prayers 0.0
documentary 0.0
boston 0.0
addition 0.0
korean 5.33577674767e-05
church 3.5411289684e-05
advantage 0.000119491079086
honestly 0.000133152072466
defeat 0.000209181734347
baltimore 5.40569599075e-05
lifetime 7.04009741841e-05
captain 0.0
retired 0.0
country 0.000674242418097
valley 0.0
mailbox 0.0
speedy 0.0
ending 6.26859274917e-05
finish 0.0
employee 5.13784325937e-05
university 6.67696743049e-05
remembered 0.0
nominated 0.0
praying 0.0
insane 3.44774134598e-05
national 0.000529440214935
reform 0.000184479937693
oregon 0.0
shooting 2.91409774221e-05
cancer 8.79093984182e-05
australia 0.000276634715599
deserve 8.57466011215e-05
legend 0.0
mother 7.79221403626e-05
murder 0.000339738855209
creating 3.20648313906e-05
powerful 0.000113699968567
carson 0.0
palmer 5.62906977431e-05
branch 0.0
breaking 0.000225678939129
dollars 3.90741581586e-05
questions 0.000286632508053
racist 0.000839529136298
charged 0.000132559563653
girlfriend 0.0
performance 5.39647700339e-05
refreshing 0.0
reading 0.000247388842343
corrupt 5.65527132475e-05
penalty 4.68020372823e-05
writer 0.000247139541872
denver 0.0
create 8.09471550508e-05
admire 4.31288989625e-05
nobody 0.000142911001869
government 0.000523317502101
politics 0.00148499834242
comeback 0.0
charities 0.00010955578468
method 0.0
sample 0.0
bringing 2.6186458582e-05
celebs 5.99521729935e-05
stadium 0.0
funniest 4.25455191263e-05
according 3.09029481629e-05
threat 0.000208090292675
heroin 0.0
honest 5.79598962524e-05
rolling 6.99831672967e-05
became 0.000262268796799
feature 9.59200781305e-05
decision 8.71809689744e-05
counting 0.0
verified 5.70857970793e-05
signing 0.0
adding 0.0
embrace 4.07449395247e-05
pressure 0.0
celebrities 0.0
dearly 0.0
facebook 0.000174581606987
divided 5.09606172283e-05
extension 0.0
lawyer 8.86832526277e-05
charleston 0.0
brazilian 0.0
basketball 0.0
campaign 0.000946964032265
determine 0.0
whether 0.000559862172637
praise 0.000158302170264
factory 9.50095230544e-05
arrested 4.40324467278e-05
investments 0.0
activity 0.0
comments 0.000227399937134
wounded 0.0
endorsement 5.20196197702e-05
williams 3.71704742278e-05
future 0.000168106571003
struggled 6.50503020996e-05
blessed 0.0
sabotage 0.0
warrior 4.95548458943e-05
softball 0.0
cheating 0.0
voting 0.00028740481708
instincts 0.0
collins 0.0
succeed 8.74546708247e-05
commercial 0.0
religion 0.000241147247128
boring 0.0
acting 6.67696743049e-05
established 0.0
warriors 0.0
because 0.000201478178976
sensitive 0.0
smiling 4.11482214359e-05
traitor 0.0
cleveland 0.0
agents 4.97505274388e-05
periscope 0.0
killing 0.000178281316918
choosing 9.25772521573e-05
phillips 0.000121772098435
instagram 3.23414325878e-05
opponent 0.0
detroit 0.0
cousin 0.0
honored 0.0
nonsense 8.71525443436e-05
dedication 0.0
hammer 5.31293111912e-05
proven 0.0
talent 3.10779537138e-05
governors 0.0
knocking 0.0
russian 0.000543584631055
consecutive 0.0
skills 6.46828651757e-05
citizens 0.000318642877562
cameras 4.68020372823e-05
phones 0.0
california 0.0
commitment 3.85833858622e-05
maryland 0.0
seconds 0.0
placed 0.0
listen 0.000120400431803
dominating 0.0
whatever 2.67625907133e-05
wherever 0.0
fought 7.54975233797e-05
compete 0.0
lauderdale 0.0
injured 0.000247705335368
billion 3.33848371525e-05
shoutout 0.0
depressing 0.000393346945528
guilty 3.94491764471e-05
carpet 0.0
harvard 0.0
absolute 0.0
handle 3.03857194602e-05
promise 0.00011061820663
hosting 9.16705509414e-05
longest 0.0
generation 9.59200781305e-05
criminal 8.89955517932e-05
tuesday 2.64727353714e-05
garbage 0.0
goldman 6.92020949461e-05
ronald 0.0
locker 0.0
leader 0.00139774309517
desperately 0.0
character 0.0
chancellor 0.000565527132475
proving 9.68284326855e-05
jackson 3.76319446901e-05
interview 0.000284323303887
buffalo 5.2679042181e-05
insight 8.28420521159e-05
obviously 3.27154427189e-05
battle 2.70561152076e-05
destroy 0.00016191971797
killer 0.000212467738104
personally 6.73554873679e-05
relentless 0.0
winning 0.000298475040175
charlotte 0.0
trafficking 0.0
defense 0.0
japanese 4.26899938953e-05
causing 9.83367363819e-05
arabia 0.000183617671504
rapist 8.07460348572e-05
writing 0.000134911925085
society 0.000192939994024
officers 0.0
ambushed 0.0
sources 0.000160352032736
kentucky 0.0
incredible 7.5430015608e-05
ungrateful 0.0
kissing 0.0
minute 2.62576971186e-05
luther 5.5521960202e-05
foreign 0.00034725047276
phoenix 0.0
champions 0.0
virginia 0.0
streak 0.0
orange 3.48878334734e-05
policy 0.000751834520646
intentional 0.0
reminder 8.41097167463e-05
evidence 0.000345793394499
presidents 0.0
judged 0.000119904345987
accused 0.00013835995327
intentions 0.000128604466361
facing 0.0
freedom 0.000162171855453
actions 0.000316604340527
debating 5.15901977679e-05
consequence 0.0
coughing 0.0
clearly 0.000147742560422
invite 0.000164999815824
central 9.21877605823e-05
washington 0.0
tougher 0.0
veteran 4.57863365746e-05
division 0.0
overrated 6.50503020996e-05
veterans 0.0
stronger 0.000148226109745
bowden 0.0
promised 0.0
catches 0.0
worried 6.73554873679e-05
security 0.000247223585304
sanctuary 0.0
reverse 0.0
immediately 6.50553671851e-05
television 0.0
entitled 0.000101100394429
racism 0.000854480058345
highest 6.58094691797e-05
approve 0.0
turning 8.74229322662e-05
georgia 0.0
tennessee 0.0
legacy 0.0
leaked 0.000100293830607
choked 0.0
helping 0.000102497178702
tickets 2.81911603241e-05
suspending 0.0
suspend 0.0
willing 0.000106233869052
december 0.0
beating 3.97026011053e-05
basically 0.000101923192566
return 0.000128817815573
escape 4.16970784303e-05
locked 3.91984915686e-05
unacceptable 0.0
network 3.25276835925e-05
language 0.00052194196985
invest 0.0
creation 0.0
followers 0.000210919577296
schools 0.000264764675488
menace 0.0
movies 3.48878334734e-05
entity 0.0
children 0.000102497178702
nation 8.79093984182e-05
flexible 0.0
review 0.00013865226968
knowledge 0.0
begins 2.7883007943e-05
vanessa 0.0
forbes 5.07544992008e-05
parade 4.29816722747e-05
fireworks 0.0
shoulder 0.0
produced 0.000109485132546
consider 0.0
latest 0.000302537265677
signed 7.7081473017e-05
shower 0.0
thunder 0.0
charity 0.000195166101555
germany 0.000637403214313
advance 0.00020325054374
explaining 0.000120653741965
millions 3.15213348209e-05
blessings 0.0
diamond 0.0
dollar 0.0
monsters 0.0
rigged 0.0
conduct 0.0
cooked 0.0
turned 0.000102219891495
criticism 0.00060587892963
responded 5.03476795482e-05
depending 0.0
jackie 0.0
charge 0.000128995460392
ticket 0.0
finest 0.0
sanders 0.000153505751618
includes 3.46817154459e-05
dealers 0.0
against 5.13784325937e-05
benjamin 0.0
impact 0.000498655268726
families 8.93895473694e-05
selection 0.0
hitting 6.21559074275e-05
announced 2.8346785911e-05
decided 2.7883007943e-05
professor 0.0
itself 0.000118726627698
promote 3.75157132416e-05
mexican 0.0
owners 4.48132654628e-05
guards 6.54335856263e-05
guarantee 4.56212958393e-05
beliefs 0.0
citizen 8.3672693739e-05
states 0.000146923188622
memorial 0.0
decades 0.000149600246014
landed 0.0
ultimate 6.75524144189e-05
mcdonald 0.0
twenty 5.03476795482e-05
hispanics 0.0
financial 4.10130133244e-05
payments 0.0
grabbing 0.0
permit 0.0
shield 0.0
disney 0.0
kansas 0.000233148170343
agreement 8.62577979249e-05
source 6.54308854379e-05
dismiss 0.000126447042447
talents 0.0
homework 0.0
expectations 4.25455191263e-05
joining 5.48566484985e-05
eugene 0.0
reasons 0.00010852032233
talked 2.93031328061e-05
released 8.13902417478e-05
reaching 0.0
release 5.11099457474e-05
promoter 0.0
circumstances 5.07544992008e-05
scheme 0.000152881851685
warwick 0.0
highlight 3.68303000281e-05
within 8.9140658459e-05
stacked 0.0
speech 0.000503273933512
standing 0.000186320470983
higher 0.000250034320944
justice 6.26859274917e-05
served 0.000105601461276
speaks 3.36777436839e-05
navarro 0.0
dropped 2.8740481708e-05
consideration 0.0
predicted 9.02662134927e-05
strength 9.6746595294e-05
andrew 3.63843607957e-05
replace 0.0
incredibly 6.58094691797e-05
private 5.97595533055e-05
integrity 0.0
sanford 0.0
ignored 0.000355982207173
neighbors 0.0
affection 0.0
minimum 4.80461431317e-05
direction 0.00014292452387
enemies 4.95548458943e-05
exclusive 8.29636549724e-05
prison 0.000493778657231
himself 0.000149600246014
investigation 0.000214908361374
disgusting 4.56212958393e-05
congratulate 0.0
philly 0.0
rights 0.000565775599902
replaced 9.09148429588e-05
recognition 0.0
maintain 0.0
tallahassee 0.0
handed 0.0
victory 0.000199728108699
classy 0.0
lifted 5.73570063162e-05
terrorist 0.000286102927803
productive 9.25772521573e-05
tribute 9.59200781305e-05
threatened 4.99478743782e-05
insecure 6.54335856263e-05
horror 4.62886260786e-05
discovery 0.0
convention 0.0
understanding 0.00016789848248
action 0.000325100556
figures 3.97026011053e-05
having 0.000131182006237
marine 0.000590020418291
announces 0.0
wallace 0.0
speaker 0.000194137368234
stevens 0.0
cybersecurity 0.0
apologize 0.0
continued 3.99588260926e-05
journalist 0.000415586414495
libelous 0.0
formation 7.1096055373e-05
letter 0.000229923853664
discussed 4.15586414495e-05
therapy 0.0
widespread 0.0
untrue 0.000183617671504
written 0.000227399937134
conferences 5.42947889197e-05
results 3.04711270169e-05
papers 0.0
winter 0.0
marching 5.01469153035e-05
sessions 4.12842225613e-05
democrats 0.000153505751618
eastern 0.0
scientist 9.95010548777e-05
represented 0.0
waters 0.0
journal 9.64588988511e-05
foundation 0.0
access 0.000114644823953
analysis 0.00030673472564
writes 0.000227905056916
colorado 0.0
medical 3.8341840705e-05
tremendous 0.0
nytimes 7.06112976777e-05
public 0.000811683456227
cheaters 0.0
cannot 0.0004155847486
reveals 3.47845454389e-05
immunity 0.0
threatens 5.38215454447e-05
candidate 0.000518791384108
brilliant 0.000457315205981
wisconsin 0.0
studies 0.0
measure 0.0
compared 0.000281525397917
donors 0.0
graham 0.0
incorrect 0.0
headline 0.000182475220911
careers 0.0
answering 0.0
streaming 0.0
leaders 0.000611539155398
supreme 4.02179139882e-05
nominee 0.0
gorsuch 0.0
protest 0.000236695058683
immigration 0.000735710128837
policies 0.000760666362064
administration 0.000132097340183
defend 0.000419130643232
excitement 0.0
funding 0.000185852371139
surveillance 0.000229428025265
transfer 0.0
conspiracy 0.000413573043669
horrifying 5.73570063162e-05
formed 0.0
interviews 0.000158055187728
retreat 0.0
alliance 0.00043245567926
platform 0.00036943137844
editing 0.0
february 0.00010282468738
association 0.0
airwaves 0.0
hamilton 0.0
futures 0.0
borders 0.000215286181779
border 4.54574214794e-05
uranium 8.6680650035e-05
misleading 0.000102337167745
january 0.0
topics 0.0
unprecedented 0.0
airplane 0.0
tragic 8.42348369955e-05
philadelphia 0.0
funded 8.59633445495e-05
secure 0.0
income 0.000171341497873
hurricane 0.0
breakdown 0.0
countries 0.000335796964959
linked 0.000173704746775
broadcast 7.69245975406e-05
african 0.000214908361374
triple 4.25455191263e-05
provide 0.0
enhance 0.0
development 4.02179139882e-05
companies 0.000192916929311
discussions 0.0
developing 0.0
proposal 0.0
potential 6.43133313414e-05
moderator 0.0
suggestion 4.49726346497e-05
attending 0.0
filled 0.0
schultz 0.0
education 6.26859274917e-05
sickness 7.48355614051e-05
mentioned 3.42748957934e-05
exists 4.32770664022e-05
henderson 0.0
plants 0.0
orders 0.000125509040608
officials 0.0
strategic 0.0
ability 3.38750906233e-05
political 0.000868005765964
director 5.81206459829e-05
behaving 0.0
deficits 8.48246096907e-05
sufficient 0.0
prevent 0.000232230651509
shoddy 0.0
capacity 0.0
donations 0.0
editors 5.29030837829e-05
discussing 0.000105601461276
persistent 0.0
treatment 0.0
establishment 0.000325768733518
protects 0.00012506257394
critical 0.000185282637181
ambassador 0.000120653741965
preparing 0.0
capable 9.57285490982e-05
bishop 0.0
producers 4.82294494256e-05
bombed 0.000136620268004
weekly 0.0
becoming 0.000149398883264
magazine 0.0
lawyers 4.86004673474e-05
summary 0.000143051463902
standard 3.36777436839e-05
controlled 0.000102756865187
hiring 9.02662134927e-05
defending 7.96607193905e-05
pushes 0.0
admitted 0.000112063219695
failed 0.0002074760367
independent 0.000862724064367
copies 0.0
politically 0.000154135297781
driven 0.000169036969348
agenda 0.000251858740889
blocked 0.000117970485729
result 0.00016789848248
announcing 4.06120559208e-05
destruction 0.000164333677019
culture 0.000160783328353
insider 0.0
traitors 0.000167898964464
prince 3.37762072095e-05
solutions 0.0
indiana 0.0
mongering 8.15063693812e-05
claims 0.000561000922553
editorial 0.000145801402042
prospects 0.000113105426495
mistakes 0.000166234565798
offered 3.8341840705e-05
founded 0.000110046543236
ignorance 9.32592681374e-05
inspiring 6.28639555447e-05
majority 0.000156296632634
embarrassing 0.000334690774956
creators 0.0
server 0.0
berniesanders 0.0
spotlight 0.0
readout 0.0
tactics 0.000113105426495
irrelevant 0.000438223138718
massive 8.86455362532e-05
receiving 0.0
promising 0.0
promises 0.000133024878941
consequences 0.000179890538599
production 0.0
proposals 0.0
elsewhere 0.000240230715659
bernie 0.00015044074591
hacking 0.00011155076972
guests 3.64950441821e-05
interviewed 0.000112547139725
secretary 8.12241118416e-05
rebuttal 0.0
reduce 4.21174184977e-05
arriving 0.0
dangerous 0.00015627145059
shutting 0.000124385536356
arrival 0.0
canceled 0.0
typically 0.0
saving 0.000101328621628
pioneer 5.2237350247e-05
incident 0.000336323001922
ordering 0.0
victims 0.000135104828838
raises 4.64585032151e-05
receive 0.0
reputation 0.0
intention 5.60316098475e-05
commentary 4.34261866937e-05
disclosure 0.0
terrific 0.0
berkeley 0.0
melbourne 0.0
received 2.98797766527e-05
correctly 0.0
inherited 0.0
displayed 7.26254970024e-05
joseph 5.2237350247e-05
offices 0.0
necessary 7.16774653414e-05
largely 0.000312117718621
inaccurate 6.02593049726e-05
debate 0.000659193426221
conflict 4.84142163427e-05
interest 0.000196292656314
controversy 0.000217179155679
stated 5.62906977431e-05
rating 9.91096917886e-05
nominate 0.0
outstanding 0.0
devastating 0.000129386696887
accurate 3.76319446901e-05
southeastern 0.0
romney 0.0
scotland 0.000321667922853
delayed 0.0
rarely 0.000127205816831
abroad 0.0
winners 0.0
profit 4.54574214794e-05
reviews 0.0
republican 9.19051208153e-05
presidential 0.000194137368234
candidates 0.000157293980971
politicians 0.000212009694718
epidemic 5.68177232796e-05
greater 7.59683523053e-05
booths 0.0
arnold 0.0
principles 5.11685838727e-05
deadline 3.75157132416e-05
speakers 0.0
incoming 0.0
various 4.75047615272e-05
nuclear 0.000123444664308
danger 0.000162979758099
leading 0.000147742560422
restored 0.0
conditions 4.37273354124e-05
however 7.3886275688e-05
resolution 4.69757319178e-05
remained 0.0
member 0.000191473820571
examples 0.000198219383577
employ 0.0
courses 0.0
largest 7.34360172887e-05
hallmark 0.0
mentor 0.0
increase 3.78661701706e-05
transcript 0.000111043920404
disrupt 0.000139322561503
provided 0.0
binding 0.0
decreased 0.0
revival 0.0
crashing 6.253128697e-05
reception 0.0
rising 0.000112547139725
primary 0.0
reduction 0.0
surrogate 9.46768544798e-05
provides 0.0
environment 4.28353744682e-05
revealed 7.59683523053e-05
confirmed 6.77501812467e-05
controls 5.33577674767e-05
behavior 0.0
introduced 0.0
carbon 0.0
communities 8.86832526277e-05
region 0.0
deaths 9.75764529476e-05
responsible 0.000227905056916
household 0.000104474700494
munich 0.0
canada 9.29708575152e-05
regions 0.0
movement 6.21559074275e-05
midwest 0.0
segment 0.000139375509645
emerged 0.0
hundreds 3.84622987703e-05
information 6.30426696419e-05
combined 8.65541328043e-05
easily 0.00020564937476
towards 0.000271000724987
inform 0.0
mathematically 0.0
october 0.0
investigating 0.0
predators 7.54226339119e-05
innovation 4.9168368191e-05
perspective 3.43759335367e-05
cities 0.000139551333894
todays 0.0
julian 0.000170453169839
eliminated 0.0
interests 4.38793892386e-05
toledo 0.0
extraordinary 0.000157293980971
eradicate 0.0
retains 0.0
ashamed 0.000101100394429
meetings 4.12842225613e-05
describing 0.000110542550647
eliminate 0.0
obligation 0.0
gender 0.000127636557379
committee 3.81027857484e-05
wasting 0.000114714012632
numerous 0.000134902432697
examination 0.0
inflammatory 0.0
practices 0.0
management 4.24019389436e-05
nordstrom 0.0
genius 3.09029481629e-05
warren 0.0
traveling 0.0
billions 5.18039147224e-05
prepared 0.000105601461276
fraction 0.0
equipment 0.000104914289101
procedures 0.0
rasmussen 0.0
county 0.0
developer 0.0
anthony 0.000127205816831
shadow 4.52946971244e-05
district 0.0
considered 0.000108166337102
lobbyist 0.0
chosen 0.0
hospitalized 0.0
outright 0.000131646622387
yorkers 0.0
naming 0.0
conventions 0.0
deficit 0.000107643090889
interventions 0.0
focusing 0.000147505104573
sensible 5.42947889197e-05
hosted 0.0
batman 0.0
column 0.00087363605151
upcoming 6.58094691797e-05
positions 9.83367363819e-05
favors 0.0
regulation 0.000214353987986
distributed 0.0
weakness 0.0
introduction 0.0
western 0.000415586414495
pacific 0.0
larger 9.19051208153e-05
increases 0.0
effective 0.000116115325755
situations 5.62906977431e-05
harbor 0.0
wealth 5.01469153035e-05
underway 0.0
israel 0.000495548458943
hysteria 0.0
overwhelming 0.0
protection 4.034855166e-05
prisoners 0.0
guidance 5.81902022526e-05
montana 0.0
determination 0.0
restore 5.62906977431e-05
acquire 0.0
additional 0.0
exception 0.0
machine 3.13429637459e-05
honoring 0.0
visually 0.0
contrary 0.0
immediate 0.0
politico 0.000176288332951
ignoring 0.000232292516075
judges 4.43416263138e-05
federal 8.68523733873e-05
constant 4.51331067464e-05
philippines 0.0
nicely 0.0
september 0.0
manchester 8.45184846738e-05
fiction 9.32592681374e-05
priest 7.54226339119e-05
angela 0.000162170879723
process 5.92617712367e-05
destructive 7.15947439569e-05
genuine 8.42348369955e-05
surreal 0.0
whitehouse 0.000401175322428
flotus 0.0
crisis 0.000393042440643
judgement 0.0
confidence 0.000181921803979
voters 0.00135423222964
diamondandsilk 0.0
oldest 0.0
inauguration 4.9168368191e-05
gracious 0.0
scream 0.0
postponed 0.0
disappoint 0.0
believing 4.69757319178e-05
hillaryclinton 4.62886260786e-05
electoral 0.000154135297781
crashed 0.0
citizenship 5.76314252044e-05
closed 3.30955844361e-05
religious 0.000689288406115
apprentice 0.0
conservative 0.000301902292737
economists 0.0
buzzfeed 9.25772521573e-05
puppet 0.0
sweden 0.000922399688464
andersoncooper 0.0
treats 0.0
qualified 0.0
missouri 6.3937058304e-05
cooper 0.0
debates 9.22399688464e-05
endorsements 7.66433434064e-05
strike 0.000107193392903
shouting 5.45350825252e-05
empire 0.000266049757883
encouraged 5.76314252044e-05
regard 0.0
concerning 0.0
misinformed 0.0
disregard 0.0
barack 0.0
joined 5.71644007476e-05
terrorism 0.000740618017258
pushing 7.43409484556e-05
cracking 4.82294494256e-05
muhammad 0.000119298111853
refused 0.000148082405614
amazingly 0.0
express 0.000359468360153
gratitude 4.93608018714e-05
congratulation 0.0
throughout 7.36606000561e-05
shining 0.0
fighter 0.0
anticipated 5.90544560296e-05
presented 3.78661701706e-05
reveal 3.38750906233e-05
stands 9.6746595294e-05
native 4.71507374687e-05
harvey 5.68177232796e-05
featured 0.0
announce 5.39647700339e-05
surround 0.0
although 0.0
senior 0.0
todayshow 0.0
convincingly 0.0
haters 4.89775183447e-05
returning 0.0
laughs 0.0
touched 0.000130278560081
corruption 0.000167326154581
violence 0.000783705025618
runnin 0.0
delivered 7.54975233797e-05
owning 0.0
legendary 0.0
stabbing 0.0
independence 4.19764568149e-05
approval 0.000141452212406
magical 0.0
alongside 4.44977758966e-05
percent 4.28353744682e-05
spiral 0.0
differently 9.79550366895e-05
sweeping 0.0
spoiler 0.0
theirs 0.0
offering 0.000269236091392
remembering 0.0
floated 0.0
professionals 0.0
construction 0.0
searching 4.48132654628e-05
flexibility 6.83101340019e-05
sinking 0.000140259487325
detail 0.0
document 0.0
cabinet 9.36040745647e-05
pleased 0.00015336736282
carrying 0.00017251559585
statements 4.93608018714e-05
decade 3.62742032232e-05
prague 0.0
crossing 0.0
bigotry 0.000130867171253
happily 5.35884969965e-05
therefore 0.0
belong 0.000195910073379
customs 0.0
trillion 5.79091306244e-05
backed 0.00013835995327
electricity 0.0
observing 0.0
russell 8.93099682574e-05
engineers 0.0
operations 5.79091306244e-05
values 0.000212009694718
senator 0.0
confirms 4.38793892386e-05
removing 0.000110542550647
payment 0.0
consistently 0.000208078479081
posing 0.0
everett 0.0
wondered 0.0
generic 0.0
fields 5.03476795482e-05
mining 0.0
newspaper 0.000217130933468
detailed 0.0
rainbow 0.0
childcare 0.0
unlimited 0.0
exploded 0.0
thoroughly 5.35884969965e-05
adviser 0.000121141119303
leaves 0.000101033231052
matthew 4.43416263138e-05
intersection 0.0
affected 0.000107516198012
newspapers 0.000262285722753
corporate 4.9168368191e-05
economy 0.000479505913111
explores 0.0
spoken 3.88274736468e-05
during 0.0
credible 0.000119298111853
competitive 4.66296340687e-05
carefully 5.03476795482e-05
returned 0.0
blasts 0.0
guarding 0.0
hornet 0.0
successfully 0.0
southern 0.0
dakota 0.0
belief 8.62577979249e-05
messenger 7.21043936024e-05
heroes 0.0
russians 0.000568177232796
intelligence 0.000127205816831
deepest 0.0
graduates 0.0
describe 3.36777436839e-05
hollywood 0.0
reclaim 8.22924828133e-05
equality 4.18363468695e-05
announcement 0.0
interfere 0.0
interrupted 0.0
nationwide 5.33577674767e-05
questionable 0.0
garden 6.93634308918e-05
survey 0.00013349332769
journalists 0.000332469131596
delighted 0.000193656865371
minister 0.000443416263138
golfer 0.0
capital 4.18363468695e-05
penguins 0.0
regarding 0.000214908361374
teachers 0.0
devastated 0.0
phrase 4.35762721718e-05
immigrants 0.000437404206127
aliens 0.0
subjects 6.54335856263e-05
revolution 8.68523733873e-05
median 0.0
twelve 0.0
releases 4.28353744682e-05
accomplish 0.0
debbie 0.0
sebastian 0.00014967112281
briefing 5.07544992008e-05
advisor 5.40569599075e-05
commission 9.75764529476e-05
deadlines 0.0
hereby 0.0
invitation 0.0
alternatives 0.0
villages 0.0
accepted 3.88274736468e-05
commentators 0.000268133603933
depression 0.0
comprehensive 5.45350825252e-05
committees 0.0
pushed 9.02662134927e-05
statistic 8.00098420589e-05
donation 0.0
electronic 0.000126447042447
nomination 0.0
britain 0.00101463965731
questioning 0.000114171594159
attempt 0.00016547792218
investment 0.0
terror 0.00113691072072
homeland 0.0
polish 0.00010955578468
switzerland 0.0
represents 0.0
announcer 0.0
churchill 6.05705596515e-05
ambassadors 6.54335856263e-05
anchors 0.0
endorse 5.03476795482e-05
urgent 0.0
forced 0.000142496105087
expenses 0.0
preparations 0.0
string 0.0
morocco 0.0
thrill 0.0
watchdog 0.0
agencies 0.0
scrutiny 0.0
glorious 4.48132654628e-05
approaching 0.0
tragedy 0.0
handled 5.68177232796e-05
offers 0.000111169582309
requested 5.70857970793e-05
improvements 0.0
destroying 5.09606172283e-05
inexpensive 0.0
opposition 0.000375805855343
smithsonian 0.0
addiction 0.0
challenged 0.0
manhattan 0.0
richmond 0.0
forces 0.000150995046759
nations 9.19051208153e-05
anderson 0.0
builds 0.0
sexist 0.000112063219695
narrative 0.000304526995205
application 0.0
cannon 0.0
ethical 0.0
representation 5.52712753235e-05
obvious 0.0002752644667
statistics 0.0
military 0.000361645664921
housing 9.57285490982e-05
wonderfully 0.0
miller 4.19764568149e-05
copying 0.0
advised 6.253128697e-05
ordered 6.8348592786e-05
unions 0.0
useless 4.99478743782e-05
alicia 0.0
economic 0.000678431023098
radical 0.000777607477559
planted 0.0
theories 0.000114714012632
conceived 8.22924828133e-05
readers 0.000176129786911
bombing 0.0
products 4.21174184977e-05
phenomena 8.76675277118e-05
classroom 0.0
classified 0.0
purely 0.0
hacked 0.0
taxpayers 0.000247436481318
opposed 0.000557502038581
pressing 6.02593049726e-05
russia 0.00061294257691
abraham 0.0
lincoln 0.0
observer 0.000180777914918
intelligent 0.000189308295492
lawsuit 5.81902022526e-05
detective 0.0
magnificent 0.0
heritage 5.50232716181e-05
beloved 0.0
dignity 0.0
priorities 5.15901977679e-05
repealing 0.0
murdoch 0.00042364719768
coalition 0.000105806167566
theresa 0.000986002062116
charges 0.000146364679421
activists 0.000267942484982
elected 0.000404799294926
relief 0.000154333543449
congratulates 0.0
pledge 0.000130278560081
elections 0.000889238708364
landslide 0.0
council 8.56707489364e-05
imperative 0.0
catastrophic 0.0
douglas 0.000310823488335
brexit 0.00469510019155
democracy 0.00061117409287
disastrous 0.000179856518981
rebuild 0.0
pundits 6.96612807514e-05
nickname 0.0
poison 0.000230525700818
interfering 8.31061847381e-05
negotiations 0.000105358084362
summit 0.0
dossier 0.0
unleash 0.0
negotiation 0.0
sticking 0.0
openly 0.000111043920404
embarrassed 0.000199791497513
ireland 8.25684451227e-05
attacks 0.000673201107063
remarks 5.03476795482e-05
democratic 0.000141981221619
outgoing 0.0
maureen 0.0
treasury 5.99521729935e-05
refugees 0.00152195948596
snatch 0.0
morgan 4.66296340687e-05
grieve 0.0
vicious 0.000128604466361
essentially 0.0
restoring 0.0
extended 0.0
referendum 0.00044825287878
ovation 0.0
bankrupt 6.54335856263e-05
proudly 5.52712753235e-05
oppose 0.000832313916323
refusal 6.96612807514e-05
urging 6.02593049726e-05
strengthen 5.87627776502e-05
deliver 3.68303000281e-05
negotiating 0.0
remaining 0.0
merkel 0.000866027684612
repeal 0.000162170879723
formal 0.0
reckless 0.000113105426495
prosperous 0.0
servant 0.0
desperate 0.000265119127306
secretaries 0.0
formally 6.08860492177e-05
breach 0.0
gloomy 0.0
outlines 0.0
concessions 0.0
executive 3.87051085849e-05
extend 5.07544992008e-05
republicans 9.46541477459e-05
terrorists 0.000160765490989
weapons 9.05893942489e-05
bodyguards 0.0
outrage 0.00030576370337
representative 0.0
prevail 6.74512163486e-05
searched 0.0
policemen 0.00010275343379
islamic 0.000260201208398
islamist 8.15063693812e-05
ingrained 0.0
humbled 0.0
courage 7.668368141e-05
chamber 5.50232716181e-05
commander 0.0
formula 0.0
brigade 7.66433434064e-05
respecting 0.0
lectured 0.0
devices 0.0
enormous 5.50232716181e-05
verdict 5.70857970793e-05
refusing 5.33577674767e-05
energies 0.0
carried 0.000198219383577
behalf 8.33941568607e-05
tariff 0.00015720814145
amendment 9.22399688464e-05
nightmare 4.034855166e-05
employment 0.000113105426495
legislation 4.87882264738e-05
referring 0.000231443130393
scrapping 0.0
handling 5.29030837829e-05
goodies 0.0
proves 0.0
prominently 0.0
crackdown 6.92020949461e-05
unfair 0.0
fiscal 0.0
humiliating 9.3351458011e-05
strongly 0.000183810241631
vision 6.87518670735e-05
resignation 5.99521729935e-05
confirmation 9.57285490982e-05
records 3.52004870921e-05
disabled 5.5521960202e-05
quoting 0.000111043920404
reductions 0.0
deeply 7.50314264832e-05
commerce 0.0
accumulation 0.0
overplaying 0.0
refugee 0.000322839890962
conway 0.0
exposed 0.0
netanyahu 0.000169649219381
israeli 0.000407260190864
priority 4.48132654628e-05
strongest 0.000156058859311
freedoms 0.000127874116608
treaties 0.0
empowering 6.18591203294e-05
laughter 0.0
syrian 0.000639188786482
uphold 0.0
praising 0.000135753396955
renewal 0.0
penned 0.0
condemns 7.42629860075e-05
realdonaldtrump 0.000485759153911
goodwill 0.0
attorney 5.42947889197e-05
settled 0.000107176993993
chairman 4.99478743782e-05
capability 0.0
firing 5.01469153035e-05
seanspicer 0.0
inaugural 0.0
carnage 0.0
optimism 0.0
rulers 0.0
clintons 0.0
melania 6.62196990584e-05
bikers 0.0
handing 0.000115262850409
intended 0.0
optimistic 5.07544992008e-05
campaigned 0.000147408417919
finance 0.0
allies 0.000108589577839
compromised 0.000153286686813
governor 4.86004673474e-05
bosses 0.0
attempts 0.0
irresponsible 6.05705596515e-05
incidents 0.000321511165902
merely 0.000208949400988
documents 0.00010907016505
tariffs 0.0
purpose 3.55174140131e-05
architect 0.0
arlene 0.0
resign 0.000285428985397
reuters 0.000165813825971
mainstream 0.000156712050741
dozens 0.0
donnell 0.0
clarified 0.0
gathering 0.0
crimes 0.00025795098884
vulnerable 4.66296340687e-05
commentator 7.1096055373e-05
overwhelmingly 0.0
respectful 0.0
markets 5.07544992008e-05
inspector 0.0
nigel_farage 7.54226339119e-05
drudge 0.0
abused 0.0
infrastructure 0.00010955578468
projected 0.0
boards 0.0
allegations 0.000285428985397
bloomberg 6.253128697e-05
insulting 5.96490559267e-05
leaking 0.0
liberal 0.000607966613711
chairs 0.000211612335132
podium 0.0
conceded 0.0
capitol 0.0
consulting 0.0
wannabe 0.0
powell 0.0
reforms 6.32235212235e-05
technical 0.0
securing 0.0
steven 0.0
rumsfeld 0.0
businesses 9.12425916786e-05
balancing 0.0
socialist 0.00012506257394
complaints 0.000108589577839
politician 9.25772521573e-05
representatives 0.0
rallies 6.62196990584e-05
belittle 0.0
ballot 0.0
failing 0.000166234565798
refuses 4.95548458943e-05
conclude 0.0
vibrant 0.0
tarmac 0.0
spinning 5.42947889197e-05
appointments 0.0
farewell 4.87882264738e-05
opponents 5.03476795482e-05
unopposed 0.00010275343379
polling 0.000149843623135
prosperity 0.0
apology 0.000174909341649
outline 0.0
losers 5.40569599075e-05
battlefield 0.0
abandoned 0.000104914289101
endorsed 5.90544560296e-05
negotiate 6.08860492177e-05
negotiated 0.0
unwilling 0.000169649219381
appointed 0.000278876924301
slaughter 6.62196990584e-05
betray 8.39494822322e-05
donated 4.18363468695e-05
immigrant 0.000325768733518
prosecuted 0.0
criminals 0.0
elizabethforma 0.0
protesting 5.87627776502e-05
releasing 0.0
screening 8.99452692995e-05
sponsor 0.0
pocketbook 0.0
transparency 5.07544992008e-05
austin 0.0
obamacare 5.73570063162e-05
acceptable 4.62886260786e-05
schwarzenegger 0.0
congressman 6.35775452821e-05
profits 0.0
toward 4.19764568149e-05
fleeing 6.58233111937e-05
bravery 0.0
protests 0.00016007330243
recieved 0.0
violent 0.000242071081714
remarkably 0.0
senators 0.0
ratings 4.59525604076e-05
spouses 0.00027272503548
fundraiser 0.0
senate 0.0
louisiana 0.0
giuliani 0.0
venezuela 0.000135753396955
parenthood 0.0
organizations 0.0
generations 0.0
minorities 0.000728416689642
underestimate 5.65527132475e-05
terrified 0.0
discourse 0.000135753396955
pennsylvania 0.0
hackers 0.0
nbcnews 0.0
mccain 0.0
scandal 0.000134439796389
constitution 0.0
sensanders 0.0
abandon 0.000121772098435
explode 6.15302052343e-05
reopening 0.0
governments 5.90544560296e-05
competent 0.000134902432697
mike_pence 0.000158592609957
stinks 6.92020949461e-05
logical 5.79091306244e-05
accurately 0.0
righteous 0.0
thursdays 0.0
fitting 0.0
category 0.0
swearing 0.0
politifact 0.0
abolish 0.0
surging 0.0
murders 0.00014121573256
reagan 0.0
vetting 7.15947439569e-05
vetted 0.0
pouring 0.0
fraudulent 0.0
ballots 0.0
fading 0.0
speakerryan 0.0
civilized 0.0
commercials 0.0
luxurious 0.0
outraged 6.18591203294e-05
nypost 0.0
statute 0.0
enforcement 0.0
accountability 0.0
truthful 0.0
springfield 0.0
cancelled 0.0
conflicts 0.0
suffer 4.86004673474e-05
selfishly 0.0
educational 0.0
stolen 0.0
visionary 0.0
wounds 0.0
disgraceful 0.0
hatred 0.000444247216843
persuasion 0.0
exposing 0.0
teaches 0.0
sellers 0.0
refers 6.28748210372e-05
trusted 5.60316098475e-05
sheriff 0.0
samsung 0.0
ranking 0.0
undecided 0.0
nebraska 0.0
abusive 0.000131646622387
abuser 0.0
nashville 0.0
lightweight 0.0
victories 6.66229809696e-05
consumer 0.0
violation 0.0
sarcasm 0.000123060410469
freaky 0.0
jimmyfallon 0.0
outlets 0.000105806167566
vanityfair 0.0
harassed 0.000217876491007
leverage 0.0
sacred 6.08860492177e-05
horrific 4.82294494256e-05
contribute 0.0
indicted 0.0
chooses 0.0
defended 0.0
champion 7.3886275688e-05
waited 0.0
denmark 0.0
conviction 0.0
retail 0.0
distract 6.35775452821e-05
globes 0.0
endorsing 0.000194019753307
pathetic 0.000215286181779
purposely 0.0
expose 0.0
representing 4.54574214794e-05
mmflint 0.0
registration 0.0
acceptance 0.0
defeated 0.00010955578468
prosecutor 0.0
nbcsnl 0.0
nevada 0.0
illinois 0.0
massachusetts 0.0
spontaneous 0.0
entrepreneur 0.0
arkansas 0.0
hotels 0.0
exhausted 0.000116380404505
puppets 0.0
protesters 5.47778923398e-05
natalie 0.0
anaheim 0.0
nominating 0.0
vietnam 0.0
claimed 0.000199791497513
indianapolis 0.0
loudly 6.28748210372e-05
sarasota 0.0
rapids 0.0
oklahoma 0.0
devoted 6.05705596515e-05
sacramento 0.0
arranged 0.0
baldwin 6.32235212235e-05
crushed 0.0
reflects 0.0
replacing 5.42947889197e-05
louder 0.0
flashback 0.0
farmers 0.0
unleashed 0.0
tourists 0.000135753396955
steals 0.0
albany 0.0
devastation 0.0
meantime 6.28748210372e-05
donlemon 0.0
wilbur 0.0
finalists 5.62906977431e-05
ransom 0.0
normmacdonald 0.0
vanishing 0.0
clarence 0.0
jaketapper 6.66229809696e-05
clowns 0.0
elizabeth 0.0
microphone 0.0
machines 0.0
premium 0.0
championships 0.0
impersonation 8.07460348572e-05
horribly 6.43022331805e-05
stakes 0.0
mouthed 0.0
reservation 0.0
delaware 0.0
springs 0.0
columbus 0.0
slackers 0.0
toyota 0.0
chucktodd 0.0
correspondents 0.0
soldier 0.0
panels 0.0
broadcasting 5.29030837829e-05
sparks 0.0
warned 0.000187208149129
jclayfield 0.0
kellogg 0.0
anchor 6.21927681781e-05
heated 0.0
congressional 0.0
boeing 0.0
usatoday 0.0
endlessly 7.06078662801e-05
craziest 0.0
viewers 5.15901977679e-05
delivers 0.0
pittsburgh 0.0
marshal 0.0
reverend 0.0
lifelong 5.9349850157e-05
disdain 0.0
hispanic 0.0
defrauded 0.0
oppression 7.31585808342e-05
crowds 0.0
washingtonpost 5.01469153035e-05
affordable 0.0
tapping 7.60249567484e-05
ginsburg 0.0
reilly 0.000244823562005
illegally 0.0
shootings 0.0
destiny 0.0
serenawilliams 0.0
motors 0.0
redding 0.0
initially 0.00018759386091
travis 0.0
accomplishments 0.0
misconduct 0.0
mocked 0.0
disgrace 0.000174570606758
greeley 0.0
carmel 0.0
outcry 0.0
playbook 0.0
zealand 0.0
fearless 0.0
lining 5.70857970793e-05
sidekick 0.0
madame 0.0
grandstand 0.0
rochester 0.0
speechless 0.0
fletcher 8.48246096907e-05
begged 0.0
wintour 0.0
inspires 0.0
carlos 0.0
missiles 0.0
chelsea 0.0
oppressive 0.0
forgiven 0.0
killings 7.1096055373e-05
taiwan 0.0
somalia 0.0
burning 0.0
subscribers 0.0
chester 0.0
newtown 0.0
booker 0.0
heights 0.0
leicester 0.0
chiefs 0.0
joenbc 0.0
opioid 0.0
separately 0.0
intros 0.0
columnist 6.46732511023e-05
manages 7.54226339119e-05
financed 0.0
mnuchin 0.0
delegate 0.0
vicente 0.0
struck 0.0
trudeau 7.1096055373e-05
oreillyfactor 0.0
vulgarian 0.0
publicity 0.000123718240659
amnesty 0.0
ivankatrump 0.0
communism 8.97769927142e-05
linkedin 0.0
avoided 5.99521729935e-05
sophisticated 0.0
seanhannity 0.0
anncoulter 0.0
foolish 0.000125749642074
catholics 0.0
bogged 0.0
catholic 0.0
thriving 0.0
newtgingrich 0.0
abedin 0.0
secretly 0.000106258622382
undermines 7.26254970024e-05
americanism 0.0
christians 0.000999344714544
rationally 0.0
deplorable 8.07460348572e-05
wikileaks 0.000381465271693
execution 0.0
enduring 0.0
foxandfriends 0.0
losses 0.0
kevcirilli 0.0
staffers 0.0
barron 0.0
jihadis 0.000195158306272
hampshire 6.78766984773e-05
pandering 8.76675277118e-05
donaldjtrumpjr 0.0
moines 0.0
lobbying 0.0
careless 0.0
piersmorgan 6.02593049726e-05
palestinian 8.07460348572e-05
kellyanne 0.0
democrat 0.0
unfunny 0.0
condemned 0.0
despair 0.0
louvre 0.0
crooked 0.0
lynden 0.0
outperform 0.0
tedcruz 0.0
majors 0.0
schumer 0.0
credibility 0.000177163368089
flooding 0.0
hannity 0.0
beneficiary 0.0
sanctions 0.0
nominates 8.76675277118e-05
existent 0.0
criticized 6.78766984773e-05
senatemajldr 0.0
workforce 6.92020949461e-05
issued 0.0
outsider 0.0
declare 0.0
ivanka 6.74512163486e-05
dignified 0.0
threaten 0.000107176993993
outcomes 0.0
ukraine 0.0
justintrudeau 0.0
vladimir 0.0
businessman 0.0
regards 0.0
assange 0.00029705194403
malicious 0.0
garners 0.0
ethics 5.47778923398e-05
wrecked 0.0
regimes 0.0
incorrectly 0.0
hostile 0.0
defenders 0.000214784231871
deceived 0.0
hypocritical 0.0
favorably 0.0
shatter 0.0
changer 5.5521960202e-05
spokane 0.0
unnecessary 0.0
cwaunion 0.0
expand 0.0
apologized 0.0
criticizing 7.48355614051e-05
legion 0.0
hershey 0.0
intensity 0.0
tigerwoods 0.0
amercan 0.0
reince 0.0
chriscjackson 0.0
hypocrites 0.0
billkristol 0.0
govmikehuckabee 0.0
dustin 0.0
bullied 6.35775452821e-05
anonymous 0.0
yankees 0.0
thehill 0.000136620268004
infiltrated 9.75791531361e-05
somali 0.0
invention 0.0
frontrunner 0.0
patriot 0.0
poorly 5.2679042181e-05
prisonplanet 0.000628626387073
daytona 0.0
comparable 7.37042089593e-05
shouted 0.0
holocaust 0.0
kellyannepolls 0.0
foxnews 0.000180777914918
initiated 0.0
tiffany 0.0
mikeandmike 0.0
barbara 0.0
litigation 0.0
frankcaliendo 0.0
toughness 0.0
suffered 0.0
streep 0.0
billionaire 0.000168094829543
percentage 0.0
insiders 0.0
premiums 0.0
congratulatory 0.0
treasurer 0.0
incompetence 0.000203630095432
delegates 0.0
rollout 0.0
appalled 0.0
misquoted 0.0
pledged 6.43022331805e-05
demanded 7.01297436624e-05
andrews 0.0
lowlife 0.0
courageous 0.0
betrayed 0.000143189487914
horrors 0.0
warheads 0.0
pledges 6.35775452821e-05
interrupts 0.0
blacks 0.0
elaine 0.0
candidacy 0.0
discredited 0.0
cringing 0.0
estates 0.0
laughable 0.0
aberdeen 0.0
healed 0.0
floods 0.0
swiftly 8.00098420589e-05
cheryl 0.0
syracuse 0.0
difficulties 0.0
flipping 0.0
wilkes 0.0
lisbon 8.15063693812e-05
suckers 8.31061847381e-05
golfdigest 0.0
jeffrey 0.0
sixteen 0.0
scandals 7.86040707249e-05
circuits 0.0
regulations 0.0
monitoring 5.60316098475e-05
swamped 0.0
costing 0.0
detained 0.000132439398117
warmest 0.0
marginalize 0.0
miners 0.0
unemployment 0.00025012514788
paragon 0.0
obsolete 8.00098420589e-05
subsidies 0.0
exercised 0.0
evangelicals 0.0
franklin 0.0
molten 0.0
servers 0.0
billgates 7.60249567484e-05
excessive 0.0
coordinated 0.0
geneva 0.000142192110746
soaring 0.0
unsecured 0.0
corporations 6.83101340019e-05
rifles 0.0
innovative 0.0
pillar 0.0
bashing 0.000138404189892
organize 0.0
panelists 0.0
frontiers 0.0
pricing 0.0
platforms 0.000127155090564
scaling 0.0
pretends 8.57340645063e-05
forensic 0.0
roundtable 0.0
inherit 0.0
fabrication 9.090834516e-05
brewer 0.0
unaffordable 0.0
reinforcing 0.0
eventful 0.0
wasserman 0.0
lindsey 0.0
billclinton 0.0
upstate 0.0
empowerment 0.0
penalties 0.0
responders 0.0
civilization 0.0
occupy 0.0
approximately 0.0
knight 0.0
homeownership 0.0
scratched 0.0
screws 0.0
contractor 0.0
havana 0.0
lowering 0.0
foundations 0.0
revitalize 0.0
counters 0.0
foreclosed 0.0
renovated 0.0
delaying 0.0
employer 6.253128697e-05
executed 6.66229809696e-05
subpoena 0.0
grifters 0.0
cincinnati 0.0
disgraced 0.0
falsely 0.0
strengthening 0.0
abcworldnews 0.0
skyrocketing 0.0
pipelines 0.0
likewise 6.3937058304e-05
dishonest 0.0
surges 8.48246096907e-05
woefully 0.0
pressured 0.0
erratic 0.0
temperament 0.0
emboldened 0.0
keystone 0.0
mandated 9.46768544798e-05
crumbling 0.0
johnkasich 0.0
latinos 0.0
combating 0.0
incompetent 0.000150845267824
loopholes 0.0
incapable 0.000150845267824
unqualified 0.0
melaniatrump 0.0
recount 0.0
voluntarily 0.0
desperation 7.60249567484e-05
denounce 0.0
demoralized 0.0
incited 0.0
fawning 0.0
accuser 0.0
electing 0.0
patrol 0.0
connecticut 0.0
amounts 5.65527132475e-05
govpencein 0.0
squandered 0.0
enforce 0.0
epipens 0.0
deplorables 0.0
generals 0.0
timkaine 0.0
benghazi 0.0
moderators 0.0
sheriffclarke 0.0
unfairly 0.0
competence 0.000144208787205
dysfunctional 0.0
eleventh 0.0
instructed 0.0
restrict 0.0
battleground 0.0
jilted 0.0
blazing 7.86040707249e-05
hypocrite 0.0
mcconnell 0.0
circulated 0.0
flailing 0.0
pathological 8.57340645063e-05
deflect 0.0
undoing 0.0
predictable 0.0
phoney 0.0
perils 0.0
governing 6.92020949461e-05
likeable 0.0
tumble 0.0
praised 0.000469233806882
extraordinarily 0.0
jinping 0.0
trashes 0.0
knowingly 8.15063693812e-05
disloyal 0.0
woodward 9.3351458011e-05
magnificently 0.0
pretended 0.0
slaughtered 0.0
climber 0.0
americ 0.0
unprofessional 0.0
diplomats 0.00024687744844
resulted 0.0
crossroads 0.0
syrians 0.000550228495074
suppress 0.0
remembrance 0.0
infighting 0.000100897393446
castro 0.0
unquestionably 0.0
corrupted 0.0
kasich 0.0
readership 0.0
fraternal 0.0
frankluntz 0.0
demagogue 0.0
unanimous 0.0
bedford 0.0
longtime 0.0
complexities 8.86982807572e-05
dailymail 0.0
couric 0.0
cancelling 0.0
morningmika 0.0
concord 0.0
recounts 0.0
shouldered 0.0
patmccrorync 0.0
executives 0.0
westfield 0.0
graydon 0.0
sheldon 0.0
tanking 0.0
morning_joe 0.0
fabricated 0.0
corolla 0.0
groveling 0.0
unfolding 8.39494822322e-05
polled 8.48246096907e-05
influx 0.0
underachieving 0.0
antics 0.0
disenfranchised 0.0
golfing 0.000152049913497
xfinity 0.0
defies 0.0
fictitious 0.0
districts 0.0
vigilant 0.0
obstruction 0.0
rebuilding 0.0
preserving 0.0
passover 0.0
dhsgov 0.0
thejusticedept 0.0
repealed 0.0
intends 0.0
wildfires 0.0
usedgov 0.0
fresno 0.0
usnavy 0.0
scotus 0.0
tillerson 7.26254970024e-05
ineffective 0.0
senjohnmccain 0.0
cbsnews 0.0
lawsuits 8.22924828133e-05
caucus 0.0
shimon 0.0
wilmington 0.0
stagnant 0.0
gouging 0.0
baghdad 0.0
wiesel 0.0
obstruct 0.0
gonzalo 0.0
curiel 0.0
hostage 0.000139322561503
unnamed 8.00098420589e-05
truckers 0.0
boldly 0.0
scarborough 0.0
evangelical 0.0
cyberattack 0.0
marines 0.0
crimea 0.0
earners 0.0
oversaw 0.000115251752248
lobbyists 0.0
rosiegray 0.0
briefings 0.0
actresses 0.0
purchases 0.0
myanmar 0.0
heightened 0.0
shackles 0.0
perjury 0.0
dallaspd 0.0
respectfully 0.0
canton 0.0
approx 7.06078662801e-05
admirals 0.0
naples 0.0
brainwashed 0.0
albuquerque 0.0
supposedly 0.0
coliseum 0.0
greensboro 0.0
sheriffs 0.0
hostages 0.0
explorers 0.0
confidential 0.0
tamara 0.000106981128915
infested 0.0
depicted 0.0
devote 0.0
payroll 0.0
bombshell 0.000242238104572
advisers 0.0
watergate 0.0
mcmaster 0.0
renews 0.0
housegop 0.0
katyturnbc 0.0
pocahontas 0.0
wherein 0.0
shreds 0.0
pelosi 0.0
chrysler 0.0
collusion 0.0
deductibles 0.0
repmarkmeadows 0.0
darrellissa 0.0
insurer 0.0
dishonesty 0.0
hotlinejosh 0.0
quinnipiacpoll 0.0
apologizing 0.0
priebus 0.0
clapper 0.0
tapped 0.0
operatives 0.0
senschumer 0.0
marcorubio 8.07460348572e-05
viciously 0.0
leakers 0.0
bangladesh 8.48246096907e-05
favorable 0.0
nbcnightlynews 0.0
lockheed 0.0
untruthful 0.0
resonating 0.0
transferring 8.31061847381e-05
staten 0.0
humana 0.0
juanita 0.0
senses 0.0
stimulate 0.0
drooling 0.0
lakeland 0.0
burying 0.0
crafted 0.000226267901736
misrepresent 0.0
fabled 0.0
railing 9.46768544798e-05
billyjoel 0.0
sniper 0.0
cnnsotu 0.0
independents 8.31061847381e-05
detroitnews 0.0
foxbusiness 0.0
washtimes 0.0
realbencarson 0.0
meetthepress 0.0
newday 0.0
thebrodyfile 0.0
bostonherald 0.0
foxnewssunday 0.0
thefive 0.0
chriscuomo 0.0
randpaul 0.0
dcexaminer 0.0
facethenation 0.0
bretbaier 0.0
interruption 0.0
allenwest 0.0
cvpayne 0.0
dailycaller 0.0
prosecution 0.0
ballistic 0.0
vetoed 0.0
gettysburg 0.0
groping 0.0
brennan 0.0
nielson 0.0
justices 0.0
operative 0.0
surged 0.0
megynkelly 0.0
terminated 0.0
softbank 0.0
fronting 0.0
rigging 0.0
reprieve 0.0
pocketed 0.0
colluded 0.0
coffers 0.0
stairway 0.0
ellison 0.0
selflessly 0.0
tornadoes 0.0
levine 0.0
scranton 0.0
enslave 0.0
inappropriately 0.0
devalue 0.0
presumptive 0.0
fournier 0.0
terminate 9.9178968493e-05
reptommarino 0.0
kimberly 0.0
subscriptions 0.000171468129013
ingrahamangle 0.0
trajectory 7.92963049784e-05
natalie_gulbis 0.0
unheard 0.0
objectified 0.0
turnberry 0.0
djohnsonpga 0.0
bedminster 0.0
golf_com 0.0
elevation 0.0
litany 0.0
unaccountable 0.0
primaries 0.0
disrupter 0.0
runways 0.0
hashanah 0.0
unenthusiastic 0.0
undecideds 0.0
richardtrumka 0.0
renegotiate 0.0
rapists 0.000167898964464
aldridge 0.0
unsubstantiated 0.0
misrepresented 0.0
prisoner 0.0
mattis 0.0
weakening 0.0
endakennytd 0.0
taoiseach 0.0
lifeboat 0.0
enabler 0.0
emanated 0.0
lindseygrahamsc 0.0
renegotiating 0.0
waterville 0.0
zucker 0.0
berglund 0.0
suboptimal 0.0
steelworkers 0.0
postpone 0.0
mohammed 0.0
indignant 0.000115251752248
comprised 0.0
stupidest 0.0
exxonmobil 0.0
precluded 0.0
instruct 0.0
gonzales 0.0
scorned 0.0
davidmuir 0.0
harrisburg 0.0
caesars 0.0
borisep 0.0
lapierre 0.0
limbaugh 0.0
petraeus 0.0
phyllis 0.0
illegals 0.000195158306272
sanctity 0.0
neurotic 0.0
negligence 0.0
alvarez 0.0
roseanne 0.0
roanoke 0.0
theleegreenwood 0.0
mcallen 0.0
deduct 0.0
chokes 0.0
vigilance 0.0
pensacola 0.0
tuckercarlson 0.0
repcummings 0.0
windham 0.0
teleprompter 0.0
paulareidcbs 0.0
jeffzeleny 0.0
condoleezza 0.0
genflynn 0.0
donaldtrump 0.0
demeanor 0.0
baiting 0.0
plotted 0.0
aptitude 0.0
billings 0.0
approving 0.0
disconnected 0.0
superstorm 0.0
brainpower 0.0
exclaim 0.0
skyrocketed 0.0
globalism 0.0
israelipm 0.0
insurgent 0.0
sneers 0.0
unrest 0.0
scaramucci 0.0
disapproval 0.0
katiepavlich 0.0
overflow 0.0
warped 0.0
scottwalker 0.0
kirstenpowers 0.0
usarmy 0.0
schlafly 0.0
alisonforky 0.0
oppresses 0.0
pedantic 0.0
highness 0.0
benefitted 0.0
fundraisers 0.0
shinzo 0.0
augustine 0.0
ranchers 0.0
middletown 0.0
fiorina 0.0
pueblo 0.0
lindasuhler 0.0
lightweights 0.0
kimguilfoyle 0.0
perdue 0.0
unmasked 0.0
unmasking 0.0
judgejeanine 0.0
boycotted 0.0
outnumberedfnc 0.0
jessebwatters 0.0
podesta 0.0
kristol 0.0
interruptions 0.0
broaddrick 0.0
erictrump 0.0
outspending 0.0
irredeemable 0.0
begala 0.0
brazile 0.0
dinesh 0.0
markings 0.0
ericbolling 0.0
loudobbs 0.0
skyrocket 0.0
blumenthal 0.0
cochran 0.0
imploding 0.0
discord 0.0
jeffflake 0.0
davidwohl 0.0
bribery 0.0
repkenbuck 0.0
joshrogin 0.0
enrique 0.0
unverified 9.75791531361e-05
retribution 0.0
dwindling 0.0
automobile 0.0
teamtrump 0.0
subpoenaed 0.0
danscavino 0.0
joniernst 0.0
scottadamssays 0.0
senatorfischer 0.0
tabulation 0.0
trafficked 9.9178968493e-05
depict 0.0
unrelenting 0.0
imitating 0.0
dutchess 0.0
adelson 0.0
valuing 0.0
ricksantorum 0.0
chuckgrassley 0.0
laraleatrump 0.0
abingdon 0.0
equating 9.46768544798e-05
ministries 0.0
brzezinski 0.0
sentedcruz 0.0
jamesrosenfnc 0.0
leaker 0.0
realjameswoods 0.0
jim_jordan 0.0
marshablackburn 0.0
boynton 0.0
betsydevos 0.0
lawfare 0.0
larry_kudlow 0.0
stranahan 0.0
waynedupreeshow 0.0
phillypolice 0.0
scottwrasmussen 0.0
johnstown 0.0
raul_labrador 0.0
statewide 0.0
reviewjournal 0.0
oppress 0.0
underlings 0.0
bankrupted 0.0
collude 0.0
fayetteville 0.0
disqualifying 0.0
mahoning 0.0
disloyalty 0.0
americanlegion 0.0
bankruptcies 0.0
morell 0.0
ambridge 0.0
emboldens 0.0
asheville 0.0
grievous 0.0
ricketts 0.0
benefactor 0.0
dwyane 0.0
markhalperin 0.0
mayorbowser 0.0
unverifiable 0.000118826217545
savaged 0.0
wheeling 0.0
technocratic 0.0
countr 0.0
thealabamaband 0.0
relives 0.0
unwatchable 0.0
residences 0.0
gatekeeper 0.0
defections 0.0
senatorsessions 0.0
drmoore 0.0
honorably 0.0
billhemmer 0.0
shultz 0.0
aflcio 0.0
trucking 0.0
fabrications 0.0
malleable 0.0
misrepresents 0.0
decimated 0.0
arabella 0.0
mishandled 0.0
interfe 0.0
speach 0.0
iranians 0.000218848483532
fraudulently 0.0
enablers 9.60826258138e-05
dealmaker 0.0001348990013
terrori 0.00012305391267
anarchists 0.0
krzanich 0.0
foxnation 0.0
permeated 0.0
overruns 0.0
disposed 0.0
inaccurately 0.0
peebles 0.0
conditioners 0.0
classifie 0.0
forewarned 0.0
karlrove 0.0
palazzo 0.0
evansville 0.0
rebroadcast 0.0
bangor 0.0
secpricemd 0.0
realdonaldtru 0.0
uschamber 0.0
trumpinaugural 0.0
rawlings 0.0
churchillian 0.0
hemmer 0.0
rudygiuliani 0.0
pynance 0.0
terrybranstad 0.0
cbnnews 0.0
faithandfreedom 0.0
ovations 0.0
scpioneer 0.0
dwstweets 0.0
tgowdysc 0.0
bluffs 0.0
marist 0.0
spluttering 0.0
thetodaysgolfer 0.0
thebig_easy 0.0
hoosier 0.0
senbobcorker 0.0
larsloekke 0.0
roadblocks 0.0
manheim 0.0
greenblatt 0.0
jtanews 0.0
mitchellvii 0.0
bemoan 0.0
michiga 0.0
gennifer 0.0
gulbis 0.0
liyuan 0.0
enlisting 0.0
ainsleyearhardt 0.0
stevedoocy 0.0
foxfriendsfirst 0.0
pastormarkburns 0.0
marksimoneny 0.0
gov_gilmore 0.0
flunky 0.0
agitators 0.0
overdoses 0.0
liliantintori 0.0
leopoldo 0.0
traceadkins 0.0
gopconvention 0.0
governorsununu 0.0
laconia 0.0
teamsters 0.0
gatewaypundit 0.0
lawyerly 0.0
dissipates 0.0
realjeffreylord 0.0
nytimesdowd 0.0
scalise 0.0
straightening 0.0
energizer 0.0
montgomeriefdn 0.0
shulkin 0.0
ericgreitens 0.0
circuited 0.0
govbrewer 0.0
infringed 0.0
mcgarvey 0.0
republicanstudy 0.0
americafirstpol 0.0
fheile 0.0
phadraig 0.0
wiedefeld 0.0
coddington 0.0
kravis 0.0
fighterjet 0.0
shinzō 0.0
votestand 0.0
romoabcnews 0.0
moskowitzeva 0.0
drgoodspine 0.0
levisteveholt 0.0
untrusting 0.0
sleazebag 0.0
lbperfectmaine 0.0
timken 0.0
newhouse 0.0
evancho 0.0
franklin_graham 0.0
eazymf_e 0.0
busineses 0.0
substantialy 0.0
rexnord 0.0
sdcritic 0.0
highonhillcrest 0.0
fiiibuster 0.0
koster 0.0
saucier 0.0
t_lineberger 0.0
cissieglynch 0.0
saysgabrielle 0.0
ravenrantz 0.0
mayorrgiuliani 0.0
deplorablecbtp 0.0
tanden 0.0
keithrowland 0.0
kinston 0.0
sjsopio 0.0
aztrumptrain 0.0
therealmogul 0.0
unclassify 0.0
firebombed 0.0
wikileakes 0.0
davidshiloach 0.0
trumpwomenstour 0.0
mistreats 0.0
willey 0.0
dornsife 0.0
henryleledog 0.0
eericmyers 0.0
atensnut 0.0
arouses 0.0
anyonetennis 0.0
flifeforce 0.0
geeveem 0.0
susiesentinel 0.0
bcuzimdamomma 0.0
freedavidking 0.0
ifdanyt 0.0
arsenmissyirvin 0.0
nycmia 0.0
bigdog_joey 0.0
roadkingl 0.0
decieved 0.0
waukesha 0.0
creati 0.0
thallensboucher 0.0
kenansville 0.0
tarukmatuk 0.0
angpiazza 0.0
laughingstock 0.0
ak_tweet 0.0
kiiara 0.0
jerryjrfalwell 0.0
ghfanlovessonny 0.0
bishopwtjackson 0.0
cynthialummis 0.0
repreneeellmers 0.0
trumpdc 0.0
stvzbnk 0.0
bakari 0.0
adhd_fa 0.0
parisdennard 0.0
ronnieclemmons 0.0
takouis 0.0
lblackvelvet 0.0
chernuna 0.0
annebellar 0.0
presidencies 0.0
rsbnetwork 0.0
meequalsfree 0.0
pmnorlando 0.0
rhondar 0.0
patrici 0.0
lindaharden 0.0
trumpocrats 0.0
lewenskimo 0.0
trump_videos 0.0
sinabunz_tm 0.0
eyecandytmgayle 0.0
catonglass 0.0
billynungesser 0.0
samaritanspurse 0.0
zulu_out 0.0
willspeakout 0.0
laurencristmann 0.0
c_lynne_ryan 0.0
enemywithinn 0.0
elsolarverde 0.0
creats 0.0
dbongino 0.0
bongino 0.0
carl_c_icahn 0.0
fieldoffight 0.0
reploubarletta 0.0
mainegop 0.0
gatewaypun 0.0
mechanicsburg 0.0
pnehlen 0.0
patrioticpepe 0.0
insticts 0.0
borderless 0.0
lallyray 0.0
glowingly 0.0
spinnnn 0.0
flamed 0.0
nancynielsenn 0.0
olimauritania 0.0
theresa_cali 0.0
roxanetancredi 0.0
litigate 0.0
trumpdoonbeg 0.0
berrien 0.0
nbcpolitics 0.0
jakeda 0.0
barrasso 0.0
bluedogdemky 0.0
iowa_trump 0.0
arnold_ziffel 0.0
patricia_graf 0.0
brazosboys 0.0
jimvitari 0.0
trumpturnberry 0.0
trumpscotland 0.0
darrenwaggener 0.0
allegrettivicki 0.0
justininglv 0.0
chrisboydbrew 0.0
votetrumpmaga 0.0
realericjallen 0.0
insinuated 0.0
clubgoers 0.0
ausbiz 0.0
freemarketsara 0.0
senatorjeffsessions 0.0
mabynshingleton 0.0
dale_dangler 0.0
nauthizjane 0.0
richardweaving 0.0
mariadaq 0.0
sara_wejesa 0.0
jimhewitt 0.0
joedefranco 0.0
wolfstopper 0.0
djd_thunder 0.0
excoriates 0.0
rapidcraft 0.0
telepromter 0.0
liliannyleebou 0.0
lunsfordwhitney 0.0
free_sa_bd 0.0
stockdaleism 0.0
admonished 0.0
nbcdfw 0.0
frankylamouche 0.0
sandiegopd 0.0
tombarrackjr 0.0
buiidthewall 0.0
pipersul 0.0
oasisupernova 0.0
jknatter 0.0
jasondovesq 0.0
ed_klein 0.0
overregulates 0.0
dubilujane 0.0
rbacliff 0.0
ltstevenlrogers 0.0
rowanne 0.0
shoneep 0.0
magicmetalninja 0.0
barbaro 0.0
michael_favreau 0.0
christichat 0.0
mai_ttag 0.0
thydanielflores 0.0
costakenneth 0.0
svhlevi 0.0
johnjohnlacca 0.0
ladytsbrug 0.0
frankdallasagg 0.0
ladyjoanne 0.0
gerriweth 0.0
longbyfive 0.0
wesleyfelixpsi 0.0
manakoa 0.0
ragdollive 0.0
xgodfatherxzx 0.0
trumptrainrider 0.0
aprillajune 0.0
takingit_back 0.0
distlerjoyce 0.0
queencharlotteo 0.0
kellyriddell 0.0
valdosta_monkey 0.0
daybastrop 0.0
nathandwilsonfl 0.0
mathewjmari 0.0
stupor 0.0
matandsher 0.0
edgoeas 0.0
lynnepatton 0.0
erictrumpfdn 0.0
mikeozanian 0.0
lexingtonbobby 0.0
annettejeanne 0.0
andrebauer 0.0
waterbury 0.0
greenskydeb 0.0
keksec__org 0.0
ashleyedam 0.0
trumptbird 0.0
herb_stamper 0.0
senfrankniceley 0.0
anneslimo 0.0
agentvf 0.0
hornick 0.0
gqforbes 0.0
governor_savage 0.0
carolde 0.0
fugedaboudit 0.0
dnglax 0.0
alexnightrasor 0.0
lilrachiepoo 0.0
