awesome 2.64735266558e-05
christmas 0.00121448170926
trying 0.00109597213375
moment 0.000191634233444
wonderful 8.02881973884e-05
seeing 0.000171336388513
recommend 3.54623514033e-05
anybody 0.0
worked 0.000128828331615
direct 0.000168690933825
others 0.000307519320058
currently 0.000226737387201
better 0.00113135892263
please 0.00267565672613
social 0.0016547860544
around 0.000377119640876
people 0.00266340746369
leaving 0.000323783875789
morning 0.000331763364087
general 0.000244336041009
investigate 5.11767836155e-05
damage 0.000194257144045
everything 0.000165881682043
twitter 0.00144944205327
though 0.000271430839626
friend 0.000142952887011
watched 0.000107050929851
beautiful 0.000244106968804
anything 0.000361256773163
helped 0.000103903204977
managing 5.37742691549e-05
updated 0.000113000275474
thinking 0.000193712048634
finally 0.000217926054713
caught 0.000106760390607
believe 0.000519939073873
already 0.000519939073873
couple 5.1811095812e-05
orlando 0.0
research 0.000190613834454
chance 0.000284368597789
meaning 0.0
annual 9.55773188288e-05
quickly 9.91900067489e-05
growing 0.000170520544513
probably 0.000359744498608
should 6.2646803817e-05
changed 0.000152105607661
history 0.000414981846966
center 0.0
museum 4.11465356696e-05
behind 0.000259269753102
pretty 0.000266354066872
really 0.00177730373618
expensive 8.14963207366e-05
little 0.00054357266814
earlier 0.000305007309979
realized 0.0
forget 0.000144113658496
someone 0.000955591687904
mostly 0.0
worker 4.99780518628e-05
safety 0.00010299725806
shuttle 0.0
program 0.0
things 0.000353549663322
related 3.48393201275e-05
visiting 0.000163431039483
available 0.000147654257298
afternoons 0.0
perfect 0.0
different 0.00019267027902
numbers 0.000177725151497
delays 0.000170862943348
person 0.000356420177033
watching 0.000452684142201
passed 0.000115572331052
celebrates 9.44471239776e-05
minutes 0.000244766269305
travel 0.000173837075259
daughter 2.86554003029e-05
average 6.78692087627e-05
positive 0.000112439819976
outside 0.000250784462857
looking 0.000425404696805
forward 0.000365174261037
plenty 7.02975544643e-05
agreed 6.35379448181e-05
raising 0.000135344763884
listened 7.51030032956e-05
afraid 0.000306275586776
impression 4.35407691063e-05
drawing 0.000126729034182
favorite 0.0
magnet 0.0
picture 0.0004286430435
historic 3.57801536681e-05
instead 0.000186830683562
appreciate 0.000250920019526
husband 7.39670457959e-05
international 0.000322240878429
market 0.000511193378363
couldn 0.000246755308751
remember 0.000213276448342
impressive 0.0
familiar 3.80159497309e-05
friends 0.000214429330516
despite 0.000235484118624
impossible 9.66693858277e-05
everyone 0.00049764504613
florida 0.0
always 0.000447829573541
months 0.000148453241713
moving 7.64651078131e-05
meeting 0.000388470199577
google 8.93570528172e-05
answer 0.000242793874736
together 0.000332658831898
inside 2.46755308751e-05
smaller 0.0
missed 0.000168132601579
active 3.81335059723e-05
longer 8.20560377839e-05
enough 0.000335359908527
driving 0.000173837075259
building 0.000186323801925
technician 0.0
enjoying 5.79456917529e-05
london 0.000732864787174
kennedy 0.0
recent 3.13234019085e-05
gotten 0.0
amazing 0.000401771102538
attention 0.000187849142616
richard 6.88658622737e-05
progress 0.000262992139811
tomorrow 0.000616131961876
george 0.000206200242677
excited 9.89688278089e-05
campaigning 0.000477878153433
understand 0.000155013020068
following 0.000149256765837
learning 0.000117503045148
evening 0.00032555162986
special 0.00050168563615
secret 2.65454961089e-05
across 0.000132367633279
comparison 0.0
surprised 0.000197851589444
anymore 0.000181217177444
rather 0.000532353719787
showing 0.000227542649672
saying 0.000519586345997
tweeted 0.00021926381336
updates 0.000241030517958
thoughts 0.000201170188848
exactly 0.000128133050024
except 0.000241622903259
getting 0.000710921494472
nothing 0.000379158130385
tweets 0.000652923481404
course 0.000416102657818
stephen 0.000272812664248
looked 8.07260311877e-05
difficult 0.000124941158961
stages 0.0
office 0.000922557960175
decisions 0.000178900768341
brought 7.87767825065e-05
biggest 0.000146464181282
thrilled 0.0
entire 5.26604873525e-05
something 0.000853105793366
closing 0.000282022712898
anyone 0.000955591687904
taking 0.000592434578727
recently 6.15992061466e-05
interesting 0.000184812434018
original 2.80330545097e-05
flying 2.97856842724e-05
happening 0.000232519530101
sometimes 0.000182818574793
stopped 5.5607694174e-05
yesterday 0.000143338753186
service 0.000182323852255
serious 0.000202807476881
emails 0.000164051977452
afford 3.82516514706e-05
british 0.000518008100688
contact 0.000389998595916
either 0.00067172308696
second 0.000262787714174
accident 0.0
checking 3.07134239003e-05
volunteers 4.95916501344e-05
indeed 0.000484725292145
island 6.70867849068e-05
hearing 0.000211788213247
choose 0.000139400010848
staying 0.0
another 0.000496305479606
address 0.000255596689181
display 0.000127151184287
originally 0.0
compare 8.6492281101e-05
landing 0.0
perhaps 0.000858723688035
weekend 0.00026420837391
appear 0.000287096377389
anyway 3.06275586776e-05
theory 0.0
recognize 0.0
working 0.00151663252154
bigger 8.3411541261e-05
screen 6.40808293799e-05
treated 0.000155892950999
laughing 0.00014054977497
wanted 0.000191634233444
current 0.000139782020543
grateful 0.000123891650051
friendship 0.0
family 0.000450250279832
listening 0.00036366121742
stream 9.77785839864e-05
wedding 0.000107983283001
sharing 0.000223040017357
double 0.000187849142616
especially 0.000236330347519
middle 0.000136016528092
waiting 0.000437028974525
definitely 0.000284961026966
walking 8.52602722567e-05
account 0.00055607694174
completely 0.000393539369917
thought 0.000406126467359
reaction 0.000162036349977
accept 0.00024229753661
possible 0.000125392231428
simple 0.000137884235769
manufacturing 0.0
destroyed 4.55512311644e-05
professional 0.0
friendly 0.000105758517337
members 0.000448027970685
supposed 0.000126002482479
astronauts 0.0
component 0.0
business 0.000178901718018
absolutely 2.53509346102e-05
sending 0.00019251164624
delivering 5.01736544589e-05
heavily 0.0
biased 0.0
introducing 0.000190079748654
congrats 0.000223885148756
community 0.00102248186868
greatest 0.000103622191624
posted 0.000196231381568
saturday 0.000550237899025
wednesday 5.715340495e-05
confused 0.000207203240275
explain 0.000387131796048
broken 0.000146878806435
chicago 0.0
fairly 0.0
hoping 0.000170989599223
relationship 0.000446027487868
actually 0.00106829304884
basket 0.0
myself 3.10600474642e-05
pocket 4.06168509615e-05
argument 0.000621159483489
decent 0.000210515649055
school 0.000361256773163
thursday 2.53509346102e-05
selling 0.000129629079982
talented 3.11475057373e-05
discuss 0.000366504061514
celebrate 0.000104751305841
celebrating 0.000113058051111
anniversary 5.73108006057e-05
contest 3.08860985008e-05
internet 2.94571775254e-05
figure 5.66843468002e-05
inspired 0.000229243202423
sitting 5.35254649256e-05
complaining 9.04610925017e-05
playing 0.000240837848775
street 0.000262589275022
points 6.0743648087e-05
advice 0.000166823082522
forever 2.67627324628e-05
congress 0.0
imagine 0.0
problem 0.000406712828311
played 0.000105894106623
canadian 0.0
pulling 4.03564065706e-05
keeping 0.000370629373182
lovely 0.00107228463381
chinese 0.0
unlike 4.38391272365e-05
allowed 0.000249180045898
otherwise 0.000235484118624
afternoon 0.000139400010848
planned 3.40334304279e-05
strange 7.28578192043e-05
notice 6.42631892015e-05
difference 0.000362677670684
author 3.95919078492e-05
intent 5.5188892297e-05
letting 0.000349598237738
system 0.000444312878743
almost 0.000213276448342
details 0.000828977532991
experience 7.42266208567e-05
viewed 0.0
living 0.000247422069522
bright 0.0
normal 6.35379448181e-05
practically 0.0
before 0.000102784142459
monday 0.000148453241713
realize 0.0
currency 0.0
sleeping 3.76667584914e-05
wanting 0.000186613325584
science 0.0
tweeting 0.000135277654902
forgot 0.0
herself 0.0
disaster 3.63195359602e-05
happens 0.000294512903015
silence 0.00011196799535
congratulations 0.000130584696281
natural 0.0
raised 9.29187375379e-05
mission 0.0
ironic 0.000315941996689
testing 0.000124655280493
deleted 0.0
channels 0.0
surprising 3.82516514706e-05
reference 0.000120296425871
forgotten 7.05056782244e-05
trouble 8.78838759352e-05
setting 0.000134562353499
reminds 6.70867849068e-05
fantastic 5.59128082173e-05
loving 5.59128082173e-05
hardly 0.0
complete 0.00016321983371
membership 0.000255883918077
nearly 9.34425172118e-05
spirit 3.07134239003e-05
launched 3.53573624656e-05
stories 0.000358772540068
including 0.00021064194941
inviting 4.8837346481e-05
wouldn 0.000178901718018
choice 0.000353955232823
offended 0.0
conversation 0.000259322297989
disrespectful 0.0
making 0.00101624455348
expect 0.000227360726018
discussion 0.000103601620138
believes 4.15517601644e-05
occasions 0.0
response 0.000641240049901
brings 2.8576702475e-05
subject 3.97176146941e-05
greetings 0.000120654396244
anytime 0.000194866188749
protected 0.000144319307691
location 0.000111627223931
thomas 3.72090746436e-05
missile 0.0
needed 0.000126412583151
seriously 0.000183314785221
spending 2.94571775254e-05
groups 7.65033029412e-05
modern 0.000204796035511
welcome 0.000598856979513
totally 5.47040251893e-05
evenings 0.0
laughed 0.0
running 0.000248761276395
finished 2.83421734001e-05
strong 0.000195285575043
hopefully 0.0
respond 0.000322021383013
message 0.000352047830484
coming 0.000472671885339
thankful 0.0
temporary 0.0
issues 0.000367438666111
challenge 0.000493540223642
happen 0.000217339249918
giving 0.000359314187708
turkey 0.0
common 0.000234357002494
pressed 0.000129979892904
healthcare 0.000138121772511
benefits 0.000148836298575
situation 0.000216810387588
workers 0.00027626807521
company 8.05067754069e-05
health 0.000111825616435
insurance 8.17604108117e-05
change 0.00049764504613
august 3.3446595695e-05
mental 0.000176264195561
carrier 0.0
neither 0.000130744831586
lowest 0.0
decide 0.000264381851583
happened 0.000199546995291
demand 0.000312352897403
generally 0.0
personal 0.000309187995876
beyond 5.29470533116e-05
passion 7.17740943472e-05
question 0.000484280121585
doctor 3.63195359602e-05
sacrifices 0.0
respected 5.17998148913e-05
position 3.23150194763e-05
increased 4.82870496356e-05
losing 2.92137676765e-05
strain 0.0
respect 0.00012952773953
collapse 9.88015981419e-05
shouldn 0.000141710867001
career 0.0
visited 3.72090746436e-05
challenger 0.0
reason 0.000249433744114
simply 0.000325829444411
audience 0.0
employees 0.0
accounts 0.000158367631397
attacked 4.63725678398e-05
involved 0.000137884235769
extreme 4.1012994363e-05
unhappy 0.0
caused 0.0
knocked 0.0
reality 0.000112748428796
mention 0.000146068838382
extremely 0.0
burned 0.0
without 0.000477795843952
falling 0.000174710108586
problems 0.000116855070706
timing 0.0
highly 0.0
online 0.000178418584897
animals 3.95919078492e-05
called 0.000166778368179
scientists 0.0
pictures 0.000209661695011
camera 9.29187375379e-05
heading 0.000253683964791
terribly 0.000233206147923
theater 0.0
paying 9.23988092199e-05
complex 3.89732377497e-05
sunday 0.00051400916554
nights 0.0
enthusiastic 0.0
increasing 4.95916501344e-05
traffic 7.11356201836e-05
opposite 7.77028576182e-05
lookout 0.0
reached 0.0
changing 0.000261475918497
harder 0.000164842432254
silent 0.000241363534113
speaking 0.000461198142301
careful 7.17740943472e-05
november 3.1768972409e-05
answered 3.7436805667e-05
number 0.000291352649683
atlantic 0.0
stupid 0.000296716378057
budget 0.000572002589585
unless 0.000233710141412
calling 0.00052239868043
lately 0.0
levels 0.000109286728806
focused 3.84897340763e-05
ridiculous 3.26862078966e-05
financially 0.0
knowing 9.83397768739e-05
former 5.95713685448e-05
covers 3.83703921628e-05
mountain 0.0
suffers 0.0
schedule 0.0
greatly 0.0
friday 0.000192151544662
dramatic 0.0
failure 0.000305068047779
achieve 0.00019858807347
winner 0.000263302436762
closes 4.84690580887e-05
bother 4.52305462509e-05
directly 0.000117287038401
quality 0.000122510234711
tearing 0.0
father 2.69819896491e-05
wishes 0.0
collar 0.0
ground 6.14268478006e-05
matter 0.000228775965925
strategy 7.86849755395e-05
themselves 4.14159097736e-05
asking 0.000677118049713
mobile 7.86849755395e-05
device 0.0
computer 0.000219895148217
impressed 3.58870471736e-05
complain 0.0
dinner 0.000445193049822
suffering 4.46019762657e-05
single 0.000317339059445
parent 0.000303750961278
packed 0.0
catching 3.50451727684e-05
neglected 0.0
somewhat 0.0
approved 0.0
definition 0.000116919713249
energy 5.6374214398e-05
meltdown 0.0
events 8.81272838611e-05
europe 0.00049169888437
holiday 5.4555083659e-05
status 0.000107021228261
update 0.000331827253755
outage 0.0
customers 5.11767836155e-05
holding 0.000140165272548
survive 0.0
electric 0.0
picked 0.0
missing 0.000101130066521
surprise 0.000126754673051
german 0.000692718726261
officially 0.0
french 0.000304567609914
global 0.000348471001007
follow 0.000333556736359
opinion 0.000123544394003
design 0.0
allows 0.0
promoting 8.14963207366e-05
volunteer 9.91833002687e-05
negative 3.45338733792e-05
official 7.34298807915e-05
brutal 0.0
cotton 0.0
jersey 0.0
mistake 3.27799256246e-05
fixing 0.0
france 0.000164370087382
proper 0.000150667033966
peaceful 0.0
thinks 0.000193565898024
competition 0.00016020207345
industry 3.3446595695e-05
easier 9.63947838023e-05
successful 0.0
trending 0.0
leadership 0.000333864260739
agrees 4.65403263953e-05
organized 0.0
enthusiasm 5.64362721115e-05
turnout 5.15903026002e-05
showed 2.97856842724e-05
attended 0.0
trumps 0.000668159415092
networks 5.22245106616e-05
experienced 0.0
interested 0.000274110848923
effect 0.000124941158961
dislike 0.0
success 2.67627324628e-05
dreams 0.0
protect 0.000212602768304
rumors 0.0
arguing 0.000236987554761
referred 0.0
waving 0.000122503258902
growth 0.000310811430473
control 0.000132367633279
happier 0.0
likely 9.50375457293e-05
coincidence 0.0
cancel 0.0
project 0.000347915522016
laying 0.0
lesson 0.0
replacement 0.0
invited 6.67003896688e-05
continuing 0.0
clearance 0.0
treating 0.0
allowing 8.31035203288e-05
arrived 8.59662009086e-05
unable 0.0
opening 0.000128828331615
popular 6.48145399909e-05
followed 3.15006206197e-05
statement 0.000368561086804
enjoyed 2.81099549941e-05
spectacular 0.0
smoothly 0.0
length 0.0
wonder 0.000205568284919
matters 0.000404917574585
function 5.28762566344e-05
shared 3.2499882993e-05
connection 3.86096833303e-05
benefit 0.000326734400838
terrible 0.000211420040352
continues 0.000115572331052
equally 0.000223787771201
session 9.29187375379e-05
routine 0.0
associated 0.0
exciting 5.68401815045e-05
imagination 5.66938700586e-05
decides 0.0
cheering 0.0
spring 6.05743841525e-05
fallen 0.0
beautifully 0.0
places 0.000226116102222
entered 0.0
feedback 0.000369647958935
thousands 0.0
properly 8.62003919015e-05
informed 0.000125065194294
typical 0.0
continue 0.000164112075568
attend 0.0
excuse 0.000274659354826
female 0.000252717857378
recovery 3.92187605693e-05
closer 0.0
beginning 5.95713685448e-05
introduce 8.33767961962e-05
bought 2.89728458765e-05
multiple 3.58870471736e-05
slogan 0.0
covered 6.14268478006e-05
choices 0.000153481568651
unpredictable 0.0
enterprise 0.0
several 0.000136530690341
surrounded 0.0
dealing 0.000123439607009
teacher 3.53573624656e-05
training 0.000153567119501
auditorium 0.0
passing 9.61212440698e-05
become 7.42266208567e-05
presentation 0.0
spread 0.000108222123921
sooooo 0.0
season 2.61169392562e-05
putting 0.000348265786953
weight 3.68715512976e-05
stephanie 0.0
rapidly 0.0
follows 4.39897346342e-05
explained 0.0
stance 0.0
storms 0.0
headed 3.13234019085e-05
sleepy 0.0
returns 3.1768972409e-05
expected 0.0
resources 4.65403263953e-05
considering 0.0
fabric 0.0
suspect 0.000170101159792
constantly 0.0
condolences 0.0
appreciated 0.000149290660467
register 0.000211517034673
manage 0.000216230702753
transition 0.0
smooth 0.0
flowers 8.98283319259e-05
gained 5.37742691549e-05
savage 0.0
somebody 3.53573624656e-05
contract 8.2025988726e-05
furious 0.000157319289282
covering 0.0
boxing 0.0
credit 0.000379778979794
patriots 0.0
player 6.6126671166e-05
chemistry 0.0
grandkids 0.0
offensive 4.29551494773e-05
charles 0.0
fighting 0.000674549741227
atlanta 0.0
donald 0.000272267443423
mexico 0.0
unreal 0.0
police 0.000366504061514
represent 4.00988086235e-05
president 0.000131651218381
talking 0.000475226902711
unbelievable 0.000113000275474
alabama 0.0
slowest 0.0
conference 8.81272838611e-05
america 5.04285933529e-05
michigan 0.0
everybody 5.8427535353e-05
judgment 0.0
carolina 0.0
amount 6.65083732928e-05
houston 0.0
everyday 6.72811767497e-05
michael 0.000160576394777
protecting 0.00021121505697
million 0.0
election 0.000490293118449
honesty 0.0
telling 0.000376721478876
correct 0.0
pulled 3.55678100918e-05
attack 0.000152710025631
americans 0.0
salaries 0.0
killed 5.28035525764e-05
louisville 0.0
horrible 0.0
coverage 3.21315946008e-05
dallas 0.0
jacksonville 0.0
league 0.0
united 3.07134239003e-05
college 0.0
refuse 0.000127575869844
barackobama 0.0
hillary 0.0
clinton 3.87302461383e-05
presidency 0.0
manning 0.0
stupidity 0.00012508691671
american 0.00012573136803
remain 0.000200101169006
founder 0.0
illegal 0.0
arizona 0.0
opinions 4.06168509615e-05
retire 0.0
triumph 0.0
stealing 0.0
speeches 0.0
innocent 0.0
scared 0.0
golden 0.0
straight 5.25178550043e-05
removed 0.000133342255446
answers 9.16260153785e-05
product 3.80159497309e-05
created 2.84982665372e-05
snoopdogg 0.0
worlds 4.47575542402e-05
record 0.000321648690379
stamina 0.0
weapon 0.0
funeral 5.24397630942e-05
registered 9.69381161774e-05
minnesota 0.0
committed 3.73226651168e-05
journey 6.15992061466e-05
disrespect 0.0
brother 0.000115572331052
prayers 0.0
documentary 3.54623514033e-05
boston 3.42323343724e-05
addition 0.0
korean 0.0
church 0.00025196099367
advantage 0.0
honestly 0.000338361909709
defeat 4.25252899481e-05
baltimore 0.0
lifetime 0.0
captain 0.000120681767057
retired 0.0
country 0.000685345554054
valley 0.000121069219712
mailbox 0.0
speedy 0.0
ending 3.18591062763e-05
finish 5.82663729563e-05
employee 0.0
university 0.0
remembered 0.0
nominated 3.55678100918e-05
praying 0.0
insane 0.0
national 0.000230639490044
reform 0.000281276811685
oregon 0.0
shooting 0.0
cancer 5.95713685448e-05
australia 0.0
deserve 8.7158639499e-05
legend 0.000126358928689
mother 0.000580839078341
murder 0.000115111176488
creating 6.51857226576e-05
powerful 0.000404503158681
carson 0.0
palmer 5.72176688938e-05
branch 0.000209759052377
breaking 5.0976738542e-05
dollars 0.0
questions 0.000218514487262
racist 0.000128003121493
charged 0.0
girlfriend 0.0
performance 5.48534388012e-05
refreshing 0.0
reading 0.000276609009666
corrupt 5.74839991575e-05
penalty 0.0
writer 7.17740943472e-05
denver 0.0
create 0.000191987035804
admire 4.38391272365e-05
nobody 0.0
government 0.00120571994771
politics 0.000603781064161
comeback 0.0
charities 0.000167039853773
method 4.95916501344e-05
sample 0.0
bringing 7.9853057968e-05
celebs 0.0
stadium 0.0
funniest 0.0
according 0.0
threat 0.000211517034673
heroin 0.0
honest 0.000265114597728
rolling 0.0
became 2.96208585828e-05
feature 3.2499882993e-05
decision 0.000236311007756
counting 3.36405883749e-05
verified 0.0
signing 9.31801423926e-05
adding 0.0
embrace 4.14159097736e-05
pressure 0.000128892514437
celebrities 0.0
dearly 0.0
facebook 0.000456316822983
divided 0.000155399444674
extension 0.0
lawyer 9.0143650527e-05
charleston 0.0
brazilian 0.0
basketball 4.53903433209e-05
campaign 0.000715043257461
determine 0.0
whether 0.00035942004859
praise 0.0
factory 4.82870496356e-05
arrested 4.47575542402e-05
investments 0.0
activity 0.0
comments 0.000462289324207
wounded 0.0
endorsement 5.28762566344e-05
williams 0.0
future 0.000805552997052
struggled 0.0
blessed 0.0
sabotage 0.0
warrior 0.0
softball 0.0
cheating 0.0
voting 0.000525847818177
instincts 0.0
collins 0.0
succeed 4.4447418482e-05
commercial 9.74996489791e-05
religion 9.80473427691e-05
boring 0.0
acting 0.0
established 0.0
warriors 0.0
because 0.000204796035511
sensitive 0.0
smiling 4.1825832759e-05
traitor 7.66646616101e-05
cleveland 0.0
agents 0.000101139595721
periscope 0.0
killing 0.0
choosing 0.0
phillips 6.18886946524e-05
instagram 0.0
opponent 5.11767836155e-05
detroit 0.0
cousin 0.0
honored 0.0
nonsense 0.0
dedication 0.0
hammer 0.0
proven 0.0
talent 0.000157948660861
governors 0.0
knocking 0.0
russian 3.94668678872e-05
consecutive 0.0
skills 6.57480349527e-05
citizens 0.000566807766482
cameras 4.75727532282e-05
phones 0.0
california 6.78692087627e-05
commitment 0.000235312563416
maryland 0.0
seconds 3.16791819098e-05
placed 4.94007990709e-05
listen 0.000220289642374
dominating 0.0
whatever 0.000353642973039
wherever 9.07806866419e-05
fought 0.000153481568651
compete 4.4447418482e-05
lauderdale 0.0
injured 0.0
billion 3.39346043814e-05
shoutout 0.0
depressing 0.0
guilty 0.0
carpet 4.07481603683e-05
harvard 0.0
absolute 6.94741281985e-05
handle 3.08860985008e-05
promise 0.000252989594947
hosting 3.10600474642e-05
longest 4.21031298109e-05
generation 0.000194999297958
criminal 0.0
tuesday 0.000161452062375
garbage 0.0
goldman 0.0
ronald 0.0
locker 0.0
leader 0.000185316591005
desperately 0.000278399756289
character 0.0
chancellor 0.000402387994103
proving 4.92114809643e-05
jackson 0.0
interview 4.8167569755e-05
buffalo 0.0
insight 0.0
obviously 0.000498812799696
battle 5.5003327497e-05
destroy 8.22930713391e-05
killer 0.0
personally 0.00013692933749
relentless 0.0
winning 0.000252825166302
charlotte 0.0
trafficking 0.0
defense 0.0
japanese 0.0
causing 0.000249890259314
arabia 0.0
rapist 0.0
writing 0.000109706877602
society 0.000392234494759
officers 0.0
ambushed 0.0
sources 0.0
kentucky 0.0
incredible 2.55573882883e-05
ungrateful 0.0
kissing 0.0
minute 0.0
luther 0.0
foreign 0.000117656281708
phoenix 0.0
champions 0.0
virginia 0.0
streak 0.0
orange 7.09247028067e-05
policy 0.000382107705092
intentional 6.69072613483e-05
reminder 0.000113993066149
evidence 0.000562380435714
presidents 4.97840591829e-05
judged 0.0
accused 9.37589372282e-05
intentions 6.53611348725e-05
facing 0.000272812664248
freedom 0.000197810918704
actions 8.04545113711e-05
debating 0.000209759052377
consequence 6.94350360916e-05
coughing 0.0
clearly 0.000300351043518
invite 6.70867849068e-05
central 0.000156176448701
washington 0.0
tougher 0.0
veteran 0.0
division 0.000217703845532
overrated 0.0
veterans 4.63725678398e-05
stronger 0.0
bowden 0.0
promised 0.000271960001664
catches 0.0
worried 0.000205394006235
security 9.42355341144e-05
sanctuary 0.000130722269745
reverse 8.85877351932e-05
immediately 3.3063335583e-05
television 0.0
entitled 5.13826362563e-05
racism 0.0001828528991
highest 0.0
approve 0.0
turning 8.88625757485e-05
georgia 0.0
tennessee 0.0
legacy 0.000112654504943
leaked 5.0972713271e-05
choked 0.0
helping 0.000416740233726
tickets 8.59662009086e-05
suspending 0.0
suspend 0.0
willing 0.000143977710668
december 6.57480349527e-05
beating 4.03564065706e-05
basically 0.000207203240275
return 0.000104751305841
escape 0.0
locked 3.98439955736e-05
unacceptable 0.000255883918077
network 6.6126671166e-05
language 0.000165792839725
invest 9.44471239776e-05
creation 0.0
followers 6.12551173553e-05
schools 0.000975577062871
menace 0.0
movies 3.54623514033e-05
entity 0.0
children 0.00213579369784
nation 0.000148928421362
flexible 0.0
review 8.4561321597e-05
knowledge 6.72811767497e-05
begins 2.83421734001e-05
vanessa 0.0
forbes 0.0
parade 4.36894760826e-05
fireworks 5.42364403854e-05
shoulder 0.0
produced 7.41920579421e-05
consider 0.000125647378819
latest 0.000205012880039
signed 0.000261169392562
shower 0.0
thunder 0.0
charity 6.6126671166e-05
germany 0.000107983283001
advance 6.88658622737e-05
explaining 0.000163520821623
millions 0.00012816165876
blessings 0.0
diamond 0.0
dollar 0.0
monsters 0.0
rigged 0.0
conduct 0.000108941938921
cooked 5.59293713371e-05
turned 0.000103903204977
criticism 0.0
responded 5.11767836155e-05
depending 0.0
jackie 0.0
charge 0.000131119702499
ticket 0.000254151779272
finest 0.0
sanders 0.0
includes 0.000105758517337
dealers 0.0
against 0.000156673531985
benjamin 0.0
impact 0.000316791819098
families 0.000424020689067
selection 4.50718252635e-05
hitting 0.000252717857378
announced 5.76271773309e-05
decided 0.000141710867001
professor 4.47575542402e-05
itself 0.0
promote 0.000266934541806
mexican 0.0
owners 0.0
guards 0.000266044471787
guarantee 4.63725678398e-05
beliefs 0.0
citizen 4.25252899481e-05
states 5.9737062758e-05
memorial 0.000115469202229
decades 3.80159497309e-05
landed 0.0
ultimate 0.0
mcdonald 5.44709694603e-05
twenty 0.000255883918077
hispanics 0.0
financial 0.000125065194294
payments 6.35610254767e-05
grabbing 0.0
permit 0.0
shield 0.0
disney 0.0
kansas 0.0
agreement 0.0
source 9.97625599393e-05
dismiss 6.42646591481e-05
talents 0.0
homework 0.000157970998344
expectations 4.32461405505e-05
joining 0.000111520008678
eugene 0.0
reasons 2.75768471537e-05
talked 0.0
released 2.75768471537e-05
reaching 0.0
release 5.19516024886e-05
promoter 0.0
circumstances 5.15903026002e-05
scheme 0.00103599629783
warwick 0.0
highlight 7.48736113339e-05
within 0.000120811451629
stacked 0.0
speech 0.000824182631815
standing 0.000243499778823
higher 3.1768972409e-05
justice 0.000191154637658
served 3.57801536681e-05
speaks 3.42323343724e-05
navarro 0.0
dropped 0.0
consideration 0.0
predicted 0.0
strength 0.000131119702499
andrew 7.39670457959e-05
replace 0.0
incredibly 6.68931913899e-05
private 6.0743648087e-05
integrity 0.0
sanford 0.0
ignored 9.04610925017e-05
neighbors 0.0
affection 0.0
minimum 4.8837346481e-05
direction 3.63195359602e-05
enemies 5.03708939158e-05
exclusive 2.81099549941e-05
prison 0.0
himself 3.80159497309e-05
investigation 4.36894760826e-05
disgusting 0.0
congratulate 0.0
philly 0.0
rights 0.00102238675673
replaced 4.62059948669e-05
recognition 5.17998148913e-05
maintain 5.24397630942e-05
tallahassee 0.0
handed 0.0
victory 3.38361909709e-05
classy 0.0
lifted 0.0
terrorist 4.84690580887e-05
productive 9.41017747765e-05
tribute 3.2499882993e-05
threatened 0.0
insecure 0.0
horror 0.000188203549553
discovery 4.82870496356e-05
convention 0.000273307386987
understanding 3.41326725852e-05
action 0.000737167001313
figures 0.000201782032853
having 0.0
marine 9.99561037256e-05
announces 3.621066751e-05
wallace 0.0
speaker 0.000434135546759
stevens 6.89944629361e-05
cybersecurity 0.0
apologize 0.0
continued 0.0
journalist 4.22430113939e-05
libelous 0.0
formation 0.0
letter 0.000262923909088
discussed 0.0
therapy 0.0
widespread 0.0
untrue 0.000186641408836
written 0.000433396241444
conferences 5.5188892297e-05
results 0.000123891650051
papers 8.67859889366e-05
winter 9.61212440698e-05
marching 0.000152918139813
sessions 0.0
democrats 5.20112062415e-05
eastern 0.0
scientist 0.0
represented 5.30975726037e-05
waters 0.0
journal 0.0
foundation 6.74763735301e-05
access 0.000233065491825
analysis 0.000194866188749
writes 0.000154438733321
colorado 0.0
medical 0.0
tremendous 0.0
nytimes 0.0
public 0.000797548248707
cheaters 0.0
cannot 0.000343223091747
reveals 3.53573624656e-05
immunity 0.0
threatens 5.47078556508e-05
candidate 0.000113000275474
brilliant 0.00029052879833
wisconsin 0.0
studies 5.01736544589e-05
measure 4.33929944683e-05
compared 4.08802054059e-05
donors 6.09394397537e-05
graham 4.92114809643e-05
incorrect 0.0
headline 3.7096028971e-05
careers 0.0
answering 0.000107021228261
streaming 0.0
leaders 0.000207203240275
supreme 0.000163520821623
nominee 0.0
gorsuch 0.0
protest 0.000240592851741
immigration 0.000439897346342
policies 8.59102989546e-05
administration 4.47575542402e-05
defend 0.000193651230691
excitement 4.1825832759e-05
funding 0.000642303889071
surveillance 0.0
transfer 5.22245106616e-05
conspiracy 4.67092875314e-05
horrifying 0.000116603073962
formed 0.0
interviews 0.0
retreat 0.0
alliance 0.0
platform 0.000112654504943
editing 0.0
february 0.000209035920765
association 4.67092875314e-05
airwaves 0.0
hamilton 0.0
futures 6.61215226709e-05
borders 0.000164123566952
border 0.000184823979468
uranium 0.0
misleading 0.0
january 0.000262239404997
topics 0.0
unprecedented 5.26569994481e-05
airplane 0.0
tragic 0.0
philadelphia 0.0
funded 0.00017475790433
secure 0.000129738421652
income 0.000174163076425
hurricane 5.01736544589e-05
breakdown 0.0
countries 6.82653451705e-05
linked 8.82826211499e-05
broadcast 0.0
african 0.0
triple 0.0
provide 6.94741281985e-05
enhance 0.0
development 0.000163520821623
companies 0.000196093802847
discussions 5.26569994481e-05
developing 0.0
proposal 0.00013288160279
potential 9.80586236897e-05
moderator 0.0
suggestion 4.5713224775e-05
attending 0.0
filled 0.0
schultz 0.0
education 0.000477886594144
sickness 0.0
mentioned 3.48393201275e-05
exists 0.0
henderson 0.0
plants 0.0
orders 4.25252899481e-05
officials 0.000125065194294
strategic 0.0
ability 0.000137731724547
political 0.000475084461339
director 2.95388759696e-05
behaving 0.0
deficits 0.0
sufficient 0.0
prevent 3.93424877698e-05
shoddy 0.0
capacity 0.000326825816762
donations 0.000134272662721
editors 0.0
discussing 0.000143120614673
persistent 7.03416854673e-05
treatment 0.000111288086913
establishment 0.0
protects 0.0
critical 0.000188333792457
ambassador 8.17604108117e-05
preparing 0.0
capable 4.86524829643e-05
bishop 0.0
producers 0.0
bombed 0.0
weekly 0.000122640616218
becoming 6.0743648087e-05
magazine 3.28740174764e-05
lawyers 0.0
summary 0.0
standard 0.000102697003117
controlled 0.0
hiring 0.0
defending 0.000121458807103
pushes 0.0
admitted 0.000113908628899
failed 0.0
independent 0.000109616379439
copies 0.000135215475791
politically 5.22245106616e-05
driven 0.0
agenda 4.26677071642e-05
blocked 0.00015988423102
result 0.000136530690341
announcing 4.12808378993e-05
destruction 5.56799512577e-05
culture 0.000196117247379
insider 0.0
traitors 0.000170663852848
prince 3.43324193532e-05
solutions 0.0
indiana 0.0
mongering 0.0
claims 0.000228095698385
editorial 0.0
prospects 5.74839991575e-05
mistakes 8.44860227879e-05
offered 7.79464754994e-05
founded 0.0
ignorance 0.0
inspiring 0.000191697516886
majority 0.00019858807347
embarrassing 4.25252899481e-05
creators 0.0
server 6.15680097388e-05
berniesanders 0.0
spotlight 0.0
readout 0.0
tactics 0.0
irrelevant 0.0
massive 0.000180210626111
receiving 0.000133342255446
promising 5.17998148913e-05
promises 4.50718252635e-05
consequences 0.0
production 7.55651634201e-05
proposals 5.59293713371e-05
elsewhere 9.7674692962e-05
bernie 0.0
hacking 0.0
guests 0.000259672202797
interviewed 3.81335059723e-05
secretary 0.000330246703195
rebuttal 0.0
reduce 0.0
arriving 5.20112062415e-05
dangerous 6.35379448181e-05
shutting 6.32169321021e-05
arrival 0.0
canceled 0.0
typically 0.0
saving 6.86648387064e-05
pioneer 0.0
incident 0.000195349385924
ordering 0.000112872544223
victims 0.00010299725806
raises 0.0
receive 0.0
reputation 0.000112872544223
intention 5.69543144495e-05
commentary 8.82826211499e-05
disclosure 0.0
terrific 0.0
berkeley 0.0
melbourne 0.0
received 6.0743648087e-05
correctly 0.0
inherited 0.0
displayed 0.0
joseph 0.0
offices 0.000196094685538
necessary 3.64289096022e-05
largely 0.0
inaccurate 0.0
debate 0.00134009748362
conflict 4.92114809643e-05
interest 0.000232779306525
controversy 0.0
stated 0.000171653006681
rating 0.0
nominate 4.95916501344e-05
outstanding 0.0
devastating 4.38391272365e-05
accurate 3.82516514706e-05
southeastern 0.0
romney 0.0
scotland 9.34185750629e-05
delayed 0.0
rarely 0.0
abroad 0.000102765272513
winners 0.000125293607634
profit 0.0
reviews 4.25252899481e-05
republican 0.0
presidential 0.0
candidates 7.99421155098e-05
politicians 0.000215500979754
epidemic 5.77533732616e-05
greater 3.86096833303e-05
booths 0.0
arnold 0.0
principles 0.000260056031207
deadline 0.000190667529862
speakers 0.000141152662165
incoming 0.000136274556758
various 0.0
nuclear 8.36516655179e-05
danger 4.14159097736e-05
leading 0.000180210626111
restored 0.0
conditions 4.4447418482e-05
however 0.000112654504943
resolution 4.77493081927e-05
remained 0.0
member 0.000222430776696
examples 0.0
employ 0.000137988925872
courses 5.97304579563e-05
largest 3.73226651168e-05
hallmark 0.0
mentor 0.0
increase 0.000192448670381
transcript 0.000338617632669
disrupt 0.0
provided 4.86524829643e-05
binding 0.0
decreased 0.0
revival 0.0
crashing 0.0
reception 5.15903026002e-05
rising 7.62670119447e-05
primary 0.000129300587852
reduction 0.0
surrogate 0.0
provides 0.0
environment 0.000130622307319
revealed 0.0
confirmed 3.44329311369e-05
controls 0.0
behavior 0.0
introduced 0.0
carbon 0.0
communities 4.50718252635e-05
region 0.0
deaths 0.0
responsible 0.000193048416652
household 5.30975726037e-05
munich 0.0
canada 3.15006206197e-05
regions 0.0
movement 0.000473845982583
midwest 0.0
segment 0.0
emerged 0.0
hundreds 0.000117287038401
information 9.61212440698e-05
combined 0.0
easily 3.48393201275e-05
towards 0.000103298793411
inform 0.0
mathematically 0.0
october 3.3063335583e-05
investigating 0.0
predators 0.0
innovation 9.99561037256e-05
perspective 6.98840434346e-05
cities 0.0
todays 0.0
julian 0.0
eliminated 0.0
interests 8.92039525314e-05
toledo 0.0
extraordinary 0.000199855288775
eradicate 0.0
retains 0.0
ashamed 5.13826362563e-05
meetings 0.000125892220478
describing 0.000112362918123
eliminate 5.72176688938e-05
obligation 0.0
gender 0.000259476843303
committee 0.000309841969106
wasting 0.0
numerous 6.85619741495e-05
examination 0.0
inflammatory 0.0
practices 0.0
management 4.31001959508e-05
nordstrom 0.0
genius 9.42355341144e-05
warren 0.0
traveling 0.0
billions 5.26569994481e-05
prepared 0.000286241229345
fraction 0.0
equipment 5.33209863859e-05
procedures 0.0
rasmussen 0.0
county 4.36894760826e-05
developer 0.0
anthony 0.0
shadow 0.0
district 0.0
considered 0.000146596765478
lobbyist 0.0
chosen 4.46019762657e-05
hospitalized 0.0
outright 0.0
yorkers 0.0
naming 0.0
conventions 8.06021226361e-05
deficit 0.000109415711302
interventions 7.92152533712e-05
focusing 0.0
sensible 5.5188892297e-05
hosted 0.0
batman 5.44709694603e-05
column 0.0
upcoming 0.0
positions 0.0
favors 0.0
regulation 0.0
distributed 0.0
weakness 0.0
introduction 5.77533732616e-05
western 0.0
pacific 0.0
larger 4.67092875314e-05
increases 0.000262198815471
effective 0.000118027463309
situations 0.0
harbor 0.0
wealth 0.0
underway 4.73975109521e-05
israel 0.0
hysteria 0.0
overwhelming 0.0
protection 8.2025988726e-05
prisoners 0.0
guidance 0.000295742268159
montana 0.0
determination 0.000116051723172
restore 5.72176688938e-05
acquire 0.0
additional 9.84229619286e-05
exception 0.0
machine 0.0
honoring 0.0
visually 0.0
contrary 0.000119460915913
immediate 0.0
politico 0.0
ignoring 0.000188894247955
judges 0.000135215475791
federal 0.0
constant 0.0
philippines 0.0
nicely 0.0
september 0.0
manchester 8.59102989546e-05
fiction 0.0
priest 0.0
angela 5.49471468183e-05
process 0.000180713006267
destructive 0.000145547471199
genuine 4.28109901438e-05
surreal 5.13826362563e-05
whitehouse 0.0
flotus 0.0
crisis 0.000181597679801
judgement 0.000223717485348
confidence 0.0
voters 0.000161945076138
diamondandsilk 0.0
oldest 0.0
inauguration 0.0
gracious 0.0
scream 0.0
postponed 0.0
disappoint 5.80258615861e-05
believing 0.0
hillaryclinton 0.0
electoral 5.22245106616e-05
crashed 5.30975726037e-05
citizenship 0.000175741424646
closed 0.000201843530249
religious 4.67092875314e-05
apprentice 0.0
conservative 0.000131517381709
economists 0.0
buzzfeed 0.0
puppet 6.53611348725e-05
sweden 4.68794686141e-05
andersoncooper 0.0
treats 0.000100741787832
qualified 0.0
missouri 0.0
cooper 5.01736544589e-05
debates 4.68794686141e-05
endorsements 0.0
strike 0.0
shouting 0.000388032000684
empire 4.50718252635e-05
encouraged 5.85804748819e-05
regard 0.0
concerning 0.0
misinformed 0.0
disregard 0.0
barack 0.0
joined 5.8105759666e-05
terrorism 0.000188203549553
pushing 7.55651634201e-05
cracking 0.000294142028307
muhammad 0.0
refused 0.0
amazingly 0.0
express 0.000109616379439
gratitude 0.0
congratulation 0.0
throughout 0.0
shining 0.0
fighter 0.0
anticipated 0.0
presented 3.84897340763e-05
reveal 0.0
stands 0.000131119702499
native 0.0
harvey 0.0
featured 7.41920579421e-05
announce 2.74267194006e-05
surround 0.0
although 3.84897340763e-05
senior 0.000110950568694
todayshow 0.0
convincingly 0.0
haters 9.95681183658e-05
returning 4.03564065706e-05
laughs 4.4447418482e-05
touched 0.0
corruption 0.0
violence 0.000380987747613
runnin 0.0
delivered 0.000153481568651
owning 0.0
legendary 3.778258171e-05
stabbing 0.0
independence 0.000170670828657
approval 0.0
magical 4.42938675966e-05
alongside 4.52305462509e-05
percent 0.0
spiral 0.0
differently 9.95681183658e-05
sweeping 0.0
spoiler 0.0
theirs 0.0
offering 0.000195478397335
remembering 3.86096833303e-05
floated 0.0
professionals 0.0
construction 0.0
searching 4.55512311644e-05
flexibility 6.94350360916e-05
sinking 0.0
detail 0.000173571977873
document 5.56799512577e-05
cabinet 4.75727532282e-05
pleased 0.000116919713249
carrying 8.76782544729e-05
statements 0.000200694617836
decade 7.37431025951e-05
prague 0.0
crossing 5.59293713371e-05
bigotry 0.0
happily 0.0
therefore 0.0
belong 0.0
customs 0.000428761406156
trillion 0.0
backed 4.68794686141e-05
electricity 5.91484536317e-05
observing 0.0
russell 0.0
engineers 0.0
operations 0.0
values 0.000344801567606
senator 0.0
confirms 0.000133805928797
removing 5.61814590615e-05
payment 0.0
consistently 0.0
posing 0.0
everett 0.0
wondered 4.55512311644e-05
generic 0.0
fields 0.0
mining 0.0
newspaper 0.0
detailed 5.22245106616e-05
rainbow 4.82870496356e-05
childcare 0.0
unlimited 6.18886946524e-05
exploded 0.0
thoroughly 0.0
adviser 0.0
leaves 0.000102697003117
matthew 0.0
intersection 0.0
affected 7.28578192043e-05
newspapers 0.0
corporate 0.0
economy 0.000365551658654
explores 0.0
spoken 0.000118400603662
during 0.0
credible 0.0
competitive 0.0
carefully 0.000102353567231
returned 4.63725678398e-05
blasts 0.0
guarding 0.0
hornet 0.0
successfully 5.17998148913e-05
southern 0.0
dakota 0.0
belief 4.38391272365e-05
messenger 7.32917779374e-05
heroes 7.19888553342e-05
russians 0.0
intelligence 0.000172400783803
deepest 0.0
graduates 0.0
describe 3.42323343724e-05
hollywood 0.000243159448695
reclaim 0.0
equality 0.000978081668806
announcement 3.02871920762e-05
interfere 0.0
interrupted 0.0
nationwide 0.0
questionable 0.0
garden 3.52528391122e-05
survey 9.04610925017e-05
journalists 4.22430113939e-05
delighted 4.92114809643e-05
minister 0.00103665198106
golfer 0.0
capital 0.000170101159792
penguins 0.0
regarding 0.000131068428248
teachers 8.44860227879e-05
devastated 0.0
phrase 4.42938675966e-05
immigrants 0.0
aliens 0.0
subjects 0.0
revolution 4.4141310575e-05
median 0.0
twelve 0.0
releases 0.0
accomplish 0.0
debbie 6.77200997443e-05
sebastian 0.0
briefing 0.000206361210401
advisor 0.0
commission 0.0
deadlines 0.0
hereby 0.0
invitation 0.000148774950403
alternatives 6.28777898833e-05
villages 0.0
accepted 3.94668678872e-05
commentators 6.81372783792e-05
depression 0.0
comprehensive 5.54331429549e-05
committees 0.0
pushed 0.0
statistic 0.0
donation 7.99421155098e-05
electronic 0.0
nomination 4.29551494773e-05
britain 0.00196893768179
questioning 5.80258615861e-05
attempt 0.000168202941874
investment 4.55512311644e-05
terror 4.4447418482e-05
homeland 0.0
polish 0.0
switzerland 0.0
represents 0.0
announcer 0.0
churchill 0.0
ambassadors 0.0
anchors 0.0
endorse 0.0
urgent 0.000309541815601
forced 0.0
expenses 0.0
preparations 0.0
string 0.0
morocco 0.0
thrill 0.0
watchdog 0.0
agencies 5.64362721115e-05
scrutiny 0.00025017383342
glorious 4.55512311644e-05
approaching 5.28762566344e-05
tragedy 3.87302461383e-05
handled 0.0
offers 0.000113000275474
requested 5.80258615861e-05
improvements 0.0
destroying 5.17998148913e-05
inexpensive 0.0
opposition 0.000334245157349
smithsonian 0.0
addiction 0.0
challenged 4.99780518628e-05
manhattan 0.0
richmond 0.0
forces 0.000153481568651
nations 0.000233546437657
anderson 4.73975109521e-05
builds 0.0
sexist 0.000170862943348
narrative 0.0
application 5.42364403854e-05
cannon 0.0
ethical 0.000180981594367
representation 5.61814590615e-05
obvious 0.0
statistics 0.0
military 3.67601091157e-05
housing 0.00141092200596
wonderfully 0.0
miller 0.0
copying 0.0
advised 0.0
ordered 0.0
unions 0.000528972181367
useless 0.0
alicia 0.0
economic 0.000258601175705
radical 9.88015981419e-05
planted 0.0
theories 5.83015369808e-05
conceived 0.0
readers 8.95151084804e-05
bombing 0.000110377784594
products 0.0
phenomena 0.0
classroom 0.000117160949764
classified 0.0
purely 0.0
hacked 0.0
taxpayers 0.0
opposed 0.000188894247955
pressing 0.0
russia 0.000146596765478
abraham 0.0
lincoln 0.0
observer 6.12516294509e-05
intelligent 0.0
lawsuit 0.0
detective 0.0
magnificent 0.0
heritage 5.59293713371e-05
beloved 0.0
dignity 0.000109894293637
priorities 0.000157319289282
repealing 7.66646616101e-05
murdoch 0.0
coalition 0.0
theresa 0.000890879220123
charges 0.000148774950403
activists 5.44709694603e-05
elected 0.000411465356696
relief 3.92187605693e-05
congratulates 0.0
pledge 0.0003531304846
elections 4.75727532282e-05
landslide 0.0
council 0.000653111536595
imperative 0.0
catastrophic 6.53611348725e-05
douglas 0.0
brexit 0.0067524624851
democracy 0.00045557500751
disastrous 6.09394397537e-05
rebuild 0.0
pundits 7.08084329482e-05
nickname 0.0
poison 0.0
interfering 0.0
negotiations 0.000267732690658
summit 4.5713224775e-05
dossier 0.0
unleash 7.03416854673e-05
negotiation 0.000137988925872
sticking 0.000138617984601
openly 0.0
embarrassed 0.00010154078925
ireland 4.19640734928e-05
attacks 3.80159497309e-05
remarks 0.0
democratic 0.000288638615382
outgoing 7.66646616101e-05
maureen 9.24053849322e-05
treasury 0.000121878879507
refugees 0.00318780386576
snatch 0.0
morgan 0.000189590043809
grieve 0.000158430506742
vicious 0.0
essentially 0.0
restoring 0.0
extended 0.0
referendum 0.000398680201146
ovation 0.0
bankrupt 0.0
proudly 0.0
oppose 0.000264381283172
refusal 0.0
urging 0.000122503258902
strengthen 5.97304579563e-05
deliver 0.000187184028335
negotiating 0.000225745088446
remaining 0.0
merkel 0.0
repeal 5.49471468183e-05
formal 5.69543144495e-05
reckless 0.0
prosperous 0.0
servant 0.0
desperate 0.000224570829815
secretaries 0.0
formally 6.18886946524e-05
breach 0.0
gloomy 0.0
outlines 7.66646616101e-05
concessions 7.79054732268e-05
executive 3.93424877698e-05
extend 0.0001031806052
republicans 0.0
terrorists 0.0
weapons 0.0
bodyguards 0.0
outrage 5.17998148913e-05
representative 5.64362721115e-05
prevail 0.0
searched 0.0
policemen 0.000104445533419
islamic 6.61215226709e-05
islamist 0.0
ingrained 0.000102558928595
humbled 0.0
courage 0.000116919713249
chamber 0.00139823428343
commander 0.0
formula 0.0
brigade 0.0
respecting 0.0
lectured 9.36143667296e-05
devices 0.0
enormous 0.0
verdict 0.0
refusing 0.000433891523083
energies 0.0
carried 5.03708939158e-05
behalf 0.0
tariff 0.000159796977929
amendment 0.00121886618397
nightmare 4.1012994363e-05
employment 0.000287419995788
legislation 0.000545508151478
referring 4.70508873883e-05
scrapping 0.0
handling 0.0
goodies 6.65111179468e-05
proves 0.0
prominently 0.0
crackdown 0.0
unfair 9.84229619286e-05
fiscal 6.65111179468e-05
humiliating 0.0
strongly 9.34185750629e-05
vision 6.98840434346e-05
resignation 0.0
confirmation 0.0
records 3.57801536681e-05
disabled 0.0
quoting 0.0
reductions 0.0
deeply 0.000305068047779
commerce 0.0
accumulation 0.0
overplaying 0.0
refugee 0.00154702246427
conway 0.0
exposed 0.0
netanyahu 0.0
israeli 0.0
priority 9.11024623289e-05
strongest 0.0
freedoms 0.000194969839357
treaties 0.0
empowering 0.0
laughter 4.79271956602e-05
syrian 0.000149934155588
uphold 0.000152135842888
praising 0.0
renewal 0.0
penned 0.0
condemns 0.0
realdonaldtrump 0.000205732678348
goodwill 0.000223089975222
attorney 0.0
settled 5.44709694603e-05
chairman 5.07703946248e-05
capability 0.0
firing 5.0972713271e-05
seanspicer 0.0
inaugural 0.0
carnage 0.0
optimism 0.0
rulers 0.0
clintons 0.0
melania 0.0
bikers 0.0
handing 5.85804748819e-05
intended 0.0
optimistic 5.15903026002e-05
campaigned 0.0
finance 0.0
allies 0.0
compromised 0.0
governor 0.0
bosses 5.77533732616e-05
attempts 0.000185490271359
irresponsible 0.0
incidents 0.0
merely 0.0
documents 0.0
tariffs 7.60679214442e-05
purpose 7.22045992124e-05
architect 0.0
arlene 0.0
resign 5.80258615861e-05
reuters 0.0
mainstream 0.0
dozens 0.0
donnell 0.0
clarified 0.0
gathering 0.0
crimes 0.0
vulnerable 0.000236987554761
commentator 0.0
overwhelmingly 7.54859171197e-05
respectful 0.0
markets 0.0001031806052
inspector 0.0
nigel_farage 7.66646616101e-05
drudge 0.0
abused 0.0
infrastructure 5.56799512577e-05
projected 6.69072613483e-05
boards 5.56799512577e-05
allegations 0.000116051723172
bloomberg 0.0
insulting 0.000181893993254
leaking 0.0
liberal 0.000132423931725
chairs 5.37742691549e-05
podium 0.0
conceded 0.0
capitol 0.0
consulting 0.0
wannabe 8.44747418672e-05
powell 0.0
reforms 0.0
technical 4.94007990709e-05
securing 6.89944629361e-05
steven 0.0
rumsfeld 0.0
businesses 0.000185490271359
balancing 0.0
socialist 0.000127122050953
complaints 5.5188892297e-05
politician 9.41017747765e-05
representatives 0.0
rallies 0.0
belittle 0.0
ballot 0.000393691847715
failing 0.000126729034182
refuses 0.000100741787832
conclude 0.0
vibrant 0.0
tarmac 0.0
spinning 0.0
appointments 6.94350360916e-05
farewell 0.0
opponents 0.0
unopposed 0.0
polling 0.0
prosperity 0.0
apology 8.88948369641e-05
outline 0.0
losers 0.0
battlefield 0.0
abandoned 0.000213283945544
endorsed 0.0
negotiate 0.000123777389305
negotiated 0.0
unwilling 0.0
appointed 0.000113387740117
slaughter 0.0
betray 0.0
donated 0.0
immigrant 0.0
prosecuted 0.0
criminals 0.0
elizabethforma 8.62214651075e-05
protesting 0.0
releasing 0.0
screening 0.000137139674325
sponsor 0.0
pocketbook 0.0
transparency 0.0
austin 0.0
obamacare 0.0
acceptable 0.000141152662165
schwarzenegger 0.0
congressman 0.0
profits 5.33209863859e-05
toward 0.0
fleeing 0.000200721784045
bravery 6.00269395705e-05
protests 0.000162709321156
recieved 0.0
violent 0.0
remarkably 6.69072613483e-05
senators 0.0
ratings 4.67092875314e-05
spouses 0.0
fundraiser 0.000301041926753
senate 0.0
louisiana 0.0
giuliani 0.0
venezuela 0.0
parenthood 0.0
organizations 0.0
generations 4.68794686141e-05
minorities 0.0
underestimate 0.000114967998315
terrified 5.64362721115e-05
discourse 0.0
pennsylvania 0.0
hackers 0.0
nbcnews 0.0
mccain 0.0
scandal 4.55512311644e-05
constitution 0.0
sensanders 0.0
abandon 6.18886946524e-05
explode 0.0
reopening 0.0
governments 0.000300134697853
competent 0.0
mike_pence 0.0
stinks 0.0
logical 5.8862753436e-05
accurately 0.0
righteous 0.0
thursdays 7.60679214442e-05
fitting 5.01736544589e-05
category 0.000136171029963
swearing 0.000216800504475
politifact 0.0
abolish 0.0
surging 0.0
murders 0.0
reagan 0.0
vetting 0.0
vetted 0.0
pouring 0.0
fraudulent 0.0
ballots 0.0
fading 0.0
speakerryan 0.0
civilized 0.0
commercials 0.0
luxurious 0.0
outraged 0.0
nypost 0.0
statute 0.000182510803716
enforcement 0.0
accountability 6.06313310845e-05
truthful 0.0
springfield 8.28485814348e-05
cancelled 4.47575542402e-05
conflicts 6.49899464522e-05
suffer 4.94007990709e-05
selfishly 0.0
educational 0.0
stolen 9.20811816738e-05
visionary 0.0
wounds 0.0
disgraceful 6.28777898833e-05
hatred 0.000100347308918
persuasion 9.76648734281e-05
exposing 0.0
teaches 0.0
sellers 7.66646616101e-05
refers 0.0
trusted 0.000113908628899
sheriff 0.0
samsung 0.0
ranking 0.0
undecided 7.08084329482e-05
nebraska 0.0
abusive 0.000267629045393
abuser 0.0
nashville 0.0
lightweight 0.0
victories 0.0
consumer 0.000116603073962
violation 0.0
sarcasm 0.0
freaky 0.0
jimmyfallon 0.0
outlets 0.0
vanityfair 0.0
harassed 0.0
leverage 0.0
sacred 0.0
horrific 9.80473427691e-05
contribute 0.0
indicted 0.0
chooses 0.000124427605891
defended 0.0
champion 0.000225309009887
waited 0.0
denmark 0.0
conviction 0.0
retail 6.25434583549e-05
distract 6.46245131236e-05
globes 0.0
endorsing 0.0
pathetic 5.47078556508e-05
purposely 0.0
expose 0.0
representing 0.0
mmflint 0.0
registration 5.0972713271e-05
acceptance 0.0
defeated 0.000222719805031
prosecutor 0.0
nbcsnl 0.0
nevada 0.0
illinois 0.0
massachusetts 7.32917779374e-05
spontaneous 0.0
entrepreneur 0.0
arkansas 0.0
hotels 0.0
exhausted 0.0
puppets 0.0
protesters 0.0
natalie 0.0
anaheim 0.0
nominating 0.0
vietnam 0.0
claimed 0.000253851973124
indianapolis 0.0
loudly 0.000191730650148
sarasota 0.0
rapids 0.0
oklahoma 0.0
devoted 6.15680097388e-05
sacramento 0.0
arranged 0.0
baldwin 0.0
crushed 4.8106435897e-05
reflects 0.000203890853084
replacing 0.0
louder 0.0
flashback 0.0
farmers 0.0
unleashed 0.0
tourists 0.0
steals 0.0
albany 0.0
devastation 7.98984889647e-05
meantime 0.0
donlemon 0.0
wilbur 0.0
finalists 0.0
ransom 0.0
normmacdonald 0.0
vanishing 0.0
clarence 0.0
jaketapper 0.0
clowns 0.0
elizabeth 0.0
microphone 0.0
machines 5.59293713371e-05
premium 0.0
championships 0.0
impersonation 8.20757260468e-05
horribly 0.0
stakes 5.85804748819e-05
mouthed 0.0
reservation 0.0
delaware 0.0
springs 5.44709694603e-05
columbus 0.0
slackers 0.0
toyota 0.0
chucktodd 0.0
correspondents 0.0
soldier 0.0
panels 0.0
broadcasting 5.37742691549e-05
sparks 0.0
warned 0.0
jclayfield 0.0
kellogg 0.0
anchor 0.0
heated 0.0
congressional 0.0
boeing 0.0
usatoday 0.0
endlessly 0.0
craziest 0.0
viewers 0.0
delivers 5.0972713271e-05
pittsburgh 0.0
marshal 0.0
reverend 0.0
lifelong 6.03271981222e-05
disdain 7.66646616101e-05
hispanic 0.0
defrauded 0.0
oppression 7.4363325074e-05
crowds 0.0
washingtonpost 0.0
affordable 0.0
tapping 0.0
ginsburg 0.0
reilly 0.0
illegally 0.0
shootings 0.0
destiny 6.15680097388e-05
serenawilliams 0.0
motors 0.0
redding 0.0
initially 0.0
travis 0.0
accomplishments 0.0
misconduct 0.0
mocked 7.66646616101e-05
disgrace 0.0
greeley 0.0
carmel 0.0
outcry 0.0
playbook 0.0
zealand 0.0
fearless 0.0
lining 0.0
sidekick 0.0
madame 0.0
grandstand 0.0
rochester 0.0
speechless 0.0
fletcher 8.62214651075e-05
begged 0.0
wintour 0.0
inspires 0.0
carlos 0.0
missiles 0.0
chelsea 0.0
oppressive 0.0
forgiven 0.0
killings 7.22668348251e-05
taiwan 0.0
somalia 0.0
burning 4.15517601644e-05
subscribers 0.0
chester 0.0
newtown 0.0
booker 0.0
heights 0.0
leicester 0.0
chiefs 0.0
joenbc 0.0
opioid 0.0
separately 0.0
intros 0.0
columnist 0.0
manages 0.0
financed 0.0
mnuchin 0.0
delegate 8.44747418672e-05
vicente 0.0
struck 0.0
trudeau 0.0
oreillyfactor 0.0
vulgarian 0.0
publicity 0.0
amnesty 0.0
ivankatrump 0.0
communism 0.0
linkedin 0.0
avoided 0.0
sophisticated 0.0
seanhannity 0.0
anncoulter 0.0
foolish 0.0
catholics 0.0
bogged 0.0
catholic 0.0
thriving 0.0
newtgingrich 0.0
abedin 0.0
secretly 0.000108008443959
undermines 7.38214626455e-05
americanism 0.0
christians 0.0
rationally 0.0
deplorable 0.0
wikileaks 0.0
execution 0.0
enduring 7.4363325074e-05
foxandfriends 0.0
losses 4.95916501344e-05
kevcirilli 0.0
staffers 0.0
barron 0.0
jihadis 0.0
hampshire 0.0
pandering 0.0
donaldjtrumpjr 0.0
moines 0.0
lobbying 7.12846103063e-05
careless 0.0
piersmorgan 0.0
palestinian 8.20757260468e-05
kellyanne 0.0
democrat 0.000176588260308
unfunny 0.0
condemned 7.66646616101e-05
despair 0.000303156655423
louvre 0.0
crooked 0.0
lynden 0.0
outperform 0.0
tedcruz 0.0
majors 0.0
schumer 0.0
credibility 0.0
flooding 0.0
hannity 0.0
beneficiary 0.0
sanctions 0.0
nominates 0.0
existent 0.0
criticized 0.0
senatemajldr 0.0
workforce 7.03416854673e-05
issued 5.20112062415e-05
outsider 0.0
declare 0.0
ivanka 0.0
dignified 0.0
threaten 5.44709694603e-05
outcomes 6.28777898833e-05
ukraine 0.0
justintrudeau 0.0
vladimir 0.0
businessman 0.0
regards 0.000140683370935
assange 0.0
malicious 0.0
garners 0.0
ethics 0.0
wrecked 0.0
regimes 0.0
incorrectly 0.0
hostile 0.0
defenders 0.0
deceived 0.0
hypocritical 0.0
favorably 0.0
shatter 0.0
changer 0.0
spokane 0.0
unnecessary 0.0
cwaunion 0.0
expand 0.0
apologized 0.0
criticizing 0.0
legion 0.0
hershey 0.0
intensity 0.0
tigerwoods 0.0
amercan 0.0
reince 0.0
chriscjackson 0.0
hypocrites 0.0
billkristol 0.0
govmikehuckabee 0.0
dustin 0.0
bullied 0.0
anonymous 0.000103599629783
yankees 0.0
thehill 0.0
infiltrated 0.0
somali 0.000182510803716
invention 0.0
frontrunner 0.0
patriot 0.0
poorly 5.35465381316e-05
prisonplanet 0.0
daytona 0.0
comparable 0.0
shouted 0.0
holocaust 5.97304579563e-05
kellyannepolls 0.0
foxnews 0.0
initiated 0.0
tiffany 0.0
mikeandmike 0.0
barbara 0.000167039853773
litigation 0.0
frankcaliendo 0.0
toughness 0.0
suffered 0.0
streep 0.0
billionaire 0.0
percentage 0.0
insiders 0.0
premiums 0.0
congratulatory 0.0
treasurer 0.0
incompetence 0.0
delegates 0.0
rollout 0.0
appalled 7.17706064428e-05
misquoted 0.0
pledged 6.53611348725e-05
demanded 0.0
andrews 0.0
lowlife 0.0
courageous 0.0
betrayed 0.0
horrors 7.98984889647e-05
warheads 0.0
pledges 6.46245131236e-05
interrupts 0.0
blacks 0.0
elaine 0.0
candidacy 0.0
discredited 0.0
cringing 0.0
estates 0.0
laughable 8.5331926424e-05
aberdeen 0.0
healed 0.0
floods 0.0
swiftly 0.0
cheryl 0.0
syracuse 0.0
difficulties 0.0
flipping 0.0
wilkes 0.0
lisbon 0.0
suckers 0.0
golfdigest 0.0
jeffrey 0.0
sixteen 0.0
scandals 0.0
circuits 0.0
regulations 5.91484536317e-05
monitoring 0.0
swamped 0.0
costing 0.0
detained 0.0
warmest 0.0
marginalize 0.0
miners 0.0
unemployment 6.35610254767e-05
paragon 0.0
obsolete 0.0
subsidies 0.0
exercised 0.0
evangelicals 0.0
franklin 5.64362721115e-05
molten 0.0
servers 0.0
billgates 0.0
excessive 0.0
coordinated 0.0
geneva 0.0
soaring 0.0
unsecured 0.0
corporations 0.0
rifles 0.0
innovative 0.0
pillar 0.0
bashing 0.0
organize 0.0
panelists 0.0
frontiers 0.0
pricing 0.0
platforms 0.0
scaling 0.0
pretends 0.0
forensic 0.0
roundtable 0.0
inherit 0.0
fabrication 0.0
brewer 0.0
unaffordable 9.62359524526e-05
reinforcing 0.000192471904905
eventful 0.0
wasserman 0.0
lindsey 0.0
billclinton 0.0
upstate 0.0
empowerment 7.27737355994e-05
penalties 0.0
responders 0.0
civilization 0.0
occupy 0.0
approximately 0.0
knight 0.0
homeownership 0.0
scratched 0.0
screws 0.0
contractor 0.0
havana 0.0
lowering 0.0
foundations 0.0
revitalize 0.0
counters 0.0
foreclosed 0.0
renovated 0.0
delaying 0.0
employer 0.00019068307643
executed 6.77200997443e-05
subpoena 0.0
grifters 0.0
cincinnati 0.0
disgraced 0.0
falsely 0.0
strengthening 0.0
abcworldnews 0.0
skyrocketing 0.0
pipelines 0.0
likewise 0.0
dishonest 0.0
surges 0.0
woefully 0.0
pressured 0.0
erratic 0.0
temperament 0.0
emboldened 0.0
keystone 0.0
mandated 0.0
crumbling 0.0
johnkasich 0.0
latinos 0.0
combating 0.000264324209792
incompetent 0.0
loopholes 0.0
incapable 0.0
unqualified 0.0
melaniatrump 0.0
recount 0.0
voluntarily 0.0
desperation 7.72769032416e-05
denounce 8.71458964362e-05
demoralized 0.0
incited 0.0
fawning 0.0
accuser 0.0
electing 0.0
patrol 0.0
connecticut 0.0
amounts 0.0
govpencein 0.0
squandered 0.0
enforce 0.0
epipens 0.0
deplorables 0.0
generals 0.0
timkaine 0.0
benghazi 0.0
moderators 0.0
sheriffclarke 0.0
unfairly 0.0
competence 0.0
dysfunctional 0.0
eleventh 0.0
instructed 0.0
restrict 0.0
battleground 0.0
jilted 0.0
blazing 0.0
hypocrite 0.0
mcconnell 0.0
circulated 0.0
flailing 0.000100812205355
pathological 0.0
deflect 0.0
undoing 0.0
predictable 0.000125755579767
phoney 0.0
perils 7.22668348251e-05
governing 0.0
likeable 0.0
tumble 9.24053849322e-05
praised 0.0
extraordinarily 7.98984889647e-05
jinping 0.0
trashes 0.0
knowingly 0.0
disloyal 0.0
woodward 0.0
magnificently 0.0
pretended 0.0
slaughtered 0.0
climber 0.0
americ 0.0
unprofessional 0.0
diplomats 0.0
resulted 0.0
crossroads 0.0
syrians 0.0
suppress 0.0
remembrance 6.46245131236e-05
infighting 0.0
castro 0.0
unquestionably 0.0
corrupted 0.0
kasich 0.0
readership 0.0
fraternal 0.0
frankluntz 0.0
demagogue 0.0
unanimous 0.0
bedford 0.0
longtime 0.0
complexities 0.0
dailymail 0.0
couric 0.0
cancelling 0.0
morningmika 0.0
concord 0.0
recounts 0.0
shouldered 0.0
patmccrorync 0.0
executives 0.0
westfield 9.76648734281e-05
graydon 0.0
sheldon 0.0
tanking 0.0
morning_joe 0.0
fabricated 0.0
corolla 0.0
groveling 0.0
unfolding 8.5331926424e-05
polled 0.0
influx 0.0
underachieving 0.0
antics 7.85512664334e-05
disenfranchised 0.0
golfing 0.0
xfinity 0.0
defies 0.0
fictitious 0.0
districts 0.0
vigilant 0.0
obstruction 0.0
rebuilding 0.0
preserving 0.0
passover 0.0
dhsgov 0.0
thejusticedept 0.0
repealed 0.0
intends 0.000172442930215
wildfires 0.0
usedgov 0.0
fresno 0.0
usnavy 0.0
scotus 0.0
tillerson 0.0
ineffective 0.0
senjohnmccain 0.0
cbsnews 0.0
lawsuits 0.0
caucus 0.0
shimon 0.0
wilmington 0.0
stagnant 0.0
gouging 0.0
baghdad 0.0
wiesel 9.12554018578e-05
obstruct 0.0
gonzalo 0.0
curiel 0.0
hostage 0.0
unnamed 0.0
truckers 0.0
boldly 0.0
scarborough 0.0
evangelical 0.0
cyberattack 0.0
marines 0.0
crimea 0.0
earners 0.0
oversaw 0.0
lobbyists 0.0
rosiegray 0.0
briefings 0.0
actresses 0.0
purchases 0.0
myanmar 9.01589261334e-05
heightened 0.0
shackles 0.0
perjury 0.0
dallaspd 0.0
respectfully 0.0
canton 0.0
approx 0.0
admirals 0.0
naples 0.0
brainwashed 0.0
albuquerque 0.0
supposedly 0.000136274556758
coliseum 0.0
greensboro 0.0
sheriffs 0.0
hostages 0.0
explorers 0.0
confidential 0.0
tamara 0.0
infested 0.0
depicted 9.91860449228e-05
devote 8.81080699308e-05
payroll 0.0
bombshell 0.0
advisers 0.0
watergate 0.0
mcmaster 0.0
renews 0.0
housegop 0.0
katyturnbc 0.0
pocahontas 0.0
wherein 0.0
shreds 0.0
pelosi 0.0
chrysler 0.0
collusion 0.0
deductibles 0.0
repmarkmeadows 0.0
darrellissa 0.0
insurer 0.0
dishonesty 0.0
hotlinejosh 0.0
quinnipiacpoll 0.0
apologizing 0.0
priebus 0.0
clapper 0.0
tapped 0.0
operatives 0.0
senschumer 0.0
marcorubio 0.0
viciously 0.0
leakers 0.0
bangladesh 0.0
favorable 0.0
nbcnightlynews 0.0
lockheed 0.0
untruthful 0.0
resonating 0.0
transferring 0.0
staten 0.0
humana 0.0
juanita 0.0
senses 0.0
stimulate 0.0
drooling 0.0
lakeland 0.0
burying 8.62214651075e-05
crafted 0.0
misrepresent 0.0
fabled 0.0
railing 0.0
billyjoel 0.0
sniper 0.0
cnnsotu 0.0
independents 0.0
detroitnews 0.0
foxbusiness 0.0
washtimes 0.0
realbencarson 0.0
meetthepress 0.0
newday 0.0
thebrodyfile 0.0
bostonherald 0.0
foxnewssunday 0.0
thefive 0.0
chriscuomo 0.0
randpaul 0.0
dcexaminer 0.0
facethenation 0.0
bretbaier 0.0
interruption 0.0
allenwest 0.0
cvpayne 0.0
dailycaller 0.0
prosecution 0.0
ballistic 0.0
vetoed 0.0
gettysburg 0.0
groping 0.0
brennan 0.0
nielson 0.0
justices 0.0
operative 8.91111990874e-05
surged 0.0
megynkelly 0.0
terminated 0.0
softbank 0.0
fronting 0.0
rigging 0.0
reprieve 0.0
pocketed 0.0
colluded 0.0
coffers 0.0
stairway 0.0
ellison 0.0
selflessly 0.0
tornadoes 0.0
levine 0.0
scranton 0.0
enslave 0.0
inappropriately 0.0
devalue 0.0
presumptive 0.0
fournier 0.0
terminate 0.0
reptommarino 0.0
kimberly 0.0
subscriptions 0.0
ingrahamangle 0.0
trajectory 0.0
natalie_gulbis 0.0
unheard 9.62359524526e-05
objectified 0.0
turnberry 0.0
djohnsonpga 0.0
bedminster 0.0
golf_com 0.0
elevation 0.0
litany 0.0
unaccountable 0.0
primaries 0.0
disrupter 0.0
runways 0.0
hashanah 0.0
unenthusiastic 0.0
undecideds 0.0
richardtrumka 0.0
renegotiate 9.91860449228e-05
rapists 0.0
aldridge 0.0
unsubstantiated 0.0
misrepresented 0.0
prisoner 0.0
mattis 0.0
weakening 0.0
endakennytd 0.0
taoiseach 0.0
lifeboat 0.0
enabler 0.0
emanated 0.0
lindseygrahamsc 0.0
renegotiating 0.000114002336916
waterville 0.0
zucker 0.0
berglund 0.0
suboptimal 0.0
steelworkers 0.0
postpone 0.0
mohammed 9.36143667296e-05
indignant 0.0
comprised 0.0
stupidest 0.0
exxonmobil 0.0
precluded 0.0
instruct 0.0
gonzales 0.0
scorned 0.0
davidmuir 0.0
harrisburg 0.0
caesars 0.0
borisep 0.0
lapierre 0.0
limbaugh 0.0
petraeus 0.0
phyllis 0.0
illegals 0.0
sanctity 0.0
neurotic 0.0
negligence 0.0
alvarez 0.0
roseanne 0.0
roanoke 0.0
theleegreenwood 0.0
mcallen 0.0
deduct 0.0
chokes 0.0
vigilance 0.0
pensacola 0.0
tuckercarlson 0.0
repcummings 0.0
windham 0.0
teleprompter 0.0
paulareidcbs 0.0
jeffzeleny 0.0
condoleezza 0.0
genflynn 0.0
donaldtrump 0.0
demeanor 0.0
baiting 0.0
plotted 0.0
aptitude 0.0
billings 0.0
approving 0.0
disconnected 0.0
superstorm 0.0
brainpower 0.0
exclaim 0.0
skyrocketed 0.0
globalism 0.0
israelipm 0.0
insurgent 0.0
sneers 0.0
unrest 0.0
scaramucci 0.0
disapproval 0.0
katiepavlich 0.0
overflow 0.0
warped 0.0
scottwalker 0.0
kirstenpowers 0.0
usarmy 0.0
schlafly 0.0
alisonforky 0.0
oppresses 0.0
pedantic 0.0
highness 0.0
benefitted 0.0
fundraisers 0.0
shinzo 0.0
augustine 0.0
ranchers 0.0
middletown 0.0
fiorina 0.0
pueblo 0.0
lindasuhler 0.0
lightweights 0.0
kimguilfoyle 0.0
perdue 0.0
unmasked 0.0
unmasking 0.0
judgejeanine 0.0
boycotted 0.0
outnumberedfnc 0.0
jessebwatters 0.0
podesta 0.0
kristol 0.0
interruptions 0.0
broaddrick 0.0
erictrump 0.0
outspending 0.0
irredeemable 0.0
begala 0.0
brazile 0.0
dinesh 0.0
markings 0.0
ericbolling 0.0
loudobbs 0.0
skyrocket 0.0
blumenthal 0.0
cochran 0.0
imploding 0.0
discord 0.0
jeffflake 0.0
davidwohl 0.0
bribery 0.0
repkenbuck 0.0
joshrogin 0.0
enrique 0.0
unverified 0.0
retribution 0.000212992779243
dwindling 0.0
automobile 0.0
teamtrump 0.0
subpoenaed 0.0
danscavino 0.0
joniernst 0.0
scottadamssays 0.0
senatorfischer 0.0
tabulation 0.0
trafficked 0.000100812205355
depict 0.0
unrelenting 0.0
imitating 0.0
dutchess 0.0
adelson 0.0
valuing 0.0
ricksantorum 0.0
chuckgrassley 0.0
laraleatrump 0.0
abingdon 0.0
equating 0.0
ministries 0.0
brzezinski 0.0
sentedcruz 0.0
jamesrosenfnc 0.0
leaker 0.0
realjameswoods 0.0
jim_jordan 0.0
marshablackburn 0.0
boynton 0.0
betsydevos 0.0
lawfare 0.0
larry_kudlow 0.0
stranahan 0.0
waynedupreeshow 0.0
phillypolice 0.0
scottwrasmussen 0.0
johnstown 0.0
raul_labrador 0.0
statewide 0.0
reviewjournal 0.0
oppress 0.0
underlings 0.0
bankrupted 0.0
collude 0.0
fayetteville 0.0
disqualifying 0.0
mahoning 0.0
disloyalty 0.0
americanlegion 0.0
bankruptcies 0.0
morell 0.0
ambridge 0.0
emboldens 0.0
asheville 0.0
grievous 0.0
ricketts 0.0
benefactor 0.0
dwyane 0.0
markhalperin 0.0
mayorbowser 0.0
unverifiable 0.0
savaged 0.0
wheeling 0.0
technocratic 0.0
countr 0.0
thealabamaband 0.0
relives 0.0
unwatchable 0.0
residences 0.0
gatekeeper 0.0
defections 0.0
senatorsessions 0.0
drmoore 0.0
honorably 0.0
billhemmer 0.0
shultz 0.0
aflcio 0.0
trucking 0.0
fabrications 0.0
malleable 0.0
misrepresents 0.0
decimated 0.0
arabella 0.0
mishandled 0.0
interfe 0.0
speach 0.0
iranians 0.0
fraudulently 0.0
enablers 0.0
dealmaker 0.0
terrori 0.0
anarchists 0.0
krzanich 0.0
foxnation 0.0
permeated 0.0
overruns 0.0
disposed 0.0
inaccurately 0.0
peebles 0.0
conditioners 0.0
classifie 0.0
forewarned 0.0
karlrove 0.0
palazzo 0.0
evansville 0.0
rebroadcast 0.0
bangor 0.0
secpricemd 0.0
realdonaldtru 0.0
uschamber 0.0
trumpinaugural 0.0
rawlings 0.0
churchillian 0.0
hemmer 0.0
rudygiuliani 0.0
pynance 0.0
terrybranstad 0.0
cbnnews 0.0
faithandfreedom 0.0
ovations 0.0
scpioneer 0.0
dwstweets 0.0
tgowdysc 0.0
bluffs 0.0
marist 0.0
spluttering 0.0
thetodaysgolfer 0.0
thebig_easy 0.0
hoosier 0.0
senbobcorker 0.0
larsloekke 0.0
roadblocks 0.0
manheim 0.0
greenblatt 0.0
jtanews 0.0
mitchellvii 0.0
bemoan 0.0
michiga 0.0
gennifer 0.0
gulbis 0.0
liyuan 0.0
enlisting 0.0
ainsleyearhardt 0.0
stevedoocy 0.0
foxfriendsfirst 0.0
pastormarkburns 0.0
marksimoneny 0.0
gov_gilmore 0.0
flunky 0.0
agitators 0.0
overdoses 0.0
liliantintori 0.0
leopoldo 0.0
traceadkins 0.0
gopconvention 0.0
governorsununu 0.0
laconia 0.0
teamsters 0.0
gatewaypundit 0.0
lawyerly 0.0
dissipates 0.0
realjeffreylord 0.0
nytimesdowd 0.0
scalise 0.0
straightening 0.0
energizer 0.0
montgomeriefdn 0.0
shulkin 0.0
ericgreitens 0.0
circuited 0.0
govbrewer 0.0
infringed 0.0
mcgarvey 0.0
republicanstudy 0.0
americafirstpol 0.0
fheile 0.0
phadraig 0.0
wiedefeld 0.0
coddington 0.0
kravis 0.0
fighterjet 0.0
shinzō 0.0
votestand 0.0
romoabcnews 0.0
moskowitzeva 0.0
drgoodspine 0.0
levisteveholt 0.0
untrusting 0.0
sleazebag 0.0
lbperfectmaine 0.0
timken 0.0
newhouse 0.0
evancho 0.0
franklin_graham 0.0
eazymf_e 0.0
busineses 0.0
substantialy 0.0
rexnord 0.0
sdcritic 0.0
highonhillcrest 0.0
fiiibuster 0.0
koster 0.0
saucier 0.0
t_lineberger 0.0
cissieglynch 0.0
saysgabrielle 0.0
ravenrantz 0.0
mayorrgiuliani 0.0
deplorablecbtp 0.0
tanden 0.0
keithrowland 0.0
kinston 0.0
sjsopio 0.0
aztrumptrain 0.0
therealmogul 0.0
unclassify 0.0
firebombed 0.0
wikileakes 0.0
davidshiloach 0.0
trumpwomenstour 0.0
mistreats 0.0
willey 0.0
dornsife 0.0
henryleledog 0.0
eericmyers 0.0
atensnut 0.0
arouses 0.0
anyonetennis 0.0
flifeforce 0.0
geeveem 0.0
susiesentinel 0.0
bcuzimdamomma 0.0
freedavidking 0.0
ifdanyt 0.0
arsenmissyirvin 0.0
nycmia 0.0
bigdog_joey 0.0
roadkingl 0.0
decieved 0.0
waukesha 0.0
creati 0.000146677263892
thallensboucher 0.0
kenansville 0.0
tarukmatuk 0.0
angpiazza 0.0
laughingstock 0.0
ak_tweet 0.0
kiiara 0.0
jerryjrfalwell 0.0
ghfanlovessonny 0.0
bishopwtjackson 0.0
cynthialummis 0.0
repreneeellmers 0.0
trumpdc 0.0
stvzbnk 0.0
bakari 0.0
adhd_fa 0.0
parisdennard 0.0
ronnieclemmons 0.0
takouis 0.0
lblackvelvet 0.0
chernuna 0.0
annebellar 0.0
presidencies 0.0
rsbnetwork 0.0
meequalsfree 0.0
pmnorlando 0.0
rhondar 0.0
patrici 0.0
lindaharden 0.0
trumpocrats 0.0
lewenskimo 0.0
trump_videos 0.0
sinabunz_tm 0.0
eyecandytmgayle 0.0
catonglass 0.0
billynungesser 0.0
samaritanspurse 0.0
zulu_out 0.0
willspeakout 0.0
laurencristmann 0.0
c_lynne_ryan 0.0
enemywithinn 0.0
elsolarverde 0.0
creats 0.0
dbongino 0.0
bongino 0.0
carl_c_icahn 0.0
fieldoffight 0.0
reploubarletta 0.0
mainegop 0.0
gatewaypun 0.0
mechanicsburg 0.0
pnehlen 0.0
patrioticpepe 0.0
insticts 0.0
borderless 0.0
lallyray 0.0
glowingly 0.0
spinnnn 0.0
flamed 0.0
nancynielsenn 0.0
olimauritania 0.0
theresa_cali 0.0
roxanetancredi 0.0
litigate 0.0
trumpdoonbeg 0.0
berrien 0.0
nbcpolitics 0.0
jakeda 0.0
barrasso 0.0
bluedogdemky 0.0
iowa_trump 0.0
arnold_ziffel 0.0
patricia_graf 0.0
brazosboys 0.0
jimvitari 0.0
trumpturnberry 0.0
trumpscotland 0.0
darrenwaggener 0.0
allegrettivicki 0.0
justininglv 0.0
chrisboydbrew 0.0
votetrumpmaga 0.0
realericjallen 0.0
insinuated 0.0
clubgoers 0.0
ausbiz 0.0
freemarketsara 0.0
senatorjeffsessions 0.0
mabynshingleton 0.0
dale_dangler 0.0
nauthizjane 0.0
richardweaving 0.0
mariadaq 0.0
sara_wejesa 0.0
jimhewitt 0.0
joedefranco 0.0
wolfstopper 0.0
djd_thunder 0.0
excoriates 0.0
rapidcraft 0.0
telepromter 0.0
liliannyleebou 0.0
lunsfordwhitney 0.0
free_sa_bd 0.0
stockdaleism 0.0
admonished 0.0
nbcdfw 0.0
frankylamouche 0.0
sandiegopd 0.0
tombarrackjr 0.0
buiidthewall 0.0
pipersul 0.0
oasisupernova 0.0
jknatter 0.0
jasondovesq 0.0
ed_klein 0.0
overregulates 0.0
dubilujane 0.0
rbacliff 0.0
ltstevenlrogers 0.0
rowanne 0.0
shoneep 0.0
magicmetalninja 0.0
barbaro 0.0
michael_favreau 0.0
christichat 0.0
mai_ttag 0.0
thydanielflores 0.0
costakenneth 0.0
svhlevi 0.0
johnjohnlacca 0.0
ladytsbrug 0.0
frankdallasagg 0.0
ladyjoanne 0.0
gerriweth 0.0
longbyfive 0.0
wesleyfelixpsi 0.0
manakoa 0.0
ragdollive 0.0
xgodfatherxzx 0.0
trumptrainrider 0.0
aprillajune 0.0
takingit_back 0.0
distlerjoyce 0.0
queencharlotteo 0.0
kellyriddell 0.0
valdosta_monkey 0.0
daybastrop 0.0
nathandwilsonfl 0.0
mathewjmari 0.0
stupor 0.0
matandsher 0.0
edgoeas 0.0
lynnepatton 0.0
erictrumpfdn 0.0
mikeozanian 0.0
lexingtonbobby 0.0
annettejeanne 0.0
andrebauer 0.0
waterbury 0.0
greenskydeb 0.0
keksec__org 0.0
ashleyedam 0.0
trumptbird 0.0
herb_stamper 0.0
senfrankniceley 0.0
anneslimo 0.0
agentvf 0.0
hornick 0.0
gqforbes 0.0
governor_savage 0.0
carolde 0.0
fugedaboudit 0.0
dnglax 0.0
alexnightrasor 0.0
lilrachiepoo 0.0
