awesome 0.00110094800103
christmas 0.00084842683256
trying 0.000315262305503
moment 0.000362247519918
wonderful 5.05897786978e-05
seeing 0.000601488388312
recommend 0.0
anybody 0.0
worked 0.000292230105971
direct 0.0
others 4.84421585398e-05
currently 5.35754068505e-05
better 0.0014257437428
please 0.000767703676581
social 0.000151357429833
around 0.000133663475888
people 0.00169307069458
leaving 5.10042420769e-05
morning 0.00170222245034
general 0.0
investigate 0.0
damage 0.0
everything 0.00103029253573
twitter 0.000494078589697
though 0.000233221635339
friend 0.000720599555435
watched 0.00045530800828
beautiful 0.00152274241454
anything 0.000637360437091
helped 9.82044743207e-05
managing 0.0
updated 0.0
thinking 0.000320403324827
finally 0.000915438070936
caught 0.000302714859665
believe 0.000536096964894
already 0.000759470700267
couple 0.000734541551819
orlando 7.62859950973e-05
research 0.000120106217544
chance 8.95906552812e-05
meaning 6.62461330226e-05
annual 6.02234894462e-05
quickly 0.0
growing 0.000161168083684
probably 0.000194293577007
should 0.000118421687533
changed 0.000143763142291
history 0.0
center 0.000176139069104
museum 0.0
behind 0.0003564359357
pretty 0.000732350456749
really 0.00223976638203
expensive 0.0
little 0.00116154342394
earlier 0.0
realized 0.000233338744831
forget 0.000499434920734
someone 0.000361272318391
mostly 6.8040516138e-05
worker 9.44738578918e-05
safety 0.0
shuttle 0.0
program 0.0
things 0.00115841679103
related 0.0
visiting 0.0
available 0.000465186443554
afternoons 0.0
perfect 0.000559731924813
different 0.000455257455065
numbers 0.0
delays 0.0
person 0.000404246118843
watching 0.00175646141637
passed 0.0
celebrates 0.0
minutes 0.000971635088812
travel 0.000164302714213
daughter 5.41675018361e-05
average 0.0
positive 0.000106272885576
outside 0.000189623843446
looking 0.000580771711969
forward 0.000322136003971
plenty 6.64419772586e-05
agreed 0.0
raising 0.0001279215727
listened 0.000141967727755
afraid 5.78954864833e-05
impression 0.0
drawing 7.9852257273e-05
favorite 0.00301522196651
magnet 0.0
picture 0.000238313798985
historic 0.0
instead 0.0
appreciate 0.000105403522739
husband 0.000629191887385
international 0.000110751666603
market 6.03945241744e-05
couldn 0.000373154616542
remember 0.000447953276406
impressive 0.0
familiar 0.0
friends 0.00103586186094
despite 0.0
impossible 6.09116033857e-05
everyone 0.000940701880452
florida 0.0
always 0.00236138807401
months 4.67703653186e-05
moving 0.0
meeting 0.000183581977799
google 0.0
answer 9.17909888996e-05
together 0.000583911060552
inside 0.00041979894361
smaller 0.0
missed 9.08063492244e-05
active 0.0
longer 0.000155111097048
enough 0.000452809399897
driving 0.0
building 0.0
technician 0.0
enjoying 5.47675714045e-05
london 5.32822841356e-05
kennedy 0.0
recent 0.0
gotten 0.000224522573593
amazing 0.00232308684788
attention 0.000101455010425
richard 0.000130177616845
progress 0.0
tomorrow 0.00232935703731
george 0.000111366213756
excited 0.00364808849485
campaigning 0.0
understand 9.7674062136e-05
following 0.000282141099133
learning 0.000222116820793
evening 0.0
special 0.000496749437787
secret 0.000451612217808
across 0.000100086181912
comparison 0.0
surprised 5.34286044378e-05
anymore 5.70926811247e-05
rather 0.000100631192687
showing 4.77917164483e-05
saying 0.000374162922549
tweeted 0.0
updates 0.000455621658957
thoughts 9.50683506306e-05
exactly 0.000145326475619
except 5.70926811247e-05
getting 0.0014334504845
nothing 0.000492748604047
tweets 0.000148107093968
course 0.000879098413687
stephen 0.0
looked 0.0
difficult 0.0
stages 0.0
office 0.000339095109779
decisions 0.000135270945025
brought 0.000148912298065
biggest 4.61437095317e-05
thrilled 0.000136488854425
entire 4.97722421465e-05
something 0.00111988319101
closing 0.0
anyone 0.000722544636782
taking 0.000627134586968
recently 5.8220703197e-05
interesting 9.98149214776e-05
original 0.0
flying 0.0
happening 0.000781392497088
sometimes 0.000148107093968
stopped 5.25578048891e-05
yesterday 0.000180636159195
service 0.0
serious 4.79210474302e-05
emails 0.0
afford 0.0
british 0.0
contact 0.000122869508232
either 0.00024418515534
second 0.000135477119397
accident 0.000165173039002
checking 0.000116115596218
volunteers 0.0
indeed 0.0
island 0.0
hearing 5.00430909561e-05
choose 0.000263508806848
staying 0.000121132435995
another 0.000536096964894
address 0.0
display 0.0
originally 0.0
compare 0.0
landing 0.0
perhaps 0.0
weekend 0.000908063492244
appear 0.0
anyway 5.78954864833e-05
theory 0.0
recognize 0.0
working 0.000582339259328
bigger 0.000105115609778
screen 0.0
treated 0.0
laughing 0.00371955099515
wanted 0.000135842819969
current 0.000158538553454
grateful 0.000409838178621
friendship 0.0
family 0.000403157948765
listening 4.91022371603e-05
stream 0.0
wedding 0.000476283612966
sharing 0.000421614090957
double 5.07275052123e-05
especially 0.000148912298065
middle 5.14225971879e-05
waiting 0.000413059450048
definitely 0.000195877747152
walking 0.000161168083684
account 0.0
completely 0.000106272885576
thought 0.000270954238793
reaction 0.0
accept 0.0
possible 0.000142217882584
simple 0.000156386116025
manufacturing 0.0
destroyed 8.61058080383e-05
professional 0.0
friendly 6.66386861519e-05
members 0.0
supposed 5.95458415246e-05
astronauts 0.0
component 0.0
business 0.0
absolutely 0.0
sending 0.000207946342518
delivering 0.0
heavily 0.0
biased 0.0
introducing 7.18618133087e-05
congrats 0.000235117582611
community 0.000110445975106
greatest 4.89694367879e-05
posted 0.000158973231807
saturday 0.000567337371742
wednesday 0.000270093693933
confused 0.000261118480971
explain 0.000104542559675
broken 0.0
chicago 6.09116033857e-05
fairly 0.0
hoping 0.0
relationship 0.000180670468339
actually 0.000413059450048
basket 0.0
myself 0.0
pocket 0.0
argument 0.0
decent 0.0
school 0.000227628727532
thursday 0.000575052569162
selling 6.12596871246e-05
talented 0.000647661806159
discuss 0.0
celebrate 9.90060597913e-05
celebrating 0.000374000231064
anniversary 5.41675018361e-05
contest 0.0
internet 0.0
figure 0.0
inspired 0.000325005011017
sitting 0.000151769336093
complaining 0.0
playing 0.000318680218545
street 0.0
points 0.000114824139063
advice 0.000367904634224
forever 0.000252948893489
congress 0.000155559163221
imagine 4.99074607388e-05
problem 0.0
played 0.00025021545478
canadian 0.0
pulling 0.0
keeping 0.000150129272868
lovely 0.000225216341836
chinese 0.0
unlike 0.0
allowed 5.88783460145e-05
otherwise 6.35910374068e-05
afternoon 0.000105403522739
planned 0.0
strange 6.88618203518e-05
notice 6.0738576015e-05
difference 9.79388735758e-05
author 7.48408578645e-05
intent 0.0
letting 0.0
system 5.59925143155e-05
almost 0.00076152056989
details 0.00024484718394
experience 0.000187081461274
viewed 0.0
living 9.35407306371e-05
bright 0.0
normal 0.0
practically 0.000129603175017
before 0.000145720182755
monday 0.000935407306371
realize 0.000193000888388
currency 0.0
sleeping 7.12017346881e-05
wanting 7.05512925967e-05
science 0.0
tweeting 0.000767148866479
forgot 0.000112296055069
herself 0.00021532227084
disaster 6.86550705981e-05
happens 0.000278359891089
silence 0.0
congratulations 0.00019747612529
natural 0.000127182074814
raised 5.85483112316e-05
mission 6.0738576015e-05
ironic 0.0
testing 0.000235636740846
deleted 0.0
channels 0.0
surprising 0.0
reference 7.57990559121e-05
forgotten 0.0
trouble 0.000110751666603
setting 6.35910374068e-05
reminds 0.0
fantastic 0.0
loving 0.000581308029331
hardly 0.0
complete 0.000102845194376
membership 0.0
nearly 0.000117756692029
spirit 0.000174173394327
launched 0.000200508802114
stories 4.84421585398e-05
including 4.97722421465e-05
inviting 0.0
wouldn 0.000144933924747
choice 0.000191166865793
offended 0.0
conversation 5.44665263946e-05
disrespectful 0.0
making 0.000804145447342
expect 0.000107445389123
discussion 0.0
believes 0.0
occasions 0.000137564696882
response 0.000105403522739
brings 0.0
subject 7.50784823849e-05
greetings 0.0
anytime 7.36713814868e-05
protected 0.0
location 0.0
thomas 0.0
missile 0.0
needed 0.0
seriously 0.000198012119583
spending 0.000111366213756
groups 0.0
modern 6.45212276008e-05
welcome 4.52809399897e-05
totally 0.00051703699016
evenings 0.0
laughed 0.0
running 9.40470330443e-05
finished 0.000160726220552
strong 0.000184574838127
hopefully 0.000569338414129
respond 6.76354725124e-05
message 4.75341753153e-05
coming 0.00259113533032
thankful 0.0
temporary 9.67398288337e-05
issues 0.0
challenge 0.000343715660122
happen 0.000182594618111
giving 0.000633933159856
turkey 6.52796202428e-05
common 0.000110751666603
pressed 0.000122850946299
healthcare 0.0
benefits 0.0
situation 5.85483112316e-05
workers 0.0
company 0.0
health 0.000105692368969
insurance 0.0
change 0.000179181310562
august 0.000316121658496
mental 6.66386861519e-05
carrier 0.0
neither 6.17869653727e-05
lowest 0.0
decide 0.000222116820793
happened 0.000141451900684
demand 0.000236177138895
generally 0.0
personal 9.74100353238e-05
beyond 0.000200172363824
passion 0.0
question 0.000183087614187
doctor 0.0
sacrifices 0.0
respected 0.0
position 0.0
increased 0.0
losing 0.0
strain 0.0
respect 4.89694367879e-05
collapse 0.0
shouldn 5.35754068505e-05
career 5.19865856296e-05
visited 0.0
challenger 0.0
reason 0.000188602534245
simply 5.59925143155e-05
audience 0.000123928241288
employees 0.0
accounts 0.0
attacked 0.0
involved 5.21287053417e-05
extreme 7.75271475528e-05
unhappy 0.0
caused 0.0
knocked 0.0
reality 5.32822841356e-05
mention 0.000110445975106
extremely 0.000195266425267
burned 0.0
without 0.00040643135819
falling 0.0
problems 0.0
timing 0.0
highly 6.37755283203e-05
online 0.000963616822446
animals 0.0
called 0.000360299777717
scientists 0.0
pictures 5.66178507837e-05
camera 0.00035128986739
heading 5.32822841356e-05
terribly 0.0
theater 8.46055150465e-05
paying 0.0
complex 0.0
sunday 0.000694025063437
nights 0.000396306875254
enthusiastic 0.0
increasing 0.0
traffic 6.72340779781e-05
opposite 0.0
lookout 0.0
reached 0.000132883954517
changing 0.000109837720295
harder 6.23205584805e-05
silent 0.0
speaking 0.0
careful 0.0
november 6.00531087722e-05
answered 0.00021230115981
number 0.000596641427847
atlantic 0.0
stupid 0.0
budget 0.0
unless 0.0
calling 9.40470330443e-05
lately 0.0
levels 0.0
focused 0.0
ridiculous 0.0
financially 0.0
knowing 0.000123928241288
former 0.0
covers 0.0
mountain 7.90636616074e-05
suffers 0.000124265493423
schedule 6.94878890882e-05
greatly 0.0
friday 0.000454031746122
dramatic 0.0
failure 0.0
achieve 7.50784823849e-05
winner 4.97722421465e-05
closes 0.0
bother 0.0
directly 7.39028339136e-05
quality 5.78954864833e-05
tearing 0.0
father 5.10042420769e-05
wishes 5.83842061033e-05
collar 0.0
ground 0.0
matter 4.8050754922e-05
strategy 0.0
themselves 0.0
asking 0.000142217882584
mobile 0.0
device 0.0
computer 0.000138556441008
impressed 0.0
complain 0.0
dinner 0.000297018179374
suffering 0.0
single 9.22874190633e-05
parent 0.0
packed 0.0
catching 0.0
neglected 0.0
somewhat 0.0
approved 8.46055150465e-05
definition 7.36713814868e-05
energy 0.000159846852407
meltdown 0.0
events 5.55292051982e-05
europe 0.0
holiday 0.000412503411299
status 0.000134868646446
update 0.0
outage 0.0
customers 0.0
holding 0.000105982154538
survive 0.000152083720568
electric 0.0
picked 0.00033502525208
missing 0.000143375149345
surprise 4.79210474302e-05
german 0.0
officially 0.000156813839513
french 0.000230290505732
global 0.0
follow 0.0012160117498
opinion 0.0
design 0.000202906417537
allows 0.0
promoting 0.0
volunteer 0.0
negative 0.000130559240486
official 0.000277610025375
brutal 0.0
cotton 0.0
jersey 0.0
mistake 0.0
fixing 8.92670265884e-05
france 0.0
proper 0.0
peaceful 0.0
thinks 0.0
competition 0.0
industry 0.0
easier 0.00012147715203
successful 0.0
trending 0.000963761434671
leadership 0.0
agrees 0.0
organized 0.0
enthusiasm 0.0
turnout 0.0
showed 0.0
attended 0.0
trumps 0.0
networks 0.0
experienced 0.0
interested 0.0
effect 0.0
dislike 0.0
success 0.000101179557396
dreams 0.000353270076087
protect 0.0
rumors 0.0
arguing 8.95958435197e-05
referred 0.0
waving 0.0
growth 0.0
control 0.0
happier 0.0
likely 0.0
coincidence 0.0
cancel 0.0
project 0.000101179557396
laying 0.000278009357573
lesson 6.23205584805e-05
replacement 0.0
invited 0.0
continuing 0.0
clearance 0.0
treating 0.0
allowing 0.0
arrived 0.000108335003672
unable 0.0
opening 0.0
popular 0.0
followed 5.95458415246e-05
statement 0.0
enjoyed 0.000106272885576
spectacular 0.0
smoothly 0.0
length 0.0
wonder 0.000242866971258
matters 5.88783460145e-05
function 0.0
shared 6.14347541159e-05
connection 7.29841520476e-05
benefit 0.0
terrible 5.70926811247e-05
continues 0.0
equally 0.0
session 0.00035128986739
routine 0.000272807787772
associated 0.0
exciting 0.00123562197491
imagination 0.000107168815582
decides 0.0
cheering 0.0
spring 0.00120229387188
fallen 0.0
beautifully 0.0
places 0.000106857208876
entered 0.0
feedback 8.7343512404e-05
thousands 0.0
properly 0.0
informed 0.0
typical 0.0
continue 0.0
attend 0.0
excuse 0.000129797620602
female 0.0
recovery 0.0
closer 0.000168444082603
beginning 0.000168912256377
introduce 0.0
bought 0.0
multiple 0.0
slogan 0.0
covered 0.000174173394327
choices 0.000290127273179
unpredictable 0.0
enterprise 0.0
several 0.0
surrounded 0.000101649873755
dealing 0.0
teacher 0.0
training 0.0
auditorium 0.0
passing 6.05662179975e-05
become 4.67703653186e-05
presentation 0.0
spread 0.000255716288826
sooooo 0.0
season 0.001530439971
putting 9.40470330443e-05
weight 0.0
stephanie 0.000135668474884
rapidly 0.0
follows 0.0
explained 0.0
stance 0.0
storms 0.0
headed 5.92108437663e-05
sleepy 0.0
returns 6.00531087722e-05
expected 6.4146817902e-05
resources 0.0
considering 0.0
fabric 0.0
suspect 0.0
constantly 8.25865195011e-05
condolences 0.0
appreciated 0.0
register 6.66386861519e-05
manage 0.0
transition 0.0
smooth 8.92670265884e-05
flowers 0.0
gained 0.000101649873755
savage 0.0
somebody 6.68362673714e-05
contract 7.75271475528e-05
furious 9.91272476974e-05
covering 6.92782205038e-05
boxing 0.0
credit 0.0
patriots 0.0
player 0.0
chemistry 9.79175491733e-05
grandkids 0.0
offensive 0.0
charles 0.0
fighting 5.10042420769e-05
atlanta 0.0
donald 0.0
mexico 6.4709618968e-05
unreal 0.0
police 5.77337640118e-05
represent 0.0
president 0.00014931672644
talking 0.000494078589697
unbelievable 0.0
alabama 0.0
slowest 0.0
conference 0.0
america 4.76627597969e-05
michigan 0.0
everybody 0.0
judgment 0.0
carolina 0.0
amount 0.000251442478163
houston 0.0
everyday 0.000635910374068
michael 0.0
protecting 0.0
million 0.000517258681743
election 6.17869653727e-05
honesty 0.0
telling 0.000254328293932
correct 0.0
pulled 6.72340779781e-05
attack 0.0
americans 0.0
salaries 0.0
killed 0.000299444764433
louisville 0.0
horrible 0.0
coverage 0.0
dallas 0.0
jacksonville 0.0
league 0.0
united 0.0
college 0.000167977542946
refuse 0.0
barackobama 0.0
hillary 8.011825503e-05
clinton 7.32120527592e-05
presidency 0.0
manning 0.0
stupidity 0.0
american 0.000142602525946
remain 6.30421044841e-05
founder 0.0
illegal 0.0
arizona 0.0
opinions 0.0
retire 0.0
triumph 0.000102523519236
stealing 0.0
speeches 0.0
innocent 0.0
scared 0.000131327426139
golden 6.03945241744e-05
straight 0.000198549730753
removed 8.40192632729e-05
answers 5.77337640118e-05
product 0.000287447253235
created 0.000161611412369
snoopdogg 0.0
worlds 0.0
record 0.0
stamina 0.0
weapon 0.0
funeral 0.0
registered 9.16213965001e-05
minnesota 0.0
committed 0.0
journey 0.000174662109591
disrespect 0.0
brother 0.000109233589276
prayers 0.000210368642158
documentary 0.0
boston 0.000194128856904
addition 0.0
korean 0.0
church 0.0
advantage 0.0
honestly 0.0002558431454
defeat 0.0
baltimore 0.0
lifetime 6.76354725124e-05
captain 0.0
retired 0.0
country 4.62683375625e-05
valley 0.0
mailbox 0.0
speedy 0.0
ending 6.02234894462e-05
finish 5.50706643554e-05
employee 9.87203545319e-05
university 0.0
remembered 0.0
nominated 0.000201702233934
praying 0.000551808754883
insane 6.62461330226e-05
national 0.0
reform 0.0
oregon 0.0
shooting 0.000223970057262
cancer 0.000506736769132
australia 0.0
deserve 0.000274594300737
legend 0.0
mother 4.99074607388e-05
murder 0.0
creating 0.000492884093669
powerful 5.46167946381e-05
carson 0.0
palmer 0.0
branch 0.0
breaking 0.000192723364489
dollars 0.000225235447155
questions 0.000550745933397
racist 0.0
charged 0.0
girlfriend 0.000283421573676
performance 0.000311069506855
refreshing 0.000209571308797
reading 0.000190136701261
corrupt 0.0
penalty 0.0
writer 0.0
denver 0.0
create 0.000259224589046
admire 0.0
nobody 5.49188601474e-05
government 0.0
politics 0.0
comeback 0.0
charities 0.0
method 0.0
sample 0.0
bringing 5.03155963436e-05
celebs 0.0
stadium 0.0
funniest 8.17484792716e-05
according 0.000118756055594
threat 0.0
heroin 0.0
honest 0.000167049320634
rolling 0.0
became 0.0
feature 0.000245739016464
decision 0.0
counting 0.0
verified 0.0
signing 0.000176139069104
adding 0.0
embrace 0.000156577562693
pressure 6.09116033857e-05
celebrities 0.0
dearly 0.0
facebook 0.000287526284581
divided 0.0
extension 0.0
lawyer 0.0
charleston 0.000130420711568
brazilian 0.0
basketball 0.0
campaign 5.19865856296e-05
determine 0.0
whether 0.0
praise 0.0
factory 0.0
arrested 0.0
investments 0.0
activity 0.0
comments 5.46167946381e-05
wounded 0.0
endorsement 0.0
williams 0.0
future 0.000230718547658
struggled 0.0
blessed 0.0
sabotage 0.0
warrior 0.0
softball 0.0
cheating 0.0
voting 0.0
instincts 0.0
collins 0.000101219392223
succeed 8.40192632729e-05
commercial 0.000184304262348
religion 0.0
boring 7.75271475528e-05
acting 0.000192440453706
established 0.0
warriors 0.0
because 0.000129042455202
sensitive 0.0
smiling 0.0
traitor 0.0
cleveland 0.0
agents 0.000191184878906
periscope 0.0
killing 0.000114185362249
choosing 0.0
phillips 0.0
instagram 0.00055927784811
opponent 0.0
detroit 0.0
cousin 0.0
honored 0.0
nonsense 0.0
dedication 0.000188947715784
hammer 0.0
proven 0.0
talent 0.00011942857942
governors 0.0
knocking 0.0
russian 0.0
consecutive 0.0
skills 6.21419831233e-05
citizens 0.0
cameras 0.0
phones 0.000247759558503
california 6.4146817902e-05
commitment 0.0
maryland 0.0
seconds 5.9883377169e-05
placed 0.0
listen 0.00018507335025
dominating 0.0
whatever 0.000154267791564
wherever 8.58016806324e-05
fought 0.0
compete 8.40192632729e-05
lauderdale 0.0
injured 0.0
billion 0.0
shoutout 8.46055150465e-05
depressing 0.0
guilty 0.000227397167736
carpet 7.70265300168e-05
harvard 0.0
absolute 0.000131327426139
handle 0.0
promise 5.31364427878e-05
hosting 5.87130230346e-05
longest 7.9587838147e-05
generation 0.0
criminal 0.0
tuesday 0.000915581858156
garbage 0.000193479657667
goldman 0.0
ronald 0.0
locker 0.0
leader 0.0
desperately 0.0
character 0.000299416885845
chancellor 0.0
proving 0.0
jackson 0.0
interview 0.000500783200571
buffalo 0.0
insight 0.0
obviously 6.28606195409e-05
battle 5.19865856296e-05
destroy 0.0
killer 0.0
personally 6.4709618968e-05
relentless 0.0
winning 0.0
charlotte 0.0
trafficking 0.0
defense 0.0
japanese 0.0
causing 0.0
arabia 0.0
rapist 0.0
writing 0.000103689835618
society 0.0
officers 0.0
ambushed 0.0
sources 0.0
kentucky 0.0
incredible 0.000144933924747
ungrateful 0.0
kissing 0.000116988628523
minute 0.000100904953222
luther 0.0
foreign 0.0
phoenix 0.0
champions 0.0
virginia 0.0
streak 0.0
orange 0.0
policy 0.0
intentional 0.0
reminder 0.000107740941579
evidence 0.0
presidents 0.0
judged 0.0
accused 0.0
intentions 0.0
facing 0.0
freedom 0.0
actions 0.0
debating 0.0
consequence 0.0
coughing 0.0
clearly 5.67755659642e-05
invite 0.0
central 5.90442847239e-05
washington 0.0
tougher 0.0
veteran 0.0
division 0.0
overrated 0.0
veterans 0.0
stronger 0.0
bowden 0.0
promised 0.0
catches 0.0
worried 0.0
security 0.0
sanctuary 0.0
reverse 0.0
immediately 0.0
television 7.88038679153e-05
entitled 0.0
racism 0.0
highest 0.0
approve 0.0
turning 0.000111985028631
georgia 0.0
tennessee 0.0
legacy 7.09838638776e-05
leaked 0.000192708146494
choked 0.0
helping 0.000246177172725
tickets 0.000162502505508
suspending 0.0
suspend 0.0
willing 6.8040516138e-05
december 0.000248567932493
beating 0.0
basically 6.52796202428e-05
return 0.000198012119583
escape 0.0
locked 7.53173810375e-05
unacceptable 0.0
network 6.24998524526e-05
language 0.0
invest 0.0
creation 9.05971101951e-05
followers 0.000115790972967
schools 0.0
menace 0.0
movies 0.000402208372129
entity 0.0
children 9.84708690899e-05
nation 0.0
flexible 0.0
review 5.32822841356e-05
knowledge 6.35910374068e-05
begins 5.35754068505e-05
vanessa 0.0
forbes 0.0
parade 0.0
fireworks 0.0
shoulder 0.0
produced 7.01228807193e-05
consider 0.0
latest 0.000435979426858
signed 0.00019747612529
shower 0.000157607735831
thunder 0.0
charity 0.0
germany 6.8040516138e-05
advance 0.0
explaining 0.0
millions 0.0
blessings 0.0
diamond 0.0
dollar 7.53173810375e-05
monsters 0.0
rigged 0.0
conduct 0.0
cooked 0.00010572367835
turned 0.000147306711481
criticism 0.0
responded 0.0
depending 0.0
jackie 0.0
charge 6.19641206438e-05
ticket 0.0
finest 0.0
sanders 0.0
includes 0.0
dealers 0.0
against 0.0
benjamin 0.0
impact 0.0
families 5.72520891372e-05
selection 8.51995837404e-05
hitting 0.0
announced 0.0
decided 5.35754068505e-05
professor 0.0
itself 0.0
promote 0.0
mexican 0.0
owners 0.0
guards 0.0
guarantee 0.0
beliefs 0.0
citizen 0.0
states 0.0
memorial 7.27574111412e-05
decades 0.0
landed 0.000279640838838
ultimate 0.000194696430903
mcdonald 0.0
twenty 0.000193479657667
hispanics 0.0
financial 0.0
payments 0.0
grabbing 0.000109171601832
permit 0.0
shield 0.0
disney 0.000270782544847
kansas 0.0
agreement 0.0
source 0.0
dismiss 0.0
talents 0.0
homework 0.0
expectations 0.0
joining 0.000105403522739
eugene 0.0
reasons 5.21287053417e-05
talked 0.0
released 0.0
reaching 0.0
release 9.82044743207e-05
promoter 0.0
circumstances 0.0
scheme 9.79175491733e-05
warwick 0.0
highlight 0.0
within 5.70926811247e-05
stacked 0.0
speech 0.0
standing 5.11432577653e-05
higher 6.00531087722e-05
justice 6.02234894462e-05
served 6.76354725124e-05
speaks 0.000129419237936
navarro 0.0
dropped 5.52229875532e-05
consideration 0.0
predicted 0.0
strength 0.000123928241288
andrew 0.0
replace 0.0
incredibly 0.0
private 0.0
integrity 0.0
sanford 0.0
ignored 0.0
neighbors 0.0
affection 0.0
minimum 0.0
direction 0.0
enemies 9.52164499478e-05
exclusive 0.000478227985091
prison 0.0
himself 7.18618133087e-05
investigation 0.0
disgusting 8.76583864493e-05
congratulate 0.0
philly 0.0
rights 6.03945241744e-05
replaced 0.0
recognition 0.0
maintain 0.0
tallahassee 0.0
handed 0.0
victory 0.0
classy 0.0
lifted 0.0
terrorist 0.0
productive 0.0
tribute 0.0
threatened 0.0
insecure 0.0
horror 0.0
discovery 9.12773446595e-05
convention 8.61058080383e-05
understanding 0.0
action 0.000144152264766
figures 0.0
having 8.40192632729e-05
marine 0.0
announces 0.0
wallace 0.0
speaker 0.0
stevens 0.0
cybersecurity 0.0
apologize 0.0
continued 0.0
journalist 0.0
libelous 0.0
formation 0.0
letter 0.000110445975106
discussed 0.0
therapy 0.0
widespread 0.0
untrue 0.0
written 0.0
conferences 0.0
results 5.85483112316e-05
papers 0.0
winter 0.000302831089987
marching 0.0
sessions 0.000713924811224
democrats 0.0
eastern 0.0
scientist 0.0
represented 0.0
waters 0.0
journal 0.0
foundation 0.0
access 0.000110141328711
analysis 0.0
writes 0.0
colorado 0.0
medical 0.0
tremendous 0.0
nytimes 6.78375340468e-05
public 5.19865856296e-05
cheaters 0.0
cannot 0.000249537303694
reveals 6.68362673714e-05
immunity 0.0
threatens 0.0
candidate 0.0
brilliant 0.0
wisconsin 0.0
studies 0.0
measure 0.0
compared 0.0
donors 0.0
graham 0.0
incorrect 0.0
headline 0.0
careers 0.0
answering 0.000134868646446
streaming 7.32120527592e-05
leaders 0.0
supreme 0.0
nominee 9.05971101951e-05
gorsuch 0.0
protest 0.0
immigration 0.0
policies 0.0
administration 0.0
defend 0.0
excitement 0.0
funding 0.0
surveillance 0.0
transfer 0.0
conspiracy 8.82948900166e-05
horrifying 0.0
formed 0.0
interviews 0.0
retreat 0.0
alliance 0.0
platform 0.0
editing 0.000258317424115
february 0.0
association 0.0
airwaves 0.0
hamilton 0.0
futures 0.0
borders 0.0
border 0.0
uranium 0.0
misleading 0.0
january 0.0
topics 0.0
unprecedented 0.0
airplane 0.0
tragic 0.0
philadelphia 0.0
funded 0.0
secure 0.0
income 0.0
hurricane 9.48436068352e-05
breakdown 0.0
countries 0.0
linked 0.0
broadcast 0.0
african 0.0
triple 0.0
provide 0.0
enhance 0.0
development 0.000154552271333
companies 7.41354949747e-05
discussions 0.0
developing 9.02608482823e-05
proposal 0.0
potential 0.000123573930745
moderator 0.0
suggestion 0.0
attending 0.0
filled 0.0
schultz 0.0
education 6.02234894462e-05
sickness 0.0
mentioned 0.0
exists 0.0
henderson 0.0
plants 0.0
orders 0.000160771700761
officials 0.0
strategic 0.0
ability 0.0
political 0.0
director 0.00016751262604
behaving 0.0
deficits 0.0
sufficient 0.0
prevent 0.0
shoddy 0.0
capacity 0.0
donations 0.0
editors 0.000101649873755
discussing 0.0
persistent 0.0
treatment 0.0
establishment 0.0
protects 0.0
critical 0.0
ambassador 0.0
preparing 0.0
capable 9.19681258139e-05
bishop 0.0
producers 9.26697858578e-05
bombed 0.0
weekly 0.000154552271333
becoming 0.000114824139063
magazine 6.21419831233e-05
lawyers 0.0
summary 0.0
standard 0.0
controlled 0.0
hiring 0.0
defending 0.0
pushes 0.0
admitted 0.0
failed 6.64419772586e-05
independent 0.000138139067954
copies 0.0
politically 0.0
driven 8.11984168286e-05
agenda 8.06550626316e-05
blocked 7.55575675596e-05
result 0.0
announcing 0.0
destruction 0.0
culture 0.0
insider 0.00010572367835
traitors 0.0
prince 6.4898810301e-05
solutions 0.0
indiana 0.0
mongering 0.0
claims 0.0
editorial 0.000186765345875
prospects 0.0
mistakes 7.9852257273e-05
offered 0.0
founded 0.0
ignorance 0.0
inspiring 0.000181183572523
majority 0.0
embarrassing 0.0
creators 0.000241619851388
server 0.0
berniesanders 0.0
spotlight 0.0
readout 0.0
tactics 0.0
irrelevant 0.0
massive 0.0
receiving 0.0
promising 0.0
promises 0.0
consequences 0.0
production 0.000285682704485
proposals 0.0
elsewhere 0.0
bernie 0.0
hacking 0.0
guests 0.0
interviewed 0.0
secretary 0.0
rebuttal 0.0
reduce 0.0
arriving 0.0
dangerous 6.00531087722e-05
shutting 0.0
arrival 0.0
canceled 0.000120809925694
typically 0.0
saving 0.000129797620602
pioneer 0.0
incident 0.0
ordering 0.0
victims 0.0
raises 0.0
receive 0.000126084208968
reputation 0.0
intention 0.0
commentary 0.0
disclosure 0.0
terrific 0.0
berkeley 0.0
melbourne 0.0
received 0.0
correctly 0.0
inherited 0.0
displayed 0.0
joseph 0.0
offices 0.0
necessary 6.88618203518e-05
largely 0.0
inaccurate 0.0
debate 0.0
conflict 0.0
interest 0.0
controversy 0.0
stated 0.0
rating 0.0
nominate 0.000187486880052
outstanding 0.0
devastating 0.0
accurate 0.0
southeastern 0.0
romney 0.0
scotland 0.0
delayed 0.0
rarely 0.0
abroad 0.0
winners 0.0
profit 0.0
reviews 8.03858503807e-05
republican 0.0
presidential 0.0
candidates 0.0
politicians 0.0
epidemic 0.000109171601832
greater 7.29841520476e-05
booths 0.0
arnold 0.000240299694147
principles 0.0
deadline 0.000144168061374
speakers 8.8940618594e-05
incoming 0.0
various 0.0
nuclear 0.0
danger 0.0
leading 0.0
restored 0.0
conditions 0.0
however 0.0
resolution 0.000180521696565
remained 0.0
member 0.0
examples 0.0
employ 0.0
courses 0.0
largest 0.0
hallmark 0.000164732492142
mentor 0.0
increase 0.0
transcript 0.0
disrupt 0.0
provided 0.0
binding 0.0
decreased 0.0
revival 0.0
crashing 0.0
reception 0.0
rising 0.0
primary 0.0
reduction 0.0
surrogate 0.0
provides 0.0
environment 0.0
revealed 0.0
confirmed 0.0
controls 0.0
behavior 0.0
introduced 0.0
carbon 0.0
communities 8.51995837404e-05
region 0.0
deaths 9.3743440026e-05
responsible 0.0
household 0.0
munich 0.00012572642732
canada 0.0
regions 0.0
movement 0.0
midwest 0.0
segment 0.0
emerged 0.0
hundreds 0.0
information 0.0
combined 0.0
easily 0.0
towards 6.50888084224e-05
inform 0.0
mathematically 0.0
october 6.24998524526e-05
investigating 0.0
predators 0.0
innovation 0.0
perspective 0.0
cities 0.000134069457376
todays 0.0
julian 0.0
eliminated 0.0
interests 0.0
toledo 0.0
extraordinary 0.0
eradicate 0.0
retains 0.0
ashamed 0.0
meetings 0.000237974937075
describing 0.0
eliminate 0.0
obligation 0.0
gender 8.17484792716e-05
committee 0.0
wasting 0.0
numerous 0.0
examination 0.0
inflammatory 0.0
practices 0.0
management 0.0
nordstrom 0.00029948228516
genius 0.0
warren 0.0
traveling 0.000252934274769
billions 0.0
prepared 0.0
fraction 0.0
equipment 0.0
procedures 0.0
rasmussen 0.0
county 0.0
developer 0.0
anthony 0.0
shadow 8.70308480194e-05
district 0.0
considered 0.0
lobbyist 0.0
chosen 0.0
hospitalized 0.0
outright 0.0
yorkers 0.0
naming 0.0
conventions 0.0
deficit 0.0
interventions 0.0
focusing 0.000188947715784
sensible 0.0
hosted 7.60418602839e-05
batman 0.0
column 0.0
upcoming 0.000126448663398
positions 0.0
favors 0.0
regulation 0.0
distributed 0.0
weakness 0.0
introduction 0.0
western 0.0
pacific 0.0
larger 0.0
increases 0.0
effective 0.0
situations 0.0
harbor 0.0
wealth 0.0
underway 0.0
israel 0.0
hysteria 0.0
overwhelming 0.00018968721367
protection 0.0
prisoners 0.0
guidance 0.0
montana 0.0
determination 0.0
restore 0.0
acquire 0.0
additional 0.0
exception 0.0
machine 0.0
honoring 9.30248036084e-05
visually 0.0
contrary 0.0
immediate 0.0
politico 0.0
ignoring 0.0
judges 0.0
federal 0.0
constant 0.0
philippines 0.0
nicely 0.0
september 0.000250719483388
manchester 0.0
fiction 0.0
priest 0.0
angela 0.0
process 0.000113867682826
destructive 0.0
genuine 8.09259114412e-05
surreal 9.71289535077e-05
whitehouse 0.0
flotus 0.000113469339986
crisis 0.0
judgement 0.00010572367835
confidence 0.0
voters 0.0
diamondandsilk 0.0
oldest 0.0
inauguration 0.0
gracious 0.0
scream 0.0
postponed 0.0
disappoint 0.0
believing 0.000180521696565
hillaryclinton 0.0
electoral 9.87203545319e-05
crashed 0.0
citizenship 0.0
closed 0.0
religious 0.0
apprentice 0.0
conservative 0.0
economists 0.0
buzzfeed 0.000177881237188
puppet 0.0
sweden 0.0
andersoncooper 0.0
treats 0.0
qualified 0.0
missouri 0.0
cooper 0.0
debates 0.0
endorsements 0.0
strike 6.86550705981e-05
shouting 0.0
empire 0.000255598751221
encouraged 0.0
regard 0.0
concerning 0.0
misinformed 0.0
disregard 0.0
barack 0.0
joined 0.0
terrorism 0.0
pushing 0.0
cracking 0.0
muhammad 0.0
refused 0.0
amazingly 9.3743440026e-05
express 6.90695339772e-05
gratitude 0.0
congratulation 0.0
throughout 0.00014153410654
shining 9.02608482823e-05
fighter 0.0
anticipated 0.0
presented 0.0
reveal 0.0
stands 0.0
native 0.0
harvey 0.0
featured 0.0
announce 0.000259224589046
surround 0.00025145285464
although 0.0
senior 0.0
todayshow 0.000102084555173
convincingly 0.0
haters 0.0
returning 0.0
laughs 0.000168038526546
touched 0.0
corruption 0.0
violence 0.0
runnin 0.0
delivered 0.0
owning 0.0
legendary 0.0
stabbing 0.0
independence 8.06550626316e-05
approval 9.05971101951e-05
magical 0.000167458009939
alongside 0.0
percent 8.2305417673e-05
spiral 0.0
differently 0.0
sweeping 0.0
spoiler 0.0
theirs 0.0
offering 0.0
remembering 0.000145968304095
floated 0.0
professionals 0.0
construction 9.33826729377e-05
searching 8.61058080383e-05
flexibility 0.0
sinking 0.0
detail 8.20260782503e-05
document 0.0
cabinet 0.0
pleased 0.0
carrying 0.0
statements 0.0
decade 6.96985490171e-05
prague 0.0
crossing 0.0
bigotry 0.0
happily 0.0
therefore 9.99523544623e-05
belong 0.0
customs 0.0
trillion 0.0
backed 0.0
electricity 0.0
observing 0.0
russell 0.0
engineers 0.0
operations 0.0
values 0.0
senator 0.000276952723803
confirms 0.0
removing 0.0
payment 0.0
consistently 0.0
posing 0.0
everett 0.0
wondered 0.0
generic 0.0
fields 9.67398288337e-05
mining 0.0
newspaper 0.0
detailed 0.0
rainbow 9.12773446595e-05
childcare 0.0
unlimited 0.0
exploded 0.0
thoroughly 0.0
adviser 0.0
leaves 0.0
matthew 0.0
intersection 0.0
affected 0.0
newspapers 0.0
corporate 0.0
economy 0.0
explores 0.0
spoken 0.0
during 0.0
credible 0.0
competitive 0.0
carefully 0.0
returned 0.0
blasts 0.0
guarding 0.0
hornet 0.0
successfully 0.0
southern 7.8545580282e-05
dakota 0.0
belief 0.0
messenger 0.0
heroes 0.000136081032276
russians 0.0
intelligence 0.000162945198366
deepest 0.0
graduates 0.0
describe 0.0
hollywood 0.000131327426139
reclaim 0.0
equality 0.0
announcement 5.72520891372e-05
interfere 0.0
interrupted 0.0
nationwide 0.000102523519236
questionable 0.0
garden 0.0
survey 8.54996151231e-05
journalists 0.0
delighted 0.0
minister 0.0
golfer 0.0
capital 0.0
penguins 0.0
regarding 0.0
teachers 0.0
devastated 0.000116988628523
phrase 0.0
immigrants 0.0
aliens 0.0
subjects 0.0
revolution 0.0
median 0.0
twelve 0.0
releases 0.0
accomplish 0.0
debbie 0.0
sebastian 0.0
briefing 0.0
advisor 0.0
commission 0.0
deadlines 0.0
hereby 0.0
invitation 0.0
alternatives 0.000118858322095
villages 0.0
accepted 0.0
commentators 0.0
depression 0.0
comprehensive 0.0
committees 0.0
pushed 0.0
statistic 0.0
donation 0.0
electronic 0.0
nomination 0.000162396833657
britain 0.0
questioning 0.0
attempt 6.35910374068e-05
investment 0.0
terror 8.40192632729e-05
homeland 0.00023771664419
polish 0.0
switzerland 0.0
represents 9.16213965001e-05
announcer 0.0
churchill 0.0
ambassadors 0.0
anchors 0.0
endorse 0.0
urgent 0.0
forced 0.0
expenses 0.0
preparations 0.0
string 0.0
morocco 0.0
thrill 0.0
watchdog 0.0
agencies 0.0
scrutiny 0.0
glorious 0.0
approaching 0.0
tragedy 0.0
handled 0.0
offers 7.12017346881e-05
requested 0.0
improvements 0.0
destroying 0.0
inexpensive 0.0
opposition 0.0
smithsonian 0.0
addiction 9.87203545319e-05
challenged 0.0
manhattan 0.0
richmond 0.0
forces 0.0
nations 0.0
anderson 0.0
builds 0.000115784379757
sexist 0.0
narrative 0.0
application 0.0
cannon 0.0
ethical 0.0
representation 0.0
obvious 0.0
statistics 0.0
military 0.0
housing 0.0
wonderfully 0.0
miller 8.06550626316e-05
copying 0.0
advised 0.0
ordered 6.56637130695e-05
unions 0.0
useless 0.0
alicia 0.0
economic 0.0
radical 0.0
planted 0.0
theories 0.00011020779951
conceived 0.0
readers 0.0
bombing 0.000104323945687
products 0.000647407291529
phenomena 0.0
classroom 0.0
classified 0.0
purely 0.0
hacked 0.0
taxpayers 0.0
opposed 0.0
pressing 0.0
russia 0.0
abraham 0.0
lincoln 0.0
observer 0.0
intelligent 0.0
lawsuit 0.0
detective 0.0
magnificent 0.0
heritage 0.0
beloved 0.0
dignity 0.0
priorities 9.91272476974e-05
repealing 0.0
murdoch 0.0
coalition 0.0
theresa 0.0
charges 0.0
activists 0.0
elected 7.77795816103e-05
relief 0.0
congratulates 0.0
pledge 0.0
elections 0.0
landslide 0.0
council 0.0
imperative 0.0
catastrophic 0.0
douglas 0.0
brexit 0.0
democracy 0.0
disastrous 0.0
rebuild 0.0
pundits 0.0
nickname 0.0
poison 0.0
interfering 0.0
negotiations 0.0
summit 0.0
dossier 0.0
unleash 0.0
negotiation 0.0
sticking 8.7343512404e-05
openly 0.0
embarrassed 0.0
ireland 0.0
attacks 0.0
remarks 0.0
democratic 0.0
outgoing 0.0
maureen 0.0
treasury 0.0
refugees 8.86165844969e-05
snatch 0.0
morgan 0.0
grieve 0.0
vicious 0.0
essentially 0.0
restoring 0.0
extended 0.0
referendum 0.0
ovation 0.0
bankrupt 0.0
proudly 0.0
oppose 0.0
refusal 0.0
urging 0.0
strengthen 0.0
deliver 0.0
negotiating 0.0
remaining 0.0
merkel 0.0
repeal 0.0
formal 0.0
reckless 0.0
prosperous 0.0
servant 0.0
desperate 0.0
secretaries 0.0
formally 0.0
breach 0.0
gloomy 0.000159683190143
outlines 0.0
concessions 0.0
executive 0.0
extend 0.0
republicans 0.0
terrorists 0.0
weapons 0.0
bodyguards 0.0
outrage 0.0
representative 0.0
prevail 0.0
searched 0.0
policemen 0.0
islamic 0.0
islamist 0.0
ingrained 0.0
humbled 0.0
courage 0.0
chamber 0.0
commander 0.0
formula 0.00023771664419
brigade 0.0
respecting 0.0
lectured 0.0
devices 0.0
enormous 0.0
verdict 0.0
refusing 0.0
energies 0.0
carried 0.0
behalf 0.0
tariff 0.0
amendment 0.0
nightmare 0.0
employment 0.0
legislation 0.0
referring 0.0
scrapping 0.0
handling 0.0
goodies 0.0
proves 0.0
prominently 0.0
crackdown 0.0
unfair 0.0
fiscal 0.0
humiliating 0.0
strongly 0.0
vision 0.000198153437627
resignation 0.0
confirmation 0.0
records 0.0
disabled 0.0
quoting 0.0
reductions 0.0
deeply 0.0
commerce 0.0
accumulation 0.0
overplaying 0.0
refugee 0.0
conway 0.0
exposed 0.0
netanyahu 0.0
israeli 0.0
priority 0.0
strongest 0.0
freedoms 0.0
treaties 0.0
empowering 0.000118858322095
laughter 9.05971101951e-05
syrian 0.0
uphold 0.0
praising 0.0
renewal 0.0
penned 0.0
condemns 0.0
realdonaldtrump 0.0
goodwill 0.0
attorney 0.0
settled 0.0
chairman 0.0
capability 0.0
firing 0.0
seanspicer 0.0
inaugural 0.0
carnage 0.0
optimism 0.0
rulers 0.0
clintons 0.0
melania 0.0
bikers 0.0
handing 0.0
intended 0.0
optimistic 0.0
campaigned 0.0
finance 0.0
allies 0.0
compromised 0.0
governor 0.0
bosses 0.0
attempts 8.76583864493e-05
irresponsible 0.0
incidents 0.0
merely 0.0
documents 0.0
tariffs 0.0
purpose 6.82444272123e-05
architect 0.0
arlene 0.0
resign 0.0
reuters 0.0
mainstream 0.0
dozens 0.0
donnell 0.0
clarified 0.0
gathering 0.0
crimes 0.0
vulnerable 0.0
commentator 0.0
overwhelmingly 0.0
respectful 0.0
markets 0.0
inspector 0.0
nigel_farage 0.0
drudge 0.0
abused 0.0
infrastructure 0.0
projected 0.0
boards 0.000105252197844
allegations 0.0
bloomberg 0.0
insulting 0.0
leaking 0.0
liberal 0.0
chairs 0.0
podium 0.0
conceded 0.0
capitol 0.0
consulting 0.0
wannabe 0.0
powell 0.000124989972669
reforms 0.0
technical 9.33826729377e-05
securing 0.0
steven 0.0
rumsfeld 0.0
businesses 0.0
balancing 0.0
socialist 0.0
complaints 0.0
politician 0.0
representatives 0.000116988628523
rallies 0.0
belittle 0.0
ballot 0.0
failing 0.0
refuses 0.0
conclude 0.0
vibrant 0.0
tarmac 0.0
spinning 0.0
appointments 0.0
farewell 0.0
opponents 0.0
unopposed 0.0
polling 9.59716289075e-05
prosperity 0.0
apology 0.0
outline 0.0
losers 0.0
battlefield 0.0
abandoned 0.0
endorsed 0.0
negotiate 0.0
negotiated 0.0
unwilling 0.0
appointed 0.0
slaughter 0.0
betray 0.0
donated 0.0
immigrant 0.0
prosecuted 0.0
criminals 0.0
elizabethforma 0.0
protesting 0.0
releasing 9.2317574601e-05
screening 8.64120256833e-05
sponsor 0.0
pocketbook 0.0
transparency 0.0
austin 0.0
obamacare 0.0
acceptable 0.0
schwarzenegger 0.0
congressman 0.0
profits 0.0
toward 0.0
fleeing 0.0
bravery 0.0
protests 0.0
recieved 0.0
violent 0.0
remarkably 0.0
senators 0.000207733945065
ratings 8.82948900166e-05
spouses 0.0
fundraiser 0.0
senate 0.0
louisiana 0.0
giuliani 0.0
venezuela 0.0
parenthood 0.0
organizations 0.0
generations 0.0
minorities 0.0
underestimate 0.000108662402095
terrified 0.0
discourse 0.0
pennsylvania 0.0
hackers 0.0
nbcnews 0.0
mccain 0.0
scandal 0.0
constitution 0.0
sensanders 0.0
abandon 0.0
explode 0.0
reopening 0.0
governments 0.0
competent 0.0
mike_pence 0.0
stinks 0.0
logical 0.0
accurately 0.0
righteous 0.0
thursdays 0.000143791719221
fitting 0.0
category 0.0
swearing 0.0
politifact 0.0
abolish 0.0
surging 0.0
murders 0.0
reagan 0.0
vetting 0.0
vetted 0.0
pouring 0.000106200201523
fraudulent 0.0
ballots 0.0
fading 0.0
speakerryan 0.0
civilized 0.0
commercials 0.000205933702344
luxurious 0.0
outraged 0.0
nypost 0.0
statute 0.0
enforcement 0.0
accountability 0.0
truthful 0.0
springfield 0.0
cancelled 8.46055150465e-05
conflicts 0.0
suffer 9.33826729377e-05
selfishly 0.0
educational 0.0
stolen 0.0
visionary 0.0
wounds 0.0
disgraceful 0.0
hatred 0.0
persuasion 0.0
exposing 0.0
teaches 0.0
sellers 0.0
refers 0.0
trusted 0.0
sheriff 0.0
samsung 0.0
ranking 0.0
undecided 0.0
nebraska 0.0
abusive 0.0
abuser 0.0
nashville 0.0
lightweight 0.0
victories 0.0
consumer 0.0
violation 0.0
sarcasm 0.000118226332889
freaky 0.0
jimmyfallon 0.0
outlets 0.0
vanityfair 0.0
harassed 0.0
leverage 0.0
sacred 0.0
horrific 0.0
contribute 0.0
indicted 0.0
chooses 0.0
defended 0.0
champion 0.0
waited 0.000186765345875
denmark 0.0
conviction 0.0
retail 0.000118226332889
distract 0.0
globes 0.0
endorsing 0.0
pathetic 0.00010341463878
purposely 0.0
expose 0.0
representing 0.0
mmflint 0.0
registration 0.0
acceptance 0.0
defeated 0.0
prosecutor 0.0
nbcsnl 0.0
nevada 0.0
illinois 0.0
massachusetts 0.0
spontaneous 0.0
entrepreneur 0.0
arkansas 0.0
hotels 0.0
exhausted 0.000111808731926
puppets 0.0
protesters 0.0
natalie 0.0
anaheim 0.0
nominating 0.0
vietnam 0.0
claimed 0.0
indianapolis 0.0
loudly 0.0
sarasota 0.0
rapids 0.0
oklahoma 0.0
devoted 0.0
sacramento 0.0
arranged 0.0
baldwin 0.0
crushed 0.0
reflects 9.63540732468e-05
replacing 0.0
louder 0.000120809925694
flashback 0.0
farmers 0.0
unleashed 0.0
tourists 0.0
steals 0.0
albany 0.0
devastation 0.0
meantime 0.0
donlemon 0.0
wilbur 0.0
finalists 0.0
ransom 0.0
normmacdonald 0.0
vanishing 0.0
clarence 0.0
jaketapper 0.0
clowns 0.0
elizabeth 0.0
microphone 0.0
machines 0.0
premium 0.0
championships 0.0
impersonation 0.0
horribly 0.0
stakes 0.0
mouthed 0.0
reservation 0.0
delaware 0.0
springs 0.0
columbus 0.0
slackers 0.0
toyota 0.0
chucktodd 0.0
correspondents 0.0
soldier 0.0
panels 0.0
broadcasting 0.0
sparks 0.000384035321978
warned 0.0
jclayfield 0.0
kellogg 0.0
anchor 0.0
heated 0.0
congressional 0.0
boeing 0.0
usatoday 0.0
endlessly 0.0
craziest 0.0
viewers 0.0
delivers 9.63540732468e-05
pittsburgh 0.0
marshal 0.0
reverend 0.0
lifelong 0.0
disdain 0.0
hispanic 0.0
defrauded 0.0
oppression 0.0
crowds 0.0
washingtonpost 0.0
affordable 0.0
tapping 0.0
ginsburg 0.0
reilly 0.0
illegally 0.0
shootings 0.000118226332889
destiny 0.0
serenawilliams 0.0
motors 0.0
redding 0.0
initially 0.0
travis 0.0
accomplishments 0.0
misconduct 0.0
mocked 0.0
disgrace 0.0
greeley 0.0
carmel 0.0
outcry 0.0
playbook 0.0
zealand 0.0
fearless 0.00042480080609
lining 0.0
sidekick 0.000159683190143
madame 0.0
grandstand 0.0
rochester 0.0
speechless 0.000223617463852
fletcher 0.0
begged 0.0
wintour 0.000197434115854
inspires 0.000100793030195
carlos 0.0
missiles 0.0
chelsea 0.000286777318359
oppressive 0.0
forgiven 0.0
killings 0.0
taiwan 0.0
somalia 0.0
burning 7.8545580282e-05
subscribers 0.000120809925694
chester 0.0
newtown 0.0
booker 0.0
heights 0.0
leicester 0.0
chiefs 0.0
joenbc 0.0
opioid 0.0
separately 0.0
intros 0.0
columnist 0.0
manages 0.0
financed 0.0
mnuchin 0.0
delegate 0.0
vicente 0.0
struck 0.0
trudeau 0.0
oreillyfactor 0.0
vulgarian 0.0
publicity 0.0
amnesty 0.0
ivankatrump 0.0
communism 0.0
linkedin 0.0
avoided 0.0
sophisticated 0.0
seanhannity 0.0
anncoulter 0.0
foolish 0.0
catholics 0.0
bogged 0.0
catholic 0.0
thriving 0.0
newtgingrich 0.0
abedin 0.0
secretly 0.0
undermines 0.0
americanism 0.0
christians 0.0
rationally 0.0
deplorable 0.0
wikileaks 0.0
execution 0.0
enduring 0.0
foxandfriends 0.0
losses 0.0
kevcirilli 0.0
staffers 0.0
barron 0.0
jihadis 0.0
hampshire 0.0
pandering 0.0
donaldjtrumpjr 0.0
moines 0.0
lobbying 0.0
careless 0.0
piersmorgan 0.0
palestinian 0.0
kellyanne 0.0
democrat 0.0
unfunny 0.0
condemned 0.0
despair 0.0
louvre 0.0
crooked 0.0
lynden 0.0
outperform 0.0
tedcruz 0.0
majors 0.0
schumer 0.0
credibility 0.0
flooding 0.0
hannity 0.0
beneficiary 0.0
sanctions 0.0
nominates 0.0
existent 0.0
criticized 0.0
senatemajldr 0.0
workforce 0.0
issued 0.0
outsider 0.0
declare 0.0
ivanka 0.0
dignified 0.0
threaten 0.0
outcomes 0.0
ukraine 0.0
justintrudeau 0.0
vladimir 0.0
businessman 0.0
regards 0.0
assange 0.0
malicious 0.0
garners 0.0
ethics 0.0
wrecked 0.0
regimes 0.0
incorrectly 0.0
hostile 0.0
defenders 0.0
deceived 0.0
hypocritical 0.0
favorably 0.0
shatter 0.0
changer 0.000106681876397
spokane 0.0
unnecessary 0.0
cwaunion 0.0
expand 0.0
apologized 0.0
criticizing 0.0
legion 0.0
hershey 0.0
intensity 0.0
tigerwoods 0.0
amercan 0.0
reince 0.0
chriscjackson 0.0
hypocrites 0.0
billkristol 0.0
govmikehuckabee 0.0
dustin 0.0
bullied 0.0
anonymous 0.0
yankees 0.0
thehill 0.0
infiltrated 0.0
somali 0.0
invention 0.0
frontrunner 0.0
patriot 0.0
poorly 0.0
prisonplanet 0.0
daytona 0.0
comparable 0.0
shouted 0.0
holocaust 0.0
kellyannepolls 0.0
foxnews 0.0
initiated 0.0
tiffany 0.0
mikeandmike 0.0
barbara 0.0
litigation 0.0
frankcaliendo 0.0
toughness 0.0
suffered 0.0
streep 0.0
billionaire 0.0
percentage 0.0
insiders 0.0
premiums 0.0
congratulatory 0.0
treasurer 0.0
incompetence 0.0
delegates 0.0
rollout 0.0
appalled 0.0
misquoted 0.0
pledged 0.0
demanded 0.0
andrews 0.0
lowlife 0.0
courageous 0.000107168815582
betrayed 0.0
horrors 0.0
warheads 0.0
pledges 0.0
interrupts 0.0
blacks 0.0
elaine 0.0
candidacy 0.0
discredited 0.0
cringing 0.0
estates 0.0
laughable 0.0
aberdeen 0.0
healed 0.000153733766784
floods 0.0
swiftly 0.0
cheryl 0.0
syracuse 0.0
difficulties 0.000257600739317
flipping 0.0
wilkes 0.0
lisbon 0.0
suckers 0.0
golfdigest 0.0
jeffrey 0.0
sixteen 0.0
scandals 0.0
circuits 0.0
regulations 0.0
monitoring 0.0
swamped 0.0
costing 0.0
detained 0.0
warmest 0.0
marginalize 0.0
miners 0.0
unemployment 0.0
paragon 0.0
obsolete 0.0
subsidies 0.0
exercised 0.0
evangelicals 0.0
franklin 0.0
molten 0.0
servers 0.0
billgates 0.0
excessive 0.0
coordinated 0.0
geneva 0.0
soaring 0.0
unsecured 0.0
corporations 0.0
rifles 0.0
innovative 0.0
pillar 0.0
bashing 0.0
organize 0.000391262134705
panelists 0.0
frontiers 0.0
pricing 0.0
platforms 0.0
scaling 0.0
pretends 0.000164732492142
forensic 0.0
roundtable 0.0
inherit 0.0
fabrication 0.0
brewer 0.000161303532053
unaffordable 0.0
reinforcing 0.0
eventful 0.0
wasserman 0.0
lindsey 0.0
billclinton 0.0
upstate 0.0
empowerment 0.0
penalties 0.0
responders 0.0
civilization 0.0
occupy 0.0
approximately 0.0
knight 0.0
homeownership 0.0
scratched 0.0
screws 0.0
contractor 0.0
havana 0.0
lowering 0.0
foundations 0.0
revitalize 0.0
counters 0.0
foreclosed 0.0
renovated 0.0
delaying 0.0
employer 0.0
executed 0.0
subpoena 0.0
grifters 0.0
cincinnati 0.0
disgraced 0.0
falsely 0.0
strengthening 0.0
abcworldnews 0.0
skyrocketing 0.0
pipelines 0.0
likewise 0.0
dishonest 0.0
surges 0.0
woefully 0.0
pressured 0.0
erratic 0.0
temperament 0.0
emboldened 0.0
keystone 0.0
mandated 0.0
crumbling 0.0
johnkasich 0.0
latinos 0.0
combating 0.0
incompetent 0.0
loopholes 0.000158119714217
incapable 0.0
unqualified 0.0
melaniatrump 0.0
recount 0.0
voluntarily 0.0
desperation 0.0
denounce 0.0
demoralized 0.0
incited 0.0
fawning 0.0
accuser 0.0
electing 0.0
patrol 0.0
connecticut 0.0
amounts 0.0
govpencein 0.0
squandered 0.0
enforce 0.0
epipens 0.0
deplorables 0.0
generals 0.0
timkaine 0.0
benghazi 0.0
moderators 0.0
sheriffclarke 0.0
unfairly 0.0
competence 0.0
dysfunctional 0.0
eleventh 0.0
instructed 0.0
restrict 0.0
battleground 0.0
jilted 0.0
blazing 0.0
hypocrite 0.0
mcconnell 0.0
circulated 0.0
flailing 0.0
pathological 0.0
deflect 0.0
undoing 0.0
predictable 0.0
phoney 0.0
perils 0.0
governing 0.0
likeable 0.0
tumble 0.0
praised 0.0
extraordinarily 0.0
jinping 0.0
trashes 0.0
knowingly 0.0
disloyal 0.0
woodward 0.0
magnificently 0.0
pretended 0.0
slaughtered 0.0
climber 0.0
americ 0.0
unprofessional 0.0
diplomats 0.0
resulted 0.0
crossroads 0.0
syrians 0.0
suppress 0.0
remembrance 0.0
infighting 0.0
castro 0.0
unquestionably 0.0
corrupted 0.0
kasich 0.0
readership 0.0
fraternal 0.0
frankluntz 0.0
demagogue 0.0
unanimous 0.0
bedford 0.0
longtime 0.0
complexities 0.0
dailymail 0.000190566010629
couric 0.0
cancelling 0.0
morningmika 0.0
concord 0.0
recounts 0.0
shouldered 0.0
patmccrorync 0.0
executives 0.0
westfield 0.0
graydon 0.0
sheldon 0.0
tanking 0.0
morning_joe 0.0
fabricated 0.0
corolla 0.0
groveling 0.0
unfolding 0.0
polled 0.0
influx 0.0
underachieving 0.0
antics 0.0
disenfranchised 0.0
golfing 0.0
xfinity 0.0
defies 0.0
fictitious 0.0
districts 0.0
vigilant 0.0
obstruction 0.0
rebuilding 0.0
preserving 0.0
passover 0.0
dhsgov 0.0
thejusticedept 0.0
repealed 0.0
intends 0.0
wildfires 0.0
usedgov 0.0
fresno 0.0
usnavy 0.0
scotus 0.0
tillerson 0.0
ineffective 0.0
senjohnmccain 0.0
cbsnews 0.0
lawsuits 0.0
caucus 0.0
shimon 0.0
wilmington 0.0
stagnant 0.0
gouging 0.0
baghdad 0.0
wiesel 0.0
obstruct 0.0
gonzalo 0.0
curiel 0.0
hostage 0.0
unnamed 0.0
truckers 0.0
boldly 0.0
scarborough 0.0
evangelical 0.0
cyberattack 0.0
marines 0.000140569508885
crimea 0.0
earners 0.0
oversaw 0.0
lobbyists 0.0
rosiegray 0.0
briefings 0.0
actresses 0.0
purchases 0.0
myanmar 0.0
heightened 0.0
shackles 0.0
perjury 0.0
dallaspd 0.0
respectfully 0.0
canton 0.0
approx 0.0
admirals 0.0
naples 0.0
brainwashed 0.0
albuquerque 0.0
supposedly 0.0
coliseum 0.0
greensboro 0.0
sheriffs 0.0
hostages 0.0
explorers 0.0
confidential 0.000156609247805
tamara 0.0
infested 0.0
depicted 0.0
devote 0.0
payroll 0.0
bombshell 0.0
advisers 0.0
watergate 0.0
mcmaster 0.0
renews 0.0
housegop 0.0
katyturnbc 0.0
pocahontas 0.0
wherein 0.0
shreds 0.0
pelosi 0.0
chrysler 0.0
collusion 0.0
deductibles 0.0
repmarkmeadows 0.0
darrellissa 0.0
insurer 0.0
dishonesty 0.0
hotlinejosh 0.0
quinnipiacpoll 0.0
apologizing 0.0
priebus 0.0
clapper 0.0
tapped 0.0
operatives 0.0
senschumer 0.0
marcorubio 0.0
viciously 0.0
leakers 0.0
bangladesh 0.0
favorable 0.0
nbcnightlynews 0.0
lockheed 0.0
untruthful 0.0
resonating 0.0
transferring 0.0
staten 0.0
humana 0.0
juanita 0.0
senses 0.0
stimulate 0.0
drooling 0.0
lakeland 0.0
burying 0.0
crafted 0.0
misrepresent 0.0
fabled 0.0
railing 0.0
billyjoel 0.0
sniper 0.0
cnnsotu 0.0
independents 0.0
detroitnews 0.0
foxbusiness 0.0
washtimes 0.0
realbencarson 0.0
meetthepress 0.0
newday 0.0
thebrodyfile 0.0
bostonherald 0.0
foxnewssunday 0.0
thefive 0.0
chriscuomo 0.0
randpaul 0.0
dcexaminer 0.0
facethenation 0.0
bretbaier 0.0
interruption 0.0
allenwest 0.0
cvpayne 0.0
dailycaller 0.0
prosecution 0.0
ballistic 0.0
vetoed 0.0
gettysburg 0.0
groping 0.0
brennan 0.0
nielson 0.0
justices 0.0
operative 0.0
surged 0.0
megynkelly 0.0
terminated 0.0
softbank 0.0
fronting 0.0
rigging 0.0
reprieve 0.0
pocketed 0.0
colluded 0.0
coffers 0.0
stairway 0.0
ellison 0.0
selflessly 0.0
tornadoes 0.0
levine 0.0
scranton 0.0
enslave 0.0
inappropriately 0.0
devalue 0.0
presumptive 0.0
fournier 0.0
terminate 0.0
reptommarino 0.0
kimberly 0.0
subscriptions 0.0
ingrahamangle 0.0
trajectory 0.0
natalie_gulbis 0.0
unheard 0.0
objectified 0.0
turnberry 0.0
djohnsonpga 0.0
bedminster 0.0
golf_com 0.0
elevation 0.0
litany 0.0
unaccountable 0.0
primaries 0.0
disrupter 0.0
runways 0.0
hashanah 0.0
unenthusiastic 0.0
undecideds 0.0
richardtrumka 0.0
renegotiate 0.0
rapists 0.0
aldridge 0.0
unsubstantiated 0.0
misrepresented 0.0
prisoner 0.0
mattis 0.0
weakening 0.0
endakennytd 0.0
taoiseach 0.0
lifeboat 0.0
enabler 0.0
emanated 0.0
lindseygrahamsc 0.0
renegotiating 0.0
waterville 0.0
zucker 0.0
berglund 0.0
suboptimal 0.0
steelworkers 0.0
postpone 0.0
mohammed 0.0
indignant 0.0
comprised 0.0
stupidest 0.0
exxonmobil 0.0
precluded 0.0
instruct 0.0
gonzales 0.0
scorned 0.0
davidmuir 0.0
harrisburg 0.0
caesars 0.0
borisep 0.0
lapierre 0.0
limbaugh 0.0
petraeus 0.0
phyllis 0.0
illegals 0.0
sanctity 0.0
neurotic 0.0
negligence 0.0
alvarez 0.0
roseanne 0.0
roanoke 0.0
theleegreenwood 0.0
mcallen 0.0
deduct 0.0
chokes 0.0
vigilance 0.0
pensacola 0.0
tuckercarlson 0.0
repcummings 0.0
windham 0.0
teleprompter 0.0
paulareidcbs 0.0
jeffzeleny 0.0
condoleezza 0.0
genflynn 0.0
donaldtrump 0.0
demeanor 0.0
baiting 0.0
plotted 0.0
aptitude 0.0
billings 0.0
approving 0.0
disconnected 0.0
superstorm 0.0
brainpower 0.0
exclaim 0.0
skyrocketed 0.0
globalism 0.0
israelipm 0.0
insurgent 0.0
sneers 0.0
unrest 0.0
scaramucci 0.0
disapproval 0.0
katiepavlich 0.0
overflow 0.0
warped 0.0
scottwalker 0.0
kirstenpowers 0.0
usarmy 0.0
schlafly 0.0
alisonforky 0.0
oppresses 0.0
pedantic 0.0
highness 0.0
benefitted 0.0
fundraisers 0.0
shinzo 0.0
augustine 0.0
ranchers 0.0
middletown 0.0
fiorina 0.0
pueblo 0.0
lindasuhler 0.0
lightweights 0.0
kimguilfoyle 0.0
perdue 0.0
unmasked 0.0
unmasking 0.0
judgejeanine 0.0
boycotted 0.0
outnumberedfnc 0.0
jessebwatters 0.0
podesta 0.0
kristol 0.0
interruptions 0.0
broaddrick 0.0
erictrump 0.0
outspending 0.0
irredeemable 0.0
begala 0.0
brazile 0.0
dinesh 0.0
markings 0.0
ericbolling 0.0
loudobbs 0.0
skyrocket 0.0
blumenthal 0.0
cochran 0.0
imploding 0.0
discord 0.0
jeffflake 0.0
davidwohl 0.0
bribery 0.0
repkenbuck 0.0
joshrogin 0.0
enrique 0.0
unverified 0.0
retribution 0.0
dwindling 0.0
automobile 0.0
teamtrump 0.0
subpoenaed 0.0
danscavino 0.0
joniernst 0.0
scottadamssays 0.0
senatorfischer 0.0
tabulation 0.0
trafficked 0.0
depict 0.0
unrelenting 0.0
imitating 0.0
dutchess 0.0
adelson 0.0
valuing 0.0
ricksantorum 0.0
chuckgrassley 0.0
laraleatrump 0.0
abingdon 0.0
equating 0.0
ministries 0.0
brzezinski 0.0
sentedcruz 0.0
jamesrosenfnc 0.0
leaker 0.0
realjameswoods 0.0
jim_jordan 0.0
marshablackburn 0.0
boynton 0.0
betsydevos 0.0
lawfare 0.0
larry_kudlow 0.0
stranahan 0.0
waynedupreeshow 0.0
phillypolice 0.0
scottwrasmussen 0.0
johnstown 0.0
raul_labrador 0.0
statewide 0.0
reviewjournal 0.0
oppress 0.0
underlings 0.0
bankrupted 0.0
collude 0.0
fayetteville 0.0
disqualifying 0.0
mahoning 0.0
disloyalty 0.0
americanlegion 0.0
bankruptcies 0.0
morell 0.0
ambridge 0.0
emboldens 0.0
asheville 0.0
grievous 0.0
ricketts 0.0
benefactor 0.0
dwyane 0.0
markhalperin 0.0
mayorbowser 0.0
unverifiable 0.0
savaged 0.0
wheeling 0.0
technocratic 0.0
countr 0.0
thealabamaband 0.0
relives 0.0
unwatchable 0.0
residences 0.0
gatekeeper 0.0
defections 0.0
senatorsessions 0.0
drmoore 0.0
honorably 0.0
billhemmer 0.0
shultz 0.0
aflcio 0.0
trucking 0.0
fabrications 0.0
malleable 0.0
misrepresents 0.0
decimated 0.0
arabella 0.0
mishandled 0.0
interfe 0.0
speach 0.0
iranians 0.0
fraudulently 0.0
enablers 0.0
dealmaker 0.0
terrori 0.0
anarchists 0.0
krzanich 0.0
foxnation 0.0
permeated 0.0
overruns 0.0
disposed 0.0
inaccurately 0.0
peebles 0.0
conditioners 0.0
classifie 0.0
forewarned 0.0
karlrove 0.0
palazzo 0.0
evansville 0.0
rebroadcast 0.0
bangor 0.0
secpricemd 0.0
realdonaldtru 0.0
uschamber 0.0
trumpinaugural 0.0
rawlings 0.0
churchillian 0.0
hemmer 0.0
rudygiuliani 0.0
pynance 0.0
terrybranstad 0.0
cbnnews 0.0
faithandfreedom 0.0
ovations 0.0
scpioneer 0.0
dwstweets 0.0
tgowdysc 0.0
bluffs 0.0
marist 0.0
spluttering 0.0
thetodaysgolfer 0.0
thebig_easy 0.0
hoosier 0.0
senbobcorker 0.0
larsloekke 0.0
roadblocks 0.0
manheim 0.0
greenblatt 0.0
jtanews 0.0
mitchellvii 0.0
bemoan 0.0
michiga 0.0
gennifer 0.0
gulbis 0.0
liyuan 0.0
enlisting 0.0
ainsleyearhardt 0.0
stevedoocy 0.0
foxfriendsfirst 0.0
pastormarkburns 0.0
marksimoneny 0.0
gov_gilmore 0.0
flunky 0.0
agitators 0.0
overdoses 0.0
liliantintori 0.0
leopoldo 0.0
traceadkins 0.0
gopconvention 0.0
governorsununu 0.0
laconia 0.0
teamsters 0.0
gatewaypundit 0.0
lawyerly 0.0
dissipates 0.0
realjeffreylord 0.0
nytimesdowd 0.0
scalise 0.0
straightening 0.0
energizer 0.0
montgomeriefdn 0.0
shulkin 0.0
ericgreitens 0.0
circuited 0.0
govbrewer 0.0
infringed 0.0
mcgarvey 0.0
republicanstudy 0.0
americafirstpol 0.0
fheile 0.0
phadraig 0.0
wiedefeld 0.0
coddington 0.0
kravis 0.0
fighterjet 0.0
shinzō 0.0
votestand 0.0
romoabcnews 0.0
moskowitzeva 0.0
drgoodspine 0.0
levisteveholt 0.0
untrusting 0.0
sleazebag 0.0
lbperfectmaine 0.0
timken 0.0
newhouse 0.0
evancho 0.0
franklin_graham 0.0
eazymf_e 0.0
busineses 0.0
substantialy 0.0
rexnord 0.0
sdcritic 0.0
highonhillcrest 0.0
fiiibuster 0.0
koster 0.0
saucier 0.0
t_lineberger 0.0
cissieglynch 0.0
saysgabrielle 0.0
ravenrantz 0.0
mayorrgiuliani 0.0
deplorablecbtp 0.0
tanden 0.0
keithrowland 0.0
kinston 0.0
sjsopio 0.0
aztrumptrain 0.0
therealmogul 0.0
unclassify 0.0
firebombed 0.0
wikileakes 0.0
davidshiloach 0.0
trumpwomenstour 0.0
mistreats 0.0
willey 0.0
dornsife 0.0
henryleledog 0.0
eericmyers 0.0
atensnut 0.0
arouses 0.0
anyonetennis 0.0
flifeforce 0.0
geeveem 0.0
susiesentinel 0.0
bcuzimdamomma 0.0
freedavidking 0.0
ifdanyt 0.0
arsenmissyirvin 0.0
nycmia 0.0
bigdog_joey 0.0
roadkingl 0.0
decieved 0.0
waukesha 0.0
creati 0.0
thallensboucher 0.0
kenansville 0.0
tarukmatuk 0.0
angpiazza 0.0
laughingstock 0.0
ak_tweet 0.0
kiiara 0.0
jerryjrfalwell 0.0
ghfanlovessonny 0.0
bishopwtjackson 0.0
cynthialummis 0.0
repreneeellmers 0.0
trumpdc 0.0
stvzbnk 0.0
bakari 0.0
adhd_fa 0.0
parisdennard 0.0
ronnieclemmons 0.0
takouis 0.0
lblackvelvet 0.0
chernuna 0.0
annebellar 0.0
presidencies 0.0
rsbnetwork 0.0
meequalsfree 0.0
pmnorlando 0.0
rhondar 0.0
patrici 0.0
lindaharden 0.0
trumpocrats 0.0
lewenskimo 0.0
trump_videos 0.0
sinabunz_tm 0.0
eyecandytmgayle 0.0
catonglass 0.0
billynungesser 0.0
samaritanspurse 0.0
zulu_out 0.0
willspeakout 0.0
laurencristmann 0.0
c_lynne_ryan 0.0
enemywithinn 0.0
elsolarverde 0.0
creats 0.0
dbongino 0.0
bongino 0.0
carl_c_icahn 0.0
fieldoffight 0.0
reploubarletta 0.0
mainegop 0.0
gatewaypun 0.0
mechanicsburg 0.0
pnehlen 0.0
patrioticpepe 0.0
insticts 0.0
borderless 0.0
lallyray 0.0
glowingly 0.0
spinnnn 0.0
flamed 0.0
nancynielsenn 0.0
olimauritania 0.0
theresa_cali 0.0
roxanetancredi 0.0
litigate 0.0
trumpdoonbeg 0.0
berrien 0.0
nbcpolitics 0.0
jakeda 0.0
barrasso 0.0
bluedogdemky 0.0
iowa_trump 0.0
arnold_ziffel 0.0
patricia_graf 0.0
brazosboys 0.0
jimvitari 0.0
trumpturnberry 0.0
trumpscotland 0.0
darrenwaggener 0.0
allegrettivicki 0.0
justininglv 0.0
chrisboydbrew 0.0
votetrumpmaga 0.0
realericjallen 0.0
insinuated 0.0
clubgoers 0.0
ausbiz 0.0
freemarketsara 0.0
senatorjeffsessions 0.0
mabynshingleton 0.0
dale_dangler 0.0
nauthizjane 0.0
richardweaving 0.0
mariadaq 0.0
sara_wejesa 0.0
jimhewitt 0.0
joedefranco 0.0
wolfstopper 0.0
djd_thunder 0.0
excoriates 0.0
rapidcraft 0.0
telepromter 0.0
liliannyleebou 0.0
lunsfordwhitney 0.0
free_sa_bd 0.0
stockdaleism 0.0
admonished 0.0
nbcdfw 0.0
frankylamouche 0.0
sandiegopd 0.0
tombarrackjr 0.0
buiidthewall 0.0
pipersul 0.0
oasisupernova 0.0
jknatter 0.0
jasondovesq 0.0
ed_klein 0.0
overregulates 0.0
dubilujane 0.0
rbacliff 0.0
ltstevenlrogers 0.0
rowanne 0.0
shoneep 0.0
magicmetalninja 0.0
barbaro 0.0
michael_favreau 0.0
christichat 0.0
mai_ttag 0.0
thydanielflores 0.0
costakenneth 0.0
svhlevi 0.0
johnjohnlacca 0.0
ladytsbrug 0.0
frankdallasagg 0.0
ladyjoanne 0.0
gerriweth 0.0
longbyfive 0.0
wesleyfelixpsi 0.0
manakoa 0.0
ragdollive 0.0
xgodfatherxzx 0.0
trumptrainrider 0.0
aprillajune 0.0
takingit_back 0.0
distlerjoyce 0.0
queencharlotteo 0.0
kellyriddell 0.0
valdosta_monkey 0.0
daybastrop 0.0
nathandwilsonfl 0.0
mathewjmari 0.0
stupor 0.0
matandsher 0.0
edgoeas 0.0
lynnepatton 0.0
erictrumpfdn 0.0
mikeozanian 0.0
lexingtonbobby 0.0
annettejeanne 0.0
andrebauer 0.0
waterbury 0.0
greenskydeb 0.0
keksec__org 0.0
ashleyedam 0.0
trumptbird 0.0
herb_stamper 0.0
senfrankniceley 0.0
anneslimo 0.0
agentvf 0.0
hornick 0.0
gqforbes 0.0
governor_savage 0.0
carolde 0.0
fugedaboudit 0.0
dnglax 0.0
alexnightrasor 0.0
lilrachiepoo 0.0
