awesome 0.0
christmas 2.75991605652e-05
trying 0.000373590363656
launch 0.000244309460399
moment 0.000175284644896
wonderful 5.5952973947e-05
seeing 5.11734020753e-05
hanging 6.27945376515e-05
sounds 0.000106289559175
contacts 6.33811082867e-05
anybody 0.0
worked 8.08026044333e-05
direct 0.000211609769784
others 0.0001339441931
currently 2.96275593694e-05
better 0.000197111463396
please 0.0
social 0.000111602231994
anxiety 0.0
around 0.00022175039632
people 0.00137978024377
morning 0.00012386058335
damage 0.000121840304628
everything 0.00017340481669
present 2.82056880024e-05
though 0.000309535509074
friend 0.000149436145462
watched 0.0
beautiful 2.55177809006e-05
demanding 0.0
anything 2.51760426494e-05
tagged 0.0
helped 5.43077330499e-05
thinking 0.000126560848485
finally 0.000177185187879
caught 0.000111602231994
believe 0.000172938043657
already 9.88217392325e-05
couple 8.12412810845e-05
launches 0.000295306669079
chance 4.954423334e-05
annual 3.33039936398e-05
quickly 0.0
growing 0.000118836041846
probably 0.000161168477094
changed 5.30013213616e-05
history 7.65533427019e-05
center 3.24686955821e-05
museum 4.30126303719e-05
behind 0.000369583993867
screaming 0.0
pretty 5.06243393939e-05
really 0.00027249328337
possibly 3.44636868828e-05
little 0.000197643478465
happiest 0.0
earlier 5.79709322983e-05
forget 2.51082601227e-05
someone 7.49197557998e-05
things 7.39167987735e-05
available 0.0
perfect 2.57946257562e-05
different 0.000100704170598
person 7.45169384608e-05
watching 4.98120484875e-05
exhibit 0.0
passed 0.000120813815206
prefer 3.74028699946e-05
minutes 0.000102346804151
travel 6.05736687294e-05
daughter 0.000359459902418
positive 2.93848092982e-05
outside 0.000262158143531
looking 0.000123527174041
forward 5.08981060194e-05
raising 0.0
impression 0.0
wheels 5.1443340401e-05
favorite 0.0
instead 8.37016739952e-05
appreciate 0.0
couldn 0.0
remember 2.477211667e-05
impressive 6.81420525099e-05
vintage 5.64534437887e-05
holidays 0.0
friends 9.9624096975e-05
impossible 3.36845252642e-05
everyone 4.954423334e-05
always 0.000197111463396
limited 3.25601202989e-05
months 0.000206914606035
moving 7.99329850057e-05
meeting 0.000279185679249
answer 0.000152283097772
together 0.000124194897435
inside 0.000206357006049
upstairs 0.0
missed 2.51082601227e-05
active 3.98629525058e-05
eventually 4.50548938621e-05
longer 8.57774771447e-05
enough 5.0081327113e-05
building 0.000278248622924
enjoying 3.02868343647e-05
london 0.000854498355712
posting 3.71808961246e-05
recent 6.54879875721e-05
amazing 4.94108696162e-05
attention 2.80526506599e-05
tomorrow 2.477211667e-05
whenever 0.0
feeling 5.18684469666e-05
excited 2.58643257544e-05
understand 2.70072057769e-05
following 7.80129602042e-05
asleep 0.0
learning 0.0
evening 5.67193636688e-05
special 0.000274705771266
secret 0.000221995187413
across 0.000110696659941
surprised 5.90927533008e-05
candles 0.0
sophia 0.0
version 8.21265227882e-05
rather 0.000166949173754
showing 0.000105716559121
saying 0.000232778931789
thoughts 5.25734356123e-05
exactly 5.357767724e-05
getting 0.00014863270002
nothing 9.908846668e-05
tweets 0.0
photos 0.000119819967473
looked 5.62581010263e-05
difficult 0.0
office 0.00024109954758
brought 5.48996664839e-05
biggest 0.000433802275311
thrilled 0.0
entire 5.50487675533e-05
something 0.00012386058335
closing 0.0
anyone 0.0001498395116
taking 0.00017340481669
interesting 0.000827974816957
original 2.93044211912e-05
flying 3.11365369438e-05
sometimes 2.73014054863e-05
yesterday 0.000124866259666
serious 0.000106002642723
digital 0.0
wearing 0.000174388911952
british 0.00209380393742
either 0.000108028823108
second 0.000224759267399
checking 3.21063518029e-05
indeed 0.000270244668831
island 7.01293325205e-05
hearing 0.0
staying 0.000133974099311
another 0.000494108696162
compare 0.0
bummer 0.0
clothes 4.11267645457e-05
landing 0.0
weekend 7.53247803681e-05
delivery 0.0
secretive 0.0
anyway 9.60497771556e-05
recognize 0.0
working 2.477211667e-05
bigger 8.71944559762e-05
laughing 2.93848092982e-05
wanted 0.000250406635565
clothing 0.000105726520493
grateful 0.0
friendship 4.84756757144e-05
family 0.00022294905003
listening 0.0001086154661
stream 0.0
double 0.000196368554619
especially 2.74498332419e-05
shaking 0.0
waiting 0.000101522065181
definitely 2.70804270282e-05
account 5.81296373175e-05
completely 0.0
thought 7.49197557998e-05
possible 0.000262158143531
simple 2.88275237306e-05
professional 0.0
members 9.36694240997e-05
business 0.000187015342721
absolutely 0.0
sending 0.000114995722306
introducing 0.0
congrats 2.60043200681e-05
community 0.0
keeper 0.0
greatest 2.70804270282e-05
selfie 0.0
pasadena 0.0
posted 2.93044211912e-05
saturday 0.000130725571768
designs 0.0
broken 6.14160459233e-05
chicago 0.0
glimpse 0.000112426124097
actually 5.07610325907e-05
myself 0.0
pajamas 0.0
school 5.03520852989e-05
throwback 0.0
thursday 5.30013213616e-05
selling 0.00010163105372
talented 0.0
celebrate 5.47510151921e-05
celebrating 0.0
anniversary 2.99549918682e-05
contest 3.22868576134e-05
experiences 9.22864510947e-05
students 0.0
figure 0.0
featuring 3.21964394094e-05
inspired 0.0
breeze 0.0
sitting 0.0
playing 0.000100704170598
street 0.000192148832694
points 0.000158746297841
advice 5.81296373175e-05
memory 0.000102799723104
forever 5.5952973947e-05
imagine 5.51983211305e-05
problem 0.000106289559175
played 5.53483299703e-05
keeping 0.000166044989911
lovely 0.000124546147775
dressed 0.0
chinese 7.99729123751e-05
sunshine 0.0
afternoon 0.0
notice 0.0
difference 2.70804270282e-05
suppose 0.0
letting 0.0
system 0.000433499304159
mutant 0.0
bathroom 0.0
almost 0.00017340481669
details 0.000108321708113
experience 0.0
luckily 0.0
viewed 0.0
living 7.75929772631e-05
weather 3.16607893369e-05
bright 0.0
launching 0.0
colors 0.0
monday 2.58643257544e-05
walked 7.45832661764e-05
pinned 0.0
wanting 3.90153380604e-05
tweeting 2.82825646105e-05
forgot 3.10502358646e-05
gorgeous 0.0
herself 5.95373300726e-05
happens 2.56558144993e-05
learned 0.0
congratulations 2.73014054863e-05
raised 9.71328265504e-05
mission 0.00040306607961
smelled 0.0
unforgettable 0.0
forgotten 0.000110554921353
trouble 0.000122492829096
channel 0.000271083190094
fantastic 0.0
loving 0.0
hardly 9.19695505437e-05
dining 0.0
complete 5.687408237e-05
daniel 0.0
rewarding 0.0
spirit 3.21063518029e-05
finding 3.02868343647e-05
stories 0.0001339441931
including 0.000192670686437
somewhere 0.0
conversation 0.0
disrespectful 0.0
making 9.88217392325e-05
expect 0.000148545052308
polite 0.0
brings 5.97454498077e-05
anytime 0.0
needed 0.0
seriously 5.47510151921e-05
modern 3.56806716683e-05
welcome 7.51219906695e-05
moments 3.07931316229e-05
jacket 0.0
halloween 0.0
costume 0.0
totally 8.57774771447e-05
flight 0.000118836041846
attached 5.5739221812e-05
finished 2.96275593694e-05
strong 5.10355618013e-05
message 0.000105146871225
coming 4.94108696162e-05
temporary 0.0
challenge 2.71538665249e-05
achievement 0.0
unlocked 0.0
happen 5.04880243253e-05
celebrated 0.0
giving 0.000125203317783
excellent 3.22868576134e-05
common 3.0623207274e-05
pressed 0.0
company 0.00011221060264
change 0.00014863270002
singing 0.0
silver 0.0
august 6.99269590703e-05
crying 0.0
happened 5.21492332867e-05
parking 0.0
demand 3.26518855183e-05
sacrifice 0.0
personal 0.000107736805911
beyond 5.53483299703e-05
question 0.000379682545454
chicken 0.0
position 3.37805836039e-05
losing 6.10773650998e-05
respect 2.70804270282e-05
caption 0.0
shouldn 2.96275593694e-05
career 5.7497861153e-05
reason 0.0
explore 0.0
glamorous 0.0
reality 5.89309210836e-05
burned 5.82051714343e-05
without 0.000474491786732
problems 9.16160476496e-05
countdown 0.0
online 5.32886566705e-05
animals 8.27749928553e-05
buying 0.00013435535987
pictures 0.000187860307638
underneath 0.0
camera 0.0
checked 0.0
heading 2.94654605418e-05
complex 4.0740768146e-05
sunday 7.6760103113e-05
nights 0.0
traffic 0.000148723584498
through 0.0
changing 6.07409961087e-05
diapers 0.0
convinced 0.0
capture 4.99148545652e-05
random 0.0
recorded 7.52537236732e-05
november 3.32097719842e-05
number 5.07610325907e-05
stupid 3.44636868828e-05
grandparents 0.0
recording 0.0
chocolate 0.0
unless 6.10773650998e-05
calling 0.000104017280272
mermaid 0.0
levels 3.80810485761e-05
package 0.0
option 7.17789548686e-05
knowing 0.0
actual 3.29292497936e-05
friday 0.000125541300614
achieve 8.30378087628e-05
winner 8.257315133e-05
becomes 0.000105193998781
directly 0.0
quality 3.20165923852e-05
father 0.000282056880024
wishes 3.22868576134e-05
themselves 0.0
asking 7.86474430593e-05
usually 9.906720831e-05
period 7.39218083812e-05
resist 0.0
collections 0.0
summer 0.0
bracelet 0.0
reminded 0.0
dinner 2.73755075961e-05
single 0.000102071123603
catching 0.0
energy 8.83963816254e-05
preview 7.05365899282e-05
monster 0.0
material 4.23224190513e-05
events 0.000153540114808
europe 0.00106226380541
holiday 8.55439325626e-05
emotional 0.0
affects 0.0
holding 8.79132635737e-05
survive 4.20516588219e-05
eating 9.28927080341e-05
outfit 0.0
missing 5.28582795606e-05
surprise 0.000185504624766
german 0.000170384751157
officially 2.89063683832e-05
french 0.000286542437505
global 0.000264927274152
follow 7.47180727312e-05
design 0.0
improvement 0.0
website 9.06103614044e-05
breaks 9.79556565549e-05
negative 0.0
official 0.000511734020753
jersey 0.0
france 0.000103094800537
lighter 0.0
thinks 8.67191051497e-05
hospital 7.22001357732e-05
jealous 0.0
successful 0.0
trending 8.19948520362e-05
leadership 0.000542897927858
showed 0.0
attended 0.0
circle 0.000131601736526
interested 9.55141458351e-05
effect 3.26518855183e-05
success 0.000111905947894
ladies 0.0
dreams 3.25601202989e-05
protect 0.0
arguing 4.95471024707e-05
essence 0.0
control 0.000221393319881
happier 0.0
likely 0.000463622729767
cancel 5.18407511605e-05
project 0.000111905947894
laying 0.0
lesson 3.44636868828e-05
fridays 0.0
invited 0.0
treating 0.0
allowing 4.34362327756e-05
remote 0.0
opening 2.69342014778e-05
alcohol 0.000461534734116
popular 0.00010163105372
pedestal 0.0
designing 0.0
followed 3.29292497936e-05
enjoyed 0.0
spectacular 0.0
recovered 0.0
length 9.76553329135e-05
matters 3.25601202989e-05
factor 0.0
england 7.241208391e-05
shared 0.0
benefit 0.0
continues 6.0406907603e-05
fathers 0.0
kitchen 3.98629525058e-05
exciting 0.0
corner 3.53707438972e-05
spring 6.33215786738e-05
fallen 0.000130737202708
victoria 0.0
tornado 0.0
typical 4.61432255473e-05
continue 5.71849847632e-05
creative 0.0
excuse 0.0
female 0.00019813441662
closer 9.31507075937e-05
accent 5.41490615187e-05
beginning 3.11365369438e-05
sooner 0.0
everywhere 0.0
scenes 0.0
wishing 0.0
choices 4.01105820567e-05
unpredictable 0.0
become 0.000181050280281
photographs 0.0
spread 0.0
season 0.0
putting 7.80129602042e-05
annoying 0.0
quietly 0.0
extending 6.68086992955e-05
stance 4.79569421773e-05
sleepy 0.0
returns 0.000132839087937
bucket 0.0
condolences 0.0
register 0.0
flowers 0.0
define 0.0
somebody 0.0
chicks 0.0
covering 7.66226413066e-05
repeat 6.91256753042e-05
football 0.000155682684719
brothers 0.0
player 3.45628376521e-05
physical 0.0
series 0.000107736805911
pretend 0.0
fighting 0.000169234128014
atlanta 0.0
mexico 0.0
president 0.00104592658351
talking 0.000124194897435
america 7.90734776611e-05
greats 0.0
everybody 0.0
judgment 0.0
amount 0.0
houston 0.0
everyday 0.0
shooter 0.0
attitude 0.0
million 0.000338056160885
honesty 0.0
telling 2.81290505131e-05
pulled 0.0
attack 0.00127708635095
killed 0.000717578174696
horrible 0.0
norman 0.0
salute 0.0
jacksonville 0.0
barackobama 0.0
lilduval 0.0
liquor 0.0
american 5.25734356123e-05
realist 0.0
remain 0.000174313533314
innocent 4.7448904943e-05
pieces 0.0
taught 0.0
golden 0.000100195730975
straight 0.000109799332968
forgive 0.0
answers 3.19271587737e-05
product 0.0
smoking 4.9365264502e-05
created 5.9581463414e-05
record 0.000310371909052
weapon 5.02881788728e-05
bottom 3.32097719842e-05
arrangements 0.0
africa 0.0
committed 7.80306761208e-05
journey 0.0
brother 6.0406907603e-05
prayers 0.0
documentary 3.70706546301e-05
addition 0.0
honestly 3.53707438972e-05
velvet 0.0
country 0.000460560618678
speedy 0.0
dressing 0.0
employee 5.45930182672e-05
yoooooo 0.0
prayer 0.0
nominated 0.0
praying 0.0
insane 3.66345559371e-05
illest 0.0
shooting 9.28927080341e-05
cancer 3.11365369438e-05
australia 0.0
marijuana 0.0
deserve 0.0
legend 0.0
mother 0.000248392445087
murder 0.000802211641135
realest 0.0
powerful 0.000181220722809
attendance 0.0
wisdom 4.17838416967e-05
breaking 0.000159865970011
bothered 0.0
angeles 0.0
dollars 0.0
soldiers 0.000518407511605
performance 0.0
reading 0.000105146871225
videos 6.38543175473e-05
jordan 4.3153023532e-05
nobody 0.000121481992217
politics 0.000315581996342
paradise 0.0
blessing 0.0
coolest 0.0
strippers 0.0
charities 0.0
donate 0.0
bullshit 4.7448904943e-05
sample 0.0
rocking 0.0
bringing 2.78248622924e-05
deserves 0.0
hilarious 3.28364476766e-05
victim 0.000235579706614
stadium 0.0
funniest 0.0
heaven 7.85091057609e-05
ruined 0.0
honest 0.000123172526491
rolling 0.0
became 9.28927080341e-05
driver 0.00022711745207
breakfast 0.0
decision 0.000370542423464
counting 3.51662702513e-05
pressure 0.000505267878963
awareness 0.0
dearly 0.0
lastnight 0.0
facebook 7.95019820424e-05
basketball 0.0
campaign 0.000776221125565
twisted 0.0
defined 0.0
discover 0.0
comments 0.000151017269007
giveaway 0.0
bipolar 0.0
teenage 0.0
williams 0.0
custom 0.0
singer 4.83015482552e-05
future 0.000306213370808
randomly 0.0
angels 0.0
blessed 0.0
sister 0.0
stripper 0.0
dancing 3.47623442719e-05
reigns 0.0
voting 0.000183232095299
niggas 0.0
commercial 3.39738311273e-05
hating 0.0
boring 0.0
century 4.06134348759e-05
acting 0.00010642086178
submit 0.0
besides 0.0
hiding 0.0
periscope 0.0
breath 4.20516588219e-05
choosing 0.0
lawrence 5.66961938599e-05
instagram 0.0
detroit 4.59847752719e-05
cousin 0.0
honored 0.0
dedication 0.0
rockin 0.0
fucked 0.0
lionelrichie 0.0
talent 3.302240277e-05
goodnight 0.0
stores 0.0
drinking 0.000368516404509
brazil 4.44539144847e-05
tattoo 0.0
consecutive 0.0
regardless 0.0
staring 0.0
commitment 0.0
seconds 3.31159092691e-05
ohhhhhh 0.0
listen 0.0
whatever 5.687408237e-05
wherever 0.0
kicking 0.0
compete 4.64632161868e-05
lauderdale 0.0
homies 0.0
billion 0.000283788964747
belated 5.43700399768e-05
pirate 0.0
shoutout 0.0
grammy 0.0
guilty 0.000335339091004
ceiling 0.0
grammys 0.0
absolute 0.0
nelson 0.0
mandela 0.0
bigsean 0.0
handle 3.22868576134e-05
tonite 0.0
cocaine 0.0
promise 2.93848092982e-05
longest 4.40126083664e-05
generation 0.000135895324509
tuesday 0.0
struggle 0.000115281806361
workout 0.0
character 3.31159092691e-05
mirror 8.07214513125e-05
interview 0.000478344810339
buffalo 0.0
justin 0.0
insights 0.0
winning 0.000132145698901
oxygen 0.0
espnnfl 0.0
charlotte 0.0
accomplished 0.0
defense 0.00023844038883
gettin 0.0
arabia 6.50353490659e-05
lmfaooooo 0.0
writing 0.000114682349286
soccer 9.83695173831e-05
society 6.83372126298e-05
brooklyn 0.0
incredible 5.3432955063e-05
witcho 0.0
celebrity 8.0973512557e-05
minute 0.0
foreign 0.00118892535452
cherry 0.0
champs 0.0
murdered 0.000264316301234
evidence 0.000183714295567
android 5.71889889454e-05
sneaking 0.0
clearly 0.000156986344129
download 0.0
mixtape 0.0
central 0.000457126397256
washington 0.000196463962716
veterans 9.69513514287e-05
stronger 0.0
promised 8.12268697518e-05
marcus 0.0
zombie 0.0
throwing 4.06134348759e-05
security 0.000623892505855
fastest 0.0
fantasy 4.69511317925e-05
turning 0.000278678124102
ignore 7.09472411867e-05
fucking 0.0
tickets 2.99549918682e-05
collector 0.0
prizes 0.0
december 6.87298670248e-05
loyalty 5.64534437887e-05
return 0.000383257106345
escape 4.43059324607e-05
yassss 0.0
goddess 0.0
handsome 0.0
language 6.93247780633e-05
motion 4.35790675694e-05
gallery 0.000149190877221
movies 0.0
children 0.000190592679005
backpack 0.0
potentially 0.0
guardian 0.000223762859369
review 8.83963816254e-05
theaters 0.0
shhhhh 0.0
begins 0.000118510237478
closet 0.0
bodies 9.80111313245e-05
hahaha 0.0
produced 3.87784234184e-05
latest 0.00168769683306
banned 0.000177223729843
beyonce 0.0
perform 0.0
lionel 0.0
signed 2.73014054863e-05
princess 0.0
ghetto 0.0
conditioning 0.0
charity 0.0
germany 0.000263388032856
ronaldo 0.0
married 7.32691118743e-05
millions 0.000100480574483
blessings 0.0
diamond 0.000112426124097
nephew 0.0
lights 0.0
howard 0.0
turned 0.0001086154661
buckle 0.0
relevant 0.0
performing 3.9740064805e-05
indian 5.1443340401e-05
includes 7.37032809018e-05
tricks 5.39300473395e-05
survivor 0.000165135364392
diamonds 0.0
collection 6.79476622545e-05
families 6.33215786738e-05
welcoming 0.0
select 0.0
announced 3.01203544548e-05
granted 0.0
decided 8.88826781082e-05
selfish 0.0
trailer 3.74028699946e-05
reppin 0.0
celebration 6.95246885438e-05
decades 0.000119220194415
ultimate 0.0
incase 0.0
downtown 4.91847586916e-05
seasoning 0.0
episode 2.95463766504e-05
mentality 7.25840825642e-05
touching 0.0
retweet 0.0
goodmorning 0.0
midnight 0.0
expectations 9.04149148035e-05
joining 0.000116577710232
reasons 5.76550474612e-05
released 5.76550474612e-05
release 0.000135769332625
models 4.77864298503e-05
popped 0.0
within 0.000315726356367
standing 2.82825646105e-05
valentines 0.0
justice 0.000133215974559
houses 0.000101334493712
purchase 4.2458923184e-05
dropped 0.0
conversations 0.0
seattle 0.0
strength 6.85331487362e-05
monica 0.0
incredibly 0.0
streets 0.000291354939058
private 3.17492595681e-05
inspirational 0.0
barbie 7.71694441491e-05
tables 0.0
affection 0.0
broski 0.0
pissing 0.0
designer 5.43700399768e-05
cooking 0.0
tattoos 0.000139055115349
direction 0.0
readyyyyy 0.0
exclusive 0.00064646580456
adrianalima 0.0
fashion 3.57848533581e-05
talkin 0.0
bitches 0.0
nailed 0.0
kitten 0.0
whomever 0.0
ruthless 0.0
teaching 0.0
chillin 0.0
philly 0.0
baddest 0.0
cheers 3.83113206533e-05
autumn 0.0
presents 8.0973512557e-05
flawless 0.0
unique 0.0
handed 4.7448904943e-05
taraji 0.0
victory 0.000601302646253
tribute 0.0
ballin 0.0
horror 0.0
females 0.0
catfish 0.0
action 0.00034544106732
wouldnt 0.0
recipient 0.0
whitney 0.0
continued 4.2458923184e-05
esther 0.0
letter 6.10773650998e-05
existence 0.0
papers 9.07219429983e-05
winter 6.69870496553e-05
sessions 4.38672455086e-05
replicating 0.0
foundation 7.05365899282e-05
syndrome 0.0
colorado 0.0
tremendous 0.0
public 0.000373736097494
cannot 8.27974816957e-05
brilliant 9.11114941631e-05
illustration 7.12274684073e-05
beware 0.0
globally 0.0
premieres 0.0
streaming 0.0
immigration 0.000551817303262
wrapped 9.29264323736e-05
studio 0.0
february 3.64193673822e-05
amazon 0.0
border 0.000434713934297
huffingtonpost 0.0
francis 0.0
january 3.42665743681e-05
relationships 0.0
tragic 0.0
secure 0.000135622372205
countries 0.000107042015005
episodes 0.0
broadcast 4.08687628906e-05
tickled 0.0
livestream 0.0
potential 0.000170843031574
education 0.0
famous 0.000170355131275
unknown 0.000147554276075
exists 0.0
orders 0.000444539144847
microsoft 0.0
ability 7.19890953399e-05
director 6.17570705774e-05
accessible 0.0
correction 5.01008096586e-05
william 4.19173863756e-05
editors 0.000168639186146
yellow 0.0
passionate 0.0
treatment 0.0
ambassador 0.000384607992491
thanking 0.0
streamed 0.0
lovers 0.000149190877221
wrinkled 0.0
bridge 0.000239177715035
magazine 6.87298670248e-05
sincere 6.09456523972e-05
quotes 4.0740768146e-05
result 0.000178403358342
destruction 0.0
edition 3.31159092691e-05
prince 0.000143557909737
indiana 0.0
editorial 0.0
emotion 0.0
mistakes 0.0
inspiring 0.0
counter 0.000280724504101
disappointing 0.0
edited 0.0
spotlight 0.000101334493712
saddest 0.0
production 7.89922259624e-05
header 0.0
itunes 0.0
guests 0.0
snakes 0.0
charging 0.0
arriving 0.000108740079954
mysteries 0.0
dangerous 6.64195439684e-05
typically 0.0
saving 3.58894774343e-05
universe 0.0
victims 0.000179447387171
receive 0.0
proceeds 0.0
crossed 8.74454704477e-05
received 0.0
limitations 0.0
studying 0.0
conflict 0.000565876744411
petition 0.0
milestones 0.0
outstanding 0.0
devastating 0.0
installment 0.0
signature 0.0
mistletoe 0.0
awards 6.45737152267e-05
shelves 0.0
smells 0.0
themed 5.87294238274e-05
sisters 0.0
banquet 0.0
danger 0.000173176884967
leading 0.000125589075303
member 0.000145324093294
dominant 0.0
distinguish 0.0
factories 0.0
distinct 0.0
distance 0.0
confirmed 0.00010798364301
behavior 0.0
collect 0.0
vanity 0.0
junior 4.9365264502e-05
communities 0.0
worldwide 4.11267645457e-05
canada 0.0
recognized 0.0
vessels 0.0
movement 9.906720831e-05
segment 0.0
internal 5.1443340401e-05
information 3.34935248277e-05
easily 0.0
towards 0.00021596728602
october 0.000103688512956
belgium 0.0
european 0.000596346629049
caribbean 0.0
cities 0.0
arrives 0.000150302428976
extraordinary 8.35676833935e-05
exquisite 0.0
argentina 0.000182836957192
eliminate 0.0
genius 3.28364476766e-05
prepared 3.74028699946e-05
anthony 0.0
breakthrough 0.000235983173057
berlin 5.08589904925e-05
batman 0.0
upcoming 0.0
upgrade 0.0
singapore 0.0
crucial 0.0
scratch 0.0
collaboration 0.0
tested 4.99148545652e-05
acquire 0.0
honoring 0.0
holland 0.0
visually 0.0
neyocompound 0.0
inspire 0.0
ebonymag 0.0
spiketv 0.0
constant 0.0
sunset 9.5234178877e-05
tuning 0.0
gentleman 0.0
fulfilling 0.0
ayeeeee 0.0
stratford 0.0
poland 0.000321801337894
philippines 0.0
kickin 0.0
theweeknd 0.0
september 0.0
manchester 4.4903269181e-05
rickyrozay 0.0
remarkable 0.0
rihanna 0.0
disgusted 0.0
immoral 0.0
process 6.29695924212e-05
goosebumps 0.0
performances 0.0
strangers 5.69413593944e-05
emotions 0.0
judgement 0.0
comparing 0.000109186036534
thuggin 0.0
studios 0.0
jennifer 0.0
performer 0.0
literally 6.10773650998e-05
cardiff 0.0
soooooooo 0.0
crashed 0.000166517027027
cthagod 0.0
closed 0.000105498810754
justinbieber 0.0
complexmag 0.0
billboard 5.20418864238e-05
airing 0.0
albums 0.0
sweden 9.80111313245e-05
katyperry 0.0
treats 0.0
missouri 0.0
thefader 0.0
soundtrack 5.52743224929e-05
theellenshow 0.0
sweets 0.0
festival 0.000108937421389
wizkhalifa 0.0
amsterdam 0.0
backstage 0.0
collab 0.0
subscribed 0.0
joined 3.03704980544e-05
davidguetta 0.0
pushing 7.89922259624e-05
hopeful 0.0
romantic 0.0
mentions 0.0
lurking 0.0
ballad 0.0
teamed 0.0
exclusively 0.0
kingjames 0.0
hollyrpeete 0.0
sneakers 0.0
auction 4.9365264502e-05
sneaker 0.0
djkhaled 0.0
express 7.63918312085e-05
thegrammys 0.0
throughout 0.0
shining 0.0
excellence 0.0
thrown 9.3902263585e-05
zendaya 0.0
playin 0.0
applemusic 0.0
crunch 6.7555390769e-05
capitalofficial 0.0
filmed 4.7448904943e-05
toronto 4.40126083664e-05
naomicampbell 0.0
trvisxx 0.0
killin 0.0
trucks 0.000409952520553
stands 0.0
platinum 0.0
native 0.0
spotify 0.0
rocked 5.18407511605e-05
jumped 0.0
leebruhgreene 0.0
leaning 0.0
featured 3.87784234184e-05
announce 5.73411746431e-05
senior 0.000193304074617
iamdiddy 0.0
haters 0.0
nothin 0.0
appreciation 0.0
defjamrecords 0.0
floating 0.0
superstars 0.0
shondarhimes 0.0
premiere 4.0235336414e-05
orchestral 0.0
makeup 0.0
touched 0.0
newest 3.98629525058e-05
designed 0.0
passes 4.04867562785e-05
angelasimmons 0.0
tidalhifi 0.0
vashtie 0.0
delivered 0.0
owning 0.0
producer 0.0
balmain 0.0
legendary 0.0
independence 0.00151649488262
mtvmusicuk 0.0
audition 0.0
debuts 0.0
footage 0.000161442902625
marshall 0.0
spends 0.0
playtime 0.0
completed 0.0
dishes 0.0
photographed 7.03628557322e-05
bubble 0.0
belong 0.0
tongue 0.0
observing 0.0
consistent 0.0
posing 0.0
heavens 0.0
contemporary 0.0
aiming 0.0
ceremony 4.40126083664e-05
brighter 0.0
rainbow 5.04769838804e-05
matthew 0.0
phenomenal 0.0
affected 0.0
rivers 0.0
presenting 0.0
competitive 0.0
eskimo 0.0
sibling 0.0
dakota 0.0
printed 0.0
heroes 7.52537236732e-05
deepest 0.0
describe 0.0
hollywood 3.63124737962e-05
baggage 0.0
terrifying 0.0
animation 0.000130759910288
nationwide 5.66961938599e-05
capital 0.000266723486908
quantity 0.0
nominations 0.0
mountains 0.0
mosaic 0.0
realise 5.5045121464e-05
overload 0.0
photographer 0.0
depression 0.0
donation 4.17838416967e-05
marvelous 0.0
madonna 0.0
sailed 0.0
terror 0.000232316080934
rinsed 0.0
disorder 0.0
polish 5.82051714343e-05
represents 0.0
touchdown 0.0
creates 0.0
oxford 0.0
stitched 0.0
morocco 0.0
thrill 0.0
balloons 0.0
teaming 0.0
latimes 0.0
kerrywashington 0.0
caution 0.0
camouflage 0.0
approaching 0.0
generous 0.0
installation 7.95177852764e-05
benefiting 0.0
basics 0.0
confirm 0.00012033174617
thrilling 0.0
photography 0.0
matches 0.0
boundaries 0.0
singles 0.0
laptop 5.52743224929e-05
obvious 0.0
darling 0.0
celebrations 6.57294494139e-05
chewbacca 0.0
underwater 0.0
naughty 0.0
advised 0.000132887342781
feelin 0.0
macaroni 0.0
perfection 0.0
picasso 0.0
recipe 0.0
radical 5.16412445407e-05
volcano 0.000161563194633
planted 0.000145168165128
products 0.0
directed 0.0
grabbed 0.0
frames 0.0
casual 0.0
scheming 0.0
twickenham 0.0
bbcnews 6.83254200921e-05
pledge 9.22864510947e-05
subtle 0.0
embarrassed 0.000106145909117
snatch 9.6596192165e-05
unveiling 0.000146106819525
kissed 0.0
arguments 0.0
settling 7.4019766283e-05
desperate 4.69511317925e-05
executive 8.22535290913e-05
humbled 0.0
courage 0.0
dropping 0.0
carried 0.000105310671056
behalf 4.43059324607e-05
hardest 0.0
marking 0.0
vision 3.65267267369e-05
intervention 0.000453569550879
records 0.0
deeply 0.000119588857517
mannered 0.0
texted 0.0
israeli 7.21235283527e-05
strongest 0.0
rogers 0.0
concept 0.0
allegiance 8.74412626209e-05
belongs 5.41490615187e-05
intended 5.22446771399e-05
bosses 0.0
purpose 0.0
hottest 0.0
campaigns 0.0
sunderland 0.0
teenager 6.50353490659e-05
runway 0.0
steven 0.0
guitar 0.0
donating 0.0
applause 0.000116931806633
finale 0.0
wasted 5.12470132035e-05
absent 0.000148039532566
awhile 0.0
fierce 0.0
sincerely 0.0
apology 4.64632161868e-05
climbing 0.0
unwilling 0.0
protesting 0.000249757513551
bikini 0.0
friendships 0.0
matching 0.0
wolves 0.0
mosque 7.8909385651e-05
venezuela 0.0
donates 7.21235283527e-05
generations 0.0
underestimate 0.0
pardon 0.000195106047198
stickers 0.0
mothers 0.0
deeper 0.0
nipple 0.0
perfume 0.0
noodle 0.0
melissa 0.0
forest 5.39300473395e-05
panties 0.0
jimmykimmel 0.0
everytime 0.0
underdog 0.0
shoulders 0.0
wrapping 0.0
bedroom 0.0
glitter 0.0
stocking 0.0
annoyed 0.0
behave 0.0
goodbye 7.75568468369e-05
fuckin 0.0
seller 0.0
joshgroban 0.0
samsungmobileus 0.0
influential 0.0
slicing 0.0
ryanseacrest 0.0
farmer 0.0
teaser 0.0
styled 0.0
casting 6.21333007508e-05
imitated 0.0
forgiveness 0.0
perezhilton 0.0
blacked 0.0
paparazzi 0.0
peoplemag 0.0
rolled 0.0
vanityfair 0.0
rockstar 0.0
thousand 0.0
minded 6.0657474458e-05
shines 0.0
sunglasses 0.0
auntie 0.0
magazines 0.0
waited 0.0
denmark 0.0
leather 0.0
wished 0.0
ladygaga 0.0
swallow 0.0
glblctzn 0.0
shakira 0.0
accessories 0.0
nbcthevoice 0.0
clique 0.0
premiering 0.0
loooooove 0.0
weareheremvmt 0.0
looooove 0.0
vmagazine 0.0
popcrush 0.0
studded 0.0
yassssss 0.0
yessss 0.0
undeniable 0.0
unicef 0.0
auditions 0.0
ellemagazine 0.0
yasssss 0.0
pharrell 0.0
greece 0.000182836957192
papermagazine 0.0
nowwwww 0.0
maccosmetics 0.0
macaidsfund 0.0
lipstick 0.0
meeeee 0.0
newsstands 0.0
unapologetically 0.0
insidebates 0.0
legalize 0.0
loooove 0.0
caradelevingne 0.0
allllll 0.0
badgalriri 0.0
itsjeremyscott 0.0
nickiminaj 0.0
nipples 0.0
booooo 0.0
trippy 0.0
mikewillmadeit 0.0
puttin 0.0
trappin 0.0
alexanderwangny 0.0
karllagerfeld 0.0
celebratin 0.0
lilyallen 0.0
fuuuuuck 0.0
chanel 0.0
rubber 0.000124878756776
angelou 0.0
misses 0.0
harpersbazaarus 0.0
timberlake 0.0
photoshopped 0.0
whatchu 0.0
rehearsals 0.0
couture 0.0
mutual 0.0
creeper 0.0
cuddling 0.0
celine 0.0
theamas 0.0
thexfactor 0.0
websterhall 0.0
presale 0.0
deluxe 0.0
styles 6.03726281303e-05
wetten 0.0
shittttttttttt 0.0
boredom 0.0
darealamberrose 0.0
noooooooo 0.0
itunesmusic 0.0
cbstweet 0.0
thermal 0.0
mariners 0.0
torres 0.0
thebeatles 0.0
blondies 0.0
greeting 0.0
thecut 0.0
geeked 0.0
outlet 0.0
americanexpress 0.0
gqmagazine 0.0
nicole 0.0
bumped 0.0
hangover 0.0
stockholm 0.0
casually 0.0
esquire 0.0
winnipeg 0.0
begging 0.0
showroom 0.0
sleeves 0.0
smelling 0.0
guaranteed 0.0
obsession 0.000103282489081
attendant 0.0
aussie 0.0
tbsveryfunny 0.0
reservation 0.0
mollymcnearney 0.0
dragging 0.0
rocnation 0.0
tapered 0.0
badass 0.0
endlessly 0.0
vampires 0.0
viewers 0.0
kanyewest 0.0
designers 0.0
billboards 0.0
backstreetboys 0.0
monteith 0.0
e_fashionpolice 0.0
epically 0.0
internationally 0.0
mighty 0.0
jcolenc 0.0
semifinals 0.0
brasilia 0.0
tailgating 0.0
photoshoot 0.0
smokin 0.0
ahhhhhh 0.0
missin 0.0
sweats 0.0
impacted 0.0
rodriguez 0.0
musician 6.33811082867e-05
merchandise 0.0
jurgen 0.0
athleteally 0.0
originals 0.0
número 0.0
zealand 0.0
hehehe 0.0
fearless 0.000117458847655
stadiums 8.50158042697e-05
thiago 0.0
suarez 0.0
cropped 0.0
uruguay 0.0
apparel 0.0
staircase 0.0
wintour 0.0
spotting 0.000168515246872
polygraph 0.0
twerking 0.0
shipment 0.0
muggin 0.0
takeoff 0.0
thailand 0.000149035078867
tomorr 0.0
googleplay 0.0
budweiser 0.0
miafestival 0.0
dotted 0.0
burning 4.34362327756e-05
surpass 0.0
betcha 0.0
onairwithryan 0.0
dreamers 0.0
brunomars 0.0
beyoncé 0.0
hellooo 0.0
subscribers 0.0
preorder 0.0
believer 0.0
fragrance 0.0
hellooooo 0.0
majesty 7.8315647694e-05
beatsbydre 0.0
finland 0.000211088567197
fearnecotton 0.0
debuted 0.0
queued 0.0
rhetorical 0.000161563194633
iranian 7.12274684073e-05
infamous 0.000306462947845
brutally 0.000240424767147
execution 0.0
palestinian 0.0
transplant 0.0
audacity 0.0
foreplay 0.0
priced 0.0
huntington 0.0
manger 0.0
weaker 0.0
justintrudeau 0.0
creeping 0.0
fittest 0.0
hoodie 0.0
mankind 0.0
westwood 0.0
holographic 0.0
throwin 0.0
eminem 0.0
ecstatic 0.0
enjoys 0.000130759910288
wussup 0.0
duplicated 0.0
crotch 0.0
congrat 0.0
huggin 0.0
implement 0.0
penalizing 0.0
gonzalez 0.0
bitchin 0.0
sephora 0.0
damien 0.0
demanded 0.0
negativity 0.0
alancarr 0.0
skillz 0.0
hopeless 0.0
beatle 0.0
cheesecake 0.0
almighty 0.0
whatcha 0.0
slumber 0.0
chimney 0.0
headlining 0.0
perplexed 0.0
googleplaymusic 0.0
thrills 0.0
rollers 0.0
bravotv 0.0
gifted 0.0
kekepalmer 0.0
styledtorock 0.0
yooouuu 0.0
shantay 0.0
yaaaas 0.0
bestest 0.0
freestyle 0.0
everrrrr 0.0
sweatband 0.0
podolski 0.0
collaborating 0.0
bestfriend 0.0
sittin 0.0
whaaaat 0.0
clockwork 0.0
warmest 0.0
temptation 0.0
spiritual 0.0
chameleon 0.0
customised 0.0
acrylic 0.0
grasshopper 0.0
engages 0.0
gourmet 0.0
rhythmic 0.0
petals 0.0
klinsmann 0.0
directv 0.0
popcrave 0.0
versailles 0.0
raddest 0.0
grandfather 5.66961938599e-05
persie 0.0
webster 0.0
knight 0.0
footwear 0.0
collectors 0.0
blackout 0.000161563194633
skylight 0.0
hammock 0.0
playhouse 0.0
revelers 0.0
executed 0.0
cincinnati 0.0
simultaneously 0.0
malawi 0.0
graduated 0.0
sickening 0.0
mueller 0.0
elonjames 0.0
skeletons 0.0
mittromney 0.0
connecticut 0.0
cumulative 0.0
racked 0.0
valera 0.0
thighs 0.0
timely 0.0
rapping 0.0
shrugs 9.42478510378e-05
enables 0.0
psychic 0.0
fernando 0.0
tourism 7.30534097624e-05
slaughtered 0.0
devotion 0.0
fantasies 0.0
parsons 0.0
stella 0.0
complainers 0.0
newsstand 0.0
voguemagazine 0.0
westfield 0.0
manolo 0.0
turquoise 0.0
parisian 0.0
childs 0.0
swimsuit 0.0
bazaar 9.78600042049e-05
empress 0.0
brainstorm 0.0
tanning 0.0
desirable 0.0
feathers 0.0
antics 0.0
featurette 0.0
olivier 0.0
helloooo 0.0
hallow 0.0
connie 0.0
upbringing 0.0
privatize 0.0
bittersweet 0.0
outlaw 0.0
marcel 0.0
nowwww 0.0
hushed 0.0
threshold 0.0
floats 0.0
barbados 0.0
manuelcav 0.0
niggaz 0.0
prayin 0.0
drizzyxcole 0.0
homegirl 0.0
rappin 0.0
witcha 0.0
mufasa 0.0
dainternz 0.0
lololol 0.0
barclayscenter 0.0
bestbuy 0.0
blackouts 0.000113674599054
rivera 0.0
jakemiosge 0.0
givenchy 0.0
riccardo 0.0
grossed 0.0
guetta 0.0
spicewon 0.0
bitche 0.0
shawty 0.0
wednesdays 0.0
payday 9.21039835565e-05
jewelers 0.0
romero 0.0
acknowledging 0.0
calypso 0.0
blushes 0.0
medusa 0.0
keepers 0.0
futuristic 0.0
whereabouts 0.0
slayed 0.0
asvpxrocky 0.0
haaaaa 0.0
inezandvinoodh 0.0
calvinharris 0.0
_maxwell_ 0.0
bwerde 0.0
edward_enninful 0.0
haaaaaa 0.0
wisest 0.0
unconditionally 0.0
drmayaangelou 0.0
blackgirlsrock 0.0
submissive 0.0
rearrange 0.0
attuned 0.0
abrams 0.000100600485168
awaken 0.0
climbs 0.0
jacking 0.0
seventy 0.0
snatching 0.0
manoloblahnik 0.0
nicolerichie 0.0
openingceremony 0.0
whiteley 0.0
supermodel 0.0
the_real_iman 0.0
minogue 0.0
tmagazine 0.0
baaaaack 0.0
yeessss 0.0
wooooo 0.0
epicness 0.0
takawiraa 0.0
joplin 0.0
uncensored 0.0
unspeakable 0.0
rewrites 0.0
askdrruth 0.0
glozell 0.0
tardiness 0.0
runways 0.0
colombian 0.0
unapologetic 0.0
zac_posen 0.0
rumoured 0.0
omgggg 0.0
futbol 0.0
biatch 0.0
barrington 0.0
catwalk 0.000109182390445
sledgehammer 0.0
clemente 0.0
dollaz 0.0
mariah 0.0
granddad 0.0
iyanlavanzant 0.0
hustler 0.0
coletteparis 0.0
flexin 0.0
mistress 0.000207368742903
exceeds 9.21039835565e-05
sweeeeeet 0.0
stancesocks 0.0
serviced 0.0
issssss 0.0
lipglass 0.0
externally 0.0
complex_uk 0.0
prideful 0.0
dash_radio 0.0
holidaze 0.0
mawnin 0.0
champagnepapi 0.0
fashawn 0.0
raided 0.000198384325686
ahhhhhhhh 0.0
soulmate 0.0
motorbikes 0.0
britishvogue 0.0
gnlstudios 0.0
robinsoncano 0.0
debuting 0.0
cc_sabathia 0.0
colorways 0.0
hit_boy 0.0
_spyda 0.0
phresh 0.0
dominates 0.0
ratchet 0.0
rupaul 0.0
cockpit 0.0
kimmiekyees 0.0
horoscope 0.0
catwalks 0.0
paramedic 0.0
fhollande 0.0
sexiness 0.0
hereeee 0.0
changers 0.0
tiptoes 0.0
revved 0.0
meditative 0.0
fauntleroy 0.0
mbsings 0.0
disrespectfully 0.0
traumatized 0.0
outdid 0.0
elvispresley 0.0
toupee 0.0
josephine 0.0
discography 0.0
mariasharapova 0.0
chinchilla 0.0
skylar 0.0
illestbaba 0.0
georgiamjagger 0.0
pierced 0.0
hardrock 0.0
snorkeling 0.0
thrilla 0.0
gunpoint 0.0
sleeved 0.0
stevestoute 0.0
kiiiiiiiiiiiiinnnngggggg 0.0
lanvin 0.0
chateau 0.0
lizzs_lockeroom 0.0
prophets 0.0
müller 0.0
lullaby 0.0
samersum 0.0
disassembled 0.0
anniversaries 0.0
hayden_williams 0.0
rousteing 0.0
slayage 0.0
raunchy 0.000119172618047
benzema 0.0
fuckery 0.0
hellooooooo 0.0
juliagillard 0.0
congeniality 0.0
gunned 0.0
condense 0.0
missjillscott 0.0
yussss 0.0
chopard 0.0
woodbridge 0.0
orousteing 0.0
dubsmash 0.0
alicialquarles 0.0
worldmcqueen 0.0
whateva 0.0
elysées 0.0
jennnrosales 0.0
xstrology 0.0
looool 0.0
tippin 0.0
marleys 0.0
dwanimation 0.0
dreamworks 0.0
yaself 0.0
anothermagazine 0.0
claralionelfdn 0.0
mchingi 0.0
rihannareplay 0.0
awtguide 0.0
ryannavy_rih 0.0
rihquest 0.0
gpforeducation 0.0
valliniandre 0.0
globalfund 0.0
rhenna 0.0
millymaefenty 0.0
peetes 0.0
pandagunda 0.0
floriamamaroma 0.0
adoringrihanna 0.0
ymcofficial 0.0
rihanti_ 0.0
mcdean 0.0
rihannadaily 0.0
stancemuse 0.0
muhtean 0.0
rihdefine 0.0
officialdonnie 0.0
stunnafenty 0.0
perfumesbyriri 0.0
badgal 0.0
shaninamshaik 0.0
reblrihanna 0.0
elliscole_ 0.0
itskaitbh 0.0
harpersbazaarcn 0.0
yusefhairnyc 0.0
mylahmorales 0.0
teamofrihanna 0.0
muhphucka 0.0
harpersbazaar 0.0
rihrihfreak 0.0
thenbacentral 0.0
roversi 0.0
suchaf_cknlady 0.0
fourfiveseconds 0.0
petergrayhair 0.0
wkorea 0.0
dennisleupold 0.0
ursulastephen 0.0
ozzysalvatierra 0.0
ciarrap 0.0
rihannaargntina 0.0
rihearsal 0.0
sremmurd 0.0
id_magazine 0.0
heauxm 0.0
rihpost 0.0
jrgseul 0.0
bitchez 0.0
underst_navy 0.0
sonitaalex 0.0
chris_walden 0.0
danachanel 0.0
wednesdayz 0.0
jimmyfenty 0.0
houseoffraser 0.0
skeete 0.0
_kailssss 0.0
muhphuckas 0.0
phuckin 0.0
rastafarih 0.0
obviiii 0.0
etherihalvibe 0.0
rorreyfenty 0.0
noellaalstrom 0.0
rihturn 0.0
tellar 0.0
esquireuk 0.0
huffpoststyle 0.0
tyronmachhausen 0.0
melottenberg 0.0
paolakudacki 0.0
tompecheuxmu 0.0
lgoldstein_ltd 0.0
phucking 0.0
kudacki 0.0
hellurrr 0.0
tom_ford 0.0
neakah 0.0
creepah 0.0
pahtna 0.0
wontonsan 0.0
cappadonna 0.0
phuckmarqy 0.0
elfies 0.0
starstunning 0.0
ohnana 0.0
tushmagazine 0.0
macxriri 0.0
rickrubin 0.0
findataui 0.0
tristate 0.0
distoyb 0.0
kabukimagicnyc 0.0
yerdme_cmb 0.0
hittas 0.0
evan_erogers 0.0
jessieriri 0.0
unfourgettable 0.0
meeeaan 0.0
shweinsteiger 0.0
goooooooaaaaallllllll 0.0
goooal 0.0
braaaaaaaaaaaaaaaaaa 0.0
asapkoff 0.0
belgiuuuuummm 0.0
druchaos 0.0
cuadrado 0.0
murdaaahhh 0.0
colombiaaaa 0.0
karafenty 0.0
dlsturbla 0.0
braaaaaaaaaaaaaaaaaaaaaa 0.0
abouuuutttt 0.0
takecarerihanna 0.0
nathannavy 0.0
theworidcup 0.0
goooooaaaaaaallllll 0.0
bazaararabia 0.0
bigshitxtalker 0.0
__tatijxo 0.0
lhhatl 0.0
braaaaaaaaaaaa 0.0
rihannanavyrd 0.0
gooooooaaaalllll 0.0
triscastellano 0.0
iiiiiiiiiiiiiiiiiiii 0.0
eatmydaisy 0.0
leggooooal 0.0
yaaaaaassssssss 0.0
prettygirl_sp 0.0
ooohhhhhh 0.0
shiiiiitttt 0.0
roooonnnnnnnneeeeeeeyyyyyy 0.0
muslera 0.0
tadpole 0.0
giusichrisriri 0.0
_xomec 0.0
blockedt 0.0
ooooohhhh 0.0
goooooooaaaaaaalllllllllllllllll 0.0
stefansaxon 0.0
rihannademos 0.0
dragonflycici 0.0
chririh 0.0
rihluminati 0.0
goaaaalllll 0.0
twinzies 0.0
mantlers 0.0
suchaf__cknlady 0.0
glamour_robyn 0.0
adamselman 0.0
sephorafrance 0.0
thefashionlaw 0.0
scout_willis 0.0
quietude 0.0
theblackvoice 0.0
weeeed 0.0
kiiiiss 0.0
dooooon 0.0
miiiiss 0.0
malinsworld 0.0
prompics 0.0
itsalldonn 0.0
goooorrrrrrlllllll 0.0
thenewdaily_ 0.0
wiggin 0.0
stevesoboroff 0.0
pivot_tv 0.0
lapolicefdtn 0.0
scarificing 0.0
whooooose 0.0
sambapologetic 0.0
bellaisevil 0.0
sta_schemin 0.0
i_aim_tyga 0.0
fameisloud 0.0
garcon_rebelle 0.0
itsbreezybiotch 0.0
phaedra 0.0
vivala_stephyy 0.0
_bossmadeg 0.0
kontomitrosnick 0.0
sorrenti 0.0
whenevahhh 0.0
teamvivanco 0.0
heifers 0.0
stevenkolb 0.0
jeremy_brossard 0.0
jordanbrossard 0.0
quilted 0.0
piscesareus 0.0
plumsykes 0.0
cedellamarley 0.0
offish 0.0
urprise 0.0
i_love_riri 0.0
rihannadiva 0.0
javiroo 0.0
frihday 0.0
cuntlifex 0.0
_chris_rated_ 0.0
yewmadcunt 0.0
erinwasson 0.0
balmainparis 0.0
_yadim 0.0
muthaphucka 0.0
onnneeee 0.0
liiiiieeesss 0.0
gautier 0.0
mtvstarsvotes 0.0
zinloves 0.0
chloefrahm 0.0
uprising_create 0.0
uprising_darren 0.0
jonnycrave 0.0
jeff_uprising 0.0
kareemfenty 0.0
daily_rihnavy 0.0
unapologeticunt 0.0
rorrey 0.0
foreverrr 0.0
guyanese 0.0
annndd 0.0
historih 0.0
grandfadda 0.0
arleta 0.0
loreleicakes 0.0
river_island 0.0
finallyyyy 0.0
rodin_thinker 0.0
mrs_toyac 0.0
cheersrihrih 0.0
bangbang 0.0
faiz_fenty 0.0
leandra 0.0
noella 0.0
rasshoooolllleee 0.0
luminati 0.0
inezvinoodh 0.0
visvim 0.0
realne 0.0
sarahfrancus 0.0
tadium 0.0
trapstar 0.0
afrihca 0.0
rihrobyn 0.0
cbsgirlfriend 0.0
shyronnie_rn 0.0
mariamfenty_ 0.0
mizzpmf 0.0
whooooaaaaa 0.0
camkaipink 0.0
yasssssssssssssssssssss 0.0
lunaxskye 0.0
yaaaaasssssss 0.0
niggggaaaaaaa 0.0
breeziechillin 0.0
betologetic 0.0
isusjsjdha 0.0
awffffff 0.0
mcdessikins 0.0
skreets 0.0
pieceofria 0.0
loooool 0.0
craaaazzyyy 0.0
lolarae_xoxo 0.0
stayflysamir 0.0
shotta 0.0
tamarawray 0.0
lauraleehickock 0.0
heauxz 0.0
rihannanavyit 0.0
manilla 0.0
ronnyerickson 0.0
nikofenty 0.0
vincehaycock 0.0
zodiacfacts 0.0
naomiiknows 0.0
wrizzap 0.0
muuuch 0.0
hongkong 0.0
jetlaaaaaagggged 0.0
rasshole 0.0
februharry 0.0
kaşara 0.0
çıkmadı 0.0
dicked 0.0
vinoodh 0.0
rihannasblog 0.0
urihannafansite 0.0
teejay 0.0
stupse 0.0
clapbacks 0.0
niggaaaazzzz 0.0
bwaaahaaaaa 0.0
willheardmusic 0.0
kristennoelgipson 0.0
rsvpgallery 0.0
backout 0.0
bwahhaaa 0.0
errwhurr 0.0
niiiiggaz 0.0
fridayz 0.0
debbycoda 0.0
cabbing 0.0
dolly_cohen 0.0
cowboyz 0.0
friendz 0.0
phucker 0.0
charliebymz 0.0
lynn_ban 0.0
inwardly 0.0
ravening 0.0
whyyyyyyyyyyyy 0.0
thatdamnlala 0.0
adamsellman 0.0
scottland 0.0
kingspleasure 0.0
mikkyekko 0.0
rihannanavide 0.0
saskoktz 0.0
phlawless 0.0
givenchydonc 0.0
mlle_yulia 0.0
oxxoxo 0.0
foreva_rn_ladii 0.0
skinhead 0.0
killaz 0.0
yennifer 0.0
bestofpisces 0.0
smegma 0.0
morganemiller_ 0.0
aa_davis 0.0
beenie 0.0
nickeystaar 0.0
frihannamorocco 0.0
thinketh 0.0
guitarists 0.0
jordriri 0.0
badgalclaudia 0.0
hausofnath 0.0
_abirogerson 0.0
tommykane 0.0
livenationuk 0.0
millenniu 0.0
juuuussttt 0.0
helllooooo 0.0
miiiine 0.0
chaneliman 0.0
blushy 0.0
laetitiacrahay 0.0
rihmix 0.0
dariuscash 0.0
joshkillss 0.0
drunk_cockiness 0.0
firebombfenty 0.0
mooky_mcnasty 0.0
defpenradio 0.0
iamrici 0.0
letcha 0.0
niggerish 0.0
mawazine 0.0
thefashionaddicts 0.0
phierce 0.0
errwhere 0.0
jocking 0.0
niggaaa 0.0
tami_black 0.0
homienadz 0.0
religiosity 0.0
joycemeyer 0.0
brooooklyyyyn 0.0
miiiiine 0.0
dilekkeysan 0.0
marykatrantzou 0.0
allaboutpisces 0.0
jfisherjewelry 0.0
oddhangover 0.0
diggins 0.0
phyliciaghee 0.0
bawsin 0.0
howeverrrrr 0.0
channyyxoxo 0.0
dowwwwnnnnn 0.0
thugbitch 0.0
rihanas 0.0
miiiiiinnneee 0.0
rihwrite 0.0
janiseeaileen 0.0
ratchify 0.0
eeeeeemmmmmm 0.0
pannies 0.0
wooooiiiiiiiiiii 0.0
muhphuckers 0.0
bashment 0.0
whaaaaattttt 0.0
liiifee 0.0
covery 0.0
leeeeaaaavvveeee 0.0
haarrrrrddd 0.0
ismashedriri 0.0
christabslg 0.0
reallll 0.0
peoplez 0.0
wooiiiiii 0.0
slackness 0.0
kevfenty 0.0
woooiii 0.0
tatiana_xo 0.0
fentynavysalute 0.0
ratchettt 0.0
rachael_deanna 0.0
lifeeeeee 0.0
bxdcfjcf 0.0
killled 0.0
asdfghjkjhgtfrdedfghjnhbgvfc 0.0
troy_fenty 0.0
_marrymerihanna 0.0
jkbwdhbwh 0.0
_noellaa 0.0
hunneds 0.0
thekingfly 0.0
dooown 0.0
woooiiiii 0.0
phucked 0.0
kickstand_ohb 0.0
acedemy 0.0
mistercap 0.0
gallest 0.0
sinsofmyfather_ 0.0
dwayneofficial 0.0
_revofev 0.0
joefenty 0.0
thegodlight 0.0
molestmerihanna 0.0
rihannanavyeu 0.0
melina 0.0
terryrichardsonstudio 0.0
_sexxtroversy 0.0
neuroticbxtch 0.0
getcho 0.0
moneyyy 0.0
idillionaire 0.0
yaaaaaaas 0.0
noxx_onite 0.0
phonefancy 0.0
chiefin 0.0
londonfashionwk 0.0
_mayor_ 0.0
rihannanow 0.0
jamrock 0.0
rihannastats 0.0
jenesismagazine 0.0
napmed 0.0
hausofbeyhive_ 0.0
probabily 0.0
badgalelly 0.0
ladylivja 0.0
rihannacomics 0.0
__glitterdick 0.0
chelsey_ba 0.0
stashbox 0.0
thuglife 0.0
highladayz 0.0
brrrap 0.0
kalifah 0.0
marylin 0.0
muthafucker 0.0
stylenetwork 0.0
bvalgari 0.0
oooonly 0.0
fuckyopictures 0.0
amplifydot 0.0
trappat 0.0
soumsluvriri 0.0
ibebossedup 0.0
holerringg 0.0
rihskillerdoll 0.0
equaled 0.0
chefette 0.0
rezilientkas 0.0
blastinggggg 0.0
dammnnn 0.0
lifeandtimes 0.0
hausofjazzy 0.0
kaykispeaks 0.0
condesa 0.0
awaaayyy 0.0
flawle 0.0
mandler 0.0
loudies 0.0
dulcattis 0.0
killaaa 0.0
_loveforrihanna 0.0
yesimkayla 0.0
rollingnostone 0.0
richkunt 0.0
yasssssss 0.0
eriricccccc 0.0
cuntmeout 0.0
sashay 0.0
condragulations 0.0
neverrr 0.0
phasetoo 0.0
fooooorde 0.0
ruunavi 0.0
rihtweet 0.0
ishoobernator 0.0
thirstiest 0.0
j_dimps 0.0
deecosey 0.0
itsrihannasnavy 0.0
muthaphuckin 0.0
