awesome 0.000703527146894
christmas 0.000269853999758
trying 0.000219169391762
launch 0.000119438207027
moment 0.000195870398343
wonderful 8.20630057693e-05
seeing 0.000225159248571
hanging 0.000122796177863
sounds 5.19629258436e-05
contacts 0.0
anybody 3.73465003613e-05
worked 5.26704570009e-05
direct 3.44839852582e-05
others 2.6193098277e-05
currently 8.69060714365e-05
better 0.000530002065976
please 0.000708118731552
social 2.72800948186e-05
anxiety 0.0
around 0.000722730089967
people 0.000746821092966
morning 0.0016228220719
damage 0.0
everything 0.000217991024584
present 2.7578439226e-05
though 5.0441990191e-05
friend 0.000292225855682
watched 0.000164126011539
beautiful 0.000149701840925
demanding 0.0
anything 7.38485048228e-05
tagged 0.0
helped 2.65500085531e-05
thinking 0.000569233165769
finally 0.000222743412692
caught 0.0
believe 0.00031402833785
already 0.000217404233896
couple 0.000132391011158
launches 0.0
chance 0.000387539599261
annual 0.000130253467244
quickly 0.0
growing 0.0
probably 0.000105056234291
changed 2.5911328948e-05
history 9.9801227283e-05
center 0.000253973155423
museum 4.2056099201e-05
behind 0.000168637020992
screaming 0.0
pretty 0.000123746340385
really 0.000557088173937
possibly 0.0
little 0.000362340389826
happiest 0.0
earlier 2.83408763709e-05
forget 0.00100654561796
someone 0.000146507323769
things 0.00043363805398
available 0.000427601635037
perfect 0.000832292838152
different 0.00017231317792
person 9.71464034004e-05
watching 0.000949734030968
exhibit 0.0
passed 0.0
prefer 0.0
minutes 0.00057540696857
travel 5.9226608534e-05
daughter 0.000410043779735
positive 5.74626775513e-05
outside 7.68984514225e-05
looking 0.000990397065526
forward 0.000572311468514
raising 3.45841558931e-05
impression 0.0
wheels 5.02993239063e-05
favorite 0.00205200087051
instead 2.72800948186e-05
appreciate 5.69926054716e-05
couldn 0.000100883980382
remember 9.68848998152e-05
impressive 9.99400255927e-05
vintage 5.51980107166e-05
holidays 0.000172920779466
friends 0.000316578010323
impossible 6.58708720579e-05
everyone 0.00176814942163
always 0.00065045708097
limited 9.55081080219e-05
months 2.52891450787e-05
moving 2.60518016667e-05
meeting 9.9264379031e-05
answer 0.000173712663304
together 9.71464034004e-05
inside 7.56629852866e-05
upstairs 0.0
missed 0.000220949038089
active 0.0
eventually 4.4052946062e-05
longer 0.0
enough 4.89675995858e-05
building 0.00010882432985
enjoying 8.8839912801e-05
london 0.000172861178798
posting 0.000181770266347
recent 3.20158204461e-05
amazing 0.00113533322146
attention 0.0
tomorrow 0.00249478617024
whenever 3.98347595081e-05
feeling 0.000177502418768
excited 0.000733385207283
understand 0.0
following 0.000152556156875
asleep 8.93105050168e-05
learning 3.00251263123e-05
evening 5.54580169697e-05
special 0.000952297604501
secret 0.000189926077535
across 2.7058736419e-05
surprised 2.88893131319e-05
candles 6.68059735129e-05
sophia 0.0
version 0.000267667206861
rather 2.72060824624e-05
showing 0.000155048391338
saying 5.05782901575e-05
thoughts 7.71064314481e-05
exactly 0.000235737884493
getting 0.00111417634787
nothing 0.000145327349723
tweets 0.00018685986541
photos 0.000117155365639
looked 5.50070120605e-05
difficult 0.0
office 0.000576248162094
brought 2.68393934501e-05
biggest 0.000124751534104
thrilled 0.000147601431704
entire 0.000161473716611
something 0.00019376979963
closing 0.000108096359124
anyone 0.000268596760244
taking 0.000363318374307
interesting 0.000134926999879
original 5.73054767398e-05
flying 0.000121776443353
sometimes 0.00037371973082
yesterday 0.000317432534834
serious 0.000207290631584
digital 0.0
wearing 5.68369284186e-05
british 3.52972608993e-05
either 2.64066093023e-05
second 7.32536618847e-05
checking 0.000188354151522
indeed 0.0
island 0.000274279079413
hearing 8.1176209257e-05
staying 3.27486831325e-05
another 0.000628056675699
compare 0.0
bummer 0.0
clothes 0.0
landing 0.0
weekend 0.00120294476293
delivery 0.000177408868114
secretive 0.0
anyway 0.0
recognize 0.0
working 0.000750857973568
bigger 0.0
laughing 0.0
wanted 9.79351991716e-05
clothing 0.0
grateful 6.33151666345e-05
friendship 4.73976552713e-05
family 0.000460203274122
listening 0.000106200034212
stream 0.0
double 8.22864155577e-05
especially 0.0001610363607
shaking 5.61617793527e-05
waiting 7.44482842733e-05
definitely 0.000211825617853
account 0.000142092321046
completely 2.87313387757e-05
thought 9.76715491795e-05
possible 0.000153796902845
simple 0.000225491570685
professional 0.0
members 3.0528789319e-05
business 0.000208978771054
absolutely 0.000181379302636
sending 8.43288028977e-05
introducing 0.0
congrats 0.000839058862813
community 5.97191035136e-05
keeper 0.0
greatest 0.000185347415622
selfie 0.000108738790101
pasadena 0.0
posted 0.000429791075548
saturday 0.000409019030315
designs 0.0
broken 0.0
chicago 0.000889256772781
glimpse 5.49629746767e-05
actually 0.00022334485282
myself 3.17466444279e-05
pajamas 0.0
school 0.000221545514468
throwback 0.000206750668146
thursday 0.000595960565804
selling 0.000132494591789
talented 3.18360360073e-05
celebrate 0.000160600324116
celebrating 0.000115557252528
anniversary 0.000117155365639
contest 0.000473532753613
experiences 4.51170750148e-05
students 0.00016053109156
figure 2.89686904788e-05
featuring 9.44413283737e-05
inspired 0.000380754938325
breeze 7.23736866757e-05
sitting 2.73543352564e-05
playing 4.92323365485e-05
street 0.000348912114851
points 3.10432075047e-05
advice 8.52553926279e-05
memory 3.35045413044e-05
forever 0.0
imagine 0.0
problem 5.19629258436e-05
played 8.1176209257e-05
keeping 0.000108234945676
lovely 6.08882216763e-05
dressed 0.0
chinese 0.0
sunshine 0.0
afternoon 0.000199474119151
notice 3.28418786181e-05
difference 0.0
suppose 0.0
letting 5.95543785463e-05
system 0.0
mutant 0.0
bathroom 0.0
almost 0.000266433474492
details 0.00031773842678
experience 7.58674352362e-05
luckily 0.0
viewed 0.0
living 2.52891450787e-05
weather 0.000123826818832
bright 0.0
launching 0.000118389505642
colors 4.65581625623e-05
monday 0.000531072046653
walked 3.64623276225e-05
pinned 0.0
wanting 0.0
tweeting 0.000470111305791
forgot 9.10791868651e-05
gorgeous 0.000354065109826
herself 0.0
happens 0.000100341083104
learned 5.60659998759e-05
congratulations 0.000240248398384
raised 3.16575833173e-05
mission 3.28418786181e-05
smelled 8.63420957837e-05
unforgettable 0.0
forgotten 7.20642394163e-05
trouble 2.99421967881e-05
channel 0.000206153686203
fantastic 0.000285743935757
loving 0.000314318329332
hardly 0.0
dining 0.00018591484556
complete 5.56092949778e-05
daniel 0.000170439759014
rewarding 0.0
spirit 3.13923585871e-05
finding 0.0
stories 2.6193098277e-05
including 0.000107649144407
somewhere 3.15688502409e-05
conversation 0.0
disrespectful 0.0
making 0.000821304883607
expect 8.71449906921e-05
polite 0.0
brings 0.000116833615717
anytime 7.96695190161e-05
needed 7.75241956691e-05
seriously 0.000294433927547
modern 3.4887191373e-05
welcome 0.000195870398343
moments 0.00012043336918
jacket 0.0
halloween 0.000109062159808
costume 0.0
totally 0.000251609775326
flight 5.80966604614e-05
attached 0.0
finished 0.000347624285746
strong 0.000174652147745
message 0.00012851071908
coming 0.00135273745535
temporary 5.23080704973e-05
challenge 0.000238950076978
achievement 0.0
unlocked 0.0
happen 9.87305050229e-05
celebrated 4.72274001246e-05
giving 0.000367256996894
excellent 3.15688502409e-05
common 2.99421967881e-05
pressed 0.0
company 0.0
change 0.000266433474492
singing 3.23794651317e-05
silver 3.95863964527e-05
august 0.000376045432733
crying 0.0
happened 0.000101979037757
parking 0.0
demand 3.1925760517e-05
sacrifice 0.0
personal 0.000105340914002
beyond 0.0
question 9.89970723076e-05
chicken 0.00226107410237
position 0.0
losing 5.97191035136e-05
respect 5.29564044633e-05
caption 0.0
shouldn 2.89686904788e-05
career 8.43288028977e-05
reason 2.54947594392e-05
explore 0.0
glamorous 0.0
reality 5.76203929327e-05
burned 0.0
without 9.76715491795e-05
problems 0.0
countdown 0.000176211784248
online 0.000416828826667
animals 0.0
buying 6.56837572363e-05
pictures 3.061376649e-05
underneath 0.0
camera 9.49727499518e-05
checked 3.43842294096e-05
heading 0.000201671375265
complex 0.0
sunday 0.00130092010285
nights 3.57144315484e-05
traffic 0.000109062159808
through 3.39892860892e-05
changing 2.96951074118e-05
diapers 0.0
convinced 0.0
capture 0.0
random 0.0
recorded 0.0
november 0.000227298683446
number 9.9264379031e-05
stupid 0.0
grandparents 0.0
recording 3.88563101871e-05
chocolate 0.00081669272062
unless 0.0
calling 5.08520522917e-05
mermaid 0.0
levels 0.0
package 4.34653314916e-05
option 0.0
knowing 0.0
actual 3.21969566604e-05
friday 0.0004664479693
achieve 0.0
winner 0.000242210574916
becomes 6.85697698532e-05
directly 3.9959907857e-05
quality 9.39137858197e-05
father 0.000110313756904
wishes 0.000315688502409
themselves 0.0
asking 0.000179429719986
usually 3.22880380657e-05
period 3.61389535994e-05
resist 0.0
collections 0.0
summer 0.00125387262633
bracelet 0.0
reminded 4.2056099201e-05
dinner 0.00208780421351
single 7.48509204623e-05
catching 0.0
energy 8.64305893991e-05
preview 0.000103451955775
monster 0.0
material 0.0
events 6.00502526247e-05
europe 0.0
holiday 0.00078065469234
emotional 0.0
affects 0.0
holding 5.73054767398e-05
survive 0.0
eating 0.000454134623988
outfit 0.0
missing 7.75241956691e-05
surprise 0.000103645315792
german 0.000291542423384
officially 8.47906128332e-05
french 0.000435820308334
global 0.0
follow 0.00114455126809
design 0.0
improvement 0.0
website 0.000590635559046
breaks 3.1925760517e-05
negative 0.0
official 0.000100070777143
jersey 0.00036652289259
france 3.36007131007e-05
lighter 6.8386277842e-05
thinks 8.47906128332e-05
hospital 0.0
jealous 0.00012217429753
successful 0.0
trending 4.00857097251e-05
leadership 0.0
showed 3.04441108382e-05
attended 4.86243713225e-05
circle 0.0
interested 3.11300220238e-05
effect 3.1925760517e-05
success 0.000136771676282
ladies 0.000298964773787
dreams 3.18360360073e-05
protect 0.0
arguing 0.0
essence 0.0
control 0.0
happier 4.42021168358e-05
likely 3.23794651317e-05
cancel 0.0
project 0.000164126011539
laying 0.0
lesson 0.000101091811069
fridays 7.14288203575e-05
invited 6.81748331666e-05
treating 4.60681591684e-05
allowing 0.0
remote 0.0
opening 0.00210681828004
alcohol 0.0
popular 0.00023186553563
pedestal 0.0
designing 0.0
followed 0.0
enjoyed 0.00020111937143
spectacular 0.000176808467343
recovered 0.0
length 4.77418183102e-05
matters 3.18360360073e-05
factor 0.0
england 7.08017565525e-05
shared 0.0
benefit 0.000151798644775
continues 0.000147658889762
fathers 0.0
kitchen 0.00206575264843
exciting 0.000116193320923
corner 6.91683117863e-05
spring 0.000742960912991
fallen 0.0
victoria 0.0
tornado 0.0
typical 0.0
continue 2.79566417028e-05
creative 0.000102557845291
excuse 0.0
female 0.0
closer 0.00012143891582
accent 0.0
beginning 0.0
sooner 0.0
everywhere 8.66679393957e-05
scenes 0.000123482045613
wishing 3.50913536373e-05
choices 0.0
unpredictable 0.0
become 7.58674352362e-05
photographs 0.0
spread 0.000110614424892
season 0.00138810185733
putting 7.62780784375e-05
annoying 0.0
quietly 5.18926980868e-05
extending 6.53229821281e-05
stance 4.68904575272e-05
sleepy 0.0
returns 0.0
bucket 0.0
condolences 0.0
register 0.0
flowers 0.0
define 0.0
somebody 7.22779071988e-05
chicks 0.0
covering 3.74593389892e-05
repeat 0.0
football 0.000213108775867
brothers 0.0
player 0.0
physical 0.0
series 0.000316022742005
pretend 0.0
fighting 0.0
atlanta 8.38392118021e-05
mexico 0.000104967168693
president 2.69122861018e-05
talking 0.000558591819552
america 0.00121126851672
greats 0.0
everybody 8.95786552704e-05
judgment 0.0
amount 0.0
houston 0.000164994015706
everyday 0.000137536917639
shooter 0.0
attitude 4.28917090825e-05
million 0.000101704104583
honesty 0.0
telling 2.75035060303e-05
pulled 0.000109062159808
attack 0.0
killed 0.000134926999879
horrible 4.12485039266e-05
norman 0.0
salute 0.0
jacksonville 0.0
barackobama 4.67237371179e-05
lilduval 0.0
liquor 7.71545688356e-05
american 0.000719660026849
realist 0.0
remain 3.40874165833e-05
innocent 0.0
pieces 0.0
taught 0.0
golden 0.0
straight 0.000187875754151
forgive 0.0
answers 9.36514515608e-05
product 0.000155425240749
smoking 4.82674610464e-05
created 8.73847023844e-05
record 2.52891450787e-05
weapon 0.0
bottom 3.24712404922e-05
arrangements 0.0
africa 4.02121719735e-05
committed 0.0
journey 3.14804427912e-05
brother 0.0
prayers 0.0
documentary 7.24925267341e-05
addition 4.21933702448e-05
honestly 0.0
velvet 0.000276868337653
country 0.000125088471428
speedy 0.0
dressing 0.00079999177593
employee 5.33789580427e-05
yoooooo 0.0
prayer 0.0
nominated 0.000109062159808
praying 4.97279689924e-05
insane 7.16397256041e-05
illest 0.0
shooting 0.000333032057591
cancer 6.08882216763e-05
australia 0.0
marijuana 0.0
deserve 0.0
legend 6.45760761313e-05
mother 0.000107941599903
murder 0.0
realest 0.0
powerful 0.0
attendance 5.95903198881e-05
wisdom 0.0
breaking 0.000182362611667
bothered 0.0
angeles 8.43867404896e-05
dollars 0.0
soldiers 0.0
performance 0.000112131999752
reading 7.71064314481e-05
videos 0.000124868602081
jordan 4.21933702448e-05
nobody 0.0
politics 0.0
paradise 0.0
blessing 0.0
coolest 0.00017156683633
strippers 0.0
charities 5.69107827791e-05
donate 0.00026124677426
bullshit 0.0
sample 0.0
rocking 0.0
bringing 8.16182473873e-05
deserves 0.0
hilarious 3.21062183121e-05
victim 0.0
stadium 0.000122955634967
funniest 4.42021168358e-05
heaven 7.67631905213e-05
ruined 0.0
honest 9.03250268847e-05
rolling 7.27081065389e-05
became 0.0
driver 0.0
breakfast 0.000395773440896
decision 0.000150959233608
counting 3.43842294096e-05
pressure 6.58708720579e-05
awareness 0.0
dearly 0.0
lastnight 0.0
facebook 0.00103645315792
basketball 0.0
campaign 8.43288028977e-05
twisted 0.0
defined 0.0
discover 0.00012374551178
comments 5.90635559046e-05
giveaway 0.000173051467384
bipolar 0.0
teenage 0.0
williams 0.000502031184933
custom 0.0
singer 0.0
future 7.48509204623e-05
randomly 0.0
angels 0.0
blessed 0.0
sister 0.0
stripper 0.0
dancing 3.39892860892e-05
reigns 0.0
voting 0.000119438207027
niggas 0.0
commercial 0.000132873232794
hating 5.79471147321e-05
boring 0.0
century 0.0
acting 3.46847447783e-05
submit 0.000209598029505
besides 0.0
hiding 0.0
periscope 0.0
breath 8.22329962009e-05
choosing 9.61819387852e-05
lawrence 0.0
instagram 0.00043680927031
detroit 4.49621484166e-05
cousin 0.0
honored 0.000168003565504
dedication 0.0
rockin 0.000391420389789
fucked 0.0
lionelrichie 0.0
talent 0.000161440190328
goodnight 9.27874364347e-05
stores 4.3904693268e-05
drinking 7.20642394163e-05
brazil 0.0
tattoo 0.0
consecutive 0.0
regardless 0.0
staring 0.0
commitment 4.00857097251e-05
seconds 3.23794651317e-05
ohhhhhh 0.0
listen 0.000125088471428
whatever 2.78046474889e-05
wherever 4.63937182174e-05
kicking 0.000136743793721
compete 0.0
lauderdale 0.0
homies 0.0
billion 0.0
belated 5.3160938428e-05
pirate 0.0
shoutout 4.57469410362e-05
grammy 5.71657164067e-05
guilty 4.09852116556e-05
ceiling 0.0
grammys 0.0
absolute 3.55049432458e-05
nelson 0.0
mandela 0.0
bigsean 0.0
handle 0.0
tonite 0.0
cocaine 0.0
promise 0.00020111937143
longest 0.0
generation 0.0
tuesday 0.000330042072363
struggle 3.75727086243e-05
workout 0.000141175019282
character 9.71383953952e-05
mirror 0.0
interview 9.84646730971e-05
buffalo 0.000218920838208
justin 0.0
insights 0.0
winning 0.000180889789894
oxygen 0.0
espnnfl 0.0
charlotte 0.0
accomplished 0.0
defense 0.0
gettin 0.0
arabia 0.0
lmfaooooo 0.0
writing 2.80329999379e-05
soccer 4.80909693926e-05
society 3.34087519018e-05
brooklyn 0.000293919893227
incredible 0.000130611731909
witcho 0.0
celebrity 0.000277104775169
minute 0.000136400474093
foreign 0.0
cherry 0.000744253137992
champs 5.74233766489e-05
murdered 0.0
evidence 0.0
android 0.000223668794165
sneaking 7.71545688356e-05
clearly 3.06990444658e-05
download 3.41859484303e-05
mixtape 0.0
central 3.1925760517e-05
washington 0.000192094922677
veterans 0.0
stronger 0.0
promised 3.97102579235e-05
marcus 0.0
zombie 0.0
throwing 3.97102579235e-05
security 3.21062183121e-05
fastest 0.0
fantasy 0.000459070147348
turning 0.000121102566397
ignore 0.0
fucking 0.0
tickets 0.000351466096916
collector 0.0
prizes 0.00015445309868
december 0.000201604278604
loyalty 0.000110396021433
return 8.03001620582e-05
escape 0.0
yassss 0.0
goddess 0.0
handsome 5.18926980868e-05
language 0.0
motion 0.0
gallery 0.0
movies 3.6246263367e-05
children 7.98660886273e-05
backpack 0.0
potentially 0.0
guardian 0.0
review 0.00031691216113
theaters 5.14843662266e-05
shhhhh 0.0
begins 0.000144843452394
closet 0.0
bodies 0.0
hahaha 4.3320640348e-05
produced 0.0
latest 0.000681020555202
banned 0.0
beyonce 0.0
perform 3.87367516142e-05
lionel 0.0
signed 0.000160165598923
princess 0.0
ghetto 0.0
conditioning 0.0
charity 0.000236559513212
germany 0.0
ronaldo 0.0
married 0.0
millions 0.0
blessings 0.0
diamond 5.49629746767e-05
nephew 0.0
lights 3.4785755421e-05
howard 0.0
turned 0.000106200034212
buckle 0.000152014322729
relevant 0.0
performing 0.0
indian 0.000150897971719
includes 3.60321197082e-05
tricks 5.27307305137e-05
survivor 5.38210071974e-05
diamonds 0.0
collection 0.0
families 9.28701141239e-05
welcoming 4.84452552335e-05
select 0.0
announced 0.000235604212803
granted 0.0
decided 2.89686904788e-05
selfish 0.0
trailer 0.0
reppin 0.0
celebration 6.79785721784e-05
decades 3.88563101871e-05
ultimate 0.000105274060912
incase 0.0
downtown 9.61819387852e-05
seasoning 0.000104826041969
episode 0.00176224810105
mentality 0.0
touching 0.0
retweet 0.000337689489124
goodmorning 0.0
midnight 6.53116935651e-05
expectations 0.0
joining 8.54889082074e-05
reasons 0.0
released 5.63728926713e-05
release 7.96500256592e-05
models 0.0
popped 0.0
within 0.0
standing 2.7653606223e-05
valentines 5.76838224612e-05
justice 0.0
houses 4.95404894237e-05
purchase 4.15147055633e-05
dropped 0.0
conversations 0.0
seattle 4.42021168358e-05
strength 0.0
monica 0.000116964984774
incredibly 3.41859484303e-05
streets 3.56094596917e-05
private 3.10432075047e-05
inspirational 0.0
barbie 0.0
tables 0.000110396021433
affection 0.0
broski 0.0
pissing 0.0
designer 0.0
cooking 0.00252425546074
tattoos 0.0
direction 0.0
readyyyyy 0.0
exclusive 5.74626775513e-05
adrianalima 0.0
fashion 0.0
talkin 0.0
bitches 0.0
nailed 0.0
kitten 0.000212909790706
whomever 0.0
ruthless 0.0
teaching 3.6900357926e-05
chillin 0.0
philly 0.00208255820153
baddest 0.0
cheers 7.49186779784e-05
autumn 0.0
presents 0.0
flawless 0.0
unique 0.0
handed 4.63937182174e-05
taraji 0.0
victory 3.45841558931e-05
tribute 3.32183081986e-05
ballin 0.0
horror 0.0
females 0.0
catfish 0.0
action 0.000129907314609
wouldnt 0.0
recipient 0.0
whitney 0.0
continued 4.15147055633e-05
esther 0.0
letter 2.98595517568e-05
existence 0.0
papers 0.0
winter 0.00013099473253
sessions 0.0
replicating 0.0
foundation 0.0
syndrome 0.0
colorado 0.0
tremendous 4.57469410362e-05
public 0.0
cannot 2.69853999758e-05
brilliant 0.0
illustration 0.0
beware 0.0
globally 6.26056255403e-05
premieres 4.79157613258e-05
streaming 0.0
immigration 0.0
wrapped 0.000136289848744
studio 6.73945407125e-05
february 0.000142437838767
amazon 7.33606944743e-05
border 0.0
huffingtonpost 0.0
francis 0.0
january 0.000100513623913
relationships 0.0
tragic 0.0
secure 0.0
countries 0.0
episodes 0.000218054484536
broadcast 0.0
tickled 0.0
livestream 0.0
potential 6.68175038036e-05
education 6.5126733622e-05
famous 9.99400255927e-05
unknown 0.0
exists 0.0
orders 4.34653314916e-05
microsoft 0.0
ability 0.0
director 0.0
accessible 0.0
correction 0.0
william 4.09852116556e-05
editors 0.0
yellow 0.000224041058857
passionate 4.3904693268e-05
treatment 0.0
ambassador 4.17838815815e-05
thanking 0.0
streamed 0.0
lovers 4.86243713225e-05
wrinkled 0.0
bridge 0.0
magazine 0.000201604278604
sincere 0.0
quotes 0.0
result 0.0
destruction 0.0
edition 3.23794651317e-05
prince 0.0
indiana 4.84452552335e-05
editorial 0.0
emotion 0.0
mistakes 0.0
inspiring 9.79675403476e-05
counter 0.0
disappointing 0.0
edited 0.0
spotlight 0.0
saddest 0.0
production 0.0
header 0.000134382875569
itunes 7.99198157141e-05
guests 0.000303328433168
snakes 0.0
charging 0.0
arriving 0.0
mysteries 0.0
dangerous 0.0
typically 0.0
saving 0.0
universe 0.0
victims 0.0
receive 0.000170437082917
proceeds 0.0
crossed 0.0
received 0.0
limitations 0.0
studying 0.0
conflict 0.0
petition 0.0
milestones 0.0
outstanding 0.000166058822253
devastating 0.0
installment 0.0
signature 0.000209232281989
mistletoe 0.0
awards 0.000126275400964
shelves 0.0
smells 5.29448741726e-05
themed 0.000229693506596
sisters 0.000138204477505
banquet 0.0
danger 0.0
leading 0.0
member 2.84184642093e-05
dominant 0.0
distinguish 0.0
factories 0.0
distinct 7.60071613646e-05
distance 0.0
confirmed 7.03881745624e-05
behavior 0.0
collect 5.20994890818e-05
vanity 0.0
junior 4.82674610464e-05
communities 0.0
worldwide 4.02121719735e-05
canada 6.43939133208e-05
recognized 0.0
vessels 0.0
movement 0.0
segment 0.000434407149418
internal 5.02993239063e-05
information 0.0
easily 7.12189193835e-05
towards 7.03881745624e-05
october 0.000304147945559
belgium 0.0
european 0.0
caribbean 0.000211558854009
cities 7.24925267341e-05
arrives 0.0
extraordinary 0.0
exquisite 0.0
argentina 0.0
eliminate 0.0
genius 0.00016053109156
prepared 3.65710908004e-05
anthony 0.0
breakthrough 0.0
berlin 0.0
batman 0.0
upcoming 0.000273487587442
upgrade 0.0
singapore 0.0
crucial 0.0
scratch 0.000207570792347
collaboration 0.0
tested 0.0
acquire 0.0
honoring 0.0
holland 0.0
visually 0.0
neyocompound 0.0
inspire 0.0
ebonymag 0.0
spiketv 0.0
constant 0.0
sunset 4.65581625623e-05
tuning 0.0
gentleman 0.000105461461027
fulfilling 0.0
ayeeeee 0.0
stratford 0.0
poland 0.0
philippines 0.0
kickin 0.000141939860471
theweeknd 0.0
september 0.000169457768457
manchester 0.0
rickyrozay 0.0
remarkable 0.0
rihanna 0.0
disgusted 0.0
immoral 0.0
process 0.0
goosebumps 0.0
performances 9.47953105426e-05
strangers 0.0
emotions 0.0
judgement 0.0
comparing 0.0
thuggin 0.0
studios 5.16876670364e-05
jennifer 0.0
performer 0.0
literally 0.0
cardiff 0.0
soooooooo 0.0
crashed 0.0
cthagod 0.0
closed 6.87684588193e-05
justinbieber 0.0
complexmag 0.0
billboard 0.0
airing 0.000581343062802
albums 0.0
sweden 0.0
katyperry 0.0
treats 0.0
missouri 0.0
thefader 0.0
soundtrack 0.0
theellenshow 0.0
sweets 0.0
festival 0.00042605931895
wizkhalifa 0.0
amsterdam 0.0
backstage 4.34653314916e-05
collab 0.0
subscribed 0.0
joined 5.93902148236e-05
davidguetta 0.0
pushing 0.0
hopeful 0.0
romantic 0.0
mentions 0.0
lurking 8.09663438198e-05
ballad 0.0
teamed 0.00031963005465
exclusively 0.0
kingjames 0.0
hollyrpeete 0.0
sneakers 0.0
auction 0.0
sneaker 0.0
djkhaled 0.0
express 0.0
thegrammys 0.0
throughout 0.000153057455485
shining 0.0
excellence 0.0
thrown 0.0
zendaya 0.0
playin 0.0
applemusic 0.0
crunch 6.60530683936e-05
capitalofficial 0.0
filmed 0.0
toronto 0.00021516919653
naomicampbell 0.0
trvisxx 0.0
killin 0.000124573069486
trucks 0.0
stands 3.35045413044e-05
platinum 6.26056255403e-05
native 4.89866488712e-05
spotify 0.0
rocked 5.06878968947e-05
jumped 4.88048291176e-05
leebruhgreene 0.0
leaning 6.04559580301e-05
featured 7.58321082921e-05
announce 8.40989998138e-05
senior 0.0
iamdiddy 0.0
haters 0.0
nothin 0.0
appreciation 0.0
defjamrecords 0.0
floating 0.0
superstars 0.0
shondarhimes 0.0
premiere 0.000983514193961
orchestral 0.0
makeup 0.0
touched 0.0
newest 0.000116929395194
designed 0.0
passes 0.0
angelasimmons 0.0
tidalhifi 0.0
vashtie 0.0
delivered 3.92185877358e-05
owning 0.0
producer 4.37573472246e-05
balmain 0.0
legendary 0.000115853350369
independence 0.0
mtvmusicuk 0.0
audition 0.00019177803279
debuts 5.54353624197e-05
footage 0.0
marshall 0.0
spends 0.0
playtime 0.0
completed 0.0
dishes 0.00115996572885
photographed 0.0
bubble 4.55879239374e-05
belong 0.0
tongue 0.0
observing 0.0
consistent 0.0
posing 0.0
heavens 0.0
contemporary 0.0
aiming 0.0
ceremony 0.0
brighter 0.0
rainbow 0.0
matthew 0.0
phenomenal 0.0
affected 3.72341877896e-05
rivers 0.0
presenting 0.0
competitive 4.84452552335e-05
eskimo 0.0
sibling 0.0
dakota 0.0
printed 0.0
heroes 0.0
deepest 5.56750758702e-05
describe 3.49890562309e-05
hollywood 7.10098864916e-05
baggage 0.0
terrifying 0.0
animation 0.0
nationwide 5.54353624197e-05
capital 0.0
quantity 0.0
nominations 0.0
mountains 0.0
mosaic 0.0
realise 0.0
overload 0.0
photographer 0.0
depression 0.0
donation 4.0854636794e-05
marvelous 8.02876791383e-05
madonna 6.8386277842e-05
sailed 0.0
terror 0.0
rinsed 0.0
disorder 0.0
polish 0.0
represents 0.0
touchdown 0.0
creates 0.0
oxford 0.0
stitched 0.0
morocco 8.31251906035e-05
thrill 0.0
balloons 0.0
teaming 6.39260109301e-05
latimes 0.0
kerrywashington 0.0
caution 0.0
camouflage 0.0
approaching 0.0
generous 4.59070147348e-05
installation 0.0
benefiting 7.18966215221e-05
basics 6.8386277842e-05
confirm 0.0
thrilling 6.75831700414e-05
photography 0.0
matches 5.44996718788e-05
boundaries 0.0
singles 0.0
laptop 0.0
obvious 4.0854636794e-05
darling 0.0
celebrations 0.0
chewbacca 0.0
underwater 0.0
naughty 6.01639422972e-05
advised 0.0
feelin 0.0
macaroni 0.0
perfection 0.000112817737458
picasso 0.0
recipe 0.00301795943438
radical 0.0
volcano 0.0
planted 0.0
products 0.000131272041674
directed 0.0
grabbed 0.0
frames 0.0
casual 0.00017626413002
scheming 0.0
twickenham 0.0
bbcnews 0.0
pledge 0.0
subtle 0.0
embarrassed 0.0
snatch 0.0
unveiling 0.0
kissed 0.0
arguments 0.0
settling 0.0
desperate 9.18140294696e-05
executive 0.0
humbled 0.0
courage 0.0
dropping 3.64623276225e-05
carried 0.000102968732453
behalf 0.0
hardest 0.0
marking 0.0
vision 3.57144315484e-05
intervention 0.0
records 0.000146284363202
deeply 0.0
mannered 0.0
texted 0.0
israeli 0.0
strongest 0.0
rogers 0.0
concept 0.0
allegiance 0.0
belongs 0.0
intended 0.0
bosses 0.0
purpose 0.0
hottest 0.000141682200374
campaigns 0.0
sunderland 0.0
teenager 0.0
runway 0.0
steven 0.0
guitar 0.0
donating 0.000174443587629
applause 0.0
finale 0.000552113657862
wasted 0.0
absent 0.0
awhile 0.0
fierce 0.0
sincerely 0.0
apology 0.0
climbing 0.0
unwilling 0.0
protesting 0.0
bikini 0.0
friendships 0.0
matching 0.0
wolves 0.0
mosque 0.0
venezuela 0.0
donates 7.05196180029e-05
generations 0.0
underestimate 0.0
pardon 0.0
stickers 0.0
mothers 0.0
deeper 0.0
nipple 0.0
perfume 0.0
noodle 8.63420957837e-05
melissa 0.000175447477161
forest 5.27307305137e-05
panties 0.0
jimmykimmel 0.000237234202236
everytime 0.0
underdog 0.0
shoulders 0.000125211251081
wrapping 0.0
bedroom 0.0
glitter 0.0
stocking 0.0
annoyed 0.0
behave 0.0
goodbye 0.0
fuckin 0.0
seller 0.000143793243044
joshgroban 0.0
samsungmobileus 0.0
influential 0.0
slicing 0.0
ryanseacrest 0.0
farmer 0.0
teaser 0.0
styled 0.0
casting 0.000121503113735
imitated 0.0
forgiveness 0.0
perezhilton 0.0
blacked 0.0
paparazzi 0.0
peoplemag 0.0
rolled 5.10828402152e-05
vanityfair 0.0
rockstar 0.0
thousand 0.0
minded 0.0
shines 0.0
sunglasses 0.0
auntie 0.0
magazines 7.43824332667e-05
waited 0.0
denmark 0.0
leather 0.0
wished 0.0
ladygaga 0.0
swallow 0.0
glblctzn 0.0
shakira 0.0
accessories 0.0
nbcthevoice 0.0
clique 0.0
premiering 0.0
loooooove 0.0
weareheremvmt 0.0
looooove 0.0
vmagazine 0.0
popcrush 0.0
studded 0.0
yassssss 0.0
yessss 0.0
undeniable 0.0
unicef 7.14288203575e-05
auditions 0.0
ellemagazine 0.0
yasssss 0.0
pharrell 0.0
greece 0.000119180639776
papermagazine 0.0
nowwwww 0.0
maccosmetics 0.0
macaidsfund 0.0
lipstick 0.0
meeeee 0.0
newsstands 0.0
unapologetically 0.0
insidebates 0.0
legalize 0.0
loooove 0.0
caradelevingne 0.0
allllll 0.0
badgalriri 0.0
itsjeremyscott 0.0
nickiminaj 0.000143793243044
nipples 0.0
booooo 0.0
trippy 0.0
mikewillmadeit 0.0
puttin 0.0
trappin 0.0
alexanderwangny 0.0
karllagerfeld 0.0
celebratin 0.0
lilyallen 0.0
fuuuuuck 0.0
chanel 0.0
rubber 0.0
angelou 0.0
misses 0.0
harpersbazaarus 0.0
timberlake 0.0
photoshopped 0.0
whatchu 9.83632934631e-05
rehearsals 0.0
couture 0.0
mutual 0.0
creeper 0.0
cuddling 0.0
celine 8.63420957837e-05
theamas 0.0
thexfactor 0.0
websterhall 0.0
presale 0.0
deluxe 7.18966215221e-05
styles 0.0
wetten 0.0
shittttttttttt 0.0
boredom 0.0
darealamberrose 0.0
noooooooo 0.0
itunesmusic 0.0
cbstweet 0.0
thermal 0.0
mariners 0.0
torres 9.10810440723e-05
thebeatles 0.0
blondies 0.0
greeting 0.0
thecut 0.0
geeked 0.0
outlet 0.0
americanexpress 0.0
gqmagazine 0.000291441560633
nicole 0.0
bumped 6.07515568675e-05
hangover 0.000129228744263
stockholm 0.0
casually 0.0
esquire 0.0
winnipeg 0.0
begging 0.0
showroom 0.0
sleeves 0.0
smelling 0.0
guaranteed 0.0
obsession 0.000151478480936
attendant 0.0
aussie 6.32567733679e-05
tbsveryfunny 0.0
reservation 0.0
mollymcnearney 0.0
dragging 0.0
rocnation 0.0
tapered 0.0
badass 5.3160938428e-05
endlessly 0.0
vampires 0.0
viewers 0.0
kanyewest 0.0
designers 0.0
billboards 0.0
backstreetboys 0.0
monteith 0.0
e_fashionpolice 0.0
epically 0.0
internationally 0.0
mighty 0.0
jcolenc 0.0
semifinals 0.0
brasilia 0.0
tailgating 0.0
photoshoot 0.0
smokin 0.0
ahhhhhh 8.16646826575e-05
missin 0.0
sweats 0.0
impacted 0.0
rodriguez 7.00775688482e-05
musician 0.0
merchandise 0.0
jurgen 0.0
athleteally 0.0
originals 0.0
número 0.0
zealand 0.0
hehehe 0.0
fearless 0.0
stadiums 0.0
thiago 0.0
suarez 9.00557402737e-05
cropped 0.0
uruguay 0.0
apparel 0.0
staircase 0.0
wintour 0.0
spotting 0.0
polygraph 0.0
twerking 0.0
shipment 0.0
muggin 0.0
takeoff 0.0
thailand 0.0
tomorr 0.0
googleplay 0.0
budweiser 0.0
miafestival 0.0
dotted 0.0
burning 0.0
surpass 0.0
betcha 0.0
onairwithryan 0.0
dreamers 0.0
brunomars 0.0
beyoncé 0.0
hellooo 0.0
subscribers 0.0
preorder 0.000184982277666
believer 0.0
fragrance 0.0
hellooooo 0.0
majesty 0.0
beatsbydre 0.0
finland 0.0
fearnecotton 0.0
debuted 0.0
queued 0.0
rhetorical 0.0
iranian 0.0
infamous 0.0
brutally 0.0
execution 0.0
palestinian 0.0
transplant 0.0
audacity 0.0
foreplay 0.0
priced 0.0
huntington 9.00557402737e-05
manger 0.0
weaker 0.0
justintrudeau 0.0
creeping 0.0
fittest 0.0
hoodie 0.0
mankind 0.0
westwood 0.0
holographic 0.0
throwin 8.81274311631e-05
eminem 0.0
ecstatic 0.0
enjoys 0.0
wussup 0.0
duplicated 0.0
crotch 0.0
congrat 0.0
huggin 0.0
implement 0.0
penalizing 0.0
gonzalez 0.0
bitchin 0.0
sephora 0.0
damien 0.0
demanded 0.0
negativity 0.0
alancarr 0.0
skillz 0.0
hopeless 0.0
beatle 0.0
cheesecake 0.000235078110083
almighty 0.0
whatcha 0.0
slumber 0.0
chimney 9.32726454538e-05
headlining 0.0
perplexed 0.0
googleplaymusic 0.0
thrills 0.0
rollers 0.0
bravotv 0.0
gifted 0.0
kekepalmer 0.0
styledtorock 0.0
yooouuu 0.0
shantay 0.0
yaaaas 0.0
bestest 0.0
freestyle 0.0
everrrrr 0.0
sweatband 0.0
podolski 0.0
collaborating 0.0
bestfriend 0.0
sittin 0.0
whaaaat 0.0
clockwork 0.0
warmest 0.0
temptation 0.0
spiritual 0.0
chameleon 0.0
customised 0.0
acrylic 0.0
grasshopper 0.0
engages 0.0
gourmet 9.69862899438e-05
rhythmic 0.0
petals 0.0
klinsmann 0.0
directv 0.0
popcrave 0.0
versailles 9.9823801409e-05
raddest 0.0
grandfather 5.54353624197e-05
persie 0.0
webster 0.0
knight 0.0
footwear 0.0
collectors 0.0
blackout 0.0
skylight 0.0
hammock 0.0
playhouse 9.9823801409e-05
revelers 0.0
executed 0.0
cincinnati 0.000133611947026
simultaneously 0.0
malawi 0.0
graduated 0.0
sickening 0.0
mueller 0.0
elonjames 0.0
skeletons 0.0
mittromney 0.0
connecticut 0.000134382875569
cumulative 0.0
racked 0.0
valera 0.0
thighs 8.54967106929e-05
timely 0.0
rapping 0.0
shrugs 0.0
enables 0.0
psychic 0.0
fernando 0.0
tourism 0.0
slaughtered 0.0
devotion 0.0
fantasies 0.0
parsons 0.0
stella 0.0
complainers 0.0
newsstand 0.0
voguemagazine 7.14288203575e-05
westfield 0.0
manolo 0.0
turquoise 0.0
parisian 0.0
childs 0.0
swimsuit 0.0
bazaar 0.0
empress 0.0
brainstorm 0.0
tanning 0.0
desirable 0.0
feathers 0.0
antics 0.0
featurette 0.0
olivier 0.0
helloooo 0.0
hallow 0.0
connie 0.0
upbringing 0.0
privatize 0.0
bittersweet 7.9627610369e-05
outlaw 0.0
marcel 0.0
nowwww 0.0
hushed 0.0
threshold 0.0
floats 0.0
barbados 0.0
manuelcav 0.0
niggaz 0.0
prayin 0.0
drizzyxcole 0.0
homegirl 0.0
rappin 0.0
witcha 0.0
mufasa 0.0
dainternz 0.0
lololol 0.0
barclayscenter 0.0
bestbuy 0.000206081413178
blackouts 0.0
rivera 0.0
jakemiosge 0.0
givenchy 0.0
riccardo 0.0
grossed 0.0
guetta 0.0
spicewon 0.0
bitche 0.0
shawty 0.0
wednesdays 0.0
payday 0.0
jewelers 0.0
romero 0.0
acknowledging 0.0
calypso 0.0
blushes 0.0
medusa 0.0
keepers 0.0
futuristic 0.0
whereabouts 0.0
slayed 0.0
asvpxrocky 0.0
haaaaa 0.0
inezandvinoodh 0.0
calvinharris 0.0
_maxwell_ 0.0
bwerde 0.0
edward_enninful 0.0
haaaaaa 0.0
wisest 0.0
unconditionally 0.0
drmayaangelou 0.0
blackgirlsrock 0.0
submissive 0.0
rearrange 0.0
attuned 0.0
abrams 0.0
awaken 0.0
climbs 0.0
jacking 0.0
seventy 0.0
snatching 0.0
manoloblahnik 0.0
nicolerichie 0.0
openingceremony 0.0
whiteley 0.0
supermodel 0.0
the_real_iman 0.0
minogue 0.0
tmagazine 0.0
baaaaack 0.0
yeessss 0.0
wooooo 0.0
epicness 0.0
takawiraa 0.0
joplin 0.0
uncensored 0.0
unspeakable 0.0
rewrites 0.0
askdrruth 0.0
glozell 0.0
tardiness 0.0
runways 0.0
colombian 0.0
unapologetic 0.0
zac_posen 0.0
rumoured 0.0
omgggg 0.0
futbol 0.0
biatch 0.0
barrington 0.0
catwalk 0.0
sledgehammer 0.0
clemente 0.0
dollaz 0.0
mariah 0.0
granddad 0.0
iyanlavanzant 0.0
hustler 0.0
coletteparis 0.0
flexin 0.0
mistress 0.0
exceeds 0.0
sweeeeeet 0.0
stancesocks 0.0
serviced 0.0
issssss 0.0
lipglass 0.0
externally 0.0
complex_uk 0.0
prideful 0.0
dash_radio 0.0
holidaze 0.0
mawnin 0.0
champagnepapi 0.0
fashawn 0.0
raided 0.0
ahhhhhhhh 0.0
soulmate 0.0
motorbikes 0.0
britishvogue 0.0
gnlstudios 0.0
robinsoncano 0.0
debuting 8.02876791383e-05
cc_sabathia 0.0
colorways 0.0
hit_boy 0.0
_spyda 0.0
phresh 0.0
dominates 0.0
ratchet 0.0
rupaul 0.0
cockpit 0.0
kimmiekyees 0.0
horoscope 0.0
catwalks 0.0
paramedic 0.0
fhollande 0.0
sexiness 0.0
hereeee 0.0
changers 0.0
tiptoes 0.0
revved 0.0
meditative 0.0
fauntleroy 0.0
mbsings 0.0
disrespectfully 0.0
traumatized 0.0
outdid 0.0
elvispresley 0.0
toupee 0.0
josephine 0.0
discography 0.0
mariasharapova 0.0
chinchilla 0.0
skylar 0.0
illestbaba 0.0
georgiamjagger 0.0
pierced 0.0
hardrock 0.0
snorkeling 0.0
thrilla 0.0
gunpoint 0.0
sleeved 0.0
stevestoute 0.0
kiiiiiiiiiiiiinnnngggggg 0.0
lanvin 0.0
chateau 0.0
lizzs_lockeroom 0.0
prophets 0.0
müller 0.0
lullaby 0.0
samersum 0.0
disassembled 0.0
anniversaries 0.0
hayden_williams 0.0
rousteing 0.0
slayage 0.0
raunchy 0.0
benzema 0.0
fuckery 0.0
hellooooooo 0.0
juliagillard 0.0
congeniality 0.0
gunned 0.0
condense 0.0
missjillscott 0.0
yussss 0.0
chopard 0.0
woodbridge 0.00026644204604
orousteing 0.0
dubsmash 0.0
alicialquarles 0.0
worldmcqueen 0.0
whateva 0.0
elysées 0.0
jennnrosales 0.0
xstrology 0.0
looool 0.0
tippin 0.0
marleys 0.0
dwanimation 0.0
dreamworks 0.0
yaself 0.0
anothermagazine 0.0
claralionelfdn 0.0
mchingi 0.0
rihannareplay 0.0
awtguide 0.0
ryannavy_rih 0.0
rihquest 0.0
gpforeducation 0.0
valliniandre 0.0
globalfund 0.0
rhenna 0.0
millymaefenty 0.0
peetes 0.0
pandagunda 0.0
floriamamaroma 0.0
adoringrihanna 0.0
ymcofficial 0.0
rihanti_ 0.0
mcdean 0.0
rihannadaily 0.0
stancemuse 0.0
muhtean 0.0
rihdefine 0.0
officialdonnie 0.0
stunnafenty 0.0
perfumesbyriri 0.0
badgal 0.0
shaninamshaik 0.0
reblrihanna 0.0
elliscole_ 0.0
itskaitbh 0.0
harpersbazaarcn 0.0
yusefhairnyc 0.0
mylahmorales 0.0
teamofrihanna 0.0
muhphucka 0.0
harpersbazaar 0.0
rihrihfreak 0.0
thenbacentral 0.0
roversi 0.0
suchaf_cknlady 0.0
fourfiveseconds 0.0
petergrayhair 0.0
wkorea 0.0
dennisleupold 0.0
ursulastephen 0.0
ozzysalvatierra 0.0
ciarrap 0.0
rihannaargntina 0.0
rihearsal 0.0
sremmurd 0.0
id_magazine 0.0
heauxm 0.0
rihpost 0.0
jrgseul 0.0
bitchez 0.0
underst_navy 0.0
sonitaalex 0.0
chris_walden 0.0
danachanel 0.0
wednesdayz 0.0
jimmyfenty 0.0
houseoffraser 0.0
skeete 0.0
_kailssss 0.0
muhphuckas 0.0
phuckin 0.0
rastafarih 0.0
obviiii 0.0
etherihalvibe 0.0
rorreyfenty 0.0
noellaalstrom 0.0
rihturn 0.0
tellar 0.0
esquireuk 0.0
huffpoststyle 0.0
tyronmachhausen 0.0
melottenberg 0.0
paolakudacki 0.0
tompecheuxmu 0.0
lgoldstein_ltd 0.0
phucking 0.0
kudacki 0.0
hellurrr 0.0
tom_ford 0.0
neakah 0.0
creepah 0.0
pahtna 0.0
wontonsan 0.0
cappadonna 0.0
phuckmarqy 0.0
elfies 0.0
starstunning 0.0
ohnana 0.0
tushmagazine 0.0
macxriri 0.0
rickrubin 0.0
findataui 0.0
tristate 0.0
distoyb 0.0
kabukimagicnyc 0.0
yerdme_cmb 0.0
hittas 0.0
evan_erogers 0.0
jessieriri 0.0
unfourgettable 0.0
meeeaan 0.0
shweinsteiger 0.0
goooooooaaaaallllllll 0.0
goooal 0.0
braaaaaaaaaaaaaaaaaa 0.0
asapkoff 0.0
belgiuuuuummm 0.0
druchaos 0.0
cuadrado 0.0
murdaaahhh 0.0
colombiaaaa 0.0
karafenty 0.0
dlsturbla 0.0
braaaaaaaaaaaaaaaaaaaaaa 0.0
abouuuutttt 0.0
takecarerihanna 0.0
nathannavy 0.0
theworidcup 0.0
goooooaaaaaaallllll 0.0
bazaararabia 0.0
bigshitxtalker 0.0
__tatijxo 0.0
lhhatl 0.0
braaaaaaaaaaaa 0.0
rihannanavyrd 0.0
gooooooaaaalllll 0.0
triscastellano 0.0
iiiiiiiiiiiiiiiiiiii 0.0
eatmydaisy 0.0
leggooooal 0.0
yaaaaaassssssss 0.0
prettygirl_sp 0.0
ooohhhhhh 0.0
shiiiiitttt 0.0
roooonnnnnnnneeeeeeeyyyyyy 0.0
muslera 0.0
tadpole 0.0
giusichrisriri 0.0
_xomec 0.0
blockedt 0.0
ooooohhhh 0.0
goooooooaaaaaaalllllllllllllllll 0.0
stefansaxon 0.0
rihannademos 0.0
dragonflycici 0.0
chririh 0.0
rihluminati 0.0
goaaaalllll 0.0
twinzies 0.0
mantlers 0.0
suchaf__cknlady 0.0
glamour_robyn 0.0
adamselman 0.0
sephorafrance 0.0
thefashionlaw 0.0
scout_willis 0.0
quietude 0.0
theblackvoice 0.0
weeeed 0.0
kiiiiss 0.0
dooooon 0.0
miiiiss 0.0
malinsworld 0.0
prompics 0.0
itsalldonn 0.0
goooorrrrrrlllllll 0.0
thenewdaily_ 0.0
wiggin 0.0
stevesoboroff 0.0
pivot_tv 0.0
lapolicefdtn 0.0
scarificing 0.0
whooooose 0.0
sambapologetic 0.0
bellaisevil 0.0
sta_schemin 0.0
i_aim_tyga 0.0
fameisloud 0.0
garcon_rebelle 0.0
itsbreezybiotch 0.0
phaedra 0.0
vivala_stephyy 0.0
_bossmadeg 0.0
kontomitrosnick 0.0
sorrenti 0.0
whenevahhh 0.0
teamvivanco 0.0
heifers 0.0
stevenkolb 0.0
jeremy_brossard 0.0
jordanbrossard 0.0
quilted 0.0
piscesareus 0.0
plumsykes 0.0
cedellamarley 0.0
offish 0.0
urprise 0.0
i_love_riri 0.0
rihannadiva 0.0
javiroo 0.0
frihday 0.0
cuntlifex 0.0
_chris_rated_ 0.0
yewmadcunt 0.0
erinwasson 0.0
balmainparis 0.0
_yadim 0.0
muthaphucka 0.0
onnneeee 0.0
liiiiieeesss 0.0
gautier 0.0
mtvstarsvotes 0.0
zinloves 0.0
chloefrahm 0.0
uprising_create 0.0
uprising_darren 0.0
jonnycrave 0.0
jeff_uprising 0.0
kareemfenty 0.0
daily_rihnavy 0.0
unapologeticunt 0.0
rorrey 0.0
foreverrr 0.0
guyanese 0.0
annndd 0.0
historih 0.0
grandfadda 0.0
arleta 0.0
loreleicakes 0.0
river_island 0.0
finallyyyy 0.0
rodin_thinker 0.0
mrs_toyac 0.0
cheersrihrih 0.0
bangbang 0.0
faiz_fenty 0.0
leandra 0.0
noella 0.0
rasshoooolllleee 0.0
luminati 0.0
inezvinoodh 0.0
visvim 0.0
realne 0.0
sarahfrancus 0.0
tadium 0.0
trapstar 0.0
afrihca 0.0
rihrobyn 0.0
cbsgirlfriend 0.0
shyronnie_rn 0.0
mariamfenty_ 0.0
mizzpmf 0.0
whooooaaaaa 0.0
camkaipink 0.0
yasssssssssssssssssssss 0.0
lunaxskye 0.0
yaaaaasssssss 0.0
niggggaaaaaaa 0.0
breeziechillin 0.0
betologetic 0.0
isusjsjdha 0.0
awffffff 0.0
mcdessikins 0.0
skreets 0.0
pieceofria 0.0
loooool 0.0
craaaazzyyy 0.0
lolarae_xoxo 0.0
stayflysamir 0.0
shotta 0.0
tamarawray 0.0
lauraleehickock 0.0
heauxz 0.0
rihannanavyit 0.0
manilla 0.0
ronnyerickson 0.0
nikofenty 0.0
vincehaycock 0.0
zodiacfacts 0.0
naomiiknows 0.0
wrizzap 0.0
muuuch 0.0
hongkong 0.0
jetlaaaaaagggged 0.0
rasshole 0.0
februharry 0.0
kaşara 0.0
çıkmadı 0.0
dicked 0.0
vinoodh 0.0
rihannasblog 0.0
urihannafansite 0.0
teejay 0.0
stupse 0.0
clapbacks 0.0
niggaaaazzzz 0.0
bwaaahaaaaa 0.0
willheardmusic 0.0
kristennoelgipson 0.0
rsvpgallery 0.0
backout 0.0
bwahhaaa 0.0
errwhurr 0.0
niiiiggaz 0.0
fridayz 0.0
debbycoda 0.0
cabbing 0.0
dolly_cohen 0.0
cowboyz 0.0
friendz 0.0
phucker 0.0
charliebymz 0.0
lynn_ban 0.0
inwardly 0.0
ravening 0.0
whyyyyyyyyyyyy 0.0
thatdamnlala 0.0
adamsellman 0.0
scottland 0.0
kingspleasure 0.0
mikkyekko 0.0
rihannanavide 0.0
saskoktz 0.0
phlawless 0.0
givenchydonc 0.0
mlle_yulia 0.0
oxxoxo 0.0
foreva_rn_ladii 0.0
skinhead 0.0
killaz 0.0
yennifer 0.0
bestofpisces 0.0
smegma 0.0
morganemiller_ 0.0
aa_davis 0.0
beenie 0.0
nickeystaar 0.0
frihannamorocco 0.0
thinketh 0.0
guitarists 0.0
jordriri 0.0
badgalclaudia 0.0
hausofnath 0.0
_abirogerson 0.0
tommykane 0.0
livenationuk 0.0
millenniu 0.0
juuuussttt 0.0
helllooooo 0.0
miiiine 0.0
chaneliman 0.0
blushy 0.0
laetitiacrahay 0.0
rihmix 0.0
dariuscash 0.0
joshkillss 0.0
drunk_cockiness 0.0
firebombfenty 0.0
mooky_mcnasty 0.0
defpenradio 0.0
iamrici 0.0
letcha 0.0
niggerish 0.0
mawazine 0.0
thefashionaddicts 0.0
phierce 0.0
errwhere 0.0
jocking 0.0
niggaaa 0.0
tami_black 0.0
homienadz 0.0
religiosity 0.0
joycemeyer 0.0
brooooklyyyyn 0.0
miiiiine 0.0
dilekkeysan 0.0
marykatrantzou 0.0
allaboutpisces 0.0
jfisherjewelry 0.0
oddhangover 0.0
diggins 0.0
phyliciaghee 0.0
bawsin 0.0
howeverrrrr 0.0
channyyxoxo 0.0
dowwwwnnnnn 0.0
thugbitch 0.0
rihanas 0.0
miiiiiinnneee 0.0
rihwrite 0.0
janiseeaileen 0.0
ratchify 0.0
eeeeeemmmmmm 0.0
pannies 0.0
wooooiiiiiiiiiii 0.0
muhphuckers 0.0
bashment 0.0
whaaaaattttt 0.0
liiifee 0.0
covery 0.0
leeeeaaaavvveeee 0.0
haarrrrrddd 0.0
ismashedriri 0.0
christabslg 0.0
reallll 0.0
peoplez 0.0
wooiiiiii 0.0
slackness 0.0
kevfenty 0.0
woooiii 0.0
tatiana_xo 0.0
fentynavysalute 0.0
ratchettt 0.0
rachael_deanna 0.0
lifeeeeee 0.0
bxdcfjcf 0.0
killled 0.0
asdfghjkjhgtfrdedfghjnhbgvfc 0.0
troy_fenty 0.0
_marrymerihanna 0.0
jkbwdhbwh 0.0
_noellaa 0.0
hunneds 0.0
thekingfly 0.0
dooown 0.0
woooiiiii 0.0
phucked 0.0
kickstand_ohb 0.0
acedemy 0.0
mistercap 0.0
gallest 0.0
sinsofmyfather_ 0.0
dwayneofficial 0.0
_revofev 0.0
joefenty 0.0
thegodlight 0.0
molestmerihanna 0.0
rihannanavyeu 0.0
melina 0.0
terryrichardsonstudio 0.0
_sexxtroversy 0.0
neuroticbxtch 0.0
getcho 0.0
moneyyy 0.0
idillionaire 0.0
yaaaaaaas 0.0
noxx_onite 0.0
phonefancy 0.0
chiefin 0.0
londonfashionwk 0.0
_mayor_ 0.0
rihannanow 0.0
jamrock 0.0
rihannastats 0.0
jenesismagazine 0.0
napmed 0.0
hausofbeyhive_ 0.0
probabily 0.0
badgalelly 0.0
ladylivja 0.0
rihannacomics 0.0
__glitterdick 0.0
chelsey_ba 0.0
stashbox 0.0
thuglife 0.0
highladayz 0.0
brrrap 0.0
kalifah 0.0
marylin 0.0
muthafucker 0.0
stylenetwork 0.0
bvalgari 0.0
oooonly 0.0
fuckyopictures 0.0
amplifydot 0.0
trappat 0.0
soumsluvriri 0.0
ibebossedup 0.0
holerringg 0.0
rihskillerdoll 0.0
equaled 0.0
chefette 0.0
rezilientkas 0.0
blastinggggg 0.0
dammnnn 0.0
lifeandtimes 0.0
hausofjazzy 0.0
kaykispeaks 0.0
condesa 0.0
awaaayyy 0.0
flawle 0.0
mandler 0.0
loudies 0.0
dulcattis 0.0
killaaa 0.0
_loveforrihanna 0.0
yesimkayla 0.0
rollingnostone 0.0
richkunt 0.0
yasssssss 0.0
eriricccccc 0.0
cuntmeout 0.0
sashay 0.0
condragulations 0.0
neverrr 0.0
phasetoo 0.0
fooooorde 0.0
ruunavi 0.0
rihtweet 0.0
ishoobernator 0.0
thirstiest 0.0
j_dimps 0.0
deecosey 0.0
itsrihannasnavy 0.0
muthaphuckin 0.0
