awesome 9.34870751211e-05
christmas 0.000209775825086
trying 0.000210339802546
launch 7.73728523833e-05
moment 0.000190329189392
wonderful 7.08812697886e-05
seeing 0.000172870678721
hanging 2.65160559576e-05
sounds 0.00020197154114
contacts 0.0
anybody 0.0
worked 0.000227468445591
direct 0.000119141074084
others 0.000180992645655
currently 0.000225193287938
better 0.000769911266109
please 0.00018981680682
social 0.000424133376133
anxiety 0.0
around 0.000353743014158
people 0.00258024316209
morning 0.000292892470883
damage 0.0
everything 0.000251050689328
present 4.76413159084e-05
though 0.00126349718944
friend 2.10339802546e-05
watched 0.000165389629507
beautiful 6.46518883567e-05
demanding 4.62956837547e-05
anything 0.000510288478445
tagged 0.0
helped 0.000275188309494
thinking 0.00040616269283
finally 0.000213769838331
caught 4.71259306815e-05
believe 0.00043815608946
already 0.00121014538994
couple 6.86110109533e-05
launches 0.0
chance 0.000125525344664
annual 0.000225010796669
quickly 0.000145947429747
growing 5.0180529282e-05
probably 0.000317595209386
changed 0.000268568456228
history 0.000301708812331
center 0.0
museum 0.000145302487316
behind 0.00016646730078
screaming 0.0
pretty 0.000513047611995
really 0.00192472195151
possibly 0.000116422999078
little 0.00029210405964
happiest 0.0
earlier 0.000220312862871
forget 6.36143258932e-05
someone 0.000485087395205
things 0.00114446269286
available 6.51772090258e-05
perfect 6.53533029022e-05
different 0.000914266857213
person 0.000272705662954
watching 6.31019407638e-05
exhibit 0.0
passed 0.000127539193864
prefer 3.15879893649e-05
minutes 0.000194479513561
travel 5.11565129598e-05
daughter 0.0
positive 7.44493973644e-05
outside 6.64204269696e-05
looking 0.000500749816526
forward 0.000279403623495
raising 2.98717901116e-05
impression 0.0
wheels 0.000130336925192
favorite 0.0
instead 0.000212066688067
appreciate 0.000344588373843
couldn 0.000239628777308
remember 0.00031381336166
impressive 2.87741345824e-05
vintage 0.0
holidays 0.000388333271451
friends 6.31019407638e-05
impossible 8.53431642511e-05
everyone 0.000648547614097
always 0.000811528091304
limited 0.000109992493503
months 0.000109216491539
moving 0.000112510184407
meeting 6.43041145447e-05
answer 0.000321520572723
together 0.000188796228199
inside 4.35688686015e-05
upstairs 0.0
missed 0.000254457303573
active 0.0
eventually 3.80503824534e-05
longer 0.000169031291389
enough 0.000570987568176
building 0.000140994226534
enjoying 7.67347694398e-05
london 0.000348384098895
posting 0.0
recent 0.000165920464546
amazing 0.000417291513771
attention 0.0
tomorrow 0.000188288016996
whenever 6.88139146058e-05
feeling 8.76093172202e-05
excited 0.000174746386462
understand 0.00020527649244
following 0.000109807641214
asleep 0.0
learning 0.000363075503033
evening 7.18521328688e-05
special 0.00012654453788
secret 7.0305917902e-05
across 0.000280461225363
surprised 0.00017467040419
candles 0.0
sophia 0.0
version 0.000138717255054
rather 0.000446481717356
showing 0.00022320302865
saying 0.000655298949232
thoughts 0.00015540015882
exactly 0.000361985291309
getting 0.000481180487879
nothing 0.000355655143215
tweets 0.000207512646929
photos 2.52980042626e-05
looked 7.12678050037e-05
difficult 0.00044120995534
office 0.000565602017671
brought 6.95469390962e-05
biggest 0.000107753147261
thrilled 0.0
entire 6.97358204439e-05
something 0.000418417815547
closing 0.000186734744175
anyone 0.000548359664145
taking 0.000230129798551
interesting 0.000326317950134
original 9.89943012464e-05
flying 2.62958590605e-05
sometimes 0.000276683529238
yesterday 0.000168726050506
serious 0.000134284228114
digital 6.20611756838e-05
wearing 7.36386685954e-05
british 9.14631866995e-05
either 0.00020527649244
second 0.000253089075759
checking 5.42298010522e-05
indeed 0.0014549711427
island 5.922659438e-05
hearing 4.67435375605e-05
staying 8.48592452558e-05
another 0.000542478967903
compare 3.81792275251e-05
bummer 0.0
clothes 0.0
landing 0.0
weekend 0.000212047752977
delivery 0.0
secretive 7.45772998196e-05
anyway 0.000135195478303
recognize 0.0
working 0.000439338706324
bigger 9.81848914605e-05
laughing 7.44493973644e-05
wanted 0.000126886126261
clothing 0.0
grateful 2.73439862814e-05
friendship 0.0
family 0.000230129798551
listening 0.000206391232121
stream 8.63224037471e-05
double 4.73828254799e-05
especially 2.31823130321e-05
shaking 4.85092910842e-05
waiting 6.43041145447e-05
definitely 0.000182962695875
account 7.36386685954e-05
completely 0.0
thought 0.000632722689398
possible 0.000420662704141
simple 0.000146074915612
professional 0.000124122351368
members 7.91069982785e-05
business 6.7688907957e-05
absolutely 0.000111903523428
sending 7.28383340715e-05
introducing 3.35618294692e-05
congrats 8.78461129713e-05
community 0.000180536655561
keeper 0.0
greatest 2.28703369844e-05
selfie 3.13074222478e-05
pasadena 0.0
posted 0.0
saturday 2.20804337812e-05
designs 0.0
broken 7.78018935072e-05
chicago 0.0
glimpse 0.0
actually 0.000835953489081
myself 2.74209121087e-05
pajamas 0.0
school 0.00314677895041
throwback 0.0
thursday 4.47614093714e-05
selling 2.86102879673e-05
talented 0.0
celebrate 4.62390850181e-05
celebrating 0.0
anniversary 0.0
contest 2.72673437911e-05
experiences 0.0
students 8.31944735901e-05
figure 0.000150128858625
featuring 0.0
inspired 5.05960085252e-05
breeze 0.0
sitting 2.36270899295e-05
playing 8.50480797408e-05
street 6.95469390962e-05
points 0.000294946564554
advice 7.36386685954e-05
memory 0.000115757126324
forever 2.36270899295e-05
imagine 0.000116542125048
problem 0.000516149494023
played 0.000186974150242
keeping 0.000116858843901
lovely 0.000184071013424
dressed 6.75398306585e-05
chinese 0.0
sunshine 0.0
afternoon 7.38403658235e-05
notice 8.51007358385e-05
difference 0.00020583303286
suppose 0.0
letting 0.0
system 0.000496856556762
mutant 0.0
bathroom 4.09393484815e-05
almost 0.000251050689328
details 0.000182962695875
experience 0.000131059789846
luckily 5.0281289896e-05
viewed 0.0
living 0.000131059789846
weather 0.0
bright 0.000176656412856
launching 3.40859985603e-05
colors 0.0
monday 2.18432983077e-05
walked 3.14940460333e-05
pinned 0.0
wanting 3.29497732098e-05
tweeting 7.16567485535e-05
forgot 5.24459497577e-05
gorgeous 0.0
herself 0.0
happens 0.000238339238469
learned 0.000169492968125
congratulations 0.0
raised 0.000109375945126
mission 0.0
smelled 0.0
unforgettable 0.0
forgotten 9.33673720873e-05
trouble 5.17246695683e-05
channel 2.54376585626e-05
fantastic 2.46809056175e-05
loving 0.0
hardly 3.88356987697e-05
dining 0.0
complete 2.40160435456e-05
daniel 0.0
rewarding 0.0
spirit 5.42298010522e-05
finding 0.000179047795359
stories 0.000180992645655
including 0.000162716914369
somewhere 5.45346875821e-05
conversation 0.000483315512689
disrespectful 0.0
making 0.000479885240837
expect 0.000175631852487
polite 4.98239437366e-05
brings 0.0
anytime 3.44069573029e-05
needed 0.000156242120055
seriously 0.000231195425091
modern 6.02670692036e-05
welcome 0.000190329189392
moments 2.60058416467e-05
jacket 3.69253294052e-05
halloween 0.0
costume 0.0
totally 0.000482946546826
flight 0.0
attached 4.7073658948e-05
finished 0.00010008590575
strong 0.000129303776713
message 6.66000680656e-05
coming 0.00029210405964
temporary 9.03613613047e-05
challenge 9.17294364981e-05
achievement 7.79390307781e-05
unlocked 5.87183751595e-05
happen 0.000298471914848
celebrated 0.0
giving 0.000465249129625
excellent 0.000136336718955
common 0.000129311673921
pressed 0.0
company 7.10742382198e-05
change 0.000502101378656
singing 0.0
silver 0.0
august 0.000118111366307
crying 0.0
happened 0.000330313441191
parking 0.0
demand 0.000110302488835
sacrifice 0.0
personal 4.54936891181e-05
beyond 7.01153063408e-05
question 0.000470293644329
chicken 0.0
position 5.70576918708e-05
losing 5.15819015889e-05
respect 4.57406739688e-05
caption 0.0
shouldn 7.50644293126e-05
career 7.28383340715e-05
reason 0.000220208960794
explore 4.153819305e-05
glamorous 0.0
reality 9.95383139699e-05
burned 0.0
without 0.000316361344699
problems 0.000103163803178
countdown 0.0
online 0.000135012221288
animals 6.99062824421e-05
buying 5.67338238923e-05
pictures 5.2884795566e-05
underneath 0.0
camera 2.73439862814e-05
checked 8.90973155958e-05
heading 2.48845784925e-05
complex 0.000103220871909
sunday 2.16088348401e-05
nights 0.0
traffic 0.0
through 5.87159520815e-05
changing 0.000205191306375
diapers 0.0
convinced 0.000111142119692
capture 4.21547837206e-05
random 0.000243901831199
recorded 0.0
november 2.80467762072e-05
number 0.000192912343634
stupid 0.000174634498617
grandparents 0.00017212629295
recording 0.0
chocolate 6.41283503859e-05
unless 5.15819015889e-05
calling 6.58845847285e-05
mermaid 6.87777163445e-05
levels 0.000225125138878
package 0.0
option 0.000121239512547
knowing 0.0
actual 0.000305908522972
friday 0.000127228651786
achieve 7.01282393693e-05
winner 4.64905469626e-05
becomes 0.00011845318876
directly 6.90301063917e-05
quality 0.000243351860945
father 0.0
wishes 2.72673437911e-05
themselves 0.000109690304541
asking 0.000309961992525
usually 0.000195219755959
period 6.24294685758e-05
resist 0.0
collections 0.0
summer 6.7688907957e-05
bracelet 0.0
reminded 0.000254279352803
dinner 2.31195425091e-05
single 8.62025178089e-05
catching 3.09391221447e-05
energy 0.0
preview 2.97852685209e-05
monster 0.0
material 3.5742715013e-05
events 0.0
europe 8.68178447428e-05
holiday 0.000457550056236
emotional 3.01335346018e-05
affects 9.22113025373e-05
holding 2.47485753116e-05
survive 0.0
eating 0.000104601380371
outfit 0.0
missing 6.69609085951e-05
surprise 4.47614093714e-05
german 0.0
officially 0.000146474437475
french 5.37766188043e-05
global 0.0
follow 0.000189305822291
design 3.15879893649e-05
improvement 0.000283636704199
website 0.000102031355091
breaks 5.51512444175e-05
negative 0.0
official 6.48265045203e-05
jersey 0.0
france 2.90223492066e-05
lighter 0.0
thinks 2.44124062458e-05
hospital 0.0
jealous 0.0
successful 2.86102879673e-05
trending 0.0
leadership 6.54993815557e-05
showed 7.88875771816e-05
attended 8.39978294653e-05
circle 3.70473732307e-05
interested 0.000188218165815
effect 2.75756222087e-05
success 4.72541798591e-05
ladies 2.86920500081e-05
dreams 8.24943701273e-05
protect 2.68133240504e-05
arguing 0.000125532613898
essence 5.2732167899e-05
control 2.33717687803e-05
happier 0.0
likely 0.000279675059681
cancel 8.75625371293e-05
project 0.0
laying 4.32798367688e-05
lesson 0.000174634498617
fridays 6.1696076557e-05
invited 0.0
treating 0.0
allowing 3.66833683929e-05
remote 4.59173385572e-05
opening 4.54936891181e-05
alcohol 0.0
popular 2.86102879673e-05
pedestal 0.0
designing 0.0
followed 2.78098657248e-05
enjoyed 9.92658631525e-05
spectacular 0.0
recovered 0.0
length 0.0
matters 0.000247483110382
factor 0.0
england 0.000397503958626
shared 0.000172152300048
benefit 0.000576905447334
continues 0.0
fathers 0.0
kitchen 0.000100996836873
exciting 0.000150541587846
corner 8.96153703349e-05
spring 0.0
fallen 7.36079944192e-05
victoria 0.0
tornado 0.0
typical 0.0
continue 2.41473273413e-05
creative 0.0
excuse 6.06197562736e-05
female 5.57770731311e-05
closer 2.62229748788e-05
accent 0.0
beginning 2.62958590605e-05
sooner 0.0
everywhere 0.000149717489306
scenes 5.33283183272e-05
wishing 0.0
choices 0.0
unpredictable 0.0
become 0.000174746386462
photographs 0.0
spread 2.38855828512e-05
season 0.0
putting 0.000109807641214
annoying 0.000245636090889
quietly 0.00013446571809
extending 0.0
stance 0.0
sleepy 0.0
returns 0.0
bucket 0.0
condolences 0.0
register 3.11224573624e-05
flowers 0.0
define 4.09393484815e-05
somebody 0.0
chicks 0.0
covering 0.0
repeat 2.91894859493e-05
football 0.000262958590605
brothers 0.0
player 0.0
physical 3.48427515054e-05
series 4.54936891181e-05
pretend 0.0
fighting 2.38206579542e-05
atlanta 0.0
mexico 0.0
president 9.29810939252e-05
talking 0.000377592456398
america 0.000155820531083
greats 0.0
everybody 2.57909507944e-05
judgment 9.91979714675e-05
amount 0.000234863808326
houston 0.0
everyday 0.0
shooter 0.0
attitude 3.70473732307e-05
million 6.58845847285e-05
honesty 9.0001040221e-05
telling 0.000142535610007
pulled 0.0
attack 0.0
killed 0.0
horrible 3.56280678216e-05
norman 0.0
salute 0.0
jacksonville 0.0
barackobama 0.0
lilduval 0.0
liquor 0.0
american 8.88000907541e-05
realist 0.0
remain 2.94427354761e-05
innocent 0.0
pieces 0.0
taught 0.000586113077992
golden 2.8206228425e-05
straight 0.0
forgive 0.0
answers 5.39271318985e-05
product 0.0
smoking 0.0
created 0.0
record 2.18432983077e-05
weapon 0.0
bottom 5.60935524144e-05
arrangements 5.94238126344e-05
africa 0.0
committed 3.29497732098e-05
journey 0.0
brother 0.0
prayers 0.0
documentary 3.13074222478e-05
addition 0.0
honestly 0.000149358950558
velvet 0.0
country 0.000216088348401
speedy 0.0
dressing 8.12925348055e-05
employee 0.0
yoooooo 0.0
prayer 0.0
nominated 0.0
praying 0.0
insane 0.0
illest 0.0
shooting 0.0
cancer 0.0
australia 0.0
marijuana 0.0
deserve 0.0
legend 8.36656096966e-05
mother 0.0
murder 3.3874743826e-05
realest 0.0
powerful 2.55078387728e-05
attendance 0.0
wisdom 0.0
breaking 0.000247522405695
bothered 4.89383457198e-05
angeles 0.0
dollars 7.01282393693e-05
soldiers 0.0
performance 7.2639843482e-05
reading 0.000421800431082
videos 5.39271318985e-05
jordan 0.0
nobody 7.69467398906e-05
politics 0.0002961329719
paradise 0.0
blessing 4.42950826356e-05
coolest 0.0
strippers 0.0
charities 4.91562368479e-05
donate 0.0
bullshit 0.0
sample 0.0
rocking 3.52878682125e-05
bringing 4.69980755112e-05
deserves 0.0
hilarious 0.0
victim 0.0
stadium 0.0
funniest 3.81792275251e-05
heaven 3.31517982199e-05
ruined 4.57307147717e-05
honest 0.00015603504988
rolling 0.0
became 7.84510352782e-05
driver 6.39361245236e-05
breakfast 0.000736284053695
decision 5.21559358649e-05
counting 5.93982103972e-05
pressure 2.8447721417e-05
awareness 0.0
dearly 0.0
lastnight 0.0
facebook 4.47614093714e-05
basketball 0.0
campaign 0.000145676668143
twisted 0.0
defined 0.000182182999545
discover 0.0
comments 2.55078387728e-05
giveaway 0.0
bipolar 0.0
teenage 0.0
williams 0.0
custom 0.0
singer 4.07922919501e-05
future 0.000150854406166
randomly 0.000102454579467
angels 0.0
blessed 0.0
sister 2.81263495837e-05
stripper 0.0
dancing 0.0
reigns 0.0
voting 0.0
niggas 0.0
commercial 0.0
hating 5.00513603455e-05
boring 3.62077268246e-05
century 0.000102898260143
acting 0.0
submit 0.0
besides 4.34456417305e-05
hiding 0.000102898260143
periscope 0.0
breath 0.0
choosing 4.153819305e-05
lawrence 0.0
instagram 0.0
detroit 0.0
cousin 0.0
honored 0.0
dedication 0.0
rockin 0.0
fucked 0.0
lionelrichie 0.0
talent 0.0
goodnight 0.0
stores 3.79223302795e-05
drinking 9.33673720873e-05
brazil 0.0
tattoo 0.0
consecutive 0.0
regardless 0.000110775988216
staring 4.44692126274e-05
commitment 6.92474271216e-05
seconds 2.79675059681e-05
ohhhhhh 0.0
listen 0.0001080441742
whatever 9.60641741823e-05
wherever 0.0
kicking 0.0
compete 0.0
lauderdale 0.0
homies 0.0
billion 0.000419421421478
belated 0.0
pirate 0.0
shoutout 0.0
grammy 0.0
guilty 0.0
ceiling 0.0
grammys 0.0
absolute 9.2001338634e-05
nelson 0.0
mandela 0.0
bigsean 0.0
handle 2.72673437911e-05
tonite 0.0
cocaine 0.0
promise 0.000148898794729
longest 7.43402741659e-05
generation 5.73841000161e-05
tuesday 2.37559350012e-05
struggle 0.0
workout 0.0
character 5.59350119362e-05
mirror 0.0
interview 0.000170096159482
buffalo 0.0
justin 0.0
insights 0.0
winning 2.2320302865e-05
oxygen 0.0
espnnfl 0.0
charlotte 0.0
accomplished 0.0
defense 0.0
gettin 0.0
arabia 0.0
lmfaooooo 0.0
writing 0.000435839060892
soccer 4.153819305e-05
society 0.00011542617698
brooklyn 0.0
incredible 4.5125938638e-05
witcho 0.0
celebrity 0.0
minute 0.000117814826704
foreign 0.0
cherry 4.59173385572e-05
champs 0.0
murdered 8.92896241761e-05
evidence 0.000744734108206
android 0.0
sneaking 0.0
clearly 0.000185612391703
download 2.95278415767e-05
mixtape 0.0
central 0.000137878111044
washington 0.0
veterans 0.0
stronger 3.32535510515e-05
promised 0.00013719768019
marcus 0.0
zombie 0.0
throwing 0.0
security 5.54629823934e-05
fastest 0.0
fantasy 0.0
turning 0.0
ignore 0.0
fucking 0.0
tickets 5.05960085252e-05
collector 0.0
prizes 4.44692126274e-05
december 2.90223492066e-05
loyalty 4.76768435755e-05
return 0.000115597712545
escape 3.74178592063e-05
yassss 0.0
goddess 0.0
handsome 0.0
language 0.000204914923206
motion 3.68039972096e-05
gallery 0.0
movies 0.0
children 0.0003909076336
backpack 0.0
potentially 0.0
guardian 0.000377950613042
review 0.000273730363417
theaters 0.0
shhhhh 8.05635070801e-05
begins 7.50644293126e-05
closet 0.0
bodies 0.0
hahaha 3.74178592063e-05
produced 0.0
latest 0.000113120403534
banned 7.48357184125e-05
beyonce 0.0
perform 0.0
lionel 0.0
signed 0.000115284803849
princess 0.0
ghetto 0.0
conditioning 0.0
charity 0.0
germany 0.0
ronaldo 0.0
married 6.18782442895e-05
millions 0.0
blessings 0.0
diamond 0.0
nephew 4.72727840331e-05
lights 0.0
howard 0.0
turned 0.0
buckle 0.0
relevant 0.0
performing 6.71236589385e-05
indian 8.6891283461e-05
includes 6.22449147248e-05
tricks 9.10914997727e-05
survivor 9.29749354337e-05
diamonds 0.0
collection 5.73841000161e-05
families 0.00112302153375
welcoming 0.0
select 7.45872590167e-05
announced 0.000203501268501
granted 0.0
decided 5.00429528751e-05
selfish 0.0
trailer 0.0
reppin 0.0
celebration 0.0
decades 0.0
ultimate 0.0
incase 6.99340367353e-05
downtown 0.0
seasoning 0.0
episode 2.49529148843e-05
mentality 0.0
touching 0.0
retweet 0.0
goodmorning 0.0
midnight 0.0
expectations 0.000152716910101
joining 0.0
reasons 0.000219112373418
released 7.30374578059e-05
release 0.000114661795623
models 8.07145140526e-05
popped 5.0986727371e-05
within 0.000186649114145
standing 4.77711657023e-05
valentines 0.0
justice 0.0
houses 4.27902044701e-05
purchase 0.0
dropped 7.73728523833e-05
conversations 3.88356987697e-05
seattle 0.0
strength 0.0
monica 0.0
incredibly 0.000118111366307
streets 0.0
private 0.000455826508857
inspirational 3.74178592063e-05
barbie 0.0
tables 0.000333737905028
affection 0.0
broski 0.0
pissing 0.0
designer 4.59173385572e-05
cooking 0.0
tattoos 5.87183751595e-05
direction 3.20641751929e-05
readyyyyy 0.0
exclusive 0.000198531726305
adrianalima 0.0
fashion 3.02215195641e-05
talkin 4.91562368479e-05
bitches 0.0
nailed 4.21547837206e-05
kitten 0.0
whomever 0.0
ruthless 0.0
teaching 0.00086055456323
chillin 0.0
philly 0.0
baddest 0.0
cheers 0.000420617686926
autumn 4.98239437366e-05
presents 0.0
flawless 0.0
unique 0.0
handed 0.0
taraji 0.0
victory 0.0
tribute 0.0
ballin 0.0
horror 0.0
females 0.0
catfish 0.0
action 4.48825646977e-05
wouldnt 0.0
recipient 0.0
whitney 0.0
continued 3.58579973721e-05
esther 0.0
letter 7.73728523833e-05
existence 8.89384252548e-05
papers 0.000114926626125
winter 0.0
sessions 0.0
replicating 9.60020454707e-05
foundation 0.0
syndrome 9.53536871509e-05
colorado 0.0
tremendous 0.0
public 0.000412750559739
cannot 0.000163158975067
brilliant 0.000205191306375
illustration 0.0
beware 0.000139462403151
globally 0.0
premieres 0.0
streaming 0.0
immigration 7.76713975393e-05
wrapped 0.0
studio 0.000145528748848
february 0.0
amazon 6.33647174895e-05
border 4.07922919501e-05
huffingtonpost 0.0
francis 0.0
january 0.000115757126324
relationships 8.72255569465e-05
tragic 0.0
secure 7.63584550503e-05
countries 6.02670692036e-05
episodes 3.76685660052e-05
broadcast 0.0
tickled 0.0
livestream 0.0
potential 8.65696327347e-05
education 0.00194071812127
famous 0.0
unknown 0.0
exists 7.76713975393e-05
orders 0.0
microsoft 0.000257353328773
ability 9.11958405187e-05
director 0.00010431187173
accessible 0.000267637453327
correction 4.23118290894e-05
william 0.0
editors 4.74738330618e-05
yellow 0.0
passionate 0.0
treatment 0.0
ambassador 3.60904960211e-05
thanking 0.0
streamed 0.0
lovers 4.19989147326e-05
wrinkled 0.0
bridge 0.0
magazine 2.90223492066e-05
sincere 0.0
quotes 3.44069573029e-05
result 0.0
destruction 0.0
edition 0.00013983752984
prince 0.0
indiana 0.0
editorial 0.000174451113893
emotion 4.61056512686e-05
mistakes 0.000149174518033
inspiring 0.0
counter 3.95135571649e-05
disappointing 4.19989147326e-05
edited 0.0
spotlight 0.0
saddest 5.64222072566e-05
production 3.33558038991e-05
header 0.0
itunes 0.0
guests 0.0
snakes 0.0
charging 0.0
arriving 4.59173385572e-05
mysteries 6.29325836081e-05
dangerous 2.80467762072e-05
typically 0.000207864510228
saving 3.03098781368e-05
universe 0.0
victims 0.0
receive 2.94427354761e-05
proceeds 0.0
crossed 0.0
received 2.68133240504e-05
limitations 0.0
studying 4.41223977225e-05
conflict 0.0
petition 0.0
milestones 0.0
outstanding 0.000143431989489
devastating 3.87027372144e-05
installment 0.0
signature 0.0
mistletoe 0.0
awards 0.0
shelves 0.0
smells 0.0
themed 4.95989857337e-05
sisters 0.0
banquet 0.0
danger 3.65634348471e-05
leading 0.0
member 4.90924457302e-05
dominant 0.0
distinguish 0.0
factories 0.0
distinct 0.0
distance 0.0
confirmed 3.03986135062e-05
behavior 0.0
collect 0.0
vanity 0.0
junior 4.1690636315e-05
communities 7.95820135533e-05
worldwide 0.0
canada 0.0
recognized 0.0
vessels 0.0
movement 0.0
segment 0.0
internal 0.0
information 5.65728301705e-05
easily 0.000153786940642
towards 0.000121594454025
october 0.0
belgium 0.0
european 3.59739219761e-05
caribbean 0.0
cities 0.0
arrives 4.23118290894e-05
extraordinary 0.000105863604637
exquisite 0.0
argentina 0.0
eliminate 0.0
genius 0.000110925964787
prepared 3.15879893649e-05
anthony 0.0
breakthrough 0.0
berlin 0.0
batman 0.0
upcoming 2.95278415767e-05
upgrade 0.0
singapore 0.0
crucial 3.97910067766e-05
scratch 0.0
collaboration 0.0
tested 8.43095674412e-05
acquire 0.0
honoring 0.0
holland 0.0
visually 0.0
neyocompound 0.0
inspire 0.0
ebonymag 0.0
spiketv 0.0
constant 0.0
sunset 0.0
tuning 0.0
gentleman 0.0
fulfilling 0.0
ayeeeee 0.0
stratford 9.60020454707e-05
poland 0.0
philippines 0.0
kickin 0.0
theweeknd 0.0
september 5.85471209161e-05
manchester 0.0
rickyrozay 0.0
remarkable 0.0
rihanna 0.0
disgusted 0.0
immoral 6.6641646352e-05
process 7.97699273878e-05
goosebumps 0.0
performances 0.0
strangers 0.0
emotions 0.0
judgement 0.0
comparing 4.61056512686e-05
thuggin 0.0
studios 0.0
jennifer 0.0
performer 0.0
literally 0.000412655212711
cardiff 0.0
soooooooo 0.0
crashed 0.0
cthagod 0.0
closed 5.93982103972e-05
justinbieber 0.0
complexmag 0.0
billboard 0.0
airing 0.0
albums 5.19661275569e-05
sweden 0.0
katyperry 0.0
treats 0.0
missouri 0.000286877154916
thefader 0.0
soundtrack 0.0
theellenshow 0.0
sweets 0.0
festival 3.0667112878e-05
wizkhalifa 0.0
amsterdam 5.32589912936e-05
backstage 0.0
collab 0.0
subscribed 0.0
joined 2.56489132969e-05
davidguetta 0.0
pushing 0.0
hopeful 9.3362071483e-05
romantic 0.0
mentions 0.0
lurking 0.0
ballad 0.0
teamed 0.0
exclusively 8.55804089402e-05
kingjames 0.0
hollyrpeete 0.0
sneakers 0.0
auction 0.0
sneaker 0.0
djkhaled 0.0
express 0.0
thegrammys 0.0
throughout 3.30505405379e-05
shining 0.0
excellence 0.000204909158934
thrown 3.96518195513e-05
zendaya 0.0
playin 0.0
applemusic 0.0
crunch 0.0
capitalofficial 0.0
filmed 0.0
toronto 0.0
naomicampbell 0.0
trvisxx 0.0
killin 0.0
trucks 0.0
stands 0.000115757126324
platinum 0.0
native 0.0
spotify 4.42950826356e-05
rocked 0.0
jumped 0.000126464351162
leebruhgreene 0.0
leaning 5.22183538281e-05
featured 0.0
announce 7.2639843482e-05
senior 9.79510992723e-05
iamdiddy 0.0
haters 0.0
nothin 0.0
appreciation 0.0
defjamrecords 0.0
floating 0.0
superstars 6.51722068768e-05
shondarhimes 0.0
premiere 0.0
orchestral 0.0
makeup 4.48219060302e-05
touched 3.8969515389e-05
newest 0.0
designed 0.000128642936501
passes 0.000136769742742
angelasimmons 0.0
tidalhifi 0.0
vashtie 0.0
delivered 3.3874743826e-05
owning 0.0
producer 3.77950613042e-05
balmain 0.0
legendary 3.33558038991e-05
independence 0.0
mtvmusicuk 0.0
audition 0.0
debuts 0.0
footage 0.0
marshall 9.91979714675e-05
spends 9.53536871509e-05
playtime 0.0
completed 0.0
dishes 0.000105464335798
photographed 0.0
bubble 3.93762074082e-05
belong 0.0
tongue 0.0
observing 0.0
consistent 0.0
posing 0.0
heavens 6.8222792456e-05
contemporary 0.0
aiming 5.2732167899e-05
ceremony 0.0
brighter 0.0
rainbow 0.0
matthew 0.0
phenomenal 4.153819305e-05
affected 3.21607341254e-05
rivers 0.0
presenting 3.96518195513e-05
competitive 0.0
eskimo 0.0
sibling 0.0
dakota 0.0
printed 0.0
heroes 0.0
deepest 0.0
describe 6.04430391283e-05
hollywood 0.0
baggage 0.0
terrifying 4.09393484815e-05
animation 0.0
nationwide 0.0
capital 0.000112628505099
quantity 0.0
nominations 4.26295209489e-05
mountains 0.0
mosaic 0.0
realise 0.000139462403151
overload 0.0
photographer 0.0
depression 4.51806806524e-05
donation 0.0
marvelous 0.0
madonna 0.0
sailed 0.0
terror 0.0
rinsed 0.0
disorder 0.0
polish 0.0
represents 4.27902044701e-05
touchdown 0.0
creates 4.10874516875e-05
oxford 0.000234382106664
stitched 0.0
morocco 0.0
thrill 0.0
balloons 0.0
teaming 0.0
latimes 0.0
kerrywashington 0.0
caution 0.0
camouflage 0.0
approaching 0.0
generous 3.96518195513e-05
installation 0.0
benefiting 0.0
basics 0.0
confirm 0.000101624231478
thrilling 0.0
photography 0.0
matches 0.0
boundaries 0.0
singles 0.0
laptop 9.3362071483e-05
obvious 0.0
darling 0.0
celebrations 0.0
chewbacca 0.0
underwater 0.0
naughty 5.19661275569e-05
advised 0.0
feelin 0.0
macaroni 8.6222016031e-05
perfection 0.0
picasso 0.0
recipe 0.0
radical 0.0
volcano 0.0
planted 0.0
products 0.0
directed 0.0
grabbed 0.0
frames 0.0
casual 0.0
scheming 0.0
twickenham 0.0
bbcnews 0.000115406258585
pledge 7.79390307781e-05
subtle 9.87528674899e-05
embarrassed 0.0
snatch 0.0
unveiling 0.0
kissed 0.0
arguments 0.000306468879953
settling 0.0
desperate 3.96518195513e-05
executive 0.000104198832972
humbled 0.0
courage 0.0
dropping 3.14940460333e-05
carried 0.0
behalf 0.0
hardest 3.84393360695e-05
marking 0.0
vision 6.16961134728e-05
intervention 4.78818542249e-05
records 3.15879893649e-05
deeply 3.36656122908e-05
mannered 0.0
texted 0.0
israeli 0.0
strongest 0.0
rogers 0.0
concept 0.0
allegiance 0.0
belongs 0.0
intended 0.0
bosses 0.0
purpose 0.000254979129846
hottest 0.0
campaigns 5.07489143529e-05
sunderland 0.0
teenager 0.0
runway 0.0
steven 0.0
guitar 0.0
donating 0.0
applause 0.0
finale 0.0
wasted 0.0
absent 0.0
awhile 0.0
fierce 0.0
sincerely 0.0
apology 0.0
climbing 5.40751120752e-05
unwilling 0.0
protesting 5.2732167899e-05
bikini 0.0
friendships 0.0
matching 0.0
wolves 0.0
mosque 0.0
venezuela 0.0
donates 0.0
generations 0.0
underestimate 0.0
pardon 0.0
stickers 0.0
mothers 0.0
deeper 0.0
nipple 0.0
perfume 0.0
noodle 0.0
melissa 0.0
forest 0.0
panties 0.0
jimmykimmel 0.0
everytime 0.0
underdog 0.0
shoulders 0.0
wrapping 0.0
bedroom 0.0
glitter 0.0
stocking 0.0
annoyed 0.000207864510228
behave 0.0
goodbye 0.0
fuckin 0.0
seller 0.0
joshgroban 0.0
samsungmobileus 0.0
influential 0.000146815037159
slicing 0.0
ryanseacrest 0.0
farmer 0.0
teaser 0.0
styled 0.0
casting 5.24736749773e-05
imitated 0.0
forgiveness 6.01540072957e-05
perezhilton 0.0
blacked 0.0
paparazzi 0.0
peoplemag 0.0
rolled 4.41223977225e-05
vanityfair 0.0
rockstar 0.0
thousand 3.85706198652e-05
minded 5.12272897335e-05
shines 0.0
sunglasses 0.0
auntie 0.0
magazines 0.0
waited 4.36127784733e-05
denmark 0.0
leather 0.0
wished 0.0
ladygaga 0.0
swallow 0.0
glblctzn 0.0
shakira 0.0
accessories 0.0
nbcthevoice 0.0
clique 0.0
premiering 0.0
loooooove 0.0
weareheremvmt 0.0
looooove 0.0
vmagazine 0.0
popcrush 0.0
studded 0.0
yassssss 0.0
yessss 0.0
undeniable 0.0
unicef 0.0
auditions 0.0
ellemagazine 0.0
yasssss 0.0
pharrell 0.0
greece 0.0
papermagazine 0.0
nowwwww 0.0
maccosmetics 0.0
macaidsfund 0.0
lipstick 0.0
meeeee 0.0
newsstands 0.0
unapologetically 0.0
insidebates 0.0
legalize 0.0
loooove 0.0
caradelevingne 0.0
allllll 0.0
badgalriri 0.0
itsjeremyscott 0.0
nickiminaj 0.0
nipples 0.0
booooo 0.0
trippy 0.0
mikewillmadeit 0.0
puttin 0.0
trappin 0.0
alexanderwangny 0.0
karllagerfeld 0.0
celebratin 0.0
lilyallen 0.0
fuuuuuck 0.0
chanel 6.93478455042e-05
rubber 0.0
angelou 0.0
misses 0.0
harpersbazaarus 0.0
timberlake 0.0
photoshopped 0.0
whatchu 0.0
rehearsals 0.0
couture 0.0
mutual 0.0
creeper 0.0
cuddling 0.0
celine 0.0
theamas 0.0
thexfactor 0.0
websterhall 0.0
presale 0.0
deluxe 0.0
styles 0.0
wetten 0.0
shittttttttttt 0.0
boredom 0.0
darealamberrose 0.0
noooooooo 0.0
itunesmusic 0.0
cbstweet 0.0
thermal 0.0
mariners 0.0
torres 0.0
thebeatles 0.0
blondies 0.0
greeting 0.0
thecut 0.0
geeked 0.0
outlet 0.0
americanexpress 0.0
gqmagazine 0.0
nicole 0.0
bumped 0.0
hangover 0.0
stockholm 0.0
casually 0.0
esquire 0.0
winnipeg 0.0
begging 0.0
showroom 0.0
sleeves 0.0
smelling 0.0
guaranteed 0.0
obsession 0.0
attendant 0.0
aussie 0.0
tbsveryfunny 0.0
reservation 0.0
mollymcnearney 0.0
dragging 6.09107602408e-05
rocnation 0.0
tapered 0.0
badass 0.0
endlessly 0.0
vampires 0.0
viewers 0.0
kanyewest 0.0
designers 0.0
billboards 0.0
backstreetboys 0.0
monteith 0.0
e_fashionpolice 0.0
epically 0.0
internationally 0.0
mighty 0.0
jcolenc 0.0
semifinals 0.0
brasilia 0.0
tailgating 0.0
photoshoot 0.0
smokin 0.0
ahhhhhh 0.0
missin 0.0
sweats 0.0
impacted 0.0
rodriguez 0.0
musician 0.0
merchandise 0.0
jurgen 0.0
athleteally 0.0
originals 0.0
número 0.0
zealand 0.0
hehehe 0.0
fearless 0.0
stadiums 7.17987235071e-05
thiago 0.0
suarez 0.0
cropped 0.0
uruguay 0.0
apparel 0.0
staircase 0.0
wintour 0.0
spotting 0.0
polygraph 0.0
twerking 0.0
shipment 0.0
muggin 0.0
takeoff 0.0
thailand 0.0
tomorr 0.0
googleplay 0.0
budweiser 0.0
miafestival 0.0
dotted 0.0
burning 0.0
surpass 0.0
betcha 0.0
onairwithryan 0.0
dreamers 0.0
brunomars 0.0
beyoncé 0.0
hellooo 0.0
subscribers 0.000112844414513
preorder 0.0
believer 0.000120308014591
fragrance 0.0
hellooooo 0.0
majesty 0.0
beatsbydre 0.0
finland 0.0
fearnecotton 0.0
debuted 0.0
queued 0.0
rhetorical 0.0
iranian 0.0
infamous 0.0
brutally 0.0
execution 0.0
palestinian 0.0
transplant 0.0
audacity 0.0
foreplay 0.0
priced 6.8222792456e-05
huntington 0.0
manger 0.0
weaker 0.0
justintrudeau 0.0
creeping 0.0
fittest 0.0
hoodie 0.0
mankind 0.0
westwood 0.0
holographic 0.0
throwin 0.0
eminem 0.0
ecstatic 0.0
enjoys 0.0
wussup 0.0
duplicated 0.0
crotch 0.0
congrat 0.0
huggin 0.0
implement 0.0
penalizing 0.0
gonzalez 0.0
bitchin 0.0
sephora 0.0
damien 0.0
demanded 0.0
negativity 0.0
alancarr 0.0
skillz 0.0
hopeless 0.0
beatle 0.0
cheesecake 0.0
almighty 0.0
whatcha 0.0
slumber 0.0
chimney 0.0
headlining 0.0
perplexed 0.0
googleplaymusic 0.0
thrills 0.0
rollers 0.0
bravotv 0.0
gifted 5.64222072566e-05
kekepalmer 0.0
styledtorock 0.0
yooouuu 0.0
shantay 0.0
yaaaas 0.0
bestest 0.0
freestyle 0.0
everrrrr 0.0
sweatband 0.0
podolski 0.0
collaborating 0.0
bestfriend 0.0
sittin 0.0
whaaaat 8.26460849799e-05
clockwork 0.0
warmest 0.0
temptation 0.0
spiritual 0.0
chameleon 0.0
customised 0.0
acrylic 0.0
grasshopper 0.0
engages 0.0
gourmet 0.0
rhythmic 0.0
petals 0.0
klinsmann 0.0
directv 0.0
popcrave 0.0
versailles 0.0
raddest 0.0
grandfather 0.0
persie 0.0
webster 0.0
knight 0.0
footwear 0.0
collectors 0.0
blackout 0.0
skylight 0.0
hammock 0.0
playhouse 0.0
revelers 0.0
executed 0.0
cincinnati 0.0
simultaneously 5.83744266245e-05
malawi 0.0
graduated 0.0
sickening 0.0
mueller 0.0
elonjames 0.0
skeletons 0.0
mittromney 0.0
connecticut 0.0
cumulative 0.0
racked 0.0
valera 0.0
thighs 0.0
timely 4.91562368479e-05
rapping 0.0
shrugs 0.0
enables 0.0
psychic 0.0
fernando 0.0
tourism 0.0
slaughtered 0.0
devotion 0.0
fantasies 0.0
parsons 0.0
stella 6.76822838175e-05
complainers 0.0
newsstand 0.0
voguemagazine 0.0
westfield 0.0
manolo 0.0
turquoise 0.0
parisian 0.0
childs 0.0
swimsuit 0.0
bazaar 0.0
empress 0.0
brainstorm 0.0
tanning 0.0
desirable 0.0
feathers 0.0
antics 0.0
featurette 0.0
olivier 0.0
helloooo 0.0
hallow 0.0
connie 0.0
upbringing 0.0
privatize 0.0
bittersweet 0.0
outlaw 0.0
marcel 0.0
nowwww 0.0
hushed 0.0
threshold 0.000998212377711
floats 0.0
barbados 0.0
manuelcav 0.0
niggaz 0.0
prayin 0.0
drizzyxcole 0.0
homegirl 0.0
rappin 0.0
witcha 0.0
mufasa 0.0
dainternz 0.0
lololol 0.0
barclayscenter 0.0
bestbuy 0.0
blackouts 0.0
rivera 0.0
jakemiosge 0.0
givenchy 0.0
riccardo 0.0
grossed 0.0
guetta 0.0
spicewon 0.0
bitche 0.0
shawty 0.0
wednesdays 0.000153870979725
payday 0.0
jewelers 0.0
romero 0.0
acknowledging 0.0
calypso 0.0
blushes 0.0
medusa 0.0
keepers 0.0
futuristic 0.0
whereabouts 0.0
slayed 0.0
asvpxrocky 0.0
haaaaa 0.0
inezandvinoodh 0.0
calvinharris 0.0
_maxwell_ 0.0
bwerde 0.0
edward_enninful 0.0
haaaaaa 0.0
wisest 0.0
unconditionally 0.0
drmayaangelou 0.0
blackgirlsrock 0.0
submissive 0.0
rearrange 0.0
attuned 0.0
abrams 0.0
awaken 0.0
climbs 0.0
jacking 0.0
seventy 0.0
snatching 0.0
manoloblahnik 0.0
nicolerichie 0.0
openingceremony 0.0
whiteley 0.0
supermodel 0.0
the_real_iman 0.0
minogue 0.0
tmagazine 0.0
baaaaack 0.0
yeessss 0.0
wooooo 0.0
epicness 0.0
takawiraa 0.0
joplin 0.0
uncensored 0.0
unspeakable 0.0
rewrites 0.0
askdrruth 0.0
glozell 0.0
tardiness 0.0
runways 0.0
colombian 0.0
unapologetic 0.0
zac_posen 0.0
rumoured 0.0
omgggg 0.0
futbol 0.0
biatch 0.0
barrington 0.0
catwalk 0.0
sledgehammer 0.0
clemente 0.0
dollaz 0.0
mariah 0.0
granddad 0.000169921027773
iyanlavanzant 0.0
hustler 0.0
coletteparis 0.0
flexin 0.0
mistress 0.0
exceeds 0.0
sweeeeeet 0.0
stancesocks 0.0
serviced 0.0
issssss 0.0
lipglass 0.0
externally 0.0
complex_uk 0.0
prideful 0.0
dash_radio 0.0
holidaze 0.0
mawnin 0.0
champagnepapi 0.0
fashawn 0.0
raided 0.0
ahhhhhhhh 0.0
soulmate 0.0
motorbikes 0.0
britishvogue 0.0
gnlstudios 0.0
robinsoncano 0.0
debuting 0.0
cc_sabathia 0.0
colorways 0.0
hit_boy 0.0
_spyda 0.0
phresh 0.0
dominates 0.0
ratchet 0.0
rupaul 0.0
cockpit 0.0
kimmiekyees 0.0
horoscope 0.0
catwalks 0.0
paramedic 0.0
fhollande 0.0
sexiness 0.0
hereeee 0.0
changers 0.0
tiptoes 0.0
revved 0.0
meditative 0.0
fauntleroy 0.0
mbsings 0.0
disrespectfully 0.0
traumatized 0.0
outdid 0.0
elvispresley 0.0
toupee 0.0
josephine 0.0
discography 0.0
mariasharapova 0.0
chinchilla 0.0
skylar 0.0
illestbaba 0.0
georgiamjagger 0.0
pierced 0.0
hardrock 0.0
snorkeling 0.0
thrilla 0.0
gunpoint 0.0
sleeved 0.0
stevestoute 0.0
kiiiiiiiiiiiiinnnngggggg 0.0
lanvin 0.0
chateau 0.0
lizzs_lockeroom 0.0
prophets 0.0
müller 0.0
lullaby 0.0
samersum 0.0
disassembled 0.0
anniversaries 0.0
hayden_williams 0.0
rousteing 0.0
slayage 0.0
raunchy 0.0
benzema 0.0
fuckery 0.0
hellooooooo 0.0
juliagillard 0.0
congeniality 0.0
gunned 0.0
condense 0.0
missjillscott 0.0
yussss 0.0
chopard 0.0
woodbridge 0.0
orousteing 0.0
dubsmash 0.0
alicialquarles 0.0
worldmcqueen 0.0
whateva 0.0
elysées 0.0
jennnrosales 0.0
xstrology 0.0
looool 0.0
tippin 0.0
marleys 0.0
dwanimation 0.0
dreamworks 0.0
yaself 0.0
anothermagazine 0.0
claralionelfdn 0.0
mchingi 0.0
rihannareplay 0.0
awtguide 0.0
ryannavy_rih 0.0
rihquest 0.0
gpforeducation 0.0
valliniandre 0.0
globalfund 0.0
rhenna 0.0
millymaefenty 0.0
peetes 0.0
pandagunda 0.0
floriamamaroma 0.0
adoringrihanna 0.0
ymcofficial 0.0
rihanti_ 0.0
mcdean 0.0
rihannadaily 0.0
stancemuse 0.0
muhtean 0.0
rihdefine 0.0
officialdonnie 0.0
stunnafenty 0.0
perfumesbyriri 0.0
badgal 0.0
shaninamshaik 0.0
reblrihanna 0.0
elliscole_ 0.0
itskaitbh 0.0
harpersbazaarcn 0.0
yusefhairnyc 0.0
mylahmorales 0.0
teamofrihanna 0.0
muhphucka 0.0
harpersbazaar 0.0
rihrihfreak 0.0
thenbacentral 0.0
roversi 0.0
suchaf_cknlady 0.0
fourfiveseconds 0.0
petergrayhair 0.0
wkorea 0.0
dennisleupold 0.0
ursulastephen 0.0
ozzysalvatierra 0.0
ciarrap 0.0
rihannaargntina 0.0
rihearsal 0.0
sremmurd 0.0
id_magazine 0.0
heauxm 0.0
rihpost 0.0
jrgseul 0.0
bitchez 0.0
underst_navy 0.0
sonitaalex 0.0
chris_walden 0.0
danachanel 0.0
wednesdayz 0.0
jimmyfenty 0.0
houseoffraser 0.0
skeete 0.0
_kailssss 0.0
muhphuckas 0.0
phuckin 0.0
rastafarih 0.0
obviiii 0.0
etherihalvibe 0.0
rorreyfenty 0.0
noellaalstrom 0.0
rihturn 0.0
tellar 0.0
esquireuk 0.0
huffpoststyle 0.0
tyronmachhausen 0.0
melottenberg 0.0
paolakudacki 0.0
tompecheuxmu 0.0
lgoldstein_ltd 0.0
phucking 0.0
kudacki 0.0
hellurrr 0.0
tom_ford 0.0
neakah 0.0
creepah 0.0
pahtna 0.0
wontonsan 0.0
cappadonna 0.0
phuckmarqy 0.0
elfies 0.0
starstunning 0.0
ohnana 0.0
tushmagazine 0.0
macxriri 0.0
rickrubin 0.0
findataui 0.0
tristate 0.0
distoyb 0.0
kabukimagicnyc 0.0
yerdme_cmb 0.0
hittas 0.0
evan_erogers 0.0
jessieriri 0.0
unfourgettable 0.0
meeeaan 0.0
shweinsteiger 0.0
goooooooaaaaallllllll 0.0
goooal 0.0
braaaaaaaaaaaaaaaaaa 0.0
asapkoff 0.0
belgiuuuuummm 0.0
druchaos 0.0
cuadrado 0.0
murdaaahhh 0.0
colombiaaaa 0.0
karafenty 0.0
dlsturbla 0.0
braaaaaaaaaaaaaaaaaaaaaa 0.0
abouuuutttt 0.0
takecarerihanna 0.0
nathannavy 0.0
theworidcup 0.0
goooooaaaaaaallllll 0.0
bazaararabia 0.0
bigshitxtalker 0.0
__tatijxo 0.0
lhhatl 0.0
braaaaaaaaaaaa 0.0
rihannanavyrd 0.0
gooooooaaaalllll 0.0
triscastellano 0.0
iiiiiiiiiiiiiiiiiiii 0.0
eatmydaisy 0.0
leggooooal 0.0
yaaaaaassssssss 0.0
prettygirl_sp 0.0
ooohhhhhh 0.0
shiiiiitttt 0.0
roooonnnnnnnneeeeeeeyyyyyy 0.0
muslera 0.0
tadpole 0.0
giusichrisriri 0.0
_xomec 0.0
blockedt 0.0
ooooohhhh 0.0
goooooooaaaaaaalllllllllllllllll 0.0
stefansaxon 0.0
rihannademos 0.0
dragonflycici 0.0
chririh 0.0
rihluminati 0.0
goaaaalllll 0.0
twinzies 0.0
mantlers 0.0
suchaf__cknlady 0.0
glamour_robyn 0.0
adamselman 0.0
sephorafrance 0.0
thefashionlaw 0.0
scout_willis 0.0
quietude 0.0
theblackvoice 0.0
weeeed 0.0
kiiiiss 0.0
dooooon 0.0
miiiiss 0.0
malinsworld 0.0
prompics 0.0
itsalldonn 0.0
goooorrrrrrlllllll 0.0
thenewdaily_ 0.0
wiggin 0.0
stevesoboroff 0.0
pivot_tv 0.0
lapolicefdtn 0.0
scarificing 0.0
whooooose 0.0
sambapologetic 0.0
bellaisevil 0.0
sta_schemin 0.0
i_aim_tyga 0.0
fameisloud 0.0
garcon_rebelle 0.0
itsbreezybiotch 0.0
phaedra 0.0
vivala_stephyy 0.0
_bossmadeg 0.0
kontomitrosnick 0.0
sorrenti 0.0
whenevahhh 0.0
teamvivanco 0.0
heifers 0.0
stevenkolb 0.0
jeremy_brossard 0.0
jordanbrossard 0.0
quilted 0.0
piscesareus 0.0
plumsykes 0.0
cedellamarley 0.0
offish 0.0
urprise 0.0
i_love_riri 0.0
rihannadiva 0.0
javiroo 0.0
frihday 0.0
cuntlifex 0.0
_chris_rated_ 0.0
yewmadcunt 0.0
erinwasson 0.0
balmainparis 0.0
_yadim 0.0
muthaphucka 0.0
onnneeee 0.0
liiiiieeesss 0.0
gautier 0.0
mtvstarsvotes 0.0
zinloves 0.0
chloefrahm 0.0
uprising_create 0.0
uprising_darren 0.0
jonnycrave 0.0
jeff_uprising 0.0
kareemfenty 0.0
daily_rihnavy 0.0
unapologeticunt 0.0
rorrey 0.0
foreverrr 0.0
guyanese 0.0
annndd 0.0
historih 0.0
grandfadda 0.0
arleta 0.0
loreleicakes 0.0
river_island 0.0
finallyyyy 0.0
rodin_thinker 0.0
mrs_toyac 0.0
cheersrihrih 0.0
bangbang 0.0
faiz_fenty 0.0
leandra 0.0
noella 0.0
rasshoooolllleee 0.0
luminati 0.0
inezvinoodh 0.0
visvim 0.0
realne 0.0
sarahfrancus 0.0
tadium 0.0
trapstar 0.0
afrihca 0.0
rihrobyn 0.0
cbsgirlfriend 0.0
shyronnie_rn 0.0
mariamfenty_ 0.0
mizzpmf 0.0
whooooaaaaa 0.0
camkaipink 0.0
yasssssssssssssssssssss 0.0
lunaxskye 0.0
yaaaaasssssss 0.0
niggggaaaaaaa 0.0
breeziechillin 0.0
betologetic 0.0
isusjsjdha 0.0
awffffff 0.0
mcdessikins 0.0
skreets 0.0
pieceofria 0.0
loooool 0.0
craaaazzyyy 0.0
lolarae_xoxo 0.0
stayflysamir 0.0
shotta 0.0
tamarawray 0.0
lauraleehickock 0.0
heauxz 0.0
rihannanavyit 0.0
manilla 0.0
ronnyerickson 0.0
nikofenty 0.0
vincehaycock 0.0
zodiacfacts 0.0
naomiiknows 0.0
wrizzap 0.0
muuuch 0.0
hongkong 0.0
jetlaaaaaagggged 0.0
rasshole 0.0
februharry 0.0
kaşara 0.0
çıkmadı 0.0
dicked 0.0
vinoodh 0.0
rihannasblog 0.0
urihannafansite 0.0
teejay 0.0
stupse 0.0
clapbacks 0.0
niggaaaazzzz 0.0
bwaaahaaaaa 0.0
willheardmusic 0.0
kristennoelgipson 0.0
rsvpgallery 0.0
backout 0.0
bwahhaaa 0.0
errwhurr 0.0
niiiiggaz 0.0
fridayz 0.0
debbycoda 0.0
cabbing 0.0
dolly_cohen 0.0
cowboyz 0.0
friendz 0.0
phucker 0.0
charliebymz 0.0
lynn_ban 0.0
inwardly 0.0
ravening 0.0
whyyyyyyyyyyyy 0.0
thatdamnlala 0.0
adamsellman 0.0
scottland 0.0
kingspleasure 0.0
mikkyekko 0.0
rihannanavide 0.0
saskoktz 0.0
phlawless 0.0
givenchydonc 0.0
mlle_yulia 0.0
oxxoxo 0.0
foreva_rn_ladii 0.0
skinhead 0.0
killaz 0.0
yennifer 0.0
bestofpisces 0.0
smegma 0.0
morganemiller_ 0.0
aa_davis 0.0
beenie 0.0
nickeystaar 0.0
frihannamorocco 0.0
thinketh 0.0
guitarists 0.0
jordriri 0.0
badgalclaudia 0.0
hausofnath 0.0
_abirogerson 0.0
tommykane 0.0
livenationuk 0.0
millenniu 0.0
juuuussttt 0.0
helllooooo 0.0
miiiine 0.0
chaneliman 0.0
blushy 0.0
laetitiacrahay 0.0
rihmix 0.0
dariuscash 0.0
joshkillss 0.0
drunk_cockiness 0.0
firebombfenty 0.0
mooky_mcnasty 0.0
defpenradio 0.0
iamrici 0.0
letcha 0.0
niggerish 0.0
mawazine 0.0
thefashionaddicts 0.0
phierce 0.0
errwhere 0.0
jocking 0.0
niggaaa 0.0
tami_black 0.0
homienadz 0.0
religiosity 0.0
joycemeyer 0.0
brooooklyyyyn 0.0
miiiiine 0.0
dilekkeysan 0.0
marykatrantzou 0.0
allaboutpisces 0.0
jfisherjewelry 0.0
oddhangover 0.0
diggins 0.0
phyliciaghee 0.0
bawsin 0.0
howeverrrrr 0.0
channyyxoxo 0.0
dowwwwnnnnn 0.0
thugbitch 0.0
rihanas 0.0
miiiiiinnneee 0.0
rihwrite 0.0
janiseeaileen 0.0
ratchify 0.0
eeeeeemmmmmm 0.0
pannies 0.0
wooooiiiiiiiiiii 0.0
muhphuckers 0.0
bashment 0.0
whaaaaattttt 0.0
liiifee 0.0
covery 0.0
leeeeaaaavvveeee 0.0
haarrrrrddd 0.0
ismashedriri 0.0
christabslg 0.0
reallll 0.0
peoplez 0.0
wooiiiiii 0.0
slackness 0.0
kevfenty 0.0
woooiii 0.0
tatiana_xo 0.0
fentynavysalute 0.0
ratchettt 0.0
rachael_deanna 0.0
lifeeeeee 0.0
bxdcfjcf 0.0
killled 0.0
asdfghjkjhgtfrdedfghjnhbgvfc 0.0
troy_fenty 0.0
_marrymerihanna 0.0
jkbwdhbwh 0.0
_noellaa 0.0
hunneds 0.0
thekingfly 0.0
dooown 0.0
woooiiiii 0.0
phucked 0.0
kickstand_ohb 0.0
acedemy 0.0
mistercap 0.0
gallest 0.0
sinsofmyfather_ 0.0
dwayneofficial 0.0
_revofev 0.0
joefenty 0.0
thegodlight 0.0
molestmerihanna 0.0
rihannanavyeu 0.0
melina 0.0
terryrichardsonstudio 0.0
_sexxtroversy 0.0
neuroticbxtch 0.0
getcho 0.0
moneyyy 0.0
idillionaire 0.0
yaaaaaaas 0.0
noxx_onite 0.0
phonefancy 0.0
chiefin 0.0
londonfashionwk 0.0
_mayor_ 0.0
rihannanow 0.0
jamrock 0.0
rihannastats 0.0
jenesismagazine 0.0
napmed 0.0
hausofbeyhive_ 0.0
probabily 0.0
badgalelly 0.0
ladylivja 0.0
rihannacomics 0.0
__glitterdick 0.0
chelsey_ba 0.0
stashbox 0.0
thuglife 0.0
highladayz 0.0
brrrap 0.0
kalifah 0.0
marylin 0.0
muthafucker 0.0
stylenetwork 0.0
bvalgari 0.0
oooonly 0.0
fuckyopictures 0.0
amplifydot 0.0
trappat 0.0
soumsluvriri 0.0
ibebossedup 0.0
holerringg 0.0
rihskillerdoll 0.0
equaled 0.0
chefette 0.0
rezilientkas 0.0
blastinggggg 0.0
dammnnn 0.0
lifeandtimes 0.0
hausofjazzy 0.0
kaykispeaks 0.0
condesa 0.0
awaaayyy 0.0
flawle 0.0
mandler 0.0
loudies 0.0
dulcattis 0.0
killaaa 0.0
_loveforrihanna 0.0
yesimkayla 0.0
rollingnostone 0.0
richkunt 0.0
yasssssss 0.0
eriricccccc 0.0
cuntmeout 0.0
sashay 0.0
condragulations 0.0
neverrr 0.0
phasetoo 0.0
fooooorde 0.0
ruunavi 0.0
rihtweet 0.0
ishoobernator 0.0
thirstiest 0.0
j_dimps 0.0
deecosey 0.0
itsrihannasnavy 0.0
muthaphuckin 0.0
