awesome 0.00149113376972
christmas 0.000675951089412
trying 0.000396494495456
launch 0.0
moment 0.0
wonderful 6.85192464567e-05
seeing 9.39993721911e-05
hanging 0.000807421983652
sounds 6.50803700605e-05
contacts 0.0
anybody 0.0
worked 3.29832546688e-05
direct 0.000172756286166
others 0.000229636717112
currently 0.0
better 0.000362070002374
please 0.000733965664379
social 0.0
anxiety 0.0
around 0.000392242502571
people 0.00027155250178
morning 0.001274094998
damage 0.0
everything 0.000394362737478
present 3.45402996728e-05
though 6.31754916591e-05
friend 0.000243996612588
watched 6.85192464567e-05
beautiful 0.000343735979474
demanding 0.0
anything 0.000400793086451
tagged 0.0
helped 0.0
thinking 0.000123987746958
finally 0.000185981620437
caught 0.000170833208221
believe 0.000151269687474
already 0.000181523624968
couple 0.000331623204774
launches 0.0
chance 0.00054604071343
annual 4.07836150114e-05
quickly 0.0
growing 3.63812477908e-05
probably 3.28941187097e-05
changed 0.0
history 0.0
center 0.000198803602184
museum 0.0
behind 0.000150862500989
screaming 0.0
pretty 0.000247975493915
really 0.000394362737478
possibly 4.22037594921e-05
little 0.000998379937326
happiest 0.0
earlier 3.5495205324e-05
forget 6.14944637286e-05
someone 9.17457080474e-05
things 0.000301725001978
available 0.00119710005163
perfect 6.31754916591e-05
different 6.16604748386e-05
person 0.000182504846889
watching 0.00106748518007
exhibit 0.0
passed 0.0
prefer 0.0
minutes 0.000219331868446
travel 3.7088843038e-05
daughter 3.66824732564e-05
positive 0.0
outside 3.21035276235e-05
looking 0.000423555124926
forward 0.000280481059545
raising 4.33145291034e-05
impression 0.0
wheels 6.29968109083e-05
favorite 0.00056328875356
instead 6.83332832883e-05
appreciate 0.000178449336454
couldn 0.000126350983318
remember 3.03355951906e-05
impressive 0.0
vintage 0.0
holidays 4.33145291034e-05
friends 0.000274496189162
impossible 0.0
everyone 0.000242684761525
always 0.000452587502967
limited 0.000159490711578
months 0.000126692397975
moving 6.52565599678e-05
meeting 6.21612660977e-05
answer 3.10806330488e-05
together 0.000365009693778
inside 0.000189526474977
upstairs 0.0
missed 0.000122988927457
active 4.88156263119e-05
eventually 0.0
longer 3.50139750241e-05
enough 9.19933621022e-05
building 6.81478914362e-05
enjoying 3.7088843038e-05
london 0.000505161998472
posting 0.0
recent 8.01956937026e-05
amazing 0.0005748248124
attention 3.43528922368e-05
tomorrow 0.00148644416434
whenever 0.0
feeling 0.0
excited 0.000475096492408
understand 0.0
following 6.36890692305e-05
asleep 0.000223711833867
learning 3.76046248319e-05
evening 0.000173644392065
special 0.00024465522146
secret 0.000407778404405
across 0.0
surprised 0.0
candles 0.0
sophia 0.0
version 3.35236721042e-05
rather 0.0
showing 3.23647630233e-05
saying 0.000190038596963
thoughts 0.0
exactly 0.0
getting 0.00124375940281
nothing 0.000121342380762
tweets 0.000100298783023
photos 3.66824732564e-05
looked 6.88929009038e-05
difficult 0.0
office 0.000262441962414
brought 0.000235302831913
biggest 0.0
thrilled 0.0
entire 3.37059838383e-05
something 0.000242684761525
closing 4.51280147643e-05
anyone 0.000214073318777
taking 9.10067855717e-05
interesting 3.37975544706e-05
original 0.000107657379916
flying 7.62587543847e-05
sometimes 0.000133731710697
yesterday 6.11638053649e-05
serious 0.0
digital 0.000179979210506
wearing 0.0
british 0.0
either 3.30726547348e-05
second 9.17457080474e-05
checking 0.000157267996807
indeed 0.0
island 0.0
hearing 0.0
staying 0.0
another 0.000544570874905
compare 0.0
bummer 8.66901429236e-05
clothes 0.0
landing 0.0
weekend 0.00110690034712
delivery 0.0
secretive 0.0
anyway 0.00011762124314
recognize 0.0
working 0.00112241702205
bigger 7.11847586433e-05
laughing 0.0
wanted 0.000275980086307
clothing 0.0
grateful 0.0
friendship 0.0
family 0.000455033927859
listening 0.000133009013922
stream 0.000125168737977
double 0.000343528922368
especially 0.0
shaking 0.0
waiting 0.000124322532195
definitely 0.000165811602387
account 0.0
completely 0.0
thought 0.000214073318777
possible 3.21035276235e-05
simple 3.53017911989e-05
professional 4.49948026265e-05
members 0.0
business 0.000327166329027
absolutely 6.49046930793e-05
sending 0.000105616641292
introducing 0.0
congrats 0.000286600811537
community 0.0
keeper 0.0
greatest 0.0
selfie 4.5396216532e-05
pasadena 0.0
posted 0.000179428966526
saturday 0.000800423734282
designs 0.0
broken 3.76046248319e-05
chicago 0.000494995305995
glimpse 0.0
actually 6.21612660977e-05
myself 0.00011928216131
pajamas 0.0
school 0.000184981424516
throwback 0.0
thursday 0.000227166425778
selling 4.14853326897e-05
talented 0.000119618033683
celebrate 0.000368760393146
celebrating 7.23641773011e-05
anniversary 0.000183412366282
contest 0.00019769022074
experiences 0.0
students 0.0
figure 7.25630077953e-05
featuring 0.000118281957757
inspired 3.66824732564e-05
breeze 0.0
sitting 3.42596232284e-05
playing 0.000277472136773
street 0.000134458761093
points 3.88797089361e-05
advice 3.55923793217e-05
memory 0.0
forever 0.000102778869685
imagine 0.0
problem 0.0
played 6.77788077144e-05
keeping 0.000101668211572
lovely 0.000114388131577
dressed 0.0
chinese 4.8966867231e-05
sunshine 0.0
afternoon 7.13797345816e-05
notice 8.22648678552e-05
difference 0.0
suppose 0.0
letting 0.000149176395732
system 0.0
mutant 0.0
bathroom 5.93626493307e-05
almost 0.000273020356715
details 9.94869614323e-05
experience 3.16730994938e-05
luckily 0.0
viewed 0.0
living 0.000190038596963
weather 3.87713695012e-05
bright 0.0
launching 0.0
colors 0.0
monday 0.000221711696457
walked 4.56668237289e-05
pinned 0.0
wanting 4.77776492574e-05
tweeting 0.0
forgot 7.60473881427e-05
gorgeous 0.0
herself 0.0
happens 3.14177594634e-05
learned 0.0
congratulations 0.000100298783023
raised 0.0
mission 8.22648678552e-05
smelled 0.0
unforgettable 0.0
forgotten 4.51280147643e-05
trouble 0.000150003042805
channel 0.000258194818125
fantastic 0.000214726027601
loving 0.000322089041402
hardly 0.0
dining 0.0
complete 3.48236116154e-05
daniel 0.0
rewarding 0.0
spirit 3.93169992018e-05
finding 7.4177686076e-05
stories 3.28052453017e-05
including 3.37059838383e-05
somewhere 3.95380441479e-05
conversation 0.0
disrespectful 0.0
making 0.000242031499958
expect 0.0
polite 0.0
brings 0.0
anytime 0.000149671762009
needed 0.0
seriously 3.35236721042e-05
modern 0.0
welcome 6.13289080682e-05
moments 7.54176954683e-05
jacket 0.0
halloween 0.000182124867033
costume 0.0
totally 7.00279500482e-05
flight 0.0
attached 0.0
finished 0.000181407519488
strong 9.37461762201e-05
message 0.0
coming 0.00139168112476
temporary 0.0
challenge 9.97567604416e-05
achievement 0.0
unlocked 0.0
happen 0.000247307775643
celebrated 0.0
giving 0.000122657816136
excellent 0.0
common 0.0
pressed 0.0
company 0.0
change 0.000121342380762
singing 0.0
silver 0.0
august 0.000342526389896
crying 4.77776492574e-05
happened 0.000159653094198
parking 5.95774011284e-05
demand 0.00011995515698
sacrifice 0.0
personal 9.89497640064e-05
beyond 0.0
question 9.29908102183e-05
chicken 0.000130701060355
position 0.0
losing 3.73972528802e-05
respect 6.63246409549e-05
caption 0.0
shouldn 0.0
career 0.0
reason 0.0
explore 0.0
glamorous 0.0
reality 0.0
burned 0.0
without 0.000152909513412
problems 0.000112191758641
countdown 0.000220694426684
online 0.000195769679903
animals 0.0
buying 0.0
pictures 7.66837209325e-05
underneath 8.61653905632e-05
camera 7.92983537419e-05
checked 0.0
heading 0.000757742997709
complex 0.0
sunday 0.000407330612828
nights 8.946025975e-05
traffic 0.0
through 4.25694912452e-05
changing 3.71912964478e-05
diapers 0.0
convinced 0.0
capture 0.0
random 0.0
recorded 0.000138232020805
november 0.000162672929844
number 3.10806330488e-05
stupid 0.000126611278476
grandparents 0.0
recording 4.86651397146e-05
chocolate 4.6493519283e-05
unless 0.0
calling 3.18445346153e-05
mermaid 0.0
levels 0.0
package 0.000108875311093
option 8.78995261932e-05
knowing 0.0
actual 4.03247088238e-05
friday 0.000891669724065
achieve 0.0
winner 0.000269647870706
becomes 8.58794212327e-05
directly 5.00473279496e-05
quality 0.0
father 0.000103620899018
wishes 0.000118614132444
themselves 0.0
asking 0.000224724693364
usually 0.0
period 0.0
resist 0.0
collections 0.0
summer 0.000196299797416
bracelet 0.0
reminded 0.0
dinner 0.000100571016312
single 3.12487254067e-05
catching 8.9724352077e-05
energy 0.0
preview 8.63781430828e-05
monster 0.0
material 0.0
events 3.76046248319e-05
europe 0.0
holiday 0.000104755929572
emotional 0.0
affects 0.0
holding 7.17715866104e-05
survive 0.0
eating 7.58367596552e-05
outfit 0.0
missing 0.000129459052093
surprise 3.24523465397e-05
german 0.000156488126548
officially 0.0
french 0.0
global 8.1106578928e-05
follow 0.000274496189162
design 0.000137409128768
improvement 0.0
website 3.69867363409e-05
breaks 3.99850523267e-05
negative 0.0
official 0.000281998116573
jersey 0.000867089514448
france 0.0
lighter 0.0
thinks 7.07966865638e-05
hospital 0.0
jealous 0.0
successful 0.0
trending 0.000150614661166
leadership 0.0
showed 0.0
attended 0.0
circle 0.000107438457489
interested 0.0
effect 3.99850523267e-05
success 3.42596232284e-05
ladies 0.000582454443692
dreams 3.98726778944e-05
protect 7.77594178721e-05
arguing 0.0
essence 0.0
control 3.38894038572e-05
happier 0.0
likely 0.0
cancel 0.0
project 0.000102778869685
laying 0.0
lesson 0.0
fridays 0.0
invited 0.0
treating 0.0
allowing 0.0
remote 6.65808071714e-05
opening 0.000230882782682
alcohol 0.0
popular 0.0
pedestal 0.0
designing 0.0
followed 0.000282272961767
enjoyed 3.59842354813e-05
spectacular 0.0
recovered 0.0
length 0.0
matters 0.0
factor 0.0
england 0.000310361965747
shared 8.32077776703e-05
benefit 7.60473881427e-05
continues 0.0
fathers 6.08990357692e-05
kitchen 0.0
exciting 0.0
corner 4.33145291034e-05
spring 0.000116314108504
fallen 0.0
victoria 0.0
tornado 0.0
typical 0.0
continue 0.0
creative 0.0
excuse 0.0
female 0.0
closer 7.60473881427e-05
accent 6.63101999746e-05
beginning 3.81293771923e-05
sooner 6.02309826443e-05
everywhere 7.23641773011e-05
scenes 0.000115990253058
wishing 4.39497630966e-05
choices 0.0
unpredictable 0.0
become 9.50192984815e-05
photographs 0.0
spread 3.46344417155e-05
season 0.000434628059765
putting 0.000127378138461
annoying 0.0
quietly 0.0
extending 0.0
stance 0.0
sleepy 0.000164533499139
returns 0.00044735055707
bucket 0.0
condolences 0.0
register 0.0
flowers 0.0
define 0.0
somebody 0.0
chicks 8.51424959885e-05
covering 0.0
repeat 4.23251781678e-05
football 7.62587543847e-05
brothers 4.6493519283e-05
player 0.0
physical 0.0
series 0.000230882782682
pretend 0.0
fighting 0.0
atlanta 0.000630020751265
mexico 0.0
president 0.0
talking 0.000547514540667
america 0.000193664598031
greats 0.0
everybody 0.000186986264401
judgment 0.0
amount 0.0
houston 0.000103322430614
everyday 8.61282669477e-05
shooter 8.27274073754e-05
attitude 0.0
million 6.36890692305e-05
honesty 0.0
telling 6.88929009038e-05
pulled 4.55312167581e-05
attack 0.0
killed 3.37975544706e-05
horrible 0.0
norman 0.0
salute 0.0
jacksonville 0.0
barackobama 0.0
lilduval 0.0
liquor 0.0
american 3.21903550221e-05
realist 0.0
remain 0.0
innocent 5.81052798904e-05
pieces 0.0
taught 4.4730129875e-05
golden 8.17988809807e-05
straight 3.36146902733e-05
forgive 0.0
answers 3.90975618695e-05
product 0.0
smoking 0.0
created 7.29626450201e-05
record 3.16730994938e-05
weapon 0.000123164431807
bottom 4.06682324609e-05
arrangements 0.0
africa 0.0
committed 0.0
journey 3.94273192523e-05
brother 3.69867363409e-05
prayers 0.0
documentary 0.0
addition 0.0
honestly 0.0
velvet 0.0
country 0.000125332496255
speedy 0.0
dressing 0.0
employee 0.0
yoooooo 0.0
prayer 0.0
nominated 0.0
praying 0.0
insane 0.0
illest 0.0
shooting 0.000492938937759
cancer 0.0
australia 4.49948026265e-05
marijuana 0.0
deserve 0.0
legend 0.000161755130738
mother 0.000202785326824
murder 9.82377401448e-05
realest 0.0
powerful 3.69867363409e-05
attendance 0.0
wisdom 0.0
breaking 3.26282799839e-05
bothered 0.0
angeles 0.000581290625105
dollars 0.0
soldiers 0.0
performance 0.0
reading 3.21903550221e-05
videos 3.90975618695e-05
jordan 0.00295929772781
nobody 0.0
politics 0.0
paradise 0.0
blessing 0.0
coolest 0.000214876914977
strippers 0.0
charities 0.0
donate 0.000204497202452
bullshit 5.81052798904e-05
sample 0.0
rocking 0.000153503762812
bringing 0.000272591565745
deserves 0.0
hilarious 0.0
victim 0.0
stadium 0.0
funniest 0.0
heaven 0.0
ruined 0.0
honest 3.77088477342e-05
rolling 0.0
became 0.0
driver 4.63541541382e-05
breakfast 0.000114388131577
decision 0.0
counting 0.000129192400422
pressure 0.0
awareness 4.34405104981e-05
dearly 0.0
lastnight 0.0
facebook 6.49046930793e-05
basketball 0.000116210559781
campaign 0.000246438829682
twisted 7.46332121868e-05
defined 0.0
discover 0.0
comments 3.69867363409e-05
giveaway 7.22454413666e-05
bipolar 0.0
teenage 0.000133161614343
williams 0.0
custom 0.000182697107308
singer 0.0
future 0.000156243627034
randomly 7.42803134248e-05
angels 0.0
blessed 5.19946164914e-05
sister 4.07836150114e-05
stripper 0.0
dancing 8.51389824903e-05
reigns 0.0
voting 0.0
niggas 0.0
commercial 0.000124811666505
hating 0.0
boring 0.0
century 0.0
acting 0.0
submit 0.000105003458544
besides 6.29968109083e-05
hiding 4.97346567557e-05
periscope 0.0
breath 0.0
choosing 0.0
lawrence 0.0
instagram 0.0
detroit 0.000225249306898
cousin 0.0
honored 0.0
dedication 0.0
rockin 0.0
fucked 7.96413987801e-05
lionelrichie 0.0
talent 0.0
goodnight 0.000290526399452
stores 0.000109975858321
drinking 0.0
brazil 0.0
tattoo 0.000191189346539
consecutive 0.0
regardless 0.0
staring 0.0
commitment 0.0
seconds 8.1106578928e-05
ohhhhhh 0.0
listen 0.000344664364701
whatever 0.000104470834846
wherever 0.0
kicking 0.000171263194948
compete 0.0
lauderdale 0.0
homies 0.0
billion 0.0
belated 0.0
pirate 0.0
shoutout 0.0
grammy 0.0
guilty 0.0
ceiling 0.0
grammys 0.0
absolute 0.0
nelson 0.0
mandela 0.0
bigsean 0.0
handle 7.90760882958e-05
tonite 0.000205638668337
cocaine 0.0
promise 0.000107952706444
longest 0.0
generation 0.0
tuesday 0.00017223225226
struggle 0.0
workout 0.0
character 0.000162213157856
mirror 4.94251925024e-05
interview 0.000308302374193
buffalo 6.8546222779e-05
justin 0.000204021062223
insights 0.0
winning 6.47295260466e-05
oxygen 0.0
espnnfl 0.0
charlotte 0.000741761087195
accomplished 0.0
defense 0.0
gettin 0.0
arabia 0.0
lmfaooooo 0.0
writing 0.000105328827058
soccer 0.0
society 0.0
brooklyn 6.1352766127e-05
incredible 0.0
witcho 0.0
celebrity 0.0
minute 6.83332832883e-05
foreign 0.0
cherry 0.000199742421514
champs 0.0
murdered 0.0
evidence 0.0
android 7.00328535149e-05
sneaking 0.0
clearly 0.0
download 0.000299710591159
mixtape 0.0
central 0.0
washington 4.00978468513e-05
veterans 0.000118725298661
stronger 0.0
promised 0.0
marcus 0.0
zombie 0.000347146916974
throwing 0.0
security 4.02110646209e-05
fastest 0.0
fantasy 0.0001149914274
turning 7.58367596552e-05
ignore 0.0
fucking 0.000276802169472
tickets 0.00154066387677
collector 0.0
prizes 6.44810035608e-05
december 0.0
loyalty 0.0
return 0.000134094688417
escape 0.0
yassss 0.0
goddess 0.0
handsome 0.0
language 0.0
motion 5.33663299822e-05
gallery 0.0
movies 9.07924330641e-05
children 0.000100027366026
backpack 0.0
potentially 0.0
guardian 5.48033872998e-05
review 0.000541244998363
theaters 0.000451367024926
shhhhh 0.000116818254248
begins 3.62815038976e-05
closet 7.12772566895e-05
bodies 0.0
hahaha 0.0
produced 4.74875268279e-05
latest 0.000492078679526
banned 0.0
beyonce 0.0
perform 0.0
lionel 0.0
signed 0.000267463421394
princess 0.0
ghetto 0.0
conditioning 0.0
charity 0.000126975534503
germany 0.0
ronaldo 0.0
married 4.48621760385e-05
millions 0.0
blessings 0.0
diamond 0.000137675493576
nephew 0.000137092445558
lights 0.000130701060355
howard 0.0
turned 6.6504506961e-05
buckle 0.0
relevant 0.0
performing 4.86651397146e-05
indian 0.0
includes 9.02560295286e-05
tricks 6.60419982069e-05
survivor 0.0
diamonds 0.0
collection 0.0
families 0.0
welcoming 0.0
select 0.0
announced 0.000258194818125
granted 0.0
decided 0.0
selfish 0.0
trailer 0.000824454772609
reppin 0.0
celebration 8.51389824903e-05
decades 0.0
ultimate 4.39497630966e-05
incase 0.0
downtown 6.02309826443e-05
seasoning 0.0
episode 0.000868370127613
mentality 0.0
touching 5.83112363228e-05
retweet 3.84486658882e-05
goodmorning 0.0
midnight 0.000408994404903
expectations 0.0
joining 7.13797345816e-05
reasons 0.0
released 0.000176508955994
release 0.000266018027844
models 0.0
popped 0.0
within 0.0
standing 0.0
valentines 0.000144490882733
justice 0.000122350845034
houses 0.0
purchase 0.000207978465966
dropped 7.47945057605e-05
conversations 0.0
seattle 0.000608964772839
strength 0.0
monica 0.0
incredibly 0.0
streets 0.0
private 3.88797089361e-05
inspirational 0.0
barbie 0.0
tables 0.0
affection 0.0
broski 0.0
pissing 0.000100555382223
designer 0.0
cooking 0.0
tattoos 0.0
direction 0.0
readyyyyy 0.0
exclusive 0.000359842354813
adrianalima 0.0
fashion 0.0
talkin 0.0
bitches 0.000170284991977
nailed 0.0
kitten 0.0
whomever 0.0
ruthless 0.0
teaching 0.0
chillin 0.00160571058061
philly 0.000226806618838
baddest 0.0
cheers 0.0
autumn 0.0
presents 0.000198318111513
flawless 0.0
unique 0.0
handed 0.0
taraji 0.0
victory 0.0
tribute 0.000166415555341
ballin 0.0
horror 0.0
females 0.0
catfish 0.0
action 0.000227781295212
wouldnt 0.0
recipient 0.0
whitney 0.0
continued 0.0
esther 0.0
letter 0.0
existence 0.0
papers 0.0
winter 8.20314246226e-05
sessions 5.37192287443e-05
replicating 0.0
foundation 0.000129567214624
syndrome 0.0
colorado 0.000668538633354
tremendous 0.0
public 3.52055470975e-05
cannot 3.37975544706e-05
brilliant 3.71912964478e-05
illustration 0.0
beware 0.0
globally 0.0
premieres 0.00030005772656
streaming 9.91590557566e-05
immigration 0.0
wrapped 5.68982189238e-05
studio 0.000126611278476
february 0.000133795977234
amazon 0.000459398798929
border 0.0
huffingtonpost 0.0
francis 6.94293833948e-05
january 0.0
relationships 0.0
tragic 5.48033872998e-05
secure 0.0
countries 0.0
episodes 0.000218479869123
broadcast 0.0
tickled 0.0
livestream 6.91321149784e-05
potential 0.0
education 0.0
famous 0.0
unknown 0.0
exists 0.0
orders 0.0
microsoft 0.0
ability 0.0
director 0.00015125372758
accessible 0.0
correction 0.0
william 0.0
editors 0.0
yellow 0.0
passionate 0.0
treatment 0.0
ambassador 0.0
thanking 0.0
streamed 0.0
lovers 0.0
wrinkled 0.0
bridge 0.0
magazine 4.20828274657e-05
sincere 0.0
quotes 0.0
result 0.0
destruction 0.0
edition 0.000162213157856
prince 0.0
indiana 0.0
editorial 0.0
emotion 0.0
mistakes 0.0
inspiring 0.0
counter 0.0
disappointing 0.0
edited 0.0
spotlight 0.0
saddest 0.0
production 0.000145099198945
header 0.0
itunes 0.000650615263345
guests 0.0
snakes 0.0
charging 0.0
arriving 0.0
mysteries 0.0
dangerous 0.0
typically 0.0
saving 0.0
universe 9.73302794293e-05
victims 4.39497630966e-05
receive 4.26923936562e-05
proceeds 0.000242698815517
crossed 5.35422634264e-05
received 3.88797089361e-05
limitations 0.0
studying 0.0
conflict 0.000125993621817
petition 5.46199672808e-05
milestones 0.0
outstanding 0.0
devastating 0.0
installment 0.0
signature 0.0
mistletoe 0.000253940925747
awards 7.90760882958e-05
shelves 0.0
smells 0.0
themed 0.0
sisters 0.0
banquet 0.0
danger 0.0
leading 0.0
member 0.0
dominant 0.0
distinguish 0.0
factories 0.0
distinct 0.0
distance 0.0
confirmed 4.40784306699e-05
behavior 0.0
collect 0.0
vanity 0.0
junior 0.0
communities 0.0
worldwide 0.0
canada 0.000604870632357
recognized 0.0
vessels 0.0
movement 0.0
segment 0.0
internal 0.0
information 4.10157123113e-05
easily 0.0
towards 0.0
october 0.000211625890839
belgium 0.0
european 0.0
caribbean 0.0
cities 0.000181584866128
arrives 0.0
extraordinary 5.11679209373e-05
exquisite 0.0
argentina 0.0
eliminate 0.0
genius 0.000160844258484
prepared 0.0
anthony 0.0
breakthrough 7.22454413666e-05
berlin 0.0
batman 0.00104594414632
upcoming 8.56315974741e-05
upgrade 0.0
singapore 0.0
crucial 0.0
scratch 0.000129984828225
collaboration 0.0
tested 0.0
acquire 0.0
honoring 6.29968109083e-05
holland 0.0
visually 0.0
neyocompound 0.0
inspire 0.0
ebonymag 0.0
spiketv 0.0
constant 0.0
sunset 0.000116622472646
tuning 0.0
gentleman 0.000198125994621
fulfilling 0.0
ayeeeee 0.0
stratford 0.0
poland 0.0
philippines 0.0
kickin 8.88854745551e-05
theweeknd 0.0
september 8.48941748508e-05
manchester 0.000769831008249
rickyrozay 0.0
remarkable 0.0
rihanna 0.0
disgusted 0.0
immoral 0.0
process 0.0
goosebumps 0.000176642972336
performances 0.0
strangers 0.0
emotions 0.0
judgement 0.0
comparing 0.0
thuggin 0.0
studios 0.000323678126634
jennifer 6.02309826443e-05
performer 0.0
literally 7.47945057605e-05
cardiff 0.0
soooooooo 0.0
crashed 0.0
cthagod 0.0
closed 4.30641334739e-05
justinbieber 7.80100555356e-05
complexmag 0.0
billboard 0.0
airing 6.06747038793e-05
albums 0.0
sweden 0.0
katyperry 0.0
treats 6.44810035608e-05
missouri 0.0
thefader 0.0
soundtrack 0.0
theellenshow 0.0
sweets 0.0
festival 4.44677586548e-05
wizkhalifa 0.0
amsterdam 0.0
backstage 0.000108875311093
collab 0.0
subscribed 0.0
joined 0.0
davidguetta 0.0
pushing 0.0
hopeful 0.0
romantic 0.0
mentions 0.0
lurking 0.0
ballad 0.0
teamed 8.00633986689e-05
exclusively 6.20464173702e-05
kingjames 0.0
hollyrpeete 0.0
sneakers 0.0
auction 6.04520275905e-05
sneaker 0.0
djkhaled 0.0
express 4.67741957274e-05
thegrammys 0.0
throughout 0.0
shining 6.11250480635e-05
excellence 0.0
thrown 0.0
zendaya 0.0
playin 0.0
applemusic 0.0
crunch 0.0
capitalofficial 0.0
filmed 0.0
toronto 0.000107794476223
naomicampbell 0.0
trvisxx 0.0
killin 7.80100555356e-05
trucks 0.0
stands 0.0
platinum 0.0
native 0.0
spotify 0.0
rocked 6.34834746877e-05
jumped 0.0
leebruhgreene 0.0
leaning 0.0
featured 0.0
announce 0.000210657654115
senior 0.0
iamdiddy 0.0
haters 0.0
nothin 7.96413987801e-05
appreciation 0.0
defjamrecords 0.0
floating 0.0
superstars 0.0
shondarhimes 0.0
premiere 0.000492716425517
orchestral 0.0
makeup 6.49924141124e-05
touched 5.65063627642e-05
newest 0.000195262505247
designed 0.0
passes 0.0
angelasimmons 0.0
tidalhifi 0.0
vashtie 0.0
delivered 0.0
owning 0.0
producer 5.48033872998e-05
balmain 0.0
legendary 0.0
independence 0.0
mtvmusicuk 0.0
audition 0.0
debuts 0.000347146916974
footage 0.0
marshall 0.0
spends 0.0
playtime 0.0
completed 0.0
dishes 0.0
photographed 0.0
bubble 0.000114192144186
belong 6.37297821796e-05
tongue 6.47356253267e-05
observing 0.0
consistent 0.0
posing 0.0
heavens 0.0
contemporary 0.0
aiming 0.0
ceremony 5.38972381113e-05
brighter 0.0
rainbow 0.0
matthew 0.0
phenomenal 0.0
affected 4.66335311361e-05
rivers 0.0
presenting 0.0
competitive 0.0
eskimo 0.0
sibling 0.0
dakota 0.0
printed 0.0
heroes 9.21546805364e-05
deepest 0.0
describe 0.0
hollywood 0.00115616172503
baggage 0.0
terrifying 0.0
animation 0.000240190196007
nationwide 0.0
capital 0.0
quantity 9.81402936095e-05
nominations 0.0
mountains 0.0
mosaic 0.0
realise 0.0
overload 0.0
photographer 0.0
depression 0.0
donation 0.0
marvelous 0.0
madonna 0.0
sailed 0.0
terror 0.0
rinsed 0.0
disorder 0.0
polish 0.0
represents 0.0
touchdown 0.0
creates 5.95774011284e-05
oxford 0.0
stitched 0.0
morocco 0.0
thrill 0.0
balloons 0.0
teaming 0.0
latimes 0.0
kerrywashington 0.0
caution 0.0
camouflage 0.0
approaching 6.768817917e-05
generous 0.0
installation 0.0
benefiting 0.0
basics 0.0
confirm 0.0
thrilling 0.0
photography 0.0
matches 0.0
boundaries 0.0
singles 0.0
laptop 0.0
obvious 0.0
darling 0.0
celebrations 0.0
chewbacca 0.0
underwater 0.0
naughty 0.000150703277979
advised 0.0
feelin 8.0491384571e-05
macaroni 0.0
perfection 0.0
picasso 0.0
recipe 0.0
radical 0.0
volcano 0.0
planted 0.0
products 5.48033872998e-05
directed 0.000206644861227
grabbed 0.0
frames 0.0
casual 0.0
scheming 0.0
twickenham 0.0
bbcnews 0.0
pledge 0.0
subtle 0.0
embarrassed 6.49924141124e-05
snatch 0.0
unveiling 0.0
kissed 0.000197848077956
arguments 0.0
settling 0.0
desperate 0.0
executive 0.0
humbled 0.0
courage 0.0
dropping 9.13336474577e-05
carried 0.0
behalf 0.0
hardest 0.0
marking 0.0
vision 0.0
intervention 0.0
records 9.16060858455e-05
deeply 0.0
mannered 0.0
texted 0.0
israeli 0.0
strongest 0.0
rogers 0.0
concept 0.0
allegiance 0.0
belongs 0.0
intended 0.0
bosses 0.0
purpose 0.0
hottest 0.0
campaigns 0.0
sunderland 0.0
teenager 0.0
runway 0.0
steven 0.0
guitar 0.0
donating 5.46199672808e-05
applause 0.0
finale 0.000159574249343
wasted 0.0
absent 0.0
awhile 0.0
fierce 0.0
sincerely 0.000143838497997
apology 5.68982189238e-05
climbing 0.0
unwilling 0.000110374189664
protesting 0.0
bikini 0.0
friendships 0.0
matching 0.0
wolves 0.0
mosque 0.0
venezuela 0.0
donates 0.0
generations 0.0
underestimate 0.0
pardon 0.0
stickers 0.0
mothers 0.000168936980173
deeper 0.0
nipple 0.000119838022421
perfume 0.0
noodle 0.00010813816686
melissa 0.0
forest 0.0
panties 0.000118290375486
jimmykimmel 0.0
everytime 0.0
underdog 0.0
shoulders 7.84096971424e-05
wrapping 0.0
bedroom 7.03391759449e-05
glitter 0.0
stocking 0.0
annoyed 0.0
behave 0.0
goodbye 0.000142462580484
fuckin 0.0
seller 0.0
joshgroban 0.0
samsungmobileus 0.0
influential 0.0
slicing 0.0
ryanseacrest 0.0
farmer 0.0
teaser 7.03391759449e-05
styled 0.0
casting 0.0
imitated 0.0
forgiveness 0.0
perezhilton 0.0
blacked 0.0
paparazzi 0.0
peoplemag 0.0
rolled 0.000127956233833
vanityfair 0.0
rockstar 0.0
thousand 0.0
minded 0.0
shines 0.0
sunglasses 0.0
auntie 0.0
magazines 0.0
waited 0.0
denmark 0.0
leather 0.0
wished 0.0
ladygaga 0.0
swallow 0.0
glblctzn 0.0
shakira 0.0
accessories 0.0
nbcthevoice 0.0
clique 0.0
premiering 7.00328535149e-05
loooooove 0.0
weareheremvmt 0.0
looooove 0.0
vmagazine 0.0
popcrush 0.0
studded 0.0
yassssss 0.0
yessss 8.27274073754e-05
undeniable 0.0
unicef 0.0
auditions 0.0
ellemagazine 0.0
yasssss 0.0
pharrell 0.0
greece 0.0
papermagazine 0.0
nowwwww 0.0
maccosmetics 0.0
macaidsfund 0.0
lipstick 9.59042708051e-05
meeeee 0.0
newsstands 0.0
unapologetically 0.0
insidebates 0.0
legalize 0.0
loooove 0.0
caradelevingne 0.0
allllll 0.00013370326172
badgalriri 0.0
itsjeremyscott 0.0
nickiminaj 0.0
nipples 0.0
booooo 0.0
trippy 0.0
mikewillmadeit 0.0
puttin 0.0
trappin 0.0
alexanderwangny 0.0
karllagerfeld 0.0
celebratin 0.0
lilyallen 0.0
fuuuuuck 0.0
chanel 0.0
rubber 0.0
angelou 0.0
misses 0.000127459564359
harpersbazaarus 0.0
timberlake 0.0
photoshopped 0.0
whatchu 0.0
rehearsals 0.0
couture 0.0
mutual 0.0
creeper 0.0
cuddling 0.000109235469611
celine 0.0
theamas 0.0
thexfactor 0.0
websterhall 0.0
presale 0.00109503791265
deluxe 0.0
styles 0.000295725978034
wetten 0.0
shittttttttttt 0.0
boredom 0.0
darealamberrose 0.0
noooooooo 0.0
itunesmusic 0.0
cbstweet 0.0
thermal 0.0
mariners 0.0
torres 0.0
thebeatles 0.0
blondies 0.0
greeting 0.0
thecut 0.0
geeked 0.000125023174332
outlet 0.0
americanexpress 0.0
gqmagazine 0.0
nicole 0.0
bumped 0.000152175180227
hangover 0.0
stockholm 0.0
casually 0.0
esquire 0.0
winnipeg 0.0
begging 0.0
showroom 0.0
sleeves 0.0
smelling 0.0
guaranteed 0.0
obsession 0.0
attendant 9.38225833765e-05
aussie 7.92252197653e-05
tbsveryfunny 0.0
reservation 0.0
mollymcnearney 0.0
dragging 0.0
rocnation 0.0
tapered 0.0
badass 0.000133161614343
endlessly 0.0
vampires 0.0
viewers 0.0
kanyewest 0.0
designers 0.0
billboards 0.0
backstreetboys 0.0
monteith 0.0
e_fashionpolice 0.0
epically 0.0
internationally 0.0
mighty 6.91321149784e-05
jcolenc 0.0
semifinals 0.0
brasilia 0.0
tailgating 0.0
photoshoot 0.0
smokin 0.000225578556554
ahhhhhh 0.0
missin 0.0
sweats 0.0
impacted 0.0
rodriguez 8.7767846778e-05
musician 0.0
merchandise 0.0
jurgen 0.0
athleteally 0.0
originals 0.0
número 0.0
zealand 6.68538633354e-05
hehehe 0.0
fearless 0.0
stadiums 0.0
thiago 0.0
suarez 0.0
cropped 0.0
uruguay 0.0
apparel 0.0
staircase 0.0
wintour 0.0
spotting 0.0
polygraph 0.0
twerking 0.00010813816686
shipment 0.0
muggin 0.0
takeoff 0.0
thailand 0.0
tomorr 0.0
googleplay 0.0
budweiser 0.0
miafestival 0.0
dotted 0.0
burning 0.0
surpass 0.0
betcha 0.0
onairwithryan 0.0
dreamers 0.0
brunomars 0.0
beyoncé 0.0
hellooo 0.0
subscribers 0.0
preorder 0.000154452620334
believer 0.0
fragrance 0.0
hellooooo 0.0
majesty 0.0
beatsbydre 0.0
finland 0.0
fearnecotton 0.0
debuted 0.0
queued 0.0
rhetorical 0.0
iranian 0.0
infamous 0.0
brutally 0.0
execution 0.0
palestinian 0.0
transplant 0.0
audacity 0.0
foreplay 0.0
priced 0.0
huntington 0.0
manger 0.0
weaker 0.0
justintrudeau 0.0
creeping 0.0
fittest 0.0
hoodie 0.0
mankind 0.0
westwood 0.0
holographic 0.0
throwin 0.0
eminem 0.0
ecstatic 0.0
enjoys 0.0
wussup 0.0
duplicated 0.0
crotch 0.0
congrat 0.0
huggin 0.0
implement 0.0
penalizing 0.0
gonzalez 0.0
bitchin 0.0
sephora 0.0
damien 0.0
demanded 0.0
negativity 0.0
alancarr 0.0
skillz 0.0
hopeless 0.0
beatle 0.0
cheesecake 0.0
almighty 0.0
whatcha 0.0
slumber 0.0
chimney 0.0
headlining 0.0
perplexed 0.0
googleplaymusic 0.0
thrills 0.0
rollers 0.0
bravotv 0.0
gifted 0.0
kekepalmer 0.0
styledtorock 0.0
yooouuu 0.0
shantay 0.0
yaaaas 0.0
bestest 0.00105136428823
freestyle 0.0
everrrrr 0.0
sweatband 0.0
podolski 0.0
collaborating 0.0
bestfriend 0.0
sittin 0.0
whaaaat 0.0
clockwork 0.0
warmest 0.0
temptation 0.0
spiritual 0.0
chameleon 0.0
customised 0.0
acrylic 0.0
grasshopper 0.0
engages 0.0
gourmet 0.0
rhythmic 0.0
petals 0.0
klinsmann 0.0
directv 0.0
popcrave 0.0
versailles 0.0
raddest 0.0
grandfather 0.0
persie 0.0
webster 0.0
knight 0.000219737179045
footwear 0.0
collectors 0.0
blackout 9.89240389782e-05
skylight 0.0
hammock 0.0
playhouse 0.0
revelers 0.0
executed 0.0
cincinnati 0.0
simultaneously 0.0
malawi 0.0
graduated 0.0
sickening 0.0
mueller 0.0
elonjames 0.0
skeletons 0.0
mittromney 0.0
connecticut 0.0
cumulative 0.0
racked 0.0
valera 0.0
thighs 0.0
timely 0.0
rapping 0.0
shrugs 0.0
enables 0.0
psychic 0.0
fernando 0.0
tourism 0.0
slaughtered 0.0
devotion 0.0
fantasies 0.0
parsons 0.0
stella 0.0
complainers 0.0
newsstand 0.0
voguemagazine 0.0
westfield 0.0
manolo 0.0
turquoise 0.0
parisian 0.0
childs 0.0
swimsuit 0.0
bazaar 0.0
empress 0.0
brainstorm 0.0
tanning 0.0
desirable 0.0
feathers 0.0
antics 0.0
featurette 0.0
olivier 0.0
helloooo 0.0
hallow 0.0
connie 0.0
upbringing 0.0
privatize 0.0
bittersweet 0.0
outlaw 0.0
marcel 0.0
nowwww 0.0
hushed 0.0
threshold 0.0
floats 0.000106056479431
barbados 0.0
manuelcav 0.0
niggaz 0.0
prayin 0.0
drizzyxcole 0.0
homegirl 0.0
rappin 0.0
witcha 0.0
mufasa 0.0
dainternz 0.0
lololol 0.0
barclayscenter 0.0
bestbuy 0.0
blackouts 0.0
rivera 0.0
jakemiosge 0.0
givenchy 0.0
riccardo 0.0
grossed 0.0
guetta 0.0
spicewon 0.0
bitche 0.0
shawty 0.0
wednesdays 0.0
payday 0.0
jewelers 0.0
romero 0.0
acknowledging 0.0
calypso 0.0
blushes 0.0
medusa 0.0
keepers 0.0
futuristic 0.0
whereabouts 0.0
slayed 0.00011155757664
asvpxrocky 0.0
haaaaa 0.0
inezandvinoodh 0.0
calvinharris 0.0
_maxwell_ 0.0
bwerde 0.0
edward_enninful 0.0
haaaaaa 0.0
wisest 0.0
unconditionally 0.0
drmayaangelou 0.0
blackgirlsrock 0.0
submissive 0.0
rearrange 0.0
attuned 0.0
abrams 0.000123193977918
awaken 0.0
climbs 0.0
jacking 0.0
seventy 0.0
snatching 0.0
manoloblahnik 0.0
nicolerichie 0.0
openingceremony 0.0
whiteley 0.0
supermodel 0.0
the_real_iman 0.0
minogue 0.0
tmagazine 0.0
baaaaack 0.0
yeessss 0.0
wooooo 0.0
epicness 0.0
takawiraa 0.0
joplin 0.0
uncensored 0.0
unspeakable 0.0
rewrites 0.0
askdrruth 0.0
glozell 0.0
tardiness 0.0
runways 0.0
colombian 0.0
unapologetic 0.0
zac_posen 0.0
rumoured 0.0
omgggg 0.0
futbol 0.0
biatch 0.0
barrington 0.0
catwalk 0.0
sledgehammer 0.0
clemente 0.0
dollaz 0.0
mariah 0.0
granddad 0.0
iyanlavanzant 0.0
hustler 0.000142383349108
coletteparis 0.0
flexin 0.0
mistress 0.0
exceeds 0.0
sweeeeeet 0.0
stancesocks 0.0
serviced 0.0
issssss 0.0
lipglass 0.0
externally 0.0
complex_uk 0.0
prideful 0.0
dash_radio 0.0
holidaze 0.0
mawnin 0.0
champagnepapi 0.0
fashawn 0.0
raided 0.0
ahhhhhhhh 0.0
soulmate 0.0
motorbikes 0.0
britishvogue 0.0
gnlstudios 0.0
robinsoncano 0.0
debuting 0.0
cc_sabathia 0.0
colorways 0.0
hit_boy 0.0
_spyda 0.0
phresh 0.0
dominates 0.0
ratchet 0.0
rupaul 0.0
cockpit 0.0
kimmiekyees 0.0
horoscope 0.0
catwalks 0.0
paramedic 0.0
fhollande 0.0
sexiness 0.000284766698216
hereeee 0.000166851141217
changers 0.0
tiptoes 0.0
revved 0.0
meditative 0.0
fauntleroy 0.0
mbsings 0.0
disrespectfully 0.0
traumatized 0.0
outdid 0.0
elvispresley 0.0
toupee 0.0
josephine 0.0
discography 0.0
mariasharapova 0.0
chinchilla 0.0
skylar 0.0
illestbaba 0.0
georgiamjagger 0.0
pierced 0.0
hardrock 0.0
snorkeling 0.0
thrilla 0.0
gunpoint 0.0
sleeved 0.0
stevestoute 0.0
kiiiiiiiiiiiiinnnngggggg 0.0
lanvin 0.0
chateau 0.0
lizzs_lockeroom 0.0
prophets 0.0
müller 0.0
lullaby 0.0
samersum 0.0
disassembled 0.0
anniversaries 0.0
hayden_williams 0.0
rousteing 0.0
slayage 0.0
raunchy 0.0
benzema 0.0
fuckery 0.0
hellooooooo 0.0
juliagillard 0.0
congeniality 0.0
gunned 0.0
condense 0.0
missjillscott 0.0
yussss 0.0
chopard 0.0
woodbridge 0.0
orousteing 0.0
dubsmash 0.0
alicialquarles 0.0
worldmcqueen 0.0
whateva 0.0
elysées 0.0
jennnrosales 0.0
xstrology 0.0
looool 0.0
tippin 0.0
marleys 0.0
dwanimation 0.0
dreamworks 0.0
yaself 0.0
anothermagazine 0.0
claralionelfdn 0.0
mchingi 0.0
rihannareplay 0.0
awtguide 0.0
ryannavy_rih 0.0
rihquest 0.0
gpforeducation 0.0
valliniandre 0.0
globalfund 0.0
rhenna 0.0
millymaefenty 0.0
peetes 0.0
pandagunda 0.0
floriamamaroma 0.0
adoringrihanna 0.0
ymcofficial 0.0
rihanti_ 0.0
mcdean 0.0
rihannadaily 0.0
stancemuse 0.0
muhtean 0.0
rihdefine 0.0
officialdonnie 0.0
stunnafenty 0.0
perfumesbyriri 0.0
badgal 0.0
shaninamshaik 0.0
reblrihanna 0.0
elliscole_ 0.0
itskaitbh 0.0
harpersbazaarcn 0.0
yusefhairnyc 0.0
mylahmorales 0.0
teamofrihanna 0.0
muhphucka 0.0
harpersbazaar 0.0
rihrihfreak 0.0
thenbacentral 0.0
roversi 0.0
suchaf_cknlady 0.0
fourfiveseconds 0.0
petergrayhair 0.0
wkorea 0.0
dennisleupold 0.0
ursulastephen 0.0
ozzysalvatierra 0.0
ciarrap 0.0
rihannaargntina 0.0
rihearsal 0.0
sremmurd 0.0
id_magazine 0.0
heauxm 0.0
rihpost 0.0
jrgseul 0.0
bitchez 0.0
underst_navy 0.0
sonitaalex 0.0
chris_walden 0.0
danachanel 0.0
wednesdayz 0.0
jimmyfenty 0.0
houseoffraser 0.0
skeete 0.0
_kailssss 0.0
muhphuckas 0.0
phuckin 0.0
rastafarih 0.0
obviiii 0.0
etherihalvibe 0.0
rorreyfenty 0.0
noellaalstrom 0.0
rihturn 0.0
tellar 0.0
esquireuk 0.0
huffpoststyle 0.0
tyronmachhausen 0.0
melottenberg 0.0
paolakudacki 0.0
tompecheuxmu 0.0
lgoldstein_ltd 0.0
phucking 0.0
kudacki 0.0
hellurrr 0.0
tom_ford 0.0
neakah 0.0
creepah 0.0
pahtna 0.0
wontonsan 0.0
cappadonna 0.0
phuckmarqy 0.0
elfies 0.0
starstunning 0.0
ohnana 0.0
tushmagazine 0.0
macxriri 0.0
rickrubin 0.0
findataui 0.0
tristate 0.0
distoyb 0.0
kabukimagicnyc 0.0
yerdme_cmb 0.0
hittas 0.0
evan_erogers 0.0
jessieriri 0.0
unfourgettable 0.0
meeeaan 0.0
shweinsteiger 0.0
goooooooaaaaallllllll 0.0
goooal 0.0
braaaaaaaaaaaaaaaaaa 0.0
asapkoff 0.0
belgiuuuuummm 0.0
druchaos 0.0
cuadrado 0.0
murdaaahhh 0.0
colombiaaaa 0.0
karafenty 0.0
dlsturbla 0.0
braaaaaaaaaaaaaaaaaaaaaa 0.0
abouuuutttt 0.0
takecarerihanna 0.0
nathannavy 0.0
theworidcup 0.0
goooooaaaaaaallllll 0.0
bazaararabia 0.0
bigshitxtalker 0.0
__tatijxo 0.0
lhhatl 0.0
braaaaaaaaaaaa 0.0
rihannanavyrd 0.0
gooooooaaaalllll 0.0
triscastellano 0.0
iiiiiiiiiiiiiiiiiiii 0.0
eatmydaisy 0.0
leggooooal 0.0
yaaaaaassssssss 0.0
prettygirl_sp 0.0
ooohhhhhh 0.0
shiiiiitttt 0.0
roooonnnnnnnneeeeeeeyyyyyy 0.0
muslera 0.0
tadpole 0.0
giusichrisriri 0.0
_xomec 0.0
blockedt 0.0
ooooohhhh 0.0
goooooooaaaaaaalllllllllllllllll 0.0
stefansaxon 0.0
rihannademos 0.0
dragonflycici 0.0
chririh 0.0
rihluminati 0.0
goaaaalllll 0.0
twinzies 0.0
mantlers 0.0
suchaf__cknlady 0.0
glamour_robyn 0.0
adamselman 0.0
sephorafrance 0.0
thefashionlaw 0.0
scout_willis 0.0
quietude 0.0
theblackvoice 0.0
weeeed 0.0
kiiiiss 0.0
dooooon 0.0
miiiiss 0.0
malinsworld 0.0
prompics 0.0
itsalldonn 0.0
goooorrrrrrlllllll 0.0
thenewdaily_ 0.0
wiggin 0.0
stevesoboroff 0.0
pivot_tv 0.0
lapolicefdtn 0.0
scarificing 0.0
whooooose 0.0
sambapologetic 0.0
bellaisevil 0.0
sta_schemin 0.0
i_aim_tyga 0.0
fameisloud 0.0
garcon_rebelle 0.0
itsbreezybiotch 0.0
phaedra 0.0
vivala_stephyy 0.0
_bossmadeg 0.0
kontomitrosnick 0.0
sorrenti 0.0
whenevahhh 0.0
teamvivanco 0.0
heifers 0.0
stevenkolb 0.0
jeremy_brossard 0.0
jordanbrossard 0.0
quilted 0.0
piscesareus 0.0
plumsykes 0.0
cedellamarley 0.0
offish 0.0
urprise 0.0
i_love_riri 0.0
rihannadiva 0.0
javiroo 0.0
frihday 0.0
cuntlifex 0.0
_chris_rated_ 0.0
yewmadcunt 0.0
erinwasson 0.0
balmainparis 0.0
_yadim 0.0
muthaphucka 0.0
onnneeee 0.0
liiiiieeesss 0.0
gautier 0.0
mtvstarsvotes 0.0
zinloves 0.0
chloefrahm 0.0
uprising_create 0.0
uprising_darren 0.0
jonnycrave 0.0
jeff_uprising 0.0
kareemfenty 0.0
daily_rihnavy 0.0
unapologeticunt 0.0
rorrey 0.0
foreverrr 0.0
guyanese 0.0
annndd 0.0
historih 0.0
grandfadda 0.0
arleta 0.0
loreleicakes 0.0
river_island 0.0
finallyyyy 0.0
rodin_thinker 0.0
mrs_toyac 0.0
cheersrihrih 0.0
bangbang 0.0
faiz_fenty 0.0
leandra 0.0
noella 0.0
rasshoooolllleee 0.0
luminati 0.0
inezvinoodh 0.0
visvim 0.0
realne 0.0
sarahfrancus 0.0
tadium 0.0
trapstar 0.0
afrihca 0.0
rihrobyn 0.0
cbsgirlfriend 0.0
shyronnie_rn 0.0
mariamfenty_ 0.0
mizzpmf 0.0
whooooaaaaa 0.0
camkaipink 0.0
yasssssssssssssssssssss 0.0
lunaxskye 0.0
yaaaaasssssss 0.0
niggggaaaaaaa 0.0
breeziechillin 0.0
betologetic 0.0
isusjsjdha 0.0
awffffff 0.0
mcdessikins 0.0
skreets 0.0
pieceofria 0.0
loooool 0.0
craaaazzyyy 0.0
lolarae_xoxo 0.0
stayflysamir 0.0
shotta 0.0
tamarawray 0.0
lauraleehickock 0.0
heauxz 0.0
rihannanavyit 0.0
manilla 0.0
ronnyerickson 0.0
nikofenty 0.0
vincehaycock 0.0
zodiacfacts 0.0
naomiiknows 0.0
wrizzap 0.0
muuuch 0.0
hongkong 0.0
jetlaaaaaagggged 0.0
rasshole 0.0
februharry 0.0
kaşara 0.0
çıkmadı 0.0
dicked 0.0
vinoodh 0.0
rihannasblog 0.0
urihannafansite 0.0
teejay 0.0
stupse 0.0
clapbacks 0.0
niggaaaazzzz 0.0
bwaaahaaaaa 0.0
willheardmusic 0.0
kristennoelgipson 0.0
rsvpgallery 0.0
backout 0.0
bwahhaaa 0.0
errwhurr 0.0
niiiiggaz 0.0
fridayz 0.0
debbycoda 0.0
cabbing 0.0
dolly_cohen 0.0
cowboyz 0.0
friendz 0.0
phucker 0.0
charliebymz 0.0
lynn_ban 0.0
inwardly 0.0
ravening 0.0
whyyyyyyyyyyyy 0.0
thatdamnlala 0.0
adamsellman 0.0
scottland 0.0
kingspleasure 0.0
mikkyekko 0.0
rihannanavide 0.0
saskoktz 0.0
phlawless 0.0
givenchydonc 0.0
mlle_yulia 0.0
oxxoxo 0.0
foreva_rn_ladii 0.0
skinhead 0.0
killaz 0.0
yennifer 0.0
bestofpisces 0.0
smegma 0.0
morganemiller_ 0.0
aa_davis 0.0
beenie 0.0
nickeystaar 0.0
frihannamorocco 0.0
thinketh 0.0
guitarists 0.0
jordriri 0.0
badgalclaudia 0.0
hausofnath 0.0
_abirogerson 0.0
tommykane 0.0
livenationuk 0.0
millenniu 0.0
juuuussttt 0.0
helllooooo 0.0
miiiine 0.0
chaneliman 0.0
blushy 0.0
laetitiacrahay 0.0
rihmix 0.0
dariuscash 0.0
joshkillss 0.0
drunk_cockiness 0.0
firebombfenty 0.0
mooky_mcnasty 0.0
defpenradio 0.0
iamrici 0.0
letcha 0.0
niggerish 0.0
mawazine 0.0
thefashionaddicts 0.0
phierce 0.0
errwhere 0.0
jocking 0.0
niggaaa 0.0
tami_black 0.0
homienadz 0.0
religiosity 0.0
joycemeyer 0.0
brooooklyyyyn 0.0
miiiiine 0.0
dilekkeysan 0.0
marykatrantzou 0.0
allaboutpisces 0.0
jfisherjewelry 0.0
oddhangover 0.0
diggins 0.0
phyliciaghee 0.0
bawsin 0.0
howeverrrrr 0.0
channyyxoxo 0.0
dowwwwnnnnn 0.0
thugbitch 0.0
rihanas 0.0
miiiiiinnneee 0.0
rihwrite 0.0
janiseeaileen 0.0
ratchify 0.0
eeeeeemmmmmm 0.0
pannies 0.0
wooooiiiiiiiiiii 0.0
muhphuckers 0.0
bashment 0.0
whaaaaattttt 0.0
liiifee 0.0
covery 0.0
leeeeaaaavvveeee 0.0
haarrrrrddd 0.0
ismashedriri 0.0
christabslg 0.0
reallll 0.0
peoplez 0.0
wooiiiiii 0.0
slackness 0.0
kevfenty 0.0
woooiii 0.0
tatiana_xo 0.0
fentynavysalute 0.0
ratchettt 0.0
rachael_deanna 0.0
lifeeeeee 0.0
bxdcfjcf 0.0
killled 0.0
asdfghjkjhgtfrdedfghjnhbgvfc 0.0
troy_fenty 0.0
_marrymerihanna 0.0
jkbwdhbwh 0.0
_noellaa 0.0
hunneds 0.0
thekingfly 0.0
dooown 0.0
woooiiiii 0.0
phucked 0.0
kickstand_ohb 0.0
acedemy 0.0
mistercap 0.0
gallest 0.0
sinsofmyfather_ 0.0
dwayneofficial 0.0
_revofev 0.0
joefenty 0.0
thegodlight 0.0
molestmerihanna 0.0
rihannanavyeu 0.0
melina 0.0
terryrichardsonstudio 0.0
_sexxtroversy 0.0
neuroticbxtch 0.0
getcho 0.0
moneyyy 0.0
idillionaire 0.0
yaaaaaaas 0.0
noxx_onite 0.0
phonefancy 0.0
chiefin 0.0
londonfashionwk 0.0
_mayor_ 0.0
rihannanow 0.0
jamrock 0.0
rihannastats 0.0
jenesismagazine 0.0
napmed 0.0
hausofbeyhive_ 0.0
probabily 0.0
badgalelly 0.0
ladylivja 0.0
rihannacomics 0.0
__glitterdick 0.0
chelsey_ba 0.0
stashbox 0.0
thuglife 0.0
highladayz 0.0
brrrap 0.0
kalifah 0.0
marylin 0.0
muthafucker 0.0
stylenetwork 0.0
bvalgari 0.0
oooonly 0.0
fuckyopictures 0.0
amplifydot 0.0
trappat 0.0
soumsluvriri 0.0
ibebossedup 0.0
holerringg 0.0
rihskillerdoll 0.0
equaled 0.0
chefette 0.0
rezilientkas 0.0
blastinggggg 0.0
dammnnn 0.0
lifeandtimes 0.0
hausofjazzy 0.0
kaykispeaks 0.0
condesa 0.0
awaaayyy 0.0
flawle 0.0
mandler 0.0
loudies 0.0
dulcattis 0.0
killaaa 0.0
_loveforrihanna 0.0
yesimkayla 0.0
rollingnostone 0.0
richkunt 0.0
yasssssss 0.0
eriricccccc 0.0
cuntmeout 0.0
sashay 0.0
condragulations 0.0
neverrr 0.0
phasetoo 0.0
fooooorde 0.0
ruunavi 0.0
rihtweet 0.0
ishoobernator 0.0
thirstiest 0.0
j_dimps 0.0
deecosey 0.0
itsrihannasnavy 0.0
muthaphuckin 0.0
