awesome 6.63338386371e-05
christmas 6.61540561182e-05
trying 0.000298493593964
launch 7.31999697746e-05
moment 0.000150053609261
wonderful 0.000301763214206
seeing 3.06651365777e-05
hanging 3.7628982935e-05
sounds 0.000127385857368
contacts 0.000303843834998
anybody 0.0
worked 0.000161400441134
direct 8.45366567846e-05
others 0.000353164612044
currently 3.55080224367e-05
better 0.000561055862605
please 0.000718318329694
social 0.000234067726921
anxiety 0.0
around 0.000561055862605
people 0.00265763303339
morning 0.000207822117404
damage 4.86743689828e-05
everything 0.000564088604382
present 0.0
though 9.2742990269e-05
friend 0.000358192312757
watched 0.000167646230115
beautiful 0.000366990446479
demanding 0.000131396576983
anything 0.000573286447467
tagged 0.0
helped 9.76300568456e-05
thinking 0.000637058444288
finally 0.000333697280341
caught 0.0
believe 0.000562570184341
already 0.000325698527776
couple 6.49106731015e-05
launches 0.0
chance 0.000148444369574
annual 3.99141535302e-05
quickly 0.000124268556805
growing 3.56056399006e-05
probably 0.000289735672928
changed 6.35209969413e-05
history 0.00113155387664
center 0.000155652263738
museum 0.0
behind 0.000177175535559
screaming 0.0
pretty 0.000606722327893
really 0.00092035509136
possibly 8.26080442082e-05
little 0.000236871656565
happiest 0.0
earlier 6.94769737547e-05
forget 0.000270825614557
someone 0.000179579582423
things 0.00372068624675
available 0.000123324126841
perfect 0.000154571650448
different 6.03459418386e-05
person 0.00044653511445
watching 0.000268644234568
exhibit 0.0
passed 7.23964402114e-05
prefer 4.48265728002e-05
minutes 9.19954097331e-05
travel 3.62981500012e-05
daughter 0.0
positive 7.04341829071e-05
outside 0.000157095579936
looking 0.000325698527776
forward 0.000183001009431
raising 8.47822226763e-05
impression 0.0
wheels 0.0
favorite 6.89100076866e-05
instead 0.000167191233515
appreciate 0.0
couldn 0.000154571650448
remember 0.000207822117404
impressive 0.0
vintage 0.0
holidays 8.47822226763e-05
friends 0.000238794875171
impossible 0.0
everyone 0.000504710856552
always 0.000413409582972
limited 0.0
months 6.19957282168e-05
moving 6.38653624176e-05
meeting 0.000273762255524
answer 0.000152090141958
together 0.0002976900763
inside 0.000123657320359
upstairs 0.0
missed 0.000180550409705
active 0.0
eventually 0.0
longer 0.000102802547623
enough 0.000540192993339
building 0.000133390107806
enjoying 7.25963000023e-05
london 0.000141255001262
posting 0.0
recent 0.0
amazing 0.000384916441918
attention 6.72410532789e-05
tomorrow 0.000148444369574
whenever 9.76539505924e-05
feeling 6.21632702067e-05
excited 0.0
understand 0.000291308241441
following 0.000155828222115
asleep 0.0
learning 3.68029358988e-05
evening 6.79769944138e-05
special 0.000359159164847
secret 0.000166285425278
across 9.95007579556e-05
surprised 0.00014164290645
candles 0.0
sophia 0.0
version 0.000295280861051
rather 0.000333475269514
showing 0.000126699128551
saying 0.000340976505192
thoughts 6.30081846439e-05
exactly 0.000353164612044
getting 0.000296888739148
nothing 0.000326577613063
tweets 0.000196321048212
photos 0.0
looked 0.000134848361188
difficult 7.8265230634e-05
office 0.000513693981154
brought 0.000164490311619
biggest 0.000183495223239
thrilled 0.0
entire 0.000131949638445
something 0.000415644234808
closing 4.41659354942e-05
anyone 0.000508808816866
taking 0.000178133243489
interesting 0.000396924336709
original 0.000105362243867
flying 3.73165011203e-05
sometimes 3.2720174702e-05
yesterday 2.99299304039e-05
serious 0.000317604984707
digital 0.0
wearing 0.0
british 0.0
either 0.000161837911912
second 0.000209509512827
checking 3.84788043445e-05
indeed 0.000323882694643
island 8.40485671317e-05
hearing 0.000132667677274
staying 4.01413027728e-05
another 0.000562570184341
compare 5.41802107866e-05
bummer 0.0
clothes 0.0
landing 0.0
weekend 0.000331009084459
delivery 0.0
secretive 0.000105832780966
anyway 0.000115113688568
recognize 0.000106199503258
working 0.000445333108723
bigger 0.000139334356932
laughing 3.52170914536e-05
wanted 0.000150053609261
clothing 0.0
grateful 3.88039003538e-05
friendship 0.000116194206849
family 0.000356266486978
listening 3.25433522819e-05
stream 0.00016333370557
double 3.36205266394e-05
especially 0.000131592249295
shaking 0.0
waiting 6.0836056783e-05
definitely 6.49106731015e-05
account 0.000174167946165
completely 7.04341829071e-05
thought 0.000478878886463
possible 0.000314191159873
simple 6.90983922542e-05
professional 0.0
members 0.000299362357963
business 0.000192114903247
absolutely 0.000158802492353
sending 3.44550038433e-05
introducing 4.76276528599e-05
congrats 0.000124662577692
community 3.65999848873e-05
keeper 0.0
greatest 6.49106731015e-05
selfie 0.0
pasadena 0.0
posted 0.000948260194802
saturday 3.13343834874e-05
designs 0.0
broken 7.36058717975e-05
chicago 0.000928514896234
glimpse 0.0
actually 0.000334598312307
myself 3.89130659344e-05
pajamas 0.0
school 9.05189127579e-05
throwback 0.0
thursday 3.17604984707e-05
selling 0.00016240364546
talented 0.0
celebrate 6.56179691224e-05
celebrating 3.54107266125e-05
anniversary 3.5900443573e-05
contest 0.0
experiences 0.0
students 0.000314830474236
figure 0.000142032089747
featuring 0.0
inspired 0.0
breeze 0.0
sitting 0.000167646230115
playing 0.000120691883677
street 0.000361878685562
points 3.80508366227e-05
advice 6.96671784662e-05
memory 4.10677867968e-05
forever 0.000100587738069
imagine 0.000463078392827
problem 0.000127385857368
played 0.000165834596593
keeping 0.00023216843523
lovely 0.0
dressed 0.0
chinese 4.792294788e-05
sunshine 0.0
afternoon 6.98579977335e-05
notice 4.02555360136e-05
difference 0.000129821346203
suppose 5.70681053769e-05
letting 3.64990300679e-05
system 0.000296880015885
mutant 0.0
bathroom 0.0
almost 0.000118755495659
details 0.0
experience 6.19957282168e-05
luckily 0.0
viewed 0.0
living 0.000154989320542
weather 7.5889613729e-05
bright 4.17822391293e-05
launching 0.0
colors 0.0
monday 3.09978641084e-05
walked 4.46932576486e-05
pinned 8.93077431435e-05
wanting 0.0
tweeting 3.38960737952e-05
forgot 7.44261420927e-05
gorgeous 0.0
herself 0.0
happens 0.000122991870578
learned 0.0
congratulations 0.0
raised 0.0
mission 4.02555360136e-05
smelled 0.0
unforgettable 0.0
forgotten 0.000132497806483
trouble 0.0
channel 7.21972544852e-05
fantastic 0.0
loving 3.50247177704e-05
hardly 5.51118103162e-05
dining 0.0
complete 6.81624216049e-05
daniel 0.000313371713761
rewarding 0.0
spirit 0.000115436413033
finding 0.0
stories 0.0
including 0.000164937048056
somewhere 0.0
conversation 0.000613676663124
disrespectful 0.0
making 8.88268712118e-05
expect 3.56056399006e-05
polite 0.000353526243046
brings 0.0
anytime 4.88269752962e-05
needed 0.000348422603516
seriously 6.56179691224e-05
modern 0.000213812767086
welcome 0.000180064331113
moments 0.0
jacket 0.000262004008492
halloween 8.91210833365e-05
costume 0.0
totally 0.000376942674617
flight 0.0
attached 0.0
finished 0.000177540112183
strong 6.11650744131e-05
message 0.00015752046161
coming 0.000414525398988
temporary 0.0
challenge 6.50867045637e-05
achievement 5.53017097226e-05
unlocked 0.0
happen 0.000272289878886
celebrated 0.0
giving 0.000240085774818
excellent 0.000386951368573
common 0.000110103858108
pressed 0.0
company 0.000134482106558
change 0.000504710856552
singing 0.0
silver 0.0
august 0.0
crying 0.0
happened 0.000187499360563
parking 0.0
demand 0.000195663076585
sacrifice 0.0
personal 6.45601764535e-05
beyond 0.000331669193185
question 0.000576386211499
chicken 8.52764390486e-05
position 0.000121456010491
losing 0.0
respect 6.49106731015e-05
caption 0.0
shouldn 3.55080224367e-05
career 0.0
reason 0.00021874925399
explore 5.8946924834e-05
glamorous 0.0
reality 0.000353137503154
burned 0.0
without 0.000359159164847
problems 3.65999848873e-05
countdown 5.39973665125e-05
online 0.000127730724835
animals 9.92041317632e-05
buying 4.02555360136e-05
pictures 0.000112573363459
underneath 0.0
camera 0.0
checked 0.0
heading 7.06275006308e-05
complex 0.000195307901185
sunday 0.000183990819466
nights 0.0
traffic 0.0
through 4.16619568615e-05
changing 0.0
diapers 0.0
convinced 0.000157721982935
capture 0.0
random 0.0
recorded 4.50950224302e-05
november 3.98012308078e-05
number 0.000121672113566
stupid 0.000123912066312
grandparents 0.0
recording 0.0
chocolate 0.0
unless 7.31999697746e-05
calling 0.000342822088653
mermaid 0.0
levels 4.56393559251e-05
package 5.32771050507e-05
option 4.30128028465e-05
knowing 0.0
actual 0.00019732515357
friday 0.000210642144656
achieve 0.0
winner 0.0
becomes 8.40485671317e-05
directly 4.89803743733e-05
quality 3.83712295227e-05
father 0.000270431510053
wishes 3.86951368573e-05
themselves 5.18872364768e-05
asking 0.000125676463949
usually 0.000118730017939
period 8.85937716919e-05
resist 0.000168809906378
collections 0.0
summer 0.0
bracelet 0.0
reminded 0.000103099511186
dinner 3.28089845612e-05
single 0.000152912686033
catching 0.0
energy 3.53137503154e-05
preview 4.22683283923e-05
monster 0.000153648264402
material 5.07225514769e-05
events 0.000110408807696
europe 4.10677867968e-05
holiday 0.000136696865639
emotional 0.0
affects 6.54286130473e-05
holding 0.0
survive 0.00015119415268
eating 7.42200039712e-05
outfit 0.0
missing 9.50243464135e-05
surprise 0.0
german 0.000102101315392
officially 0.0
french 0.000152628993884
global 3.96887382682e-05
follow 0.000596987187928
design 8.96531456005e-05
improvement 0.0
website 0.000144792880423
breaks 3.9132615317e-05
negative 4.32651911857e-05
official 0.000153325682888
jersey 0.0
france 0.000123557004644
lighter 0.0
thinks 0.00031179320844
hospital 0.0
jealous 0.0
successful 0.0
trending 4.91345744935e-05
leadership 9.29502907502e-05
showed 0.000186582505602
attended 0.000119201471613
circle 5.25739943117e-05
interested 0.000152628993884
effect 0.000117397845951
success 3.35292460229e-05
ladies 4.07169400249e-05
dreams 3.90226365831e-05
protect 0.000114152509868
arguing 0.000237524745696
essence 0.000149664629549
control 9.95007579556e-05
happier 0.0
likely 0.000119066214805
cancel 0.0
project 0.000100587738069
laying 6.14184945832e-05
lesson 0.000123912066312
fridays 0.0
invited 4.17822391293e-05
treating 0.0
allowing 0.0
remote 0.0
opening 9.68402646802e-05
alcohol 0.0
popular 4.06009113651e-05
pedestal 0.0
designing 0.0
followed 0.000118395092142
enjoyed 3.52170914536e-05
spectacular 0.0
recovered 0.0
length 5.85189571122e-05
matters 0.000351203729248
factor 0.0
england 4.33921989339e-05
shared 8.14338800497e-05
benefit 7.44261420927e-05
continues 0.000108594660317
fathers 0.000119201471613
kitchen 0.000143324793749
exciting 3.56056399006e-05
corner 0.0
spring 7.5889613729e-05
fallen 0.0
victoria 0.0
tornado 0.0
typical 0.0
continue 0.00023987261112
creative 4.19030133505e-05
excuse 0.000172051211386
female 0.0
closer 7.44261420927e-05
accent 0.0
beginning 0.000149266004481
sooner 5.8946924834e-05
everywhere 0.000389517992738
scenes 0.0
wishing 0.0
choices 0.0
unpredictable 0.0
become 0.000154989320542
photographs 0.0
spread 0.000305064664157
season 0.0
putting 0.000186993866538
annoying 0.0
quietly 6.36068478591e-05
extending 0.0
stance 0.0
sleepy 0.0
returns 0.000278608615654
bucket 0.0
condolences 6.48965399869e-05
register 4.41659354942e-05
flowers 0.0
define 0.000348582620547
somebody 0.0
chicks 0.0
covering 0.000229576661441
repeat 0.0
football 0.0
brothers 4.55023289696e-05
player 0.0
physical 0.0
series 3.22800882267e-05
pretend 0.000156172303165
fighting 0.00010141181627
atlanta 0.0
mexico 0.0
president 0.00211119421511
talking 0.00035722809156
america 0.000979268730866
greats 7.33915775298e-05
everybody 0.000256199894211
judgment 0.0
amount 0.0
houston 0.0
everyday 8.42921077319e-05
shooter 0.0
attitude 5.25739943117e-05
million 0.000373987733076
honesty 0.000255441277694
telling 0.000404545083565
pulled 0.0
attack 0.000267848316211
killed 0.000297693252532
horrible 0.000151679566321
norman 0.0
salute 0.0
jacksonville 0.0
barackobama 0.0
lilduval 0.0
liquor 0.0
american 0.000567073661795
realist 0.0
remain 0.000208911195647
innocent 0.000227466158829
pieces 0.0
taught 0.0
golden 0.000120082529215
straight 0.000592165121829
forgive 6.00447931358e-05
answers 3.82640451729e-05
product 4.76276528599e-05
smoking 0.00017748977204
created 0.000142814324551
record 9.29935923252e-05
weapon 6.02693512973e-05
bottom 0.000199006154039
arrangements 0.0
africa 4.92895840669e-05
committed 0.000187036330863
journey 0.0
brother 0.000325783980951
prayers 9.29502907502e-05
documentary 8.88568389948e-05
addition 0.000103436027833
honestly 0.000127173334014
velvet 0.0
country 0.000705298141287
speedy 0.0
dressing 0.0
employee 0.0
yoooooo 0.0
prayer 0.0
nominated 0.0
praying 0.0
insane 0.000175623056622
illest 0.0
shooting 3.71100019856e-05
cancer 3.73165011203e-05
australia 8.80711265831e-05
marijuana 0.0
deserve 3.63984192178e-05
legend 3.95766726463e-05
mother 6.61540561182e-05
murder 0.000432645391703
realest 0.0
powerful 0.000180991100529
attendance 0.0
wisdom 0.00015023123268
breaking 3.19326812088e-05
bothered 0.0
angeles 0.0
dollars 0.000348316889339
soldiers 6.2130077351e-05
performance 6.87222221171e-05
reading 0.00103963504662
videos 3.82640451729e-05
jordan 0.0
nobody 7.27968384356e-05
politics 0.000672388537054
paradise 0.0
blessing 6.28592318277e-05
coolest 0.0
strippers 0.0
charities 6.97577045565e-05
donate 0.0
bullshit 0.00085299809561
sample 0.0
rocking 0.00015023123268
bringing 6.66950539029e-05
deserves 7.89300614279e-05
hilarious 0.000157415237118
victim 0.0
stadium 5.02371281196e-05
funniest 0.0
heaven 9.40915535459e-05
ruined 0.0
honest 0.000147619747537
rolling 8.91210833365e-05
became 7.42200039712e-05
driver 4.53659349353e-05
breakfast 0.0
decision 7.40145828533e-05
counting 0.00021073026933
pressure 0.000201851064399
awareness 0.0
dearly 0.0
lastnight 0.0
facebook 0.000127041993883
basketball 0.0
campaign 0.000379005042276
twisted 0.0
defined 6.46340559837e-05
discover 0.0
comments 7.23964402114e-05
giveaway 0.0
bipolar 0.0
teenage 0.0
williams 0.0
custom 0.0
singer 0.0
future 0.000397572983685
randomly 0.000290786957799
angels 0.0
blessed 0.000101772297762
sister 3.99141535302e-05
stripper 0.0
dancing 0.0
reigns 0.0
voting 7.31999697746e-05
niggas 0.0
commercial 4.07169400249e-05
hating 0.0
boring 0.0
century 4.86743689828e-05
acting 4.25144069491e-05
submit 0.0
besides 6.16537887041e-05
hiding 4.86743689828e-05
periscope 0.0
breath 5.03980508935e-05
choosing 0.0
lawrence 6.79492258729e-05
instagram 0.0
detroit 0.0
cousin 0.0
honored 4.11856682145e-05
dedication 0.0
rockin 0.0
fucked 0.0
lionelrichie 0.0
talent 3.95766726463e-05
goodnight 0.0
stores 5.3815647441e-05
drinking 0.0
brazil 0.0
tattoo 0.0
consecutive 0.0
regardless 0.0
staring 6.31063400139e-05
commitment 0.0
seconds 0.0
ohhhhhh 0.0
listen 0.000214655956044
whatever 0.000204487264815
wherever 5.68665397073e-05
kicking 0.0
compete 0.0
lauderdale 0.0
homies 0.0
billion 0.00102034576678
belated 0.0
pirate 0.000252985319739
shoutout 0.0
grammy 0.0
guilty 5.02371281196e-05
ceiling 0.0
grammys 0.0
absolute 8.70395106267e-05
nelson 0.0
mandela 0.0
bigsean 0.0
handle 0.0
tonite 0.0
cocaine 8.99166153523e-05
promise 0.000105651274361
longest 0.0
generation 4.07169400249e-05
tuesday 0.000101136270891
struggle 0.000184217174996
workout 0.0
character 7.93774765364e-05
mirror 4.83715021644e-05
interview 0.000633632389306
buffalo 6.70848932629e-05
justin 0.0
insights 0.0
winning 0.000158373910689
oxygen 0.0
espnnfl 0.0
charlotte 0.0
accomplished 6.51613781382e-05
defense 0.000285765917159
gettin 0.0
arabia 0.000389717662029
lmfaooooo 0.0
writing 0.000206166666351
soccer 0.0
society 0.0
brooklyn 0.0
incredible 3.20191505412e-05
witcho 0.0
celebrity 0.0
minute 0.0
foreign 0.000491345744935
cherry 0.0
champs 0.0
murdered 0.0
evidence 0.000264213379749
android 0.0
sneaking 0.0
clearly 0.00030103186348
download 0.0
mixtape 0.0
central 3.9132615317e-05
washington 0.000235458031124
veterans 0.000348582620547
stronger 0.000141570523201
promised 0.000194697475931
marcus 0.0
zombie 0.0
throwing 4.86743689828e-05
security 0.000393538092795
fastest 0.0
fantasy 0.0
turning 7.42200039712e-05
ignore 0.000212572034746
fucking 0.000650162529439
tickets 0.0
collector 0.0
prizes 0.0
december 0.0
loyalty 0.0
return 3.28089845612e-05
escape 5.30997516292e-05
yassss 0.0
goddess 0.0
handsome 0.0
language 0.000166168650222
motion 5.22286189602e-05
gallery 0.0
movies 8.88568389948e-05
children 0.000163158155698
backpack 0.0
potentially 0.000129268111967
guardian 0.000160905119424
review 0.000141255001262
theaters 0.0
shhhhh 0.0
begins 7.10160448734e-05
closet 6.97577045565e-05
bodies 0.0
hahaha 0.0
produced 4.64751453751e-05
latest 0.000288952864399
banned 0.0
beyonce 0.0
perform 4.74811053833e-05
lionel 0.0
signed 6.5440349404e-05
princess 0.0
ghetto 0.0
conditioning 0.0
charity 0.000207114261341
germany 0.000135285067291
ronaldo 0.0
married 4.39057641554e-05
millions 0.000200706513864
blessings 0.0
diamond 6.73702023029e-05
nephew 0.0
lights 4.26382195243e-05
howard 0.000434913554278
turned 0.0
buckle 0.000186329719879
relevant 0.000316489252298
performing 0.0
indian 0.0
includes 0.000309161548459
tricks 0.0
survivor 0.0
diamonds 0.000172877139897
collection 4.07169400249e-05
families 7.5889613729e-05
welcoming 0.0
select 0.0
announced 0.0
granted 0.0
decided 0.0
selfish 0.0
trailer 0.0
reppin 0.0
celebration 8.33239137229e-05
decades 4.76276528599e-05
ultimate 0.000129038408539
incase 0.0
downtown 0.0
seasoning 0.0
episode 0.0
mentality 0.0
touching 0.0
retweet 7.52579658699e-05
goodmorning 0.0
midnight 0.0
expectations 5.41802107866e-05
joining 0.0
reasons 0.000138196784508
released 0.0
release 0.000162716761409
models 0.0
popped 0.0
within 3.78391564623e-05
standing 0.000305064664157
valentines 0.000141410497218
justice 0.00215536429063
houses 0.0
purchase 0.000203544595524
dropped 0.000292799879098
conversations 0.000826677154743
seattle 0.000108360421573
strength 4.10677867968e-05
monica 0.0
incredibly 0.000125709040052
streets 0.000218239325422
private 0.000304406692981
inspirational 0.0
barbie 0.0
tables 0.0
affection 0.0
broski 0.0
pissing 0.0
designer 0.0
cooking 0.0
tattoos 0.0
direction 0.0
readyyyyy 0.0
exclusive 3.52170914536e-05
adrianalima 0.0
fashion 4.28874130363e-05
talkin 0.0
bitches 0.0
nailed 5.98219297691e-05
kitten 0.0
whomever 0.0
ruthless 0.0
teaching 0.0
chillin 0.0
philly 0.0
baddest 0.0
cheers 4.59153322883e-05
autumn 7.07052486091e-05
presents 4.85225472811e-05
flawless 0.0
unique 4.55023289696e-05
handed 5.68665397073e-05
taraji 0.0
victory 0.000211955556691
tribute 4.07169400249e-05
ballin 0.0
horror 0.00029473462417
females 0.0
catfish 0.0
action 0.000254771714735
wouldnt 0.0
recipient 0.0
whitney 0.0
continued 5.08861488811e-05
esther 0.0
letter 0.000182999924437
existence 0.0
papers 0.0
winter 0.0
sessions 0.000525739943117
replicating 0.0
foundation 0.000211341641962
syndrome 0.0
colorado 0.0
tremendous 0.0
public 0.00051682505765
cannot 0.00337385686203
brilliant 0.000400382611396
illustration 0.0
beware 0.0
globally 7.67380892821e-05
premieres 0.0
streaming 0.0
immigration 0.000220447241265
wrapped 0.000111370423886
studio 0.0
february 0.000305535055591
amazon 0.000719367880925
border 0.00023155366094
huffingtonpost 0.0
francis 0.000203847677619
january 0.000205338933984
relationships 0.0
tragic 0.000107270079616
secure 0.00016254063236
countries 0.000171050213669
episodes 0.0
broadcast 4.89803743733e-05
tickled 0.0
livestream 0.000135316589779
potential 0.000122851122281
education 0.000159656614121
famous 0.0
unknown 0.0
exists 0.0
orders 0.000106554210101
microsoft 0.0
ability 0.000129416182109
director 0.000481094788546
accessible 0.0
correction 0.0
william 0.000100474256239
editors 6.73702023029e-05
yellow 0.0
passionate 0.0
treatment 4.64751453751e-05
ambassador 5.1216088134e-05
thanking 7.4465487002e-05
streamed 0.0
lovers 0.0
wrinkled 0.0
bridge 4.77749312496e-05
magazine 0.000164742672858
sincere 0.0
quotes 0.000146480925889
result 8.55251068343e-05
destruction 6.97577045565e-05
edition 0.000119066214805
prince 8.60256056929e-05
indiana 0.0
editorial 0.000123781945516
emotion 0.0
mistakes 5.29234570403e-05
inspiring 4.00275097382e-05
counter 0.0
disappointing 0.0
edited 6.97577045565e-05
spotlight 0.0
saddest 0.0
production 0.0
header 0.0
itunes 0.0
guests 0.0
snakes 0.0
charging 7.79435324057e-05
arriving 6.51613781382e-05
mysteries 0.0
dangerous 0.000597018462116
typically 0.0
saving 4.30128028465e-05
universe 4.76276528599e-05
victims 4.30128028465e-05
receive 0.0
proceeds 0.000475049491392
crossed 0.0
received 3.80508366227e-05
limitations 0.0
studying 6.26141743555e-05
conflict 0.000123307577408
petition 0.000106911060201
milestones 0.0
outstanding 0.0
devastating 0.000109846248666
installment 0.0
signature 0.0
mistletoe 0.0
awards 3.86951368573e-05
shelves 0.0
smells 0.0
themed 0.0
sisters 0.0
banquet 0.0
danger 0.00015566170943
leading 7.52579658699e-05
member 0.000104500767699
dominant 0.0
distinguish 9.31648599393e-05
factories 0.0
distinct 0.0
distance 0.0
confirmed 4.31387273696e-05
behavior 0.000291536384759
collect 6.38603194234e-05
vanity 0.0
junior 0.0
communities 0.0
worldwide 0.0
canada 0.000157860122856
recognized 0.0
vessels 0.0
movement 0.00031661338117
segment 0.0
internal 6.16537887041e-05
information 0.000361271724955
easily 0.000130943595253
towards 0.000129416182109
october 4.14228522682e-05
belgium 7.23553569663e-05
european 0.0
caribbean 0.0
cities 0.000222142097487
arrives 0.0
extraordinary 0.00015023123268
exquisite 0.0
argentina 0.0
eliminate 7.16842086235e-05
genius 7.87076185591e-05
prepared 0.0
anthony 0.000107994733025
breakthrough 0.0
berlin 0.0
batman 0.0
upcoming 4.19030133505e-05
upgrade 0.0
singapore 0.0
crucial 0.0
scratch 0.0
collaboration 0.0
tested 5.98219297691e-05
acquire 0.0
honoring 6.16537887041e-05
holland 0.0
visually 0.0
neyocompound 0.0
inspire 5.03980508935e-05
ebonymag 0.0
spiketv 0.0
constant 5.74754119162e-05
sunset 0.0
tuning 0.0
gentleman 0.0
fulfilling 0.0
ayeeeee 0.0
stratford 0.0
poland 0.0
philippines 0.0
kickin 0.0
theweeknd 0.0
september 4.15421625555e-05
manchester 0.000215262589764
rickyrozay 0.0
remarkable 5.10506576961e-05
rihanna 0.0
disgusted 0.0
immoral 9.45712807872e-05
process 0.000188669413555
goosebumps 0.0
performances 0.0
strangers 0.0
emotions 6.23711338401e-05
judgement 0.0
comparing 0.0
thuggin 0.0
studios 0.0
jennifer 0.0
performer 0.0
literally 0.000146399939549
cardiff 0.0
soooooooo 0.0
crashed 0.0
cthagod 0.0
closed 4.21460538659e-05
justinbieber 0.0
complexmag 0.0
billboard 0.0
airing 0.0
albums 0.0
sweden 5.87321656625e-05
katyperry 0.0
treats 0.0
missouri 0.0
thefader 0.0
soundtrack 0.0
theellenshow 0.0
sweets 0.0
festival 4.35197553133e-05
wizkhalifa 0.0
amsterdam 0.0
backstage 0.0
collab 0.0
subscribed 0.0
joined 3.63984192178e-05
davidguetta 0.0
pushing 4.73352816009e-05
hopeful 0.0
romantic 0.0
mentions 0.0
lurking 0.0
ballad 0.0
teamed 7.83565357244e-05
exclusively 0.0
kingjames 0.0
hollyrpeete 0.0
sneakers 0.0
auction 0.0
sneaker 0.0
djkhaled 0.0
express 0.0
thegrammys 0.0
throughout 4.69020818134e-05
shining 0.0
excellence 7.26967394497e-05
thrown 5.62699687926e-05
zendaya 0.0
playin 0.0
applemusic 0.0
crunch 0.0
capitalofficial 0.0
filmed 0.0
toronto 5.27482087163e-05
naomicampbell 0.0
trvisxx 0.0
killin 0.0
trucks 8.18866150728e-05
stands 4.10677867968e-05
platinum 0.0
native 0.000360268758815
spotify 6.28592318277e-05
rocked 0.0
jumped 5.98219297691e-05
leebruhgreene 0.0
leaning 7.41031602976e-05
featured 4.64751453751e-05
announce 0.0
senior 4.63341940052e-05
iamdiddy 0.0
haters 0.00018711340152
nothin 0.0
appreciation 0.0
defjamrecords 0.0
floating 6.91424894723e-05
superstars 0.0
shondarhimes 0.0
premiere 0.0
orchestral 0.0
makeup 0.0
touched 5.53017097226e-05
newest 4.77749312496e-05
designed 0.0
passes 4.85225472811e-05
angelasimmons 0.0
tidalhifi 0.0
vashtie 0.0
delivered 4.80717101892e-05
owning 7.87753974413e-05
producer 0.0
balmain 0.0
legendary 9.46705632018e-05
independence 5.34555301007e-05
mtvmusicuk 0.0
audition 0.0
debuts 0.0
footage 0.0
marshall 0.0
spends 0.0
playtime 0.0
completed 0.0
dishes 0.0
photographed 0.0
bubble 0.0
belong 0.0
tongue 6.33555335258e-05
observing 0.0
consistent 0.000123307577408
posing 0.0
heavens 0.0
contemporary 8.99166153523e-05
aiming 0.0
ceremony 0.0
brighter 7.9200286152e-05
rainbow 0.0
matthew 0.0
phenomenal 0.0
affected 9.12787118501e-05
rivers 0.0
presenting 0.0
competitive 0.0
eskimo 0.0
sibling 0.0
dakota 0.000393876987207
printed 0.0
heroes 0.0
deepest 0.0
describe 0.0
hollywood 0.00013055926594
baggage 0.0
terrifying 0.0
animation 0.0
nationwide 0.0
capital 0.0
quantity 0.0
nominations 0.0
mountains 0.0
mosaic 0.0
realise 0.0
overload 0.0
photographer 0.0
depression 0.000128231971148
donation 0.0
marvelous 0.0
madonna 0.0
sailed 0.0
terror 0.000612537331374
rinsed 0.0
disorder 0.0
polish 0.0
represents 0.000121447313006
touchdown 0.0
creates 0.0
oxford 0.0
stitched 0.0
morocco 0.0
thrill 0.0
balloons 0.0
teaming 7.83565357244e-05
latimes 0.0
kerrywashington 0.0
caution 0.0
camouflage 0.0
approaching 0.0
generous 0.0
installation 0.0
benefiting 0.0
basics 0.0
confirm 0.0
thrilling 0.0
photography 0.0
matches 0.0
boundaries 0.0
singles 0.0
laptop 0.0
obvious 0.000300462465361
darling 0.0
celebrations 7.87753974413e-05
chewbacca 0.0
underwater 0.0
naughty 0.0
advised 0.0
feelin 0.0
macaroni 0.0
perfection 0.0
picasso 0.0
recipe 0.0
radical 0.000371345836547
volcano 0.0
planted 0.0
products 0.0
directed 5.05598554404e-05
grabbed 0.0
frames 9.92435179309e-05
casual 0.0
scheming 0.0
twickenham 0.0
bbcnews 0.0
pledge 5.53017097226e-05
subtle 7.00701863711e-05
embarrassed 0.0
snatch 0.0
unveiling 0.0
kissed 9.68150880811e-05
arguments 0.0
settling 0.0
desperate 0.0
executive 0.000197158336268
humbled 0.0
courage 0.000488269752962
dropping 8.93865152973e-05
carried 6.31063400139e-05
behalf 0.000159299254888
hardest 0.0
marking 0.0
vision 8.75530661397e-05
intervention 0.0
records 0.0
deeply 9.55498624993e-05
mannered 0.0
texted 0.0
israeli 0.0
strongest 0.0
rogers 0.0
concept 0.000107270079616
allegiance 0.0
belongs 0.0
intended 6.26141743555e-05
bosses 7.23553569663e-05
purpose 4.52301680022e-05
hottest 5.78884152349e-05
campaigns 0.0
sunderland 0.0
teenager 0.0
runway 0.0
steven 5.96007358065e-05
guitar 0.0
donating 0.000106911060201
applause 7.00701863711e-05
finale 0.0
wasted 0.0
absent 0.0
awhile 0.0
fierce 6.97577045565e-05
sincerely 7.03860103007e-05
apology 5.56852119431e-05
climbing 0.0
unwilling 0.0
protesting 0.0
bikini 0.0
friendships 0.0
matching 6.68023144947e-05
wolves 0.0
mosque 0.000283713842362
venezuela 0.0
donates 0.0
generations 0.0
underestimate 7.20178760825e-05
pardon 0.00054560472684
stickers 0.0
mothers 5.51118103162e-05
deeper 0.000125718463655
nipple 0.0
perfume 0.0
noodle 0.0
melissa 0.0
forest 0.0
panties 0.0
jimmykimmel 0.0
everytime 0.0
underdog 0.0
shoulders 0.000153476178564
wrapping 0.0
bedroom 0.0
glitter 0.0
stocking 0.0
annoyed 0.0
behave 0.0
goodbye 0.0
fuckin 0.0
seller 8.81264153793e-05
joshgroban 0.0
samsungmobileus 0.0
influential 0.000208345484588
slicing 0.0
ryanseacrest 0.0
farmer 0.0
teaser 0.0
styled 0.0
casting 0.0
imitated 0.0
forgiveness 0.0
perezhilton 0.0
blacked 0.000136236676243
paparazzi 0.0
peoplemag 0.0
rolled 6.26141743555e-05
vanityfair 8.00688562961e-05
rockstar 0.0
thousand 0.000218942545455
minded 0.0
shines 7.83565357244e-05
sunglasses 0.0
auntie 0.0
magazines 0.0
waited 0.0
denmark 0.0
leather 0.0
wished 7.63469675916e-05
ladygaga 0.0
swallow 0.0
glblctzn 0.0
shakira 0.0
accessories 0.0
nbcthevoice 0.0
clique 0.0
premiering 0.0
loooooove 0.0
weareheremvmt 0.0
looooove 0.0
vmagazine 0.0
popcrush 0.0
studded 0.0
yassssss 0.0
yessss 0.0
undeniable 9.76025815743e-05
unicef 0.0
auditions 0.0
ellemagazine 0.0
yasssss 0.0
pharrell 0.0
greece 0.0
papermagazine 0.0
nowwwww 0.0
maccosmetics 0.0
macaidsfund 0.0
lipstick 0.0
meeeee 0.0
newsstands 0.0
unapologetically 0.0
insidebates 0.0
legalize 0.0
loooove 0.0
caradelevingne 0.0
allllll 0.0
badgalriri 0.0
itsjeremyscott 0.0
nickiminaj 0.0
nipples 0.0
booooo 0.0
trippy 0.0
mikewillmadeit 0.0
puttin 0.0
trappin 0.0
alexanderwangny 0.0
karllagerfeld 0.0
celebratin 0.0
lilyallen 0.0
fuuuuuck 0.000151320976821
chanel 0.0
rubber 7.48323147743e-05
angelou 0.0
misses 0.0
harpersbazaarus 0.0
timberlake 0.0
photoshopped 8.69905347282e-05
whatchu 0.0
rehearsals 0.0
couture 0.0
mutual 6.82430517392e-05
creeper 0.0
cuddling 0.0
celine 0.0
theamas 0.0
thexfactor 0.0
websterhall 0.0
presale 0.0
deluxe 0.0
styles 0.0
wetten 0.0
shittttttttttt 0.0
boredom 0.0
darealamberrose 0.0
noooooooo 0.0
itunesmusic 0.0
cbstweet 0.0
thermal 0.0
mariners 0.0
torres 0.0
thebeatles 0.0
blondies 0.0
greeting 0.0
thecut 0.0
geeked 0.0
outlet 8.33273523172e-05
americanexpress 0.0
gqmagazine 8.93077431435e-05
nicole 0.0
bumped 0.0
hangover 0.0
stockholm 0.0
casually 0.0
esquire 0.0
winnipeg 0.0
begging 0.0
showroom 0.0
sleeves 0.0
smelling 0.0
guaranteed 0.0
obsession 0.0
attendant 0.0
aussie 0.0
tbsveryfunny 0.0
reservation 0.0
mollymcnearney 0.0
dragging 0.0
rocnation 0.0
tapered 0.0
badass 0.0
endlessly 0.0
vampires 0.0
viewers 0.0
kanyewest 0.0
designers 0.0
billboards 0.0
backstreetboys 0.0
monteith 0.0
e_fashionpolice 0.0
epically 0.0
internationally 0.0
mighty 6.76582948897e-05
jcolenc 0.0
semifinals 0.0
brasilia 0.0
tailgating 0.0
photoshoot 0.0
smokin 0.0
ahhhhhh 0.0
missin 0.0
sweats 0.0
impacted 0.0
rodriguez 0.0
musician 0.0
merchandise 0.0
jurgen 0.0
athleteally 0.0
originals 0.0
número 0.0
zealand 0.0
hehehe 0.0
fearless 0.0
stadiums 0.0
thiago 0.0
suarez 0.0
cropped 0.0
uruguay 0.0
apparel 0.0
staircase 0.0
wintour 0.0
spotting 0.0
polygraph 0.0
twerking 0.0
shipment 0.0
muggin 0.0
takeoff 0.0
thailand 0.0
tomorr 0.0
googleplay 0.0
budweiser 0.0
miafestival 0.0
dotted 0.0
burning 0.000104114868777
surpass 0.0
betcha 0.0
onairwithryan 0.0
dreamers 0.0
brunomars 0.0
beyoncé 0.0
hellooo 0.0
subscribers 0.0
preorder 0.0
believer 0.0
fragrance 0.0
hellooooo 0.0
majesty 0.0
beatsbydre 0.0
finland 8.4328439913e-05
fearnecotton 0.0
debuted 0.0
queued 0.0
rhetorical 0.0
iranian 0.0
infamous 0.0
brutally 0.0
execution 0.0
palestinian 0.0
transplant 0.0
audacity 0.0
foreplay 0.0
priced 0.0
huntington 0.0
manger 0.0
weaker 0.0
justintrudeau 0.0
creeping 0.0
fittest 0.000126300901456
hoodie 0.0
mankind 0.0
westwood 0.0
holographic 0.0
throwin 0.0
eminem 0.0
ecstatic 0.0
enjoys 0.0
wussup 0.0
duplicated 0.0
crotch 0.0
congrat 0.0
huggin 0.0
implement 0.000156713071449
penalizing 0.0
gonzalez 0.0
bitchin 0.0
sephora 0.0
damien 0.0
demanded 0.0
negativity 8.87111722287e-05
alancarr 0.0
skillz 0.0
hopeless 0.0
beatle 0.0
cheesecake 9.60480512953e-05
almighty 0.0
whatcha 0.0
slumber 0.0
chimney 0.0
headlining 0.0
perplexed 0.0
googleplaymusic 0.0
thrills 0.0
rollers 0.0
bravotv 0.0
gifted 8.00688562961e-05
kekepalmer 0.0
styledtorock 0.0
yooouuu 0.0
shantay 0.0
yaaaas 0.0
bestest 0.0
freestyle 0.0
everrrrr 0.0
sweatband 0.0
podolski 0.0
collaborating 0.0
bestfriend 0.0
sittin 0.0
whaaaat 0.0
clockwork 0.0
warmest 0.0
temptation 0.0
spiritual 0.000262659041257
chameleon 0.0
customised 0.0
acrylic 0.0
grasshopper 0.0
engages 0.0
gourmet 0.0
rhythmic 0.0
petals 0.0
klinsmann 0.0
directv 0.0
popcrave 0.0
versailles 0.0
raddest 0.0
grandfather 0.0
persie 0.0
webster 0.0
knight 0.0
footwear 0.0
collectors 0.0
blackout 0.0
skylight 0.0
hammock 0.0
playhouse 0.0
revelers 0.0
executed 8.48420051345e-05
cincinnati 0.0
simultaneously 0.0
malawi 0.0
graduated 0.0
sickening 0.0
mueller 0.000351849625712
elonjames 0.0
skeletons 0.0
mittromney 0.0
connecticut 0.0
cumulative 0.0
racked 0.0
valera 0.0
thighs 0.0
timely 0.0
rapping 0.0
shrugs 0.000112954117062
enables 0.0
psychic 0.0
fernando 0.0
tourism 0.0
slaughtered 0.0
devotion 0.0
fantasies 0.0
parsons 0.0
stella 0.0
complainers 0.0
newsstand 0.0
voguemagazine 0.0
westfield 0.0
manolo 0.0
turquoise 0.0
parisian 0.0
childs 0.0
swimsuit 0.0
bazaar 0.0
empress 0.0
brainstorm 0.0
tanning 0.0
desirable 0.0
feathers 0.0
antics 0.0
featurette 0.0
olivier 0.0
helloooo 0.0
hallow 0.0
connie 0.0
upbringing 0.0
privatize 0.000523411425326
bittersweet 0.0
outlaw 0.000104796560403
marcel 0.0
nowwww 0.0
hushed 0.0
threshold 8.33273523172e-05
floats 0.0
barbados 0.0
manuelcav 0.0
niggaz 0.0
prayin 0.0
drizzyxcole 0.0
homegirl 0.0
rappin 0.0
witcha 0.0
mufasa 0.0
dainternz 0.0
lololol 0.0
barclayscenter 0.0
bestbuy 0.0
blackouts 0.0
rivera 0.0
jakemiosge 0.0
givenchy 0.0
riccardo 0.0
grossed 0.0
guetta 0.0
spicewon 0.0
bitche 0.0
shawty 0.0
wednesdays 0.0
payday 0.0
jewelers 0.0
romero 0.0
acknowledging 0.0
calypso 0.0
blushes 0.0
medusa 0.0
keepers 0.0
futuristic 0.0
whereabouts 0.0
slayed 0.0
asvpxrocky 0.0
haaaaa 0.0
inezandvinoodh 0.0
calvinharris 0.0
_maxwell_ 0.0
bwerde 0.0
edward_enninful 0.0
haaaaaa 0.0
wisest 0.0
unconditionally 0.0
drmayaangelou 0.0
blackgirlsrock 0.0
submissive 0.0
rearrange 0.0
attuned 0.0
abrams 0.0
awaken 0.0
climbs 0.0
jacking 0.0
seventy 0.0
snatching 0.0
manoloblahnik 0.0
nicolerichie 0.0
openingceremony 0.0
whiteley 0.0
supermodel 0.0
the_real_iman 0.0
minogue 0.0
tmagazine 0.0
baaaaack 0.0
yeessss 0.0
wooooo 0.0
epicness 0.0
takawiraa 0.0
joplin 0.0
uncensored 0.0
unspeakable 0.0
rewrites 0.0
askdrruth 0.0
glozell 0.0
tardiness 0.0
runways 0.0
colombian 0.0
unapologetic 0.0
zac_posen 0.0
rumoured 0.0
omgggg 0.0
futbol 0.0
biatch 0.0
barrington 0.0
catwalk 0.0
sledgehammer 0.0
clemente 0.0
dollaz 0.0
mariah 0.0
granddad 0.0
iyanlavanzant 0.0
hustler 0.000278695787749
coletteparis 0.0
flexin 0.0
mistress 0.0
exceeds 0.0
sweeeeeet 0.0
stancesocks 0.0
serviced 0.0
issssss 0.0
lipglass 0.0
externally 0.0
complex_uk 0.0
prideful 0.0
dash_radio 0.0
holidaze 0.0
mawnin 0.0
champagnepapi 0.0
fashawn 0.0
raided 0.0
ahhhhhhhh 0.0
soulmate 0.0
motorbikes 0.0
britishvogue 0.0
gnlstudios 0.0
robinsoncano 0.0
debuting 0.0
cc_sabathia 0.0
colorways 0.0
hit_boy 0.0
_spyda 0.0
phresh 0.0
dominates 0.0
ratchet 0.0
rupaul 0.0
cockpit 0.0
kimmiekyees 0.0
horoscope 0.0
catwalks 0.0
paramedic 0.0
fhollande 0.0
sexiness 0.0
hereeee 0.0
changers 0.0
tiptoes 0.0
revved 0.0
meditative 0.0
fauntleroy 0.0
mbsings 0.0
disrespectfully 0.0
traumatized 0.0
outdid 0.0
elvispresley 0.0
toupee 0.0
josephine 0.0
discography 0.0
mariasharapova 0.0
chinchilla 0.0
skylar 0.0
illestbaba 0.0
georgiamjagger 0.0
pierced 0.0
hardrock 0.0
snorkeling 0.0
thrilla 0.0
gunpoint 0.0
sleeved 0.0
stevestoute 0.0
kiiiiiiiiiiiiinnnngggggg 0.0
lanvin 0.0
chateau 0.0
lizzs_lockeroom 0.0
prophets 0.0
müller 0.0
lullaby 0.0
samersum 0.0
disassembled 0.0
anniversaries 0.0
hayden_williams 0.0
rousteing 0.0
slayage 0.0
raunchy 0.0
benzema 0.0
fuckery 0.0
hellooooooo 0.0
juliagillard 0.0
congeniality 0.0
gunned 0.000142825939278
condense 0.0
missjillscott 0.0
yussss 0.0
chopard 0.0
woodbridge 0.0
orousteing 0.0
dubsmash 0.0
alicialquarles 0.0
worldmcqueen 0.0
whateva 0.0
elysées 0.0
jennnrosales 0.0
xstrology 0.0
looool 0.0
tippin 0.0
marleys 0.0
dwanimation 0.0
dreamworks 0.0
yaself 0.0
anothermagazine 0.0
claralionelfdn 0.0
mchingi 0.0
rihannareplay 0.0
awtguide 0.0
ryannavy_rih 0.0
rihquest 0.0
gpforeducation 0.0
valliniandre 0.0
globalfund 0.0
rhenna 0.0
millymaefenty 0.0
peetes 0.0
pandagunda 0.0
floriamamaroma 0.0
adoringrihanna 0.0
ymcofficial 0.0
rihanti_ 0.0
mcdean 0.0
rihannadaily 0.0
stancemuse 0.0
muhtean 0.0
rihdefine 0.0
officialdonnie 0.0
stunnafenty 0.0
perfumesbyriri 0.0
badgal 0.0
shaninamshaik 0.0
reblrihanna 0.0
elliscole_ 0.0
itskaitbh 0.0
harpersbazaarcn 0.0
yusefhairnyc 0.0
mylahmorales 0.0
teamofrihanna 0.0
muhphucka 0.0
harpersbazaar 0.0
rihrihfreak 0.0
thenbacentral 0.0
roversi 0.0
suchaf_cknlady 0.0
fourfiveseconds 0.0
petergrayhair 0.0
wkorea 0.0
dennisleupold 0.0
ursulastephen 0.0
ozzysalvatierra 0.0
ciarrap 0.0
rihannaargntina 0.0
rihearsal 0.0
sremmurd 0.0
id_magazine 0.0
heauxm 0.0
rihpost 0.0
jrgseul 0.0
bitchez 0.0
underst_navy 0.0
sonitaalex 0.0
chris_walden 0.0
danachanel 0.0
wednesdayz 0.0
jimmyfenty 0.0
houseoffraser 0.0
skeete 0.0
_kailssss 0.0
muhphuckas 0.0
phuckin 0.0
rastafarih 0.0
obviiii 0.0
etherihalvibe 0.0
rorreyfenty 0.0
noellaalstrom 0.0
rihturn 0.0
tellar 0.0
esquireuk 0.0
huffpoststyle 0.0
tyronmachhausen 0.0
melottenberg 0.0
paolakudacki 0.0
tompecheuxmu 0.0
lgoldstein_ltd 0.0
phucking 0.0
kudacki 0.0
hellurrr 0.0
tom_ford 0.0
neakah 0.0
creepah 0.0
pahtna 0.0
wontonsan 0.0
cappadonna 0.0
phuckmarqy 0.0
elfies 0.0
starstunning 0.0
ohnana 0.0
tushmagazine 0.0
macxriri 0.0
rickrubin 0.0
findataui 0.0
tristate 0.0
distoyb 0.0
kabukimagicnyc 0.0
yerdme_cmb 0.0
hittas 0.0
evan_erogers 0.0
jessieriri 0.0
unfourgettable 0.0
meeeaan 0.0
shweinsteiger 0.0
goooooooaaaaallllllll 0.0
goooal 0.0
braaaaaaaaaaaaaaaaaa 0.0
asapkoff 0.0
belgiuuuuummm 0.0
druchaos 0.0
cuadrado 0.0
murdaaahhh 0.0
colombiaaaa 0.0
karafenty 0.0
dlsturbla 0.0
braaaaaaaaaaaaaaaaaaaaaa 0.0
abouuuutttt 0.0
takecarerihanna 0.0
nathannavy 0.0
theworidcup 0.0
goooooaaaaaaallllll 0.0
bazaararabia 0.0
bigshitxtalker 0.0
__tatijxo 0.0
lhhatl 0.0
braaaaaaaaaaaa 0.0
rihannanavyrd 0.0
gooooooaaaalllll 0.0
triscastellano 0.0
iiiiiiiiiiiiiiiiiiii 0.0
eatmydaisy 0.0
leggooooal 0.0
yaaaaaassssssss 0.0
prettygirl_sp 0.0
ooohhhhhh 0.0
shiiiiitttt 0.0
roooonnnnnnnneeeeeeeyyyyyy 0.0
muslera 0.0
tadpole 0.0
giusichrisriri 0.0
_xomec 0.0
blockedt 0.0
ooooohhhh 0.0
goooooooaaaaaaalllllllllllllllll 0.0
stefansaxon 0.0
rihannademos 0.0
dragonflycici 0.0
chririh 0.0
rihluminati 0.0
goaaaalllll 0.0
twinzies 0.0
mantlers 0.0
suchaf__cknlady 0.0
glamour_robyn 0.0
adamselman 0.0
sephorafrance 0.0
thefashionlaw 0.0
scout_willis 0.0
quietude 0.0
theblackvoice 0.0
weeeed 0.0
kiiiiss 0.0
dooooon 0.0
miiiiss 0.0
malinsworld 0.0
prompics 0.0
itsalldonn 0.0
goooorrrrrrlllllll 0.0
thenewdaily_ 0.0
wiggin 0.0
stevesoboroff 0.0
pivot_tv 0.0
lapolicefdtn 0.0
scarificing 0.0
whooooose 0.0
sambapologetic 0.0
bellaisevil 0.0
sta_schemin 0.0
i_aim_tyga 0.0
fameisloud 0.0
garcon_rebelle 0.0
itsbreezybiotch 0.0
phaedra 0.0
vivala_stephyy 0.0
_bossmadeg 0.0
kontomitrosnick 0.0
sorrenti 0.0
whenevahhh 0.0
teamvivanco 0.0
heifers 0.0
stevenkolb 0.0
jeremy_brossard 0.0
jordanbrossard 0.0
quilted 0.0
piscesareus 0.0
plumsykes 0.0
cedellamarley 0.0
offish 0.0
urprise 0.0
i_love_riri 0.0
rihannadiva 0.0
javiroo 0.0
frihday 0.0
cuntlifex 0.0
_chris_rated_ 0.0
yewmadcunt 0.0
erinwasson 0.0
balmainparis 0.0
_yadim 0.0
muthaphucka 0.0
onnneeee 0.0
liiiiieeesss 0.0
gautier 0.0
mtvstarsvotes 0.0
zinloves 0.0
chloefrahm 0.0
uprising_create 0.0
uprising_darren 0.0
jonnycrave 0.0
jeff_uprising 0.0
kareemfenty 0.0
daily_rihnavy 0.0
unapologeticunt 0.0
rorrey 0.0
foreverrr 0.0
guyanese 0.0
annndd 0.0
historih 0.0
grandfadda 0.0
arleta 0.0
loreleicakes 0.0
river_island 0.0
finallyyyy 0.0
rodin_thinker 0.0
mrs_toyac 0.0
cheersrihrih 0.0
bangbang 0.0
faiz_fenty 0.0
leandra 0.0
noella 0.0
rasshoooolllleee 0.0
luminati 0.0
inezvinoodh 0.0
visvim 0.0
realne 0.0
sarahfrancus 0.0
tadium 0.0
trapstar 0.0
afrihca 0.0
rihrobyn 0.0
cbsgirlfriend 0.0
shyronnie_rn 0.0
mariamfenty_ 0.0
mizzpmf 0.0
whooooaaaaa 0.0
camkaipink 0.0
yasssssssssssssssssssss 0.0
lunaxskye 0.0
yaaaaasssssss 0.0
niggggaaaaaaa 0.0
breeziechillin 0.0
betologetic 0.0
isusjsjdha 0.0
awffffff 0.0
mcdessikins 0.0
skreets 0.0
pieceofria 0.0
loooool 0.0
craaaazzyyy 0.0
lolarae_xoxo 0.0
stayflysamir 0.0
shotta 0.0
tamarawray 0.0
lauraleehickock 0.0
heauxz 0.0
rihannanavyit 0.0
manilla 0.0
ronnyerickson 0.0
nikofenty 0.0
vincehaycock 0.0
zodiacfacts 0.0
naomiiknows 0.0
wrizzap 0.0
muuuch 0.0
hongkong 0.0
jetlaaaaaagggged 0.0
rasshole 0.0
februharry 0.0
kaşara 0.0
çıkmadı 0.0
dicked 0.0
vinoodh 0.0
rihannasblog 0.0
urihannafansite 0.0
teejay 0.0
stupse 0.0
clapbacks 0.0
niggaaaazzzz 0.0
bwaaahaaaaa 0.0
willheardmusic 0.0
kristennoelgipson 0.0
rsvpgallery 0.0
backout 0.0
bwahhaaa 0.0
errwhurr 0.0
niiiiggaz 0.0
fridayz 0.0
debbycoda 0.0
cabbing 0.0
dolly_cohen 0.0
cowboyz 0.0
friendz 0.0
phucker 0.0
charliebymz 0.0
lynn_ban 0.0
inwardly 0.0
ravening 0.0
whyyyyyyyyyyyy 0.0
thatdamnlala 0.0
adamsellman 0.0
scottland 0.0
kingspleasure 0.0
mikkyekko 0.0
rihannanavide 0.0
saskoktz 0.0
phlawless 0.0
givenchydonc 0.0
mlle_yulia 0.0
oxxoxo 0.0
foreva_rn_ladii 0.0
skinhead 0.0
killaz 0.0
yennifer 0.0
bestofpisces 0.0
smegma 0.0
morganemiller_ 0.0
aa_davis 0.0
beenie 0.0
nickeystaar 0.0
frihannamorocco 0.0
thinketh 0.0
guitarists 0.0
jordriri 0.0
badgalclaudia 0.0
hausofnath 0.0
_abirogerson 0.0
tommykane 0.0
livenationuk 0.0
millenniu 0.0
juuuussttt 0.0
helllooooo 0.0
miiiine 0.0
chaneliman 0.0
blushy 0.0
laetitiacrahay 0.0
rihmix 0.0
dariuscash 0.0
joshkillss 0.0
drunk_cockiness 0.0
firebombfenty 0.0
mooky_mcnasty 0.0
defpenradio 0.0
iamrici 0.0
letcha 0.0
niggerish 0.0
mawazine 0.0
thefashionaddicts 0.0
phierce 0.0
errwhere 0.0
jocking 0.0
niggaaa 0.0
tami_black 0.0
homienadz 0.0
religiosity 0.0
joycemeyer 0.0
brooooklyyyyn 0.0
miiiiine 0.0
dilekkeysan 0.0
marykatrantzou 0.0
allaboutpisces 0.0
jfisherjewelry 0.0
oddhangover 0.0
diggins 0.0
phyliciaghee 0.0
bawsin 0.0
howeverrrrr 0.0
channyyxoxo 0.0
dowwwwnnnnn 0.0
thugbitch 0.0
rihanas 0.0
miiiiiinnneee 0.0
rihwrite 0.0
janiseeaileen 0.0
ratchify 0.0
eeeeeemmmmmm 0.0
pannies 0.0
wooooiiiiiiiiiii 0.0
muhphuckers 0.0
bashment 0.0
whaaaaattttt 0.0
liiifee 0.0
covery 0.0
leeeeaaaavvveeee 0.0
haarrrrrddd 0.0
ismashedriri 0.0
christabslg 0.0
reallll 0.0
peoplez 0.0
wooiiiiii 0.0
slackness 0.0
kevfenty 0.0
woooiii 0.0
tatiana_xo 0.0
fentynavysalute 0.0
ratchettt 0.0
rachael_deanna 0.0
lifeeeeee 0.0
bxdcfjcf 0.0
killled 0.0
asdfghjkjhgtfrdedfghjnhbgvfc 0.0
troy_fenty 0.0
_marrymerihanna 0.0
jkbwdhbwh 0.0
_noellaa 0.0
hunneds 0.0
thekingfly 0.0
dooown 0.0
woooiiiii 0.0
phucked 0.0
kickstand_ohb 0.0
acedemy 0.0
mistercap 0.0
gallest 0.0
sinsofmyfather_ 0.0
dwayneofficial 0.0
_revofev 0.0
joefenty 0.0
thegodlight 0.0
molestmerihanna 0.0
rihannanavyeu 0.0
melina 0.0
terryrichardsonstudio 0.0
_sexxtroversy 0.0
neuroticbxtch 0.0
getcho 0.0
moneyyy 0.0
idillionaire 0.0
yaaaaaaas 0.0
noxx_onite 0.0
phonefancy 0.0
chiefin 0.0
londonfashionwk 0.0
_mayor_ 0.0
rihannanow 0.0
jamrock 0.0
rihannastats 0.0
jenesismagazine 0.0
napmed 0.0
hausofbeyhive_ 0.0
probabily 0.0
badgalelly 0.0
ladylivja 0.0
rihannacomics 0.0
__glitterdick 0.0
chelsey_ba 0.0
stashbox 0.0
thuglife 0.0
highladayz 0.0
brrrap 0.0
kalifah 0.0
marylin 0.0
muthafucker 0.0
stylenetwork 0.0
bvalgari 0.0
oooonly 0.0
fuckyopictures 0.0
amplifydot 0.0
trappat 0.0
soumsluvriri 0.0
ibebossedup 0.0
holerringg 0.0
rihskillerdoll 0.0
equaled 0.0
chefette 0.0
rezilientkas 0.0
blastinggggg 0.0
dammnnn 0.0
lifeandtimes 0.0
hausofjazzy 0.0
kaykispeaks 0.0
condesa 0.0
awaaayyy 0.0
flawle 0.0
mandler 0.0
loudies 0.0
dulcattis 0.0
killaaa 0.0
_loveforrihanna 0.0
yesimkayla 0.0
rollingnostone 0.0
richkunt 0.0
yasssssss 0.0
eriricccccc 0.0
cuntmeout 0.0
sashay 0.0
condragulations 0.0
neverrr 0.0
phasetoo 0.0
fooooorde 0.0
ruunavi 0.0
rihtweet 0.0
ishoobernator 0.0
thirstiest 0.0
j_dimps 0.0
deecosey 0.0
itsrihannasnavy 0.0
muthaphuckin 0.0
