awesome 0.000181042451683
christmas 2.25689722518e-05
trying 0.000224033519282
launch 0.0
moment 4.09535673839e-05
wonderful 9.15101104927e-05
seeing 2.09233010681e-05
hanging 2.56748420748e-05
sounds 4.34586788611e-05
contacts 0.0
anybody 9.37031281114e-05
worked 6.60756233153e-05
direct 8.65210195648e-05
others 0.000197157047092
currently 2.42276776395e-05
better 0.000382817167619
please 0.000898552970762
social 0.000182523498941
anxiety 4.41008246996e-05
around 0.000201482719799
people 0.000946968783057
morning 2.02571818234e-05
damage 0.000199267687711
everything 0.000101285909117
present 4.61299095212e-05
though 8.43733187552e-05
friend 6.11000507132e-05
watched 6.86325828696e-05
beautiful 6.26008266859e-05
demanding 0.0
anything 0.000164699910092
tagged 0.0
helped 4.44096738871e-05
thinking 0.000103494027322
finally 6.20964163934e-05
caught 4.56308747353e-05
believe 0.000121215919883
already 0.000161621226511
couple 0.000110723912186
launches 0.000206986668654
chance 0.000101285909117
annual 5.4468099242e-05
quickly 2.82634583059e-05
growing 4.8588567116e-05
probably 0.000329485282605
changed 0.000130024101453
history 0.000333871075658
center 7.96529758118e-05
museum 3.51732024257e-05
behind 6.04448159398e-05
screaming 0.0
pretty 0.000206988054645
really 0.000283600545528
possibly 5.63647572623e-05
little 0.000222229186452
happiest 0.0
earlier 4.7405223045e-05
forget 0.000123192361158
someone 0.000245059901117
things 0.000221630991779
available 0.000778350274487
perfect 0.000126559978133
different 0.000226462376377
person 6.09355749221e-05
watching 8.14667342843e-05
exhibit 0.0
passed 4.93972205526e-05
prefer 3.05858699235e-05
minutes 6.27699032044e-05
travel 7.43003820087e-05
daughter 7.3486298108e-05
positive 9.61166835647e-05
outside 8.57510119259e-05
looking 0.00139398307866
forward 0.00012486444358
raising 2.89241165743e-05
impression 0.0
wheels 0.0
favorite 9.4036746504e-05
instead 0.000114077186838
appreciate 2.38326008249e-05
couldn 4.21866593776e-05
remember 0.00012154309094
impressive 0.0
vintage 0.0
holidays 0.0
friends 0.000142566784998
impossible 0.0
everyone 8.10287272936e-05
always 0.000201482719799
limited 7.98772611005e-05
months 8.46013050117e-05
moving 6.53644996315e-05
meeting 4.15093905955e-05
answer 6.22640858933e-05
together 6.09355749221e-05
inside 0.000126559978133
upstairs 0.0
missed 2.05320601929e-05
active 0.000162987904442
eventually 0.0
longer 2.33812606599e-05
enough 0.000225244620611
building 0.000113767689329
enjoying 2.47667940029e-05
london 0.000192760981924
posting 0.000121617410928
recent 0.000187432802456
amazing 0.000181823879825
attention 4.58796196236e-05
tomorrow 0.00012154309094
whenever 0.0
feeling 2.12074845096e-05
excited 6.34509787588e-05
understand 4.41698127982e-05
following 0.000170118443032
asleep 0.0
learning 0.000301334607547
evening 2.31908818704e-05
special 0.000122529950558
secret 4.53836558988e-05
across 0.000294193983986
surprised 7.24838735426e-05
candles 0.0
sophia 0.0
version 4.47721639833e-05
rather 4.55070757317e-05
showing 0.000151285385891
saying 8.46013050117e-05
thoughts 0.0
exactly 0.000131438031395
getting 0.000162057454587
nothing 0.000141800272764
tweets 6.69764569178e-05
photos 0.0
looked 2.30022851238e-05
difficult 0.0
office 0.000131438031395
brought 2.24468611387e-05
biggest 4.17338844573e-05
thrilled 0.0
entire 9.00312967468e-05
something 0.00012154309094
closing 0.000241080854268
anyone 0.000388011510102
taking 0.000162057454587
interesting 0.000180551778014
original 2.39634342195e-05
flying 0.0
sometimes 4.46509712785e-05
yesterday 2.04216584264e-05
serious 4.3341367151e-05
digital 9.01384553875e-05
wearing 0.0
british 8.85615446703e-05
either 0.0
second 0.000142951608985
checking 2.62546884799e-05
indeed 0.0
island 8.60214727881e-05
hearing 0.0
staying 0.0
another 0.000383850412963
compare 0.00014787201216
bummer 0.0
clothes 0.0
landing 0.0
weekend 4.10641203859e-05
delivery 0.000148374151403
secretive 0.0
anyway 5.23625770016e-05
recognize 3.62307889014e-05
working 0.000263343363704
bigger 2.37675013434e-05
laughing 0.0
wanted 0.00010238391846
clothing 0.0
grateful 0.0
friendship 0.0
family 0.000101285909117
listening 0.0
stream 2.78612838358e-05
double 2.29398098118e-05
especially 4.48937222775e-05
shaking 4.69703484462e-05
waiting 6.22640858933e-05
definitely 2.21447824372e-05
account 9.50700053738e-05
completely 7.20875126735e-05
thought 0.000142951608985
possible 0.000107188764907
simple 0.000495042565303
professional 3.00461517958e-05
members 5.1064901735e-05
business 4.36943318366e-05
absolutely 6.50120507265e-05
sending 2.3509186626e-05
introducing 0.000194982543273
congrats 0.0
community 0.000124863703272
keeper 0.000111745029818
greatest 6.64343473115e-05
selfie 3.03142037137e-05
pasadena 0.0
posted 7.18903026586e-05
saturday 0.0
designs 0.0
broken 0.000100444869182
chicago 0.0
glimpse 0.0
actually 0.000166037562382
myself 0.0
pajamas 0.0
school 0.000329399820185
throwback 0.0
thursday 4.3341367151e-05
selling 8.31079056158e-05
talented 0.000133128768501
celebrate 6.7158245975e-05
celebrating 2.41612911809e-05
anniversary 0.0
contest 5.28045910564e-05
experiences 3.77332192595e-05
students 0.000751848103925
figure 0.000169593743477
featuring 5.26567136649e-05
inspired 0.0
breeze 0.0
sitting 4.57550552464e-05
playing 6.17624662846e-05
street 2.24468611387e-05
points 5.19253588539e-05
advice 0.000332745018808
memory 0.000112084766383
forever 9.15101104927e-05
imagine 0.0
problem 0.000347669430889
played 0.0
keeping 4.52606129208e-05
lovely 2.54616308579e-05
dressed 0.0
chinese 6.53971498887e-05
sunshine 0.0
afternoon 0.0
notice 5.49339604301e-05
difference 8.85791297486e-05
suppose 0.0
letting 0.0
system 0.00040513173243
mutant 0.0
bathroom 0.0
almost 0.000202571818234
details 0.000177158259497
experience 0.000169202610023
luckily 0.0
viewed 0.0
living 0.000126901957518
weather 2.58903336689e-05
bright 0.0
launching 6.60092610603e-05
colors 0.0
monday 2.11503262529e-05
walked 3.04949069158e-05
pinned 0.0
wanting 0.0
tweeting 4.62556398696e-05
forgot 0.0
gorgeous 0.0
herself 0.0
happens 4.19596359943e-05
learned 4.68902442284e-05
congratulations 4.46509712785e-05
raised 0.0
mission 0.0
smelled 0.0
unforgettable 0.0
forgotten 6.0270213567e-05
trouble 2.50418600085e-05
channel 0.0
fantastic 4.77958226522e-05
loving 0.0
hardly 0.0
dining 0.0
complete 6.9762425409e-05
daniel 3.56364014916e-05
rewarding 0.0
spirit 0.0
finding 9.90671760116e-05
stories 8.7625354263e-05
including 4.50156483734e-05
somewhere 2.64022955282e-05
conversation 9.85226260485e-05
disrespectful 0.0
making 0.000242431839766
expect 0.0
polite 4.82432941395e-05
brings 4.88563192237e-05
anytime 0.0
needed 4.32243959689e-05
seriously 4.47721639833e-05
modern 0.000145887786497
welcome 0.000143337485844
moments 2.51808141592e-05
jacket 0.0
halloween 0.0
costume 0.0
totally 9.35250426395e-05
flight 4.8588567116e-05
attached 0.0
finished 0.0
strong 4.17338844573e-05
message 8.59829346411e-05
coming 0.000101013266569
temporary 4.3747337177e-05
challenge 4.44096738871e-05
achievement 3.77332192595e-05
unlocked 5.68555524064e-05
happen 2.06430702367e-05
celebrated 0.0
giving 2.04767836919e-05
excellent 0.000105609182113
common 0.000375627900128
pressed 0.0
company 0.000137638858871
change 0.000243086181881
singing 0.0
silver 0.0
august 2.8591079703e-05
crying 3.19044515864e-05
happened 4.26445795776e-05
parking 0.0
demand 2.6700793906e-05
sacrifice 0.0
personal 8.81008310871e-05
beyond 2.26303064604e-05
question 0.000144891638251
chicken 5.81854446893e-05
position 0.00179554549832
losing 7.49182219631e-05
respect 4.42895648743e-05
caption 0.0
shouldn 0.000193821421116
career 0.00011754593313
reason 6.39668693664e-05
explore 0.000120661219188
glamorous 0.0
reality 2.40951227405e-05
burned 0.0
without 0.000183794925838
problems 2.49727406544e-05
countdown 0.0
online 0.000392186997789
animals 0.000372286896865
buying 8.24009406451e-05
pictures 2.56035206836e-05
underneath 0.0
camera 2.64765065586e-05
checked 2.87569100381e-05
heading 0.0
complex 0.000166577034767
sunday 0.0
nights 0.0
traffic 3.0404352732e-05
through 0.0
changing 4.96704185072e-05
diapers 0.0
convinced 3.58720564818e-05
capture 8.16348718267e-05
random 5.90410297802e-05
recorded 3.07690372939e-05
november 0.0
number 0.000124528171787
stupid 5.63647572623e-05
grandparents 0.0
recording 0.0
chocolate 3.10469488997e-05
unless 9.98909626175e-05
calling 0.000148853637653
mermaid 6.65957640245e-05
levels 9.34213335874e-05
package 0.000218110799446
option 2.93483063889e-05
knowing 5.60423831913e-05
actual 8.07828183513e-05
friday 6.15961805788e-05
achieve 3.39517210567e-05
winner 0.0
becomes 0.0
directly 0.00010026022061
quality 0.000104725154003
father 0.0
wishes 0.0
themselves 0.0
asking 0.000107188764907
usually 8.10113434474e-05
period 0.0
resist 0.000115181632584
collections 6.55350837642e-05
summer 6.55414977549e-05
bracelet 0.0
reminded 0.0
dinner 2.23860819917e-05
single 0.000271270248972
catching 2.99575878204e-05
energy 2.40951227405e-05
preview 5.76806797099e-05
monster 0.0
material 0.000207652728917
events 2.51112172956e-05
europe 0.000224169532765
holiday 2.33176009798e-05
emotional 0.0
affects 8.92859267586e-05
holding 2.39634342195e-05
survive 0.000103162129027
eating 7.59621998307e-05
outfit 0.0
missing 0.000108060989922
surprise 2.16706835755e-05
german 3.48326601447e-05
officially 7.0913790048e-05
french 0.0
global 0.000270802452712
follow 0.000162933468569
design 0.000244686959388
improvement 0.0
website 7.40958308289e-05
breaks 8.0102381718e-05
negative 0.0
official 0.000104616505341
jersey 0.0
france 2.81016239259e-05
lighter 0.0
thinks 0.0
hospital 0.000206643604231
jealous 0.0
successful 5.54052704105e-05
trending 0.0
leadership 6.34214334186e-05
showed 0.0
attended 0.0
circle 7.17441129636e-05
interested 0.000572776289603
effect 2.6700793906e-05
success 2.28775276232e-05
ladies 0.0
dreams 0.0
protect 0.000103850717708
arguing 4.05167098533e-05
essence 0.000102118511534
control 0.000316824290446
happier 0.0
likely 0.000135401226356
cancel 0.0
project 0.00050330560771
laying 0.0
lesson 5.63647572623e-05
fridays 0.0
invited 5.70173471354e-05
treating 7.70572981609e-05
allowing 3.55195995878e-05
remote 8.89212496637e-05
opening 0.000220252077718
alcohol 9.43539984023e-05
popular 5.54052704105e-05
pedestal 0.0
designing 0.0
followed 0.0
enjoyed 0.0
spectacular 0.0
recovered 0.0
length 3.9928397343e-05
matters 0.0
factor 3.34200735368e-05
england 0.000118428697032
shared 5.55636067398e-05
benefit 5.07821178099e-05
continues 9.87944411052e-05
fathers 0.0
kitchen 3.25975808884e-05
exciting 0.00012147141779
corner 0.0
spring 2.58903336689e-05
fallen 0.0
victoria 0.000585164668605
tornado 0.0
typical 3.77332192595e-05
continue 2.33812606599e-05
creative 2.8591079703e-05
excuse 0.0
female 8.10113434474e-05
closer 0.00010156423562
accent 0.0
beginning 2.54616308579e-05
sooner 0.0
everywhere 2.41612911809e-05
scenes 0.0
wishing 0.0
choices 3.28000777887e-05
unpredictable 0.0
become 0.000126901957518
photographs 6.22090120555e-05
spread 0.000485684218631
season 0.000111627428196
putting 4.25296107579e-05
annoying 0.000118921679973
quietly 0.0
extending 0.0
stance 3.92163701763e-05
sleepy 0.0
returns 0.0
bucket 0.0
condolences 0.0
register 3.01351067835e-05
flowers 3.83938775279e-05
define 3.96405599909e-05
somebody 3.02244562514e-05
chicks 0.0
covering 0.0
repeat 2.82634583059e-05
football 5.09232617158e-05
brothers 0.0
player 0.0
physical 3.37373757162e-05
series 0.000110126038859
pretend 0.0
fighting 4.61299095212e-05
atlanta 3.50590476049e-05
mexico 8.7788252896e-05
president 4.50156483734e-05
talking 8.12474332295e-05
america 8.62155266868e-05
greats 0.0
everybody 0.0
judgment 0.0
amount 2.84266030999e-05
houston 0.0
everyday 2.87569100381e-05
shooter 0.0
attitude 3.58720564818e-05
million 0.000489090523716
honesty 4.35728921741e-05
telling 9.20091404953e-05
pulled 3.0404352732e-05
attack 2.61081549469e-05
killed 6.77069167553e-05
horrible 0.0
norman 0.0
salute 0.0
jacksonville 0.0
barackobama 0.0
lilduval 0.0
liquor 0.0
american 0.000193461602942
realist 0.0
remain 5.70173471354e-05
innocent 0.0
pieces 0.0
taught 2.98694114346e-05
golden 0.0
straight 2.24468611387e-05
forgive 0.0
answers 0.000130540774734
product 9.74912716366e-05
smoking 8.07360268885e-05
created 2.4361110392e-05
record 8.46013050117e-05
weapon 4.11227186019e-05
bottom 0.000108628002743
arrangements 0.0
africa 0.000336310521345
committed 0.0
journey 2.63283568325e-05
brother 4.93972205526e-05
prayers 0.0
documentary 3.03142037137e-05
addition 0.0
honestly 2.89241165743e-05
velvet 0.0
country 8.36932042725e-05
speedy 5.26300461084e-05
dressing 0.0
employee 4.46429633793e-05
yoooooo 0.0
prayer 4.4826967142e-05
nominated 0.0
praying 4.15894948133e-05
insane 0.0
illest 0.0
shooting 0.0
cancer 0.000331001201153
australia 0.000120184607183
marijuana 0.0
deserve 0.0
legend 0.0
mother 2.25689722518e-05
murder 6.56001555773e-05
realest 0.0
powerful 7.40958308289e-05
attendance 0.0
wisdom 0.0
breaking 4.35763330877e-05
bothered 0.0
angeles 0.0
dollars 3.39517210567e-05
soldiers 0.0
performance 0.0
reading 2.14957336603e-05
videos 0.000234973394522
jordan 3.52880077049e-05
nobody 0.0
politics 0.0
paradise 0.0
blessing 0.0
coolest 3.58720564818e-05
strippers 0.0
charities 0.0
donate 5.46227886602e-05
bullshit 0.000116402781509
sample 0.000129685406644
rocking 0.0
bringing 2.27535378659e-05
deserves 2.69276061171e-05
hilarious 2.68517179973e-05
victim 0.0
stadium 0.0
funniest 3.69680030399e-05
heaven 0.0
ruined 0.0
honest 7.55424424775e-05
rolling 0.0
became 2.53207332769e-05
driver 3.09538851224e-05
breakfast 0.0
decision 0.0
counting 5.75138200762e-05
pressure 0.0
awareness 0.000174049458559
dearly 0.0
lastnight 0.0
facebook 4.3341367151e-05
basketball 0.0
campaign 4.7018373252e-05
twisted 0.0
defined 0.0
discover 0.000206986668654
comments 4.93972205526e-05
giveaway 0.0
bipolar 0.0
teenage 0.0
williams 3.22976010745e-05
custom 4.06665118221e-05
singer 0.0
future 0.000125201653372
randomly 0.0
angels 0.0
blessed 0.0
sister 0.0
stripper 0.0
dancing 0.0
reigns 0.0
voting 0.0
niggas 0.0
commercial 2.77818033699e-05
hating 0.0
boring 0.0
century 0.000166056406425
acting 0.0
submit 3.50590476049e-05
besides 8.4134683684e-05
hiding 6.64225625702e-05
periscope 0.0
breath 0.0
choosing 4.02204063959e-05
lawrence 0.0
instagram 0.0
detroit 0.0
cousin 3.97839646673e-05
honored 0.0
dedication 0.0
rockin 0.0
fucked 0.0
lionelrichie 0.0
talent 0.0
goodnight 0.0
stores 7.34385115638e-05
drinking 3.01351067835e-05
brazil 0.000399869798985
tattoo 0.0
consecutive 0.0
regardless 0.0
staring 0.0
commitment 0.0
seconds 8.12407358136e-05
ohhhhhh 0.0
listen 0.000104616505341
whatever 0.0
wherever 0.0
kicking 2.8591079703e-05
compete 0.0
lauderdale 0.0
homies 0.0
billion 5.80164861862e-05
belated 0.0
pirate 0.0
shoutout 0.0
grammy 0.0
guilty 6.85551524468e-05
ceiling 0.0
grammys 0.0
absolute 0.0
nelson 0.0
mandela 0.0
bigsean 0.0
handle 0.0
tonite 0.0
cocaine 0.0
promise 2.40291708912e-05
longest 3.59909256878e-05
generation 0.000166690820219
tuesday 0.0
struggle 0.0
workout 0.0
character 0.0
mirror 0.0
interview 0.000123524932569
buffalo 0.0
justin 0.0
insights 0.000246845944068
winning 2.16121979844e-05
oxygen 0.0
espnnfl 0.0
charlotte 4.12771122461e-05
accomplished 0.0
defense 0.000129988362182
gettin 0.0
arabia 0.000212728352369
lmfaooooo 0.0
writing 0.000187560976914
soccer 0.0
society 0.000223528632613
brooklyn 0.0
incredible 2.18471659183e-05
witcho 0.0
celebrity 0.0
minute 2.28154373676e-05
foreign 6.70505733687e-05
cherry 0.0
champs 0.0
murdered 0.0
evidence 0.000600923035917
android 0.0
sneaking 0.0
clearly 2.56748420748e-05
download 8.57732391089e-05
mixtape 0.0
central 8.0102381718e-05
washington 5.35522292733e-05
veterans 0.0
stronger 0.0
promised 6.64225625702e-05
marcus 0.0
zombie 9.27256336643e-05
throwing 0.0
security 5.37034359946e-05
fastest 0.000166357979253
fantasy 0.0
turning 5.06414665538e-05
ignore 5.80164861862e-05
fucking 3.69680030399e-05
tickets 0.0
collector 0.0
prizes 4.30584402607e-05
december 2.81016239259e-05
loyalty 4.61643100838e-05
return 0.000111930409958
escape 0.000144923155606
yassss 0.0
goddess 0.0
handsome 0.0
language 0.000113379462305
motion 0.0
gallery 0.0
movies 3.03142037137e-05
children 0.000244915780839
backpack 0.0
potentially 4.41008246996e-05
guardian 3.65960243765e-05
review 0.000409617086589
theaters 0.0
shhhhh 0.0
begins 7.26830329186e-05
closet 0.0
bodies 0.0
hahaha 3.62307889014e-05
produced 6.34214334186e-05
latest 0.000262876062789
banned 3.62307889014e-05
beyonce 0.0
perform 3.23970989161e-05
lionel 0.0
signed 2.23254856393e-05
princess 0.0
ghetto 0.0
conditioning 0.0
charity 0.0
germany 0.000123076149176
ronaldo 0.0
married 2.99575878204e-05
millions 8.21671112783e-05
blessings 0.0
diamond 9.1935480035e-05
nephew 0.0
lights 0.0
howard 0.0
turned 4.44096738871e-05
buckle 0.0
relevant 7.19818513757e-05
performing 0.0
indian 0.0
includes 0.0
tricks 0.000132302474099
survivor 4.50126668158e-05
diamonds 0.0
collection 0.00013890901685
families 7.76710010066e-05
welcoming 0.0
select 3.61105003532e-05
announced 2.46306565121e-05
granted 0.0
decided 0.0
selfish 5.03175178238e-05
trailer 6.1171739847e-05
reppin 0.0
celebration 2.84266030999e-05
decades 3.24970905455e-05
ultimate 5.86966127779e-05
incase 0.0
downtown 4.02204063959e-05
seasoning 0.0
episode 4.83225823617e-05
mentality 0.0
touching 3.89384585704e-05
retweet 0.000282423262823
goodmorning 0.0
midnight 2.73113943301e-05
expectations 0.0
joining 0.0
reasons 0.000117867277453
released 7.07203664719e-05
release 0.000133229021661
models 0.000156307740846
popped 0.0
within 0.00020654597401
standing 6.93834598044e-05
valentines 0.0
justice 0.0
houses 0.0
purchase 0.0
dropped 7.49182219631e-05
conversations 0.0
seattle 3.69680030399e-05
strength 0.0
monica 0.0
incredibly 0.0
streets 0.0
private 2.5962679427e-05
inspirational 0.0
barbie 0.0
tables 0.0
affection 0.0
broski 0.0
pissing 0.0
designer 4.44606248319e-05
cooking 0.0
tattoos 0.0
direction 0.0
readyyyyy 0.0
exclusive 0.0
adrianalima 0.0
fashion 0.0
talkin 0.0
bitches 0.0
nailed 4.08174359134e-05
kitten 0.0
whomever 0.0
ruthless 0.0
teaching 0.000432057489163
chillin 0.0
philly 0.0
baddest 0.0
cheers 0.0
autumn 0.0
presents 0.0
flawless 0.0
unique 6.20938977994e-05
handed 0.0
taraji 0.0
victory 0.0
tribute 0.0
ballin 0.0
horror 0.0
females 0.0
catfish 0.0
action 6.51880182917e-05
wouldnt 0.0
recipient 0.0
whitney 0.0
continued 0.0
esther 0.0
letter 4.99454813088e-05
existence 0.0
papers 0.000556403067763
winter 5.47780741855e-05
sessions 0.0
replicating 9.29564095151e-05
foundation 8.65210195648e-05
syndrome 9.23286201675e-05
colorado 4.46429633793e-05
tremendous 0.0
public 0.00035263779939
cannot 2.25689722518e-05
brilliant 4.96704185072e-05
illustration 0.0
beware 0.0
globally 5.2359595444e-05
premieres 0.0
streaming 6.62153819392e-05
immigration 0.0
wrapped 0.0
studio 0.0
february 0.0
amazon 0.000184063472779
border 3.94981687836e-05
huffingtonpost 4.67657957047e-05
francis 0.0
january 0.000112084766383
relationships 0.0
tragic 0.0
secure 0.0
countries 5.83551145988e-05
episodes 0.0
broadcast 3.34200735368e-05
tickled 0.0
livestream 0.0
potential 0.000139705395383
education 0.00027234049621
famous 0.0
unknown 0.000120661219188
exists 0.0
orders 3.63517999077e-05
microsoft 0.0
ability 2.94342266555e-05
director 0.000126253261301
accessible 0.000103658694316
correction 0.0
william 0.0
editors 4.59677400175e-05
yellow 7.49498090841e-05
passionate 0.0
treatment 0.000317107167093
ambassador 0.0
thanking 0.0
streamed 5.37496825834e-05
lovers 0.0
wrinkled 0.0
bridge 0.0
magazine 0.000281016239259
sincere 0.0
quotes 0.0
result 5.83551145988e-05
destruction 4.75967700505e-05
edition 5.41604905424e-05
prince 2.93483063889e-05
indiana 4.05167098533e-05
editorial 8.44583524439e-05
emotion 0.0
mistakes 0.0
inspiring 2.73113943301e-05
counter 0.0
disappointing 0.0
edited 0.000190387080202
spotlight 0.0
saddest 5.46322297381e-05
production 0.000226083207521
header 0.0
itunes 3.34200735368e-05
guests 0.0
snakes 6.13515093689e-05
charging 0.0
arriving 0.0
mysteries 0.0
dangerous 0.00032588400823
typically 0.0
saving 5.86966127779e-05
universe 3.24970905455e-05
victims 0.0
receive 0.0
proceeds 0.0
crossed 0.0
received 2.5962679427e-05
limitations 0.0
studying 0.000170890511817
conflict 0.0
petition 0.0
milestones 0.0
outstanding 6.94408264276e-05
devastating 0.000112424713626
installment 0.0
signature 8.74946743541e-05
mistletoe 0.0
awards 5.28045910564e-05
shelves 0.0
smells 0.0
themed 0.0
sisters 0.0
banquet 7.08212703225e-05
danger 7.0806941795e-05
leading 0.000128374210374
member 0.000118837506717
dominant 0.0
distinguish 6.35678373237e-05
factories 0.000135430800999
distinct 0.0
distance 0.000117230805635
confirmed 0.0002649080399
behavior 3.97839646673e-05
collect 4.35728921741e-05
vanity 0.0
junior 0.000201840067221
communities 3.85286490804e-05
worldwide 0.000100893156403
canada 0.000457769303991
recognized 4.93691888136e-05
vessels 0.0
movement 5.40075622983e-05
segment 0.0
internal 0.0
information 0.000164334222557
easily 0.000119126477044
towards 0.000147171133278
october 5.65269166118e-05
belgium 4.93691888136e-05
european 3.48326601447e-05
caribbean 0.000117956769464
cities 0.0
arrives 0.0
extraordinary 0.0
exquisite 0.0
argentina 0.0
eliminate 4.89112538292e-05
genius 0.0
prepared 3.05858699235e-05
anthony 0.000110529736618
breakthrough 4.82432941395e-05
berlin 0.0
batman 4.65632988044e-05
upcoming 0.0
upgrade 0.0
singapore 0.0
crucial 0.0
scratch 4.33999445716e-05
collaboration 4.22291762219e-05
tested 8.16348718267e-05
acquire 5.86086812953e-05
honoring 0.0
holland 0.0
visually 0.0
neyocompound 0.0
inspire 0.0
ebonymag 0.0
spiketv 0.0
constant 7.84327403525e-05
sunset 0.0
tuning 4.46429633793e-05
gentleman 0.0
fulfilling 0.0
ayeeeee 0.0
stratford 0.0
poland 0.000105260092217
philippines 0.0
kickin 0.0
theweeknd 0.0
september 5.66897311523e-05
manchester 0.000110157767346
rickyrozay 0.0
remarkable 3.48326601447e-05
rihanna 0.0
disgusted 0.0
immoral 0.0
process 5.14928336571e-05
goosebumps 0.0
performances 0.0
strangers 0.0
emotions 0.0
judgement 0.0
comparing 8.92859267586e-05
thuggin 0.0
studios 0.0
jennifer 4.02204063959e-05
performer 0.0
literally 2.49727406544e-05
cardiff 0.0
soooooooo 0.0
crashed 0.0
cthagod 0.0
closed 0.0
justinbieber 0.0
complexmag 0.0
billboard 0.0
airing 0.0
albums 0.0
sweden 4.00738728629e-05
katyperry 0.0
treats 4.30584402607e-05
missouri 0.0
thefader 0.0
soundtrack 0.0
theellenshow 0.0
sweets 0.0
festival 0.0
wizkhalifa 0.0
amsterdam 5.15693658481e-05
backstage 0.0
collab 0.0
subscribed 0.0
joined 2.48352092536e-05
davidguetta 0.0
pushing 0.0
hopeful 0.0
romantic 0.0
mentions 0.000151454516969
lurking 0.0
ballad 0.0
teamed 0.0
exclusively 0.0
kingjames 0.0
hollyrpeete 0.0
sneakers 0.0
auction 0.0
sneaker 0.0
djkhaled 0.0
express 0.0
thegrammys 0.0
throughout 0.00022401415471
shining 0.0
excellence 9.92042388152e-05
thrown 0.0
zendaya 0.0
playin 0.0
applemusic 0.0
crunch 0.0
capitalofficial 0.0
filmed 0.0
toronto 0.000359909256878
naomicampbell 0.0
trvisxx 0.0
killin 0.0
trucks 0.0
stands 0.000112084766383
platinum 0.0
native 4.09694990652e-05
spotify 0.0
rocked 0.0
jumped 0.0
leebruhgreene 0.0
leaning 0.0
featured 0.0
announce 4.68902442284e-05
senior 0.000316145433908
iamdiddy 0.0
haters 0.0
nothin 0.0
appreciation 4.3747337177e-05
defjamrecords 0.0
floating 0.0
superstars 0.0
shondarhimes 0.0
premiere 0.0
orchestral 0.0
makeup 0.0
touched 0.0
newest 6.51951617768e-05
designed 3.11404445291e-05
passes 0.0
angelasimmons 0.0
tidalhifi 0.0
vashtie 0.0
delivered 0.0
owning 0.0
producer 0.0
balmain 0.0
legendary 0.0
independence 0.0
mtvmusicuk 0.0
audition 0.0
debuts 0.0
footage 0.0
marshall 0.0
spends 0.0
playtime 0.0
completed 4.14326981311e-05
dishes 0.0
photographed 0.0
bubble 0.0
belong 0.0
tongue 0.0
observing 0.0
consistent 4.2067341842e-05
posing 0.0
heavens 0.0
contemporary 0.0
aiming 0.0
ceremony 0.0
brighter 0.0
rainbow 0.0
matthew 0.0
phenomenal 0.0
affected 3.11404445291e-05
rivers 4.96021194076e-05
presenting 3.83938775279e-05
competitive 4.05167098533e-05
eskimo 0.0
sibling 0.0
dakota 0.0
printed 4.53892809956e-05
heroes 3.07690372939e-05
deepest 4.65632988044e-05
describe 2.92627509653e-05
hollywood 0.0
baggage 0.000133191528049
terrifying 0.0
animation 0.0
nationwide 0.0
capital 0.0
quantity 0.0
nominations 0.0
mountains 4.82432941395e-05
mosaic 7.37045050407e-05
realise 0.0
overload 0.0
photographer 0.0
depression 0.0
donation 6.83367424598e-05
marvelous 6.71478060084e-05
madonna 0.0
sailed 0.0
terror 0.0
rinsed 0.0
disorder 5.93549989116e-05
polish 0.0
represents 0.0
touchdown 0.0
creates 7.95679293346e-05
oxford 0.000226946404978
stitched 0.0
morocco 0.0
thrill 0.0
balloons 0.0
teaming 0.0
latimes 0.0
kerrywashington 0.0
caution 0.0
camouflage 0.0
approaching 9.04001879064e-05
generous 0.0
installation 0.0
benefiting 0.0
basics 0.000114388373595
confirm 3.28000777887e-05
thrilling 0.0
photography 4.65632988044e-05
matches 9.11605226136e-05
boundaries 0.0
singles 0.0
laptop 4.52000939532e-05
obvious 0.0
darling 4.80254728615e-05
celebrations 0.0
chewbacca 0.0
underwater 0.0
naughty 0.0
advised 5.43337313603e-05
feelin 0.0
macaroni 0.0
perfection 0.0
picasso 0.0
recipe 4.2067341842e-05
radical 0.0
volcano 0.0
planted 0.0
products 7.3192048753e-05
directed 6.8995556218e-05
grabbed 5.71941867974e-05
frames 0.0
casual 0.0
scheming 0.0
twickenham 0.0
bbcnews 0.0
pledge 0.0
subtle 0.0
embarrassed 0.0
snatch 0.0
unveiling 0.0
kissed 0.0
arguments 0.0
settling 0.0
desperate 7.67877550558e-05
executive 0.0
humbled 0.0
courage 0.0
dropping 3.04949069158e-05
carried 4.30584402607e-05
behalf 0.0
hardest 0.0
marking 0.0
vision 2.98694114346e-05
intervention 0.0
records 0.0
deeply 0.0
mannered 0.0
texted 0.0
israeli 0.0
strongest 0.0
rogers 0.00042459299281
concept 0.0
allegiance 0.0
belongs 0.0
intended 0.0
bosses 0.0
purpose 3.08612492259e-05
hottest 0.0
campaigns 0.0
sunderland 0.0
teenager 0.0
runway 0.0
steven 0.0
guitar 4.30584402607e-05
donating 0.0
applause 0.0
finale 0.0
wasted 8.38135939855e-05
absent 6.05290167205e-05
awhile 0.0
fierce 0.0
sincerely 0.0
apology 0.0
climbing 0.0
unwilling 0.0
protesting 0.0
bikini 0.0
friendships 0.0
matching 4.55802613068e-05
wolves 0.0
mosque 0.0
venezuela 0.0
donates 0.0
generations 0.0
underestimate 0.0
pardon 0.0
stickers 0.0
mothers 3.7603647932e-05
deeper 0.0
nipple 0.0
perfume 0.0
noodle 0.0
melissa 0.0
forest 0.000132302474099
panties 7.8990691599e-05
jimmykimmel 0.0
everytime 0.0
underdog 0.0
shoulders 5.2359595444e-05
wrapping 0.0
bedroom 0.0
glitter 0.0
stocking 0.0
annoyed 0.0
behave 0.0
goodbye 3.17107167093e-05
fuckin 5.52428301622e-05
seller 0.0
joshgroban 0.0
samsungmobileus 0.0
influential 0.0
slicing 0.0
ryanseacrest 0.0
farmer 0.0
teaser 0.0
styled 0.0
casting 0.0
imitated 0.0
forgiveness 0.0
perezhilton 0.0
blacked 0.0
paparazzi 0.0
peoplemag 0.0
rolled 0.0
vanityfair 0.0
rockstar 0.0
thousand 0.0
minded 9.92042388152e-05
shines 0.0
sunglasses 0.0
auntie 0.0
magazines 0.0
waited 0.0
denmark 0.0
leather 0.0
wished 0.0
ladygaga 0.0
swallow 6.5024973683e-05
glblctzn 7.80076541014e-05
shakira 0.0
accessories 0.0
nbcthevoice 0.0
clique 0.0
premiering 0.0
loooooove 0.0
weareheremvmt 0.0
looooove 0.0
vmagazine 0.0
popcrush 0.0
studded 0.0
yassssss 0.0
yessss 0.0
undeniable 0.0
unicef 5.97387871246e-05
auditions 0.0
ellemagazine 0.0
yasssss 0.0
pharrell 0.0
greece 4.98377743979e-05
papermagazine 0.0
nowwwww 0.0
maccosmetics 0.0
macaidsfund 0.0
lipstick 0.0
meeeee 0.0
newsstands 0.0
unapologetically 0.0
insidebates 0.0
legalize 0.0
loooove 0.0
caradelevingne 0.0
allllll 0.0
badgalriri 0.0
itsjeremyscott 0.0
nickiminaj 0.0
nipples 0.0
booooo 0.0
trippy 0.0
mikewillmadeit 0.0
puttin 0.0
trappin 0.0
alexanderwangny 0.0
karllagerfeld 0.0
celebratin 0.0
lilyallen 0.0
fuuuuuck 0.0
chanel 0.0
rubber 0.0
angelou 0.0
misses 0.0
harpersbazaarus 0.0
timberlake 0.0
photoshopped 0.0
whatchu 0.0
rehearsals 0.0
couture 0.0
mutual 0.0
creeper 0.0
cuddling 0.0
celine 0.0
theamas 0.0
thexfactor 0.0
websterhall 0.0
presale 0.0
deluxe 0.0
styles 0.0
wetten 0.0
shittttttttttt 0.0
boredom 0.0
darealamberrose 0.0
noooooooo 0.0
itunesmusic 0.0
cbstweet 0.0
thermal 0.0
mariners 0.0
torres 0.0
thebeatles 0.0
blondies 0.0
greeting 0.0
thecut 0.0
geeked 0.0
outlet 0.0
americanexpress 0.0
gqmagazine 0.0
nicole 0.0
bumped 0.0
hangover 0.0
stockholm 0.0
casually 0.0
esquire 0.0
winnipeg 0.000144422714924
begging 0.0
showroom 0.0
sleeves 0.0
smelling 0.0
guaranteed 4.35728921741e-05
obsession 0.0
attendant 0.0
aussie 0.0
tbsveryfunny 0.0
reservation 0.0
mollymcnearney 0.0
dragging 0.0
rocnation 0.0
tapered 0.0
badass 0.0
endlessly 0.0
vampires 0.0
viewers 0.0
kanyewest 0.0
designers 0.0
billboards 0.0
backstreetboys 0.0
monteith 0.0
e_fashionpolice 0.0
epically 0.0
internationally 0.0
mighty 4.61643100838e-05
jcolenc 0.0
semifinals 0.0
brasilia 0.0
tailgating 0.0
photoshoot 0.0
smokin 0.0
ahhhhhh 0.0
missin 0.0
sweats 0.0
impacted 0.0
rodriguez 0.0
musician 0.0
merchandise 6.45274602086e-05
jurgen 0.0
athleteally 0.0
originals 0.0
número 0.0
zealand 0.0
hehehe 0.0
fearless 0.0
stadiums 0.0
thiago 0.0
suarez 7.53172272849e-05
cropped 0.0
uruguay 0.0
apparel 0.0
staircase 0.0
wintour 0.0
spotting 0.0
polygraph 0.0
twerking 0.0
shipment 8.61770753779e-05
muggin 0.0
takeoff 0.0
thailand 6.09360663623e-05
tomorr 0.0
googleplay 0.0
budweiser 0.0
miafestival 0.0
dotted 0.0
burning 0.0
surpass 0.0
betcha 0.0
onairwithryan 0.0
dreamers 0.0
brunomars 0.0
beyoncé 0.0
hellooo 0.0
subscribers 0.0
preorder 0.0
believer 0.0
fragrance 0.0
hellooooo 0.0
majesty 0.0
beatsbydre 0.0
finland 5.75386100901e-05
fearnecotton 0.0
debuted 0.0
queued 0.0
rhetorical 0.0
iranian 0.0
infamous 0.0
brutally 0.0
execution 0.0
palestinian 0.0
transplant 0.0
audacity 0.0
foreplay 0.0
priced 0.0
huntington 0.0
manger 0.0
weaker 0.0
justintrudeau 0.0
creeping 0.0
fittest 0.0
hoodie 0.0
mankind 0.0
westwood 0.0
holographic 9.74523664775e-05
throwin 0.0
eminem 0.0
ecstatic 0.0
enjoys 0.0
wussup 0.0
duplicated 0.0
crotch 0.0
congrat 0.0
huggin 0.0
implement 5.34638866996e-05
penalizing 0.0
gonzalez 0.0
bitchin 0.0
sephora 0.0
damien 0.0
demanded 0.0
negativity 0.0
alancarr 0.0
skillz 0.0
hopeless 0.0
beatle 0.0
cheesecake 0.0
almighty 0.0
whatcha 0.0
slumber 0.0
chimney 0.0
headlining 0.0
perplexed 0.0
googleplaymusic 0.0
thrills 0.0
rollers 0.0
bravotv 0.0
gifted 0.0
kekepalmer 0.0
styledtorock 0.0
yooouuu 0.0
shantay 0.0
yaaaas 0.0
bestest 0.0
freestyle 0.0
everrrrr 0.0
sweatband 0.0
podolski 0.0
collaborating 0.000136598898553
bestfriend 0.0
sittin 0.0
whaaaat 0.0
clockwork 0.0
warmest 0.0
temptation 0.0
spiritual 0.0
chameleon 0.0
customised 0.0
acrylic 0.0
grasshopper 0.0
engages 0.0
gourmet 0.0
rhythmic 0.0
petals 0.0
klinsmann 0.0
directv 0.0
popcrave 0.0
versailles 0.0
raddest 0.0
grandfather 4.63628168321e-05
persie 0.0
webster 0.0
knight 0.0
footwear 0.0
collectors 0.0
blackout 0.0
skylight 0.0
hammock 0.0
playhouse 0.0
revelers 0.0
executed 0.0
cincinnati 0.0
simultaneously 5.65225155351e-05
malawi 0.0
graduated 0.0
sickening 0.0
mueller 0.0
elonjames 0.0
skeletons 0.0
mittromney 0.0
connecticut 0.0
cumulative 8.11135239244e-05
racked 0.0
valera 0.0
thighs 0.0
timely 0.0
rapping 0.0
shrugs 0.0
enables 6.89009348973e-05
psychic 0.0
fernando 0.0
tourism 0.0
slaughtered 0.0
devotion 0.0
fantasies 0.0
parsons 0.0
stella 0.0
complainers 0.0
newsstand 0.0
voguemagazine 0.0
westfield 0.0
manolo 0.0
turquoise 0.0
parisian 0.0
childs 0.0
swimsuit 0.0
bazaar 0.0
empress 0.0
brainstorm 0.0
tanning 0.0
desirable 7.8990691599e-05
feathers 0.0
antics 0.0
featurette 0.0
olivier 0.0
helloooo 0.0
hallow 0.0
connie 0.0
upbringing 0.0
privatize 0.0
bittersweet 0.0
outlaw 0.0
marcel 0.0
nowwww 0.0
hushed 0.0
threshold 0.0
floats 0.0
barbados 0.0
manuelcav 0.0
niggaz 0.0
prayin 0.0
drizzyxcole 0.0
homegirl 0.0
rappin 0.0
witcha 0.0
mufasa 0.0
dainternz 0.0
lololol 0.0
barclayscenter 0.0
bestbuy 0.000344708301512
blackouts 0.0
rivera 0.0
jakemiosge 0.0
givenchy 0.0
riccardo 0.0
grossed 0.0
guetta 0.0
spicewon 0.0
bitche 0.0
shawty 0.0
wednesdays 0.0
payday 0.0
jewelers 0.0
romero 0.0
acknowledging 0.0
calypso 0.0
blushes 0.0
medusa 0.0
keepers 0.0
futuristic 0.0
whereabouts 0.0
slayed 0.0
asvpxrocky 0.0
haaaaa 0.0
inezandvinoodh 0.0
calvinharris 0.0
_maxwell_ 0.0
bwerde 0.0
edward_enninful 0.0
haaaaaa 0.0
wisest 0.0
unconditionally 0.0
drmayaangelou 0.0
blackgirlsrock 0.0
submissive 0.0
rearrange 0.0
attuned 0.0
abrams 0.0
awaken 0.0
climbs 0.0
jacking 0.0
seventy 0.0
snatching 0.0
manoloblahnik 0.0
nicolerichie 0.0
openingceremony 0.0
whiteley 0.0
supermodel 0.0
the_real_iman 0.0
minogue 0.0
tmagazine 0.0
baaaaack 0.0
yeessss 0.0
wooooo 0.0
epicness 0.0
takawiraa 0.0
joplin 0.0
uncensored 0.0
unspeakable 0.0
rewrites 0.0
askdrruth 0.0
glozell 0.0
tardiness 0.0
runways 0.0
colombian 0.0
unapologetic 0.0
zac_posen 0.0
rumoured 0.0
omgggg 0.0
futbol 0.0
biatch 0.0
barrington 0.0
catwalk 0.0
sledgehammer 0.0
clemente 0.0
dollaz 0.0
mariah 0.0
granddad 0.0
iyanlavanzant 0.0
hustler 0.0
coletteparis 0.0
flexin 0.0
mistress 0.0
exceeds 0.0
sweeeeeet 0.0
stancesocks 0.0
serviced 0.0
issssss 0.0
lipglass 0.0
externally 0.0
complex_uk 0.0
prideful 0.0
dash_radio 0.0
holidaze 0.0
mawnin 0.0
champagnepapi 0.0
fashawn 0.0
raided 0.0
ahhhhhhhh 0.0
soulmate 0.0
motorbikes 0.0
britishvogue 0.0
gnlstudios 0.0
robinsoncano 0.0
debuting 0.0
cc_sabathia 0.0
colorways 0.0
hit_boy 0.0
_spyda 0.0
phresh 0.0
dominates 0.0
ratchet 0.0
rupaul 0.0
cockpit 0.0
kimmiekyees 0.0
horoscope 0.0
catwalks 0.0
paramedic 0.0
fhollande 0.0
sexiness 0.0
hereeee 0.0
changers 0.0
tiptoes 0.0
revved 0.0
meditative 0.0
fauntleroy 0.0
mbsings 0.0
disrespectfully 0.0
traumatized 0.0
outdid 0.0
elvispresley 0.0
toupee 9.74523664775e-05
josephine 0.0
discography 0.0
mariasharapova 0.0
chinchilla 0.0
skylar 0.0
illestbaba 0.0
georgiamjagger 0.0
pierced 0.0
hardrock 0.0
snorkeling 0.0
thrilla 0.0
gunpoint 0.0
sleeved 0.0
stevestoute 0.0
kiiiiiiiiiiiiinnnngggggg 0.0
lanvin 0.0
chateau 0.0
lizzs_lockeroom 0.0
prophets 0.0
müller 0.0
lullaby 0.0
samersum 0.0
disassembled 0.0
anniversaries 0.0
hayden_williams 0.0
rousteing 0.0
slayage 0.0
raunchy 0.0
benzema 0.0
fuckery 0.0
hellooooooo 0.0
juliagillard 0.0
congeniality 0.0
gunned 0.0
condense 0.0
missjillscott 0.0
yussss 0.0
chopard 0.0
woodbridge 0.0
orousteing 0.0
dubsmash 0.0
alicialquarles 0.0
worldmcqueen 0.0
whateva 0.0
elysées 0.0
jennnrosales 0.0
xstrology 0.0
looool 0.0
tippin 0.0
marleys 0.0
dwanimation 0.0
dreamworks 0.0
yaself 0.0
anothermagazine 0.0
claralionelfdn 0.0
mchingi 0.0
rihannareplay 0.0
awtguide 0.0
ryannavy_rih 0.0
rihquest 0.0
gpforeducation 0.0
valliniandre 0.0
globalfund 0.0
rhenna 0.0
millymaefenty 0.0
peetes 0.0
pandagunda 0.0
floriamamaroma 0.0
adoringrihanna 0.0
ymcofficial 0.0
rihanti_ 0.0
mcdean 0.0
rihannadaily 0.0
stancemuse 0.0
muhtean 0.0
rihdefine 0.0
officialdonnie 0.0
stunnafenty 0.0
perfumesbyriri 0.0
badgal 0.0
shaninamshaik 0.0
reblrihanna 0.0
elliscole_ 0.0
itskaitbh 0.0
harpersbazaarcn 0.0
yusefhairnyc 0.0
mylahmorales 0.0
teamofrihanna 0.0
muhphucka 0.0
harpersbazaar 0.0
rihrihfreak 0.0
thenbacentral 0.0
roversi 0.0
suchaf_cknlady 0.0
fourfiveseconds 0.0
petergrayhair 0.0
wkorea 0.0
dennisleupold 0.0
ursulastephen 0.0
ozzysalvatierra 0.0
ciarrap 0.0
rihannaargntina 0.0
rihearsal 0.0
sremmurd 0.0
id_magazine 0.0
heauxm 0.0
rihpost 0.0
jrgseul 0.0
bitchez 0.0
underst_navy 0.0
sonitaalex 0.0
chris_walden 0.0
danachanel 0.0
wednesdayz 0.0
jimmyfenty 0.0
houseoffraser 0.0
skeete 0.0
_kailssss 0.0
muhphuckas 0.0
phuckin 0.0
rastafarih 0.0
obviiii 0.0
etherihalvibe 0.0
rorreyfenty 0.0
noellaalstrom 0.0
rihturn 0.0
tellar 0.0
esquireuk 0.0
huffpoststyle 0.0
tyronmachhausen 0.0
melottenberg 0.0
paolakudacki 0.0
tompecheuxmu 0.0
lgoldstein_ltd 0.0
phucking 0.0
kudacki 0.0
hellurrr 0.0
tom_ford 0.0
neakah 0.0
creepah 0.0
pahtna 0.0
wontonsan 0.0
cappadonna 0.0
phuckmarqy 0.0
elfies 0.0
starstunning 0.0
ohnana 0.0
tushmagazine 0.0
macxriri 0.0
rickrubin 0.0
findataui 0.0
tristate 0.0
distoyb 0.0
kabukimagicnyc 0.0
yerdme_cmb 0.0
hittas 0.0
evan_erogers 0.0
jessieriri 0.0
unfourgettable 0.0
meeeaan 0.0
shweinsteiger 0.0
goooooooaaaaallllllll 0.0
goooal 0.0
braaaaaaaaaaaaaaaaaa 0.0
asapkoff 0.0
belgiuuuuummm 0.0
druchaos 0.0
cuadrado 0.0
murdaaahhh 0.0
colombiaaaa 0.0
karafenty 0.0
dlsturbla 0.0
braaaaaaaaaaaaaaaaaaaaaa 0.0
abouuuutttt 0.0
takecarerihanna 0.0
nathannavy 0.0
theworidcup 0.0
goooooaaaaaaallllll 0.0
bazaararabia 0.0
bigshitxtalker 0.0
__tatijxo 0.0
lhhatl 0.0
braaaaaaaaaaaa 0.0
rihannanavyrd 0.0
gooooooaaaalllll 0.0
triscastellano 0.0
iiiiiiiiiiiiiiiiiiii 0.0
eatmydaisy 0.0
leggooooal 0.0
yaaaaaassssssss 0.0
prettygirl_sp 0.0
ooohhhhhh 0.0
shiiiiitttt 0.0
roooonnnnnnnneeeeeeeyyyyyy 0.0
muslera 0.0
tadpole 0.0
giusichrisriri 0.0
_xomec 0.0
blockedt 0.0
ooooohhhh 0.0
goooooooaaaaaaalllllllllllllllll 0.0
stefansaxon 0.0
rihannademos 0.0
dragonflycici 0.0
chririh 0.0
rihluminati 0.0
goaaaalllll 0.0
twinzies 0.0
mantlers 0.0
suchaf__cknlady 0.0
glamour_robyn 0.0
adamselman 0.0
sephorafrance 0.0
thefashionlaw 0.0
scout_willis 0.0
quietude 0.0
theblackvoice 0.0
weeeed 0.0
kiiiiss 0.0
dooooon 0.0
miiiiss 0.0
malinsworld 0.0
prompics 0.0
itsalldonn 0.0
goooorrrrrrlllllll 0.0
thenewdaily_ 0.0
wiggin 0.0
stevesoboroff 0.0
pivot_tv 0.0
lapolicefdtn 0.0
scarificing 0.0
whooooose 0.0
sambapologetic 0.0
bellaisevil 0.0
sta_schemin 0.0
i_aim_tyga 0.0
fameisloud 0.0
garcon_rebelle 0.0
itsbreezybiotch 0.0
phaedra 0.0
vivala_stephyy 0.0
_bossmadeg 0.0
kontomitrosnick 0.0
sorrenti 0.0
whenevahhh 0.0
teamvivanco 0.0
heifers 0.0
stevenkolb 0.0
jeremy_brossard 0.0
jordanbrossard 0.0
quilted 0.0
piscesareus 0.0
plumsykes 0.0
cedellamarley 0.0
offish 0.0
urprise 0.0
i_love_riri 0.0
rihannadiva 0.0
javiroo 0.0
frihday 0.0
cuntlifex 0.0
_chris_rated_ 0.0
yewmadcunt 0.0
erinwasson 0.0
balmainparis 0.0
_yadim 0.0
muthaphucka 0.0
onnneeee 0.0
liiiiieeesss 0.0
gautier 0.0
mtvstarsvotes 0.0
zinloves 0.0
chloefrahm 0.0
uprising_create 0.0
uprising_darren 0.0
jonnycrave 0.0
jeff_uprising 0.0
kareemfenty 0.0
daily_rihnavy 0.0
unapologeticunt 0.0
rorrey 0.0
foreverrr 0.0
guyanese 0.0
annndd 0.0
historih 0.0
grandfadda 0.0
arleta 0.0
loreleicakes 0.0
river_island 0.0
finallyyyy 0.0
rodin_thinker 0.0
mrs_toyac 0.0
cheersrihrih 0.0
bangbang 0.0
faiz_fenty 0.0
leandra 0.0
noella 0.0
rasshoooolllleee 0.0
luminati 0.0
inezvinoodh 0.0
visvim 0.0
realne 0.0
sarahfrancus 0.0
tadium 0.0
trapstar 0.0
afrihca 0.0
rihrobyn 0.0
cbsgirlfriend 0.0
shyronnie_rn 0.0
mariamfenty_ 0.0
mizzpmf 0.0
whooooaaaaa 0.0
camkaipink 0.0
yasssssssssssssssssssss 0.0
lunaxskye 0.0
yaaaaasssssss 0.0
niggggaaaaaaa 0.0
breeziechillin 0.0
betologetic 0.0
isusjsjdha 0.0
awffffff 0.0
mcdessikins 0.0
skreets 0.0
pieceofria 0.0
loooool 0.0
craaaazzyyy 0.0
lolarae_xoxo 0.0
stayflysamir 0.0
shotta 0.0
tamarawray 0.0
lauraleehickock 0.0
heauxz 0.0
rihannanavyit 0.0
manilla 0.0
ronnyerickson 0.0
nikofenty 0.0
vincehaycock 0.0
zodiacfacts 0.0
naomiiknows 0.0
wrizzap 0.0
muuuch 0.0
hongkong 0.0
jetlaaaaaagggged 0.0
rasshole 0.0
februharry 0.0
kaşara 0.0
çıkmadı 0.0
dicked 0.0
vinoodh 0.0
rihannasblog 0.0
urihannafansite 0.0
teejay 0.0
stupse 0.0
clapbacks 0.0
niggaaaazzzz 0.0
bwaaahaaaaa 0.0
willheardmusic 0.0
kristennoelgipson 0.0
rsvpgallery 0.0
backout 0.0
bwahhaaa 0.0
errwhurr 0.0
niiiiggaz 0.0
fridayz 0.0
debbycoda 0.0
cabbing 0.0
dolly_cohen 0.0
cowboyz 0.0
friendz 0.0
phucker 0.0
charliebymz 0.0
lynn_ban 0.0
inwardly 0.0
ravening 0.0
whyyyyyyyyyyyy 0.0
thatdamnlala 0.0
adamsellman 0.0
scottland 0.0
kingspleasure 0.0
mikkyekko 0.0
rihannanavide 0.0
saskoktz 0.0
phlawless 0.0
givenchydonc 0.0
mlle_yulia 0.0
oxxoxo 0.0
foreva_rn_ladii 0.0
skinhead 0.0
killaz 0.0
yennifer 0.0
bestofpisces 0.0
smegma 0.0
morganemiller_ 0.0
aa_davis 0.0
beenie 0.0
nickeystaar 0.0
frihannamorocco 0.0
thinketh 0.0
guitarists 0.0
jordriri 0.0
badgalclaudia 0.0
hausofnath 0.0
_abirogerson 0.0
tommykane 0.0
livenationuk 0.0
millenniu 0.0
juuuussttt 0.0
helllooooo 0.0
miiiine 0.0
chaneliman 0.0
blushy 0.0
laetitiacrahay 0.0
rihmix 0.0
dariuscash 0.0
joshkillss 0.0
drunk_cockiness 0.0
firebombfenty 0.0
mooky_mcnasty 0.0
defpenradio 0.0
iamrici 0.0
letcha 0.0
niggerish 0.0
mawazine 0.0
thefashionaddicts 0.0
phierce 0.0
errwhere 0.0
jocking 0.0
niggaaa 0.0
tami_black 0.0
homienadz 0.0
religiosity 0.0
joycemeyer 0.0
brooooklyyyyn 0.0
miiiiine 0.0
dilekkeysan 0.0
marykatrantzou 0.0
allaboutpisces 0.0
jfisherjewelry 0.0
oddhangover 0.0
diggins 0.0
phyliciaghee 0.0
bawsin 0.0
howeverrrrr 0.0
channyyxoxo 0.0
dowwwwnnnnn 0.0
thugbitch 0.0
rihanas 0.0
miiiiiinnneee 0.0
rihwrite 0.0
janiseeaileen 0.0
ratchify 0.0
eeeeeemmmmmm 0.0
pannies 0.0
wooooiiiiiiiiiii 0.0
muhphuckers 0.0
bashment 0.0
whaaaaattttt 0.0
liiifee 0.0
covery 0.0
leeeeaaaavvveeee 0.0
haarrrrrddd 0.0
ismashedriri 0.0
christabslg 0.0
reallll 0.0
peoplez 0.0
wooiiiiii 0.0
slackness 0.0
kevfenty 0.0
woooiii 0.0
tatiana_xo 0.0
fentynavysalute 0.0
ratchettt 0.0
rachael_deanna 0.0
lifeeeeee 0.0
bxdcfjcf 0.0
killled 0.0
asdfghjkjhgtfrdedfghjnhbgvfc 0.0
troy_fenty 0.0
_marrymerihanna 0.0
jkbwdhbwh 0.0
_noellaa 0.0
hunneds 0.0
thekingfly 0.0
dooown 0.0
woooiiiii 0.0
phucked 0.0
kickstand_ohb 0.0
acedemy 0.0
mistercap 0.0
gallest 0.0
sinsofmyfather_ 0.0
dwayneofficial 0.0
_revofev 0.0
joefenty 0.0
thegodlight 0.0
molestmerihanna 0.0
rihannanavyeu 0.0
melina 0.0
terryrichardsonstudio 0.0
_sexxtroversy 0.0
neuroticbxtch 0.0
getcho 0.0
moneyyy 0.0
idillionaire 0.0
yaaaaaaas 0.0
noxx_onite 0.0
phonefancy 0.0
chiefin 0.0
londonfashionwk 0.0
_mayor_ 0.0
rihannanow 0.0
jamrock 0.0
rihannastats 0.0
jenesismagazine 0.0
napmed 0.0
hausofbeyhive_ 0.0
probabily 0.0
badgalelly 0.0
ladylivja 0.0
rihannacomics 0.0
__glitterdick 0.0
chelsey_ba 0.0
stashbox 0.0
thuglife 0.0
highladayz 0.0
brrrap 0.0
kalifah 0.0
marylin 0.0
muthafucker 0.0
stylenetwork 0.0
bvalgari 0.0
oooonly 0.0
fuckyopictures 0.0
amplifydot 0.0
trappat 0.0
soumsluvriri 0.0
ibebossedup 0.0
holerringg 0.0
rihskillerdoll 0.0
equaled 0.0
chefette 0.0
rezilientkas 0.0
blastinggggg 0.0
dammnnn 0.0
lifeandtimes 0.0
hausofjazzy 0.0
kaykispeaks 0.0
condesa 0.0
awaaayyy 0.0
flawle 0.0
mandler 0.0
loudies 0.0
dulcattis 0.0
killaaa 0.0
_loveforrihanna 0.0
yesimkayla 0.0
rollingnostone 0.0
richkunt 0.0
yasssssss 0.0
eriricccccc 0.0
cuntmeout 0.0
sashay 0.0
condragulations 0.0
neverrr 0.0
phasetoo 0.0
fooooorde 0.0
ruunavi 0.0
rihtweet 0.0
ishoobernator 0.0
thirstiest 0.0
j_dimps 0.0
deecosey 0.0
itsrihannasnavy 0.0
muthaphuckin 0.0
