awesome 0.00152018235038
christmas 0.000354823079299
trying 0.000349308339988
launch 0.00096369002558
moment 0.000292663886373
wonderful 0.0003923717462
seeing 0.000179427434458
hanging 0.000110087099273
sounds 0.000683245213107
contacts 0.0
anybody 0.000133924946666
worked 0.000314794696356
direct 0.0
others 0.000125238304556
currently 0.000311646094533
better 0.000950296516835
please 0.000671314822957
social 6.5217806368e-05
anxiety 0.000252123945694
around 0.000633531011224
people 0.00103668710927
morning 0.000752765604517
damage 0.000284802812743
everything 0.000521145418512
present 6.59310505088e-05
though 0.00108531307309
friend 0.000261981254991
watched 0.000326976455166
beautiful 0.00104384075909
demanding 6.40688235782e-05
anything 8.82738406908e-05
tagged 0.0
helped 3.17362041517e-05
thinking 0.000207085988657
finally 0.000177502275991
caught 0.00016304451592
believe 0.000433118827851
already 0.000259871296711
couple 0.000284853342673
launches 0.000197223430486
chance 0.000115810093003
annual 0.00011677257899
quickly 0.00020197736311
growing 3.47225401688e-05
probably 0.000533704759148
changed 9.29183006127e-05
history 0.000328064238571
center 0.000113843803856
museum 0.0
behind 0.000259171777319
screaming 5.35609076588e-05
pretty 0.000857927667292
really 0.00185296148804
possibly 0.000281957127987
little 0.00103948518684
happiest 0.0
earlier 3.38768944856e-05
forget 0.000176072354576
someone 0.000204313206987
things 0.00066232787537
available 0.000150331764855
perfect 0.000391918609728
different 0.000147123067818
person 0.0002903066947
watching 0.00037841736832
exhibit 0.0
passed 0.000105901269167
prefer 4.37147732504e-05
minutes 0.000239236579278
travel 0.000353978744657
daughter 7.00200640979e-05
positive 0.0
outside 0.000275758662949
looking 0.000692990124561
forward 0.000267693260898
raising 4.13397166952e-05
impression 0.000106392771047
wheels 0.000240498545828
favorite 0.0004032053096
instead 0.00016304451592
appreciate 3.40626813503e-05
couldn 0.000150737926818
remember 0.000405335325509
impressive 0.0
vintage 6.59802174213e-05
holidays 4.13397166952e-05
friends 0.000349308339988
impossible 7.87378821027e-05
everyone 0.00043428784876
always 0.000777515331956
limited 3.80547876694e-05
months 0.00021160333286
moving 0.000217984753637
meeting 0.000118654372243
answer 0.000118654372243
together 0.00014515334735
inside 0.000120590341455
upstairs 0.0
missed 0.000117381569717
active 0.000139770017391
eventually 0.0
longer 0.000300758441578
enough 0.000204864720461
building 0.000260163467886
enjoying 0.000141591497863
london 6.88757802002e-05
posting 0.0
recent 0.000267887834466
amazing 0.000606366358991
attention 0.000131146648676
tomorrow 0.000289525232507
whenever 9.52319135834e-05
feeling 0.000333418149216
excited 0.000513893808374
understand 0.00018938876244
following 0.000182355999227
asleep 0.0
learning 3.58901405408e-05
evening 0.000132582024965
special 0.000291876009981
secret 9.72967042551e-05
across 0.000258754442618
surprised 0.00013812984467
candles 0.0
sophia 0.0
version 0.000191971488928
rather 9.75613004572e-05
showing 0.000154445882477
saying 0.000241832380411
thoughts 0.000122890880679
exactly 0.000125238304556
getting 0.000579050465013
nothing 0.00043428784876
tweets 6.38172819584e-05
photos 0.000210060192294
looked 0.000197255729056
difficult 7.63240773681e-05
office 0.000532262794363
brought 0.000128328466356
biggest 0.000208768151818
thrilled 8.82167167721e-05
entire 0.000160846239316
something 0.000636955511514
closing 0.000129211563694
anyone 0.000233500807985
taking 0.000289525232507
interesting 0.000419336366444
original 0.000171248373159
flying 7.27819363858e-05
sometimes 0.000159543204896
yesterday 0.000145938004991
serious 3.09727668709e-05
digital 0.000214716912759
wearing 6.79392761792e-05
british 0.000506305408824
either 0.00012625917496
second 0.000262688408983
checking 0.000187622218451
indeed 0.000118443629009
island 8.19639741489e-05
hearing 3.23443053272e-05
staying 3.91457084285e-05
another 0.000721864713085
compare 5.28364200348e-05
bummer 0.000165475466219
clothes 0.0
landing 0.000686873460452
weekend 0.000117381569717
delivery 5.30158403295e-05
secretive 0.0
anyway 0.000224517221791
recognize 0.0
working 0.000376382802258
bigger 3.39696380896e-05
laughing 3.43436285948e-05
wanted 0.000175598331824
clothing 0.0
grateful 0.0
friendship 0.0
family 0.000260572709256
listening 0.000158681020758
stream 7.96413316603e-05
double 9.83599865074e-05
especially 0.000160410582945
shaking 6.71322456073e-05
waiting 0.000207645151426
definitely 0.000284853342673
account 0.000135878552358
completely 6.86872571896e-05
thought 0.000671314822957
possible 0.000337038365827
simple 6.7384597141e-05
professional 0.000128830147655
members 7.29843750065e-05
business 0.00018735002274
absolutely 0.000216809368096
sending 0.0002016026548
introducing 9.28927604837e-05
congrats 0.000212748665765
community 0.000142768892679
keeper 0.0
greatest 6.33007428163e-05
selfie 4.33264950425e-05
pasadena 0.000100276868198
posted 6.84993492634e-05
saturday 0.00012222888198
designs 7.76563410556e-05
broken 0.000143560562163
chicago 3.93689410514e-05
glimpse 6.56992701768e-05
actually 0.000800917012643
myself 0.0
pajamas 0.0
school 8.82738406908e-05
throwback 6.17841741902e-05
thursday 0.0
selling 0.0
talented 3.80547876694e-05
celebrate 3.19952481547e-05
celebrating 3.45324611675e-05
anniversary 7.00200640979e-05
contest 0.0
experiences 0.0
students 0.000153510986161
figure 6.92546876741e-05
featuring 3.76297339871e-05
inspired 3.5010032049e-05
breeze 0.0
sitting 0.000163488227583
playing 0.000147123067818
street 9.62463497671e-05
points 3.71070905278e-05
advice 6.79392761792e-05
memory 0.000160196854283
forever 9.80929365499e-05
imagine 6.45132871452e-05
problem 9.31698017873e-05
played 6.46886106544e-05
keeping 3.23443053272e-05
lovely 0.000327518713736
dressed 0.000140203053849
chinese 0.000140203053849
sunshine 0.000180373909371
afternoon 0.000170313406752
notice 0.0
difference 3.16503714081e-05
suppose 0.000333916130171
letting 0.000106781316768
system 0.000687602223298
mutant 0.0
bathroom 5.66561649498e-05
almost 0.000260572709256
details 0.000189902228449
experience 6.04580951028e-05
luckily 0.0
viewed 0.000207798968441
living 0.000362748570617
weather 0.000259025833818
bright 0.000366713512945
launching 0.000141515341246
colors 0.000111305376724
monday 0.000151145237757
walked 8.71695292271e-05
pinned 0.0
wanting 0.0
tweeting 6.61107502748e-05
forgot 0.000290320827334
gorgeous 4.70252311719e-05
herself 0.0
happens 0.000179912094481
learned 3.35088784335e-05
congratulations 0.000255269127834
raised 7.56829531785e-05
mission 0.001099199036
smelled 0.0
unforgettable 0.0
forgotten 4.30705212313e-05
trouble 0.000107373035468
channel 7.0406600638e-05
fantastic 0.000170780131052
loving 0.000102468078631
hardly 0.0
dining 0.0
complete 6.64718406632e-05
daniel 0.0
rewarding 0.0
spirit 0.00011257333107
finding 0.000106193623397
stories 9.39287284171e-05
including 9.65077435896e-05
somewhere 7.54708213428e-05
conversation 7.0406600638e-05
disrespectful 0.0
making 0.000230996708187
expect 0.000138890160675
polite 0.0
brings 0.000104741646488
anytime 0.0
needed 0.000185335058972
seriously 0.000607909714939
modern 4.17019461775e-05
welcome 0.000292663886373
moments 3.5989611673e-05
jacket 0.0
halloween 0.000130366020861
costume 5.72754762199e-05
totally 0.000233923232338
flight 0.000243057781182
attached 6.514546726e-05
finished 3.4627343837e-05
strong 0.000238592173506
message 0.000245781761358
coming 0.000433118827851
temporary 6.25257653219e-05
challenge 6.34724083034e-05
achievement 0.000107860206563
unlocked 8.12606470794e-05
happen 0.000147520266196
celebrated 5.64526526954e-05
giving 0.000117065554549
excellent 0.000226412464028
common 0.000107373035468
pressed 0.0
company 0.000163933310846
change 0.000608002988264
singing 0.000116113105616
silver 4.73190792742e-05
august 8.17274492649e-05
crying 4.55993525855e-05
happened 0.000152374129889
parking 0.0
demand 3.81620386841e-05
sacrifice 6.08241898246e-05
personal 6.29589392712e-05
beyond 0.000291098747945
question 0.000236669701322
chicken 8.31613920882e-05
position 3.94812096698e-05
losing 3.56922231696e-05
respect 3.16503714081e-05
caption 0.000122600363775
shouldn 0.000103882031511
career 6.72008849333e-05
reason 6.09496519555e-05
explore 0.000172454726647
glamorous 0.0
reality 0.000275503120801
burned 0.0
without 0.000233500807985
problems 0.000142768892679
countdown 0.0
online 0.000373688149091
animals 9.67436467841e-05
buying 0.000157028433715
pictures 7.31875276979e-05
underneath 0.000164473810915
camera 0.000151365906357
checked 0.000123302211594
heading 3.44378901001e-05
complex 0.000142847870375
sunday 5.98091448195e-05
nights 4.26907768605e-05
traffic 8.69106805743e-05
through 8.125729377e-05
changing 0.0
diapers 0.0
convinced 5.12700413311e-05
capture 0.0
random 0.000168768469608
recorded 0.000131929694182
november 7.76281420219e-05
number 0.000207645151426
stupid 0.000362516307412
grandparents 0.0
recording 0.0
chocolate 0.0
unless 3.56922231696e-05
calling 0.000212748665765
mermaid 0.0
levels 4.45073975307e-05
package 0.0
option 8.38919777194e-05
knowing 4.00492135706e-05
actual 0.000230917256601
friday 0.000293453924293
achieve 0.0
winner 6.43384957264e-05
becomes 0.000122945961223
directly 0.000143296653683
quality 7.48390739304e-05
father 9.88965757631e-05
wishes 7.54708213428e-05
themselves 5.06003166309e-05
asking 3.06398514388e-05
usually 3.85950823956e-05
period 8.63964474412e-05
resist 0.00010974869471
collections 0.0
summer 6.245000758e-05
bracelet 8.27377331096e-05
reminded 5.02712060299e-05
dinner 0.000127980992619
single 8.94720650648e-05
catching 0.000171267210901
energy 0.000585444131702
preview 8.24399580836e-05
monster 0.000149837442817
material 4.94645184313e-05
events 7.17802810816e-05
europe 0.000160196854283
holiday 9.99798575739e-05
emotional 0.000125105838533
affects 6.38058366897e-05
holding 6.84993492634e-05
survive 4.91480661902e-05
eating 7.23791813998e-05
outfit 0.0
missing 9.26675294862e-05
surprise 6.19455337418e-05
german 9.95689737608e-05
officially 6.75688972288e-05
french 3.72108631235e-05
global 0.000387043685387
follow 0.000261981254991
design 0.000131144319751
improvement 0.0
website 7.06008461115e-05
breaks 7.63240773681e-05
negative 4.2192117402e-05
official 0.000149522862049
jersey 0.0
france 0.000200820856324
lighter 0.0
thinks 3.37844486144e-05
hospital 0.0
jealous 0.000194719256719
successful 0.000197969588484
trending 4.7915926839e-05
leadership 9.06449150553e-05
showed 3.63909681929e-05
attended 0.000116245007752
circle 0.000102540082662
interested 0.000148843452494
effect 3.81620386841e-05
success 9.80929365499e-05
ladies 7.94141371712e-05
dreams 3.80547876694e-05
protect 3.71070905278e-05
arguing 5.79083998108e-05
essence 0.0
control 0.000161721526636
happier 0.0
likely 0.000232226211232
cancel 6.05891120771e-05
project 0.000228883518617
laying 0.0
lesson 4.02795897125e-05
fridays 0.0
invited 4.07459458828e-05
treating 0.000110133938476
allowing 0.0
remote 0.0
opening 0.0
alcohol 6.74276006492e-05
popular 0.00011878175309
pedestal 0.0
designing 7.9402140054e-05
followed 0.0
enjoyed 0.0
spectacular 0.000264182100174
recovered 7.29763055217e-05
length 0.0
matters 7.61095753388e-05
factor 4.77655512276e-05
england 0.000169263900293
shared 0.0
benefit 0.0
continues 7.06008461115e-05
fathers 0.0
kitchen 4.65900057972e-05
exciting 0.000243057781182
corner 0.0
spring 0.0
fallen 5.0933232063e-05
victoria 0.0
tornado 7.85160127798e-05
typical 5.39301032817e-05
continue 3.34176046197e-05
creative 0.0
excuse 4.19459888597e-05
female 7.71901647912e-05
closer 0.00010887031025
accent 0.0
beginning 0.000145563872772
sooner 0.0
everywhere 3.45324611675e-05
scenes 0.0
wishing 8.38919777194e-05
choices 4.68794239534e-05
unpredictable 0.0
become 0.000181374285308
photographs 0.0
spread 3.30553751374e-05
season 9.57259229376e-05
putting 6.07853330757e-05
annoying 0.0001133123299
quietly 0.0
extending 0.0
stance 0.0
sleepy 0.0
returns 0.00038814071011
bucket 5.44929263596e-05
condolences 0.0
register 4.30705212313e-05
flowers 5.48743473549e-05
define 0.0
somebody 0.000129594671162
chicks 0.0
covering 0.000134329587183
repeat 8.07909452439e-05
football 3.63909681929e-05
brothers 0.0
player 8.07909452439e-05
physical 0.0
series 9.44384089069e-05
pretend 0.0
fighting 3.29655252544e-05
atlanta 0.0
mexico 4.1823708998e-05
president 0.000643384957264
talking 0.0002903066947
america 0.000708534045392
greats 0.0
everybody 7.13844463393e-05
judgment 0.0
amount 4.0628646885e-05
houston 0.0
everyday 0.0
shooter 0.0
attitude 0.0
million 0.000243141332303
honesty 0.0
telling 9.8627864528e-05
pulled 4.34553402872e-05
attack 0.000447780132333
killed 0.000193539861436
horrible 0.000197223430486
norman 0.0
salute 0.0
jacksonville 0.0
barackobama 0.000223402422932
lilduval 0.0
liquor 0.0
american 0.000522286242886
realist 0.0
remain 8.14918917656e-05
innocent 0.0
pieces 4.28168027253e-05
taught 0.0
golden 0.000117104213149
straight 9.62463497671e-05
forgive 0.0
answers 0.0
product 4.64463802418e-05
smoking 5.76958758635e-05
created 0.000278544417949
record 0.000362748570617
weapon 0.0
bottom 0.000155256284044
arrangements 0.0
africa 9.61341836545e-05
committed 0.0
journey 0.000150518935948
brother 7.06008461115e-05
prayers 0.0
documentary 0.0
addition 0.00015130587351
honestly 0.0
velvet 0.0
country 0.000478473158556
speedy 7.522135344e-05
dressing 0.0
employee 0.0
yoooooo 0.0
prayer 0.0
nominated 0.0
praying 0.0
insane 8.56336054506e-05
illest 0.0
shooting 0.0001447583628
cancer 3.63909681929e-05
australia 4.29433825517e-05
marijuana 0.0
deserve 0.0
legend 0.000154380329582
mother 6.45132871452e-05
murder 9.37588479067e-05
realest 0.0
powerful 0.000317703807502
attendance 0.0
wisdom 0.0
breaking 0.000435969507273
bothered 0.0
angeles 0.000907835241058
dollars 4.85254070315e-05
soldiers 0.000121178224154
performance 6.70177568671e-05
reading 0.000337949921868
videos 0.000522410154389
jordan 0.0
nobody 0.000177478283904
politics 0.000286873909521
paradise 0.0
blessing 0.0
coolest 0.000153810123993
strippers 0.0
charities 0.0
donate 0.0
bullshit 0.000332736731838
sample 0.00012356834838
rocking 4.88350537155e-05
bringing 3.25204334857e-05
deserves 7.69724188672e-05
hilarious 3.83777465402e-05
victim 5.5066969238e-05
stadium 0.0
funniest 5.28364200348e-05
heaven 4.5878935987e-05
ruined 0.0
honest 0.000179948058365
rolling 8.69106805743e-05
became 0.0001447583628
driver 8.84815159893e-05
breakfast 0.000145563872772
decision 0.000144357710373
counting 4.1100737198e-05
pressure 3.93689410514e-05
awareness 0.0
dearly 0.0
lastnight 0.0
facebook 0.000154863834355
basketball 0.0
campaign 0.0002016026548
twisted 0.0
defined 0.0
discover 9.86117152429e-05
comments 0.000105901269167
giveaway 6.89515998542e-05
bipolar 0.0
teenage 0.0
williams 0.0
custom 0.0
singer 0.0
future 0.000715776520519
randomly 0.000212681091766
angels 0.0
blessed 0.0
sister 0.000155696771986
stripper 0.0
dancing 4.0628646885e-05
reigns 0.0
voting 7.13844463393e-05
niggas 0.0
commercial 0.000119121205757
hating 0.0
boring 0.0
century 0.0
acting 0.0
submit 0.0
besides 0.0
hiding 4.74671354571e-05
periscope 0.0
breath 4.91480661902e-05
choosing 0.0
lawrence 6.62639326635e-05
instagram 0.000120492513794
detroit 0.0
cousin 0.0
honored 4.01641712648e-05
dedication 0.0
rockin 0.0
fucked 0.0
lionelrichie 0.0
talent 3.85950823956e-05
goodnight 0.0
stores 0.0
drinking 0.000430705212313
brazil 0.00015586714004
tattoo 0.0
consecutive 0.0
regardless 0.0
staring 0.000123082322472
commitment 9.58318536779e-05
seconds 0.000154817474155
ohhhhhh 0.0
listen 0.000149522862049
whatever 3.32359203316e-05
wherever 0.0
kicking 4.08637246325e-05
compete 0.0
lauderdale 0.0
homies 0.0
billion 8.29199085969e-05
belated 0.0
pirate 0.0
shoutout 0.0
grammy 0.0
guilty 0.0
ceiling 0.0
grammys 0.0
absolute 4.24403677683e-05
nelson 0.0
mandela 0.0
bigsean 0.0
handle 3.77354106714e-05
tonite 0.0
cocaine 0.0
promise 0.000103030885784
longest 0.0
generation 0.000119121205757
tuesday 6.57519096853e-05
struggle 0.0
workout 0.0
character 3.87043685387e-05
mirror 9.43435608304e-05
interview 0.000176547681382
buffalo 0.0
justin 0.0
insights 0.0
winning 6.17783529908e-05
oxygen 0.000290474303604
espnnfl 0.0
charlotte 0.0
accomplished 6.35452298057e-05
defense 0.000139339140726
gettin 0.0
arabia 0.0
lmfaooooo 0.0
writing 0.000502633176503
soccer 0.0
society 3.99347129659e-05
brooklyn 0.0
incredible 0.0003122500379
witcho 0.0
celebrity 0.0
minute 0.000130435612736
foreign 0.0
cherry 6.35452298057e-05
champs 0.0
murdered 0.0
evidence 0.000300603677862
android 6.68398891455e-05
sneaking 0.0
clearly 3.66956997577e-05
download 0.000122591173897
mixtape 0.0
central 0.0
washington 7.6539381276e-05
veterans 0.0
stronger 9.20395044583e-05
promised 4.74671354571e-05
marcus 7.1916178539e-05
zombie 6.62639326635e-05
throwing 4.74671354571e-05
security 0.000230266479241
fastest 5.94416748619e-05
fantasy 0.0
turning 0.0001447583628
ignore 0.0
fucking 0.000158509260104
tickets 0.000140040128196
collector 0.0
prizes 0.0
december 4.01641712648e-05
loyalty 6.59802174213e-05
return 0.000159976240773
escape 5.17827586879e-05
yassss 0.0
goddess 0.0
handsome 0.0
language 4.05118237465e-05
motion 0.000101866464126
gallery 0.0
movies 0.000303285465297
children 0.000190933760975
backpack 0.0
potentially 0.000126061972847
guardian 0.0
review 0.0001377515604
theaters 0.0
shhhhh 0.0
begins 0.000103882031511
closet 0.0
bodies 5.72754762199e-05
hahaha 0.0
produced 0.000181289830111
latest 0.000500953218224
banned 5.17827586879e-05
beyonce 0.0
perform 9.26069349427e-05
lionel 0.0
signed 0.0
princess 0.000233352846929
ghetto 0.0
conditioning 0.0
charity 4.0395472622e-05
germany 0.0
ronaldo 0.0
married 0.0
millions 0.000352311375856
blessings 0.0
diamond 0.0
nephew 0.0
lights 0.000166322784176
howard 0.0
turned 0.000285625837365
buckle 0.0
relevant 5.14399348277e-05
performing 0.0
indian 0.000120249272914
includes 0.0
tricks 0.0
survivor 0.0
diamonds 0.0
collection 7.94141371712e-05
families 3.70036905454e-05
welcoming 5.79083998108e-05
select 0.0
announced 3.5203300319e-05
granted 0.0
decided 6.92546876741e-05
selfish 7.1916178539e-05
trailer 0.000174859093002
reppin 0.0
celebration 4.0628646885e-05
decades 9.28927604837e-05
ultimate 8.38919777194e-05
incase 0.0
downtown 0.000229939635529
seasoning 0.0
episode 0.00013812984467
mentality 0.0
touching 0.0
retweet 7.33913995154e-05
goodmorning 0.0
midnight 0.000156138950866
expectations 0.00010567284007
joining 6.81253627007e-05
reasons 0.000134769194282
released 0.000168461492853
release 6.34724083034e-05
models 0.000111701211466
popped 0.0
within 0.000184503302551
standing 0.00013222150055
valentines 0.0
justice 0.0
houses 5.92175736208e-05
purchase 9.92481165059e-05
dropped 0.0
conversations 0.0
seattle 0.0
strength 8.00984271413e-05
monica 0.000279625117858
incredibly 0.0
streets 4.25653001297e-05
private 0.000111321271583
inspirational 0.000103565517376
barbie 0.0
tables 0.0
affection 0.0
broski 0.0
pissing 0.0
designer 0.0
cooking 0.0
tattoos 0.0
direction 0.000221868845755
readyyyyy 0.0
exclusive 3.43436285948e-05
adrianalima 0.0
fashion 0.0
talkin 0.0
bitches 0.0
nailed 0.000233352846929
kitten 0.0
whomever 0.0
ruthless 0.0
teaching 0.0
chillin 7.29763055217e-05
philly 0.0
baddest 0.0
cheers 0.000537318348733
autumn 0.0
presents 0.0
flawless 0.0
unique 4.4373769151e-05
handed 0.0
taraji 0.0
victory 0.000124019150086
tribute 7.94141371712e-05
ballin 0.0
horror 0.000114969817765
females 0.0
catfish 0.0
action 3.10566005958e-05
wouldnt 0.0
recipient 0.0
whitney 0.0
continued 0.0
esther 0.0
letter 0.0
existence 0.000123082322472
papers 0.000106031680659
winter 0.000117437125285
sessions 0.000102540082662
replicating 0.0
foundation 0.0
syndrome 0.0
colorado 0.0
tremendous 0.000109366010722
public 0.000268803539733
cannot 9.67699307179e-05
brilliant 0.000674417478836
illustration 8.32474254267e-05
beware 0.0
globally 0.0
premieres 0.0
streaming 4.73190792742e-05
immigration 0.0
wrapped 0.0
studio 4.02795897125e-05
february 0.000127695900389
amazon 4.38453714976e-05
border 5.64526526954e-05
huffingtonpost 6.68398891455e-05
francis 6.62639326635e-05
january 0.0
relationships 6.03559378141e-05
tragic 0.000156914311558
secure 0.00010567284007
countries 0.000125105838533
episodes 0.0
broadcast 0.0
tickled 0.0
livestream 0.000263920869685
potential 7.98694259318e-05
education 3.89241929966e-05
famous 0.000199103329151
unknown 0.000287424544411
exists 0.000107489827613
orders 5.19557133468e-05
microsoft 0.0
ability 8.41375803444e-05
director 0.00010826828278
accessible 0.0
correction 0.000175666642763
william 4.89911346621e-05
editors 6.56992701768e-05
yellow 0.0
passionate 0.0
treatment 0.0
ambassador 0.0
thanking 0.0
streamed 0.0
lovers 0.0
wrinkled 0.0
bridge 4.65900057972e-05
magazine 8.03283425296e-05
sincere 0.0
quotes 9.52319135834e-05
result 4.17019461775e-05
destruction 6.80275570194e-05
edition 3.87043685387e-05
prince 0.0
indiana 5.79083998108e-05
editorial 0.00030177968907
emotion 0.0
mistakes 0.0
inspiring 7.80694754328e-05
counter 0.000109366010722
disappointing 5.81225038762e-05
edited 0.0
spotlight 0.0
saddest 0.000234248907205
production 9.23225208917e-05
header 0.0
itunes 0.0
guests 0.0
snakes 8.76864816118e-05
charging 0.0
arriving 0.0
mysteries 0.000174185421599
dangerous 0.000232884426066
typically 0.0
saving 4.19459888597e-05
universe 0.00102182036532
victims 8.38919777194e-05
receive 8.14918917656e-05
proceeds 0.0
crossed 5.11011442831e-05
received 0.000111321271583
limitations 0.0
studying 0.00012212240478
conflict 6.01246364569e-05
petition 0.000208518852221
milestones 0.0
outstanding 9.92481165059e-05
devastating 0.0
installment 0.0
signature 6.25257653219e-05
mistletoe 0.0
awards 3.77354106714e-05
shelves 0.0
smells 6.32869602346e-05
themed 0.0
sisters 0.0
banquet 0.0
danger 5.06003166309e-05
leading 0.0
member 3.39696380896e-05
dominant 0.0
distinguish 0.0
factories 9.67820560865e-05
distinct 0.0
distance 0.000167551817199
confirmed 0.000294481531205
behavior 0.0
collect 0.0
vanity 0.0
junior 0.0
communities 5.5066969238e-05
worldwide 4.80670918273e-05
canada 7.69724188672e-05
recognized 0.0
vessels 0.0
movement 0.000115785247187
segment 0.0
internal 0.0
information 0.000156582833714
easily 8.51306002595e-05
towards 4.20687901722e-05
october 4.0395472622e-05
belgium 0.0
european 4.97844868804e-05
caribbean 0.0
cities 8.66529900849e-05
arrives 5.85555475877e-05
extraordinary 0.0
exquisite 0.0
argentina 0.0
eliminate 0.0
genius 3.83777465402e-05
prepared 8.74295465008e-05
anthony 0.000105316221418
breakthrough 0.000275806399417
berlin 0.0
batman 6.65504709893e-05
upcoming 0.0
upgrade 0.0
singapore 0.0
crucial 0.0
scratch 0.0
collaboration 0.0
tested 0.000116676423465
acquire 8.37663018818e-05
honoring 0.0
holland 0.0
visually 0.0
neyocompound 0.0
inspire 9.82961323805e-05
ebonymag 0.0
spiketv 0.0
constant 0.000112099785571
sunset 0.000333916130171
tuning 0.0
gentleman 6.30309864234e-05
fulfilling 0.0
ayeeeee 0.0
stratford 0.0
poland 0.0
philippines 0.0
kickin 0.0
theweeknd 0.0
september 4.05118237465e-05
manchester 0.0
rickyrozay 0.0
remarkable 0.000199137947522
rihanna 6.95845234451e-05
disgusted 0.0
immoral 0.0
process 7.35959955682e-05
goosebumps 0.0
performances 0.0
strangers 0.0
emotions 6.08241898246e-05
judgement 0.0
comparing 0.0
thuggin 0.0
studios 0.000185352522571
jennifer 0.0
performer 0.0
literally 0.000214153339018
cardiff 0.0
soooooooo 0.0
crashed 0.0
cthagod 0.0
closed 0.000123302211594
justinbieber 0.0
complexmag 0.0
billboard 0.0
airing 0.0
albums 0.0
sweden 0.0
katyperry 0.0
treats 0.000430788128654
missouri 0.0
thefader 0.0
soundtrack 0.000129204228162
theellenshow 0.0
sweets 0.0
festival 0.00025464220661
wizkhalifa 0.0
amsterdam 0.0
backstage 0.0
collab 0.0
subscribed 0.0
joined 7.09913135617e-05
davidguetta 0.0
pushing 9.23225208917e-05
hopeful 0.000193806342243
romantic 0.0
mentions 0.0
lurking 0.0
ballad 0.0
teamed 0.0
exclusively 0.0
kingjames 0.0
hollyrpeete 0.0
sneakers 0.0
auction 0.0
sneaker 0.0
djkhaled 0.0
express 8.92832977775e-05
thegrammys 0.0
throughout 0.0
shining 0.000116676423465
excellence 0.0
thrown 5.48743473549e-05
zendaya 0.0
playin 0.0
applemusic 0.0
crunch 0.0
capitalofficial 0.0
filmed 5.5456121973e-05
toronto 5.14399348277e-05
naomicampbell 0.0
trvisxx 0.0
killin 0.0
trucks 0.0
stands 8.00984271413e-05
platinum 7.48348125471e-05
native 0.0
spotify 0.0
rocked 0.0
jumped 0.0
leebruhgreene 0.0
leaning 7.22652357115e-05
featured 0.0
announce 6.70177568671e-05
senior 0.0
iamdiddy 0.0
haters 0.0
nothin 0.0
appreciation 6.25257653219e-05
defjamrecords 0.0
floating 0.0
superstars 0.0
shondarhimes 0.0
premiere 4.70252311719e-05
orchestral 0.0
makeup 0.0
touched 5.39301032817e-05
newest 4.65900057972e-05
designed 8.90147950613e-05
passes 9.46381585484e-05
angelasimmons 0.0
tidalhifi 0.0
vashtie 0.0
delivered 4.68794239534e-05
owning 0.0
producer 0.000209219082077
balmain 0.0
legendary 0.000138483781338
independence 5.21297130553e-05
mtvmusicuk 0.0
audition 0.0
debuts 0.0
footage 0.0
marshall 0.0
spends 0.0
playtime 0.0
completed 5.92175736208e-05
dishes 7.29763055217e-05
photographed 0.0
bubble 5.44929263596e-05
belong 0.0
tongue 0.0
observing 0.000175372963224
consistent 0.0
posing 7.26185759009e-05
heavens 0.0
contemporary 0.0
aiming 0.0
ceremony 0.0
brighter 0.0
rainbow 0.000176985608726
matthew 5.5066969238e-05
phenomenal 5.74849088823e-05
affected 0.0
rivers 0.00014178739451
presenting 0.0
competitive 0.0
eskimo 0.0
sibling 0.0
dakota 0.0
printed 0.000194617527474
heroes 0.0
deepest 6.65504709893e-05
describe 0.000125471126994
hollywood 4.24403677683e-05
baggage 0.0
terrifying 0.0001133123299
animation 0.000382065589438
nationwide 0.000132527865327
capital 0.0
quantity 0.0
nominations 0.0
mountains 0.0
mosaic 0.000105341967825
realise 6.43342343431e-05
overload 0.0
photographer 0.000118883349724
depression 0.0
donation 4.88350537155e-05
marvelous 0.0
madonna 0.0
sailed 0.0
terror 0.000271520468935
rinsed 0.0
disorder 0.0
polish 0.0
represents 0.0
touchdown 7.3338535004e-05
creates 0.000170583377107
oxford 6.48725091581e-05
stitched 0.0
morocco 0.0
thrill 0.0
balloons 0.0
teaming 0.0
latimes 0.000595627132414
kerrywashington 0.0
caution 0.0
camouflage 0.000111492232177
approaching 0.000193806342243
generous 0.0
installation 9.29367707138e-05
benefiting 0.0
basics 0.0
confirm 0.00014063827186
thrilling 8.07846550167e-05
photography 0.0
matches 0.0
boundaries 0.0
singles 0.0
laptop 0.000323010570404
obvious 0.0
darling 0.0
celebrations 0.0
chewbacca 0.0
underwater 0.0
naughty 0.0
advised 0.0
feelin 0.0
macaroni 0.0
perfection 0.0
picasso 0.0
recipe 6.01246364569e-05
radical 0.0
volcano 0.0
planted 0.0
products 0.0
directed 9.86117152429e-05
grabbed 0.0
frames 9.67820560865e-05
casual 0.0
scheming 0.0
twickenham 0.0
bbcnews 0.000399278216751
pledge 0.0
subtle 0.0
embarrassed 0.0
snatch 0.0
unveiling 0.0
kissed 0.0
arguments 6.05891120771e-05
settling 8.65109361814e-05
desperate 0.0
executive 4.80670918273e-05
humbled 0.0
courage 4.76159567917e-05
dropping 0.0
carried 0.000123082322472
behalf 5.17827586879e-05
hardest 0.0
marking 0.0
vision 8.5381553721e-05
intervention 0.0
records 0.0
deeply 4.65900057972e-05
mannered 0.0
texted 0.0
israeli 0.0
strongest 6.46021140809e-05
rogers 0.0
concept 0.000313828623116
allegiance 0.0
belongs 0.0
intended 6.10612023901e-05
bosses 0.0
purpose 4.4108358386e-05
hottest 0.0
campaigns 0.0
sunderland 0.0
teenager 0.0
runway 0.0
steven 0.0
guitar 0.0
donating 5.21297130553e-05
applause 0.0
finale 0.000253831466263
wasted 0.0
absent 0.0
awhile 0.0
fierce 0.0
sincerely 0.0
apology 5.4304093787e-05
climbing 7.48348125471e-05
unwilling 0.0
protesting 0.0
bikini 0.0
friendships 9.59708231696e-05
matching 6.514546726e-05
wolves 0.0
mosque 0.0
venezuela 0.0
donates 0.0
generations 0.00017182642866
underestimate 7.02316712221e-05
pardon 0.0
stickers 0.0
mothers 0.0
deeper 0.0
nipple 0.0
perfume 0.0
noodle 0.0
melissa 6.99062794645e-05
forest 0.000126061972847
panties 0.0
jimmykimmel 0.0
everytime 0.0
underdog 0.0
shoulders 0.0
wrapping 0.0
bedroom 0.0
glitter 0.0
stocking 0.0
annoyed 0.0
behave 0.0
goodbye 0.000271934745166
fuckin 0.0
seller 0.0
joshgroban 0.0
samsungmobileus 0.0
influential 0.000203178049259
slicing 0.0
ryanseacrest 0.0
farmer 0.0
teaser 0.0
styled 0.0
casting 0.0
imitated 0.0
forgiveness 0.0
perezhilton 0.0
blacked 0.0
paparazzi 0.0
peoplemag 0.0
rolled 0.00012212240478
vanityfair 7.80829690683e-05
rockstar 0.0
thousand 5.33780698119e-05
minded 0.0
shines 0.0
sunglasses 0.0
auntie 0.0
magazines 0.0
waited 0.0
denmark 0.0
leather 0.0
wished 0.0
ladygaga 0.0
swallow 0.0
glblctzn 0.0
shakira 0.000215293893608
accessories 0.0
nbcthevoice 0.0
clique 0.0
premiering 0.0
loooooove 0.0
weareheremvmt 0.0
looooove 0.0
vmagazine 0.0
popcrush 0.0
studded 0.0
yassssss 0.0
yessss 0.000473734008604
undeniable 0.0
unicef 0.0
auditions 0.0
ellemagazine 0.0
yasssss 0.0
pharrell 0.0
greece 0.0
papermagazine 0.0
nowwwww 0.0
maccosmetics 0.0
macaidsfund 0.0
lipstick 0.0
meeeee 0.0
newsstands 0.0
unapologetically 0.0
insidebates 0.0
legalize 0.0
loooove 0.0
caradelevingne 0.0
allllll 0.0
badgalriri 0.0
itsjeremyscott 0.0
nickiminaj 0.0
nipples 0.0
booooo 0.0
trippy 0.000316025903475
mikewillmadeit 0.0
puttin 0.0
trappin 0.0
alexanderwangny 0.0
karllagerfeld 0.0
celebratin 0.0
lilyallen 0.0
fuuuuuck 0.0
chanel 0.0
rubber 0.0
angelou 0.0
misses 0.0
harpersbazaarus 0.0
timberlake 0.0
photoshopped 0.0
whatchu 0.0
rehearsals 0.0
couture 0.0
mutual 0.0
creeper 0.0
cuddling 0.0
celine 0.0
theamas 0.0
thexfactor 0.0
websterhall 0.0
presale 0.0
deluxe 0.0
styles 0.0
wetten 0.0
shittttttttttt 0.0
boredom 0.0
darealamberrose 0.0
noooooooo 0.0
itunesmusic 0.0
cbstweet 0.0
thermal 0.0
mariners 0.0
torres 0.0
thebeatles 0.0
blondies 0.0
greeting 0.0
thecut 0.0
geeked 0.000119323070438
outlet 0.0
americanexpress 0.0
gqmagazine 0.0
nicole 7.76563410556e-05
bumped 0.0
hangover 7.7235941412e-05
stockholm 0.0
casually 8.27377331096e-05
esquire 0.000100276868198
winnipeg 0.0
begging 0.0
showroom 0.0
sleeves 8.17446393823e-05
smelling 0.0
guaranteed 0.0
obsession 0.0
attendant 0.000179089977274
aussie 0.0
tbsveryfunny 0.0
reservation 0.0
mollymcnearney 0.0
dragging 8.42946995353e-05
rocnation 0.0
tapered 0.0
badass 6.35452298057e-05
endlessly 0.0
vampires 0.0
viewers 0.0
kanyewest 0.0
designers 0.0
billboards 0.0
backstreetboys 0.0
monteith 0.0
e_fashionpolice 0.0
epically 0.0
internationally 0.0
mighty 0.0
jcolenc 0.0
semifinals 0.0
brasilia 0.0
tailgating 0.0
photoshoot 0.0
smokin 0.0
ahhhhhh 0.0
missin 0.0
sweats 0.0
impacted 0.0
rodriguez 0.0
musician 0.0
merchandise 0.0
jurgen 0.0
athleteally 0.0
originals 0.0
número 0.0
zealand 0.000127611673379
hehehe 0.0
fearless 0.0
stadiums 0.0
thiago 0.0
suarez 0.0
cropped 0.0
uruguay 0.0
apparel 0.0
staircase 0.0
wintour 0.0
spotting 0.0
polygraph 0.0
twerking 0.0
shipment 0.0
muggin 0.0
takeoff 0.000114374321936
thailand 0.0
tomorr 0.0
googleplay 0.0
budweiser 0.0
miafestival 0.0
dotted 0.0
burning 5.07662932526e-05
surpass 0.000104255164727
betcha 0.0
onairwithryan 0.0
dreamers 0.0
brunomars 0.0
beyoncé 0.0
hellooo 0.0
subscribers 0.0
preorder 0.0
believer 0.0
fragrance 0.0
hellooooo 0.0
majesty 0.0
beatsbydre 0.0
finland 0.0
fearnecotton 0.0
debuted 0.0
queued 0.0
rhetorical 0.0
iranian 0.0
infamous 0.0
brutally 0.0
execution 0.0
palestinian 0.0
transplant 0.0
audacity 0.0
foreplay 0.0
priced 0.0
huntington 0.0
manger 0.0
weaker 0.0
justintrudeau 0.0
creeping 8.89120650464e-05
fittest 0.0
hoodie 0.0
mankind 0.0
westwood 0.0
holographic 0.0
throwin 0.0
eminem 0.0
ecstatic 0.0
enjoys 0.0
wussup 0.0
duplicated 0.0
crotch 0.0
congrat 0.0
huggin 0.0
implement 0.0
penalizing 0.0
gonzalez 0.000101221112272
bitchin 0.0
sephora 0.0
damien 0.0
demanded 0.0
negativity 0.0
alancarr 0.0
skillz 0.0
hopeless 0.0
beatle 0.0
cheesecake 0.0
almighty 0.0
whatcha 0.0
slumber 0.0
chimney 0.0
headlining 0.0
perplexed 0.0
googleplaymusic 0.0
thrills 0.0
rollers 0.0
bravotv 0.0
gifted 0.0
kekepalmer 0.0
styledtorock 0.0
yooouuu 0.0
shantay 0.0
yaaaas 0.0
bestest 0.0
freestyle 0.0
everrrrr 0.0
sweatband 0.0
podolski 0.0
collaborating 0.0
bestfriend 0.0
sittin 0.0
whaaaat 0.0
clockwork 0.0
warmest 0.0
temptation 0.0
spiritual 0.0
chameleon 0.0
customised 0.0
acrylic 0.0
grasshopper 0.0
engages 0.0
gourmet 0.0
rhythmic 0.0
petals 0.0
klinsmann 0.0
directv 0.0
popcrave 0.0
versailles 0.0
raddest 0.0
grandfather 0.0
persie 0.0
webster 0.0
knight 0.0
footwear 0.0
collectors 0.0
blackout 9.44138567439e-05
skylight 0.0
hammock 0.0
playhouse 0.0
revelers 0.0
executed 0.0
cincinnati 0.0
simultaneously 8.07846550167e-05
malawi 0.0
graduated 0.0
sickening 0.0
mueller 0.0
elonjames 0.0
skeletons 0.0
mittromney 0.0
connecticut 0.0
cumulative 0.0
racked 0.0
valera 0.0
thighs 0.0
timely 0.0
rapping 0.0
shrugs 0.0
enables 0.0
psychic 0.0
fernando 0.000107646946804
tourism 0.0
slaughtered 0.0
devotion 0.0
fantasies 0.0
parsons 0.0
stella 0.0
complainers 0.0
newsstand 0.0
voguemagazine 0.0
westfield 0.0
manolo 0.0
turquoise 0.0
parisian 0.0
childs 0.0
swimsuit 0.0
bazaar 0.0
empress 0.0
brainstorm 0.0
tanning 0.0
desirable 0.0
feathers 0.0
antics 0.0
featurette 0.000127607411996
olivier 0.0
helloooo 0.0
hallow 0.0
connie 0.0
upbringing 0.0
privatize 0.0
bittersweet 0.0
outlaw 0.0
marcel 0.0
nowwww 0.0
hushed 0.0
threshold 0.0
floats 0.000101221112272
barbados 0.0
manuelcav 0.0
niggaz 0.0
prayin 0.0
drizzyxcole 0.0
homegirl 0.0
rappin 0.0
witcha 0.0
mufasa 0.0
dainternz 0.0
lololol 0.0
barclayscenter 0.0
bestbuy 0.0
blackouts 0.0
rivera 0.0
jakemiosge 0.0
givenchy 0.0
riccardo 0.0
grossed 0.0
guetta 0.0
spicewon 0.0
bitche 0.0
shawty 0.0
wednesdays 0.0
payday 0.0
jewelers 0.0
romero 0.0
acknowledging 0.0
calypso 0.0
blushes 0.0
medusa 0.0
keepers 0.0
futuristic 0.0
whereabouts 0.0
slayed 0.0
asvpxrocky 0.0
haaaaa 0.0
inezandvinoodh 0.0
calvinharris 0.0
_maxwell_ 0.0
bwerde 0.0
edward_enninful 0.0
haaaaaa 0.0
wisest 0.0
unconditionally 0.0
drmayaangelou 0.0
blackgirlsrock 0.0
submissive 0.0
rearrange 0.0
attuned 0.0
abrams 0.0
awaken 0.0
climbs 0.0
jacking 0.0
seventy 0.0
snatching 0.0
manoloblahnik 0.0
nicolerichie 0.0
openingceremony 0.0
whiteley 0.0
supermodel 0.0
the_real_iman 0.0
minogue 0.0
tmagazine 0.0
baaaaack 0.0
yeessss 0.0
wooooo 0.0
epicness 0.000278567071261
takawiraa 0.0
joplin 0.0
uncensored 0.0
unspeakable 0.0
rewrites 0.0
askdrruth 0.0
glozell 0.0
tardiness 0.0
runways 0.000278567071261
colombian 0.0
unapologetic 0.0
zac_posen 0.0
rumoured 0.0
omgggg 0.0
futbol 0.0
biatch 0.0
barrington 0.0
catwalk 0.0
sledgehammer 0.0
clemente 0.0
dollaz 0.0
mariah 0.0
granddad 0.0
iyanlavanzant 0.0
hustler 0.0
coletteparis 0.0
flexin 0.0
mistress 0.0
exceeds 0.000107646946804
sweeeeeet 0.0
stancesocks 0.0
serviced 0.0
issssss 0.0
lipglass 0.0
externally 0.0
complex_uk 0.0
prideful 0.0
dash_radio 0.0
holidaze 0.0
mawnin 0.0
champagnepapi 0.0
fashawn 0.0
raided 0.0
ahhhhhhhh 0.0
soulmate 0.0
motorbikes 0.0
britishvogue 0.0
gnlstudios 0.0
robinsoncano 0.0
debuting 0.0
cc_sabathia 0.0
colorways 0.0
hit_boy 0.0
_spyda 0.0
phresh 0.0
dominates 0.0
ratchet 0.0
rupaul 0.0
cockpit 0.0
kimmiekyees 0.0
horoscope 0.0
catwalks 0.0
paramedic 0.0
fhollande 0.0
sexiness 0.0
hereeee 0.0
changers 0.0
tiptoes 0.0
revved 0.0
meditative 0.0
fauntleroy 0.0
mbsings 0.0
disrespectfully 0.0
traumatized 0.0
outdid 0.0
elvispresley 0.0
toupee 0.0
josephine 0.0
discography 0.0
mariasharapova 0.0
chinchilla 0.0
skylar 0.0
illestbaba 0.0
georgiamjagger 0.0
pierced 0.0
hardrock 0.0
snorkeling 0.0
thrilla 0.0
gunpoint 0.0
sleeved 0.0
stevestoute 0.0
kiiiiiiiiiiiiinnnngggggg 0.0
lanvin 0.0
chateau 0.0
lizzs_lockeroom 0.0
prophets 0.0
müller 0.0
lullaby 0.0
samersum 0.0
disassembled 0.0
anniversaries 0.0
hayden_williams 0.0
rousteing 0.0
slayage 0.0
raunchy 0.0
benzema 0.0
fuckery 0.0
hellooooooo 0.0
juliagillard 0.0
congeniality 0.0
gunned 0.0
condense 0.0
missjillscott 0.0
yussss 0.000179204466015
chopard 0.0
woodbridge 0.0
orousteing 0.0
dubsmash 0.0
alicialquarles 0.0
worldmcqueen 0.0
whateva 0.0
elysées 0.0
jennnrosales 0.0
xstrology 0.0
looool 0.0
tippin 0.0
marleys 0.0
dwanimation 0.0
dreamworks 0.0
yaself 0.0
anothermagazine 0.0
claralionelfdn 0.0
mchingi 0.0
rihannareplay 0.0
awtguide 0.0
ryannavy_rih 0.0
rihquest 0.0
gpforeducation 0.0
valliniandre 0.0
globalfund 0.0
rhenna 0.0
millymaefenty 0.0
peetes 0.0
pandagunda 0.0
floriamamaroma 0.0
adoringrihanna 0.0
ymcofficial 0.0
rihanti_ 0.0
mcdean 0.0
rihannadaily 0.0
stancemuse 0.0
muhtean 0.0
rihdefine 0.0
officialdonnie 0.0
stunnafenty 0.0
perfumesbyriri 0.0
badgal 0.0
shaninamshaik 0.0
reblrihanna 0.0
elliscole_ 0.0
itskaitbh 0.0
harpersbazaarcn 0.0
yusefhairnyc 0.0
mylahmorales 0.0
teamofrihanna 0.0
muhphucka 0.0
harpersbazaar 0.0
rihrihfreak 0.0
thenbacentral 0.0
roversi 0.0
suchaf_cknlady 0.0
fourfiveseconds 0.0
petergrayhair 0.0
wkorea 0.0
dennisleupold 0.0
ursulastephen 0.0
ozzysalvatierra 0.0
ciarrap 0.0
rihannaargntina 0.0
rihearsal 0.0
sremmurd 0.0
id_magazine 0.0
heauxm 0.0
rihpost 0.0
jrgseul 0.0
bitchez 0.0
underst_navy 0.0
sonitaalex 0.0
chris_walden 0.0
danachanel 0.0
wednesdayz 0.0
jimmyfenty 0.0
houseoffraser 0.0
skeete 0.0
_kailssss 0.0
muhphuckas 0.0
phuckin 0.0
rastafarih 0.0
obviiii 0.0
etherihalvibe 0.0
rorreyfenty 0.0
noellaalstrom 0.0
rihturn 0.0
tellar 0.0
esquireuk 0.0
huffpoststyle 0.0
tyronmachhausen 0.0
melottenberg 0.0
paolakudacki 0.0
tompecheuxmu 0.0
lgoldstein_ltd 0.0
phucking 0.0
kudacki 0.0
hellurrr 0.0
tom_ford 0.0
neakah 0.0
creepah 0.0
pahtna 0.0
wontonsan 0.0
cappadonna 0.0
phuckmarqy 0.0
elfies 0.0
starstunning 0.0
ohnana 0.0
tushmagazine 0.0
macxriri 0.0
rickrubin 0.0
findataui 0.0
tristate 0.0
distoyb 0.0
kabukimagicnyc 0.0
yerdme_cmb 0.0
hittas 0.0
evan_erogers 0.0
jessieriri 0.0
unfourgettable 0.0
meeeaan 0.0
shweinsteiger 0.0
goooooooaaaaallllllll 0.0
goooal 0.0
braaaaaaaaaaaaaaaaaa 0.0
asapkoff 0.0
belgiuuuuummm 0.0
druchaos 0.0
cuadrado 0.0
murdaaahhh 0.0
colombiaaaa 0.0
karafenty 0.0
dlsturbla 0.0
braaaaaaaaaaaaaaaaaaaaaa 0.0
abouuuutttt 0.0
takecarerihanna 0.0
nathannavy 0.0
theworidcup 0.0
goooooaaaaaaallllll 0.0
bazaararabia 0.0
bigshitxtalker 0.0
__tatijxo 0.0
lhhatl 0.0
braaaaaaaaaaaa 0.0
rihannanavyrd 0.0
gooooooaaaalllll 0.0
triscastellano 0.0
iiiiiiiiiiiiiiiiiiii 0.0
eatmydaisy 0.0
leggooooal 0.0
yaaaaaassssssss 0.0
prettygirl_sp 0.0
ooohhhhhh 0.0
shiiiiitttt 0.0
roooonnnnnnnneeeeeeeyyyyyy 0.0
muslera 0.0
tadpole 0.0
giusichrisriri 0.0
_xomec 0.0
blockedt 0.0
ooooohhhh 0.0
goooooooaaaaaaalllllllllllllllll 0.0
stefansaxon 0.0
rihannademos 0.0
dragonflycici 0.0
chririh 0.0
rihluminati 0.0
goaaaalllll 0.0
twinzies 0.0
mantlers 0.0
suchaf__cknlady 0.0
glamour_robyn 0.0
adamselman 0.0
sephorafrance 0.0
thefashionlaw 0.0
scout_willis 0.0
quietude 0.0
theblackvoice 0.0
weeeed 0.0
kiiiiss 0.0
dooooon 0.0
miiiiss 0.0
malinsworld 0.0
prompics 0.0
itsalldonn 0.0
goooorrrrrrlllllll 0.0
thenewdaily_ 0.0
wiggin 0.0
stevesoboroff 0.0
pivot_tv 0.0
lapolicefdtn 0.0
scarificing 0.0
whooooose 0.0
sambapologetic 0.0
bellaisevil 0.0
sta_schemin 0.0
i_aim_tyga 0.0
fameisloud 0.0
garcon_rebelle 0.0
itsbreezybiotch 0.0
phaedra 0.0
vivala_stephyy 0.0
_bossmadeg 0.0
kontomitrosnick 0.0
sorrenti 0.0
whenevahhh 0.0
teamvivanco 0.0
heifers 0.0
stevenkolb 0.0
jeremy_brossard 0.0
jordanbrossard 0.0
quilted 0.0
piscesareus 0.0
plumsykes 0.0
cedellamarley 0.0
offish 0.0
urprise 0.0
i_love_riri 0.0
rihannadiva 0.0
javiroo 0.0
frihday 0.0
cuntlifex 0.0
_chris_rated_ 0.0
yewmadcunt 0.0
erinwasson 0.0
balmainparis 0.0
_yadim 0.0
muthaphucka 0.0
onnneeee 0.0
liiiiieeesss 0.0
gautier 0.0
mtvstarsvotes 0.0
zinloves 0.0
chloefrahm 0.0
uprising_create 0.0
uprising_darren 0.0
jonnycrave 0.0
jeff_uprising 0.0
kareemfenty 0.0
daily_rihnavy 0.0
unapologeticunt 0.0
rorrey 0.0
foreverrr 0.0
guyanese 0.0
annndd 0.0
historih 0.0
grandfadda 0.0
arleta 0.0
loreleicakes 0.0
river_island 0.0
finallyyyy 0.0
rodin_thinker 0.0
mrs_toyac 0.0
cheersrihrih 0.0
bangbang 0.0
faiz_fenty 0.0
leandra 0.0
noella 0.0
rasshoooolllleee 0.0
luminati 0.0
inezvinoodh 0.0
visvim 0.0
realne 0.0
sarahfrancus 0.0
tadium 0.0
trapstar 0.0
afrihca 0.0
rihrobyn 0.0
cbsgirlfriend 0.0
shyronnie_rn 0.0
mariamfenty_ 0.0
mizzpmf 0.0
whooooaaaaa 0.0
camkaipink 0.0
yasssssssssssssssssssss 0.0
lunaxskye 0.0
yaaaaasssssss 0.0
niggggaaaaaaa 0.0
breeziechillin 0.0
betologetic 0.0
isusjsjdha 0.0
awffffff 0.0
mcdessikins 0.0
skreets 0.0
pieceofria 0.0
loooool 0.0
craaaazzyyy 0.0
lolarae_xoxo 0.0
stayflysamir 0.0
shotta 0.0
tamarawray 0.0
lauraleehickock 0.0
heauxz 0.0
rihannanavyit 0.0
manilla 0.0
ronnyerickson 0.0
nikofenty 0.0
vincehaycock 0.0
zodiacfacts 0.0
naomiiknows 0.0
wrizzap 0.0
muuuch 0.0
hongkong 0.0
jetlaaaaaagggged 0.0
rasshole 0.0
februharry 0.0
kaşara 0.0
çıkmadı 0.0
dicked 0.0
vinoodh 0.0
rihannasblog 0.0
urihannafansite 0.0
teejay 0.0
stupse 0.0
clapbacks 0.0
niggaaaazzzz 0.0
bwaaahaaaaa 0.0
willheardmusic 0.0
kristennoelgipson 0.0
rsvpgallery 0.0
backout 0.0
bwahhaaa 0.0
errwhurr 0.0
niiiiggaz 0.0
fridayz 0.0
debbycoda 0.0
cabbing 0.0
dolly_cohen 0.0
cowboyz 0.0
friendz 0.0
phucker 0.0
charliebymz 0.0
lynn_ban 0.0
inwardly 0.0
ravening 0.0
whyyyyyyyyyyyy 0.0
thatdamnlala 0.0
adamsellman 0.0
scottland 0.0
kingspleasure 0.0
mikkyekko 0.0
rihannanavide 0.0
saskoktz 0.0
phlawless 0.0
givenchydonc 0.0
mlle_yulia 0.0
oxxoxo 0.0
foreva_rn_ladii 0.0
skinhead 0.0
killaz 0.0
yennifer 0.0
bestofpisces 0.0
smegma 0.0
morganemiller_ 0.0
aa_davis 0.0
beenie 0.0
nickeystaar 0.0
frihannamorocco 0.0
thinketh 0.0
guitarists 0.0
jordriri 0.0
badgalclaudia 0.0
hausofnath 0.0
_abirogerson 0.0
tommykane 0.0
livenationuk 0.0
millenniu 0.0
juuuussttt 0.0
helllooooo 0.0
miiiine 0.0
chaneliman 0.0
blushy 0.0
laetitiacrahay 0.0
rihmix 0.0
dariuscash 0.0
joshkillss 0.0
drunk_cockiness 0.0
firebombfenty 0.0
mooky_mcnasty 0.0
defpenradio 0.0
iamrici 0.0
letcha 0.0
niggerish 0.0
mawazine 0.0
thefashionaddicts 0.0
phierce 0.0
errwhere 0.0
jocking 0.0
niggaaa 0.0
tami_black 0.0
homienadz 0.0
religiosity 0.0
joycemeyer 0.0
brooooklyyyyn 0.0
miiiiine 0.0
dilekkeysan 0.0
marykatrantzou 0.0
allaboutpisces 0.0
jfisherjewelry 0.0
oddhangover 0.0
diggins 0.0
phyliciaghee 0.0
bawsin 0.0
howeverrrrr 0.0
channyyxoxo 0.0
dowwwwnnnnn 0.0
thugbitch 0.0
rihanas 0.0
miiiiiinnneee 0.0
rihwrite 0.0
janiseeaileen 0.0
ratchify 0.0
eeeeeemmmmmm 0.0
pannies 0.0
wooooiiiiiiiiiii 0.0
muhphuckers 0.0
bashment 0.0
whaaaaattttt 0.0
liiifee 0.0
covery 0.0
leeeeaaaavvveeee 0.0
haarrrrrddd 0.0
ismashedriri 0.0
christabslg 0.0
reallll 0.0
peoplez 0.0
wooiiiiii 0.0
slackness 0.0
kevfenty 0.0
woooiii 0.0
tatiana_xo 0.0
fentynavysalute 0.0
ratchettt 0.0
rachael_deanna 0.0
lifeeeeee 0.0
bxdcfjcf 0.0
killled 0.0
asdfghjkjhgtfrdedfghjnhbgvfc 0.0
troy_fenty 0.0
_marrymerihanna 0.0
jkbwdhbwh 0.0
_noellaa 0.0
hunneds 0.0
thekingfly 0.0
dooown 0.0
woooiiiii 0.0
phucked 0.0
kickstand_ohb 0.0
acedemy 0.0
mistercap 0.0
gallest 0.0
sinsofmyfather_ 0.0
dwayneofficial 0.0
_revofev 0.0
joefenty 0.0
thegodlight 0.0
molestmerihanna 0.0
rihannanavyeu 0.0
melina 0.0
terryrichardsonstudio 0.0
_sexxtroversy 0.0
neuroticbxtch 0.0
getcho 0.0
moneyyy 0.0
idillionaire 0.0
yaaaaaaas 0.0
noxx_onite 0.0
phonefancy 0.0
chiefin 0.0
londonfashionwk 0.0
_mayor_ 0.0
rihannanow 0.0
jamrock 0.0
rihannastats 0.0
jenesismagazine 0.0
napmed 0.0
hausofbeyhive_ 0.0
probabily 0.0
badgalelly 0.0
ladylivja 0.0
rihannacomics 0.0
__glitterdick 0.0
chelsey_ba 0.0
stashbox 0.0
thuglife 0.0
highladayz 0.0
brrrap 0.0
kalifah 0.0
marylin 0.0
muthafucker 0.0
stylenetwork 0.0
bvalgari 0.0
oooonly 0.0
fuckyopictures 0.0
amplifydot 0.0
trappat 0.0
soumsluvriri 0.0
ibebossedup 0.0
holerringg 0.0
rihskillerdoll 0.0
equaled 0.0
chefette 0.0
rezilientkas 0.0
blastinggggg 0.0
dammnnn 0.0
lifeandtimes 0.0
hausofjazzy 0.0
kaykispeaks 0.0
condesa 0.0
awaaayyy 0.0
flawle 0.0
mandler 0.0
loudies 0.0
dulcattis 0.0
killaaa 0.0
_loveforrihanna 0.0
yesimkayla 0.0
rollingnostone 0.0
richkunt 0.0
yasssssss 0.0
eriricccccc 0.0
cuntmeout 0.0
sashay 0.0
condragulations 0.0
neverrr 0.0
phasetoo 0.0
fooooorde 0.0
ruunavi 0.0
rihtweet 0.0
ishoobernator 0.0
thirstiest 0.0
j_dimps 0.0
deecosey 0.0
itsrihannasnavy 0.0
muthaphuckin 0.0
