awesome 0.00122410119533
christmas 0.000305195888079
trying 0.000550829520313
launch 4.82430839547e-05
moment 0.00071203788771
wonderful 0.000972300758801
seeing 0.000525463327878
hanging 0.000247997121918
sounds 0.000293841694292
contacts 0.0
anybody 0.0
worked 0.000212744760849
direct 0.0
others 0.000423193170983
currently 4.68037490385e-05
better 0.00108984488821
please 0.00299828875273
social 0.000176302164928
anxiety 0.0
around 0.00066169153927
people 0.00295815041085
morning 0.001095735956
damage 0.000128317084092
everything 0.000547867978002
present 0.000178230265444
though 0.000122246167028
friend 0.00224266304699
watched 0.00110488722591
beautiful 0.00181401211379
demanding 0.0
anything 0.000357943714002
tagged 0.0
helped 0.000128687895457
thinking 0.000359879118293
finally 0.000159946274797
caught 0.00022037770616
believe 0.00120987070326
already 0.00042930895922
couple 0.000385019550618
launches 0.0
chance 0.000626134832002
annual 0.000105223095893
quickly 0.0
growing 0.00018772968134
probably 0.000127301895859
changed 8.37281435432e-05
history 0.000241868281839
center 0.00010258399355
museum 0.000135897279443
behind 7.78460634435e-05
screaming 0.000144790272805
pretty 0.000719758236586
really 0.001447936799
possibly 5.44435581646e-05
little 0.00101473026725
happiest 0.00016571171861
earlier 4.57894106799e-05
forget 0.000436308897407
someone 0.00086792569158
things 0.000778460634435
available 0.000203194626417
perfect 0.000977969336223
different 0.000517029809115
person 0.000470868631918
watching 0.00169183352668
exhibit 9.23607453454e-05
passed 0.000143140532184
prefer 5.90866942066e-05
minutes 0.000767984863822
travel 9.56904601626e-05
daughter 0.00123034616229
positive 0.0
outside 0.000331312716116
looking 0.00109278644165
forward 0.000361825274885
raising 5.58764696082e-05
impression 7.19024332194e-05
wheels 0.0
favorite 0.00145330389458
instead 8.81510824641e-05
appreciate 0.0
couldn 0.000407487223426
remember 0.000430467697001
impressive 0.0
vintage 0.0
holidays 5.58764696082e-05
friends 0.00121969393784
impossible 0.0
everyone 0.001056602529
always 0.00120661398337
limited 5.14364237746e-05
months 0.000286011810016
moving 0.000168364115471
meeting 8.01890766865e-05
answer 0.000561323536806
together 0.000549346737238
inside 0.000244492334056
upstairs 0.000122802240862
missed 0.000475973342626
active 0.000125945954694
eventually 0.0
longer 0.000225843077576
enough 0.000395576604284
building 0.000131867885794
enjoying 0.000287071380488
london 9.30953510755e-05
posting 0.000293680169457
recent 0.000103453791017
amazing 0.00386378063298
attention 4.43158076229e-05
tomorrow 0.001408803372
whenever 0.000128719390225
feeling 0.000450661750269
excited 0.00167521203009
understand 0.000554635636823
following 0.000287559889306
asleep 0.000288592020848
learning 0.0
evening 0.000313605852709
special 0.000670669852584
secret 8.76734977548e-05
across 8.74357996665e-05
surprised 9.33510034019e-05
candles 0.000431744751576
sophia 0.0
version 8.64921994655e-05
rather 4.39559619315e-05
showing 4.17510875653e-05
saying 0.00118490607007
thoughts 0.000415260983162
exactly 0.000211596585492
getting 0.000782668540002
nothing 0.000626134832002
tweets 0.000991967871584
photos 0.000283926037451
looked 0.000311055495036
difficult 0.0
office 0.000634789756475
brought 8.67270293975e-05
biggest 8.06227606129e-05
thrilled 0.000357712080854
entire 8.696256986e-05
something 0.000978335675003
closing 0.0
anyone 0.000907376859379
taking 0.000391334270001
interesting 8.71988251656e-05
original 0.000138879827196
flying 0.0
sometimes 0.000560677492635
yesterday 0.000157804671196
serious 0.00025118443063
digital 0.000174132151973
wearing 0.000596891967984
british 5.70286096323e-05
either 8.53285595112e-05
second 0.000236707006794
checking 5.07195889337e-05
indeed 5.33644347027e-05
island 0.0
hearing 8.74357996665e-05
staying 0.000105821914718
another 0.00066347748243
compare 0.0
bummer 0.000223663479053
clothes 0.000519755742971
landing 0.0
weekend 0.000396644452188
delivery 7.16584008732e-05
secretive 0.0
anyway 0.000101155585337
recognize 6.99917167645e-05
working 0.000273933989001
bigger 0.000183659067072
laughing 0.000510622945706
wanted 3.95576604284e-05
clothing 0.0
grateful 0.000460332933325
friendship 0.0
family 0.00117400281
listening 0.000343167721218
stream 0.000215293030714
double 0.000132947422869
especially 0.00034690811759
shaking 0.0
waiting 0.000160378153373
definitely 8.55599001374e-05
account 4.5914766768e-05
completely 0.000185681071166
thought 0.000986279194977
possible 4.14140895145e-05
simple 0.0
professional 5.80440506576e-05
members 4.93243488096e-05
business 0.000168820022464
absolutely 0.000293048502401
sending 0.000272494480234
introducing 0.0
congrats 0.00160211938328
community 0.000192972335819
keeper 0.0
greatest 0.000213899750344
selfie 0.000585618813337
pasadena 0.0
posted 0.00023146637866
saturday 0.000619536031739
designs 0.0
broken 0.000291063583519
chicago 0.000159638063394
glimpse 0.0
actually 0.000521228998462
myself 0.000256459983875
pajamas 0.00050641050444
school 0.000596572856671
throwback 8.35100433044e-05
thursday 0.000418640717716
selling 0.0
talented 0.000411491390197
celebrate 8.64921994655e-05
celebrating 9.33510034019e-05
anniversary 9.46420124836e-05
contest 5.10047406246e-05
experiences 0.0
students 0.0
figure 9.36074980769e-05
featuring 0.000152585710952
inspired 0.000141963018725
breeze 0.0
sitting 0.000441954890364
playing 0.000636344380449
street 0.000130090544096
points 0.0
advice 9.1829533536e-05
memory 0.00027066086125
forever 0.000176781956146
imagine 8.71988251656e-05
problem 0.000167909539595
played 0.000437178998332
keeping 0.000174871599333
lovely 0.00118050087856
dressed 0.0
chinese 0.0
sunshine 0.0
afternoon 4.60405278846e-05
notice 0.0
difference 0.000128339850206
suppose 7.52224736514e-05
letting 9.62200272623e-05
system 4.89153464642e-05
mutant 0.0
bathroom 7.65788140804e-05
almost 0.000587001405002
details 0.000128339850206
experience 0.000326870640018
luckily 0.0
viewed 0.0
living 8.17176600045e-05
weather 0.000100031434922
bright 5.50739044383e-05
launching 0.0
colors 0.0
monday 8.17176600045e-05
walked 0.00017673290748
pinned 0.0
wanting 0.0
tweeting 0.000714864178822
forgot 0.000196204814426
gorgeous 0.000572051213557
herself 9.40533177368e-05
happens 0.000607941556153
learned 0.000135875954923
congratulations 0.00051754845474
raised 0.000102296207406
mission 5.30615302034e-05
smelled 0.000139500050424
unforgettable 9.07387176614e-05
forgotten 0.0
trouble 4.83766107811e-05
channel 0.000190328942493
fantastic 0.00050783366321
loving 0.00050783366321
hardly 0.0
dining 0.0
complete 8.98460870452e-05
daniel 0.000137686922937
rewarding 0.0
spirit 0.000152158766801
finding 4.78452300813e-05
stories 0.000126957951295
including 4.348128493e-05
somewhere 5.10047406246e-05
conversation 0.000380657884985
disrespectful 0.0
making 0.000741533656834
expect 9.38648406698e-05
polite 0.0
brings 0.000141573138246
anytime 6.43596951124e-05
needed 0.000250506525392
seriously 0.000605445396258
modern 0.000112732147894
welcome 0.000672480227282
moments 0.000291870279279
jacket 0.0
halloween 0.000234944135566
costume 7.74159007884e-05
totally 0.000587192001698
flight 9.38648406698e-05
attached 8.8053305936e-05
finished 0.000280822494231
strong 0.000161245521226
message 0.000249156589897
coming 0.000468337046421
temporary 0.0
challenge 0.000128687895457
achievement 0.0
unlocked 0.0
happen 0.000319031181814
celebrated 0.0
giving 0.000197788302142
excellent 0.0
common 4.83766107811e-05
pressed 0.0
company 0.000354526460983
change 0.000587001405002
singing 0.000418515392992
silver 6.39584231902e-05
august 5.5233099064e-05
crying 0.000554705725711
happened 0.000617865514216
parking 0.0
demand 0.000154744166036
sacrifice 0.0
personal 0.000340391617359
beyond 0.000524614797999
question 0.00107963735488
chicken 0.000449617498045
position 5.33644347027e-05
losing 9.64861679093e-05
respect 0.000299459650481
caption 0.0
shouldn 9.36074980769e-05
career 9.08314934112e-05
reason 0.00037071930853
explore 7.76989786305e-05
glamorous 0.000117718107358
reality 0.0
burned 9.19488575682e-05
without 0.000315609342393
problems 9.64861679093e-05
countdown 0.000142349757466
online 0.000126273086603
animals 0.000196144066946
buying 5.30615302034e-05
pictures 0.000346231505175
underneath 0.0
camera 5.11481037028e-05
checked 0.000111106910086
heading 0.000139643026613
complex 0.0
sunday 0.000525463327878
nights 5.77026183654e-05
traffic 5.87360338914e-05
through 5.49153582651e-05
changing 0.000191909586799
diapers 0.000268605207586
convinced 0.000207896120385
capture 0.0
random 0.0
recorded 5.94405423865e-05
november 0.0
number 8.01890766865e-05
stupid 0.000326661348987
grandparents 0.0
recording 6.27788471104e-05
chocolate 0.000119954840603
unless 4.82430839547e-05
calling 0.000246479905119
mermaid 0.0
levels 0.000180474113826
package 0.0
option 5.66959321223e-05
knowing 5.41321722501e-05
actual 0.000156058653784
friday 0.000912282240034
achieve 0.0
winner 0.00013044385479
becomes 0.0
directly 0.0
quality 0.0
father 0.000178230265444
wishes 0.000255023703123
themselves 0.0
asking 0.000538383163689
usually 0.000208666833825
period 0.000116777009027
resist 0.0
collections 0.00025320525222
summer 0.000253230033697
bracelet 0.0
reminded 0.0
dinner 0.00047570709706
single 0.000362802422758
catching 0.000173618880398
energy 0.0
preview 0.0
monster 0.000202526480321
material 0.0
events 4.85105972532e-05
europe 0.0001082643445
holiday 0.00013513690755
emotional 5.63660739471e-05
affects 0.0
holding 0.000138879827196
survive 0.0
eating 0.00034240742525
outfit 0.000562406770796
missing 0.000208755437827
surprise 4.18640717716e-05
german 0.0
officially 0.000273986742118
french 0.00020118296192
global 0.0
follow 0.00059017448605
design 5.90866942066e-05
improvement 0.0
website 9.54270214562e-05
breaks 5.15813886786e-05
negative 0.000285143048162
official 0.000121260767972
jersey 0.0
france 0.0
lighter 0.0
thinks 9.13289140394e-05
hospital 0.0
jealous 0.000131595297452
successful 0.0
trending 6.47651470258e-05
leadership 6.12597067195e-05
showed 4.91875366065e-05
attended 7.85607783754e-05
circle 0.0
interested 5.02957404799e-05
effect 0.000154744166036
success 0.0
ladies 0.000697706294322
dreams 0.0
protect 0.0
arguing 0.0
essence 0.0
control 8.74357996665e-05
happier 0.000142831777975
likely 0.000104628848248
cancel 8.18947479619e-05
project 0.0
laying 0.000161913596395
lesson 5.44435581646e-05
fridays 0.0
invited 5.50739044383e-05
treating 7.44307914767e-05
allowing 0.0
remote 0.0
opening 0.000212744760849
alcohol 0.0
popular 0.00016055032659
pedestal 0.0
designing 0.0
followed 5.20195512613e-05
enjoyed 9.2840535583e-05
spectacular 7.14158889876e-05
recovered 0.0
length 0.0
matters 5.14364237746e-05
factor 6.45618931345e-05
england 0.0
shared 5.36697149478e-05
benefit 0.000441460832458
continues 4.77135107281e-05
fathers 0.0
kitchen 6.29729773469e-05
exciting 0.000140797261005
corner 0.0
spring 0.000100031434922
fallen 6.88434614684e-05
victoria 0.0
tornado 0.0
typical 0.0
continue 0.0
creative 0.000220932396256
excuse 5.66959321223e-05
female 0.000156500125369
closer 4.90512036064e-05
accent 0.0
beginning 0.0
sooner 0.0
everywhere 0.000186702006804
scenes 0.000249382289037
wishing 5.66959321223e-05
choices 0.0
unpredictable 0.0
become 0.000204294150011
photographs 0.0
spread 0.000223395055882
season 0.00103509690948
putting 0.00012323995256
annoying 0.000306315256322
quietly 0.000167682610297
extending 0.0
stance 7.57593515664e-05
sleepy 0.0
returns 0.000104925405039
bucket 0.000368274456989
condolences 0.0
register 0.000232863586206
flowers 0.0
define 7.65788140804e-05
somebody 5.83885045137e-05
chicks 0.000109835249002
covering 0.0
repeat 0.000109200380589
football 4.91875366065e-05
brothers 0.000119954840603
player 5.46001902943e-05
physical 0.0
series 4.25489521698e-05
pretend 0.0
fighting 0.000178230265444
atlanta 6.77281120394e-05
mexico 5.65306536076e-05
president 0.00065221927395
talking 0.000353151473939
america 0.000291469012633
greats 0.0
everybody 9.64861679093e-05
judgment 0.0
amount 0.0
houston 6.66438349156e-05
everyday 0.000833301825645
shooter 0.0
attitude 6.92987067951e-05
million 0.000451879826052
honesty 8.41754104763e-05
telling 0.000222182496454
pulled 5.87360338914e-05
attack 0.000201746044367
killed 0.000261596475497
horrible 0.000599794514241
norman 0.0
salute 0.0
jacksonville 0.0
barackobama 0.0003019599478
lilduval 0.0
liquor 0.0
american 0.000581365376427
realist 0.0
remain 0.0
innocent 7.49567863965e-05
pieces 5.78729601328e-05
taught 0.0
golden 0.000211043859033
straight 4.33635146988e-05
forgive 0.000158292196306
answers 0.000252182555458
product 0.000125557694221
smoking 0.0
created 0.000141184555208
record 8.17176600045e-05
weapon 0.0
bottom 0.0
arrangements 0.0
africa 0.000129938935743
committed 6.16339695235e-05
journey 0.000203447614603
brother 0.000190854042912
prayers 0.000245038826878
documentary 0.000585618813337
addition 6.81704239778e-05
honestly 0.000223505878433
velvet 0.000223663479053
country 0.000282941791934
speedy 0.0
dressing 0.000304122373213
employee 0.0
yoooooo 0.0
prayer 8.65980698392e-05
nominated 0.00041115223724
praying 0.0
insane 0.000810221441859
illest 0.0
shooting 0.000489153464642
cancer 0.00103293826874
australia 0.0
marijuana 0.000108558969688
deserve 0.000287864380198
legend 0.000313000250738
mother 0.000828388839073
murder 0.000126728333776
realest 0.0
powerful 0.000333994575097
attendance 0.0
wisdom 0.0
breaking 0.000757638519621
bothered 9.15412828313e-05
angeles 0.000409022543867
dollars 0.0
soldiers 8.18947479619e-05
performance 0.00031704389482
reading 0.000166104393265
videos 0.000453928599825
jordan 0.0
nobody 0.000383819173598
politics 0.000221571789873
paradise 8.55412710305e-05
blessing 0.0
coolest 0.000207896120385
strippers 0.0
charities 9.19488575682e-05
donate 0.000527609647583
bullshit 0.000149913572793
sample 0.0
rocking 0.000132014953797
bringing 4.39559619315e-05
deserves 0.000260097756306
hilarious 0.000622475379983
victim 0.0
stadium 0.0
funniest 0.000999822445826
heaven 0.000124023732007
ruined 0.000171082542061
honest 0.000583740558559
rolling 5.87360338914e-05
became 0.0
driver 0.0
breakfast 4.91875366065e-05
decision 9.75599237391e-05
counting 0.000111106910086
pressure 0.0
awareness 0.000336233926332
dearly 0.000136814638699
lastnight 0.0
facebook 0.000209320358858
basketball 0.0
campaign 9.08314934112e-05
twisted 0.0
defined 0.0
discover 0.0
comments 4.77135107281e-05
giveaway 0.000186395664107
bipolar 0.0
teenage 0.0
williams 6.23934674105e-05
custom 7.85607783754e-05
singer 7.63037385064e-05
future 8.06227606129e-05
randomly 9.58228511652e-05
angels 8.51952862482e-05
blessed 0.00020122178412
sister 0.000263057739732
stripper 0.0
dancing 0.000823730373976
reigns 0.0
voting 0.000385944671637
niggas 0.0
commercial 0.000268348574739
hating 0.0
boring 0.0
century 0.0
acting 0.000336233926332
submit 0.000135456224079
besides 0.000406334717587
hiding 0.0
periscope 0.0
breath 0.0
choosing 0.0
lawrence 0.00017913014
instagram 5.42875538206e-05
detroit 7.26438467165e-05
cousin 7.68558475042e-05
honored 0.000108575107641
dedication 0.0
rockin 9.03435565849e-05
fucked 0.000102738741263
lionelrichie 0.0
talent 0.000208666833825
goodnight 0.000374783931982
stores 0.0
drinking 0.000174647689654
brazil 0.0
tattoo 0.0
consecutive 0.0
regardless 0.000138140837129
staring 0.0
commitment 0.0
seconds 0.000156943272372
ohhhhhh 0.0
listen 0.000687144351841
whatever 0.000539076522271
wherever 0.0
kicking 0.00027616549532
compete 7.33996574883e-05
lauderdale 0.0
homies 0.0
billion 5.60389877221e-05
belated 8.58903588567e-05
pirate 0.000111154800173
shoutout 0.0
grammy 0.0
guilty 0.0
ceiling 0.0
grammys 0.0
absolute 5.73641550873e-05
nelson 0.0
mandela 0.0
bigsean 0.0
handle 0.000204018962499
tonite 0.0
cocaine 0.000118520672528
promise 0.000185681071166
longest 0.0
generation 5.36697149478e-05
tuesday 0.000177745997163
struggle 0.00024281989915
workout 7.60305933032e-05
character 0.000209257696496
mirror 0.000191277983894
interview 0.000119314571334
buffalo 0.0
justin 0.000328988243631
insights 0.0
winning 4.17510875653e-05
oxygen 0.0
espnnfl 0.0
charlotte 0.0
accomplished 0.0
defense 6.27788471104e-05
gettin 0.0
arabia 0.0
lmfaooooo 0.0
writing 0.000226459924871
soccer 0.000233096935892
society 5.39774085005e-05
brooklyn 0.0
incredible 0.00101292013479
witcho 0.0
celebrity 6.39584231902e-05
minute 0.000132226623696
foreign 0.0
cherry 0.0
champs 0.0
murdered 8.35100433044e-05
evidence 0.0
android 0.0
sneaking 0.0
clearly 9.91988487673e-05
download 5.5233099064e-05
mixtape 0.0
central 0.000154744166036
washington 0.0
veterans 0.000153157628161
stronger 0.0
promised 0.000128317084092
marcus 0.000291614637379
zombie 0.0
throwing 0.00032079271023
security 0.000155618844996
fastest 0.0
fantasy 0.0
turning 0.000195661385857
ignore 0.0
fucking 0.000571327111901
tickets 0.000283926037451
collector 0.0
prizes 0.000166363153905
december 0.000108575107641
loyalty 0.0
return 8.64921994655e-05
escape 0.000139983433529
yassss 0.0
goddess 0.0
handsome 0.0
language 0.000164272365849
motion 0.0
gallery 0.0
movies 0.000468495050669
children 0.000817234214287
backpack 0.0
potentially 0.0
guardian 0.0
review 0.000232738377689
theaters 0.00141408680819
shhhhh 0.0
begins 0.000140411247115
closet 0.0
bodies 0.000154831801577
hahaha 0.000279966867058
produced 0.000245038826878
latest 0.000380873853885
banned 0.000139983433529
beyonce 0.0
perform 0.000125171360607
lionel 0.0
signed 0.00034503230316
princess 7.88523380287e-05
ghetto 0.00013813418987
conditioning 0.0
charity 0.000546001902943
germany 0.0
ronaldo 0.0
married 0.000462983681062
millions 0.000105821914718
blessings 0.000101672290122
diamond 0.0
nephew 0.0
lights 0.000112404374511
howard 0.0
turned 0.000171583860609
buckle 0.000122802240862
relevant 0.0
performing 0.000125557694221
indian 0.000162533887035
includes 5.82158965514e-05
tricks 0.0
survivor 0.0
diamonds 0.0
collection 0.000912385154113
families 0.000350110022228
welcoming 0.0
select 6.97593397655e-05
announced 9.51644712463e-05
granted 0.0
decided 0.000374429992308
selfish 0.0
trailer 0.000709040330479
reppin 0.0
celebration 5.49153582651e-05
decades 6.27788471104e-05
ultimate 5.66959321223e-05
incase 0.0
downtown 0.0
seasoning 0.0
episode 0.00144694055273
mentality 0.0
touching 0.000225667420954
retweet 0.00054559366822
goodmorning 0.0
midnight 0.0
expectations 0.0
joining 9.20810557692e-05
reasons 0.000227699516059
released 0.000136619709636
release 8.57919303046e-05
models 0.0
popped 0.000286118606724
within 9.97529156147e-05
standing 0.000268074067058
valentines 0.000186395664107
justice 5.26115479464e-05
houses 0.0
purchase 0.00013414785608
dropped 9.64861679093e-05
conversations 0.0
seattle 0.0
strength 0.0001082643445
monica 0.0
incredibly 0.000110466198128
streets 0.000115066037661
private 0.000150466431452
inspirational 0.0
barbie 0.000121907419115
tables 8.91815887532e-05
affection 0.000124656068924
broski 0.0
pissing 0.00012971813096
designer 0.000171780717713
cooking 0.000200574862271
tattoos 0.000219670498004
direction 0.000119954840603
readyyyyy 0.0
exclusive 0.000139260803374
adrianalima 0.0
fashion 0.000169591960823
talkin 0.000183897715136
bitches 0.000109835249002
nailed 0.0
kitten 0.000114663754181
whomever 0.000133104877547
ruthless 0.0
teaching 5.96186801424e-05
chillin 0.0
philly 0.0
baddest 0.0
cheers 0.000121043614483
autumn 0.0
presents 0.0
flawless 0.0
unique 5.99774203014e-05
handed 0.0
taraji 0.0
victory 5.58764696082e-05
tribute 0.000322018289687
ballin 0.000133104877547
horror 7.76989786305e-05
females 0.0
catfish 0.0
action 0.00117536677717
wouldnt 0.0
recipient 0.0
whitney 0.000111831739526
continued 0.0
esther 0.0
letter 0.000337701587683
existence 0.0
papers 0.0
winter 0.0
sessions 0.0
replicating 0.0
foundation 0.000668575526968
syndrome 0.0
colorado 0.0
tremendous 0.0
public 0.000363325973645
cannot 0.000174397650331
brilliant 0.00105550272739
illustration 0.0
beware 8.69568099982e-05
globally 0.000101149825475
premieres 0.000464495404731
streaming 6.39584231902e-05
immigration 7.26438467165e-05
wrapped 0.000220198972465
studio 0.000163330674494
february 0.000115066037661
amazon 5.92632161949e-05
border 0.0
huffingtonpost 0.00551095695168
francis 8.95650700002e-05
january 0.0
relationships 0.0
tragic 7.069728953e-05
secure 0.0
countries 0.0
episodes 0.000563685397014
broadcast 0.000129123786269
tickled 0.0
livestream 0.0
potential 0.000107954817001
education 0.0
famous 0.0
unknown 7.76989786305e-05
exists 0.0
orders 0.0
microsoft 0.0
ability 5.68619154515e-05
director 4.87799618696e-05
accessible 0.0
correction 0.0
william 0.0
editors 0.0
yellow 0.0
passionate 7.09353516283e-05
treatment 0.0
ambassador 0.0
thanking 0.0
streamed 0.0
lovers 7.85607783754e-05
wrinkled 0.0
bridge 6.29729773469e-05
magazine 0.000108575107641
sincere 0.0
quotes 0.000321798475562
result 5.63660739471e-05
destruction 0.0
edition 5.2314424124e-05
prince 0.000396871524856
indiana 0.0
editorial 0.0
emotion 8.62426058917e-05
mistakes 0.0
inspiring 0.000474848682825
counter 0.0
disappointing 0.0
edited 0.0
spotlight 0.0
saddest 0.0
production 0.0
header 0.0
itunes 0.000387371358807
guests 6.12597067195e-05
snakes 0.0
charging 0.0
arriving 0.0
mysteries 0.0
dangerous 5.24627025194e-05
typically 0.0
saving 0.000170087796367
universe 0.0
victims 5.66959321223e-05
receive 5.50739044383e-05
proceeds 0.000469628318831
crossed 0.0
received 5.01554771507e-05
limitations 0.0
studying 0.0
conflict 0.0
petition 0.0
milestones 0.0
outstanding 6.707392804e-05
devastating 0.000144790272805
installment 0.0
signature 0.0
mistletoe 0.0
awards 0.000408037924997
shelves 0.0
smells 0.000171082542061
themed 0.0
sisters 0.000148861582953
banquet 0.0
danger 0.0
leading 4.95994243836e-05
member 0.0
dominant 0.0
distinguish 0.0
factories 0.0
distinct 0.0
distance 0.0
confirmed 5.68619154515e-05
behavior 0.0
collect 0.0
vanity 0.000104963520018
junior 0.0
communities 7.44307914767e-05
worldwide 0.0
canada 0.000208078205045
recognized 0.0
vessels 0.0
movement 5.21667084563e-05
segment 7.79841303214e-05
internal 0.0
information 5.29109573591e-05
easily 0.0
towards 5.68619154515e-05
october 0.00038220133206
belgium 0.0
european 0.0
caribbean 0.000113936199695
cities 0.0
arrives 0.0
extraordinary 0.000264029907594
exquisite 0.0
argentina 0.0
eliminate 0.0
genius 0.000933713069975
prepared 0.0
anthony 7.11748787332e-05
breakthrough 0.0
berlin 0.0
batman 0.0
upcoming 0.000220932396256
upgrade 0.0
singapore 0.0
crucial 7.44307914767e-05
scratch 8.38413051483e-05
collaboration 0.000163159159982
tested 0.0
acquire 0.0
honoring 0.000162533887035
holland 0.000109191878458
visually 0.0
neyocompound 0.0
inspire 0.000332152787479
ebonymag 0.0
spiketv 0.0
constant 0.000151518703133
sunset 0.0
tuning 8.62426058917e-05
gentleman 8.51952862482e-05
fulfilling 0.0
ayeeeee 0.0
stratford 0.0
poland 0.0
philippines 0.0
kickin 0.0
theweeknd 0.0
september 5.47574552829e-05
manchester 7.09353516283e-05
rickyrozay 0.0
remarkable 0.000134581540006
rihanna 0.0
disgusted 0.0
immoral 0.0
process 4.9737694624e-05
goosebumps 0.000113936199695
performances 0.000229736442241
strangers 0.0
emotions 0.0
judgement 0.0
comparing 0.0
thuggin 0.0
studios 0.0
jennifer 0.000310795914522
performer 0.0
literally 0.000192972335819
cardiff 0.0
soooooooo 0.0
crashed 0.0
cthagod 0.0
closed 5.5553455043e-05
justinbieber 0.000100634281095
complexmag 0.0
billboard 8.22124887608e-05
airing 0.0
albums 0.000291614637379
sweden 0.000154831801577
katyperry 0.0
treats 0.0
missouri 0.0
thefader 0.0
soundtrack 0.000261956661969
theellenshow 0.000831815769524
sweets 0.000249312137847
festival 0.000172092465262
wizkhalifa 0.0
amsterdam 9.96232364133e-05
backstage 7.02254894295e-05
collab 0.000105540168072
subscribed 0.0
joined 4.79773966997e-05
davidguetta 0.0
pushing 6.23934674105e-05
hopeful 0.0
romantic 0.0
mentions 0.0
lurking 0.0
ballad 0.0
teamed 0.000413132512813
exclusively 0.0
kingjames 0.0
hollyrpeete 0.0
sneakers 0.000122802240862
auction 0.000155968260643
sneaker 0.0
djkhaled 0.0
express 6.03394976261e-05
thegrammys 0.0
throughout 0.0
shining 0.0
excellence 0.0
thrown 7.41704357787e-05
zendaya 0.0
playin 0.0
applemusic 0.000209927040036
crunch 0.0
capitalofficial 0.0
filmed 0.000149913572793
toronto 0.0
naomicampbell 0.0
trvisxx 0.0
killin 0.0
trucks 0.0
stands 5.41321722501e-05
platinum 0.0
native 0.0
spotify 0.0
rocked 0.0
jumped 7.88523380287e-05
leebruhgreene 0.0
leaning 0.0
featured 0.000183779120159
announce 0.0
senior 0.0
iamdiddy 0.0
haters 0.000164424977522
nothin 0.000102738741263
appreciation 8.45124085271e-05
defjamrecords 0.0
floating 0.0
superstars 0.0
shondarhimes 0.0
premiere 0.00108054118116
orchestral 0.0
makeup 0.000419206525742
touched 0.0
newest 6.29729773469e-05
designed 0.000240632151768
passes 0.0
angelasimmons 0.0
tidalhifi 0.0
vashtie 0.0
delivered 6.33641668881e-05
owning 0.0
producer 0.00021209186859
balmain 0.0
legendary 0.0
independence 0.0
mtvmusicuk 0.0
audition 0.00030984938461
debuts 8.95650700002e-05
footage 6.37593279647e-05
marshall 0.000185554076846
spends 8.91815887532e-05
playtime 0.0
completed 8.00409199002e-05
dishes 0.0
photographed 0.000222309600346
bubble 7.36548913977e-05
belong 0.0
tongue 0.000417550216522
observing 0.0
consistent 0.0
posing 0.0
heavens 0.000127613670791
contemporary 0.000237041345056
aiming 0.0
ceremony 6.95283418666e-05
brighter 0.0
rainbow 0.00015948070891
matthew 7.44307914767e-05
phenomenal 0.0
affected 0.000120316075884
rivers 9.58228511652e-05
presenting 0.0
competitive 0.000156542772944
eskimo 0.0
sibling 0.0
dakota 0.0
printed 0.0
heroes 5.94405423865e-05
deepest 0.0
describe 0.000113061307215
hollywood 0.000458913240698
baggage 0.0
terrifying 7.65788140804e-05
animation 0.0
nationwide 0.0
capital 7.02254894295e-05
quantity 0.0
nominations 0.00015948070891
mountains 0.0
mosaic 0.0
realise 0.0
overload 0.0
photographer 0.000160687648799
depression 0.0
donation 0.000264029907594
marvelous 0.0
madonna 0.000331468299004
sailed 0.0
terror 0.000146799314977
rinsed 0.0
disorder 0.000114663754181
polish 9.19488575682e-05
represents 0.0
touchdown 0.0
creates 0.0
oxford 0.0
stitched 0.0
morocco 0.0
thrill 0.0
balloons 0.0
teaming 0.0
latimes 0.0
kerrywashington 0.0
caution 0.0
camouflage 0.0
approaching 8.73188873229e-05
generous 0.000148340871557
installation 0.0
benefiting 0.0
basics 0.0
confirm 0.0
thrilling 0.0
photography 0.0
matches 0.0
boundaries 0.0
singles 0.0
laptop 0.0
obvious 6.60074768986e-05
darling 9.27770384229e-05
celebrations 0.0
chewbacca 0.0
underwater 0.0
naughty 0.000194409758253
advised 0.000104963520018
feelin 0.0
macaroni 0.0
perfection 0.000364551726971
picasso 0.0
recipe 8.12669435173e-05
radical 8.15795799911e-05
volcano 0.0
planted 0.0
products 0.00014139457906
directed 6.66438349156e-05
grabbed 0.000110489433001
frames 0.0
casual 0.0
scheming 0.0
twickenham 0.0
bbcnews 0.0
pledge 0.0
subtle 0.0
embarrassed 0.0
snatch 0.0
unveiling 0.0
kissed 0.000127613670791
arguments 8.18947479619e-05
settling 0.0
desperate 0.000148340871557
executive 0.000259877871486
humbled 8.35100433044e-05
courage 6.43596951124e-05
dropping 0.0
carried 0.0
behalf 6.99917167645e-05
hardest 7.19024332194e-05
marking 0.0
vision 0.0
intervention 0.0
records 5.90866942066e-05
deeply 0.000314864886734
mannered 0.0
texted 0.0
israeli 0.0
strongest 0.0
rogers 0.0
concept 0.0
allegiance 0.0
belongs 0.0
intended 0.0
bosses 0.0
purpose 0.0
hottest 7.63037385064e-05
campaigns 0.0
sunderland 0.0
teenager 0.000102738741263
runway 0.0
steven 0.0
guitar 0.00033272630781
donating 0.000281842698507
applause 9.23607453454e-05
finale 0.000686178200729
wasted 0.0
absent 0.0
awhile 0.0
fierce 9.19488575682e-05
sincerely 0.0
apology 0.0
climbing 0.000202299650951
unwilling 0.0
protesting 0.0
bikini 0.0
friendships 0.0
matching 0.0
wolves 0.0
mosque 0.0
venezuela 0.0
donates 0.0
generations 0.0
underestimate 0.0
pardon 0.0
stickers 0.0
mothers 0.0
deeper 8.2855859305e-05
nipple 0.000154593060488
perfume 0.0
noodle 0.0
melissa 0.00160629968
forest 0.0
panties 0.0
jimmykimmel 0.000958228511652
everytime 0.000101672290122
underdog 0.0
shoulders 0.0
wrapping 9.863779057e-05
bedroom 9.07387176614e-05
glitter 0.0
stocking 0.0
annoyed 0.0
behave 0.000104395290485
goodbye 0.000367558240317
fuckin 0.0
seller 0.0
joshgroban 0.000145500062225
samsungmobileus 0.000309186120976
influential 0.0
slicing 0.0
ryanseacrest 0.000106719744152
farmer 0.0
teaser 0.000181477435323
styled 0.0
casting 0.0
imitated 0.0
forgiveness 0.0
perezhilton 0.000109835249002
blacked 0.0
paparazzi 0.00127613670791
peoplemag 0.0
rolled 0.0
vanityfair 0.0
rockstar 0.0
thousand 0.000144296010424
minded 0.0
shines 0.0
sunglasses 0.0
auntie 0.0
magazines 0.00012017722175
waited 8.15795799911e-05
denmark 0.0
leather 0.0
wished 0.000100634281095
ladygaga 0.000199246472827
swallow 0.0
glblctzn 0.0
shakira 0.0
accessories 0.0
nbcthevoice 0.000125617180267
clique 0.0
premiering 9.03435565849e-05
loooooove 0.0
weareheremvmt 0.0
looooove 0.0
vmagazine 0.0
popcrush 0.0
studded 0.0
yassssss 0.0
yessss 0.0
undeniable 0.0
unicef 0.0
auditions 0.000287822292874
ellemagazine 0.0
yasssss 0.0
pharrell 0.000104395290485
greece 0.0
papermagazine 0.00013813418987
nowwwww 0.0
maccosmetics 0.0
macaidsfund 0.0
lipstick 0.0
meeeee 0.0
newsstands 0.0
unapologetically 0.0
insidebates 0.0
legalize 0.0
loooove 0.0
caradelevingne 0.000150697508856
allllll 0.0
badgalriri 0.0
itsjeremyscott 0.0
nickiminaj 0.0
nipples 0.0
booooo 0.0
trippy 0.0
mikewillmadeit 0.0
puttin 0.0
trappin 0.0
alexanderwangny 0.0
karllagerfeld 0.0
celebratin 0.0
lilyallen 0.0
fuuuuuck 0.0
chanel 0.0
rubber 0.00019727558114
angelou 0.0
misses 0.0
harpersbazaarus 0.0
timberlake 0.0
photoshopped 0.0
whatchu 0.0
rehearsals 0.0
couture 0.0
mutual 0.0
creeper 0.0
cuddling 0.0
celine 0.0
theamas 0.0
thexfactor 0.0
websterhall 0.0
presale 0.0
deluxe 0.0
styles 9.53728689081e-05
wetten 0.0
shittttttttttt 0.0
boredom 0.0
darealamberrose 0.0
noooooooo 0.000301395017712
itunesmusic 0.0
cbstweet 0.0
thermal 0.0
mariners 0.0
torres 0.0
thebeatles 0.0
blondies 0.0
greeting 0.000327575635373
thecut 0.0
geeked 0.00016128199349
outlet 0.0
americanexpress 0.0
gqmagazine 0.000117718107358
nicole 0.0
bumped 0.0
hangover 0.0
stockholm 0.0
casually 0.0
esquire 0.0
winnipeg 0.0
begging 0.0
showroom 0.0
sleeves 0.0
smelling 0.0
guaranteed 8.41754104763e-05
obsession 0.000244738739973
attendant 0.0
aussie 0.0
tbsveryfunny 0.0
reservation 0.0
mollymcnearney 0.0
dragging 0.0
rocnation 0.0
tapered 0.0
badass 0.0
endlessly 0.0
vampires 0.0
viewers 0.0
kanyewest 0.000121907419115
designers 0.00011616097845
billboards 0.000133104877547
backstreetboys 0.0
monteith 0.0
e_fashionpolice 0.0
epically 0.0
internationally 0.0
mighty 8.91815887532e-05
jcolenc 0.0
semifinals 0.0
brasilia 0.0
tailgating 0.0
photoshoot 0.0
smokin 0.0
ahhhhhh 0.0
missin 0.0
sweats 0.00013813418987
impacted 0.0
rodriguez 0.0
musician 0.000200250952098
merchandise 0.0
jurgen 0.0
athleteally 0.0
originals 0.0
número 0.0
zealand 0.0
hehehe 0.0
fearless 0.0
stadiums 0.0
thiago 0.0
suarez 0.0
cropped 0.0
uruguay 0.0
apparel 0.0
staircase 0.0
wintour 0.0
spotting 0.0
polygraph 0.0
twerking 0.000139500050424
shipment 0.0
muggin 0.0
takeoff 0.0
thailand 0.000117718107358
tomorr 0.0
googleplay 0.0
budweiser 0.0
miafestival 0.0
dotted 0.0
burning 0.0
surpass 0.0
betcha 0.0
onairwithryan 0.0
dreamers 0.0
brunomars 0.0
beyoncé 0.0
hellooo 0.0
subscribers 0.000105540168072
preorder 0.0
believer 0.0
fragrance 0.0
hellooooo 0.0
majesty 0.0
beatsbydre 0.0
finland 0.0
fearnecotton 0.0
debuted 0.0
queued 0.0
rhetorical 0.0
iranian 0.0
infamous 0.0
brutally 0.0
execution 0.0
palestinian 0.0
transplant 0.0
audacity 0.0
foreplay 0.0
priced 0.0
huntington 0.0
manger 0.0
weaker 0.0
justintrudeau 0.000122802240862
creeping 0.0
fittest 0.0
hoodie 0.0
mankind 0.0
westwood 0.0
holographic 0.0
throwin 0.0
eminem 0.0
ecstatic 0.0
enjoys 0.0
wussup 0.0
duplicated 0.0
crotch 0.0
congrat 0.0
huggin 0.0
implement 0.000103283128203
penalizing 0.0
gonzalez 0.0
bitchin 0.00017957595966
sephora 0.0
damien 0.0
demanded 0.0
negativity 0.0
alancarr 0.0
skillz 0.0
hopeless 0.0
beatle 0.0
cheesecake 0.0
almighty 0.0
whatcha 0.0
slumber 0.0
chimney 0.0
headlining 0.0
perplexed 0.0
googleplaymusic 0.0
thrills 0.00016128199349
rollers 0.0
bravotv 0.0
gifted 0.000316620504217
kekepalmer 0.0
styledtorock 0.0
yooouuu 0.0
shantay 0.0
yaaaas 0.0
bestest 0.0
freestyle 0.0
everrrrr 0.0
sweatband 0.0
podolski 0.0
collaborating 0.0
bestfriend 0.0
sittin 0.0
whaaaat 0.0
clockwork 0.0
warmest 0.0
temptation 0.0
spiritual 0.0
chameleon 0.0
customised 0.0
acrylic 0.0
grasshopper 0.0
engages 0.0
gourmet 0.0
rhythmic 0.0
petals 0.0
klinsmann 0.0
directv 0.000118520672528
popcrave 0.0
versailles 0.0
raddest 0.0
grandfather 0.0
persie 0.0
webster 0.0
knight 0.0
footwear 0.0
collectors 0.0
blackout 0.0
skylight 0.0
hammock 0.0
playhouse 0.0
revelers 0.0
executed 0.0
cincinnati 0.0
simultaneously 0.0
malawi 0.0
graduated 0.0
sickening 0.0
mueller 0.0
elonjames 0.0
skeletons 0.000166479440121
mittromney 0.0
connecticut 0.0
cumulative 0.0
racked 0.0
valera 0.0
thighs 0.00013813418987
timely 9.19488575682e-05
rapping 0.0
shrugs 0.0
enables 0.0
psychic 0.0
fernando 0.0
tourism 0.0
slaughtered 0.0
devotion 0.0
fantasies 0.0
parsons 0.0
stella 0.0
complainers 0.0
newsstand 0.0
voguemagazine 0.000115405167678
westfield 0.0
manolo 0.0
turquoise 0.0
parisian 0.0
childs 0.0
swimsuit 0.0
bazaar 0.0
empress 0.0
brainstorm 0.0
tanning 0.0
desirable 0.0
feathers 0.0
antics 0.0
featurette 0.0
olivier 0.0
helloooo 0.0
hallow 0.0
connie 0.0
upbringing 0.0
privatize 0.0
bittersweet 0.0
outlaw 0.0
marcel 0.0
nowwww 0.0
hushed 0.0
threshold 0.0
floats 0.0
barbados 0.0
manuelcav 0.0
niggaz 0.0
prayin 0.0
drizzyxcole 0.0
homegirl 0.0
rappin 0.0
witcha 0.0
mufasa 0.0
dainternz 0.0
lololol 0.0
barclayscenter 0.0
bestbuy 0.0
blackouts 0.0
rivera 0.000143911146437
jakemiosge 0.0
givenchy 0.0
riccardo 0.0
grossed 0.0
guetta 0.0
spicewon 0.0
bitche 0.0
shawty 0.0
wednesdays 0.0
payday 0.0
jewelers 0.0
romero 0.0
acknowledging 0.0
calypso 0.0
blushes 0.0
medusa 0.0
keepers 0.0
futuristic 0.0
whereabouts 0.0
slayed 0.0
asvpxrocky 0.0
haaaaa 0.0
inezandvinoodh 0.0
calvinharris 0.0
_maxwell_ 0.0
bwerde 0.0
edward_enninful 0.0
haaaaaa 0.0
wisest 0.0
unconditionally 0.0
drmayaangelou 0.0
blackgirlsrock 0.0
submissive 0.0
rearrange 0.0
attuned 0.0
abrams 0.0
awaken 0.0
climbs 0.0
jacking 0.0
seventy 0.0
snatching 0.0
manoloblahnik 0.0
nicolerichie 0.0
openingceremony 0.0
whiteley 0.0
supermodel 0.0
the_real_iman 0.0
minogue 0.0
tmagazine 0.0
baaaaack 0.0
yeessss 0.0
wooooo 0.0
epicness 0.0
takawiraa 0.0
joplin 0.000166479440121
uncensored 0.0
unspeakable 0.0
rewrites 0.0
askdrruth 0.0
glozell 0.0
tardiness 0.0
runways 0.0
colombian 0.0
unapologetic 0.0
zac_posen 0.00017957595966
rumoured 0.0
omgggg 0.0
futbol 0.0
biatch 0.0
barrington 0.0
catwalk 0.0
sledgehammer 0.0
clemente 0.0
dollaz 0.0
mariah 0.0
granddad 0.0
iyanlavanzant 0.0
hustler 0.0
coletteparis 0.0
flexin 0.0
mistress 0.0
exceeds 0.0
sweeeeeet 0.0
stancesocks 0.0
serviced 0.0
issssss 0.0
lipglass 0.0
externally 0.0
complex_uk 0.0
prideful 0.0
dash_radio 0.0
holidaze 0.0
mawnin 0.0
champagnepapi 0.0
fashawn 0.0
raided 0.0
ahhhhhhhh 0.0
soulmate 0.000172479451922
motorbikes 0.0
britishvogue 0.0
gnlstudios 0.0
robinsoncano 0.0
debuting 0.0
cc_sabathia 0.0
colorways 0.0
hit_boy 0.0
_spyda 0.0
phresh 0.0
dominates 0.0
ratchet 0.0
rupaul 0.0
cockpit 0.0
kimmiekyees 0.0
horoscope 0.0
catwalks 0.0
paramedic 0.0
fhollande 0.0
sexiness 0.0
hereeee 0.0
changers 0.0
tiptoes 0.0
revved 0.0
meditative 0.000215240772883
fauntleroy 0.0
mbsings 0.0
disrespectfully 0.0
traumatized 0.0
outdid 0.0
elvispresley 0.0
toupee 0.0
josephine 0.0
discography 0.0
mariasharapova 0.0
chinchilla 0.0
skylar 0.0
illestbaba 0.0
georgiamjagger 0.0
pierced 0.0
hardrock 0.0
snorkeling 0.0
thrilla 0.0
gunpoint 0.0
sleeved 0.0
stevestoute 0.0
kiiiiiiiiiiiiinnnngggggg 0.0
lanvin 0.0
chateau 0.0
lizzs_lockeroom 0.0
prophets 0.0
müller 0.0
lullaby 0.000166479440121
samersum 0.0
disassembled 0.0
anniversaries 0.0
hayden_williams 0.0
rousteing 0.0
slayage 0.0
raunchy 0.0
benzema 0.0
fuckery 0.0
hellooooooo 0.0
juliagillard 0.0
congeniality 0.0
gunned 0.0
condense 0.0
missjillscott 0.0
yussss 0.0
chopard 0.0
woodbridge 0.0
orousteing 0.0
dubsmash 0.0
alicialquarles 0.0
worldmcqueen 0.0
whateva 0.0
elysées 0.0
jennnrosales 0.0
xstrology 0.0
looool 0.0
tippin 0.0
marleys 0.0
dwanimation 0.0
dreamworks 0.0
yaself 0.0
anothermagazine 0.0
claralionelfdn 0.0
mchingi 0.0
rihannareplay 0.0
awtguide 0.0
ryannavy_rih 0.0
rihquest 0.0
gpforeducation 0.0
valliniandre 0.0
globalfund 0.0
rhenna 0.0
millymaefenty 0.0
peetes 0.0
pandagunda 0.0
floriamamaroma 0.0
adoringrihanna 0.0
ymcofficial 0.0
rihanti_ 0.0
mcdean 0.0
rihannadaily 0.0
stancemuse 0.0
muhtean 0.0
rihdefine 0.0
officialdonnie 0.0
stunnafenty 0.0
perfumesbyriri 0.0
badgal 0.0
shaninamshaik 0.0
reblrihanna 0.0
elliscole_ 0.0
itskaitbh 0.0
harpersbazaarcn 0.0
yusefhairnyc 0.0
mylahmorales 0.0
teamofrihanna 0.0
muhphucka 0.0
harpersbazaar 0.0
rihrihfreak 0.0
thenbacentral 0.0
roversi 0.0
suchaf_cknlady 0.0
fourfiveseconds 0.0
petergrayhair 0.0
wkorea 0.0
dennisleupold 0.0
ursulastephen 0.0
ozzysalvatierra 0.0
ciarrap 0.0
rihannaargntina 0.0
rihearsal 0.0
sremmurd 0.0
id_magazine 0.0
heauxm 0.0
rihpost 0.0
jrgseul 0.0
bitchez 0.0
underst_navy 0.0
sonitaalex 0.0
chris_walden 0.0
danachanel 0.0
wednesdayz 0.0
jimmyfenty 0.0
houseoffraser 0.0
skeete 0.0
_kailssss 0.0
muhphuckas 0.0
phuckin 0.0
rastafarih 0.0
obviiii 0.0
etherihalvibe 0.0
rorreyfenty 0.0
noellaalstrom 0.0
rihturn 0.0
tellar 0.0
esquireuk 0.0
huffpoststyle 0.0
tyronmachhausen 0.00024222016258
melottenberg 0.0
paolakudacki 0.0
tompecheuxmu 0.0
lgoldstein_ltd 0.0
phucking 0.0
kudacki 0.0
hellurrr 0.0
tom_ford 0.0
neakah 0.0
creepah 0.0
pahtna 0.0
wontonsan 0.0
cappadonna 0.0
phuckmarqy 0.0
elfies 0.0
starstunning 0.0
ohnana 0.0
tushmagazine 0.0
macxriri 0.0
rickrubin 0.0
findataui 0.0
tristate 0.0
distoyb 0.0
kabukimagicnyc 0.0
yerdme_cmb 0.0
hittas 0.0
evan_erogers 0.0
jessieriri 0.0
unfourgettable 0.0
meeeaan 0.0
shweinsteiger 0.0
goooooooaaaaallllllll 0.0
goooal 0.0
braaaaaaaaaaaaaaaaaa 0.0
asapkoff 0.0
belgiuuuuummm 0.0
druchaos 0.0
cuadrado 0.0
murdaaahhh 0.0
colombiaaaa 0.0
karafenty 0.0
dlsturbla 0.0
braaaaaaaaaaaaaaaaaaaaaa 0.0
abouuuutttt 0.0
takecarerihanna 0.0
nathannavy 0.0
theworidcup 0.0
goooooaaaaaaallllll 0.0
bazaararabia 0.0
bigshitxtalker 0.0
__tatijxo 0.0
lhhatl 0.0
braaaaaaaaaaaa 0.0
rihannanavyrd 0.0
gooooooaaaalllll 0.0
triscastellano 0.0
iiiiiiiiiiiiiiiiiiii 0.0
eatmydaisy 0.0
leggooooal 0.0
yaaaaaassssssss 0.0
prettygirl_sp 0.0
ooohhhhhh 0.0
shiiiiitttt 0.0
roooonnnnnnnneeeeeeeyyyyyy 0.0
muslera 0.0
tadpole 0.0
giusichrisriri 0.0
_xomec 0.0
blockedt 0.0
ooooohhhh 0.0
goooooooaaaaaaalllllllllllllllll 0.0
stefansaxon 0.0
rihannademos 0.0
dragonflycici 0.0
chririh 0.0
rihluminati 0.0
goaaaalllll 0.0
twinzies 0.0
mantlers 0.0
suchaf__cknlady 0.0
glamour_robyn 0.0
adamselman 0.0
sephorafrance 0.0
thefashionlaw 0.0
scout_willis 0.0
quietude 0.0
theblackvoice 0.0
weeeed 0.0
kiiiiss 0.0
dooooon 0.0
miiiiss 0.0
malinsworld 0.0
prompics 0.0
itsalldonn 0.0
goooorrrrrrlllllll 0.0
thenewdaily_ 0.0
wiggin 0.0
stevesoboroff 0.0
pivot_tv 0.0
lapolicefdtn 0.0
scarificing 0.0
whooooose 0.0
sambapologetic 0.0
bellaisevil 0.0
sta_schemin 0.0
i_aim_tyga 0.0
fameisloud 0.0
garcon_rebelle 0.0
itsbreezybiotch 0.0
phaedra 0.0
vivala_stephyy 0.0
_bossmadeg 0.0
kontomitrosnick 0.0
sorrenti 0.0
whenevahhh 0.0
teamvivanco 0.0
heifers 0.0
stevenkolb 0.0
jeremy_brossard 0.0
jordanbrossard 0.0
quilted 0.0
piscesareus 0.0
plumsykes 0.0
cedellamarley 0.0
offish 0.0
urprise 0.0
i_love_riri 0.0
rihannadiva 0.0
javiroo 0.0
frihday 0.0
cuntlifex 0.0
_chris_rated_ 0.0
yewmadcunt 0.0
erinwasson 0.0
balmainparis 0.0
_yadim 0.0
muthaphucka 0.0
onnneeee 0.0
liiiiieeesss 0.0
gautier 0.0
mtvstarsvotes 0.0
zinloves 0.0
chloefrahm 0.0
uprising_create 0.0
uprising_darren 0.0
jonnycrave 0.0
jeff_uprising 0.0
kareemfenty 0.0
daily_rihnavy 0.0
unapologeticunt 0.0
rorrey 0.0
foreverrr 0.0
guyanese 0.0
annndd 0.0
historih 0.0
grandfadda 0.0
arleta 0.0
loreleicakes 0.0
river_island 0.0
finallyyyy 0.0
rodin_thinker 0.0
mrs_toyac 0.0
cheersrihrih 0.0
bangbang 0.0
faiz_fenty 0.0
leandra 0.0
noella 0.0
rasshoooolllleee 0.0
luminati 0.0
inezvinoodh 0.0
visvim 0.0
realne 0.0
sarahfrancus 0.0
tadium 0.0
trapstar 0.0
afrihca 0.0
rihrobyn 0.0
cbsgirlfriend 0.0
shyronnie_rn 0.0
mariamfenty_ 0.0
mizzpmf 0.0
whooooaaaaa 0.0
camkaipink 0.0
yasssssssssssssssssssss 0.0
lunaxskye 0.0
yaaaaasssssss 0.0
niggggaaaaaaa 0.0
breeziechillin 0.0
betologetic 0.0
isusjsjdha 0.0
awffffff 0.0
mcdessikins 0.0
skreets 0.0
pieceofria 0.0
loooool 0.0
craaaazzyyy 0.0
lolarae_xoxo 0.0
stayflysamir 0.0
shotta 0.0
tamarawray 0.0
lauraleehickock 0.0
heauxz 0.0
rihannanavyit 0.0
manilla 0.0
ronnyerickson 0.0
nikofenty 0.0
vincehaycock 0.0
zodiacfacts 0.0
naomiiknows 0.0
wrizzap 0.0
muuuch 0.0
hongkong 0.0
jetlaaaaaagggged 0.0
rasshole 0.0
februharry 0.0
kaşara 0.0
çıkmadı 0.0
dicked 0.0
vinoodh 0.0
rihannasblog 0.0
urihannafansite 0.0
teejay 0.0
stupse 0.0
clapbacks 0.0
niggaaaazzzz 0.0
bwaaahaaaaa 0.0
willheardmusic 0.0
kristennoelgipson 0.0
rsvpgallery 0.0
backout 0.0
bwahhaaa 0.0
errwhurr 0.0
niiiiggaz 0.0
fridayz 0.0
debbycoda 0.0
cabbing 0.0
dolly_cohen 0.0
cowboyz 0.0
friendz 0.0
phucker 0.0
charliebymz 0.0
lynn_ban 0.0
inwardly 0.0
ravening 0.0
whyyyyyyyyyyyy 0.0
thatdamnlala 0.0
adamsellman 0.0
scottland 0.0
kingspleasure 0.0
mikkyekko 0.0
rihannanavide 0.0
saskoktz 0.0
phlawless 0.0
givenchydonc 0.0
mlle_yulia 0.0
oxxoxo 0.0
foreva_rn_ladii 0.0
skinhead 0.0
killaz 0.0
yennifer 0.0
bestofpisces 0.0
smegma 0.0
morganemiller_ 0.0
aa_davis 0.0
beenie 0.0
nickeystaar 0.0
frihannamorocco 0.0
thinketh 0.0
guitarists 0.0
jordriri 0.0
badgalclaudia 0.0
hausofnath 0.0
_abirogerson 0.0
tommykane 0.0
livenationuk 0.0
millenniu 0.0
juuuussttt 0.0
helllooooo 0.0
miiiine 0.0
chaneliman 0.0
blushy 0.0
laetitiacrahay 0.0
rihmix 0.0
dariuscash 0.0
joshkillss 0.0
drunk_cockiness 0.0
firebombfenty 0.0
mooky_mcnasty 0.0
defpenradio 0.0
iamrici 0.0
letcha 0.0
niggerish 0.0
mawazine 0.0
thefashionaddicts 0.0
phierce 0.0
errwhere 0.0
jocking 0.0
niggaaa 0.0
tami_black 0.0
homienadz 0.0
religiosity 0.0
joycemeyer 0.0
brooooklyyyyn 0.0
miiiiine 0.0
dilekkeysan 0.0
marykatrantzou 0.0
allaboutpisces 0.0
jfisherjewelry 0.0
oddhangover 0.0
diggins 0.0
phyliciaghee 0.0
bawsin 0.0
howeverrrrr 0.0
channyyxoxo 0.0
dowwwwnnnnn 0.0
thugbitch 0.0
rihanas 0.0
miiiiiinnneee 0.0
rihwrite 0.0
janiseeaileen 0.0
ratchify 0.0
eeeeeemmmmmm 0.0
pannies 0.0
wooooiiiiiiiiiii 0.0
muhphuckers 0.0
bashment 0.0
whaaaaattttt 0.0
liiifee 0.0
covery 0.0
leeeeaaaavvveeee 0.0
haarrrrrddd 0.0
ismashedriri 0.0
christabslg 0.0
reallll 0.0
peoplez 0.0
wooiiiiii 0.0
slackness 0.0
kevfenty 0.0
woooiii 0.0
tatiana_xo 0.0
fentynavysalute 0.0
ratchettt 0.0
rachael_deanna 0.0
lifeeeeee 0.0
bxdcfjcf 0.0
killled 0.0
asdfghjkjhgtfrdedfghjnhbgvfc 0.0
troy_fenty 0.0
_marrymerihanna 0.0
jkbwdhbwh 0.0
_noellaa 0.0
hunneds 0.0
thekingfly 0.0
dooown 0.0
woooiiiii 0.0
phucked 0.0
kickstand_ohb 0.0
acedemy 0.0
mistercap 0.0
gallest 0.0
sinsofmyfather_ 0.0
dwayneofficial 0.0
_revofev 0.0
joefenty 0.0
thegodlight 0.0
molestmerihanna 0.0
rihannanavyeu 0.0
melina 0.0
terryrichardsonstudio 0.0
_sexxtroversy 0.0
neuroticbxtch 0.0
getcho 0.0
moneyyy 0.0
idillionaire 0.0
yaaaaaaas 0.0
noxx_onite 0.0
phonefancy 0.0
chiefin 0.0
londonfashionwk 0.0
_mayor_ 0.0
rihannanow 0.0
jamrock 0.0
rihannastats 0.0
jenesismagazine 0.0
napmed 0.0
hausofbeyhive_ 0.0
probabily 0.0
badgalelly 0.0
ladylivja 0.0
rihannacomics 0.0
__glitterdick 0.0
chelsey_ba 0.0
stashbox 0.0
thuglife 0.0
highladayz 0.0
brrrap 0.0
kalifah 0.0
marylin 0.0
muthafucker 0.0
stylenetwork 0.0
bvalgari 0.0
oooonly 0.0
fuckyopictures 0.0
amplifydot 0.0
trappat 0.0
soumsluvriri 0.0
ibebossedup 0.0
holerringg 0.0
rihskillerdoll 0.0
equaled 0.0
chefette 0.0
rezilientkas 0.0
blastinggggg 0.0
dammnnn 0.0
lifeandtimes 0.0
hausofjazzy 0.0
kaykispeaks 0.0
condesa 0.0
awaaayyy 0.0
flawle 0.0
mandler 0.0
loudies 0.0
dulcattis 0.0
killaaa 0.0
_loveforrihanna 0.0
yesimkayla 0.0
rollingnostone 0.0
richkunt 0.0
yasssssss 0.0
eriricccccc 0.0
cuntmeout 0.0
sashay 0.0
condragulations 0.0
neverrr 0.0
phasetoo 0.0
fooooorde 0.0
ruunavi 0.0
rihtweet 0.0
ishoobernator 0.0
thirstiest 0.0
j_dimps 0.0
deecosey 0.0
itsrihannasnavy 0.0
muthaphuckin 0.0
