awesome 0.000111962796448
christmas 0.000390807715194
trying 0.000453436140134
launch 0.0
moment 0.000455887367583
wonderful 0.000113185916107
seeing 0.000414069743617
hanging 0.000254051099316
sounds 0.000107505287737
contacts 0.0
anybody 0.000154531185539
worked 0.000272422719815
direct 0.0
others 5.4190492958e-05
currently 0.000179798617269
better 0.00119619601886
please 0.00015155335984
social 0.000451514905348
anxiety 0.0
around 0.000697781011004
people 0.00204350153223
morning 0.000501109149598
damage 0.0
everything 0.00110244012912
present 5.70566032648e-05
though 0.000521793238304
friend 0.000302290760089
watched 5.65929580536e-05
beautiful 0.000206477204303
demanding 0.0
anything 0.000407424056341
tagged 0.0
helped 0.000109857798136
thinking 5.12033751507e-05
finally 0.00071684725211
caught 0.0
believe 0.000749640387541
already 0.000699664361705
couple 0.000547803400881
launches 8.53383871554e-05
chance 0.000250554574799
annual 0.000202109526853
quickly 0.0
growing 0.000480781102918
probably 0.000217349206434
changed 0.000589682992612
history 0.0
center 0.000262720552279
museum 8.70092084369e-05
behind 0.000647939510218
screaming 0.0
pretty 0.000153610125452
really 0.00175388202359
possibly 0.0
little 0.000299856155017
happiest 0.0
earlier 0.000234535990383
forget 0.000355536239874
someone 0.000202071146454
things 0.000598098009432
available 0.00244582017464
perfect 0.000260896619152
different 0.00020371202817
person 0.000351723190932
watching 0.000705345106875
exhibit 0.0
passed 0.000122195670649
prefer 0.0
minutes 0.000207034871809
travel 6.12665038467e-05
daughter 0.0
positive 0.000118883638364
outside 0.000106062672088
looking 0.000399808206689
forward 0.000257401365447
raising 7.15506213341e-05
impression 0.0
wheels 0.0
favorite 0.00145388788784
instead 0.000225757452674
appreciate 0.000648511124588
couldn 0.000573972562134
remember 0.000801774639357
impressive 0.0
vintage 0.000228396608862
holidays 0.000143101242668
friends 0.000352672553437
impossible 0.0
everyone 0.000952107384236
always 0.00164476952594
limited 0.000724515868073
months 0.000261601591345
moving 0.000269490833011
meeting 0.000205366527318
answer 0.000154024895489
together 0.00115566191306
inside 5.21793238304e-05
upstairs 0.0
missed 0.000253954457053
active 0.0
eventually 0.000182280907597
longer 0.000115678120954
enough 0.000253270759769
building 0.000168858720473
enjoying 0.00036759902308
london 0.000894074499445
posting 7.52123344424e-05
recent 6.62370321404e-05
amazing 0.00119942462007
attention 0.000113494055461
tomorrow 0.00295654398263
whenever 8.24135133529e-05
feeling 0.000419693701538
excited 0.00099408604711
understand 0.000163896667776
following 0.0
asleep 0.0
learning 0.000124237032121
evening 0.000114736227317
special 0.00146501581179
secret 0.000112267172262
across 5.5981398224e-05
surprised 0.000179305949599
candles 0.0
sophia 0.0
version 0.000332263508541
rather 0.000168858720473
showing 0.000213851467541
saying 0.000156960954807
thoughts 0.0
exactly 0.000162571478874
getting 0.000801774639357
nothing 0.000350776404719
tweets 5.52273520601e-05
photos 0.000363571366176
looked 0.000170704725431
difficult 0.0
office 5.4190492958e-05
brought 0.000777386441619
biggest 0.000103238602152
thrilled 0.0
entire 0.0
something 0.00130288378895
closing 7.45462911129e-05
anyone 0.00015155335984
taking 0.000801774639357
interesting 0.0
original 0.0
flying 6.29853466184e-05
sometimes 0.000552273520601
yesterday 0.000707249012588
serious 0.000214430179132
digital 0.0
wearing 0.000117589035732
british 0.0
either 0.000109264445184
second 0.000101035573227
checking 0.0
indeed 0.0
island 0.000212794392881
hearing 0.000167944194672
staying 0.0
another 0.00119942462007
compare 0.0
bummer 0.0
clothes 0.0
landing 0.0
weekend 0.000609490696928
delivery 0.0
secretive 0.0
anyway 0.000129531178921
recognize 0.0
working 0.000952107384236
bigger 0.000235178071463
laughing 0.00101051092609
wanted 0.000354579063676
clothing 0.0
grateful 0.000261983523702
friendship 0.0
family 0.00145321653383
listening 0.00131829357763
stream 0.00124058617178
double 0.000113494055461
especially 0.000111055205946
shaking 0.0
waiting 0.000564757950126
definitely 0.000328682040528
account 0.0
completely 0.0
thought 0.000252588933067
possible 0.000106062672088
simple 0.0
professional 0.0
members 0.0
business 0.000108088230928
absolutely 0.000107215089566
sending 0.000116311031027
introducing 0.0
congrats 0.00205153686567
community 6.17759614419e-05
keeper 0.000138213837818
greatest 0.000493023060793
selfie 7.49893295925e-05
pasadena 0.0
posted 0.00148198010067
saturday 0.000740436462179
designs 0.0
broken 0.0
chicago 0.00143093182035
glimpse 0.00011371204203
actually 0.000205366527318
myself 0.000262720552279
pajamas 0.0
school 0.000254640035213
throwback 0.0
thursday 0.000428860358263
selling 0.000137057998396
talented 0.000131730157832
celebrate 5.53772514235e-05
celebrating 0.0
anniversary 0.000181785683088
contest 0.0
experiences 9.33420136106e-05
students 0.000199272164631
figure 5.99328724228e-05
featuring 0.000325646988254
inspired 0.000181785683088
breeze 0.0
sitting 0.000113185916107
playing 0.000509280070426
street 0.0
points 0.0
advice 0.000176383553598
memory 0.0
forever 0.000565929580536
imagine 0.000279148367996
problem 5.37526438687e-05
played 0.000391869787568
keeping 0.000111962796448
lovely 0.0
dressed 0.0
chinese 8.08876339576e-05
sunshine 0.0
afternoon 5.89555567807e-05
notice 6.79460510231e-05
difference 0.00027390170044
suppose 0.000385293828747
letting 0.000123211125965
system 0.0
mutant 0.0
bathroom 0.0
almost 0.000952107384236
details 0.000164341020264
experience 0.000261601591345
luckily 0.0
viewed 0.0001198858829
living 0.000418562546151
weather 0.00012809168818
bright 7.05229251148e-05
launching 0.0
colors 0.0
monday 0.000156960954807
walked 7.54363415645e-05
pinned 0.0
wanting 7.89231826136e-05
tweeting 0.0
forgot 0.000188432310765
gorgeous 0.0
herself 0.0
happens 5.18985259002e-05
learned 0.0002899851842
congratulations 0.00038659146442
raised 0.0
mission 6.79460510231e-05
smelled 0.0
unforgettable 0.000116192230348
forgotten 0.0
trouble 0.0
channel 0.0
fantastic 0.0
loving 0.000118234235405
hardly 0.0
dining 0.0
complete 0.000230098408063
daniel 8.81550405276e-05
rewarding 0.0
spirit 0.00019484148484
finding 0.000428865526927
stories 0.0
including 5.56784094442e-05
somewhere 0.000783747629354
conversation 0.0
disrespectful 0.0
making 0.00104949654256
expect 6.00976378647e-05
polite 0.0
brings 6.04288118459e-05
anytime 0.0
needed 0.000427702935081
seriously 5.53772514235e-05
modern 0.0
welcome 0.000101308303907
moments 0.000249162721241
jacket 8.84456623469e-05
halloween 7.52123344424e-05
costume 0.0
totally 0.0
flight 0.000120195275729
attached 0.0
finished 0.0
strong 0.000154857903227
message 0.000265873824612
coming 0.00129937667174
temporary 0.0
challenge 0.000109857798136
achievement 0.0
unlocked 0.0
happen 0.000153196502775
celebrated 9.77080323529e-05
giving 0.000354579063676
excellent 0.0
common 0.000247787777839
pressed 0.0
company 5.67470277305e-05
change 0.00335743130231
singing 6.69893709651e-05
silver 0.0
august 0.0
crying 7.89231826136e-05
happened 0.000158237131848
parking 0.0
demand 0.0
sacrifice 0.0
personal 0.0
beyond 5.5981398224e-05
question 5.12033751507e-05
chicken 0.0
position 0.0
losing 0.0
respect 0.000328682040528
caption 0.0
shouldn 0.0
career 0.00017446654654
reason 0.0
explore 0.0
glamorous 0.0
reality 0.0
burned 0.0
without 0.000202071146454
problems 6.17759614419e-05
countdown 0.000182280907597
online 0.000107796333204
animals 0.0
buying 0.000203838153069
pictures 0.0
underneath 0.0
camera 0.000130991761851
checked 0.0
heading 0.000298024833148
complex 0.000659308106823
sunday 0.000672863333378
nights 0.000443334186171
traffic 0.000150424668885
through 0.000210959713393
changing 0.000184307235296
diapers 0.0
convinced 8.87379887027e-05
capture 0.0
random 7.30259531717e-05
recorded 0.000456686806093
november 0.00053743394863
number 0.000513416318296
stupid 6.97157576638e-05
grandparents 0.0
recording 0.000160778429592
chocolate 0.0
unless 6.17759614419e-05
calling 0.0
mermaid 0.0
levels 0.000385166155197
package 0.0
option 0.0
knowing 6.93170235309e-05
actual 0.0
friday 0.00121898139386
achieve 0.0
winner 0.0
becomes 0.0
directly 0.0
quality 0.000259062357842
father 0.000171169809794
wishes 6.53123024462e-05
themselves 0.0
asking 0.000106062672088
usually 0.0
period 0.0
resist 0.0
collections 0.0
summer 0.000864705847428
bracelet 0.0
reminded 0.0
dinner 5.53772514235e-05
single 0.00118724392474
catching 0.00022232146832
energy 0.000298024833148
preview 0.0
monster 0.0
material 0.0
events 0.0
europe 0.000693170235309
holiday 0.000288407916252
emotional 0.0
affects 0.0
holding 5.9279204027e-05
survive 0.0
eating 0.000125273606469
outfit 0.000102881420327
missing 0.000160388600655
surprise 0.000321645268697
german 0.0
officially 0.000350843955843
french 0.0
global 0.0
follow 0.000100763586696
design 0.0
improvement 0.0
website 0.0
breaks 0.0
negative 7.30259531717e-05
official 0.000569345897474
jersey 0.000168509667189
france 0.000417095951173
lighter 0.0
thinks 0.0
hospital 7.30259531717e-05
jealous 0.0
successful 0.0
trending 0.0
leadership 7.84439337213e-05
showed 0.000251941386474
attended 0.0
circle 0.0
interested 0.0
effect 0.0
success 0.000282964790268
ladies 0.0
dreams 0.000263460315663
protect 6.42248083783e-05
arguing 0.0
essence 0.0
control 0.000111962796448
happier 9.14490708883e-05
likely 0.0
cancel 0.0
project 0.000452743664429
laying 0.0
lesson 6.97157576638e-05
fridays 0.0
invited 0.0
treating 0.0
allowing 0.0
remote 0.0
opening 0.0
alcohol 0.0
popular 6.85289991982e-05
pedestal 0.0
designing 0.0
followed 0.0
enjoyed 0.0
spectacular 0.0
recovered 0.0
length 0.0
matters 6.58650789158e-05
factor 0.0
england 0.0
shared 0.0
benefit 6.2810770255e-05
continues 6.10978353243e-05
fathers 0.000100598204301
kitchen 0.0
exciting 0.000120195275729
corner 7.15506213341e-05
spring 0.000320229220449
fallen 0.0
victoria 0.000111349443303
tornado 0.0
typical 0.0
continue 0.0
creative 0.000212180328354
excuse 0.0
female 0.000133600437865
closer 0.0
accent 0.0
beginning 0.000188956039855
sooner 0.000198989314716
everywhere 0.000717223798397
scenes 0.00044707264073
wishing 7.25999548452e-05
choices 8.11387251727e-05
unpredictable 0.0
become 5.23203182689e-05
photographs 0.0
spread 5.72121150939e-05
season 5.52273520601e-05
putting 0.000157810528129
annoying 0.0
quietly 0.0
extending 0.0
stance 0.000679076559438
sleepy 0.000135895210422
returns 6.71792435787e-05
bucket 9.43161456111e-05
condolences 0.000109536825337
register 0.0
flowers 0.0
define 0.0
somebody 0.000224301954258
chicks 0.0
covering 7.74990428485e-05
repeat 0.000279665309416
football 0.0
brothers 0.000153603895116
player 0.000139832654708
physical 0.000166914705137
series 0.000163453631889
pretend 0.000175732206964
fighting 0.0
atlanta 0.00017345363915
mexico 7.23883133349e-05
president 5.56784094442e-05
talking 0.000150738510399
america 0.000479867469636
greats 0.0
everybody 0.00154439903605
judgment 0.0
amount 7.03199044643e-05
houston 0.000341353548621
everyday 0.00049795897583
shooter 0.0
attitude 0.0
million 0.000420828075009
honesty 0.0
telling 5.69015751436e-05
pulled 0.000300849337769
attack 0.00019375402912
killed 0.00150740118718
horrible 0.0
norman 0.0
salute 0.000312190462821
jacksonville 0.0
barackobama 0.000289998035415
lilduval 0.0
liquor 0.0
american 0.0
realist 0.00127627828565
remain 0.0
innocent 0.0
pieces 7.41071561066e-05
taught 7.38890310286e-05
golden 0.00020268351797
straight 0.00161030048621
forgive 0.000101347714677
answers 0.0
product 0.0
smoking 0.000199719596382
created 0.0
record 0.00047088286442
weapon 0.0
bottom 0.0
arrangements 0.0
africa 0.0
committed 0.0
journey 6.51293976509e-05
brother 0.00085536969454
prayers 0.000392219668606
documentary 0.00029995731837
addition 0.0
honestly 0.000572404970673
velvet 0.0
country 0.000517587179521
speedy 0.0
dressing 0.0
employee 0.0
yoooooo 0.0
prayer 0.00011089007138
nominated 0.000225637003327
praying 0.0
insane 0.000518750092746
illest 0.0
shooting 0.000187910409703
cancer 0.0
australia 0.000222978719938
marijuana 0.0
deserve 0.000921536176478
legend 0.000668002189325
mother 0.000167489020797
murder 0.0
realest 0.000175193108568
powerful 0.000183293505973
attendance 0.000123285484447
wisdom 0.0
breaking 5.38981666022e-05
bothered 0.0
angeles 0.000261879619082
dollars 0.0
soldiers 0.0
performance 0.000811958515761
reading 0.000106349529845
videos 0.00077501611648
jordan 0.0
nobody 0.000122871490197
politics 0.0
paradise 0.0105155352324
blessing 0.00106098117079
coolest 0.000177475977405
strippers 0.0
charities 0.0
donate 6.75611726567e-05
bullshit 0.000191966481686
sample 0.0
rocking 8.45235215808e-05
bringing 0.000281431200789
deserves 0.000266447128128
hilarious 0.0
victim 0.0
stadium 0.000423968329389
funniest 0.0
heaven 0.000158814168961
ruined 0.000109536825337
honest 0.000124581360621
rolling 7.52123344424e-05
became 0.0
driver 0.0
breakfast 0.0
decision 0.0
counting 0.0
pressure 6.81396104928e-05
awareness 0.0
dearly 0.0
lastnight 0.000206523907561
facebook 0.0
basketball 9.59832408432e-05
campaign 0.00017446654654
twisted 0.0
defined 0.0
discover 0.0
comments 0.0
giveaway 0.000119341161623
bipolar 0.0
teenage 0.0
williams 7.9895730559e-05
custom 0.000100598204301
singer 0.0
future 0.000154857903227
randomly 0.0
angels 0.0
blessed 0.00343556510297
sister 0.000134739684569
stripper 0.0
dancing 7.03199044643e-05
reigns 0.0
voting 6.17759614419e-05
niggas 0.000629221812939
commercial 0.000137449680635
hating 0.0001198858829
boring 8.67268195751e-05
century 0.0
acting 0.0
submit 0.0
besides 0.0
hiding 0.0
periscope 0.0
breath 8.50652823581e-05
choosing 0.0
lawrence 0.0
instagram 0.0
detroit 0.0104184066991
cousin 0.0
honored 0.000278063967449
dedication 0.000211368984584
rockin 0.000347058662752
fucked 0.000394675298422
lionelrichie 0.0
talent 0.000133600437865
goodnight 0.0
stores 0.000817503623122
drinking 0.0
brazil 8.99247471683e-05
tattoo 0.0
consecutive 0.0
regardless 8.84456623469e-05
staring 0.0
commitment 0.0
seconds 0.00013397874193
ohhhhhh 0.0
listen 0.00160452025652
whatever 5.75246020158e-05
wherever 0.0
kicking 0.0
compete 0.0
lauderdale 0.0
homies 0.000892474801055
billion 0.0
belated 0.0
pirate 0.0
shoutout 0.000189290267219
grammy 0.000118269260078
guilty 0.0
ceiling 0.0
grammys 0.0
absolute 7.34556239429e-05
nelson 0.0
mandela 0.0
bigsean 0.110792882962
handle 0.0
tonite 0.00011323047789
cocaine 0.0
promise 0.00029720909591
longest 0.0
generation 0.0
tuesday 0.000170704725431
struggle 0.0
workout 0.0
character 0.0
mirror 8.1644734603e-05
interview 0.000712992098596
buffalo 0.00011323047789
justin 8.42548335943e-05
insights 0.0
winning 5.34628668851e-05
oxygen 0.0
espnnfl 0.0
charlotte 0.000102108668401
accomplished 0.0
defense 0.0
gettin 0.000325963955554
arabia 0.0
lmfaooooo 0.0
writing 0.0
soccer 0.0
society 0.0
brooklyn 0.0
incredible 0.000810661731964
witcho 0.0
celebrity 0.0
minute 0.000225757452674
foreign 0.0
cherry 0.0
champs 0.0
murdered 0.00010693580908
evidence 0.0
android 0.0
sneaking 0.0
clearly 6.35127748289e-05
download 0.000636540985061
mixtape 0.00141525028815
central 0.0
washington 0.0
veterans 9.80602705736e-05
stronger 7.96508086864e-05
promised 0.000739403405677
marcus 0.0
zombie 0.0
throwing 0.0
security 0.0
fastest 0.0
fantasy 0.0
turning 0.000125273606469
ignore 7.17587281115e-05
fucking 0.000365796283553
tickets 0.00193904728627
collector 0.0
prizes 0.0
december 0.0
loyalty 0.000114198304431
return 5.53772514235e-05
escape 0.0
yassss 0.0
goddess 0.0
handsome 0.0
language 0.0
motion 0.000176310081055
gallery 0.0
movies 7.49893295925e-05
children 0.0
backpack 0.0
potentially 0.0
guardian 0.0
review 0.000119209933259
theaters 0.000106515203201
shhhhh 0.0
begins 5.99328724228e-05
closet 0.00047096732747
bodies 0.000198264344236
hahaha 0.0
produced 0.000470663602328
latest 0.000379333450706
banned 0.0
beyonce 0.000322079983876
perform 0.00112198606698
lionel 0.000159623885458
signed 0.000607500872661
princess 0.0
ghetto 0.0
conditioning 0.0
charity 6.99163273541e-05
germany 0.00114171701523
ronaldo 0.0
married 0.0
millions 0.0
blessings 0.00442655611167
diamond 0.00022742408406
nephew 0.00011323047789
lights 0.000143935414913
howard 0.0
turned 0.000164786697203
buckle 0.0
relevant 8.90320397077e-05
performing 0.00233128722909
indian 0.0
includes 0.0
tricks 0.0
survivor 0.0
diamonds 0.0
collection 0.000481073882224
families 0.00012809168818
welcoming 0.0
select 0.0
announced 0.000121859471336
granted 9.59832408432e-05
decided 0.00311650936599
selfish 0.000248944485826
trailer 0.000226984080027
reppin 0.00117257005137
celebration 0.0
decades 0.0
ultimate 0.0
incase 0.0
downtown 0.000596967944147
seasoning 0.0
episode 5.97686498664e-05
mentality 0.0
touching 9.63234571867e-05
retweet 6.35127748289e-05
goodmorning 0.0
midnight 0.00020268351797
expectations 0.0
joining 0.000117911113561
reasons 0.0
released 0.000233257998807
release 0.000604217889745
models 0.0
popped 0.0
within 0.0
standing 0.0
valentines 0.000119341161623
justice 6.73698422843e-05
houses 0.0
purchase 8.58891275743e-05
dropped 0.00142084711316
conversations 0.0
seattle 0.000365796283553
strength 6.93170235309e-05
monica 0.0
incredibly 0.0
streets 0.000221015569169
private 0.000128449616757
inspirational 8.96253979153e-05
barbie 0.0
tables 0.000114198304431
affection 0.0
broski 0.0
pissing 0.0
designer 0.0
cooking 0.0
tattoos 0.0
direction 0.0
readyyyyy 0.0
exclusive 0.00029720909591
adrianalima 0.0
fashion 0.00014477662667
talkin 0.0
bitches 0.0
nailed 0.0
kitten 0.0
whomever 0.0
ruthless 0.0
teaching 7.63425756354e-05
chillin 0.0
philly 0.000561987680684
baddest 0.0
cheers 0.000232497128545
autumn 0.0
presents 8.18996788969e-05
flawless 0.0
unique 7.68019475581e-05
handed 0.0
taraji 0.0
victory 0.0
tribute 0.0
ballin 0.000170442706167
horror 9.94946573579e-05
females 0.0
catfish 0.0
action 0.0
wouldnt 0.0
recipient 0.0
whitney 0.000143202147596
continued 0.0
esther 0.000178631816827
letter 0.000123551922884
existence 0.0
papers 0.0
winter 0.00013550648067
sessions 8.87379887027e-05
replicating 0.0
foundation 0.000570747038944
syndrome 0.0
colorado 0.0
tremendous 0.0
public 0.0
cannot 0.0
brilliant 0.0
illustration 0.0
beware 0.000556747216514
globally 0.0
premieres 9.91321721181e-05
streaming 0.000655197431175
immigration 0.0
wrapped 0.0
studio 0.00118516788028
february 7.36718563896e-05
amazon 0.0
border 0.000195416064706
huffingtonpost 0.0
francis 0.0
january 0.000138634047062
relationships 0.0
tragic 0.0
secure 9.14490708883e-05
countries 7.21775667174e-05
episodes 0.000180451810378
broadcast 0.0
tickled 0.0
livestream 0.0
potential 0.000138237692657
education 6.73698422843e-05
famous 0.00034460726994
unknown 0.0
exists 0.0
orders 0.0
microsoft 0.0
ability 7.28124988807e-05
director 6.24634413178e-05
accessible 0.0
correction 0.0
william 0.0
editors 0.0
yellow 0.0
passionate 0.0
treatment 0.000156887867443
ambassador 0.00017289204329
thanking 0.0
streamed 0.000132962511594
lovers 0.000100598204301
wrinkled 0.0
bridge 8.06378013504e-05
magazine 6.95159918621e-05
sincere 0.0
quotes 0.0
result 0.0
destruction 0.0
edition 0.00013397874193
prince 7.25999548452e-05
indiana 0.000200455267629
editorial 0.0
emotion 0.0
mistakes 0.000178655671666
inspiring 0.00040536703594
counter 0.0
disappointing 0.000100598204301
edited 0.000117741831868
spotlight 0.0
saddest 0.0
production 7.9895730559e-05
header 0.0
itunes 0.00330689723289
guests 0.000156887867443
snakes 0.0
charging 0.0
arriving 0.0
mysteries 0.0
dangerous 0.0
typically 0.0
saving 0.00014519990969
universe 0.0
victims 0.0
receive 0.000211568775344
proceeds 0.000400910535258
crossed 0.0
received 0.0
limitations 0.0
studying 0.0
conflict 0.0
petition 0.0
milestones 0.0
outstanding 0.0
devastating 0.0
installment 0.0
signature 0.0
mistletoe 0.0
awards 0.000783747629354
shelves 0.0
smells 0.0
themed 0.0
sisters 0.0
banquet 0.0
danger 0.0
leading 0.0
member 0.0
dominant 0.0
distinguish 0.0
factories 0.0
distinct 0.0
distance 9.66660118051e-05
confirmed 0.0
behavior 0.0
collect 0.0
vanity 0.0
junior 0.0
communities 0.0
worldwide 0.000332777344492
canada 0.000133223564064
recognized 0.000122126327534
vessels 0.0
movement 0.0
segment 0.0
internal 0.0
information 6.77532403348e-05
easily 7.36718563896e-05
towards 0.0
october 0.000209748982062
belgium 0.000366378982601
european 0.000172333593641
caribbean 0.0
cities 0.0
arrives 0.0
extraordinary 0.0
exquisite 0.0
argentina 0.0
eliminate 0.0
genius 0.000199272164631
prepared 0.0
anthony 0.0
breakthrough 0.0
berlin 0.000205762840654
batman 0.000115185297095
upcoming 0.0
upgrade 0.0
singapore 0.0
crucial 0.0
scratch 0.0
collaboration 0.000417855292395
tested 0.0
acquire 0.0
honoring 0.0
holland 0.0
visually 0.0
neyocompound 0.0
inspire 0.000170130564716
ebonymag 0.0
spiketv 0.0
constant 0.0
sunset 0.0
tuning 0.0
gentleman 0.0
fulfilling 0.0
ayeeeee 0.0
stratford 0.0
poland 0.000520771307255
philippines 0.0
kickin 0.0
theweeknd 0.000721777739169
september 0.0
manchester 9.08337359024e-05
rickyrozay 0.000372629836113
remarkable 0.0
rihanna 0.00108392960987
disgusted 0.0
immoral 0.0
process 0.000254759327425
goosebumps 0.0
performances 9.80602705736e-05
strangers 0.0
emotions 0.0
judgement 0.0
comparing 0.0
thuggin 0.0
studios 0.00010693580908
jennifer 0.0
performer 0.000388571410006
literally 0.000247103845768
cardiff 0.0
soooooooo 0.0
crashed 0.0
cthagod 0.000195402098073
closed 7.11369965471e-05
justinbieber 0.000515454565423
complexmag 0.00257367363725
billboard 0.00178966262166
airing 0.000100227633815
albums 0.00112025018622
sweden 0.000396528688472
katyperry 0.000135895210422
treats 0.0
missouri 0.0
thefader 0.00175193108568
soundtrack 0.000111813088514
theellenshow 0.000319545609604
sweets 0.0
festival 0.00117528998309
wizkhalifa 0.0
amsterdam 0.00038270695239
backstage 0.0
collab 0.000135145700045
subscribed 0.0
joined 0.0
davidguetta 0.0
pushing 0.0
hopeful 0.0
romantic 0.0
mentions 0.0
lurking 0.0
ballad 0.0
teamed 0.000132255528098
exclusively 0.000614961280607
kingjames 0.000281291225647
hollyrpeete 0.0
sneakers 0.0
auction 0.0
sneaker 0.000186314918056
djkhaled 0.00304118621425
express 0.0
thegrammys 0.000624416799706
throughout 0.0
shining 0.000100971550622
excellence 0.0
thrown 0.0
zendaya 0.0
playin 0.000135895210422
applemusic 0.00120966564542
crunch 0.0
capitalofficial 0.000175193108568
filmed 0.0
toronto 0.0011574165162
naomicampbell 0.0
trvisxx 0.00398507148195
killin 0.000257727282712
trucks 0.0
stands 0.000346585117654
platinum 0.00142476183669
native 0.0
spotify 0.00106098117079
rocked 0.000104867400209
jumped 0.0
leebruhgreene 0.0
leaning 0.0
featured 7.84439337213e-05
announce 0.000463976294721
senior 0.0
iamdiddy 0.00156104199926
haters 0.0
nothin 0.000131558432807
appreciation 0.000108219352134
defjamrecords 0.0039984156407
floating 0.0
superstars 0.0
shondarhimes 0.0
premiere 0.000244173263223
orchestral 0.0
makeup 0.0
touched 0.000186684027221
newest 0.000241913404051
designed 0.0
passes 0.0
angelasimmons 0.0
tidalhifi 0.00273562937302
vashtie 0.0
delivered 8.11387251727e-05
owning 0.000132962511594
producer 9.05288939688e-05
balmain 0.0
legendary 0.000559270113913
independence 0.0
mtvmusicuk 0.000203502285425
audition 0.0
debuts 0.0
footage 8.1644734603e-05
marshall 0.0
spends 0.0
playtime 0.0
completed 0.0
dishes 0.0
photographed 0.0
bubble 0.0
belong 0.0
tongue 0.0
observing 0.0
consistent 0.0
posing 0.0
heavens 0.0
contemporary 0.0
aiming 0.0
ceremony 0.0
brighter 0.0
rainbow 0.0
matthew 0.0
phenomenal 0.0
affected 7.70332310394e-05
rivers 0.0
presenting 0.0
competitive 0.0
eskimo 0.0
sibling 0.0
dakota 0.0
printed 0.0
heroes 0.0
deepest 0.0
describe 0.0
hollywood 0.000293822495772
baggage 0.0
terrifying 0.0
animation 0.0
nationwide 0.0
capital 0.0
quantity 0.0
nominations 0.000408434673606
mountains 0.0
mosaic 0.0
realise 0.0
overload 0.0
photographer 0.0
depression 0.0
donation 0.000169047043162
marvelous 0.0
madonna 0.000141483304824
sailed 0.0
terror 0.0
rinsed 0.0
disorder 0.0
polish 0.0
represents 0.0
touchdown 0.000253868103933
creates 0.0
oxford 0.0
stitched 0.0
morocco 0.0
thrill 0.0
balloons 0.0
teaming 0.000132255528098
latimes 0.000257727282712
kerrywashington 0.0
caution 0.0
camouflage 0.0
approaching 0.0
generous 0.0
installation 0.0
benefiting 0.0
basics 0.0
confirm 0.0
thrilling 0.0
photography 0.0
matches 0.0
boundaries 0.0
singles 0.000540582800182
laptop 0.0
obvious 0.0
darling 0.0
celebrations 0.0
chewbacca 0.0
underwater 0.0
naughty 0.0
advised 0.0
feelin 0.000265925023188
macaroni 0.0
perfection 0.0
picasso 0.0
recipe 0.0
radical 0.0
volcano 0.0
planted 0.0
products 0.0
directed 0.000938722258709
grabbed 0.0
frames 0.0
casual 0.0
scheming 0.0
twickenham 0.0
bbcnews 0.0
pledge 0.0
subtle 0.0
embarrassed 0.0
snatch 0.0
unveiling 0.000147777973634
kissed 0.0
arguments 0.0
settling 0.0
desperate 0.0
executive 0.0
humbled 0.0
courage 8.24135133529e-05
dropping 0.0010561087819
carried 0.0
behalf 0.000268876193746
hardest 9.20720977605e-05
marking 0.0
vision 0.000221667093086
intervention 0.0
records 7.5661360009e-05
deeply 0.0
mannered 0.0
texted 0.0
israeli 0.0
strongest 0.0
rogers 0.0
concept 9.05288939688e-05
allegiance 0.0
belongs 0.0
intended 0.0
bosses 0.000122126327534
purpose 0.000152685151271
hottest 0.0
campaigns 0.0
sunderland 0.0
teenager 0.0
runway 0.0
steven 0.0
guitar 0.0
donating 9.0225905189e-05
applause 0.0
finale 0.0
wasted 0.0
absent 0.0
awhile 0.000136656164146
fierce 0.0
sincerely 0.0
apology 0.0
climbing 0.000259047606671
unwilling 0.0
protesting 0.0
bikini 0.0
friendships 0.0
matching 0.000112753522089
wolves 0.000141483304824
mosque 0.0
venezuela 0.0
donates 0.000145896939048
generations 9.91321721181e-05
underestimate 0.000121556704182
pardon 0.0
stickers 0.0
mothers 9.30214883851e-05
deeper 0.000212196234158
nipple 0.0
perfume 0.0
noodle 0.0
melissa 0.0
forest 0.000109093786858
panties 0.0
jimmykimmel 0.000122702536272
everytime 0.000390578480441
underdog 0.000910604533871
shoulders 0.0
wrapping 0.0
bedroom 0.0
glitter 0.0
stocking 0.0
annoyed 0.0
behave 0.0
goodbye 0.0
fuckin 0.00683280820731
seller 0.0
joshgroban 0.0
samsungmobileus 0.0
influential 0.0
slicing 0.0
ryanseacrest 0.000136656164146
farmer 0.0
teaser 0.000116192230348
styled 0.0
casting 0.0
imitated 0.0
forgiveness 0.0
perezhilton 0.0
blacked 0.0
paparazzi 0.0
peoplemag 0.0
rolled 0.0
vanityfair 0.0
rockstar 0.0
thousand 9.23865562218e-05
minded 0.0
shines 0.0
sunglasses 0.0
auntie 0.000160854602328
magazines 0.0
waited 0.000208927646198
denmark 0.00025513796826
leather 0.0
wished 0.0
ladygaga 0.0
swallow 0.0
glblctzn 0.0
shakira 0.0
accessories 0.0
nbcthevoice 0.0
clique 0.00160768635144
premiering 0.0
loooooove 0.0
weareheremvmt 0.0
looooove 0.0
vmagazine 0.0
popcrush 0.0
studded 0.0
yassssss 0.0
yessss 0.0
undeniable 0.000164740322558
unicef 0.0
auditions 0.0
ellemagazine 0.0
yasssss 0.0
pharrell 0.00147047634649
greece 0.0
papermagazine 0.0
nowwwww 0.0
maccosmetics 0.0
macaidsfund 0.0
lipstick 0.0
meeeee 0.0
newsstands 0.0
unapologetically 0.0
insidebates 0.0
legalize 0.0
loooove 0.0
caradelevingne 0.0
allllll 0.0
badgalriri 0.000264497089562
itsjeremyscott 0.000235200920041
nickiminaj 0.0
nipples 0.0
booooo 0.0
trippy 0.000182325469379
mikewillmadeit 0.00287121137942
puttin 0.000368560577169
trappin 0.0
alexanderwangny 0.000705602760124
karllagerfeld 0.0
celebratin 0.0
lilyallen 0.0
fuuuuuck 0.0
chanel 0.0
rubber 0.0
angelou 0.0
misses 0.0
harpersbazaarus 0.0
timberlake 0.0
photoshopped 0.0
whatchu 0.000203502285425
rehearsals 0.0
couture 0.0
mutual 0.0
creeper 0.0
cuddling 0.0
celine 0.0
theamas 0.0
thexfactor 0.0
websterhall 0.0
presale 0.000753698630462
deluxe 0.000148745800176
styles 0.0
wetten 0.0
shittttttttttt 0.0
boredom 0.0
darealamberrose 0.0
noooooooo 0.0
itunesmusic 0.000629000128068
cbstweet 0.0
thermal 0.0
mariners 0.0
torres 0.0
thebeatles 0.0
blondies 0.0
greeting 0.0
thecut 0.0
geeked 0.0
outlet 0.0
americanexpress 0.0
gqmagazine 0.000904438356555
nicole 0.0
bumped 0.0
hangover 0.0
stockholm 0.0
casually 0.0
esquire 0.0
winnipeg 0.0
begging 0.0
showroom 0.0
sleeves 0.0
smelling 0.0
guaranteed 0.0
obsession 0.0
attendant 0.0
aussie 0.0
tbsveryfunny 0.0
reservation 0.0
mollymcnearney 0.0
dragging 0.0
rocnation 0.00216964262975
tapered 0.0
badass 0.0
endlessly 0.0
vampires 0.0
viewers 0.0
kanyewest 0.00452702179787
designers 0.0
billboards 0.0
backstreetboys 0.0
monteith 0.0
e_fashionpolice 0.0
epically 0.0
internationally 0.0
mighty 0.0
jcolenc 0.00335584966901
semifinals 0.0
brasilia 0.0
tailgating 0.0
photoshoot 0.0
smokin 0.0
ahhhhhh 0.0
missin 0.0
sweats 0.0
impacted 0.0
rodriguez 0.0
musician 0.0
merchandise 0.000478871656375
jurgen 0.0
athleteally 0.0
originals 0.0
número 0.0
zealand 0.0
hehehe 0.0
fearless 0.0
stadiums 0.0
thiago 0.0
suarez 0.0
cropped 0.0
uruguay 0.0
apparel 0.0
staircase 0.0
wintour 0.0
spotting 0.0
polygraph 0.0
twerking 0.000178631816827
shipment 0.0
muggin 0.0
takeoff 0.0
thailand 0.0
tomorr 0.0
googleplay 0.000494220967675
budweiser 0.000340885412333
miafestival 0.000255409909546
dotted 0.0
burning 0.0
surpass 0.0
betcha 0.0
onairwithryan 0.000332211857104
dreamers 0.0
brunomars 0.000160854602328
beyoncé 0.0
hellooo 0.0
subscribers 0.0
preorder 0.00025513796826
believer 0.0
fragrance 0.0
hellooooo 0.0
majesty 0.0
beatsbydre 0.000902222173961
finland 0.000142335317038
fearnecotton 0.0
debuted 0.0
queued 0.0
rhetorical 0.0
iranian 0.0
infamous 0.0
brutally 0.0
execution 0.0
palestinian 0.0
transplant 0.0
audacity 0.0
foreplay 0.0
priced 0.0
huntington 0.0
manger 0.0
weaker 0.0
justintrudeau 0.0
creeping 0.0
fittest 0.0
hoodie 0.0
mankind 0.0
westwood 0.0
holographic 0.0
throwin 0.0
eminem 0.00187325039912
ecstatic 0.0
enjoys 0.0
wussup 0.0
duplicated 0.0
crotch 0.0
congrat 0.0
huggin 0.0
implement 0.0
penalizing 0.0
gonzalez 0.0
bitchin 0.0
sephora 0.0
damien 0.0
demanded 0.0
negativity 0.0
alancarr 0.0
skillz 0.0
hopeless 0.0
beatle 0.0
cheesecake 0.0
almighty 0.0
whatcha 0.0
slumber 0.0
chimney 0.0
headlining 0.000316845654644
perplexed 0.0
googleplaymusic 0.000203502285425
thrills 0.0
rollers 0.0
bravotv 0.0
gifted 0.0
kekepalmer 0.0
styledtorock 0.0
yooouuu 0.0
shantay 0.0
yaaaas 0.0
bestest 0.0
freestyle 0.000738889868172
everrrrr 0.0
sweatband 0.0
podolski 0.0
collaborating 0.0
bestfriend 0.0
sittin 0.00016895478968
whaaaat 0.0
clockwork 0.0
warmest 0.0
temptation 0.0
spiritual 0.0
chameleon 0.0
customised 0.0
acrylic 0.0
grasshopper 0.0
engages 0.0
gourmet 0.0
rhythmic 0.000639537937714
petals 0.0
klinsmann 0.0
directv 0.0
popcrave 0.0
versailles 0.0
raddest 0.0
grandfather 0.0
persie 0.0
webster 0.000326822274201
knight 0.00012099351739
footwear 0.0
collectors 0.0
blackout 0.0
skylight 0.0
hammock 0.0
playhouse 0.0
revelers 0.0
executed 0.0
cincinnati 0.000414641513453
simultaneously 0.0
malawi 0.0
graduated 0.0
sickening 0.0
mueller 0.0
elonjames 0.0
skeletons 0.0
mittromney 0.0
connecticut 0.0
cumulative 0.0
racked 0.0
valera 0.0
thighs 0.0
timely 0.000117741831868
rapping 0.000319247770916
shrugs 0.0
enables 0.0
psychic 0.0
fernando 0.0
tourism 0.0
slaughtered 0.0
devotion 0.0
fantasies 0.0
parsons 0.0
stella 0.0
complainers 0.0
newsstand 0.0
voguemagazine 0.000147777973634
westfield 0.0
manolo 0.0
turquoise 0.0
parisian 0.0
childs 0.0
swimsuit 0.0
bazaar 0.0
empress 0.0
brainstorm 0.0
tanning 0.0
desirable 0.0
feathers 0.0
antics 0.0
featurette 0.0
olivier 0.0
helloooo 0.0
hallow 0.0
connie 0.0
upbringing 0.0
privatize 0.0
bittersweet 0.0
outlaw 0.0
marcel 0.0
nowwww 0.0
hushed 0.0
threshold 0.0
floats 0.0
barbados 0.0
manuelcav 0.00178786936682
niggaz 0.000459899187635
prayin 0.0
drizzyxcole 0.0
homegirl 0.0
rappin 0.0
witcha 0.0
mufasa 0.0
dainternz 0.0
lololol 0.0
barclayscenter 0.000206523907561
bestbuy 0.0
blackouts 0.0
rivera 0.0
jakemiosge 0.0
givenchy 0.0
riccardo 0.0
grossed 0.0
guetta 0.0
spicewon 0.0
bitche 0.0
shawty 0.0
wednesdays 0.0
payday 0.0
jewelers 0.0
romero 0.0
acknowledging 0.0
calypso 0.0
blushes 0.0
medusa 0.0
keepers 0.0
futuristic 0.0
whereabouts 0.0
slayed 0.0
asvpxrocky 0.000419481208626
haaaaa 0.0
inezandvinoodh 0.0
calvinharris 0.00171586526104
_maxwell_ 0.0
bwerde 0.0
edward_enninful 0.0
haaaaaa 0.0
wisest 0.0
unconditionally 0.0
drmayaangelou 0.0
blackgirlsrock 0.0
submissive 0.0
rearrange 0.0
attuned 0.0
abrams 0.0
awaken 0.0
climbs 0.0
jacking 0.0
seventy 0.0
snatching 0.0
manoloblahnik 0.0
nicolerichie 0.0
openingceremony 0.0
whiteley 0.0
supermodel 0.0
the_real_iman 0.0
minogue 0.0
tmagazine 0.0
baaaaack 0.0
yeessss 0.0
wooooo 0.0
epicness 0.0
takawiraa 0.0
joplin 0.0
uncensored 0.0
unspeakable 0.0
rewrites 0.0
askdrruth 0.0
glozell 0.0
tardiness 0.0
runways 0.0
colombian 0.0
unapologetic 0.0
zac_posen 0.0
rumoured 0.0
omgggg 0.0
futbol 0.0
biatch 0.0
barrington 0.0
catwalk 0.0
sledgehammer 0.0
clemente 0.0
dollaz 0.0
mariah 0.0
granddad 0.0
iyanlavanzant 0.0
hustler 0.0
coletteparis 0.0
flexin 0.0
mistress 0.0
exceeds 0.0
sweeeeeet 0.0
stancesocks 0.000579914810581
serviced 0.0
issssss 0.0
lipglass 0.0
externally 0.0
complex_uk 0.00027561889905
prideful 0.0
dash_radio 0.0
holidaze 0.0
mawnin 0.0
champagnepapi 0.000689848781452
fashawn 0.0
raided 0.0
ahhhhhhhh 0.0
soulmate 0.0
motorbikes 0.0
britishvogue 0.0
gnlstudios 0.0
robinsoncano 0.0
debuting 0.0
cc_sabathia 0.0
colorways 0.0
hit_boy 0.0
_spyda 0.0
phresh 0.0
dominates 0.0
ratchet 0.0
rupaul 0.0
cockpit 0.0
kimmiekyees 0.0
horoscope 0.0
catwalks 0.0
paramedic 0.0
fhollande 0.0
sexiness 0.0
hereeee 0.0
changers 0.0
tiptoes 0.0
revved 0.0
meditative 0.0
fauntleroy 0.0
mbsings 0.0
disrespectfully 0.0
traumatized 0.0
outdid 0.0
elvispresley 0.0
toupee 0.0
josephine 0.0
discography 0.0
mariasharapova 0.0
chinchilla 0.0
skylar 0.0
illestbaba 0.0
georgiamjagger 0.0
pierced 0.0
hardrock 0.0
snorkeling 0.0
thrilla 0.0
gunpoint 0.0
sleeved 0.0
stevestoute 0.0
kiiiiiiiiiiiiinnnngggggg 0.0
lanvin 0.0
chateau 0.0
lizzs_lockeroom 0.0
prophets 0.0
müller 0.0
lullaby 0.0
samersum 0.0
disassembled 0.0
anniversaries 0.0
hayden_williams 0.0
rousteing 0.0
slayage 0.0
raunchy 0.0
benzema 0.0
fuckery 0.0
hellooooooo 0.0
juliagillard 0.0
congeniality 0.0
gunned 0.0
condense 0.0
missjillscott 0.0
yussss 0.0
chopard 0.0
woodbridge 0.0
orousteing 0.0
dubsmash 0.0
alicialquarles 0.0
worldmcqueen 0.0
whateva 0.0
elysées 0.0
jennnrosales 0.0
xstrology 0.0
looool 0.0
tippin 0.0
marleys 0.0
dwanimation 0.0
dreamworks 0.0
yaself 0.0
anothermagazine 0.0
claralionelfdn 0.0
mchingi 0.0
rihannareplay 0.0
awtguide 0.0
ryannavy_rih 0.0
rihquest 0.0
gpforeducation 0.0
valliniandre 0.0
globalfund 0.0
rhenna 0.0
millymaefenty 0.0
peetes 0.0
pandagunda 0.0
floriamamaroma 0.0
adoringrihanna 0.0
ymcofficial 0.0
rihanti_ 0.0
mcdean 0.0
rihannadaily 0.0
stancemuse 0.0
muhtean 0.0
rihdefine 0.0
officialdonnie 0.0
stunnafenty 0.0
perfumesbyriri 0.0
badgal 0.0
shaninamshaik 0.0
reblrihanna 0.0
elliscole_ 0.0
itskaitbh 0.0
harpersbazaarcn 0.0
yusefhairnyc 0.0
mylahmorales 0.0
teamofrihanna 0.0
muhphucka 0.0
harpersbazaar 0.0
rihrihfreak 0.0
thenbacentral 0.0
roversi 0.0
suchaf_cknlady 0.0
fourfiveseconds 0.0
petergrayhair 0.0
wkorea 0.0
dennisleupold 0.0
ursulastephen 0.0
ozzysalvatierra 0.0
ciarrap 0.0
rihannaargntina 0.0
rihearsal 0.0
sremmurd 0.0
id_magazine 0.0
heauxm 0.0
rihpost 0.0
jrgseul 0.0
bitchez 0.0
underst_navy 0.0
sonitaalex 0.0
chris_walden 0.0
danachanel 0.0
wednesdayz 0.0
jimmyfenty 0.0
houseoffraser 0.0
skeete 0.0
_kailssss 0.0
muhphuckas 0.0
phuckin 0.0
rastafarih 0.0
obviiii 0.0
etherihalvibe 0.0
rorreyfenty 0.0
noellaalstrom 0.0
rihturn 0.0
tellar 0.0
esquireuk 0.0
huffpoststyle 0.0
tyronmachhausen 0.0
melottenberg 0.0
paolakudacki 0.0
tompecheuxmu 0.0
lgoldstein_ltd 0.0
phucking 0.0
kudacki 0.0
hellurrr 0.0
tom_ford 0.0
neakah 0.0
creepah 0.0
pahtna 0.0
wontonsan 0.0
cappadonna 0.0
phuckmarqy 0.0
elfies 0.0
starstunning 0.0
ohnana 0.0
tushmagazine 0.0
macxriri 0.0
rickrubin 0.0
findataui 0.0
tristate 0.0
distoyb 0.0
kabukimagicnyc 0.0
yerdme_cmb 0.0
hittas 0.0
evan_erogers 0.0
jessieriri 0.0
unfourgettable 0.0
meeeaan 0.0
shweinsteiger 0.0
goooooooaaaaallllllll 0.0
goooal 0.0
braaaaaaaaaaaaaaaaaa 0.0
asapkoff 0.0
belgiuuuuummm 0.0
druchaos 0.0
cuadrado 0.0
murdaaahhh 0.0
colombiaaaa 0.0
karafenty 0.0
dlsturbla 0.0
braaaaaaaaaaaaaaaaaaaaaa 0.0
abouuuutttt 0.0
takecarerihanna 0.0
nathannavy 0.0
theworidcup 0.0
goooooaaaaaaallllll 0.0
bazaararabia 0.0
bigshitxtalker 0.0
__tatijxo 0.0
lhhatl 0.0
braaaaaaaaaaaa 0.0
rihannanavyrd 0.0
gooooooaaaalllll 0.0
triscastellano 0.0
iiiiiiiiiiiiiiiiiiii 0.0
eatmydaisy 0.0
leggooooal 0.0
yaaaaaassssssss 0.0
prettygirl_sp 0.0
ooohhhhhh 0.0
shiiiiitttt 0.0
roooonnnnnnnneeeeeeeyyyyyy 0.0
muslera 0.0
tadpole 0.0
giusichrisriri 0.0
_xomec 0.0
blockedt 0.0
ooooohhhh 0.0
goooooooaaaaaaalllllllllllllllll 0.0
stefansaxon 0.0
rihannademos 0.0
dragonflycici 0.0
chririh 0.0
rihluminati 0.0
goaaaalllll 0.0
twinzies 0.0
mantlers 0.0
suchaf__cknlady 0.0
glamour_robyn 0.0
adamselman 0.0
sephorafrance 0.0
thefashionlaw 0.0
scout_willis 0.0
quietude 0.0
theblackvoice 0.0
weeeed 0.0
kiiiiss 0.0
dooooon 0.0
miiiiss 0.0
malinsworld 0.0
prompics 0.0
itsalldonn 0.0
goooorrrrrrlllllll 0.0
thenewdaily_ 0.0
wiggin 0.0
stevesoboroff 0.0
pivot_tv 0.0
lapolicefdtn 0.0
scarificing 0.0
whooooose 0.0
sambapologetic 0.0
bellaisevil 0.0
sta_schemin 0.0
i_aim_tyga 0.0
fameisloud 0.0
garcon_rebelle 0.0
itsbreezybiotch 0.0
phaedra 0.0
vivala_stephyy 0.0
_bossmadeg 0.0
kontomitrosnick 0.0
sorrenti 0.0
whenevahhh 0.0
teamvivanco 0.0
heifers 0.0
stevenkolb 0.0
jeremy_brossard 0.0
jordanbrossard 0.0
quilted 0.0
piscesareus 0.0
plumsykes 0.0
cedellamarley 0.0
offish 0.0
urprise 0.0
i_love_riri 0.0
rihannadiva 0.0
javiroo 0.0
frihday 0.0
cuntlifex 0.0
_chris_rated_ 0.0
yewmadcunt 0.0
erinwasson 0.0
balmainparis 0.0
_yadim 0.0
muthaphucka 0.0
onnneeee 0.0
liiiiieeesss 0.0
gautier 0.0
mtvstarsvotes 0.0
zinloves 0.0
chloefrahm 0.0
uprising_create 0.0
uprising_darren 0.0
jonnycrave 0.0
jeff_uprising 0.0
kareemfenty 0.0
daily_rihnavy 0.0
unapologeticunt 0.0
rorrey 0.0
foreverrr 0.0
guyanese 0.0
annndd 0.0
historih 0.0
grandfadda 0.0
arleta 0.0
loreleicakes 0.0
river_island 0.0
finallyyyy 0.0
rodin_thinker 0.0
mrs_toyac 0.0
cheersrihrih 0.0
bangbang 0.0
faiz_fenty 0.0
leandra 0.0
noella 0.0
rasshoooolllleee 0.0
luminati 0.0
inezvinoodh 0.0
visvim 0.0
realne 0.0
sarahfrancus 0.0
tadium 0.0
trapstar 0.0
afrihca 0.0
rihrobyn 0.0
cbsgirlfriend 0.0
shyronnie_rn 0.0
mariamfenty_ 0.0
mizzpmf 0.0
whooooaaaaa 0.0
camkaipink 0.0
yasssssssssssssssssssss 0.0
lunaxskye 0.0
yaaaaasssssss 0.0
niggggaaaaaaa 0.0
breeziechillin 0.0
betologetic 0.0
isusjsjdha 0.0
awffffff 0.0
mcdessikins 0.0
skreets 0.0
pieceofria 0.0
loooool 0.0
craaaazzyyy 0.0
lolarae_xoxo 0.0
stayflysamir 0.0
shotta 0.0
tamarawray 0.0
lauraleehickock 0.0
heauxz 0.0
rihannanavyit 0.0
manilla 0.0
ronnyerickson 0.0
nikofenty 0.0
vincehaycock 0.0
zodiacfacts 0.0
naomiiknows 0.0
wrizzap 0.0
muuuch 0.0
hongkong 0.0
jetlaaaaaagggged 0.0
rasshole 0.0
februharry 0.0
kaşara 0.0
çıkmadı 0.0
dicked 0.0
vinoodh 0.0
rihannasblog 0.0
urihannafansite 0.0
teejay 0.0
stupse 0.0
clapbacks 0.0
niggaaaazzzz 0.0
bwaaahaaaaa 0.0
willheardmusic 0.0
kristennoelgipson 0.0
rsvpgallery 0.0
backout 0.0
bwahhaaa 0.0
errwhurr 0.0
niiiiggaz 0.0
fridayz 0.0
debbycoda 0.0
cabbing 0.0
dolly_cohen 0.0
cowboyz 0.0
friendz 0.0
phucker 0.0
charliebymz 0.0
lynn_ban 0.0
inwardly 0.0
ravening 0.0
whyyyyyyyyyyyy 0.0
thatdamnlala 0.0
adamsellman 0.0
scottland 0.0
kingspleasure 0.0
mikkyekko 0.0
rihannanavide 0.0
saskoktz 0.0
phlawless 0.0
givenchydonc 0.0
mlle_yulia 0.0
oxxoxo 0.0
foreva_rn_ladii 0.0
skinhead 0.0
killaz 0.0
yennifer 0.0
bestofpisces 0.0
smegma 0.0
morganemiller_ 0.0
aa_davis 0.0
beenie 0.0
nickeystaar 0.0
frihannamorocco 0.0
thinketh 0.0
guitarists 0.0
jordriri 0.0
badgalclaudia 0.0
hausofnath 0.0
_abirogerson 0.0
tommykane 0.0
livenationuk 0.000264497089562
millenniu 0.0
juuuussttt 0.0
helllooooo 0.0
miiiine 0.0
chaneliman 0.0
blushy 0.0
laetitiacrahay 0.0
rihmix 0.0
dariuscash 0.0
joshkillss 0.0
drunk_cockiness 0.0
firebombfenty 0.0
mooky_mcnasty 0.0
defpenradio 0.0
iamrici 0.0
letcha 0.0
niggerish 0.0
mawazine 0.0
thefashionaddicts 0.0
phierce 0.0
errwhere 0.0
jocking 0.0
niggaaa 0.0
tami_black 0.0
homienadz 0.0
religiosity 0.0
joycemeyer 0.0
brooooklyyyyn 0.0
miiiiine 0.0
dilekkeysan 0.0
marykatrantzou 0.0
allaboutpisces 0.0
jfisherjewelry 0.0
oddhangover 0.0
diggins 0.0
phyliciaghee 0.0
bawsin 0.0
howeverrrrr 0.0
channyyxoxo 0.0
dowwwwnnnnn 0.0
thugbitch 0.0
rihanas 0.0
miiiiiinnneee 0.0
rihwrite 0.0
janiseeaileen 0.0
ratchify 0.0
eeeeeemmmmmm 0.0
pannies 0.0
wooooiiiiiiiiiii 0.0
muhphuckers 0.0
bashment 0.0
whaaaaattttt 0.0
liiifee 0.0
covery 0.0
leeeeaaaavvveeee 0.0
haarrrrrddd 0.0
ismashedriri 0.0
christabslg 0.0
reallll 0.0
peoplez 0.0
wooiiiiii 0.0
slackness 0.0
kevfenty 0.0
woooiii 0.0
tatiana_xo 0.0
fentynavysalute 0.0
ratchettt 0.0
rachael_deanna 0.0
lifeeeeee 0.0
bxdcfjcf 0.0
killled 0.0
asdfghjkjhgtfrdedfghjnhbgvfc 0.0
troy_fenty 0.0
_marrymerihanna 0.0
jkbwdhbwh 0.0
_noellaa 0.0
hunneds 0.0
thekingfly 0.0
dooown 0.0
woooiiiii 0.0
phucked 0.0
kickstand_ohb 0.0
acedemy 0.0
mistercap 0.0
gallest 0.0
sinsofmyfather_ 0.0
dwayneofficial 0.0
_revofev 0.0
joefenty 0.0
thegodlight 0.0
molestmerihanna 0.0
rihannanavyeu 0.0
melina 0.0
terryrichardsonstudio 0.0
_sexxtroversy 0.0
neuroticbxtch 0.0
getcho 0.0
moneyyy 0.0
idillionaire 0.0
yaaaaaaas 0.0
noxx_onite 0.0
phonefancy 0.0
chiefin 0.0
londonfashionwk 0.0
_mayor_ 0.0
rihannanow 0.0
jamrock 0.0
rihannastats 0.0
jenesismagazine 0.0
napmed 0.0
hausofbeyhive_ 0.0
probabily 0.0
badgalelly 0.0
ladylivja 0.0
rihannacomics 0.0
__glitterdick 0.0
chelsey_ba 0.0
stashbox 0.0
thuglife 0.0
highladayz 0.0
brrrap 0.0
kalifah 0.0
marylin 0.0
muthafucker 0.0
stylenetwork 0.0
bvalgari 0.0
oooonly 0.0
fuckyopictures 0.0
amplifydot 0.0
trappat 0.0
soumsluvriri 0.0
ibebossedup 0.0
holerringg 0.0
rihskillerdoll 0.0
equaled 0.0
chefette 0.0
rezilientkas 0.0
blastinggggg 0.0
dammnnn 0.0
lifeandtimes 0.0
hausofjazzy 0.0
kaykispeaks 0.0
condesa 0.0
awaaayyy 0.0
flawle 0.0
mandler 0.0
loudies 0.0
dulcattis 0.0
killaaa 0.0
_loveforrihanna 0.0
yesimkayla 0.0
rollingnostone 0.0
richkunt 0.0
yasssssss 0.0
eriricccccc 0.0
cuntmeout 0.0
sashay 0.0
condragulations 0.0
neverrr 0.0
phasetoo 0.0
fooooorde 0.0
ruunavi 0.0
rihtweet 0.0
ishoobernator 0.0
thirstiest 0.0
j_dimps 0.0
deecosey 0.0
itsrihannasnavy 0.0
muthaphuckin 0.0
