awesome 0.000684361017002
christmas 5.05560159139e-05
trying 0.000159679593973
launch 0.000195792165876
moment 0.000160542804841
wonderful 0.000153741602101
seeing 0.000117174004422
hanging 0.0
sounds 0.000121687954794
contacts 5.80506119309e-05
anybody 3.49835516296e-05
worked 0.000197351787612
direct 6.46043011796e-05
others 0.000343501703202
currently 0.000108543255106
better 0.00069956900944
please 0.000640442439126
social 0.000485527086339
anxiety 0.0
around 0.0003385011336
people 0.0019181730904
morning 0.000703350472752
damage 0.000111593255982
everything 0.000158821074492
present 7.75005751428e-05
though 0.000259877625237
friend 6.84341117029e-05
watched 5.12472007003e-05
beautiful 0.00018697341671
demanding 5.02077108102e-05
anything 0.000184469438456
tagged 6.56436941657e-05
helped 0.000124350820826
thinking 0.000672317389485
finally 0.000278200299097
caught 7.66621715273e-05
believe 0.000248904162792
already 0.000226276511629
couple 9.92116043932e-05
launches 0.0
chance 0.000158821074492
annual 0.000213521360537
quickly 3.16560238533e-05
growing 0.000163262487871
probably 0.000172216145592
changed 7.28156832854e-05
history 0.000327203479242
center 0.000118952015709
museum 3.93951696545e-05
behind 0.0002256674224
screaming 0.0
pretty 0.00037093373213
really 0.0014067009455
possibly 0.000252521695126
little 0.000294159465118
happiest 0.0
earlier 0.000106190888266
forget 0.000206969381514
someone 0.000434585940836
things 0.00092523643184
available 0.000353423710029
perfect 0.000259877625237
different 0.000161410758649
person 0.000204749679856
watching 0.000159679593973
exhibit 5.35487869548e-05
passed 8.29898225038e-05
prefer 3.42572029719e-05
minutes 0.000281217610612
travel 0.000277396422349
daughter 8.23071253567e-05
positive 0.000188394356795
outside 7.20330129878e-05
looking 0.000746712488376
forward 0.000349630940562
raising 9.71879499991e-05
impression 0.0
wheels 4.7116837663e-05
favorite 0.000315972956126
instead 0.000127770285879
appreciate 5.33866289138e-05
couldn 2.36252386579e-05
remember 0.00036301959884
impressive 0.000124822299684
vintage 0.0
holidays 9.71879499991e-05
friends 2.28113705676e-05
impossible 3.08515795486e-05
everyone 0.000340330873912
always 0.00047390158704
limited 5.96434792319e-05
months 7.10672301798e-05
moving 7.32104379124e-05
meeting 0.000185967654008
answer 0.000185967654008
together 0.000181999715427
inside 7.08757159737e-05
upstairs 0.0
missed 0.00022996597946
active 0.00010953116073
eventually 4.12656741082e-05
longer 0.000157126789756
enough 0.000298150923276
building 0.000152908365912
enjoying 8.32189267046e-05
london 2.69873478315e-05
posting 0.000170269488063
recent 0.000239921191374
amazing 0.000226276511629
attention 2.56933584961e-05
tomorrow 0.000431085773622
whenever 0.0
feeling 9.50123835858e-05
excited 0.000355336150899
understand 0.000296830055063
following 0.000309624863573
asleep 8.36597441016e-05
learning 0.000196877855343
evening 5.19491352914e-05
special 0.000137237665527
secret 5.08312209402e-05
across 0.000177426930334
surprised 8.11843761301e-05
candles 0.0
sophia 0.0
version 0.000175512153003
rather 0.000203877821216
showing 7.26191657984e-05
saying 7.10672301798e-05
thoughts 0.000192607557116
exactly 0.000122679179715
getting 0.000476463223477
nothing 0.000249575974202
tweets 0.000200042358096
photos 0.000137178542261
looked 0.000103053331787
difficult 2.99057871702e-05
office 0.000269894195373
brought 2.51412394035e-05
biggest 0.00018697341671
thrilled 0.0
entire 5.0419040135e-05
something 0.000385708323767
closing 0.000135009332381
anyone 0.000526077717854
taking 0.000136132349565
interesting 0.000783618246665
original 8.05195567773e-05
flying 5.70357657622e-05
sometimes 0.000200042358096
yesterday 0.0002516023868
serious 0.000218447049856
digital 0.000235568903621
wearing 5.32408016965e-05
british 0.000165319847523
either 0.00012367918961
second 0.000205856498291
checking 0.000294061340896
indeed 0.0
island 3.21156475263e-05
hearing 2.53467043334e-05
staying 3.06766426862e-05
another 0.000407297720932
compare 0.0
bummer 6.48376534023e-05
clothes 0.0
landing 0.0
weekend 0.000505925154813
delivery 4.1546009915e-05
secretive 0.0
anyway 5.8647847289e-05
recognize 0.0
working 0.000521840673332
bigger 0.0
laughing 2.69134795421e-05
wanted 9.17387456234e-05
clothing 9.68346779959e-05
grateful 2.9654577798e-05
friendship 0.0
family 0.000158821074492
listening 0.000522273447469
stream 6.24111498419e-05
double 2.56933584961e-05
especially 0.000201129915228
shaking 0.0
waiting 0.000139475740506
definitely 7.44087032949e-05
account 0.000399306012724
completely 0.000161480877253
thought 0.000297348275309
possible 0.00033615406061
simple 0.000132015314835
professional 0.000134610802069
members 5.71944073472e-05
business 0.000269165166466
absolutely 9.70875777138e-05
sending 7.89932390315e-05
introducing 3.63978343463e-05
congrats 0.000166721080385
community 0.000195792165876
keeper 0.0
greatest 9.92116043932e-05
selfie 0.0
pasadena 0.0
posted 2.68398522591e-05
saturday 7.18387510848e-05
designs 0.0
broken 5.62508158124e-05
chicago 3.08515795486e-05
glimpse 0.0
actually 0.000581148918776
myself 5.94760078543e-05
pajamas 0.0
school 0.000599525674983
throwback 0.0
thursday 2.42718944285e-05
selling 6.20557662382e-05
talented 0.0
celebrate 5.01463294293e-05
celebrating 5.41229174201e-05
anniversary 8.23071253567e-05
contest 0.000384428966325
experiences 8.45249492127e-05
students 0.00114284343468
figure 5.42716275529e-05
featuring 2.94886451221e-05
inspired 0.0
breeze 0.0
sitting 0.000102494401401
playing 6.91760394211e-05
street 0.0
points 0.000174474444777
advice 0.000266204008483
memory 0.0
forever 2.56236003502e-05
imagine 0.000176946055699
problem 0.000340726273423
played 2.53467043334e-05
keeping 0.0
lovely 0.000171107297287
dressed 0.0
chinese 3.66235036493e-05
sunshine 0.0
afternoon 0.000213546515655
notice 0.0
difference 0.000124014505491
suppose 4.3612383169e-05
letting 2.78931580802e-05
system 0.000283600728517
mutant 0.0
bathroom 4.43987603728e-05
almost 0.000204198524347
details 9.92116043932e-05
experience 0.000284268920719
luckily 0.0
viewed 0.0
living 0.000189512613813
weather 5.79960888948e-05
bright 3.19306731936e-05
launching 0.000110898888596
colors 0.0
monday 4.73781534532e-05
walked 0.0
pinned 6.82504437147e-05
wanting 0.0
tweeting 0.000103615744628
forgot 2.84388399203e-05
gorgeous 0.0
herself 0.0
happens 0.000234981017456
learned 2.62593252694e-05
congratulations 0.000150031768572
raised 2.9654577798e-05
mission 6.15278832091e-05
smelled 0.0
unforgettable 0.0
forgotten 0.0
trouble 0.000252429528709
channel 0.000248284473
fantastic 0.000347964037392
loving 0.0
hardly 4.21173503619e-05
dining 0.0
complete 7.81362626933e-05
daniel 3.99139681865e-05
rewarding 0.0
spirit 2.94061340896e-05
finding 0.000110958568939
stories 7.36075078291e-05
including 0.00020167616054
somewhere 5.91429178961e-05
conversation 0.000275871636666
disrespectful 0.0
making 0.000588318930236
expect 2.72104146452e-05
polite 0.0
brings 2.7360360328e-05
anytime 0.0
needed 7.26191657984e-05
seriously 0.000150438988288
modern 6.53596909376e-05
welcome 0.00027521623687
moments 2.82033587341e-05
jacket 8.00911061244e-05
halloween 0.0
costume 0.0
totally 2.61877982927e-05
flight 0.000244893731807
attached 0.000102102851219
finished 5.42716275529e-05
strong 0.000140230062532
message 0.000264835391035
coming 0.000520435976747
temporary 0.0
challenge 0.000273571805817
achievement 0.0
unlocked 0.0
happen 0.000115604664643
celebrated 0.0
giving 0.000160542804841
excellent 0.00029571458948
common 5.60954508243e-05
pressed 0.0
company 0.000282626943457
change 0.000476463223477
singing 3.03307854609e-05
silver 0.000259572091498
august 6.4045941673e-05
crying 0.0
happened 9.55267266809e-05
parking 0.0
demand 2.99057871702e-05
sacrifice 4.76650445946e-05
personal 0.000222020761064
beyond 0.000202773634667
question 0.000510033881678
chicken 9.77544823991e-05
position 0.000185637354972
losing 2.79703094109e-05
respect 4.96058021966e-05
caption 4.80380570911e-05
shouldn 8.14074413293e-05
career 0.000289641876449
reason 0.000143290090021
explore 0.000225241039239
glamorous 0.0
reality 0.000323848173978
burned 5.33099832212e-05
without 0.000434585940836
problems 0.000279703094109
countdown 0.0
online 0.000854121775645
animals 7.58134263934e-05
buying 3.07639416045e-05
pictures 0.0
underneath 0.0
camera 8.89637333939e-05
checked 0.000289878357501
heading 0.00018891143482
complex 0.000261200633712
sunday 0.000210913207959
nights 3.34547453686e-05
traffic 6.81077952253e-05
through 3.18387515095e-05
changing 5.56325392332e-05
diapers 0.0
convinced 0.0
capture 0.0
random 3.30639695047e-05
recorded 6.89247131739e-05
november 6.08335082134e-05
number 0.000139475740506
stupid 3.15652118907e-05
grandparents 6.22237066781e-05
recording 0.000145591337385
chocolate 0.000139094507729
unless 0.000139851547054
calling 9.52691887917e-05
mermaid 0.0
levels 0.000104635035545
package 0.0
option 0.0
knowing 0.000690462893779
actual 0.000120639297899
friday 0.000183972783568
achieve 0.000114081208322
winner 0.0
becomes 0.000128462590105
directly 7.48632126761e-05
quality 0.000117295694578
father 5.16670500952e-05
wishes 2.9571458948e-05
themselves 3.96530780873e-05
asking 0.000216099038963
usually 6.04902861451e-05
period 0.0
resist 4.30024340861e-05
collections 0.0
summer 0.000122347802939
bracelet 0.0
reminded 0.0
dinner 2.50731647147e-05
single 7.01150312661e-05
catching 0.000100660517658
energy 0.000161924086989
preview 0.0
monster 0.0
material 7.75260133732e-05
events 8.43762237186e-05
europe 0.00015692338495
holiday 7.83494919301e-05
emotional 3.26798454688e-05
affects 0.000100003240815
holding 0.000107359409036
survive 3.85150180126e-05
eating 0.000141800364258
outfit 0.0
missing 0.000145238331597
surprise 2.42718944285e-05
german 3.90137508468e-05
officially 0.000105901106415
french 0.000116641583245
global 0.000272977069148
follow 0.000456227411353
design 0.000239800420803
improvement 0.0
website 0.000387285838351
breaks 8.97173615107e-05
negative 0.000132255878019
official 0.000117174004422
jersey 0.0
france 0.0
lighter 0.0
thinks 0.000105901106415
hospital 0.0
jealous 0.0
successful 9.30836493573e-05
trending 3.75494486019e-05
leadership 0.0
showed 2.85178828811e-05
attended 0.0
circle 8.03558194022e-05
interested 0.000612368312036
effect 5.98115743404e-05
success 7.68708010505e-05
ladies 3.11165541261e-05
dreams 0.0
protect 0.000145395370648
arguing 0.0
essence 0.0
control 0.000126733521667
happier 0.0
likely 0.000272977069148
cancel 0.0
project 0.000384354005253
laying 4.69370220325e-05
lesson 0.000126260847563
fridays 0.0
invited 6.38613463871e-05
treating 4.31533827575e-05
allowing 3.9783146126e-05
remote 9.95947902042e-05
opening 4.93379469031e-05
alcohol 0.0
popular 9.30836493573e-05
pedestal 0.0
designing 0.0
followed 0.0
enjoyed 2.69134795421e-05
spectacular 0.0
recovered 0.0
length 0.0
matters 0.000238573916928
factor 3.74316063381e-05
england 6.63220618225e-05
shared 6.22331082522e-05
benefit 0.000113755359681
continues 5.53265483359e-05
fathers 4.55478609283e-05
kitchen 0.00018255193455
exciting 0.000217683317161
corner 0.0
spring 2.89980444474e-05
fallen 3.99139681865e-05
victoria 0.000151247102071
tornado 0.0
typical 0.0
continue 0.000130938991464
creative 6.4045941673e-05
excuse 3.28710901917e-05
female 0.000151225715363
closer 0.0
accent 4.95950014384e-05
beginning 0.000114071531524
sooner 4.50482078477e-05
everywhere 8.11843761301e-05
scenes 0.0
wishing 0.0
choices 3.67371902486e-05
unpredictable 0.0
become 0.000260579843993
photographs 0.0
spread 0.00025903936157
season 5.00105895241e-05
putting 0.00011908648599
annoying 0.0
quietly 4.8609397538e-05
extending 0.0
stance 4.39236535141e-05
sleepy 0.0
returns 0.000121667016427
bucket 0.0
condolences 0.0
register 0.000168761665476
flowers 0.0
define 8.87975207456e-05
somebody 0.0
chicks 0.0
covering 0.000140357003399
repeat 3.16560238533e-05
football 0.0
brothers 3.47736269322e-05
player 0.0
physical 0.0
series 0.000246689734516
pretend 3.9783146126e-05
fighting 5.16670500952e-05
atlanta 7.85346248319e-05
mexico 0.00013110106096
president 0.000983171282633
talking 0.000727998861709
america 0.000265551796047
greats 0.0
everybody 0.0
judgment 5.37901447875e-05
amount 3.18387515095e-05
houston 3.86386717041e-05
everyday 6.4417412778e-05
shooter 0.000123747655394
attitude 0.000200889548505
million 0.000214355674781
honesty 4.88031046693e-05
telling 7.72899988401e-05
pulled 3.40538976127e-05
attack 0.000175452069627
killed 2.52780079569e-05
horrible 0.0
norman 0.0
salute 0.0
jacksonville 0.0
barackobama 0.000131302444993
lilduval 0.0
liquor 0.0
american 0.000385215114232
realist 0.0
remain 6.38613463871e-05
innocent 0.0
pieces 0.000100660517658
taught 0.000301092708317
golden 0.0
straight 0.000125706197018
forgive 0.0
answers 0.000292420116045
product 0.0
smoking 0.000135640598118
created 0.000218282103574
record 9.47563069064e-05
weapon 0.0
bottom 0.0
arrangements 0.0
africa 0.0
committed 7.14681175612e-05
journey 2.94886451221e-05
brother 0.0
prayers 0.0
documentary 6.79058553606e-05
addition 3.95237554283e-05
honestly 6.47919666661e-05
velvet 0.0
country 0.000281217610612
speedy 0.0
dressing 0.0
employee 0.0
yoooooo 0.0
prayer 0.0
nominated 6.81077952253e-05
praying 0.0
insane 3.35535058861e-05
illest 0.0
shooting 0.000113440291407
cancer 0.000370732477454
australia 6.73054010344e-05
marijuana 0.0
deserve 2.78162696166e-05
legend 0.0
mother 7.58340238708e-05
murder 3.67371902486e-05
realest 0.0
powerful 0.000221306193343
attendance 0.0
wisdom 7.6539449842e-05
breaking 0.00041485914817
bothered 0.000106147360192
angeles 0.0
dollars 0.0
soldiers 0.0
performance 0.0
reading 0.000674126449906
videos 0.00175452069627
jordan 0.0
nobody 0.000111265078466
politics 0.000289040827736
paradise 0.0
blessing 0.0
coolest 0.0
strippers 0.0
charities 0.0
donate 3.05896801808e-05
bullshit 4.34583433747e-05
sample 0.0
rocking 0.0
bringing 2.5484727652e-05
deserves 6.03196489495e-05
hilarious 3.00748272283e-05
victim 0.00017261353103
stadium 0.0
funniest 8.28108134096e-05
heaven 0.0
ruined 0.0
honest 2.82033587341e-05
rolling 6.81077952253e-05
became 0.000141800364258
driver 0.000104008177115
breakfast 2.85178828811e-05
decision 0.000197971058293
counting 3.2208706389e-05
pressure 9.25547386459e-05
awareness 9.74706235902e-05
dearly 0.0
lastnight 0.0
facebook 7.28156832854e-05
basketball 0.0
campaign 0.000315972956126
twisted 0.0
defined 0.0
discover 0.000115916015112
comments 0.000304296015847
giveaway 0.0
bipolar 0.0
teenage 0.0
williams 0.0
custom 9.10957218566e-05
singer 0.0
future 0.00142567230241
randomly 5.55560419446e-05
angels 0.0
blessed 0.0
sister 3.05030515053e-05
stripper 0.0
dancing 3.18387515095e-05
reigns 0.0
voting 0.000139851547054
niggas 0.0
commercial 6.22331082522e-05
hating 0.0
boring 0.000117801937248
century 0.000185988759971
acting 6.49804157268e-05
submit 0.000274871186912
besides 0.0
hiding 7.43955039883e-05
periscope 0.0
breath 3.85150180126e-05
choosing 0.0
lawrence 5.19279141165e-05
instagram 0.0
detroit 8.42347007238e-05
cousin 0.0
honored 3.1474763905e-05
dedication 4.78507801471e-05
rockin 0.0
fucked 0.0
lionelrichie 0.0
talent 3.02451430725e-05
goodnight 0.0
stores 4.112680141e-05
drinking 0.000270018664761
brazil 4.07152384727e-05
tattoo 0.0
consecutive 0.0
regardless 0.0
staring 0.0
commitment 3.75494486019e-05
seconds 6.06615709218e-05
ohhhhhh 0.0
listen 0.000398391615034
whatever 0.0
wherever 0.0
kicking 0.0
compete 4.25555533002e-05
lauderdale 0.0
homies 0.0
billion 9.74706235902e-05
belated 0.0
pirate 0.0
shoutout 0.00012855746521
grammy 0.0
guilty 3.83920381865e-05
ceiling 5.19279141165e-05
grammys 0.0
absolute 3.32585115909e-05
nelson 0.0
mandela 0.0
bigsean 0.0
handle 0.0
tonite 0.0
cocaine 0.0
promise 0.000134567397711
longest 0.0
generation 0.000186699324756
tuesday 2.57633329467e-05
struggle 0.0
workout 0.0
character 3.03307854609e-05
mirror 0.0
interview 0.000253645477877
buffalo 0.0
justin 0.0
insights 0.000331770911072
winning 0.0
oxygen 0.0
espnnfl 0.0
charlotte 0.0
accomplished 0.0
defense 0.000109193503039
gettin 0.0
arabia 0.0
lmfaooooo 0.0
writing 0.00039388987904
soccer 0.0
society 0.000719783810311
brooklyn 0.0
incredible 0.000122347802939
witcho 0.0
celebrity 3.70817273569e-05
minute 0.000229986514582
foreign 0.000225296691611
cherry 0.0
champs 0.0
murdered 0.0
evidence 0.000639401309827
android 0.0
sneaking 7.22729256076e-05
clearly 0.000287566866147
download 6.4045941673e-05
mixtape 0.0
central 2.99057871702e-05
washington 0.000269911340295
veterans 0.0
stronger 7.21270122483e-05
promised 0.000111593255982
marcus 0.0
zombie 5.19279141165e-05
throwing 0.0
security 0.000300748272283
fastest 0.0
fantasy 0.000172009736344
turning 2.83600728517e-05
ignore 3.24902078634e-05
fucking 4.14054067048e-05
tickets 2.74357084522e-05
collector 0.0
prizes 4.82269012244e-05
december 0.00012589905562
loyalty 5.17055798822e-05
return 7.5219494144e-05
escape 0.0
yassss 0.0
goddess 0.0
handsome 0.0
language 6.34944054677e-05
motion 0.0
gallery 0.0
movies 0.000203717566082
children 0.000349126796449
backpack 6.73476536403e-05
potentially 9.87888137064e-05
guardian 0.000245932668549
review 0.000296860826146
theaters 0.0
shhhhh 0.0
begins 8.14074413293e-05
closet 0.0
bodies 0.0
hahaha 0.0
produced 3.55170692026e-05
latest 0.000736075078291
banned 8.11594041518e-05
beyonce 0.0
perform 7.25716807169e-05
lionel 0.0
signed 7.50158842861e-05
princess 0.0
ghetto 0.0
conditioning 7.45894954422e-05
charity 3.16560238533e-05
germany 0.0
ronaldo 0.0
married 0.0
millions 0.00024541314149
blessings 0.0
diamond 0.0
nephew 0.0
lights 0.0
howard 0.0
turned 0.000174091149156
buckle 0.0
relevant 0.000483732566516
performing 3.63978343463e-05
indian 0.0
includes 0.000168761665476
tricks 0.0
survivor 0.0
diamonds 0.0
collection 3.11165541261e-05
families 2.89980444474e-05
welcoming 0.0
select 0.0
announced 0.0
granted 4.34583433747e-05
decided 8.14074413293e-05
selfish 0.0
trailer 3.42572029719e-05
reppin 0.0
celebration 0.0
decades 0.000218387006078
ultimate 3.28710901917e-05
incase 0.0
downtown 0.0
seasoning 0.0
episode 0.000432983339361
mentality 0.0
touching 4.3612383169e-05
retweet 2.87566866147e-05
goodmorning 0.0
midnight 3.05896801808e-05
expectations 0.0
joining 5.33866289138e-05
reasons 5.2806125934e-05
released 0.000211224503736
release 0.000273571805817
models 0.0
popped 0.0
within 0.0
standing 7.77118084709e-05
valentines 0.0
justice 6.10061030107e-05
houses 0.0
purchase 3.88880305091e-05
dropped 5.59406188218e-05
conversations 0.000210586751809
seattle 0.0
strength 6.27693539799e-05
monica 5.47822492618e-05
incredibly 9.60689125095e-05
streets 0.0
private 0.000116316296518
inspirational 0.0
barbie 0.0
tables 0.0
affection 0.0
broski 0.0
pissing 0.0
designer 0.0
cooking 0.0
tattoos 0.0
direction 0.0
readyyyyy 0.0
exclusive 2.69134795421e-05
adrianalima 0.0
fashion 3.27752652399e-05
talkin 0.0
bitches 0.0
nailed 0.0
kitten 0.0
whomever 0.0
ruthless 0.0
teaching 0.000380222007573
chillin 0.0
philly 0.0
baddest 0.0
cheers 0.0
autumn 0.0
presents 0.0
flawless 0.0
unique 3.47736269322e-05
handed 0.0
taraji 0.0
victory 6.47919666661e-05
tribute 0.0
ballin 0.0
horror 4.50482078477e-05
females 0.0
catfish 0.0
action 0.000219038318629
wouldnt 0.0
recipient 0.0
whitney 0.0
continued 0.0
esther 0.0
letter 0.000363614022341
existence 0.0
papers 0.000207730049575
winter 3.06766426862e-05
sessions 0.000241067458207
replicating 0.0
foundation 0.000193812903539
syndrome 0.0
colorado 0.000100003240815
tremendous 0.0
public 0.00165885801966
cannot 0.000101112031828
brilliant 0.000250346426549
illustration 0.0
beware 5.04157006902e-05
globally 0.0
premieres 0.0
streaming 7.41634547137e-05
immigration 0.000126352051086
wrapped 8.51111066004e-05
studio 3.15652118907e-05
february 0.0
amazon 6.8719093299e-05
border 0.00026543566459
huffingtonpost 5.23792640067e-05
francis 5.19279141165e-05
january 6.27693539799e-05
relationships 4.72980976114e-05
tragic 0.0
secure 4.14054067048e-05
countries 0.000163399227344
episodes 8.17031876512e-05
broadcast 0.0
tickled 0.0
livestream 0.000155116739647
potential 0.000156474741372
education 0.000183018309032
famous 0.0
unknown 4.50482078477e-05
exists 4.21173503619e-05
orders 0.000122145715418
microsoft 0.000111639966918
ability 9.89019713397e-05
director 0.000226252638049
accessible 0.000290253059655
correction 4.58872168306e-05
william 0.0
editors 0.000102970829594
yellow 0.0
passionate 4.112680141e-05
treatment 7.10341384052e-05
ambassador 3.91401755037e-05
thanking 0.0
streamed 6.02014521914e-05
lovers 0.0
wrinkled 0.0
bridge 0.0
magazine 6.294952781e-05
sincere 0.0
quotes 0.0
result 9.80395364064e-05
destruction 0.0
edition 0.0
prince 6.57421803834e-05
indiana 9.07601553704e-05
editorial 0.0
emotion 0.0
mistakes 0.0
inspiring 3.05896801808e-05
counter 4.28524884033e-05
disappointing 4.55478609283e-05
edited 0.000319859899327
spotlight 4.64060153626e-05
saddest 0.0
production 0.000108523198289
header 6.29401713694e-05
itunes 0.000299452850704
guests 7.10341384052e-05
snakes 0.0
charging 0.0
arriving 0.0
mysteries 0.0
dangerous 0.000243334032854
typically 0.0
saving 3.28710901917e-05
universe 0.000181989171732
victims 9.8613270575e-05
receive 6.38613463871e-05
proceeds 0.0
crossed 4.00455530622e-05
received 2.90790741296e-05
limitations 7.06793171707e-05
studying 9.57015602942e-05
conflict 4.7116837663e-05
petition 8.17031876512e-05
milestones 0.0
outstanding 0.0
devastating 0.000209865767176
installment 0.0
signature 0.0
mistletoe 0.0
awards 0.0
shelves 0.0
smells 4.95950014384e-05
themed 0.0
sisters 0.0
banquet 0.0
danger 0.000118959234262
leading 5.75133732294e-05
member 7.98612025448e-05
dominant 0.0
distinguish 0.0
factories 0.0
distinct 0.0
distance 4.37674816643e-05
confirmed 0.000197803942679
behavior 0.000356475027467
collect 0.0
vanity 6.08556064642e-05
junior 0.0
communities 0.000302073679303
worldwide 0.000150671637852
canada 0.000150799122374
recognized 0.0
vessels 0.0
movement 3.02451430725e-05
segment 0.000135640598118
internal 9.42336753261e-05
information 0.000214736498804
easily 3.33564151815e-05
towards 6.59346475598e-05
october 3.16560238533e-05
belgium 0.0
european 3.90137508468e-05
caribbean 0.0
cities 0.000237670493762
arrives 4.58872168306e-05
extraordinary 3.8269724921e-05
exquisite 0.0
argentina 0.0
eliminate 0.0
genius 0.000150374136142
prepared 6.85144059437e-05
anthony 0.0
breakthrough 5.40341119446e-05
berlin 0.0
batman 0.0
upcoming 0.000128091883346
upgrade 0.0
singapore 0.000175036818679
crucial 4.31533827575e-05
scratch 0.000145828192614
collaboration 0.000283788585668
tested 0.000228584504932
acquire 0.0
honoring 4.7116837663e-05
holland 0.0
visually 8.73711961306e-05
neyocompound 0.0
inspire 0.000115545054038
ebonymag 0.0
spiketv 0.0
constant 0.0
sunset 0.0
tuning 0.0
gentleman 0.0
fulfilling 0.0
ayeeeee 0.0
stratford 0.0
poland 5.89474216841e-05
philippines 0.0
kickin 0.0
theweeknd 0.0
september 0.0
manchester 0.0
rickyrozay 0.0
remarkable 3.90137508468e-05
rihanna 0.0
disgusted 0.000132115548897
immoral 0.0
process 5.76737054921e-05
goosebumps 6.60577744483e-05
performances 0.0
strangers 5.21524606681e-05
emotions 0.0
judgement 0.0
comparing 5.00016204076e-05
thuggin 0.0
studios 0.0
jennifer 4.50482078477e-05
performer 0.0
literally 0.000139851547054
cardiff 0.0
soooooooo 0.0
crashed 5.08375212378e-05
cthagod 0.0
closed 0.0
justinbieber 0.0
complexmag 0.0
billboard 0.0
airing 4.53800776852e-05
albums 0.0
sweden 0.0
katyperry 0.0
treats 4.82269012244e-05
missouri 0.0
thefader 0.0
soundtrack 0.0
theellenshow 0.0
sweets 0.0
festival 0.000199551069545
wizkhalifa 0.0
amsterdam 0.0
backstage 0.0
collab 0.000183569804059
subscribed 0.0
joined 0.000139081348083
davidguetta 0.0
pushing 0.0
hopeful 0.0
romantic 0.0
mentions 8.48170763457e-05
lurking 0.0
ballad 0.0
teamed 0.0
exclusively 0.0
kingjames 0.0
hollyrpeete 0.0
sneakers 0.0
auction 0.0
sneaker 0.0
djkhaled 0.0
express 3.49835516296e-05
thegrammys 0.0
throughout 3.58433410389e-05
shining 0.0
excellence 0.000111112083889
thrown 4.30024340861e-05
zendaya 0.0
playin 0.0
applemusic 0.0
crunch 0.0
capitalofficial 0.0
filmed 0.0
toronto 4.03110472096e-05
naomicampbell 0.0
trvisxx 0.0
killin 0.0
trucks 0.0
stands 0.00012553870796
platinum 0.0
native 4.58872168306e-05
spotify 0.0
rocked 0.0
jumped 0.0
leebruhgreene 0.0
leaning 0.0
featured 3.55170692026e-05
announce 0.0
senior 0.000247865462959
iamdiddy 0.0
haters 4.76650445946e-05
nothin 0.0
appreciation 0.0
defjamrecords 0.0
floating 0.0
superstars 0.0
shondarhimes 0.0
premiere 0.0
orchestral 0.0
makeup 0.0
touched 0.000126787423819
newest 3.651038691e-05
designed 6.9756690363e-05
passes 3.70817273569e-05
angelasimmons 0.0
tidalhifi 0.0
vashtie 0.0
delivered 0.0
owning 0.0
producer 0.0
balmain 0.0
legendary 0.0
independence 4.08515938256e-05
mtvmusicuk 0.0
audition 0.0
debuts 0.0
footage 0.0
marshall 0.0
spends 0.0
playtime 0.0
completed 0.0
dishes 0.0
photographed 0.0
bubble 0.0
belong 0.0
tongue 0.000145252016994
observing 0.0
consistent 4.7116837663e-05
posing 0.0
heavens 0.0
contemporary 0.0
aiming 0.0
ceremony 8.06220944193e-05
brighter 0.0
rainbow 0.0
matthew 0.0
phenomenal 0.0
affected 0.000139513380726
rivers 0.0
presenting 0.0
competitive 4.53800776852e-05
eskimo 0.0
sibling 0.0
dakota 0.000180604356574
printed 0.0
heroes 0.0
deepest 0.0
describe 0.0
hollywood 3.32585115909e-05
baggage 7.45894954422e-05
terrifying 4.43987603728e-05
animation 0.0
nationwide 0.0
capital 0.0
quantity 0.0
nominations 4.62317539389e-05
mountains 5.40341119446e-05
mosaic 0.0
realise 5.04157006902e-05
overload 0.0
photographer 0.0
depression 0.0
donation 3.8269724921e-05
marvelous 0.0
madonna 0.0
sailed 0.0
terror 4.25555533002e-05
rinsed 0.0
disorder 0.0
polish 0.0
represents 0.0
touchdown 0.0
creates 4.45593784333e-05
oxford 0.0
stitched 0.0
morocco 0.0
thrill 0.0
balloons 0.0
teaming 0.0
latimes 5.83456062262e-05
kerrywashington 0.0
caution 0.0
camouflage 0.0
approaching 0.0
generous 0.0
installation 0.0
benefiting 0.0
basics 0.0
confirm 3.67371902486e-05
thrilling 0.0
photography 0.0
matches 0.0
boundaries 0.0
singles 0.0
laptop 0.000101251250775
obvious 3.8269724921e-05
darling 0.0
celebrations 0.0
chewbacca 0.0
underwater 0.0
naughty 0.0
advised 0.0
feelin 0.0
macaroni 0.0
perfection 0.0
picasso 0.0
recipe 9.42336753261e-05
radical 4.72980976114e-05
volcano 7.39876799843e-05
planted 0.0
products 0.000737798005646
directed 3.86386717041e-05
grabbed 6.4059412756e-05
frames 0.0
casual 0.000385260703888
scheming 0.0
twickenham 0.0
bbcnews 0.0
pledge 0.0
subtle 0.000214195147819
embarrassed 0.0
snatch 0.0
unveiling 0.0
kissed 0.0
arguments 4.74808252676e-05
settling 0.0
desperate 4.30024340861e-05
executive 3.76679094631e-05
humbled 0.0
courage 3.73143762446e-05
dropping 0.0
carried 0.0
behalf 0.0
hardest 0.0
marking 0.0
vision 0.0
intervention 0.0
records 3.42572029719e-05
deeply 0.00018255193455
mannered 0.0
texted 0.0
israeli 0.0
strongest 0.0
rogers 0.0
concept 0.000122966334274
allegiance 0.0
belongs 0.0
intended 4.78507801471e-05
bosses 0.0
purpose 3.45656370521e-05
hottest 0.0
campaigns 0.0
sunderland 0.0
teenager 0.0
runway 0.0
steven 4.55478609283e-05
guitar 0.0
donating 8.17031876512e-05
applause 0.0
finale 0.0
wasted 0.0
absent 0.0
awhile 0.0
fierce 0.0
sincerely 0.0
apology 0.0
climbing 0.0
unwilling 0.0
protesting 0.0
bikini 0.0
friendships 0.0
matching 0.0
wolves 0.0
mosque 0.0
venezuela 0.0
donates 0.0
generations 4.48840853626e-05
underestimate 0.0
pardon 0.0
stickers 0.0
mothers 8.42347007238e-05
deeper 4.80380570911e-05
nipple 0.0
perfume 0.0
noodle 0.0
melissa 0.0
forest 0.0
panties 0.0
jimmykimmel 0.0
everytime 0.0
underdog 0.0
shoulders 0.0
wrapping 5.71880836731e-05
bedroom 5.26083699567e-05
glitter 7.3401497878e-05
stocking 6.69094507019e-05
annoyed 0.0
behave 6.05261591206e-05
goodbye 3.55170692026e-05
fuckin 0.0
seller 0.0
joshgroban 0.0
samsungmobileus 0.0
influential 0.0
slicing 0.0
ryanseacrest 0.0
farmer 0.0
teaser 0.0
styled 0.0
casting 0.0
imitated 0.0
forgiveness 6.52370751964e-05
perezhilton 0.0
blacked 0.0
paparazzi 0.0
peoplemag 0.0
rolled 0.0
vanityfair 6.11899346864e-05
rockstar 0.0
thousand 4.18298720508e-05
minded 0.000166668125834
shines 0.0
sunglasses 0.0
auntie 0.0
magazines 0.0
waited 0.0
denmark 0.0
leather 0.0
wished 0.0
ladygaga 0.0
swallow 0.0
glblctzn 0.0
shakira 0.0
accessories 0.0
nbcthevoice 0.0
clique 0.0
premiering 0.0
loooooove 0.0
weareheremvmt 0.0
looooove 0.0
vmagazine 0.0
popcrush 0.0
studded 0.0
yassssss 0.0
yessss 0.0
undeniable 0.0
unicef 0.0
auditions 0.0
ellemagazine 0.0
yasssss 0.0
pharrell 0.0
greece 0.0
papermagazine 0.0
nowwwww 0.0
maccosmetics 0.0
macaidsfund 0.0
lipstick 0.0
meeeee 0.0
newsstands 0.0
unapologetically 0.0
insidebates 0.0
legalize 0.0
loooove 0.0
caradelevingne 0.0
allllll 0.0
badgalriri 0.0
itsjeremyscott 0.0
nickiminaj 0.0
nipples 0.0
booooo 0.0
trippy 0.0
mikewillmadeit 0.0
puttin 0.0
trappin 0.0
alexanderwangny 0.0
karllagerfeld 0.0
celebratin 0.0
lilyallen 0.0
fuuuuuck 0.0
chanel 0.0
rubber 5.71880836731e-05
angelou 0.0
misses 0.0
harpersbazaarus 0.0
timberlake 0.0
photoshopped 6.64795949959e-05
whatchu 0.0
rehearsals 0.0
couture 0.0
mutual 0.0
creeper 0.0
cuddling 0.0
celine 0.0
theamas 0.0
thexfactor 0.0
websterhall 0.0
presale 0.0
deluxe 0.0
styles 0.0
wetten 0.0
shittttttttttt 0.0
boredom 0.0
darealamberrose 0.0
noooooooo 0.0
itunesmusic 0.0
cbstweet 0.0
thermal 0.0
mariners 0.0
torres 0.0
thebeatles 0.0
blondies 0.0
greeting 0.0
thecut 0.0
geeked 0.0
outlet 0.0
americanexpress 0.0
gqmagazine 0.0
nicole 0.0
bumped 0.0
hangover 0.0
stockholm 0.0
casually 0.0
esquire 0.0
winnipeg 0.0
begging 0.0
showroom 0.0
sleeves 0.0
smelling 7.3401497878e-05
guaranteed 0.0
obsession 4.72980976114e-05
attendant 7.01721780253e-05
aussie 0.0
tbsveryfunny 0.0
reservation 0.000152995360445
mollymcnearney 0.0
dragging 0.0
rocnation 0.0
tapered 0.0
badass 0.0
endlessly 0.0
vampires 0.0
viewers 0.0
kanyewest 0.0
designers 0.0
billboards 0.0
backstreetboys 0.0
monteith 0.0
e_fashionpolice 0.0
epically 0.0
internationally 0.0
mighty 0.0
jcolenc 0.0
semifinals 0.0
brasilia 0.0
tailgating 0.0
photoshoot 0.0
smokin 0.0
ahhhhhh 0.0
missin 0.0
sweats 0.0
impacted 0.000123747655394
rodriguez 0.0
musician 0.000174151835793
merchandise 0.0
jurgen 0.0
athleteally 0.0
originals 0.0
número 0.0
zealand 0.0
hehehe 0.0
fearless 0.0
stadiums 0.0
thiago 0.0
suarez 0.0
cropped 0.0
uruguay 0.0
apparel 0.0
staircase 0.0
wintour 0.0
spotting 0.0
polygraph 0.0
twerking 0.0
shipment 0.0
muggin 0.0
takeoff 0.0
thailand 0.0
tomorr 9.49642783653e-05
googleplay 0.0
budweiser 0.0
miafestival 0.0
dotted 0.0
burning 7.9566292252e-05
surpass 0.0
betcha 0.0
onairwithryan 0.0
dreamers 0.0
brunomars 0.0
beyoncé 0.0
hellooo 0.0
subscribers 6.11899346864e-05
preorder 0.0
believer 6.52370751964e-05
fragrance 0.0
hellooooo 0.0
majesty 0.0
beatsbydre 0.0
finland 0.0
fearnecotton 0.0
debuted 0.0
queued 0.0
rhetorical 0.0
iranian 6.52370751964e-05
infamous 0.000140344356051
brutally 0.0
execution 0.0
palestinian 0.0
transplant 0.0
audacity 0.0
foreplay 0.0
priced 0.0
huntington 0.0
manger 0.0
weaker 0.0
justintrudeau 7.11981157027e-05
creeping 0.0
fittest 0.0
hoodie 0.0
mankind 0.0
westwood 0.0
holographic 0.0
throwin 0.0
eminem 0.0
ecstatic 0.0
enjoys 0.0
wussup 0.0
duplicated 0.0
crotch 0.0
congrat 0.0
huggin 0.0
implement 0.0
penalizing 0.0
gonzalez 0.0
bitchin 0.0
sephora 0.0
damien 0.0
demanded 0.0
negativity 0.0
alancarr 0.0
skillz 0.0
hopeless 0.0
beatle 0.0
cheesecake 0.0
almighty 8.255152446e-05
whatcha 0.0
slumber 8.34366081842e-05
chimney 0.0
headlining 0.0
perplexed 0.0
googleplaymusic 0.0
thrills 0.0
rollers 0.0
bravotv 0.0
gifted 0.0
kekepalmer 0.0
styledtorock 0.0
yooouuu 0.0
shantay 0.0
yaaaas 0.0
bestest 0.0
freestyle 0.0
everrrrr 0.0
sweatband 0.0
podolski 0.0
collaborating 0.0
bestfriend 0.0
sittin 0.0
whaaaat 0.0
clockwork 0.0
warmest 0.0
temptation 0.0
spiritual 0.0
chameleon 0.0
customised 0.0
acrylic 0.0
grasshopper 0.0
engages 0.0
gourmet 0.0
rhythmic 0.0
petals 0.0
klinsmann 0.0
directv 0.0
popcrave 0.0
versailles 0.0
raddest 0.0
grandfather 0.0
persie 0.0
webster 7.39876799843e-05
knight 0.0
footwear 0.0
collectors 8.84722311892e-05
blackout 0.0
skylight 0.0
hammock 0.0
playhouse 0.0
revelers 0.0
executed 0.0
cincinnati 0.0
simultaneously 0.0
malawi 0.0
graduated 0.0
sickening 0.0
mueller 0.0
elonjames 0.0
skeletons 0.0
mittromney 0.0
connecticut 0.0
cumulative 0.0
racked 0.0
valera 0.0
thighs 0.0
timely 0.000266549916106
rapping 0.0
shrugs 0.0
enables 0.0
psychic 0.0
fernando 0.0
tourism 0.0
slaughtered 0.0
devotion 0.0
fantasies 0.0
parsons 0.0
stella 0.0
complainers 0.0
newsstand 0.0
voguemagazine 0.0
westfield 0.0
manolo 0.0
turquoise 0.0
parisian 0.0
childs 0.0
swimsuit 0.0
bazaar 0.0
empress 0.0
brainstorm 0.0
tanning 0.0
desirable 0.0
feathers 0.0
antics 7.52078010303e-05
featurette 0.0
olivier 0.0
helloooo 0.0
hallow 0.0
connie 0.0
upbringing 0.0
privatize 0.0
bittersweet 7.45894954422e-05
outlaw 0.0
marcel 0.0
nowwww 0.0
hushed 0.0
threshold 0.0
floats 0.0
barbados 0.0
manuelcav 0.0
niggaz 0.0
prayin 0.0
drizzyxcole 0.0
homegirl 0.0
rappin 0.0
witcha 0.0
mufasa 0.0
dainternz 0.0
lololol 0.0
barclayscenter 0.0
bestbuy 0.0
blackouts 0.0
rivera 0.0
jakemiosge 0.0
givenchy 0.0
riccardo 0.0
grossed 0.0
guetta 0.0
spicewon 0.0
bitche 0.0
shawty 0.0
wednesdays 0.0
payday 0.0
jewelers 0.0
romero 0.0
acknowledging 0.0
calypso 0.0
blushes 0.0
medusa 0.0
keepers 0.0
futuristic 0.0
whereabouts 0.0
slayed 0.0
asvpxrocky 0.0
haaaaa 0.0
inezandvinoodh 0.0
calvinharris 0.0
_maxwell_ 0.0
bwerde 0.0
edward_enninful 0.0
haaaaaa 0.0
wisest 0.0
unconditionally 0.0
drmayaangelou 0.0
blackgirlsrock 0.0
submissive 0.0
rearrange 0.0
attuned 0.0
abrams 0.0
awaken 0.0
climbs 0.0
jacking 0.0
seventy 0.0
snatching 0.0
manoloblahnik 0.0
nicolerichie 0.0
openingceremony 0.0
whiteley 0.0
supermodel 0.0
the_real_iman 0.0
minogue 0.0
tmagazine 0.0
baaaaack 0.0
yeessss 0.0
wooooo 0.0
epicness 0.0
takawiraa 0.0
joplin 0.0
uncensored 0.0
unspeakable 8.255152446e-05
rewrites 0.0
askdrruth 0.0
glozell 0.0
tardiness 0.0
runways 0.0
colombian 0.0
unapologetic 0.0
zac_posen 0.0
rumoured 0.0
omgggg 0.0
futbol 0.0
biatch 0.0
barrington 0.0
catwalk 0.0
sledgehammer 0.0
clemente 0.0
dollaz 0.0
mariah 0.0
granddad 0.0
iyanlavanzant 0.0
hustler 0.0
coletteparis 0.0
flexin 0.0
mistress 0.0
exceeds 0.0
sweeeeeet 0.0
stancesocks 0.0
serviced 0.0
issssss 0.0
lipglass 0.0
externally 0.000101963464687
complex_uk 0.0
prideful 0.0
dash_radio 0.0
holidaze 0.0
mawnin 0.0
champagnepapi 0.0
fashawn 0.0
raided 0.0
ahhhhhhhh 0.0
soulmate 0.0
motorbikes 0.0
britishvogue 0.0
gnlstudios 0.0
robinsoncano 0.0
debuting 0.0
cc_sabathia 0.0
colorways 0.0
hit_boy 0.0
_spyda 0.0
phresh 0.0
dominates 7.78657804362e-05
ratchet 0.0
rupaul 0.0
cockpit 0.0
kimmiekyees 0.0
horoscope 0.0
catwalks 0.0
paramedic 0.0
fhollande 0.0
sexiness 0.0
hereeee 0.0
changers 0.0
tiptoes 0.0
revved 0.0
meditative 0.0
fauntleroy 0.0
mbsings 0.0
disrespectfully 0.0
traumatized 0.0
outdid 0.0
elvispresley 0.0
toupee 0.0
josephine 0.0
discography 0.0
mariasharapova 0.0
chinchilla 0.0
skylar 0.0
illestbaba 0.0
georgiamjagger 0.0
pierced 0.0
hardrock 0.0
snorkeling 0.0
thrilla 0.0
gunpoint 0.0
sleeved 0.0
stevestoute 0.0
kiiiiiiiiiiiiinnnngggggg 0.0
lanvin 0.0
chateau 0.0
lizzs_lockeroom 0.0
prophets 0.0
müller 0.0
lullaby 0.0
samersum 0.0
disassembled 0.0
anniversaries 0.0
hayden_williams 0.0
rousteing 0.0
slayage 0.0
raunchy 0.0
benzema 0.0
fuckery 0.0
hellooooooo 0.0
juliagillard 0.0
congeniality 0.0
gunned 0.0
condense 0.0
missjillscott 0.0
yussss 0.0
chopard 0.0
woodbridge 0.0
orousteing 0.0
dubsmash 0.0
alicialquarles 0.0
worldmcqueen 0.0
whateva 0.0
elysées 0.0
jennnrosales 0.0
xstrology 0.0
looool 0.0
tippin 0.0
marleys 0.0
dwanimation 0.0
dreamworks 0.0
yaself 0.0
anothermagazine 0.0
claralionelfdn 0.0
mchingi 0.0
rihannareplay 0.0
awtguide 0.0
ryannavy_rih 0.0
rihquest 0.0
gpforeducation 0.0
valliniandre 0.0
globalfund 0.0
rhenna 0.0
millymaefenty 0.0
peetes 0.0
pandagunda 0.0
floriamamaroma 0.0
adoringrihanna 0.0
ymcofficial 0.0
rihanti_ 0.0
mcdean 0.0
rihannadaily 0.0
stancemuse 0.0
muhtean 0.0
rihdefine 0.0
officialdonnie 0.0
stunnafenty 0.0
perfumesbyriri 0.0
badgal 0.0
shaninamshaik 0.0
reblrihanna 0.0
elliscole_ 0.0
itskaitbh 0.0
harpersbazaarcn 0.0
yusefhairnyc 0.0
mylahmorales 0.0
teamofrihanna 0.0
muhphucka 0.0
harpersbazaar 0.0
rihrihfreak 0.0
thenbacentral 0.0
roversi 0.0
suchaf_cknlady 0.0
fourfiveseconds 0.0
petergrayhair 0.0
wkorea 0.0
dennisleupold 0.0
ursulastephen 0.0
ozzysalvatierra 0.0
ciarrap 0.0
rihannaargntina 0.0
rihearsal 0.0
sremmurd 0.0
id_magazine 0.0
heauxm 0.0
rihpost 0.0
jrgseul 0.0
bitchez 0.0
underst_navy 0.0
sonitaalex 0.0
chris_walden 0.0
danachanel 0.0
wednesdayz 0.0
jimmyfenty 0.0
houseoffraser 0.0
skeete 0.0
_kailssss 0.0
muhphuckas 0.0
phuckin 0.0
rastafarih 0.0
obviiii 0.0
etherihalvibe 0.0
rorreyfenty 0.0
noellaalstrom 0.0
rihturn 0.0
tellar 0.0
esquireuk 0.0
huffpoststyle 0.0
tyronmachhausen 0.0
melottenberg 0.0
paolakudacki 0.0
tompecheuxmu 0.0
lgoldstein_ltd 0.0
phucking 0.0
kudacki 0.0
hellurrr 0.0
tom_ford 0.0
neakah 0.0
creepah 0.0
pahtna 0.0
wontonsan 0.0
cappadonna 0.0
phuckmarqy 0.0
elfies 0.0
starstunning 0.0
ohnana 0.0
tushmagazine 0.0
macxriri 0.0
rickrubin 0.0
findataui 0.0
tristate 0.0
distoyb 0.0
kabukimagicnyc 0.0
yerdme_cmb 0.0
hittas 0.0
evan_erogers 0.0
jessieriri 0.0
unfourgettable 0.0
meeeaan 0.0
shweinsteiger 0.0
goooooooaaaaallllllll 0.0
goooal 0.0
braaaaaaaaaaaaaaaaaa 0.0
asapkoff 0.0
belgiuuuuummm 0.0
druchaos 0.0
cuadrado 0.0
murdaaahhh 0.0
colombiaaaa 0.0
karafenty 0.0
dlsturbla 0.0
braaaaaaaaaaaaaaaaaaaaaa 0.0
abouuuutttt 0.0
takecarerihanna 0.0
nathannavy 0.0
theworidcup 0.0
goooooaaaaaaallllll 0.0
bazaararabia 0.0
bigshitxtalker 0.0
__tatijxo 0.0
lhhatl 0.0
braaaaaaaaaaaa 0.0
rihannanavyrd 0.0
gooooooaaaalllll 0.0
triscastellano 0.0
iiiiiiiiiiiiiiiiiiii 0.0
eatmydaisy 0.0
leggooooal 0.0
yaaaaaassssssss 0.0
prettygirl_sp 0.0
ooohhhhhh 0.0
shiiiiitttt 0.0
roooonnnnnnnneeeeeeeyyyyyy 0.0
muslera 0.0
tadpole 0.0
giusichrisriri 0.0
_xomec 0.0
blockedt 0.0
ooooohhhh 0.0
goooooooaaaaaaalllllllllllllllll 0.0
stefansaxon 0.0
rihannademos 0.0
dragonflycici 0.0
chririh 0.0
rihluminati 0.0
goaaaalllll 0.0
twinzies 0.0
mantlers 0.0
suchaf__cknlady 0.0
glamour_robyn 0.0
adamselman 0.0
sephorafrance 0.0
thefashionlaw 0.0
scout_willis 0.0
quietude 0.0
theblackvoice 0.0
weeeed 0.0
kiiiiss 0.0
dooooon 0.0
miiiiss 0.0
malinsworld 0.0
prompics 0.0
itsalldonn 0.0
goooorrrrrrlllllll 0.0
thenewdaily_ 0.0
wiggin 0.0
stevesoboroff 0.0
pivot_tv 0.0
lapolicefdtn 0.0
scarificing 0.0
whooooose 0.0
sambapologetic 0.0
bellaisevil 0.0
sta_schemin 0.0
i_aim_tyga 0.0
fameisloud 0.0
garcon_rebelle 0.0
itsbreezybiotch 0.0
phaedra 0.0
vivala_stephyy 0.0
_bossmadeg 0.0
kontomitrosnick 0.0
sorrenti 0.0
whenevahhh 0.0
teamvivanco 0.0
heifers 0.0
stevenkolb 0.0
jeremy_brossard 0.0
jordanbrossard 0.0
quilted 0.0
piscesareus 0.0
plumsykes 0.0
cedellamarley 0.0
offish 0.0
urprise 0.0
i_love_riri 0.0
rihannadiva 0.0
javiroo 0.0
frihday 0.0
cuntlifex 0.0
_chris_rated_ 0.0
yewmadcunt 0.0
erinwasson 0.0
balmainparis 0.0
_yadim 0.0
muthaphucka 0.0
onnneeee 0.0
liiiiieeesss 0.0
gautier 0.0
mtvstarsvotes 0.0
zinloves 0.0
chloefrahm 0.0
uprising_create 0.0
uprising_darren 0.0
jonnycrave 0.0
jeff_uprising 0.0
kareemfenty 0.0
daily_rihnavy 0.0
unapologeticunt 0.0
rorrey 0.0
foreverrr 0.0
guyanese 0.0
annndd 0.0
historih 0.0
grandfadda 0.0
arleta 0.0
loreleicakes 0.0
river_island 0.0
finallyyyy 0.0
rodin_thinker 0.0
mrs_toyac 0.0
cheersrihrih 0.0
bangbang 0.0
faiz_fenty 0.0
leandra 0.0
noella 0.0
rasshoooolllleee 0.0
luminati 0.0
inezvinoodh 0.0
visvim 0.0
realne 0.0
sarahfrancus 0.0
tadium 0.0
trapstar 0.0
afrihca 0.0
rihrobyn 0.0
cbsgirlfriend 0.0
shyronnie_rn 0.0
mariamfenty_ 0.0
mizzpmf 0.0
whooooaaaaa 0.0
camkaipink 0.0
yasssssssssssssssssssss 0.0
lunaxskye 0.0
yaaaaasssssss 0.0
niggggaaaaaaa 0.0
breeziechillin 0.0
betologetic 0.0
isusjsjdha 0.0
awffffff 0.0
mcdessikins 0.0
skreets 0.0
pieceofria 0.0
loooool 0.0
craaaazzyyy 0.0
lolarae_xoxo 0.0
stayflysamir 0.0
shotta 0.0
tamarawray 0.0
lauraleehickock 0.0
heauxz 0.0
rihannanavyit 0.0
manilla 0.0
ronnyerickson 0.0
nikofenty 0.0
vincehaycock 0.0
zodiacfacts 0.0
naomiiknows 0.0
wrizzap 0.0
muuuch 0.0
hongkong 0.0
jetlaaaaaagggged 0.0
rasshole 0.0
februharry 0.0
kaşara 0.0
çıkmadı 0.0
dicked 0.0
vinoodh 0.0
rihannasblog 0.0
urihannafansite 0.0
teejay 0.0
stupse 0.0
clapbacks 0.0
niggaaaazzzz 0.0
bwaaahaaaaa 0.0
willheardmusic 0.0
kristennoelgipson 0.0
rsvpgallery 0.0
backout 0.0
bwahhaaa 0.0
errwhurr 0.0
niiiiggaz 0.0
fridayz 0.0
debbycoda 0.0
cabbing 0.0
dolly_cohen 0.0
cowboyz 0.0
friendz 0.0
phucker 0.0
charliebymz 0.0
lynn_ban 0.0
inwardly 0.0
ravening 0.0
whyyyyyyyyyyyy 0.0
thatdamnlala 0.0
adamsellman 0.0
scottland 0.0
kingspleasure 0.0
mikkyekko 0.0
rihannanavide 0.0
saskoktz 0.0
phlawless 0.0
givenchydonc 0.0
mlle_yulia 0.0
oxxoxo 0.0
foreva_rn_ladii 0.0
skinhead 0.0
killaz 0.0
yennifer 0.0
bestofpisces 0.0
smegma 0.0
morganemiller_ 0.0
aa_davis 0.0
beenie 0.0
nickeystaar 0.0
frihannamorocco 0.0
thinketh 0.0
guitarists 0.0
jordriri 0.0
badgalclaudia 0.0
hausofnath 0.0
_abirogerson 0.0
tommykane 0.0
livenationuk 0.0
millenniu 0.0
juuuussttt 0.0
helllooooo 0.0
miiiine 0.0
chaneliman 0.0
blushy 0.0
laetitiacrahay 0.0
rihmix 0.0
dariuscash 0.0
joshkillss 0.0
drunk_cockiness 0.0
firebombfenty 0.0
mooky_mcnasty 0.0
defpenradio 0.0
iamrici 0.0
letcha 0.0
niggerish 0.0
mawazine 0.0
thefashionaddicts 0.0
phierce 0.0
errwhere 0.0
jocking 0.0
niggaaa 0.0
tami_black 0.0
homienadz 0.0
religiosity 0.0
joycemeyer 0.0
brooooklyyyyn 0.0
miiiiine 0.0
dilekkeysan 0.0
marykatrantzou 0.0
allaboutpisces 0.0
jfisherjewelry 0.0
oddhangover 0.0
diggins 0.0
phyliciaghee 0.0
bawsin 0.0
howeverrrrr 0.0
channyyxoxo 0.0
dowwwwnnnnn 0.0
thugbitch 0.0
rihanas 0.0
miiiiiinnneee 0.0
rihwrite 0.0
janiseeaileen 0.0
ratchify 0.0
eeeeeemmmmmm 0.0
pannies 0.0
wooooiiiiiiiiiii 0.0
muhphuckers 0.0
bashment 0.0
whaaaaattttt 0.0
liiifee 0.0
covery 0.0
leeeeaaaavvveeee 0.0
haarrrrrddd 0.0
ismashedriri 0.0
christabslg 0.0
reallll 0.0
peoplez 0.0
wooiiiiii 0.0
slackness 0.0
kevfenty 0.0
woooiii 0.0
tatiana_xo 0.0
fentynavysalute 0.0
ratchettt 0.0
rachael_deanna 0.0
lifeeeeee 0.0
bxdcfjcf 0.0
killled 0.0
asdfghjkjhgtfrdedfghjnhbgvfc 0.0
troy_fenty 0.0
_marrymerihanna 0.0
jkbwdhbwh 0.0
_noellaa 0.0
hunneds 0.0
thekingfly 0.0
dooown 0.0
woooiiiii 0.0
phucked 0.0
kickstand_ohb 0.0
acedemy 0.0
mistercap 0.0
gallest 0.0
sinsofmyfather_ 0.0
dwayneofficial 0.0
_revofev 0.0
joefenty 0.0
thegodlight 0.0
molestmerihanna 0.0
rihannanavyeu 0.0
melina 0.0
terryrichardsonstudio 0.0
_sexxtroversy 0.0
neuroticbxtch 0.0
getcho 0.0
moneyyy 0.0
idillionaire 0.0
yaaaaaaas 0.0
noxx_onite 0.0
phonefancy 0.0
chiefin 0.0
londonfashionwk 0.0
_mayor_ 0.0
rihannanow 0.0
jamrock 0.0
rihannastats 0.0
jenesismagazine 0.0
napmed 0.0
hausofbeyhive_ 0.0
probabily 0.0
badgalelly 0.0
ladylivja 0.0
rihannacomics 0.0
__glitterdick 0.0
chelsey_ba 0.0
stashbox 0.0
thuglife 0.0
highladayz 0.0
brrrap 0.0
kalifah 0.0
marylin 0.0
muthafucker 0.0
stylenetwork 0.0
bvalgari 0.0
oooonly 0.0
fuckyopictures 0.0
amplifydot 0.0
trappat 0.0
soumsluvriri 0.0
ibebossedup 0.0
holerringg 0.0
rihskillerdoll 0.0
equaled 0.0
chefette 0.0
rezilientkas 0.0
blastinggggg 0.0
dammnnn 0.0
lifeandtimes 0.0
hausofjazzy 0.0
kaykispeaks 0.0
condesa 0.0
awaaayyy 0.0
flawle 0.0
mandler 0.0
loudies 0.0
dulcattis 0.0
killaaa 0.0
_loveforrihanna 0.0
yesimkayla 0.0
rollingnostone 0.0
richkunt 0.0
yasssssss 0.0
eriricccccc 0.0
cuntmeout 0.0
sashay 0.0
condragulations 0.0
neverrr 0.0
phasetoo 0.0
fooooorde 0.0
ruunavi 0.0
rihtweet 0.0
ishoobernator 0.0
thirstiest 0.0
j_dimps 0.0
deecosey 0.0
itsrihannasnavy 0.0
muthaphuckin 0.0
