awesome 0.000905055398195
christmas 0.0010087909791
trying 0.000766612868469
launch 0.0
moment 0.000289033910976
wonderful 0.000376741042222
seeing 0.000443004890018
hanging 0.000241603698778
sounds 0.000306713986583
contacts 0.0
anybody 7.34799142836e-05
worked 0.000103630075864
direct 0.0
others 0.000206141576597
currently 0.000512967797632
better 0.0015167834786
please 0.00168149220628
social 5.36740794861e-05
anxiety 0.0
around 0.000521394320769
people 0.00398155663133
morning 0.00166794942144
damage 0.0
everything 0.000905458257355
present 0.000162783232495
though 0.000793964217192
friend 0.000862439477028
watched 0.000914942531111
beautiful 0.000834533051547
demanding 0.0
anything 0.000678058582249
tagged 0.0
helped 0.000104475243133
thinking 0.000486946321416
finally 0.000486946321416
caught 5.36740794861e-05
believe 0.000570329011357
already 0.00061785642897
couple 0.0009898304853
launches 0.0
chance 0.000238278488778
annual 6.40690125957e-05
quickly 0.000199472192869
growing 0.0
probably 0.00062010011776
changed 0.000101962015806
history 9.81803590055e-05
center 0.0
museum 0.0
behind 0.000189597934825
screaming 0.000176321932621
pretty 0.00121736580354
really 0.00281168616758
possibly 0.000198899964929
little 0.00213873379259
happiest 0.000807198160959
earlier 5.57611863576e-05
forget 0.000241511791567
someone 0.0011049805927
things 0.00156418296231
available 9.89781109846e-05
perfect 0.000744341453617
different 0.000387462046999
person 0.000812333542217
watching 0.00172487895406
exhibit 0.0
passed 0.000174312920213
prefer 0.000143908563923
minutes 0.00226424721565
travel 0.0
daughter 0.000172878974101
positive 0.0
outside 0.00040346424712
looking 0.00123571285794
forward 0.00024478981642
raising 0.0
impression 0.0
wheels 0.0
favorite 0.00127204139984
instead 0.000107348158972
appreciate 0.000336401943234
couldn 0.000595473162894
remember 0.000476556977555
impressive 0.0
vintage 0.000217206166941
holidays 6.80449516289e-05
friends 0.000958266085587
impossible 0.00012960213101
everyone 0.00147732663042
always 0.00165898192972
limited 0.0
months 0.000199027399591
moving 0.000153772171546
meeting 9.76522296874e-05
answer 0.000244130574218
together 0.000286705956077
inside 0.000148868290723
upstairs 0.000448636390128
missed 0.000579628299761
active 0.0
eventually 0.0
longer 0.000110010395411
enough 0.000867101732928
building 0.000160585376514
enjoying 5.8264711235e-05
london 0.0
posting 0.0
recent 0.0
amazing 0.000285164505679
attention 0.000377766688745
tomorrow 0.0008578025596
whenever 0.0
feeling 0.000548804482693
excited 0.000199027399591
understand 0.000363688366646
following 0.000200104663483
asleep 0.000175720032393
learning 0.000354449871303
evening 0.000272786626179
special 0.000720639516978
secret 0.000213533136782
across 5.3238552835e-05
surprised 5.68402455947e-05
candles 0.000131441960019
sophia 0.0
version 0.0
rather 0.000107056917676
showing 0.0
saying 0.000597082198774
thoughts 5.05694323761e-05
exactly 0.000257676970746
getting 0.00133435953716
nothing 0.00104842535062
tweets 0.000157564354975
photos 5.76263247004e-05
looked 0.000270568225409
difficult 0.0
office 0.000257676970746
brought 0.000316841949482
biggest 4.90901795027e-05
thrilled 7.26021209807e-05
entire 0.000264752045948
something 0.00238278488778
closing 0.0
anyone 0.00105693795823
taking 0.0004289012798
interesting 0.000212377048231
original 0.000112749560952
flying 0.000179698014527
sometimes 0.000420171613266
yesterday 0.000288255806791
serious 0.000254905039515
digital 0.0
wearing 0.000447310734653
british 0.000208343995841
either 0.000415643847596
second 0.000432383710187
checking 0.000123530065512
indeed 0.000129971718096
island 0.0
hearing 0.00021295421134
staying 0.000128867251613
another 0.000998075769875
compare 0.0
bummer 0.0
clothes 7.9118174961e-05
landing 0.0
weekend 0.000627930658074
delivery 0.000174527576828
secretive 0.0
anyway 0.0
recognize 8.52341426554e-05
working 0.000667179768578
bigger 0.000111827683663
laughing 0.000734882566527
wanted 0.000626240140448
clothing 0.0
grateful 6.22868672049e-05
friendship 0.000186511486371
family 0.000619524070822
listening 0.000365663350965
stream 0.0
double 5.39666698207e-05
especially 0.0
shaking 0.000110499315677
waiting 0.000439435033593
definitely 0.000468867071984
account 5.59138418316e-05
completely 0.000113058856389
thought 0.000528468979117
possible 0.00010086606178
simple 5.54573424729e-05
professional 0.00028273830806
members 0.0
business 0.000154188565551
absolutely 0.000152943023709
sending 0.000221224591277
introducing 0.0
congrats 0.000300156995224
community 0.0
keeper 0.0
greatest 0.00031257804799
selfie 0.00021394553435
pasadena 0.0
posted 0.000112749560952
saturday 0.000402376166403
designs 0.0
broken 0.000177224935652
chicago 0.000324005327525
glimpse 0.0
actually 0.00107417452656
myself 0.000499696772396
pajamas 0.000154173476423
school 0.000387462046999
throwback 0.0
thursday 0.000254905039515
selling 0.0
talented 6.26379760971e-05
celebrate 0.000105328013208
celebrating 0.000113680491189
anniversary 0.0
contest 6.21122832738e-05
experiences 0.0
students 0.0
figure 0.000170989265877
featuring 0.0
inspired 5.76263247004e-05
breeze 0.0
sitting 0.000161460446667
playing 0.0001937310235
street 0.000105613983161
points 0.000305390358462
advice 0.000279569209158
memory 0.0
forever 0.00048438134
imagine 0.000318565572347
problem 5.11189977638e-05
played 0.00010647710567
keeping 0.00010647710567
lovely 0.000119798676352
dressed 0.0
chinese 0.0
sunshine 9.89648286558e-05
afternoon 0.000168200971617
notice 6.46169896088e-05
difference 5.20963413316e-05
suppose 9.16040261117e-05
letting 0.000234348631784
system 5.9567871904e-05
mutant 0.0
bathroom 0.000559534459114
almost 0.000571868373067
details 0.0
experience 0.000149270549694
luckily 0.000114535751826
viewed 0.0
living 0.000298541099387
weather 6.09078758768e-05
bright 6.70676080611e-05
launching 0.0
colors 9.16040261117e-05
monday 0.000348297949285
walked 0.000717402884435
pinned 0.0
wanting 0.0
tweeting 0.000489680729308
forgot 0.000119466630592
gorgeous 7.74032779186e-05
herself 0.0
happens 0.000246778617617
learned 0.000882486942603
congratulations 0.000105042903317
raised 0.0
mission 6.46169896088e-05
smelled 0.00016987963359
unforgettable 0.0
forgotten 7.08938465985e-05
trouble 5.89118132131e-05
channel 0.000231777772939
fantastic 0.000112441271355
loving 0.000281103178387
hardly 0.0
dining 0.0
complete 0.000273530731715
daniel 8.3835826394e-05
rewarding 0.0
spirit 0.000247060131023
finding 5.8264711235e-05
stories 0.000309212364895
including 0.000158851227569
somewhere 0.000124224566548
conversation 0.00011588888647
disrespectful 0.0
making 0.000998075769875
expect 0.00011430622922
polite 0.0
brings 0.000114936125008
anytime 0.000313502436463
needed 0.000355903930157
seriously 0.000368648046228
modern 0.0
welcome 0.00096344636992
moments 0.0
jacket 8.41122090062e-05
halloween 0.00028610902679
costume 0.000282825378629
totally 0.000165015593116
flight 0.00017145934383
attached 0.000107229089189
finished 0.000170989265877
strong 0.000196360718011
message 0.000202277729504
coming 0.000855493517036
temporary 0.0
challenge 0.000104475243133
achievement 0.0
unlocked 0.0
happen 0.000631325671005
celebrated 0.0
giving 0.000433550866464
excellent 0.0
common 0.0
pressed 0.0
company 5.39666698207e-05
change 0.0004289012798
singing 0.000318535913594
silver 0.000545208652216
august 0.0
crying 0.00052539402597
happened 0.000300968399205
parking 0.000280779322449
demand 0.0
sacrifice 0.0
personal 0.000207260151728
beyond 0.000159715658505
question 0.000389557057133
chicken 6.84416023428e-05
position 0.000129971718096
losing 0.000117498415241
respect 0.000260481706658
caption 0.00010089977012
shouldn 0.000227985687836
career 0.000387143034735
reason 0.00020064559947
explore 0.0
glamorous 0.0
reality 0.0
burned 0.000223945986904
without 0.000672596882513
problems 0.0
countdown 0.000520049804279
online 0.000102514781031
animals 0.00015923952296
buying 0.000129233979218
pictures 0.000421631971155
underneath 0.0
camera 0.00037372120323
checked 6.76515926601e-05
heading 0.000340107492754
complex 0.0
sunday 0.000541450421134
nights 0.000210806368212
traffic 0.0
through 0.0
changing 0.000175276981202
diapers 0.000163550314521
convinced 0.0
capture 0.0
random 0.0
recorded 7.23851893265e-05
november 0.0
number 9.76522296874e-05
stupid 0.000729299871407
grandparents 0.0
recording 0.0
chocolate 0.000292155942697
unless 5.87492076207e-05
calling 0.000150078497612
mermaid 0.0
levels 7.32589372693e-05
package 0.0
option 6.90428723552e-05
knowing 0.000461445532924
actual 0.000316740470018
friday 0.000434721224821
achieve 0.0
winner 5.29504091896e-05
becomes 0.0
directly 0.0
quality 0.00018477707055
father 0.000271305387492
wishes 0.0
themselves 0.000166575698762
asking 0.00020173212356
usually 0.000254109193257
period 0.00021331213263
resist 0.00018064576199
collections 0.0
summer 0.000154188565551
bracelet 0.0
reminded 0.0
dinner 0.000368648046228
single 0.000589082154033
catching 0.0
energy 5.66845821257e-05
preview 0.0
monster 0.000164421084029
material 0.0
events 5.90749785505e-05
europe 0.0
holiday 0.000383988053252
emotional 0.0
affects 0.0
holding 0.000169124341427
survive 0.000323589811825
eating 0.00113178956618
outfit 9.78406775388e-05
missing 0.000254217092969
surprise 0.000203924031612
german 0.0
officially 0.000166827062851
french 6.12488808275e-05
global 6.37071827188e-05
follow 0.000335393129955
design 0.0
improvement 0.0
website 0.0
breaks 6.28145106911e-05
negative 6.94479986138e-05
official 9.84455311152e-05
jersey 0.000240380137986
france 0.0
lighter 0.0
thinks 0.000166827062851
hospital 0.000138895997228
jealous 0.000320506850648
successful 0.0
trending 7.88693582022e-05
leadership 0.0
showed 5.98993381758e-05
attended 0.0
circle 0.00016878042528
interested 0.00024499552331
effect 0.000125629021382
success 0.0
ladies 0.00026143048644
dreams 0.000375827856583
protect 0.0
arguing 9.53169150404e-05
essence 0.0
control 0.0
happier 0.0
likely 0.0
cancel 9.97293530318e-05
project 5.38201488889e-05
laying 9.85871415283e-05
lesson 0.000132599976619
fridays 0.000281074989435
invited 6.70676080611e-05
treating 0.0
allowing 8.35610460088e-05
remote 0.000104595106935
opening 0.000155445113796
alcohol 0.000221970936979
popular 0.0
pedestal 0.0
designing 0.0
followed 0.000253392376014
enjoyed 0.000169588284583
spectacular 8.69684635728e-05
recovered 0.0
length 0.0
matters 0.000250551904388
factor 0.0
england 0.0
shared 0.00013071524322
benefit 0.0
continues 5.81043067378e-05
fathers 0.0
kitchen 7.66868992895e-05
exciting 0.0
corner 0.000136089903258
spring 0.0
fallen 0.000167671652788
victoria 0.000105893804165
tornado 0.0
typical 0.0
continue 0.000220020790822
creative 0.0
excuse 0.00013808574471
female 6.35272983142e-05
closer 0.000119466630592
accent 0.000104169996608
beginning 0.000179698014527
sooner 0.0
everywhere 0.000341041473568
scenes 6.07382889921e-05
wishing 0.000207128617065
choices 0.0
unpredictable 0.0
become 0.000298541099387
photographs 0.0
spread 5.44089699232e-05
season 0.000682778871558
putting 0.000150078497612
annoying 9.32557431856e-05
quietly 0.0
extending 0.0
stance 9.22578224594e-05
sleepy 0.0
returns 0.0
bucket 8.96950640857e-05
condolences 0.0
register 0.0
flowers 0.0
define 0.0
somebody 0.00014220808842
chicks 0.000133754588611
covering 0.0
repeat 0.000265962923825
football 0.000419295367231
brothers 0.000146077971348
player 6.64907309563e-05
physical 0.0
series 0.0
pretend 0.000250683138026
fighting 0.000108522154997
atlanta 0.0
mexico 0.0
president 0.0
talking 0.000764549216205
america 0.000354943592624
greats 0.0
everybody 0.000352495245724
judgment 0.0
amount 6.68745345408e-05
houston 0.0
everyday 0.000338257963301
shooter 0.0
attitude 8.43902126402e-05
million 0.000200104663483
honesty 0.0
telling 0.000324681870491
pulled 0.000357636283487
attack 0.000184260923156
killed 0.000318565572347
horrible 8.11571768044e-05
norman 0.0
salute 9.89648286558e-05
jacksonville 0.0
barackobama 0.0
lilduval 0.0
liquor 0.0
american 0.000303416594256
realist 0.0
remain 0.000134135216122
innocent 0.0
pieces 7.04762273005e-05
taught 7.02687894039e-05
golden 0.000128501937221
straight 0.000105613983161
forgive 0.000578292700831
answers 6.14203077186e-05
product 0.0
smoking 9.49671017648e-05
created 0.0
record 0.000149270549694
weapon 0.0
bottom 0.000319438761994
arrangements 0.000135361504657
africa 0.0
committed 0.0
journey 0.000123876680038
brother 0.000581043067378
prayers 7.46005216464e-05
documentary 0.0
addition 0.0
honestly 6.80449516289e-05
velvet 0.0
country 9.84455311152e-05
speedy 0.0
dressing 9.25881337871e-05
employee 0.0
yoooooo 0.0
prayer 0.0
nominated 7.15272566975e-05
praying 0.000293522032616
insane 0.0
illest 0.0
shooting 5.9567871904e-05
cancer 0.0
australia 0.00014136915403
marijuana 0.0
deserve 5.84256604006e-05
legend 0.000127054596628
mother 0.000212377048231
murder 7.716328002e-05
realest 0.0
powerful 0.0
attendance 0.0
wisdom 0.0
breaking 5.12573905153e-05
bothered 0.000111476659245
angeles 0.000166032436717
dollars 0.0
soldiers 0.0
performance 0.0
reading 0.000151708297128
videos 0.000122840615437
jordan 0.0
nobody 0.000292128302003
politics 0.000472192914163
paradise 0.000104169996608
blessing 0.0
coolest 0.0
strippers 0.0
charities 0.0
donate 0.000128501937221
bullshit 0.0
sample 0.000101696418851
rocking 0.0
bringing 0.000160585376514
deserves 0.000126696188007
hilarious 0.000189508693991
victim 0.0
stadium 8.06391445038e-05
funniest 8.69684635728e-05
heaven 7.55164822013e-05
ruined 0.000208339993216
honest 0.000296193537499
rolling 7.15272566975e-05
became 0.0
driver 0.000145640100051
breakfast 0.000539094043582
decision 0.0
counting 0.000338257963301
pressure 6.4801065505e-05
awareness 0.000136485724156
dearly 0.0
lastnight 0.0
facebook 0.000152943023709
basketball 0.000638963352241
campaign 0.0
twisted 0.000117245031131
defined 0.0
discover 0.0
comments 0.0
giveaway 0.0
bipolar 0.0
teenage 0.0
williams 0.0
custom 9.56693291821e-05
singer 0.0
future 9.81803590055e-05
randomly 0.000116690644885
angels 0.00010374866509
blessed 0.000163361866669
sister 0.000256276050383
stripper 0.0
dancing 0.000133749069082
reigns 0.0
voting 5.87492076207e-05
niggas 0.0
commercial 0.000326788108051
hating 0.000228023990591
boring 0.0
century 0.0
acting 0.000272971448312
submit 0.0
besides 9.89648286558e-05
hiding 7.81306499984e-05
periscope 0.0
breath 0.000161794905912
choosing 0.0
lawrence 0.000109070077235
instagram 0.0
detroit 0.0
cousin 0.0
honored 6.61100101648e-05
dedication 0.0
rockin 0.0
fucked 0.0
lionelrichie 0.0
talent 0.0
goodnight 9.12804788916e-05
stores 0.0
drinking 0.000425363079591
brazil 0.0
tattoo 0.000400465158966
consecutive 0.0
regardless 0.0
staring 0.0
commitment 0.0
seconds 0.000318535913594
ohhhhhh 0.0
listen 0.000738341483364
whatever 0.000109412292686
wherever 9.12804788916e-05
kicking 6.72614712504e-05
compete 0.000178768493371
lauderdale 0.0
homies 0.0
billion 6.82428620781e-05
belated 0.0
pirate 0.000676807523286
shoutout 9.00079331009e-05
grammy 0.000112474579971
guilty 0.0
ceiling 0.0
grammys 0.000135361504657
absolute 6.98566173832e-05
nelson 0.0
mandela 0.0
bigsean 0.0
handle 0.000496898266191
tonite 0.0
cocaine 0.0
promise 0.000226117712778
longest 8.4669856423e-05
generation 0.0
tuesday 0.000270568225409
struggle 0.000147849966257
workout 0.000185176267574
character 0.000127414365438
mirror 0.000155288994372
interview 0.000145298267625
buffalo 0.0
justin 0.0
insights 0.0
winning 0.000457590767345
oxygen 0.000239059571742
espnnfl 0.0
charlotte 0.0
accomplished 0.000104595106935
defense 7.64504923969e-05
gettin 0.0
arabia 0.0
lmfaooooo 0.0
writing 0.000110310867825
soccer 9.46198512469e-05
society 6.57323230373e-05
brooklyn 0.0
incredible 0.0
witcho 0.0
celebrity 0.0
minute 0.000483066715375
foreign 0.0
cherry 0.0
champs 0.0
murdered 0.000203392837701
evidence 7.06845770149e-05
android 0.0
sneaking 0.0
clearly 0.000362405548168
download 0.0
mixtape 0.0
central 6.28145106911e-05
washington 6.29917052291e-05
veterans 0.0
stronger 0.000151496529959
promised 0.000234391949995
marcus 0.0
zombie 0.0
throwing 0.000156261299997
security 0.0
fastest 0.0
fantasy 9.03228809952e-05
turning 0.0
ignore 0.0
fucking 0.0
tickets 0.000115252649401
collector 0.00031860548893
prizes 0.000506482104169
december 0.0
loyalty 0.0
return 0.000105328013208
escape 0.0
yassss 0.0
goddess 0.0
handsome 0.000306299463441
language 6.66822442823e-05
motion 0.0
gallery 0.0
movies 0.00021394553435
children 0.000104758648329
backpack 0.0
potentially 0.0
guardian 0.0
review 5.66845821257e-05
theaters 0.000202592841668
shhhhh 0.0
begins 0.000170989265877
closet 0.000335918980356
bodies 0.0
hahaha 0.0
produced 0.0
latest 0.0
banned 0.0
beyonce 0.000102099821147
perform 7.62152587443e-05
lionel 0.0
signed 0.000105042903317
princess 9.60243831547e-05
ghetto 0.0
conditioning 0.0
charity 6.64907309563e-05
germany 0.0
ronaldo 0.0
married 7.04762273005e-05
millions 0.0
blessings 0.0
diamond 0.000108140645815
nephew 0.000107682676226
lights 0.000342208011714
howard 0.0
turned 0.000313425729399
buckle 0.0
relevant 0.0
performing 7.64504923969e-05
indian 0.0
includes 0.0
tricks 0.0
survivor 0.000105893804165
diamonds 0.0
collection 0.00013071524322
families 6.09078758768e-05
welcoming 0.0
select 0.0
announced 0.0
granted 0.000182560957783
decided 0.000227985687836
selfish 0.000236747287172
trailer 7.19542819614e-05
reppin 0.0
celebration 0.000133749069082
decades 7.64504923969e-05
ultimate 6.90428723552e-05
incase 0.0
downtown 9.46198512469e-05
seasoning 0.0
episode 0.00096628417511
mentality 0.0
touching 9.16040261117e-05
retweet 0.000120801849389
goodmorning 0.0
midnight 0.000385505811664
expectations 0.0
joining 0.000112133981078
reasons 0.0
released 0.0
release 5.22376215665e-05
models 9.19297970415e-05
popped 0.000116142667872
within 0.000121476577984
standing 0.000272044849616
valentines 0.000113493962995
justice 0.000128138025191
houses 0.0
purchase 8.16809333347e-05
dropped 0.000176247622862
conversations 0.0
seattle 0.0
strength 0.000131841580835
monica 0.0
incredibly 0.0
streets 0.000280249021516
private 0.000183234215077
inspirational 0.000170468285311
barbie 0.0
tables 0.0
affection 0.0
broski 0.0
pissing 0.0
designer 0.0
cooking 0.00016283666329
tattoos 0.0
direction 7.30389856741e-05
readyyyyy 0.0
exclusive 0.0
adrianalima 0.0
fashion 0.0
talkin 0.000111972993452
bitches 0.0
nailed 0.000192048766309
kitten 0.0
whomever 0.0
ruthless 0.0
teaching 0.0
chillin 0.0
philly 0.0
baddest 0.000163550314521
cheers 0.0
autumn 0.0
presents 7.78869503165e-05
flawless 0.0
unique 0.0
handed 0.000273841436675
taraji 0.0
victory 0.0
tribute 6.53576216101e-05
ballin 0.0
horror 0.0
females 0.0
catfish 0.0
action 0.000102237995528
wouldnt 0.0
recipient 0.000124458844603
whitney 0.0
continued 0.0
esther 0.0
letter 5.87492076207e-05
existence 0.0
papers 0.000174527576828
winter 6.44336258067e-05
sessions 0.0
replicating 0.0
foundation 6.78478640946e-05
syndrome 0.0
colorado 0.0
tremendous 0.0
public 0.000165918443458
cannot 0.000106188524116
brilliant 0.0
illustration 0.0
beware 0.000105893804165
globally 0.0
premieres 0.0
streaming 0.0
immigration 0.0
wrapped 0.000178768493371
studio 0.000530399906478
february 7.00622553791e-05
amazon 7.21692459748e-05
border 0.0
huffingtonpost 0.0
francis 0.0
january 0.0
relationships 9.93455494473e-05
tragic 0.0
secure 8.69684635728e-05
countries 0.0
episodes 0.0
broadcast 7.86218407536e-05
tickled 0.000183515615296
livestream 0.0
potential 6.57323230373e-05
education 0.0
famous 0.0
unknown 0.0
exists 8.84638394412e-05
orders 0.0
microsoft 0.0
ability 6.9245002656e-05
director 5.94030039684e-05
accessible 0.0
correction 0.0
william 0.000161278289008
editors 0.0
yellow 8.81609663103e-05
passionate 0.0
treatment 0.0
ambassador 0.0
thanking 0.0
streamed 0.0
lovers 0.0
wrinkled 0.0
bridge 0.0
magazine 0.00013222002033
sincere 0.0
quotes 0.000156751218231
result 0.0
destruction 0.0
edition 0.000318535913594
prince 6.90428723552e-05
indiana 0.0
editorial 0.0
emotion 0.000210048128932
mistakes 0.0
inspiring 0.000128501937221
counter 0.0
disappointing 0.0
edited 0.0
spotlight 0.0
saddest 0.0
production 0.000151962373488
header 0.0
itunes 0.0
guests 0.0
snakes 0.000577325910942
charging 0.0
arriving 0.0
mysteries 0.0
dangerous 0.000127775504798
typically 0.0
saving 0.0
universe 0.000229351477191
victims 0.0
receive 0.0
proceeds 0.0
crossed 0.0
received 0.0
limitations 0.0
studying 0.0
conflict 0.0
petition 0.0
milestones 0.0
outstanding 0.0
devastating 8.81609663103e-05
installment 0.0
signature 0.00010291707387
mistletoe 0.0
awards 0.000248449133095
shelves 0.0
smells 0.000208339993216
themed 0.0
sisters 0.00018127987116
banquet 0.0
danger 8.3287849381e-05
leading 0.0
member 0.00033548305099
dominant 0.0
distinguish 0.0
factories 0.0
distinct 0.0
distance 0.0
confirmed 0.0
behavior 0.0
collect 0.0
vanity 0.0
junior 0.000379868407059
communities 0.0
worldwide 0.0
canada 6.33480940036e-05
recognized 0.0
vessels 0.0
movement 0.0
segment 0.000569802610589
internal 9.89648286558e-05
information 6.44336258067e-05
easily 0.000210186766137
towards 0.0
october 0.0
belgium 0.0
european 0.0
caribbean 0.0
cities 0.0
arrives 0.0
extraordinary 0.0
exquisite 0.0
argentina 0.0
eliminate 0.0
genius 0.000252678258655
prepared 0.000215862845884
anthony 8.66749673799e-05
breakthrough 0.0
berlin 0.0
batman 0.00010954171778
upcoming 6.72614712504e-05
upgrade 0.000105893804165
singapore 0.0
crucial 0.0
scratch 0.0
collaboration 0.0
tested 0.0
acquire 0.0
honoring 0.0
holland 0.0
visually 0.000183515615296
neyocompound 0.0
inspire 0.0
ebonymag 0.0
spiketv 0.0
constant 9.22578224594e-05
sunset 0.0
tuning 0.0
gentleman 0.0
fulfilling 0.0
ayeeeee 0.0
stratford 0.0
poland 0.0
philippines 0.0
kickin 0.0
theweeknd 0.0
september 6.66822442823e-05
manchester 0.000172766554658
rickyrozay 0.0
remarkable 0.0
rihanna 0.0
disgusted 0.000416245867968
immoral 0.0
process 6.05693066966e-05
goosebumps 0.0
performances 9.32557431856e-05
strangers 0.000219083435561
emotions 0.000100116289741
judgement 0.0
comparing 0.0
thuggin 0.0
studios 0.0
jennifer 9.46198512469e-05
performer 0.0
literally 5.87492076207e-05
cardiff 0.0
soooooooo 0.0
crashed 0.000106779801619
cthagod 0.0
closed 6.76515926601e-05
justinbieber 0.0
complexmag 0.0
billboard 0.0
airing 9.53169150404e-05
albums 0.0
sweden 9.42751262095e-05
katyperry 0.0
treats 0.000405185683335
missouri 0.0
thefader 0.0
soundtrack 0.000106334732775
theellenshow 0.000101296420834
sweets 0.0
festival 0.0
wizkhalifa 0.0
amsterdam 0.0
backstage 8.5518825095e-05
collab 0.0
subscribed 0.0
joined 0.000116851320801
davidguetta 0.0
pushing 0.0
hopeful 0.0
romantic 0.0
mentions 8.90754541685e-05
lurking 0.0
ballad 0.0
teamed 0.0
exclusively 0.0
kingjames 0.0
hollyrpeete 0.000171603441147
sneakers 0.0
auction 9.49671017648e-05
sneaker 0.0
djkhaled 0.000160676738747
express 7.34799142836e-05
thegrammys 0.0
throughout 0.0
shining 9.60243831547e-05
excellence 0.0
thrown 9.03228809952e-05
zendaya 0.0
playin 0.0
applemusic 0.0
crunch 0.0
capitalofficial 0.0
filmed 0.0
toronto 0.0
naomicampbell 0.0
trvisxx 0.0
killin 0.0
trucks 0.0
stands 0.0
platinum 0.0
native 0.0
spotify 0.0
rocked 0.0
jumped 9.60243831547e-05
leebruhgreene 0.0
leaning 0.0
featured 0.0
announce 0.0
senior 7.43742706979e-05
iamdiddy 0.0
haters 0.0
nothin 0.0
appreciation 0.0
defjamrecords 0.0
floating 0.0
superstars 0.0
shondarhimes 0.0
premiere 0.0
orchestral 0.0
makeup 0.000408399284588
touched 0.0
newest 0.0
designed 0.0
passes 0.0
angelasimmons 0.0
tidalhifi 0.0
vashtie 0.0
delivered 0.0
owning 0.000126447925974
producer 8.6093371326e-05
balmain 0.0
legendary 0.000151962373488
independence 0.0
mtvmusicuk 0.0
audition 0.0
debuts 0.000109070077235
footage 0.0
marshall 0.000225963062306
spends 0.000108603083471
playtime 0.0
completed 0.0
dishes 0.0
photographed 0.0
bubble 8.96950640857e-05
belong 0.0
tongue 0.0
observing 0.0
consistent 0.0
posing 0.0
heavens 0.0
contemporary 0.0
aiming 0.0
ceremony 8.4669856423e-05
brighter 0.0
rainbow 0.0
matthew 0.0
phenomenal 0.0
affected 7.32589372693e-05
rivers 0.000116690644885
presenting 0.0
competitive 0.0
eskimo 0.0
sibling 0.0
dakota 0.0
printed 0.0
heroes 0.0
deepest 0.0
describe 0.0
hollywood 0.00020956985215
baggage 0.0
terrifying 9.32557431856e-05
animation 0.0
nationwide 0.0
capital 0.0
quantity 0.0
nominations 0.0
mountains 0.0
mosaic 0.0
realise 0.0
overload 0.0
photographer 9.78406775388e-05
depression 0.00010291707387
donation 0.0
marvelous 0.0
madonna 0.0
sailed 0.0
terror 0.0
rinsed 0.0
disorder 0.0
polish 0.0
represents 0.0
touchdown 0.000120714834687
creates 0.0
oxford 0.0
stitched 0.0
morocco 0.0
thrill 0.0
balloons 0.000137024815099
teaming 0.0
latimes 0.0
kerrywashington 0.0
caution 0.0
camouflage 0.0
approaching 0.000106334732775
generous 0.0
installation 0.0
benefiting 0.0
basics 0.0
confirm 7.716328002e-05
thrilling 0.000132971108232
photography 0.0
matches 0.0
boundaries 0.0
singles 0.0
laptop 0.0
obvious 0.0
darling 0.000112981531153
celebrations 0.0
chewbacca 0.0
underwater 0.0
naughty 0.000118373643586
advised 0.0
feelin 0.0
macaroni 0.0
perfection 0.000554927342447
picasso 0.0
recipe 9.89648286558e-05
radical 0.0
volcano 0.0
planted 0.0
products 0.0
directed 0.0
grabbed 0.0
frames 0.0
casual 0.0
scheming 0.0
twickenham 0.0
bbcnews 0.0
pledge 0.0
subtle 0.0
embarrassed 0.0
snatch 0.0
unveiling 0.000140537494717
kissed 0.0
arguments 9.97293530318e-05
settling 0.0
desperate 9.03228809952e-05
executive 0.0
humbled 0.0
courage 0.0
dropping 0.000143480576887
carried 0.0
behalf 0.000170468285311
hardest 0.0
marking 0.0
vision 7.02687894039e-05
intervention 0.0
records 7.19542819614e-05
deeply 0.0
mannered 0.0
texted 0.0
israeli 0.0
strongest 0.0
rogers 0.0
concept 8.6093371326e-05
allegiance 0.0
belongs 0.0
intended 0.0
bosses 0.0
purpose 7.26021209807e-05
hottest 0.0
campaigns 0.0
sunderland 0.0
teenager 0.0
runway 0.0
steven 9.56693291821e-05
guitar 0.000101296420834
donating 0.0
applause 0.0
finale 8.35610460088e-05
wasted 0.000197174283057
absent 0.0
awhile 0.000259921211185
fierce 0.000223945986904
sincerely 0.0
apology 0.000178768493371
climbing 0.0
unwilling 0.0
protesting 0.0
bikini 0.0
friendships 0.0
matching 0.000107229089189
wolves 0.0
mosque 0.0
venezuela 0.0
donates 0.0
generations 0.0
underestimate 0.00011560095359
pardon 0.000250225281901
stickers 0.0
mothers 0.0
deeper 0.0
nipple 0.0
perfume 0.0
noodle 0.0
melissa 0.0
forest 0.0
panties 0.000185828243887
jimmykimmel 0.0
everytime 0.00012381394372
underdog 0.0
shoulders 0.0
wrapping 0.0
bedroom 0.000110499315677
glitter 0.0
stocking 0.0
annoyed 0.0
behave 0.0
goodbye 0.0
fuckin 0.0
seller 0.0
joshgroban 0.0
samsungmobileus 0.0
influential 0.0
slicing 0.0
ryanseacrest 0.0
farmer 0.0
teaser 0.0
styled 0.0
casting 0.000119529785871
imitated 0.0
forgiveness 0.0
perezhilton 0.0
blacked 0.0
paparazzi 0.0
peoplemag 0.0
rolled 0.000100506411151
vanityfair 0.0
rockstar 0.0
thousand 0.0
minded 0.0
shines 0.000125775581599
sunglasses 0.000234490062262
auntie 0.0
magazines 0.000146348781486
waited 0.000298036648342
denmark 0.0
leather 0.000117805978314
wished 0.0
ladygaga 0.0
swallow 0.0
glblctzn 0.0
shakira 0.0
accessories 0.0
nbcthevoice 0.0
clique 0.0
premiering 0.0
loooooove 0.0
weareheremvmt 0.0
looooove 0.0
vmagazine 0.0
popcrush 0.0
studded 0.0
yassssss 0.0
yessss 0.0
undeniable 0.0
unicef 0.0
auditions 0.0
ellemagazine 0.0
yasssss 0.0
pharrell 0.0
greece 0.0
papermagazine 0.0
nowwwww 0.0
maccosmetics 0.0
macaidsfund 0.0
lipstick 0.000150660796805
meeeee 0.0
newsstands 0.0
unapologetically 0.0
insidebates 0.0
legalize 0.0
loooove 0.0
caradelevingne 0.0
allllll 0.0
badgalriri 0.0
itsjeremyscott 0.0
nickiminaj 0.0
nipples 0.0
booooo 0.0
trippy 0.0
mikewillmadeit 0.0
puttin 0.0
trappin 0.0
alexanderwangny 0.0
karllagerfeld 0.0
celebratin 0.0
lilyallen 0.0
fuuuuuck 0.0
chanel 0.0
rubber 0.0
angelou 0.0
misses 0.000100116289741
harpersbazaarus 0.0
timberlake 0.000346784626417
photoshopped 0.0
whatchu 0.0
rehearsals 0.0
couture 0.0
mutual 0.0
creeper 0.000214165409063
cuddling 0.0
celine 0.0
theamas 0.0
thexfactor 0.0
websterhall 0.0
presale 0.0
deluxe 0.0
styles 0.000116142667872
wetten 0.0
shittttttttttt 0.0
boredom 0.0
darealamberrose 0.0
noooooooo 0.0
itunesmusic 0.0
cbstweet 0.0
thermal 0.0
mariners 0.0
torres 0.0
thebeatles 0.0
blondies 0.0
greeting 0.0
thecut 0.0
geeked 0.0
outlet 0.000668772943055
americanexpress 0.0
gqmagazine 0.0
nicole 0.000127821920256
bumped 0.0
hangover 0.000127129944701
stockholm 0.0
casually 0.0
esquire 0.0
winnipeg 0.0
begging 0.0
showroom 0.0
sleeves 0.000134551237342
smelling 0.0
guaranteed 0.000205013372332
obsession 9.93455494473e-05
attendant 0.000147390570317
aussie 0.0
tbsveryfunny 0.0
reservation 0.0
mollymcnearney 0.0
dragging 0.0
rocnation 0.0
tapered 0.0
badass 0.000732165748542
endlessly 0.0
vampires 0.0
viewers 0.0
kanyewest 0.0
designers 0.0
billboards 0.0
backstreetboys 0.0
monteith 0.0
e_fashionpolice 0.0
epically 0.0
internationally 0.0
mighty 0.000217206166941
jcolenc 0.0
semifinals 0.0
brasilia 0.0
tailgating 0.0
photoshoot 0.0
smokin 0.0
ahhhhhh 0.0
missin 0.0
sweats 0.000841081615741
impacted 0.0
rodriguez 0.0
musician 0.0
merchandise 0.0
jurgen 0.0
athleteally 0.0
originals 0.0
número 0.0
zealand 0.0
hehehe 0.0
fearless 0.0
stadiums 0.0
thiago 0.0
suarez 0.0
cropped 0.0
uruguay 0.0
apparel 0.0
staircase 0.0
wintour 0.0
spotting 0.0
polygraph 0.0
twerking 0.00016987963359
shipment 0.000202734452081
muggin 0.0
takeoff 0.0
thailand 0.0
tomorr 0.0
googleplay 0.0
budweiser 0.000162091753787
miafestival 0.0
dotted 0.0
burning 8.35610460088e-05
surpass 0.0
betcha 0.0
onairwithryan 0.0
dreamers 0.0
brunomars 0.0
beyoncé 0.00013963462011
hellooo 0.0
subscribers 0.0
preorder 0.0
believer 0.0
fragrance 0.0
hellooooo 0.0
majesty 0.0
beatsbydre 0.0
finland 0.0
fearnecotton 0.0
debuted 0.0
queued 0.0
rhetorical 0.0
iranian 0.0
infamous 0.0
brutally 0.0
execution 0.0
palestinian 0.0
transplant 0.0
audacity 0.0
foreplay 0.0
priced 0.0
huntington 0.000177186296227
manger 0.0
weaker 0.0
justintrudeau 0.0
creeping 0.000146348781486
fittest 0.0
hoodie 0.000403653712025
mankind 0.0
westwood 0.0
holographic 0.0
throwin 0.0
eminem 0.0
ecstatic 0.0
enjoys 0.0
wussup 0.0
duplicated 0.0
crotch 0.0
congrat 0.0
huggin 0.0
implement 0.0
penalizing 0.0
gonzalez 0.0
bitchin 0.0
sephora 0.0
damien 0.0
demanded 0.0
negativity 0.0
alancarr 0.0
skillz 0.000185828243887
hopeless 0.0
beatle 0.0
cheesecake 0.0
almighty 0.0
whatcha 0.0
slumber 0.000350502709525
chimney 0.000183515615296
headlining 0.0
perplexed 0.0
googleplaymusic 0.0
thrills 0.0
rollers 0.0
bravotv 0.0
gifted 0.0
kekepalmer 0.0
styledtorock 0.0
yooouuu 0.0
shantay 0.0
yaaaas 0.0
bestest 0.000183515615296
freestyle 0.0
everrrrr 0.0
sweatband 0.0
podolski 0.0
collaborating 0.0
bestfriend 0.0
sittin 0.0
whaaaat 0.0
clockwork 0.000188259519559
warmest 0.0
temptation 0.0
spiritual 0.0
chameleon 0.0
customised 0.0
acrylic 0.0
grasshopper 0.0
engages 0.0
gourmet 0.0
rhythmic 0.0
petals 0.0
klinsmann 0.0
directv 0.000721657388678
popcrave 0.0
versailles 0.0
raddest 0.0
grandfather 0.0
persie 0.0
webster 0.0
knight 0.0
footwear 0.0
collectors 0.0
blackout 0.0
skylight 0.0
hammock 0.0
playhouse 0.0
revelers 0.0
executed 0.0
cincinnati 0.0
simultaneously 0.0
malawi 0.0
graduated 0.0
sickening 0.0
mueller 0.0
elonjames 0.0
skeletons 0.0
mittromney 0.0
connecticut 0.0
cumulative 0.0
racked 0.0
valera 0.0
thighs 0.0
timely 0.0
rapping 0.0
shrugs 0.0
enables 0.0
psychic 0.0
fernando 0.0
tourism 0.0
slaughtered 0.0
devotion 0.0
fantasies 0.0
parsons 0.0
stella 0.000770867382116
complainers 0.0
newsstand 0.0
voguemagazine 0.0
westfield 0.0
manolo 0.0
turquoise 0.0
parisian 0.0
childs 0.0
swimsuit 0.000175251354762
bazaar 0.0
empress 0.0
brainstorm 0.0
tanning 0.0
desirable 0.0
feathers 0.0
antics 0.0
featurette 0.0
olivier 0.0
helloooo 0.0
hallow 0.0
connie 0.000188259519559
upbringing 0.000193531557238
privatize 0.0
bittersweet 0.000156668762211
outlaw 0.0
marcel 0.0
nowwww 0.0
hushed 0.0
threshold 0.0
floats 0.0
barbados 0.0
manuelcav 0.0
niggaz 0.0
prayin 0.0
drizzyxcole 0.0
homegirl 0.0
rappin 0.0
witcha 0.0
mufasa 0.0
dainternz 0.0
lololol 0.0
barclayscenter 0.0
bestbuy 0.0
blackouts 0.0
rivera 0.0
jakemiosge 0.0
givenchy 0.0
riccardo 0.0
grossed 0.0
guetta 0.0
spicewon 0.0
bitche 0.0
shawty 0.0
wednesdays 0.0
payday 0.0
jewelers 0.0
romero 0.0
acknowledging 0.000147390570317
calypso 0.0
blushes 0.0
medusa 0.0
keepers 0.0
futuristic 0.0
whereabouts 0.000199464225593
slayed 0.0
asvpxrocky 0.0
haaaaa 0.0
inezandvinoodh 0.0
calvinharris 0.0
_maxwell_ 0.0
bwerde 0.0
edward_enninful 0.0
haaaaaa 0.0
wisest 0.0
unconditionally 0.0
drmayaangelou 0.0
blackgirlsrock 0.0
submissive 0.0
rearrange 0.0
attuned 0.0
abrams 0.0
awaken 0.0
climbs 0.0
jacking 0.0
seventy 0.0
snatching 0.0
manoloblahnik 0.0
nicolerichie 0.0
openingceremony 0.0
whiteley 0.0
supermodel 0.0
the_real_iman 0.0
minogue 0.0
tmagazine 0.0
baaaaack 0.0
yeessss 0.0
wooooo 0.0
epicness 0.0
takawiraa 0.0
joplin 0.0
uncensored 0.0
unspeakable 0.0
rewrites 0.0
askdrruth 0.0
glozell 0.0
tardiness 0.0
runways 0.0
colombian 0.0
unapologetic 0.0
zac_posen 0.0
rumoured 0.0
omgggg 0.0
futbol 0.0
biatch 0.0
barrington 0.0
catwalk 0.0
sledgehammer 0.0
clemente 0.0
dollaz 0.0
mariah 0.00016987963359
granddad 0.0
iyanlavanzant 0.0
hustler 0.0
coletteparis 0.0
flexin 0.0
mistress 0.0
exceeds 0.0
sweeeeeet 0.0
stancesocks 0.0
serviced 0.0
issssss 0.0
lipglass 0.0
externally 0.0
complex_uk 0.0
prideful 0.0
dash_radio 0.0
holidaze 0.0
mawnin 0.0
champagnepapi 0.0
fashawn 0.0
raided 0.0
ahhhhhhhh 0.0
soulmate 0.0
motorbikes 0.0
britishvogue 0.0
gnlstudios 0.0
robinsoncano 0.0
debuting 0.0
cc_sabathia 0.0
colorways 0.0
hit_boy 0.0
_spyda 0.0
phresh 0.0
dominates 0.0
ratchet 0.0
rupaul 0.0
cockpit 0.0
kimmiekyees 0.0
horoscope 0.000485791866417
catwalks 0.0
paramedic 0.0
fhollande 0.0
sexiness 0.0
hereeee 0.0
changers 0.0
tiptoes 0.0
revved 0.0
meditative 0.0
fauntleroy 0.0
mbsings 0.0
disrespectfully 0.0
traumatized 0.0
outdid 0.0
elvispresley 0.0
toupee 0.0
josephine 0.0
discography 0.0
mariasharapova 0.0
chinchilla 0.0
skylar 0.0
illestbaba 0.0
georgiamjagger 0.0
pierced 0.0
hardrock 0.0
snorkeling 0.0
thrilla 0.0
gunpoint 0.000214165409063
sleeved 0.0
stevestoute 0.0
kiiiiiiiiiiiiinnnngggggg 0.0
lanvin 0.0
chateau 0.0
lizzs_lockeroom 0.0
prophets 0.0
müller 0.0
lullaby 0.000202734452081
samersum 0.0
disassembled 0.0
anniversaries 0.0
hayden_williams 0.0
rousteing 0.0
slayage 0.0
raunchy 0.0
benzema 0.0
fuckery 0.0
hellooooooo 0.0
juliagillard 0.0
congeniality 0.0
gunned 0.0
condense 0.0
missjillscott 0.0
yussss 0.0
chopard 0.0
woodbridge 0.0
orousteing 0.0
dubsmash 0.0
alicialquarles 0.0
worldmcqueen 0.0
whateva 0.0
elysées 0.0
jennnrosales 0.0
xstrology 0.0
looool 0.0
tippin 0.0
marleys 0.0
dwanimation 0.0
dreamworks 0.0
yaself 0.0
anothermagazine 0.0
claralionelfdn 0.0
mchingi 0.0
rihannareplay 0.0
awtguide 0.0
ryannavy_rih 0.0
rihquest 0.0
gpforeducation 0.0
valliniandre 0.0
globalfund 0.0
rhenna 0.0
millymaefenty 0.0
peetes 0.0
pandagunda 0.0
floriamamaroma 0.0
adoringrihanna 0.0
ymcofficial 0.0
rihanti_ 0.0
mcdean 0.0
rihannadaily 0.0
stancemuse 0.0
muhtean 0.0
rihdefine 0.0
officialdonnie 0.0
stunnafenty 0.0
perfumesbyriri 0.0
badgal 0.0
shaninamshaik 0.0
reblrihanna 0.0
elliscole_ 0.0
itskaitbh 0.0
harpersbazaarcn 0.0
yusefhairnyc 0.0
mylahmorales 0.0
teamofrihanna 0.0
muhphucka 0.0
harpersbazaar 0.0
rihrihfreak 0.0
thenbacentral 0.0
roversi 0.0
suchaf_cknlady 0.0
fourfiveseconds 0.0
petergrayhair 0.0
wkorea 0.0
dennisleupold 0.0
ursulastephen 0.0
ozzysalvatierra 0.0
ciarrap 0.0
rihannaargntina 0.0
rihearsal 0.0
sremmurd 0.0
id_magazine 0.0
heauxm 0.0
rihpost 0.0
jrgseul 0.0
bitchez 0.0
underst_navy 0.0
sonitaalex 0.0
chris_walden 0.0
danachanel 0.0
wednesdayz 0.0
jimmyfenty 0.0
houseoffraser 0.0
skeete 0.0
_kailssss 0.0
muhphuckas 0.0
phuckin 0.0
rastafarih 0.0
obviiii 0.0
etherihalvibe 0.0
rorreyfenty 0.0
noellaalstrom 0.0
rihturn 0.0
tellar 0.0
esquireuk 0.0
huffpoststyle 0.0
tyronmachhausen 0.0
melottenberg 0.0
paolakudacki 0.0
tompecheuxmu 0.0
lgoldstein_ltd 0.0
phucking 0.0
kudacki 0.0
hellurrr 0.0
tom_ford 0.0
neakah 0.0
creepah 0.0
pahtna 0.0
wontonsan 0.0
cappadonna 0.0
phuckmarqy 0.0
elfies 0.0
starstunning 0.0
ohnana 0.0
tushmagazine 0.0
macxriri 0.0
rickrubin 0.0
findataui 0.0
tristate 0.0
distoyb 0.0
kabukimagicnyc 0.0
yerdme_cmb 0.0
hittas 0.0
evan_erogers 0.0
jessieriri 0.0
unfourgettable 0.0
meeeaan 0.0
shweinsteiger 0.0
goooooooaaaaallllllll 0.0
goooal 0.0
braaaaaaaaaaaaaaaaaa 0.0
asapkoff 0.0
belgiuuuuummm 0.0
druchaos 0.0
cuadrado 0.0
murdaaahhh 0.0
colombiaaaa 0.0
karafenty 0.0
dlsturbla 0.0
braaaaaaaaaaaaaaaaaaaaaa 0.0
abouuuutttt 0.0
takecarerihanna 0.0
nathannavy 0.0
theworidcup 0.0
goooooaaaaaaallllll 0.0
bazaararabia 0.0
bigshitxtalker 0.0
__tatijxo 0.0
lhhatl 0.0
braaaaaaaaaaaa 0.0
rihannanavyrd 0.0
gooooooaaaalllll 0.0
triscastellano 0.0
iiiiiiiiiiiiiiiiiiii 0.0
eatmydaisy 0.0
leggooooal 0.0
yaaaaaassssssss 0.0
prettygirl_sp 0.0
ooohhhhhh 0.0
shiiiiitttt 0.0
roooonnnnnnnneeeeeeeyyyyyy 0.0
muslera 0.0
tadpole 0.0
giusichrisriri 0.0
_xomec 0.0
blockedt 0.0
ooooohhhh 0.0
goooooooaaaaaaalllllllllllllllll 0.0
stefansaxon 0.0
rihannademos 0.0
dragonflycici 0.0
chririh 0.0
rihluminati 0.0
goaaaalllll 0.0
twinzies 0.0
mantlers 0.0
suchaf__cknlady 0.0
glamour_robyn 0.0
adamselman 0.0
sephorafrance 0.0
thefashionlaw 0.0
scout_willis 0.0
quietude 0.0
theblackvoice 0.0
weeeed 0.0
kiiiiss 0.0
dooooon 0.0
miiiiss 0.0
malinsworld 0.0
prompics 0.0
itsalldonn 0.0
goooorrrrrrlllllll 0.0
thenewdaily_ 0.0
wiggin 0.0
stevesoboroff 0.0
pivot_tv 0.0
lapolicefdtn 0.0
scarificing 0.0
whooooose 0.0
sambapologetic 0.0
bellaisevil 0.0
sta_schemin 0.0
i_aim_tyga 0.0
fameisloud 0.0
garcon_rebelle 0.0
itsbreezybiotch 0.0
phaedra 0.0
vivala_stephyy 0.0
_bossmadeg 0.0
kontomitrosnick 0.0
sorrenti 0.0
whenevahhh 0.0
teamvivanco 0.0
heifers 0.0
stevenkolb 0.0
jeremy_brossard 0.0
jordanbrossard 0.0
quilted 0.0
piscesareus 0.0
plumsykes 0.0
cedellamarley 0.0
offish 0.0
urprise 0.0
i_love_riri 0.0
rihannadiva 0.0
javiroo 0.0
frihday 0.0
cuntlifex 0.0
_chris_rated_ 0.0
yewmadcunt 0.0
erinwasson 0.0
balmainparis 0.0
_yadim 0.0
muthaphucka 0.0
onnneeee 0.0
liiiiieeesss 0.0
gautier 0.0
mtvstarsvotes 0.0
zinloves 0.0
chloefrahm 0.0
uprising_create 0.0
uprising_darren 0.0
jonnycrave 0.0
jeff_uprising 0.0
kareemfenty 0.0
daily_rihnavy 0.0
unapologeticunt 0.0
rorrey 0.0
foreverrr 0.0
guyanese 0.0
annndd 0.0
historih 0.0
grandfadda 0.0
arleta 0.0
loreleicakes 0.0
river_island 0.0
finallyyyy 0.0
rodin_thinker 0.0
mrs_toyac 0.0
cheersrihrih 0.0
bangbang 0.0
faiz_fenty 0.0
leandra 0.0
noella 0.0
rasshoooolllleee 0.0
luminati 0.0
inezvinoodh 0.0
visvim 0.0
realne 0.0
sarahfrancus 0.0
tadium 0.0
trapstar 0.0
afrihca 0.0
rihrobyn 0.0
cbsgirlfriend 0.0
shyronnie_rn 0.0
mariamfenty_ 0.0
mizzpmf 0.0
whooooaaaaa 0.0
camkaipink 0.0
yasssssssssssssssssssss 0.0
lunaxskye 0.0
yaaaaasssssss 0.0
niggggaaaaaaa 0.0
breeziechillin 0.0
betologetic 0.0
isusjsjdha 0.0
awffffff 0.0
mcdessikins 0.0
skreets 0.0
pieceofria 0.0
loooool 0.0
craaaazzyyy 0.0
lolarae_xoxo 0.0
stayflysamir 0.0
shotta 0.0
tamarawray 0.0
lauraleehickock 0.0
heauxz 0.0
rihannanavyit 0.0
manilla 0.0
ronnyerickson 0.0
nikofenty 0.0
vincehaycock 0.0
zodiacfacts 0.0
naomiiknows 0.0
wrizzap 0.0
muuuch 0.0
hongkong 0.0
jetlaaaaaagggged 0.0
rasshole 0.0
februharry 0.0
kaşara 0.0
çıkmadı 0.0
dicked 0.0
vinoodh 0.0
rihannasblog 0.0
urihannafansite 0.0
teejay 0.0
stupse 0.0
clapbacks 0.0
niggaaaazzzz 0.0
bwaaahaaaaa 0.0
willheardmusic 0.0
kristennoelgipson 0.0
rsvpgallery 0.0
backout 0.0
bwahhaaa 0.0
errwhurr 0.0
niiiiggaz 0.0
fridayz 0.0
debbycoda 0.0
cabbing 0.0
dolly_cohen 0.0
cowboyz 0.0
friendz 0.0
phucker 0.0
charliebymz 0.0
lynn_ban 0.0
inwardly 0.0
ravening 0.0
whyyyyyyyyyyyy 0.0
thatdamnlala 0.0
adamsellman 0.0
scottland 0.0
kingspleasure 0.0
mikkyekko 0.0
rihannanavide 0.0
saskoktz 0.0
phlawless 0.0
givenchydonc 0.0
mlle_yulia 0.0
oxxoxo 0.0
foreva_rn_ladii 0.0
skinhead 0.0
killaz 0.0
yennifer 0.0
bestofpisces 0.0
smegma 0.0
morganemiller_ 0.0
aa_davis 0.0
beenie 0.0
nickeystaar 0.0
frihannamorocco 0.0
thinketh 0.0
guitarists 0.0
jordriri 0.0
badgalclaudia 0.0
hausofnath 0.0
_abirogerson 0.0
tommykane 0.0
livenationuk 0.0
millenniu 0.0
juuuussttt 0.0
helllooooo 0.0
miiiine 0.0
chaneliman 0.0
blushy 0.0
laetitiacrahay 0.0
rihmix 0.0
dariuscash 0.0
joshkillss 0.0
drunk_cockiness 0.0
firebombfenty 0.0
mooky_mcnasty 0.0
defpenradio 0.0
iamrici 0.0
letcha 0.0
niggerish 0.0
mawazine 0.0
thefashionaddicts 0.0
phierce 0.0
errwhere 0.0
jocking 0.0
niggaaa 0.0
tami_black 0.0
homienadz 0.0
religiosity 0.0
joycemeyer 0.0
brooooklyyyyn 0.0
miiiiine 0.0
dilekkeysan 0.0
marykatrantzou 0.0
allaboutpisces 0.0
jfisherjewelry 0.0
oddhangover 0.0
diggins 0.0
phyliciaghee 0.0
bawsin 0.0
howeverrrrr 0.0
channyyxoxo 0.0
dowwwwnnnnn 0.0
thugbitch 0.0
rihanas 0.0
miiiiiinnneee 0.0
rihwrite 0.0
janiseeaileen 0.0
ratchify 0.0
eeeeeemmmmmm 0.0
pannies 0.0
wooooiiiiiiiiiii 0.0
muhphuckers 0.0
bashment 0.0
whaaaaattttt 0.0
liiifee 0.0
covery 0.0
leeeeaaaavvveeee 0.0
haarrrrrddd 0.0
ismashedriri 0.0
christabslg 0.0
reallll 0.0
peoplez 0.0
wooiiiiii 0.0
slackness 0.0
kevfenty 0.0
woooiii 0.0
tatiana_xo 0.0
fentynavysalute 0.0
ratchettt 0.0
rachael_deanna 0.0
lifeeeeee 0.0
bxdcfjcf 0.0
killled 0.0
asdfghjkjhgtfrdedfghjnhbgvfc 0.0
troy_fenty 0.0
_marrymerihanna 0.0
jkbwdhbwh 0.0
_noellaa 0.0
hunneds 0.0
thekingfly 0.0
dooown 0.0
woooiiiii 0.0
phucked 0.0
kickstand_ohb 0.0
acedemy 0.0
mistercap 0.0
gallest 0.0
sinsofmyfather_ 0.0
dwayneofficial 0.0
_revofev 0.0
joefenty 0.0
thegodlight 0.0
molestmerihanna 0.0
rihannanavyeu 0.0
melina 0.0
terryrichardsonstudio 0.0
_sexxtroversy 0.0
neuroticbxtch 0.0
getcho 0.0
moneyyy 0.0
idillionaire 0.0
yaaaaaaas 0.0
noxx_onite 0.0
phonefancy 0.0
chiefin 0.0
londonfashionwk 0.0
_mayor_ 0.0
rihannanow 0.0
jamrock 0.0
rihannastats 0.0
jenesismagazine 0.0
napmed 0.0
hausofbeyhive_ 0.0
probabily 0.0
badgalelly 0.0
ladylivja 0.0
rihannacomics 0.0
__glitterdick 0.0
chelsey_ba 0.0
stashbox 0.0
thuglife 0.0
highladayz 0.0
brrrap 0.0
kalifah 0.0
marylin 0.0
muthafucker 0.0
stylenetwork 0.0
bvalgari 0.0
oooonly 0.0
fuckyopictures 0.0
amplifydot 0.0
trappat 0.0
soumsluvriri 0.0
ibebossedup 0.0
holerringg 0.0
rihskillerdoll 0.0
equaled 0.0
chefette 0.0
rezilientkas 0.0
blastinggggg 0.0
dammnnn 0.0
lifeandtimes 0.0
hausofjazzy 0.0
kaykispeaks 0.0
condesa 0.0
awaaayyy 0.0
flawle 0.0
mandler 0.0
loudies 0.0
dulcattis 0.0
killaaa 0.0
_loveforrihanna 0.0
yesimkayla 0.0
rollingnostone 0.0
richkunt 0.0
yasssssss 0.0
eriricccccc 0.0
cuntmeout 0.0
sashay 0.0
condragulations 0.0
neverrr 0.0
phasetoo 0.0
fooooorde 0.0
ruunavi 0.0
rihtweet 0.0
ishoobernator 0.0
thirstiest 0.0
j_dimps 0.0
deecosey 0.0
itsrihannasnavy 0.0
muthaphuckin 0.0
