awesome 0.000111962796448
christmas 0.000390807715194
trying 0.000453436140134
launch 0.0
moment 0.000455887367583
wonderful 0.000113185916107
seeing 0.000414069743617
hanging 0.000254051099316
sounds 0.000107505287737
recommend 7.49893295925e-05
worked 0.000272422719815
direct 0.0
others 5.4190492958e-05
currently 0.000179798617269
better 0.00119619601886
please 0.00015155335984
social 0.000451514905348
anxiety 0.0
around 0.000697781011004
people 0.00204350153223
morning 0.000501109149598
traditional 0.0
general 6.45846763734e-05
damage 0.0
everything 0.00110244012912
twitter 0.000200984680532
present 5.70566032648e-05
though 0.000521793238304
friend 0.000302290760089
watched 5.65929580536e-05
beautiful 0.000206477204303
anything 0.000407424056341
previous 7.91645462852e-05
helped 0.000109857798136
updated 0.000238952426059
thinking 5.12033751507e-05
finally 0.00071684725211
caught 0.0
believe 0.000749640387541
already 0.000699664361705
couple 0.000547803400881
orlando 0.000341353548621
chance 0.000250554574799
meaning 0.00022232146832
growing 0.000480781102918
probably 0.000217349206434
password 0.0
changed 0.000589682992612
history 0.0
center 0.000262720552279
museum 8.70092084369e-05
behind 0.000647939510218
screaming 0.0
pretty 0.000153610125452
really 0.00175388202359
little 0.000299856155017
happiest 0.0
earlier 0.000234535990383
forget 0.000355536239874
someone 0.000202071146454
safety 0.0
program 0.000209147272991
things 0.000598098009432
related 0.0
visiting 0.0
available 0.00244582017464
perfect 0.000260896619152
different 0.00020371202817
search 0.0
connect 0.0
numbers 0.0
person 0.000351723190932
watching 0.000705345106875
exhibit 0.0
passed 0.000122195670649
prefer 0.0
minutes 0.000207034871809
travel 6.12665038467e-05
outside 0.000106062672088
looking 0.000399808206689
forward 0.000257401365447
agreed 0.0
raising 7.15506213341e-05
listened 0.000238221253442
afraid 0.0
impression 0.0
christian 8.7866103482e-05
profile 0.0
instant 0.0
drawing 0.0
wheels 0.0
favorite 0.00145388788784
picture 0.0
instead 0.000225757452674
appreciate 0.000648511124588
international 0.0
station 0.000140639808929
toddler 0.0
market 0.0
couldn 0.000573972562134
remember 0.000801774639357
vintage 0.000228396608862
holidays 0.000143101242668
friends 0.000352672553437
everyone 0.000952107384236
florida 0.000221667093086
always 0.00164476952594
months 0.000261601591345
moving 0.000269490833011
meeting 0.000205366527318
answer 0.000154024895489
sweetie 0.0
together 0.00115566191306
inside 5.21793238304e-05
section 0.0
missed 0.000253954457053
button 0.0
longer 0.000115678120954
enough 0.000253270759769
driving 0.0
building 0.000168858720473
enjoying 0.00036759902308
london 0.000894074499445
exploring 0.0
posting 7.52123344424e-05
amazing 0.00119942462007
attention 0.000113494055461
gordon 0.0
progress 0.0
tomorrow 0.00295654398263
george 0.0
feeling 0.000419693701538
excited 0.00099408604711
understand 0.000163896667776
following 0.0
asleep 0.0
learning 0.000124237032121
evening 0.000114736227317
special 0.00146501581179
secret 0.000112267172262
across 5.5981398224e-05
surprised 0.000179305949599
anymore 0.0
sophia 0.0
precious 0.0
rejoice 0.0
version 0.000332263508541
rather 0.000168858720473
avatar 0.0
showing 0.000213851467541
saying 0.000156960954807
tweeted 0.0
thoughts 0.0
exactly 0.000162571478874
except 0.000127735040209
getting 0.000801774639357
nothing 0.000350776404719
tweets 5.52273520601e-05
course 5.17587179521e-05
photos 0.000363571366176
looked 0.000170704725431
difficult 0.0
stages 0.0
office 5.4190492958e-05
decisions 0.0
brought 0.000777386441619
biggest 0.000103238602152
thrilled 0.0
something 0.00130288378895
closing 7.45462911129e-05
anyone 0.00015155335984
taking 0.000801774639357
recently 6.51293976509e-05
interesting 0.0
original 0.0
flying 6.29853466184e-05
happening 0.0
sometimes 0.000552273520601
lessons 0.00014519990969
village 0.000100598204301
stopped 0.000117589035732
yesterday 0.000707249012588
service 5.50779021706e-05
serious 0.000214430179132
digital 0.0
hoarder 0.0
wearing 0.000117589035732
british 0.0
either 0.000109264445184
second 0.000101035573227
checking 0.0
indeed 0.0
island 0.000212794392881
hearing 0.000167944194672
choose 0.000117911113561
staying 0.0
another 0.00119942462007
clothes 0.0
slowly 0.0
weekend 0.000609490696928
hashtag 7.38890310286e-05
delivery 0.0
theory 0.0
working 0.000952107384236
bigger 0.000235178071463
screen 6.77532403348e-05
riding 0.000433634097876
laughing 0.00101051092609
wanted 0.000354579063676
trends 0.0
stripes 0.0
clothing 0.0
current 0.0
adorable 0.0
grateful 0.000261983523702
friendship 0.0
family 0.00145321653383
listening 0.00131829357763
stream 0.00124058617178
expressions 0.0
wedding 0.0
sharing 0.000176866670342
double 0.000113494055461
especially 0.000111055205946
middle 0.000115049204032
waiting 0.000564757950126
definitely 0.000328682040528
walking 0.000240390551459
account 0.0
completely 0.0
thought 0.000252588933067
reaction 0.0
accept 0.00012809168818
simple 0.0
professional 0.0
friendly 0.0
supposed 0.0
business 0.000108088230928
absolutely 0.000107215089566
anywhere 0.0
sending 0.000116311031027
introducing 0.0
congrats 0.00205153686567
beauty 0.0
community 6.17759614419e-05
greatest 0.000493023060793
selfie 7.49893295925e-05
posted 0.00148198010067
saturday 0.000740436462179
wednesday 6.04288118459e-05
confused 0.0
expression 0.0
chicago 0.00143093182035
closest 0.0
relationship 6.73698422843e-05
actually 0.000205366527318
easter 0.000205586997595
basket 0.0
myself 0.000262720552279
argument 0.0
school 0.000254640035213
thursday 0.000428860358263
selling 0.000137057998396
talented 0.000131730157832
celebrate 5.53772514235e-05
falcon 0.0
celebrating 0.0
contest 0.0
experiences 9.33420136106e-05
students 0.000199272164631
internet 0.000124581360621
figure 5.99328724228e-05
opened 0.0
featuring 0.000325646988254
inspired 0.000181785683088
sitting 0.000113185916107
playing 0.000509280070426
street 0.0
points 0.0
memory 0.0
forever 0.000565929580536
imagine 0.000279148367996
problem 5.37526438687e-05
played 0.000391869787568
canadian 8.64460216449e-05
pulling 0.000170676774311
keeping 0.000111962796448
lovely 0.0
dressed 0.0
specifically 0.0
unlike 0.0
disappointed 0.000150872683129
otherwise 0.0
afternoon 5.89555567807e-05
planned 0.0
strange 0.0
images 0.0
noticed 0.0
notice 6.79460510231e-05
stretch 0.0
inspiration 0.000274899361271
letting 0.000123211125965
system 0.0
possibility 0.0
almost 0.000952107384236
details 0.000164341020264
experience 0.000261601591345
living 0.000418562546151
weather 0.00012809168818
normal 0.0
launching 0.0
before 0.0
captured 0.0
colors 0.0
monday 0.000156960954807
example 0.0
realize 0.000287870829827
autographed 0.000128863641356
sleeping 0.000238952426059
authentic 0.000123875331577
science 7.07267761179e-05
tweeting 0.0
forgot 0.000188432310765
chasing 0.0
gorgeous 0.0
herself 0.0
happens 5.18985259002e-05
silence 0.000315692730454
learned 0.0002899851842
congratulations 0.00038659146442
natural 7.11369965471e-05
raised 0.0
babies 7.79692491734e-05
mission 6.79460510231e-05
smelled 0.0
ironic 0.0
testing 0.0
deleted 0.0
barely 8.72932063608e-05
unforgettable 0.000116192230348
forgotten 0.0
trouble 0.0
fantastic 0.0
loving 0.000118234235405
complete 0.000230098408063
nearly 0.0
spirit 0.00019484148484
launched 0.0
finding 0.000428865526927
mercury 0.0
stories 0.0
including 5.56784094442e-05
mature 0.0
stuffed 0.0
ancient 0.0
bottle 0.0
somewhere 0.000783747629354
wouldn 5.40441154642e-05
choice 0.000160388600655
conversation 0.0
making 0.00104949654256
expect 6.00976378647e-05
occasions 0.0
subject 0.0
flights 0.0
location 0.0
vacation 8.99247471683e-05
seriously 5.53772514235e-05
spending 0.000124581360621
groups 0.0
childhood 0.0
modern 0.0
welcome 0.000101308303907
moments 0.000249162721241
degrees 9.39893149266e-05
jacket 8.84456623469e-05
halloween 7.52123344424e-05
costume 0.0
totally 0.0
laughed 9.49763075906e-05
flight 0.000120195275729
kidding 0.0
regular 0.0
context 0.0
running 0.000105207018752
finished 0.0
strong 0.000154857903227
tracking 0.0
respond 0.0
message 0.000265873824612
coming 0.00129937667174
thankful 0.00134169410443
cheese 0.000158814168961
greens 0.0
issues 5.97686498664e-05
intolerance 0.0
happen 0.000153196502775
giving 0.000354579063676
turkey 0.000146051906343
excellent 0.0
limits 9.30214883851e-05
common 0.000247787777839
pressed 0.0
situation 0.0
options 0.0
health 0.0
insurance 0.0
change 0.00335743130231
singing 6.69893709651e-05
august 0.0
crying 7.89231826136e-05
mental 0.000149092582226
happened 0.000158237131848
demand 0.0
generally 0.0
personal 0.0
beyond 5.5981398224e-05
bruised 0.0
question 5.12033751507e-05
chicken 0.0
reward 0.0
tunnel 0.000118269260078
losing 0.0
respect 0.000328682040528
caption 0.0
shouldn 0.0
visited 0.0
reason 0.0
simply 0.0
darlin 0.0
audience 0.0
involved 0.000116628999404
unhappy 0.0
reality 0.0
extremely 0.0
without 0.000202071146454
falling 0.0
countdown 0.000182280907597
locations 0.0
timing 0.0
crabby 0.0
classic 6.14357450985e-05
highly 0.0
online 0.000107796333204
finger 0.0
animals 0.0
planets 0.0
called 0.000151145380045
delicious 0.0
almond 0.0
compliment 0.0
pictures 0.0
camera 0.000130991761851
pillow 0.0
checked 0.0
heading 0.000298024833148
theater 0.0
paying 0.0
planning 0.000130258795302
complex 0.000659308106823
sunday 0.000672863333378
nights 0.000443334186171
descending 0.0
traffic 0.000150424668885
opposite 0.0
through 0.000210959713393
lookout 0.0
reached 0.0
harder 0.0
random 7.30259531717e-05
changes 0.0
speaking 0.000114736227317
recorded 0.000456686806093
washed 0.0
november 0.00053743394863
answered 0.0
enchanted 0.0
number 0.000513416318296
adventures 0.0
eclipse 0.0
chocolate 0.0
unless 6.17759614419e-05
calling 0.0
mermaid 0.0
distraction 0.0
levels 0.000385166155197
option 0.0
shopping 7.61144676822e-05
former 0.0
actual 0.0
covers 0.0
mountain 0.0
friday 0.00121898139386
winner 0.0
closes 0.0
quality 0.000259062357842
father 0.000171169809794
wishes 6.53123024462e-05
hourly 0.0
matter 0.000161257931606
themselves 0.0
usually 0.0
period 0.0
parents 0.0
balance 0.0
publishing 0.0
mobile 0.0
woohoo 0.0
bracelets 0.0
summer 0.000864705847428
reminded 0.0
impressed 7.58873989487e-05
necklace 0.000139011318844
shutdown 0.0
dinner 5.53772514235e-05
single 0.00118724392474
packed 0.0
definition 0.0
energy 0.000298024833148
preview 0.0
monster 0.0
material 0.0
admission 0.0
europe 0.000693170235309
holiday 0.000288407916252
emotional 0.0
update 0.0
customers 0.0
messing 0.000253868103933
holding 5.9279204027e-05
electric 8.96253979153e-05
eating 0.000125273606469
outfit 0.000102881420327
picked 6.24634413178e-05
fabulous 0.0
missing 0.000160388600655
surprise 0.000321645268697
officially 0.000350843955843
french 0.0
global 0.0
follow 0.000100763586696
opinion 0.0
backwards 0.0
design 0.0
secrets 0.0
request 0.000231796778308
breaks 0.0
allows 0.0
promoting 0.0
volunteer 0.0
wondering 6.81396104928e-05
official 0.000569345897474
sweater 0.0
jersey 0.000168509667189
mistake 0.000207951070593
france 0.000417095951173
proper 7.96508086864e-05
ginger 0.0
peaceful 0.0
lighter 0.0
thinks 0.0
competition 0.0
hospital 7.30259531717e-05
industry 7.07267761179e-05
trending 0.0
leadership 7.84439337213e-05
organized 0.0
showed 0.000251941386474
circle 0.0
success 0.000282964790268
ladies 0.0
dreams 0.000263460315663
protect 6.42248083783e-05
onesie 0.0
explanation 0.0
control 0.000111962796448
coincidence 0.0
discovering 0.0
laying 0.0
invited 0.0
healthy 0.0
surgery 0.0
allowing 0.0
arrived 0.0
opening 0.0
popular 6.85289991982e-05
pleasure 0.0
spectacular 0.0
animal 0.0
luggage 0.0
wonder 0.000108674603217
matters 6.58650789158e-05
reader 0.0
function 0.0
marketing 0.0
connection 8.1644734603e-05
improves 0.0
benefit 6.2810770255e-05
continues 6.10978353243e-05
cuddle 0.0
routine 0.0
exciting 0.000120195275729
corner 7.15506213341e-05
imagination 0.0001198858829
sangria 0.0
mystery 0.0
spring 0.000320229220449
beautifully 0.0
places 0.000179305949599
feedback 9.77080323529e-05
continue 0.0
attend 0.0
creative 0.000212180328354
memories 0.000137057998396
female 0.000133600437865
grandma 0.00190232086125
closer 0.0
accent 0.0
beginning 0.000188956039855
sooner 0.000198989314716
everywhere 0.000717223798397
scenes 0.00044707264073
bought 0.000245066015387
wishing 7.25999548452e-05
discovered 0.0
remove 0.0
predict 0.0
parrot 0.0
several 0.0
teacher 7.47673180861e-05
passing 6.77532403348e-05
become 5.23203182689e-05
spread 5.72121150939e-05
netflix 0.0
season 5.52273520601e-05
putting 0.000157810528129
weight 0.0
outfits 0.0
notification 0.0
annoying 0.0
necessity 0.0
knocks 0.0
processed 0.0
necessarily 0.0
effects 0.0
lighting 0.0
headed 0.000397422192842
returns 6.71792435787e-05
expected 0.0
bucket 9.43161456111e-05
constantly 0.0
sweetest 0.0
struggling 0.0
register 0.0
transition 0.0
flowers 0.0
sprain 0.0
savage 0.0
somebody 0.000224301954258
covering 7.74990428485e-05
gloves 0.0
repeat 0.000279665309416
managers 0.0
brothers 0.000153603895116
patriots 0.0
seahawks 0.0
player 0.000139832654708
chemistry 0.000219073650675
moonlight 0.0
comment 0.000129169352747
columbia 0.00012099351739
physical 0.000166914705137
kingdom 0.0
pretend 0.000175732206964
charles 0.0
fighting 0.0
rooting 0.0
donald 0.0
mexico 7.23883133349e-05
police 0.000129169352747
represent 0.0
president 5.56784094442e-05
talking 0.000150738510399
unbelievable 0.0
shrimp 0.0
giants 0.0
conference 0.0
america 0.000479867469636
everybody 0.00154439903605
houston 0.000341353548621
everyday 0.00049795897583
michael 0.000169778874161
protecting 0.0
unconditional 0.000163411137101
million 0.000420828075009
election 6.91188463283e-05
telling 5.69015751436e-05
correct 0.0
pulled 0.000300849337769
starbucks 0.0
americans 0.0
killed 0.00150740118718
cowboys 0.0
cowboy 0.0
coverage 0.0
dallas 0.000165344861645
coffee 0.0
timeline 0.0
refuse 0.0
barackobama 0.000289998035415
hillary 0.0
clinton 0.0
gatorade 0.0
sharper 0.0
american 0.0
deserved 0.0
realist 0.00127627828565
illegal 0.0
arizona 9.91321721181e-05
waffle 0.000150739726092
scared 7.34556239429e-05
pieces 7.41071561066e-05
taught 7.38890310286e-05
golden 0.00020268351797
straight 0.00161030048621
massage 0.0
filter 0.00022178014276
answers 0.0
smoking 0.000199719596382
created 0.0
beside 0.0
worlds 0.0
record 0.00047088286442
freddie 0.0
africa 0.0
recruiting 0.0
journey 6.51293976509e-05
snapchat 0.000558128930311
brother 0.00085536969454
prayers 0.000392219668606
trolling 0.0
hungry 0.000322551205401
nflnetwork 0.0
documentary 0.00029995731837
boston 0.000434329880009
addition 0.0
church 7.61144676822e-05
honestly 0.000572404970673
lounge 0.000235483663735
lifetime 0.0
captain 0.000170130564716
favorites 0.000623224277954
country 0.000517587179521
valley 0.0
huddle 0.0
dressing 0.0
finish 0.0
favourite 0.000161775267915
prayer 0.00011089007138
nominated 0.000225637003327
praying 0.0
insane 0.000518750092746
national 0.000162571478874
reform 0.0
shooting 0.000187910409703
australia 0.000222978719938
deserve 0.000921536176478
legend 0.000668002189325
mother 0.000167489020797
realest 0.000175193108568
creating 0.0
powerful 0.000183293505973
chilling 0.000105684492292
wisdom 0.0
breaking 5.38981666022e-05
parked 0.0
angeles 0.000261879619082
dollars 0.0
questions 0.000359391422807
racist 0.0
girlfriend 0.0
performance 0.000811958515761
refreshing 0.0
educated 0.0
reading 0.000106349529845
denver 0.000629204401254
videos 0.00077501611648
harmony 0.0
create 0.0
jordan 0.0
admire 0.0
nobody 0.000122871490197
government 0.0
politics 0.0
paradise 0.0105155352324
recover 0.0
spotted 8.45235215808e-05
blessing 0.00106098117079
coolest 0.000177475977405
banana 0.0
donate 6.75611726567e-05
sandwich 0.0
lookin 0.00043637514743
method 0.0
bullshit 0.000191966481686
slight 0.0
bringing 0.000281431200789
deserves 0.000266447128128
regret 0.0
celebs 0.0
victim 0.0
stadium 0.000423968329389
funniest 0.0
according 6.64240548769e-05
pumped 9.98597981909e-05
hamburger 0.0
heaven 0.000158814168961
honest 0.000124581360621
rolling 7.52123344424e-05
became 0.0
feature 0.0
waking 9.70109370626e-05
breakfast 0.0
counting 0.0
signing 0.00013136027614
adding 0.000158814168961
awareness 0.0
kindest 0.0
trainer 0.0
facebook 0.0
insanity 0.0
repost 0.00012099351739
brazilian 0.0
campaign 0.00017446654654
borrow 0.0
scorpion 0.0
popcorn 0.0
factory 0.0
teenage 0.0
endorsement 0.0
williams 7.9895730559e-05
custom 0.000100598204301
drinks 0.0
future 0.000154857903227
angels 0.0
fingers 0.0
sister 0.000134739684569
earrings 0.0
warrior 0.0
dancing 7.03199044643e-05
voting 6.17759614419e-05
individuals 0.000201943101243
presence 9.94946573579e-05
commercial 0.000137449680635
chopped 0.000152816755823
religion 0.0
century 0.0
submit 0.0
serving 0.0
because 0.000144355133435
aggressive 0.0
sensitive 0.0
smiling 0.000265336987041
besides 0.0
cleveland 0.0
hometown 0.000268876193746
killing 0.000255470080417
breath 8.50652823581e-05
phillips 0.0
instagram 0.0
sharks 0.0
cousin 0.0
honored 0.000278063967449
dedication 0.000211368984584
lifting 0.0
lyrical 0.0
talent 0.000133600437865
goodnight 0.0
stores 0.000817503623122
rushing 0.000126934051967
brains 0.0
sandwiches 0.0
drinking 0.0
brazil 8.99247471683e-05
tattoo 0.0
ravens 0.0
regardless 8.84456623469e-05
skills 0.0
cameras 0.000301794612902
phones 0.0
california 0.0
seconds 0.00013397874193
listen 0.00160452025652
smiled 0.0
kicking 0.0
homies 0.000892474801055
billion 0.0
shades 0.0
shoutout 0.000189290267219
grammy 0.000118269260078
guilty 0.0
stevie 0.000132255528098
ceiling 0.0
carpet 8.61667968205e-05
grammys 0.0
harvard 0.0
panther 0.0
nelson 0.0
mandela 0.0
handle 0.0
sexiest 0.0
promise 0.00029720909591
hosting 0.0
hahahaha 0.0
longest 0.0
tuesday 0.000170704725431
locker 0.000112281087265
workout 0.0
ingredient 0.0
leader 0.0
pageant 0.0
character 0.0
idiotic 0.0
mirror 8.1644734603e-05
jackson 8.08876339576e-05
interview 0.000712992098596
battles 0.0
bleach 0.0
insight 0.0
obviously 0.0
replay 0.0
battle 0.0
stomped 0.0
destroy 0.0
killer 0.0
personally 0.00014477662667
winning 5.34628668851e-05
gettin 0.000325963955554
japanese 0.0
writing 0.0
society 0.0
officers 0.000106098117079
brooklyn 0.0
sources 0.0
incredible 0.000810661731964
poster 0.0
celebrity 0.0
memorable 0.0
werent 0.0
chased 0.0
minute 0.000225757452674
confession 0.0
pregnant 0.0
cherry 0.0
twinning 0.0
phoenix 0.000103666342073
orange 0.0
policy 0.0
comedy 0.0
illuminati 0.0
reminder 0.000120525899587
evidence 0.0
iphone 7.9895730559e-05
kicked 0.0
intentions 0.0
freedom 0.0
patient 0.0
utterly 0.0
mississippi 0.0
download 0.000636540985061
assistant 0.0
invite 7.09314642938e-05
central 0.0
washington 0.0
stronger 7.96508086864e-05
promised 0.000739403405677
worried 0.0
throwing 0.0
security 0.0
cologne 0.000312208399853
headphones 0.0
sanctuary 0.0
fantasy 0.0
monkey 0.0
approve 0.0
spinach 0.0
turning 0.000125273606469
helping 0.000165233706512
tickets 0.00193904728627
collector 0.0
physically 0.0
slavery 0.0
december 0.0
basically 0.000146051906343
return 5.53772514235e-05
yassss 0.0
goddess 0.0
locked 0.0
feelings 0.0
language 0.0
motion 0.000176310081055
obsessed 8.7866103482e-05
creation 0.0
followers 0.0
schools 0.0
gallery 0.0
movies 7.49893295925e-05
foster 0.0
children 0.0
nation 6.29853466184e-05
theaters 0.000106515203201
between 0.0
knowledge 7.11369965471e-05
begins 5.99328724228e-05
robinthicke 0.0
faithful 0.0
peeing 0.0
closet 0.00047096732747
bodies 0.000198264344236
italian 0.0
highlights 0.0
spanking 0.0
forbes 0.0
parade 0.000277159668666
tasted 0.0
consider 6.64240548769e-05
reunion 0.0
latest 0.000379333450706
dedicated 0.000256015161466
beyonce 0.000322079983876
perform 0.00112198606698
signed 0.000607500872661
tuxedo 0.0
princess 0.0
shelter 0.000112753522089
germany 0.00114171701523
explaining 0.0
married 0.0
millions 0.0
blessings 0.00442655611167
iconic 0.0
indonesia 0.0
braids 0.0
dollar 8.42548335943e-05
rigged 0.0
replied 0.0
lights 0.000143935414913
turned 0.000164786697203
excuses 0.0
jackie 0.0
charge 0.0
performing 0.00233128722909
ticket 0.000134358487157
steady 0.000120436623319
whispers 0.0
finest 0.0
confucius 0.0
diamonds 0.0
vancouver 0.0
addicts 0.0
collection 0.000481073882224
families 0.00012809168818
select 0.0
hitting 6.68002189325e-05
announced 0.000121859471336
decided 0.00311650936599
jewels 0.0
lottery 0.0
owners 0.0
respects 0.0
celebration 0.0
memorial 0.0
landed 0.000469236158067
pastor 0.0
ultimate 0.0
incase 0.0
rapper 0.000281291225647
episode 5.97686498664e-05
bounce 0.00668310505086
disney 0.0
muffin 0.0
kansas 0.000200455267629
sherman 0.0
retweet 6.35127748289e-05
midnight 0.00020268351797
patience 0.000701593436702
cereal 0.0
joining 0.000117911113561
released 0.000233257998807
release 0.000604217889745
models 0.0
classics 0.000278022637687
popped 0.0
mileycyrus 0.0
highlight 7.91645462852e-05
scholarship 0.0
within 0.0
hahahahaha 0.0
standing 0.0
higher 6.71792435787e-05
purple 9.33420136106e-05
skinny 0.0
justice 6.73698422843e-05
served 0.0
speaks 7.23883133349e-05
horses 0.0
houses 0.0
purchase 8.58891275743e-05
dropped 0.00142084711316
conversations 0.0
consideration 0.0
seattle 0.000365796283553
cookie 0.0
slurpee 0.0
strength 6.93170235309e-05
screens 0.0
monica 0.0
incredibly 0.0
streets 0.000221015569169
boyfriend 0.0
private 0.000128449616757
skittles 0.0
barbie 0.0
apologizes 0.0
designer 0.0
impress 0.0
cooking 0.0
exclusive 0.00029720909591
fashion 0.00014477662667
petite 0.0
talkin 0.0
peaches 0.0
bitches 0.0
nailed 0.0
weirdest 0.0
whomever 0.0
teaching 7.63425756354e-05
disgusting 0.0
chillin 0.0
philly 0.000561987680684
rights 0.0
dinosaur 0.0
exotic 0.0
dancers 0.0
cheers 0.000232497128545
presents 8.18996788969e-05
flawless 0.0
dating 0.0
victory 0.0
marley 0.0
productive 0.0
smurfs 0.0
halftime 0.000354807780234
insecure 0.0
horror 9.94946573579e-05
warning 0.000217164940005
discovery 0.0
convention 0.0
understanding 0.0
action 0.0
having 0.0
speaker 0.0
clever 0.0
theatre 9.14490708883e-05
honors 0.0
evolution 9.77080323529e-05
produce 0.0
spider 0.000116192230348
apologize 0.0
formation 0.0
letter 0.000123551922884
therapy 0.0
untrue 0.0
written 0.0
communication 0.000109093786858
disease 0.0
marching 0.0
suggest 0.0
georgetakei 0.0
hairstyle 0.0
humans 0.0
journal 0.0
foundation 0.000570747038944
access 6.16055629827e-05
venture 0.0
syndrome 0.0
writes 0.0
colorado 0.0
medicine 0.0
tremendous 0.0
nytimes 0.0
kindness 0.000424392468315
cannot 0.0
reveals 0.000224301954258
invented 0.0
sapphire 0.0
candidate 0.0
sexual 8.7866103482e-05
madison 0.000220869789387
illustration 0.0
newark 0.0
globally 0.0
incorrect 0.0
headline 7.84439337213e-05
reflect 0.0
streaming 0.000655197431175
leaders 0.0
supreme 0.0
protest 0.0
policies 0.0
silenced 0.0
defend 0.0
communicating 0.0
climate 0.0
wrapped 0.0
studio 0.00118516788028
conspiracy 0.0
interviews 0.000951244714324
differentiation 0.0
confusing 0.0
february 7.36718563896e-05
hamilton 0.0
loneliest 0.0
amazon 0.0
scattered 0.0
francis 0.0
headlines 0.0
january 0.000138634047062
diversity 0.000184773112444
universal 8.84456623469e-05
hurricane 0.0
identifying 0.0
countries 7.21775667174e-05
tickled 0.0
becker 0.0
connected 9.77080323529e-05
suggestion 0.0
filled 0.0
education 6.73698422843e-05
mentioned 7.36718563896e-05
defining 0.000128212109192
exists 0.0
unexpected 0.0
plants 0.0
orders 0.0
olympics 0.0
ability 7.28124988807e-05
director 6.24634413178e-05
content 0.0
cycling 0.0
previously 0.0
correction 0.0
pearls 0.0
ambassador 0.00017289204329
preparing 0.0
depend 0.0
downloads 0.0
lovers 0.000100598204301
weekly 0.0
hudson 0.0
bridge 8.06378013504e-05
becoming 0.0
magazine 6.95159918621e-05
appropriate 0.0
shakespeare 0.0
travesty 0.0
discoveries 0.0
fellow 0.0
reviewed 0.0
copies 0.000190619393598
driven 0.0
aussies 0.0
result 0.0
announcing 0.0
visual 0.000208927646198
restrictions 0.0
culture 6.91188463283e-05
edition 0.00013397874193
prince 7.25999548452e-05
shocks 0.0
symmetry 0.0
clicks 0.0
disagree 7.74990428485e-05
experiments 0.0
mistakes 0.000178655671666
trolls 0.0
blossoms 0.0
offered 0.0
inspiring 0.00040536703594
counter 0.0
approach 0.0
embarrassing 0.0
creators 0.0
edited 0.000117741831868
berniesanders 0.0
overnight 0.0
spotlight 0.0
probable 0.0
repeating 0.0
concerns 0.0
massive 0.0
promising 0.0
promises 0.0
colored 0.0
production 7.9895730559e-05
header 0.0
itunes 0.00330689723289
secretary 0.0
highway 0.0
dangerous 0.0
letters 0.0
typically 0.0
saving 0.00014519990969
pioneer 0.0
visuals 0.00128683681862
universe 0.0
ordering 0.000119341161623
victims 0.0
privacy 0.0
disclosure 0.0
proceeds 0.000400910535258
musical 8.1644734603e-05
collide 0.0
melbourne 0.0
correctly 0.0
campus 0.0
debate 6.44044175845e-05
conflict 0.0
meanwhile 0.0
petition 0.0
contribution 0.0
stated 0.0
humanity 0.0
illness 0.000109093786858
flawed 0.0
breathe 0.0
winners 6.62370321404e-05
spanish 0.0
comedic 0.0
awards 0.000783747629354
presidential 0.0
candidates 0.0
glasgow 0.000120436623319
smells 0.0
treasure 0.0
greater 0.0
themed 0.0
distribution 0.0
absurd 0.0
squirrel 0.0
sisters 0.0
stress 9.23865562218e-05
leading 0.0
resolution 0.0
achieved 0.0
interacting 0.0
boiling 0.0
examples 0.0
diverse 0.0
suicide 9.8772304123e-05
parallel 0.0
minneapolis 0.000145896939048
impairs 0.0
pumping 0.0
slides 0.0
choreography 0.0
element 0.0
serves 0.0
jumping 0.0
rising 0.0
believed 0.0
features 0.0
environment 0.0
revealed 8.1644734603e-05
classical 0.0
confirmed 0.0
origins 0.0
combination 0.0
consumption 0.0
worldwide 0.000332777344492
deaths 0.0
responsible 0.0
overwhelmed 0.0
household 0.00022456217453
munich 0.000281291225647
alternate 0.0
blockers 0.0
restaurant 0.0
canada 0.000133223564064
versions 0.0
technology 0.0
identify 0.0
combined 0.0
santiago 0.0
branches 0.0
october 0.000209748982062
netherlands 0.000252614213167
belgium 0.000366378982601
european 0.000172333593641
imperial 0.0
perspective 0.0
cities 0.0
guinea 0.0
americas 0.0
posters 0.0
elastic 0.0
flames 0.000267359335726
presumably 0.0
exquisite 0.0
spreading 0.0
happiness 0.000435046042185
ashamed 0.0
naturally 0.0
malbec 0.0
wasting 0.0
hidden 0.0
coffin 0.0
freudian 0.0
genius 0.000199272164631
cultured 0.0
malaysia 0.0
traveling 0.0
prepared 0.0
county 0.0
quinoa 0.0
district 0.0
chosen 0.0
toilet 0.0
yorkers 0.0
ignores 0.0
messages 8.34573525685e-05
creativity 0.0
conventional 0.0
berlin 0.000205762840654
montreal 0.0001198858829
wonders 0.0
upcoming 0.0
lonely 0.0
australian 0.0
positions 0.0
singapore 0.0
scratch 0.0
deficiency 0.0
elevated 0.0
triggers 0.0
delicate 0.0
barrier 0.0
reflection 0.0
sydney 0.0
separates 0.0
centuries 0.0
israel 0.0
overwhelming 0.000106098117079
assault 0.0
protection 0.0
picker 0.0
additional 0.000104063487607
machine 0.0
samples 0.000139821767607
contrary 0.0
immediate 0.0
michelle 0.0
inspire 0.000170130564716
lyrics 0.000280993840342
missyelliott 0.0
constant 0.0
tuning 0.0
pandora 0.0
preshow 0.0
buenos 0.0
poland 0.000520771307255
philippines 0.0
nicely 0.0
september 0.0
manchester 9.08337359024e-05
checks 0.0
screenshot 0.0
universalorl 0.0
remarkable 0.0
rihanna 0.00108392960987
disgusted 0.0
flattered 0.0
fiction 0.0
angela 0.0
bitmoji 0.0
process 0.000254759327425
genuine 0.0
performances 9.80602705736e-05
comedians 0.0
flotus 0.0
strangers 0.0
hungover 0.0
confidence 7.82060263446e-05
studios 0.00010693580908
stjude 0.0
memphis 0.0
mikeypiff 0.0
chancetherapper 0.00192712419425
scream 0.000105274271863
jennifer 0.0
disappoint 0.0
newcastle 0.0
castle 0.0
literally 0.000247103845768
chrisrock 0.000321709204656
gentlemen 0.0
mtvnews 0.000498317785656
hillaryclinton 0.000198989314716
iamrashidajones 0.0
champagne 0.0
raleigh 0.000159623885458
ijessewilliams 0.000192970323067
acknowledge 0.0
buzzfeed 0.0
puppet 0.0
rehearsal 0.000111813088514
billboard 0.00178966262166
austria 0.000143202147596
sweden 0.000396528688472
republic 0.0
grilled 0.0
waltdisneyworld 0.0
katyperry 0.000135895210422
ronanfarrow 0.0
measly 0.0
bragging 0.0
treats 0.0
literal 0.000132255528098
cooper 0.0
counts 8.29327003474e-05
theellenshow 0.000319545609604
basking 0.0
cookies 0.0
festival 0.00117528998309
amsterdam 0.00038270695239
soundcheck 0.000171976411816
downloaded 0.0
encouraged 0.0
alright 0.000175157663578
jtimberlake 0.0
backstage 0.0
collab 0.000135145700045
joined 0.0
issarae 0.0
playlist 0.000296316912369
madness 0.0
romantic 0.0
selfies 0.0
exclusively 0.000614961280607
disneyland 0.0
refused 0.0
characters 7.96508086864e-05
amazingly 0.0
auction 0.0
express 0.0
gratitude 0.0
sesamestreet 0.0
thegrammys 0.000624416799706
throughout 0.0
awkward 0.0
shining 0.000100971550622
thrown 0.0
stylist 0.0
fighter 0.0
accepting 0.0
playin 0.000135895210422
applemusic 0.00120966564542
filmed 0.0
makeawish 0.0
bieber 0.0
remixes 0.0
toronto 0.0011574165162
capitolrecords 0.0
shazam 0.000156104199926
anthem 0.000729123630386
cosmopolitan 0.0
khloekardashian 0.000184280288585
cookin 0.000506864369041
songwriters 0.0
reveal 0.0
stands 0.000346585117654
spotify 0.00106098117079
phvegas 0.0
rocked 0.000104867400209
glasses 0.0
iambeckyg 0.0
relive 0.0
acoustic 0.0
announce 0.000463976294721
although 0.0
isaacfromct 0.0
shampoo 0.0
interactive 0.0
todayshow 0.000114198304431
haters 0.0
appreciation 0.000108219352134
floating 0.0
shondarhimes 0.0
showtime 0.0
premiere 0.000244173263223
broadway 0.000111813088514
makeup 0.0
starring 0.000195416064706
newest 0.000241913404051
designed 0.0
arianagrande 0.00404278540667
aladdin 0.0
swaggy 0.0
owning 0.000132962511594
producer 9.05288939688e-05
legendary 0.000559270113913
jasmine 0.0
costumes 0.0
square 0.000135122345313
emojis 0.000134407293936
jessica 0.0
magical 0.0
thedoctorluke 0.0
thirsty 0.0
therealjuicyj 0.0
symbols 0.0
privilege 0.0
spiral 0.0
retrograde 0.0
footage 8.1644734603e-05
theirs 0.0
universes 0.0
remembering 8.1644734603e-05
floated 0.0
construction 0.0
consciousness 0.0
delights 0.0
explodes 0.0
submissions 0.0
pleased 0.0
shredding 0.0
filters 0.0
weasel 0.0
reflective 0.000166105928552
firework 0.0
islands 0.0
interstellar 0.0
bubble 0.0
customs 0.0
festive 0.0
window 0.00102536455768
senator 0.0
slightly 0.0
therealbuzz 0.0
printing 0.0
snowflake 0.0
applications 0.0
elephant 0.0
fifteen 0.0
editions 0.0
newspaper 0.0
rainbow 0.0
unlimited 0.0
sirius 0.0
matthew 0.0
affected 7.70332310394e-05
capturing 0.0
canyon 0.0
rivers 0.0
spoken 0.0
accidentally 9.5645331069e-05
bizarre 0.0
dolphin 0.0
successfully 0.0
liquid 0.0
graffiti 0.0
swallowing 0.0
messenger 0.0
heroes 0.0
disturbing 0.000105684492292
graduates 0.0
rewrite 0.0
describe 0.0
hollywood 0.000293822495772
equality 0.0
announcement 6.40458440898e-05
breakout 0.0
dreaming 0.0
animation 0.0
calendar 0.0
circling 0.0
garden 7.45462911129e-05
enhanced 0.0
journalists 0.0
stirring 0.0
nominations 0.000408434673606
yelling 0.0
teachers 8.93278358328e-05
chapter 0.000249583008369
napoleon 0.0
aliens 0.0
subjects 0.0
revolution 0.0
mountains 0.0
wonderland 0.0
storage 0.0
crystals 0.0
circuit 0.0
invitation 0.0
kettle 0.0
adjective 0.0
woodpecker 0.0
operate 0.0
exhibition 0.0
learnt 0.0
nomination 0.000181667471805
madonna 0.000141483304824
questioning 0.0
unplug 0.0
initiatives 0.0
switzerland 0.000518095213341
represents 0.0
throat 0.0
touchdown 0.000253868103933
desire 0.0
forced 0.0
swedish 0.0
hundred 0.0
prompts 0.0
rainbows 0.0
creates 0.0
oxford 0.0
balloons 0.0
liverpool 0.0
recreate 0.0
glorious 0.0
newton 0.0
creature 0.0
finalist 0.0
scouts 0.0
treading 0.0
tragedy 0.000327598715588
nottingham 0.0
debacle 0.0
legends 0.0
noises 0.0
addiction 0.0
survived 9.98597981909e-05
idioms 0.0
greeted 0.0
basics 0.0
masses 0.0
confirm 0.0
cadence 0.0
spaghetti 0.0
prepare 0.0
calendars 0.0
narrative 0.0
application 0.0
octopus 0.0
drumming 0.0
bloody 0.0
confetti 0.0
translate 0.0
birmingham 0.00022178014276
singles 0.000540582800182
completes 0.0
laptop 0.0
obvious 0.0
darling 0.0
deserving 0.0
miller 0.0
ordered 0.000367278119715
feelin 0.000265925023188
alicia 0.0
picasso 0.0
recipe 0.0
alphabetical 0.0
butterfly 0.0
timothy 0.0
mancini 0.0
untold 0.0
directed 0.000938722258709
hacked 0.0
admits 0.0
clocks 0.0
nugget 0.0
cnnopinion 0.0
grabbed 0.0
russia 0.0
surprises 0.0
waterfalls 0.0
olympic 0.0
magnificent 0.0
casual 0.0
assume 8.18996788969e-05
relief 0.0
subscribe 0.0
landslide 0.0
telegraph 0.0
standby 0.0
admitting 0.0
complacency 0.0
voices 0.000161275602701
sounding 0.000335439265542
douglas 0.0
democracy 0.0
locals 0.0
gossip 0.0
nickname 0.0
subtle 0.0
embarrassed 0.0
ireland 0.0
mornings 0.0
democratic 0.0
impressions 0.0
outgoing 0.0
treasury 0.0
refugees 0.0
unveiling 0.000147777973634
listing 0.0
deliver 0.000474987277711
negotiating 0.0
roller 0.0
prosperous 0.0
desperate 0.0
acknowledgement 0.0
executive 0.0
republicans 0.0
weapons 0.0
dropping 0.0010561087819
meaningful 0.0
nightmare 0.0
goodies 0.0
scandalous 0.0
rhetoric 0.0
divisive 0.0
vision 0.000221667093086
confirmation 0.000102881420327
throne 0.0
records 7.5661360009e-05
quoting 0.000119341161623
impatient 0.0
refugee 0.0
texted 0.0
exposed 0.0
stoked 0.0
priority 0.0
freedoms 0.0
notorious 0.0
empowering 0.0
unconstitutional 0.0
turkish 0.0
concerned 0.0
realdonaldtrump 0.0
goodwill 0.0
imagined 0.0
belfast 0.0
sleeve 0.0
basement 0.000129523803335
preposterous 0.0
griffith 0.0
timeless 0.000142335317038
truman 0.0
intended 0.0
inappropriate 0.0
industries 0.0
responsibility 0.0
documentaries 0.0
vulnerable 0.0
respectful 0.0
markets 0.0
claire 0.0
nuggets 0.0
boards 0.0
sequins 0.0
capitol 0.0
technical 0.0
applying 0.0
guitar 0.0
donating 9.0225905189e-05
continually 0.0
norway 0.000223626177028
applause 0.0
ballot 0.0
finely 0.0
shakes 0.0
varied 0.0
proverb 0.0
vibrant 0.0
flower 0.0
survives 0.0
fierce 0.0
shopped 0.0
sincerely 0.0
apology 0.0
sweaty 0.000156104199926
conspiracies 0.0
climbing 0.000259047606671
relaxed 0.0
encourage 8.47936658778e-05
funnyordie 0.000326822274201
essentials 0.0
jimmykimmellive 0.000284670634076
rejectedjokes 0.0
protesting 0.0
releasing 0.0
cleaner 0.0
preferred 0.0
incarceration 0.0
jkcorden 0.000409968492438
koppel 0.0
bikini 0.0
transparency 0.0
kamalaharris 0.0
nutshell 0.0
walled 0.0
floored 0.0
plotting 0.0
gandhi 0.0
vilify 0.0
meditate 0.0
violent 0.0
preschool 0.0
rhythm 0.0
matching 0.000112753522089
senwarren 0.0
venezuela 0.0
candle 0.0
donates 0.000145896939048
peacefully 0.0
chelseahandler 0.0
experiencing 0.0
sarabareilles 0.0
haunting 0.0
constitution 0.0
explode 0.0
deeper 0.000212196234158
empathy 0.0
mrgaryhuang 0.0
scored 0.0
charitable 0.0
perfume 0.0
giraffe 0.0
noticing 0.000139821767607
noodle 0.0
wrongly 0.0
marshmallow 0.0
fraudulent 0.0
everytime 0.000390578480441
helluva 0.0
therapists 0.0
tangible 0.0
sarahksilverman 0.0
johnfugelsang 0.0
exceptional 0.0
miracle 0.0
avocado 0.0
snacks 0.0
spelled 0.0
parental 0.0
superbowl 0.0
shoulders 0.0
valentine 8.29327003474e-05
glitter 0.0
stocking 0.0
poehler 0.0
thumbs 0.0
tinatbh 0.0
educational 0.0
voicemail 0.0
thetweetofgod 0.0
esteem 0.0
teaches 0.0
goodbye 0.0
reminding 0.0
supplies 0.0
ryanseacrest 0.000136656164146
okmagazine 0.0
shoots 0.0
bowing 0.0
jennyslate 0.0
craigyferg 0.0
masterpiece 0.000222698886606
sneaky 0.0
nashville 0.0
chronicles 0.0
potato 0.0
freakin 0.0
perezhilton 0.0
unethical 0.0
paparazzi 0.0
mantra 0.0
consuming 0.0
unauthorized 0.0
vanityfair 0.0
stalking 0.0
shoulda 0.0
yeppers 0.0
sacred 0.0
existed 0.0
earned 0.000176310081055
woulda 0.000157250032017
ellenpage 0.0
choker 0.0
contribute 0.0
mustache 0.0
washes 0.0
creeps 0.0
champion 7.94070844805e-05
auntie 0.000160854602328
magazines 0.0
waited 0.000208927646198
conscious 0.0
cracker 0.0
denmark 0.00025513796826
potion 0.0
windex 0.0
scarfing 0.0
ladygaga 0.0
purposely 0.0
pretending 0.0
luckiest 0.0
mascara 0.0
tastes 0.0
gardening 0.0
leashes 0.0
hippie 0.0
womensmarch 0.0
reunited 0.0
clique 0.00160768635144
premiering 0.0
rollingstone 0.000739712906684
childrensla 0.0
dollywood 0.0
godmother 0.0
eltonofficial 0.0
vmagazine 0.0
donorschoose 0.0
yesssssss 0.0
bettemidler 0.0
rehearsing 0.0
trevorproject 0.0
unicef 0.0
ellemagazine 0.0
yasssss 0.0
acceptance 0.0
solidarity 0.0
pharrell 0.00147047634649
greece 0.0
papermagazine 0.0
johnmayer 0.0
lipstick 0.0
tumblr 0.000405437100136
coldplay 0.0
colorful 0.0
translifeline 0.0
newsstands 0.0
feminist 0.0
pitchfork 0.000694235258353
labels 0.0
jenner 0.0
arkansas 0.0
beanie 0.000347117629176
sparkly 0.0
moschino 0.0
britneyspears 0.0
itsjeremyscott 0.000235200920041
nickiminaj 0.0
appstore 0.0
poetry 0.0
puttin 0.000368560577169
rubbed 0.0
shrine 0.0
skyferreira 0.0
freaking 0.0
besties 0.0
chanel 0.0
bedazzled 0.0
rubber 0.0
kendricklamar 0.000498317785656
popstar 0.0
sosadtoday 0.0
copenhagen 0.0
lenadunham 0.0
wearin 0.000203502285425
stoned 0.0
facetime 0.0
barclays 0.0
meditation 0.0
harpersbazaarus 0.0
stared 0.0
ritual 0.0
iconapop 0.0
doubted 0.0
staples 0.000576337284328
anaheim 0.000156104199926
jingle 0.0
tacoma 0.0
rehearsals 0.0
treadmill 0.0
metamorphosis 0.0
dental 0.0
jodyhighroller 0.0
versace 0.0
werking 0.0
couture 0.0
eggplant 0.0
bangin 0.000184280288585
cardigans 0.0
obnoxious 0.0
bestie 0.000153888657367
teganandsara 0.0
barrel 0.0
dedicating 0.0
jefferson 0.0
pumpkin 0.0
derekblasberg 0.0
glamourmag 0.0
presale 0.000753698630462
mtvstyle 0.0
deluxe 0.000148745800176
mtvema 0.0
reggae 0.0
azealiabanks 0.0
nominating 0.0
sailor 0.0
mornin 0.0
itunesmusic 0.000629000128068
bananas 0.0
lordemusic 0.0
vietnam 0.0
milwaukee 0.000691069189089
neworleans 0.0
circus 0.0
strolling 0.0
rapids 0.0
collegegameday 0.0
aaaaand 0.0
godfather 0.0
bestow 0.0
allison 0.0
rockthevote 0.0
birbigs 0.0
lucille 0.0
louder 0.0
farmers 0.0
shaved 0.0
niagara 0.0
realmattlucas 0.0
ferguson 0.0
painful 9.80602705736e-05
exchange 0.0
nickkroll 0.0
edmonton 0.0
mickey 0.0
angelenos 0.0
pooping 0.0
located 0.0
onslaught 0.0
finalists 0.0
bumped 0.0
sherlock 0.0
stockholm 0.0
casually 0.0
jjwatt 0.0
itstonybennett 0.0
mariolopezextra 0.0
klgandhoda 0.0
entrance 0.000112281087265
calgary 0.000324232959749
bowling 0.0
winnipeg 0.0
cheeto 0.0
gloriasteinem 0.0
feather 0.0
nathan 0.0
smelling 0.0
narnia 0.0
llamas 0.0
actuallynph 0.0
mourning 0.0
obsession 0.0
chilled 0.0
medically 0.0
hyperloop 0.0
aussie 0.0
flaring 0.0
eyeballs 0.0
stuffing 0.0
pitched 0.0
condiments 0.0
relatable 0.0
olivia 0.0
painted 0.0
mykonos 0.0
eyebrow 0.0
capitalcities 0.0
jackpot 0.0
hipster 0.0
sweating 0.0
restaurants 0.0
superfan 0.0
restraint 0.0
craziest 0.000515454565423
catheter 0.0
delivers 0.0
kanyewest 0.00452702179787
paints 0.0
dissect 0.0
billboards 0.0
milano 0.0
bjnovak 0.0
snapping 0.0
croissant 0.0
repjohnlewis 0.0
blklivesmatter 0.0
mydaughtersarmy 0.0
huddled 0.0
yearning 0.0
thereaibanksy 0.0
affordable 0.0
foodie 0.0
colombia 0.0
peeled 0.0
shootings 0.0
playground 0.0
breaky 0.0
photoshoot 0.0
smokin 0.0
accents 0.0
sweats 0.0
postmates 0.0
armband 0.0
unconscious 0.0
maddow 0.0
aquarium 0.0
holler 0.0
photoshop 0.0
robbie 0.0
espnmag 0.0
laundry 0.0
examining 0.0
zealand 0.0
stuntin 0.000495453616632
hehehe 0.0
nostalgia 0.0
buttons 0.0
slaying 0.0
monument 0.0
bringin 0.0
lining 0.0
muchas 0.0
gracias 0.000130192826814
madame 0.0
illustrated 0.0
boxers 0.0
grazie 0.0
winters 0.0
plastic 0.0
unbreakable 0.0
licking 0.0
cheeky 0.0
twerking 0.000178631816827
danish 0.0
drummer 0.0
florence 0.0
revoir 0.0
resume 0.0
dodger 0.0
brazilians 0.0
grimezsz 0.0
crocodile 0.0
hahahahahaha 0.0
parisians 0.0
taipei 0.0
taiwan 0.0
bangkok 0.0
uploaded 0.000145896939048
manila 0.0
hamburg 0.0
curating 0.0
aaaand 0.0
skating 0.0
brisbane 0.0
googleplay 0.000494220967675
raincoat 0.0
glastofest 0.0
vienna 0.000147777973634
burning 0.0
jamming 0.0
reaches 0.0
subtitles 0.0
wristband 0.0
barcelona 0.000124472242913
credits 0.0
dreamers 0.0
bogota 0.0
bursting 0.0
brunomars 0.000160854602328
beyoncé 0.0
subscribers 0.0
unlock 0.0
onedirection 0.000175193108568
amazonmusic 0.000353765625565
snippets 0.0
preorder 0.00025513796826
rehearse 0.0
bahnhof 0.0
delorean 0.0
fragrance 0.0
curate 0.0
samsmithworld 0.0
guitars 0.0
storyline 0.0
registering 0.0
beatsbydre 0.000902222173961
panama 0.0
celestial 0.0
orchestra 0.0
finland 0.000142335317038
climbed 0.0
topping 0.0
méxico 0.0
vasconcelos 0.0
leicester 0.0
itunesfestival 0.0
pondering 0.0
millennials 0.0
struck 0.0
watermelon 0.0
benefited 0.0
sophisticated 0.0
couples 0.0
villain 0.0
mindful 0.0
catholic 0.0
airline 0.0
secretly 0.000114198304431
playlists 0.0
veggie 0.0
receipts 0.0
foremost 0.0
bagpipe 0.0
drifting 0.0
trader 0.0
influenced 0.0
moscow 0.0
cobain 0.0
reaper 0.0
commune 0.0
handshake 0.0
despair 0.0
silicon 0.0
investing 0.0
construct 0.0
garland 0.0
coachella 0.00029946558568
offline 0.0
realisation 0.0
payback 0.0
educate 0.000114198304431
alliances 0.0
etched 0.0
momentarily 0.0
pronoun 0.0
lenses 0.0
validated 0.0
authenticity 0.0
choreographed 0.0
pokemon 0.0
disneyworld 0.0
patriotic 0.0
embody 0.0
snickers 0.0
impactful 0.0
refocus 0.0
eminem 0.00187325039912
mahatma 0.0
ecstatic 0.0
snfonnbc 0.0
avenue 0.0
picchu 0.0
doubters 0.0
beverly 0.0
intensity 0.0
outtake 0.0
temple 0.000130192826814
purchased 0.0
fountain 0.0
punched 0.0
goldfish 0.0
comparable 0.0
buyers 0.0
barbara 0.0
corybooker 0.0
listens 0.0
timeout 0.0
inducing 0.0
signage 0.0
penthouse 0.0
ahahaha 0.0
phenom 0.0
brilliantly 0.0
siphoning 0.0
herstory 0.0
prostitute 0.0
survivors 0.0
courageous 0.0001198858829
cruelty 0.0
margot 0.0
xenophobic 0.0
mcginley 0.0
yorkshire 0.0
chants 0.0
alancarr 0.0
chained 0.0
skillz 0.0
debunked 0.0
floods 0.0
fleetwood 0.0
cheesecake 0.0
adidas 0.000160854602328
uneven 0.0
raging 0.0
connections 0.0
headlining 0.000316845654644
devhynes 0.0
charli_xcx 0.0
shawnmendes 0.0
tavitulle 0.0
bahjournalist 0.0
tyleroakley 0.0
marquee 0.0
grease 0.0
screenshots 0.0
ddlovato 0.000148745800176
chattyman 0.0
grimmers 0.0
vevo_uk 0.0
bonniemckee 0.0
electrifying 0.0
idolator 0.0
onairromeo 0.0
godven 0.0
lookie 0.0
preordered 0.0
elvisduran 0.0
shanghai 0.0
tripped 0.0
konnichiwa 0.0
etnad_olegnad 0.0
unannounced 0.0
swedes 0.0
cinderella 0.0
slipper 0.0
jessesaintjohn 0.0
adorbs 0.0
onesies 0.0
jahnsuxx 0.0
walgreens 0.0
aphrodite 0.0
danceonfox 0.0
difficulties 0.0
mermaids 0.0
antique 0.0
girlshbo 0.0
yaaaaasss 0.0
lifesaving 0.0
queens 0.0
yaaaas 0.0
rollin 0.000471750096051
bestest 0.0
cleanse 0.0
iamtovelo 0.0
glamour 0.0
emelisande 0.0
lashes 0.0
austrian 0.0
magritte 0.0
misogynoir 0.0
litter 0.0
spiritual 0.0
preaching 0.0
adelaide 0.0
sheffield 0.0
impending 0.0
starve 0.0
excess 0.0
conciousness 0.0
vitamins 0.0
generator 0.0
purposefully 0.0
profiles 0.0
petals 0.0
persist 0.0
alexis 0.0
covergirl 0.0
sneezed 0.0
cushion 0.0
demconvention 0.0
directv 0.0
flo_tweet 0.0
billclinton 0.0
grounded 0.0
sunrise 0.0
fightin 0.0
sagekotsenburg 0.0
pwease 0.0
sadder 0.0
waterfall 0.0
sighting 0.0
firsts 0.0
muller 0.0
burritos 0.0
bungee 0.0
potting 0.0
dipping 0.0
closets 0.0
scratched 0.0
decorating 0.0
summers 0.0
havana 0.0
fresher 0.0
mowing 0.0
invading 0.0
addict 0.0
aesthetics 0.0
footwear 0.0
protector 0.0
hammock 0.0
repurpose 0.0
mishap 0.0
hamster 0.0
cellar 0.0
groove 0.000154984119064
mentored 0.0
exaggerate 0.0
scraping 0.0
apropos 0.0
trolled 0.0
jonlovett 0.0
rheabutcher 0.0
sickening 0.0
flustered 0.0
compiled 0.0
shirley 0.0
subtweet 0.0
pantsuit 0.0
patting 0.0
atrocious 0.0
amoeba 0.0
platter 0.0
aficionado 0.0
bearer 0.0
manifest 0.000360888869584
transformation 0.0
thighs 0.0
tapper 0.000197958632845
foaming 0.0
sophie 0.0
sabbath 0.0
vibrations 0.0
nutella 0.0
wilder 0.0
distractions 0.000700772434273
stripping 0.0
downloading 0.0
judith 0.0
crossroads 0.0
parsons 0.0
stella 0.0
narcissism 0.0
fawcett 0.0
trainers 0.0
surrounding 0.0
longtime 0.0
frosting 0.0
laurent 0.0
savory 0.0
acupuncture 0.0
cancelling 0.0
nutcracker 0.0
ballet 0.0
tempura 0.0
burner 0.0
voguemagazine 0.000147777973634
lagged 0.0
cuttlefish 0.0
passwords 0.0
funfetti 0.0
anagasteyer 0.0
gabbana 0.0
budapest 0.0
montage 0.0
crowns 0.0
scheduling 0.0
possessed 0.0
syncing 0.0
creatively 0.0
hieroglyphics 0.0
halftimes 0.0
floppy 0.0
nessie 0.0
feathers 0.0
kaceymusgraves 0.0
roaring 0.0
rightful 0.0
balconies 0.0
prodigy 0.0
raquin 0.0
gianni 0.0
monsieuradi 0.0
drowned 0.0
tropicana 0.0
diesel 0.0
shabbat 0.0
voiceless 0.0
passover 0.0
elevating 0.0
traumatic 0.0
dreamer 0.0
iwillharness 0.0
classrooms 0.0
eligibility 0.0
counselors 0.0
wainwright 0.0
moveon 0.0
runaway 0.0
baghdad 0.0
zaralarsson 0.0
snooze 0.0
iggyazalea 0.0
harviikills 0.0
bolognese 0.0
babysitting 0.0
mohegan 0.0
hooters 0.0
crusts 0.0
tracksuit 0.0
cupcake 0.0
xfactor 0.0
vitamin 0.0
lichtenstein 0.0
concourse 0.0
hitchcock 0.0
teller 0.0
pastels 0.0
remnants 0.0
banger 0.000321709204656
lyrically 0.0
boogers 0.0
ritaora 0.0
bumpin 0.0
dabbed 0.0
sleepin 0.000225199191416
tinashe 0.000216872965124
octaviaspencer 0.0
linder 0.0
musicallyapp 0.0
scavenger 0.0
sanging 0.0
corinthians 0.0
hollywoodbowl 0.0
kraken 0.0
discontinue 0.0
cypress 0.0
schooling 0.0
maritime 0.0
narration 0.0
zeitgeist 0.0
sampler 0.0
pseudo 0.0
bangladesh 0.0
hungary 0.0
mumble 0.0
sisterhood 0.0
soulful 0.000167510007338
lennykravitz 0.0
londontown 0.0
andradaymusic 0.0
lipsticks 0.0
realization 0.0
unconditionally 0.0
wildfire 0.0
goldie 0.0
minnie 0.0
solitude 0.0
waddle 0.0
westworldhbo 0.0
statuesque 0.0
uncasville 0.0
demented 0.0
skyway 0.0
twentyonepilots 0.0
rejoicing 0.0
clenching 0.0
adelphia 0.0
entirety 0.0
redhourben 0.0
lakewood 0.0
drjillstein 0.0
entail 0.0
whammy 0.0
smokers 0.0
gobble 0.0
topshop 0.0
cleowade 0.0
mkives 0.0
sweetbabayjamie 0.0
marchesafashion 0.0
hamsters 0.0
gurrrl 0.0
sofifii 0.0
sumthin 0.0
nicomiz 0.0
maisonvalentino 0.0
coziest 0.0
accessorize 0.0
thejgold 0.0
peruvian 0.0
amazeballs 0.0
sendin 0.0
fantabulous 0.0
timelines 0.0
regina 0.0
slovakia 0.0
graves 0.0
embracing 0.0
larsson 0.0
cullen 0.0
psychiatric 0.0
officialadele 0.0
butters 0.0
verrrry 0.0
buttered 0.0
winged 0.0
pedialyte 0.0
topanga 0.0
armpit 0.0
kittens 0.0
dueling 0.0
eagerly 0.0
surrealist 0.0
dethroned 0.0
manolos 0.0
señorita 0.0
monterrey 0.0
parque 0.0
retiree 0.0
batches 0.0
reservations 0.0
sickos 0.0
aplusk 0.0
kirkherbstreit 0.0
fanbases 0.0
indexing 0.0
chuckles 0.0
incorporated 0.0
washboard 0.0
earbuds 0.0
pantone 0.0
knotts 0.0
dismaland 0.0
pollock 0.0
iamkidpresident 0.0
mariah 0.0
teevee 0.0
santorini 0.0
appalachian 0.0
sunburnt 0.0
caliente 0.0
juicery 0.0
karlihenriquez 0.0
trillest 0.0
tommorrow 0.0
crumpets 0.0
fishin 0.0
grillin 0.0
jambalaya 0.0
pepperoni 0.0
cashew 0.0
graceland 0.0
pussies 0.0
delicately 0.0
eraser 0.0
choreo 0.0
snatched 0.0
elliptical 0.0
mooore 0.0
unborn 0.0
georgina 0.0
stalkers 0.0
sallykohn 0.0
expectancy 0.0
phillipines 0.0
appstoregames 0.0
wilkinson 0.0
puddings 0.0
loveland 0.0
spaced 0.0
shanny 0.0
dripping 0.0
gerber 0.0
shakey 0.0
weaves 0.0
unbeatable 0.0
linguist 0.0
prosthetics 0.0
battleship 0.0
serotonin 0.0
machiavellian 0.0
girlies 0.0
guangzhou 0.0
debuting 0.0
dissecting 0.0
warped 0.0
luckyjess 0.0
ermahgerd 0.0
fabulousness 0.0
elliegoulding 0.000182325469379
activewear 0.0
yelyahwilliams 0.0
prismatic 0.0
evaluations 0.0
skywalk 0.0
sparklers 0.0
palettes 0.0
gemmaanningram 0.0
trueeee 0.0
invisalign 0.0
pounded 0.0
lolgop 0.0
procession 0.0
stanning 0.0
squeals 0.0
continual 0.0
luminary 0.0
cummin 0.0
shaves 0.0
epixhd 0.0
preacher 0.0
boogiecousins 0.0
changers 0.0
autismspeaks 0.0
massaged 0.0
psssssst 0.0
literati 0.0
utilization 0.0
endangerment 0.0
purposeful 0.0
unlabeled 0.0
undiagnosed 0.0
snotty 0.0
gallops 0.0
slovenia 0.0
sequin 0.0
akerlund 0.0
jumbotron 0.0
edibles 0.0
knowles 0.0
caeser 0.0
thehollywoodbowl 0.0
elvispresley 0.0
adoring 0.0
ageist 0.0
thérèse 0.0
confessed 0.0
blackvoices 0.0
patties 0.0
graphically 0.0
wildflowers 0.0
groundhogs 0.0
eataly 0.0
poodles 0.0
hillaryforia 0.0
roadshow 0.0
sweety 0.0
boppin 0.0
bettywho 0.0
johnnywujek 0.0
earring 0.0
itsbennyblanco 0.0
curitiba 0.0
purrfect 0.0
shellback 0.0
chokers 0.0
hairbrush 0.0
hakuna 0.0
matata 0.0
hazing 0.0
mathew 0.0
aegean 0.0
lullaby 0.0
musiciansoncall 0.0
headpiece 0.0
morsel 0.0
whistled 0.0
conquest 0.0
viceland 0.0
lambily 0.0
scalped 0.0
graced 0.0
emblazoned 0.0
hrclosangeles 0.0
kawaii 0.0
glittery 0.0
wonderlandmag 0.0
jumpsmokers 0.0
radiodotcom 0.0
missyfranklin 0.0
pleaaaaase 0.0
lilbthebasedgod 0.000264497089562
waaaay 0.000593875898536
flossy 0.0
aria_official 0.0
berliners 0.0
matriarchy 0.0
cornered 0.0
limping 0.0
peasant 0.0
feasibly 0.0
waaaaay 0.000235200920041
slayyy 0.0
fashionistas 0.0
sangin 0.0
worldstarfunny 0.0
pliers 0.0
babyanimalpics 0.0
mediation 0.0
quests 0.0
aaaaaaah 0.0
honked 0.0
rauschenberg 0.0
whitneymuseum 0.0
lonsdale 0.0
transcendental 0.0
roarin 0.0
facetune 0.0
fausto 0.0
herning 0.0
cazzette 0.0
annnnnnnnnd 0.0
shinier 0.0
giambattista 0.0
katys_teddybear 0.0
gnight 0.0
katheryn 0.0
psychoanalysis 0.0
bckgrnd 0.0
kingman 0.0
gracevanderwaal 0.0
fecking 0.0
ihrcountdown 0.0
stubbies 0.0
xfactor_italia 0.0
aaronpauley 0.0
purity_ring 0.0
scorpios 0.0
ayyyye 0.0
capitalizes 0.0
flamin 0.0
motherfucking 0.0
jingled 0.0
pharrellhat 0.0
ontarioglow 0.0
teached 0.0
umusic 0.0
auroramusic 0.0
dailymendeslife 0.0
soloing 0.0
universalse 0.0
dustinkloeppel 0.0
robynkonichiwa 0.0
charli 0.0
lonelydot 0.0
adamselman 0.0
sorrenti 0.0
offish 0.0
vinoodh 0.0
guitarists 0.0
cocking 0.0
cabbages 0.0
amelia_libman 0.0
flutter 0.0
lolita 0.0
kingladygaga 0.0
breakthecycledv 0.0
howbow 0.0
curveballs 0.0
tamagotchi 0.0
jarryd 0.0
alliseeisgold 0.0
thebroadmuseum 0.0
sarahsowitty 0.0
brillz 0.0
jackgarratt 0.0
markryden 0.0
duffscakemix 0.0
sanrio 0.0
theniceguyla 0.0
trills 0.0
susangkomen 0.0
faustopuglisi 0.0
gurlll 0.0
cheesecakes 0.0
scorpio 0.0
oblivia 0.0
skipmarley 0.0
correcto 0.0
jessirklein 0.0
unpatr 0.0
squish 0.0
greg_wells 0.0
onlyleah 0.0
gittin 0.0
popstars 0.0
krafts 0.0
bouche 0.0
problemo 0.0
wheezing 0.0
patmcgrathreal 0.0
cienega 0.0
thundering 0.0
nastialiukin 0.0
janell 0.0
katelyntarver 0.0
miamoretti 0.0
missoni 0.0
dannymoonsworld 0.0
mrchrismcmillan 0.0
madge_freak 0.0
woridstarcomedy 0.0
ikissedasoldier 0.0
kpezandchez 0.0
perrysoldier 0.0
emilynotchez 0.0
iickmekaty 0.0
basicallyadam 0.0
katysangelegg 0.0
nicolasjebran 0.0
xchadballx 0.0
scott_myrick 0.0
lockoir 0.0
shannonwoodward 0.0
calluses 0.0
chamomile 0.0
trollin 0.0
sleighing 0.0
chestercheetah 0.0
royksopp 0.0
scottsimonswvla 0.0
sirenscaiiing 0.0
slowdownkaty 0.0
chefantoniopark 0.0
garnished 0.0
endive 0.0
mdmolinari 0.0
prezzy 0.0
motioning 0.0
hernameisbanks 0.0
rockcampla 0.0
jenniefinch 0.0
getglucky 0.0
stendhal 0.0
ryanphillippe 0.0
hotncolds 0.0
kpcollections 0.0
katie_wignall 0.0
katysdrugx 0.0
evrenperry 0.0
katycatwendy 0.0
yungskeeter 0.0
sarahhudsonuvs 0.0
mothern 0.0
oliverheldens 0.0
marrymemargot 0.0
katyperrylately 0.0
kewlest 0.0
katyshellokitty 0.0
pqgerry 0.0
rasarioatelier 0.0
anakhouri 0.0
romaneperry 0.0
hot_chip 0.0
agador 0.0
freddietinkles 0.0
cynthialovely 0.0
augustgettyatelier 0.0
tbsnetworks 0.0
ronyalwin 0.0
justinandersoncolor 0.0
mmillerrider 0.0
jpgaultier 0.0
harharharhar 0.0
iikeanangel 0.0
vonnypoo 0.0
jcoopkp 0.0
itzmero 0.0
katysprismlight 0.0
hatérs 0.0
awkwardaya 0.0
katysredskittle 0.0
tiedye_princess 0.0
adelshahal 0.0
marinadiamandis 0.0
samadizayee 0.0
itsslatykaty 0.0
johnlordperry 0.0
nuggetperry 0.0
kthnkzbye 0.0
teamkpbrasil 0.0
twenagedream 0.0
ashleyegreer 0.0
perryllover 0.0
perry_slays 0.0
_andresgalvis 0.0
poplitics 0.0
likerotica 0.0
sweetxjaureguix 0.0
jessiambriz 0.0
perryncolds 0.0
pwideawake 0.0
brunastrait_ 0.0
anafalqueto 0.0
pessoalmente 0.0
mark_hodson_ 0.0
sumtxkid 0.0
arpoador 0.0
katysmychampion 0.0
amnattg 0.0
osullivanluke 0.0
stephiruth 0.0
katy_pizza_bae 0.0
kpcatt 0.0
pedroeugeniio 0.0
gugs_prismatic 0.0
zeeusmtz 0.0
legendarycold 0.0
robynxkatheryn 0.0
écouter 0.0
energyberlin 0.0
karysjones 0.0
lilzariya 0.0
puroland 0.0
pavlovitz 0.0
dreamhampton 0.0
prismsperry 0.0
perrysmic 0.0
focusonreid 0.0
tonyatalterian 0.0
makeup_man 0.0
wtfkates 0.0
sella_sandra 0.0
katycute_ 0.0
caitsperry 0.0
katyperryforum 0.0
radiantjareau 0.0
lillysgomez 0.0
katycatsweden 0.0
perryicecream 0.0
xamyrosex 0.0
wtvrlara 0.0
bijanstephen 0.0
ameliashowalter 0.0
screamkng 0.0
tvmcgee 0.0
liiife 0.0
itskatcombs 0.0
yaaaaaasssssssssss 0.0
katysmyhabibi 0.0
skottpeace 0.0
ferras 0.0
kweens 0.0
habibi 0.0
orlandobloom 0.0
huckchinn 0.0
katycatkenzie 0.0
matarazzo 0.0
fkatwigor 0.0
perryschild 0.0
hotxcolds 0.0
maddisonxperry 0.0
akaruikaty 0.0
chillinlaidback 0.0
erryone 0.0
chrisanokute 0.0
beyelite 0.0
kuntyewest 0.0
chiroprac 0.0
katyperryrises 0.0
godneybjs 0.0
liquoronurlips 0.0
katystumblrr 0.0
holiestkaty 0.0
hollykittykaty 0.0
katysprincess 0.0
katysdonut 0.0
carlythekatycat 0.0
katycatsophia 0.0
fridaaperry 0.0
iegendarylovers 0.0
katycatveronica 0.0
katyperryslave 0.0
hakimkharbouch 0.0
keonovak 0.0
plaaaaay 0.0
scatting 0.0
shotted 0.0
dizzycoco 0.0
fkinsnapss 0.0
junkygs 0.0
ミニチュア料理 0.0
エビフライとエビ天 0.0
adidasboosts 0.0
lilithia 0.0
cottoncandizzle 0.0
ultimatebeyhive 0.0
paramorewebnews 0.0
royale_lala 0.0
musicnews_feed 0.0
katyperryextra 0.0
greeniight 0.0
gagas_illusion 0.0
lesbiyonce 0.0
blurryhface 0.0
lordofgiraffex 0.0
ifuseekamy_ 0.0
legendarymalek 0.0
hausoframez 0.0
unstan 0.0
chioekardashian 0.0
theiife 0.0
handstomyseif 0.0
legendarylovers 0.0
gagas_fandom 0.0
thinagedream 0.0
conditionalbabe 0.0
dannysuschrist 0.0
prismdluxe 0.0
herwonkeye 0.0
camilasviews 0.0
gagalovesbey 0.0
shadykatyfacts 0.0
limalimoncia 0.0
heavymetaiovers 0.0
katyscrush 0.0
waikingonair 0.0
eduardo_katycat 0.0
katyswetdream 0.0
katherynsgod 0.0
katystddbr 0.0
katyboobies 0.0
royaityler 0.0
nothingfaiis 0.0
kathrynluck_ 0.0
prismaticiights 0.0
mendesperry 0.0
katycatghita 0.0
mark_katycat 0.0
iwasdivine 0.0
skywaterr 0.0
xjojospearsx 0.0
alwaysbeperry 0.0
skoglyrihanna 0.0
legendarydurk 0.0
halseysfirework 0.0
rainbowspatrick 0.0
katysfood 0.0
honeymoonprism 0.0
onepulsetony 0.0
butcha 0.0
okurrr 0.0
the_mpt 0.0
talaofficial 0.0
miniatures 0.0
ohmyjurassic 0.0
katysmoonlight 0.0
lilly_jnes 0.0
coco_ho 0.0
perryhumorr 0.0
yikesjonathan 0.0
rubyrankin 0.0
thealekovski 0.0
cydney_moore 0.0
truebluedeluxe 0.0
thedutchass 0.0
katyskettle 0.0
ferraseu 0.0
katyssunlight 0.0
typosqween 0.0
adoreeeperry 0.0
katyperryfrance 0.0
snowiner 0.0
_coolkatycat 0.0
nicothekatycat 0.0
adorbies 0.0
jackygerardchan 0.0
brewmystew 0.0
katyswildfire 0.0
rihftperry 0.0
theolagu 0.0
ritajoness 0.0
iitsjackie 0.0
mjjperry 0.0
jesuskylie 0.0
holyerotica 0.0
graceofkaty 0.0
redsvelvets 0.0
booyakasha 0.0
tariqterry 0.0
katycatalannah 0.0
taylxre 0.0
pacifyher 0.0
basedkatyperry 0.0
diddleurskittle 0.0
katysanalien 0.0
gagasspace 0.0
tayiorhq 0.0
givenchydress 0.0
augustryder 0.0
perrysmoschino 0.0
kittehn 0.0
katrieber 0.0
legendaryhunty 0.0
katyslegs 0.0
katyfroot 0.0
winesandlines 0.0
sam_incolour 0.0
wakingonair 0.0
drwssinup 0.0
huffdaddysays 0.0
fiwwwwine 0.0
matthewroper 0.0
emmabruhhh 0.0
gingerwesson 0.0
nicholas_sewell 0.0
perfectlyperry 0.0
bustabusta 0.0
mynameisziam 0.0
venuzszfly 0.0
katherynsus 0.0
sacredperry 0.0
thedollsftkaty 0.0
_cafajeff 0.0
debkatycat 0.0
katycats 0.0
eastonjames_ 0.0
oliviabooker_ 0.0
protecti 0.0
outrageousness 0.0
joanneprada 0.0
scuffed 0.0
catoure 0.0
blanged 0.0
tahmorrow 0.0
glukatyperrypop 0.0
jamesjoint 0.0
pressin 0.0
bourree 0.0
honeysuckle 0.0
meowings 0.0
fashun 0.0
happun 0.0
vikander 0.0
thekatyperrypopgame 0.0
karolfabianaros 0.0
nico_thekatycat 0.0
miss_lilyjames 0.0
stylinfunk 0.0
hudsontheband 0.0
jere_my 0.0
crabitat 0.0
tiersz 0.0
unrehearsed 0.0
fanclub_kp 0.0
oneofthesophies 0.0
fusterlandia 0.0
lazyblazy 0.0
katycatchloe 0.0
figali 0.0
prismaticness 0.0
titicaca 0.0
ancientaliens_ 0.0
sneezin 0.0
cristos 0.0
mallman 0.0
prismaticlife_ 0.0
ravensuxx 0.0
perrypositive 0.0
derkwhore 0.0
alekjandro 0.0
havss_ 0.0
hqzaynmaiik 0.0
thique 0.0
bbhmms 0.0
jkatharineb 0.0
jennyformica 0.0
tiiiiiight 0.0
ikissedagay 0.0
harryvuitton 0.0
aeschleahd 0.0
princessjavonda 0.0
errrythang 0.0
kooning 0.0
sugarray 0.0
empaths 0.0
goldenboyz_inc 0.0
voguejp 0.0
chickenwingguardingthemimosa 0.0
katyperrypopup 0.0
unmeasurably 0.0
transviolet 0.0
beauteous 0.0
katyskidrauhl 0.0
thooooooseee 0.0
clairesstores 0.0
nailsbymh 0.0
katysacutie 0.0
psychokatycat 0.0
kaceymusgrave 0.0
refueled 0.0
hyungsunju 0.0
okuurrrr 0.0
cholewheeler 0.0
leftshark 0.0
momchella 0.0
crotches 0.0
hookedondolls 0.0
fyuseapp 0.0
mogonoloball 0.0
atletica 0.0
katycatsclub 0.0
catacombs 0.0
poppycorn 0.0
cupped 0.0
christiania 0.0
residenz 0.0
lindseyweber 0.0
butterballface 0.0
joshlecash 0.0
myassistant 0.0
swiftschrist 0.0
snowhiteperry 0.0
emmakphughes 0.0
katyslegend 0.0
dansnierson 0.0
scressful 0.0
prismaticwitch 0.0
finnin 0.0
habibis 0.0
mophies 0.0
strongé 0.0
drumkit 0.0
anamanaguchi 0.0
gaultier 0.0
ngvmelbourne 0.0
dukedumont 0.0
legendaryasmyn 0.0
highlarious 0.0
calpurnia 0.0
waaaaait 0.0
mktfah 0.0
fwding 0.0
caseyhoops 0.0
worldstarvlne 0.0
flapfkp 0.0
bettycrocker 0.0
mexxxico 0.0
whhhhhhhhuuuuuutttt 0.0
yelletweets 0.0
gucciqxxn 0.0
luckyladyrebelettes 0.0
junglejulia 0.0
charlottes_web 0.0
istarbucksniall 0.0
katysroaaar 0.0
fiorucci 0.0
whuteva 0.0
sirdavidd 0.0
fudgery 0.0
bizquick 0.0
itsgrandtheft 0.0
grandtheft 0.0
katysfancy 0.0
ameezyyrush 0.0
mykectown 0.0
itsvalkubus 0.0
walkslikeperry 0.0
iwantperry 0.0
exausto 0.0
selfeh 0.0
aquaberry 0.0
sidepiece 0.0
versacness 0.0
iamleslii 0.0
alocalgyro 0.0
cutina 0.0
theoutslder 0.0
prism_katy_cat 0.0
katyshoodrat 0.0
thestevetisch 0.0
ronysphotobooth 0.0
schlitterbahn 0.0
kpsnosecrinkle 0.0
alwz_katycat 0.0
whykph 0.0
californiagurls 0.0
katycattt 0.0
varicose 0.0
itsbrillz 0.0
perrystiger 0.0
katysmyaura 0.0
paolablancokp 0.0
callmemargot 0.0
indiggynado 0.0
katycat 0.0
anylinden 0.0
kpkillerqueen 0.0
katyslilacwine 0.0
katypvenezuela 0.0
franzikaty 0.0
katherynelperry 0.0
doessss 0.0
katysleftarm 0.0
datingprism 0.0
_smiler_katycat 0.0
kepyterry 0.0
katycat_camille 0.0
vckatyperry 0.0
bowzerjoe 0.0
taishrox 0.0
mütter 0.0
arianperryarian 0.0
lisasigh 0.0
fridiskp 0.0
kevinruda 0.0
katyperrydaily 0.0
wakingupvegas 0.0
marlyins 0.0
drankin 0.0
herkatycat 0.0
luvhudson 0.0
yaeltsairi 0.0
felipinhoofm_ 0.0
renanmarcall 0.0
kariseperry 0.0
emojing 0.0
konnie 0.0
mcperry 0.0
iturnmycanonon 0.0
katycatelysha 0.0
andrewnavs 0.0
katycatkrystal 0.0
lovelyandlaugh 0.0
lampoonians 0.0
perrytuuda 0.0
katymyhaven 0.0
ruletheschool 0.0
cheapandchic 0.0
sically 0.0
crazyforperry 0.0
kpdaily 0.0
getonupmovie 0.0
cutetina 0.0
chimiuzz 0.0
kefali 0.0
joelkefali 0.0
siclly 0.0
mtvother 0.0
lydiaacav 0.0
prismaticperry 0.0
jwujek 0.0
adorbie 0.0
errone 0.0
kaliyah 0.0
katysweirdness 0.0
vinbiodiesel 0.0
katysfxb 0.0
katyspurrfect_ 0.0
shannonmwoodward 0.0
bippity 0.0
boppity 0.0
swiggty 0.0
swoogity 0.0
pizzarella 0.0
firewerk 0.0
katyslayed 0.0
emerald_epelman 0.0
madkatydisease 0.0
mandee 0.0
ohferras 0.0
sarahh 0.0
iaustinhunt 0.0
lanawhore 0.0
spaceykacey 0.0
crazay 0.0
elektrikpeople 0.0
visa_nz 0.0
fvckin 0.0
nathanspicer 0.0
cashcash 0.0
ashish_uk 0.0
xokatic 0.0
turnting 0.0
scorpiomystique 0.0
toddthomasnyc 0.0
kohngallery 0.0
discnt_universe 0.0
dressinkaty 0.0
lee_cook 0.0
bloodshot 0.0
yaddlizc 0.0
elnett 0.0
itsthekatycats 0.0
kelly_moritz 0.0
katyslaykaty 0.0
skintxghtjeans 0.0
socarrer 0.0
errrday 0.0
therealslacker 0.0
wendywild 0.0
welkys 0.0
sohohouse 0.0
selfing 0.0
camiilaruales 0.0
nexxxt 0.0
turrell 0.0
alliexxxxandra 0.0
surfboardt 0.0
telstra_news 0.0
juanitadele 0.0
oopskatycat 0.0
sophkatycat 0.0
katyschild 0.0
katysconverrse 0.0
katycat_leah 0.0
katycatverified 0.0
katycat_libby 0.0
katyswonk 0.0
kittless 0.0
jlrcukp 0.0
siiiiiiiiiiiiii 0.0
ermagherd 0.0
imlynsey 0.0
perrys_cherry 0.0
casemcgase 0.0
hazzaily 0.0
herses 0.0
gaypropaganda 0.0
tixforcharity 0.0
hudsons 0.0
nomers 0.0
mommacat 0.0
superlove 0.0
bonacorso 0.0
levi_leet 0.0
thinkingofbecki 0.0
cybering 0.0
pamyurin 0.0
idreamofkaty 0.0
xfactor_au 0.0
glohudsonperry 0.0
aubreyplzza 0.0
eeshhuhhayniac 0.0
bonkay 0.0
katysbum 0.0
nevillebradley 0.0
curryswift 0.0
zinepack 0.0
katykatt_suraya 0.0
sweetkatybird 0.0
yohkatheryn 0.0
cottoncandykaty 0.0
karolynadiaz 0.0
maayansharvit 0.0
theprismcess 0.0
camisp_ 0.0
lucasgaldin 0.0
prixy_mtz 0.0
niggasperry 0.0
kaksperry 0.0
zennnnaaa 0.0
katyissmurfy 0.0
dadehoward 0.0
kyledsaavedra 0.0
katysdoritos 0.0
pendejabardera 0.0
rosenilsou 0.0
hackensucks 0.0
gottabesheerio 0.0
ismaellgarcia 0.0
milegendz 0.0
alexskarev 0.0
ladycrystalb 0.0
katyspad 0.0
xcallmechrissyx 0.0
arianastylesss 0.0
jorgebaker 0.0
matty_zee 0.0
katycatzilla 0.0
adorie 0.0
meowwdison 0.0
alvin_koopa 0.0
lexyauditore 0.0
kease_it_raw 0.0
katysking 0.0
chris__kirby 0.0
katysbestfrwend 0.0
katyslildancer 0.0
sssshhh 0.0
conorhughess 0.0
tanimura 0.0
thekatycatlife 0.0
weefififookface 0.0
breakalioz 0.0
hudsonhelper 0.0
lariitaa 0.0
meeeeeooooooooowwwww 0.0
legend__dary 0.0
katyandliam 0.0
_theatrekid 0.0
babybritney 0.0
erinlorimer 0.0
_zacmoore_ 0.0
itscezzurryo 0.0
katycatskp 0.0
larissafilipo 0.0
siaylorswift 0.0
shitkittens 0.0
thefrankradical 0.0
katysprism 0.0
katytinalevine 0.0
serjeeoh 0.0
kayz_perry 0.0
katyslaysurfav 0.0
fuckyeahitskath 0.0
sweetyitosan 0.0
pickerington 0.0
verrado 0.0
retweete 0.0
jameswaterhouse 0.0
hunnah 0.0
truth_ispeak 0.0
_emilybarbarrr 0.0
nbllrrr 0.0
jmoneygraves 0.0
eaglenationnews 0.0
tauentzienstrasse 0.0
avontbh 0.0
vinnie_mate 0.0
demilovve 0.0
coolestkatycat 0.0
terri_katycat 0.0
beeeaaatttt 0.0
laurenfrancisco 0.0
victaytayp 0.0
aylajaye 0.0
iloveu 0.0
augustvaz 0.0
lizzievang_ 0.0
edsssss_ 0.0
hhhhhholly 0.0
holly_hickin 0.0
trixxx 0.0
killah 0.0
treasurefingers 0.0
最強ガール宣言 0.0
voykovic 0.0
annunaki 0.0
katyshomie_ 0.0
katyselephant 0.0
caitlynsmith 0.0
lightsperry 0.0
elizagilham 0.0
ohmyjatyfeels 0.0
junglescope 0.0
drunkskaty 0.0
malikpom 0.0
dancerlaurena 0.0
brirad 0.0
elisa_rv 0.0
moooom 0.0
pattymeagher 0.0
iwasemily 0.0
shahrzadphoto 0.0
tvjohnny 0.0
cstonethebreadwinner 0.0
katysrightboob 0.0
cyberdlck 0.0
beatforkaty 0.0
igabriiel 0.0
duuuuddddeeeee 0.0
redrum 0.0
srbuhiii 0.0
kayleighcat 0.0
applekatycat 0.0
ikatycats 0.0
wehryspencer 0.0
emilyjonesphoto 0.0
coxgabe 0.0
drugmoneyx 0.0
steven_drum 0.0
victoriacha 0.0
hashtaggin 0.0
perryandemetria 0.0
katycatfurlife 0.0
iammelissalynn 0.0
qewtie 0.0
yscheecat 0.0
slayty 0.0
katystree 0.0
katherynsboy 0.0
anapurry 0.0
nenedez 0.0
kevinn_perry 0.0
gloria_swag_ 0.0
andyamaziing 0.0
roarsana 0.0
brighthudson 0.0
fixingperry 0.0
roooooooooooooar 0.0
gretschusa 0.0
katys_cupcake 0.0
wonderation 0.0
kasek_craig 0.0
katysgurll 0.0
pepperperry_ 0.0
teamkatyperry 0.0
meandnutella 0.0
lovatokitten 0.0
katyslolly 0.0
astixxx 0.0
ravemomentz 0.0
erzaabrianto 0.0
katyperryindo 0.0
seeingdaisies 0.0
gillian_e_dubbs 0.0
samanthachazene 0.0
perryprism_ 0.0
katycompletesme 0.0
ltskatyperry 0.0
kittenscks 0.0
nihanofficial 0.0
momcat 0.0
kaytehperreh 0.0
__grazi 0.0
clairekatycat 0.0
fangurl 0.0
rrrrrrrrrrrroooooooooooooaaaaaaaaaaaaar 0.0
marispiva 0.0
mattdrobins 0.0
deihemmings 0.0
rooaaarr 0.0
katycatobsessed 0.0
katycatnick 0.0
tigerkats 0.0
kristenanzelc 0.0
taylermckellop 0.0
essesfadaperry 0.0
imjare 0.0
smganonymous 0.0
roaaaar 0.0
phuckyotweet 0.0
evvvvvverrrr 0.0
melvynmarrero 0.0
zouisashton 0.0
trillneyspears 0.0
rooooooar 0.0
fanwars 0.0
fentyncold 0.0
ttish_ 0.0
rachelacogan 0.0
makesmariana 0.0
kkaplon 0.0
rafaelmoncada 0.0
yaaaassssgrl 0.0
oioianna 0.0
katycatrazan 0.0
megaan_katycat 0.0
thekaelynn 0.0
hannahloupunton 0.0
thumbelinafairy 0.0
nic_kathryn 0.0
dannahfields 0.0
rodneybroaddus 0.0
noxisanasshole 0.0
soedesh__ 0.0
hookerofversace 0.0
thinkingofkaty_ 0.0
msgracevalerie 0.0
francfernandez 0.0
katysring 0.0
a_little_spark 0.0
laaxiss 0.0
