awesome 0.0
christmas 0.000856170082052
trying 0.000284651200837
launch 0.000149582961043
moment 0.000286189994892
wonderful 0.0
seeing 8.35516179257e-05
hanging 5.12628143226e-05
sounds 8.67703169768e-05
recommend 0.0
worked 8.79517882236e-05
direct 0.000403081696811
others 8.74771157782e-05
currently 0.0
better 0.000442512103739
please 0.000570839093549
social 9.1107359185e-05
anxiety 8.80524359783e-05
around 0.000201141865336
people 0.00205164702643
morning 0.00295254517112
traditional 0.0
general 0.000156383921908
damage 0.0
everything 8.08916485238e-05
twitter 0.000283884945639
present 0.0
though 8.4230581838e-05
friend 0.000203322286312
watched 4.56776500236e-05
beautiful 4.16632819718e-05
anything 0.0
previous 0.0
helped 4.43345446871e-05
updated 0.000385729449925
thinking 8.26551546554e-05
finally 0.0
caught 0.000136661038778
believe 0.000121010855214
already 0.00020168475869
couple 0.000221073194332
orlando 6.88788343308e-05
chance 0.000364012418357
meaning 0.0
growing 0.0
probably 0.000219285254867
password 0.000100952410901
changed 0.00021634022619
history 0.000333306255775
center 0.0
museum 0.0
behind 0.000321826984538
screaming 0.0
pretty 0.0
really 0.00121337472786
little 4.03369517379e-05
happiest 0.0
earlier 9.46500523662e-05
forget 0.000245967905765
someone 8.15484419355e-05
safety 0.000117194627855
program 0.0
things 8.04567461344e-05
related 0.000118924947149
visiting 0.0
available 0.0
perfect 0.000210576454595
different 8.22106411151e-05
search 5.40688655884e-05
connect 0.0
numbers 0.00030333476904
person 4.05549922341e-05
watching 8.13289145248e-05
exhibit 0.0
passed 0.0
prefer 0.0
minutes 0.000167103235851
travel 0.000197799162096
outside 0.0
looking 0.000121010855214
forward 8.3102137728e-05
agreed 0.000108444233437
raising 0.000115500739056
listened 6.40915255015e-05
afraid 0.000261369968164
impression 0.0
christian 0.0
profile 0.000110623079249
instant 0.0
drawing 0.0
wheels 0.0
favorite 0.0
picture 4.30348366252e-05
instead 4.55536795925e-05
appreciate 0.000190338259896
international 0.0012499747965
station 0.00017027107769
toddler 0.000213493760846
market 0.00070889496109
couldn 0.000126345872757
remember 4.04458242619e-05
vintage 0.0
holidays 0.0
friends 4.06644572624e-05
everyone 4.04458242619e-05
florida 0.000119275521761
always 0.000402283730672
months 8.44581824032e-05
moving 4.35026136757e-05
meeting 0.000165756671573
answer 4.14391678932e-05
sweetie 0.0
together 8.11099844682e-05
inside 0.000379037618271
section 0.000124351053157
missed 0.000122983952882
button 0.0
longer 0.00023341705868
enough 0.000163537139939
driving 0.0
building 0.000136290270071
enjoying 0.000197799162096
london 0.000962174411453
exploring 0.0
posting 0.0
amazing 4.03369517379e-05
attention 0.0
gordon 0.0
progress 0.0
tomorrow 0.000323566594095
george 0.000955252170293
feeling 0.000127029642967
excited 8.44581824032e-05
understand 8.81901787569e-05
following 0.000169830648472
asleep 7.4567595106e-05
learning 0.0
evening 0.000694549474443
special 0.000407742209678
secret 0.00104205821662
across 0.000180736176645
surprised 4.8240833575e-05
anymore 0.0
sophia 0.0
precious 0.0
rejoice 0.0
version 0.000178785686191
rather 9.0860180047e-05
avatar 0.0
showing 8.63025438793e-05
saying 0.000126687273605
tweeted 0.000213846533334
thoughts 0.0
exactly 0.0
except 0.0
getting 0.000242674945571
nothing 0.000242674945571
tweets 8.91508677367e-05
course 0.000125327426889
photos 0.000244539930319
looked 4.59267429128e-05
difficult 0.000106622493434
stages 9.90364119782e-05
office 0.000218692789445
decisions 0.0
brought 8.9635548396e-05
biggest 0.000416632819718
thrilled 6.16180806184e-05
something 0.000283120769833
closing 6.01682526082e-05
anyone 0.0
taking 0.000242674945571
recently 0.0
interesting 9.01231665318e-05
original 0.0
flying 5.08371132806e-05
happening 0.0
sometimes 0.000178301735473
lessons 0.0
village 0.000162390860174
stopped 0.000237272931364
yesterday 0.00036696798871
service 0.000489002898683
serious 0.0
digital 0.00635900822251
hoarder 0.0
wearing 0.0
british 0.00111988181711
either 0.000132285268135
second 0.000326193767742
checking 5.2420545245e-05
indeed 0.00022061635929
island 0.0
hearing 0.0
choose 0.0
staying 5.46854044464e-05
another 0.000121010855214
clothes 0.0
slowly 0.0
weekend 0.000286962556725
hashtag 0.0
delivery 0.0
theory 0.0
working 0.000283120769833
bigger 9.49091725455e-05
screen 0.000109370808893
riding 0.0
laughing 4.79770400195e-05
wanted 0.000163537139939
trends 0.0
stripes 0.0
clothing 0.0
current 0.000143144895003
adorable 0.0
grateful 5.28634308896e-05
friendship 0.0
family 0.000808916485238
listening 0.0
stream 0.0
expressions 0.0
wedding 0.000184301906249
sharing 4.75845649741e-05
double 0.000229010018358
especially 0.0
middle 0.000185718416495
waiting 4.14391678932e-05
definitely 8.84292777327e-05
walking 0.000145519105064
account 0.000237272931364
completely 4.79770400195e-05
thought 0.000244645325807
reaction 5.53115396244e-05
accept 0.0
simple 0.0
professional 5.99906436086e-05
friendly 0.0
supposed 0.0
business 0.00501634747229
absolutely 4.32680452381e-05
anywhere 0.0
sending 0.0
introducing 0.0
congrats 4.2457662118e-05
beauty 0.000115836675853
community 4.98609870144e-05
greatest 0.000132643916599
selfie 0.0
posted 4.78457890937e-05
saturday 0.0107999474078
wednesday 0.0187778619868
confused 0.0
expression 0.0
chicago 0.000109994507723
closest 0.0
relationship 5.43759538969e-05
actually 0.000248635007359
easter 5.53115396244e-05
basket 0.0
myself 0.0
argument 0.0
school 0.000452158526133
thursday 0.0172206820048
selling 0.0
talented 5.31614202008e-05
celebrate 0.0
falcon 0.0
celebrating 4.8240833575e-05
contest 5.27152599189e-05
experiences 0.0
students 0.000107225168507
internet 0.000150829290046
figure 4.83733818764e-05
opened 0.0
featuring 0.0
inspired 0.0
sitting 0.0
playing 0.0
street 0.00022408887099
points 0.000207350060561
memory 0.0
forever 4.56776500236e-05
imagine 9.01231665318e-05
problem 8.67703169768e-05
played 4.51840441613e-05
canadian 6.97728349681e-05
pulling 0.0
keeping 0.000180736176645
lovely 0.0
dressed 0.0
specifically 0.0
unlike 0.0
disappointed 6.08866355031e-05
otherwise 0.0
afternoon 4.75845649741e-05
planned 5.80870105976e-05
strange 0.0
images 0.000142304457216
noticed 0.0
notice 0.0
stretch 0.0
inspiration 0.0
letting 9.94469079622e-05
system 0.00020222317936
possibility 7.83000532931e-05
almost 0.000121337472786
details 8.84292777327e-05
experience 0.00025337454721
living 0.000168916364806
weather 5.16930684032e-05
normal 0.000216888466875
launching 0.0
before 4.38570509735e-05
captured 0.0
colors 0.0
monday 0.015286931015
example 0.0
realize 0.0
autographed 0.0
sleeping 0.000192864724963
authentic 0.0
science 5.70854226025e-05
tweeting 0.000369419102341
forgot 0.000152088624456
chasing 0.0
gorgeous 0.0
herself 0.0
happens 4.18886515981e-05
silence 0.00012740191141
learned 4.68109185719e-05
congratulations 0.000133726301605
natural 0.0
raised 5.28634308896e-05
babies 0.000125862022373
mission 0.000219364107894
smelled 0.0
ironic 0.0
testing 7.09190199952e-05
deleted 0.000240914185845
barely 0.0
unforgettable 0.0
forgotten 6.01682526082e-05
trouble 0.000299993951161
fantastic 4.7714965001e-05
loving 0.0
complete 0.0
nearly 0.0
spirit 0.00010484109049
launched 0.000301733246167
finding 4.94497905239e-05
mercury 0.0
stories 0.00048112413678
including 8.98789880557e-05
mature 0.0
stuffed 0.0
ancient 0.0
bottle 0.000126244240413
somewhere 0.0
wouldn 8.7240825605e-05
choice 0.000129453815819
conversation 0.0
making 8.06739034758e-05
expect 9.70127367095e-05
occasions 0.0
subject 0.0
flights 0.0
location 0.0
vacation 0.0
seriously 0.0
spending 0.000301658580092
groups 6.52865155353e-05
childhood 0.0
modern 0.000174769180414
welcome 0.000163537139939
moments 0.000100552860031
degrees 0.0
jacket 0.0
halloween 0.0
costume 0.0
totally 0.0
laughed 0.0
flight 0.0
kidding 0.0
regular 0.0
context 0.0
running 8.49153242361e-05
finished 4.83733818764e-05
strong 8.33265639437e-05
tracking 0.0
respond 0.0
message 8.58374746876e-05
coming 0.000282358662165
thankful 0.0
cheese 6.40915255015e-05
greens 0.0
issues 0.000241204167875
intolerance 0.0
happen 4.12162954502e-05
giving 0.0
turkey 0.000117882296538
excellent 5.27152599189e-05
limits 7.50800653875e-05
common 4.99989918601e-05
pressed 0.0
situation 0.0
options 0.0
health 0.000572579580012
insurance 6.97728349681e-05
change 0.000323566594095
singing 0.0
august 5.70854226025e-05
crying 6.37009557048e-05
mental 0.000120336505216
happened 4.25724364414e-05
demand 0.000266556233584
generally 0.0
personal 4.39758941118e-05
beyond 0.000135552132484
bruised 0.0
question 0.0
chicken 0.0
reward 8.43154716726e-05
tunnel 0.0
losing 0.000149582961043
respect 0.000176858555465
caption 0.0
shouldn 4.83733818764e-05
visited 6.35070836521e-05
reason 4.25724364414e-05
simply 5.055579484e-05
darlin 0.0
audience 5.59475745821e-05
involved 0.0
unhappy 0.0
reality 0.000144326161718
extremely 0.0
without 4.07742209678e-05
falling 5.96377608803e-05
countdown 7.35618333937e-05
locations 0.0
timing 0.0
crabby 0.0
classic 4.9586389545e-05
highly 5.75830995444e-05
online 0.000261015682054
finger 0.0
animals 0.0
planets 0.0
called 0.000243986743574
delicious 0.0
almond 0.0
compliment 0.0
pictures 0.000204481651413
camera 5.28634308896e-05
pillow 0.0
checked 0.0
heading 0.000144326161718
theater 0.0
paying 5.25676326961e-05
planning 0.0
complex 0.0
sunday 0.00973376348835
nights 5.96377608803e-05
descending 0.0
traffic 0.000121411667044
opposite 0.0
through 0.0
lookout 0.0
reached 0.0
harder 0.0
random 0.0
changes 0.0
speaking 4.63032982962e-05
recorded 0.0
washed 0.0
november 0.0
answered 6.38957666088e-05
enchanted 0.0
number 0.00012431750368
adventures 0.0
eclipse 0.0
chocolate 0.0
unless 4.98609870144e-05
calling 0.0
mermaid 0.0
distraction 0.0
levels 0.000186526579735
option 0.000175791941782
shopping 0.0001228679375
former 0.000203348453122
actual 0.0
covers 0.0
mountain 7.13867970457e-05
friday 0.0141841492324
winner 8.98789880557e-05
closes 0.0
quality 5.22739936327e-05
father 0.000276311220876
wishes 0.0
hourly 0.0
matter 0.000130155475465
themselves 0.0
usually 0.0
period 0.0
parents 4.85063683548e-05
balance 6.29310111865e-05
publishing 0.0
mobile 0.000201444944746
woohoo 0.0
bracelets 0.0
summer 8.7240825605e-05
reminded 0.0
impressed 0.0
necklace 0.000112199655043
shutdown 0.0
dinner 0.0
single 0.000208316409859
packed 0.0
definition 0.0
energy 0.000144326161718
preview 0.0
monster 0.000139545669936
material 0.0
admission 0.0
europe 0.000951108767895
holiday 0.0
emotional 0.0
update 0.0
customers 0.0
messing 0.0
holding 4.78457890937e-05
electric 7.23389923412e-05
eating 5.055579484e-05
outfit 0.0
picked 0.0
fabulous 0.0
missing 0.000215756359698
surprise 0.000173072180952
officially 0.0
french 0.000519824824074
global 0.00032441319353
follow 0.000650631316198
opinion 0.0
backwards 0.0
design 6.10682537486e-05
secrets 7.58612233896e-05
request 0.0
breaks 5.33112467169e-05
allows 7.61250169451e-05
promoting 6.95474653419e-05
volunteer 0.0
wondering 0.0
official 0.000167103235851
sweater 0.0
jersey 0.0
mistake 0.000167842723746
france 0.000224432668412
proper 0.0
ginger 0.0
peaceful 0.0
lighter 0.0
thinks 4.71958820174e-05
competition 5.46854044464e-05
hospital 0.000353646889614
industry 0.0
trending 0.0
leadership 0.00025325656578
organized 0.0
showed 0.0
circle 0.000214868223777
success 0.000182710600095
ladies 0.0
dreams 0.000106322840402
protect 0.000103675030281
onesie 0.0
explanation 7.23389923412e-05
control 0.000451840441613
coincidence 0.0
discovering 0.0
laying 0.0
invited 0.0
healthy 0.0
surgery 0.000151722446779
allowing 7.09190199952e-05
arrived 4.89079860638e-05
opening 0.0
popular 0.0
pleasure 0.0
spectacular 0.0
animal 0.0
luggage 0.0
wonder 0.00013157115292
matters 0.0
reader 0.0
function 0.0
marketing 0.0
connection 6.58975911798e-05
improves 0.0
benefit 5.0696208152e-05
continues 0.000197254615071
cuddle 0.0
routine 0.0
exciting 0.0
corner 0.0
imagination 0.0
sangria 0.0
mystery 0.000220685500181
spring 0.0
beautifully 0.0
places 9.64816671501e-05
feedback 0.0
continue 0.0
attend 0.0
creative 5.70854226025e-05
memories 0.0
female 5.39161960576e-05
grandma 0.0
closer 0.000101392416304
accent 0.0
beginning 0.0
sooner 0.0
everywhere 0.0
scenes 5.15491384713e-05
bought 0.0
wishing 0.0
discovered 0.0
remove 0.0
predict 0.0
parrot 0.0
several 5.82563934713e-05
teacher 6.03466492334e-05
passing 0.000109370808893
become 0.000211145456008
spread 9.23547755852e-05
netflix 6.71483149153e-05
season 0.0
putting 0.0
weight 0.0
outfits 0.0
notification 0.0
annoying 0.0
necessity 0.0
knocks 0.0
processed 0.0
necessarily 0.0
effects 0.0
lighting 0.0
headed 0.0
returns 0.0
expected 0.00017375501378
bucket 0.0
constantly 0.0
sweetest 0.0
struggling 6.99994742891e-05
register 0.000120336505216
transition 0.0
flowers 0.0
sprain 0.0
savage 0.000378445019711
somebody 0.0
covering 6.25514954183e-05
gloves 0.0
repeat 0.0
managers 0.000100464788288
brothers 0.000123977703317
patriots 0.0
seahawks 0.0
player 5.64312883026e-05
chemistry 0.0
moonlight 0.0
comment 0.0
columbia 9.76570183382e-05
physical 0.0
kingdom 0.0
pretend 0.0
charles 0.0
fighting 0.000138155610438
rooting 0.0
donald 0.000755131137769
mexico 0.000292132462769
police 0.00172022314099
represent 0.0
president 0.00040445544625
talking 0.000121664976702
unbelievable 0.0
shrimp 0.0
giants 0.000156600106586
conference 0.000100274943533
america 0.000602487712752
everybody 0.0
houston 0.0
everyday 0.0
michael 0.00050245415026
protecting 0.0
unconditional 0.0
million 0.000297203634826
election 0.00128311527384
telling 0.0
correct 0.000104255947939
pulled 0.0
starbucks 0.0
americans 0.000112538806566
killed 0.000495677415925
cowboys 0.0
cowboy 0.0
coverage 0.000219364107894
dallas 0.0
coffee 0.0
timeline 0.0
refuse 0.0
barackobama 0.0
hillary 0.000217016977024
clinton 0.00118986054044
gatorade 0.0
sharper 0.0
american 0.00034334989875
deserved 0.0
realist 0.0
illegal 6.7360602337e-05
arizona 0.0
waffle 0.0
scared 0.000118575893473
pieces 5.98138153104e-05
taught 0.0
golden 5.45303816223e-05
straight 0.0
massage 0.000219369125596
filter 0.0
answers 0.000104255947939
smoking 0.0
created 4.86397959168e-05
beside 0.0
worlds 0.0
record 0.000760123641629
freddie 0.0
africa 6.71483149153e-05
recruiting 9.72075346333e-05
journey 0.0
snapchat 0.0
brother 0.000246568268839
prayers 0.0
trolling 0.0
hungry 0.0
nflnetwork 0.0
documentary 0.0
boston 0.0
addition 0.0
church 0.0001228679375
honestly 0.0
lounge 0.0
lifetime 6.10682537486e-05
captain 0.000137316808676
favorites 0.0
country 0.000167103235851
valley 6.88788343308e-05
huddle 0.0
dressing 0.0
finish 0.000149170361943
favourite 0.0
prayer 0.0
nominated 6.0705833522e-05
praying 0.0
insane 0.0
national 0.00209945077868
reform 0.0
shooting 5.055579484e-05
australia 5.99906436086e-05
deserve 4.9586389545e-05
legend 5.39161960576e-05
mother 0.000135184749798
realest 0.0
creating 0.0
powerful 0.000295881922606
chilling 0.0
wisdom 0.0
breaking 4.35026136757e-05
parked 0.0
angeles 0.0
dollars 0.0
questions 0.000290074175252
racist 0.000218471032194
girlfriend 0.0
performance 0.0
refreshing 0.0
educated 0.0
reading 8.58374746876e-05
denver 0.0
videos 0.000312767843817
harmony 0.0
create 4.68109185719e-05
jordan 0.0
admire 0.0
nobody 4.9586389545e-05
government 0.000423680883508
politics 0.000343503790554
paradise 0.0
recover 0.0
spotted 0.0
blessing 0.0
coolest 0.0
banana 0.0
donate 0.0
sandwich 0.0
lookin 0.0
method 0.0
bullshit 0.0
slight 0.0
bringing 0.0
deserves 0.0
regret 0.0
celebs 0.000104009200315
victim 0.0
stadium 0.000136878351208
funniest 7.38109262828e-05
according 0.000107225168507
pumped 0.0
hamburger 0.0
heaven 0.0
honest 0.0
rolling 0.0
became 0.00010111158968
feature 0.0
waking 0.0
breakfast 0.0
counting 0.0
signing 0.0
adding 0.000128183051003
awareness 0.0
kindest 0.0
trainer 0.0
facebook 0.00021634022619
insanity 0.0
repost 0.0
brazilian 0.0
campaign 0.000234694154178
borrow 9.21724250243e-05
scorpion 0.000323905206806
popcorn 0.0
factory 0.000164829129985
teenage 8.87708188731e-05
endorsement 0.0
williams 0.0
custom 0.0
drinks 7.23389923412e-05
future 8.33265639437e-05
angels 0.0
fingers 6.27408057586e-05
sister 5.43759538969e-05
earrings 0.0
warrior 0.0
dancing 0.0
voting 0.000149582961043
individuals 0.0
presence 0.0
commercial 0.0
chopped 0.0
religion 0.0
century 0.00013262038699
submit 0.0
serving 0.0
because 0.0
aggressive 8.0599443289e-05
sensitive 0.0
smiling 7.13867970457e-05
besides 0.0
cleveland 0.0
hometown 0.0
killing 0.000309294830828
breath 6.86584043378e-05
phillips 0.000211258707509
instagram 0.0
sharks 0.0
cousin 0.0
honored 0.0
dedication 0.0
lifting 0.000102451778476
lyrical 0.0
talent 0.0
goodnight 0.0
stores 7.33142733936e-05
rushing 0.0
brains 0.0
sandwiches 0.0
drinking 6.01682526082e-05
brazil 0.000217741814753
tattoo 0.0
ravens 0.0
regardless 0.0
skills 0.0
cameras 0.0
phones 0.000149135190212
california 0.0
seconds 0.0
listen 0.0
smiled 0.0
kicking 0.0
homies 0.0
billion 0.000231673351707
shades 9.10063035767e-05
shoutout 0.0
grammy 0.0
guilty 6.84391756042e-05
stevie 0.000106746880423
ceiling 0.0
carpet 0.0
grammys 0.0
harvard 0.0
panther 0.0
nelson 0.0
mandela 0.0
handle 5.27152599189e-05
sexiest 0.0
promise 4.79770400195e-05
hosting 5.30121496285e-05
hahahaha 0.0
longest 0.000143720154964
tuesday 0.0141913635601
locker 0.0
workout 0.0
ingredient 0.0
leader 0.000210861039676
pageant 0.0
character 0.0
idiotic 0.0
mirror 0.0129159278712
jackson 0.0
interview 0.000246631923345
battles 8.36718039718e-05
bleach 0.0
insight 0.0
obviously 0.0
replay 0.0
battle 0.000751021293371
stomped 0.0
destroy 0.000210682193077
killer 0.00104437746875
personally 5.84264925537e-05
winning 4.31512719396e-05
gettin 0.0
japanese 0.0
writing 4.68109185719e-05
society 0.0
officers 8.5634552898e-05
brooklyn 0.0
sources 0.000139094930684
incredible 4.36204128025e-05
poster 0.0
celebrity 0.0
memorable 0.0
werent 0.0
chased 0.0
minute 4.55536795925e-05
confession 0.000125995764432
pregnant 8.27252103435e-05
cherry 0.0
twinning 0.0
phoenix 0.0
orange 0.0
policy 0.000118575893473
comedy 0.0
illuminati 0.0
reminder 9.72795918335e-05
evidence 0.000179971930826
iphone 0.00012897184895
kicked 0.0
intentions 0.0
freedom 5.6269403283e-05
patient 0.0
utterly 0.0
mississippi 0.0
download 5.70854226025e-05
assistant 0.0
invite 5.7250631759e-05
central 5.33112467169e-05
washington 0.000106923266667
stronger 0.0
promised 0.0
worried 5.84264925537e-05
throwing 0.0
security 0.000214450337015
cologne 0.0
headphones 0.0
sanctuary 0.0
fantasy 0.0
monkey 0.0
approve 0.0
spinach 0.0
turning 0.00015166738452
helping 8.89096179423e-05
tickets 0.0
collector 0.0
physically 0.0
slavery 0.0
december 0.0
basically 0.0
return 0.000357571372382
yassss 0.0
goddess 0.0
locked 6.80042700379e-05
feelings 0.0
language 5.65938274048e-05
motion 0.0
obsessed 0.0
creation 0.0
followers 5.22739936327e-05
schools 0.000459332177538
gallery 8.11954300869e-05
movies 0.0
foster 0.0
children 0.000889096179423
nation 0.000101674226561
theaters 0.0
between 8.87708188731e-05
knowledge 0.0
begins 0.000193493527506
robinthicke 0.0
faithful 0.0
peeing 0.0
closet 0.0
bodies 0.0
italian 0.000151722446779
highlights 0.0
spanking 0.0
forbes 0.0
parade 0.0
tasted 0.0
consider 0.0
reunion 0.0
latest 0.000918509715671
dedicated 0.0
beyonce 0.0
perform 0.0
signed 4.45754338683e-05
tuxedo 0.0
princess 0.000244490302871
shelter 0.0
germany 0.000184301906249
explaining 0.0
married 0.000119627630621
millions 0.000656224853357
blessings 0.0
iconic 0.0
indonesia 0.0
braids 0.0
dollar 6.80042700379e-05
rigged 0.0
replied 0.000101446016764
lights 5.80870105976e-05
turned 0.000133003634061
excuses 0.000179746070057
jackie 0.0
charge 0.000335685447493
performing 0.0
ticket 0.0
steady 0.0
whispers 0.0
finest 0.0
confucius 0.0
diamonds 0.0
vancouver 0.0
addicts 0.000144178390611
collection 5.54696080913e-05
families 0.000206772273613
select 0.0
hitting 0.0
announced 4.91779761583e-05
decided 4.83733818764e-05
jewels 0.0
lottery 0.000192646717948
owners 7.77451703845e-05
respects 0.0
celebration 5.67570258966e-05
memorial 0.0
landed 6.31221202066e-05
pastor 0.0
ultimate 5.85973139275e-05
incase 0.0
rapper 0.0
episode 0.0
bounce 0.000192646717948
disney 0.0
muffin 0.0
kansas 0.0
sherman 0.0
retweet 0.0
midnight 0.000109060763245
patience 0.0
cereal 0.0
joining 0.0
released 0.0
release 8.86690893741e-05
models 0.0
classics 0.000112199655043
popped 0.0
mileycyrus 0.0
highlight 6.38957666088e-05
scholarship 0.0
within 5.15491384713e-05
hahahahaha 0.0
standing 4.61773877926e-05
higher 0.000108444233437
purple 0.0
skinny 0.0
justice 0.000380631677278
served 0.0
speaks 0.000175279477661
horses 0.0
houses 0.0
purchase 0.0
dropped 9.97219740289e-05
conversations 0.0
consideration 0.0
seattle 0.0
cookie 0.0
slurpee 0.0
strength 0.0
screens 9.67630177009e-05
monica 0.0
incredibly 0.0
streets 0.000118924947149
boyfriend 0.0
private 0.000103675030281
skittles 0.0
barbie 0.0
apologizes 0.0
designer 0.0
impress 0.0
cooking 0.0
exclusive 0.00143931120059
fashion 0.0
petite 0.0
talkin 0.0
peaches 0.0
bitches 0.0
nailed 0.0
weirdest 0.0
whomever 0.0
teaching 0.0
disgusting 0.000158293995385
chillin 0.0
philly 0.0
rights 0.000327182289734
dinosaur 0.0
exotic 0.0
dancers 0.0
cheers 6.25514954183e-05
presents 0.0
flawless 0.0
dating 0.0
victory 0.000635254064807
marley 0.0
productive 0.0
smurfs 0.0
halftime 0.0
insecure 0.0
horror 0.00064243782892
warning 0.000701117910645
discovery 0.0
convention 0.0
understanding 5.82563934713e-05
action 0.000173540633954
having 0.0
speaker 0.0
clever 0.0
theatre 0.0
honors 0.0
evolution 0.0
produce 0.0
spider 0.0
apologize 0.0
formation 0.0
letter 0.000249304935072
therapy 0.0
untrue 0.0
written 4.93136537677e-05
communication 0.0
disease 0.0
marching 8.69983571663e-05
suggest 6.25514954183e-05
georgetakei 0.0
hairstyle 0.0
humans 0.0
journal 0.0
foundation 0.0
access 0.000198893815924
venture 9.85713389017e-05
syndrome 9.21724250243e-05
writes 0.0
colorado 0.0
medicine 8.14967676238e-05
tremendous 0.0
nytimes 6.12506956625e-05
kindness 0.0
cannot 0.000135184749798
reveals 0.000301733246167
invented 0.0
sapphire 0.0
candidate 6.42882416542e-05
sexual 7.09190199952e-05
madison 0.0
illustration 0.0
newark 0.0
globally 0.0
incorrect 0.0
headline 6.3314141445e-05
reflect 0.0
streaming 0.0
leaders 0.000412588037883
supreme 6.97728349681e-05
protest 0.0
policies 0.0
silenced 0.000234038124805
defend 0.0
communicating 0.0
climate 0.000273756702417
wrapped 0.0
studio 0.0
conspiracy 7.97216985104e-05
interviews 0.0
differentiation 0.0
confusing 0.0
february 0.0
hamilton 0.000320048629358
loneliest 0.0
amazon 0.0
scattered 0.0
francis 0.0
headlines 0.000149135190212
january 0.000111895149164
diversity 0.0
universal 0.0
hurricane 8.5634552898e-05
identifying 0.0
countries 5.82563934713e-05
tickled 0.0
becker 0.0
connected 0.0
suggestion 7.80216551365e-05
filled 0.0
education 0.000108751907794
mentioned 5.94624735744e-05
defining 0.0
exists 0.0
unexpected 7.80216551365e-05
plants 0.0
orders 0.000362903024589
olympics 0.000214868223777
ability 0.0
director 0.000100831739846
content 0.0
cycling 0.0
previously 8.0599443289e-05
correction 0.0
pearls 0.0
ambassador 6.97728349681e-05
preparing 0.000135148031915
depend 0.0
downloads 0.0
lovers 0.0
weekly 0.0
hudson 0.0
bridge 0.0
becoming 0.0
magazine 0.0
appropriate 0.0
shakespeare 0.0
travesty 0.0
discoveries 0.0
fellow 0.0
reviewed 0.0
copies 0.0
driven 7.33142733936e-05
aussies 0.0
result 0.000174769180414
announcing 0.0
visual 0.0
restrictions 0.0
culture 0.000111575241203
edition 0.000378482059119
prince 0.00023438925571
shocks 0.000137568746168
symmetry 0.0
clicks 0.0
disagree 0.0
experiments 0.0
mistakes 0.0
trolls 9.21724250243e-05
blossoms 0.0
offered 0.000199554277579
inspiring 0.0
counter 0.0
approach 0.0
embarrassing 7.25806049178e-05
creators 0.0
edited 0.0
berniesanders 0.0
overnight 0.0
spotlight 8.27252103435e-05
probable 0.0
repeating 0.0
concerns 7.38109262828e-05
massive 0.000102525628645
promising 0.0
promises 0.000384634689895
colored 0.0
production 0.00012897184895
header 0.000112199655043
itunes 0.0
secretary 0.000140913239623
highway 9.99830056065e-05
dangerous 0.0
letters 0.0
typically 0.0
saving 5.85973139275e-05
pioneer 0.0
visuals 0.0
universe 0.0
ordering 0.0
victims 0.000761765081057
privacy 0.0
disclosure 0.0
proceeds 0.0
musical 0.0
collide 0.0
melbourne 0.0
correctly 0.0
campus 0.0
debate 0.000415859859259
conflict 0.000419961752365
meanwhile 0.0
petition 0.0
contribution 0.0
stated 0.0
humanity 0.0
illness 8.80524359783e-05
flawed 0.0
breathe 0.0
winners 0.0
spanish 7.43137874939e-05
comedic 0.0
awards 0.000158145779757
presidential 0.000538884818696
candidates 6.8221135108e-05
glasgow 0.0
smells 0.0
treasure 0.0
greater 6.58975911798e-05
themed 0.0
distribution 0.0
absurd 0.0
squirrel 0.0
sisters 0.0
stress 0.0
leading 0.000153788442968
resolution 8.14967676238e-05
achieved 0.0
interacting 0.0
boiling 0.000128836594271
examples 0.0
diverse 0.0
suicide 0.000159443397021
parallel 0.0
minneapolis 0.0
impairs 0.0
pumping 0.0
slides 0.0
choreography 0.0
element 0.0
serves 0.0
jumping 0.0
rising 0.000130169738266
believed 0.0
features 0.0
environment 0.0
revealed 0.00125205423242
classical 0.0
confirmed 0.0
origins 0.0
combination 0.0
consumption 0.0
worldwide 0.0
deaths 0.000169282418533
responsible 0.0
overwhelmed 0.0
household 9.06249891286e-05
munich 0.0
alternate 0.0
blockers 0.0
restaurant 0.0
canada 0.0
versions 0.0
technology 0.0
identify 0.0
combined 0.0
santiago 0.0
branches 0.0
october 0.000112862576605
netherlands 0.0
belgium 0.0
european 0.00111275944547
imperial 0.0
perspective 0.0
cities 6.05258405011e-05
guinea 0.0
americas 0.0
posters 0.0
elastic 0.0
flames 0.0
presumably 0.0
exquisite 0.0
spreading 0.0
happiness 7.02273976924e-05
ashamed 0.0
naturally 8.91348790326e-05
malbec 0.0
wasting 0.0
hidden 0.00013262038699
coffin 0.0
freudian 0.0
genius 5.36125842537e-05
cultured 0.0
malaysia 0.0
traveling 0.0
prepared 0.0
county 0.0
quinoa 0.0
district 8.63106759238e-05
chosen 7.61250169451e-05
toilet 0.0
yorkers 0.0
ignores 0.0
messages 6.7360602337e-05
creativity 0.0
conventional 0.0
berlin 0.000913421005117
montreal 0.0
wonders 0.0
upcoming 0.0
lonely 0.0
australian 0.0
positions 0.0
singapore 0.0
scratch 8.66530471228e-05
deficiency 0.0
elevated 0.000134068420033
triggers 0.000127867188977
delicate 0.0
barrier 0.0
reflection 8.59711939676e-05
sydney 0.0
separates 0.0
centuries 0.0
israel 0.000257913581903
overwhelming 0.0
assault 0.0
protection 6.99994742891e-05
picker 0.0
additional 0.0
machine 0.000108751907794
samples 0.0
contrary 0.0
immediate 8.39923504731e-05
michelle 0.0
inspire 6.86584043378e-05
lyrics 0.0
missyelliott 0.0
constant 0.0
tuning 0.0
pandora 0.0
preshow 0.0
buenos 0.0
poland 0.0
philippines 0.0
nicely 0.0
september 0.0
manchester 0.0
checks 0.000156043310273
screenshot 0.000454074945072
universalorl 0.0
remarkable 0.0
rihanna 0.0
disgusted 0.0
flattered 0.0
fiction 0.0
angela 0.0
bitmoji 0.0
process 5.14057216596e-05
genuine 0.0
performances 0.0
comedians 0.0
flotus 0.0
strangers 0.0
hungover 0.0
confidence 6.31221202066e-05
studios 0.0
stjude 0.0
memphis 0.0
mikeypiff 0.0
chancetherapper 0.0
scream 0.0
jennifer 0.0
disappoint 0.0
newcastle 0.0
castle 0.0
literally 0.0
chrisrock 0.0
gentlemen 0.0
mtvnews 0.0
hillaryclinton 0.00112426620061
iamrashidajones 0.0
champagne 0.0
raleigh 0.0
ijessewilliams 0.0
acknowledge 0.0
buzzfeed 0.0
puppet 0.000111555987342
rehearsal 0.0
billboard 0.0
austria 0.00011558218205
sweden 8.00121573395e-05
republic 8.49696059725e-05
grilled 0.0
waltdisneyworld 0.0
katyperry 0.0
ronanfarrow 0.0
measly 0.0
bragging 0.0
treats 8.59711939676e-05
literal 0.0
cooper 0.0
counts 0.0
theellenshow 0.0
basking 0.0
cookies 0.0
festival 0.0
amsterdam 0.0
soundcheck 0.0
downloaded 0.0
encouraged 0.0
alright 0.0
jtimberlake 0.0
backstage 0.0
collab 0.0
joined 0.0
issarae 0.0
playlist 0.0
madness 0.000128576483308
romantic 0.0
selfies 0.0
exclusively 0.0
disneyland 0.0
refused 0.0
characters 0.0
amazingly 0.0
auction 0.0
express 0.00997809148493
gratitude 0.0
sesamestreet 0.0
thegrammys 0.0
throughout 0.0
awkward 0.000134296629831
shining 0.0
thrown 7.66578508682e-05
stylist 0.0
fighter 0.0
accepting 0.0
playin 0.0
applemusic 0.0
filmed 0.0
makeawish 0.0
bieber 0.0
remixes 0.0
toronto 0.0
capitolrecords 0.0
shazam 0.0
anthem 7.35618333937e-05
cosmopolitan 0.0
khloekardashian 0.0
cookin 0.0
songwriters 0.0
reveal 0.000235075455011
stands 0.000223790298328
spotify 0.0
phvegas 0.0
rocked 0.000169282418533
glasses 0.0
iambeckyg 0.0
relive 0.0
acoustic 0.0
announce 4.68109185719e-05
although 0.0
isaacfromct 0.0
shampoo 0.0
interactive 0.0
todayshow 0.0
haters 0.0
appreciation 8.73466569444e-05
floating 0.0
shondarhimes 0.0
showtime 0.0
premiere 0.0
broadway 0.0
makeup 0.0
starring 0.0
newest 0.0
designed 0.0
arianagrande 0.0
aladdin 0.0
swaggy 0.0
owning 0.0
producer 0.0
legendary 0.0
jasmine 0.0
costumes 0.0
square 0.0
emojis 0.0
jessica 0.0
magical 7.5599148371e-05
thedoctorluke 0.0
thirsty 0.0
therealjuicyj 0.0
symbols 0.0
privilege 0.0
spiral 0.0
retrograde 0.0
footage 6.58975911798e-05
theirs 0.0
universes 0.0
remembering 0.0
floated 0.0
construction 0.0
consciousness 0.0
delights 0.0
explodes 0.0
submissions 0.0
pleased 0.000465626647685
shredding 0.0
filters 0.0
weasel 0.0
reflective 0.0
firework 0.0
islands 0.0
interstellar 0.0
bubble 0.00015225003389
customs 0.000104542034238
festive 0.000200929576576
window 5.91141737963e-05
senator 0.0
slightly 0.0
therealbuzz 0.0
printing 0.0
snowflake 0.0
applications 9.25687668812e-05
elephant 0.0
fifteen 0.0
editions 0.0
newspaper 0.0
rainbow 0.0
unlimited 0.0
sirius 0.0
matthew 7.69269379789e-05
affected 0.0
capturing 0.0
canyon 0.0
rivers 0.0
spoken 6.7360602337e-05
accidentally 0.0
bizarre 0.0
dolphin 0.0
successfully 0.0
liquid 0.0
graffiti 0.0
swallowing 0.0
messenger 0.000125091718003
heroes 0.0001228679375
disturbing 8.53007055623e-05
graduates 0.0
rewrite 0.0
describe 0.0
hollywood 0.0
equality 0.0
announcement 0.0
breakout 0.0
dreaming 0.0
animation 0.0
calendar 0.0
circling 0.0
garden 0.0
enhanced 0.0
journalists 0.000144197644473
stirring 0.0
nominations 0.000164829129985
yelling 0.0
teachers 0.000144197644473
chapter 0.0
napoleon 0.0
aliens 0.0
subjects 0.0
revolution 0.000678048926785
mountains 0.0
wonderland 0.000117757218398
storage 0.0
crystals 0.0
circuit 0.0
invitation 8.46412092667e-05
kettle 0.0
adjective 0.0
woodpecker 0.0
operate 0.0
exhibition 0.0
learnt 0.0
nomination 7.33142733936e-05
madonna 0.0
questioning 0.0
unplug 0.0
initiatives 0.0
switzerland 0.0
represents 0.0
throat 0.0
touchdown 0.0
desire 8.36718039718e-05
forced 0.000309015194906
swedish 9.90364119782e-05
hundred 0.0
prompts 0.000148737419243
rainbows 0.0
creates 0.0
oxford 0.0
balloons 0.0
liverpool 0.000385293435897
recreate 0.0
glorious 0.0
newton 0.0
creature 0.0
finalist 0.0
scouts 0.0
treading 0.0
tragedy 6.61033633577e-05
nottingham 0.0
debacle 0.0
legends 0.0
noises 0.0
addiction 0.00035653951613
survived 0.0
idioms 0.0
greeted 0.0
basics 0.0
masses 0.0
confirm 0.0
cadence 0.0
spaghetti 0.0
prepare 5.96377608803e-05
calendars 0.0
narrative 0.0
application 0.0
octopus 0.0
drumming 0.0
bloody 0.00015278110345
confetti 0.0
translate 0.000103483331741
birmingham 8.95022639884e-05
singles 0.0
completes 0.000130848432128
laptop 0.0
obvious 0.0
darling 0.0
deserving 0.0
miller 0.0
ordered 0.000177863840209
feelin 0.0
alicia 0.0
picasso 0.0
recipe 0.0
alphabetical 0.0
butterfly 0.0
timothy 0.0
mancini 0.0
untold 0.0
directed 6.88788343308e-05
hacked 0.000235741174566
admits 0.00079569021484
clocks 0.0
nugget 0.0
cnnopinion 0.0
grabbed 0.0
russia 0.00075061794502
surprises 0.0
waterfalls 0.0
olympic 0.000521973165742
magnificent 8.43154716726e-05
casual 0.0
assume 0.000132206726715
relief 0.000334685709342
subscribe 0.0
landslide 0.0
telegraph 0.0286047819839
standby 0.0
admitting 0.0
complacency 0.0
voices 0.0
sounding 0.0
douglas 8.98730350284e-05
democracy 0.000141374311063
locals 0.000218159226914
gossip 0.0
nickname 0.0
subtle 0.0
embarrassed 0.0
ireland 0.000214868223777
mornings 0.0
democratic 0.0
impressions 0.0
outgoing 0.0
treasury 0.0
refugees 0.00104015804541
unveiling 0.0
listing 0.0
deliver 6.38957666088e-05
negotiating 0.0
roller 0.0
prosperous 0.0
desperate 0.000153315701736
acknowledgement 0.0
executive 0.0
republicans 0.000164212600178
weapons 7.85803915221e-05
dropping 0.0
meaningful 0.0
nightmare 0.000209998422867
goodies 0.0
scandalous 0.0
rhetoric 0.0
divisive 0.000108483626659
vision 5.96377608803e-05
confirmation 0.0
throne 0.000120056608394
records 6.10682537486e-05
quoting 0.0
impatient 0.0
refugee 8.00121573395e-05
texted 0.0
exposed 0.000164212600178
stoked 0.0
priority 0.0
freedoms 0.0
notorious 0.0
empowering 0.0
unconstitutional 0.0
turkish 0.000109079613457
concerned 0.0
realdonaldtrump 0.00140454795385
goodwill 0.000253841190697
imagined 9.02472551508e-05
belfast 0.0
sleeve 0.0
basement 0.0
preposterous 0.0
griffith 0.0
timeless 0.0
truman 0.0
intended 0.0
inappropriate 0.000100952410901
industries 0.0
responsibility 0.0
documentaries 0.0
vulnerable 0.000242688998996
respectful 0.0
markets 0.000352209743913
claire 0.0
nuggets 0.0
boards 0.0
sequins 0.0
capitol 0.0
technical 0.0
applying 0.0
guitar 0.0
donating 0.0
continually 0.0
norway 9.02472551508e-05
applause 0.0
ballot 0.0
finely 0.0
shakes 0.000107317505211
varied 0.0
proverb 0.0
vibrant 0.0
flower 0.0
survives 0.0
fierce 0.000190064996571
shopped 0.0
sincerely 0.0
apology 0.000151722446779
sweaty 0.0
conspiracies 0.0
climbing 0.0
relaxed 0.0
encourage 6.84391756042e-05
funnyordie 0.0
essentials 0.0
jimmykimmellive 0.0
rejectedjokes 0.0
protesting 0.0
releasing 0.0
cleaner 0.0
preferred 0.0
incarceration 0.0
jkcorden 0.0
koppel 0.0
bikini 0.0
transparency 0.0
kamalaharris 0.0
nutshell 0.0
walled 0.0
floored 0.0
plotting 0.000380761786045
gandhi 0.0
vilify 0.0
meditate 0.0
violent 8.39923504731e-05
preschool 0.0
rhythm 0.0
matching 0.0
senwarren 0.0
venezuela 0.000117757218398
candle 0.0
donates 0.0
peacefully 0.0
chelseahandler 0.0
experiencing 0.0
sarabareilles 0.0
haunting 0.0
constitution 0.0
explode 0.0
deeper 0.0
empathy 0.0
mrgaryhuang 0.0
scored 0.0
charitable 0.0
perfume 0.0
giraffe 0.0
noticing 0.0
noodle 0.000144178390611
wrongly 0.000119275450392
marshmallow 0.0
fraudulent 0.0
everytime 0.0
helluva 0.0
therapists 0.0
tangible 0.0
sarahksilverman 0.0
johnfugelsang 0.0
exceptional 0.0
miracle 8.33537914614e-05
avocado 0.0
snacks 0.0
spelled 0.0
parental 0.0
superbowl 0.0
shoulders 0.0
valentine 0.0
glitter 0.0
stocking 0.0
poehler 0.0
thumbs 0.0
tinatbh 0.0
educational 0.0
voicemail 0.0
thetweetofgod 0.0
esteem 0.0
teaches 0.0
goodbye 0.000189942424335
reminding 0.0
supplies 9.99830056065e-05
ryanseacrest 0.0
okmagazine 0.0
shoots 0.0
bowing 0.0
jennyslate 0.0
craigyferg 0.0
masterpiece 8.98730350284e-05
sneaky 0.0
nashville 0.0
chronicles 0.0
potato 0.0
freakin 0.0
perezhilton 0.0
unethical 0.000140083838413
paparazzi 0.0
mantra 0.0
consuming 0.0
unauthorized 0.0
vanityfair 0.0
stalking 0.0
shoulda 0.0
yeppers 0.0
sacred 0.0
existed 0.0
earned 7.11522286081e-05
woulda 0.0
ellenpage 0.0
choker 0.0
contribute 0.0
mustache 0.0
washes 0.0
creeps 0.0
champion 6.40915255015e-05
auntie 0.0
magazines 0.0
waited 8.43154716726e-05
conscious 0.0
cracker 0.0
denmark 0.0
potion 0.0
windex 0.0
scarfing 0.0
ladygaga 0.0
purposely 0.0
pretending 0.0
luckiest 0.0
mascara 0.0
tastes 0.0
gardening 0.0
leashes 0.0
hippie 0.0
womensmarch 0.0
reunited 0.0
clique 0.0
premiering 0.0
rollingstone 0.0
childrensla 0.0
dollywood 0.0
godmother 0.0
eltonofficial 0.0
vmagazine 0.0
donorschoose 0.0
yesssssss 0.0
bettemidler 0.0
rehearsing 0.0
trevorproject 0.0
unicef 0.0
ellemagazine 0.0
yasssss 0.0
acceptance 0.0
solidarity 0.0
pharrell 0.0
greece 0.000199013849258
papermagazine 0.0
johnmayer 0.0
lipstick 0.0
tumblr 0.0
coldplay 0.0
colorful 0.0
translifeline 0.0
newsstands 0.0
feminist 0.0
pitchfork 0.0
labels 0.0
jenner 0.0
arkansas 0.0
beanie 0.0
sparkly 0.0
moschino 0.0
britneyspears 0.0
itsjeremyscott 0.0
nickiminaj 0.0
appstore 0.0
poetry 0.0
puttin 0.0
rubbed 0.0
shrine 0.0
skyferreira 0.0
freaking 0.0
besties 0.0
chanel 0.0
bedazzled 0.0
rubber 0.0
kendricklamar 0.0
popstar 0.0
sosadtoday 0.0
copenhagen 0.0
lenadunham 0.0
wearin 0.0
stoned 0.0
facetime 0.000125091718003
barclays 0.0
meditation 0.0
harpersbazaarus 0.0
stared 0.0
ritual 0.00012166595792
iconapop 0.0
doubted 0.0
staples 0.0
anaheim 0.0
jingle 0.000126920595348
tacoma 0.0
rehearsals 0.0
treadmill 0.0
metamorphosis 0.0
dental 0.000129829937903
jodyhighroller 0.0
versace 0.0
werking 0.0
couture 0.0
eggplant 0.0
bangin 0.0
cardigans 0.0
obnoxious 0.0
bestie 0.0
teganandsara 0.0
barrel 0.0
dedicating 0.0
jefferson 0.0
pumpkin 0.0
derekblasberg 0.0
glamourmag 0.0
presale 0.0
mtvstyle 0.0
deluxe 0.0
mtvema 0.0
reggae 0.0
azealiabanks 0.0
nominating 0.0
sailor 0.0
mornin 0.0
itunesmusic 0.0
bananas 0.0
lordemusic 0.0
vietnam 0.0
milwaukee 0.0
neworleans 0.0
circus 0.0
strolling 0.0
rapids 0.0
collegegameday 0.0
aaaaand 0.0
godfather 0.0
bestow 0.0
allison 0.0
rockthevote 0.0
birbigs 0.0
lucille 0.0
louder 0.0
farmers 0.0
shaved 0.0
niagara 0.0
realmattlucas 0.0
ferguson 0.0
painful 7.91469976926e-05
exchange 0.0
nickkroll 0.0
edmonton 0.0
mickey 0.0
angelenos 0.0
pooping 0.0
located 0.0
onslaught 0.0
finalists 9.76570183382e-05
bumped 0.0
sherlock 0.0
stockholm 0.0
casually 0.0
jjwatt 0.0
itstonybennett 0.0
mariolopezextra 0.0
klgandhoda 0.0
entrance 0.0
calgary 0.0
bowling 0.0
winnipeg 0.0
cheeto 0.0
gloriasteinem 0.0
feather 0.0
nathan 0.0
smelling 0.0
narnia 0.0
llamas 0.0
actuallynph 0.0
mourning 0.0
obsession 8.43154716726e-05
chilled 0.0
medically 0.0
hyperloop 0.0
aussie 0.0
flaring 0.0
eyeballs 0.0
stuffing 0.0
pitched 0.0
condiments 0.0
relatable 0.0
olivia 0.0
painted 0.0
mykonos 0.0
eyebrow 0.0
capitalcities 0.0
jackpot 0.0
hipster 0.0
sweating 0.0
restaurants 9.63233589742e-05
superfan 0.0
restraint 0.0
craziest 0.0
catheter 0.0
delivers 8.69983571663e-05
kanyewest 0.0
paints 0.0
dissect 0.0
billboards 0.0
milano 0.0
bjnovak 0.0
snapping 0.0
croissant 0.0
repjohnlewis 0.0
blklivesmatter 0.0
mydaughtersarmy 0.0
huddled 0.0
yearning 0.0
thereaibanksy 0.0
affordable 0.0
foodie 0.0
colombia 0.0
peeled 0.0
shootings 0.0
playground 0.00010789634071
breaky 0.0
photoshoot 0.0
smokin 0.0
accents 0.0
sweats 0.0
postmates 0.0
armband 0.0
unconscious 0.0
maddow 0.0
aquarium 0.0
holler 0.0
photoshop 0.0
robbie 0.000125995764432
espnmag 0.0
laundry 0.0
examining 0.0
zealand 0.0
stuntin 0.0
hehehe 0.0
nostalgia 0.0
buttons 0.0
slaying 0.0
monument 0.0
bringin 0.0
lining 0.000198072823956
muchas 0.0
gracias 0.0
madame 0.0
illustrated 0.000106184236663
boxers 0.0
grazie 0.0
winters 0.0
plastic 8.59711939676e-05
unbreakable 0.0
licking 0.0
cheeky 0.000116294207241
twerking 0.0
danish 0.0
drummer 0.0
florence 0.0
revoir 0.0
resume 0.0
dodger 0.0
brazilians 0.0
grimezsz 0.0
crocodile 0.0
hahahahahaha 0.0
parisians 0.0
taipei 0.0
taiwan 0.0
bangkok 0.0
uploaded 0.0
manila 0.0
hamburg 0.0
curating 0.0
aaaand 0.0
skating 0.0
brisbane 0.0
googleplay 0.0
raincoat 0.0
glastofest 0.0
vienna 0.0
burning 0.0
jamming 0.0
reaches 0.0
subtitles 0.000145641401769
wristband 0.0
barcelona 0.0
credits 0.0
dreamers 0.0
bogota 0.0
bursting 0.0
brunomars 0.0
beyoncé 0.0
subscribers 0.0
unlock 0.0
onedirection 0.0
amazonmusic 0.0
snippets 0.0
preorder 0.0
rehearse 0.0
bahnhof 0.0
delorean 0.0
fragrance 0.0
curate 0.0
samsmithworld 0.0
guitars 0.0
storyline 0.0
registering 0.0
beatsbydre 0.0
panama 0.0
celestial 0.0
orchestra 0.0
finland 0.0
climbed 0.000141402919638
topping 0.0
méxico 0.0
vasconcelos 0.0
leicester 0.000235514436797
itunesfestival 0.0
pondering 0.0
millennials 0.0
struck 0.0
watermelon 0.0
benefited 0.0
sophisticated 0.0
couples 0.0
villain 0.0
mindful 0.0
catholic 0.0
airline 9.99830056065e-05
secretly 0.0
playlists 0.0
veggie 0.0
receipts 0.0
foremost 0.0
bagpipe 0.0
drifting 0.0
trader 0.000137568746168
influenced 0.0
moscow 0.0
cobain 0.0
reaper 0.0
commune 0.0
handshake 0.0
despair 0.0
silicon 0.0
investing 0.0
construct 0.0
garland 0.0
coachella 0.0
offline 0.0
realisation 0.0
payback 0.0
educate 0.0
alliances 0.0
etched 0.0
momentarily 0.0
pronoun 0.0
lenses 0.0
validated 0.0
authenticity 0.0
choreographed 0.0
pokemon 0.0
disneyworld 0.0
patriotic 0.0
embody 0.0
snickers 0.0
impactful 0.0
refocus 0.0
eminem 0.0
mahatma 0.0
ecstatic 0.0
snfonnbc 0.0
avenue 0.0
picchu 0.0
doubters 0.0
beverly 0.0
intensity 0.0
outtake 0.0
temple 0.0
purchased 0.0
fountain 0.0
punched 0.0
goldfish 0.0
comparable 0.0
buyers 0.000265932407756
barbara 0.0
corybooker 0.0
listens 0.0
timeout 0.0
inducing 0.0
signage 0.0
penthouse 0.0
ahahaha 0.0
phenom 0.0
brilliantly 0.0
siphoning 0.0
herstory 0.0
prostitute 0.0
survivors 0.0
courageous 0.0
cruelty 0.000117019062403
margot 0.0
xenophobic 0.0
mcginley 0.0
yorkshire 0.0027055684797
chants 0.000137568746168
alancarr 0.0
chained 0.0
skillz 0.0
debunked 0.0
floods 0.0
fleetwood 0.0
cheesecake 0.0
adidas 0.0
uneven 0.0
raging 0.0
connections 0.0
headlining 0.0
devhynes 0.0
charli_xcx 0.0
shawnmendes 0.0
tavitulle 0.0
bahjournalist 0.0
tyleroakley 0.0
marquee 0.0
grease 0.0
screenshots 0.0
ddlovato 0.0
chattyman 0.0
grimmers 0.0
vevo_uk 0.0
bonniemckee 0.0
electrifying 0.0
idolator 0.0
onairromeo 0.0
godven 0.0
lookie 0.0
preordered 0.0
elvisduran 0.0
shanghai 0.0
tripped 0.0
konnichiwa 0.0
etnad_olegnad 0.0
unannounced 0.0
swedes 0.0
cinderella 0.0
slipper 0.0
jessesaintjohn 0.0
adorbs 0.0
onesies 0.0
jahnsuxx 0.0
walgreens 0.000152091725714
aphrodite 0.0
danceonfox 0.0
difficulties 0.0
mermaids 0.0
antique 0.0
girlshbo 0.0
yaaaaasss 0.0
lifesaving 0.0
queens 0.0
yaaaas 0.0
rollin 0.0
bestest 0.0
cleanse 0.0
iamtovelo 0.0
glamour 0.0
emelisande 0.0
lashes 0.0
austrian 0.000152091725714
magritte 0.0
misogynoir 0.0
litter 0.000138806639933
spiritual 0.0
preaching 0.0
adelaide 0.0
sheffield 0.0
impending 0.0
starve 0.0
excess 0.0
conciousness 0.0
vitamins 0.0
generator 0.0
purposefully 0.0
profiles 0.0
petals 0.0
persist 0.0
alexis 0.000144178390611
covergirl 0.0
sneezed 0.0
cushion 0.0
demconvention 0.0
directv 0.0
flo_tweet 0.0
billclinton 0.0
grounded 0.0
sunrise 0.0
fightin 0.0
sagekotsenburg 0.0
pwease 0.0
sadder 0.0
waterfall 0.0
sighting 0.0
firsts 0.0
muller 0.0
burritos 0.0
bungee 0.0
potting 0.0
dipping 0.0
closets 0.0
scratched 0.0
decorating 0.0
summers 0.0
havana 0.0
fresher 0.0
mowing 0.0
invading 0.0
addict 0.000152091725714
aesthetics 0.0
footwear 0.0
protector 0.0
hammock 0.0
repurpose 0.0
mishap 0.0
hamster 0.0
cellar 0.0
groove 0.0
mentored 0.0
exaggerate 0.0
scraping 0.0
apropos 0.0
trolled 0.0
jonlovett 0.0
rheabutcher 0.0
sickening 0.000248415084689
flustered 0.0
compiled 0.0
shirley 0.0
subtweet 0.0
pantsuit 0.0
patting 0.0
atrocious 0.0
amoeba 0.0
platter 0.0
aficionado 0.0
bearer 0.0
manifest 0.0
transformation 0.0
thighs 0.0
tapper 0.0
foaming 0.0
sophie 0.0
sabbath 0.0
vibrations 0.0
nutella 0.0
wilder 0.0
distractions 0.0
stripping 0.0
downloading 0.0
judith 0.0
crossroads 0.0
parsons 0.0
stella 0.0
narcissism 0.0
fawcett 0.0
trainers 0.000124207542344
surrounding 0.0
longtime 0.0
frosting 0.0
laurent 0.0
savory 0.0
acupuncture 0.0
cancelling 0.0
nutcracker 0.0
ballet 0.0
tempura 0.0
burner 0.0
voguemagazine 0.0
lagged 0.0
cuttlefish 0.0
passwords 0.0
funfetti 0.0
anagasteyer 0.0
gabbana 0.0
budapest 0.0
montage 0.00012166595792
crowns 0.0
scheduling 0.0
possessed 0.0
syncing 0.0
creatively 0.0
hieroglyphics 0.0
halftimes 0.0
floppy 0.0
nessie 0.0
feathers 0.0
kaceymusgraves 0.0
roaring 0.0
rightful 0.0
balconies 0.0
prodigy 0.0
raquin 0.0
gianni 0.0
monsieuradi 0.0
drowned 0.0
tropicana 0.0
diesel 0.0
shabbat 0.0
voiceless 0.0
passover 0.0
elevating 0.0
traumatic 0.0
dreamer 0.0
iwillharness 0.0
classrooms 0.0
eligibility 0.0
counselors 0.0
wainwright 0.0
moveon 0.0
runaway 0.0
baghdad 0.000144178390611
zaralarsson 0.0
snooze 0.000144178390611
iggyazalea 0.0
harviikills 0.0
bolognese 0.0
babysitting 0.0
mohegan 0.0
hooters 0.0
crusts 0.0
tracksuit 0.0
cupcake 0.0
xfactor 0.0
vitamin 0.0
lichtenstein 0.0
concourse 0.0
hitchcock 0.0
teller 0.0
pastels 0.0
remnants 0.0
banger 0.0
lyrically 0.0
boogers 0.0
ritaora 0.0
bumpin 0.0
dabbed 0.0
sleepin 0.0
tinashe 0.0
octaviaspencer 0.0
linder 0.0
musicallyapp 0.0
scavenger 0.0
sanging 0.0
corinthians 0.0
hollywoodbowl 0.0
kraken 0.0
discontinue 0.0
cypress 0.0
schooling 0.0
maritime 0.0
narration 0.0
zeitgeist 0.0
sampler 0.0
pseudo 0.0
bangladesh 0.000735798168811
hungary 0.0
mumble 0.0
sisterhood 0.0
soulful 0.0
lennykravitz 0.0
londontown 0.0
andradaymusic 0.0
lipsticks 0.0
realization 0.0
unconditionally 0.0
wildfire 0.0
goldie 0.0
minnie 0.0
solitude 0.0
waddle 0.0
westworldhbo 0.0
statuesque 0.0
uncasville 0.0
demented 0.0
skyway 0.0
twentyonepilots 0.0
rejoicing 0.0
clenching 0.0
adelphia 0.0
entirety 0.0
redhourben 0.0
lakewood 0.0
drjillstein 0.0
entail 0.0
whammy 0.0
smokers 0.0
gobble 0.0
topshop 0.0
cleowade 0.0
mkives 0.0
sweetbabayjamie 0.0
marchesafashion 0.0
hamsters 0.0
gurrrl 0.0
sofifii 0.0
sumthin 0.0
nicomiz 0.0
maisonvalentino 0.0
coziest 0.0
accessorize 0.0
thejgold 0.0
peruvian 0.0
amazeballs 0.0
sendin 0.0
fantabulous 0.0
timelines 0.000300759243336
regina 0.0
slovakia 0.000175043817132
graves 0.0
embracing 0.0
larsson 0.0
cullen 0.0
psychiatric 0.0
officialadele 0.0
butters 0.0
verrrry 0.0
buttered 0.0
winged 0.0
pedialyte 0.0
topanga 0.0
armpit 0.0
kittens 0.0
dueling 0.0
eagerly 0.0
surrealist 0.0
dethroned 0.0
manolos 0.0
señorita 0.0
monterrey 0.0
parque 0.0
retiree 0.0
batches 0.0
reservations 0.0
sickos 0.0
aplusk 0.0
kirkherbstreit 0.0
fanbases 0.0
indexing 0.0
chuckles 0.0
incorporated 0.0
washboard 0.0
earbuds 0.0
pantone 0.0
knotts 0.0
dismaland 0.0
pollock 0.0
iamkidpresident 0.0
mariah 0.0
teevee 0.0
santorini 0.0
appalachian 0.0
sunburnt 0.0
caliente 0.0
juicery 0.0
karlihenriquez 0.0
trillest 0.0
tommorrow 0.0
crumpets 0.0
fishin 0.0
grillin 0.0
jambalaya 0.0
pepperoni 0.0
cashew 0.0
graceland 0.0
pussies 0.0
delicately 0.0
eraser 0.0
choreo 0.0
snatched 0.000181764131173
elliptical 0.0
mooore 0.0
unborn 0.0
georgina 0.0
stalkers 0.0
sallykohn 0.0
expectancy 0.0
phillipines 0.0
appstoregames 0.0
wilkinson 0.0
puddings 0.000206147988408
loveland 0.0
spaced 0.0
shanny 0.0
dripping 0.0
gerber 0.0
shakey 0.0
weaves 0.0
unbeatable 0.000152091725714
linguist 0.0
prosthetics 0.0
battleship 0.0
serotonin 0.0
machiavellian 0.0
girlies 0.0
guangzhou 0.0
debuting 0.0
dissecting 0.0
warped 0.0
luckyjess 0.0
ermahgerd 0.0
fabulousness 0.0
elliegoulding 0.0
activewear 0.0
yelyahwilliams 0.0
prismatic 0.0
evaluations 0.0
skywalk 0.0
sparklers 0.0
palettes 0.0
gemmaanningram 0.0
trueeee 0.0
invisalign 0.0
pounded 0.0
lolgop 0.0
procession 0.0
stanning 0.0
squeals 0.0
continual 0.0
luminary 0.0
cummin 0.0
shaves 0.0
epixhd 0.0
preacher 0.000159777567055
boogiecousins 0.0
changers 0.0
autismspeaks 0.0
massaged 0.0
psssssst 0.0
literati 0.0
utilization 0.0
endangerment 0.0
purposeful 0.0
unlabeled 0.0
undiagnosed 0.0
snotty 0.0
gallops 0.0
slovenia 0.0
sequin 0.0
akerlund 0.0
jumbotron 0.0
edibles 0.0
knowles 0.0
caeser 0.0
thehollywoodbowl 0.0
elvispresley 0.0
adoring 0.0
ageist 0.0
thérèse 0.0
confessed 0.0
blackvoices 0.0
patties 0.0
graphically 0.0
wildflowers 0.0
groundhogs 0.0
eataly 0.0
poodles 0.0
hillaryforia 0.0
roadshow 0.0
sweety 0.0
boppin 0.0
bettywho 0.0
johnnywujek 0.0
earring 0.0
itsbennyblanco 0.0
curitiba 0.0
purrfect 0.0
shellback 0.0
chokers 0.0
hairbrush 0.0
hakuna 0.0
matata 0.0
hazing 0.0
mathew 0.0
aegean 0.0
lullaby 0.0
musiciansoncall 0.0
headpiece 0.0
morsel 0.0
whistled 0.0
conquest 0.0
viceland 0.0
lambily 0.0
scalped 0.0
graced 0.0
emblazoned 0.0
hrclosangeles 0.0
kawaii 0.0
glittery 0.0
wonderlandmag 0.0
jumpsmokers 0.0
radiodotcom 0.0
missyfranklin 0.0
pleaaaaase 0.0
lilbthebasedgod 0.0
waaaay 0.0
flossy 0.0
aria_official 0.0
berliners 0.0
matriarchy 0.0
cornered 0.0
limping 0.0
peasant 0.0
feasibly 0.0
waaaaay 0.0
slayyy 0.0
fashionistas 0.0
sangin 0.0
worldstarfunny 0.0
pliers 0.0
babyanimalpics 0.0
mediation 0.0
quests 0.0
aaaaaaah 0.0
honked 0.0
rauschenberg 0.0
whitneymuseum 0.0
lonsdale 0.0
transcendental 0.0
roarin 0.0
facetune 0.0
fausto 0.0
herning 0.0
cazzette 0.0
annnnnnnnnd 0.0
shinier 0.0
giambattista 0.0
katys_teddybear 0.0
gnight 0.0
katheryn 0.0
psychoanalysis 0.0
bckgrnd 0.0
kingman 0.0
gracevanderwaal 0.0
fecking 0.0
ihrcountdown 0.0
stubbies 0.0
xfactor_italia 0.0
aaronpauley 0.0
purity_ring 0.0
scorpios 0.0
ayyyye 0.0
capitalizes 0.0
flamin 0.0
motherfucking 0.0
jingled 0.0
pharrellhat 0.0
ontarioglow 0.0
teached 0.0
umusic 0.0
auroramusic 0.0
dailymendeslife 0.0
soloing 0.0
universalse 0.0
dustinkloeppel 0.0
robynkonichiwa 0.0
charli 0.0
lonelydot 0.0
adamselman 0.0
sorrenti 0.0
offish 0.0
vinoodh 0.0
guitarists 0.0
cocking 0.0
cabbages 0.0
amelia_libman 0.0
flutter 0.0
lolita 0.0
kingladygaga 0.0
breakthecycledv 0.0
howbow 0.0
curveballs 0.0
tamagotchi 0.0
jarryd 0.0
alliseeisgold 0.0
thebroadmuseum 0.0
sarahsowitty 0.0
brillz 0.0
jackgarratt 0.0
markryden 0.0
duffscakemix 0.0
sanrio 0.0
theniceguyla 0.0
trills 0.0
susangkomen 0.0
faustopuglisi 0.0
gurlll 0.0
cheesecakes 0.0
scorpio 0.0
oblivia 0.0
skipmarley 0.0
correcto 0.0
jessirklein 0.0
unpatr 0.0
squish 0.0
greg_wells 0.0
onlyleah 0.0
gittin 0.0
popstars 0.0
krafts 0.0
bouche 0.0
problemo 0.0
wheezing 0.0
patmcgrathreal 0.0
cienega 0.0
thundering 0.0
nastialiukin 0.0
janell 0.0
katelyntarver 0.0
miamoretti 0.0
missoni 0.0
dannymoonsworld 0.0
mrchrismcmillan 0.0
madge_freak 0.0
woridstarcomedy 0.0
ikissedasoldier 0.0
kpezandchez 0.0
perrysoldier 0.0
emilynotchez 0.0
iickmekaty 0.0
basicallyadam 0.0
katysangelegg 0.0
nicolasjebran 0.0
xchadballx 0.0
scott_myrick 0.0
lockoir 0.0
shannonwoodward 0.0
calluses 0.0
chamomile 0.0
trollin 0.0
sleighing 0.0
chestercheetah 0.0
royksopp 0.0
scottsimonswvla 0.0
sirenscaiiing 0.0
slowdownkaty 0.0
chefantoniopark 0.0
garnished 0.0
endive 0.0
mdmolinari 0.0
prezzy 0.0
motioning 0.0
hernameisbanks 0.0
rockcampla 0.0
jenniefinch 0.0
getglucky 0.0
stendhal 0.0
ryanphillippe 0.0
hotncolds 0.0
kpcollections 0.0
katie_wignall 0.0
katysdrugx 0.0
evrenperry 0.0
katycatwendy 0.0
yungskeeter 0.0
sarahhudsonuvs 0.0
mothern 0.0
oliverheldens 0.0
marrymemargot 0.0
katyperrylately 0.0
kewlest 0.0
katyshellokitty 0.0
pqgerry 0.0
rasarioatelier 0.0
anakhouri 0.0
romaneperry 0.0
hot_chip 0.0
agador 0.0
freddietinkles 0.0
cynthialovely 0.0
augustgettyatelier 0.0
tbsnetworks 0.0
ronyalwin 0.0
justinandersoncolor 0.0
mmillerrider 0.0
jpgaultier 0.0
harharharhar 0.0
iikeanangel 0.0
vonnypoo 0.0
jcoopkp 0.0
itzmero 0.0
katysprismlight 0.0
hatérs 0.0
awkwardaya 0.0
katysredskittle 0.0
tiedye_princess 0.0
adelshahal 0.0
marinadiamandis 0.0
samadizayee 0.0
itsslatykaty 0.0
johnlordperry 0.0
nuggetperry 0.0
kthnkzbye 0.0
teamkpbrasil 0.0
twenagedream 0.0
ashleyegreer 0.0
perryllover 0.0
perry_slays 0.0
_andresgalvis 0.0
poplitics 0.0
likerotica 0.0
sweetxjaureguix 0.0
jessiambriz 0.0
perryncolds 0.0
pwideawake 0.0
brunastrait_ 0.0
anafalqueto 0.0
pessoalmente 0.0
mark_hodson_ 0.0
sumtxkid 0.0
arpoador 0.0
katysmychampion 0.0
amnattg 0.0
osullivanluke 0.0
stephiruth 0.0
katy_pizza_bae 0.0
kpcatt 0.0
pedroeugeniio 0.0
gugs_prismatic 0.0
zeeusmtz 0.0
legendarycold 0.0
robynxkatheryn 0.0
écouter 0.0
energyberlin 0.0
karysjones 0.0
lilzariya 0.0
puroland 0.0
pavlovitz 0.0
dreamhampton 0.0
prismsperry 0.0
perrysmic 0.0
focusonreid 0.0
tonyatalterian 0.0
makeup_man 0.0
wtfkates 0.0
sella_sandra 0.0
katycute_ 0.0
caitsperry 0.0
katyperryforum 0.0
radiantjareau 0.0
lillysgomez 0.0
katycatsweden 0.0
perryicecream 0.0
xamyrosex 0.0
wtvrlara 0.0
bijanstephen 0.0
ameliashowalter 0.0
screamkng 0.0
tvmcgee 0.0
liiife 0.0
itskatcombs 0.0
yaaaaaasssssssssss 0.0
katysmyhabibi 0.0
skottpeace 0.0
ferras 0.0
kweens 0.0
habibi 0.0
orlandobloom 0.0
huckchinn 0.0
katycatkenzie 0.0
matarazzo 0.0
fkatwigor 0.0
perryschild 0.0
hotxcolds 0.0
maddisonxperry 0.0
akaruikaty 0.0
chillinlaidback 0.0
erryone 0.0
chrisanokute 0.0
beyelite 0.0
kuntyewest 0.0
chiroprac 0.0
katyperryrises 0.0
godneybjs 0.0
liquoronurlips 0.0
katystumblrr 0.0
holiestkaty 0.0
hollykittykaty 0.0
katysprincess 0.0
katysdonut 0.0
carlythekatycat 0.0
katycatsophia 0.0
fridaaperry 0.0
iegendarylovers 0.0
katycatveronica 0.0
katyperryslave 0.0
hakimkharbouch 0.0
keonovak 0.0
plaaaaay 0.0
scatting 0.0
shotted 0.0
dizzycoco 0.0
fkinsnapss 0.0
junkygs 0.0
ミニチュア料理 0.0
エビフライとエビ天 0.0
adidasboosts 0.0
lilithia 0.0
cottoncandizzle 0.0
ultimatebeyhive 0.0
paramorewebnews 0.0
royale_lala 0.0
musicnews_feed 0.0
katyperryextra 0.0
greeniight 0.0
gagas_illusion 0.0
lesbiyonce 0.0
blurryhface 0.0
lordofgiraffex 0.0
ifuseekamy_ 0.0
legendarymalek 0.0
hausoframez 0.0
unstan 0.0
chioekardashian 0.0
theiife 0.0
handstomyseif 0.0
legendarylovers 0.0
gagas_fandom 0.0
thinagedream 0.0
conditionalbabe 0.0
dannysuschrist 0.0
prismdluxe 0.0
herwonkeye 0.0
camilasviews 0.0
gagalovesbey 0.0
shadykatyfacts 0.0
limalimoncia 0.0
heavymetaiovers 0.0
katyscrush 0.0
waikingonair 0.0
eduardo_katycat 0.0
katyswetdream 0.0
katherynsgod 0.0
katystddbr 0.0
katyboobies 0.0
royaityler 0.0
nothingfaiis 0.0
kathrynluck_ 0.0
prismaticiights 0.0
mendesperry 0.0
katycatghita 0.0
mark_katycat 0.0
iwasdivine 0.0
skywaterr 0.0
xjojospearsx 0.0
alwaysbeperry 0.0
skoglyrihanna 0.0
legendarydurk 0.0
halseysfirework 0.0
rainbowspatrick 0.0
katysfood 0.0
honeymoonprism 0.0
onepulsetony 0.0
butcha 0.0
okurrr 0.0
the_mpt 0.0
talaofficial 0.0
miniatures 0.0
ohmyjurassic 0.0
katysmoonlight 0.0
lilly_jnes 0.0
coco_ho 0.0
perryhumorr 0.0
yikesjonathan 0.0
rubyrankin 0.0
thealekovski 0.0
cydney_moore 0.0
truebluedeluxe 0.0
thedutchass 0.0
katyskettle 0.0
ferraseu 0.0
katyssunlight 0.0
typosqween 0.0
adoreeeperry 0.0
katyperryfrance 0.0
snowiner 0.0
_coolkatycat 0.0
nicothekatycat 0.0
adorbies 0.0
jackygerardchan 0.0
brewmystew 0.0
katyswildfire 0.0
rihftperry 0.0
theolagu 0.0
ritajoness 0.0
iitsjackie 0.0
mjjperry 0.0
jesuskylie 0.0
holyerotica 0.0
graceofkaty 0.0
redsvelvets 0.0
booyakasha 0.0
tariqterry 0.0
katycatalannah 0.0
taylxre 0.0
pacifyher 0.0
basedkatyperry 0.0
diddleurskittle 0.0
katysanalien 0.0
gagasspace 0.0
tayiorhq 0.0
givenchydress 0.0
augustryder 0.0
perrysmoschino 0.0
kittehn 0.0
katrieber 0.0
legendaryhunty 0.0
katyslegs 0.0
katyfroot 0.0
winesandlines 0.0
sam_incolour 0.0
wakingonair 0.0
drwssinup 0.0
huffdaddysays 0.0
fiwwwwine 0.0
matthewroper 0.0
emmabruhhh 0.0
gingerwesson 0.0
nicholas_sewell 0.0
perfectlyperry 0.0
bustabusta 0.0
mynameisziam 0.0
venuzszfly 0.0
katherynsus 0.0
sacredperry 0.0
thedollsftkaty 0.0
_cafajeff 0.0
debkatycat 0.0
katycats 0.0
eastonjames_ 0.0
oliviabooker_ 0.0
protecti 0.0
outrageousness 0.0
joanneprada 0.0
scuffed 0.0
catoure 0.0
blanged 0.0
tahmorrow 0.0
glukatyperrypop 0.0
jamesjoint 0.0
pressin 0.0
bourree 0.0
honeysuckle 0.0
meowings 0.0
fashun 0.0
happun 0.0
vikander 0.0
thekatyperrypopgame 0.0
karolfabianaros 0.0
nico_thekatycat 0.0
miss_lilyjames 0.0
stylinfunk 0.0
hudsontheband 0.0
jere_my 0.0
crabitat 0.0
tiersz 0.0
unrehearsed 0.0
fanclub_kp 0.0
oneofthesophies 0.0
fusterlandia 0.0
lazyblazy 0.0
katycatchloe 0.0
figali 0.0
prismaticness 0.0
titicaca 0.0
ancientaliens_ 0.0
sneezin 0.0
cristos 0.0
mallman 0.0
prismaticlife_ 0.0
ravensuxx 0.0
perrypositive 0.0
derkwhore 0.0
alekjandro 0.0
havss_ 0.0
hqzaynmaiik 0.0
thique 0.0
bbhmms 0.0
jkatharineb 0.0
jennyformica 0.0
tiiiiiight 0.0
ikissedagay 0.0
harryvuitton 0.0
aeschleahd 0.0
princessjavonda 0.0
errrythang 0.0
kooning 0.0
sugarray 0.0
empaths 0.0
goldenboyz_inc 0.0
voguejp 0.0
chickenwingguardingthemimosa 0.0
katyperrypopup 0.0
unmeasurably 0.0
transviolet 0.0
beauteous 0.0
katyskidrauhl 0.0
thooooooseee 0.0
clairesstores 0.0
nailsbymh 0.0
katysacutie 0.0
psychokatycat 0.0
kaceymusgrave 0.0
refueled 0.0
hyungsunju 0.0
okuurrrr 0.0
cholewheeler 0.0
leftshark 0.0
momchella 0.0
crotches 0.0
hookedondolls 0.0
fyuseapp 0.0
mogonoloball 0.0
atletica 0.0
katycatsclub 0.0
catacombs 0.0
poppycorn 0.0
cupped 0.0
christiania 0.0
residenz 0.0
lindseyweber 0.0
butterballface 0.0
joshlecash 0.0
myassistant 0.0
swiftschrist 0.0
snowhiteperry 0.0
emmakphughes 0.0
katyslegend 0.0
dansnierson 0.0
scressful 0.0
prismaticwitch 0.0
finnin 0.0
habibis 0.0
mophies 0.0
strongé 0.0
drumkit 0.0
anamanaguchi 0.0
gaultier 0.0
ngvmelbourne 0.0
dukedumont 0.0
legendaryasmyn 0.0
highlarious 0.0
calpurnia 0.0
waaaaait 0.0
mktfah 0.0
fwding 0.0
caseyhoops 0.0
worldstarvlne 0.0
flapfkp 0.0
bettycrocker 0.0
mexxxico 0.0
whhhhhhhhuuuuuutttt 0.0
yelletweets 0.0
gucciqxxn 0.0
luckyladyrebelettes 0.0
junglejulia 0.0
charlottes_web 0.0
istarbucksniall 0.0
katysroaaar 0.0
fiorucci 0.0
whuteva 0.0
sirdavidd 0.0
fudgery 0.0
bizquick 0.0
itsgrandtheft 0.0
grandtheft 0.0
katysfancy 0.0
ameezyyrush 0.0
mykectown 0.0
itsvalkubus 0.0
walkslikeperry 0.0
iwantperry 0.0
exausto 0.0
selfeh 0.0
aquaberry 0.0
sidepiece 0.0
versacness 0.0
iamleslii 0.0
alocalgyro 0.0
cutina 0.0
theoutslder 0.0
prism_katy_cat 0.0
katyshoodrat 0.0
thestevetisch 0.0
ronysphotobooth 0.0
schlitterbahn 0.0
kpsnosecrinkle 0.0
alwz_katycat 0.0
whykph 0.0
californiagurls 0.0
katycattt 0.0
varicose 0.0
itsbrillz 0.0
perrystiger 0.0
katysmyaura 0.0
paolablancokp 0.0
callmemargot 0.0
indiggynado 0.0
katycat 0.0
anylinden 0.0
kpkillerqueen 0.0
katyslilacwine 0.0
katypvenezuela 0.0
franzikaty 0.0
katherynelperry 0.0
doessss 0.0
katysleftarm 0.0
datingprism 0.0
_smiler_katycat 0.0
kepyterry 0.0
katycat_camille 0.0
vckatyperry 0.0
bowzerjoe 0.0
taishrox 0.0
mütter 0.0
arianperryarian 0.0
lisasigh 0.0
fridiskp 0.0
kevinruda 0.0
katyperrydaily 0.0
wakingupvegas 0.0
marlyins 0.0
drankin 0.0
herkatycat 0.0
luvhudson 0.0
yaeltsairi 0.0
felipinhoofm_ 0.0
renanmarcall 0.0
kariseperry 0.0
emojing 0.0
konnie 0.0
mcperry 0.0
iturnmycanonon 0.0
katycatelysha 0.0
andrewnavs 0.0
katycatkrystal 0.0
lovelyandlaugh 0.0
lampoonians 0.0
perrytuuda 0.0
katymyhaven 0.0
ruletheschool 0.0
cheapandchic 0.0
sically 0.0
crazyforperry 0.0
kpdaily 0.0
getonupmovie 0.0
cutetina 0.0
chimiuzz 0.0
kefali 0.0
joelkefali 0.0
siclly 0.0
mtvother 0.0
lydiaacav 0.0
prismaticperry 0.0
jwujek 0.0
adorbie 0.0
errone 0.0
kaliyah 0.0
katysweirdness 0.0
vinbiodiesel 0.0
katysfxb 0.0
katyspurrfect_ 0.0
shannonmwoodward 0.0
bippity 0.0
boppity 0.0
swiggty 0.0
swoogity 0.0
pizzarella 0.0
firewerk 0.0
katyslayed 0.0
emerald_epelman 0.0
madkatydisease 0.0
mandee 0.0
ohferras 0.0
sarahh 0.0
iaustinhunt 0.0
lanawhore 0.0
spaceykacey 0.0
crazay 0.0
elektrikpeople 0.0
visa_nz 0.0
fvckin 0.0
nathanspicer 0.0
cashcash 0.0
ashish_uk 0.0
xokatic 0.0
turnting 0.0
scorpiomystique 0.0
toddthomasnyc 0.0
kohngallery 0.0
discnt_universe 0.0
dressinkaty 0.0
lee_cook 0.0
bloodshot 0.0
yaddlizc 0.0
elnett 0.0
itsthekatycats 0.0
kelly_moritz 0.0
katyslaykaty 0.0
skintxghtjeans 0.0
socarrer 0.0
errrday 0.0
therealslacker 0.0
wendywild 0.0
welkys 0.0
sohohouse 0.0
selfing 0.0
camiilaruales 0.0
nexxxt 0.0
turrell 0.0
alliexxxxandra 0.0
surfboardt 0.0
telstra_news 0.0
juanitadele 0.0
oopskatycat 0.0
sophkatycat 0.0
katyschild 0.0
katysconverrse 0.0
katycat_leah 0.0
katycatverified 0.0
katycat_libby 0.0
katyswonk 0.0
kittless 0.0
jlrcukp 0.0
siiiiiiiiiiiiii 0.0
ermagherd 0.0
imlynsey 0.0
perrys_cherry 0.0
casemcgase 0.0
hazzaily 0.0
herses 0.0
gaypropaganda 0.0
tixforcharity 0.0
hudsons 0.0
nomers 0.0
mommacat 0.0
superlove 0.0
bonacorso 0.0
levi_leet 0.0
thinkingofbecki 0.0
cybering 0.0
pamyurin 0.0
idreamofkaty 0.0
xfactor_au 0.0
glohudsonperry 0.0
aubreyplzza 0.0
eeshhuhhayniac 0.0
bonkay 0.0
katysbum 0.0
nevillebradley 0.0
curryswift 0.0
zinepack 0.0
katykatt_suraya 0.0
sweetkatybird 0.0
yohkatheryn 0.0
cottoncandykaty 0.0
karolynadiaz 0.0
maayansharvit 0.0
theprismcess 0.0
camisp_ 0.0
lucasgaldin 0.0
prixy_mtz 0.0
niggasperry 0.0
kaksperry 0.0
zennnnaaa 0.0
katyissmurfy 0.0
dadehoward 0.0
kyledsaavedra 0.0
katysdoritos 0.0
pendejabardera 0.0
rosenilsou 0.0
hackensucks 0.0
gottabesheerio 0.0
ismaellgarcia 0.0
milegendz 0.0
alexskarev 0.0
ladycrystalb 0.0
katyspad 0.0
xcallmechrissyx 0.0
arianastylesss 0.0
jorgebaker 0.0
matty_zee 0.0
katycatzilla 0.0
adorie 0.0
meowwdison 0.0
alvin_koopa 0.0
lexyauditore 0.0
kease_it_raw 0.0
katysking 0.0
chris__kirby 0.0
katysbestfrwend 0.0
katyslildancer 0.0
sssshhh 0.0
conorhughess 0.0
tanimura 0.0
thekatycatlife 0.0
weefififookface 0.0
breakalioz 0.0
hudsonhelper 0.0
lariitaa 0.0
meeeeeooooooooowwwww 0.0
legend__dary 0.0
katyandliam 0.0
_theatrekid 0.0
babybritney 0.0
erinlorimer 0.0
_zacmoore_ 0.0
itscezzurryo 0.0
katycatskp 0.0
larissafilipo 0.0
siaylorswift 0.0
shitkittens 0.0
thefrankradical 0.0
katysprism 0.0
katytinalevine 0.0
serjeeoh 0.0
kayz_perry 0.0
katyslaysurfav 0.0
fuckyeahitskath 0.0
sweetyitosan 0.0
pickerington 0.0
verrado 0.0
retweete 0.0
jameswaterhouse 0.0
hunnah 0.0
truth_ispeak 0.0
_emilybarbarrr 0.0
nbllrrr 0.0
jmoneygraves 0.0
eaglenationnews 0.0
tauentzienstrasse 0.0
avontbh 0.0
vinnie_mate 0.0
demilovve 0.0
coolestkatycat 0.0
terri_katycat 0.0
beeeaaatttt 0.0
laurenfrancisco 0.0
victaytayp 0.0
aylajaye 0.0
iloveu 0.0
augustvaz 0.0
lizzievang_ 0.0
edsssss_ 0.0
hhhhhholly 0.0
holly_hickin 0.0
trixxx 0.0
killah 0.0
treasurefingers 0.0
最強ガール宣言 0.0
voykovic 0.0
annunaki 0.0
katyshomie_ 0.0
katyselephant 0.0
caitlynsmith 0.0
lightsperry 0.0
elizagilham 0.0
ohmyjatyfeels 0.0
junglescope 0.0
drunkskaty 0.0
malikpom 0.0
dancerlaurena 0.0
brirad 0.0
elisa_rv 0.0
moooom 0.0
pattymeagher 0.0
iwasemily 0.0
shahrzadphoto 0.0
tvjohnny 0.0
cstonethebreadwinner 0.0
katysrightboob 0.0
cyberdlck 0.0
beatforkaty 0.0
igabriiel 0.0
duuuuddddeeeee 0.0
redrum 0.0
srbuhiii 0.0
kayleighcat 0.0
applekatycat 0.0
ikatycats 0.0
wehryspencer 0.0
emilyjonesphoto 0.0
coxgabe 0.0
drugmoneyx 0.0
steven_drum 0.0
victoriacha 0.0
hashtaggin 0.0
perryandemetria 0.0
katycatfurlife 0.0
iammelissalynn 0.0
qewtie 0.0
yscheecat 0.0
slayty 0.0
katystree 0.0
katherynsboy 0.0
anapurry 0.0
nenedez 0.0
kevinn_perry 0.0
gloria_swag_ 0.0
andyamaziing 0.0
roarsana 0.0
brighthudson 0.0
fixingperry 0.0
roooooooooooooar 0.0
gretschusa 0.0
katys_cupcake 0.0
wonderation 0.0
kasek_craig 0.0
katysgurll 0.0
pepperperry_ 0.0
teamkatyperry 0.0
meandnutella 0.0
lovatokitten 0.0
katyslolly 0.0
astixxx 0.0
ravemomentz 0.0
erzaabrianto 0.0
katyperryindo 0.0
seeingdaisies 0.0
gillian_e_dubbs 0.0
samanthachazene 0.0
perryprism_ 0.0
katycompletesme 0.0
ltskatyperry 0.0
kittenscks 0.0
nihanofficial 0.0
momcat 0.0
kaytehperreh 0.0
__grazi 0.0
clairekatycat 0.0
fangurl 0.0
rrrrrrrrrrrroooooooooooooaaaaaaaaaaaaar 0.0
marispiva 0.0
mattdrobins 0.0
deihemmings 0.0
rooaaarr 0.0
katycatobsessed 0.0
katycatnick 0.0
tigerkats 0.0
kristenanzelc 0.0
taylermckellop 0.0
essesfadaperry 0.0
imjare 0.0
smganonymous 0.0
roaaaar 0.0
phuckyotweet 0.0
evvvvvverrrr 0.0
melvynmarrero 0.0
zouisashton 0.0
trillneyspears 0.0
rooooooar 0.0
fanwars 0.0
fentyncold 0.0
ttish_ 0.0
rachelacogan 0.0
makesmariana 0.0
kkaplon 0.0
rafaelmoncada 0.0
yaaaassssgrl 0.0
oioianna 0.0
katycatrazan 0.0
megaan_katycat 0.0
thekaelynn 0.0
hannahloupunton 0.0
thumbelinafairy 0.0
nic_kathryn 0.0
dannahfields 0.0
rodneybroaddus 0.0
noxisanasshole 0.0
soedesh__ 0.0
hookerofversace 0.0
thinkingofkaty_ 0.0
msgracevalerie 0.0
francfernandez 0.0
katysring 0.0
a_little_spark 0.0
laaxiss 0.0
