awesome 0.000673531439352
christmas 0.000488513446001
trying 0.000358185849778
launch 0.000135135967392
moment 0.000498630689044
wonderful 0.000185697088859
seeing 0.000339669230143
hanging 0.000277870552491
sounds 2.93962059009e-05
recommend 0.0
worked 2.97964668801e-05
direct 7.80324290424e-05
others 0.000148178282426
currently 0.0
better 0.000572402940494
please 0.0010498309237
social 0.000123462067813
anxiety 0.0
around 0.000299830111688
people 0.000572402940494
morning 0.00205534649277
traditional 5.23064475197e-05
general 0.000105960059342
damage 0.000134788128191
everything 0.000164427719422
twitter 0.000302264469675
present 3.12030727581e-05
though 5.70715796169e-05
friend 0.00176337649122
watched 0.000309495148098
beautiful 0.000197606674867
anything 0.000222811764914
previous 0.0
helped 0.000150197377346
updated 4.35593750148e-05
thinking 0.000224016509763
finally 0.000168012382322
caught 9.25965508598e-05
believe 0.00043729362944
already 0.00024597766656
couple 8.98746949349e-05
orlando 0.0
chance 0.00030145081894
meaning 4.0527666415e-05
growing 6.57323029968e-05
probably 0.0
password 0.0
changed 5.86337084415e-05
history 0.000366983824752
center 0.000107757315176
museum 0.0
behind 0.000245315545926
screaming 0.0001013947077
pretty 0.000168012382322
really 0.000712520117495
little 0.00062860959232
happiest 5.80228593585e-05
earlier 0.000128262867987
forget 0.000249988364274
someone 0.00055254259142
safety 0.0
program 3.81261017007e-05
things 0.000245315545926
related 4.02896100296e-05
visiting 0.000264597642914
available 0.000113835601536
perfect 0.000285357898085
different 0.000111405882457
search 3.66350973707e-05
connect 0.000256116170699
numbers 3.42547683673e-05
person 0.000192350117066
watching 0.00110211030701
exhibit 0.0
passed 0.000100239416224
prefer 0.0
minutes 0.000311363460964
travel 0.000100516140172
outside 0.000174010425685
looking 0.0005466170368
forward 0.000309688428051
agreed 3.67389347643e-05
raising 0.00023477730348
listened 0.0
afraid 3.54189573953e-05
impression 0.0
christian 4.80521493226e-05
profile 7.49541762273e-05
instant 5.62637146312e-05
drawing 9.77030808469e-05
wheels 0.0
favorite 0.000731493036641
picture 0.000145794202721
instead 0.000216058618673
appreciate 3.22415710446e-05
international 0.0
station 0.0
toddler 7.23278048422e-05
market 3.69478038545e-05
couldn 2.85357898085e-05
remember 0.000274046199037
vintage 0.0
holidays 0.00011738865174
friends 0.00126742685306
everyone 0.000685115497591
florida 8.08167566692e-05
always 0.000981262183705
months 5.72257934843e-05
moving 0.000235806314121
meeting 0.000252699060871
answer 0.000224621387441
sweetie 0.0
together 0.000439657410436
inside 0.000171214738851
section 4.2127876098e-05
missed 0.000388870788871
button 0.0
longer 0.0
enough 0.000138508524734
driving 0.000100516140172
building 6.15635543101e-05
enjoying 0.0
london 3.25967198198e-05
exploring 0.0
posting 0.0
amazing 0.00032797022208
attention 3.10337723201e-05
gordon 5.44115642176e-05
progress 0.0
tomorrow 0.00326114976853
george 0.00013626192368
feeling 0.000258212001773
excited 0.000457806347874
understand 0.000149386146294
following 2.87677680842e-05
asleep 0.00010104858231
learning 6.7942655726e-05
evening 3.13734313307e-05
special 0.000663051109704
secret 0.00027628464451
across 0.0001224602617
surprised 6.53724695731e-05
anymore 0.0
sophia 9.00930650766e-05
precious 0.000173389969628
rejoice 0.0
version 6.05693401443e-05
rather 3.07817771551e-05
avatar 6.94175999334e-05
showing 5.84754657592e-05
saying 0.000200290277195
tweeted 7.24473177475e-05
thoughts 0.000523443166064
exactly 5.92713129703e-05
except 0.0
getting 0.000712520117495
nothing 0.000219236959229
tweets 9.06080796592e-05
course 2.83057691786e-05
photos 0.000165691365276
looked 0.000124473164378
difficult 0.0
stages 0.0
office 0.000177813938911
decisions 0.0
brought 0.000303668942156
biggest 0.000112918099924
thrilled 0.000250501025906
something 0.000438473918458
closing 0.0
anyone 0.000386779813994
taking 0.000356260058747
recently 0.000142471666192
interesting 3.05320903751e-05
original 0.0
flying 0.000103336138542
happening 0.0
sometimes 9.06080796592e-05
lessons 0.0
village 0.0
stopped 6.43070044052e-05
yesterday 0.000414406943565
service 0.000512056356981
serious 0.000146584271104
digital 4.06474788404e-05
hoarder 0.0
wearing 0.000225074515418
british 0.0
either 0.0
second 0.000138135647855
checking 7.10365108783e-05
indeed 7.47408117054e-05
island 7.75818928767e-05
hearing 0.0001224602617
choose 3.22415710446e-05
staying 0.0002223170501
another 0.00035530107392
clothes 4.54972566638e-05
slowly 0.0
weekend 0.000361094303952
hashtag 4.04083783346e-05
delivery 0.0
theory 0.0
working 0.000328855438844
bigger 0.0
screen 3.70528416834e-05
riding 9.48581971738e-05
laughing 9.75224935946e-05
wanted 0.000166210229681
trends 6.2186756973e-05
stripes 7.78402323211e-05
clothing 0.0
current 3.23299253614e-05
adorable 0.000103518920554
grateful 0.000107455015946
friendship 0.000375389894879
family 0.00145244485489
listening 0.000120157901877
stream 0.0
expressions 8.02975062739e-05
wedding 0.000541130505195
sharing 0.0
double 0.000248270178561
especially 0.0
middle 3.1459011567e-05
waiting 0.00011231069372
definitely 0.0
walking 0.000262929211987
account 3.21535022026e-05
completely 0.000162537489324
thought 0.000248644166139
reaction 0.000149908352455
accept 0.000105076030747
simple 0.000127563960904
professional 0.0
friendly 0.000122303460722
supposed 0.000182143009079
business 0.000147778028351
absolutely 0.000117267416883
anywhere 7.30633080954e-05
sending 0.000572472811284
introducing 0.0
congrats 0.000632890897853
beauty 7.84867197194e-05
community 0.000270271934784
greatest 0.000149791158225
selfie 0.000123030326385
posted 0.000291767103089
saturday 0.000173541146461
wednesday 3.30472636789e-05
confused 0.0
expression 0.0
chicago 0.0
closest 0.000104612895039
relationship 0.000184215846214
actually 0.000336932081161
easter 0.000112431264341
basket 0.0
myself 0.0
argument 0.0
school 0.000835544118426
thursday 0.000175901125324
selling 7.49541762273e-05
talented 0.000108060736113
celebrate 0.000121138680289
falcon 0.0
celebrating 6.53724695731e-05
contest 0.000250025603704
experiences 0.0
students 0.000145303750915
internet 0.0
figure 3.27760446961e-05
opened 0.000160214459057
featuring 3.56179165479e-05
inspired 0.000231967911386
sitting 0.000123798059239
playing 8.35544118426e-05
street 6.07337884312e-05
points 0.000140492861757
memory 0.0
forever 6.18990296197e-05
imagine 0.0001221283615
problem 5.87924118018e-05
played 0.0
canadian 0.0
pulling 4.66697936978e-05
keeping 0.000183690392551
lovely 0.000103336138542
dressed 4.42357690993e-05
specifically 0.0
unlike 0.0
disappointed 0.0
otherwise 3.89033477642e-05
afternoon 9.67247131337e-05
planned 3.93576463285e-05
strange 0.0
images 0.0
noticed 0.0
notice 0.0
stretch 0.00010104858231
inspiration 0.000150336758238
letting 6.73816089307e-05
system 3.42547683673e-05
possibility 0.0
almost 0.000109618479615
details 0.00011983292658
experience 8.58386902264e-05
living 0.000143064483711
weather 0.000105076030747
normal 3.67389347643e-05
launching 4.46498117371e-05
before 5.94318861814e-05
captured 0.0
colors 5.26773006265e-05
monday 0.000314741864163
example 0.0
realize 0.000118072938986
autographed 7.04728523435e-05
sleeping 0.0
authentic 0.0
science 3.86790067209e-05
tweeting 9.38643568546e-05
forgot 0.000137399629288
chasing 0.000113820325412
gorgeous 0.00017804439012
herself 0.0
happens 0.000170293363471
silence 0.0
learned 6.34347527446e-05
congratulations 0.000302026932197
natural 0.000389033477642
raised 7.16366772971e-05
babies 0.0
mission 0.000334424572643
smelled 0.0
ironic 0.0
testing 4.80521493226e-05
deleted 0.000108823128435
barely 4.7738843771e-05
unforgettable 6.35431205156e-05
forgotten 0.0
trouble 3.38774989136e-05
fantastic 0.000355629178975
loving 0.000775918208674
complete 9.4377034701e-05
nearly 7.20404907417e-05
spirit 0.000319664298952
launched 4.08886953074e-05
finding 0.000167526900286
mercury 0.0
stories 0.000148178282426
including 6.08987342931e-05
mature 0.0
stuffed 0.0
ancient 0.0
bottle 4.27692535223e-05
somewhere 0.0
wouldn 2.95556056702e-05
choice 2.92377328796e-05
conversation 0.000333212085263
making 0.000683271296
expect 9.85984544951e-05
occasions 0.0
subject 0.0
flights 5.56322435428e-05
location 0.0
vacation 4.91779788506e-05
seriously 6.05693401443e-05
spending 0.00013626192368
groups 0.0
childhood 0.0
modern 7.89448280099e-05
welcome 0.000193911934628
moments 0.0001703274046
degrees 0.000102801613287
jacket 9.67381960871e-05
halloween 0.000246792393128
costume 5.42133285592e-05
totally 0.000189785894259
laughed 0.0
flight 0.000131464605994
kidding 4.28993601315e-05
regular 8.12949576808e-05
context 9.2448321237e-05
running 0.00074796197019
finished 0.000131104178784
strong 0.000225836199848
tracking 6.46790049898e-05
respond 8.27552565785e-05
message 0.000348962110709
coming 0.0009565798144
thankful 0.000992713382414
cheese 0.000130278261907
greens 0.0
issues 3.26862347865e-05
intolerance 9.08398866667e-05
happen 8.37799894992e-05
giving 0.000498630689044
turkey 0.000119809136874
excellent 7.14358867726e-05
limits 0.0
common 0.000101632496741
pressed 0.0
situation 3.58183386485e-05
options 0.000171077014089
health 0.000323299253614
insurance 9.45510720474e-05
change 0.000246641579133
singing 0.000146540389483
august 3.86790067209e-05
crying 8.63229028186e-05
mental 4.07678202407e-05
happened 5.76910699851e-05
demand 7.22435247409e-05
generally 0.0
personal 0.00011918586752
beyond 0.000214305457976
bruised 0.0
question 0.000140010318602
chicken 0.0002755035243
reward 0.0
tunnel 6.46790049898e-05
losing 0.000101351975544
respect 8.98746949349e-05
caption 5.80228593585e-05
shouldn 3.27760446961e-05
visited 0.000129090272267
reason 2.88455349926e-05
simply 0.000137019073469
darlin 0.0
audience 3.79080422746e-05
involved 6.3781980452e-05
unhappy 0.0
reality 6.51934396395e-05
extremely 0.0
without 0.000414406943565
falling 0.0
countdown 0.000149528470765
locations 0.0
timing 0.0
crabby 0.0
classic 0.000100793803762
highly 0.0
online 0.000176854735591
finger 4.66697936978e-05
animals 0.0
planets 7.92878618534e-05
called 0.000137763788376
delicious 0.000679405513691
almond 0.0
compliment 0.0
pictures 3.46373330035e-05
camera 7.16366772971e-05
pillow 6.77448492019e-05
checked 3.89033477642e-05
heading 3.25967198198e-05
theater 0.0
paying 0.0
planning 0.000178089582739
complex 4.50702408881e-05
sunday 0.000169834615071
nights 0.0
descending 0.0
traffic 0.000205660327607
opposite 0.0
through 0.0
lookout 0.0
reached 4.06474788404e-05
harder 0.0
random 3.99363789581e-05
changes 0.000101632496741
speaking 0.000219614019315
recorded 4.16254234766e-05
washed 0.0
november 0.0
answered 4.32934481945e-05
enchanted 0.0
number 5.61553468602e-05
adventures 0.0
eclipse 0.0
chocolate 0.000504016703517
unless 6.75679836961e-05
calling 0.000460284289348
mermaid 0.0
distraction 6.8401682982e-05
levels 0.0
option 3.97034093102e-05
shopping 0.000374628811289
former 0.000206672277083
actual 7.28572036315e-05
covers 0.0
mountain 0.0
friday 0.000472200243629
winner 0.000152246835733
closes 0.0
quality 0.0
father 0.000124812291032
wishes 0.00028574354709
hourly 0.0
matter 2.93962059009e-05
themselves 9.57900927854e-05
usually 0.0
period 0.0
parents 0.000295795363485
balance 0.0
publishing 0.0
mobile 0.0
woohoo 0.0
bracelets 9.9710017091e-05
summer 0.000472889690724
reminded 0.0
impressed 0.000166004977186
necklace 0.000456134439964
shutdown 0.0
dinner 0.00042398538101
single 0.000112918099924
packed 0.000179717504254
definition 4.50702408881e-05
energy 6.51934396395e-05
preview 3.90162145212e-05
monster 0.0
material 4.68199719449e-05
admission 0.0
europe 0.0
holiday 9.46345840435e-05
emotional 3.9472414005e-05
update 0.000159891068028
customers 0.0
messing 0.0
holding 9.72557010296e-05
electric 0.0
eating 0.000239783378571
outfit 0.000225054858525
picked 0.0
fabulous 0.000334171906397
missing 0.000409328260314
surprise 5.86337084415e-05
officially 0.000127912854423
french 3.52214399884e-05
global 0.0
follow 0.000468396880479
opinion 0.000142871773545
backwards 0.0
design 0.000124132884868
secrets 0.0
request 0.0
breaks 3.61217623705e-05
allows 0.00010315908713
promoting 0.0
volunteer 5.73498058321e-05
wondering 3.7264139508e-05
official 5.66115383572e-05
sweater 0.0
jersey 9.21544414645e-05
mistake 3.79080422746e-05
france 0.0
proper 0.0
ginger 0.0
peaceful 0.0
lighter 7.73742845153e-05
thinks 0.0
competition 0.0
hospital 3.99363789581e-05
industry 0.0
trending 0.0
leadership 0.000171597440526
organized 0.0
showed 0.0
circle 0.0
success 0.000185697088859
ladies 0.000300673516475
dreams 3.60202453709e-05
protect 0.000245862508075
onesie 0.0
explanation 0.0
control 9.18451962753e-05
coincidence 0.0
discovering 0.0
laying 5.6692972052e-05
invited 0.0
healthy 0.000297266286794
surgery 0.000102801613287
allowing 4.80521493226e-05
arrived 0.000265106184441
opening 5.95929337602e-05
popular 0.0
pleasure 0.000103049721966
spectacular 5.00115998729e-05
animal 4.11320655213e-05
luggage 0.0
wonder 2.97159430907e-05
matters 0.000108060736113
reader 0.0
function 0.0
marketing 0.0
connection 8.92996234743e-05
improves 0.0
benefit 6.86998146442e-05
continues 0.0
cuddle 0.0
routine 0.0
exciting 3.28661514984e-05
corner 0.0
imagination 0.0
sangria 0.0
mystery 9.96856471766e-05
spring 0.000245177405076
beautifully 5.42133285592e-05
places 6.53724695731e-05
feedback 0.0
continue 0.000158154911882
attend 4.12545703697e-05
creative 0.000154716026884
memories 0.0
female 0.000109594962143
grandma 0.0
closer 0.000103049721966
accent 5.99034175734e-05
beginning 0.0
sooner 0.0
everywhere 0.0
scenes 0.000139711287575
bought 0.000134021520229
wishing 0.000357330683791
discovered 9.1282189804e-05
remove 4.72755360237e-05
predict 0.0
parrot 0.0
several 3.9472414005e-05
teacher 8.17773906148e-05
passing 3.70528416834e-05
become 8.58386902264e-05
spread 6.2576237903e-05
netflix 0.0
season 0.000151013466099
putting 5.75355361685e-05
weight 0.000127919294997
outfits 0.0
notification 0.0
annoying 0.0
necessity 0.0
knocks 0.0
processed 0.0
necessarily 0.0
effects 0.000152614567152
lighting 6.06434797628e-05
headed 3.62236588737e-05
returns 0.000146955739057
expected 0.0
bucket 0.000154738630695
constantly 0.0
sweetest 0.000131728581974
struggling 0.0
register 0.0
transition 0.000159159807329
flowers 0.0
sprain 0.0
savage 0.0
somebody 0.00016355478123
covering 0.0
gloves 0.0
repeat 0.0
managers 0.0
brothers 0.000210006959799
patriots 0.000118841950387
seahawks 0.000148636543209
player 0.000229414734623
chemistry 5.99034175734e-05
moonlight 0.0
comment 3.53200197808e-05
columbia 6.61688448022e-05
physical 0.00022820547451
kingdom 0.0
pretend 0.0
charles 4.3963193999e-05
fighting 9.36092182743e-05
rooting 5.48124138371e-05
donald 3.93576463285e-05
mexico 0.0
police 0.000282560158246
represent 0.0
president 0.000852582280103
talking 0.000686964703806
unbelievable 0.0
shrimp 0.0
giants 0.000371372883768
conference 6.7942655726e-05
america 0.000554017970338
everybody 6.75679836961e-05
houston 0.0
everyday 0.000155613391057
michael 3.09495148098e-05
protecting 4.88515404234e-05
unconditional 0.0
million 0.00020137437659
election 0.00011339898982
telling 0.000155591455472
correct 7.06400395615e-05
pulled 4.11320655213e-05
starbucks 0.0
americans 0.000533765423809
killed 0.00018319254225
cowboys 0.0
cowboy 0.0
coverage 0.000111474857548
dallas 0.0
coffee 0.000241788310996
timeline 0.0
refuse 0.0
barackobama 0.000792969549622
hillary 0.000196057083815
clinton 4.4789235483e-05
gatorade 9.08398866667e-05
sharper 0.0
american 0.000407122462494
deserved 4.1875492046e-05
realist 0.0
illegal 0.0
arizona 5.42133285592e-05
waffle 0.0
scared 8.03427139799e-05
pieces 0.0
taught 0.000242450270008
golden 0.0
straight 3.03668942156e-05
massage 7.43182716047e-05
filter 0.0
answers 0.0
smoking 5.46112521648e-05
created 3.29565571629e-05
beside 0.0
worlds 0.0
record 0.000228903173937
freddie 8.41585144877e-05
africa 4.54972566638e-05
recruiting 0.0
journey 0.000142471666192
snapchat 0.0
brother 0.000267305109929
prayers 0.000428993601315
trolling 0.0
hungry 4.40991408288e-05
nflnetwork 0.0
documentary 0.0
boston 0.000356289002626
addition 4.7738843771e-05
church 0.00012487627043
honestly 0.0
lounge 6.43905654423e-05
lifetime 0.0
captain 4.65204383495e-05
favorites 0.000389518205268
country 0.000254751922607
valley 0.0
huddle 0.0
dressing 0.000159729648302
finish 6.73816089307e-05
favourite 0.0
prayer 0.000363860878577
nominated 8.22641310427e-05
praying 0.00118153800725
insane 0.0
national 0.000325992221337
reform 0.0
shooting 3.42547683673e-05
australia 4.06474788404e-05
deserve 3.35979345872e-05
legend 0.0
mother 6.10641807501e-05
realest 0.0
creating 7.53834269944e-05
powerful 0.000233891971188
chilling 0.0
wisdom 0.000184896642474
breaking 0.000235806314121
parked 0.0
angeles 4.7738843771e-05
dollars 4.59310687313e-05
questions 0.000196543714011
racist 0.0
girlfriend 5.77966565426e-05
performance 0.000190304258234
refreshing 0.0
educated 0.0
reading 0.000319881934817
denver 0.0
videos 0.000105960059342
harmony 0.0
create 0.0
jordan 0.0
admire 0.0
nobody 6.71958691744e-05
government 8.20202175898e-05
politics 0.000116372839315
paradise 0.0
recover 0.0
spotted 0.0
blessing 0.00040616001551
coolest 9.70579305272e-05
banana 5.84809757369e-05
donate 7.38956077089e-05
sandwich 0.000305229134305
lookin 5.96611290191e-05
method 0.0
bullshit 0.0
slight 0.0
bringing 0.00024625421724
deserves 0.000182143009079
regret 4.82101629992e-05
celebs 0.0
victim 0.0
stadium 4.63718969307e-05
funniest 0.0
according 0.0
pumped 0.00010922250433
hamburger 0.0
heaven 0.0
honest 0.00010219644276
rolling 0.0
became 0.0
feature 0.0
waking 0.0
breakfast 0.000206672277083
counting 0.0
signing 3.59191050586e-05
adding 4.34260873024e-05
awareness 0.000667137117615
kindest 9.23978697217e-05
trainer 7.01165429184e-05
facebook 0.000146584271104
insanity 0.0
repost 0.0
brazilian 0.0
campaign 9.5412135214e-05
borrow 0.0
scorpion 0.0
popcorn 0.0
factory 0.0
teenage 0.0
endorsement 0.0
williams 4.36933177064e-05
custom 0.000110030142298
drinks 0.0
future 8.46885749428e-05
angels 0.000238644516076
fingers 0.0
sister 0.000147372676971
earrings 0.0
warrior 5.8250955107e-05
dancing 0.000115369491161
voting 6.75679836961e-05
individuals 5.52192465072e-05
presence 0.000108823128435
commercial 0.000263089326916
chopped 0.0
religion 0.0
century 0.0
submit 9.48581971738e-05
serving 0.000141368501278
because 0.0
aggressive 0.0
sensitive 0.0
smiling 9.67381960871e-05
besides 0.0
cleveland 5.40165242178e-05
hometown 0.0
killing 0.0
breath 9.30408766989e-05
phillips 0.0
instagram 7.60337078553e-05
sharks 0.0
cousin 5.38211306722e-05
honored 0.000418185393204
dedication 5.77966565426e-05
lifting 0.0
lyrical 0.0
talent 7.30633080954e-05
goodnight 5.24912433657e-05
stores 0.000298050515601
rushing 0.0
brains 0.0
sandwiches 0.000210349628755
drinking 0.0
brazil 0.0
tattoo 0.0
ravens 0.0
regardless 0.0
skills 7.60337078553e-05
cameras 0.0
phones 0.0
california 0.0
seconds 7.32701947413e-05
listen 8.49173075357e-05
smiled 8.66381579804e-05
kicking 3.86790067209e-05
homies 0.0
billion 3.92433598597e-05
shades 0.000123325124601
shoutout 5.17594602768e-05
grammy 0.0
guilty 0.0
stevie 0.0
ceiling 0.0
carpet 0.0
grammys 7.78402323211e-05
harvard 0.0
panther 0.0
nelson 5.87129540127e-05
mandela 7.51570234096e-05
handle 3.57179433863e-05
sexiest 0.0
promise 0.000292567480784
hosting 0.000107757315176
hahahaha 0.0
longest 4.86897756585e-05
tuesday 0.000186709746567
locker 0.000122808394991
workout 0.000479188944905
ingredient 0.0
leader 0.000142871773545
pageant 0.0
character 7.32701947413e-05
idiotic 0.0
mirror 4.46498117371e-05
jackson 0.0
interview 0.000696286765355
battles 0.0
bleach 0.0
insight 9.73795513171e-05
obviously 0.000115369491161
replay 0.0
battle 0.000159020225357
stomped 0.0
destroy 4.75835311977e-05
killer 0.0
personally 3.95876669584e-05
winning 0.000116950931518
gettin 0.0
japanese 0.0
writing 3.17173763723e-05
society 0.0
officers 0.000116045718717
brooklyn 0.0
sources 0.0
incredible 0.00106400180413
poster 4.34260873024e-05
celebrity 0.0
memorable 0.0
werent 0.0
chased 0.0
minute 0.000308655169533
confession 8.53701487546e-05
pregnant 5.60515946277e-05
cherry 0.0
twinning 0.0
phoenix 5.6692972052e-05
orange 0.000123030326385
policy 0.00012051407097
comedy 0.000128307760567
illuminati 0.0
reminder 9.88696714888e-05
evidence 0.0
iphone 0.000131079953119
kicked 4.49293760636e-05
intentions 7.55862808304e-05
freedom 0.000381261017007
patient 0.0
utterly 0.0
mississippi 0.0
download 3.86790067209e-05
assistant 0.0
invite 3.87909464384e-05
central 0.000216730574223
washington 7.24473177475e-05
stronger 8.71187500297e-05
promised 0.000134788128191
worried 0.0
throwing 4.49293760636e-05
security 0.000108977813186
cologne 0.0
headphones 0.0
sanctuary 0.0
fantasy 5.19405724573e-05
monkey 0.0
approve 5.42133285592e-05
spinach 0.0
turning 0.000102764305102
helping 0.000271088659578
tickets 0.0
collector 0.0
physically 0.0
slavery 0.000274944529467
december 0.0
basically 3.99363789581e-05
return 0.000151423350361
yassss 0.0
goddess 0.0
locked 4.60772207323e-05
feelings 4.72755360237e-05
language 7.66918393789e-05
motion 9.64203259984e-05
obsessed 0.0
creation 0.0
followers 3.54189573953e-05
schools 7.78066955283e-05
gallery 0.0
movies 4.10101087949e-05
foster 5.6692972052e-05
children 0.000512056356981
nation 0.000585571451736
theaters 5.8250955107e-05
between 0.0
knowledge 0.0
begins 0.000131104178784
robinthicke 0.0
faithful 0.000162691985144
peeing 0.0
closet 0.0
bodies 0.0
italian 5.14008066434e-05
highlights 0.000123763711109
spanking 0.000109733195445
forbes 0.0
parade 0.000303145746929
tasted 0.000168317028975
consider 7.26518754575e-05
reunion 5.50150711489e-05
latest 0.000385263534307
dedicated 0.000326688555885
beyonce 0.0
perform 0.000175311687384
signed 0.000271824238978
tuxedo 0.0
princess 0.000110438493014
shelter 6.16625623007e-05
germany 4.16254234766e-05
explaining 0.0
married 0.00016211066566
millions 0.0
blessings 7.11997562981e-05
iconic 0.0
indonesia 0.0
braids 0.0
dollar 9.21544414645e-05
rigged 0.0
replied 0.0
lights 0.000157430585314
turned 0.000120157901877
excuses 6.08947007383e-05
jackie 0.0
charge 7.58160845493e-05
performing 0.000131889581997
ticket 3.67389347643e-05
steady 0.0
whispers 0.0
finest 0.0
confucius 0.0
diamonds 0.0
vancouver 0.0
addicts 0.0
collection 3.75841895594e-05
families 0.000210152061494
select 4.88515404234e-05
hitting 3.65316540477e-05
announced 3.33212085263e-05
decided 0.000196656268176
jewels 0.0
lottery 6.52652057092e-05
owners 0.0
respects 0.0
celebration 0.000115369491161
memorial 0.00013353329259
landed 0.0
pastor 8.53701487546e-05
ultimate 0.000158813637241
incase 0.0
rapper 7.6916168137e-05
episode 0.000130744939146
bounce 0.0
disney 0.000165657739522
muffin 0.0
kansas 0.0
sherman 0.0
retweet 0.000416805828736
midnight 0.000147791215418
patience 0.0
cereal 0.000209294493488
joining 0.000515865136713
released 6.3781980452e-05
release 3.00394754693e-05
models 0.0
classics 0.0
popped 0.0
mileycyrus 0.0
highlight 4.32934481945e-05
scholarship 0.0
within 0.0
hahahahaha 0.0
standing 0.0
higher 0.0
purple 0.000102093621962
skinny 6.8401682982e-05
justice 3.68431692427e-05
served 0.000206888141446
speaks 0.000118763000875
horses 0.0
houses 0.0
purchase 9.39419644171e-05
dropped 0.000101351975544
conversations 0.0
consideration 0.0
seattle 0.000100023199746
cookie 0.000220060284596
slurpee 0.0
strength 0.000189540211373
screens 0.0
monica 0.0
incredibly 7.73580134419e-05
streets 0.0
boyfriend 0.0
private 0.0
skittles 0.000195380070261
barbie 0.0
apologizes 0.0
designer 0.0
impress 0.0
cooking 0.000608659635283
exclusive 0.00013002999146
fashion 0.000197938334792
petite 0.0
talkin 0.0
peaches 0.0
bitches 0.0
nailed 0.0
weirdest 0.0
whomever 0.0
teaching 4.17501709844e-05
disgusting 5.36271278398e-05
chillin 0.0
philly 5.12232341399e-05
rights 0.000221686823127
dinosaur 0.0
exotic 0.0
dancers 0.0
cheers 4.23826189137e-05
presents 8.95784709659e-05
flawless 0.0
dating 5.42133285592e-05
victory 0.0001956477529
marley 0.0
productive 0.0
smurfs 0.0
halftime 6.46790049898e-05
insecure 0.0
horror 5.44115642176e-05
warning 7.91753339168e-05
discovery 0.0
convention 0.0
understanding 7.89448280099e-05
action 0.000176377235405
having 5.14008066434e-05
speaker 0.0
clever 4.68199719449e-05
theatre 0.0
honors 0.0
evolution 0.0
produce 0.0
spider 0.0
apologize 0.000151572873465
formation 0.0
letter 3.3783991848e-05
therapy 0.0
untrue 7.19465778882e-05
written 3.34131387412e-05
communication 0.0
disease 0.0
marching 0.0
suggest 4.23826189137e-05
georgetakei 0.0
hairstyle 0.0
humans 4.59310687313e-05
journal 5.6692972052e-05
foundation 3.90162145212e-05
access 0.0
venture 0.0
syndrome 0.0
writes 0.0
colorado 0.0
medicine 5.52192465072e-05
tremendous 5.17594602768e-05
nytimes 4.15012442965e-05
kindness 0.000116045718717
cannot 0.000977026892002
reveals 4.08886953074e-05
invented 0.0
sapphire 0.0
candidate 8.71187500297e-05
sexual 0.0
madison 0.00012078910615
illustration 7.87967263519e-05
newark 0.0
globally 0.0
incorrect 0.0
headline 0.000171597440526
reflect 0.0
streaming 4.4789235483e-05
leaders 0.000119809136874
supreme 0.000141826608071
protest 0.0
policies 0.0
silenced 0.0
defend 0.000134367706449
communicating 0.0
climate 0.0
wrapped 5.14008066434e-05
studio 0.000152504406803
conspiracy 0.0
interviews 0.0
differentiation 0.0
confusing 0.0
february 4.02896100296e-05
hamilton 0.0
loneliest 0.0
amazon 0.000747022397337
scattered 0.0
francis 0.0
headlines 0.0
january 0.000113724126824
diversity 0.0
universal 0.0
hurricane 0.000174068578076
identifying 0.0
countries 0.0
tickled 0.0
becker 0.0
connected 0.0
suggestion 0.0
filled 0.000192282485268
education 0.000110529507728
mentioned 4.02896100296e-05
defining 7.01165429184e-05
exists 0.0
unexpected 0.000105729273283
plants 0.0
orders 4.91779788506e-05
olympics 9.70579305272e-05
ability 7.96392904684e-05
director 6.83199206625e-05
content 4.27692535223e-05
cycling 0.0
previously 0.0
correction 0.000277124814131
pearls 0.0
ambassador 0.0
preparing 0.0
depend 0.0
downloads 0.0
lovers 5.50150711489e-05
weekly 0.0
hudson 0.000158575723707
bridge 4.40991408288e-05
becoming 0.000140492861757
magazine 0.0
appropriate 0.0
shakespeare 0.0
travesty 0.0
discoveries 0.0
fellow 0.000173669095307
reviewed 0.0
copies 0.000104245792199
driven 4.96750859335e-05
aussies 0.0
result 7.89448280099e-05
announcing 0.0
visual 0.0
restrictions 0.0
culture 0.0
edition 7.32701947413e-05
prince 3.97034093102e-05
shocks 0.0
symmetry 0.0
clicks 0.0
disagree 8.47652378275e-05
experiments 0.0
mistakes 9.77030808469e-05
trolls 0.0
blossoms 0.0
offered 4.50702408881e-05
inspiring 0.000258634626981
counter 0.0
approach 4.07678202407e-05
embarrassing 0.0
creators 0.0
edited 0.0
berniesanders 0.0
overnight 0.0
spotlight 5.60515946277e-05
probable 0.0
repeating 7.04728523435e-05
concerns 0.0
massive 3.47338190614e-05
promising 5.99034175734e-05
promises 5.21228960996e-05
colored 0.0
production 0.000131079953119
header 0.0
itunes 4.52118374812e-05
secretary 4.7738843771e-05
highway 6.77448492019e-05
dangerous 3.67389347643e-05
letters 0.0001013947077
typically 6.80712876291e-05
saving 7.94068186203e-05
pioneer 0.0
visuals 0.0
universe 0.0
ordering 6.52652057092e-05
victims 0.000357330683791
privacy 0.0
disclosure 0.0
proceeds 5.48124138371e-05
musical 0.0
collide 0.0
melbourne 7.55862808304e-05
correctly 0.0
campus 0.0
debate 0.000352214399884
conflict 0.0
meanwhile 0.0
petition 0.000246713379625
contribution 0.0
stated 0.0
humanity 4.66697936978e-05
illness 0.0
flawed 0.0
breathe 5.34344960637e-05
winners 0.0
spanish 0.0
comedic 0.0
awards 0.000142871773545
presidential 0.000136923284706
candidates 0.0
glasgow 0.0
smells 0.0
treasure 0.000117425908025
greater 4.46498117371e-05
themed 6.49705295107e-05
distribution 0.0
absurd 0.0
squirrel 7.47344214114e-05
sisters 0.000156368688299
stress 5.05242911549e-05
leading 0.0
resolution 0.0
achieved 0.0
interacting 0.0
boiling 0.0
examples 0.0
diverse 0.0
suicide 0.0
parallel 0.0
minneapolis 0.0
impairs 0.0
pumping 0.0
slides 0.0
choreography 0.0
element 0.0
serves 6.27212306245e-05
jumping 0.0
rising 4.40991408288e-05
believed 0.0
features 8.73866354128e-05
environment 0.0
revealed 0.0
classical 0.0
confirmed 0.0
origins 0.0
combination 0.0
consumption 0.0
worldwide 0.0
deaths 0.0
responsible 0.0
overwhelmed 0.000195795617128
household 6.14041974954e-05
munich 0.0
alternate 0.0
blockers 0.0
restaurant 4.53541734855e-05
canada 3.64286018158e-05
versions 0.0
technology 9.15713924226e-05
identify 5.87129540127e-05
combined 0.0
santiago 0.0
branches 0.0
october 0.0
netherlands 0.0
belgium 0.0
european 0.0
imperial 0.0
perspective 0.0
cities 0.0
guinea 0.0
americas 8.13459925718e-05
posters 0.0
elastic 0.0
flames 0.0
presumably 0.0
exquisite 0.0
spreading 9.36399438897e-05
happiness 4.75835311977e-05
ashamed 0.0
naturally 0.00012078910615
malbec 0.0
wasting 0.0
hidden 0.0
coffin 0.0
freudian 0.0
genius 7.26518754575e-05
cultured 0.0
malaysia 0.0
traveling 0.000154738630695
prepared 8.27552565785e-05
county 0.0
quinoa 0.000189831430878
district 5.84809757369e-05
chosen 0.0
toilet 0.0
yorkers 0.0
ignores 0.0
messages 0.000136923284706
creativity 5.84809757369e-05
conventional 8.35723137683e-05
berlin 0.0
montreal 0.0
wonders 0.0
upcoming 0.0
lonely 6.32663944547e-05
australian 5.32432161006e-05
positions 0.0
singapore 0.0
scratch 0.0
deficiency 0.0
elevated 0.0
triggers 0.0
delicate 0.0
barrier 0.0
reflection 5.8250955107e-05
sydney 0.0
separates 0.000101891763817
centuries 0.0
israel 0.0
overwhelming 0.0
assault 0.000104612895039
protection 0.000284574591522
picker 0.0
additional 5.69101627061e-05
machine 7.36863384855e-05
samples 0.0
contrary 0.0
immediate 0.0
michelle 0.000105354601253
inspire 4.65204383495e-05
lyrics 0.0
missyelliott 0.0
constant 0.0
tuning 0.0
pandora 0.0
preshow 0.0
buenos 0.0
poland 0.0
philippines 0.0
nicely 0.0
september 7.66918393789e-05
manchester 0.0
checks 0.0
screenshot 0.0
universalorl 0.0
remarkable 9.42456675188e-05
rihanna 0.0
disgusted 7.97880095167e-05
flattered 0.0
fiction 0.0
angela 0.0
bitmoji 0.0
process 6.96612957536e-05
genuine 4.95083742036e-05
performances 5.36271278398e-05
comedians 0.0
flotus 6.94175999334e-05
strangers 0.0
hungover 0.0
confidence 0.0
studios 5.84809757369e-05
stjude 0.0
memphis 0.0
mikeypiff 0.0
chancetherapper 0.0
scream 0.0
jennifer 0.000108823128435
disappoint 0.0
newcastle 0.0
castle 0.0
literally 6.75679836961e-05
chrisrock 0.0
gentlemen 0.0
mtvnews 0.0
hillaryclinton 0.000108823128435
iamrashidajones 0.0
champagne 0.0
raleigh 0.0
ijessewilliams 0.0
acknowledge 0.0
buzzfeed 0.0
puppet 0.0
rehearsal 6.11482586865e-05
billboard 5.75723154994e-05
austria 0.0
sweden 0.0
republic 0.0
grilled 0.0
waltdisneyworld 0.0
katyperry 0.0
ronanfarrow 0.0
measly 0.0
bragging 0.0
treats 0.000524258595963
literal 0.0
cooper 0.0
counts 4.53541734855e-05
theellenshow 0.0
basking 0.000116583343909
cookies 0.000626011789767
festival 0.0
amsterdam 6.97648311626e-05
soundcheck 0.0
downloaded 6.64768399761e-05
encouraged 0.0
alright 0.0
jtimberlake 0.0
backstage 0.000196711915403
collab 0.0
joined 0.000201587607523
issarae 0.0
playlist 0.0
madness 0.0
romantic 0.0
selfies 0.000120295758296
exclusively 0.0
disneyland 0.0
refused 0.0
characters 4.35593750148e-05
amazingly 0.0
auction 5.46112521648e-05
express 0.000126764849724
gratitude 0.000290114296793
sesamestreet 0.0
thegrammys 8.53701487546e-05
throughout 8.6586896389e-05
awkward 0.0
shining 5.52192465072e-05
thrown 0.0
stylist 0.0
fighter 5.77966565426e-05
accepting 5.00115998729e-05
playin 0.0
applemusic 0.0
filmed 0.0
makeawish 0.0
bieber 0.000230748504411
remixes 0.0
toronto 0.0
capitolrecords 0.0
shazam 0.0
anthem 0.000249214117942
cosmopolitan 0.0
khloekardashian 0.0
cookin 0.0
songwriters 0.0
reveal 3.98196452342e-05
stands 3.79080422746e-05
spotify 0.0
phvegas 0.0
rocked 5.73498058321e-05
glasses 5.018142773e-05
iambeckyg 0.0
relive 0.0
acoustic 0.0
announce 9.51521291169e-05
although 0.0
isaacfromct 0.0
shampoo 0.0
interactive 0.0
todayshow 0.0
haters 0.0
appreciation 5.9182918808e-05
floating 0.000191468054526
shondarhimes 0.0
showtime 0.0
premiere 8.90221950599e-05
broadway 0.0
makeup 0.000587129540127
starring 0.0
newest 8.81982816576e-05
designed 0.0
arianagrande 0.0
aladdin 0.0
swaggy 0.0
owning 0.0
producer 0.0
legendary 0.0
jasmine 0.0
costumes 0.000139529662325
square 0.000110843411563
emojis 0.0
jessica 0.0
magical 0.0
thedoctorluke 0.0
thirsty 0.0
therealjuicyj 0.0
symbols 0.0
privilege 5.05242911549e-05
spiral 0.0
retrograde 0.0
footage 0.0
theirs 0.0
universes 0.0
remembering 4.46498117371e-05
floated 0.0
construction 5.71290978822e-05
consciousness 0.0
delights 0.0
explodes 0.0
submissions 0.0
pleased 0.0
shredding 0.0
filters 0.0
weasel 0.0
reflective 0.0
firework 0.0
islands 0.0
interstellar 0.0
bubble 0.00010315908713
customs 0.0
festive 0.0
window 0.000120160844292
senator 0.0
slightly 4.71228337594e-05
therealbuzz 0.0
printing 0.0
snowflake 0.0
applications 0.0
elephant 0.0
fifteen 0.0
editions 0.0
newspaper 0.0
rainbow 5.58411126329e-05
unlimited 0.0
sirius 0.0
matthew 0.000156368688299
affected 4.2127876098e-05
capturing 0.0
canyon 7.64656242779e-05
rivers 6.71034717777e-05
spoken 0.0
accidentally 0.0
bizarre 0.0
dolphin 0.0
successfully 0.0
liquid 0.0
graffiti 0.0
swallowing 0.000106861354065
messenger 0.0
heroes 0.000166501693906
disturbing 0.0
graduates 0.0
rewrite 0.0
describe 0.0
hollywood 0.0
equality 9.83559577013e-05
announcement 0.000105076030747
breakout 0.0
dreaming 6.06434797628e-05
animation 0.0
calendar 0.000106486432201
circling 0.0
garden 0.000163071280963
enhanced 0.0
journalists 0.0
stirring 0.0
nominations 5.58411126329e-05
yelling 6.19233995341e-05
teachers 0.0
chapter 0.000136491769991
napoleon 0.0
aliens 0.0
subjects 0.0
revolution 0.0
mountains 0.0
wonderland 0.0
storage 0.0
crystals 0.0
circuit 0.0
invitation 5.73498058321e-05
kettle 0.0
adjective 0.0
woodpecker 0.0
operate 7.64656242779e-05
exhibition 0.0
learnt 0.0
nomination 0.0
madonna 0.0
questioning 0.0
unplug 0.0
initiatives 8.13459925718e-05
switzerland 0.0
represents 0.0
throat 0.0
touchdown 0.0
desire 0.0
forced 4.1875492046e-05
swedish 0.0
hundred 0.0
prompts 0.0
rainbows 0.0
creates 0.0
oxford 0.0
balloons 0.0
liverpool 0.0
recreate 0.0
glorious 0.0
newton 0.0
creature 0.0
finalist 0.0
scouts 0.0
treading 0.0
tragedy 0.000179156941932
nottingham 0.0
debacle 0.0
legends 0.0
noises 0.0
addiction 6.0394553075e-05
survived 5.46112521648e-05
idioms 0.0
greeted 0.0
basics 0.0
masses 0.0
confirm 0.0
cadence 0.0
spaghetti 8.08167083126e-05
prepare 4.04083783346e-05
calendars 0.0
narrative 0.0
application 0.0
octopus 0.0
drumming 0.0001112911785
bloody 0.0
confetti 0.0
translate 0.0
birmingham 0.0
singles 0.0
completes 0.0
laptop 6.11482586865e-05
obvious 0.0
darling 0.0
deserving 0.0
miller 0.0
ordered 0.00012051407097
feelin 0.0
alicia 0.0
picasso 0.0
recipe 0.00125202357953
alphabetical 0.0
butterfly 0.0
timothy 0.0
mancini 0.0
untold 0.0
directed 0.0
hacked 0.0
admits 0.0
clocks 0.0
nugget 0.0
cnnopinion 0.0
grabbed 0.0
russia 4.23826189137e-05
surprises 0.0
waterfalls 0.0
olympic 0.0
magnificent 0.0
casual 0.0
assume 4.4789235483e-05
relief 9.0708346971e-05
subscribe 0.0
landslide 0.0
telegraph 0.0
standby 0.0
admitting 0.0
complacency 0.0
voices 0.0
sounding 0.0
douglas 6.08947007383e-05
democracy 0.0
locals 0.0
gossip 0.0
nickname 0.0
subtle 6.46790049898e-05
embarrassed 0.0
ireland 0.0
mornings 0.00034200841491
democratic 0.0
impressions 0.0
outgoing 0.0
treasury 0.0
refugees 0.0
unveiling 0.0
listing 0.0
deliver 0.0
negotiating 0.0
roller 0.0
prosperous 0.0
desperate 0.0
acknowledgement 0.0
executive 4.54972566638e-05
republicans 5.56322435428e-05
weapons 0.0
dropping 0.0
meaningful 0.000356525851161
nightmare 0.0
goodies 0.000153832336274
scandalous 0.0
rhetoric 0.0
divisive 0.0
vision 8.08167566692e-05
confirmation 0.0
throne 0.0
records 0.0
quoting 0.0
impatient 0.0
refugee 0.0
texted 0.0
exposed 0.0
stoked 0.0
priority 0.0
freedoms 0.0
notorious 0.0
empowering 7.27144394507e-05
unconstitutional 0.0
turkish 0.0
concerned 0.0
realdonaldtrump 0.00061858590557
goodwill 0.0
imagined 0.0
belfast 0.0
sleeve 0.0
basement 0.0
preposterous 0.0
griffith 0.0
timeless 0.0
truman 0.0
intended 0.0
inappropriate 6.8401682982e-05
industries 0.0
responsibility 4.49293760636e-05
documentaries 0.0
vulnerable 0.0
respectful 7.31066373377e-05
markets 5.96611290191e-05
claire 0.0
nuggets 7.92878618534e-05
boards 0.0
sequins 0.0
capitol 0.0
technical 0.0
applying 0.0
guitar 0.0
donating 9.868535185e-05
continually 0.0
norway 0.0
applause 0.00012935800998
ballot 0.000113820325412
finely 0.0
shakes 0.0
varied 9.58094769155e-05
proverb 0.0
vibrant 0.0
flower 0.000132953679952
survives 0.0
fierce 0.0
shopped 0.0
sincerely 0.0
apology 5.14008066434e-05
sweaty 0.0
conspiracies 0.0
climbing 7.08338812358e-05
relaxed 0.0
encourage 4.63718969307e-05
funnyordie 0.0
essentials 8.47575997655e-05
jimmykimmellive 0.0
rejectedjokes 0.0
protesting 0.0
releasing 0.0
cleaner 7.35045609433e-05
preferred 0.0
incarceration 0.0
jkcorden 0.0
koppel 0.0
bikini 0.0
transparency 5.96611290191e-05
kamalaharris 0.0
nutshell 0.0
walled 0.0
floored 0.0
plotting 0.0
gandhi 0.0
vilify 0.0
meditate 0.00021946639089
violent 0.0
preschool 0.0
rhythm 0.0
matching 0.0
senwarren 0.0
venezuela 0.0
candle 0.0
donates 0.0
peacefully 0.0
chelseahandler 0.0
experiencing 0.0
sarabareilles 0.000203783527633
haunting 0.0
constitution 6.27212306245e-05
explode 0.0
deeper 0.0
empathy 0.0
mrgaryhuang 0.0
scored 0.0
charitable 0.0
perfume 0.0
giraffe 0.0
noticing 0.0
noodle 0.0
wrongly 0.0
marshmallow 0.000100779067164
fraudulent 0.0
everytime 7.11997562981e-05
helluva 0.0
therapists 0.0
tangible 0.0
sarahksilverman 0.0
johnfugelsang 0.0
exceptional 0.0
miracle 5.64774983379e-05
avocado 8.13459925718e-05
snacks 0.000627883480464
spelled 0.0
parental 8.08167083126e-05
superbowl 0.0
shoulders 0.0
valentine 0.000362833387884
glitter 8.86581399411e-05
stocking 0.0
poehler 0.0
thumbs 0.0
tinatbh 0.0
educational 0.0
voicemail 9.23978697217e-05
thetweetofgod 0.0
esteem 0.0
teaches 0.0
goodbye 4.28993601315e-05
reminding 6.01478791482e-05
supplies 6.77448492019e-05
ryanseacrest 0.000896813056937
okmagazine 0.0
shoots 0.0
bowing 0.0
jennyslate 0.0
craigyferg 0.0
masterpiece 0.0
sneaky 0.0
nashville 0.000178262925581
chronicles 0.0
potato 6.49705295107e-05
freakin 0.0
perezhilton 0.0
unethical 0.0
paparazzi 0.0
mantra 0.0
consuming 0.0
unauthorized 0.0
vanityfair 0.0
stalking 0.0
shoulda 0.0
yeppers 0.0
sacred 7.1570609405e-05
existed 6.29924496073e-05
earned 4.82101629992e-05
woulda 0.0
ellenpage 0.0
choker 0.0
contribute 0.0
mustache 0.0
washes 0.0
creeps 0.0
champion 4.34260873024e-05
auntie 0.0
magazines 8.41585144877e-05
waited 0.0
conscious 0.0
cracker 0.0
denmark 0.0
potion 0.0
windex 0.0
scarfing 0.0
ladygaga 0.000209294493488
purposely 0.0
pretending 5.58411126329e-05
luckiest 0.0
mascara 0.0
tastes 0.000134844548084
gardening 9.23978697217e-05
leashes 0.0
hippie 0.0
womensmarch 0.0
reunited 6.61688448022e-05
clique 0.0
premiering 0.000126532788909
rollingstone 0.0
childrensla 0.0
dollywood 0.0
godmother 0.0
eltonofficial 0.0
vmagazine 0.0
donorschoose 0.0
yesssssss 0.0
bettemidler 0.0
rehearsing 0.0
trevorproject 0.0
unicef 0.0
ellemagazine 0.0
yasssss 0.0
acceptance 0.0
solidarity 0.0
pharrell 0.0
greece 6.74222740421e-05
papermagazine 0.0
johnmayer 0.0
lipstick 0.0
tumblr 0.0
coldplay 0.0
colorful 0.0
translifeline 0.0
newsstands 0.0
feminist 0.0
pitchfork 0.0
labels 0.0
jenner 0.0
arkansas 0.0
beanie 0.0
sparkly 0.0
moschino 0.0
britneyspears 0.0
itsjeremyscott 0.0
nickiminaj 0.0
appstore 0.0
poetry 0.0
puttin 0.0
rubbed 0.0
shrine 0.0
skyferreira 0.0
freaking 0.0
besties 9.40503321881e-05
chanel 0.0
bedazzled 0.0
rubber 0.0
kendricklamar 0.0
popstar 0.0
sosadtoday 0.0
copenhagen 0.0
lenadunham 0.0
wearin 0.0
stoned 0.0
facetime 0.0
barclays 0.0
meditation 0.0
harpersbazaarus 0.0
stared 0.0
ritual 0.0
iconapop 0.0
doubted 0.0
staples 7.87967263519e-05
anaheim 8.53701487546e-05
jingle 0.0
tacoma 0.0
rehearsals 0.0
treadmill 0.000257990341668
metamorphosis 0.0
dental 0.0
jodyhighroller 0.0
versace 0.0
werking 0.0
couture 0.0
eggplant 0.0
bangin 0.0
cardigans 0.0
obnoxious 0.0
bestie 0.0
teganandsara 0.0
barrel 0.0
dedicating 0.0
jefferson 0.000147816759855
pumpkin 0.000251969798429
derekblasberg 0.0
glamourmag 0.0
presale 0.0
mtvstyle 0.0
deluxe 0.0
mtvema 0.0
reggae 0.0
azealiabanks 0.0
nominating 0.0
sailor 0.0
mornin 0.0
itunesmusic 0.0
bananas 0.000135489698404
lordemusic 0.0
vietnam 0.0
milwaukee 0.0
neworleans 0.0
circus 0.0
strolling 0.0
rapids 0.0
collegegameday 0.0
aaaaand 0.0
godfather 0.0
bestow 0.0
allison 8.93661611219e-05
rockthevote 0.0
birbigs 0.0
lucille 0.0
louder 0.0
farmers 0.0
shaved 0.0
niagara 0.0
realmattlucas 0.0
ferguson 7.35045609433e-05
painful 0.0
exchange 5.12232341399e-05
nickkroll 0.0
edmonton 0.0
mickey 0.0
angelenos 0.0
pooping 0.0
located 0.0
onslaught 0.0
finalists 6.61688448022e-05
bumped 6.87361323668e-05
sherlock 0.0
stockholm 0.0
casually 0.0
jjwatt 0.0
itstonybennett 0.0
mariolopezextra 0.000282150996564
klgandhoda 0.0
entrance 0.0
calgary 0.0
bowling 6.61688448022e-05
winnipeg 0.0
cheeto 0.0
gloriasteinem 0.0
feather 0.0
nathan 0.0
smelling 0.0
narnia 0.0
llamas 0.0
actuallynph 0.0
mourning 0.0
obsession 0.0
chilled 0.0
medically 0.0
hyperloop 0.0
aussie 0.0
flaring 0.0
eyeballs 0.0
stuffing 9.49157154392e-05
pitched 0.0
condiments 0.0
relatable 0.0
olivia 7.78402323211e-05
painted 6.14041974954e-05
mykonos 0.0
eyebrow 0.0
capitalcities 0.0
jackpot 0.0
hipster 0.0
sweating 0.0
restaurants 0.0
superfan 0.0
restraint 0.0
craziest 0.0
catheter 0.0
delivers 0.0
kanyewest 0.0
paints 0.0
dissect 0.0
billboards 0.0
milano 0.0
bjnovak 0.0
snapping 0.0
croissant 0.0
repjohnlewis 0.0
blklivesmatter 0.0
mydaughtersarmy 0.0
huddled 0.0
yearning 0.0
thereaibanksy 0.0
affordable 0.0
foodie 0.0
colombia 0.0
peeled 0.0
shootings 0.0
playground 0.000146213274675
breaky 0.0
photoshoot 0.0
smokin 0.0
accents 0.0
sweats 0.0
postmates 0.0
armband 0.0
unconscious 0.0
maddow 0.0
aquarium 0.0
holler 0.0
photoshop 0.0
robbie 0.0
espnmag 0.0
laundry 0.0
examining 0.0
zealand 0.0
stuntin 0.0
hehehe 0.00021946639089
nostalgia 0.0
buttons 0.0
slaying 0.0
monument 8.02975062739e-05
bringin 0.0
lining 0.0
muchas 0.0
gracias 0.0
madame 0.0
illustrated 7.19465778882e-05
boxers 0.0
grazie 0.000106861354065
winters 0.0
plastic 5.8250955107e-05
unbreakable 0.0
licking 0.0
cheeky 0.0
twerking 0.0
danish 0.0
drummer 8.59967805561e-05
florence 0.0
revoir 0.0
resume 0.0
dodger 0.0
brazilians 0.0
grimezsz 0.0
crocodile 0.0
hahahahahaha 0.0
parisians 0.0
taipei 0.0
taiwan 0.0
bangkok 0.0
uploaded 0.0
manila 0.0
hamburg 0.0
curating 0.0
aaaand 0.0
skating 0.0
brisbane 0.0
googleplay 0.0
raincoat 0.0
glastofest 0.0
vienna 0.0
burning 4.80521493226e-05
jamming 0.0
reaches 0.0
subtitles 0.0
wristband 0.0
barcelona 0.0
credits 0.0
dreamers 0.0
bogota 0.0
bursting 9.32115803831e-05
brunomars 0.0
beyoncé 0.0
subscribers 0.0
unlock 0.0
onedirection 0.000191618953831
amazonmusic 0.0
snippets 0.0
preorder 0.0
rehearse 0.0
bahnhof 0.0
delorean 0.0
fragrance 0.0
curate 0.0
samsmithworld 0.0
guitars 0.0
storyline 0.0
registering 0.0
beatsbydre 0.0
panama 0.0
celestial 0.0
orchestra 0.0
finland 0.0
climbed 0.0
topping 0.0
méxico 0.0
vasconcelos 0.0
leicester 0.0
itunesfestival 0.0
pondering 0.0
millennials 7.39083799274e-05
struck 0.0
watermelon 0.0
benefited 0.0
sophisticated 0.0
couples 0.0
villain 0.0
mindful 0.0
catholic 0.0
airline 6.77448492019e-05
secretly 6.24526837933e-05
playlists 0.0
veggie 9.00930650766e-05
receipts 0.0
foremost 0.0
bagpipe 0.0
drifting 0.0
trader 0.0
influenced 0.0
moscow 0.0
cobain 0.0
reaper 0.0
commune 0.0
handshake 0.0
despair 0.0
silicon 0.0
investing 6.80712876291e-05
construct 0.0
garland 0.0
coachella 0.0
offline 0.0
realisation 0.0
payback 0.0
educate 0.0
alliances 0.0
etched 0.0
momentarily 0.0
pronoun 0.0
lenses 9.86813182952e-05
validated 0.0
authenticity 9.86813182952e-05
choreographed 0.0
pokemon 0.0
disneyworld 0.0
patriotic 0.000142399512596
embody 0.0
snickers 0.0
impactful 0.0
refocus 0.0
eminem 0.0
mahatma 0.0
ecstatic 0.0
snfonnbc 0.0
avenue 0.0
picchu 0.0
doubters 0.0
beverly 0.0
intensity 0.0
outtake 0.0
temple 7.11997562981e-05
purchased 0.0
fountain 0.0
punched 0.0
goldfish 0.0
comparable 0.0
buyers 0.0
barbara 0.000128781130885
corybooker 0.0
listens 0.0
timeout 9.00930650766e-05
inducing 0.0
signage 0.0
penthouse 0.0
ahahaha 0.0
phenom 0.0
brilliantly 0.0
siphoning 0.0
herstory 0.0
prostitute 0.0
survivors 0.000134206943555
courageous 0.0
cruelty 0.0
margot 0.0
xenophobic 0.0
mcginley 0.0
yorkshire 0.0
chants 0.0
alancarr 0.0
chained 0.0
skillz 0.0
debunked 0.0
floods 0.0
fleetwood 0.0
cheesecake 8.86581399411e-05
adidas 0.0
uneven 0.0
raging 0.0
connections 0.0
headlining 0.0
devhynes 0.0
charli_xcx 0.0
shawnmendes 0.0
tavitulle 0.0
bahjournalist 0.0
tyleroakley 0.0
marquee 0.0
grease 0.0
screenshots 0.0
ddlovato 0.0
chattyman 0.0
grimmers 0.0
vevo_uk 0.0
bonniemckee 0.0
electrifying 0.0
idolator 0.0
onairromeo 0.0
godven 0.0
lookie 0.0
preordered 0.0
elvisduran 0.0
shanghai 0.0
tripped 0.0
konnichiwa 0.0
etnad_olegnad 0.0
unannounced 0.0
swedes 0.0
cinderella 0.0
slipper 0.0
jessesaintjohn 0.0
adorbs 0.0
onesies 0.0
jahnsuxx 0.0
walgreens 0.000206103646532
aphrodite 0.0
danceonfox 0.0
difficulties 0.0
mermaids 0.0
antique 0.0
girlshbo 0.0
yaaaaasss 0.0
lifesaving 0.0
queens 0.0
yaaaas 0.0
rollin 0.0
bestest 0.0
cleanse 0.000598260102546
iamtovelo 0.0
glamour 0.0
emelisande 0.0
lashes 0.0
austrian 0.0
magritte 0.0
misogynoir 0.0
litter 0.0
spiritual 0.0
preaching 0.0
adelaide 0.0
sheffield 0.0
impending 0.0
starve 0.0
excess 0.0
conciousness 0.0
vitamins 0.0
generator 0.0
purposefully 0.0
profiles 0.0
petals 0.0
persist 0.0
alexis 0.0
covergirl 0.0
sneezed 0.0
cushion 0.0
demconvention 0.0
directv 0.0
flo_tweet 0.0
billclinton 0.0
grounded 0.0
sunrise 0.0
fightin 0.0
sagekotsenburg 0.0
pwease 0.0
sadder 0.0
waterfall 0.0
sighting 0.0
firsts 0.0
muller 0.0
burritos 0.0
bungee 0.0
potting 0.0
dipping 0.0
closets 0.0
scratched 0.0
decorating 0.000376201328752
summers 0.0
havana 0.0
fresher 0.0
mowing 0.0
invading 0.0
addict 0.0
aesthetics 0.0
footwear 0.0
protector 0.0
hammock 0.0
repurpose 0.0
mishap 0.0
hamster 0.0
cellar 0.0
groove 0.0
mentored 0.0
exaggerate 0.0
scraping 0.0
apropos 0.0
trolled 0.0
jonlovett 0.0
rheabutcher 0.0
sickening 0.0
flustered 0.0
compiled 0.0
shirley 0.0
subtweet 0.0
pantsuit 0.0
patting 0.0
atrocious 0.0
amoeba 0.0
platter 0.0
aficionado 0.0
bearer 0.0
manifest 0.0
transformation 0.0
thighs 0.0
tapper 0.0
foaming 0.0
sophie 0.0
sabbath 0.0
vibrations 0.0
nutella 0.0
wilder 8.35723137683e-05
distractions 0.0
stripping 0.0
downloading 8.13459925718e-05
judith 0.0
crossroads 0.0
parsons 0.0
stella 0.0
narcissism 0.0
fawcett 0.0
trainers 0.0
surrounding 0.000136142575258
longtime 7.97880095167e-05
frosting 0.0
laurent 0.0
savory 0.000123156766312
acupuncture 0.0
cancelling 0.0
nutcracker 0.0
ballet 0.0
tempura 0.0
burner 0.0
voguemagazine 0.0
lagged 0.0
cuttlefish 0.0
passwords 0.0
funfetti 0.0
anagasteyer 0.0
gabbana 0.0
budapest 0.0
montage 0.0
crowns 0.0
scheduling 0.0
possessed 0.0
syncing 0.0
creatively 0.0
hieroglyphics 0.0
halftimes 0.0
floppy 0.0
nessie 0.0
feathers 0.0
kaceymusgraves 0.0
roaring 0.0
rightful 0.0
balconies 0.0
prodigy 0.0
raquin 0.0
gianni 0.0
monsieuradi 0.0
drowned 0.0
tropicana 0.0
diesel 0.0
shabbat 0.0
voiceless 0.0
passover 0.0
elevating 0.0
traumatic 0.0
dreamer 0.0
iwillharness 0.0
classrooms 0.0
eligibility 0.0
counselors 0.0
wainwright 0.0
moveon 0.0
runaway 0.0
baghdad 0.0
zaralarsson 0.0
snooze 0.0
iggyazalea 0.0
harviikills 0.0
bolognese 0.0
babysitting 0.0
mohegan 0.0
hooters 0.0
crusts 0.0
tracksuit 0.0
cupcake 7.87967263519e-05
xfactor 0.0
vitamin 8.79680452869e-05
lichtenstein 0.0
concourse 0.0
hitchcock 0.0
teller 0.0
pastels 0.0
remnants 0.0
banger 0.0
lyrically 0.0
boogers 0.0
ritaora 0.000109733195445
bumpin 0.0
dabbed 0.0
sleepin 0.0
tinashe 0.0
octaviaspencer 0.0
linder 0.0
musicallyapp 0.0
scavenger 0.0
sanging 0.0
corinthians 0.0
hollywoodbowl 0.0
kraken 0.0
discontinue 0.0
cypress 0.0
schooling 0.0
maritime 0.0
narration 0.0
zeitgeist 0.0
sampler 0.0
pseudo 0.0
bangladesh 0.0
hungary 0.0
mumble 0.0
sisterhood 0.000104263457533
soulful 0.0
lennykravitz 0.0
londontown 0.0
andradaymusic 0.0
lipsticks 0.0
realization 9.76900351303e-05
unconditionally 0.0
wildfire 0.0
goldie 0.0
minnie 0.0
solitude 0.0
waddle 0.0
westworldhbo 0.0
statuesque 0.0
uncasville 0.0
demented 0.0
skyway 0.0
twentyonepilots 0.0
rejoicing 0.0
clenching 0.0
adelphia 0.0
entirety 0.0
redhourben 0.0
lakewood 0.0
drjillstein 0.0
entail 0.0
whammy 0.0
smokers 0.0
gobble 0.0
topshop 0.0
cleowade 0.0
mkives 0.0
sweetbabayjamie 0.0
marchesafashion 0.0
hamsters 0.0
gurrrl 0.0
sofifii 0.0
sumthin 0.0
nicomiz 0.0
maisonvalentino 0.0
coziest 0.0
accessorize 0.0
thejgold 0.0
peruvian 0.0
amazeballs 0.0
sendin 0.0
fantabulous 0.0
timelines 0.0
regina 0.0
slovakia 0.0
graves 0.0
embracing 0.0
larsson 0.0
cullen 0.0
psychiatric 0.0
officialadele 0.0
butters 0.0
verrrry 0.0
buttered 0.0
winged 0.0
pedialyte 0.0
topanga 0.0
armpit 0.0
kittens 0.0
dueling 0.0
eagerly 9.23978697217e-05
surrealist 0.0
dethroned 0.0
manolos 0.0
señorita 0.0
monterrey 0.0
parque 0.0
retiree 0.0
batches 0.000125754662844
reservations 0.0
sickos 0.0
aplusk 0.00054503932
kirkherbstreit 0.0
fanbases 0.0
indexing 0.0
chuckles 0.0
incorporated 0.0
washboard 0.0
earbuds 0.0
pantone 0.0
knotts 0.0
dismaland 0.0
pollock 0.0
iamkidpresident 0.0
mariah 0.0
teevee 0.0
santorini 0.0
appalachian 0.0
sunburnt 0.0
caliente 0.0
juicery 0.0
karlihenriquez 0.0
trillest 0.0
tommorrow 0.0
crumpets 0.0
fishin 0.0
grillin 0.0
jambalaya 0.0
pepperoni 0.0
cashew 0.0
graceland 0.0
pussies 0.0
delicately 0.0
eraser 0.0
choreo 0.0
snatched 0.0
elliptical 0.0
mooore 0.0
unborn 0.0
georgina 0.0
stalkers 0.0
sallykohn 0.0
expectancy 0.0
phillipines 0.0
appstoregames 0.0
wilkinson 0.0
puddings 0.0
loveland 0.0
spaced 0.0
shanny 0.0
dripping 0.0
gerber 0.0
shakey 0.0
weaves 0.0
unbeatable 0.0
linguist 0.0
prosthetics 0.0
battleship 0.0
serotonin 0.0
machiavellian 0.0
girlies 0.0
guangzhou 0.0
debuting 0.0
dissecting 0.0
warped 0.0
luckyjess 0.0
ermahgerd 0.0
fabulousness 0.0
elliegoulding 0.0
activewear 0.0
yelyahwilliams 0.0
prismatic 0.0
evaluations 0.0
skywalk 0.0
sparklers 0.0
palettes 0.0
gemmaanningram 0.0
trueeee 0.0
invisalign 0.0
pounded 0.0
lolgop 0.0
procession 0.0
stanning 0.0
squeals 0.0
continual 0.0
luminary 0.0
cummin 0.0
shaves 0.0
epixhd 0.0
preacher 0.0
boogiecousins 0.0
changers 0.0
autismspeaks 0.0
massaged 0.0
psssssst 0.0
literati 0.0
utilization 0.0
endangerment 0.0
purposeful 0.0
unlabeled 0.0
undiagnosed 0.0
snotty 0.0
gallops 0.0
slovenia 0.0
sequin 0.0
akerlund 0.0
jumbotron 0.0
edibles 0.0
knowles 0.0
caeser 0.0
thehollywoodbowl 0.0
elvispresley 0.0
adoring 0.0
ageist 0.0
thérèse 0.0
confessed 0.0
blackvoices 0.0
patties 0.0
graphically 0.0
wildflowers 0.0
groundhogs 0.0
eataly 0.0
poodles 0.0
hillaryforia 0.0
roadshow 0.0
sweety 0.0
boppin 0.0
bettywho 0.0
johnnywujek 0.0
earring 0.0
itsbennyblanco 0.0
curitiba 0.0
purrfect 0.0
shellback 0.0
chokers 0.0
hairbrush 0.0
hakuna 0.0
matata 0.0
hazing 0.0
mathew 0.0
aegean 0.0
lullaby 0.0
musiciansoncall 0.0
headpiece 0.0
morsel 0.0
whistled 0.0
conquest 0.0
viceland 0.0
lambily 0.0
scalped 0.0
graced 0.0
emblazoned 0.0
hrclosangeles 0.0
kawaii 0.0
glittery 0.0
wonderlandmag 0.0
jumpsmokers 0.0
radiodotcom 0.0
missyfranklin 0.0
pleaaaaase 0.0
lilbthebasedgod 0.0
waaaay 0.0
flossy 0.0
aria_official 0.0
berliners 0.0
matriarchy 0.0
cornered 0.0
limping 0.0
peasant 0.0
feasibly 0.0
waaaaay 0.0
slayyy 0.0
fashionistas 0.0
sangin 0.0
worldstarfunny 0.0
pliers 0.0
babyanimalpics 0.0
mediation 0.0
quests 0.0
aaaaaaah 0.0
honked 0.0
rauschenberg 0.0
whitneymuseum 0.0
lonsdale 0.0
transcendental 0.0
roarin 0.0
facetune 0.0
fausto 0.0
herning 0.0
cazzette 0.0
annnnnnnnnd 0.0
shinier 0.0
giambattista 0.0
katys_teddybear 0.0
gnight 0.0
katheryn 0.0
psychoanalysis 0.0
bckgrnd 0.0
kingman 0.0
gracevanderwaal 0.0
fecking 0.0
ihrcountdown 0.0
stubbies 0.0
xfactor_italia 0.0
aaronpauley 0.0
purity_ring 0.0
scorpios 0.0
ayyyye 0.0
capitalizes 0.0
flamin 0.0
motherfucking 0.0
jingled 0.0
pharrellhat 0.0
ontarioglow 0.0
teached 0.0
umusic 0.0
auroramusic 0.0
dailymendeslife 0.0
soloing 0.0
universalse 0.0
dustinkloeppel 0.0
robynkonichiwa 0.0
charli 0.0
lonelydot 0.0
adamselman 0.0
sorrenti 0.0
offish 0.0
vinoodh 0.0
guitarists 0.000150730258524
cocking 0.0
cabbages 0.0
amelia_libman 0.0
flutter 0.0
lolita 0.0
kingladygaga 0.0
breakthecycledv 0.0
howbow 0.0
curveballs 0.0
tamagotchi 0.0
jarryd 0.0
alliseeisgold 0.0
thebroadmuseum 0.0
sarahsowitty 0.0
brillz 0.0
jackgarratt 0.0
markryden 0.0
duffscakemix 0.0
sanrio 0.0
theniceguyla 0.0
trills 0.0
susangkomen 0.0
faustopuglisi 0.0
gurlll 0.0
cheesecakes 0.0
scorpio 0.0
oblivia 0.0
skipmarley 0.0
correcto 0.0
jessirklein 0.0
unpatr 0.0
squish 0.0
greg_wells 0.0
onlyleah 0.0
gittin 0.0
popstars 0.0
krafts 0.0
bouche 0.0
problemo 0.0
wheezing 0.0
patmcgrathreal 0.0
cienega 0.0
thundering 0.0
nastialiukin 0.0
janell 0.0
katelyntarver 0.0
miamoretti 0.0
missoni 0.0
dannymoonsworld 0.0
mrchrismcmillan 0.0
madge_freak 0.0
woridstarcomedy 0.0
ikissedasoldier 0.0
kpezandchez 0.0
perrysoldier 0.0
emilynotchez 0.0
iickmekaty 0.0
basicallyadam 0.0
katysangelegg 0.0
nicolasjebran 0.0
xchadballx 0.0
scott_myrick 0.0
lockoir 0.0
shannonwoodward 0.0
calluses 0.0
chamomile 0.0
trollin 0.0
sleighing 0.0
chestercheetah 0.0
royksopp 0.0
scottsimonswvla 0.0
sirenscaiiing 0.0
slowdownkaty 0.0
chefantoniopark 0.0
garnished 0.0
endive 0.0
mdmolinari 0.0
prezzy 0.0
motioning 0.0
hernameisbanks 0.0
rockcampla 0.0
jenniefinch 0.0
getglucky 0.0
stendhal 0.0
ryanphillippe 0.0
hotncolds 0.0
kpcollections 0.0
katie_wignall 0.0
katysdrugx 0.0
evrenperry 0.0
katycatwendy 0.0
yungskeeter 0.0
sarahhudsonuvs 0.0
mothern 0.0
oliverheldens 0.0
marrymemargot 0.0
katyperrylately 0.0
kewlest 0.0
katyshellokitty 0.0
pqgerry 0.0
rasarioatelier 0.0
anakhouri 0.0
romaneperry 0.0
hot_chip 0.0
agador 0.0
freddietinkles 0.0
cynthialovely 0.0
augustgettyatelier 0.0
tbsnetworks 0.0
ronyalwin 0.0
justinandersoncolor 0.0
mmillerrider 0.0
jpgaultier 0.0
harharharhar 0.0
iikeanangel 0.0
vonnypoo 0.0
jcoopkp 0.0
itzmero 0.0
katysprismlight 0.0
hatérs 0.0
awkwardaya 0.0
katysredskittle 0.0
tiedye_princess 0.0
adelshahal 0.0
marinadiamandis 0.0
samadizayee 0.0
itsslatykaty 0.0
johnlordperry 0.0
nuggetperry 0.0
kthnkzbye 0.0
teamkpbrasil 0.0
twenagedream 0.0
ashleyegreer 0.0
perryllover 0.0
perry_slays 0.0
_andresgalvis 0.0
poplitics 0.0
likerotica 0.0
sweetxjaureguix 0.0
jessiambriz 0.0
perryncolds 0.0
pwideawake 0.0
brunastrait_ 0.0
anafalqueto 0.0
pessoalmente 0.0
mark_hodson_ 0.0
sumtxkid 0.0
arpoador 0.0
katysmychampion 0.0
amnattg 0.0
osullivanluke 0.0
stephiruth 0.0
katy_pizza_bae 0.0
kpcatt 0.0
pedroeugeniio 0.0
gugs_prismatic 0.0
zeeusmtz 0.0
legendarycold 0.0
robynxkatheryn 0.0
écouter 0.0
energyberlin 0.0
karysjones 0.0
lilzariya 0.0
puroland 0.0
pavlovitz 0.0
dreamhampton 0.0
prismsperry 0.0
perrysmic 0.0
focusonreid 0.0
tonyatalterian 0.0
makeup_man 0.0
wtfkates 0.0
sella_sandra 0.0
katycute_ 0.0
caitsperry 0.0
katyperryforum 0.0
radiantjareau 0.0
lillysgomez 0.0
katycatsweden 0.0
perryicecream 0.0
xamyrosex 0.0
wtvrlara 0.0
bijanstephen 0.0
ameliashowalter 0.0
screamkng 0.0
tvmcgee 0.0
liiife 0.0
itskatcombs 0.0
yaaaaaasssssssssss 0.0
katysmyhabibi 0.0
skottpeace 0.0
ferras 0.0
kweens 0.0
habibi 0.0
orlandobloom 0.0
huckchinn 0.0
katycatkenzie 0.0
matarazzo 0.0
fkatwigor 0.0
perryschild 0.0
hotxcolds 0.0
maddisonxperry 0.0
akaruikaty 0.0
chillinlaidback 0.0
erryone 0.0
chrisanokute 0.0
beyelite 0.0
kuntyewest 0.0
chiroprac 0.0
katyperryrises 0.0
godneybjs 0.0
liquoronurlips 0.0
katystumblrr 0.0
holiestkaty 0.0
hollykittykaty 0.0
katysprincess 0.0
katysdonut 0.0
carlythekatycat 0.0
katycatsophia 0.0
fridaaperry 0.0
iegendarylovers 0.0
katycatveronica 0.0
katyperryslave 0.0
hakimkharbouch 0.0
keonovak 0.0
plaaaaay 0.0
scatting 0.0
shotted 0.0
dizzycoco 0.0
fkinsnapss 0.0
junkygs 0.0
ミニチュア料理 0.0
エビフライとエビ天 0.0
adidasboosts 0.0
lilithia 0.0
cottoncandizzle 0.0
ultimatebeyhive 0.0
paramorewebnews 0.0
royale_lala 0.0
musicnews_feed 0.0
katyperryextra 0.0
greeniight 0.0
gagas_illusion 0.0
lesbiyonce 0.0
blurryhface 0.0
lordofgiraffex 0.0
ifuseekamy_ 0.0
legendarymalek 0.0
hausoframez 0.0
unstan 0.0
chioekardashian 0.0
theiife 0.0
handstomyseif 0.0
legendarylovers 0.0
gagas_fandom 0.0
thinagedream 0.0
conditionalbabe 0.0
dannysuschrist 0.0
prismdluxe 0.0
herwonkeye 0.0
camilasviews 0.0
gagalovesbey 0.0
shadykatyfacts 0.0
limalimoncia 0.0
heavymetaiovers 0.0
katyscrush 0.0
waikingonair 0.0
eduardo_katycat 0.0
katyswetdream 0.0
katherynsgod 0.0
katystddbr 0.0
katyboobies 0.0
royaityler 0.0
nothingfaiis 0.0
kathrynluck_ 0.0
prismaticiights 0.0
mendesperry 0.0
katycatghita 0.0
mark_katycat 0.0
iwasdivine 0.0
skywaterr 0.0
xjojospearsx 0.0
alwaysbeperry 0.0
skoglyrihanna 0.0
legendarydurk 0.0
halseysfirework 0.0
rainbowspatrick 0.0
katysfood 0.0
honeymoonprism 0.0
onepulsetony 0.0
butcha 0.0
okurrr 0.0
the_mpt 0.0
talaofficial 0.0
miniatures 0.0
ohmyjurassic 0.0
katysmoonlight 0.0
lilly_jnes 0.0
coco_ho 0.0
perryhumorr 0.0
yikesjonathan 0.0
rubyrankin 0.0
thealekovski 0.0
cydney_moore 0.0
truebluedeluxe 0.0
thedutchass 0.0
katyskettle 0.0
ferraseu 0.0
katyssunlight 0.0
typosqween 0.0
adoreeeperry 0.0
katyperryfrance 0.0
snowiner 0.0
_coolkatycat 0.0
nicothekatycat 0.0
adorbies 0.0
jackygerardchan 0.0
brewmystew 0.0
katyswildfire 0.0
rihftperry 0.0
theolagu 0.0
ritajoness 0.0
iitsjackie 0.0
mjjperry 0.0
jesuskylie 0.0
holyerotica 0.0
graceofkaty 0.0
redsvelvets 0.0
booyakasha 0.0
tariqterry 0.0
katycatalannah 0.0
taylxre 0.0
pacifyher 0.0
basedkatyperry 0.0
diddleurskittle 0.0
katysanalien 0.0
gagasspace 0.0
tayiorhq 0.0
givenchydress 0.0
augustryder 0.0
perrysmoschino 0.0
kittehn 0.0
katrieber 0.0
legendaryhunty 0.0
katyslegs 0.0
katyfroot 0.0
winesandlines 0.0
sam_incolour 0.0
wakingonair 0.0
drwssinup 0.0
huffdaddysays 0.0
fiwwwwine 0.0
matthewroper 0.0
emmabruhhh 0.0
gingerwesson 0.0
nicholas_sewell 0.0
perfectlyperry 0.0
bustabusta 0.0
mynameisziam 0.0
venuzszfly 0.0
katherynsus 0.0
sacredperry 0.0
thedollsftkaty 0.0
_cafajeff 0.0
debkatycat 0.0
katycats 0.0
eastonjames_ 0.0
oliviabooker_ 0.0
protecti 0.0
outrageousness 0.0
joanneprada 0.0
scuffed 0.0
catoure 0.0
blanged 0.0
tahmorrow 0.0
glukatyperrypop 0.0
jamesjoint 0.0
pressin 0.0
bourree 0.0
honeysuckle 0.0
meowings 0.0
fashun 0.0
happun 0.0
vikander 0.0
thekatyperrypopgame 0.0
karolfabianaros 0.0
nico_thekatycat 0.0
miss_lilyjames 0.0
stylinfunk 0.0
hudsontheband 0.0
jere_my 0.0
crabitat 0.0
tiersz 0.0
unrehearsed 0.0
fanclub_kp 0.0
oneofthesophies 0.0
fusterlandia 0.0
lazyblazy 0.0
katycatchloe 0.0
figali 0.0
prismaticness 0.0
titicaca 0.0
ancientaliens_ 0.0
sneezin 0.0
cristos 0.0
mallman 0.0
prismaticlife_ 0.0
ravensuxx 0.0
perrypositive 0.0
derkwhore 0.0
alekjandro 0.0
havss_ 0.0
hqzaynmaiik 0.0
thique 0.0
bbhmms 0.0
jkatharineb 0.0
jennyformica 0.0
tiiiiiight 0.0
ikissedagay 0.0
harryvuitton 0.0
aeschleahd 0.0
princessjavonda 0.0
errrythang 0.0
kooning 0.0
sugarray 0.0
empaths 0.0
goldenboyz_inc 0.0
voguejp 0.0
chickenwingguardingthemimosa 0.0
katyperrypopup 0.0
unmeasurably 0.0
transviolet 0.0
beauteous 0.0
katyskidrauhl 0.0
thooooooseee 0.0
clairesstores 0.0
nailsbymh 0.0
katysacutie 0.0
psychokatycat 0.0
kaceymusgrave 0.0
refueled 0.0
hyungsunju 0.0
okuurrrr 0.0
cholewheeler 0.0
leftshark 0.0
momchella 0.0
crotches 0.0
hookedondolls 0.0
fyuseapp 0.0
mogonoloball 0.0
atletica 0.0
katycatsclub 0.0
catacombs 0.0
poppycorn 0.0
cupped 0.0
christiania 0.0
residenz 0.0
lindseyweber 0.0
butterballface 0.0
joshlecash 0.0
myassistant 0.0
swiftschrist 0.0
snowhiteperry 0.0
emmakphughes 0.0
katyslegend 0.0
dansnierson 0.0
scressful 0.0
prismaticwitch 0.0
finnin 0.0
habibis 0.0
mophies 0.0
strongé 0.0
drumkit 0.0
anamanaguchi 0.0
gaultier 0.0
ngvmelbourne 0.0
dukedumont 0.0
legendaryasmyn 0.0
highlarious 0.0
calpurnia 0.0
waaaaait 0.0
mktfah 0.0
fwding 0.0
caseyhoops 0.0
worldstarvlne 0.0
flapfkp 0.0
bettycrocker 0.0
mexxxico 0.0
whhhhhhhhuuuuuutttt 0.0
yelletweets 0.0
gucciqxxn 0.0
luckyladyrebelettes 0.0
junglejulia 0.0
charlottes_web 0.0
istarbucksniall 0.0
katysroaaar 0.0
fiorucci 0.0
whuteva 0.0
sirdavidd 0.0
fudgery 0.0
bizquick 0.0
itsgrandtheft 0.0
grandtheft 0.0
katysfancy 0.0
ameezyyrush 0.0
mykectown 0.0
itsvalkubus 0.0
walkslikeperry 0.0
iwantperry 0.0
exausto 0.0
selfeh 0.0
aquaberry 0.0
sidepiece 0.0
versacness 0.0
iamleslii 0.0
alocalgyro 0.0
cutina 0.0
theoutslder 0.0
prism_katy_cat 0.0
katyshoodrat 0.0
thestevetisch 0.0
ronysphotobooth 0.0
schlitterbahn 0.0
kpsnosecrinkle 0.0
alwz_katycat 0.0
whykph 0.0
californiagurls 0.0
katycattt 0.0
varicose 0.0
itsbrillz 0.0
perrystiger 0.0
katysmyaura 0.0
paolablancokp 0.0
callmemargot 0.0
indiggynado 0.0
katycat 0.0
anylinden 0.0
kpkillerqueen 0.0
katyslilacwine 0.0
katypvenezuela 0.0
franzikaty 0.0
katherynelperry 0.0
doessss 0.0
katysleftarm 0.0
datingprism 0.0
_smiler_katycat 0.0
kepyterry 0.0
katycat_camille 0.0
vckatyperry 0.0
bowzerjoe 0.0
taishrox 0.0
mütter 0.0
arianperryarian 0.0
lisasigh 0.0
fridiskp 0.0
kevinruda 0.0
katyperrydaily 0.0
wakingupvegas 0.0
marlyins 0.0
drankin 0.0
herkatycat 0.0
luvhudson 0.0
yaeltsairi 0.0
felipinhoofm_ 0.0
renanmarcall 0.0
kariseperry 0.0
emojing 0.0
konnie 0.0
mcperry 0.0
iturnmycanonon 0.0
katycatelysha 0.0
andrewnavs 0.0
katycatkrystal 0.0
lovelyandlaugh 0.0
lampoonians 0.0
perrytuuda 0.0
katymyhaven 0.0
ruletheschool 0.0
cheapandchic 0.0
sically 0.0
crazyforperry 0.0
kpdaily 0.0
getonupmovie 0.0
cutetina 0.0
chimiuzz 0.0
kefali 0.0
joelkefali 0.0
siclly 0.0
mtvother 0.0
lydiaacav 0.0
prismaticperry 0.0
jwujek 0.0
adorbie 0.0
errone 0.0
kaliyah 0.0
katysweirdness 0.0
vinbiodiesel 0.0
katysfxb 0.0
katyspurrfect_ 0.0
shannonmwoodward 0.0
bippity 0.0
boppity 0.0
swiggty 0.0
swoogity 0.0
pizzarella 0.0
firewerk 0.0
katyslayed 0.0
emerald_epelman 0.0
madkatydisease 0.0
mandee 0.0
ohferras 0.0
sarahh 0.0
iaustinhunt 0.0
lanawhore 0.0
spaceykacey 0.0
crazay 0.0
elektrikpeople 0.0
visa_nz 0.0
fvckin 0.0
nathanspicer 0.0
cashcash 0.0
ashish_uk 0.0
xokatic 0.0
turnting 0.0
scorpiomystique 0.0
toddthomasnyc 0.0
kohngallery 0.0
discnt_universe 0.0
dressinkaty 0.0
lee_cook 0.0
bloodshot 0.0
yaddlizc 0.0
elnett 0.0
itsthekatycats 0.0
kelly_moritz 0.0
katyslaykaty 0.0
skintxghtjeans 0.0
socarrer 0.0
errrday 0.0
therealslacker 0.0
wendywild 0.0
welkys 0.0
sohohouse 0.0
selfing 0.0
camiilaruales 0.0
nexxxt 0.0
turrell 0.0
alliexxxxandra 0.0
surfboardt 0.0
telstra_news 0.0
juanitadele 0.0
oopskatycat 0.0
sophkatycat 0.0
katyschild 0.0
katysconverrse 0.0
katycat_leah 0.0
katycatverified 0.0
katycat_libby 0.0
katyswonk 0.0
kittless 0.0
jlrcukp 0.0
siiiiiiiiiiiiii 0.0
ermagherd 0.0
imlynsey 0.0
perrys_cherry 0.0
casemcgase 0.0
hazzaily 0.0
herses 0.0
gaypropaganda 0.0
tixforcharity 0.0
hudsons 0.0
nomers 0.0
mommacat 0.0
superlove 0.0
bonacorso 0.0
levi_leet 0.0
thinkingofbecki 0.0
cybering 0.0
pamyurin 0.0
idreamofkaty 0.0
xfactor_au 0.0
glohudsonperry 0.0
aubreyplzza 0.0
eeshhuhhayniac 0.0
bonkay 0.0
katysbum 0.0
nevillebradley 0.0
curryswift 0.0
zinepack 0.0
katykatt_suraya 0.0
sweetkatybird 0.0
yohkatheryn 0.0
cottoncandykaty 0.0
karolynadiaz 0.0
maayansharvit 0.0
theprismcess 0.0
camisp_ 0.0
lucasgaldin 0.0
prixy_mtz 0.0
niggasperry 0.0
kaksperry 0.0
zennnnaaa 0.0
katyissmurfy 0.0
dadehoward 0.0
kyledsaavedra 0.0
katysdoritos 0.0
pendejabardera 0.0
rosenilsou 0.0
hackensucks 0.0
gottabesheerio 0.0
ismaellgarcia 0.0
milegendz 0.0
alexskarev 0.0
ladycrystalb 0.0
katyspad 0.0
xcallmechrissyx 0.0
arianastylesss 0.0
jorgebaker 0.0
matty_zee 0.0
katycatzilla 0.0
adorie 0.0
meowwdison 0.0
alvin_koopa 0.0
lexyauditore 0.0
kease_it_raw 0.0
katysking 0.0
chris__kirby 0.0
katysbestfrwend 0.0
katyslildancer 0.0
sssshhh 0.0
conorhughess 0.0
tanimura 0.0
thekatycatlife 0.0
weefififookface 0.0
breakalioz 0.0
hudsonhelper 0.0
lariitaa 0.0
meeeeeooooooooowwwww 0.0
legend__dary 0.0
katyandliam 0.0
_theatrekid 0.0
babybritney 0.0
erinlorimer 0.0
_zacmoore_ 0.0
itscezzurryo 0.0
katycatskp 0.0
larissafilipo 0.0
siaylorswift 0.0
shitkittens 0.0
thefrankradical 0.0
katysprism 0.0
katytinalevine 0.0
serjeeoh 0.0
kayz_perry 0.0
katyslaysurfav 0.0
fuckyeahitskath 0.0
sweetyitosan 0.0
pickerington 0.0
verrado 0.0
retweete 0.0
jameswaterhouse 0.0
hunnah 0.0
truth_ispeak 0.0
_emilybarbarrr 0.0
nbllrrr 0.0
jmoneygraves 0.0
eaglenationnews 0.0
tauentzienstrasse 0.0
avontbh 0.0
vinnie_mate 0.0
demilovve 0.0
coolestkatycat 0.0
terri_katycat 0.0
beeeaaatttt 0.0
laurenfrancisco 0.0
victaytayp 0.0
aylajaye 0.0
iloveu 0.0
augustvaz 0.0
lizzievang_ 0.0
edsssss_ 0.0
hhhhhholly 0.0
holly_hickin 0.0
trixxx 0.0
killah 0.0
treasurefingers 0.0
最強ガール宣言 0.0
voykovic 0.0
annunaki 0.0
katyshomie_ 0.0
katyselephant 0.0
caitlynsmith 0.0
lightsperry 0.0
elizagilham 0.0
ohmyjatyfeels 0.0
junglescope 0.0
drunkskaty 0.0
malikpom 0.0
dancerlaurena 0.0
brirad 0.0
elisa_rv 0.0
moooom 0.0
pattymeagher 0.0
iwasemily 0.0
shahrzadphoto 0.0
tvjohnny 0.0
cstonethebreadwinner 0.0
katysrightboob 0.0
cyberdlck 0.0
beatforkaty 0.0
igabriiel 0.0
duuuuddddeeeee 0.0
redrum 0.0
srbuhiii 0.0
kayleighcat 0.0
applekatycat 0.0
ikatycats 0.0
wehryspencer 0.0
emilyjonesphoto 0.0
coxgabe 0.0
drugmoneyx 0.0
steven_drum 0.0
victoriacha 0.0
hashtaggin 0.0
perryandemetria 0.0
katycatfurlife 0.0
iammelissalynn 0.0
qewtie 0.0
yscheecat 0.0
slayty 0.0
katystree 0.0
katherynsboy 0.0
anapurry 0.0
nenedez 0.0
kevinn_perry 0.0
gloria_swag_ 0.0
andyamaziing 0.0
roarsana 0.0
brighthudson 0.0
fixingperry 0.0
roooooooooooooar 0.0
gretschusa 0.0
katys_cupcake 0.0
wonderation 0.0
kasek_craig 0.0
katysgurll 0.0
pepperperry_ 0.0
teamkatyperry 0.0
meandnutella 0.0
lovatokitten 0.0
katyslolly 0.0
astixxx 0.0
ravemomentz 0.0
erzaabrianto 0.0
katyperryindo 0.0
seeingdaisies 0.0
gillian_e_dubbs 0.0
samanthachazene 0.0
perryprism_ 0.0
katycompletesme 0.0
ltskatyperry 0.0
kittenscks 0.0
nihanofficial 0.0
momcat 0.0
kaytehperreh 0.0
__grazi 0.0
clairekatycat 0.0
fangurl 0.0
rrrrrrrrrrrroooooooooooooaaaaaaaaaaaaar 0.0
marispiva 0.0
mattdrobins 0.0
deihemmings 0.0
rooaaarr 0.0
katycatobsessed 0.0
katycatnick 0.0
tigerkats 0.0
kristenanzelc 0.0
taylermckellop 0.0
essesfadaperry 0.0
imjare 0.0
smganonymous 0.0
roaaaar 0.0
phuckyotweet 0.0
evvvvvverrrr 0.0
melvynmarrero 0.0
zouisashton 0.0
trillneyspears 0.0
rooooooar 0.0
fanwars 0.0
fentyncold 0.0
ttish_ 0.0
rachelacogan 0.0
makesmariana 0.0
kkaplon 0.0
rafaelmoncada 0.0
yaaaassssgrl 0.0
oioianna 0.0
katycatrazan 0.0
megaan_katycat 0.0
thekaelynn 0.0
hannahloupunton 0.0
thumbelinafairy 0.0
nic_kathryn 0.0
dannahfields 0.0
rodneybroaddus 0.0
noxisanasshole 0.0
soedesh__ 0.0
hookerofversace 0.0
thinkingofkaty_ 0.0
msgracevalerie 0.0
francfernandez 0.0
katysring 0.0
a_little_spark 0.0
laaxiss 0.0
