awesome 0.000774209409724
christmas 0.000690836242253
trying 0.000256704076415
launch 0.0
moment 0.000331832303092
wonderful 0.000411930071879
seeing 0.000301393998684
hanging 0.000924596373836
sounds 0.000117376779095
recommend 0.000109166797395
worked 7.93166601743e-05
direct 0.0
others 0.000157777182371
currently 8.72481428579e-05
better 0.000326508674166
please 0.00117667193582
social 0.000123243624612
anxiety 0.0
around 0.000616738606758
people 0.000761853573054
morning 0.00218849060144
traditional 0.0
general 0.0
damage 5.97998425018e-05
everything 0.000255323903501
twitter 0.000731465863826
present 0.000207652431437
though 7.59608027405e-05
friend 0.000440064130996
watched 8.23860143758e-05
beautiful 0.00116475589393
anything 0.000185347950728
previous 0.0
helped 3.99817682613e-05
updated 0.0
thinking 0.000260890179842
finally 0.000559050385376
caught 0.000369730873836
believe 0.000400143259607
already 0.000545649899464
couple 0.00023924180894
orlando 0.0
chance 0.00040122327693
meaning 0.0
growing 0.0
probably 0.0
password 9.10408785422e-05
changed 0.0
history 0.000112718312316
center 0.0
museum 0.0
behind 0.000399066157314
screaming 0.0
pretty 0.000894480616601
really 0.00678432086446
little 0.00269187283736
happiest 7.72269315789e-05
earlier 0.0
forget 0.000702425936219
someone 0.000220625987966
safety 5.28442153341e-05
program 5.07448595253e-05
things 0.00072557483148
related 5.36244333956e-05
visiting 0.000100620756771
available 0.000946951588161
perfect 0.000645666823294
different 7.41391802911e-05
search 0.0
connect 0.0
numbers 0.0
person 0.000146293172765
watching 0.000660096196495
exhibit 0.0
passed 0.0
prefer 0.0
minutes 0.000339068248519
travel 0.000133784394038
outside 0.000115801697701
looking 0.000909416499107
forward 0.000374715747744
agreed 9.77971521119e-05
raising 5.20804241426e-05
listened 0.000115598007748
afraid 0.0
impression 0.0
christian 0.0
profile 0.0
instant 0.0
drawing 0.0
wheels 0.0
favorite 0.00110058948895
picture 0.000815002982942
instead 4.1081208204e-05
appreciate 8.58254015256e-05
international 0.00018036031451
station 5.11846072316e-05
toddler 0.0
market 4.9176575436e-05
couldn 0.000227882408221
remember 0.000437698120288
vintage 0.000166245827646
holidays 0.000104160848285
friends 0.00135686440391
everyone 0.00134956920422
florida 5.3782510951e-05
always 0.000761853573054
months 3.80830287133e-05
moving 0.0
meeting 0.000523189243755
answer 0.000112111980805
sweetie 0.000752954702784
together 0.000621745984252
inside 7.59608027405e-05
section 5.6071118193e-05
missed 0.000258788502818
button 0.0
longer 4.21000229696e-05
enough 0.000331832303092
driving 8.91895960251e-05
building 8.19395053781e-05
enjoying 8.91895960251e-05
london 0.00039046855173
exploring 0.000461555168737
posting 0.0
amazing 0.00301926277704
attention 8.26103035286e-05
gordon 0.0
progress 5.05994535528e-05
tomorrow 0.00134956920422
george 4.53402778369e-05
feeling 0.00061097515517
excited 0.00521737493372
understand 0.0
following 3.82891584813e-05
asleep 6.72465304059e-05
learning 4.52149625427e-05
evening 0.0
special 0.000698648961893
secret 0.000122575915618
across 0.000122243591009
surprised 0.000217522683761
anymore 0.0
sophia 0.000119911549505
precious 0.0
rejoice 0.0
version 0.000282156811744
rather 8.19395053781e-05
avatar 0.0
showing 0.000116744008564
saying 0.0
tweeted 4.82127571151e-05
thoughts 0.000116114895686
exactly 7.88885911855e-05
except 0.0
getting 0.00295446231194
nothing 7.29496867146e-05
tweets 4.01990068839e-05
course 7.53484996709e-05
photos 0.00039695569242
looked 8.28352881527e-05
difficult 0.0
stages 8.93129928613e-05
office 0.000157777182371
decisions 0.0
brought 4.04175541808e-05
biggest 0.000225436624631
thrilled 0.000222273609654
something 0.000620072337074
closing 0.000108521837743
anyone 0.000220625987966
taking 0.000875396240575
recently 0.0
interesting 0.0
original 0.000129444833504
flying 0.00087107234856
happening 7.95316454668e-05
sometimes 4.01990068839e-05
lessons 0.0
village 0.0
stopped 0.0
yesterday 0.000514793971921
service 8.01804499373e-05
serious 0.00031215982391
digital 5.41007475668e-05
hoarder 0.0
wearing 8.55909668042e-05
british 0.0
either 3.97658227334e-05
second 0.000147083991977
checking 4.72738833095e-05
indeed 0.0
island 5.16297507499e-05
hearing 0.000122243591009
choose 0.000429127007628
staying 0.0
another 0.000218259959786
clothes 0.000121111353913
slowly 0.0
weekend 0.000702425936219
hashtag 0.000107565021902
delivery 0.0
theory 0.0
working 0.000620072337074
bigger 4.27954834021e-05
screen 0.0
riding 0.000126253817613
laughing 0.00155759913045
wanted 0.000331832303092
trends 0.0
stripes 0.0
clothing 7.78366726809e-05
current 4.30302980832e-05
adorable 0.000688905086987
grateful 0.0
friendship 0.0
family 0.000547122650359
listening 0.000479781219136
stream 0.000200666800052
expressions 0.0
wedding 5.54023666931e-05
sharing 0.000171650803051
double 0.0
especially 8.08351083617e-05
middle 4.18711342509e-05
waiting 0.000672671884828
definitely 0.00011962090447
walking 4.37440012624e-05
account 0.0
completely 4.32666425124e-05
thought 7.35419959887e-05
reaction 9.97620783094e-05
accept 0.0
simple 8.48921734432e-05
professional 0.0
friendly 5.42609188715e-05
supposed 0.00014545659268
business 0.0
absolutely 0.000234119867932
anywhere 4.86226907601e-05
sending 0.000677285839356
introducing 5.85138790553e-05
congrats 0.00145498802229
beauty 0.000261159506815
community 8.99312462624e-05
greatest 0.0
selfie 0.000109166797395
posted 0.000172593111338
saturday 0.000192482330701
wednesday 8.79701138211e-05
confused 0.0
expression 7.34953950735e-05
chicago 0.000297585660267
closest 0.0
relationship 4.90373094624e-05
actually 0.000149482641073
easter 9.97620783094e-05
basket 0.0
myself 0.0
argument 0.0
school 0.000111208770437
thursday 0.000117059933966
selling 4.98810391547e-05
talented 0.000958840379624
celebrate 0.000524005507524
falcon 0.0
celebrating 8.70090735044e-05
contest 0.000427856965423
experiences 6.79419908384e-05
students 0.0
internet 0.0
figure 4.36240714289e-05
opened 0.0
featuring 0.000284439178072
inspired 0.000176424752187
sitting 0.0
playing 0.00111208770437
street 8.08351083617e-05
points 0.0
memory 0.0
forever 0.000164772028752
imagine 0.00016254970406
problem 3.91255930315e-05
played 8.14957273393e-05
canadian 0.000377535125937
pulling 6.21162935531e-05
keeping 8.14957273393e-05
lovely 0.00165045287096
dressed 0.0
specifically 0.0
unlike 0.0
disappointed 0.0
otherwise 0.0
afternoon 0.000214563503814
planned 0.0
strange 0.0
images 0.0
noticed 0.0
notice 0.000148370164652
stretch 0.0
inspiration 5.00235884209e-05
letting 8.96831862493e-05
system 0.0
possibility 0.0
almost 0.000255323903501
details 0.00023924180894
experience 7.61660574266e-05
living 0.000152332114853
weather 0.0
normal 0.000146695728168
launching 5.94277495827e-05
before 3.95511549972e-05
captured 0.0
colors 0.0
monday 0.000418913315846
example 0.0
realize 0.0
autographed 0.00018759510325
sleeping 5.79764063867e-05
authentic 0.0
science 0.0
tweeting 0.000124931041742
forgot 0.000228594210268
chasing 0.000227237882967
gorgeous 0.000473944996362
herself 0.000175327350282
happens 3.77760135532e-05
silence 0.0
learned 0.0
congratulations 0.000281393048188
natural 0.00015533806206
raised 0.000190693145333
babies 0.0
mission 0.000148370164652
smelled 0.0
ironic 0.0
testing 0.0
deleted 0.0
barely 0.00012707834334
unforgettable 0.00084574257019
forgotten 0.0
trouble 0.0
fantastic 0.000387272682749
loving 0.000688484769331
complete 0.0
nearly 0.0
spirit 9.4547766619e-05
launched 5.44218004725e-05
finding 4.45947980125e-05
mercury 0.0
stories 0.000236665773556
including 8.10546470561e-05
mature 0.0
stuffed 0.0
ancient 7.78366726809e-05
bottle 5.69247750276e-05
somewhere 0.000142618988474
wouldn 7.86755000392e-05
choice 0.000233488017127
conversation 4.43496704477e-05
making 0.00112767645889
expect 4.37440012624e-05
occasions 0.0
subject 0.0
flights 7.40450834922e-05
location 5.7271942668e-05
vacation 0.000196363870199
seriously 0.000282156811744
spending 9.06805556737e-05
groups 0.0
childhood 5.94277495827e-05
modern 5.25367665316e-05
welcome 0.000516183582588
moments 9.06805556737e-05
degrees 0.0
jacket 0.000193134071628
halloween 0.00016423715988
costume 0.0
totally 0.000210500114848
laughed 6.91315643468e-05
flight 0.000349952010099
kidding 5.70979435739e-05
regular 0.0
context 0.0
running 7.65783169627e-05
finished 0.000218120357145
strong 7.51455415438e-05
tracking 0.0
respond 0.0
message 3.87049652288e-05
coming 0.00229172957775
thankful 0.000229787121261
cheese 0.0
greens 0.0
issues 0.0
intolerance 0.0
happen 0.000185848347481
giving 0.000368702558992
turkey 0.0
excellent 0.0
limits 0.0
common 0.0
pressed 0.0
situation 0.0
options 0.0
health 4.30302980832e-05
insurance 0.0
change 7.29496867146e-05
singing 0.00097520742318
august 0.000617769142424
crying 0.0
mental 5.42609188715e-05
happened 0.000153570656935
demand 0.0
generally 0.0
personal 3.96583300871e-05
beyond 0.000285235045688
bruised 0.0
question 0.000372700256917
chicken 0.0
reward 0.0
tunnel 0.0
losing 0.0
respect 3.98736348234e-05
caption 0.0
shouldn 0.0
visited 0.000114543885336
reason 7.67853284673e-05
simply 9.11844291094e-05
darlin 0.0
audience 0.000151363884135
involved 8.48921734432e-05
unhappy 0.0
reality 0.0
extremely 5.29989223557e-05
without 7.35419959887e-05
falling 0.000161347532853
countdown 0.000132679029248
locations 0.0
timing 0.0
crabby 0.0
classic 8.94359714168e-05
highly 5.19295767669e-05
online 0.000196157582199
finger 0.0
animals 0.0
planets 0.0
called 0.000330048098247
delicious 0.000258363212116
almond 0.0
compliment 0.0
pictures 0.000138304194701
camera 4.76732863334e-05
pillow 0.000360666598784
checked 5.17793540199e-05
heading 0.000477239341003
theater 0.000137781017397
paying 0.0
planning 4.74065296787e-05
complex 0.0
sunday 0.000452090998026
nights 0.000268912554755
descending 0.0
traffic 0.0
opposite 0.0
through 0.0
lookout 0.0
reached 0.0
harder 0.0
random 0.0
changes 0.0
speaking 0.0
recorded 5.54023666931e-05
washed 0.0
november 0.000146695728168
answered 0.0
enchanted 0.0
number 3.73706602682e-05
adventures 8.68663080639e-05
eclipse 0.0
chocolate 0.000279513855311
unless 0.0
calling 7.65783169627e-05
mermaid 0.000599557747526
distraction 0.0
levels 0.0
option 0.0
shopping 0.00088643786709
former 0.0
actual 4.84855308932e-05
covers 5.9059434322e-05
mountain 0.000193134071628
friday 0.000591516577869
winner 0.000162109294112
closes 0.0
quality 0.0
father 0.0
wishes 4.75396628248e-05
hourly 0.0
matter 0.0
themselves 0.0
usually 0.0
period 0.0
parents 4.37440012624e-05
balance 0.0
publishing 0.0
mobile 0.0
woohoo 0.000192532891262
bracelets 0.0
summer 0.00188821200094
reminded 0.0
impressed 0.00022094834961
necklace 0.0
shutdown 0.0
dinner 0.00024184869578
single 0.00150291083088
packed 5.97998425018e-05
definition 0.0
energy 4.33853946367e-05
preview 0.000103859153534
monster 0.0
material 0.0
admission 0.0
europe 0.000151363884135
holiday 0.000587795573377
emotional 0.0
update 0.0
customers 0.0
messing 0.0
holding 8.62965556691e-05
electric 0.0
eating 0.000136776643664
outfit 0.000149771110498
picked 4.54660275003e-05
fabulous 0.0
missing 0.000116744008564
surprise 0.000507259713853
officially 8.51243575874e-05
french 4.68788295883e-05
global 4.8760371159e-05
follow 0.00198028858948
opinion 0.0
backwards 0.0
design 5.50725576801e-05
secrets 0.000136826299897
request 0.000168720750485
breaks 4.80771354934e-05
allows 0.0
promoting 6.27192782082e-05
volunteer 0.0
wondering 0.0
official 0.000150696999342
sweater 8.60860900024e-05
jersey 0.0
mistake 0.0
france 0.000202397814211
proper 0.0
ginger 0.0
peaceful 0.0
lighter 0.0
thinks 0.0
competition 4.93163780814e-05
hospital 5.31542919361e-05
industry 0.0
trending 0.0
leadership 0.0
organized 0.0
showed 9.16918261642e-05
circle 6.4590803029e-05
success 4.11930071879e-05
ladies 0.000800377414734
dreams 0.000143826056944
protect 0.0
onesie 0.0
explanation 6.52367324049e-05
control 4.07478636697e-05
coincidence 0.0
discovering 9.42780717831e-05
laying 7.54568858216e-05
invited 0.000102664764701
healthy 0.0
surgery 0.0
allowing 0.0
arrived 0.000308743316327
opening 0.000237949980523
popular 4.98810391547e-05
pleasure 0.000228594210268
spectacular 0.0
animal 5.47457199599e-05
luggage 0.0
wonder 0.0
matters 0.0
reader 0.0
function 0.0
marketing 0.0
connection 0.0
improves 0.0
benefit 4.57188420535e-05
continues 8.89440543926e-05
cuddle 0.000108987835657
routine 0.0
exciting 0.000568672016411
corner 0.000104160848285
imagination 0.0
sangria 0.0
mystery 0.0
spring 0.0
beautifully 0.0
places 0.000174018147009
feedback 0.0
continue 8.42000459392e-05
attend 5.49087707583e-05
creative 0.0
memories 0.000149643117464
female 9.72453815202e-05
grandma 0.000307703445825
closer 0.000228594210268
accent 0.0
beginning 9.16918261642e-05
sooner 7.24203907458e-05
everywhere 0.000304531757265
scenes 0.000418392283191
bought 0.000312163586088
wishing 0.000105688430668
discovered 0.000121494243895
remove 0.0
predict 0.0
parrot 0.0
several 0.0
teacher 0.0
passing 0.0
become 0.00011424908614
spread 0.000208218402903
netflix 6.05556769564e-05
season 4.01990068839e-05
putting 3.82891584813e-05
weight 0.0
outfits 0.0
notification 0.0
annoying 7.13763261281e-05
necessity 0.0
knocks 0.0
processed 0.0
necessarily 0.0
effects 6.770868623e-05
lighting 0.0001614298197
headed 0.000337489299806
returns 0.0
expected 5.2231901363e-05
bucket 0.0
constantly 6.72465304059e-05
sweetest 0.000438318375704
struggling 0.0
register 0.0
transition 0.0
flowers 0.000414789386081
sprain 0.0
savage 0.0
somebody 0.00021768720189
covering 0.0
gloves 0.0
repeat 0.000101781701268
managers 0.0
brothers 0.000111805542124
patriots 0.0
seahawks 0.0
player 0.000101781701268
chemistry 0.0
moonlight 0.0
comment 4.70100367533e-05
columbia 0.0
physical 0.0
kingdom 0.0
pretend 6.39561732907e-05
charles 0.0
fighting 0.0
rooting 0.0
donald 0.0
mexico 5.26901652446e-05
police 0.0
represent 0.0
president 0.0
talking 0.000329159638722
unbelievable 0.0
shrimp 0.0
giants 0.0
conference 9.04299250855e-05
america 0.000116428997563
everybody 8.99312462624e-05
houston 0.000186348880659
everyday 0.0
michael 4.11930071879e-05
protecting 0.0
unconditional 0.0
million 0.000382891584813
election 0.0
telling 4.14176440764e-05
correct 0.0
pulled 5.47457199599e-05
starbucks 8.03835948387e-05
americans 0.0
killed 0.000284461982104
cowboys 0.0
cowboy 0.0
coverage 0.0
dallas 0.0
coffee 0.000183893723034
timeline 0.0
refuse 0.0
barackobama 0.0
hillary 0.0
clinton 5.9613318998e-05
gatorade 0.0
sharper 0.0
american 7.74099304576e-05
deserved 0.0
realist 0.0
illegal 6.07471219473e-05
arizona 0.0
waffle 0.0
scared 0.00010693408329
pieces 0.0
taught 0.0
golden 0.0
straight 8.08351083617e-05
massage 9.89157056327e-05
filter 8.07149098498e-05
answers 4.70100367533e-05
smoking 7.2686170261e-05
created 8.77286577475e-05
beside 0.0
worlds 0.0
record 0.00034274725842
freddie 0.0
africa 6.05556769564e-05
recruiting 0.0
journey 0.0
snapchat 6.770868623e-05
brother 0.000311304190374
prayers 0.0
trolling 0.0
hungry 0.0
nflnetwork 0.0
documentary 0.0
boston 0.000158070495734
addition 0.0
church 0.000110804733386
honestly 5.20804241426e-05
lounge 0.000257106553178
lifetime 0.0
captain 0.0
favorites 6.48048375234e-05
country 3.76742498355e-05
valley 0.000186348880659
huddle 0.0
dressing 0.000212596048469
finish 0.0
favourite 0.0010009033814
prayer 0.0
nominated 0.000602202919559
praying 0.0
insane 0.0
national 3.94442955927e-05
reform 0.0
shooting 0.000182368858219
australia 0.000108201495134
deserve 4.47179857084e-05
legend 0.0
mother 0.000203187130075
realest 0.0
creating 0.000100333400026
powerful 0.0
chilling 0.000153851722912
wisdom 6.15231674006e-05
breaking 3.92315164398e-05
parked 0.0
angeles 0.0
dollars 6.11330696465e-05
questions 0.000822154525901
racist 0.0
girlfriend 0.000230777584369
performance 0.00143531037921
refreshing 0.0
educated 0.0
reading 0.000696689374119
denver 0.000152662229336
videos 0.00014103011026
harmony 0.000301810179774
create 0.000168860044613
jordan 0.0
admire 6.74768723961e-05
nobody 4.47179857084e-05
government 5.45833986977e-05
politics 0.0
paradise 7.9729906134e-05
recover 0.0
spotted 0.0
blessing 0.0
coolest 0.000322954015145
banana 7.78366726809e-05
donate 0.000147529726308
sandwich 6.770868623e-05
lookin 0.0
method 0.0
bullshit 0.0
slight 0.0
bringing 0.000163879010756
deserves 0.0
regret 0.0
celebs 0.0
victim 0.0
stadium 0.000185159401883
funniest 0.0
according 4.83488876372e-05
pumped 0.000218058510783
hamburger 0.0
heaven 0.000404593027117
honest 0.0
rolling 0.00010949143992
became 9.11844291094e-05
feature 5.00235884209e-05
waking 7.06125349366e-05
breakfast 0.000275075478493
counting 5.17793540199e-05
signing 0.000239037019151
adding 0.0
awareness 0.000104463802726
kindest 0.0
trainer 0.0
facebook 0.000195099889944
insanity 0.0
repost 0.0
brazilian 9.47650420689e-05
campaign 0.000211651824799
borrow 0.0
scorpion 0.0
popcorn 0.0
factory 0.0
teenage 8.00552781946e-05
endorsement 0.0
williams 0.0
custom 7.32236429296e-05
drinks 6.52367324049e-05
future 3.75727707719e-05
angels 7.94074263078e-05
fingers 5.65808981252e-05
sister 0.000343261166237
earrings 0.0
warrior 0.0
dancing 0.00143316900249
voting 0.000134896869394
individuals 0.0
presence 0.0
commercial 0.000100047176842
chopped 0.0
religion 0.0
century 0.0
submit 0.000441888361646
serving 6.27192782082e-05
because 0.0
aggressive 0.0
sensitive 0.0
smiling 6.43780238761e-05
besides 0.000151491921978
cleveland 7.18946026792e-05
hometown 0.0
killing 0.000278928188794
breath 0.000123835010861
phillips 0.0
instagram 0.000202397814211
sharks 0.0
cousin 0.000214903616706
honored 0.00035419617487
dedication 0.0
lifting 0.0
lyrical 0.0
talent 4.86226907601e-05
goodnight 0.000209593479434
stores 6.61162601253e-05
rushing 9.23930378422e-05
brains 0.0
sandwiches 0.0
drinking 0.0
brazil 6.54546233997e-05
tattoo 0.0
ravens 0.0
regardless 0.0
skills 5.05994535528e-05
cameras 0.0
phones 0.0
california 5.2231901363e-05
seconds 0.0
listen 0.00113022749506
smiled 0.000115313157132
kicking 0.000102961523737
homies 0.0
billion 0.000104463802726
shades 8.20712824639e-05
shoutout 6.88905086987e-05
grammy 0.000258258270007
guilty 6.17198006276e-05
stevie 9.6266445631e-05
ceiling 0.0
carpet 0.000313596391041
grammys 0.0
harvard 0.0
panther 0.0
nelson 0.0
mandela 0.0
handle 0.000142618988474
sexiest 0.0
promise 0.000129799927537
hosting 0.000143422211491
hahahaha 0.0
longest 0.0
tuesday 0.000248505864458
locker 0.0
workout 0.0
ingredient 0.0
leader 0.0
pageant 0.0
character 4.8760371159e-05
idiotic 0.0
mirror 0.0
jackson 0.0
interview 0.000518974262038
battles 0.0
bleach 0.0
insight 0.0
obviously 0.0
replay 8.07149098498e-05
battle 4.23303649598e-05
stomped 0.0
destroy 0.0
killer 0.0
personally 0.000105380330489
winning 0.000155658678085
gettin 0.0
japanese 6.67901880169e-05
writing 0.000717655189606
society 0.0
officers 0.0
brooklyn 0.0
sources 0.0
incredible 0.00204556300102
poster 5.77990038739e-05
celebrity 0.0
memorable 0.0
werent 0.0
chased 0.0
minute 0.000246487249224
confession 0.000113625469507
pregnant 7.4603228987e-05
cherry 8.00552781946e-05
twinning 0.0
phoenix 0.000226370657465
orange 0.000327500392186
policy 0.0
comedy 5.69247750276e-05
illuminati 0.0
reminder 4.38643288738e-05
evidence 0.0
iphone 0.0
kicked 0.0
intentions 0.0
freedom 0.0
patient 0.0
utterly 0.0
mississippi 0.0
download 0.000154442285606
assistant 7.37691981964e-05
invite 0.0
central 9.61542709867e-05
washington 0.0
stronger 0.0
promised 5.97998425018e-05
worried 0.0
throwing 0.000239199370007
security 0.0
cologne 0.000340876408521
headphones 0.0
sanctuary 0.0
fantasy 0.0
monkey 7.51700958572e-05
approve 0.000144313088379
spinach 0.0
turning 0.0
helping 0.000200451124843
tickets 0.00158782276968
collector 0.0
physically 0.0
slavery 0.0
december 0.000252997267764
basically 0.0
return 0.0
yassss 0.0
goddess 0.0
locked 6.13275941961e-05
feelings 0.0
language 5.10374316076e-05
motion 0.0
obsessed 0.000383737039744
creation 0.0
followers 0.000235708600852
schools 0.0
gallery 0.0
movies 0.000218333594791
foster 0.0
children 0.000120270674906
nation 0.0
theaters 0.0
between 0.0
knowledge 0.0
begins 0.000130872214287
robinthicke 0.000138771976943
faithful 0.0
peeing 0.0
closet 8.57021843927e-05
bodies 0.0
italian 0.000136826299897
highlights 0.0
spanking 0.0
forbes 0.0
parade 0.0
tasted 0.0
consider 4.83488876372e-05
reunion 7.32236429296e-05
latest 0.000236665773556
dedicated 0.0
beyonce 0.0
perform 0.00145834588258
signed 0.000321592055071
tuxedo 0.0
princess 0.00117592632118
shelter 8.20712824639e-05
germany 0.0
explaining 0.0
married 5.39412803141e-05
millions 0.0
blessings 0.0
iconic 0.0
indonesia 0.0
braids 0.0
dollar 0.0
rigged 0.0
replied 0.0
lights 5.23840137098e-05
turned 7.99635365226e-05
excuses 0.0
jackie 0.0
charge 0.0
performing 0.00286718007371
ticket 9.77971521119e-05
steady 0.0
whispers 0.0
finest 0.0
confucius 0.0
diamonds 0.000106195785935
vancouver 0.000631166547872
addicts 0.0
collection 0.000100047176842
families 4.66178303217e-05
select 0.0
hitting 0.00019449076304
announced 8.86993408954e-05
decided 0.000261744428574
jewels 0.000118001701103
lottery 0.0
owners 0.0
respects 0.0
celebration 0.000102369214463
memorial 0.0
landed 0.000796946850387
pastor 0.0
ultimate 0.0
incase 0.0
rapper 0.0
episode 0.000217522683761
bounce 0.0
disney 0.000440972370441
muffin 0.0
kansas 0.000145907822533
sherman 0.0
retweet 0.000323608730843
midnight 4.9176575436e-05
patience 0.0
cereal 0.0
joining 0.000214563503814
released 0.000212230433608
release 0.000479781219136
models 7.0361469979e-05
classics 0.0
popped 0.0
mileycyrus 0.0
highlight 0.0
scholarship 0.0
within 0.0
hahahahaha 0.0
standing 4.16436805806e-05
higher 4.8898576056e-05
purple 6.79419908384e-05
skinny 0.0
justice 4.90373094624e-05
served 0.0
speaks 5.26901652446e-05
horses 0.0
houses 0.0
purchase 6.25171677045e-05
dropped 0.0
conversations 6.770868623e-05
consideration 0.0
seattle 6.65641515126e-05
cookie 7.32236429296e-05
slurpee 0.0
strength 0.0
screens 0.0
monica 0.0
incredibly 0.000205923047475
streets 0.000107248866791
boyfriend 8.60860900024e-05
private 4.67480952429e-05
skittles 0.0
barbie 0.0
apologizes 0.0
designer 0.0
impress 0.0
cooking 0.000124632353865
exclusive 0.000432666425124
fashion 0.000105380330489
petite 0.0
talkin 0.0
peaches 0.0
bitches 0.0
nailed 0.0
weirdest 0.0
whomever 0.0
teaching 0.0
disgusting 0.0
chillin 0.0
philly 0.000136353611039
rights 9.8353150872e-05
dinosaur 0.0
exotic 0.0
dancers 0.000284295126207
cheers 5.64101743204e-05
presents 0.00029806659499
flawless 0.000279969938867
dating 7.21565441896e-05
victory 0.0
marley 0.000116187385979
productive 0.0
smurfs 0.0
halftime 0.0
insecure 0.0
horror 0.0
warning 0.0
discovery 0.0
convention 0.0
understanding 0.0
action 7.8251186063e-05
having 0.0
speaker 0.0
clever 0.0
theatre 0.000133128303025
honors 0.0
evolution 0.0
produce 0.0
spider 0.0
apologize 0.0
formation 0.0
letter 0.0
therapy 0.0
untrue 0.0
written 0.0
communication 0.0
disease 0.0
marching 0.0
suggest 5.64101743204e-05
georgetakei 0.0
hairstyle 0.0
humans 0.0
journal 0.0
foundation 0.000207718307068
access 8.96831862493e-05
venture 0.0
syndrome 0.0
writes 5.94277495827e-05
colorado 0.0
medicine 0.0
tremendous 0.0
nytimes 0.0
kindness 7.72269315789e-05
cannot 4.06374260149e-05
reveals 0.0
invented 0.0
sapphire 0.0
candidate 0.0
sexual 0.0
madison 8.03835948387e-05
illustration 0.0
newark 0.0
globally 0.0
incorrect 0.0
headline 0.000114195887148
reflect 0.0
streaming 0.0
leaders 0.0
supreme 0.0
protest 0.0
policies 0.0
silenced 0.0
defend 0.0
communicating 0.0
climate 0.0
wrapped 0.000410478899692
studio 0.00111638690956
conspiracy 0.0
interviews 0.000296740329304
differentiation 0.0
confusing 0.0
february 0.000214497733582
hamilton 0.0
loneliest 0.0
amazon 0.0
scattered 0.0
francis 0.0
headlines 0.0
january 0.000353182396314
diversity 0.0
universal 0.0
hurricane 0.0
identifying 0.0
countries 0.0
tickled 0.0
becker 0.0
connected 0.0
suggestion 0.0
filled 0.000102369214463
education 0.0
mentioned 0.0
defining 0.0
exists 0.0
unexpected 7.0361469979e-05
plants 0.0
orders 0.0
olympics 6.4590803029e-05
ability 0.0
director 4.54660275003e-05
content 0.0
cycling 0.0
previously 0.0
correction 0.0
pearls 0.0
ambassador 0.0
preparing 0.0
depend 0.0
downloads 0.0
lovers 0.000219670928789
weekly 0.0
hudson 0.0
bridge 0.0
becoming 0.0
magazine 0.00035419617487
appropriate 0.0
shakespeare 0.0
travesty 0.0
discoveries 0.0
fellow 9.24596373836e-05
reviewed 8.38413282212e-05
copies 0.000763116556613
driven 0.0
aussies 0.0
result 0.0
announcing 6.35391716699e-05
visual 0.0
restrictions 0.0
culture 0.0
edition 0.000146281113477
prince 0.000792663230012
shocks 0.0
symmetry 0.0
clicks 0.0
disagree 0.0
experiments 0.0
mistakes 0.0
trolls 0.0
blossoms 0.000150325077558
offered 0.0
inspiring 0.000295059452616
counter 0.0
approach 0.0
embarrassing 0.0
creators 0.0
edited 0.0
berniesanders 0.0
overnight 0.0
spotlight 7.4603228987e-05
probable 0.0
repeating 0.0
concerns 0.0
massive 0.0
promising 0.0
promises 0.0
colored 0.0
production 0.0
header 0.0
itunes 0.000962812661994
secretary 0.0
highway 0.0
dangerous 9.77971521119e-05
letters 6.74768723961e-05
typically 0.0
saving 0.0
pioneer 0.0
visuals 0.0
universe 5.85138790553e-05
ordering 0.0
victims 0.0
privacy 0.0
disclosure 0.0
proceeds 0.0
musical 0.000356566497496
collide 0.0
melbourne 0.0
correctly 0.0
campus 0.0
debate 4.68788295883e-05
conflict 0.0
meanwhile 0.0
petition 0.0
contribution 0.0
stated 0.0
humanity 0.0
illness 0.0
flawed 0.0
breathe 0.0
winners 4.82127571151e-05
spanish 0.0
comedic 0.0
awards 0.000475396628248
presidential 0.0
candidates 0.0
glasgow 0.0
smells 0.0
treasure 7.81454297919e-05
greater 0.0
themed 0.0
distribution 0.0
absurd 0.0
squirrel 0.0
sisters 0.000208122697258
stress 0.0
leading 4.62298186918e-05
resolution 0.0
achieved 0.0
interacting 0.0
boiling 0.0
examples 0.0
diverse 0.0
suicide 0.0
parallel 0.0
minneapolis 0.0
impairs 0.0
pumping 0.000237888118122
slides 0.0
choreography 0.0
element 0.0
serves 0.0
jumping 6.84131499487e-05
rising 0.00023477928314
believed 0.0
features 0.00011630936132
environment 0.0
revealed 5.94277495827e-05
classical 0.0
confirmed 5.29989223557e-05
origins 0.0
combination 0.0
consumption 0.0
worldwide 6.05556769564e-05
deaths 0.0
responsible 0.0
overwhelmed 0.0
household 0.0
munich 0.0
alternate 0.0
blockers 0.0
restaurant 6.03652369308e-05
canada 0.000387884247146
versions 0.0
technology 0.0
identify 0.0
combined 0.0
santiago 0.000128749852084
branches 0.0
october 0.0
netherlands 9.19366954532e-05
belgium 0.0
european 0.0
imperial 0.0
perspective 0.0
cities 0.0
guinea 0.0
americas 0.0
posters 8.20712824639e-05
elastic 0.0
flames 0.0
presumably 0.0
exquisite 0.0
spreading 6.23161769324e-05
happiness 6.33324546344e-05
ashamed 0.0
naturally 0.0
malbec 0.0
wasting 0.0
hidden 0.0
coffin 0.0
freudian 0.0
genius 9.66977752745e-05
cultured 0.0
malaysia 0.0
traveling 0.000137302088377
prepared 0.0
county 0.0
quinoa 0.0
district 0.0
chosen 6.86510441885e-05
toilet 0.0
yorkers 0.000224025631
ignores 0.0
messages 0.0
creativity 0.0
conventional 0.0
berlin 0.0
montreal 8.72628009894e-05
wonders 0.0
upcoming 0.000205923047475
lonely 0.0
australian 0.0
positions 0.0
singapore 0.000656582861373
scratch 0.0
deficiency 0.0
elevated 0.0
triggers 0.0
delicate 0.0
barrier 0.0
reflection 0.0
sydney 8.17274055615e-05
separates 0.0
centuries 0.0
israel 7.75305211461e-05
overwhelming 0.0
assault 0.0
protection 0.0
picker 0.000171198564682
additional 0.0
machine 4.90373094624e-05
samples 0.0
contrary 0.0
immediate 0.0
michelle 0.0
inspire 6.19175054306e-05
lyrics 0.000409060833117
missyelliott 0.0
constant 7.06125349366e-05
tuning 0.0
pandora 0.0
preshow 0.0
buenos 0.000580936929893
poland 0.000189530084138
philippines 0.000367746781813
nicely 0.0
september 0.000459336884468
manchester 0.0
checks 0.0
screenshot 0.0
universalorl 0.0
remarkable 0.0
rihanna 8.76636751408e-05
disgusted 0.0
flattered 0.000208468590373
fiction 0.0
angela 0.0
bitmoji 0.0
process 9.27173907032e-05
genuine 0.0
performances 0.000142752652256
comedians 0.0
flotus 0.0
strangers 0.0
hungover 0.0
confidence 0.000113849550055
studios 0.0
stjude 0.0
memphis 9.37975516248e-05
mikeypiff 0.0
chancetherapper 0.0
scream 0.0
jennifer 0.0
disappoint 0.0
newcastle 0.0
castle 0.00040693378799
literally 0.000134896869394
chrisrock 0.0
gentlemen 0.0
mtvnews 0.000241811099618
hillaryclinton 0.0
iamrashidajones 0.0
champagne 0.000164142564928
raleigh 0.000116187385979
ijessewilliams 0.0
acknowledge 0.0
buzzfeed 0.000289681562983
puppet 0.0
rehearsal 0.000651094060783
billboard 0.00252869988706
austria 0.0
sweden 0.000360782720948
republic 0.0
grilled 0.0
waltdisneyworld 0.0
katyperry 0.000296747116898
ronanfarrow 0.0
measly 0.0
bragging 0.0
treats 7.75305211461e-05
literal 0.0
cooper 0.0
counts 0.0
theellenshow 0.00038765260573
basking 0.0
cookies 7.57459609891e-05
festival 0.000160401124935
amsterdam 0.0
soundcheck 0.000125178570122
downloaded 0.0
encouraged 0.0
alright 6.37470733367e-05
jtimberlake 0.0
backstage 0.00124363784459
collab 0.0
joined 0.00026830791425
issarae 0.0
playlist 0.000431367616075
madness 5.79764063867e-05
romantic 0.000347465232256
selfies 8.00552781946e-05
exclusively 0.0
disneyland 0.00021106020455
refused 0.0
characters 0.0
amazingly 7.63311146679e-05
auction 0.0
express 0.0
gratitude 7.72269315789e-05
sesamestreet 0.0
thegrammys 0.000340876408521
throughout 0.0
awkward 0.000121111353913
shining 7.34953950735e-05
thrown 0.0
stylist 0.000106873912998
fighter 0.0
accepting 6.65641515126e-05
playin 9.89157056327e-05
applemusic 0.00176098819855
filmed 0.0
makeawish 0.0
bieber 0.0
remixes 0.000959292396041
toronto 0.000648048375234
capitolrecords 0.0
shazam 0.000795378286549
anthem 6.63395146242e-05
cosmopolitan 0.00078967127804
khloekardashian 0.0
cookin 0.0
songwriters 0.000146052057245
reveal 5.29989223557e-05
stands 0.0
spotify 0.00100395011053
phvegas 0.0
rocked 0.000228993344004
glasses 6.67901880169e-05
iambeckyg 0.0
relive 0.0
acoustic 0.000610642660448
announce 0.000295505078073
although 0.0
isaacfromct 0.0
shampoo 0.0
interactive 0.000242144729549
todayshow 0.000581860396761
haters 0.0
appreciation 0.0
floating 0.0
shondarhimes 0.0
showtime 0.000174525601979
premiere 0.000533188120907
broadway 0.00268576300073
makeup 0.0
starring 0.000355599690974
newest 0.000176084462355
designed 0.000112142236386
arianagrande 0.000217975671315
aladdin 0.0
swaggy 0.0
owning 0.0
producer 0.0
legendary 0.0
jasmine 0.0
costumes 9.28551936663e-05
square 0.000344236028052
emojis 9.78326776973e-05
jessica 0.0
magical 0.000886298471753
thedoctorluke 0.0
thirsty 0.0
therealjuicyj 0.0
symbols 0.0
privilege 0.0
spiral 0.0
retrograde 0.0
footage 5.94277495827e-05
theirs 0.0
universes 0.0
remembering 5.94277495827e-05
floated 0.0
construction 0.0
consciousness 0.0
delights 0.0
explodes 0.000113625469507
submissions 0.0
pleased 5.99873299556e-05
shredding 0.0
filters 9.94695903086e-05
weasel 0.0
reflective 0.0
firework 0.0
islands 0.0
interstellar 0.0
bubble 0.0
customs 9.42780717831e-05
festive 0.0
window 0.00010662065955
senator 0.0
slightly 0.0
therealbuzz 0.0
printing 0.0
snowflake 0.0
applications 0.0
elephant 0.0
fifteen 0.0
editions 0.0
newspaper 0.0
rainbow 0.0
unlimited 0.0
sirius 0.0
matthew 0.000208122697258
affected 0.000168213354579
capturing 0.000104234295187
canyon 0.0
rivers 0.0
spoken 0.0
accidentally 0.0
bizarre 0.0
dolphin 0.0
successfully 0.0
liquid 0.0
graffiti 0.0
swallowing 0.0
messenger 0.0
heroes 5.54023666931e-05
disturbing 0.0
graduates 0.0
rewrite 0.0
describe 0.0
hollywood 5.34670416451e-05
equality 6.54546233997e-05
announcement 9.32356606435e-05
breakout 0.000108269421259
dreaming 8.07149098498e-05
animation 0.0
calendar 0.0
circling 0.0
garden 0.000108521837743
enhanced 0.0
journalists 0.0
stirring 0.0
nominations 0.000222969248617
yelling 0.0
teachers 0.0
chapter 0.0
napoleon 0.0
aliens 0.0
subjects 0.0
revolution 0.0
mountains 8.68663080639e-05
wonderland 0.000106195785935
storage 0.0
crystals 0.0
circuit 0.0
invitation 0.0
kettle 0.0
adjective 0.0
woodpecker 0.0
operate 0.0
exhibition 0.0
learnt 0.0
nomination 0.000198348780376
madonna 0.0
questioning 0.0
unplug 0.0
initiatives 0.0
switzerland 0.0
represents 0.0
throat 0.0
touchdown 0.0
desire 0.0
forced 0.0
swedish 8.93129928613e-05
hundred 0.0
prompts 0.0
rainbows 0.0
creates 0.0
oxford 0.0
balloons 0.0
liverpool 8.68663080639e-05
recreate 0.0
glorious 7.01121305675e-05
newton 0.0
creature 0.0
finalist 9.52586380038e-05
scouts 0.000102373439015
treading 0.0
tragedy 5.9613318998e-05
nottingham 0.000130022921007
debacle 0.0
legends 0.0
noises 0.0
addiction 8.03835948387e-05
survived 0.0
idioms 0.0
greeted 0.0
basics 0.0
masses 0.0
confirm 0.0
cadence 0.0
spaghetti 0.000107564957541
prepare 0.0
calendars 0.0
narrative 0.0
application 0.0
octopus 0.0
drumming 0.0
bloody 0.0
confetti 0.000277543953887
translate 0.0
birmingham 0.0001614298197
singles 9.83701503659e-05
completes 0.0
laptop 0.0
obvious 0.0
darling 0.000345896406529
deserving 0.0
miller 6.56738309643e-05
ordered 5.34670416451e-05
feelin 0.0
alicia 0.0
picasso 0.0
recipe 0.0
alphabetical 0.0
butterfly 0.000100603393258
timothy 0.0
mancini 0.0
untold 0.0
directed 0.000124232587106
hacked 0.0
admits 0.0
clocks 0.0
nugget 0.0
cnnopinion 0.0
grabbed 0.0
russia 0.0
surprises 0.000138748464839
waterfalls 0.0
olympic 0.0
magnificent 0.0
casual 8.84789620707e-05
assume 0.0
relief 0.0
subscribe 0.0
landslide 0.0
telegraph 0.0
standby 0.0
admitting 0.0
complacency 0.0
voices 0.0
sounding 0.0
douglas 0.0
democracy 0.0
locals 0.0
gossip 9.6266445631e-05
nickname 0.0
subtle 0.0
embarrassed 0.0
ireland 0.0
mornings 0.0
democratic 0.0
impressions 0.0
outgoing 0.0
treasury 0.0
refugees 0.0
unveiling 0.0
listing 8.97373104653e-05
deliver 0.0
negotiating 0.0
roller 0.000471390358916
prosperous 0.0
desperate 0.0
acknowledgement 0.0
executive 0.0
republicans 0.0
weapons 0.0
dropping 0.0
meaningful 0.0
nightmare 0.0
goodies 0.00020474687803
scandalous 0.0
rhetoric 0.0
divisive 0.0
vision 0.0
confirmation 0.0
throne 0.0
records 5.50725576801e-05
quoting 0.0
impatient 0.0
refugee 0.0
texted 0.0
exposed 0.0
stoked 0.000165537944147
priority 0.0
freedoms 0.0
notorious 0.0
empowering 0.0
unconstitutional 0.0
turkish 0.0
concerned 0.0
realdonaldtrump 0.0
goodwill 0.0
imagined 0.0
belfast 0.0
sleeve 0.000102983180117
basement 0.0
preposterous 0.0
griffith 0.0
timeless 0.0
truman 0.0
intended 0.0
inappropriate 0.0
industries 0.0
responsibility 0.0
documentaries 0.0
vulnerable 0.0
respectful 0.0
markets 0.0
claire 0.0
nuggets 0.0
boards 0.0
sequins 0.0
capitol 0.0
technical 7.60373580704e-05
applying 0.0
guitar 0.00038765260573
donating 6.56738309643e-05
continually 0.0
norway 0.0
applause 0.0
ballot 0.0
finely 0.0
shakes 0.0
varied 0.0
proverb 0.0
vibrant 0.0
flower 0.0
survives 0.0
fierce 0.0
shopped 0.0
sincerely 0.0
apology 0.0
sweaty 0.0
conspiracies 0.0
climbing 0.0
relaxed 0.0
encourage 0.0
funnyordie 0.000237888118122
essentials 0.0
jimmykimmellive 0.000103603344647
rejectedjokes 0.0
protesting 0.0
releasing 0.000225510287572
cleaner 0.0
preferred 0.0
incarceration 0.0
jkcorden 9.94695903086e-05
koppel 0.0
bikini 0.0
transparency 0.0
kamalaharris 0.0
nutshell 0.0
walled 0.0
floored 0.0
plotting 0.0
gandhi 0.0
vilify 0.0
meditate 0.0
violent 0.0
preschool 0.0
rhythm 0.0
matching 0.0
senwarren 0.0
venezuela 0.0
candle 0.0
donates 0.0
peacefully 0.0
chelseahandler 0.0
experiencing 9.67810463382e-05
sarabareilles 0.000135615313683
haunting 0.0
constitution 0.0
explode 0.0
deeper 0.0
empathy 0.0
mrgaryhuang 0.0
scored 0.0
charitable 0.0
perfume 0.0
giraffe 0.0
noticing 0.0
noodle 0.0
wrongly 0.0
marshmallow 0.0
fraudulent 0.0
everytime 0.0
helluva 0.0
therapists 0.0
tangible 0.0
sarahksilverman 0.0
johnfugelsang 0.0
exceptional 0.0
miracle 0.0
avocado 0.000108269421259
snacks 0.0
spelled 0.0
parental 0.0
superbowl 0.0
shoulders 0.0
valentine 0.000120730473862
glitter 0.0
stocking 0.0
poehler 0.0
thumbs 7.60373580704e-05
tinatbh 0.0
educational 0.0
voicemail 0.0
thetweetofgod 0.0
esteem 0.0
teaches 0.0
goodbye 0.000114195887148
reminding 0.0
supplies 0.0
ryanseacrest 0.000198939180617
okmagazine 0.0
shoots 0.000254839049814
bowing 0.0
jennyslate 0.0
craigyferg 0.0
masterpiece 0.000162098556997
sneaky 0.0
nashville 0.000395438938752
chronicles 0.0
potato 8.64741016324e-05
freakin 0.0
perezhilton 0.000614240634091
unethical 0.0
paparazzi 0.0
mantra 0.0
consuming 0.0
unauthorized 0.0
vanityfair 9.83701503659e-05
stalking 0.0
shoulda 0.0
yeppers 0.0
sacred 0.0
existed 0.0
earned 0.0
woulda 0.0
ellenpage 0.0
choker 0.0
contribute 0.0
mustache 0.0
washes 0.0
creeps 0.0
champion 0.0
auntie 0.0
magazines 0.0
waited 0.000152074716141
conscious 0.0
cracker 0.0
denmark 9.28551936663e-05
potion 0.0
windex 0.0
scarfing 0.0
ladygaga 0.0
purposely 0.0
pretending 0.000148646165745
luckiest 0.000127519946451
mascara 0.0
tastes 0.0
gardening 0.0
leashes 0.0
hippie 0.0
womensmarch 0.0
reunited 0.000176138056851
clique 0.0
premiering 0.000168411883517
rollingstone 0.000179474620931
childrensla 0.0
dollywood 0.0
godmother 0.0
eltonofficial 0.0
vmagazine 0.0
donorschoose 0.0
yesssssss 0.0
bettemidler 0.0
rehearsing 0.000407095106965
trevorproject 0.0
unicef 0.0
ellemagazine 0.000234166405779
yasssss 0.0
acceptance 0.0
solidarity 0.0
pharrell 0.0
greece 0.0
papermagazine 0.000772499112502
johnmayer 0.0
lipstick 0.000345939471397
tumblr 0.0
coldplay 0.0
colorful 0.0
translifeline 0.0
newsstands 0.0
feminist 0.0
pitchfork 0.000126330372943
labels 0.0
jenner 0.0
arkansas 0.0
beanie 0.0
sparkly 0.0
moschino 0.0
britneyspears 0.0
itsjeremyscott 0.000171198564682
nickiminaj 0.00368116032282
appstore 0.0
poetry 0.0
puttin 0.0
rubbed 0.0
shrine 0.0
skyferreira 0.0
freaking 0.000157541881664
besties 0.0
chanel 0.0
bedazzled 0.0
rubber 0.0
kendricklamar 0.0
popstar 0.0
sosadtoday 0.0
copenhagen 0.0
lenadunham 0.000359734648516
wearin 0.0
stoned 0.0
facetime 0.000451240730308
barclays 0.0
meditation 0.0
harpersbazaarus 0.0
stared 0.0
ritual 0.000109720764455
iconapop 0.000167376217762
doubted 0.0
staples 0.0
anaheim 0.000227250939014
jingle 0.000114459500298
tacoma 0.0
rehearsals 0.000497347951543
treadmill 0.0
metamorphosis 0.0
dental 0.0
jodyhighroller 0.0
versace 0.0
werking 0.0
couture 0.0
eggplant 0.0
bangin 0.0
cardigans 0.0
obnoxious 0.0
bestie 0.0001120128155
teganandsara 0.000315715944826
barrel 0.0
dedicating 0.000121927553775
jefferson 0.0
pumpkin 0.000251523984663
derekblasberg 0.0
glamourmag 0.000117083202889
presale 0.0
mtvstyle 0.00016391848438
deluxe 0.000108269421259
mtvema 0.000138771976943
reggae 0.0
azealiabanks 0.0
nominating 0.0
sailor 0.0
mornin 0.0
itunesmusic 0.000686757001785
bananas 0.0
lordemusic 0.00047357391724
vietnam 0.0
milwaukee 0.000704223752805
neworleans 0.0
circus 0.0
strolling 0.0
rapids 0.0
collegegameday 0.0
aaaaand 0.0
godfather 0.0
bestow 0.0
allison 0.0
rockthevote 0.0
birbigs 0.0
lucille 0.000144090566497
louder 0.0
farmers 0.0
shaved 0.0
niagara 0.0
realmattlucas 0.0
ferguson 0.0
painful 0.0
exchange 6.81768055195e-05
nickkroll 0.0
edmonton 0.000114459500298
mickey 0.000101183865507
angelenos 0.0
pooping 0.0
located 0.0
onslaught 0.0
finalists 0.000264207085277
bumped 0.0
sherlock 0.0
stockholm 0.000190517276008
casually 0.0
jjwatt 0.0
itstonybennett 0.0
mariolopezextra 0.000125178570122
klgandhoda 0.0
entrance 0.0
calgary 0.000354005103308
bowling 8.80690284257e-05
winnipeg 0.0
cheeto 0.0
gloriasteinem 0.0
feather 0.000122979185134
nathan 0.0
smelling 0.0
narnia 0.0
llamas 0.0
actuallynph 0.0
mourning 0.0
obsession 0.000152074716141
chilled 0.0
medically 0.0
hyperloop 0.0
aussie 0.0
flaring 0.0
eyeballs 0.0
stuffing 0.0
pitched 0.000111232597439
condiments 0.0
relatable 0.0
olivia 0.0
painted 0.000326909622246
mykonos 0.0
eyebrow 0.0
capitalcities 0.0
jackpot 0.0
hipster 0.0
sweating 0.0
restaurants 8.68663080639e-05
superfan 0.0
restraint 0.0
craziest 0.0
catheter 0.0
delivers 7.84568372111e-05
kanyewest 0.0
paints 0.0
dissect 0.0
billboards 0.0
milano 0.0
bjnovak 0.0
snapping 0.000108269421259
croissant 0.0
repjohnlewis 0.0
blklivesmatter 0.0
mydaughtersarmy 0.0
huddled 0.0
yearning 0.0
thereaibanksy 0.0
affordable 0.0
foodie 0.0
colombia 0.0
peeled 0.0
shootings 0.0
playground 0.0
breaky 0.000743633314224
photoshoot 0.000336038446501
smokin 0.000271230627367
accents 0.0
sweats 0.0
postmates 0.0
armband 0.0
unconscious 0.0
maddow 0.0
aquarium 0.0
holler 0.0
photoshop 0.0
robbie 0.0
espnmag 0.0
laundry 0.0
examining 0.0
zealand 8.03835948387e-05
stuntin 0.0
hehehe 0.000438156171736
nostalgia 0.0
buttons 0.0
slaying 0.000118944059061
monument 0.0
bringin 0.0
lining 8.93129928613e-05
muchas 0.0
gracias 0.0
madame 0.0
illustrated 0.0
boxers 0.0
grazie 0.0
winters 0.0
plastic 7.75305211461e-05
unbreakable 0.0
licking 0.0
cheeky 0.0
twerking 0.0
danish 0.0
drummer 0.0
florence 0.0
revoir 0.0
resume 0.0
dodger 0.0
brazilians 0.0
grimezsz 0.0
crocodile 0.0
hahahahahaha 0.0
parisians 0.0
taipei 0.000152666453888
taiwan 0.000113625469507
bangkok 0.0
uploaded 0.0
manila 0.000725433298855
hamburg 0.0
curating 0.0
aaaand 0.0
skating 0.0
brisbane 0.0
googleplay 0.0
raincoat 0.0
glastofest 0.0
vienna 0.0
burning 0.0
jamming 0.000205966360234
reaches 8.64741016324e-05
subtitles 0.0
wristband 0.0
barcelona 0.000181202261672
credits 0.0
dreamers 0.0
bogota 0.0
bursting 0.0
brunomars 0.0
beyoncé 0.0
subscribers 0.0
unlock 9.57590423728e-05
onedirection 0.000127519946451
amazonmusic 0.0
snippets 0.0
preorder 0.0
rehearse 0.000138771976943
bahnhof 0.0
delorean 0.0
fragrance 0.0
curate 0.0
samsmithworld 0.0
guitars 0.000128749852084
storyline 0.0
registering 0.0
beatsbydre 0.0
panama 0.0
celestial 0.0
orchestra 0.000109720764455
finland 0.000103603344647
climbed 0.0
topping 0.0
méxico 0.0
vasconcelos 0.0
leicester 0.0
itunesfestival 0.0
pondering 0.0
millennials 0.0
struck 0.0
watermelon 0.0
benefited 0.0
sophisticated 0.0
couples 0.0
villain 0.0
mindful 0.0
catholic 0.0
airline 9.01666496959e-05
secretly 0.0
playlists 0.000132711464977
veggie 0.0
receipts 0.0
foremost 0.0
bagpipe 0.0
drifting 0.0
trader 0.0
influenced 0.0
moscow 0.0
cobain 0.0
reaper 0.0
commune 0.0
handshake 0.0
despair 0.0
silicon 0.0
investing 0.0
construct 0.0
garland 0.0
coachella 0.0
offline 0.0
realisation 0.0
payback 0.0
educate 0.0
alliances 0.0
etched 0.0
momentarily 0.0
pronoun 0.0
lenses 0.0
validated 0.0
authenticity 0.0
choreographed 0.0
pokemon 0.0
disneyworld 0.0
patriotic 0.0
embody 0.0
snickers 0.0
impactful 0.0
refocus 0.0
eminem 0.0
mahatma 0.0
ecstatic 0.0
snfonnbc 0.0
avenue 0.0
picchu 0.0
doubters 0.0
beverly 0.0
intensity 0.0
outtake 0.0
temple 0.0
purchased 9.28551936663e-05
fountain 0.0
punched 0.0
goldfish 0.0
comparable 0.0
buyers 0.0
barbara 8.57021843927e-05
corybooker 0.0
listens 0.0
timeout 0.0
inducing 0.0
signage 0.0
penthouse 0.0
ahahaha 0.0
phenom 0.0
brilliantly 0.0
siphoning 0.0
herstory 0.0
prostitute 0.0
survivors 0.0
courageous 0.0
cruelty 0.0
margot 0.0
xenophobic 0.0
mcginley 0.0
yorkshire 0.0
chants 0.0
alancarr 0.00016391848438
chained 0.0
skillz 0.0
debunked 0.0
floods 0.000105530102275
fleetwood 0.0
cheesecake 0.0
adidas 0.0
uneven 0.0
raging 0.0
connections 8.4946349938e-05
headlining 0.000461252628529
devhynes 0.00232160319592
charli_xcx 0.00047357391724
shawnmendes 0.000135615313683
tavitulle 0.000371816657112
bahjournalist 0.000180315935879
tyleroakley 0.000542461254734
marquee 0.000140459664569
grease 0.000236003402205
screenshots 0.000274318645873
ddlovato 0.000108269421259
chattyman 0.00014812569257
grimmers 0.000711148551629
vevo_uk 0.00016076182112
bonniemckee 0.000540947807637
electrifying 0.000144090566497
idolator 0.00029625138514
onairromeo 0.000876312343472
godven 0.000451529199733
lookie 0.000620677713771
preordered 0.000137159322936
elvisduran 0.000268268686187
shanghai 0.000105530102275
tripped 0.000135615313683
konnichiwa 0.000192522725198
etnad_olegnad 0.000225764599867
unannounced 0.00016391848438
swedes 0.000152666453888
cinderella 0.00606385790126
slipper 0.000669504871048
jessesaintjohn 0.000225764599867
adorbs 0.000152666453888
onesies 0.000142229710326
jahnsuxx 0.000225764599867
walgreens 0.000411477968809
aphrodite 0.00020061809243
danceonfox 0.000684794258727
difficulties 0.00010487641357
mermaids 0.00016076182112
antique 0.000157857972413
girlshbo 0.000334752435524
yaaaaasss 0.0
lifesaving 0.0
queens 0.0
yaaaas 0.0
rollin 0.0
bestest 0.0
cleanse 0.0
iamtovelo 0.0
glamour 0.0
emelisande 0.0
lashes 0.0
austrian 0.0
magritte 0.0
misogynoir 0.0
litter 0.0
spiritual 0.0
preaching 0.0
adelaide 0.0
sheffield 0.0
impending 0.0
starve 0.0
excess 0.0
conciousness 0.0
vitamins 0.0
generator 0.0
purposefully 0.0
profiles 0.0
petals 0.0
persist 0.0
alexis 0.0
covergirl 0.0
sneezed 0.0
cushion 0.0
demconvention 0.0
directv 0.0
flo_tweet 0.0
billclinton 0.0
grounded 0.0
sunrise 0.0
fightin 0.0
sagekotsenburg 0.0
pwease 0.0
sadder 0.0
waterfall 0.0
sighting 0.0
firsts 0.0
muller 0.0
burritos 0.0
bungee 0.0
potting 0.0
dipping 0.0
closets 0.0
scratched 0.0
decorating 0.0
summers 0.0
havana 0.0
fresher 0.0
mowing 0.0
invading 0.0
addict 0.0
aesthetics 0.0
footwear 0.0
protector 0.0
hammock 0.0
repurpose 0.0
mishap 0.0
hamster 0.0
cellar 0.0
groove 0.0
mentored 0.0
exaggerate 0.0
scraping 0.0
apropos 0.0
trolled 0.0
jonlovett 0.0
rheabutcher 0.0
sickening 0.0
flustered 0.0
compiled 0.0
shirley 0.0
subtweet 0.0
pantsuit 0.0
patting 0.0
atrocious 0.0
amoeba 0.0
platter 0.0
aficionado 0.0
bearer 0.0
manifest 0.0
transformation 0.0
thighs 0.0
tapper 0.0
foaming 0.0
sophie 0.0
sabbath 0.0
vibrations 0.0
nutella 0.0
wilder 0.0
distractions 0.0
stripping 0.0
downloading 0.0
judith 0.0
crossroads 0.0
parsons 0.0
stella 0.0
narcissism 0.0
fawcett 0.0
trainers 0.0
surrounding 0.0
longtime 0.0
frosting 0.0
laurent 0.0
savory 0.0
acupuncture 0.0
cancelling 0.0
nutcracker 0.0
ballet 0.0
tempura 0.0
burner 0.0
voguemagazine 0.0
lagged 0.0
cuttlefish 0.0
passwords 0.0
funfetti 0.0
anagasteyer 0.0
gabbana 0.0
budapest 0.0
montage 0.0
crowns 0.0
scheduling 0.0
possessed 0.0
syncing 0.0
creatively 0.0
hieroglyphics 0.0
halftimes 0.0
floppy 0.0
nessie 0.0
feathers 0.0
kaceymusgraves 0.0
roaring 0.0
rightful 0.0
balconies 0.0
prodigy 0.0
raquin 0.0
gianni 0.0
monsieuradi 0.0
drowned 0.0
tropicana 0.0
diesel 0.0
shabbat 0.0
voiceless 0.0
passover 0.0
elevating 0.0
traumatic 0.0
dreamer 0.0
iwillharness 0.0
classrooms 0.0
eligibility 0.0
counselors 0.0
wainwright 0.0
moveon 0.0
runaway 0.0
baghdad 0.0
zaralarsson 0.0
snooze 0.0
iggyazalea 0.0
harviikills 0.0
bolognese 0.0
babysitting 0.0
mohegan 0.0
hooters 0.0
crusts 0.0
tracksuit 0.0
cupcake 0.0
xfactor 0.0
vitamin 0.0
lichtenstein 0.0
concourse 0.0
hitchcock 0.0
teller 0.0
pastels 0.0
remnants 0.0
banger 0.0
lyrically 0.0
boogers 0.0
ritaora 0.0
bumpin 0.0
dabbed 0.0
sleepin 0.0
tinashe 0.0
octaviaspencer 0.0
linder 0.0
musicallyapp 0.0
scavenger 0.0
sanging 0.0
corinthians 0.0
hollywoodbowl 0.0
kraken 0.0
discontinue 0.0
cypress 0.0
schooling 0.0
maritime 0.0
narration 0.0
zeitgeist 0.0
sampler 0.0
pseudo 0.0
bangladesh 0.0
hungary 0.0
mumble 0.0
sisterhood 0.0
soulful 0.0
lennykravitz 0.0
londontown 0.0
andradaymusic 0.0
lipsticks 0.0
realization 0.0
unconditionally 0.0
wildfire 0.0
goldie 0.0
minnie 0.0
solitude 0.0
waddle 0.0
westworldhbo 0.0
statuesque 0.0
uncasville 0.0
demented 0.0
skyway 0.0
twentyonepilots 0.0
rejoicing 0.0
clenching 0.0
adelphia 0.0
entirety 0.0
redhourben 0.0
lakewood 0.0
drjillstein 0.0
entail 0.0
whammy 0.0
smokers 0.0
gobble 0.0
topshop 0.0
cleowade 0.0
mkives 0.0
sweetbabayjamie 0.0
marchesafashion 0.0
hamsters 0.0
gurrrl 0.0
sofifii 0.0
sumthin 0.0
nicomiz 0.0
maisonvalentino 0.0
coziest 0.0
accessorize 0.0
thejgold 0.0
peruvian 0.0
amazeballs 0.0
sendin 0.0
fantabulous 0.0
timelines 0.0
regina 0.0
slovakia 0.0
graves 0.0
embracing 0.0
larsson 0.0
cullen 0.0
psychiatric 0.0
officialadele 0.0
butters 0.0
verrrry 0.0
buttered 0.0
winged 0.0
pedialyte 0.0
topanga 0.0
armpit 0.0
kittens 0.0
dueling 0.0
eagerly 0.0
surrealist 0.0
dethroned 0.0
manolos 0.0
señorita 0.0
monterrey 0.0
parque 0.0
retiree 0.0
batches 0.0
reservations 0.0
sickos 0.0
aplusk 0.0
kirkherbstreit 0.0
fanbases 0.0
indexing 0.0
chuckles 0.0
incorporated 0.0
washboard 0.0
earbuds 0.0
pantone 0.0
knotts 0.0
dismaland 0.0
pollock 0.0
iamkidpresident 0.0
mariah 0.0
teevee 0.0
santorini 0.0
appalachian 0.0
sunburnt 0.0
caliente 0.0
juicery 0.0
karlihenriquez 0.0
trillest 0.0
tommorrow 0.0
crumpets 0.0
fishin 0.0
grillin 0.0
jambalaya 0.0
pepperoni 0.0
cashew 0.0
graceland 0.0
pussies 0.0
delicately 0.0
eraser 0.0
choreo 0.0
snatched 0.0
elliptical 0.0
mooore 0.0
unborn 0.0
georgina 0.0
stalkers 0.0
sallykohn 0.0
expectancy 0.0
phillipines 0.0
appstoregames 0.0
wilkinson 0.0
puddings 0.0
loveland 0.0
spaced 0.0
shanny 0.0
dripping 0.0
gerber 0.0
shakey 0.0
weaves 0.0
unbeatable 0.0
linguist 0.0
prosthetics 0.0
battleship 0.0
serotonin 0.0
machiavellian 0.0
girlies 0.0
guangzhou 0.0
debuting 0.0
dissecting 0.0
warped 0.0
luckyjess 0.0
ermahgerd 0.0
fabulousness 0.0
elliegoulding 0.0
activewear 0.0
yelyahwilliams 0.0
prismatic 0.0
evaluations 0.0
skywalk 0.0
sparklers 0.0
palettes 0.0
gemmaanningram 0.0
trueeee 0.0
invisalign 0.0
pounded 0.0
lolgop 0.0
procession 0.0
stanning 0.0
squeals 0.0
continual 0.0
luminary 0.0
cummin 0.0
shaves 0.0
epixhd 0.0
preacher 0.0
boogiecousins 0.0
changers 0.0
autismspeaks 0.0
massaged 0.0
psssssst 0.0
literati 0.0
utilization 0.0
endangerment 0.0
purposeful 0.0
unlabeled 0.0
undiagnosed 0.0
snotty 0.0
gallops 0.0
slovenia 0.0
sequin 0.0
akerlund 0.0
jumbotron 0.0
edibles 0.0
knowles 0.0
caeser 0.0
thehollywoodbowl 0.0
elvispresley 0.0
adoring 0.0
ageist 0.0
thérèse 0.0
confessed 0.0
blackvoices 0.0
patties 0.0
graphically 0.0
wildflowers 0.0
groundhogs 0.0
eataly 0.0
poodles 0.0
hillaryforia 0.0
roadshow 0.0
sweety 0.0
boppin 0.0
bettywho 0.0
johnnywujek 0.0
earring 0.0
itsbennyblanco 0.0
curitiba 0.0
purrfect 0.0
shellback 0.0
chokers 0.0
hairbrush 0.0
hakuna 0.0
matata 0.0
hazing 0.0
mathew 0.0
aegean 0.0
lullaby 0.0
musiciansoncall 0.0
headpiece 0.0
morsel 0.0
whistled 0.0
conquest 0.0
viceland 0.0
lambily 0.0
scalped 0.0
graced 0.0
emblazoned 0.0
hrclosangeles 0.0
kawaii 0.0
glittery 0.0
wonderlandmag 0.0
jumpsmokers 0.0
radiodotcom 0.0
missyfranklin 0.0
pleaaaaase 0.0
lilbthebasedgod 0.0
waaaay 0.0
flossy 0.0
aria_official 0.0
berliners 0.0
matriarchy 0.0
cornered 0.0
limping 0.0
peasant 0.0
feasibly 0.0
waaaaay 0.0
slayyy 0.0
fashionistas 0.0
sangin 0.0
worldstarfunny 0.0
pliers 0.0
babyanimalpics 0.0
mediation 0.0
quests 0.0
aaaaaaah 0.0
honked 0.0
rauschenberg 0.0
whitneymuseum 0.0
lonsdale 0.0
transcendental 0.0
roarin 0.0
facetune 0.0
fausto 0.0
herning 0.0
cazzette 0.0
annnnnnnnnd 0.0
shinier 0.0
giambattista 0.0
katys_teddybear 0.0
gnight 0.0
katheryn 0.0
psychoanalysis 0.0
bckgrnd 0.0
kingman 0.0
gracevanderwaal 0.0
fecking 0.0
ihrcountdown 0.0
stubbies 0.0
xfactor_italia 0.0
aaronpauley 0.0
purity_ring 0.0
scorpios 0.0
ayyyye 0.0
capitalizes 0.0
flamin 0.0
motherfucking 0.0
jingled 0.0
pharrellhat 0.0
ontarioglow 0.0
teached 0.0
umusic 0.0
auroramusic 0.0
dailymendeslife 0.0
soloing 0.0
universalse 0.0
dustinkloeppel 0.0
robynkonichiwa 0.0
charli 0.0
lonelydot 0.0
adamselman 0.0
sorrenti 0.0
offish 0.0
vinoodh 0.0
guitarists 0.0
cocking 0.0
cabbages 0.0
amelia_libman 0.0
flutter 0.0
lolita 0.0
kingladygaga 0.0
breakthecycledv 0.0
howbow 0.0
curveballs 0.0
tamagotchi 0.0
jarryd 0.0
alliseeisgold 0.0
thebroadmuseum 0.0
sarahsowitty 0.0
brillz 0.0
jackgarratt 0.0
markryden 0.0
duffscakemix 0.0
sanrio 0.0
theniceguyla 0.0
trills 0.0
susangkomen 0.0
faustopuglisi 0.0
gurlll 0.0
cheesecakes 0.0
scorpio 0.0
oblivia 0.0
skipmarley 0.0
correcto 0.0
jessirklein 0.0
unpatr 0.0
squish 0.0
greg_wells 0.0
onlyleah 0.0
gittin 0.0
popstars 0.0
krafts 0.0
bouche 0.0
problemo 0.0
wheezing 0.0
patmcgrathreal 0.0
cienega 0.0
thundering 0.0
nastialiukin 0.0
janell 0.0
katelyntarver 0.0
miamoretti 0.0
missoni 0.0
dannymoonsworld 0.0
mrchrismcmillan 0.0
madge_freak 0.0
woridstarcomedy 0.0
ikissedasoldier 0.0
kpezandchez 0.0
perrysoldier 0.0
emilynotchez 0.0
iickmekaty 0.0
basicallyadam 0.0
katysangelegg 0.0
nicolasjebran 0.0
xchadballx 0.0
scott_myrick 0.0
lockoir 0.0
shannonwoodward 0.0
calluses 0.0
chamomile 0.0
trollin 0.0
sleighing 0.0
chestercheetah 0.0
royksopp 0.0
scottsimonswvla 0.0
sirenscaiiing 0.0
slowdownkaty 0.0
chefantoniopark 0.0
garnished 0.0
endive 0.0
mdmolinari 0.0
prezzy 0.0
motioning 0.0
hernameisbanks 0.0
rockcampla 0.0
jenniefinch 0.0
getglucky 0.0
stendhal 0.0
ryanphillippe 0.0
hotncolds 0.0
kpcollections 0.0
katie_wignall 0.0
katysdrugx 0.0
evrenperry 0.0
katycatwendy 0.0
yungskeeter 0.0
sarahhudsonuvs 0.0
mothern 0.0
oliverheldens 0.0
marrymemargot 0.0
katyperrylately 0.0
kewlest 0.0
katyshellokitty 0.0
pqgerry 0.0
rasarioatelier 0.0
anakhouri 0.0
romaneperry 0.0
hot_chip 0.0
agador 0.0
freddietinkles 0.0
cynthialovely 0.0
augustgettyatelier 0.0
tbsnetworks 0.0
ronyalwin 0.0
justinandersoncolor 0.0
mmillerrider 0.0
jpgaultier 0.0
harharharhar 0.0
iikeanangel 0.0
vonnypoo 0.0
jcoopkp 0.0
itzmero 0.0
katysprismlight 0.0
hatérs 0.0
awkwardaya 0.0
katysredskittle 0.0
tiedye_princess 0.0
adelshahal 0.0
marinadiamandis 0.0
samadizayee 0.0
itsslatykaty 0.0
johnlordperry 0.0
nuggetperry 0.0
kthnkzbye 0.0
teamkpbrasil 0.0
twenagedream 0.0
ashleyegreer 0.0
perryllover 0.0
perry_slays 0.0
_andresgalvis 0.0
poplitics 0.0
likerotica 0.0
sweetxjaureguix 0.0
jessiambriz 0.0
perryncolds 0.0
pwideawake 0.0
brunastrait_ 0.0
anafalqueto 0.0
pessoalmente 0.0
mark_hodson_ 0.0
sumtxkid 0.0
arpoador 0.0
katysmychampion 0.0
amnattg 0.0
osullivanluke 0.0
stephiruth 0.0
katy_pizza_bae 0.0
kpcatt 0.0
pedroeugeniio 0.0
gugs_prismatic 0.0
zeeusmtz 0.0
legendarycold 0.0
robynxkatheryn 0.0
écouter 0.0
energyberlin 0.0
karysjones 0.0
lilzariya 0.0
puroland 0.0
pavlovitz 0.0
dreamhampton 0.0
prismsperry 0.0
perrysmic 0.0
focusonreid 0.0
tonyatalterian 0.0
makeup_man 0.0
wtfkates 0.0
sella_sandra 0.0
katycute_ 0.0
caitsperry 0.0
katyperryforum 0.0
radiantjareau 0.0
lillysgomez 0.0
katycatsweden 0.0
perryicecream 0.0
xamyrosex 0.0
wtvrlara 0.0
bijanstephen 0.0
ameliashowalter 0.0
screamkng 0.0
tvmcgee 0.0
liiife 0.0
itskatcombs 0.0
yaaaaaasssssssssss 0.0
katysmyhabibi 0.0
skottpeace 0.0
ferras 0.0
kweens 0.0
habibi 0.0
orlandobloom 0.0
huckchinn 0.0
katycatkenzie 0.0
matarazzo 0.0
fkatwigor 0.0
perryschild 0.0
hotxcolds 0.0
maddisonxperry 0.0
akaruikaty 0.0
chillinlaidback 0.0
erryone 0.0
chrisanokute 0.0
beyelite 0.0
kuntyewest 0.0
chiroprac 0.0
katyperryrises 0.0
godneybjs 0.0
liquoronurlips 0.0
katystumblrr 0.0
holiestkaty 0.0
hollykittykaty 0.0
katysprincess 0.0
katysdonut 0.0
carlythekatycat 0.0
katycatsophia 0.0
fridaaperry 0.0
iegendarylovers 0.0
katycatveronica 0.0
katyperryslave 0.0
hakimkharbouch 0.0
keonovak 0.0
plaaaaay 0.0
scatting 0.0
shotted 0.0
dizzycoco 0.0
fkinsnapss 0.0
junkygs 0.0
ミニチュア料理 0.0
エビフライとエビ天 0.0
adidasboosts 0.0
lilithia 0.0
cottoncandizzle 0.0
ultimatebeyhive 0.0
paramorewebnews 0.0
royale_lala 0.0
musicnews_feed 0.0
katyperryextra 0.0
greeniight 0.0
gagas_illusion 0.0
lesbiyonce 0.0
blurryhface 0.0
lordofgiraffex 0.0
ifuseekamy_ 0.0
legendarymalek 0.0
hausoframez 0.0
unstan 0.0
chioekardashian 0.0
theiife 0.0
handstomyseif 0.0
legendarylovers 0.0
gagas_fandom 0.0
thinagedream 0.0
conditionalbabe 0.0
dannysuschrist 0.0
prismdluxe 0.0
herwonkeye 0.0
camilasviews 0.0
gagalovesbey 0.0
shadykatyfacts 0.0
limalimoncia 0.0
heavymetaiovers 0.0
katyscrush 0.0
waikingonair 0.0
eduardo_katycat 0.0
katyswetdream 0.0
katherynsgod 0.0
katystddbr 0.0
katyboobies 0.0
royaityler 0.0
nothingfaiis 0.0
kathrynluck_ 0.0
prismaticiights 0.0
mendesperry 0.0
katycatghita 0.0
mark_katycat 0.0
iwasdivine 0.0
skywaterr 0.0
xjojospearsx 0.0
alwaysbeperry 0.0
skoglyrihanna 0.0
legendarydurk 0.0
halseysfirework 0.0
rainbowspatrick 0.0
katysfood 0.0
honeymoonprism 0.0
onepulsetony 0.0
butcha 0.0
okurrr 0.0
the_mpt 0.0
talaofficial 0.0
miniatures 0.0
ohmyjurassic 0.0
katysmoonlight 0.0
lilly_jnes 0.0
coco_ho 0.0
perryhumorr 0.0
yikesjonathan 0.0
rubyrankin 0.0
thealekovski 0.0
cydney_moore 0.0
truebluedeluxe 0.0
thedutchass 0.0
katyskettle 0.0
ferraseu 0.0
katyssunlight 0.0
typosqween 0.0
adoreeeperry 0.0
katyperryfrance 0.0
snowiner 0.0
_coolkatycat 0.0
nicothekatycat 0.0
adorbies 0.0
jackygerardchan 0.0
brewmystew 0.0
katyswildfire 0.0
rihftperry 0.0
theolagu 0.0
ritajoness 0.0
iitsjackie 0.0
mjjperry 0.0
jesuskylie 0.0
holyerotica 0.0
graceofkaty 0.0
redsvelvets 0.0
booyakasha 0.0
tariqterry 0.0
katycatalannah 0.0
taylxre 0.0
pacifyher 0.0
basedkatyperry 0.0
diddleurskittle 0.0
katysanalien 0.0
gagasspace 0.0
tayiorhq 0.0
givenchydress 0.0
augustryder 0.0
perrysmoschino 0.0
kittehn 0.0
katrieber 0.0
legendaryhunty 0.0
katyslegs 0.0
katyfroot 0.0
winesandlines 0.0
sam_incolour 0.0
wakingonair 0.0
drwssinup 0.0
huffdaddysays 0.0
fiwwwwine 0.0
matthewroper 0.0
emmabruhhh 0.0
gingerwesson 0.0
nicholas_sewell 0.0
perfectlyperry 0.0
bustabusta 0.0
mynameisziam 0.0
venuzszfly 0.0
katherynsus 0.0
sacredperry 0.0
thedollsftkaty 0.0
_cafajeff 0.0
debkatycat 0.0
katycats 0.0
eastonjames_ 0.0
oliviabooker_ 0.0
protecti 0.0
outrageousness 0.0
joanneprada 0.0
scuffed 0.0
catoure 0.0
blanged 0.0
tahmorrow 0.0
glukatyperrypop 0.0
jamesjoint 0.0
pressin 0.0
bourree 0.0
honeysuckle 0.0
meowings 0.0
fashun 0.0
happun 0.0
vikander 0.0
thekatyperrypopgame 0.0
karolfabianaros 0.0
nico_thekatycat 0.0
miss_lilyjames 0.0
stylinfunk 0.0
hudsontheband 0.0
jere_my 0.0
crabitat 0.0
tiersz 0.0
unrehearsed 0.0
fanclub_kp 0.0
oneofthesophies 0.0
fusterlandia 0.0
lazyblazy 0.0
katycatchloe 0.0
figali 0.0
prismaticness 0.0
titicaca 0.0
ancientaliens_ 0.0
sneezin 0.0
cristos 0.0
mallman 0.0
prismaticlife_ 0.0
ravensuxx 0.0
perrypositive 0.0
derkwhore 0.0
alekjandro 0.0
havss_ 0.0
hqzaynmaiik 0.0
thique 0.0
bbhmms 0.0
jkatharineb 0.0
jennyformica 0.0
tiiiiiight 0.0
ikissedagay 0.0
harryvuitton 0.0
aeschleahd 0.0
princessjavonda 0.0
errrythang 0.0
kooning 0.0
sugarray 0.0
empaths 0.0
goldenboyz_inc 0.0
voguejp 0.0
chickenwingguardingthemimosa 0.0
katyperrypopup 0.0
unmeasurably 0.0
transviolet 0.0
beauteous 0.0
katyskidrauhl 0.0
thooooooseee 0.0
clairesstores 0.0
nailsbymh 0.0
katysacutie 0.0
psychokatycat 0.0
kaceymusgrave 0.0
refueled 0.0
hyungsunju 0.0
okuurrrr 0.0
cholewheeler 0.0
leftshark 0.0
momchella 0.0
crotches 0.0
hookedondolls 0.0
fyuseapp 0.0
mogonoloball 0.0
atletica 0.0
katycatsclub 0.0
catacombs 0.0
poppycorn 0.0
cupped 0.0
christiania 0.0
residenz 0.0
lindseyweber 0.0
butterballface 0.0
joshlecash 0.0
myassistant 0.0
swiftschrist 0.0
snowhiteperry 0.0
emmakphughes 0.0
katyslegend 0.0
dansnierson 0.0
scressful 0.0
prismaticwitch 0.0
finnin 0.0
habibis 0.0
mophies 0.0
strongé 0.0
drumkit 0.0
anamanaguchi 0.0
gaultier 0.0
ngvmelbourne 0.0
dukedumont 0.0
legendaryasmyn 0.0
highlarious 0.0
calpurnia 0.0
waaaaait 0.0
mktfah 0.0
fwding 0.0
caseyhoops 0.0
worldstarvlne 0.0
flapfkp 0.0
bettycrocker 0.0
mexxxico 0.0
whhhhhhhhuuuuuutttt 0.0
yelletweets 0.0
gucciqxxn 0.0
luckyladyrebelettes 0.0
junglejulia 0.0
charlottes_web 0.0
istarbucksniall 0.0
katysroaaar 0.0
fiorucci 0.0
whuteva 0.0
sirdavidd 0.0
fudgery 0.0
bizquick 0.0
itsgrandtheft 0.0
grandtheft 0.0
katysfancy 0.0
ameezyyrush 0.0
mykectown 0.0
itsvalkubus 0.0
walkslikeperry 0.0
iwantperry 0.0
exausto 0.0
selfeh 0.0
aquaberry 0.0
sidepiece 0.0
versacness 0.0
iamleslii 0.0
alocalgyro 0.0
cutina 0.0
theoutslder 0.0
prism_katy_cat 0.0
katyshoodrat 0.0
thestevetisch 0.0
ronysphotobooth 0.0
schlitterbahn 0.0
kpsnosecrinkle 0.0
alwz_katycat 0.0
whykph 0.0
californiagurls 0.0
katycattt 0.0
varicose 0.0
itsbrillz 0.0
perrystiger 0.0
katysmyaura 0.0
paolablancokp 0.0
callmemargot 0.0
indiggynado 0.0
katycat 0.0
anylinden 0.0
kpkillerqueen 0.0
katyslilacwine 0.0
katypvenezuela 0.0
franzikaty 0.0
katherynelperry 0.0
doessss 0.0
katysleftarm 0.0
datingprism 0.0
_smiler_katycat 0.0
kepyterry 0.0
katycat_camille 0.0
vckatyperry 0.0
bowzerjoe 0.0
taishrox 0.0
mütter 0.0
arianperryarian 0.0
lisasigh 0.0
fridiskp 0.0
kevinruda 0.0
katyperrydaily 0.0
wakingupvegas 0.0
marlyins 0.0
drankin 0.0
herkatycat 0.0
luvhudson 0.0
yaeltsairi 0.0
felipinhoofm_ 0.0
renanmarcall 0.0
kariseperry 0.0
emojing 0.0
konnie 0.0
mcperry 0.0
iturnmycanonon 0.0
katycatelysha 0.0
andrewnavs 0.0
katycatkrystal 0.0
lovelyandlaugh 0.0
lampoonians 0.0
perrytuuda 0.0
katymyhaven 0.0
ruletheschool 0.0
cheapandchic 0.0
sically 0.0
crazyforperry 0.0
kpdaily 0.0
getonupmovie 0.0
cutetina 0.0
chimiuzz 0.0
kefali 0.0
joelkefali 0.0
siclly 0.0
mtvother 0.0
lydiaacav 0.0
prismaticperry 0.0
jwujek 0.0
adorbie 0.0
errone 0.0
kaliyah 0.0
katysweirdness 0.0
vinbiodiesel 0.0
katysfxb 0.0
katyspurrfect_ 0.0
shannonmwoodward 0.0
bippity 0.0
boppity 0.0
swiggty 0.0
swoogity 0.0
pizzarella 0.0
firewerk 0.0
katyslayed 0.0
emerald_epelman 0.0
madkatydisease 0.0
mandee 0.0
ohferras 0.0
sarahh 0.0
iaustinhunt 0.0
lanawhore 0.0
spaceykacey 0.0
crazay 0.0
elektrikpeople 0.0
visa_nz 0.0
fvckin 0.0
nathanspicer 0.0
cashcash 0.0
ashish_uk 0.0
xokatic 0.0
turnting 0.0
scorpiomystique 0.0
toddthomasnyc 0.0
kohngallery 0.0
discnt_universe 0.0
dressinkaty 0.0
lee_cook 0.0
bloodshot 0.0
yaddlizc 0.0
elnett 0.0
itsthekatycats 0.0
kelly_moritz 0.0
katyslaykaty 0.0
skintxghtjeans 0.0
socarrer 0.0
errrday 0.0
therealslacker 0.0
wendywild 0.0
welkys 0.0
sohohouse 0.0
selfing 0.0
camiilaruales 0.0
nexxxt 0.0
turrell 0.0
alliexxxxandra 0.0
surfboardt 0.0
telstra_news 0.0
juanitadele 0.0
oopskatycat 0.0
sophkatycat 0.0
katyschild 0.0
katysconverrse 0.0
katycat_leah 0.0
katycatverified 0.0
katycat_libby 0.0
katyswonk 0.0
kittless 0.0
jlrcukp 0.0
siiiiiiiiiiiiii 0.0
ermagherd 0.0
imlynsey 0.0
perrys_cherry 0.0
casemcgase 0.0
hazzaily 0.0
herses 0.0
gaypropaganda 0.0
tixforcharity 0.0
hudsons 0.0
nomers 0.0
mommacat 0.0
superlove 0.0
bonacorso 0.0
levi_leet 0.0
thinkingofbecki 0.0
cybering 0.0
pamyurin 0.0
idreamofkaty 0.0
xfactor_au 0.0
glohudsonperry 0.0
aubreyplzza 0.0
eeshhuhhayniac 0.0
bonkay 0.0
katysbum 0.0
nevillebradley 0.0
curryswift 0.0
zinepack 0.0
katykatt_suraya 0.0
sweetkatybird 0.0
yohkatheryn 0.0
cottoncandykaty 0.0
karolynadiaz 0.0
maayansharvit 0.0
theprismcess 0.0
camisp_ 0.0
lucasgaldin 0.0
prixy_mtz 0.0
niggasperry 0.0
kaksperry 0.0
zennnnaaa 0.0
katyissmurfy 0.0
dadehoward 0.0
kyledsaavedra 0.0
katysdoritos 0.0
pendejabardera 0.0
rosenilsou 0.0
hackensucks 0.0
gottabesheerio 0.0
ismaellgarcia 0.0
milegendz 0.0
alexskarev 0.0
ladycrystalb 0.0
katyspad 0.0
xcallmechrissyx 0.0
arianastylesss 0.0
jorgebaker 0.0
matty_zee 0.0
katycatzilla 0.0
adorie 0.0
meowwdison 0.0
alvin_koopa 0.0
lexyauditore 0.0
kease_it_raw 0.0
katysking 0.0
chris__kirby 0.0
katysbestfrwend 0.0
katyslildancer 0.0
sssshhh 0.0
conorhughess 0.0
tanimura 0.0
thekatycatlife 0.0
weefififookface 0.0
breakalioz 0.0
hudsonhelper 0.0
lariitaa 0.0
meeeeeooooooooowwwww 0.0
legend__dary 0.0
katyandliam 0.0
_theatrekid 0.0
babybritney 0.0
erinlorimer 0.0
_zacmoore_ 0.0
itscezzurryo 0.0
katycatskp 0.0
larissafilipo 0.0
siaylorswift 0.0
shitkittens 0.0
thefrankradical 0.0
katysprism 0.0
katytinalevine 0.0
serjeeoh 0.0
kayz_perry 0.0
katyslaysurfav 0.0
fuckyeahitskath 0.0
sweetyitosan 0.0
pickerington 0.0
verrado 0.0
retweete 0.0
jameswaterhouse 0.0
hunnah 0.0
truth_ispeak 0.0
_emilybarbarrr 0.0
nbllrrr 0.0
jmoneygraves 0.0
eaglenationnews 0.0
tauentzienstrasse 0.0
avontbh 0.0
vinnie_mate 0.0
demilovve 0.0
coolestkatycat 0.0
terri_katycat 0.0
beeeaaatttt 0.0
laurenfrancisco 0.0
victaytayp 0.0
aylajaye 0.0
iloveu 0.0
augustvaz 0.0
lizzievang_ 0.0
edsssss_ 0.0
hhhhhholly 0.0
holly_hickin 0.0
trixxx 0.0
killah 0.0
treasurefingers 0.0
最強ガール宣言 0.0
voykovic 0.0
annunaki 0.0
katyshomie_ 0.0
katyselephant 0.0
caitlynsmith 0.0
lightsperry 0.0
elizagilham 0.0
ohmyjatyfeels 0.0
junglescope 0.0
drunkskaty 0.0
malikpom 0.0
dancerlaurena 0.0
brirad 0.0
elisa_rv 0.0
moooom 0.0
pattymeagher 0.0
iwasemily 0.0
shahrzadphoto 0.0
tvjohnny 0.0
cstonethebreadwinner 0.0
katysrightboob 0.0
cyberdlck 0.0
beatforkaty 0.0
igabriiel 0.0
duuuuddddeeeee 0.0
redrum 0.0
srbuhiii 0.0
kayleighcat 0.0
applekatycat 0.0
ikatycats 0.0
wehryspencer 0.0
emilyjonesphoto 0.0
coxgabe 0.0
drugmoneyx 0.0
steven_drum 0.0
victoriacha 0.0
hashtaggin 0.0
perryandemetria 0.0
katycatfurlife 0.0
iammelissalynn 0.0
qewtie 0.0
yscheecat 0.0
slayty 0.0
katystree 0.0
katherynsboy 0.0
anapurry 0.0
nenedez 0.0
kevinn_perry 0.0
gloria_swag_ 0.0
andyamaziing 0.0
roarsana 0.0
brighthudson 0.0
fixingperry 0.0
roooooooooooooar 0.0
gretschusa 0.0
katys_cupcake 0.0
wonderation 0.0
kasek_craig 0.0
katysgurll 0.0
pepperperry_ 0.0
teamkatyperry 0.0
meandnutella 0.0
lovatokitten 0.0
katyslolly 0.0
astixxx 0.0
ravemomentz 0.0
erzaabrianto 0.0
katyperryindo 0.0
seeingdaisies 0.0
gillian_e_dubbs 0.0
samanthachazene 0.0
perryprism_ 0.0
katycompletesme 0.0
ltskatyperry 0.0
kittenscks 0.0
nihanofficial 0.0
momcat 0.0
kaytehperreh 0.0
__grazi 0.0
clairekatycat 0.0
fangurl 0.0
rrrrrrrrrrrroooooooooooooaaaaaaaaaaaaar 0.0
marispiva 0.0
mattdrobins 0.0
deihemmings 0.0
rooaaarr 0.0
katycatobsessed 0.0
katycatnick 0.0
tigerkats 0.0
kristenanzelc 0.0
taylermckellop 0.0
essesfadaperry 0.0
imjare 0.0
smganonymous 0.0
roaaaar 0.0
phuckyotweet 0.0
evvvvvverrrr 0.0
melvynmarrero 0.0
zouisashton 0.0
trillneyspears 0.0
rooooooar 0.0
fanwars 0.0
fentyncold 0.0
ttish_ 0.0
rachelacogan 0.0
makesmariana 0.0
kkaplon 0.0
rafaelmoncada 0.0
yaaaassssgrl 0.0
oioianna 0.0
katycatrazan 0.0
megaan_katycat 0.0
thekaelynn 0.0
hannahloupunton 0.0
thumbelinafairy 0.0
nic_kathryn 0.0
dannahfields 0.0
rodneybroaddus 0.0
noxisanasshole 0.0
soedesh__ 0.0
hookerofversace 0.0
thinkingofkaty_ 0.0
msgracevalerie 0.0
francfernandez 0.0
katysring 0.0
a_little_spark 0.0
laaxiss 0.0
