awesome 0.000822124570908
christmas 0.000396724060893
trying 0.000286409263943
launch 0.000526773854308
moment 0.000263961098409
wonderful 0.000321718350684
seeing 0.000196157848913
hanging 9.02639916171e-05
sounds 0.000407429063618
recommend 0.000106574405479
worked 5.16220810988e-05
direct 6.75952017495e-05
others 5.13434786966e-05
currently 0.000511057528997
better 0.000613898612537
please 0.000263250492395
social 2.67370998335e-05
anxiety 0.0
around 0.000897236433708
people 0.00136946613566
morning 0.00066469522161
traditional 0.0
general 0.000183574743899
damage 3.89198475142e-05
everything 0.000213652035518
twitter 0.000761702069864
present 0.000243265552765
though 0.000444941736037
friend 0.000143204631972
watched 0.000107239450228
beautiful 0.000684703178848
anything 0.000434271550549
previous 7.50054663439e-05
helped 2.60215455255e-05
updated 0.0
thinking 0.000218309830006
finally 0.000242566477785
caught 8.02112995005e-05
believe 0.000402478635297
already 0.000520854704502
couple 0.000155707010812
orlando 0.0
chance 0.000308608495748
meaning 0.000140427554102
growing 5.69402790231e-05
probably 0.000411860595507
password 5.92526160971e-05
changed 0.000203164627838
history 0.000391258959342
center 6.22294905565e-05
museum 0.000206094980685
behind 0.000236114850976
screaming 0.0
pretty 0.000460876307791
really 0.00125817309805
little 0.000378803421456
happiest 0.0
earlier 0.000305544438364
forget 4.81224825385e-05
someone 0.000406841670065
safety 3.43928799269e-05
program 9.90796352749e-05
things 0.000637510097635
related 0.000279205386968
visiting 0.0
available 0.00017256666179
perfect 0.000222470868018
different 0.000313640564285
search 0.000222144790286
connect 8.8743741248e-05
numbers 0.00020771115355
person 0.000119015948416
watching 0.000596685966549
exhibit 0.000168083594663
passed 0.000144719822387
prefer 7.16863275038e-05
minutes 0.000269717042255
travel 0.00110290698615
outside 0.000276348713233
looking 0.00139683761662
forward 0.000438980814595
agreed 6.36498373287e-05
raising 6.77915553388e-05
listened 0.0
afraid 0.000184088969184
impression 8.72348918026e-05
christian 4.16249342461e-05
profile 9.73930209445e-05
instant 0.0
drawing 4.23174027929e-05
wheels 0.000147894432235
favorite 5.51001902524e-05
picture 0.000454656598594
instead 0.000133685499168
appreciate 0.0
international 0.000322808355722
station 0.000866131458795
toddler 0.0
market 3.200585047e-05
couldn 0.000148313912012
remember 0.000213652035518
vintage 0.000108198650551
holidays 6.77915553388e-05
friends 4.77348773239e-05
everyone 0.000403564955978
florida 0.0
always 0.000826401978415
months 0.000446144018965
moving 0.000153199531006
meeting 0.000243221443117
answer 0.000656697896416
sweetie 0.0
together 0.000380851034932
inside 9.88759413415e-05
section 7.29861243349e-05
missed 0.000240612412693
button 7.88235424933e-05
longer 0.000274001804315
enough 0.000335950488884
driving 2.90238680566e-05
building 0.000133322803259
enjoying 2.90238680566e-05
london 0.000790628878654
exploring 0.000100132129869
posting 3.56304462312e-05
amazing 0.000497179490661
attention 0.000107531400817
gordon 0.0
progress 0.0
tomorrow 0.000593477876438
george 5.90181052604e-05
feeling 0.000248527618128
excited 0.000223072009483
understand 0.000103524002226
following 9.96797414305e-05
asleep 8.75328295114e-05
learning 5.88549860302e-05
evening 0.0003261249375
special 0.00023931862945
secret 2.65922436424e-05
across 0.000450842506627
surprised 0.000113257150236
anymore 3.02560511899e-05
sophia 0.0
precious 0.0
rejoice 0.0
version 0.000288573385376
rather 0.000293310167169
avatar 6.01326490799e-05
showing 0.000430559680226
saying 0.00017350045182
tweeted 0.000156892817494
thoughts 0.000125952785302
exactly 0.000231045654135
except 9.07681535696e-05
getting 0.000712173451725
nothing 0.000403564955978
tweets 0.000130814660432
course 0.000588473546738
photos 0.000287058634504
looked 0.000215648513362
difficult 9.3870888486e-05
stages 5.81280471282e-05
office 0.000102686957393
decisions 0.0
brought 7.89155111355e-05
biggest 0.00022008316463
thrilled 3.61658770001e-05
something 0.000498521416208
closing 7.06298411537e-05
anyone 0.000909410791911
taking 0.000261130265633
recently 0.000154269211179
interesting 0.000634758497429
original 5.61648433697e-05
flying 0.000208866965223
happening 2.58810005564e-05
sometimes 0.000104651728345
lessons 3.43928799269e-05
village 4.76565304862e-05
stopped 5.570562124e-05
yesterday 0.000311114218285
service 5.2184265955e-05
serious 0.000101582313919
digital 0.0
hoarder 0.0
wearing 5.570562124e-05
british 0.000518920330806
either 0.000103524002226
second 0.000167523040615
checking 6.15350225966e-05
indeed 0.000453206982751
island 6.72049270471e-05
hearing 0.000106080589795
choose 2.79290998143e-05
staying 0.0
another 0.000426153849138
clothes 0.0
slowly 4.3030794976e-05
weekend 0.000216551171423
hashtag 0.00038503911404
delivery 0.0
theory 0.00073947710277
working 0.000261130265633
bigger 0.00022282248496
screen 0.000192581033787
riding 4.10852196596e-05
laughing 2.81594575936e-05
wanted 0.000215968171426
trends 5.38689674962e-05
stripes 6.74287123e-05
clothing 0.0
current 0.000112022545199
adorable 0.0
grateful 9.30823706371e-05
friendship 0.0
family 7.12173451725e-05
listening 0.000182150818679
stream 0.000130601033924
expressions 0.0
wedding 0.000612982856611
sharing 2.79290998143e-05
double 0.000268828502043
especially 7.89155111355e-05
middle 5.45024231542e-05
waiting 0.000243221443117
definitely 0.000259511684687
walking 2.84701395115e-05
account 8.35584318599e-05
completely 8.44783727809e-05
thought 0.00038290980712
reaction 0.000129857361259
accept 3.03405288653e-05
simple 5.5250821864e-05
professional 0.000140842701761
friendly 3.53149205769e-05
supposed 3.15560942983e-05
business 0.000153614374379
absolutely 0.000380933677196
anywhere 6.32907255586e-05
sending 0.000110200380505
introducing 0.0
congrats 0.000249199353576
beauty 0.000169971821946
community 2.92652141282e-05
greatest 0.000155707010812
selfie 0.000106574405479
posted 5.61648433697e-05
saturday 2.50548584968e-05
wednesday 0.000229016216263
confused 3.45946887204e-05
expression 0.0
chicago 0.0
closest 0.000181240795207
relationship 3.19152112604e-05
actually 0.000316187876052
easter 3.24643403148e-05
basket 5.52860818384e-05
myself 3.11147452782e-05
argument 3.66031392204e-05
school 0.000554902536813
thursday 0.000152373470878
selling 9.73930209445e-05
talented 0.0
celebrate 5.24678882502e-05
falcon 0.0
celebrating 0.000113257150236
contest 6.18809799695e-05
experiences 8.84380898884e-05
students 0.000346138782505
internet 8.85271578906e-05
figure 2.83920849443e-05
opened 6.93924873031e-05
featuring 6.17076844716e-05
inspired 0.000143529317252
sitting 0.000160859175342
playing 0.000144757183516
street 0.000210441363028
points 6.08506197447e-05
memory 3.28376522034e-05
forever 2.6809862557e-05
imagine 0.000158689624357
problem 0.000458357696571
played 7.9560442346e-05
canadian 4.09521968565e-05
pulling 0.0
keeping 0.000106080589795
lovely 0.000477410206223
dressed 0.0
specifically 0.0
unlike 0.0
disappointed 7.1473130888e-05
otherwise 0.000202198983662
afternoon 0.000279290998143
planned 3.40933644718e-05
strange 7.29861243349e-05
images 0.000876998068883
noticed 0.000112852893409
notice 6.43763588925e-05
stretch 0.000131299244267
inspiration 3.25571164071e-05
letting 2.91844910236e-05
system 0.00112757483356
possibility 9.19142585448e-05
almost 0.000237391150575
details 0.000233560516218
experience 0.000123928894157
living 0.000148714672988
weather 0.000333745817518
normal 6.36498373287e-05
launching 0.0
before 0.000128706436096
captured 0.000285939182917
colors 0.0
monday 0.000247857788314
example 6.27571269976e-05
realize 3.40933644718e-05
autographed 0.0
sleeping 3.77330909513e-05
authentic 0.0
science 0.00365209909699
tweeting 0.000162619060217
forgot 0.0
chasing 4.92981440783e-05
gorgeous 0.000385575158245
herself 0.0
happens 0.00022127366279
silence 0.0
learned 0.0
congratulations 0.000130814660432
natural 0.000168499153052
raised 3.1027456879e-05
babies 3.69364833702e-05
mission 0.000997833562834
smelled 0.0
ironic 0.0
testing 0.000208124671231
deleted 4.71337456225e-05
barely 0.0
unforgettable 0.0
forgotten 3.53149205769e-05
trouble 0.000234769713252
fantastic 5.60112725995e-05
loving 0.000140028181499
complete 0.000218009692617
nearly 3.12023575684e-05
spirit 0.00018460506779
launched 0.000212517767997
finding 0.000203167076396
mercury 0.000896318707346
stories 0.00015403043609
including 0.000184636285
mature 0.0
stuffed 0.0
ancient 0.000354611971121
bottle 0.0
somewhere 0.0
wouldn 0.000204819165839
choice 0.0
conversation 5.77286607763e-05
making 0.000307777779933
expect 8.54104185346e-05
occasions 0.0
subject 0.000119362676347
flights 0.0
location 0.000111823803319
vacation 0.0
seriously 5.24678882502e-05
spending 0.0
groups 0.000153276055789
childhood 0.0
modern 0.00017096390699
welcome 0.000215968171426
moments 0.0
degrees 0.000133577075754
jacket 0.0
halloween 3.56304462312e-05
costume 9.3924049948e-05
totally 5.4800360863e-05
laughed 0.0
flight 0.000227761116092
kidding 0.0
regular 3.52106754402e-05
context 0.000120124344496
running 9.96797414305e-05
finished 0.000113568339777
strong 0.0
tracking 0.0
respond 0.0
message 7.55716711814e-05
coming 0.000449829062979
thankful 0.0
cheese 0.0
greens 0.0
issues 5.66285751178e-05
intolerance 0.0
happen 0.000145147994552
giving 0.000119982317459
turkey 3.45946887204e-05
excellent 9.28214699543e-05
limits 8.8134404146e-05
common 0.000117384856626
pressed 0.0
situation 0.0
options 0.0
health 0.000112022545199
insurance 4.09521968565e-05
change 0.000261130265633
singing 6.34699400818e-05
august 6.70109926054e-05
crying 3.73883916163e-05
mental 3.53149205769e-05
happened 7.49619016602e-05
demand 0.0
generally 4.80115971035e-05
personal 5.16220810988e-05
beyond 0.000212161179589
bruised 9.37792248558e-05
question 0.00031533642112
chicken 6.81867289436e-05
reward 0.0
tunnel 5.60278648876e-05
losing 0.0
respect 5.19023369373e-05
caption 0.0
shouldn 8.51762548328e-05
visited 0.000111823803319
reason 0.000124936502767
simply 0.000148365109678
darlin 0.0
audience 3.28376522034e-05
involved 8.2876232796e-05
unhappy 0.0
reality 0.000112946982665
extremely 0.0
without 0.000215386766505
falling 0.000140014223287
countdown 0.0
locations 0.0
timing 0.0
crabby 0.0
classic 2.91040429557e-05
highly 0.000101392802624
online 0.000102133020671
finger 4.04274755935e-05
animals 7.93232611268e-05
planets 0.00226652956691
called 0.000477348773239
delicious 0.000126113921018
almond 0.0
compliment 0.0
pictures 0.000120017666561
camera 0.000248219655032
pillow 0.0
checked 0.0
heading 8.47102369987e-05
theater 0.0
paying 0.0
planning 6.17076844716e-05
complex 0.0
sunday 9.80789244564e-05
nights 0.000105010667465
descending 0.0
traffic 7.12608924624e-05
opposite 0.0
through 0.0
lookout 7.50498714413e-05
reached 0.000140842701761
harder 6.60530901832e-05
random 0.000138378754882
changes 5.86924283131e-05
speaking 0.00016306246875
recorded 7.21156301895e-05
washed 0.0
november 0.000190949511986
answered 3.7502733172e-05
enchanted 0.0
number 0.000291865731741
adventures 0.0
eclipse 0.000904245076582
chocolate 0.000109150487744
unless 2.92652141282e-05
calling 9.96797414305e-05
mermaid 0.0
distraction 0.0
levels 3.64930621675e-05
option 0.0
shopping 0.0
former 0.00029838137889
actual 3.15560942983e-05
covers 3.84379637458e-05
mountain 0.000167597957968
friday 0.000168428688885
winner 7.91298364285e-05
closes 4.85544137705e-05
quality 3.0681494864e-05
father 0.000108118023451
wishes 6.18809799695e-05
hourly 8.82632312785e-05
matter 0.000916715393142
themselves 4.14888446181e-05
usually 3.16453627793e-05
period 7.08392559989e-05
parents 2.84701395115e-05
balance 0.00011080945011
publishing 0.000101317706035
mobile 3.94117712466e-05
woohoo 0.000187960798622
bracelets 0.0
summer 0.000256023957299
reminded 0.0
impressed 0.000143800982002
necklace 0.0
shutdown 0.0
dinner 2.62339441251e-05
single 7.33610548766e-05
packed 3.89198475142e-05
definition 0.000156167483858
energy 0.000705918641656
preview 0.0
monster 8.1904393713e-05
material 0.000243345400497
admission 0.0
europe 0.000164188261017
holiday 0.000109302314083
emotional 0.000102578344194
update 0.000110803870995
customers 0.0
messing 6.01326490799e-05
holding 0.000112329686739
electric 8.49167346034e-05
eating 0.0
outfit 0.0
picked 2.95908949482e-05
fabulous 8.27070697552e-05
missing 0.00015196224008
surprise 0.000101582313919
officially 5.54019354976e-05
french 9.15311891917e-05
global 0.000222144790286
follow 0.000405746457253
opinion 3.09404899848e-05
backwards 5.10624779758e-05
design 0.0
secrets 8.90513838357e-05
request 3.66031392204e-05
breaks 0.0
allows 0.000134041565649
promoting 4.08199192831e-05
volunteer 0.0
wondering 9.68396239478e-05
official 2.45197311141e-05
sweater 0.0
jersey 0.0
mistake 0.000131350608814
france 6.58638195083e-05
proper 3.77330909513e-05
ginger 0.000123995365553
peaceful 0.0
lighter 6.70250873415e-05
thinks 8.31029032463e-05
competition 0.000160484194822
hospital 0.0
industry 0.000134021985211
trending 3.92878261584e-05
leadership 7.43227127131e-05
organized 0.0
showed 5.96762757779e-05
circle 0.00016815189469
success 5.36197251141e-05
ladies 0.0
dreams 6.24047151367e-05
protect 6.08506197447e-05
onesie 0.0
explanation 4.24583673017e-05
control 0.000106080589795
coincidence 5.00660649346e-05
discovering 0.0
laying 0.0
invited 3.34089256769e-05
healthy 0.0
surgery 8.90513838357e-05
allowing 4.16249342461e-05
arrived 0.000143529317252
opening 0.000129055202747
popular 9.73930209445e-05
pleasure 5.95108711598e-05
spectacular 0.000216611492472
animal 0.000106891338694
luggage 0.0
wonder 0.000205930297754
matters 0.000780058939209
reader 0.0
function 0.0
marketing 0.0
connection 3.86776763134e-05
improves 0.0
benefit 2.97554355799e-05
continues 5.78879289549e-05
cuddle 0.0
routine 0.0
exciting 0.00037011181365
corner 3.38957776694e-05
imagination 0.0
sangria 0.0
mystery 0.000388584871931
spring 6.06810577306e-05
beautifully 4.6962024974e-05
places 8.49428626767e-05
feedback 9.25747304327e-05
continue 8.22005412944e-05
attend 3.5736565444e-05
creative 3.35054963027e-05
memories 9.73930209445e-05
female 9.49360883379e-05
grandma 0.0
closer 0.000178532613479
accent 5.18910361506e-05
beginning 5.96762757779e-05
sooner 0.0
everywhere 8.49428626767e-05
scenes 0.0
bought 8.70716041697e-05
wishing 3.43928799269e-05
discovered 0.000395363704017
remove 0.0
predict 9.49619592049e-05
parrot 0.0
several 0.000239349469786
teacher 7.08392559989e-05
passing 0.000128387355858
become 0.000148714672988
spread 2.71031767029e-05
netflix 3.94117712466e-05
season 7.84887962589e-05
putting 4.98398707153e-05
weight 3.69364833702e-05
outfits 0.0
notification 0.0
annoying 0.00018581692612
necessity 0.0
knocks 0.0
processed 0.0
necessarily 0.000104205599536
effects 0.0
lighting 0.0
headed 0.0
returns 3.18249186644e-05
expected 6.79887287785e-05
bucket 8.93610437662e-05
constantly 0.0
sweetest 0.0
struggling 4.10852196596e-05
register 7.06298411537e-05
transition 0.0
flowers 0.0
sprain 0.0
savage 0.0
somebody 3.54196279995e-05
covering 7.34274637174e-05
gloves 0.0
repeat 3.31215612565e-05
managers 5.89664127735e-05
brothers 3.63834959147e-05
patriots 0.0
seahawks 0.0
player 0.000198729367539
chemistry 5.18910361506e-05
moonlight 0.0
comment 0.000122383162599
columbia 0.0
physical 7.90727408035e-05
kingdom 5.12669076952e-05
pretend 4.16249342461e-05
charles 0.000190414485643
fighting 5.40590117255e-05
rooting 0.0
donald 0.0
mexico 3.42926186931e-05
police 6.11915812996e-05
represent 0.0
president 5.27532242856e-05
talking 0.000761702069864
unbelievable 3.77330909513e-05
shrimp 0.0
giants 4.59571292724e-05
conference 0.000294274930151
america 0.000101034799688
everybody 2.92652141282e-05
houston 4.04274755935e-05
everyday 0.000134799322442
michael 8.04295876711e-05
protecting 0.0
unconditional 0.0
million 0.000448558836437
election 0.000163718847176
telling 0.000107824256681
correct 3.05957906498e-05
pulled 3.56304462312e-05
starbucks 0.0
americans 0.0
killed 0.000158689624357
cowboys 0.0
cowboy 0.0
coverage 0.0
dallas 0.0
coffee 0.000359053570706
timeline 8.13767572719e-05
refuse 4.26001784493e-05
barackobama 0.0
hillary 4.24583673017e-05
clinton 0.0
gatorade 0.0
sharper 0.0
american 0.000125952785302
deserved 3.62744357435e-05
realist 0.0
illegal 0.0
arizona 9.3924049948e-05
waffle 0.0
scared 3.47982372663e-05
pieces 7.02137770509e-05
taught 7.00071116436e-05
golden 3.200585047e-05
straight 2.63051703785e-05
massage 0.0
filter 0.0
answers 0.000152978953249
smoking 0.0
created 0.000199839170767
beside 0.0
worlds 0.000448363738358
record 0.000148714672988
freddie 0.0
africa 3.94117712466e-05
recruiting 5.70546129601e-05
journey 9.25615267074e-05
snapchat 0.0
brother 0.0
prayers 0.0
trolling 0.0
hungry 0.0
nflnetwork 0.0
documentary 0.0
boston 0.0
addition 0.0
church 3.60578150947e-05
honestly 0.0
lounge 0.000111556011142
lifetime 3.58431637519e-05
captain 4.02980972692e-05
favorites 0.0
country 0.00012259865557
valley 0.000202137377967
huddle 0.0
dressing 4.61216699041e-05
finish 5.83689820472e-05
favourite 0.000881337320785
prayer 0.0
nominated 0.0
praying 0.0
insane 3.51068885254e-05
national 0.000231045654135
reform 0.0
shooting 5.93460438713e-05
australia 0.0
deserve 5.82080859114e-05
legend 3.16453627793e-05
mother 2.64482707262e-05
realest 0.0
creating 6.53005169618e-05
powerful 8.68318934324e-05
chilling 0.0
wisdom 0.0
breaking 2.55332551677e-05
parked 6.70250873415e-05
angeles 0.0
dollars 0.0
questions 0.000875597195222
racist 0.0
girlfriend 5.00660649346e-05
performance 2.74750187987e-05
refreshing 0.0
educated 0.0
reading 0.00050381114121
denver 0.0
videos 0.000122383162599
harmony 0.0
create 0.000137375093994
jordan 0.0
admire 0.0
nobody 5.82080859114e-05
government 0.000142099207305
politics 0.000100807390571
paradise 0.0
recover 5.36408354307e-05
spotted 0.000520538826148
blessing 0.0
coolest 8.4075947345e-05
banana 5.06588530173e-05
donate 0.0
sandwich 0.0
lookin 0.0
method 4.96789827394e-05
bullshit 0.0
slight 5.55307626301e-05
bringing 0.000133322803259
deserves 3.15560942983e-05
regret 4.17618128039e-05
celebs 0.0
victim 0.0
stadium 4.01694240075e-05
funniest 0.0
according 0.000283204458413
pumped 0.0
hamburger 0.0
heaven 7.52352622728e-05
honest 0.0
rolling 3.56304462312e-05
became 8.9019065807e-05
feature 0.000390685396885
waking 0.0
breakfast 2.9838137889e-05
counting 0.0
signing 3.11147452782e-05
adding 0.0
awareness 0.0
kindest 0.0
trainer 0.0
facebook 0.000101582313919
insanity 0.0
repost 0.0
brazilian 0.0
campaign 8.26502853786e-05
borrow 0.000108198650551
scorpion 0.0
popcorn 0.0
factory 0.0
teenage 0.0
endorsement 0.0
williams 3.78491181386e-05
custom 0.0
drinks 8.49167346034e-05
future 0.000366805274383
angels 0.0
fingers 0.000147299379739
sister 3.19152112604e-05
earrings 0.0
warrior 0.0
dancing 6.66254968304e-05
voting 0.0
individuals 0.0
presence 0.0
commercial 0.0
chopped 0.0
religion 0.0
century 0.000116759542543
submit 0.000164340878638
serving 0.0
because 3.4192781398e-05
aggressive 4.7306724309e-05
sensitive 4.96789827394e-05
smiling 8.37989789839e-05
besides 0.0
cleveland 0.0
hometown 0.0
killing 0.000121024204759
breath 4.02980972692e-05
phillips 0.0
instagram 0.0
sharks 0.0
cousin 0.0
honored 0.0
dedication 0.0
lifting 0.0
lyrical 0.0
talent 0.0
goodnight 0.0
stores 0.0
rushing 0.0
brains 0.000104632959649
sandwiches 6.07381049482e-05
drinking 0.000105944761731
brazil 0.0
tattoo 0.0
ravens 0.0
regardless 4.1899489492e-05
skills 0.000131727639017
cameras 0.000190626121945
phones 0.0
california 3.39943643892e-05
seconds 3.17349700409e-05
listen 4.90394622282e-05
smiled 0.0
kicking 3.35054963027e-05
homies 0.0
billion 0.000509915465838
shades 0.0
shoutout 4.48363738358e-05
grammy 0.0
guilty 0.0
stevie 0.0
ceiling 5.43319526262e-05
carpet 0.0
grammys 0.0
harvard 5.38689674962e-05
panther 0.0
nelson 0.0
mandela 0.0
handle 9.28214699543e-05
sexiest 0.0
promise 2.81594575936e-05
hosting 0.0
hahahaha 0.0
longest 0.0
tuesday 5.39121283405e-05
locker 0.0
workout 0.0
ingredient 0.0
leader 0.0
pageant 0.0
character 0.000126939880164
idiotic 0.0
mirror 0.000193388381567
jackson 3.83190139472e-05
interview 9.65047890109e-05
battles 0.0
bleach 0.0
insight 0.000210886374368
obviously 6.66254968304e-05
replay 0.0
battle 2.75500951262e-05
stomped 0.0
destroy 4.1218996137e-05
killer 0.0
personally 6.85852373861e-05
winning 0.0
gettin 0.0
japanese 0.000260816466162
writing 0.00134627592114
society 0.000163718847176
officers 0.0
brooklyn 0.0
sources 8.16398385662e-05
incredible 0.000153614374379
poster 0.0
celebrity 3.87984514365e-05
memorable 0.0
werent 0.0
chased 8.37949466242e-05
minute 0.000294108098169
confession 0.0
pregnant 0.0
cherry 0.0
twinning 0.0
phoenix 4.91100037594e-05
orange 7.10496036527e-05
policy 0.000208789423598
comedy 0.0
illuminati 0.0
reminder 0.000314032982634
evidence 0.000633792157924
iphone 3.78491181386e-05
kicked 0.0
intentions 0.0
freedom 0.0
patient 0.0
utterly 5.10624779758e-05
mississippi 0.0
download 3.35054963027e-05
assistant 0.0
invite 0.0
central 0.0
washington 3.13785634988e-05
stronger 7.54661819026e-05
promised 0.0
worried 3.42926186931e-05
throwing 0.0
security 3.14671620459e-05
cologne 0.0
headphones 0.0
sanctuary 0.0
fantasy 8.99865227143e-05
monkey 4.89233507313e-05
approve 0.0
spinach 0.0
turning 0.000148365109678
helping 0.000156552797865
tickets 0.000172235180702
collector 0.0
physically 0.0
slavery 0.0
december 9.87957292624e-05
basically 0.000207568132322
return 0.0001049357765
yassss 0.0
goddess 0.0
locked 3.9914162223e-05
feelings 0.0
language 0.0
motion 0.000125285438412
obsessed 8.32498684923e-05
creation 4.80115971035e-05
followers 3.0681494864e-05
schools 0.000438097797935
gallery 0.0
movies 0.0
foster 0.0
children 0.000234829196797
nation 0.0
theaters 0.0
between 0.0
knowledge 0.000101099491831
begins 5.67841698885e-05
robinthicke 0.0
faithful 0.0
peeing 0.0
closet 0.0
bodies 4.6962024974e-05
italian 0.0
highlights 0.000142946261776
spanking 0.0
forbes 5.16811549011e-05
parade 4.37664147557e-05
tasted 0.0
consider 3.14671620459e-05
reunion 0.0
latest 0.000385076090224
dedicated 4.04274755935e-05
beyonce 0.0
perform 0.0
signed 0.000549421573812
tuxedo 0.0
princess 4.78333963701e-05
shelter 0.000213659545922
germany 0.0
explaining 0.000204760984282
married 0.000175534442627
millions 3.20968389645e-05
blessings 0.0
iconic 0.0
indonesia 0.0
braids 0.0
dollar 0.0
rigged 0.0
replied 5.95423312055e-05
lights 0.000204560186831
turned 7.80646365766e-05
excuses 0.0
jackie 0.0
charge 6.56753044068e-05
performing 0.0
ticket 0.0
steady 0.0
whispers 0.0
finest 0.0
confucius 0.0
diamonds 0.0
vancouver 0.0
addicts 0.0
collection 6.51142328141e-05
families 0.0
select 0.0
hitting 3.16453627793e-05
announced 0.000144321651941
decided 0.0
jewels 0.0
lottery 0.0
owners 0.0
respects 0.0
celebration 0.0
memorial 3.85575158245e-05
landed 0.00040753517372
pastor 0.0
ultimate 0.000103178639781
incase 0.0
rapper 0.0
episode 8.49428626767e-05
bounce 5.65356583317e-05
disney 0.0
muffin 9.03176991096e-05
kansas 0.0
sherman 0.0
retweet 9.02639916171e-05
midnight 6.401170094e-05
patience 0.0
cereal 0.0
joining 8.37872994429e-05
released 0.000110501643728
release 0.000130107727628
models 0.000183174909357
classics 0.0
popped 5.78550789423e-05
mileycyrus 0.0
highlight 0.0
scholarship 0.0
within 0.000121024204759
hahahahaha 0.0
standing 5.42063534057e-05
higher 0.0
purple 4.42190449442e-05
skinny 0.0
justice 3.19152112604e-05
served 0.0
speaks 0.0
horses 5.50439106376e-05
houses 0.0
purchase 0.0
dropped 5.85304282564e-05
conversations 4.4067202073e-05
consideration 0.0
seattle 0.0
cookie 0.0
slurpee 0.0
strength 0.0
screens 0.0
monica 0.0
incredibly 6.70109926054e-05
streets 0.0
boyfriend 0.0
private 6.08506197447e-05
skittles 0.0
barbie 0.0
apologizes 0.0
designer 0.0
impress 0.0
cooking 4.05575667496e-05
exclusive 2.81594575936e-05
fashion 0.0
petite 0.0
talkin 0.0
peaches 0.0
bitches 0.0
nailed 0.0
weirdest 0.0
whomever 0.0
teaching 0.000180829385
disgusting 0.0
chillin 0.0
philly 0.0
rights 0.0
dinosaur 0.0
exotic 7.62018796755e-05
dancers 0.0
cheers 0.000110141195576
presents 0.00011639535431
flawless 0.000121476209896
dating 4.6962024974e-05
victory 0.0
marley 0.0
productive 0.0
smurfs 0.0
halftime 0.0
insecure 0.0
horror 0.0
warning 3.42926186931e-05
discovery 0.000338604593559
convention 0.0
understanding 3.4192781398e-05
action 5.09286329523e-05
having 4.45256919178e-05
speaker 0.00023721822241
clever 0.000162230266998
theatre 0.000173289193978
honors 0.0
evolution 0.000185149460865
produce 8.90513838357e-05
spider 0.0
apologize 0.0
formation 0.000434364595271
letter 0.0
therapy 4.96789827394e-05
untrue 0.0
written 0.000173663786865
communication 0.000258405774505
disease 0.0
marching 0.0
suggest 7.34274637174e-05
georgetakei 0.0
hairstyle 0.0
humans 0.000358088029042
journal 0.000147330011278
foundation 0.0
access 0.000116737964094
venture 5.78550789423e-05
syndrome 5.40993252755e-05
writes 0.00011603302894
colorado 0.0
medicine 9.56667927403e-05
tremendous 0.0
nytimes 0.0
kindness 0.0
cannot 0.0
reveals 0.000389615907994
invented 0.0
sapphire 0.0
candidate 3.77330909513e-05
sexual 0.0
madison 0.0
illustration 0.0
newark 0.0
globally 0.0
incorrect 0.0
headline 0.00011148406907
reflect 0.0
streaming 3.87984514365e-05
leaders 6.91893774408e-05
supreme 0.0
protest 4.01694240075e-05
policies 0.0
silenced 0.0
defend 0.0
communicating 0.0
climate 0.00016067769603
wrapped 0.0
studio 6.60530901832e-05
conspiracy 0.0
interviews 0.0
differentiation 0.0
confusing 0.0
february 0.000104702020113
hamilton 0.0
loneliest 0.0
amazon 0.000107850736502
scattered 0.0
francis 0.0
headlines 0.0
january 9.85129566102e-05
diversity 0.0
universal 4.1899489492e-05
hurricane 0.000100524023987
identifying 0.0
countries 6.8385562796e-05
tickled 0.0
becker 0.0
connected 9.25747304327e-05
suggestion 0.0
filled 9.99382452456e-05
education 0.000287236901344
mentioned 0.000139602693484
defining 0.0
exists 0.000132201606219
unexpected 4.57937273393e-05
plants 5.45668947148e-05
orders 4.26001784493e-05
olympics 0.000126113921018
ability 3.44935687153e-05
director 5.91817898964e-05
content 3.70486521564e-05
cycling 0.000204771811424
previously 0.0
correction 4.80115971035e-05
pearls 0.0
ambassador 0.0
preparing 3.96616305634e-05
depend 6.10467562073e-05
downloads 0.0
lovers 9.53130609724e-05
weekly 4.09521968565e-05
hudson 6.86827141489e-05
bridge 0.000152802641562
becoming 6.08506197447e-05
magazine 0.000131727639017
appropriate 0.000128659145319
shakespeare 6.43778314277e-05
travesty 0.0
discoveries 0.00020867194075
fellow 3.00879972057e-05
reviewed 5.45668947148e-05
copies 9.03023966024e-05
driven 0.000129092384928
aussies 0.0
result 0.000307735032582
announcing 8.27070697552e-05
visual 9.89755911613e-05
restrictions 0.0
culture 0.000130975077741
edition 0.0
prince 6.87857598538e-05
shocks 0.0
symmetry 0.0
clicks 0.0
disagree 0.000146854927435
experiments 0.000199884738953
mistakes 4.23174027929e-05
trolls 0.0
blossoms 0.0
offered 0.0
inspiring 0.00012802340188
counter 0.0
approach 0.000105944761731
embarrassing 4.26001784493e-05
creators 6.40227648104e-05
edited 5.57780055709e-05
berniesanders 0.0
overnight 5.08598030395e-05
spotlight 0.0
probable 0.0
repeating 0.0
concerns 0.0
massive 9.02639916171e-05
promising 0.0
promises 0.0
colored 6.91159645632e-05
production 0.0
header 0.0
itunes 0.0
secretary 4.13535348776e-05
highway 0.0
dangerous 3.18249186644e-05
letters 8.78326589008e-05
typically 0.0
saving 0.0
pioneer 0.0
visuals 0.0
universe 0.00205647644494
ordering 5.65356583317e-05
victims 0.0
privacy 0.0
disclosure 0.0
proceeds 0.0
musical 3.86776763134e-05
collide 0.000276463858253
melbourne 6.54762380836e-05
correctly 0.0
campus 0.0
debate 0.0
conflict 0.0
meanwhile 0.0
petition 4.2742846467e-05
contribution 4.89233507313e-05
stated 0.0
humanity 4.04274755935e-05
illness 5.16811549011e-05
flawed 0.0
breathe 0.0
winners 0.0
spanish 0.0
comedic 0.0
awards 6.18809799695e-05
presidential 3.95363704017e-05
candidates 4.00414481652e-05
glasgow 5.70546129601e-05
smells 5.18910361506e-05
treasure 0.0
greater 0.0
themed 0.000168841189642
distribution 0.000185029299378
absurd 5.10624779758e-05
squirrel 0.0
sisters 4.51511983012e-05
stress 0.000175065659023
leading 9.02639916171e-05
resolution 0.00014350018911
achieved 9.78467014626e-05
interacting 8.00391929574e-05
boiling 0.0
examples 0.00025229799398
diverse 0.0
suicide 4.67915441966e-05
parallel 5.84042079967e-05
minneapolis 0.0
impairs 0.0
pumping 0.0
slides 0.000195313187963
choreography 0.0
element 6.07381049482e-05
serves 0.0
jumping 0.0
rising 0.0
believed 4.34694110271e-05
features 0.00026494382697
environment 0.0
revealed 0.00011603302894
classical 0.0
confirmed 6.89871374306e-05
origins 6.95573135832e-05
combination 5.34148864806e-05
consumption 0.0
worldwide 0.0
deaths 0.0
responsible 3.86776763134e-05
overwhelmed 5.65356583317e-05
household 0.0
munich 6.66282463178e-05
alternate 0.0
blockers 0.0
restaurant 0.0
canada 0.0
versions 0.0
technology 0.000158646522254
identify 0.0
combined 4.4067202073e-05
santiago 0.0
branches 0.0
october 9.93646837694e-05
netherlands 5.98356453513e-05
belgium 0.0
european 8.16398385662e-05
imperial 0.000197562089715
perspective 0.000105010667465
cities 0.000106574405479
guinea 0.0001560853349
americas 0.0
posters 0.0
elastic 0.0
flames 0.0
presumably 0.0
exquisite 0.0
spreading 4.05575667496e-05
happiness 8.2437992274e-05
ashamed 0.000102946245699
naturally 0.000104632959649
malbec 0.0
wasting 0.0
hidden 0.000116759542543
coffin 0.0
freudian 0.0
genius 0.00015733581023
cultured 0.0
malaysia 0.0
traveling 4.46805218831e-05
prepared 7.16863275038e-05
county 0.0
quinoa 0.0
district 0.0
chosen 0.0
toilet 4.91100037594e-05
yorkers 0.0
ignores 0.0
messages 7.90727408035e-05
creativity 5.06588530173e-05
conventional 0.0
berlin 0.0
montreal 0.0
wonders 0.0
upcoming 6.70109926054e-05
lonely 0.00021921679228
australian 9.22433398082e-05
positions 0.0
singapore 0.0
scratch 0.0
deficiency 0.0
elevated 7.86895979208e-05
triggers 0.0
delicate 0.0
barrier 5.84042079967e-05
reflection 0.000100919197592
sydney 0.0
separates 0.0
centuries 0.0
israel 0.0
overwhelming 5.02620119936e-05
assault 0.0
protection 0.0
picker 0.0
additional 0.0
machine 0.000223406478823
samples 0.000132475929902
contrary 0.0
immediate 4.92981440783e-05
michelle 0.0
inspire 8.05961945385e-05
lyrics 8.8743741248e-05
missyelliott 0.0
constant 9.19142585448e-05
tuning 0.0
pandora 0.000160078385915
preshow 0.0
buenos 0.0
poland 6.16764331259e-05
philippines 0.0
nicely 0.0
september 0.000132867845304
manchester 0.000344246359808
checks 4.57937273393e-05
screenshot 6.66282463178e-05
universalorl 0.0
remarkable 4.08199192831e-05
rihanna 0.0
disgusted 0.0
flattered 0.0
fiction 0.00037984783682
angela 0.0
bitmoji 0.0
process 9.05156240498e-05
genuine 0.0
performances 0.0
comedians 0.0
flotus 0.0
strangers 0.0
hungover 0.0
confidence 3.70486521564e-05
studios 0.0
stjude 0.0
memphis 0.0
mikeypiff 0.0
chancetherapper 0.0
scream 0.0
jennifer 4.71337456225e-05
disappoint 0.0
newcastle 0.0
castle 5.29693735447e-05
literally 5.85304282564e-05
chrisrock 0.0
gentlemen 0.0
mtvnews 0.0
hillaryclinton 4.71337456225e-05
iamrashidajones 0.0
champagne 5.34148864806e-05
raleigh 0.0
ijessewilliams 0.0
acknowledge 0.0
buzzfeed 0.000141401236868
puppet 0.0
rehearsal 5.29693735447e-05
billboard 0.0
austria 0.0
sweden 0.0
republic 4.98717306269e-05
grilled 0.0
waltdisneyworld 0.0
katyperry 0.0
ronanfarrow 0.0
measly 0.0
bragging 0.0
treats 0.0
literal 0.0
cooper 0.0
counts 0.0
theellenshow 0.0
basking 0.0
cookies 0.0
festival 6.95964745326e-05
amsterdam 0.0
soundcheck 0.0
downloaded 0.0
encouraged 0.0
alright 8.29776892362e-05
jtimberlake 0.0
backstage 0.0
collab 0.0
joined 5.82080859114e-05
issarae 0.0
playlist 0.00014037463259
madness 0.0
romantic 0.0
selfies 0.0
exclusively 0.0
disneyland 0.0
refused 0.0
characters 7.54661819026e-05
amazingly 9.93579654788e-05
auction 0.0
express 0.000219618835323
gratitude 0.0
sesamestreet 0.0
thegrammys 0.0
throughout 0.0
awkward 3.94117712466e-05
shining 9.56667927403e-05
thrown 0.0
stylist 0.0
fighter 0.0
accepting 0.0
playin 0.0
applemusic 0.0
filmed 9.09405545598e-05
makeawish 0.0
bieber 0.000133256492636
remixes 0.0
toronto 0.0
capitolrecords 0.0
shazam 0.0
anthem 0.0
cosmopolitan 0.0
khloekardashian 0.0
cookin 0.0
songwriters 0.0
reveal 3.44935687153e-05
stands 0.0
spotify 5.02620119936e-05
phvegas 0.0
rocked 0.0
glasses 4.34694110271e-05
iambeckyg 0.0
relive 0.0
acoustic 6.62379649511e-05
announce 0.000192325131591
although 0.00042413267407
isaacfromct 0.0
shampoo 0.0
interactive 0.000105064222649
todayshow 0.0
haters 0.0
appreciation 0.0
floating 0.000221144327354
shondarhimes 0.0
showtime 0.0
premiere 0.0
broadway 5.29693735447e-05
makeup 0.0
starring 0.0
newest 0.0
designed 0.000109479186502
arianagrande 0.0
aladdin 0.0
swaggy 0.0
owning 0.0
producer 8.57727635458e-05
legendary 0.0
jasmine 0.0
costumes 6.04334363972e-05
square 6.401170094e-05
emojis 0.0
jessica 0.0
magical 0.0
thedoctorluke 0.0
thirsty 0.0
therealjuicyj 0.0
symbols 0.000174598726727
privilege 8.75328295114e-05
spiral 0.000273029081899
retrograde 8.82632312785e-05
footage 0.00023206605788
theirs 0.000138231929126
universes 0.00057033499347
remembering 0.00011603302894
floated 9.25681139997e-05
construction 0.000148463386742
consciousness 0.0002022861369
delights 9.25681139997e-05
explodes 7.39514647854e-05
submissions 7.04655595997e-05
pleased 0.000156167483858
shredding 9.03176991096e-05
filters 6.47383191184e-05
weasel 0.000195673729272
reflective 7.86895979208e-05
firework 9.14161057655e-05
islands 0.000120866872794
interstellar 0.000427410994437
bubble 0.000134041565649
customs 0.000122718991363
festive 0.000176899238321
window 0.000242873705561
senator 4.89233507313e-05
slightly 8.16398385662e-05
therealbuzz 9.64054272816e-05
printing 0.00018697009079
snowflake 7.0933129039e-05
applications 0.000271659763131
elephant 0.000105064222649
fifteen 7.44942814524e-05
editions 8.22202642291e-05
newspaper 4.42190449442e-05
rainbow 0.000290232508765
unlimited 6.19976827766e-05
sirius 0.000431866520396
matthew 4.51511983012e-05
affected 7.29861243349e-05
capturing 6.78393571739e-05
canyon 0.000132475929902
rivers 0.000174384141384
spoken 7.90727408035e-05
accidentally 4.53101988017e-05
bizarre 0.000196440015038
dolphin 7.44942814524e-05
successfully 0.000311346216903
liquid 5.92526160971e-05
graffiti 7.0933129039e-05
swallowing 9.25681139997e-05
messenger 7.34208472844e-05
heroes 7.21156301895e-05
disturbing 5.00660649346e-05
graduates 6.62379649511e-05
rewrite 7.0933129039e-05
describe 0.000102877856079
hollywood 6.95964745326e-05
equality 4.26001784493e-05
announcement 0.000121362115461
breakout 7.04655595997e-05
dreaming 5.25321113243e-05
animation 0.000375921597243
calendar 4.61216699041e-05
circling 0.00026780438094
garden 7.06298411537e-05
enhanced 7.50498714413e-05
journalists 0.000169269611172
stirring 7.0933129039e-05
nominations 9.67441695884e-05
yelling 5.36408354307e-05
teachers 0.000465491430722
chapter 0.000315294169973
napoleon 8.2994480642e-05
aliens 0.000974413330072
subjects 6.66282463178e-05
revolution 0.000132657134833
mountains 0.000169606974995
wonderland 6.91159645632e-05
storage 0.000124646727193
crystals 9.14161057655e-05
circuit 6.43778314277e-05
invitation 4.96789827394e-05
kettle 7.56188504213e-05
adjective 9.78368646362e-05
woodpecker 0.000102739538403
operate 6.62379649511e-05
exhibition 0.000242952419793
learnt 7.0933129039e-05
nomination 4.3030794976e-05
madonna 6.70250873415e-05
questioning 5.81280471282e-05
unplug 0.000102739538403
initiatives 7.04655595997e-05
switzerland 6.13594956814e-05
represents 9.7108827541e-05
throat 5.45668947148e-05
touchdown 6.01326490799e-05
desire 4.91100037594e-05
forced 3.62744357435e-05
swedish 5.81280471282e-05
hundred 4.98717306269e-05
prompts 8.72993633633e-05
rainbows 0.000164440528458
creates 4.66222855141e-05
oxford 0.000212764317036
balloons 6.82572704748e-05
liverpool 5.65356583317e-05
recreate 8.00391929574e-05
glorious 9.12628969049e-05
newton 0.000123995365553
creature 7.00070697549e-05
finalist 0.000123995365553
scouts 6.66282463178e-05
treading 0.000102739538403
tragedy 3.87984514365e-05
nottingham 0.000169247009598
debacle 7.14101449618e-05
legends 4.91100037594e-05
noises 7.23940992118e-05
addiction 5.23164798247e-05
survived 4.7306724309e-05
idioms 0.00011420309896
greeted 7.18969969543e-05
basics 6.70250873415e-05
masses 6.13594956814e-05
confirm 3.84379637458e-05
cadence 0.000108934348324
spaghetti 7.00070697549e-05
prepare 3.50035558218e-05
calendars 7.0933129039e-05
narrative 5.16811549011e-05
application 5.43319526262e-05
octopus 0.000164440528458
drumming 9.64054272816e-05
bloody 4.48363738358e-05
confetti 9.03176991096e-05
translate 6.07381049482e-05
birmingham 5.25321113243e-05
singles 6.40227648104e-05
completes 7.67996707214e-05
laptop 0.000105938747089
obvious 0.000120124344496
darling 5.62803965472e-05
deserving 5.65356583317e-05
miller 8.54856929341e-05
ordered 3.47982372663e-05
feelin 6.29885198383e-05
alicia 7.14101449618e-05
picasso 8.2994480642e-05
recipe 4.92981440783e-05
alphabetical 0.000100989739123
butterfly 6.54762380836e-05
timothy 7.56188504213e-05
mancini 0.00011420309896
untold 8.07440657519e-05
directed 4.04274755935e-05
hacked 9.22433398082e-05
admits 5.18910361506e-05
clocks 6.66282463178e-05
nugget 8.2994480642e-05
cnnopinion 0.000117355973447
grabbed 6.70250873415e-05
russia 3.67137318587e-05
surprises 4.51511983012e-05
waterfalls 0.000102739538403
olympic 0.000175065659023
magnificent 9.89755911613e-05
casual 5.75852304612e-05
assume 0.0
relief 0.0
subscribe 0.0
landslide 0.0
telegraph 0.0
standby 0.0
admitting 0.0
complacency 0.0
voices 0.0
sounding 0.0
douglas 0.0
democracy 0.0
locals 0.0
gossip 0.0
nickname 0.0
subtle 0.0
embarrassed 0.0
ireland 0.0
mornings 0.0
democratic 0.0
impressions 0.0
outgoing 0.0
treasury 0.0
refugees 0.0
unveiling 0.0
listing 0.0
deliver 0.0
negotiating 0.0
roller 0.0
prosperous 0.0
desperate 0.0
acknowledgement 0.0
executive 0.0
republicans 0.0
weapons 0.0
dropping 0.0
meaningful 0.0
nightmare 0.0
goodies 0.0
scandalous 0.0
rhetoric 0.0
divisive 0.0
vision 0.0
confirmation 0.0
throne 0.0
records 0.0
quoting 0.0
impatient 0.0
refugee 0.0
texted 0.0
exposed 0.0
stoked 0.0
priority 0.0
freedoms 0.0
notorious 0.0
empowering 0.0
unconstitutional 0.0
turkish 0.0
concerned 0.0
realdonaldtrump 0.0
goodwill 0.0
imagined 0.0
belfast 0.0
sleeve 0.0
basement 0.0
preposterous 0.0
griffith 0.0
timeless 0.0
truman 0.0
intended 0.0
inappropriate 0.0
industries 0.0
responsibility 0.0
documentaries 0.0
vulnerable 0.0
respectful 0.0
markets 0.0
claire 0.0
nuggets 0.0
boards 0.0
sequins 0.0
capitol 0.0
technical 0.0
applying 0.0
guitar 0.0
donating 0.0
continually 0.0
norway 0.0
applause 0.0
ballot 0.0
finely 0.0
shakes 0.0
varied 0.0
proverb 0.0
vibrant 0.0
flower 0.0
survives 0.0
fierce 0.0
shopped 0.0
sincerely 0.0
apology 0.0
sweaty 0.0
conspiracies 0.0
climbing 0.0
relaxed 0.0
encourage 0.0
funnyordie 0.0
essentials 0.0
jimmykimmellive 0.0
rejectedjokes 0.0
protesting 0.0
releasing 0.0
cleaner 0.0
preferred 0.0
incarceration 0.0
jkcorden 0.0
koppel 0.0
bikini 0.0
transparency 0.0
kamalaharris 0.0
nutshell 0.0
walled 0.0
floored 0.0
plotting 0.0
gandhi 0.0
vilify 0.0
meditate 0.0
violent 0.0
preschool 0.0
rhythm 0.0
matching 0.0
senwarren 0.0
venezuela 0.0
candle 0.0
donates 0.0
peacefully 0.0
chelseahandler 0.0
experiencing 0.0
sarabareilles 0.0
haunting 0.0
constitution 0.0
explode 0.0
deeper 0.0
empathy 0.0
mrgaryhuang 0.0
scored 0.0
charitable 0.0
perfume 0.0
giraffe 0.0
noticing 0.0
noodle 0.0
wrongly 0.0
marshmallow 0.0
fraudulent 0.0
everytime 0.0
helluva 0.0
therapists 0.0
tangible 0.0
sarahksilverman 0.0
johnfugelsang 0.0
exceptional 0.0
miracle 0.0
avocado 0.0
snacks 0.0
spelled 0.0
parental 0.0
superbowl 0.0
shoulders 0.0
valentine 0.0
glitter 0.0
stocking 0.0
poehler 0.0
thumbs 0.0
tinatbh 0.0
educational 0.0
voicemail 0.0
thetweetofgod 0.0
esteem 0.0
teaches 0.0
goodbye 0.0
reminding 0.0
supplies 0.0
ryanseacrest 0.0
okmagazine 0.0
shoots 0.0
bowing 0.0
jennyslate 0.0
craigyferg 0.0
masterpiece 0.0
sneaky 0.0
nashville 0.0
chronicles 0.0
potato 0.0
freakin 0.0
perezhilton 0.0
unethical 0.0
paparazzi 0.0
mantra 0.0
consuming 0.0
unauthorized 0.0
vanityfair 0.0
stalking 0.0
shoulda 0.0
yeppers 0.0
sacred 0.0
existed 0.0
earned 0.0
woulda 0.0
ellenpage 0.0
choker 0.0
contribute 0.0
mustache 0.0
washes 0.0
creeps 0.0
champion 0.0
auntie 0.0
magazines 0.0
waited 0.0
conscious 0.0
cracker 0.0
denmark 0.0
potion 0.0
windex 0.0
scarfing 0.0
ladygaga 0.0
purposely 0.0
pretending 0.0
luckiest 0.0
mascara 0.0
tastes 0.0
gardening 0.0
leashes 0.0
hippie 0.0
womensmarch 0.0
reunited 0.0
clique 0.0
premiering 0.0
rollingstone 0.0
childrensla 0.0
dollywood 0.0
godmother 0.0
eltonofficial 0.0
vmagazine 0.0
donorschoose 0.0
yesssssss 0.0
bettemidler 0.0
rehearsing 0.0
trevorproject 0.0
unicef 0.0
ellemagazine 0.0
yasssss 0.0
acceptance 0.0
solidarity 0.0
pharrell 0.0
greece 0.0
papermagazine 0.0
johnmayer 0.0
lipstick 0.0
tumblr 0.0
coldplay 0.0
colorful 0.0
translifeline 0.0
newsstands 0.0
feminist 0.0
pitchfork 0.0
labels 0.0
jenner 0.0
arkansas 0.0
beanie 0.0
sparkly 0.0
moschino 0.0
britneyspears 0.0
itsjeremyscott 0.0
nickiminaj 0.0
appstore 0.0
poetry 0.0
puttin 0.0
rubbed 0.0
shrine 0.0
skyferreira 0.0
freaking 0.0
besties 0.0
chanel 0.0
bedazzled 0.0
rubber 0.0
kendricklamar 0.0
popstar 0.0
sosadtoday 0.0
copenhagen 0.0
lenadunham 0.0
wearin 0.0
stoned 0.0
facetime 0.0
barclays 0.0
meditation 0.0
harpersbazaarus 0.0
stared 0.0
ritual 0.0
iconapop 0.0
doubted 0.0
staples 0.0
anaheim 0.0
jingle 0.0
tacoma 0.0
rehearsals 0.0
treadmill 0.0
metamorphosis 0.0
dental 0.0
jodyhighroller 0.0
versace 0.0
werking 0.0
couture 0.0
eggplant 0.0
bangin 0.0
cardigans 0.0
obnoxious 0.0
bestie 0.0
teganandsara 0.0
barrel 0.0
dedicating 0.0
jefferson 0.0
pumpkin 0.0
derekblasberg 0.0
glamourmag 0.0
presale 0.0
mtvstyle 0.0
deluxe 0.0
mtvema 0.0
reggae 0.0
azealiabanks 0.0
nominating 0.0
sailor 0.0
mornin 0.0
itunesmusic 0.0
bananas 0.0
lordemusic 0.0
vietnam 0.0
milwaukee 0.0
neworleans 0.0
circus 0.0
strolling 0.0
rapids 0.0
collegegameday 0.0
aaaaand 0.0
godfather 0.0
bestow 0.0
allison 0.0
rockthevote 0.0
birbigs 0.0
lucille 0.0
louder 0.0
farmers 0.0
shaved 0.0
niagara 0.0
realmattlucas 0.0
ferguson 0.0
painful 0.0
exchange 0.0
nickkroll 0.0
edmonton 0.0
mickey 0.0
angelenos 0.0
pooping 0.0
located 0.0
onslaught 0.0
finalists 0.0
bumped 0.0
sherlock 0.0
stockholm 0.0
casually 0.0
jjwatt 0.0
itstonybennett 0.0
mariolopezextra 0.0
klgandhoda 0.0
entrance 0.0
calgary 0.0
bowling 0.0
winnipeg 0.0
cheeto 0.0
gloriasteinem 0.0
feather 0.0
nathan 0.0
smelling 0.0
narnia 0.0
llamas 0.0
actuallynph 0.0
mourning 0.0
obsession 0.0
chilled 0.0
medically 0.0
hyperloop 0.0
aussie 0.0
flaring 0.0
eyeballs 0.0
stuffing 0.0
pitched 0.0
condiments 0.0
relatable 0.0
olivia 0.0
painted 0.0
mykonos 0.0
eyebrow 0.0
capitalcities 0.0
jackpot 0.0
hipster 0.0
sweating 0.0
restaurants 0.0
superfan 0.0
restraint 0.0
craziest 0.0
catheter 0.0
delivers 0.0
kanyewest 0.0
paints 0.0
dissect 0.0
billboards 0.0
milano 0.0
bjnovak 0.0
snapping 0.0
croissant 0.0
repjohnlewis 0.0
blklivesmatter 0.0
mydaughtersarmy 0.0
huddled 0.0
yearning 0.0
thereaibanksy 0.0
affordable 0.0
foodie 0.0
colombia 0.0
peeled 0.0
shootings 0.0
playground 0.0
breaky 0.0
photoshoot 0.0
smokin 0.0
accents 0.0
sweats 0.0
postmates 0.0
armband 0.0
unconscious 0.0
maddow 0.0
aquarium 0.0
holler 0.0
photoshop 0.0
robbie 0.0
espnmag 0.0
laundry 0.0
examining 0.0
zealand 0.0
stuntin 0.0
hehehe 0.0
nostalgia 0.0
buttons 0.0
slaying 0.0
monument 0.0
bringin 0.0
lining 0.0
muchas 0.0
gracias 0.0
madame 0.0
illustrated 0.0
boxers 0.0
grazie 0.0
winters 0.0
plastic 0.0
unbreakable 0.0
licking 0.0
cheeky 0.0
twerking 0.0
danish 0.0
drummer 0.0
florence 0.0
revoir 0.0
resume 0.0
dodger 0.0
brazilians 0.0
grimezsz 0.0
crocodile 0.0
hahahahahaha 0.0
parisians 0.0
taipei 0.0
taiwan 0.0
bangkok 0.0
uploaded 0.0
manila 0.0
hamburg 0.0
curating 0.0
aaaand 0.0
skating 0.0
brisbane 0.0
googleplay 0.0
raincoat 0.0
glastofest 0.0
vienna 0.0
burning 0.0
jamming 0.0
reaches 0.0
subtitles 0.0
wristband 0.0
barcelona 0.0
credits 0.0
dreamers 0.0
bogota 0.0
bursting 0.0
brunomars 0.0
beyoncé 0.0
subscribers 0.0
unlock 0.0
onedirection 0.0
amazonmusic 0.0
snippets 0.0
preorder 0.0
rehearse 0.0
bahnhof 0.0
delorean 0.0
fragrance 0.0
curate 0.0
samsmithworld 0.0
guitars 0.0
storyline 0.0
registering 0.0
beatsbydre 0.0
panama 0.0
celestial 0.0
orchestra 0.0
finland 0.0
climbed 0.0
topping 0.0
méxico 0.0
vasconcelos 0.0
leicester 0.0
itunesfestival 0.0
pondering 0.0
millennials 0.0
struck 0.0
watermelon 0.0
benefited 0.0
sophisticated 0.0
couples 0.0
villain 0.0
mindful 0.0
catholic 0.0
airline 0.0
secretly 0.0
playlists 0.0
veggie 0.0
receipts 0.0
foremost 0.0
bagpipe 0.0
drifting 0.0
trader 0.0
influenced 0.0
moscow 0.0
cobain 0.0
reaper 0.0
commune 0.0
handshake 0.0
despair 0.0
silicon 0.0
investing 0.0
construct 0.0
garland 0.0
coachella 0.0
offline 0.0
realisation 0.0
payback 0.0
educate 0.0
alliances 0.0
etched 0.0
momentarily 0.0
pronoun 0.0
lenses 0.0
validated 0.0
authenticity 0.0
choreographed 0.0
pokemon 0.0
disneyworld 0.0
patriotic 0.0
embody 0.0
snickers 0.0
impactful 0.0
refocus 0.0
eminem 0.0
mahatma 0.0
ecstatic 0.0
snfonnbc 0.0
avenue 0.0
picchu 0.0
doubters 0.0
beverly 0.0
intensity 0.0
outtake 0.0
temple 0.0
purchased 0.0
fountain 0.0
punched 0.0
goldfish 0.0
comparable 0.0
buyers 0.0
barbara 0.0
corybooker 0.0
listens 0.0
timeout 0.0
inducing 0.0
signage 0.0
penthouse 0.0
ahahaha 0.0
phenom 0.0
brilliantly 0.0
siphoning 0.0
herstory 0.0
prostitute 0.0
survivors 0.0
courageous 0.0
cruelty 0.0
margot 0.0
xenophobic 0.0
mcginley 0.0
yorkshire 0.0
chants 0.0
alancarr 0.0
chained 0.0
skillz 0.0
debunked 0.0
floods 0.0
fleetwood 0.0
cheesecake 0.0
adidas 0.0
uneven 0.0
raging 0.0
connections 0.0
headlining 0.0
devhynes 0.0
charli_xcx 0.0
shawnmendes 0.0
tavitulle 0.0
bahjournalist 0.0
tyleroakley 0.0
marquee 0.0
grease 0.0
screenshots 0.0
ddlovato 0.0
chattyman 0.0
grimmers 0.0
vevo_uk 0.0
bonniemckee 0.0
electrifying 0.0
idolator 0.0
onairromeo 0.0
godven 0.0
lookie 0.0
preordered 0.0
elvisduran 0.0
shanghai 0.0
tripped 0.0
konnichiwa 0.0
etnad_olegnad 0.0
unannounced 0.0
swedes 0.0
cinderella 0.0
slipper 0.0
jessesaintjohn 0.0
adorbs 0.0
onesies 0.0
jahnsuxx 0.0
walgreens 0.0
aphrodite 0.0
danceonfox 0.0
difficulties 0.0
mermaids 0.0
antique 0.0
girlshbo 0.0
yaaaaasss 0.0
lifesaving 0.0
queens 0.0
yaaaas 0.0
rollin 0.0
bestest 0.0
cleanse 0.0
iamtovelo 0.0
glamour 0.0
emelisande 0.0
lashes 0.0
austrian 0.0
magritte 0.0
misogynoir 0.0
litter 0.0
spiritual 0.0
preaching 0.0
adelaide 0.0
sheffield 0.0
impending 0.0
starve 0.0
excess 0.0
conciousness 0.0
vitamins 0.0
generator 0.0
purposefully 0.0
profiles 0.0
petals 0.0
persist 0.0
alexis 0.0
covergirl 0.0
sneezed 0.0
cushion 0.0
demconvention 0.0
directv 0.0
flo_tweet 0.0
billclinton 0.0
grounded 0.0
sunrise 0.0
fightin 0.0
sagekotsenburg 0.0
pwease 0.0
sadder 0.0
waterfall 0.0
sighting 0.0
firsts 0.0
muller 0.0
burritos 0.0
bungee 0.0
potting 0.0
dipping 0.0
closets 0.0
scratched 0.0
decorating 0.0
summers 0.0
havana 0.0
fresher 0.0
mowing 0.0
invading 0.0
addict 0.0
aesthetics 0.0
footwear 0.0
protector 0.0
hammock 0.0
repurpose 0.0
mishap 0.0
hamster 0.0
cellar 0.0
groove 0.0
mentored 0.0
exaggerate 0.0
scraping 0.0
apropos 0.0
trolled 0.0
jonlovett 0.0
rheabutcher 0.0
sickening 0.0
flustered 0.0
compiled 0.0
shirley 0.0
subtweet 0.0
pantsuit 0.0
patting 0.0
atrocious 0.0
amoeba 0.0
platter 0.0
aficionado 0.0
bearer 0.0
manifest 0.0
transformation 0.0
thighs 0.0
tapper 0.0
foaming 0.0
sophie 0.0
sabbath 0.0
vibrations 0.0
nutella 0.0
wilder 0.0
distractions 0.0
stripping 0.0
downloading 0.0
judith 0.0
crossroads 0.0
parsons 0.0
stella 0.0
narcissism 0.0
fawcett 0.0
trainers 0.0
surrounding 0.0
longtime 0.0
frosting 0.0
laurent 0.0
savory 0.0
acupuncture 0.0
cancelling 0.0
nutcracker 0.0
ballet 0.0
tempura 0.0
burner 0.0
voguemagazine 0.0
lagged 0.0
cuttlefish 0.0
passwords 0.0
funfetti 0.0
anagasteyer 0.0
gabbana 0.0
budapest 0.0
montage 0.0
crowns 0.0
scheduling 0.0
possessed 0.0
syncing 0.0
creatively 0.0
hieroglyphics 0.0
halftimes 0.0
floppy 0.0
nessie 0.0
feathers 0.0
kaceymusgraves 0.0
roaring 0.0
rightful 0.0
balconies 0.0
prodigy 0.0
raquin 0.0
gianni 0.0
monsieuradi 0.0
drowned 0.0
tropicana 0.0
diesel 0.0
shabbat 0.0
voiceless 0.0
passover 0.0
elevating 0.0
traumatic 0.0
dreamer 0.0
iwillharness 0.0
classrooms 0.0
eligibility 0.0
counselors 0.0
wainwright 0.0
moveon 0.0
runaway 0.0
baghdad 0.0
zaralarsson 0.0
snooze 0.0
iggyazalea 0.0
harviikills 0.0
bolognese 0.0
babysitting 0.0
mohegan 0.0
hooters 0.0
crusts 0.0
tracksuit 0.0
cupcake 0.0
xfactor 0.0
vitamin 0.0
lichtenstein 0.0
concourse 0.0
hitchcock 0.0
teller 0.0
pastels 0.0
remnants 0.0
banger 0.0
lyrically 0.0
boogers 0.0
ritaora 0.0
bumpin 0.0
dabbed 0.0
sleepin 0.0
tinashe 0.0
octaviaspencer 0.0
linder 0.0
musicallyapp 0.0
scavenger 0.0
sanging 0.0
corinthians 0.0
hollywoodbowl 0.0
kraken 0.0
discontinue 0.0
cypress 0.0
schooling 0.0
maritime 0.0
narration 0.0
zeitgeist 0.0
sampler 0.0
pseudo 0.0
bangladesh 0.0
hungary 0.0
mumble 0.0
sisterhood 0.0
soulful 0.0
lennykravitz 0.0
londontown 0.0
andradaymusic 0.0
lipsticks 0.0
realization 0.0
unconditionally 0.0
wildfire 0.0
goldie 0.0
minnie 0.0
solitude 0.0
waddle 0.0
westworldhbo 0.0
statuesque 0.0
uncasville 0.0
demented 0.0
skyway 0.0
twentyonepilots 0.0
rejoicing 0.0
clenching 0.0
adelphia 0.0
entirety 0.0
redhourben 0.0
lakewood 0.0
drjillstein 0.0
entail 0.0
whammy 0.0
smokers 0.0
gobble 0.0
topshop 0.0
cleowade 0.0
mkives 0.0
sweetbabayjamie 0.0
marchesafashion 0.0
hamsters 0.0
gurrrl 0.0
sofifii 0.0
sumthin 0.0
nicomiz 0.0
maisonvalentino 0.0
coziest 0.0
accessorize 0.0
thejgold 0.0
peruvian 0.0
amazeballs 0.0
sendin 0.0
fantabulous 0.0
timelines 0.0
regina 0.0
slovakia 0.0
graves 0.0
embracing 0.0
larsson 0.0
cullen 0.0
psychiatric 0.0
officialadele 0.0
butters 0.0
verrrry 0.0
buttered 0.0
winged 0.0
pedialyte 0.0
topanga 0.0
armpit 0.0
kittens 0.0
dueling 0.0
eagerly 0.0
surrealist 0.0
dethroned 0.0
manolos 0.0
señorita 0.0
monterrey 0.0
parque 0.0
retiree 0.0
batches 0.0
reservations 0.0
sickos 0.0
aplusk 0.0
kirkherbstreit 0.0
fanbases 0.0
indexing 0.0
chuckles 0.0
incorporated 0.0
washboard 0.0
earbuds 0.0
pantone 0.0
knotts 0.0
dismaland 0.0
pollock 0.0
iamkidpresident 0.0
mariah 0.0
teevee 0.0
santorini 0.0
appalachian 0.0
sunburnt 0.0
caliente 0.0
juicery 0.0
karlihenriquez 0.0
trillest 0.0
tommorrow 0.0
crumpets 0.0
fishin 0.0
grillin 0.0
jambalaya 0.0
pepperoni 0.0
cashew 0.0
graceland 0.0
pussies 0.0
delicately 0.0
eraser 0.0
choreo 0.0
snatched 0.0
elliptical 0.0
mooore 0.0
unborn 0.0
georgina 0.0
stalkers 0.0
sallykohn 0.0
expectancy 0.0
phillipines 0.0
appstoregames 0.0
wilkinson 0.0
puddings 0.0
loveland 0.0
spaced 0.0
shanny 0.0
dripping 0.0
gerber 0.0
shakey 0.0
weaves 0.0
unbeatable 0.0
linguist 0.0
prosthetics 0.0
battleship 0.0
serotonin 0.0
machiavellian 0.0
girlies 0.0
guangzhou 0.0
debuting 0.0
dissecting 0.0
warped 0.0
luckyjess 0.0
ermahgerd 0.0
fabulousness 0.0
elliegoulding 0.0
activewear 0.0
yelyahwilliams 0.0
prismatic 0.0
evaluations 0.0
skywalk 0.0
sparklers 0.0
palettes 0.0
gemmaanningram 0.0
trueeee 0.0
invisalign 0.0
pounded 0.0
lolgop 0.0
procession 0.0
stanning 0.0
squeals 0.0
continual 0.0
luminary 0.0
cummin 0.0
shaves 0.0
epixhd 0.0
preacher 0.0
boogiecousins 0.0
changers 0.0
autismspeaks 0.0
massaged 0.0
psssssst 0.0
literati 0.0
utilization 0.0
endangerment 0.0
purposeful 0.0
unlabeled 0.0
undiagnosed 0.0
snotty 0.0
gallops 0.0
slovenia 0.0
sequin 0.0
akerlund 0.0
jumbotron 0.0
edibles 0.0
knowles 0.0
caeser 0.0
thehollywoodbowl 0.0
elvispresley 0.0
adoring 0.0
ageist 0.0
thérèse 0.0
confessed 0.0
blackvoices 0.0
patties 0.0
graphically 0.0
wildflowers 0.0
groundhogs 0.0
eataly 0.0
poodles 0.0
hillaryforia 0.0
roadshow 0.0
sweety 0.0
boppin 0.0
bettywho 0.0
johnnywujek 0.0
earring 0.0
itsbennyblanco 0.0
curitiba 0.0
purrfect 0.0
shellback 0.0
chokers 0.0
hairbrush 0.0
hakuna 0.0
matata 0.0
hazing 0.0
mathew 0.0
aegean 0.0
lullaby 0.0
musiciansoncall 0.0
headpiece 0.0
morsel 0.0
whistled 0.0
conquest 0.0
viceland 0.0
lambily 0.0
scalped 0.0
graced 0.0
emblazoned 0.0
hrclosangeles 0.0
kawaii 0.0
glittery 0.0
wonderlandmag 0.0
jumpsmokers 0.0
radiodotcom 0.0
missyfranklin 0.0
pleaaaaase 0.0
lilbthebasedgod 0.0
waaaay 0.0
flossy 0.0
aria_official 0.0
berliners 0.0
matriarchy 0.0
cornered 0.0
limping 0.0
peasant 0.0
feasibly 0.0
waaaaay 0.0
slayyy 0.0
fashionistas 0.0
sangin 0.0
worldstarfunny 0.0
pliers 0.0
babyanimalpics 0.0
mediation 0.0
quests 0.0
aaaaaaah 0.0
honked 0.0
rauschenberg 0.0
whitneymuseum 0.0
lonsdale 0.0
transcendental 0.0
roarin 0.0
facetune 0.0
fausto 0.0
herning 0.0
cazzette 0.0
annnnnnnnnd 0.0
shinier 0.0
giambattista 0.0
katys_teddybear 0.0
gnight 0.0
katheryn 0.0
psychoanalysis 0.0
bckgrnd 0.0
kingman 0.0
gracevanderwaal 0.0
fecking 0.0
ihrcountdown 0.0
stubbies 0.0
xfactor_italia 0.0
aaronpauley 0.0
purity_ring 0.0
scorpios 0.0
ayyyye 0.0
capitalizes 0.0
flamin 0.0
motherfucking 0.0
jingled 0.0
pharrellhat 0.0
ontarioglow 0.0
teached 0.0
umusic 0.0
auroramusic 0.0
dailymendeslife 0.0
soloing 0.0
universalse 0.0
dustinkloeppel 0.0
robynkonichiwa 0.0
charli 0.0
lonelydot 0.0
adamselman 0.0
sorrenti 0.0
offish 0.0
vinoodh 0.0
guitarists 0.0
cocking 0.0
cabbages 0.0
amelia_libman 0.0
flutter 0.0
lolita 0.0
kingladygaga 0.0
breakthecycledv 0.0
howbow 0.0
curveballs 0.0
tamagotchi 0.0
jarryd 0.0
alliseeisgold 0.0
thebroadmuseum 0.0
sarahsowitty 0.0
brillz 0.0
jackgarratt 0.0
markryden 0.0
duffscakemix 0.0
sanrio 0.0
theniceguyla 0.0
trills 0.0
susangkomen 0.0
faustopuglisi 0.0
gurlll 0.0
cheesecakes 0.0
scorpio 0.0
oblivia 0.0
skipmarley 0.0
correcto 0.0
jessirklein 0.0
unpatr 0.0
squish 0.0
greg_wells 0.0
onlyleah 0.0
gittin 0.0
popstars 0.0
krafts 0.0
bouche 0.0
problemo 0.0
wheezing 0.0
patmcgrathreal 0.0
cienega 0.0
thundering 0.0
nastialiukin 0.0
janell 0.0
katelyntarver 0.0
miamoretti 0.0
missoni 0.0
dannymoonsworld 0.0
mrchrismcmillan 0.0
madge_freak 0.0
woridstarcomedy 0.0
ikissedasoldier 0.0
kpezandchez 0.0
perrysoldier 0.0
emilynotchez 0.0
iickmekaty 0.0
basicallyadam 0.0
katysangelegg 0.0
nicolasjebran 0.0
xchadballx 0.0
scott_myrick 0.0
lockoir 0.0
shannonwoodward 0.0
calluses 0.0
chamomile 0.0
trollin 0.0
sleighing 0.0
chestercheetah 0.0
royksopp 0.0
scottsimonswvla 0.0
sirenscaiiing 0.0
slowdownkaty 0.0
chefantoniopark 0.0
garnished 0.0
endive 0.0
mdmolinari 0.0
prezzy 0.0
motioning 0.0
hernameisbanks 0.0
rockcampla 0.0
jenniefinch 0.0
getglucky 0.0
stendhal 0.0
ryanphillippe 0.0
hotncolds 0.0
kpcollections 0.0
katie_wignall 0.0
katysdrugx 0.0
evrenperry 0.0
katycatwendy 0.0
yungskeeter 0.0
sarahhudsonuvs 0.0
mothern 0.0
oliverheldens 0.0
marrymemargot 0.0
katyperrylately 0.0
kewlest 0.0
katyshellokitty 0.0
pqgerry 0.0
rasarioatelier 0.0
anakhouri 0.0
romaneperry 0.0
hot_chip 0.0
agador 0.0
freddietinkles 0.0
cynthialovely 0.0
augustgettyatelier 0.0
tbsnetworks 0.0
ronyalwin 0.0
justinandersoncolor 0.0
mmillerrider 0.0
jpgaultier 0.0
harharharhar 0.0
iikeanangel 0.0
vonnypoo 0.0
jcoopkp 0.0
itzmero 0.0
katysprismlight 0.0
hatérs 0.0
awkwardaya 0.0
katysredskittle 0.0
tiedye_princess 0.0
adelshahal 0.0
marinadiamandis 0.0
samadizayee 0.0
itsslatykaty 0.0
johnlordperry 0.0
nuggetperry 0.0
kthnkzbye 0.0
teamkpbrasil 0.0
twenagedream 0.0
ashleyegreer 0.0
perryllover 0.0
perry_slays 0.0
_andresgalvis 0.0
poplitics 0.0
likerotica 0.0
sweetxjaureguix 0.0
jessiambriz 0.0
perryncolds 0.0
pwideawake 0.0
brunastrait_ 0.0
anafalqueto 0.0
pessoalmente 0.0
mark_hodson_ 0.0
sumtxkid 0.0
arpoador 0.0
katysmychampion 0.0
amnattg 0.0
osullivanluke 0.0
stephiruth 0.0
katy_pizza_bae 0.0
kpcatt 0.0
pedroeugeniio 0.0
gugs_prismatic 0.0
zeeusmtz 0.0
legendarycold 0.0
robynxkatheryn 0.0
écouter 0.0
energyberlin 0.0
karysjones 0.0
lilzariya 0.0
puroland 0.0
pavlovitz 0.0
dreamhampton 0.0
prismsperry 0.0
perrysmic 0.0
focusonreid 0.0
tonyatalterian 0.0
makeup_man 0.0
wtfkates 0.0
sella_sandra 0.0
katycute_ 0.0
caitsperry 0.0
katyperryforum 0.0
radiantjareau 0.0
lillysgomez 0.0
katycatsweden 0.0
perryicecream 0.0
xamyrosex 0.0
wtvrlara 0.0
bijanstephen 0.0
ameliashowalter 0.0
screamkng 0.0
tvmcgee 0.0
liiife 0.0
itskatcombs 0.0
yaaaaaasssssssssss 0.0
katysmyhabibi 0.0
skottpeace 0.0
ferras 0.0
kweens 0.0
habibi 0.0
orlandobloom 0.0
huckchinn 0.0
katycatkenzie 0.0
matarazzo 0.0
fkatwigor 0.0
perryschild 0.0
hotxcolds 0.0
maddisonxperry 0.0
akaruikaty 0.0
chillinlaidback 0.0
erryone 0.0
chrisanokute 0.0
beyelite 0.0
kuntyewest 0.0
chiroprac 0.0
katyperryrises 0.0
godneybjs 0.0
liquoronurlips 0.0
katystumblrr 0.0
holiestkaty 0.0
hollykittykaty 0.0
katysprincess 0.0
katysdonut 0.0
carlythekatycat 0.0
katycatsophia 0.0
fridaaperry 0.0
iegendarylovers 0.0
katycatveronica 0.0
katyperryslave 0.0
hakimkharbouch 0.0
keonovak 0.0
plaaaaay 0.0
scatting 0.0
shotted 0.0
dizzycoco 0.0
fkinsnapss 0.0
junkygs 0.0
ミニチュア料理 0.0
エビフライとエビ天 0.0
adidasboosts 0.0
lilithia 0.0
cottoncandizzle 0.0
ultimatebeyhive 0.0
paramorewebnews 0.0
royale_lala 0.0
musicnews_feed 0.0
katyperryextra 0.0
greeniight 0.0
gagas_illusion 0.0
lesbiyonce 0.0
blurryhface 0.0
lordofgiraffex 0.0
ifuseekamy_ 0.0
legendarymalek 0.0
hausoframez 0.0
unstan 0.0
chioekardashian 0.0
theiife 0.0
handstomyseif 0.0
legendarylovers 0.0
gagas_fandom 0.0
thinagedream 0.0
conditionalbabe 0.0
dannysuschrist 0.0
prismdluxe 0.0
herwonkeye 0.0
camilasviews 0.0
gagalovesbey 0.0
shadykatyfacts 0.0
limalimoncia 0.0
heavymetaiovers 0.0
katyscrush 0.0
waikingonair 0.0
eduardo_katycat 0.0
katyswetdream 0.0
katherynsgod 0.0
katystddbr 0.0
katyboobies 0.0
royaityler 0.0
nothingfaiis 0.0
kathrynluck_ 0.0
prismaticiights 0.0
mendesperry 0.0
katycatghita 0.0
mark_katycat 0.0
iwasdivine 0.0
skywaterr 0.0
xjojospearsx 0.0
alwaysbeperry 0.0
skoglyrihanna 0.0
legendarydurk 0.0
halseysfirework 0.0
rainbowspatrick 0.0
katysfood 0.0
honeymoonprism 0.0
onepulsetony 0.0
butcha 0.0
okurrr 0.0
the_mpt 0.0
talaofficial 0.0
miniatures 0.0
ohmyjurassic 0.0
katysmoonlight 0.0
lilly_jnes 0.0
coco_ho 0.0
perryhumorr 0.0
yikesjonathan 0.0
rubyrankin 0.0
thealekovski 0.0
cydney_moore 0.0
truebluedeluxe 0.0
thedutchass 0.0
katyskettle 0.0
ferraseu 0.0
katyssunlight 0.0
typosqween 0.0
adoreeeperry 0.0
katyperryfrance 0.0
snowiner 0.0
_coolkatycat 0.0
nicothekatycat 0.0
adorbies 0.0
jackygerardchan 0.0
brewmystew 0.0
katyswildfire 0.0
rihftperry 0.0
theolagu 0.0
ritajoness 0.0
iitsjackie 0.0
mjjperry 0.0
jesuskylie 0.0
holyerotica 0.0
graceofkaty 0.0
redsvelvets 0.0
booyakasha 0.0
tariqterry 0.0
katycatalannah 0.0
taylxre 0.0
pacifyher 0.0
basedkatyperry 0.0
diddleurskittle 0.0
katysanalien 0.0
gagasspace 0.0
tayiorhq 0.0
givenchydress 0.0
augustryder 0.0
perrysmoschino 0.0
kittehn 0.0
katrieber 0.0
legendaryhunty 0.0
katyslegs 0.0
katyfroot 0.0
winesandlines 0.0
sam_incolour 0.0
wakingonair 0.0
drwssinup 0.0
huffdaddysays 0.0
fiwwwwine 0.0
matthewroper 0.0
emmabruhhh 0.0
gingerwesson 0.0
nicholas_sewell 0.0
perfectlyperry 0.0
bustabusta 0.0
mynameisziam 0.0
venuzszfly 0.0
katherynsus 0.0
sacredperry 0.0
thedollsftkaty 0.0
_cafajeff 0.0
debkatycat 0.0
katycats 0.0
eastonjames_ 0.0
oliviabooker_ 0.0
protecti 0.0
outrageousness 0.0
joanneprada 0.0
scuffed 0.0
catoure 0.0
blanged 0.0
tahmorrow 0.0
glukatyperrypop 0.0
jamesjoint 0.0
pressin 0.0
bourree 0.0
honeysuckle 0.0
meowings 0.0
fashun 0.0
happun 0.0
vikander 0.0
thekatyperrypopgame 0.0
karolfabianaros 0.0
nico_thekatycat 0.0
miss_lilyjames 0.0
stylinfunk 0.0
hudsontheband 0.0
jere_my 0.0
crabitat 0.0
tiersz 0.0
unrehearsed 0.0
fanclub_kp 0.0
oneofthesophies 0.0
fusterlandia 0.0
lazyblazy 0.0
katycatchloe 0.0
figali 0.0
prismaticness 0.0
titicaca 0.0
ancientaliens_ 0.0
sneezin 0.0
cristos 0.0
mallman 0.0
prismaticlife_ 0.0
ravensuxx 0.0
perrypositive 0.0
derkwhore 0.0
alekjandro 0.0
havss_ 0.0
hqzaynmaiik 0.0
thique 0.0
bbhmms 0.0
jkatharineb 0.0
jennyformica 0.0
tiiiiiight 0.0
ikissedagay 0.0
harryvuitton 0.0
aeschleahd 0.0
princessjavonda 0.0
errrythang 0.0
kooning 0.0
sugarray 0.0
empaths 0.0
goldenboyz_inc 0.0
voguejp 0.0
chickenwingguardingthemimosa 0.0
katyperrypopup 0.0
unmeasurably 0.0
transviolet 0.0
beauteous 0.0
katyskidrauhl 0.0
thooooooseee 0.0
clairesstores 0.0
nailsbymh 0.0
katysacutie 0.0
psychokatycat 0.0
kaceymusgrave 0.0
refueled 0.0
hyungsunju 0.0
okuurrrr 0.0
cholewheeler 0.0
leftshark 0.0
momchella 0.0
crotches 0.0
hookedondolls 0.0
fyuseapp 0.0
mogonoloball 0.0
atletica 0.0
katycatsclub 0.0
catacombs 0.0
poppycorn 0.0
cupped 0.0
christiania 0.0
residenz 0.0
lindseyweber 0.0
butterballface 0.0
joshlecash 0.0
myassistant 0.0
swiftschrist 0.0
snowhiteperry 0.0
emmakphughes 0.0
katyslegend 0.0
dansnierson 0.0
scressful 0.0
prismaticwitch 0.0
finnin 0.0
habibis 0.0
mophies 0.0
strongé 0.0
drumkit 0.0
anamanaguchi 0.0
gaultier 0.0
ngvmelbourne 0.0
dukedumont 0.0
legendaryasmyn 0.0
highlarious 0.0
calpurnia 0.0
waaaaait 0.0
mktfah 0.0
fwding 0.0
caseyhoops 0.0
worldstarvlne 0.0
flapfkp 0.0
bettycrocker 0.0
mexxxico 0.0
whhhhhhhhuuuuuutttt 0.0
yelletweets 0.0
gucciqxxn 0.0
luckyladyrebelettes 0.0
junglejulia 0.0
charlottes_web 0.0
istarbucksniall 0.0
katysroaaar 0.0
fiorucci 0.0
whuteva 0.0
sirdavidd 0.0
fudgery 0.0
bizquick 0.0
itsgrandtheft 0.0
grandtheft 0.0
katysfancy 0.0
ameezyyrush 0.0
mykectown 0.0
itsvalkubus 0.0
walkslikeperry 0.0
iwantperry 0.0
exausto 0.0
selfeh 0.0
aquaberry 0.0
sidepiece 0.0
versacness 0.0
iamleslii 0.0
alocalgyro 0.0
cutina 0.0
theoutslder 0.0
prism_katy_cat 0.0
katyshoodrat 0.0
thestevetisch 0.0
ronysphotobooth 0.0
schlitterbahn 0.0
kpsnosecrinkle 0.0
alwz_katycat 0.0
whykph 0.0
californiagurls 0.0
katycattt 0.0
varicose 0.0
itsbrillz 0.0
perrystiger 0.0
katysmyaura 0.0
paolablancokp 0.0
callmemargot 0.0
indiggynado 0.0
katycat 0.0
anylinden 0.0
kpkillerqueen 0.0
katyslilacwine 0.0
katypvenezuela 0.0
franzikaty 0.0
katherynelperry 0.0
doessss 0.0
katysleftarm 0.0
datingprism 0.0
_smiler_katycat 0.0
kepyterry 0.0
katycat_camille 0.0
vckatyperry 0.0
bowzerjoe 0.0
taishrox 0.0
mütter 0.0
arianperryarian 0.0
lisasigh 0.0
fridiskp 0.0
kevinruda 0.0
katyperrydaily 0.0
wakingupvegas 0.0
marlyins 0.0
drankin 0.0
herkatycat 0.0
luvhudson 0.0
yaeltsairi 0.0
felipinhoofm_ 0.0
renanmarcall 0.0
kariseperry 0.0
emojing 0.0
konnie 0.0
mcperry 0.0
iturnmycanonon 0.0
katycatelysha 0.0
andrewnavs 0.0
katycatkrystal 0.0
lovelyandlaugh 0.0
lampoonians 0.0
perrytuuda 0.0
katymyhaven 0.0
ruletheschool 0.0
cheapandchic 0.0
sically 0.0
crazyforperry 0.0
kpdaily 0.0
getonupmovie 0.0
cutetina 0.0
chimiuzz 0.0
kefali 0.0
joelkefali 0.0
siclly 0.0
mtvother 0.0
lydiaacav 0.0
prismaticperry 0.0
jwujek 0.0
adorbie 0.0
errone 0.0
kaliyah 0.0
katysweirdness 0.0
vinbiodiesel 0.0
katysfxb 0.0
katyspurrfect_ 0.0
shannonmwoodward 0.0
bippity 0.0
boppity 0.0
swiggty 0.0
swoogity 0.0
pizzarella 0.0
firewerk 0.0
katyslayed 0.0
emerald_epelman 0.0
madkatydisease 0.0
mandee 0.0
ohferras 0.0
sarahh 0.0
iaustinhunt 0.0
lanawhore 0.0
spaceykacey 0.0
crazay 0.0
elektrikpeople 0.0
visa_nz 0.0
fvckin 0.0
nathanspicer 0.0
cashcash 0.0
ashish_uk 0.0
xokatic 0.0
turnting 0.0
scorpiomystique 0.0
toddthomasnyc 0.0
kohngallery 0.0
discnt_universe 0.0
dressinkaty 0.0
lee_cook 0.0
bloodshot 0.0
yaddlizc 0.0
elnett 0.0
itsthekatycats 0.0
kelly_moritz 0.0
katyslaykaty 0.0
skintxghtjeans 0.0
socarrer 0.0
errrday 0.0
therealslacker 0.0
wendywild 0.0
welkys 0.0
sohohouse 0.0
selfing 0.0
camiilaruales 0.0
nexxxt 0.0
turrell 0.0
alliexxxxandra 0.0
surfboardt 0.0
telstra_news 0.0
juanitadele 0.0
oopskatycat 0.0
sophkatycat 0.0
katyschild 0.0
katysconverrse 0.0
katycat_leah 0.0
katycatverified 0.0
katycat_libby 0.0
katyswonk 0.0
kittless 0.0
jlrcukp 0.0
siiiiiiiiiiiiii 0.0
ermagherd 0.0
imlynsey 0.0
perrys_cherry 0.0
casemcgase 0.0
hazzaily 0.0
herses 0.0
gaypropaganda 0.0
tixforcharity 0.0
hudsons 0.0
nomers 0.0
mommacat 0.0
superlove 0.0
bonacorso 0.0
levi_leet 0.0
thinkingofbecki 0.0
cybering 0.0
pamyurin 0.0
idreamofkaty 0.0
xfactor_au 0.0
glohudsonperry 0.0
aubreyplzza 0.0
eeshhuhhayniac 0.0
bonkay 0.0
katysbum 0.0
nevillebradley 0.0
curryswift 0.0
zinepack 0.0
katykatt_suraya 0.0
sweetkatybird 0.0
yohkatheryn 0.0
cottoncandykaty 0.0
karolynadiaz 0.0
maayansharvit 0.0
theprismcess 0.0
camisp_ 0.0
lucasgaldin 0.0
prixy_mtz 0.0
niggasperry 0.0
kaksperry 0.0
zennnnaaa 0.0
katyissmurfy 0.0
dadehoward 0.0
kyledsaavedra 0.0
katysdoritos 0.0
pendejabardera 0.0
rosenilsou 0.0
hackensucks 0.0
gottabesheerio 0.0
ismaellgarcia 0.0
milegendz 0.0
alexskarev 0.0
ladycrystalb 0.0
katyspad 0.0
xcallmechrissyx 0.0
arianastylesss 0.0
jorgebaker 0.0
matty_zee 0.0
katycatzilla 0.0
adorie 0.0
meowwdison 0.0
alvin_koopa 0.0
lexyauditore 0.0
kease_it_raw 0.0
katysking 0.0
chris__kirby 0.0
katysbestfrwend 0.0
katyslildancer 0.0
sssshhh 0.0
conorhughess 0.0
tanimura 0.0
thekatycatlife 0.0
weefififookface 0.0
breakalioz 0.0
hudsonhelper 0.0
lariitaa 0.0
meeeeeooooooooowwwww 0.0
legend__dary 0.0
katyandliam 0.0
_theatrekid 0.0
babybritney 0.0
erinlorimer 0.0
_zacmoore_ 0.0
itscezzurryo 0.0
katycatskp 0.0
larissafilipo 0.0
siaylorswift 0.0
shitkittens 0.0
thefrankradical 0.0
katysprism 0.0
katytinalevine 0.0
serjeeoh 0.0
kayz_perry 0.0
katyslaysurfav 0.0
fuckyeahitskath 0.0
sweetyitosan 0.0
pickerington 0.0
verrado 0.0
retweete 0.0
jameswaterhouse 0.0
hunnah 0.0
truth_ispeak 0.0
_emilybarbarrr 0.0
nbllrrr 0.0
jmoneygraves 0.0
eaglenationnews 0.0
tauentzienstrasse 0.0
avontbh 0.0
vinnie_mate 0.0
demilovve 0.0
coolestkatycat 0.0
terri_katycat 0.0
beeeaaatttt 0.0
laurenfrancisco 0.0
victaytayp 0.0
aylajaye 0.0
iloveu 0.0
augustvaz 0.0
lizzievang_ 0.0
edsssss_ 0.0
hhhhhholly 0.0
holly_hickin 0.0
trixxx 0.0
killah 0.0
treasurefingers 0.0
最強ガール宣言 0.0
voykovic 0.0
annunaki 0.0
katyshomie_ 0.0
katyselephant 0.0
caitlynsmith 0.0
lightsperry 0.0
elizagilham 0.0
ohmyjatyfeels 0.0
junglescope 0.0
drunkskaty 0.0
malikpom 0.0
dancerlaurena 0.0
brirad 0.0
elisa_rv 0.0
moooom 0.0
pattymeagher 0.0
iwasemily 0.0
shahrzadphoto 0.0
tvjohnny 0.0
cstonethebreadwinner 0.0
katysrightboob 0.0
cyberdlck 0.0
beatforkaty 0.0
igabriiel 0.0
duuuuddddeeeee 0.0
redrum 0.0
srbuhiii 0.0
kayleighcat 0.0
applekatycat 0.0
ikatycats 0.0
wehryspencer 0.0
emilyjonesphoto 0.0
coxgabe 0.0
drugmoneyx 0.0
steven_drum 0.0
victoriacha 0.0
hashtaggin 0.0
perryandemetria 0.0
katycatfurlife 0.0
iammelissalynn 0.0
qewtie 0.0
yscheecat 0.0
slayty 0.0
katystree 0.0
katherynsboy 0.0
anapurry 0.0
nenedez 0.0
kevinn_perry 0.0
gloria_swag_ 0.0
andyamaziing 0.0
roarsana 0.0
brighthudson 0.0
fixingperry 0.0
roooooooooooooar 0.0
gretschusa 0.0
katys_cupcake 0.0
wonderation 0.0
kasek_craig 0.0
katysgurll 0.0
pepperperry_ 0.0
teamkatyperry 0.0
meandnutella 0.0
lovatokitten 0.0
katyslolly 0.0
astixxx 0.0
ravemomentz 0.0
erzaabrianto 0.0
katyperryindo 0.0
seeingdaisies 0.0
gillian_e_dubbs 0.0
samanthachazene 0.0
perryprism_ 0.0
katycompletesme 0.0
ltskatyperry 0.0
kittenscks 0.0
nihanofficial 0.0
momcat 0.0
kaytehperreh 0.0
__grazi 0.0
clairekatycat 0.0
fangurl 0.0
rrrrrrrrrrrroooooooooooooaaaaaaaaaaaaar 0.0
marispiva 0.0
mattdrobins 0.0
deihemmings 0.0
rooaaarr 0.0
katycatobsessed 0.0
katycatnick 0.0
tigerkats 0.0
kristenanzelc 0.0
taylermckellop 0.0
essesfadaperry 0.0
imjare 0.0
smganonymous 0.0
roaaaar 0.0
phuckyotweet 0.0
evvvvvverrrr 0.0
melvynmarrero 0.0
zouisashton 0.0
trillneyspears 0.0
rooooooar 0.0
fanwars 0.0
fentyncold 0.0
ttish_ 0.0
rachelacogan 0.0
makesmariana 0.0
kkaplon 0.0
rafaelmoncada 0.0
yaaaassssgrl 0.0
oioianna 0.0
katycatrazan 0.0
megaan_katycat 0.0
thekaelynn 0.0
hannahloupunton 0.0
thumbelinafairy 0.0
nic_kathryn 0.0
dannahfields 0.0
rodneybroaddus 0.0
noxisanasshole 0.0
soedesh__ 0.0
hookerofversace 0.0
thinkingofkaty_ 0.0
msgracevalerie 0.0
francfernandez 0.0
katysring 0.0
a_little_spark 0.0
laaxiss 0.0
