awesome 0.00469488493425
christmas 0.000936432107022
trying 0.000397672806964
launch 0.000182853405642
moment 0.000299866937833
wonderful 0.000223349338997
seeing 0.0005106764092
hanging 0.000877306623883
sounds 0.0
recommend 0.0
worked 5.37570719847e-05
direct 0.0
others 0.000160400841355
currently 5.91326549282e-05
better 0.000737640333578
please 0.000847335732252
social 0.0
anxiety 0.0
around 0.00034423215567
people 0.000983520444771
morning 0.00257097563955
traditional 0.0
general 0.0
damage 0.0
everything 0.000296651035333
twitter 0.000347027019378
present 0.00022517915767
though 0.000308895785473
friend 0.000447381907834
watched 0.000223349338997
beautiful 0.00045837076971
anything 0.000100496043153
previous 0.0
helped 0.000108390988212
updated 7.85873193525e-05
thinking 0.000404157703984
finally 0.000555716842978
caught 0.0
believe 0.00083824876911
already 0.000295852506745
couple 0.000324293512024
orlando 0.000252596873592
chance 0.00296651035333
meaning 7.31176850469e-05
growing 0.000237180881756
probably 0.000160835386784
password 0.0
changed 0.0
history 5.09300855233e-05
center 0.000907244571528
museum 0.0
behind 0.00113104851149
screaming 0.0
pretty 0.000656756268974
really 0.00103827862367
little 0.00108479252473
happiest 0.000104681506027
earlier 5.78511225431e-05
forget 0.00155349483764
someone 0.000299059670206
safety 0.0
program 6.87849201004e-05
things 0.00034423215567
related 0.0
visiting 0.000204587935989
available 0.00195106863451
perfect 0.000205930523649
different 0.000100496043153
search 6.60949358341e-05
connect 0.0
numbers 0.0
person 9.9150576965e-05
watching 0.00104389111828
exhibit 0.000466760564752
passed 0.000120564126732
prefer 0.0
minutes 0.00035747348644
travel 6.04484798436e-05
outside 0.000156969801442
looking 0.000542396262365
forward 0.00035555039677
agreed 0.0
raising 0.000211785854584
listened 7.8346849327e-05
afraid 0.0
impression 9.08427606636e-05
christian 0.0
profile 0.000338070035554
instant 0.0
drawing 0.0
wheels 0.0
favorite 0.00263943533878
picture 0.000105213406437
instead 0.0
appreciate 0.000465347106425
international 0.0
station 0.000208143001186
toddler 0.0
market 0.0
couldn 0.000360378416385
remember 0.000395534713778
vintage 0.0
holidays 0.000211785854584
friends 0.000845054714798
everyone 0.00405423081622
florida 0.000145804944704
always 0.000835992378055
months 0.000103243485615
moving 5.31785238736e-05
meeting 0.000151968371064
answer 0.000303936742129
sweetie 0.0
together 0.000297451730895
inside 0.000102965261824
section 0.0
missed 0.000400901893584
button 8.20835339783e-05
longer 0.0
enough 0.000349844760805
driving 6.04484798436e-05
building 5.55347121188e-05
enjoying 6.04484798436e-05
london 0.000117618254598
exploring 0.0
posting 7.42081071561e-05
amazing 0.00231751130283
attention 0.000223957389215
gordon 0.0
progress 0.0
tomorrow 0.00395534713778
george 0.000122917963219
feeling 0.000155283748042
excited 0.00382000896776
understand 0.000107805557648
following 0.000103802305553
asleep 0.0
learning 0.000122578232157
evening 0.0
special 0.00184420129961
secret 0.0
across 0.000110467880806
surprised 0.000176911875163
anymore 0.000126029535204
sophia 0.0
precious 0.0
rejoice 0.0
version 5.46378601079e-05
rather 5.55347121188e-05
avatar 0.0
showing 0.000210996144933
saying 5.16217428076e-05
tweeted 0.000130705284319
thoughts 0.000209859123912
exactly 5.34669471182e-05
except 0.0
getting 0.00123604598056
nothing 0.000247209196111
tweets 0.00010897992437
course 0.0
photos 0.000657647831527
looked 5.61418312158e-05
difficult 6.51688063481e-05
stages 0.0
office 0.000160400841355
decisions 0.0
brought 0.000273931020894
biggest 0.00076395128285
thrilled 0.0
something 0.000395534713778
closing 7.3550956768e-05
anyone 0.000249216391839
taking 0.000395534713778
recently 6.42597966906e-05
interesting 0.0
original 0.000175463142735
flying 0.00049715498244
happening 0.000215611115296
sometimes 5.44899621852e-05
lessons 0.0
village 0.0
stopped 0.000232037998253
yesterday 0.000348902948574
service 0.00010868501547
serious 0.00015867534722
digital 7.33338437344e-05
hoarder 0.0
wearing 0.000232037998253
british 0.0
either 0.0
second 0.000199373113471
checking 6.40799938495e-05
indeed 0.0
island 0.000209953184225
hearing 0.000165701821209
choose 0.00017450516491
staying 0.0
another 0.00103548377361
clothes 0.0
slowly 0.0
weekend 0.00175394578443
hashtag 0.000145804944704
delivery 0.0
theory 0.0
working 9.88836784444e-05
bigger 5.80094995632e-05
screen 6.68486060992e-05
riding 0.000256706556234
laughing 5.86481581793e-05
wanted 0.000249889114861
trends 0.0
stripes 0.0
clothing 0.000422032053005
current 0.000116655584161
adorable 0.0
grateful 0.000129242773437
friendship 0.0
family 0.00108772046289
listening 0.000379368458744
stream 0.000680012218849
expressions 0.0
wedding 0.000150196390413
sharing 0.000290841941516
double 0.000167968041911
especially 0.0
middle 0.0
waiting 0.00025328061844
definitely 0.000162146756012
walking 0.000118590440878
account 0.000290047497816
completely 5.86481581793e-05
thought 0.000299059670206
reaction 0.0
accept 6.31907106243e-05
simple 5.75358905519e-05
professional 0.0
friendly 0.000147101913536
supposed 0.0
business 5.33225240416e-05
absolutely 0.00015867534722
anywhere 0.0
sending 0.000172137087312
introducing 0.0
congrats 0.00160893573607
beauty 0.0
community 6.0951135214e-05
greatest 0.000216195674683
selfie 0.000147976159688
posted 0.00046790171396
saturday 0.00140891830333
wednesday 0.000655841698815
confused 0.0
expression 0.0
chicago 0.00047060872238
closest 0.0
relationship 6.64703271397e-05
actually 5.06561236881e-05
easter 0.000270456028443
basket 0.0
myself 6.48031836806e-05
argument 0.0
school 0.000401984172611
thursday 0.00227434664349
selling 6.76140071107e-05
talented 0.0
celebrate 0.000491740740971
falcon 0.0
celebrating 0.000471765000435
contest 0.00025776103744
experiences 0.0
students 0.0
internet 6.14589816094e-05
figure 5.91326549282e-05
opened 0.0
featuring 0.000449818576834
inspired 5.97861665024e-05
sitting 0.000223349338997
playing 0.000753720323645
street 0.000273931020894
points 0.0
memory 0.000136783019649
forever 0.000167512004247
imagine 0.0
problem 0.000106069888289
played 0.000165701821209
canadian 8.52918033326e-05
pulling 0.000168397915728
keeping 0.000165701821209
lovely 0.00012428874561
dressed 0.0
specifically 0.0
unlike 0.0
disappointed 0.0
otherwise 0.0
afternoon 0.00017450516491
planned 0.000142013604187
strange 0.0
images 0.0
noticed 0.0
notice 6.70388423992e-05
stretch 0.0
inspiration 0.0
letting 0.000364698071384
system 0.000123600966272
possibility 0.0
almost 0.000494418392222
details 0.000918831617401
experience 0.000825947884922
living 5.16217428076e-05
weather 0.000758288527491
normal 0.0
launching 0.0
before 0.0
captured 0.0
colors 9.50373563798e-05
monday 0.000825947884922
example 0.0
realize 7.10068020933e-05
autographed 0.000508572269544
sleeping 0.000235761958058
authentic 0.0
science 0.0
tweeting 5.64482248688e-05
forgot 0.000123944254734
chasing 0.0
gorgeous 8.03043623819e-05
herself 0.0
happens 5.12055821668e-05
silence 0.0
learned 5.72226664213e-05
congratulations 0.000762859470592
natural 0.0
raised 0.0
babies 0.0
mission 0.0
smelled 0.0
ironic 0.0
testing 0.0
deleted 0.0
barely 8.61276765261e-05
unforgettable 0.000114640843743
forgotten 7.3550956768e-05
trouble 6.11198352842e-05
fantastic 0.0
loving 0.000291638960402
complete 5.67565394978e-05
nearly 0.0
spirit 0.000192239981549
launched 0.000147538065224
finding 6.04484798436e-05
mercury 0.000266682497359
stories 0.000106933894236
including 0.000109869994196
mature 0.0
stuffed 0.0001246206672
ancient 0.0
bottle 0.000154323655189
somewhere 6.444025936e-05
wouldn 0.000213290096166
choice 0.000369243253632
conversation 0.0
making 0.00133133628035
expect 0.0
occasions 0.0
subject 0.0
flights 0.0
location 0.000155264830261
vacation 0.0
seriously 0.000218551440431
spending 0.0
groups 0.0
childhood 0.0
modern 0.0
welcome 0.000349844760805
moments 0.000245835926437
degrees 0.00037093751738
jacket 8.72647450394e-05
halloween 7.42081071561e-05
costume 0.000195617139282
totally 0.0
laughed 0.0
flight 0.000118590440878
kidding 7.73965584567e-05
regular 0.0
context 0.0
running 0.000207604611106
finished 0.000118265309856
strong 0.000101860171047
tracking 0.0
respond 0.00014930227476
message 0.00026232390489
coming 0.0028599075652
thankful 0.00062295526774
cheese 0.0
greens 0.0
issues 0.0
intolerance 0.0
happen 0.000604604155857
giving 0.000449800406749
turkey 0.000216152754664
excellent 0.0
limits 0.0
common 0.0
pressed 0.0
situation 0.0
options 7.71618275946e-05
health 0.0
insurance 0.000255875409998
change 4.94418392222e-05
singing 0.000660949358341
august 0.000348912197705
crying 7.78694084675e-05
mental 0.0
happened 0.000520414553603
demand 0.000130337612696
generally 0.0
personal 0.0
beyond 5.5233940403e-05
bruised 0.0
question 0.000101039425996
chicken 0.000284027208373
reward 0.0
tunnel 0.0
losing 0.0
respect 5.40489186706e-05
caption 0.000104681506027
shouldn 0.0
visited 0.0
reason 0.000260207276801
simply 0.0
darlin 0.0
audience 0.0
involved 0.0
unhappy 0.0
reality 0.0
extremely 0.0
without 0.000249216391839
falling 7.29024723522e-05
countdown 0.000629464891405
locations 0.0
timing 0.0
crabby 0.0
classic 0.000303077307019
highly 0.0
online 0.000425428190989
finger 0.0
animals 0.0
planets 0.0
called 0.000248545504352
delicious 0.0
almond 0.0
compliment 0.0
pictures 0.000124981368504
camera 6.46213867185e-05
pillow 0.0
checked 0.0
heading 0.000235236509197
theater 0.00018676288321
paying 0.0
planning 6.42597966906e-05
complex 0.000162626273346
sunday 0.00081708225472
nights 0.000874829668227
descending 0.0
traffic 0.000222624321468
opposite 0.0
through 6.93810003955e-05
lookout 0.000312615164336
reached 0.000366669218672
harder 0.0
random 7.20509182214e-05
changes 0.0
speaking 0.0
recorded 7.50981952065e-05
washed 0.0
november 0.000530258186306
answered 0.0
enchanted 0.0
number 0.000354592865817
adventures 0.0
eclipse 0.0
chocolate 0.0
unless 0.0
calling 0.000311406916659
mermaid 0.0
distraction 0.0
levels 0.0
option 0.0
shopping 0.0
former 0.0
actual 0.0
covers 8.00553693323e-05
mountain 8.72647450394e-05
friday 0.00130293115415
winner 0.000219739988392
closes 0.0
quality 0.0
father 0.00022517915767
wishes 0.00045108181552
hourly 0.0
matter 0.0
themselves 0.0
usually 6.59083093398e-05
period 0.0
parents 0.0
balance 0.0
publishing 0.0
mobile 0.000410417669892
woohoo 0.0
bracelets 0.0
summer 0.000959805432749
reminded 0.0
impressed 0.0
necklace 0.0
shutdown 0.0
dinner 0.000109275720216
single 0.00142604239465
packed 8.10589964575e-05
definition 0.0
energy 0.000117618254598
preview 0.000211172431385
monster 8.52918033326e-05
material 0.0
admission 0.0
europe 6.83915098243e-05
holiday 0.000398379973147
emotional 0.0
update 0.000288466269787
customers 0.0
messing 0.0
holding 0.0
electric 8.84287289009e-05
eating 6.18004831362e-05
outfit 0.0
picked 0.00024651774372
fabulous 0.0
missing 5.27490362332e-05
surprise 5.28917824067e-05
officially 0.0
french 0.0
global 0.0
follow 0.000596509210446
opinion 0.0
backwards 0.0
design 0.00022395341214
secrets 0.0
request 0.0
breaks 6.51688063481e-05
allows 0.0
promoting 0.000255048920067
volunteer 0.000103467221561
wondering 0.0
official 0.00030640584552
sweater 0.0
jersey 0.0
mistake 0.0
france 0.0
proper 0.0
ginger 0.0
peaceful 0.0
lighter 0.0
thinks 5.76932539573e-05
competition 0.000200545818297
hospital 7.20509182214e-05
industry 0.0
trending 0.000327301566146
leadership 0.0
organized 0.0
showed 0.0
circle 0.0
success 0.000111674669498
ladies 0.00027122893352
dreams 0.0
protect 6.33672854001e-05
onesie 0.0
explanation 0.0
control 0.0
coincidence 0.0
discovering 0.0
laying 0.0
invited 0.0
healthy 0.0
surgery 0.000278203138035
allowing 0.0
arrived 0.0
opening 0.000268785359924
popular 0.0
pleasure 6.19721273672e-05
spectacular 0.0
animal 0.0
luggage 0.0
wonder 0.000214447182379
matters 6.49856552155e-05
reader 0.0
function 0.0
marketing 0.0
connection 0.0
improves 0.0
benefit 6.19721273672e-05
continues 0.000120564126732
cuddle 0.0
routine 0.0
exciting 5.92952204391e-05
corner 7.05952848614e-05
imagination 0.0
sangria 0.0
mystery 0.0
spring 0.00480249400744
beautifully 0.0
places 5.89706250543e-05
feedback 0.0
continue 0.0
attend 0.0
creative 0.000139564879082
memories 0.000270456028443
female 0.0
grandma 0.0
closer 0.0
accent 0.0
beginning 0.0
sooner 0.0
everywhere 5.89706250543e-05
scenes 0.00113426581684
bought 6.04484798436e-05
wishing 0.000143261215561
discovered 0.0
remove 0.0
predict 0.0
parrot 0.0
several 0.00014242771867
teacher 0.0
passing 0.000133697212198
become 0.0
spread 0.000282241124344
netflix 0.0
season 0.000762859470592
putting 0.00015570345833
weight 0.0
outfits 0.0
notification 0.0
annoying 9.67509800146e-05
necessity 0.0
knocks 0.0
processed 0.0
necessarily 0.0
effects 0.0
lighting 0.0
headed 0.000130705284319
returns 0.000198846819865
expected 0.0
bucket 9.30568462201e-05
constantly 9.11530205082e-05
sweetest 0.0
struggling 0.0
register 0.0
transition 0.0
flowers 0.0
sprain 0.0
savage 0.0
somebody 0.0
covering 0.0
gloves 0.0
repeat 0.0
managers 0.0
brothers 7.57764959224e-05
patriots 0.0
seahawks 0.0
player 0.0
chemistry 0.0
moonlight 0.0
comment 0.0
columbia 0.000358134073495
physical 8.23430386557e-05
kingdom 0.0
pretend 0.0
charles 0.000158631732681
fighting 5.62947894176e-05
rooting 9.88894048464e-05
donald 7.10068020933e-05
mexico 0.00128559225754
police 0.0
represent 0.0
president 0.000164804991294
talking 0.000297451730895
unbelievable 0.000235761958058
shrimp 0.0
giants 0.0
conference 6.12891160787e-05
america 0.000157820109656
everybody 0.000792364757782
houston 0.000252596873592
everyday 0.000842246192995
michael 0.000111674669498
protecting 8.81351398364e-05
unconditional 0.0
million 0.000103802305553
election 0.0
telling 0.0
correct 0.0
pulled 0.000222624321468
starbucks 0.0
americans 0.0
killed 0.000110168483179
cowboys 0.0
cowboy 0.000122810302439
coverage 0.0
dallas 0.000652548776825
coffee 0.000186951671029
timeline 0.0
refuse 0.0
barackobama 0.0
hillary 8.84287289009e-05
clinton 0.0
gatorade 0.000163888099427
sharper 0.0
american 0.000577112590757
deserved 7.55493545383e-05
realist 0.0
illegal 0.0
arizona 9.78085696408e-05
waffle 0.0
scared 0.0
pieces 7.31176850469e-05
taught 0.0
golden 0.000199977308666
straight 0.000219144816715
massage 0.0
filter 0.0
answers 6.3722348475e-05
smoking 0.0
created 0.0
beside 0.0
worlds 9.33814416049e-05
record 0.000567839170884
freddie 0.0
africa 0.0
recruiting 0.0
journey 0.0
snapchat 0.000826015276108
brother 0.00030141031683
prayers 0.00100615525994
trolling 0.0
hungry 0.0
nflnetwork 0.0
documentary 0.0
boston 0.000285687168342
addition 8.61276765261e-05
church 0.000150196390413
honestly 0.0
lounge 0.0
lifetime 0.00014930227476
captain 0.0
favorites 0.000175686586301
country 0.0058727787058
valley 0.0
huddle 0.0
dressing 0.000288175045599
finish 0.0
favourite 0.0
prayer 0.000109409478652
nominated 0.00103891350019
praying 0.000507538791382
insane 0.0
national 0.000267334735591
reform 0.0
shooting 0.000370802898817
australia 0.0
deserve 6.06154614039e-05
legend 6.59083093398e-05
mother 0.000110168483179
realest 0.0
creating 0.0
powerful 0.0
chilling 0.0
wisdom 0.0
breaking 0.000106357047747
parked 0.0
angeles 0.0
dollars 8.28661927624e-05
questions 0.000405248989505
racist 0.0
girlfriend 0.0
performance 0.00137334399411
refreshing 0.000115654818269
educated 0.0
reading 0.0
denver 0.000103467221561
videos 0.000318611742375
harmony 0.0
create 5.72226664213e-05
jordan 0.0
admire 0.0
nobody 6.06154614039e-05
government 0.0
politics 0.0
paradise 0.0
recover 0.000223437272593
spotted 0.0
blessing 0.0
coolest 0.0
banana 0.0
donate 0.000399954617333
sandwich 0.0
lookin 0.000215274355868
method 0.0
bullshit 0.0
slight 0.0
bringing 0.000388742984832
deserves 0.0
regret 0.000173956007145
celebs 0.0
victim 0.0
stadium 0.000418307548242
funniest 0.0
according 0.0
pumped 0.00177347664946
hamburger 0.0
heaven 0.0
honest 0.0
rolling 0.0
became 0.0
feature 6.78072333799e-05
waking 9.57156570957e-05
breakfast 6.2144372805e-05
counting 7.01871827496e-05
signing 0.000388819102084
adding 0.0
awareness 7.08006130187e-05
kindest 0.0
trainer 0.0
facebook 0.000370242476847
insanity 0.0
repost 0.0
brazilian 0.0
campaign 5.73790291039e-05
borrow 0.0
scorpion 0.0
popcorn 0.0
factory 0.0
teenage 0.0
endorsement 0.0
williams 0.0
custom 9.92550275139e-05
drinks 0.0
future 0.0
angels 0.0
fingers 0.000153391401342
sister 0.0
earrings 0.0
warrior 0.000105093023259
dancing 6.93810003955e-05
voting 0.00121902270428
individuals 0.0
presence 0.0
commercial 0.00013561446676
chopped 0.0
religion 0.0
century 0.0
submit 0.000342275408312
serving 0.0
because 0.0
aggressive 0.0
sensitive 0.0
smiling 0.000174529490079
besides 0.0
cleveland 9.74535065659e-05
hometown 0.000176857457802
killing 0.0
breath 8.39294995336e-05
phillips 0.000129123577546
instagram 0.000411526929306
sharks 0.000117216092963
cousin 0.0
honored 0.000411526929306
dedication 0.0
lifting 0.000125239241674
lyrical 0.0
talent 6.59083093398e-05
goodnight 0.0
stores 0.000627346532992
rushing 0.0
brains 0.0
sandwiches 0.0
drinking 0.000220652870304
brazil 0.0
tattoo 0.0
ravens 0.0
regardless 0.0
skills 0.000137175643102
cameras 0.0
phones 0.0
california 7.08006130187e-05
seconds 0.0
listen 0.00045960876828
smiled 0.0
kicking 0.000418694637246
homies 0.0
billion 7.08006130187e-05
shades 0.0
shoutout 9.33814416049e-05
grammy 0.000233380282376
guilty 0.0
stevie 0.0
ceiling 0.0
carpet 0.000850163066891
grammys 0.000140434870652
harvard 0.0
panther 0.0
nelson 0.0
mandela 0.0
handle 0.0
sexiest 0.00030366790396
promise 0.000175944474538
hosting 0.000648031836806
hahahaha 0.0
longest 0.0
tuesday 0.000336850987295
locker 0.0
workout 0.0
ingredient 0.0
leader 0.0
pageant 0.0
character 0.0
idiotic 0.0
mirror 0.0
jackson 0.0
interview 0.000653224280492
battles 0.0
bleach 0.0
insight 0.0
obviously 0.0
replay 0.0
battle 0.0
stomped 0.0
destroy 0.0
killer 7.50981952065e-05
personally 7.14217920855e-05
winning 0.000369243253632
gettin 0.000321611718638
japanese 0.0
writing 0.000171667999264
society 6.81959786632e-05
officers 0.0
brooklyn 9.99945305056e-05
sources 0.0
incredible 0.000533225240416
poster 0.0
celebrity 0.000242418488644
memorable 0.000102282199829
werent 0.0
chased 0.0
minute 0.000111371581294
confession 0.0
pregnant 0.0
cherry 0.0
twinning 0.0
phoenix 0.0
orange 0.000147976159688
policy 0.0
comedy 0.0
illuminati 0.0
reminder 0.0
evidence 0.0
iphone 0.0
kicked 0.0
intentions 0.0
freedom 0.0
patient 0.000172818976626
utterly 0.0
mississippi 0.0
download 0.00111651903266
assistant 0.0
invite 6.99843947417e-05
central 0.000456181644436
washington 0.0
stronger 0.0
promised 8.10589964575e-05
worried 0.0
throwing 0.000162117992915
security 0.0
cologne 0.0
headphones 0.0
sanctuary 0.0
fantasy 0.0
monkey 0.0
approve 0.0
spinach 0.0
turning 0.0
helping 0.00021737003094
tickets 0.00454374865419
collector 0.0
physically 0.0
slavery 0.0
december 6.8587821551e-05
basically 0.0
return 5.46378601079e-05
yassss 0.0
goddess 0.0
locked 0.0
feelings 8.52918033326e-05
language 0.0
motion 0.0
obsessed 0.0
creation 0.0
followers 6.39008460294e-05
schools 0.000140374365499
gallery 0.0
movies 0.0
foster 0.0
children 0.00010868501547
nation 0.00012428874561
theaters 0.0
between 0.0
knowledge 0.0
begins 0.0
robinthicke 0.0
faithful 0.0
peeing 0.0
closet 0.000116169755144
bodies 0.0
italian 0.0
highlights 0.000297716493434
spanking 0.0
forbes 0.0
parade 9.11530205082e-05
tasted 0.0
consider 6.55371677876e-05
reunion 0.0
latest 0.000481202524064
dedicated 0.0
beyonce 0.0
perform 0.00237215448305
signed 0.000490409659666
tuxedo 0.0
princess 0.0
shelter 0.0
germany 0.0
explaining 0.0
married 0.0
millions 0.0
blessings 0.0
iconic 0.000100745324055
indonesia 0.0
braids 0.0
dollar 8.31298717976e-05
rigged 0.0
replied 0.0
lights 0.00042604081256
turned 0.000325172964637
excuses 0.0
jackie 0.0
charge 0.0
performing 0.00190358079217
ticket 0.000795387279459
steady 0.0
whispers 0.0
finest 0.0
confucius 0.0
diamonds 0.0
vancouver 0.0
addicts 0.0
collection 0.00013561446676
families 0.000379144263746
select 0.000264405419509
hitting 6.59083093398e-05
announced 0.000420813457113
decided 5.91326549282e-05
jewels 0.0
lottery 0.0
owners 9.50373563798e-05
respects 0.0
celebration 6.93810003955e-05
memorial 0.000160608724764
landed 0.000154323655189
pastor 0.0
ultimate 0.000501414254462
incase 0.0
rapper 0.0
episode 0.00383309062853
bounce 0.0
disney 0.0
muffin 0.0
kansas 0.000197778809693
sherman 0.0
retweet 0.000313323794244
midnight 0.000133318205778
patience 0.0
cereal 0.0
joining 0.000523515494729
released 0.000287679452759
release 0.000541954941062
models 0.0
classics 0.0
popped 0.0
mileycyrus 0.0
highlight 0.0
scholarship 0.00132545280427
within 0.0
hahahahaha 0.0
standing 0.000112896449738
higher 0.0
purple 0.0
skinny 0.0
justice 6.64703271397e-05
served 0.00029860454952
speaks 0.0
horses 0.000114640843743
houses 0.0
purchase 0.000423711724269
dropped 6.0951135214e-05
conversations 0.0
consideration 0.0
seattle 0.0
cookie 0.0
slurpee 0.0
strength 6.83915098243e-05
screens 0.00011828517903
monica 0.0
incredibly 0.0
streets 0.0
boyfriend 0.0
private 0.0001267345708
skittles 0.0
barbie 0.0
apologizes 0.0
designer 0.0
impress 0.0
cooking 8.44699008205e-05
exclusive 0.00216998185263
fashion 0.0
petite 0.0
talkin 0.0
peaches 0.0
bitches 0.0
nailed 0.00029887016686
weirdest 0.0
whomever 0.0
teaching 0.0
disgusting 0.0
chillin 0.0001246206672
philly 0.000462070066231
rights 0.0
dinosaur 0.0
exotic 0.0
dancers 0.000128454505698
cheers 0.000152928567338
presents 0.000404030814407
flawless 0.0
dating 0.0
victory 0.0
marley 0.0
productive 0.0
smurfs 0.0
halftime 0.000116690141188
insecure 0.0
horror 0.0
warning 7.14217920855e-05
discovery 0.0
convention 0.0
understanding 0.0
action 5.30349441446e-05
having 0.0
speaker 0.0
clever 0.0
theatre 9.02280523816e-05
honors 0.0
evolution 0.0
produce 0.0
spider 0.0
apologize 0.000364612082033
formation 0.0
letter 0.0
therapy 0.0
untrue 0.0
written 0.000120564126732
communication 0.0
disease 0.0
marching 0.0
suggest 0.0
georgetakei 0.0
hairstyle 0.0
humans 0.0
journal 0.0
foundation 0.0
access 0.000182349035692
venture 0.0
syndrome 0.000112673540518
writes 0.0
colorado 0.000217920758874
medicine 0.0
tremendous 0.0
nytimes 0.0
kindness 0.0
cannot 0.0
reveals 0.000147538065224
invented 0.0
sapphire 0.0
candidate 0.0
sexual 0.0
madison 0.000217920758874
illustration 0.0
newark 0.0
globally 0.0
incorrect 0.0
headline 0.000386982792284
reflect 9.11530205082e-05
streaming 0.000242418488644
leaders 0.0
supreme 0.0
protest 0.0
policies 0.0
silenced 0.0
defend 8.08061628813e-05
communicating 0.0
climate 0.0
wrapped 9.27343793451e-05
studio 0.000756634121104
conspiracy 0.0
interviews 0.000134077684798
differentiation 0.0
confusing 0.0
february 0.000944946566284
hamilton 9.78085696408e-05
loneliest 0.0
amazon 0.000449244949627
scattered 0.0
francis 0.0
headlines 0.0
january 0.000889089627716
diversity 0.0
universal 0.0
hurricane 0.0
identifying 0.0
countries 0.0
tickled 0.0
becker 0.0
connected 0.0
suggestion 0.0
filled 0.0
education 6.64703271397e-05
mentioned 0.0
defining 0.0
exists 0.0
unexpected 9.53753372445e-05
plants 0.0
orders 8.87240812737e-05
olympics 0.0
ability 0.0
director 0.0
content 0.000231485482784
cycling 0.0
previously 0.0
correction 9.99945305056e-05
pearls 0.0
ambassador 8.52918033326e-05
preparing 0.0
depend 0.0
downloads 0.000155150445904
lovers 0.0
weekly 0.000170583606665
hudson 0.0
bridge 0.000397805668964
becoming 0.0
magazine 6.8587821551e-05
appropriate 0.0
shakespeare 0.0
travesty 0.0
discoveries 0.0
fellow 0.000313323794244
reviewed 0.0
copies 0.0
driven 0.0
aussies 0.0
result 0.0
announcing 0.000344510706104
visual 0.000103069032971
restrictions 0.0
culture 0.0
edition 0.000396569615005
prince 0.0
shocks 0.0
symmetry 0.0
clicks 0.0
disagree 0.0
experiments 0.0
mistakes 0.0
trolls 0.0
blossoms 0.0
offered 0.0
inspiring 0.0
counter 0.0
approach 7.3550956768e-05
embarrassing 0.0
creators 0.0
edited 0.0
berniesanders 0.0
overnight 0.0
spotlight 0.000101125063565
probable 0.0
repeating 0.0
concerns 0.0
massive 0.0
promising 0.0
promises 0.0
colored 0.0
production 7.88289710537e-05
header 0.0
itunes 0.00114196035944
secretary 0.0
highway 0.000122221361002
dangerous 6.62822732882e-05
letters 0.0
typically 0.0
saving 0.0
pioneer 0.000110781921837
visuals 0.0
universe 0.0
ordering 0.0
victims 0.000286522431121
privacy 0.0
disclosure 0.0
proceeds 9.88894048464e-05
musical 0.000241663867731
collide 0.000143948938254
melbourne 0.0
correctly 0.0
campus 0.0
debate 0.0
conflict 0.0
meanwhile 0.0
petition 0.0
contribution 0.000101893454546
stated 0.0
humanity 0.0
illness 0.0
flawed 0.0002432787789
breathe 0.0
winners 0.000522821137274
spanish 0.0
comedic 0.0
awards 0.00302869218992
presidential 0.0
candidates 0.0
glasgow 0.00011882856602
smells 0.000324222903029
treasure 0.0
greater 8.05546225772e-05
themed 0.0
distribution 0.0
absurd 0.0
squirrel 0.0
sisters 0.0
stress 0.0
leading 6.26647588488e-05
resolution 0.0
achieved 0.0
interacting 0.0
boiling 0.0001574926039
examples 0.0
diverse 0.0
suicide 0.0
parallel 0.0
minneapolis 0.000143948938254
impairs 0.0
pumping 0.0
slides 0.0
choreography 0.0
element 0.0
serves 0.0
jumping 0.0
rising 0.000159122267586
believed 0.0
features 7.88289710537e-05
environment 0.0
revealed 0.000161109245154
classical 0.0
confirmed 0.0
origins 0.000144868143003
combination 0.0
consumption 0.0
worldwide 0.0
deaths 0.0
responsible 0.0
overwhelmed 0.0
household 0.0
munich 0.0
alternate 0.0
blockers 0.0
restaurant 8.18253915365e-05
canada 0.000460056719005
versions 0.000119378024498
technology 0.0
identify 0.0
combined 0.0
santiago 0.0
branches 0.0
october 0.00055186249444
netherlands 0.0
belgium 0.0
european 8.50163066891e-05
imperial 0.0
perspective 0.0
cities 0.0
guinea 0.0
americas 0.0
posters 0.0
elastic 0.0
flames 0.0
presumably 0.0
exquisite 0.0
spreading 0.0
happiness 8.5847470513e-05
ashamed 0.0
naturally 0.0
malbec 0.0
wasting 0.0
hidden 0.0
coffin 0.0
freudian 0.0
genius 0.0
cultured 0.0
malaysia 0.0
traveling 9.30568462201e-05
prepared 7.465113738e-05
county 9.11530205082e-05
quinoa 0.0
district 0.0
chosen 9.30568462201e-05
toilet 0.0
yorkers 0.0
ignores 0.0
messages 0.0
creativity 0.0
conventional 0.0
berlin 0.000101507758276
montreal 0.00011828517903
wonders 0.0
upcoming 0.000209347318623
lonely 0.0
australian 0.0
positions 0.0
singapore 0.0
scratch 0.0
deficiency 0.0
elevated 0.0
triggers 0.0
delicate 0.0
barrier 0.0
reflection 0.0
sydney 0.0
separates 0.0
centuries 0.0
israel 0.0
overwhelming 0.000104681506027
assault 0.0
protection 0.0
picker 0.0
additional 0.000205348085434
machine 0.0
samples 0.0
contrary 0.0
immediate 0.0
michelle 9.50373563798e-05
inspire 0.0
lyrics 0.000184828026493
missyelliott 0.0
constant 0.0
tuning 0.000108960379437
pandora 0.0
preshow 0.0
buenos 0.0
poland 0.0
philippines 0.0
nicely 0.0
september 6.91815030743e-05
manchester 0.000179241866569
checks 0.0
screenshot 0.0
universalorl 0.0
remarkable 0.0
rihanna 0.0
disgusted 0.0
flattered 0.0
fiction 0.0
angela 0.000114640843743
bitmoji 0.0
process 6.28394518291e-05
genuine 8.93201615688e-05
performances 9.67509800146e-05
comedians 0.0
flotus 0.0
strangers 0.0
hungover 0.0
confidence 0.0
studios 0.0
stjude 0.00017803515942
memphis 0.0
mikeypiff 0.0
chancetherapper 0.0
scream 0.000103868660707
jennifer 9.81662150153e-05
disappoint 0.000242128449477
newcastle 0.0
castle 0.0
literally 0.000182853405642
chrisrock 0.0
gentlemen 0.0
mtvnews 0.0
hillaryclinton 0.0
iamrashidajones 0.0
champagne 0.00011124804876
raleigh 0.0001574926039
ijessewilliams 0.0
acknowledge 0.0
buzzfeed 0.000196332430031
puppet 0.0
rehearsal 0.000220640343513
billboard 0.00114255526778
austria 0.0
sweden 0.000195617139282
republic 0.0
grilled 0.0
waltdisneyworld 0.000206940169525
katyperry 0.000134080751671
ronanfarrow 0.0
measly 0.0
bragging 0.0
treats 0.000105093023259
literal 0.0
cooper 0.000104681506027
counts 8.18253915365e-05
theellenshow 0.000735651162814
basking 0.0
cookies 0.0
festival 0.000507323964511
amsterdam 0.0
soundcheck 0.000509040601824
downloaded 0.0
encouraged 0.0
alright 0.000518456929878
jtimberlake 0.0
backstage 0.000532344487642
collab 0.0
joined 0.000181846384212
issarae 0.0
playlist 0.00175416311819
madness 0.0
romantic 0.000117747730814
selfies 0.0
exclusively 0.000707875444955
disneyland 0.0
refused 0.0
characters 0.0
amazingly 0.0
auction 0.000295579441577
express 7.62339505909e-05
gratitude 0.0
sesamestreet 0.0
thegrammys 0.000462059738534
throughout 0.000156215098953
awkward 0.000164167067957
shining 0.0
thrown 0.0
stylist 0.0
fighter 0.0
accepting 0.0
playin 0.000134080751671
applemusic 0.00119351431522
filmed 0.0
makeawish 0.000179891078628
bieber 0.0
remixes 0.0
toronto 0.000263529879452
capitolrecords 0.0
shazam 0.000308039825689
anthem 0.000629464891405
cosmopolitan 0.0
khloekardashian 0.0
cookin 0.0
songwriters 0.000593922961779
reveal 0.0001436806279
stands 0.000410349058946
spotify 0.00146554108438
phvegas 0.0
rocked 0.0
glasses 0.0
iambeckyg 0.0
relive 0.0
acoustic 0.000275909763745
announce 0.000629449330635
although 0.0
isaacfromct 0.0
shampoo 0.0
interactive 0.0
todayshow 0.00225347081037
haters 0.000207737321414
appreciation 0.0
floating 0.000115145217623
shondarhimes 0.0
showtime 0.0
premiere 0.000642434899055
broadway 0.0
makeup 0.0
starring 0.0
newest 7.95611337928e-05
designed 7.60046913307e-05
arianagrande 0.0
aladdin 0.0
swaggy 0.0
owning 0.0
producer 8.93201615688e-05
legendary 7.88289710537e-05
jasmine 0.0
costumes 0.0
square 0.000333295514444
emojis 0.0
jessica 0.000242128449477
magical 9.24140132463e-05
thedoctorluke 0.0
thirsty 0.0
therealjuicyj 0.0
symbols 0.0
privilege 0.0
spiral 0.0
retrograde 0.0
footage 0.000322218490309
theirs 0.0
universes 0.0
remembering 0.0
floated 0.0
construction 0.0
consciousness 0.0
delights 0.0
explodes 0.0
submissions 0.0
pleased 0.0
shredding 0.0
filters 0.0
weasel 0.0
reflective 0.0
firework 0.0
islands 0.0
interstellar 0.0
bubble 0.0
customs 0.0
festive 0.0
window 0.0
senator 0.0
slightly 0.0
therealbuzz 0.0
printing 0.0
snowflake 0.0
applications 0.0
elephant 0.0
fifteen 0.0
editions 0.0
newspaper 0.0
rainbow 0.0
unlimited 0.0
sirius 0.0
matthew 0.0
affected 0.000380023456653
capturing 0.0
canyon 0.000137954881873
rivers 0.0
spoken 0.0
accidentally 0.0
bizarre 0.0
dolphin 0.0
successfully 0.0
liquid 0.0
graffiti 0.0
swallowing 0.0
messenger 0.0
heroes 7.50981952065e-05
disturbing 0.0
graduates 0.0
rewrite 0.0
describe 7.14217920855e-05
hollywood 0.000217424556219
equality 0.0
announcement 0.000695097816867
breakout 0.0
dreaming 0.0
animation 0.0
calendar 0.0
circling 0.0
garden 7.3550956768e-05
enhanced 0.0
journalists 0.0
stirring 0.0
nominations 0.00100745324055
yelling 0.0
teachers 0.0
chapter 0.0
napoleon 0.0
aliens 0.0
subjects 0.0
revolution 0.0
mountains 0.0
wonderland 0.0
storage 0.0
crystals 0.0
circuit 0.0
invitation 0.0
kettle 0.0
adjective 0.0
woodpecker 0.0
operate 0.0
exhibition 0.0
learnt 0.0
nomination 0.000627346532992
madonna 0.0
questioning 0.0
unplug 0.0
initiatives 0.0
switzerland 0.0
represents 0.000101125063565
throat 0.0
touchdown 0.0
desire 0.0
forced 0.0
swedish 0.0
hundred 0.0
prompts 0.0
rainbows 0.0
creates 0.0
oxford 0.0
balloons 0.0
liverpool 0.0
recreate 0.0
glorious 0.0
newton 0.0
creature 0.0
finalist 0.000129123577546
scouts 0.0
treading 0.0
tragedy 0.0
nottingham 0.0
debacle 0.0
legends 0.0
noises 0.0
addiction 0.0
survived 0.0
idioms 0.0
greeted 0.0
basics 0.0
masses 0.0
confirm 0.0
cadence 0.0
spaghetti 0.0
prepare 0.000145804944704
calendars 0.0
narrative 0.0
application 0.0
octopus 0.0
drumming 0.0
bloody 0.0
confetti 0.0
translate 0.0
birmingham 0.000328228435955
singles 0.0
completes 0.0
laptop 0.0
obvious 0.0
darling 0.000234432185927
deserving 0.0
miller 0.000178042436527
ordered 0.000144949704146
feelin 0.0
alicia 0.0
picasso 0.0
recipe 0.0
alphabetical 0.0
butterfly 0.0
timothy 0.0
mancini 0.0
untold 0.0
directed 0.0
hacked 0.0
admits 0.0
clocks 0.0
nugget 0.0
cnnopinion 0.0
grabbed 0.0
russia 0.0
surprises 0.000188074263231
waterfalls 0.0
olympic 0.0
magnificent 0.0
casual 0.0
assume 0.0
relief 0.000572777740756
subscribe 0.0
landslide 0.0
telegraph 0.0
standby 0.000179891078628
admitting 0.0
complacency 0.0
voices 0.0
sounding 0.0
douglas 0.0
democracy 0.0
locals 0.0
gossip 0.0
nickname 0.0
subtle 0.0
embarrassed 0.0
ireland 0.0
mornings 0.0
democratic 0.0
impressions 0.0
outgoing 0.0
treasury 0.0
refugees 0.0
unveiling 0.0
listing 0.0
deliver 0.0
negotiating 0.0
roller 0.000255588829902
prosperous 0.0
desperate 0.0
acknowledgement 0.0
executive 0.0
republicans 0.0
weapons 0.0
dropping 0.0
meaningful 0.0
nightmare 0.0
goodies 0.0
scandalous 0.0
rhetoric 0.0
divisive 0.0
vision 0.0
confirmation 0.0
throne 0.0
records 7.465113738e-05
quoting 0.0
impatient 0.0
refugee 0.0
texted 0.0
exposed 0.0
stoked 0.0
priority 0.0
freedoms 0.000135593979442
notorious 0.0
empowering 0.0
unconstitutional 0.0
turkish 0.0
concerned 7.90718161015e-05
realdonaldtrump 0.0
goodwill 0.0
imagined 0.000110320171757
belfast 0.0
sleeve 0.0
basement 0.000127794414951
preposterous 0.0
griffith 0.0
timeless 0.0
truman 0.0
intended 0.0
inappropriate 0.0
industries 0.0
responsibility 0.0
documentaries 0.0
vulnerable 0.0
respectful 0.0
markets 0.0
claire 0.0
nuggets 0.0
boards 0.0
sequins 0.0
capitol 0.00072638534843
technical 0.000103069032971
applying 0.0
guitar 0.000945837209332
donating 8.90212182637e-05
continually 0.0
norway 0.000220640343513
applause 0.0
ballot 0.0
finely 0.0
shakes 0.0
varied 0.0
proverb 0.0
vibrant 0.0
flower 0.0
survives 0.0
fierce 0.0
shopped 0.000192793109532
sincerely 0.000117216092963
apology 0.0
sweaty 0.0
conspiracies 0.0
climbing 0.0
relaxed 0.0
encourage 0.0
funnyordie 0.0
essentials 0.000152914787186
jimmykimmellive 0.000280869741304
rejectedjokes 0.0
protesting 0.0
releasing 0.000101893454546
cleaner 0.0
preferred 0.0
incarceration 0.0
jkcorden 0.000269663090441
koppel 0.0
bikini 0.000166698922857
transparency 0.0
kamalaharris 0.0
nutshell 0.0
walled 0.0
floored 0.0
plotting 0.0
gandhi 0.0
vilify 0.0
meditate 0.0
violent 0.0
preschool 0.0
rhythm 0.0
matching 0.00011124804876
senwarren 0.0
venezuela 0.0
candle 0.000131187209934
donates 0.000143948938254
peacefully 0.0
chelseahandler 0.000150776362354
experiencing 0.0
sarabareilles 0.0
haunting 0.0
constitution 0.0
explode 0.0
deeper 0.0
empathy 0.0
mrgaryhuang 0.0
scored 0.0
charitable 0.000146759761684
perfume 0.0
giraffe 0.0
noticing 0.0
noodle 0.0
wrongly 0.0
marshmallow 0.0
fraudulent 0.0
everytime 0.0
helluva 0.0
therapists 0.0
tangible 0.0
sarahksilverman 0.0
johnfugelsang 0.0
exceptional 0.0
miracle 0.0
avocado 0.0
snacks 0.0
spelled 0.0
parental 0.0
superbowl 0.000135593979442
shoulders 0.0
valentine 0.00024547617461
glitter 0.0
stocking 0.0
poehler 0.0
thumbs 0.000206138065942
tinatbh 0.0
educational 0.0
voicemail 0.000166698922857
thetweetofgod 0.0
esteem 0.0
teaches 0.0
goodbye 0.000309586233827
reminding 0.0
supplies 0.0
ryanseacrest 0.00013483154522
okmagazine 0.000213977299794
shoots 0.0
bowing 0.0
jennyslate 0.0
craigyferg 0.0
masterpiece 0.0
sneaky 0.0
nashville 0.00428815624851
chronicles 0.0
potato 0.0
freakin 0.000249241334401
perezhilton 0.000138767727193
unethical 0.0
paparazzi 0.0
mantra 0.0
consuming 0.0
unauthorized 0.0
vanityfair 0.0
stalking 0.0
shoulda 0.0
yeppers 0.0
sacred 0.0
existed 0.0
earned 8.69780035725e-05
woulda 0.0
ellenpage 0.0
choker 0.0
contribute 0.0
mustache 0.000142160522176
washes 0.0
creeps 0.0
champion 0.0
auntie 0.0
magazines 0.0
waited 0.000309207098913
conscious 0.0
cracker 0.0
denmark 0.0
potion 0.0
windex 0.0
scarfing 0.0
ladygaga 0.0
purposely 0.0
pretending 0.000100745324055
luckiest 0.0
mascara 0.0
tastes 0.0
gardening 0.0
leashes 0.0
hippie 0.0
womensmarch 0.0
reunited 0.0
clique 0.0
premiering 0.000114141590498
rollingstone 0.0002432787789
childrensla 0.0
dollywood 0.0
godmother 0.0
eltonofficial 0.0
vmagazine 0.0
donorschoose 0.0
yesssssss 0.0
bettemidler 0.0
rehearsing 0.000551819527491
trevorproject 0.0
unicef 0.0
ellemagazine 0.0
yasssss 0.0
acceptance 0.0
solidarity 0.0
pharrell 0.0
greece 0.0
papermagazine 0.0
johnmayer 0.0
lipstick 0.0
tumblr 0.0
coldplay 0.0
colorful 0.0
translifeline 0.0
newsstands 0.000171241475302
feminist 0.0
pitchfork 0.0
labels 0.0
jenner 0.0
arkansas 0.000144868143003
beanie 0.0
sparkly 0.0
moschino 0.0
britneyspears 0.0
itsjeremyscott 0.0
nickiminaj 0.0
appstore 0.0
poetry 0.0
puttin 0.0
rubbed 0.0
shrine 0.0
skyferreira 0.0
freaking 0.000106774418572
besties 0.0
chanel 0.0
bedazzled 0.0
rubber 0.0
kendricklamar 0.0
popstar 0.0
sosadtoday 0.0
copenhagen 0.0
lenadunham 0.0
wearin 0.0
stoned 0.0
facetime 0.0
barclays 0.0
meditation 0.0
harpersbazaarus 0.0
stared 0.0
ritual 0.0
iconapop 0.0
doubted 0.0
staples 0.0
anaheim 0.0
jingle 0.0
tacoma 0.0
rehearsals 0.00121348390698
treadmill 0.0
metamorphosis 0.0
dental 0.0
jodyhighroller 0.0
versace 0.0
werking 0.0
couture 0.0
eggplant 0.0
bangin 0.0
cardigans 0.0
obnoxious 0.0
bestie 0.0
teganandsara 0.0
barrel 0.0
dedicating 0.0
jefferson 0.0
pumpkin 0.0
derekblasberg 0.0
glamourmag 0.0
presale 0.000446181194726
mtvstyle 0.0
deluxe 0.000733798808421
mtvema 0.0
reggae 0.0
azealiabanks 0.0
nominating 0.0
sailor 0.0
mornin 0.0
itunesmusic 0.0037236107017
bananas 0.0
lordemusic 0.0
vietnam 0.0
milwaukee 0.0
neworleans 0.0
circus 0.0
strolling 0.0
rapids 0.0
collegegameday 0.0
aaaaand 0.0
godfather 0.0
bestow 0.0
allison 0.0
rockthevote 0.0
birbigs 0.0
lucille 0.0
louder 0.0
farmers 0.000237657132039
shaved 0.0
niagara 0.0
realmattlucas 0.0
ferguson 0.0
painful 0.0
exchange 0.0
nickkroll 0.0
edmonton 0.0
mickey 0.000274310508273
angelenos 0.0
pooping 0.0
located 0.00013334124868
onslaught 0.0
finalists 0.0
bumped 0.0
sherlock 0.0
stockholm 0.000258247155091
casually 0.0
jjwatt 0.0
itstonybennett 0.0
mariolopezextra 0.0
klgandhoda 0.000564318402031
entrance 0.0
calgary 0.0
bowling 0.0
winnipeg 0.0
cheeto 0.0
gloriasteinem 0.0
feather 0.0
nathan 0.0
smelling 0.0
narnia 0.0
llamas 0.0
actuallynph 0.0
mourning 0.0
obsession 0.0
chilled 0.0
medically 0.0
hyperloop 0.0
aussie 0.0
flaring 0.0
eyeballs 0.0
stuffing 0.0
pitched 0.0
condiments 0.0
relatable 0.0
olivia 0.000140434870652
painted 0.000110781921837
mykonos 0.0
eyebrow 0.0
capitalcities 0.0
jackpot 0.00018181979729
hipster 0.0
sweating 0.0
restaurants 0.0
superfan 0.0
restraint 0.0
craziest 0.0
catheter 0.0
delivers 0.0
kanyewest 0.0
paints 0.0
dissect 0.0
billboards 0.0
milano 0.0
bjnovak 0.0
snapping 0.0
croissant 0.0
repjohnlewis 0.0
blklivesmatter 0.0
mydaughtersarmy 0.0
huddled 0.0
yearning 0.0
thereaibanksy 0.0
affordable 0.0
foodie 0.0
colombia 0.0
peeled 0.0
shootings 0.0
playground 0.0
breaky 0.0
photoshoot 0.0
smokin 0.0
accents 0.0
sweats 0.0
postmates 0.0
armband 0.0
unconscious 0.0
maddow 0.0
aquarium 0.0
holler 0.0
photoshop 0.0
robbie 0.0
espnmag 0.0
laundry 0.0
examining 0.0
zealand 0.0
stuntin 0.0
hehehe 0.0
nostalgia 0.0
buttons 0.0
slaying 0.0
monument 0.0
bringin 0.0
lining 0.0
muchas 0.0
gracias 0.0
madame 0.0
illustrated 0.0
boxers 0.0
grazie 0.0
winters 0.0
plastic 0.0
unbreakable 0.0
licking 0.0
cheeky 0.0
twerking 0.0
danish 0.0
drummer 0.000155150445904
florence 0.0
revoir 0.0
resume 0.0
dodger 0.0
brazilians 0.0
grimezsz 0.0
crocodile 0.0
hahahahahaha 0.0
parisians 0.0
taipei 0.0
taiwan 0.0
bangkok 0.0
uploaded 0.0
manila 0.0
hamburg 0.0
curating 0.0
aaaand 0.0
skating 0.0
brisbane 0.0
googleplay 0.00048762218059
raincoat 0.0
glastofest 0.0
vienna 0.0
burning 0.000173385848769
jamming 0.000418782703251
reaches 0.0
subtitles 0.0
wristband 0.0
barcelona 0.0
credits 0.0
dreamers 0.0
bogota 0.0
bursting 0.0
brunomars 0.0
beyoncé 0.0
subscribers 0.0
unlock 0.0
onedirection 0.0
amazonmusic 0.000349042183636
snippets 0.0
preorder 0.000125865696289
rehearse 0.000376212268021
bahnhof 0.0
delorean 0.0
fragrance 0.0
curate 0.0
samsmithworld 0.0
guitars 0.000174521091818
storyline 0.0
registering 0.0
beatsbydre 0.0
panama 0.00154019912845
celestial 0.0
orchestra 0.0
finland 0.0
climbed 0.0
topping 0.0
méxico 0.0
vasconcelos 0.0
leicester 0.0
itunesfestival 0.0
pondering 0.0
millennials 0.0
struck 0.0
watermelon 0.0
benefited 0.0
sophisticated 0.0
couples 0.0
villain 0.0
mindful 0.000195315509718
catholic 0.0
airline 0.0
secretly 0.0
playlists 0.000179891078628
veggie 0.0
receipts 0.0
foremost 0.0
bagpipe 0.0
drifting 0.0
trader 0.0
influenced 0.0
moscow 0.0
cobain 0.0
reaper 0.0
commune 0.0
handshake 0.0
despair 0.0
silicon 0.0
investing 0.0
construct 0.0
garland 0.0
coachella 0.0
offline 0.0
realisation 0.0
payback 0.0
educate 0.0
alliances 0.0
etched 0.0
momentarily 0.0
pronoun 0.0
lenses 0.0
validated 0.0
authenticity 0.0
choreographed 0.0
pokemon 0.0
disneyworld 0.0
patriotic 0.000128454505698
embody 0.0
snickers 0.0
impactful 0.0
refocus 0.0
eminem 0.0
mahatma 0.0
ecstatic 0.0
snfonnbc 0.0
avenue 0.000263789581613
picchu 0.0
doubters 0.0
beverly 0.0
intensity 0.0
outtake 0.0
temple 0.0
purchased 0.000125865696289
fountain 0.0
punched 0.0
goldfish 0.0
comparable 0.0
buyers 0.0
barbara 0.0
corybooker 0.0
listens 0.0
timeout 0.0
inducing 0.0
signage 0.0
penthouse 0.0
ahahaha 0.0
phenom 0.0
brilliantly 0.0
siphoning 0.0
herstory 0.0
prostitute 0.0
survivors 0.0
courageous 0.0
cruelty 0.0
margot 0.0
xenophobic 0.0
mcginley 0.0
yorkshire 0.0
chants 0.0
alancarr 0.0
chained 0.0
skillz 0.0
debunked 0.0
floods 0.0
fleetwood 0.0
cheesecake 0.0
adidas 0.0
uneven 0.0
raging 0.0
connections 0.0
headlining 0.000468922746504
devhynes 0.0
charli_xcx 0.0
shawnmendes 0.0
tavitulle 0.0
bahjournalist 0.0
tyleroakley 0.0
marquee 0.0
grease 0.0
screenshots 0.0
ddlovato 0.000293519523368
chattyman 0.0
grimmers 0.0
vevo_uk 0.0
bonniemckee 0.0
electrifying 0.0
idolator 0.0
onairromeo 0.0
godven 0.0
lookie 0.0
preordered 0.000185920173146
elvisduran 0.0
shanghai 0.0
tripped 0.0
konnichiwa 0.0
etnad_olegnad 0.0
unannounced 0.0
swedes 0.0
cinderella 0.0
slipper 0.0
jessesaintjohn 0.0
adorbs 0.0
onesies 0.0
jahnsuxx 0.0
walgreens 0.0
aphrodite 0.0
danceonfox 0.0
difficulties 0.0
mermaids 0.0
antique 0.0
girlshbo 0.0
yaaaaasss 0.0
lifesaving 0.0
queens 0.0
yaaaas 0.0
rollin 0.0
bestest 0.0
cleanse 0.0
iamtovelo 0.0
glamour 0.0
emelisande 0.0
lashes 0.0
austrian 0.0
magritte 0.0
misogynoir 0.0
litter 0.0
spiritual 0.000145804857462
preaching 0.0
adelaide 0.0
sheffield 0.0
impending 0.0
starve 0.0
excess 0.0
conciousness 0.0
vitamins 0.0
generator 0.0
purposefully 0.0
profiles 0.0
petals 0.0
persist 0.0
alexis 0.0
covergirl 0.0
sneezed 0.0
cushion 0.0
demconvention 0.0
directv 0.0
flo_tweet 0.0
billclinton 0.0
grounded 0.0
sunrise 0.000125865696289
fightin 0.0
sagekotsenburg 0.0
pwease 0.0
sadder 0.0
waterfall 0.0
sighting 0.0
firsts 0.0
muller 0.0
burritos 0.0
bungee 0.0
potting 0.0
dipping 0.0
closets 0.0
scratched 0.0
decorating 0.0
summers 0.0
havana 0.0
fresher 0.0
mowing 0.0
invading 0.0
addict 0.0
aesthetics 0.0
footwear 0.0
protector 0.0
hammock 0.0
repurpose 0.0
mishap 0.0
hamster 0.0
cellar 0.0
groove 0.0
mentored 0.0
exaggerate 0.0
scraping 0.0
apropos 0.0
trolled 0.0
jonlovett 0.0
rheabutcher 0.0
sickening 0.0
flustered 0.0
compiled 0.0
shirley 0.0
subtweet 0.0
pantsuit 0.0
patting 0.0
atrocious 0.0
amoeba 0.0
platter 0.0
aficionado 0.0
bearer 0.0
manifest 0.0
transformation 0.0
thighs 0.0
tapper 0.0
foaming 0.0
sophie 0.0
sabbath 0.0
vibrations 0.0
nutella 0.0
wilder 0.0
distractions 0.0
stripping 0.0
downloading 0.0
judith 0.0
crossroads 0.000339360401216
parsons 0.0
stella 0.0
narcissism 0.0
fawcett 0.0
trainers 0.0
surrounding 0.0
longtime 0.0
frosting 0.0
laurent 0.0
savory 0.0
acupuncture 0.0
cancelling 0.0
nutcracker 0.0
ballet 0.0
tempura 0.0
burner 0.0
voguemagazine 0.0
lagged 0.0
cuttlefish 0.0
passwords 0.0
funfetti 0.0
anagasteyer 0.0
gabbana 0.0
budapest 0.0
montage 0.0
crowns 0.0
scheduling 0.000158706888366
possessed 0.0
syncing 0.0
creatively 0.0
hieroglyphics 0.0
halftimes 0.0
floppy 0.0
nessie 0.0
feathers 0.0
kaceymusgraves 0.0
roaring 0.0
rightful 0.0
balconies 0.0
prodigy 0.0
raquin 0.0
gianni 0.0
monsieuradi 0.0
drowned 0.0
tropicana 0.0
diesel 0.0
shabbat 0.0
voiceless 0.0
passover 0.0
elevating 0.0
traumatic 0.0
dreamer 0.0
iwillharness 0.0
classrooms 0.0
eligibility 0.0
counselors 0.0
wainwright 0.0
moveon 0.0
runaway 0.0
baghdad 0.0
zaralarsson 0.0
snooze 0.0
iggyazalea 0.0
harviikills 0.0
bolognese 0.0
babysitting 0.000200785144023
mohegan 0.000435826963533
hooters 0.0
crusts 0.0
tracksuit 0.0
cupcake 0.0
xfactor 0.0
vitamin 0.000158706888366
lichtenstein 0.0
concourse 0.0
hitchcock 0.0
teller 0.0
pastels 0.0
remnants 0.0
banger 0.0
lyrically 0.0
boogers 0.000226879330698
ritaora 0.0
bumpin 0.0
dabbed 0.0
sleepin 0.0
tinashe 0.0
octaviaspencer 0.0
linder 0.0
musicallyapp 0.0
scavenger 0.000190393803334
sanging 0.000251999702932
corinthians 0.0
hollywoodbowl 0.000390631019435
kraken 0.0
discontinue 0.0
cypress 0.0
schooling 0.0
maritime 0.0
narration 0.0
zeitgeist 0.0
sampler 0.0
pseudo 0.0
bangladesh 0.0
hungary 0.0
mumble 0.0
sisterhood 0.0
soulful 0.0
lennykravitz 0.0
londontown 0.0
andradaymusic 0.0
lipsticks 0.0
realization 0.0
unconditionally 0.0
wildfire 0.0
goldie 0.0
minnie 0.000222192355176
solitude 0.0
waddle 0.0
westworldhbo 0.0
statuesque 0.0
uncasville 0.000464121083518
demented 0.0
skyway 0.0
twentyonepilots 0.0
rejoicing 0.0
clenching 0.0
adelphia 0.0
entirety 0.0
redhourben 0.0
lakewood 0.0
drjillstein 0.0
entail 0.0
whammy 0.0
smokers 0.0
gobble 0.0
topshop 0.0
cleowade 0.0
mkives 0.0
sweetbabayjamie 0.0
marchesafashion 0.0
hamsters 0.0
gurrrl 0.0
sofifii 0.0
sumthin 0.0
nicomiz 0.0
maisonvalentino 0.0
coziest 0.0
accessorize 0.0
thejgold 0.0
peruvian 0.0
amazeballs 0.0
sendin 0.0
fantabulous 0.0
timelines 0.0
regina 0.0
slovakia 0.0
graves 0.0
embracing 0.0
larsson 0.0
cullen 0.0
psychiatric 0.0
officialadele 0.0
butters 0.0
verrrry 0.0
buttered 0.0
winged 0.0
pedialyte 0.0
topanga 0.0
armpit 0.0
kittens 0.0
dueling 0.0
eagerly 0.0
surrealist 0.0
dethroned 0.0
manolos 0.0
señorita 0.0
monterrey 0.0
parque 0.0
retiree 0.0
batches 0.0
reservations 0.0
sickos 0.0
aplusk 0.0
kirkherbstreit 0.0
fanbases 0.0
indexing 0.0
chuckles 0.0
incorporated 0.0
washboard 0.0
earbuds 0.0
pantone 0.0
knotts 0.0
dismaland 0.0
pollock 0.0
iamkidpresident 0.0
mariah 0.0
teevee 0.0
santorini 0.0
appalachian 0.0
sunburnt 0.000244419185673
caliente 0.0
juicery 0.0
karlihenriquez 0.0
trillest 0.0
tommorrow 0.0
crumpets 0.0
fishin 0.00288850061729
grillin 0.0
jambalaya 0.0
pepperoni 0.0
cashew 0.0
graceland 0.0
pussies 0.0
delicately 0.0
eraser 0.0
choreo 0.0
snatched 0.0
elliptical 0.0
mooore 0.0
unborn 0.0
georgina 0.0
stalkers 0.0
sallykohn 0.0
expectancy 0.0
phillipines 0.0
appstoregames 0.0
wilkinson 0.0
puddings 0.0
loveland 0.0
spaced 0.0
shanny 0.0
dripping 0.0
gerber 0.0
shakey 0.0
weaves 0.0
unbeatable 0.0
linguist 0.0
prosthetics 0.0
battleship 0.0
serotonin 0.0
machiavellian 0.0
girlies 0.0
guangzhou 0.0
debuting 0.000655552397709
dissecting 0.0
warped 0.0
luckyjess 0.0
ermahgerd 0.0
fabulousness 0.0
elliegoulding 0.0
activewear 0.0
yelyahwilliams 0.0
prismatic 0.0
evaluations 0.0
skywalk 0.0
sparklers 0.0
palettes 0.0
gemmaanningram 0.0
trueeee 0.0
invisalign 0.0
pounded 0.0
lolgop 0.0
procession 0.0
stanning 0.0
squeals 0.0
continual 0.0
luminary 0.0
cummin 0.0
shaves 0.0
epixhd 0.0
preacher 0.0
boogiecousins 0.0
changers 0.0
autismspeaks 0.0
massaged 0.0
psssssst 0.0
literati 0.0
utilization 0.0
endangerment 0.0
purposeful 0.0
unlabeled 0.0
undiagnosed 0.0
snotty 0.0
gallops 0.0
slovenia 0.0
sequin 0.0
akerlund 0.0
jumbotron 0.0
edibles 0.0
knowles 0.0
caeser 0.0
thehollywoodbowl 0.0
elvispresley 0.0
adoring 0.0
ageist 0.0
thérèse 0.0
confessed 0.0
blackvoices 0.0
patties 0.0
graphically 0.0
wildflowers 0.0
groundhogs 0.0
eataly 0.0
poodles 0.0
hillaryforia 0.0
roadshow 0.0
sweety 0.0
boppin 0.0
bettywho 0.0
johnnywujek 0.0
earring 0.0
itsbennyblanco 0.0
curitiba 0.0
purrfect 0.0
shellback 0.0
chokers 0.0
hairbrush 0.0
hakuna 0.0
matata 0.0
hazing 0.0
mathew 0.0
aegean 0.0
lullaby 0.0
musiciansoncall 0.0
headpiece 0.0
morsel 0.0
whistled 0.0
conquest 0.0
viceland 0.0
lambily 0.0
scalped 0.0
graced 0.0
emblazoned 0.0
hrclosangeles 0.0
kawaii 0.0
glittery 0.0
wonderlandmag 0.0
jumpsmokers 0.0
radiodotcom 0.0
missyfranklin 0.0
pleaaaaase 0.0
lilbthebasedgod 0.0
waaaay 0.0
flossy 0.0
aria_official 0.0
berliners 0.0
matriarchy 0.0
cornered 0.0
limping 0.0
peasant 0.0
feasibly 0.0
waaaaay 0.0
slayyy 0.0
fashionistas 0.0
sangin 0.0
worldstarfunny 0.0
pliers 0.0
babyanimalpics 0.0
mediation 0.0
quests 0.0
aaaaaaah 0.0
honked 0.0
rauschenberg 0.0
whitneymuseum 0.0
lonsdale 0.0
transcendental 0.0
roarin 0.0
facetune 0.0
fausto 0.0
herning 0.0
cazzette 0.0
annnnnnnnnd 0.0
shinier 0.0
giambattista 0.0
katys_teddybear 0.0
gnight 0.0
katheryn 0.0
psychoanalysis 0.0
bckgrnd 0.0
kingman 0.0
gracevanderwaal 0.0
fecking 0.0
ihrcountdown 0.0
stubbies 0.0
xfactor_italia 0.0
aaronpauley 0.0
purity_ring 0.0
scorpios 0.0
ayyyye 0.0
capitalizes 0.0
flamin 0.0
motherfucking 0.0
jingled 0.0
pharrellhat 0.0
ontarioglow 0.0
teached 0.0
umusic 0.0
auroramusic 0.0
dailymendeslife 0.0
soloing 0.0
universalse 0.0
dustinkloeppel 0.0
robynkonichiwa 0.0
charli 0.0
lonelydot 0.0
adamselman 0.0
sorrenti 0.0
offish 0.0
vinoodh 0.0
guitarists 0.0
cocking 0.0
cabbages 0.0
amelia_libman 0.0
flutter 0.0
lolita 0.0
kingladygaga 0.0
breakthecycledv 0.0
howbow 0.0
curveballs 0.0
tamagotchi 0.0
jarryd 0.0
alliseeisgold 0.0
thebroadmuseum 0.0
sarahsowitty 0.0
brillz 0.0
jackgarratt 0.0
markryden 0.0
duffscakemix 0.0
sanrio 0.0
theniceguyla 0.0
trills 0.0
susangkomen 0.0
faustopuglisi 0.0
gurlll 0.0
cheesecakes 0.0
scorpio 0.0
oblivia 0.0
skipmarley 0.0
correcto 0.0
jessirklein 0.0
unpatr 0.0
squish 0.0
greg_wells 0.0
onlyleah 0.0
gittin 0.0
popstars 0.0
krafts 0.0
bouche 0.0
problemo 0.0
wheezing 0.0
patmcgrathreal 0.0
cienega 0.0
thundering 0.0
nastialiukin 0.0
janell 0.0
katelyntarver 0.0
miamoretti 0.0
missoni 0.0
dannymoonsworld 0.0
mrchrismcmillan 0.0
madge_freak 0.0
woridstarcomedy 0.0
ikissedasoldier 0.0
kpezandchez 0.0
perrysoldier 0.0
emilynotchez 0.0
iickmekaty 0.0
basicallyadam 0.0
katysangelegg 0.0
nicolasjebran 0.0
xchadballx 0.0
scott_myrick 0.0
lockoir 0.0
shannonwoodward 0.0
calluses 0.0
chamomile 0.0
trollin 0.0
sleighing 0.0
chestercheetah 0.0
royksopp 0.0
scottsimonswvla 0.0
sirenscaiiing 0.0
slowdownkaty 0.0
chefantoniopark 0.0
garnished 0.0
endive 0.0
mdmolinari 0.0
prezzy 0.0
motioning 0.0
hernameisbanks 0.0
rockcampla 0.0
jenniefinch 0.0
getglucky 0.0
stendhal 0.0
ryanphillippe 0.0
hotncolds 0.0
kpcollections 0.0
katie_wignall 0.0
katysdrugx 0.0
evrenperry 0.0
katycatwendy 0.0
yungskeeter 0.0
sarahhudsonuvs 0.0
mothern 0.0
oliverheldens 0.0
marrymemargot 0.0
katyperrylately 0.0
kewlest 0.0
katyshellokitty 0.0
pqgerry 0.0
rasarioatelier 0.0
anakhouri 0.0
romaneperry 0.0
hot_chip 0.0
agador 0.0
freddietinkles 0.0
cynthialovely 0.0
augustgettyatelier 0.0
tbsnetworks 0.0
ronyalwin 0.0
justinandersoncolor 0.0
mmillerrider 0.0
jpgaultier 0.0
harharharhar 0.0
iikeanangel 0.0
vonnypoo 0.0
jcoopkp 0.0
itzmero 0.0
katysprismlight 0.0
hatérs 0.0
awkwardaya 0.0
katysredskittle 0.0
tiedye_princess 0.0
adelshahal 0.0
marinadiamandis 0.0
samadizayee 0.0
itsslatykaty 0.0
johnlordperry 0.0
nuggetperry 0.0
kthnkzbye 0.0
teamkpbrasil 0.0
twenagedream 0.0
ashleyegreer 0.0
perryllover 0.0
perry_slays 0.0
_andresgalvis 0.0
poplitics 0.0
likerotica 0.0
sweetxjaureguix 0.0
jessiambriz 0.0
perryncolds 0.0
pwideawake 0.0
brunastrait_ 0.0
anafalqueto 0.0
pessoalmente 0.0
mark_hodson_ 0.0
sumtxkid 0.0
arpoador 0.0
katysmychampion 0.0
amnattg 0.0
osullivanluke 0.0
stephiruth 0.0
katy_pizza_bae 0.0
kpcatt 0.0
pedroeugeniio 0.0
gugs_prismatic 0.0
zeeusmtz 0.0
legendarycold 0.0
robynxkatheryn 0.0
écouter 0.0
energyberlin 0.0
karysjones 0.0
lilzariya 0.0
puroland 0.0
pavlovitz 0.0
dreamhampton 0.0
prismsperry 0.0
perrysmic 0.0
focusonreid 0.0
tonyatalterian 0.0
makeup_man 0.0
wtfkates 0.0
sella_sandra 0.0
katycute_ 0.0
caitsperry 0.0
katyperryforum 0.0
radiantjareau 0.0
lillysgomez 0.0
katycatsweden 0.0
perryicecream 0.0
xamyrosex 0.0
wtvrlara 0.0
bijanstephen 0.0
ameliashowalter 0.0
screamkng 0.0
tvmcgee 0.0
liiife 0.0
itskatcombs 0.0
yaaaaaasssssssssss 0.0
katysmyhabibi 0.0
skottpeace 0.0
ferras 0.0
kweens 0.0
habibi 0.0
orlandobloom 0.0
huckchinn 0.0
katycatkenzie 0.0
matarazzo 0.0
fkatwigor 0.0
perryschild 0.0
hotxcolds 0.0
maddisonxperry 0.0
akaruikaty 0.0
chillinlaidback 0.0
erryone 0.0
chrisanokute 0.0
beyelite 0.0
kuntyewest 0.0
chiroprac 0.0
katyperryrises 0.0
godneybjs 0.0
liquoronurlips 0.0
katystumblrr 0.0
holiestkaty 0.0
hollykittykaty 0.0
katysprincess 0.0
katysdonut 0.0
carlythekatycat 0.0
katycatsophia 0.0
fridaaperry 0.0
iegendarylovers 0.0
katycatveronica 0.0
katyperryslave 0.0
hakimkharbouch 0.0
keonovak 0.0
plaaaaay 0.0
scatting 0.0
shotted 0.0
dizzycoco 0.0
fkinsnapss 0.0
junkygs 0.0
ミニチュア料理 0.0
エビフライとエビ天 0.0
adidasboosts 0.0
lilithia 0.0
cottoncandizzle 0.0
ultimatebeyhive 0.0
paramorewebnews 0.0
royale_lala 0.0
musicnews_feed 0.0
katyperryextra 0.0
greeniight 0.0
gagas_illusion 0.0
lesbiyonce 0.0
blurryhface 0.0
lordofgiraffex 0.0
ifuseekamy_ 0.0
legendarymalek 0.0
hausoframez 0.0
unstan 0.0
chioekardashian 0.0
theiife 0.0
handstomyseif 0.0
legendarylovers 0.0
gagas_fandom 0.0
thinagedream 0.0
conditionalbabe 0.0
dannysuschrist 0.0
prismdluxe 0.0
herwonkeye 0.0
camilasviews 0.0
gagalovesbey 0.0
shadykatyfacts 0.0
limalimoncia 0.0
heavymetaiovers 0.0
katyscrush 0.0
waikingonair 0.0
eduardo_katycat 0.0
katyswetdream 0.0
katherynsgod 0.0
katystddbr 0.0
katyboobies 0.0
royaityler 0.0
nothingfaiis 0.0
kathrynluck_ 0.0
prismaticiights 0.0
mendesperry 0.0
katycatghita 0.0
mark_katycat 0.0
iwasdivine 0.0
skywaterr 0.0
xjojospearsx 0.0
alwaysbeperry 0.0
skoglyrihanna 0.0
legendarydurk 0.0
halseysfirework 0.0
rainbowspatrick 0.0
katysfood 0.0
honeymoonprism 0.0
onepulsetony 0.0
butcha 0.0
okurrr 0.0
the_mpt 0.0
talaofficial 0.0
miniatures 0.0
ohmyjurassic 0.0
katysmoonlight 0.0
lilly_jnes 0.0
coco_ho 0.0
perryhumorr 0.0
yikesjonathan 0.0
rubyrankin 0.0
thealekovski 0.0
cydney_moore 0.0
truebluedeluxe 0.0
thedutchass 0.0
katyskettle 0.0
ferraseu 0.0
katyssunlight 0.0
typosqween 0.0
adoreeeperry 0.0
katyperryfrance 0.0
snowiner 0.0
_coolkatycat 0.0
nicothekatycat 0.0
adorbies 0.0
jackygerardchan 0.0
brewmystew 0.0
katyswildfire 0.0
rihftperry 0.0
theolagu 0.0
ritajoness 0.0
iitsjackie 0.0
mjjperry 0.0
jesuskylie 0.0
holyerotica 0.0
graceofkaty 0.0
redsvelvets 0.0
booyakasha 0.0
tariqterry 0.0
katycatalannah 0.0
taylxre 0.0
pacifyher 0.0
basedkatyperry 0.0
diddleurskittle 0.0
katysanalien 0.0
gagasspace 0.0
tayiorhq 0.0
givenchydress 0.0
augustryder 0.0
perrysmoschino 0.0
kittehn 0.0
katrieber 0.0
legendaryhunty 0.0
katyslegs 0.0
katyfroot 0.0
winesandlines 0.0
sam_incolour 0.0
wakingonair 0.0
drwssinup 0.0
huffdaddysays 0.0
fiwwwwine 0.0
matthewroper 0.0
emmabruhhh 0.0
gingerwesson 0.0
nicholas_sewell 0.0
perfectlyperry 0.0
bustabusta 0.0
mynameisziam 0.0
venuzszfly 0.0
katherynsus 0.0
sacredperry 0.0
thedollsftkaty 0.0
_cafajeff 0.0
debkatycat 0.0
katycats 0.0
eastonjames_ 0.0
oliviabooker_ 0.0
protecti 0.0
outrageousness 0.0
joanneprada 0.0
scuffed 0.0
catoure 0.0
blanged 0.0
tahmorrow 0.0
glukatyperrypop 0.0
jamesjoint 0.0
pressin 0.0
bourree 0.0
honeysuckle 0.0
meowings 0.0
fashun 0.0
happun 0.0
vikander 0.0
thekatyperrypopgame 0.0
karolfabianaros 0.0
nico_thekatycat 0.0
miss_lilyjames 0.0
stylinfunk 0.0
hudsontheband 0.0
jere_my 0.0
crabitat 0.0
tiersz 0.0
unrehearsed 0.0
fanclub_kp 0.0
oneofthesophies 0.0
fusterlandia 0.0
lazyblazy 0.0
katycatchloe 0.0
figali 0.0
prismaticness 0.0
titicaca 0.0
ancientaliens_ 0.0
sneezin 0.0
cristos 0.0
mallman 0.0
prismaticlife_ 0.0
ravensuxx 0.0
perrypositive 0.0
derkwhore 0.0
alekjandro 0.0
havss_ 0.0
hqzaynmaiik 0.0
thique 0.0
bbhmms 0.0
jkatharineb 0.0
jennyformica 0.0
tiiiiiight 0.0
ikissedagay 0.0
harryvuitton 0.0
aeschleahd 0.0
princessjavonda 0.0
errrythang 0.0
kooning 0.0
sugarray 0.0
empaths 0.0
goldenboyz_inc 0.0
voguejp 0.0
chickenwingguardingthemimosa 0.0
katyperrypopup 0.0
unmeasurably 0.0
transviolet 0.0
beauteous 0.0
katyskidrauhl 0.0
thooooooseee 0.0
clairesstores 0.0
nailsbymh 0.0
katysacutie 0.0
psychokatycat 0.0
kaceymusgrave 0.0
refueled 0.0
hyungsunju 0.0
okuurrrr 0.0
cholewheeler 0.0
leftshark 0.0
momchella 0.0
crotches 0.0
hookedondolls 0.0
fyuseapp 0.0
mogonoloball 0.0
atletica 0.0
katycatsclub 0.0
catacombs 0.0
poppycorn 0.0
cupped 0.0
christiania 0.0
residenz 0.0
lindseyweber 0.0
butterballface 0.0
joshlecash 0.0
myassistant 0.0
swiftschrist 0.0
snowhiteperry 0.0
emmakphughes 0.0
katyslegend 0.0
dansnierson 0.0
scressful 0.0
prismaticwitch 0.0
finnin 0.0
habibis 0.0
mophies 0.0
strongé 0.0
drumkit 0.0
anamanaguchi 0.0
gaultier 0.0
ngvmelbourne 0.0
dukedumont 0.0
legendaryasmyn 0.0
highlarious 0.0
calpurnia 0.0
waaaaait 0.0
mktfah 0.0
fwding 0.0
caseyhoops 0.0
worldstarvlne 0.0
flapfkp 0.0
bettycrocker 0.0
mexxxico 0.0
whhhhhhhhuuuuuutttt 0.0
yelletweets 0.0
gucciqxxn 0.0
luckyladyrebelettes 0.0
junglejulia 0.0
charlottes_web 0.0
istarbucksniall 0.0
katysroaaar 0.0
fiorucci 0.0
whuteva 0.0
sirdavidd 0.0
fudgery 0.0
bizquick 0.0
itsgrandtheft 0.0
grandtheft 0.0
katysfancy 0.0
ameezyyrush 0.0
mykectown 0.0
itsvalkubus 0.0
walkslikeperry 0.0
iwantperry 0.0
exausto 0.0
selfeh 0.0
aquaberry 0.0
sidepiece 0.0
versacness 0.0
iamleslii 0.0
alocalgyro 0.0
cutina 0.0
theoutslder 0.0
prism_katy_cat 0.0
katyshoodrat 0.0
thestevetisch 0.0
ronysphotobooth 0.0
schlitterbahn 0.0
kpsnosecrinkle 0.0
alwz_katycat 0.0
whykph 0.0
californiagurls 0.0
katycattt 0.0
varicose 0.0
itsbrillz 0.0
perrystiger 0.0
katysmyaura 0.0
paolablancokp 0.0
callmemargot 0.0
indiggynado 0.0
katycat 0.0
anylinden 0.0
kpkillerqueen 0.0
katyslilacwine 0.0
katypvenezuela 0.0
franzikaty 0.0
katherynelperry 0.0
doessss 0.0
katysleftarm 0.0
datingprism 0.0
_smiler_katycat 0.0
kepyterry 0.0
katycat_camille 0.0
vckatyperry 0.0
bowzerjoe 0.0
taishrox 0.0
mütter 0.0
arianperryarian 0.0
lisasigh 0.0
fridiskp 0.0
kevinruda 0.0
katyperrydaily 0.0
wakingupvegas 0.0
marlyins 0.0
drankin 0.0
herkatycat 0.0
luvhudson 0.0
yaeltsairi 0.0
felipinhoofm_ 0.0
renanmarcall 0.0
kariseperry 0.0
emojing 0.0
konnie 0.0
mcperry 0.0
iturnmycanonon 0.0
katycatelysha 0.0
andrewnavs 0.0
katycatkrystal 0.0
lovelyandlaugh 0.0
lampoonians 0.0
perrytuuda 0.0
katymyhaven 0.0
ruletheschool 0.0
cheapandchic 0.0
sically 0.0
crazyforperry 0.0
kpdaily 0.0
getonupmovie 0.0
cutetina 0.0
chimiuzz 0.0
kefali 0.0
joelkefali 0.0
siclly 0.0
mtvother 0.0
lydiaacav 0.0
prismaticperry 0.0
jwujek 0.0
adorbie 0.0
errone 0.0
kaliyah 0.0
katysweirdness 0.0
vinbiodiesel 0.0
katysfxb 0.0
katyspurrfect_ 0.0
shannonmwoodward 0.0
bippity 0.0
boppity 0.0
swiggty 0.0
swoogity 0.0
pizzarella 0.0
firewerk 0.0
katyslayed 0.0
emerald_epelman 0.0
madkatydisease 0.0
mandee 0.0
ohferras 0.0
sarahh 0.0
iaustinhunt 0.0
lanawhore 0.0
spaceykacey 0.0
crazay 0.0
elektrikpeople 0.0
visa_nz 0.0
fvckin 0.0
nathanspicer 0.0
cashcash 0.0
ashish_uk 0.0
xokatic 0.0
turnting 0.0
scorpiomystique 0.0
toddthomasnyc 0.0
kohngallery 0.0
discnt_universe 0.0
dressinkaty 0.0
lee_cook 0.0
bloodshot 0.0
yaddlizc 0.0
elnett 0.0
itsthekatycats 0.0
kelly_moritz 0.0
katyslaykaty 0.0
skintxghtjeans 0.0
socarrer 0.0
errrday 0.0
therealslacker 0.0
wendywild 0.0
welkys 0.0
sohohouse 0.0
selfing 0.0
camiilaruales 0.0
nexxxt 0.0
turrell 0.0
alliexxxxandra 0.0
surfboardt 0.0
telstra_news 0.0
juanitadele 0.0
oopskatycat 0.0
sophkatycat 0.0
katyschild 0.0
katysconverrse 0.0
katycat_leah 0.0
katycatverified 0.0
katycat_libby 0.0
katyswonk 0.0
kittless 0.0
jlrcukp 0.0
siiiiiiiiiiiiii 0.0
ermagherd 0.0
imlynsey 0.0
perrys_cherry 0.0
casemcgase 0.0
hazzaily 0.0
herses 0.0
gaypropaganda 0.0
tixforcharity 0.0
hudsons 0.0
nomers 0.0
mommacat 0.0
superlove 0.0
bonacorso 0.0
levi_leet 0.0
thinkingofbecki 0.0
cybering 0.0
pamyurin 0.0
idreamofkaty 0.0
xfactor_au 0.0
glohudsonperry 0.0
aubreyplzza 0.0
eeshhuhhayniac 0.0
bonkay 0.0
katysbum 0.0
nevillebradley 0.0
curryswift 0.0
zinepack 0.0
katykatt_suraya 0.0
sweetkatybird 0.0
yohkatheryn 0.0
cottoncandykaty 0.0
karolynadiaz 0.0
maayansharvit 0.0
theprismcess 0.0
camisp_ 0.0
lucasgaldin 0.0
prixy_mtz 0.0
niggasperry 0.0
kaksperry 0.0
zennnnaaa 0.0
katyissmurfy 0.0
dadehoward 0.0
kyledsaavedra 0.0
katysdoritos 0.0
pendejabardera 0.0
rosenilsou 0.0
hackensucks 0.0
gottabesheerio 0.0
ismaellgarcia 0.0
milegendz 0.0
alexskarev 0.0
ladycrystalb 0.0
katyspad 0.0
xcallmechrissyx 0.0
arianastylesss 0.0
jorgebaker 0.0
matty_zee 0.0
katycatzilla 0.0
adorie 0.0
meowwdison 0.0
alvin_koopa 0.0
lexyauditore 0.0
kease_it_raw 0.0
katysking 0.0
chris__kirby 0.0
katysbestfrwend 0.0
katyslildancer 0.0
sssshhh 0.0
conorhughess 0.0
tanimura 0.0
thekatycatlife 0.0
weefififookface 0.0
breakalioz 0.0
hudsonhelper 0.0
lariitaa 0.0
meeeeeooooooooowwwww 0.0
legend__dary 0.0
katyandliam 0.0
_theatrekid 0.0
babybritney 0.0
erinlorimer 0.0
_zacmoore_ 0.0
itscezzurryo 0.0
katycatskp 0.0
larissafilipo 0.0
siaylorswift 0.0
shitkittens 0.0
thefrankradical 0.0
katysprism 0.0
katytinalevine 0.0
serjeeoh 0.0
kayz_perry 0.0
katyslaysurfav 0.0
fuckyeahitskath 0.0
sweetyitosan 0.0
pickerington 0.0
verrado 0.0
retweete 0.0
jameswaterhouse 0.0
hunnah 0.0
truth_ispeak 0.0
_emilybarbarrr 0.0
nbllrrr 0.0
jmoneygraves 0.0
eaglenationnews 0.0
tauentzienstrasse 0.0
avontbh 0.0
vinnie_mate 0.0
demilovve 0.0
coolestkatycat 0.0
terri_katycat 0.0
beeeaaatttt 0.0
laurenfrancisco 0.0
victaytayp 0.0
aylajaye 0.0
iloveu 0.0
augustvaz 0.0
lizzievang_ 0.0
edsssss_ 0.0
hhhhhholly 0.0
holly_hickin 0.0
trixxx 0.0
killah 0.0
treasurefingers 0.0
最強ガール宣言 0.0
voykovic 0.0
annunaki 0.0
katyshomie_ 0.0
katyselephant 0.0
caitlynsmith 0.0
lightsperry 0.0
elizagilham 0.0
ohmyjatyfeels 0.0
junglescope 0.0
drunkskaty 0.0
malikpom 0.0
dancerlaurena 0.0
brirad 0.0
elisa_rv 0.0
moooom 0.0
pattymeagher 0.0
iwasemily 0.0
shahrzadphoto 0.0
tvjohnny 0.0
cstonethebreadwinner 0.0
katysrightboob 0.0
cyberdlck 0.0
beatforkaty 0.0
igabriiel 0.0
duuuuddddeeeee 0.0
redrum 0.0
srbuhiii 0.0
kayleighcat 0.0
applekatycat 0.0
ikatycats 0.0
wehryspencer 0.0
emilyjonesphoto 0.0
coxgabe 0.0
drugmoneyx 0.0
steven_drum 0.0
victoriacha 0.0
hashtaggin 0.0
perryandemetria 0.0
katycatfurlife 0.0
iammelissalynn 0.0
qewtie 0.0
yscheecat 0.0
slayty 0.0
katystree 0.0
katherynsboy 0.0
anapurry 0.0
nenedez 0.0
kevinn_perry 0.0
gloria_swag_ 0.0
andyamaziing 0.0
roarsana 0.0
brighthudson 0.0
fixingperry 0.0
roooooooooooooar 0.0
gretschusa 0.0
katys_cupcake 0.0
wonderation 0.0
kasek_craig 0.0
katysgurll 0.0
pepperperry_ 0.0
teamkatyperry 0.0
meandnutella 0.0
lovatokitten 0.0
katyslolly 0.0
astixxx 0.0
ravemomentz 0.0
erzaabrianto 0.0
katyperryindo 0.0
seeingdaisies 0.0
gillian_e_dubbs 0.0
samanthachazene 0.0
perryprism_ 0.0
katycompletesme 0.0
ltskatyperry 0.0
kittenscks 0.0
nihanofficial 0.0
momcat 0.0
kaytehperreh 0.0
__grazi 0.0
clairekatycat 0.0
fangurl 0.0
rrrrrrrrrrrroooooooooooooaaaaaaaaaaaaar 0.0
marispiva 0.0
mattdrobins 0.0
deihemmings 0.0
rooaaarr 0.0
katycatobsessed 0.0
katycatnick 0.0
tigerkats 0.0
kristenanzelc 0.0
taylermckellop 0.0
essesfadaperry 0.0
imjare 0.0
smganonymous 0.0
roaaaar 0.0
phuckyotweet 0.0
evvvvvverrrr 0.0
melvynmarrero 0.0
zouisashton 0.0
trillneyspears 0.0
rooooooar 0.0
fanwars 0.0
fentyncold 0.0
ttish_ 0.0
rachelacogan 0.0
makesmariana 0.0
kkaplon 0.0
rafaelmoncada 0.0
yaaaassssgrl 0.0
oioianna 0.0
katycatrazan 0.0
megaan_katycat 0.0
thekaelynn 0.0
hannahloupunton 0.0
thumbelinafairy 0.0
nic_kathryn 0.0
dannahfields 0.0
rodneybroaddus 0.0
noxisanasshole 0.0
soedesh__ 0.0
hookerofversace 0.0
thinkingofkaty_ 0.0
msgracevalerie 0.0
francfernandez 0.0
katysring 0.0
a_little_spark 0.0
laaxiss 0.0
