awesome 0.0
christmas 5.17917179431e-05
trying 0.000467378629023
launch 8.59618988722e-05
moment 0.000140971568425
wonderful 0.000104999593661
seeing 2.40075997983e-05
hanging 2.94595643111e-05
sounds 0.00017452719256
recommend 6.95656262454e-05
worked 2.52719383016e-05
direct 0.000132366749401
others 0.000175948826303
currently 2.77990737178e-05
better 0.000716668039672
please 0.000492072212868
social 0.00109950352891
anxiety 0.0
around 0.000231183238604
people 0.00312097372115
morning 0.000185946304619
traditional 0.0
general 0.000359481020741
damage 0.000228641689173
everything 0.000116216440387
twitter 0.00321623136839
present 5.29299082832e-05
though 0.000677675384306
friend 9.34757258046e-05
watched 2.62498984153e-05
beautiful 4.78858662319e-05
anything 0.000472445709623
previous 7.34388648183e-05
helped 2.5478046566e-05
updated 0.0
thinking 0.000142500068113
finally 0.000166250079466
caught 7.85359663509e-05
believe 0.000533156595271
already 0.000440433709137
couple 0.000101636557757
orlando 0.0
chance 6.97298642323e-05
meaning 0.000274989028537
growing 8.36264939954e-05
probably 0.000327647344364
password 5.80150364472e-05
changed 0.000223786384017
history 0.000263372264275
center 0.0
museum 8.071615131e-05
behind 0.000254301562464
screaming 0.0
pretty 9.50000454089e-05
really 0.00118540769195
little 0.000208626493802
happiest 0.0
earlier 5.43932154639e-05
forget 0.000259145548208
someone 0.000421776182458
safety 3.36745331078e-05
program 0.0
things 0.000323656534046
related 0.0
visiting 0.0
available 0.000241374783638
perfect 9.68107691866e-05
different 0.000401578853179
search 0.000124288550606
connect 0.0
numbers 0.000116213025685
person 0.000116530122043
watching 2.33689314512e-05
exhibit 0.0
passed 8.50182792605e-05
prefer 7.0189051165e-05
minutes 2.40075997983e-05
travel 8.52529832801e-05
outside 4.91957738865e-05
looking 0.000347710823003
forward 2.38784468151e-05
agreed 0.000186961245379
raising 3.31878135756e-05
listened 3.68319305575e-05
afraid 0.000390528656463
impression 0.0
christian 4.07555351387e-05
profile 3.17862739345e-05
instant 4.77201921456e-05
drawing 4.14335404425e-05
wheels 0.000144805435466
favorite 2.69746701184e-05
picture 7.41934024066e-05
instead 0.000157071932702
appreciate 0.0
international 8.61998235363e-05
station 3.26169617608e-05
toddler 0.0
market 0.00100279553078
couldn 0.000169418846077
remember 0.000278919456929
vintage 0.000105938759649
holidays 3.31878135756e-05
friends 0.000140213588707
everyone 0.000743785218478
florida 0.0
always 0.000462366477208
months 0.000266948997815
moving 4.99999097676e-05
meeting 0.000119070699461
answer 0.000166698979246
sweetie 0.0
together 0.000279672292904
inside 2.42026922967e-05
section 0.000357308498961
missed 7.06760586021e-05
button 7.71771947276e-05
longer 0.0003219346394
enough 0.000305438398253
driving 0.000142088305467
building 7.8322894074e-05
enjoying 8.52529832801e-05
london 0.000469998641865
exploring 0.0
posting 0.0
amazing 0.000185445772268
attention 0.00021057089285
gordon 4.6149286737e-05
progress 0.0
tomorrow 0.00081351508271
george 8.6678135581e-05
feeling 7.30010239557e-05
excited 0.0
understand 0.000582830053048
following 0.000170796116237
asleep 0.0
learning 0.0
evening 7.98283324082e-05
special 0.000445208192595
secret 7.81104743931e-05
across 0.000103864937764
surprised 8.3168703742e-05
anymore 5.92482164721e-05
sophia 0.0
precious 0.0
rejoice 0.0
version 0.000128430044513
rather 0.000417722101728
avatar 0.0
showing 2.47980468418e-05
saying 0.00101925980984
tweeted 3.07231751938e-05
thoughts 9.86576581594e-05
exactly 0.000603253118754
except 0.000118496432944
getting 0.000743785218478
nothing 0.000511352337704
tweets 0.000333014240736
course 0.000936296392133
photos 5.62125969795e-05
looked 7.91791391666e-05
difficult 0.000214457260168
stages 0.000113827911572
office 0.000100542186459
decisions 0.000175472627913
brought 2.5755747489e-05
biggest 0.000167600531812
thrilled 0.0
something 0.000650812066168
closing 0.000103731946673
anyone 0.000796688344643
taking 0.000302162745007
recently 0.000120837654082
interesting 0.000647396474289
original 0.000164975269436
flying 5.84298473609e-05
happening 0.000126702185445
sometimes 0.000204931840453
lessons 0.000336745331078
village 0.0
stopped 0.000190897440619
yesterday 4.68640202731e-05
service 0.000332113076012
serious 0.000198921230237
digital 3.44752477367e-05
hoarder 0.0
wearing 5.45421258912e-05
british 0.000677442536446
either 0.000228063933802
second 0.000164024070956
checking 0.0
indeed 0.000348653702567
island 3.29006257351e-05
hearing 0.000103864937764
choose 5.46915174516e-05
staying 9.42793452012e-05
another 0.000695421646006
clothes 3.85885973638e-05
slowly 8.42640647222e-05
weekend 0.0
hashtag 0.0
delivery 0.0
theory 3.81069481955e-05
working 0.000581082201936
bigger 5.45421258912e-05
screen 0.0
riding 4.02270932998e-05
laughing 8.27139154135e-05
wanted 2.34952614041e-05
trends 0.0
stripes 0.0
clothing 9.92015339662e-05
current 0.0
adorable 0.0
grateful 0.0
friendship 0.0
family 4.64865761549e-05
listening 0.00012739023283
stream 0.0
expressions 0.0
wedding 0.0
sharing 8.20372761774e-05
double 5.26427232125e-05
especially 0.000180290232423
middle 0.0001067281168
waiting 2.38141398923e-05
definitely 0.000127045697197
walking 5.5750995997e-05
account 0.000272710629456
completely 0.000137856525689
thought 0.000562368243278
reaction 0.000158931369673
accept 0.000475309143499
simple 0.000216387302726
professional 0.0
friendly 3.45773155575e-05
supposed 0.000123587991987
business 0.000250676513417
absolutely 0.000198921230237
anywhere 6.19688039434e-05
sending 5.39493402368e-05
introducing 0.0
congrats 4.87988903533e-05
beauty 0.0
community 0.000114615865163
greatest 5.08182788787e-05
selfie 6.95656262454e-05
posted 5.49917564788e-05
saturday 0.0
wednesday 0.0
confused 3.38721268223e-05
expression 9.36686484614e-05
chicago 0.0
closest 0.0
relationship 0.000187491685578
actually 0.00130977769407
easter 0.0
basket 0.0
myself 9.13946016361e-05
argument 0.000179193139125
school 4.72445709623e-05
thursday 2.48651537796e-05
selling 3.17862739345e-05
talented 0.0
celebrate 7.70580267078e-05
falcon 0.0
celebrating 2.77229012473e-05
contest 0.000151471257507
experiences 0.0
students 9.24297696827e-05
internet 8.6678135581e-05
figure 2.77990737178e-05
opened 0.0
featuring 3.02094135205e-05
inspired 8.43188954692e-05
sitting 0.000104999593661
playing 0.0
street 5.1511494978e-05
points 0.00011915932679
memory 9.64553659352e-05
forever 0.0
imagine 0.000155375153829
problem 0.000797838594561
played 2.5966234441e-05
canadian 0.0
pulling 0.0
keeping 0.000181763641087
lovely 2.92149236805e-05
dressed 0.0
specifically 9.22985734741e-05
unlike 8.5998142243e-05
disappointed 0.00010497046122
otherwise 0.000164979795822
afternoon 8.20372761774e-05
planned 0.0
strange 0.000250115949273
images 0.0
noticed 3.68319305575e-05
notice 3.15158810994e-05
stretch 0.0
inspiration 0.0
letting 5.71498584182e-05
system 0.000261479307791
possibility 4.4997245782e-05
almost 0.000232432880774
details 0.0
experience 0.000145608544263
living 0.000121340453552
weather 0.0
normal 9.34806226893e-05
launching 7.57396702058e-05
before 0.000100814567497
captured 0.0
colors 0.0
monday 7.28042721314e-05
example 0.000245785401551
realize 0.0
autographed 0.0
sleeping 0.0
authentic 0.000114915882891
science 3.28056838199e-05
tweeting 5.30741725116e-05
forgot 8.74018461991e-05
chasing 0.0
gorgeous 0.0
herself 5.58629418985e-05
happens 0.000216652030867
silence 3.66074790482e-05
learned 5.3802323745e-05
congratulations 5.12329601132e-05
natural 6.59919183289e-05
raised 6.07588039236e-05
babies 0.0
mission 3.15158810994e-05
smelled 0.0
ironic 0.000154943919305
testing 0.0
deleted 0.0
barely 0.0
unforgettable 0.0
forgotten 6.9154631115e-05
trouble 0.000316066019633
fantastic 8.22620898964e-05
loving 0.0
complete 8.00460875999e-05
nearly 0.000122202598353
spirit 3.01248857339e-05
launched 3.46798360087e-05
finding 0.0
mercury 0.0
stories 0.000276491012762
including 5.16513941701e-05
mature 0.0
stuffed 5.8585888262e-05
ancient 0.0
bottle 0.000181374177779
somewhere 0.0
wouldn 0.000125338256708
choice 0.000173586327892
conversation 2.82614556081e-05
making 0.000533156595271
expect 5.5750995997e-05
occasions 0.0
subject 0.00019478268007
flights 0.0
location 0.0
vacation 0.0
seriously 0.000231174080123
spending 8.6678135581e-05
groups 0.000187593319688
childhood 3.78698351029e-05
modern 0.000200871683619
welcome 0.000140971568425
moments 0.0
degrees 0.0
jacket 0.0
halloween 0.0
costume 0.0
totally 0.000134139433083
laughed 0.0
flight 2.78754979985e-05
kidding 0.00010915555728
regular 3.44752477367e-05
context 0.000274435857757
running 7.319833553e-05
finished 2.77990737178e-05
strong 0.000263372264275
tracking 0.0
respond 7.0189051165e-05
message 9.86576581594e-05
coming 0.000440433709137
thankful 3.66074790482e-05
cheese 3.68319305575e-05
greens 0.000113293377899
issues 0.000194060308731
intolerance 0.0
happen 0.000260546662289
giving 0.000164466829829
turkey 0.0
excellent 0.000272648263513
limits 0.00012944037763
common 0.000201132921585
pressed 0.0
situation 0.0
options 0.000145099342223
health 0.000109682786529
insurance 0.000120290546632
change 0.000418379185394
singing 0.0
august 0.0
crying 7.32149580964e-05
mental 0.0
happened 9.78616133976e-05
demand 0.000275730763073
generally 4.70088029748e-05
personal 0.000277991321317
beyond 0.000103864937764
bruised 0.0
question 0.000356250170283
chicken 3.33812734816e-05
reward 0.0
tunnel 0.0
losing 0.000171923797744
respect 0.000177863976075
caption 0.0
shouldn 0.000389187032049
visited 0.0
reason 0.000195723226795
simply 0.000203372794949
darlin 0.0
audience 6.43035772902e-05
involved 0.0
unhappy 0.0
reality 0.000304116768266
extremely 3.377311886e-05
without 0.000351480152048
falling 0.000102817362365
countdown 0.0
locations 0.0
timing 4.12963393047e-05
crabby 0.0
classic 8.54884842587e-05
highly 9.92750620511e-05
online 9.99998195351e-05
finger 3.95830872038e-05
animals 0.0
planets 0.0
called 0.00039727183467
delicious 0.0
almond 7.9057604981e-05
compliment 0.0
pictures 0.0
camera 0.0
pillow 0.0
checked 6.59919183289e-05
heading 5.52939578665e-05
theater 0.0
paying 9.06282405614e-05
planning 3.02094135205e-05
complex 7.64528460066e-05
sunday 0.000120037998991
nights 0.0
descending 0.0
traffic 0.000209317505915
opposite 0.0
through 6.52339235215e-05
lookout 0.0
reached 0.0
harder 3.23367362224e-05
random 0.000169360634112
changes 5.74665490242e-05
speaking 0.00013304722068
recorded 3.53046936105e-05
washed 0.0
november 3.11602075631e-05
answered 7.34388648183e-05
enchanted 0.0
number 0.000166698979246
adventures 0.0
eclipse 0.0
chocolate 0.0
unless 0.000229231730326
calling 0.000170796116237
mermaid 0.0
distraction 5.80150364472e-05
levels 0.000107192549688
option 0.000134698132431
shopping 0.0
former 0.000146074618402
actual 9.26909939899e-05
covers 0.0
mountain 0.0
friday 7.06760586021e-05
winner 0.00010330278834
closes 0.0
quality 0.000120162663527
father 0.0
wishes 0.0
hourly 0.0
matter 9.97298243201e-05
themselves 0.0
usually 3.09844019717e-05
period 3.46798360087e-05
parents 0.0
balance 0.0
publishing 9.92015339662e-05
mobile 0.0
woohoo 0.0
bracelets 0.0
summer 0.0
reminded 4.0358075655e-05
impressed 0.0
necklace 0.0
shutdown 0.0
dinner 0.0
single 0.000838002659058
packed 3.81069481955e-05
definition 0.00022935853802
energy 0.000110587915733
preview 0.0
monster 0.000120290546632
material 0.000119131383634
admission 0.000124011107469
europe 0.000321517886451
holiday 0.0
emotional 0.000301307525428
update 0.000135611957701
customers 0.0
messing 0.0
holding 0.000164975269436
electric 0.000166286242785
eating 2.90532564212e-05
outfit 0.0
picked 0.0
fabulous 8.0979608705e-05
missing 0.000148788281051
surprise 9.94606151185e-05
officially 2.71223915402e-05
french 0.000179238846376
global 0.00021750496356
follow 0.000794543669339
opinion 0.000121177006006
backwards 4.99959616297e-05
design 0.0
secrets 4.35957061409e-05
request 7.16772556498e-05
breaks 3.06367514526e-05
allows 0.0
promoting 0.0
volunteer 0.0
wondering 3.16056611107e-05
official 4.80151995966e-05
sweater 0.0
jersey 0.0
mistake 9.64553659352e-05
france 0.0
proper 0.0
ginger 6.0702768297e-05
peaceful 0.000245101800838
lighter 0.0
thinks 0.000216979132322
competition 6.28528968008e-05
hospital 0.0
industry 6.56113676398e-05
trending 0.0
leadership 0.000509392600639
organized 0.0
showed 2.92149236805e-05
circle 8.23198952357e-05
success 7.8749695246e-05
ladies 0.0
dreams 3.05506495882e-05
protect 2.97898316974e-05
onesie 0.0
explanation 8.31431213927e-05
control 0.000233696109969
coincidence 0.0
discovering 0.00012015582139
laying 4.80842677622e-05
invited 3.27111302163e-05
healthy 3.15158810994e-05
surgery 4.35957061409e-05
allowing 8.15110702773e-05
arrived 0.0
opening 2.52719383016e-05
popular 0.000127145095738
pleasure 5.82678974661e-05
spectacular 0.0
animal 0.000104658752958
luggage 0.0
wonder 0.000226832776868
matters 0.000122202598353
reader 9.84244291574e-05
function 0.0
marketing 4.79015132622e-05
connection 7.57396702058e-05
improves 0.0
benefit 0.000116535794932
continues 2.83394264202e-05
cuddle 0.0
routine 9.43692171324e-05
exciting 2.78754979985e-05
corner 6.63756271512e-05
imagination 0.000111214976414
sangria 0.0
mystery 0.0
spring 2.97068214687e-05
beautifully 0.0
places 5.54458024947e-05
feedback 0.0
continue 2.68278866167e-05
attend 0.0
creative 0.0
memories 0.0
female 6.19688039434e-05
grandma 0.0
closer 5.82678974661e-05
accent 0.0
beginning 8.76447710414e-05
sooner 0.0
everywhere 2.77229012473e-05
scenes 0.0
bought 0.000113670644373
wishing 0.0
discovered 7.74211881578e-05
remove 4.00968488772e-05
predict 0.0
parrot 0.0
several 6.69572278728e-05
teacher 0.0
passing 0.0
become 0.000388289451367
spread 2.65370862558e-05
netflix 3.85885973638e-05
season 2.56164800566e-05
putting 0.00014639667106
weight 0.0
outfits 0.0
notification 0.000291753427156
annoying 0.000136451895943
necessity 0.0
knocks 0.0
processed 0.0
necessarily 0.0
effects 4.31467925433e-05
lighting 0.0
headed 6.14463503877e-05
returns 6.23204151262e-05
expected 0.0
bucket 8.74946045009e-05
constantly 8.57045752395e-05
sweetest 0.0
struggling 4.02270932998e-05
register 3.45773155575e-05
transition 4.4997245782e-05
flowers 4.40535096921e-05
sprain 0.0
savage 0.0
somebody 3.46798360087e-05
covering 0.0
gloves 0.0
repeat 0.000129719071329
managers 0.0
brothers 0.0
patriots 0.0
seahawks 0.0
player 0.0
chemistry 0.0
moonlight 0.0
comment 0.000479308027655
columbia 0.0
physical 0.0
kingdom 0.000150588364585
pretend 4.07555351387e-05
charles 0.0
fighting 0.000105859816566
rooting 0.0
donald 0.000734388016596
mexico 3.357636598e-05
police 0.000329524269012
represent 7.86608508235e-05
president 0.000284082667935
talking 0.000699180732259
unbelievable 7.38899576423e-05
shrimp 0.0
giants 0.0
conference 0.00031694141314
america 0.000321504743762
everybody 2.86539662907e-05
houston 0.0
everyday 3.29959591645e-05
michael 0.000236249085738
protecting 0.0
unconditional 0.0
million 0.000170796116237
election 0.00118621507009
telling 0.000158358278333
correct 0.000149783758642
pulled 3.48862509859e-05
starbucks 0.0
americans 0.0
killed 7.76875769147e-05
cowboys 0.0
cowboy 0.0
coverage 3.15158810994e-05
dallas 0.0
coffee 2.92961832505e-05
timeline 0.000199192704477
refuse 4.17104099057e-05
barackobama 0.0
hillary 0.000332572485571
clinton 0.00011396426297
gatorade 0.0
sharper 0.0
american 2.46644145399e-05
deserved 0.0
realist 0.0
illegal 0.000270974158552
arizona 0.0
waffle 0.0
scared 3.40714239519e-05
pieces 3.43736285671e-05
taught 0.0
golden 3.13373603369e-05
straight 0.000154534484934
massage 0.0
filter 0.00061721879381
answers 5.99135034568e-05
smoking 4.63186525045e-05
created 0.000195665230319
beside 6.13449852567e-05
worlds 0.0
record 9.70723628418e-05
freddie 0.0
africa 0.0
recruiting 0.0
journey 0.0
snapchat 0.0
brother 0.0
prayers 0.0
trolling 0.0
hungry 0.0
nflnetwork 0.0
documentary 3.47828131227e-05
boston 0.0
addition 0.0
church 0.0
honestly 0.0
lounge 0.0
lifetime 7.0189051165e-05
captain 0.0
favorites 0.0
country 0.000432136796369
valley 0.0
huddle 0.0
dressing 9.03166994723e-05
finish 0.0
favourite 0.00015007465575
prayer 0.0
nominated 0.0
praying 0.0
insane 3.43736285671e-05
national 0.000150813279689
reform 0.000137943458195
shooting 0.0
australia 0.0
deserve 0.0
legend 0.0
mother 2.58958589716e-05
realest 0.0
creating 6.39366178424e-05
powerful 0.000113357705681
chilling 4.90203601676e-05
wisdom 7.84102450733e-05
breaking 0.000299999458605
parked 0.0
angeles 0.0
dollars 0.0
questions 9.5256559569e-05
racist 0.00066960156941
girlfriend 0.0
performance 5.3802323745e-05
refreshing 0.0
educated 0.0
reading 0.000394630632638
denver 0.0
videos 2.99567517284e-05
harmony 0.0
create 0.00010760464749
jordan 0.0
admire 4.29990711215e-05
nobody 8.54884842587e-05
government 0.00187827190863
politics 0.00154632940955
paradise 0.0
recover 5.25204662267e-05
spotted 7.84102450733e-05
blessing 0.0
coolest 0.0
banana 0.0
donate 0.0
sandwich 0.0
lookin 0.0
method 4.86413627639e-05
bullshit 0.0
slight 0.0
bringing 0.0
deserves 3.08969979966e-05
regret 0.0
celebs 0.0
victim 0.000397873330978
stadium 0.0
funniest 0.0
according 0.000154049616138
pumped 0.0
hamburger 0.0
heaven 3.68319305575e-05
honest 8.6678135581e-05
rolling 0.000313976258873
became 2.90532564212e-05
feature 3.18771122591e-05
waking 0.000134991737346
breakfast 2.92149236805e-05
counting 0.0
signing 9.13946016361e-05
adding 0.0
awareness 0.0
kindest 0.0
trainer 0.0
facebook 0.000745954613389
insanity 0.0
repost 5.61212498803e-05
brazilian 0.0
campaign 0.000593442742605
borrow 0.0
scorpion 0.0
popcorn 0.0
factory 0.0
teenage 5.10145547431e-05
endorsement 0.0
williams 3.70585826068e-05
custom 0.0
drinks 0.0
future 0.000359143996739
angels 0.0
fingers 0.0
sister 9.37458427891e-05
earrings 0.0
warrior 0.0
dancing 3.26169617608e-05
voting 0.000229231730326
individuals 9.36686484614e-05
presence 4.6149286737e-05
commercial 3.18771122591e-05
chopped 0.0
religion 9.61685355245e-05
century 0.000381069481955
submit 4.02270932998e-05
serving 0.0
because 3.34786139364e-05
aggressive 0.0
sensitive 0.0
smiling 4.10243558869e-05
besides 0.0
cleveland 0.0
hometown 0.0
killing 0.0
breath 0.000157825644559
phillips 0.000182108304891
instagram 0.0
sharks 0.0
cousin 0.0
honored 0.0
dedication 0.0
lifting 0.0
lyrical 0.0
talent 0.0
goodnight 0.0
stores 0.0
rushing 0.0
brains 0.0
sandwiches 0.0
drinking 0.0
brazil 0.0
tattoo 4.8830084823e-05
ravens 0.0
regardless 4.10243558869e-05
skills 0.0
cameras 0.0
phones 8.57045752395e-05
california 3.32843411641e-05
seconds 3.10721376514e-05
listen 0.000192060798386
smiled 0.0
kicking 3.28056838199e-05
homies 0.0
billion 0.000133137364656
shades 5.22992365589e-05
shoutout 0.0
grammy 0.0
guilty 0.000157321701647
stevie 0.0
ceiling 0.0
carpet 0.0
grammys 0.0
harvard 0.0
panther 0.0
nelson 0.0
mandela 0.0
handle 0.0
sexiest 0.0
promise 2.75713051378e-05
hosting 0.0
hahahaha 0.0
longest 0.0
tuesday 2.63930463889e-05
locker 0.0
workout 0.0
ingredient 0.0
leader 0.000363531018017
pageant 0.0
character 3.10721376514e-05
idiotic 0.0
mirror 0.0
jackson 0.0
interview 0.000141733712887
battles 0.0
bleach 0.0
insight 0.000123889017914
obviously 0.000195701770565
replay 0.0
battle 0.000107898680474
stomped 0.0
destroy 8.071615131e-05
killer 0.000105914080832
personally 6.715273196e-05
winning 9.91921873671e-05
gettin 0.0
japanese 4.25614872589e-05
writing 0.000242110456852
society 9.61796002774e-05
officers 0.0
brooklyn 0.0
sources 0.0
incredible 7.52029540251e-05
poster 3.68319305575e-05
celebrity 0.0
memorable 0.0
werent 0.0
chased 8.20447636359e-05
minute 5.23573109006e-05
confession 0.0
pregnant 0.0
cherry 0.0
twinning 0.0
phoenix 0.0
orange 0.000104348439368
policy 0.000340714239519
comedy 0.0
illuminati 0.0
reminder 0.000223617406079
evidence 0.000241326734157
iphone 0.000148234330427
kicked 3.81069481955e-05
intentions 0.000192326006296
freedom 0.000194020417334
patient 0.0
utterly 9.99919232594e-05
mississippi 0.0
download 3.28056838199e-05
assistant 0.0
invite 6.58012514702e-05
central 0.0
washington 0.000122892700775
stronger 0.0
promised 0.000228641689173
worried 3.357636598e-05
throwing 0.0
security 0.000338909155503
cologne 0.0
headphones 0.0
sanctuary 0.0
fantasy 8.81070193841e-05
monkey 0.0
approve 4.59811527315e-05
spinach 0.0
turning 0.000116213025685
helping 0.0
tickets 8.43188954692e-05
collector 0.0
physically 0.0
slavery 0.0
december 0.0
basically 0.0
return 0.000154116053416
yassss 0.0
goddess 7.08820400007e-05
locked 3.9080495152e-05
feelings 0.0
language 0.000292708577956
motion 0.000122668664348
obsessed 0.0
creation 9.40176059496e-05
followers 0.000240325327054
schools 0.00029696363248
gallery 0.0
movies 0.0
foster 0.0
children 0.000204377277546
nation 0.000146074618402
theaters 0.0
between 0.0
knowledge 0.0
begins 5.55981474355e-05
robinthicke 0.0
faithful 0.0
peeing 0.0
closet 5.46129983669e-05
bodies 0.0
italian 4.35957061409e-05
highlights 0.0
spanking 0.0
forbes 5.06017165606e-05
parade 0.0
tasted 0.0
consider 6.16198464551e-05
reunion 0.0
latest 0.000276491012762
dedicated 7.91661744076e-05
beyonce 4.97975198631e-05
perform 0.0
signed 2.56164800566e-05
tuxedo 0.0
princess 0.0
shelter 5.22992365589e-05
germany 7.0609387221e-05
explaining 0.0
married 0.0
millions 9.42793452012e-05
blessings 0.0
iconic 0.0
indonesia 0.0
braids 0.0
dollar 0.0
rigged 0.0
replied 5.82987004216e-05
lights 6.67625469632e-05
turned 0.000178346325962
excuses 5.16479731018e-05
jackie 0.000229831765782
charge 0.00019291073187
performing 0.0
ticket 3.11602075631e-05
steady 0.0
whispers 0.0
finest 9.1628465401e-05
confucius 0.0
diamonds 0.0
vancouver 0.0
addicts 8.2856016132e-05
collection 6.37542245182e-05
families 0.000118827285875
select 0.0
hitting 0.0
announced 0.0
decided 0.000194593516024
jewels 0.0
lottery 0.0
owners 4.46783672938e-05
respects 0.0
celebration 0.0
memorial 0.0
landed 0.0
pastor 0.0
ultimate 6.73490662156e-05
incase 0.0
rapper 0.0
episode 0.0
bounce 0.0
disney 0.0
muffin 0.0
kansas 0.0
sherman 0.0
retweet 0.000324055207422
midnight 0.0
patience 0.0
cereal 0.0
joining 5.46915174516e-05
released 2.70484128408e-05
release 2.5478046566e-05
models 0.0
classics 0.0
popped 5.66466889495e-05
mileycyrus 0.0
highlight 0.0
scholarship 0.0
within 0.00014812054118
hahahahaha 0.0
standing 7.96112587675e-05
higher 9.34806226893e-05
purple 0.0
skinny 0.0
justice 9.37458427891e-05
served 0.0
speaks 3.357636598e-05
horses 0.0
houses 0.000142620846308
purchase 0.0
dropped 0.0
conversations 8.62935850867e-05
consideration 0.0
seattle 0.0
cookie 0.0
slurpee 0.0
strength 0.000225062520516
screens 5.56074882069e-05
monica 0.0
incredibly 0.0
streets 6.83434410502e-05
boyfriend 0.0
private 0.000178738990184
skittles 0.0
barbie 0.0
apologizes 0.0
designer 5.10145547431e-05
impress 0.000174896101265
cooking 0.0
exclusive 8.27139154135e-05
fashion 3.357636598e-05
petite 0.0
talkin 0.0
peaches 0.0
bitches 0.0
nailed 0.0
weirdest 6.0702768297e-05
whomever 0.0
teaching 7.08209969621e-05
disgusting 0.0
chillin 0.0
philly 0.0
rights 0.000313373603369
dinosaur 0.0
exotic 0.0
dancers 0.0
cheers 0.000215681463421
presents 3.79880876567e-05
flawless 0.0
dating 0.0
victory 0.000165939067878
marley 0.0
productive 4.6149286737e-05
smurfs 0.0
halftime 0.0
insecure 6.52366155818e-05
horror 0.000230746433685
warning 0.00020145819588
discovery 0.0
convention 8.93567345877e-05
understanding 0.000100435841809
action 7.47973682401e-05
having 4.35957061409e-05
speaker 3.87105940789e-05
clever 0.000119131383634
theatre 8.48348947839e-05
honors 0.0
evolution 4.53205842536e-05
produce 4.35957061409e-05
spider 0.0
apologize 0.0
formation 0.0
letter 0.000114615865163
therapy 0.0
untrue 0.0
written 5.66788528404e-05
communication 0.0
disease 4.54839653142e-05
marching 0.0
suggest 3.59469105702e-05
georgetakei 0.0
hairstyle 0.0
humans 3.8956536014e-05
journal 0.0
foundation 0.000132366749401
access 0.000228599433673
venture 0.0
syndrome 5.29693798243e-05
writes 0.0
colorado 0.0
medicine 0.0
tremendous 0.0
nytimes 0.0
kindness 0.0
cannot 0.000155375153829
reveals 3.46798360087e-05
invented 0.0
sapphire 0.0
candidate 3.69449788212e-05
sexual 8.15110702773e-05
madison 0.0
illustration 0.000133663230258
newark 0.0
globally 0.0
incorrect 0.0
headline 7.27703715198e-05
reflect 8.57045752395e-05
streaming 0.0
leaders 0.000237104887756
supreme 0.000561355884281
protest 0.0
policies 0.000252792194167
silenced 0.0
defend 3.79880876567e-05
communicating 0.0
climate 7.86608508235e-05
wrapped 0.0
studio 0.0
conspiracy 0.000274885396203
interviews 0.0
differentiation 0.0
confusing 0.0
february 3.41717205251e-05
hamilton 0.0
loneliest 0.0
amazon 3.51993707684e-05
scattered 0.0
francis 5.31971484042e-05
headlines 8.57045752395e-05
january 0.0
diversity 0.0
universal 4.10243558869e-05
hurricane 0.0
identifying 0.0
countries 0.000234350297555
tickled 0.0
becker 0.0
connected 4.53205842536e-05
suggestion 4.48372567431e-05
filled 0.0
education 0.000124994457052
mentioned 6.83434410502e-05
defining 0.0
exists 8.62935850867e-05
unexpected 0.0
plants 0.0
orders 8.34208198114e-05
olympics 0.000288119633325
ability 6.754623772e-05
director 0.0
content 0.00043529802667
cycling 6.68316151289e-05
previously 4.63186525045e-05
correction 0.0
pearls 0.0
ambassador 0.000120290546632
preparing 0.0
depend 5.97717032536e-05
downloads 0.0
lovers 0.0
weekly 4.00968488772e-05
hudson 0.0
bridge 3.74027823723e-05
becoming 0.000238318653579
magazine 3.22440774856e-05
appropriate 8.39812708882e-05
shakespeare 0.0
travesty 0.0
discoveries 0.0
fellow 5.89191286222e-05
reviewed 0.0
copies 8.84162957729e-05
driven 8.42640647222e-05
aussies 0.0
result 0.000200871683619
announcing 0.0
visual 4.84541688354e-05
restrictions 0.0
culture 0.000224419067314
edition 0.0
prince 0.0
shocks 0.0
symmetry 0.0
clicks 0.0
disagree 0.000323522195132
experiments 0.0
mistakes 0.000124300621327
trolls 0.00127126511578
blossoms 0.0
offered 0.000152905692013
inspiring 9.40120810108e-05
counter 4.38998990016e-05
approach 6.9154631115e-05
embarrassing 4.17104099057e-05
creators 6.26855534588e-05
edited 5.46129983669e-05
berniesanders 0.0
overnight 0.0
spotlight 4.75402821025e-05
probable 0.0
repeating 5.97717032536e-05
concerns 8.48348947839e-05
massive 0.000117838257244
promising 0.000152421642377
promises 0.000132624443659
colored 0.0
production 0.0
header 0.0
itunes 0.000115039555387
secretary 0.000121469413058
highway 5.74579414456e-05
dangerous 0.000124640830252
letters 4.29990711215e-05
typically 0.0
saving 3.36745331078e-05
pioneer 0.0
visuals 0.0
universe 0.0
ordering 0.0
victims 0.000101023599323
privacy 4.99959616297e-05
disclosure 0.0
proceeds 0.0
musical 0.0
collide 0.0
melbourne 0.0
correctly 4.64892682151e-05
campus 0.000137943458195
debate 0.000567589680192
conflict 4.82684784888e-05
meanwhile 0.0
petition 0.0
contribution 9.58030265244e-05
stated 5.61212498803e-05
humanity 0.0
illness 0.0
flawed 0.0
breathe 0.0
winners 0.0
spanish 4.27064302031e-05
comedic 0.0
awards 0.0
presidential 0.000232263564473
candidates 0.0
glasgow 0.000670355302782
smells 0.0
treasure 0.0
greater 0.000113609505309
themed 0.0
distribution 0.0
absurd 9.99919232594e-05
squirrel 0.0
sisters 0.0
stress 0.0
leading 0.000176757385867
resolution 4.68343242307e-05
achieved 0.0
interacting 0.000156734909021
boiling 0.0
examples 9.88113489695e-05
diverse 0.0
suicide 4.58142327005e-05
parallel 0.0
minneapolis 0.0
impairs 0.0
pumping 0.0
slides 0.0
choreography 0.0
element 0.0
serves 0.0
jumping 0.0
rising 3.74027823723e-05
believed 8.51229745179e-05
features 0.0
environment 0.0
revealed 7.57396702058e-05
classical 0.0
confirmed 6.754623772e-05
origins 0.0
combination 0.0
consumption 0.0
worldwide 0.0
deaths 4.86413627639e-05
responsible 0.000113609505309
overwhelmed 0.0
household 0.000104160207773
munich 0.0
alternate 0.0
blockers 0.00019776083427
restaurant 0.0
canada 0.000154484989983
versions 0.0
technology 0.000155332951978
identify 4.97975198631e-05
combined 0.0
santiago 0.0
branches 0.0
october 0.0
netherlands 0.0
belgium 5.66466889495e-05
european 0.000359706007072
imperial 6.44785698385e-05
perspective 3.42724541218e-05
cities 3.47828131227e-05
guinea 0.0
americas 0.0
posters 0.000104598473118
elastic 0.0
flames 0.0
presumably 0.000165314688465
exquisite 0.0
spreading 7.94209224224e-05
happiness 4.0358075655e-05
ashamed 0.0
naturally 0.000102447543543
malbec 0.0
wasting 0.000114368697242
hidden 0.0
coffin 0.0
freudian 0.0
genius 3.08099232276e-05
cultured 0.0
malaysia 0.0
traveling 0.0
prepared 0.000105283576748
county 4.28522876198e-05
quinoa 0.0
district 0.0
chosen 0.000131241906751
toilet 4.80842677622e-05
yorkers 0.0
ignores 0.0
messages 0.000116131782237
creativity 0.0
conventional 0.0
berlin 9.54403842912e-05
montreal 0.0
wonders 0.000105938759649
upcoming 0.0
lonely 0.0
australian 0.0
positions 0.0
singapore 0.0
scratch 0.0
deficiency 0.0
elevated 7.70460477882e-05
triggers 0.0
delicate 0.0
barrier 0.0
reflection 0.0
sydney 0.0
separates 0.0
centuries 0.0
israel 4.94056744847e-05
overwhelming 9.84244291574e-05
assault 4.43638274233e-05
protection 0.000120681279899
picker 0.0
additional 0.0
machine 9.37458427891e-05
samples 0.0
contrary 5.8585888262e-05
immediate 0.0
michelle 4.46783672938e-05
inspire 0.0
lyrics 0.0
missyelliott 0.0
constant 8.9994491564e-05
tuning 0.0
pandora 0.0
preshow 0.0
buenos 0.0
poland 0.0
philippines 0.0
nicely 0.000177455309693
september 0.0
manchester 4.21320323611e-05
checks 4.48372567431e-05
screenshot 6.52366155818e-05
universalorl 0.0
remarkable 0.000159869336476
rihanna 0.0
disgusted 0.0
flattered 0.0
fiction 0.0
angela 0.0
bitmoji 0.0
process 0.000147708449409
genuine 0.000125971906332
performances 0.0
comedians 0.0
flotus 0.0
strangers 0.0
hungover 0.0
confidence 0.000108824506667
studios 0.0
stjude 0.0
memphis 0.0
mikeypiff 0.0
chancetherapper 0.0
scream 0.000146490254469
jennifer 0.0
disappoint 0.0
newcastle 0.0
castle 0.000103726057656
literally 2.86539662907e-05
chrisrock 0.0
gentlemen 0.0
mtvnews 0.0
hillaryclinton 0.0
iamrashidajones 0.0
champagne 0.0
raleigh 0.0
ijessewilliams 0.0
acknowledge 0.0
buzzfeed 0.0
puppet 0.0
rehearsal 0.0
billboard 0.0
austria 0.0
sweden 0.0
republic 4.8830084823e-05
grilled 0.0
waltdisneyworld 0.0
katyperry 0.0
ronanfarrow 0.0
measly 0.0
bragging 0.0
treats 0.0
literal 6.13449852567e-05
cooper 0.0
counts 0.0
theellenshow 0.0
basking 0.0
cookies 0.0
festival 6.81428479038e-05
amsterdam 0.0
soundcheck 0.0
downloaded 5.63824766581e-05
encouraged 0.0
alright 0.0
jtimberlake 0.0
backstage 0.0
collab 0.0
joined 8.54884842587e-05
issarae 0.0
playlist 0.0
madness 0.000184724894106
romantic 0.0
selfies 0.0
exclusively 4.75402821025e-05
disneyland 0.0
refused 0.0
characters 0.0
amazingly 0.0
auction 0.0
express 7.16772556498e-05
gratitude 4.92122145787e-05
sesamestreet 0.0
thegrammys 0.0
throughout 3.67194324091e-05
awkward 0.0
shining 0.0
thrown 4.40535096921e-05
stylist 0.0
fighter 0.0
accepting 0.000127252342176
playin 0.0
applemusic 0.0
filmed 4.45205624227e-05
makeawish 0.0
bieber 0.0
remixes 0.0
toronto 0.0
capitolrecords 0.0
shazam 0.0
anthem 0.0
cosmopolitan 0.0
khloekardashian 0.0
cookin 0.0
songwriters 0.0
reveal 3.377311886e-05
stands 0.0
spotify 9.84244291574e-05
phvegas 0.0
rocked 0.0
glasses 0.0
iambeckyg 0.0
relive 0.0
acoustic 0.0
announce 2.69011618725e-05
although 3.77521843459e-05
isaacfromct 0.0
shampoo 0.0
interactive 5.14348994842e-05
todayshow 0.0
haters 4.8830084823e-05
appreciation 0.0
floating 0.0
shondarhimes 0.0
showtime 0.0
premiere 0.0
broadway 0.0
makeup 0.0
starring 0.0
newest 0.0
designed 3.57308498961e-05
arianagrande 0.0
aladdin 0.0
swaggy 0.0
owning 0.0
producer 0.0
legendary 0.0
jasmine 0.0
costumes 0.0
square 0.0
emojis 0.0
jessica 0.0
magical 0.0
thedoctorluke 0.0
thirsty 0.0
therealjuicyj 0.0
symbols 0.0
privilege 0.0
spiral 6.68316151289e-05
retrograde 0.0
footage 0.0
theirs 6.76723741049e-05
universes 0.0
remembering 3.78698351029e-05
floated 0.0
construction 0.0
consciousness 6.60203626328e-05
delights 0.0
explodes 0.0
submissions 0.0
pleased 0.000152905692013
shredding 8.84312786644e-05
filters 6.33861623432e-05
weasel 0.0
reflective 0.0
firework 0.0
islands 0.000118342387093
interstellar 0.0
bubble 4.37473022505e-05
customs 0.000420545374866
festive 0.0
window 6.79431212532e-05
senator 0.0
slightly 7.99346682381e-05
therealbuzz 0.0
printing 0.0
snowflake 6.94515843785e-05
applications 0.0
elephant 0.0
fifteen 0.0
editions 8.05029708416e-05
newspaper 0.000259772783692
rainbow 0.0
unlimited 0.0
sirius 0.0
matthew 4.42081478864e-05
affected 0.0
capturing 0.0
canyon 0.0
rivers 0.0
spoken 0.0
accidentally 4.43638274233e-05
bizarre 0.00043275840986
dolphin 0.0
successfully 0.0
liquid 0.0
graffiti 0.0
swallowing 0.0
messenger 0.0
heroes 0.0
disturbing 0.000294122161005
graduates 0.0
rewrite 6.94515843785e-05
describe 6.715273196e-05
hollywood 6.81428479038e-05
equality 4.17104099057e-05
announcement 5.94136429374e-05
breakout 0.0
dreaming 0.0
animation 0.0
calendar 0.0
circling 0.0
garden 0.0
enhanced 0.0
journalists 4.14335404425e-05
stirring 6.94515843785e-05
nominations 0.0
yelling 0.0
teachers 8.28670808849e-05
chapter 3.85885973638e-05
napoleon 0.0
aliens 0.0
subjects 6.52366155818e-05
revolution 4.32954639487e-05
mountains 0.0
wonderland 0.0
storage 0.0
crystals 0.0
circuit 0.0
invitation 4.86413627639e-05
kettle 0.0
adjective 0.0
woodpecker 0.0
operate 0.0
exhibition 5.94694986384e-05
learnt 6.94515843785e-05
nomination 0.0
madonna 6.56251679862e-05
questioning 0.000113827911572
unplug 0.0
initiatives 0.0
switzerland 0.0
represents 4.75402821025e-05
throat 5.34271833754e-05
touchdown 0.0
desire 0.0
forced 0.000106550369437
swedish 0.0
hundred 0.0
prompts 0.0
rainbows 0.0
creates 4.56485092392e-05
oxford 5.20801038864e-05
balloons 0.0
liverpool 0.00011070965283
recreate 0.0
glorious 8.93567345877e-05
newton 0.0
creature 0.0
finalist 0.0
scouts 0.0
treading 0.0
tragedy 7.59761753134e-05
nottingham 0.0
debacle 0.0
legends 0.0
noises 0.0
addiction 5.12237717715e-05
survived 0.0
idioms 0.0
greeted 0.0
basics 0.0
masses 0.0
confirm 0.000188175646457
cadence 0.0
spaghetti 0.0
prepare 0.000171362270609
calendars 0.0
narrative 0.0
application 0.0
octopus 0.0
drumming 0.0
bloody 0.000131699697005
confetti 0.0
translate 0.0
birmingham 0.0
singles 0.0
completes 0.0
laptop 5.1863028828e-05
obvious 0.00023523073522
darling 0.00011020979231
deserving 0.0
miller 4.18500980882e-05
ordered 0.0
feelin 0.0
alicia 0.0
picasso 0.0
recipe 0.0
alphabetical 0.0
butterfly 0.0
timothy 0.0
mancini 0.0
untold 0.0
directed 3.95830872038e-05
hacked 9.03166994723e-05
admits 0.0
clocks 0.0
nugget 0.0
cnnopinion 0.0
grabbed 0.0
russia 0.0
surprises 0.0
waterfalls 0.0
olympic 4.28522876198e-05
magnificent 0.0
casual 0.0
assume 0.000151952350627
relief 3.84672410544e-05
subscribe 0.0
landslide 6.26855534588e-05
telegraph 0.000436903986935
standby 0.0
admitting 0.000125371106918
complacency 7.9057604981e-05
voices 0.0
sounding 5.1863028828e-05
douglas 0.0
democracy 0.000243733727678
locals 0.0
gossip 0.0
nickname 0.0
subtle 5.48576389975e-05
embarrassed 0.0
ireland 0.000658559161886
mornings 0.0
democratic 0.000707769128493
impressions 0.0
outgoing 0.0
treasury 5.97717032536e-05
refugees 0.0
unveiling 0.0
listing 0.0
deliver 0.000110158297227
negotiating 0.00011070965283
roller 0.0
prosperous 7.83674545107e-05
desperate 0.000176214038768
acknowledgement 0.0
executive 3.85885973638e-05
republicans 0.0
weapons 0.000180633398945
dropping 0.0
meaningful 0.0
nightmare 0.000402270932998
goodies 0.0
scandalous 0.0
rhetoric 0.000217483677861
divisive 6.23430535076e-05
vision 0.000102817362365
confirmation 4.77201921456e-05
throne 0.0
records 3.50945255825e-05
quoting 0.0
impatient 0.0
refugee 4.59811527315e-05
texted 0.0
exposed 0.000283107651397
stoked 0.0
priority 4.46783672938e-05
freedoms 0.000191233779446
notorious 0.0
empowering 0.0
unconstitutional 6.76723741049e-05
turkish 6.26855534588e-05
concerned 0.0
realdonaldtrump 8.071615131e-05
goodwill 7.2938356789e-05
imagined 5.1863028828e-05
belfast 0.0
sleeve 0.0
basement 0.0
preposterous 0.0
griffith 0.0
timeless 0.0
truman 0.0
intended 0.000147061080503
inappropriate 0.000174045109342
industries 0.0
responsibility 0.000114320844586
documentaries 0.0
vulnerable 4.64892682151e-05
respectful 0.0
markets 5.06017165606e-05
claire 0.000117753377246
nuggets 0.0
boards 0.0
sequins 0.0
capitol 0.0
technical 4.84541688354e-05
applying 5.69139557858e-05
guitar 0.000197622697939
donating 0.0
continually 0.0
norway 0.000103726057656
applause 0.0
ballot 9.65369569775e-05
finely 0.0
shakes 6.16729102423e-05
varied 0.0
proverb 0.0
vibrant 0.0
flower 0.0
survives 0.0
fierce 0.0
shopped 0.0
sincerely 0.0
apology 8.71914122819e-05
sweaty 0.0
conspiracies 0.0
climbing 6.00779106952e-05
relaxed 0.0
encourage 0.0
funnyordie 0.0
essentials 0.0
jimmykimmellive 0.0
rejectedjokes 0.0
protesting 0.0
releasing 0.0
cleaner 0.0
preferred 0.00011020979231
incarceration 0.0
jkcorden 0.0
koppel 0.0
bikini 0.0
transparency 5.06017165606e-05
kamalaharris 0.0
nutshell 0.0
walled 0.0
floored 0.0
plotting 0.0
gandhi 0.0
vilify 0.0
meditate 0.0
violent 0.0
preschool 0.0
rhythm 0.0
matching 0.0
senwarren 0.0
venezuela 0.0
candle 0.0
donates 0.0
peacefully 0.0
chelseahandler 0.0
experiencing 0.0
sarabareilles 0.0
haunting 0.0
constitution 0.000425577187234
explode 0.0
deeper 4.92122145787e-05
empathy 0.0
mrgaryhuang 0.0
scored 0.0
charitable 0.0
perfume 0.0
giraffe 0.0
noticing 0.0
noodle 0.0
wrongly 0.0
marshmallow 0.0
fraudulent 0.0
everytime 0.0
helluva 0.0
therapists 0.0
tangible 0.0
sarahksilverman 0.0
johnfugelsang 0.0
exceptional 0.0
miracle 4.79015132622e-05
avocado 0.0
snacks 0.0
spelled 0.0
parental 0.0
superbowl 0.0
shoulders 6.00779106952e-05
valentine 0.0
glitter 0.0
stocking 0.0
poehler 0.0
thumbs 0.0
tinatbh 0.0
educational 0.000111214976414
voicemail 0.0
thetweetofgod 0.0
esteem 0.0
teaches 0.0
goodbye 3.63851857599e-05
reminding 5.10145547431e-05
supplies 0.0
ryanseacrest 0.0
okmagazine 0.0
shoots 0.0
bowing 0.0
jennyslate 0.0
craigyferg 0.0
masterpiece 0.0
sneaky 0.00013534474821
nashville 0.0
chronicles 0.0
potato 0.0
freakin 0.0
perezhilton 0.0
unethical 0.0
paparazzi 0.0
mantra 6.81045048895e-05
consuming 0.0
unauthorized 0.0
vanityfair 0.0
stalking 7.08820400007e-05
shoulda 0.0
yeppers 0.0
sacred 0.0
existed 0.0
earned 4.08895547827e-05
woulda 0.0
ellenpage 0.0
choker 0.0
contribute 0.0
mustache 0.0
washes 0.0
creeps 0.0013097828124
champion 0.0
auntie 0.0
magazines 0.0
waited 0.0
conscious 0.0
cracker 0.0
denmark 0.000118342387093
potion 0.0
windex 0.0
scarfing 0.0
ladygaga 0.0
purposely 0.0
pretending 9.47235226801e-05
luckiest 0.0
mascara 0.0
tastes 0.0
gardening 0.0
leashes 0.0
hippie 0.0
womensmarch 0.0
reunited 0.0
clique 0.0
premiering 0.0
rollingstone 0.0
childrensla 0.0
dollywood 0.0
godmother 0.0
eltonofficial 0.0
vmagazine 0.0
donorschoose 0.0
yesssssss 0.0
bettemidler 0.0
rehearsing 0.0
trevorproject 0.0
unicef 0.0
ellemagazine 0.0
yasssss 0.0
acceptance 0.0
solidarity 0.000105938759649
pharrell 0.0
greece 5.7184348621e-05
papermagazine 0.0
johnmayer 0.0
lipstick 0.0
tumblr 0.0
coldplay 0.0
colorful 0.0
translifeline 0.0
newsstands 0.0
feminist 6.13449852567e-05
pitchfork 0.0
labels 0.0
jenner 0.0
arkansas 0.0
beanie 0.0
sparkly 0.0
moschino 0.0
britneyspears 0.0
itsjeremyscott 0.0
nickiminaj 0.0
appstore 0.0
poetry 5.66466889495e-05
puttin 0.0
rubbed 0.0
shrine 0.0
skyferreira 0.0
freaking 0.0
besties 0.0
chanel 0.0
bedazzled 0.0
rubber 5.8585888262e-05
kendricklamar 0.0
popstar 0.0
sosadtoday 0.0
copenhagen 0.0
lenadunham 0.0
wearin 0.0
stoned 0.0
facetime 0.0
barclays 7.34823424487e-05
meditation 0.0
harpersbazaarus 0.0
stared 0.0
ritual 0.0
iconapop 0.0
doubted 0.0
staples 0.0
anaheim 0.0
jingle 0.0
tacoma 0.0
rehearsals 0.0
treadmill 0.0
metamorphosis 0.0
dental 0.0
jodyhighroller 0.0
versace 0.000524421770526
werking 0.0
couture 0.0
eggplant 0.0
bangin 0.0
cardigans 0.0
obnoxious 0.0
bestie 0.0
teganandsara 0.0
barrel 0.0
dedicating 0.0
jefferson 0.0
pumpkin 0.0
derekblasberg 0.0
glamourmag 0.0
presale 0.0
mtvstyle 0.0
deluxe 0.0
mtvema 0.0
reggae 0.0
azealiabanks 0.0
nominating 0.0
sailor 0.0
mornin 0.0
itunesmusic 0.0
bananas 5.74579414456e-05
lordemusic 0.0
vietnam 0.000116597400843
milwaukee 0.0
neworleans 0.0
circus 0.0
strolling 0.0
rapids 0.0
collegegameday 0.0
aaaaand 0.0
godfather 0.0
bestow 0.0
allison 0.0
rockthevote 0.0
birbigs 0.0
lucille 0.0
louder 0.0
farmers 5.58629418985e-05
shaved 0.0
niagara 0.0
realmattlucas 0.0
ferguson 0.0
painful 0.0
exchange 0.0
nickkroll 0.0
edmonton 0.0
mickey 0.0
angelenos 0.0
pooping 0.0
located 0.0
onslaught 9.7285417588e-05
finalists 0.0
bumped 0.0
sherlock 0.0
stockholm 0.0
casually 0.0
jjwatt 0.0
itstonybennett 0.0
mariolopezextra 0.0
klgandhoda 0.0
entrance 0.0
calgary 0.0
bowling 0.0
winnipeg 0.0
cheeto 0.0
gloriasteinem 0.0
feather 0.0
nathan 6.10216467851e-05
smelling 0.0
narnia 0.0
llamas 0.0
actuallynph 0.0
mourning 0.0
obsession 0.0
chilled 0.0
medically 0.0
hyperloop 0.0
aussie 0.0
flaring 0.0
eyeballs 0.0
stuffing 0.0
pitched 0.0
condiments 0.0
relatable 0.0
olivia 0.0
painted 0.0
mykonos 0.0
eyebrow 0.0
capitalcities 0.0
jackpot 0.0
hipster 0.0
sweating 0.0
restaurants 0.0
superfan 0.0
restraint 0.0
craziest 5.97717032536e-05
catheter 0.0
delivers 0.0
kanyewest 0.0
paints 0.0
dissect 0.0
billboards 0.0
milano 0.0
bjnovak 0.0
snapping 0.0
croissant 0.0
repjohnlewis 0.0
blklivesmatter 0.0
mydaughtersarmy 0.0
huddled 0.0
yearning 0.0
thereaibanksy 0.0
affordable 0.0
foodie 0.0
colombia 0.0
peeled 0.0
shootings 0.0
playground 0.000124011107469
breaky 0.0
photoshoot 0.0
smokin 0.0
accents 0.0
sweats 0.0
postmates 0.0
armband 0.0
unconscious 0.0
maddow 0.0
aquarium 0.0
holler 0.0
photoshop 0.0
robbie 0.0
espnmag 0.0
laundry 0.0
examining 0.0
zealand 0.0
stuntin 0.0
hehehe 0.0
nostalgia 0.000130473231164
buttons 0.0
slaying 0.0
monument 0.0
bringin 0.0
lining 0.0
muchas 0.0
gracias 0.0
madame 0.0
illustrated 0.0
boxers 0.0
grazie 0.0
winters 0.0
plastic 0.0
unbreakable 0.0
licking 0.0
cheeky 0.0
twerking 0.0
danish 0.0
drummer 0.0
florence 0.0
revoir 0.0
resume 0.0
dodger 0.0
brazilians 0.0
grimezsz 0.0
crocodile 0.0
hahahahahaha 0.0
parisians 0.0
taipei 0.0
taiwan 0.0
bangkok 0.0
uploaded 0.0
manila 0.0
hamburg 0.0
curating 0.0
aaaand 0.0
skating 0.0
brisbane 0.0
googleplay 0.0
raincoat 0.0
glastofest 0.0
vienna 0.0
burning 8.15110702773e-05
jamming 0.0
reaches 0.0
subtitles 0.0
wristband 0.0
barcelona 0.0
credits 0.0
dreamers 0.0
bogota 0.0
bursting 0.0
brunomars 0.0
beyoncé 0.0
subscribers 0.0
unlock 0.0
onedirection 0.0
amazonmusic 0.0
snippets 0.0
preorder 0.0
rehearse 0.0
bahnhof 0.0
delorean 0.0
fragrance 0.0
curate 0.0
samsmithworld 0.0
guitars 0.0
storyline 0.0
registering 0.0
beatsbydre 0.0
panama 0.0
celestial 0.0
orchestra 0.0
finland 0.0
climbed 0.0
topping 0.0
méxico 0.0
vasconcelos 0.0
leicester 6.76723741049e-05
itunesfestival 0.0
pondering 0.0
millennials 0.0
struck 9.36686484614e-05
watermelon 0.0
benefited 0.0
sophisticated 6.68316151289e-05
couples 0.0
villain 0.0
mindful 0.0
catholic 6.13449852567e-05
airline 0.0
secretly 0.0
playlists 0.0
veggie 0.0
receipts 0.0
foremost 0.0
bagpipe 0.0
drifting 0.0
trader 0.0
influenced 5.94694986384e-05
moscow 5.69139557858e-05
cobain 0.0
reaper 0.0
commune 0.0
handshake 0.0
despair 0.000237877994553
silicon 0.0
investing 0.0
construct 0.0
garland 0.0
coachella 0.0
offline 0.0
realisation 9.43918555138e-05
payback 0.0
educate 5.29693798243e-05
alliances 0.0
etched 0.0
momentarily 0.0
pronoun 0.0
lenses 0.0
validated 0.0
authenticity 0.0
choreographed 0.0
pokemon 0.0
disneyworld 0.0
patriotic 0.0
embody 0.0
snickers 0.0
impactful 0.0
refocus 0.0
eminem 0.0
mahatma 0.0
ecstatic 0.0
snfonnbc 0.0
avenue 0.0
picchu 0.0
doubters 0.0
beverly 0.0
intensity 0.0
outtake 0.0
temple 0.0
purchased 0.0
fountain 0.0
punched 0.0
goldfish 0.0
comparable 0.0
buyers 0.0
barbara 0.0
corybooker 0.0
listens 0.0
timeout 0.0
inducing 0.0
signage 0.0
penthouse 0.0
ahahaha 0.0
phenom 0.0
brilliantly 0.000118938997277
siphoning 0.0
herstory 0.0
prostitute 0.0
survivors 0.0
courageous 5.56074882069e-05
cruelty 6.72481727746e-05
margot 0.0
xenophobic 0.0
mcginley 0.0
yorkshire 0.0
chants 0.0
alancarr 0.0
chained 0.0
skillz 0.0
debunked 0.0
floods 0.0
fleetwood 0.0
cheesecake 0.0
adidas 0.0
uneven 0.0
raging 0.0
connections 0.0
headlining 0.0
devhynes 0.0
charli_xcx 0.0
shawnmendes 0.0
tavitulle 0.0
bahjournalist 0.0
tyleroakley 0.0
marquee 0.0
grease 0.0
screenshots 0.0
ddlovato 0.0
chattyman 0.0
grimmers 0.0
vevo_uk 0.0
bonniemckee 0.0
electrifying 0.0
idolator 0.0
onairromeo 0.0
godven 0.0
lookie 0.0
preordered 0.0
elvisduran 0.0
shanghai 0.0
tripped 0.0
konnichiwa 0.0
etnad_olegnad 0.0
unannounced 0.0
swedes 0.0
cinderella 0.0
slipper 0.0
jessesaintjohn 0.0
adorbs 0.0
onesies 0.0
jahnsuxx 0.0
walgreens 0.0
aphrodite 0.0
danceonfox 0.0
difficulties 0.0
mermaids 0.0
antique 0.0
girlshbo 0.0
yaaaaasss 0.0
lifesaving 0.0
queens 0.0
yaaaas 0.0
rollin 0.0
bestest 0.0
cleanse 8.45692682329e-05
iamtovelo 0.0
glamour 0.0
emelisande 0.0
lashes 0.0
austrian 0.0
magritte 0.0
misogynoir 0.0
litter 0.0
spiritual 0.0
preaching 0.0
adelaide 0.0
sheffield 0.0
impending 0.0
starve 0.0
excess 0.0
conciousness 0.0
vitamins 0.0
generator 0.0
purposefully 0.0
profiles 0.0
petals 0.0
persist 0.0
alexis 0.0
covergirl 0.0
sneezed 0.0
cushion 0.0
demconvention 0.0
directv 0.0
flo_tweet 0.0
billclinton 0.0
grounded 0.0
sunrise 0.0
fightin 0.0
sagekotsenburg 0.0
pwease 0.0
sadder 0.0
waterfall 0.0
sighting 0.0
firsts 0.0
muller 0.0
burritos 0.0
bungee 0.0
potting 0.0
dipping 0.0
closets 0.0
scratched 0.0
decorating 0.0
summers 0.0
havana 0.0
fresher 0.0
mowing 0.0
invading 0.0
addict 0.0
aesthetics 0.0
footwear 0.0
protector 0.0
hammock 0.0
repurpose 0.0
mishap 0.0
hamster 0.0
cellar 0.0
groove 0.0
mentored 0.0
exaggerate 0.0
scraping 0.0
apropos 0.0
trolled 0.0
jonlovett 0.0
rheabutcher 0.0
sickening 7.1379227418e-05
flustered 0.0
compiled 0.0
shirley 0.0
subtweet 0.0
pantsuit 0.0
patting 0.0
atrocious 0.0
amoeba 0.0
platter 0.0
aficionado 0.0
bearer 0.0
manifest 0.0
transformation 6.20055537346e-05
thighs 0.0
tapper 0.0
foaming 0.0
sophie 0.0
sabbath 0.0
vibrations 0.0
nutella 0.0
wilder 0.0
distractions 8.12610165849e-05
stripping 0.0
downloading 0.0
judith 0.0
crossroads 0.0
parsons 0.0
stella 0.0
narcissism 0.000194570835176
fawcett 0.0
trainers 0.0
surrounding 0.0
longtime 0.0
frosting 0.0
laurent 0.0
savory 0.0
acupuncture 0.0
cancelling 0.0
nutcracker 0.0
ballet 0.0
tempura 0.0
burner 0.0
voguemagazine 0.0
lagged 0.0
cuttlefish 0.0
passwords 0.0
funfetti 0.0
anagasteyer 0.0
gabbana 0.0
budapest 0.0
montage 0.0
crowns 0.0
scheduling 0.0
possessed 0.0
syncing 0.0
creatively 0.0
hieroglyphics 0.0
halftimes 0.0
floppy 0.0
nessie 0.0
feathers 0.0
kaceymusgraves 0.0
roaring 0.0
rightful 0.0
balconies 0.0
prodigy 0.0
raquin 0.0
gianni 0.0
monsieuradi 0.0
drowned 0.0
tropicana 0.0
diesel 0.000223830867795
shabbat 0.0
voiceless 0.0
passover 0.0
elevating 0.0
traumatic 0.0
dreamer 0.0
iwillharness 0.0
classrooms 0.0
eligibility 0.0
counselors 0.0
wainwright 0.0
moveon 0.0
runaway 7.9057604981e-05
baghdad 0.0
zaralarsson 0.0
snooze 0.0
iggyazalea 0.0
harviikills 0.0
bolognese 0.0
babysitting 0.0
mohegan 0.0
hooters 0.0
crusts 0.0
tracksuit 0.0
cupcake 0.0
xfactor 0.0
vitamin 0.0
lichtenstein 0.0
concourse 0.0
hitchcock 0.0
teller 0.0
pastels 0.0
remnants 0.0
banger 0.0
lyrically 0.0
boogers 0.0
ritaora 0.0
bumpin 0.0
dabbed 0.0
sleepin 0.0
tinashe 0.0
octaviaspencer 0.0
linder 0.0
musicallyapp 0.0
scavenger 0.0
sanging 0.0
corinthians 0.0
hollywoodbowl 0.0
kraken 0.0
discontinue 0.0
cypress 0.0
schooling 0.0
maritime 0.0
narration 0.0
zeitgeist 0.0
sampler 0.0
pseudo 0.0
bangladesh 0.0
hungary 0.0
mumble 0.0
sisterhood 0.0
soulful 0.0
lennykravitz 0.0
londontown 0.0
andradaymusic 0.0
lipsticks 0.0
realization 0.0
unconditionally 0.0
wildfire 0.0
goldie 9.7285417588e-05
minnie 0.0
solitude 0.0
waddle 0.0
westworldhbo 0.0
statuesque 0.0
uncasville 0.0
demented 0.00019158679031
skyway 0.0
twentyonepilots 0.0
rejoicing 0.0
clenching 0.0
adelphia 0.0
entirety 0.0
redhourben 0.0
lakewood 0.0
drjillstein 0.0
entail 0.0
whammy 0.0
smokers 0.0
gobble 0.0
topshop 0.0
cleowade 0.0
mkives 0.0
sweetbabayjamie 0.0
marchesafashion 0.0
hamsters 0.0
gurrrl 0.0
sofifii 0.0
sumthin 0.0
nicomiz 0.0
maisonvalentino 0.0
coziest 0.0
accessorize 0.0
thejgold 0.0
peruvian 0.0
amazeballs 0.0
sendin 0.0
fantabulous 0.0
timelines 0.0
regina 0.0
slovakia 0.0
graves 0.000161005941683
embracing 0.0
larsson 0.0
cullen 0.0
psychiatric 0.0
officialadele 0.0
butters 0.0
verrrry 0.0
buttered 0.0
winged 0.0
pedialyte 0.0
topanga 0.0
armpit 0.0
kittens 0.0
dueling 0.0
eagerly 0.0
surrealist 0.0
dethroned 0.0
manolos 0.0
señorita 0.0
monterrey 0.0
parque 0.0
retiree 0.0
batches 0.0
reservations 0.0
sickos 0.0
aplusk 0.0
kirkherbstreit 0.0
fanbases 0.0
indexing 0.0
chuckles 0.0
incorporated 0.0
washboard 0.0
earbuds 0.0
pantone 0.0
knotts 0.0
dismaland 0.0
pollock 0.0
iamkidpresident 0.0
mariah 0.0
teevee 0.0
santorini 0.0
appalachian 0.0
sunburnt 0.0
caliente 0.0
juicery 0.0
karlihenriquez 0.0
trillest 0.0
tommorrow 0.0
crumpets 0.0
fishin 0.0
grillin 0.0
jambalaya 0.0
pepperoni 0.0
cashew 0.0
graceland 0.0
pussies 0.0
delicately 0.0
eraser 0.0
choreo 0.0
snatched 0.0
elliptical 0.0
mooore 0.0
unborn 0.0
georgina 0.0
stalkers 0.0
sallykohn 0.0
expectancy 0.0
phillipines 0.0
appstoregames 0.0
wilkinson 0.0
puddings 0.0
loveland 0.0
spaced 0.0
shanny 0.0
dripping 0.0
gerber 0.0
shakey 0.0
weaves 0.0
unbeatable 0.0
linguist 0.0
prosthetics 0.0
battleship 0.0
serotonin 0.0
machiavellian 0.0
girlies 0.0
guangzhou 0.0
debuting 0.0
dissecting 0.0
warped 0.0
luckyjess 0.0
ermahgerd 0.0
fabulousness 0.0
elliegoulding 0.0
activewear 0.0
yelyahwilliams 0.0
prismatic 0.0
evaluations 0.0
skywalk 0.0
sparklers 0.0
palettes 0.0
gemmaanningram 0.0
trueeee 0.0
invisalign 0.0
pounded 0.0
lolgop 0.0
procession 0.0
stanning 0.0
squeals 0.0
continual 0.0
luminary 0.0
cummin 0.0
shaves 0.0
epixhd 0.0
preacher 0.0
boogiecousins 0.0
changers 0.0
autismspeaks 0.0
massaged 0.0
psssssst 0.0
literati 0.0
utilization 0.0
endangerment 0.0
purposeful 0.0
unlabeled 0.0
undiagnosed 0.0
snotty 0.0
gallops 0.0
slovenia 0.0
sequin 0.0
akerlund 0.0
jumbotron 0.0
edibles 0.0
knowles 0.0
caeser 0.0
thehollywoodbowl 0.0
elvispresley 0.0
adoring 0.0
ageist 0.000114904818138
thérèse 0.0
confessed 0.0
blackvoices 0.0
patties 0.0
graphically 0.0
wildflowers 0.0
groundhogs 0.0
eataly 0.0
poodles 0.0
hillaryforia 0.0
roadshow 0.0
sweety 0.0
boppin 0.0
bettywho 0.0
johnnywujek 0.0
earring 0.0
itsbennyblanco 0.0
curitiba 0.0
purrfect 0.0
shellback 0.0
chokers 0.0
hairbrush 0.0
hakuna 0.0
matata 0.0
hazing 0.0
mathew 0.0
aegean 0.0
lullaby 0.0
musiciansoncall 0.0
headpiece 0.0
morsel 0.0
whistled 0.0
conquest 0.0
viceland 0.0
lambily 0.0
scalped 0.0
graced 0.0
emblazoned 0.0
hrclosangeles 0.0
kawaii 0.0
glittery 0.000106659091271
wonderlandmag 0.0
jumpsmokers 0.0
radiodotcom 0.0
missyfranklin 0.0
pleaaaaase 0.0
lilbthebasedgod 0.0
waaaay 0.0
flossy 0.0
aria_official 0.0
berliners 0.0
matriarchy 0.0
cornered 0.0
limping 0.0
peasant 0.0
feasibly 0.0
waaaaay 0.0
slayyy 0.0
fashionistas 0.0
sangin 0.0
worldstarfunny 0.0
pliers 0.0
babyanimalpics 0.0
mediation 0.0
quests 0.0
aaaaaaah 0.0
honked 0.0
rauschenberg 0.0
whitneymuseum 0.0
lonsdale 0.0
transcendental 0.0
roarin 0.0
facetune 0.0
fausto 0.0
herning 0.0
cazzette 0.0
annnnnnnnnd 0.0
shinier 0.0
giambattista 0.0
katys_teddybear 0.0
gnight 0.0
katheryn 0.0
psychoanalysis 0.0
bckgrnd 0.0
kingman 0.0
gracevanderwaal 0.0
fecking 0.0
ihrcountdown 0.0
stubbies 0.0
xfactor_italia 0.0
aaronpauley 0.0
purity_ring 0.0
scorpios 0.0
ayyyye 0.0
capitalizes 0.0
flamin 0.0
motherfucking 0.0
jingled 0.0
pharrellhat 0.0
ontarioglow 0.0
teached 0.0
umusic 0.0
auroramusic 0.0
dailymendeslife 0.0
soloing 0.0
universalse 0.0
dustinkloeppel 0.0
robynkonichiwa 0.0
charli 0.0
lonelydot 0.0
adamselman 0.0
sorrenti 0.0
offish 0.0
vinoodh 0.0
guitarists 0.0
cocking 0.0
cabbages 0.0
amelia_libman 0.0
flutter 0.0
lolita 0.0
kingladygaga 0.0
breakthecycledv 0.0
howbow 0.0
curveballs 0.0
tamagotchi 0.0
jarryd 0.0
alliseeisgold 0.0
thebroadmuseum 0.0
sarahsowitty 0.0
brillz 0.0
jackgarratt 0.0
markryden 0.0
duffscakemix 0.0
sanrio 0.0
theniceguyla 0.0
trills 0.0
susangkomen 0.0
faustopuglisi 0.0
gurlll 0.0
cheesecakes 0.0
scorpio 0.0
oblivia 0.0
skipmarley 0.0
correcto 0.0
jessirklein 0.0
unpatr 0.0
squish 0.0
greg_wells 0.0
onlyleah 0.0
gittin 0.0
popstars 0.0
krafts 0.0
bouche 0.0
problemo 0.0
wheezing 0.0
patmcgrathreal 0.0
cienega 0.0
thundering 0.0
nastialiukin 0.0
janell 0.0
katelyntarver 0.0
miamoretti 0.0
missoni 0.0
dannymoonsworld 0.0
mrchrismcmillan 0.0
madge_freak 0.0
woridstarcomedy 0.0
ikissedasoldier 0.0
kpezandchez 0.0
perrysoldier 0.0
emilynotchez 0.0
iickmekaty 0.0
basicallyadam 0.0
katysangelegg 0.0
nicolasjebran 0.0
xchadballx 0.0
scott_myrick 0.0
lockoir 0.0
shannonwoodward 0.0
calluses 0.0
chamomile 0.0
trollin 0.0
sleighing 0.0
chestercheetah 0.0
royksopp 0.0
scottsimonswvla 0.0
sirenscaiiing 0.0
slowdownkaty 0.0
chefantoniopark 0.0
garnished 0.0
endive 0.0
mdmolinari 0.0
prezzy 0.0
motioning 0.0
hernameisbanks 0.0
rockcampla 0.0
jenniefinch 0.0
getglucky 0.0
stendhal 0.0
ryanphillippe 0.0
hotncolds 0.0
kpcollections 0.0
katie_wignall 0.0
katysdrugx 0.0
evrenperry 0.0
katycatwendy 0.0
yungskeeter 0.0
sarahhudsonuvs 0.0
mothern 0.0
oliverheldens 0.0
marrymemargot 0.0
katyperrylately 0.0
kewlest 0.0
katyshellokitty 0.0
pqgerry 0.0
rasarioatelier 0.0
anakhouri 0.0
romaneperry 0.0
hot_chip 0.0
agador 0.0
freddietinkles 0.0
cynthialovely 0.0
augustgettyatelier 0.0
tbsnetworks 0.0
ronyalwin 0.0
justinandersoncolor 0.0
mmillerrider 0.0
jpgaultier 0.0
harharharhar 0.0
iikeanangel 0.0
vonnypoo 0.0
jcoopkp 0.0
itzmero 0.0
katysprismlight 0.0
hatérs 0.0
awkwardaya 0.0
katysredskittle 0.0
tiedye_princess 0.0
adelshahal 0.0
marinadiamandis 0.0
samadizayee 0.0
itsslatykaty 0.0
johnlordperry 0.0
nuggetperry 0.0
kthnkzbye 0.0
teamkpbrasil 0.0
twenagedream 0.0
ashleyegreer 0.0
perryllover 0.0
perry_slays 0.0
_andresgalvis 0.0
poplitics 0.0
likerotica 0.0
sweetxjaureguix 0.0
jessiambriz 0.0
perryncolds 0.0
pwideawake 0.0
brunastrait_ 0.0
anafalqueto 0.0
pessoalmente 0.0
mark_hodson_ 0.0
sumtxkid 0.0
arpoador 0.0
katysmychampion 0.0
amnattg 0.0
osullivanluke 0.0
stephiruth 0.0
katy_pizza_bae 0.0
kpcatt 0.0
pedroeugeniio 0.0
gugs_prismatic 0.0
zeeusmtz 0.0
legendarycold 0.0
robynxkatheryn 0.0
écouter 0.0
energyberlin 0.0
karysjones 0.0
lilzariya 0.0
puroland 0.0
pavlovitz 0.0
dreamhampton 0.0
prismsperry 0.0
perrysmic 0.0
focusonreid 0.0
tonyatalterian 0.0
makeup_man 0.0
wtfkates 0.0
sella_sandra 0.0
katycute_ 0.0
caitsperry 0.0
katyperryforum 0.0
radiantjareau 0.0
lillysgomez 0.0
katycatsweden 0.0
perryicecream 0.0
xamyrosex 0.0
wtvrlara 0.0
bijanstephen 0.0
ameliashowalter 0.0
screamkng 0.0
tvmcgee 0.0
liiife 0.0
itskatcombs 0.0
yaaaaaasssssssssss 0.0
katysmyhabibi 0.0
skottpeace 0.0
ferras 0.0
kweens 0.0
habibi 0.0
orlandobloom 0.0
huckchinn 0.0
katycatkenzie 0.0
matarazzo 0.0
fkatwigor 0.0
perryschild 0.0
hotxcolds 0.0
maddisonxperry 0.0
akaruikaty 0.0
chillinlaidback 0.0
erryone 0.0
chrisanokute 0.0
beyelite 0.0
kuntyewest 0.0
chiroprac 0.0
katyperryrises 0.0
godneybjs 0.0
liquoronurlips 0.0
katystumblrr 0.0
holiestkaty 0.0
hollykittykaty 0.0
katysprincess 0.0
katysdonut 0.0
carlythekatycat 0.0
katycatsophia 0.0
fridaaperry 0.0
iegendarylovers 0.0
katycatveronica 0.0
katyperryslave 0.0
hakimkharbouch 0.0
keonovak 0.0
plaaaaay 0.0
scatting 0.0
shotted 0.0
dizzycoco 0.0
fkinsnapss 0.0
junkygs 0.0
ミニチュア料理 0.0
エビフライとエビ天 0.0
adidasboosts 0.0
lilithia 0.0
cottoncandizzle 0.0
ultimatebeyhive 0.0
paramorewebnews 0.0
royale_lala 0.0
musicnews_feed 0.0
katyperryextra 0.0
greeniight 0.0
gagas_illusion 0.0
lesbiyonce 0.0
blurryhface 0.0
lordofgiraffex 0.0
ifuseekamy_ 0.0
legendarymalek 0.0
hausoframez 0.0
unstan 0.0
chioekardashian 0.0
theiife 0.0
handstomyseif 0.0
legendarylovers 0.0
gagas_fandom 0.0
thinagedream 0.0
conditionalbabe 0.0
dannysuschrist 0.0
prismdluxe 0.0
herwonkeye 0.0
camilasviews 0.0
gagalovesbey 0.0
shadykatyfacts 0.0
limalimoncia 0.0
heavymetaiovers 0.0
katyscrush 0.0
waikingonair 0.0
eduardo_katycat 0.0
katyswetdream 0.0
katherynsgod 0.0
katystddbr 0.0
katyboobies 0.0
royaityler 0.0
nothingfaiis 0.0
kathrynluck_ 0.0
prismaticiights 0.0
mendesperry 0.0
katycatghita 0.0
mark_katycat 0.0
iwasdivine 0.0
skywaterr 0.0
xjojospearsx 0.0
alwaysbeperry 0.0
skoglyrihanna 0.0
legendarydurk 0.0
halseysfirework 0.0
rainbowspatrick 0.0
katysfood 0.0
honeymoonprism 0.0
onepulsetony 0.0
butcha 0.0
okurrr 0.0
the_mpt 0.0
talaofficial 0.0
miniatures 0.0
ohmyjurassic 0.0
katysmoonlight 0.0
lilly_jnes 0.0
coco_ho 0.0
perryhumorr 0.0
yikesjonathan 0.0
rubyrankin 0.0
thealekovski 0.0
cydney_moore 0.0
truebluedeluxe 0.0
thedutchass 0.0
katyskettle 0.0
ferraseu 0.0
katyssunlight 0.0
typosqween 0.0
adoreeeperry 0.0
katyperryfrance 0.0
snowiner 0.0
_coolkatycat 0.0
nicothekatycat 0.0
adorbies 0.0
jackygerardchan 0.0
brewmystew 0.0
katyswildfire 0.0
rihftperry 0.0
theolagu 0.0
ritajoness 0.0
iitsjackie 0.0
mjjperry 0.0
jesuskylie 0.0
holyerotica 0.0
graceofkaty 0.0
redsvelvets 0.0
booyakasha 0.0
tariqterry 0.0
katycatalannah 0.0
taylxre 0.0
pacifyher 0.0
basedkatyperry 0.0
diddleurskittle 0.0
katysanalien 0.0
gagasspace 0.0
tayiorhq 0.0
givenchydress 0.0
augustryder 0.0
perrysmoschino 0.0
kittehn 0.0
katrieber 0.0
legendaryhunty 0.0
katyslegs 0.0
katyfroot 0.0
winesandlines 0.0
sam_incolour 0.0
wakingonair 0.0
drwssinup 0.0
huffdaddysays 0.0
fiwwwwine 0.0
matthewroper 0.0
emmabruhhh 0.0
gingerwesson 0.0
nicholas_sewell 0.0
perfectlyperry 0.0
bustabusta 0.0
mynameisziam 0.0
venuzszfly 0.0
katherynsus 0.0
sacredperry 0.0
thedollsftkaty 0.0
_cafajeff 0.0
debkatycat 0.0
katycats 0.0
eastonjames_ 0.0
oliviabooker_ 0.0
protecti 0.0
outrageousness 0.0
joanneprada 0.0
scuffed 0.0
catoure 0.0
blanged 0.0
tahmorrow 0.0
glukatyperrypop 0.0
jamesjoint 0.0
pressin 0.0
bourree 0.0
honeysuckle 0.0
meowings 0.0
fashun 0.0
happun 0.0
vikander 0.0
thekatyperrypopgame 0.0
karolfabianaros 0.0
nico_thekatycat 0.0
miss_lilyjames 0.0
stylinfunk 0.0
hudsontheband 0.0
jere_my 0.0
crabitat 0.0
tiersz 0.0
unrehearsed 0.0
fanclub_kp 0.0
oneofthesophies 0.0
fusterlandia 0.0
lazyblazy 0.0
katycatchloe 0.0
figali 0.0
prismaticness 0.0
titicaca 0.0
ancientaliens_ 0.0
sneezin 0.0
cristos 0.0
mallman 0.0
prismaticlife_ 0.0
ravensuxx 0.0
perrypositive 0.0
derkwhore 0.0
alekjandro 0.0
havss_ 0.0
hqzaynmaiik 0.0
thique 0.0
bbhmms 0.0
jkatharineb 0.0
jennyformica 0.0
tiiiiiight 0.0
ikissedagay 0.0
harryvuitton 0.0
aeschleahd 0.0
princessjavonda 0.0
errrythang 0.0
kooning 0.0
sugarray 0.0
empaths 0.0
goldenboyz_inc 0.0
voguejp 0.0
chickenwingguardingthemimosa 0.0
katyperrypopup 0.0
unmeasurably 0.0
transviolet 0.0
beauteous 0.0
katyskidrauhl 0.0
thooooooseee 0.0
clairesstores 0.0
nailsbymh 0.0
katysacutie 0.0
psychokatycat 0.0
kaceymusgrave 0.0
refueled 0.0
hyungsunju 0.0
okuurrrr 0.0
cholewheeler 0.0
leftshark 0.0
momchella 0.0
crotches 0.0
hookedondolls 0.0
fyuseapp 0.0
mogonoloball 0.0
atletica 0.0
katycatsclub 0.0
catacombs 0.0
poppycorn 0.0
cupped 0.0
christiania 0.0
residenz 0.0
lindseyweber 0.0
butterballface 0.0
joshlecash 0.0
myassistant 0.0
swiftschrist 0.0
snowhiteperry 0.0
emmakphughes 0.0
katyslegend 0.0
dansnierson 0.0
scressful 0.0
prismaticwitch 0.0
finnin 0.0
habibis 0.0
mophies 0.0
strongé 0.0
drumkit 0.0
anamanaguchi 0.0
gaultier 0.0
ngvmelbourne 0.0
dukedumont 0.0
legendaryasmyn 0.0
highlarious 0.0
calpurnia 0.0
waaaaait 0.0
mktfah 0.0
fwding 0.0
caseyhoops 0.0
worldstarvlne 0.0
flapfkp 0.0
bettycrocker 0.0
mexxxico 0.0
whhhhhhhhuuuuuutttt 0.0
yelletweets 0.0
gucciqxxn 0.0
luckyladyrebelettes 0.0
junglejulia 0.0
charlottes_web 0.0
istarbucksniall 0.0
katysroaaar 0.0
fiorucci 0.0
whuteva 0.0
sirdavidd 0.0
fudgery 0.0
bizquick 0.0
itsgrandtheft 0.0
grandtheft 0.0
katysfancy 0.0
ameezyyrush 0.0
mykectown 0.0
itsvalkubus 0.0
walkslikeperry 0.0
iwantperry 0.0
exausto 0.0
selfeh 0.0
aquaberry 0.0
sidepiece 0.0
versacness 0.0
iamleslii 0.0
alocalgyro 0.0
cutina 0.0
theoutslder 0.0
prism_katy_cat 0.0
katyshoodrat 0.0
thestevetisch 0.0
ronysphotobooth 0.0
schlitterbahn 0.0
kpsnosecrinkle 0.0
alwz_katycat 0.0
whykph 0.0
californiagurls 0.0
katycattt 0.0
varicose 0.0
itsbrillz 0.0
perrystiger 0.0
katysmyaura 0.0
paolablancokp 0.0
callmemargot 0.0
indiggynado 0.0
katycat 0.0
anylinden 0.0
kpkillerqueen 0.0
katyslilacwine 0.0
katypvenezuela 0.0
franzikaty 0.0
katherynelperry 0.0
doessss 0.0
katysleftarm 0.0
datingprism 0.0
_smiler_katycat 0.0
kepyterry 0.0
katycat_camille 0.0
vckatyperry 0.0
bowzerjoe 0.0
taishrox 0.0
mütter 0.0
arianperryarian 0.0
lisasigh 0.0
fridiskp 0.0
kevinruda 0.0
katyperrydaily 0.0
wakingupvegas 0.0
marlyins 0.0
drankin 0.0
herkatycat 0.0
luvhudson 0.0
yaeltsairi 0.0
felipinhoofm_ 0.0
renanmarcall 0.0
kariseperry 0.0
emojing 0.0
konnie 0.0
mcperry 0.0
iturnmycanonon 0.0
katycatelysha 0.0
andrewnavs 0.0
katycatkrystal 0.0
lovelyandlaugh 0.0
lampoonians 0.0
perrytuuda 0.0
katymyhaven 0.0
ruletheschool 0.0
cheapandchic 0.0
sically 0.0
crazyforperry 0.0
kpdaily 0.0
getonupmovie 0.0
cutetina 0.0
chimiuzz 0.0
kefali 0.0
joelkefali 0.0
siclly 0.0
mtvother 0.0
lydiaacav 0.0
prismaticperry 0.0
jwujek 0.0
adorbie 0.0
errone 0.0
kaliyah 0.0
katysweirdness 0.0
vinbiodiesel 0.0
katysfxb 0.0
katyspurrfect_ 0.0
shannonmwoodward 0.0
bippity 0.0
boppity 0.0
swiggty 0.0
swoogity 0.0
pizzarella 0.0
firewerk 0.0
katyslayed 0.0
emerald_epelman 0.0
madkatydisease 0.0
mandee 0.0
ohferras 0.0
sarahh 0.0
iaustinhunt 0.0
lanawhore 0.0
spaceykacey 0.0
crazay 0.0
elektrikpeople 0.0
visa_nz 0.0
fvckin 0.0
nathanspicer 0.0
cashcash 0.0
ashish_uk 0.0
xokatic 0.0
turnting 0.0
scorpiomystique 0.0
toddthomasnyc 0.0
kohngallery 0.0
discnt_universe 0.0
dressinkaty 0.0
lee_cook 0.0
bloodshot 0.0
yaddlizc 0.0
elnett 0.0
itsthekatycats 0.0
kelly_moritz 0.0
katyslaykaty 0.0
skintxghtjeans 0.0
socarrer 0.0
errrday 0.0
therealslacker 0.0
wendywild 0.0
welkys 0.0
sohohouse 0.0
selfing 0.0
camiilaruales 0.0
nexxxt 0.0
turrell 0.0
alliexxxxandra 0.0
surfboardt 0.0
telstra_news 0.0
juanitadele 0.0
oopskatycat 0.0
sophkatycat 0.0
katyschild 0.0
katysconverrse 0.0
katycat_leah 0.0
katycatverified 0.0
katycat_libby 0.0
katyswonk 0.0
kittless 0.0
jlrcukp 0.0
siiiiiiiiiiiiii 0.0
ermagherd 0.0
imlynsey 0.0
perrys_cherry 0.0
casemcgase 0.0
hazzaily 0.0
herses 0.0
gaypropaganda 0.0
tixforcharity 0.0
hudsons 0.0
nomers 0.0
mommacat 0.0
superlove 0.0
bonacorso 0.0
levi_leet 0.0
thinkingofbecki 0.0
cybering 0.0
pamyurin 0.0
idreamofkaty 0.0
xfactor_au 0.0
glohudsonperry 0.0
aubreyplzza 0.0
eeshhuhhayniac 0.0
bonkay 0.0
katysbum 0.0
nevillebradley 0.0
curryswift 0.0
zinepack 0.0
katykatt_suraya 0.0
sweetkatybird 0.0
yohkatheryn 0.0
cottoncandykaty 0.0
karolynadiaz 0.0
maayansharvit 0.0
theprismcess 0.0
camisp_ 0.0
lucasgaldin 0.0
prixy_mtz 0.0
niggasperry 0.0
kaksperry 0.0
zennnnaaa 0.0
katyissmurfy 0.0
dadehoward 0.0
kyledsaavedra 0.0
katysdoritos 0.0
pendejabardera 0.0
rosenilsou 0.0
hackensucks 0.0
gottabesheerio 0.0
ismaellgarcia 0.0
milegendz 0.0
alexskarev 0.0
ladycrystalb 0.0
katyspad 0.0
xcallmechrissyx 0.0
arianastylesss 0.0
jorgebaker 0.0
matty_zee 0.0
katycatzilla 0.0
adorie 0.0
meowwdison 0.0
alvin_koopa 0.0
lexyauditore 0.0
kease_it_raw 0.0
katysking 0.0
chris__kirby 0.0
katysbestfrwend 0.0
katyslildancer 0.0
sssshhh 0.0
conorhughess 0.0
tanimura 0.0
thekatycatlife 0.0
weefififookface 0.0
breakalioz 0.0
hudsonhelper 0.0
lariitaa 0.0
meeeeeooooooooowwwww 0.0
legend__dary 0.0
katyandliam 0.0
_theatrekid 0.0
babybritney 0.0
erinlorimer 0.0
_zacmoore_ 0.0
itscezzurryo 0.0
katycatskp 0.0
larissafilipo 0.0
siaylorswift 0.0
shitkittens 0.0
thefrankradical 0.0
katysprism 0.0
katytinalevine 0.0
serjeeoh 0.0
kayz_perry 0.0
katyslaysurfav 0.0
fuckyeahitskath 0.0
sweetyitosan 0.0
pickerington 0.0
verrado 0.0
retweete 0.0
jameswaterhouse 0.0
hunnah 0.0
truth_ispeak 0.0
_emilybarbarrr 0.0
nbllrrr 0.0
jmoneygraves 0.0
eaglenationnews 0.0
tauentzienstrasse 0.0
avontbh 0.0
vinnie_mate 0.0
demilovve 0.0
coolestkatycat 0.0
terri_katycat 0.0
beeeaaatttt 0.0
laurenfrancisco 0.0
victaytayp 0.0
aylajaye 0.0
iloveu 0.0
augustvaz 0.0
lizzievang_ 0.0
edsssss_ 0.0
hhhhhholly 0.0
holly_hickin 0.0
trixxx 0.0
killah 0.0
treasurefingers 0.0
最強ガール宣言 0.0
voykovic 0.0
annunaki 0.0
katyshomie_ 0.0
katyselephant 0.0
caitlynsmith 0.0
lightsperry 0.0
elizagilham 0.0
ohmyjatyfeels 0.0
junglescope 0.0
drunkskaty 0.0
malikpom 0.0
dancerlaurena 0.0
brirad 0.0
elisa_rv 0.0
moooom 0.0
pattymeagher 0.0
iwasemily 0.0
shahrzadphoto 0.0
tvjohnny 0.0
cstonethebreadwinner 0.0
katysrightboob 0.0
cyberdlck 0.0
beatforkaty 0.0
igabriiel 0.0
duuuuddddeeeee 0.0
redrum 0.0
srbuhiii 0.0
kayleighcat 0.0
applekatycat 0.0
ikatycats 0.0
wehryspencer 0.0
emilyjonesphoto 0.0
coxgabe 0.0
drugmoneyx 0.0
steven_drum 0.0
victoriacha 0.0
hashtaggin 0.0
perryandemetria 0.0
katycatfurlife 0.0
iammelissalynn 0.0
qewtie 0.0
yscheecat 0.0
slayty 0.0
katystree 0.0
katherynsboy 0.0
anapurry 0.0
nenedez 0.0
kevinn_perry 0.0
gloria_swag_ 0.0
andyamaziing 0.0
roarsana 0.0
brighthudson 0.0
fixingperry 0.0
roooooooooooooar 0.0
gretschusa 0.0
katys_cupcake 0.0
wonderation 0.0
kasek_craig 0.0
katysgurll 0.0
pepperperry_ 0.0
teamkatyperry 0.0
meandnutella 0.0
lovatokitten 0.0
katyslolly 0.0
astixxx 0.0
ravemomentz 0.0
erzaabrianto 0.0
katyperryindo 0.0
seeingdaisies 0.0
gillian_e_dubbs 0.0
samanthachazene 0.0
perryprism_ 0.0
katycompletesme 0.0
ltskatyperry 0.0
kittenscks 0.0
nihanofficial 0.0
momcat 0.0
kaytehperreh 0.0
__grazi 0.0
clairekatycat 0.0
fangurl 0.0
rrrrrrrrrrrroooooooooooooaaaaaaaaaaaaar 0.0
marispiva 0.0
mattdrobins 0.0
deihemmings 0.0
rooaaarr 0.0
katycatobsessed 0.0
katycatnick 0.0
tigerkats 0.0
kristenanzelc 0.0
taylermckellop 0.0
essesfadaperry 0.0
imjare 0.0
smganonymous 0.0
roaaaar 0.0
phuckyotweet 0.0
evvvvvverrrr 0.0
melvynmarrero 0.0
zouisashton 0.0
trillneyspears 0.0
rooooooar 0.0
fanwars 0.0
fentyncold 0.0
ttish_ 0.0
rachelacogan 0.0
makesmariana 0.0
kkaplon 0.0
rafaelmoncada 0.0
yaaaassssgrl 0.0
oioianna 0.0
katycatrazan 0.0
megaan_katycat 0.0
thekaelynn 0.0
hannahloupunton 0.0
thumbelinafairy 0.0
nic_kathryn 0.0
dannahfields 0.0
rodneybroaddus 0.0
noxisanasshole 0.0
soedesh__ 0.0
hookerofversace 0.0
thinkingofkaty_ 0.0
msgracevalerie 0.0
francfernandez 0.0
katysring 0.0
a_little_spark 0.0
laaxiss 0.0
