awesome 0.000185490232433
christmas 3.08312506805e-05
trying 0.000500809064529
launch 0.0
moment 0.000475543252462
wonderful 3.1252765134e-05
seeing 0.000228664923896
hanging 0.0
sounds 0.000118736946217
recommend 0.000165647740349
worked 9.0265258142e-05
direct 0.0
others 0.000119704133317
currently 0.000132388767088
better 0.000880779388287
please 0.000306876090571
social 0.0
anxiety 0.0
around 0.000302767914724
people 0.000578011473563
morning 8.30194096449e-05
traditional 5.28189578858e-05
general 0.000106998279894
damage 0.000136108812661
everything 0.000304404502031
twitter 0.000305226125099
present 3.15088075002e-05
though 0.000835646307415
friend 0.000139113629036
watched 0.000125011060536
beautiful 0.000285061242315
anything 0.000253119290426
previous 4.37176471611e-05
helped 9.10014270685e-05
updated 0.000307903257147
thinking 0.000113105737017
finally 0.000311040776796
caught 3.11679442475e-05
believe 0.000689966142213
already 0.000220789165508
couple 0.000211762384072
orlando 0.0
chance 0.000193711955838
meaning 4.09247656282e-05
growing 9.95645443829e-05
probably 0.000330078172612
password 0.0
changed 0.000325645181052
history 0.00057012248463
center 0.00025389733984
museum 0.0
behind 0.000110097423536
screaming 0.0
pretty 0.00053725225083
really 0.00121761800812
little 0.000331183748262
happiest 0.0
earlier 0.000485698561823
forget 0.000308535096994
someone 0.00025108043774
safety 0.0
program 7.69993396826e-05
things 0.000633060185331
related 0.000122053130138
visiting 0.0
available 8.62132413196e-05
perfect 0.000115261559643
different 0.000253119290426
search 0.0
connect 0.0
numbers 3.45904043111e-05
person 0.000166486977327
watching 0.000639922693565
exhibit 6.53127444636e-05
passed 6.74810564162e-05
prefer 0.0
minutes 0.000743161002662
travel 0.0
outside 0.000146429515891
looking 0.000331183748262
forward 0.000113717390943
agreed 0.000853274956003
raising 0.0
listened 4.38515858969e-05
afraid 7.15320006513e-05
impression 0.000152537051199
christian 0.000194091900463
profile 3.78442970728e-05
instant 0.000170444997578
drawing 4.93301988309e-05
wheels 0.0
favorite 0.000385388019308
picture 0.000117778181752
instead 0.00012467177699
appreciate 0.000260459849816
international 0.0
station 0.0
toddler 0.0
market 0.000186549133836
couldn 0.000403415458752
remember 0.000415097048224
vintage 6.30646092701e-05
holidays 0.0
friends 0.000306049983879
everyone 0.000442770184773
florida 8.16086174725e-05
always 0.000798206320635
months 0.000260039271201
moving 0.000208352197859
meeting 0.00011341113922
answer 0.000311880632854
sweetie 0.0
together 0.000221982636436
inside 8.64461697326e-05
section 4.25406545265e-05
missed 0.000252437806631
button 0.0
longer 9.58227296204e-05
enough 0.000167838794986
driving 3.38336733254e-05
building 0.000155416919739
enjoying 3.38336733254e-05
london 0.00019749665898
exploring 0.0
posting 4.15350867732e-05
amazing 0.000883156662033
attention 0.000125351392874
gordon 5.49447009918e-05
progress 7.67787032679e-05
tomorrow 0.000885540369545
george 6.87985243652e-05
feeling 0.000115885342749
excited 0.000404505532979
understand 0.000301699730874
following 0.000174297846973
asleep 5.10193395512e-05
learning 0.0
evening 3.16808352845e-05
special 0.000446365222648
secret 0.0
across 0.0
surprised 0.000231045513192
anymore 7.05401051354e-05
sophia 0.0
precious 0.0
rejoice 0.0
version 9.17442182931e-05
rather 0.000124333535792
avatar 0.0
showing 0.000118096843114
saying 0.000375612280624
tweeted 7.31571729012e-05
thoughts 0.000146825550062
exactly 0.000239408266634
except 3.52700525677e-05
getting 0.000470443321321
nothing 0.0008025209599
tweets 3.04986260176e-05
course 0.000428746732305
photos 0.000100388907978
looked 0.000282808756141
difficult 0.0
stages 0.000135521933447
office 5.98520666585e-05
decisions 0.0
brought 0.000122657743567
biggest 0.000199542869621
thrilled 8.43184971459e-05
something 0.000857867232997
closing 4.11672725351e-05
anyone 0.000278978264155
taking 0.000276731365483
recently 0.000395635998174
interesting 0.000400806258847
original 0.00026188969151
flying 0.000104348649326
happening 0.000211189811612
sometimes 0.000213490382123
lessons 4.00924322664e-05
village 0.0
stopped 0.000162342747333
yesterday 0.00055795652831
service 3.0416094154e-05
serious 0.000148020536842
digital 0.0
hoarder 0.0
wearing 0.000162342747333
british 0.0
either 0.000181019838524
second 0.000390569569817
checking 0.0
indeed 0.00015094627806
island 3.91710288776e-05
hearing 0.000185490232433
choose 0.000162787406135
staying 0.000149663575122
another 0.000551972913771
clothes 0.0
slowly 0.000200647254502
weekend 0.000532924258444
hashtag 0.0
delivery 5.06731166731e-05
theory 4.53696042203e-05
working 0.000276731365483
bigger 0.0001948112968
screen 0.0
riding 9.57876391771e-05
laughing 9.84780409749e-05
wanted 0.000391623854968
trends 0.0
stripes 0.0
clothing 0.0
current 0.000163233506297
adorable 0.0
grateful 3.61692948065e-05
friendship 5.41525785295e-05
family 0.00016603881929
listening 0.000121335236091
stream 7.61220508086e-05
expressions 0.0
wedding 8.40665575218e-05
sharing 6.51149624541e-05
double 9.40135446552e-05
especially 0.000153322179459
middle 0.000158836270276
waiting 0.00017011670883
definitely 9.07553074596e-05
walking 6.63763629219e-05
account 6.49370989334e-05
completely 6.56520273166e-05
thought 0.000585854354726
reaction 7.56885941456e-05
accept 3.53685297958e-05
simple 6.44069306772e-05
professional 0.000123137256008
friendly 0.0
supposed 7.35710749396e-05
business 0.00017907118895
absolutely 0.000266436966315
anywhere 0.0
sending 6.42313365514e-05
introducing 4.4393955286e-05
congrats 0.000406694976269
beauty 7.92557502954e-05
community 0.000102345045052
greatest 0.000181510614919
selfie 4.14119350873e-05
posted 0.000130944845755
saturday 0.000116827694495
wednesday 0.000200226409317
confused 0.0
expression 0.0
chicago 3.76292619488e-05
closest 0.0
relationship 0.000186020834609
actually 0.000850583544148
easter 0.0
basket 0.0
myself 7.25420970971e-05
argument 4.26689734343e-05
school 8.43730968086e-05
thursday 0.000207228751578
selling 7.56885941456e-05
talented 0.000109119539569
celebrate 6.11628121954e-05
falcon 0.0
celebrating 3.30065018846e-05
contest 0.0
experiences 0.0
students 3.66818674569e-05
internet 6.87985243652e-05
figure 6.61943835438e-05
opened 8.08921382247e-05
featuring 0.0
inspired 0.0
sitting 0.000250022121072
playing 0.000140621828014
street 0.0
points 0.0
memory 7.65589476397e-05
forever 0.00015626382567
imagine 0.000154156253403
problem 5.93684731083e-05
played 9.27451162164e-05
canadian 0.000286432514308
pulling 4.7127074859e-05
keeping 3.09150387388e-05
lovely 6.95657662173e-05
dressed 8.93384022772e-05
specifically 0.000219778803967
unlike 5.11940979534e-05
disappointed 8.33175839034e-05
otherwise 0.000196422657685
afternoon 0.0
planned 7.94865628422e-05
strange 8.50813090529e-05
images 0.0
noticed 4.38515858969e-05
notice 0.000150089484448
stretch 0.000102038679102
inspiration 0.0
letting 0.000102062743691
system 3.45904043111e-05
possibility 0.0
almost 0.000276731365483
details 9.07553074596e-05
experience 0.000115573009423
living 0.0
weather 0.0
normal 7.41978222611e-05
launching 0.0
before 0.000180042639606
captured 0.0
colors 5.3193444695e-05
monday 5.77865047113e-05
example 0.000109735759352
realize 0.000158973125684
autographed 0.0
sleeping 0.0
authentic 6.84086285086e-05
science 3.90579923496e-05
tweeting 3.15946869954e-05
forgot 0.000104059426376
chasing 0.0
gorgeous 0.0
herself 0.0
happens 0.000200622258949
silence 4.35843570417e-05
learned 0.000128112601509
congratulations 3.04986260176e-05
natural 7.85690630739e-05
raised 0.0
babies 0.0
mission 0.0
smelled 0.0
ironic 6.14913607458e-05
testing 0.000242614875579
deleted 0.0
barely 0.0
unforgettable 0.0
forgotten 0.0
trouble 6.84188765724e-05
fantastic 6.52934025188e-05
loving 6.52934025188e-05
complete 0.0
nearly 0.0
spirit 3.58662713141e-05
launched 0.0
finding 6.76673466507e-05
mercury 0.0
stories 5.98520666585e-05
including 9.22431507335e-05
mature 0.0
stuffed 0.0
ancient 0.0
bottle 0.0
somewhere 0.000108203747546
wouldn 0.000417832774218
choice 0.0
conversation 6.72953944805e-05
making 0.000248387811197
expect 0.000365069996071
occasions 0.0
subject 9.27622233972e-05
flights 0.0
location 4.34517092867e-05
vacation 0.0
seriously 0.000122325624391
spending 0.0
groups 0.0
childhood 0.0
modern 3.98591736171e-05
welcome 0.000307704457475
moments 0.000240794835278
degrees 0.0
jacket 0.0
halloween 0.0
costume 0.0
totally 0.000127763639494
laughed 5.24494978971e-05
flight 3.3188181461e-05
kidding 0.000216598488672
regular 8.20915040055e-05
context 9.33541507324e-05
running 2.90496411621e-05
finished 0.000132388767088
strong 0.000114024496926
tracking 0.0
respond 4.17830556205e-05
message 5.87302200249e-05
coming 0.00110394582754
thankful 8.71687140833e-05
cheese 4.38515858969e-05
greens 0.0
issues 0.000165032509423
intolerance 0.0
happen 0.000535805603264
giving 0.000195811927484
turkey 0.0
excellent 0.0
limits 0.0
common 0.0
pressed 0.0
situation 0.000253185063645
options 0.000215941581557
health 0.0
insurance 0.0
change 8.30194096449e-05
singing 7.39881126294e-05
august 3.90579923496e-05
crying 0.000174337428167
mental 8.23345450703e-05
happened 0.000611691571011
demand 0.0
generally 0.0
personal 6.01768387613e-05
beyond 9.27451162164e-05
bruised 0.0
question 8.48293027627e-05
chicken 7.94865628422e-05
reward 0.0
tunnel 0.0
losing 0.000102345045052
respect 0.000816797767136
caption 0.0
shouldn 6.61943835438e-05
visited 8.69034185734e-05
reason 0.000174769020289
simply 6.91808086221e-05
darlin 0.0
audience 3.82794738198e-05
involved 9.66103960158e-05
unhappy 0.00026851278017
reality 3.291610983e-05
extremely 0.000120629421289
without 5.5795652831e-05
falling 4.08043087362e-05
countdown 0.0
locations 0.0
timing 0.000245834245292
crabby 0.0
classic 0.000135708538902
highly 0.00019699252094
online 5.95291993882e-05
finger 0.0
animals 0.0
planets 0.0
called 0.000278227258072
delicious 0.0
almond 0.0
compliment 5.53494782262e-05
pictures 0.0
camera 0.000108507884419
pillow 0.0
checked 0.000157138126148
heading 3.291610983e-05
theater 0.0
paying 3.59669089249e-05
planning 0.000107900726775
complex 0.0
sunday 8.5749346461e-05
nights 0.000122412926209
descending 0.0
traffic 4.15350867732e-05
opposite 9.07392084406e-05
through 0.0
lookout 0.0
reached 0.000205228760014
harder 0.0
random 0.000161310738414
changes 3.42094382862e-05
speaking 0.000316808352845
recorded 0.0
washed 0.0
november 3.70989111306e-05
answered 8.74352943223e-05
enchanted 0.0
number 8.50583544148e-05
adventures 0.0
eclipse 0.0
chocolate 0.0
unless 6.82300300346e-05
calling 5.80992823242e-05
mermaid 0.0
distraction 0.0
levels 4.25406545265e-05
option 8.01848645327e-05
shopping 0.0
former 0.000556526129738
actual 0.000110356612409
covers 0.0
mountain 0.0
friday 0.00022438916145
winner 0.000368972602934
closes 0.0
quality 3.57660003257e-05
father 6.30176150005e-05
wishes 0.000108203747546
hourly 0.0
matter 0.000267158128987
themselves 0.0
usually 0.000221337596584
period 0.0
parents 6.63763629219e-05
balance 0.0
publishing 0.0
mobile 0.000137829147128
woohoo 0.0
bracelets 0.0
summer 0.00017907118895
reminded 0.0
impressed 0.000251447297071
necklace 0.0
shutdown 0.0
dinner 0.0
single 2.85061242315e-05
packed 4.53696042203e-05
definition 0.0
energy 3.291610983e-05
preview 0.000236391025128
monster 0.0
material 0.0
admission 0.0
europe 3.82794738198e-05
holiday 6.37078900232e-05
emotional 0.000239155041702
update 0.000161457716763
customers 0.0
messing 0.0
holding 0.000130944845755
electric 0.0
eating 6.91808086221e-05
outfit 0.000170444997578
picked 6.8989334649e-05
fabulous 0.0
missing 5.9048421557e-05
surprise 5.92082147367e-05
officially 0.000548956236994
french 0.000142266190395
global 7.39881126294e-05
follow 0.000166936354843
opinion 3.60679158488e-05
backwards 0.0
design 0.0
secrets 0.0
request 0.0
breaks 0.000182378457712
allows 0.0
promoting 9.51691078184e-05
volunteer 0.0
wondering 3.76292619488e-05
official 0.000543079194253
sweater 0.0
jersey 4.65286957299e-05
mistake 3.82794738198e-05
france 0.0
proper 4.39861795924e-05
ginger 0.0
peaceful 0.0
lighter 0.0
thinks 0.000355206976879
competition 7.48317875608e-05
hospital 0.000524259899845
industry 3.90579923496e-05
trending 0.000183194255613
leadership 0.0
organized 0.0
showed 0.000173914415543
circle 4.90044630069e-05
success 3.1252765134e-05
ladies 3.79524479227e-05
dreams 3.63731798564e-05
protect 0.0
onesie 0.0
explanation 4.94945238317e-05
control 6.18300774776e-05
coincidence 0.000116725922429
discovering 0.0
laying 0.0
invited 0.0
healthy 0.0
surgery 0.000415235546688
allowing 0.0
arrived 3.34629693261e-05
opening 9.0265258142e-05
popular 0.0
pleasure 0.00027749180367
spectacular 5.05016248044e-05
animal 0.0
luggage 0.0
wonder 0.000300071066011
matters 0.0
reader 0.0
function 0.0
marketing 0.000114061755201
connection 0.0
improves 0.000147645905307
benefit 0.0
continues 0.000134962112832
cuddle 0.0
routine 0.0
exciting 0.000165940907305
corner 0.000316103605912
imagination 0.0
sangria 0.0
mystery 0.0
spring 3.53685297958e-05
beautifully 0.0
places 0.0
feedback 0.0
continue 9.58227296204e-05
attend 8.33175839034e-05
creative 0.000156231969398
memories 3.78442970728e-05
female 0.000110668798292
grandma 0.0
closer 0.000104059426376
accent 6.0490364765e-05
beginning 0.000104348649326
sooner 0.000109889401984
everywhere 9.90195056539e-05
scenes 3.52700525677e-05
bought 0.000101501019976
wishing 0.0
discovered 0.0
remove 0.0
predict 0.0
parrot 0.0
several 3.98591736171e-05
teacher 4.1289331963e-05
passing 0.0
become 0.000231146018845
spread 0.0
netflix 0.0
season 0.000182991756106
putting 0.00014524820581
weight 0.00176535992024
outfits 0.0
notification 0.0
annoying 5.41525785295e-05
necessity 0.0
knocks 0.0
processed 0.0
necessarily 0.000121474443259
effects 0.0
lighting 0.0
headed 3.65785864506e-05
returns 0.000185494555653
expected 0.000317023001181
bucket 0.0
constantly 0.0
sweetest 0.0
struggling 0.0
register 0.0
transition 5.35730970022e-05
flowers 0.0
sprain 0.0
savage 0.0
somebody 0.0
covering 8.55957867394e-05
gloves 0.000255545171408
repeat 3.86104319863e-05
managers 0.0
brothers 4.24129310681e-05
patriots 0.000120006390612
seahawks 0.0
player 0.000154441727945
chemistry 6.0490364765e-05
moonlight 0.0
comment 0.00017833046649
columbia 0.0
physical 0.0
kingdom 0.0
pretend 0.0
charles 0.000399545597574
fighting 0.00119733468501
rooting 5.53494782262e-05
donald 0.0
mexico 0.0
police 0.0
represent 0.0
president 0.000122990867645
talking 0.00108216535262
unbelievable 0.00017594471837
shrimp 0.0
giants 0.0
conference 0.000102912559778
america 2.94445454381e-05
everybody 0.000102345045052
houston 0.0
everyday 7.85690630739e-05
michael 0.000593802537546
protecting 0.0
unconditional 0.0
million 0.00014524820581
election 0.0
telling 0.000251385561014
correct 0.00017833046649
pulled 0.000207675433866
starbucks 0.0
americans 0.0
killed 3.08312506805e-05
cowboys 0.0
cowboy 0.000274953061812
coverage 0.000150089484448
dallas 0.000182619333034
coffee 3.48796296261e-05
timeline 9.48624289653e-05
refuse 0.0
barackobama 0.0
hillary 0.0
clinton 0.0
gatorade 0.0
sharper 0.0
american 0.000176190660075
deserved 4.22857975586e-05
realist 0.0
illegal 9.21765932808e-05
arizona 0.0
waffle 0.0
scared 8.1129930006e-05
pieces 4.09247656282e-05
taught 0.0
golden 0.0
straight 0.000183986615351
massage 0.0
filter 0.0
answers 0.000106998279894
smoking 0.0
created 0.0
beside 0.0
worlds 5.22666111387e-05
record 0.00020225276649
freddie 0.000509898711525
africa 0.0
recruiting 0.0
journey 3.59669089249e-05
snapchat 0.0
brother 0.000236183697457
prayers 4.33196977344e-05
trolling 0.0
hungry 0.0
nflnetwork 0.0
documentary 0.0
boston 3.9975555845e-05
addition 0.00057847919671
church 0.0
honestly 0.000316103605912
lounge 0.0
lifetime 0.0
captain 4.69762560932e-05
favorites 0.0
country 8.5749346461e-05
valley 0.0
huddle 0.0
dressing 0.0
finish 0.000306188231073
favourite 0.0
prayer 6.12376782506e-05
nominated 0.0
praying 0.0
insane 0.0
national 0.000119704133317
reform 0.0
shooting 6.91808086221e-05
australia 0.0
deserve 0.0
legend 0.000405785593738
mother 9.24937520416e-05
realest 0.0
creating 0.0
powerful 0.0
chilling 0.0
wisdom 9.33541507324e-05
breaking 0.000327410596635
parked 0.0
angeles 0.0
dollars 9.27622233972e-05
questions 0.000311880632854
racist 0.0
girlfriend 0.0
performance 0.00022419705264
refreshing 0.0
educated 0.0
reading 8.80953300374e-05
denver 0.0
videos 3.56660932981e-05
harmony 0.0
create 6.40563007544e-05
jordan 0.000192826398903
admire 5.11940979534e-05
nobody 0.000101781404176
government 0.0
politics 3.91710288776e-05
paradise 0.0
recover 6.25301389644e-05
spotted 0.0
blessing 0.000117182760833
coolest 9.80089260138e-05
banana 5.90539855226e-05
donate 0.0
sandwich 5.13699730303e-05
lookin 6.02457022128e-05
method 0.0
bullshit 5.30055644032e-05
slight 0.0
bringing 0.0
deserves 0.000294284299758
regret 9.73650740921e-05
celebs 0.0
victim 0.0
stadium 4.68262592322e-05
funniest 0.0
according 0.000550228011853
pumped 5.51463455265e-05
hamburger 0.0
heaven 0.0
honest 0.000171996310913
rolling 0.00012460526032
became 0.000103771212933
feature 3.79524479227e-05
waking 5.35730970022e-05
breakfast 0.0
counting 3.92845315369e-05
signing 0.000362710485485
adding 8.77031717938e-05
awareness 0.0
kindest 0.0
trainer 7.08035606148e-05
facebook 2.96041073684e-05
insanity 0.0
repost 0.0
brazilian 0.000143794775127
campaign 3.21156682757e-05
borrow 0.0
scorpion 0.0
popcorn 0.0
factory 0.0
teenage 0.0
endorsement 0.0
williams 4.41214346846e-05
custom 0.0
drinks 0.0
future 0.000313567366547
angels 0.0
fingers 0.0
sister 7.44083338437e-05
earrings 0.0
warrior 5.88217110988e-05
dancing 3.88333024824e-05
voting 0.0
individuals 0.0
presence 0.0
commercial 0.000189762239614
chopped 0.0
religion 0.0
century 0.0
submit 0.0
serving 4.75845539092e-05
because 7.97183472342e-05
aggressive 5.51463455265e-05
sensitive 0.0
smiling 9.76860587436e-05
besides 0.0
cleveland 0.0
hometown 9.89890476634e-05
killing 7.05401051354e-05
breath 0.0
phillips 0.0
instagram 0.000115168054902
sharks 0.0
cousin 5.43484822454e-05
honored 0.000307114813072
dedication 0.0
lifting 0.0
lyrical 0.0
talent 3.68895994307e-05
goodnight 0.0
stores 0.0
rushing 0.0
brains 6.09863125229e-05
sandwiches 0.0
drinking 0.0
brazil 0.000248299178877
tattoo 0.000116272844055
ravens 0.0
regardless 4.88430293718e-05
skills 0.000153557406536
cameras 0.0
phones 0.0
california 0.0
seconds 7.39881126294e-05
listen 0.000257248039383
smiled 0.0
kicking 0.000117173977049
homies 0.0
billion 0.0
shades 0.0
shoutout 0.000104533222277
grammy 0.0
guilty 4.68262592322e-05
stevie 7.30364889815e-05
ceiling 0.0
carpet 4.75845539092e-05
grammys 0.0
harvard 0.0
panther 0.0
nelson 0.000592882367739
mandela 0.0
handle 0.000144271663395
sexiest 0.0
promise 0.0
hosting 0.0
hahahaha 0.0
longest 0.000147500547175
tuesday 0.0
locker 0.0
workout 0.00016129471541
ingredient 0.0
leader 0.0
pageant 0.0
character 7.39881126294e-05
idiotic 0.0
mirror 0.0
jackson 0.000178676804554
interview 0.000309368021631
battles 5.72484625745e-05
bleach 0.0
insight 0.000147500547175
obviously 0.000349499722341
replay 0.000122475356501
battle 6.42313365514e-05
stomped 0.0
destroy 0.0
killer 4.20332787609e-05
personally 0.0
winning 8.85726323354e-05
gettin 0.0
japanese 0.0
writing 0.000128112601509
society 0.0
officers 0.0
brooklyn 0.000559680291084
sources 0.000285507323455
incredible 0.000537213566851
poster 0.000131554757691
celebrity 0.0
memorable 5.72484625745e-05
werent 0.0
chased 0.0
minute 0.000218175609733
confession 0.0
pregnant 0.0
cherry 0.0
twinning 0.0
phoenix 5.72484625745e-05
orange 0.0
policy 4.0564965003e-05
comedy 0.0
illuminati 0.0
reminder 0.000166397364703
evidence 0.0
iphone 0.0
kicked 0.0
intentions 7.63268922522e-05
freedom 0.0
patient 0.0
utterly 0.0
mississippi 0.0
download 0.0
assistant 0.0
invite 0.0
central 0.0
washington 0.0
stronger 0.0
promised 0.0
worried 3.9975555845e-05
throwing 0.000181478416881
security 0.0
cologne 0.0
headphones 0.0
sanctuary 0.0
fantasy 0.0
monkey 0.0
approve 0.000109489045952
spinach 0.0
turning 0.0
helping 0.0
tickets 6.69259386523e-05
collector 0.0
physically 0.0
slavery 0.0
december 0.0
basically 0.000161310738414
return 0.000764535152443
yassss 0.0
goddess 0.0
locked 4.65286957299e-05
feelings 9.54775047694e-05
language 0.0
motion 9.73650740921e-05
obsessed 0.0
creation 0.0
followers 3.57660003257e-05
schools 3.92845315369e-05
gallery 0.0
movies 0.0
foster 5.72484625745e-05
children 3.0416094154e-05
nation 6.95657662173e-05
theaters 0.0
between 6.07372216294e-05
knowledge 3.92845315369e-05
begins 3.30971917719e-05
robinthicke 0.0
faithful 0.0
peeing 0.0
closet 6.50214787204e-05
bodies 5.47445229758e-05
italian 0.0
highlights 0.000166635167807
spanking 0.0
forbes 0.0
parade 0.0
tasted 0.0
consider 0.000146727469828
reunion 0.0
latest 5.98520666585e-05
dedicated 0.0
beyonce 0.0
perform 4.4257357706e-05
signed 0.000701468398405
tuxedo 9.96482201012e-05
princess 0.0
shelter 0.0
germany 0.0
explaining 4.77387523847e-05
married 8.18495312564e-05
millions 0.0
blessings 0.0
iconic 0.0
indonesia 0.0
braids 0.0
dollar 0.0
rigged 0.0
replied 0.0
lights 0.0
turned 0.0
excuses 6.14913607458e-05
jackie 6.84086285086e-05
charge 3.82794738198e-05
performing 0.0
ticket 3.70989111306e-05
steady 0.0
whispers 0.0
finest 0.000109091580602
confucius 0.0
diamonds 8.05697904235e-05
vancouver 6.84086285086e-05
addicts 0.0
collection 3.79524479227e-05
families 0.0
select 0.0
hitting 3.68895994307e-05
announced 0.000538363155844
decided 6.61943835438e-05
jewels 0.0
lottery 0.0
owners 0.00010638688939
respects 7.00977692289e-05
celebration 3.88333024824e-05
memorial 0.0
landed 0.000215941581557
pastor 0.0
ultimate 0.0
incase 0.0
rapper 7.76698100944e-05
episode 0.000198039011308
bounce 6.59046889099e-05
disney 0.0
muffin 0.0
kansas 5.53494782262e-05
sherman 0.0
retweet 0.0
midnight 0.0
patience 5.53494782262e-05
cereal 0.0
joining 9.76724436811e-05
released 0.000128813861354
release 0.000242670472183
models 0.0
classics 0.0
popped 6.74427625337e-05
mileycyrus 0.0
highlight 0.0
scholarship 6.74427625337e-05
within 3.52700525677e-05
hahahahaha 0.0
standing 6.31893739909e-05
higher 7.41978222611e-05
purple 0.0
skinny 0.0
justice 0.0
served 4.17830556205e-05
speaks 0.00015990222338
horses 0.0
houses 0.000113201601579
purchase 0.0
dropped 0.000204690090104
conversations 0.0
consideration 0.0
seattle 0.0
cookie 0.0
slurpee 0.0
strength 0.0
screens 0.0
monica 0.0
incredibly 0.000156231969398
streets 4.06843767126e-05
boyfriend 0.0
private 0.0
skittles 0.0
barbie 0.0
apologizes 0.000188249776928
designer 0.0
impress 0.0
cooking 0.0
exclusive 6.56520273166e-05
fashion 0.0
petite 0.0
talkin 6.50214787204e-05
peaches 0.0
bitches 0.0
nailed 0.000111520594269
weirdest 0.0
whomever 0.0
teaching 0.0
disgusting 0.0
chillin 0.0
philly 0.0
rights 0.0
dinosaur 0.0
exotic 0.0
dancers 0.0
cheers 0.0
presents 4.52280905107e-05
flawless 0.0
dating 0.0
victory 0.000158051802956
marley 0.0
productive 0.0
smurfs 0.0
halftime 0.0
insecure 0.0
horror 0.0
warning 3.9975555845e-05
discovery 0.0
convention 0.0
understanding 3.98591736171e-05
action 0.000118736946217
having 0.0
speaker 0.0
clever 4.72787245863e-05
theatre 5.05016248044e-05
honors 0.0
evolution 5.39580593038e-05
produce 5.1904443336e-05
spider 6.41657303373e-05
apologize 0.000102038679102
formation 0.0
letter 0.0
therapy 0.0
untrue 0.0
written 0.000134962112832
communication 0.0
disease 0.0
marching 0.0
suggest 4.27978933697e-05
georgetakei 0.0
hairstyle 0.0
humans 9.27622233972e-05
journal 0.0
foundation 0.0
access 0.0
venture 0.0
syndrome 0.0
writes 0.0
colorado 0.0
medicine 0.0
tremendous 0.000470399500248
nytimes 0.000167631531381
kindness 0.0
cannot 0.0
reveals 4.1289331963e-05
invented 0.0
sapphire 0.0
candidate 8.79723591848e-05
sexual 0.0
madison 0.000121972625046
illustration 0.0
newark 0.0
globally 0.0
incorrect 0.000134256390085
headline 0.000259918186407
reflect 0.0
streaming 4.52280905107e-05
leaders 0.0
supreme 4.77387523847e-05
protest 0.0
policies 0.0
silenced 0.0
defend 0.000180912362043
communicating 0.0
climate 0.0
wrapped 5.1904443336e-05
studio 0.000692994057143
conspiracy 0.0
interviews 0.000337701340008
differentiation 0.0
confusing 5.57602971346e-05
february 4.06843767126e-05
hamilton 0.0
loneliest 0.0
amazon 0.0
scattered 0.0
francis 6.33357873837e-05
headlines 0.000102038679102
january 7.65589476397e-05
diversity 0.0
universal 0.0
hurricane 0.0
identifying 0.0
countries 7.97183472342e-05
tickled 0.0
becker 0.0
connected 0.0
suggestion 0.0
filled 7.76666049648e-05
education 0.0
mentioned 0.00016273750685
defining 7.08035606148e-05
exists 5.13699730303e-05
unexpected 0.0
plants 0.0
orders 0.0
olympics 4.90044630069e-05
ability 0.0
director 0.000206968003947
content 8.63766326226e-05
cycling 0.0
previously 0.0
correction 0.0
pearls 0.0
ambassador 0.0
preparing 0.0
depend 0.0
downloads 0.0
lovers 0.0
weekly 4.77387523847e-05
hudson 0.0
bridge 4.45312341535e-05
becoming 3.54673606233e-05
magazine 0.0
appropriate 4.99934684165e-05
shakespeare 0.0
travesty 9.33032048819e-05
discoveries 0.0
fellow 0.000210444893111
reviewed 0.0
copies 0.0
driven 0.0
aussies 0.0
result 7.97183472342e-05
announcing 0.0
visual 0.0
restrictions 0.0
culture 3.81700328968e-05
edition 0.000184970281573
prince 0.0
shocks 0.0
symmetry 0.0
clicks 0.0
disagree 0.000171191573479
experiments 0.0
mistakes 4.93301988309e-05
trolls 0.0
blossoms 0.0
offered 0.000227559246351
inspiring 0.0
counter 0.0
approach 4.11672725351e-05
embarrassing 0.000198639343102
creators 0.0
edited 0.0
berniesanders 0.0
overnight 5.92882367739e-05
spotlight 0.000113201601579
probable 9.09758172412e-05
repeating 7.116336124e-05
concerns 0.0
massive 0.000210444893111
promising 0.000181471094295
promises 0.000105267215975
colored 0.0
production 4.41214346846e-05
header 0.0
itunes 0.00031958383281
secretary 4.82065997258e-05
highway 6.84086285086e-05
dangerous 0.000148395644522
letters 0.0
typically 0.000206214796359
saving 4.00924322664e-05
pioneer 6.20058496671e-05
visuals 0.0
universe 0.0
ordering 0.0
victims 0.0
privacy 0.0
disclosure 0.0
proceeds 0.0
musical 0.0
collide 0.0
melbourne 0.0
correctly 0.0
campus 0.0
debate 7.11330951973e-05
conflict 0.0
meanwhile 0.000194091900463
petition 4.98261465888e-05
contribution 0.0
stated 0.0
humanity 0.0
illness 6.02457022128e-05
flawed 0.0
breathe 0.0
winners 3.65785864506e-05
spanish 0.000101691367466
comedic 0.0
awards 3.60679158488e-05
presidential 0.0
candidates 0.0
glasgow 0.000133019288321
smells 0.0
treasure 0.0
greater 0.0
themed 6.56071254076e-05
distribution 0.0
absurd 0.0
squirrel 7.54666861225e-05
sisters 0.0
stress 0.0
leading 0.0
resolution 0.0
achieved 0.0
interacting 0.0
boiling 0.0
examples 5.88217110988e-05
diverse 0.0
suicide 0.0
parallel 0.0
minneapolis 0.0
impairs 0.0
pumping 0.0
slides 0.0
choreography 0.0
element 0.0
serves 0.0
jumping 0.000103808886672
rising 4.45312341535e-05
believed 5.06731166731e-05
features 4.41214346846e-05
environment 0.0
revealed 0.0
classical 0.0
confirmed 0.000442307878058
origins 0.0
combination 0.0
consumption 0.0
worldwide 4.59430490427e-05
deaths 0.0
responsible 4.50873006596e-05
overwhelmed 0.0
household 0.0
munich 0.0
alternate 0.0
blockers 0.0
restaurant 4.57985639032e-05
canada 0.000147142149879
versions 0.0
technology 0.0
identify 0.0
combined 5.13699730303e-05
santiago 0.0
branches 0.0
october 7.72208639726e-05
netherlands 6.97515463508e-05
belgium 0.0
european 9.51691078184e-05
imperial 0.0
perspective 0.0
cities 0.0
guinea 0.0
americas 0.0
posters 0.000186800237967
elastic 0.0
flames 0.0
presumably 0.0
exquisite 0.0
spreading 0.0
happiness 0.0
ashamed 0.0
naturally 0.0
malbec 0.0
wasting 0.0
hidden 0.0
coffin 0.0
freudian 0.0
genius 7.33637349138e-05
cultured 0.0
malaysia 0.0
traveling 0.000104169863125
prepared 4.17830556205e-05
county 0.0
quinoa 0.0
district 0.0
chosen 0.0
toilet 0.0
yorkers 0.0
ignores 0.0
messages 0.0
creativity 0.0
conventional 0.0
berlin 0.0
montreal 0.00059584954083
wonders 6.30646092701e-05
upcoming 7.81159846992e-05
lonely 0.0
australian 0.0
positions 0.0
singapore 0.00028465344496
scratch 0.0
deficiency 0.0
elevated 0.0
triggers 0.0
delicate 0.0
barrier 0.0
reflection 0.000117643422198
sydney 0.0
separates 0.0
centuries 0.0
israel 0.000529395399889
overwhelming 0.0
assault 5.28189578858e-05
protection 0.0
picker 0.0
additional 0.0
machine 0.000148816667687
samples 0.0
contrary 0.000139503092702
immediate 5.74677813117e-05
michelle 0.00031916066817
inspire 0.0
lyrics 0.0
missyelliott 0.0
constant 0.0
tuning 0.000243945250092
pandora 0.0
preshow 0.0
buenos 0.0
poland 0.000143794775127
philippines 0.0
nicely 0.000211275831543
september 0.000116164924969
manchester 0.000100323627251
checks 0.0
screenshot 0.0
universalorl 0.0
remarkable 0.000190338215637
rihanna 0.0
disgusted 0.0
flattered 0.0
fiction 0.0
angela 0.000320828651686
bitmoji 0.0
process 3.51719264178e-05
genuine 0.0
performances 5.41525785295e-05
comedians 0.0
flotus 0.0
strangers 0.0
hungover 0.0
confidence 4.31883163113e-05
studios 0.0
stjude 0.0
memphis 0.0
mikeypiff 0.0
chancetherapper 0.0
scream 0.0
jennifer 0.0
disappoint 6.77609667237e-05
newcastle 0.0
castle 0.0
literally 3.41150150173e-05
chrisrock 0.0
gentlemen 0.0
mtvnews 0.0
hillaryclinton 0.0
iamrashidajones 0.0
champagne 0.0
raleigh 0.0
ijessewilliams 0.0
acknowledge 0.0
buzzfeed 0.0
puppet 0.0
rehearsal 0.0
billboard 5.81364220273e-05
austria 0.0
sweden 5.47445229758e-05
republic 0.0
grilled 0.0
waltdisneyworld 0.0
katyperry 0.0
ronanfarrow 0.0
measly 0.0
bragging 0.0
treats 5.88217110988e-05
literal 0.0
cooper 5.85913804167e-05
counts 0.0
theellenshow 0.0
basking 0.0
cookies 0.0
festival 0.0
amsterdam 0.0
soundcheck 0.0
downloaded 0.0
encouraged 0.0
alright 0.000145092998568
jtimberlake 0.0
backstage 9.93196715508e-05
collab 0.0
joined 6.7854269451e-05
issarae 0.0
playlist 0.0
madness 0.00017594471837
romantic 0.0
selfies 0.0
exclusively 0.0
disneyland 0.0
refused 0.000117182760833
characters 0.0
amazingly 0.0
auction 0.0
express 0.0
gratitude 0.0
sesamestreet 0.0
thegrammys 0.0
throughout 8.74352943223e-05
awkward 4.59430490427e-05
shining 0.0
thrown 0.0
stylist 0.0
fighter 0.00122562218551
accepting 0.0
playin 0.0
applemusic 0.0
filmed 5.30055644032e-05
makeawish 0.0
bieber 0.0
remixes 0.0
toronto 0.0
capitolrecords 0.0
shazam 0.0
anthem 0.0
cosmopolitan 0.0
khloekardashian 0.0
cookin 0.0
songwriters 0.0
reveal 0.0
stands 3.82794738198e-05
spotify 0.0
phvegas 0.0
rocked 5.79117321601e-05
glasses 0.0
iambeckyg 0.0
relive 7.58934288704e-05
acoustic 0.0
announce 0.000160140751886
although 0.0
isaacfromct 0.0
shampoo 0.0
interactive 0.0
todayshow 0.0
haters 5.81364220273e-05
appreciation 0.0
floating 0.0
shondarhimes 0.0
showtime 6.62055045367e-05
premiere 0.0
broadway 0.0
makeup 0.0
starring 0.0
newest 0.0
designed 0.0
arianagrande 0.0
aladdin 0.0
swaggy 0.0
owning 0.0
producer 0.0
legendary 0.000176485738739
jasmine 0.0
costumes 0.0
square 0.000149239307068
emojis 0.0
jessica 0.000406565800342
magical 0.000103450261874
thedoctorluke 0.0
thirsty 0.0
therealjuicyj 0.0
symbols 0.0
privilege 0.000102038679102
spiral 0.0
retrograde 0.0
footage 4.50873006596e-05
theirs 8.05697904235e-05
universes 0.0
remembering 0.0
floated 0.0
construction 0.0
consciousness 0.0
delights 0.0
explodes 0.0
submissions 0.0
pleased 0.0
shredding 0.0
filters 0.0
weasel 0.0
reflective 9.17299563576e-05
firework 0.0
islands 0.0
interstellar 0.0
bubble 5.20849315623e-05
customs 0.0
festive 0.0
window 0.0
senator 0.0
slightly 0.0
therealbuzz 0.0
printing 0.0
snowflake 0.0
applications 0.0
elephant 0.0
fifteen 0.0
editions 0.0
newspaper 0.000103093958289
rainbow 0.0
unlimited 0.0
sirius 0.0
matthew 0.000105267215975
affected 4.25406545265e-05
capturing 0.0
canyon 0.0
rivers 0.0
spoken 4.60882966404e-05
accidentally 0.0
bizarre 0.000343490775447
dolphin 0.0
successfully 0.0
liquid 0.0
graffiti 0.0
swallowing 0.0
messenger 0.0
heroes 0.0
disturbing 0.0
graduates 0.0
rewrite 0.0
describe 3.9975555845e-05
hollywood 0.0
equality 0.0
announcement 0.0
breakout 0.0
dreaming 6.12376782506e-05
animation 0.0
calendar 0.0
circling 0.0
garden 4.11672725351e-05
enhanced 0.0
journalists 9.86603976618e-05
stirring 0.0
nominations 0.0
yelling 0.0
teachers 0.0
chapter 0.000183772196171
napoleon 0.0
aliens 0.0
subjects 0.0
revolution 0.0
mountains 0.0
wonderland 0.0
storage 0.0
crystals 0.0
circuit 0.0
invitation 0.0
kettle 0.0
adjective 0.0
woodpecker 0.0
operate 0.0
exhibition 7.08035606148e-05
learnt 0.0
nomination 5.01618136256e-05
madonna 0.0
questioning 0.0
unplug 0.0
initiatives 0.0
switzerland 0.0
represents 0.0
throat 6.36096638312e-05
touchdown 0.0
desire 5.72484625745e-05
forced 0.000126857392676
swedish 0.0
hundred 0.0
prompts 0.0
rainbows 0.0
creates 0.0
oxford 0.0
balloons 0.0
liverpool 0.00013180937782
recreate 0.0
glorious 0.000159580334085
newton 0.0
creature 0.0
finalist 0.0
scouts 0.0
treading 0.0
tragedy 0.0
nottingham 0.0
debacle 0.0
legends 5.72484625745e-05
noises 0.0
addiction 0.0
survived 0.0
idioms 0.0
greeted 8.3811692614e-05
basics 7.81324152003e-05
masses 0.0
confirm 0.000179231452697
cadence 0.0
spaghetti 0.0
prepare 0.0
calendars 0.0
narrative 6.02457022128e-05
application 6.33357873837e-05
octopus 0.0
drumming 0.0
bloody 0.000104533222277
confetti 0.0
translate 0.0
birmingham 0.0
singles 0.0
completes 0.0
laptop 0.0
obvious 4.66770753662e-05
darling 0.000131214250815
deserving 0.00013180937782
miller 4.98261465888e-05
ordered 0.0
feelin 0.0
alicia 0.0
picasso 0.0
recipe 0.0
alphabetical 0.0
butterfly 0.0
timothy 0.0
mancini 0.0
untold 0.0
directed 4.7127074859e-05
hacked 0.0
admits 6.0490364765e-05
clocks 0.0
nugget 9.67482397721e-05
cnnopinion 0.0
grabbed 0.0
russia 0.000171191573479
surprises 5.26336079875e-05
waterfalls 0.0
olympic 0.000102038679102
magnificent 0.0
casual 0.0
assume 9.04561810214e-05
relief 0.0
subscribe 5.41525785295e-05
landslide 0.0
telegraph 0.0
standby 0.00020137399664
admitting 0.0
complacency 0.0
voices 0.0
sounding 0.0
douglas 0.0
democracy 0.0
locals 0.0
gossip 0.0
nickname 0.000211345208124
subtle 0.0
embarrassed 0.000118576473548
ireland 0.000147013389021
mornings 6.90718980942e-05
democratic 0.0
impressions 0.0
outgoing 0.0
treasury 0.0
refugees 0.0
unveiling 0.0
listing 0.0
deliver 0.0
negotiating 0.0
roller 0.00014305585515
prosperous 0.0
desperate 5.24494978971e-05
acknowledgement 0.0
executive 0.000229715245214
republicans 0.0
weapons 0.0
dropping 0.0
meaningful 0.0
nightmare 4.78938195886e-05
goodies 0.0
scandalous 0.0
rhetoric 0.0
divisive 0.0
vision 0.0
confirmation 0.0
throne 0.000246429116843
records 4.17830556205e-05
quoting 0.0
impatient 0.0
refugee 0.0
texted 0.0
exposed 0.0
stoked 0.0
priority 0.0
freedoms 0.0
notorious 0.0
empowering 0.0
unconstitutional 0.0
turkish 0.0
concerned 0.0
realdonaldtrump 0.0
goodwill 0.0
imagined 0.0
belfast 0.0
sleeve 0.0
basement 7.15279275748e-05
preposterous 0.0
griffith 0.0
timeless 0.0
truman 0.0
intended 0.0
inappropriate 6.90718980942e-05
industries 0.0
responsibility 4.53696042203e-05
documentaries 0.0
vulnerable 0.0
respectful 0.0
markets 6.02457022128e-05
claire 0.0
nuggets 0.0
boards 0.0
sequins 0.0
capitol 0.0
technical 0.0
applying 0.0
guitar 0.0
donating 0.0
continually 0.0
norway 0.0
applause 0.0
ballot 0.0
finely 0.0
shakes 0.0
varied 0.0
proverb 0.0
vibrant 0.0
flower 0.0
survives 0.0
fierce 0.0
shopped 0.0
sincerely 0.0
apology 5.1904443336e-05
sweaty 0.0
conspiracies 0.0
climbing 7.15279275748e-05
relaxed 0.0
encourage 0.0
funnyordie 0.0
essentials 0.0
jimmykimmellive 0.0
rejectedjokes 0.0
protesting 0.0
releasing 0.0
cleaner 0.0
preferred 6.56071254076e-05
incarceration 0.0
jkcorden 0.0
koppel 0.0
bikini 0.0
transparency 0.000120491404426
kamalaharris 0.0
nutshell 0.0
walled 0.0
floored 0.0
plotting 0.0
gandhi 0.0
vilify 0.0
meditate 0.0
violent 0.0
preschool 0.0
rhythm 0.0
matching 6.2266745989e-05
senwarren 0.0
venezuela 0.0
candle 0.0
donates 0.0
peacefully 0.0
chelseahandler 0.0
experiencing 0.0
sarabareilles 0.0
haunting 0.0
constitution 0.0
explode 7.30364889815e-05
deeper 5.85913804167e-05
empathy 0.0
mrgaryhuang 0.0
scored 0.000111520594269
charitable 0.0
perfume 0.0
giraffe 0.0
noticing 7.7214851705e-05
noodle 0.0
wrongly 0.0
marshmallow 0.0
fraudulent 0.0
everytime 0.0
helluva 0.0
therapists 0.0
tangible 0.0
sarahksilverman 0.0
johnfugelsang 0.0
exceptional 0.0
miracle 5.70308776004e-05
avocado 0.0
snacks 0.0
spelled 0.0
parental 0.0
superbowl 0.0
shoulders 0.0
valentine 9.15971278063e-05
glitter 0.0
stocking 0.0
poehler 0.0
thumbs 5.7688861664e-05
tinatbh 0.0
educational 0.0
voicemail 0.0
thetweetofgod 0.0
esteem 0.0
teaches 7.18973875635e-05
goodbye 8.66393954689e-05
reminding 0.0
supplies 0.0
ryanseacrest 0.0
okmagazine 0.0
shoots 0.0
bowing 0.0
jennyslate 0.0
craigyferg 0.0
masterpiece 0.0
sneaky 0.0
nashville 0.000420022367141
chronicles 0.0
potato 0.0
freakin 0.0
perezhilton 0.0
unethical 0.0
paparazzi 0.0
mantra 0.0
consuming 0.0
unauthorized 0.0
vanityfair 0.0
stalking 0.0
shoulda 0.000586681848298
yeppers 0.0
sacred 7.22718743727e-05
existed 0.0
earned 4.8682537046e-05
woulda 0.000434196982007
ellenpage 0.0
choker 0.0
contribute 0.0
mustache 0.0
washes 0.0
creeps 0.0
champion 0.00070162537435
auntie 0.0
magazines 0.0
waited 0.0
conscious 0.0
cracker 0.0
denmark 7.0448402708e-05
potion 0.0
windex 0.0
scarfing 0.0
ladygaga 0.0
purposely 0.0
pretending 0.0
luckiest 0.0
mascara 0.0
tastes 0.0
gardening 0.0
leashes 0.0
hippie 0.0
womensmarch 0.0
reunited 0.0
clique 0.0
premiering 0.0
rollingstone 0.0
childrensla 0.0
dollywood 0.0
godmother 0.0
eltonofficial 0.0
vmagazine 0.0
donorschoose 0.0
yesssssss 0.0
bettemidler 0.0
rehearsing 0.0
trevorproject 0.0
unicef 0.0
ellemagazine 0.0
yasssss 0.0
acceptance 5.97628063903e-05
solidarity 6.30646092701e-05
pharrell 0.0
greece 6.80828926846e-05
papermagazine 0.0
johnmayer 0.0
lipstick 0.0
tumblr 0.0
coldplay 0.0
colorful 0.0
translifeline 0.0
newsstands 0.0
feminist 0.0
pitchfork 0.0
labels 0.0
jenner 0.0
arkansas 0.0
beanie 0.0
sparkly 0.0
moschino 0.0
britneyspears 0.0
itsjeremyscott 0.0
nickiminaj 0.0
appstore 0.0
poetry 0.0
puttin 0.0
rubbed 0.0
shrine 0.0
skyferreira 0.0
freaking 5.97628063903e-05
besties 0.0
chanel 0.0
bedazzled 0.0
rubber 0.0
kendricklamar 0.0
popstar 0.0
sosadtoday 0.0
copenhagen 0.0
lenadunham 0.0
wearin 0.0
stoned 0.000102890122292
facetime 0.0
barclays 8.74870581863e-05
meditation 0.0
harpersbazaarus 0.0
stared 0.0
ritual 0.0
iconapop 0.0
doubted 0.0
staples 0.0
anaheim 0.000344826498881
jingle 0.0
tacoma 0.0
rehearsals 0.0
treadmill 0.0
metamorphosis 0.0
dental 0.0
jodyhighroller 0.0
versace 0.0
werking 0.0
couture 0.0
eggplant 0.0
bangin 0.0
cardigans 0.0
obnoxious 0.0
bestie 0.0
teganandsara 0.0
barrel 0.0
dedicating 0.0
jefferson 0.0
pumpkin 0.0
derekblasberg 0.0
glamourmag 0.0
presale 0.0
mtvstyle 0.0
deluxe 0.0
mtvema 0.0
reggae 0.0
azealiabanks 0.0
nominating 0.0
sailor 0.0
mornin 8.74870581863e-05
itunesmusic 0.0
bananas 0.0
lordemusic 0.0
vietnam 0.0
milwaukee 7.63268922522e-05
neworleans 0.0
circus 0.0
strolling 0.0
rapids 0.0
collegegameday 0.0
aaaaand 0.0
godfather 0.0
bestow 0.0
allison 0.0
rockthevote 0.0
birbigs 0.0
lucille 0.0
louder 0.0
farmers 0.0
shaved 0.0
niagara 0.0
realmattlucas 0.0
ferguson 0.00192984415531
painful 0.0
exchange 0.000103450261874
nickkroll 0.0
edmonton 0.000173678792803
mickey 0.0
angelenos 0.0
pooping 0.0
located 7.46325508978e-05
onslaught 0.0
finalists 0.0
bumped 0.0
sherlock 0.0
stockholm 0.000144543748745
casually 0.0
jjwatt 0.0
itstonybennett 0.0
mariolopezextra 0.0
klgandhoda 0.0
entrance 0.000124011699334
calgary 0.0
bowling 0.0
winnipeg 0.0
cheeto 0.0
gloriasteinem 0.0
feather 0.0
nathan 0.0
smelling 0.0
narnia 0.0
llamas 0.0
actuallynph 0.0
mourning 0.0
obsession 0.0
chilled 0.0
medically 0.000205780244583
hyperloop 0.0
aussie 7.22718743727e-05
flaring 0.0
eyeballs 0.0
stuffing 0.0
pitched 0.0
condiments 0.0
relatable 0.0
olivia 0.0
painted 0.0
mykonos 0.0
eyebrow 0.0
capitalcities 0.0
jackpot 0.0
hipster 0.0
sweating 0.0
restaurants 0.0
superfan 0.0
restraint 0.0
craziest 0.0
catheter 0.0
delivers 0.00017857349637
kanyewest 0.0
paints 0.0
dissect 0.0
billboards 0.0
milano 0.0
bjnovak 0.0
snapping 0.0
croissant 0.0
repjohnlewis 0.0
blklivesmatter 0.0
mydaughtersarmy 0.0
huddled 0.0
yearning 0.0
thereaibanksy 0.0
affordable 0.0
foodie 0.0
colombia 8.10842793448e-05
peeled 0.0
shootings 0.0
playground 0.0
breaky 0.0
photoshoot 0.0
smokin 0.0
accents 0.0
sweats 0.0
postmates 0.0
armband 0.0
unconscious 0.0
maddow 0.0
aquarium 0.0
holler 0.0
photoshop 0.0
robbie 0.000431033123601
espnmag 0.0
laundry 0.0
examining 0.0
zealand 6.09863125229e-05
stuntin 0.0
hehehe 0.0
nostalgia 0.0
buttons 8.26880935089e-05
slaying 0.0
monument 0.0
bringin 0.0
lining 6.77609667237e-05
muchas 0.0
gracias 7.18973875635e-05
madame 0.0
illustrated 0.0
boxers 0.0
grazie 0.000107908405706
winters 0.0
plastic 0.0
unbreakable 0.0
licking 0.0
cheeky 0.0
twerking 0.0
danish 0.0
drummer 0.0
florence 0.0
revoir 0.0
resume 0.000200451546187
dodger 9.02417909177e-05
brazilians 0.00011238163456
grimezsz 0.0
crocodile 0.0
hahahahahaha 0.0
parisians 0.0
taipei 0.0
taiwan 0.0
bangkok 0.0
uploaded 0.0
manila 0.000183459912715
hamburg 0.0
curating 0.0
aaaand 0.0
skating 0.0
brisbane 0.0
googleplay 0.0
raincoat 0.0
glastofest 0.0
vienna 0.0
burning 0.0
jamming 0.0
reaches 0.0
subtitles 0.0
wristband 0.0
barcelona 0.0
credits 0.0
dreamers 0.0
bogota 0.0
bursting 9.41248884638e-05
brunomars 0.0
beyoncé 0.0
subscribers 0.0
unlock 0.0
onedirection 0.0
amazonmusic 0.0
snippets 0.0
preorder 0.0
rehearse 0.0
bahnhof 0.0
delorean 0.0
fragrance 0.0
curate 0.0
samsmithworld 0.0
guitars 0.0
storyline 0.0
registering 0.0
beatsbydre 0.0
panama 0.0
celestial 0.0
orchestra 0.0
finland 0.0
climbed 0.0
topping 8.88299760285e-05
méxico 0.0
vasconcelos 0.0
leicester 0.0
itunesfestival 0.0
pondering 0.0
millennials 0.0
struck 5.57602971346e-05
watermelon 0.0
benefited 0.0
sophisticated 0.0
couples 0.0
villain 0.0
mindful 0.0
catholic 0.0
airline 0.0
secretly 0.0
playlists 0.0
veggie 0.0
receipts 0.0
foremost 0.0
bagpipe 0.0
drifting 0.0
trader 0.0
influenced 0.0
moscow 6.77609667237e-05
cobain 0.0
reaper 0.0
commune 0.0
handshake 7.95687944427e-05
despair 0.0
silicon 0.0
investing 0.0
construct 0.0
garland 0.0
coachella 0.0
offline 0.0
realisation 0.0
payback 0.0
educate 0.0
alliances 0.0
etched 0.0
momentarily 0.0
pronoun 0.0
lenses 0.0
validated 0.0
authenticity 0.0
choreographed 0.0
pokemon 0.0
disneyworld 0.0
patriotic 0.0
embody 0.0
snickers 0.0
impactful 0.0
refocus 0.0
eminem 0.0
mahatma 0.0
ecstatic 0.0
snfonnbc 0.0
avenue 0.000147645905307
picchu 0.0
doubters 0.0
beverly 0.0
intensity 8.49831185875e-05
outtake 0.0
temple 0.0
purchased 0.0
fountain 0.0
punched 0.0
goldfish 0.0
comparable 0.0
buyers 0.0
barbara 0.0
corybooker 0.0
listens 0.0
timeout 0.0
inducing 0.0
signage 0.0
penthouse 0.0
ahahaha 0.0
phenom 0.0
brilliantly 0.0
siphoning 0.0
herstory 0.0
prostitute 0.0
survivors 0.0
courageous 0.0
cruelty 0.0
margot 0.0
xenophobic 0.0
mcginley 0.0
yorkshire 0.0
chants 0.0
alancarr 0.0
chained 0.0
skillz 0.0
debunked 0.0
floods 0.0
fleetwood 0.0
cheesecake 0.0
adidas 0.0
uneven 0.0
raging 0.0
connections 0.0
headlining 0.0
devhynes 0.0
charli_xcx 0.0
shawnmendes 0.0
tavitulle 0.0
bahjournalist 0.0
tyleroakley 0.0
marquee 0.0
grease 0.0
screenshots 0.0
ddlovato 0.0
chattyman 0.0
grimmers 0.0
vevo_uk 0.0
bonniemckee 0.0
electrifying 0.0
idolator 0.0
onairromeo 0.0
godven 0.0
lookie 0.0
preordered 0.0
elvisduran 0.0
shanghai 0.0
tripped 0.0
konnichiwa 0.0
etnad_olegnad 0.0
unannounced 0.0
swedes 0.0
cinderella 9.58457210194e-05
slipper 0.0
jessesaintjohn 0.0
adorbs 0.0
onesies 0.0
jahnsuxx 0.0
walgreens 0.0
aphrodite 0.0
danceonfox 0.0
difficulties 0.0
mermaids 0.0
antique 0.0
girlshbo 0.0
yaaaaasss 0.0
lifesaving 0.0
queens 0.0
yaaaas 0.0
rollin 0.0
bestest 0.0
cleanse 0.0
iamtovelo 0.0
glamour 0.0
emelisande 0.0
lashes 0.0
austrian 0.0
magritte 0.0
misogynoir 0.0
litter 0.0
spiritual 0.0
preaching 0.0
adelaide 0.0
sheffield 0.0
impending 0.0
starve 0.0
excess 0.0
conciousness 0.0
vitamins 0.0
generator 0.0
purposefully 0.0
profiles 0.0
petals 0.0
persist 0.0
alexis 0.0
covergirl 0.0
sneezed 0.000129886815713
cushion 0.0
demconvention 0.0
directv 8.3811692614e-05
flo_tweet 0.0
billclinton 0.0
grounded 0.0
sunrise 0.0
fightin 0.0
sagekotsenburg 0.0
pwease 0.0
sadder 0.0
waterfall 0.0
sighting 8.62066247202e-05
firsts 0.0
muller 0.0
burritos 0.0
bungee 0.0
potting 0.0
dipping 0.0
closets 0.0
scratched 0.0
decorating 0.0
summers 0.0
havana 0.000107908405706
fresher 0.0
mowing 0.0
invading 0.0
addict 0.0
aesthetics 0.0
footwear 0.0
protector 0.0
hammock 0.0
repurpose 0.0
mishap 0.0
hamster 0.0
cellar 0.0
groove 0.0
mentored 0.0
exaggerate 0.0
scraping 0.0
apropos 0.0
trolled 0.0
jonlovett 0.0
rheabutcher 0.0
sickening 0.0
flustered 0.0
compiled 0.0
shirley 0.0
subtweet 0.0
pantsuit 0.0
patting 0.0
atrocious 0.0
amoeba 0.0
platter 0.0
aficionado 0.0
bearer 0.0
manifest 0.0
transformation 0.0
thighs 0.0
tapper 0.0
foaming 0.0
sophie 0.0
sabbath 0.000126986835384
vibrations 0.0
nutella 0.0
wilder 0.0
distractions 0.0
stripping 0.0
downloading 0.0
judith 0.0
crossroads 9.49718585481e-05
parsons 0.00010068699832
stella 0.0
narcissism 0.0
fawcett 0.0
trainers 0.0
surrounding 0.0
longtime 0.0
frosting 0.0
laurent 0.0
savory 0.0
acupuncture 0.0
cancelling 0.0
nutcracker 0.0
ballet 0.0
tempura 0.0
burner 0.0
voguemagazine 0.0
lagged 0.0
cuttlefish 0.0
passwords 9.25053416008e-05
funfetti 0.0
anagasteyer 0.0
gabbana 0.0
budapest 0.0
montage 0.0
crowns 0.0
scheduling 8.88299760285e-05
possessed 0.0
syncing 0.0
creatively 0.0
hieroglyphics 0.0
halftimes 0.0
floppy 0.0
nessie 0.0
feathers 0.0
kaceymusgraves 0.0
roaring 0.0
rightful 0.0
balconies 0.0
prodigy 0.0
raquin 0.0
gianni 0.0
monsieuradi 0.0
drowned 0.0
tropicana 0.0
diesel 0.0
shabbat 0.000136804083476
voiceless 0.0
passover 0.0
elevating 0.0
traumatic 0.0
dreamer 0.0
iwillharness 0.0
classrooms 0.0
eligibility 0.0
counselors 0.0
wainwright 0.0
moveon 0.0
runaway 0.0
baghdad 0.0
zaralarsson 0.0
snooze 0.0
iggyazalea 0.0
harviikills 0.0
bolognese 0.0
babysitting 0.0
mohegan 0.0
hooters 0.0
crusts 0.0
tracksuit 0.0
cupcake 7.95687944427e-05
xfactor 0.0
vitamin 0.0
lichtenstein 0.0
concourse 0.0
hitchcock 0.0
teller 0.0
pastels 0.0
remnants 0.0
banger 0.0
lyrically 0.0
boogers 0.0
ritaora 0.0
bumpin 0.0
dabbed 0.0
sleepin 0.0
tinashe 0.0
octaviaspencer 0.0
linder 0.0
musicallyapp 0.0
scavenger 0.0
sanging 0.0
corinthians 0.0
hollywoodbowl 0.0
kraken 0.0
discontinue 0.0
cypress 0.0
schooling 0.0
maritime 0.0
narration 0.0
zeitgeist 0.0
sampler 0.0
pseudo 0.0
bangladesh 0.0
hungary 9.02417909177e-05
mumble 0.0
sisterhood 0.0
soulful 0.0
lennykravitz 0.0
londontown 0.0
andradaymusic 0.0
lipsticks 0.0
realization 0.0
unconditionally 0.0
wildfire 0.0
goldie 0.0
minnie 0.0
solitude 0.0
waddle 0.0
westworldhbo 0.0
statuesque 0.0
uncasville 0.0
demented 0.0
skyway 0.0
twentyonepilots 0.0
rejoicing 0.0
clenching 0.0
adelphia 0.0
entirety 0.0
redhourben 0.0
lakewood 0.0
drjillstein 0.0
entail 0.0
whammy 0.0
smokers 0.0
gobble 0.0
topshop 0.0
cleowade 0.0
mkives 0.0
sweetbabayjamie 0.0
marchesafashion 0.0
hamsters 0.0
gurrrl 0.0
sofifii 0.0
sumthin 0.0
nicomiz 0.0
maisonvalentino 0.0
coziest 0.0
accessorize 0.0
thejgold 0.0
peruvian 0.0
amazeballs 0.0
sendin 0.0
fantabulous 0.0
timelines 0.0
regina 0.0
slovakia 0.0
graves 0.0
embracing 0.0
larsson 0.0
cullen 0.0
psychiatric 0.0
officialadele 0.0
butters 0.0
verrrry 0.0
buttered 0.0
winged 0.0
pedialyte 0.0
topanga 0.0
armpit 0.0
kittens 0.0
dueling 0.0
eagerly 0.0
surrealist 0.0
dethroned 0.0
manolos 0.0
señorita 0.0
monterrey 0.0
parque 0.0
retiree 0.0
batches 0.0
reservations 0.0
sickos 0.0
aplusk 0.0
kirkherbstreit 0.0
fanbases 0.0
indexing 0.0
chuckles 0.0
incorporated 0.0
washboard 0.0
earbuds 0.0
pantone 0.0
knotts 0.0
dismaland 0.0
pollock 0.0
iamkidpresident 0.0
mariah 0.0
teevee 0.0
santorini 0.0
appalachian 0.0
sunburnt 0.0
caliente 0.0
juicery 0.0
karlihenriquez 0.0
trillest 0.0
tommorrow 0.0
crumpets 0.0
fishin 0.0
grillin 0.0
jambalaya 0.0
pepperoni 0.0
cashew 0.0
graceland 0.0
pussies 0.0
delicately 0.0
eraser 0.0
choreo 0.0
snatched 0.0
elliptical 0.0
mooore 0.0
unborn 0.0
georgina 0.0
stalkers 0.0
sallykohn 0.0
expectancy 0.0
phillipines 0.0
appstoregames 0.0
wilkinson 0.0
puddings 0.0
loveland 0.0
spaced 0.0
shanny 0.0
dripping 0.0
gerber 0.0
shakey 0.0
weaves 0.0
unbeatable 0.0
linguist 0.0
prosthetics 0.0
battleship 0.0
serotonin 0.0
machiavellian 0.0
girlies 0.0
guangzhou 0.0
debuting 0.000183459912715
dissecting 0.0
warped 0.0
luckyjess 0.0
ermahgerd 0.0
fabulousness 0.0
elliegoulding 0.0
activewear 0.0
yelyahwilliams 0.0
prismatic 0.0
evaluations 0.0
skywalk 0.0
sparklers 0.0
palettes 0.0
gemmaanningram 0.0
trueeee 0.0
invisalign 0.0
pounded 0.0
lolgop 0.0
procession 0.0
stanning 0.0
squeals 0.0
continual 0.0
luminary 0.0
cummin 0.0
shaves 0.0
epixhd 0.0
preacher 0.0
boogiecousins 0.0
changers 0.0
autismspeaks 0.0
massaged 0.0
psssssst 0.0
literati 0.0
utilization 0.0
endangerment 0.0
purposeful 0.0
unlabeled 0.0
undiagnosed 0.0
snotty 0.0
gallops 0.0
slovenia 0.0
sequin 0.0
akerlund 0.0
jumbotron 0.0
edibles 0.0
knowles 0.0
caeser 0.0
thehollywoodbowl 0.0
elvispresley 0.0
adoring 0.0
ageist 0.0
thérèse 0.0
confessed 0.0
blackvoices 0.0
patties 0.0
graphically 0.0
wildflowers 0.0
groundhogs 0.0
eataly 0.0
poodles 0.0
hillaryforia 0.0
roadshow 0.0
sweety 0.0
boppin 0.0
bettywho 0.0
johnnywujek 0.0
earring 0.0
itsbennyblanco 0.0
curitiba 0.0
purrfect 0.0
shellback 0.0
chokers 0.0
hairbrush 0.0
hakuna 0.0
matata 0.0
hazing 0.0
mathew 0.0
aegean 0.0
lullaby 0.0
musiciansoncall 0.0
headpiece 0.0
morsel 0.0
whistled 0.0
conquest 0.0
viceland 0.0
lambily 0.0
scalped 0.0
graced 0.0
emblazoned 0.0
hrclosangeles 0.0
kawaii 0.0
glittery 0.0
wonderlandmag 0.0
jumpsmokers 0.0
radiodotcom 0.0
missyfranklin 0.0
pleaaaaase 0.0
lilbthebasedgod 0.0
waaaay 0.0
flossy 0.0
aria_official 0.0
berliners 0.0
matriarchy 0.0
cornered 0.000129886815713
limping 0.0
peasant 0.0
feasibly 0.0
waaaaay 0.0
slayyy 0.0
fashionistas 0.0
sangin 0.0
worldstarfunny 0.0
pliers 0.0
babyanimalpics 0.0
mediation 0.0
quests 0.0
aaaaaaah 0.0
honked 0.0
rauschenberg 0.0
whitneymuseum 0.0
lonsdale 0.0
transcendental 0.0
roarin 0.0
facetune 0.0
fausto 0.0
herning 0.0
cazzette 0.0
annnnnnnnnd 0.0
shinier 0.0
giambattista 0.0
katys_teddybear 0.0
gnight 0.0
katheryn 0.0
psychoanalysis 0.0
bckgrnd 0.0
kingman 0.0
gracevanderwaal 0.0
fecking 0.0
ihrcountdown 0.0
stubbies 0.0
xfactor_italia 0.0
aaronpauley 0.0
purity_ring 0.0
scorpios 0.0
ayyyye 0.0
capitalizes 0.0
flamin 0.0
motherfucking 0.0
jingled 0.0
pharrellhat 0.0
ontarioglow 0.0
teached 0.0
umusic 0.0
auroramusic 0.0
dailymendeslife 0.0
soloing 0.0
universalse 0.0
dustinkloeppel 0.0
robynkonichiwa 0.0
charli 0.0
lonelydot 0.0
adamselman 0.0
sorrenti 0.0
offish 0.0
vinoodh 0.0
guitarists 0.0
cocking 0.0
cabbages 0.0
amelia_libman 0.0
flutter 0.0
lolita 0.0
kingladygaga 0.0
breakthecycledv 0.0
howbow 0.0
curveballs 0.0
tamagotchi 0.0
jarryd 0.0
alliseeisgold 0.0
thebroadmuseum 0.0
sarahsowitty 0.0
brillz 0.0
jackgarratt 0.0
markryden 0.0
duffscakemix 0.0
sanrio 0.0
theniceguyla 0.0
trills 0.0
susangkomen 0.0
faustopuglisi 0.0
gurlll 0.0
cheesecakes 0.0
scorpio 0.0
oblivia 0.0
skipmarley 0.0
correcto 0.0
jessirklein 0.0
unpatr 0.0
squish 0.0
greg_wells 0.0
onlyleah 0.0
gittin 0.0
popstars 0.0
krafts 0.0
bouche 0.0
problemo 0.0
wheezing 0.0
patmcgrathreal 0.0
cienega 0.0
thundering 0.0
nastialiukin 0.0
janell 0.0
katelyntarver 0.0
miamoretti 0.0
missoni 0.0
dannymoonsworld 0.0
mrchrismcmillan 0.0
madge_freak 0.0
woridstarcomedy 0.0
ikissedasoldier 0.0
kpezandchez 0.0
perrysoldier 0.0
emilynotchez 0.0
iickmekaty 0.0
basicallyadam 0.0
katysangelegg 0.0
nicolasjebran 0.0
xchadballx 0.0
scott_myrick 0.0
lockoir 0.0
shannonwoodward 0.0
calluses 0.0
chamomile 0.0
trollin 0.0
sleighing 0.0
chestercheetah 0.0
royksopp 0.0
scottsimonswvla 0.0
sirenscaiiing 0.0
slowdownkaty 0.0
chefantoniopark 0.0
garnished 0.0
endive 0.0
mdmolinari 0.0
prezzy 0.0
motioning 0.0
hernameisbanks 0.0
rockcampla 0.0
jenniefinch 0.0
getglucky 0.0
stendhal 0.0
ryanphillippe 0.0
hotncolds 0.0
kpcollections 0.0
katie_wignall 0.0
katysdrugx 0.0
evrenperry 0.0
katycatwendy 0.0
yungskeeter 0.0
sarahhudsonuvs 0.0
mothern 0.0
oliverheldens 0.0
marrymemargot 0.0
katyperrylately 0.0
kewlest 0.0
katyshellokitty 0.0
pqgerry 0.0
rasarioatelier 0.0
anakhouri 0.0
romaneperry 0.0
hot_chip 0.0
agador 0.0
freddietinkles 0.0
cynthialovely 0.0
augustgettyatelier 0.0
tbsnetworks 0.0
ronyalwin 0.0
justinandersoncolor 0.0
mmillerrider 0.0
jpgaultier 0.0
harharharhar 0.0
iikeanangel 0.0
vonnypoo 0.0
jcoopkp 0.0
itzmero 0.0
katysprismlight 0.0
hatérs 0.0
awkwardaya 0.0
katysredskittle 0.0
tiedye_princess 0.0
adelshahal 0.0
marinadiamandis 0.0
samadizayee 0.0
itsslatykaty 0.0
johnlordperry 0.0
nuggetperry 0.0
kthnkzbye 0.0
teamkpbrasil 0.0
twenagedream 0.0
ashleyegreer 0.0
perryllover 0.0
perry_slays 0.0
_andresgalvis 0.0
poplitics 0.0
likerotica 0.0
sweetxjaureguix 0.0
jessiambriz 0.0
perryncolds 0.0
pwideawake 0.0
brunastrait_ 0.0
anafalqueto 0.0
pessoalmente 0.0
mark_hodson_ 0.0
sumtxkid 0.0
arpoador 0.0
katysmychampion 0.0
amnattg 0.0
osullivanluke 0.0
stephiruth 0.0
katy_pizza_bae 0.0
kpcatt 0.0
pedroeugeniio 0.0
gugs_prismatic 0.0
zeeusmtz 0.0
legendarycold 0.0
robynxkatheryn 0.0
écouter 0.0
energyberlin 0.0
karysjones 0.0
lilzariya 0.0
puroland 0.0
pavlovitz 0.0
dreamhampton 0.0
prismsperry 0.0
perrysmic 0.0
focusonreid 0.0
tonyatalterian 0.0
makeup_man 0.0
wtfkates 0.0
sella_sandra 0.0
katycute_ 0.0
caitsperry 0.0
katyperryforum 0.0
radiantjareau 0.0
lillysgomez 0.0
katycatsweden 0.0
perryicecream 0.0
xamyrosex 0.0
wtvrlara 0.0
bijanstephen 0.0
ameliashowalter 0.0
screamkng 0.0
tvmcgee 0.0
liiife 0.0
itskatcombs 0.0
yaaaaaasssssssssss 0.0
katysmyhabibi 0.0
skottpeace 0.0
ferras 0.0
kweens 0.0
habibi 0.0
orlandobloom 0.0
huckchinn 0.0
katycatkenzie 0.0
matarazzo 0.0
fkatwigor 0.0
perryschild 0.0
hotxcolds 0.0
maddisonxperry 0.0
akaruikaty 0.0
chillinlaidback 0.0
erryone 0.0
chrisanokute 0.0
beyelite 0.0
kuntyewest 0.0
chiroprac 0.0
katyperryrises 0.0
godneybjs 0.0
liquoronurlips 0.0
katystumblrr 0.0
holiestkaty 0.0
hollykittykaty 0.0
katysprincess 0.0
katysdonut 0.0
carlythekatycat 0.0
katycatsophia 0.0
fridaaperry 0.0
iegendarylovers 0.0
katycatveronica 0.0
katyperryslave 0.0
hakimkharbouch 0.0
keonovak 0.0
plaaaaay 0.0
scatting 0.0
shotted 0.0
dizzycoco 0.0
fkinsnapss 0.0
junkygs 0.0
ミニチュア料理 0.0
エビフライとエビ天 0.0
adidasboosts 0.0
lilithia 0.0
cottoncandizzle 0.0
ultimatebeyhive 0.0
paramorewebnews 0.0
royale_lala 0.0
musicnews_feed 0.0
katyperryextra 0.0
greeniight 0.0
gagas_illusion 0.0
lesbiyonce 0.0
blurryhface 0.0
lordofgiraffex 0.0
ifuseekamy_ 0.0
legendarymalek 0.0
hausoframez 0.0
unstan 0.0
chioekardashian 0.0
theiife 0.0
handstomyseif 0.0
legendarylovers 0.0
gagas_fandom 0.0
thinagedream 0.0
conditionalbabe 0.0
dannysuschrist 0.0
prismdluxe 0.0
herwonkeye 0.0
camilasviews 0.0
gagalovesbey 0.0
shadykatyfacts 0.0
limalimoncia 0.0
heavymetaiovers 0.0
katyscrush 0.0
waikingonair 0.0
eduardo_katycat 0.0
katyswetdream 0.0
katherynsgod 0.0
katystddbr 0.0
katyboobies 0.0
royaityler 0.0
nothingfaiis 0.0
kathrynluck_ 0.0
prismaticiights 0.0
mendesperry 0.0
katycatghita 0.0
mark_katycat 0.0
iwasdivine 0.0
skywaterr 0.0
xjojospearsx 0.0
alwaysbeperry 0.0
skoglyrihanna 0.0
legendarydurk 0.0
halseysfirework 0.0
rainbowspatrick 0.0
katysfood 0.0
honeymoonprism 0.0
onepulsetony 0.0
butcha 0.0
okurrr 0.0
the_mpt 0.0
talaofficial 0.0
miniatures 0.0
ohmyjurassic 0.0
katysmoonlight 0.0
lilly_jnes 0.0
coco_ho 0.0
perryhumorr 0.0
yikesjonathan 0.0
rubyrankin 0.0
thealekovski 0.0
cydney_moore 0.0
truebluedeluxe 0.0
thedutchass 0.0
katyskettle 0.0
ferraseu 0.0
katyssunlight 0.0
typosqween 0.0
adoreeeperry 0.0
katyperryfrance 0.0
snowiner 0.0
_coolkatycat 0.0
nicothekatycat 0.0
adorbies 0.0
jackygerardchan 0.0
brewmystew 0.0
katyswildfire 0.0
rihftperry 0.0
theolagu 0.0
ritajoness 0.0
iitsjackie 0.0
mjjperry 0.0
jesuskylie 0.0
holyerotica 0.0
graceofkaty 0.0
redsvelvets 0.0
booyakasha 0.0
tariqterry 0.0
katycatalannah 0.0
taylxre 0.0
pacifyher 0.0
basedkatyperry 0.0
diddleurskittle 0.0
katysanalien 0.0
gagasspace 0.0
tayiorhq 0.0
givenchydress 0.0
augustryder 0.0
perrysmoschino 0.0
kittehn 0.0
katrieber 0.0
legendaryhunty 0.0
katyslegs 0.0
katyfroot 0.0
winesandlines 0.0
sam_incolour 0.0
wakingonair 0.0
drwssinup 0.0
huffdaddysays 0.0
fiwwwwine 0.0
matthewroper 0.0
emmabruhhh 0.0
gingerwesson 0.0
nicholas_sewell 0.0
perfectlyperry 0.0
bustabusta 0.0
mynameisziam 0.0
venuzszfly 0.0
katherynsus 0.0
sacredperry 0.0
thedollsftkaty 0.0
_cafajeff 0.0
debkatycat 0.0
katycats 0.0
eastonjames_ 0.0
oliviabooker_ 0.0
protecti 0.0
outrageousness 0.0
joanneprada 0.0
scuffed 0.0
catoure 0.0
blanged 0.0
tahmorrow 0.0
glukatyperrypop 0.0
jamesjoint 0.0
pressin 0.0
bourree 0.0
honeysuckle 0.0
meowings 0.0
fashun 0.0
happun 0.0
vikander 0.0
thekatyperrypopgame 0.0
karolfabianaros 0.0
nico_thekatycat 0.0
miss_lilyjames 0.0
stylinfunk 0.0
hudsontheband 0.0
jere_my 0.0
crabitat 0.0
tiersz 0.0
unrehearsed 0.0
fanclub_kp 0.0
oneofthesophies 0.0
fusterlandia 0.0
lazyblazy 0.0
katycatchloe 0.0
figali 0.0
prismaticness 0.0
titicaca 0.0
ancientaliens_ 0.0
sneezin 0.0
cristos 0.0
mallman 0.0
prismaticlife_ 0.0
ravensuxx 0.0
perrypositive 0.0
derkwhore 0.0
alekjandro 0.0
havss_ 0.0
hqzaynmaiik 0.0
thique 0.0
bbhmms 0.0
jkatharineb 0.0
jennyformica 0.0
tiiiiiight 0.0
ikissedagay 0.0
harryvuitton 0.0
aeschleahd 0.0
princessjavonda 0.0
errrythang 0.0
kooning 0.0
sugarray 0.0
empaths 0.0
goldenboyz_inc 0.0
voguejp 0.0
chickenwingguardingthemimosa 0.0
katyperrypopup 0.0
unmeasurably 0.0
transviolet 0.0
beauteous 0.0
katyskidrauhl 0.0
thooooooseee 0.0
clairesstores 0.0
nailsbymh 0.0
katysacutie 0.0
psychokatycat 0.0
kaceymusgrave 0.0
refueled 0.0
hyungsunju 0.0
okuurrrr 0.0
cholewheeler 0.0
leftshark 0.0
momchella 0.0
crotches 0.0
hookedondolls 0.0
fyuseapp 0.0
mogonoloball 0.0
atletica 0.0
katycatsclub 0.0
catacombs 0.0
poppycorn 0.0
cupped 0.0
christiania 0.0
residenz 0.0
lindseyweber 0.0
butterballface 0.0
joshlecash 0.0
myassistant 0.0
swiftschrist 0.0
snowhiteperry 0.0
emmakphughes 0.0
katyslegend 0.0
dansnierson 0.0
scressful 0.0
prismaticwitch 0.0
finnin 0.0
habibis 0.0
mophies 0.0
strongé 0.0
drumkit 0.0
anamanaguchi 0.0
gaultier 0.0
ngvmelbourne 0.0
dukedumont 0.0
legendaryasmyn 0.0
highlarious 0.0
calpurnia 0.0
waaaaait 0.0
mktfah 0.0
fwding 0.0
caseyhoops 0.0
worldstarvlne 0.0
flapfkp 0.0
bettycrocker 0.0
mexxxico 0.0
whhhhhhhhuuuuuutttt 0.0
yelletweets 0.0
gucciqxxn 0.0
luckyladyrebelettes 0.0
junglejulia 0.0
charlottes_web 0.0
istarbucksniall 0.0
katysroaaar 0.0
fiorucci 0.0
whuteva 0.0
sirdavidd 0.0
fudgery 0.0
bizquick 0.0
itsgrandtheft 0.0
grandtheft 0.0
katysfancy 0.0
ameezyyrush 0.0
mykectown 0.0
itsvalkubus 0.0
walkslikeperry 0.0
iwantperry 0.0
exausto 0.0
selfeh 0.0
aquaberry 0.0
sidepiece 0.0
versacness 0.0
iamleslii 0.0
alocalgyro 0.0
cutina 0.0
theoutslder 0.0
prism_katy_cat 0.0
katyshoodrat 0.0
thestevetisch 0.0
ronysphotobooth 0.0
schlitterbahn 0.0
kpsnosecrinkle 0.0
alwz_katycat 0.0
whykph 0.0
californiagurls 0.0
katycattt 0.0
varicose 0.0
itsbrillz 0.0
perrystiger 0.0
katysmyaura 0.0
paolablancokp 0.0
callmemargot 0.0
indiggynado 0.0
katycat 0.0
anylinden 0.0
kpkillerqueen 0.0
katyslilacwine 0.0
katypvenezuela 0.0
franzikaty 0.0
katherynelperry 0.0
doessss 0.0
katysleftarm 0.0
datingprism 0.0
_smiler_katycat 0.0
kepyterry 0.0
katycat_camille 0.0
vckatyperry 0.0
bowzerjoe 0.0
taishrox 0.0
mütter 0.0
arianperryarian 0.0
lisasigh 0.0
fridiskp 0.0
kevinruda 0.0
katyperrydaily 0.0
wakingupvegas 0.0
marlyins 0.0
drankin 0.0
herkatycat 0.0
luvhudson 0.0
yaeltsairi 0.0
felipinhoofm_ 0.0
renanmarcall 0.0
kariseperry 0.0
emojing 0.0
konnie 0.0
mcperry 0.0
iturnmycanonon 0.0
katycatelysha 0.0
andrewnavs 0.0
katycatkrystal 0.0
lovelyandlaugh 0.0
lampoonians 0.0
perrytuuda 0.0
katymyhaven 0.0
ruletheschool 0.0
cheapandchic 0.0
sically 0.0
crazyforperry 0.0
kpdaily 0.0
getonupmovie 0.0
cutetina 0.0
chimiuzz 0.0
kefali 0.0
joelkefali 0.0
siclly 0.0
mtvother 0.0
lydiaacav 0.0
prismaticperry 0.0
jwujek 0.0
adorbie 0.0
errone 0.0
kaliyah 0.0
katysweirdness 0.0
vinbiodiesel 0.0
katysfxb 0.0
katyspurrfect_ 0.0
shannonmwoodward 0.0
bippity 0.0
boppity 0.0
swiggty 0.0
swoogity 0.0
pizzarella 0.0
firewerk 0.0
katyslayed 0.0
emerald_epelman 0.0
madkatydisease 0.0
mandee 0.0
ohferras 0.0
sarahh 0.0
iaustinhunt 0.0
lanawhore 0.0
spaceykacey 0.0
crazay 0.0
elektrikpeople 0.0
visa_nz 0.0
fvckin 0.0
nathanspicer 0.0
cashcash 0.0
ashish_uk 0.0
xokatic 0.0
turnting 0.0
scorpiomystique 0.0
toddthomasnyc 0.0
kohngallery 0.0
discnt_universe 0.0
dressinkaty 0.0
lee_cook 0.0
bloodshot 0.0
yaddlizc 0.0
elnett 0.0
itsthekatycats 0.0
kelly_moritz 0.0
katyslaykaty 0.0
skintxghtjeans 0.0
socarrer 0.0
errrday 0.0
therealslacker 0.0
wendywild 0.0
welkys 0.0
sohohouse 0.0
selfing 0.0
camiilaruales 0.0
nexxxt 0.0
turrell 0.0
alliexxxxandra 0.0
surfboardt 0.0
telstra_news 0.0
juanitadele 0.0
oopskatycat 0.0
sophkatycat 0.0
katyschild 0.0
katysconverrse 0.0
katycat_leah 0.0
katycatverified 0.0
katycat_libby 0.0
katyswonk 0.0
kittless 0.0
jlrcukp 0.0
siiiiiiiiiiiiii 0.0
ermagherd 0.0
imlynsey 0.0
perrys_cherry 0.0
casemcgase 0.0
hazzaily 0.0
herses 0.0
gaypropaganda 0.0
tixforcharity 0.0
hudsons 0.0
nomers 0.0
mommacat 0.0
superlove 0.0
bonacorso 0.0
levi_leet 0.0
thinkingofbecki 0.0
cybering 0.0
pamyurin 0.0
idreamofkaty 0.0
xfactor_au 0.0
glohudsonperry 0.0
aubreyplzza 0.0
eeshhuhhayniac 0.0
bonkay 0.0
katysbum 0.0
nevillebradley 0.0
curryswift 0.0
zinepack 0.0
katykatt_suraya 0.0
sweetkatybird 0.0
yohkatheryn 0.0
cottoncandykaty 0.0
karolynadiaz 0.0
maayansharvit 0.0
theprismcess 0.0
camisp_ 0.0
lucasgaldin 0.0
prixy_mtz 0.0
niggasperry 0.0
kaksperry 0.0
zennnnaaa 0.0
katyissmurfy 0.0
dadehoward 0.0
kyledsaavedra 0.0
katysdoritos 0.0
pendejabardera 0.0
rosenilsou 0.0
hackensucks 0.0
gottabesheerio 0.0
ismaellgarcia 0.0
milegendz 0.0
alexskarev 0.0
ladycrystalb 0.0
katyspad 0.0
xcallmechrissyx 0.0
arianastylesss 0.0
jorgebaker 0.0
matty_zee 0.0
katycatzilla 0.0
adorie 0.0
meowwdison 0.0
alvin_koopa 0.0
lexyauditore 0.0
kease_it_raw 0.0
katysking 0.0
chris__kirby 0.0
katysbestfrwend 0.0
katyslildancer 0.0
sssshhh 0.0
conorhughess 0.0
tanimura 0.0
thekatycatlife 0.0
weefififookface 0.0
breakalioz 0.0
hudsonhelper 0.0
lariitaa 0.0
meeeeeooooooooowwwww 0.0
legend__dary 0.0
katyandliam 0.0
_theatrekid 0.0
babybritney 0.0
erinlorimer 0.0
_zacmoore_ 0.0
itscezzurryo 0.0
katycatskp 0.0
larissafilipo 0.0
siaylorswift 0.0
shitkittens 0.0
thefrankradical 0.0
katysprism 0.0
katytinalevine 0.0
serjeeoh 0.0
kayz_perry 0.0
katyslaysurfav 0.0
fuckyeahitskath 0.0
sweetyitosan 0.0
pickerington 0.0
verrado 0.0
retweete 0.0
jameswaterhouse 0.0
hunnah 0.0
truth_ispeak 0.0
_emilybarbarrr 0.0
nbllrrr 0.0
jmoneygraves 0.0
eaglenationnews 0.0
tauentzienstrasse 0.0
avontbh 0.0
vinnie_mate 0.0
demilovve 0.0
coolestkatycat 0.0
terri_katycat 0.0
beeeaaatttt 0.0
laurenfrancisco 0.0
victaytayp 0.0
aylajaye 0.0
iloveu 0.0
augustvaz 0.0
lizzievang_ 0.0
edsssss_ 0.0
hhhhhholly 0.0
holly_hickin 0.0
trixxx 0.0
killah 0.0
treasurefingers 0.0
最強ガール宣言 0.0
voykovic 0.0
annunaki 0.0
katyshomie_ 0.0
katyselephant 0.0
caitlynsmith 0.0
lightsperry 0.0
elizagilham 0.0
ohmyjatyfeels 0.0
junglescope 0.0
drunkskaty 0.0
malikpom 0.0
dancerlaurena 0.0
brirad 0.0
elisa_rv 0.0
moooom 0.0
pattymeagher 0.0
iwasemily 0.0
shahrzadphoto 0.0
tvjohnny 0.0
cstonethebreadwinner 0.0
katysrightboob 0.0
cyberdlck 0.0
beatforkaty 0.0
igabriiel 0.0
duuuuddddeeeee 0.0
redrum 0.0
srbuhiii 0.0
kayleighcat 0.0
applekatycat 0.0
ikatycats 0.0
wehryspencer 0.0
emilyjonesphoto 0.0
coxgabe 0.0
drugmoneyx 0.0
steven_drum 0.0
victoriacha 0.0
hashtaggin 0.0
perryandemetria 0.0
katycatfurlife 0.0
iammelissalynn 0.0
qewtie 0.0
yscheecat 0.0
slayty 0.0
katystree 0.0
katherynsboy 0.0
anapurry 0.0
nenedez 0.0
kevinn_perry 0.0
gloria_swag_ 0.0
andyamaziing 0.0
roarsana 0.0
brighthudson 0.0
fixingperry 0.0
roooooooooooooar 0.0
gretschusa 0.0
katys_cupcake 0.0
wonderation 0.0
kasek_craig 0.0
katysgurll 0.0
pepperperry_ 0.0
teamkatyperry 0.0
meandnutella 0.0
lovatokitten 0.0
katyslolly 0.0
astixxx 0.0
ravemomentz 0.0
erzaabrianto 0.0
katyperryindo 0.0
seeingdaisies 0.0
gillian_e_dubbs 0.0
samanthachazene 0.0
perryprism_ 0.0
katycompletesme 0.0
ltskatyperry 0.0
kittenscks 0.0
nihanofficial 0.0
momcat 0.0
kaytehperreh 0.0
__grazi 0.0
clairekatycat 0.0
fangurl 0.0
rrrrrrrrrrrroooooooooooooaaaaaaaaaaaaar 0.0
marispiva 0.0
mattdrobins 0.0
deihemmings 0.0
rooaaarr 0.0
katycatobsessed 0.0
katycatnick 0.0
tigerkats 0.0
kristenanzelc 0.0
taylermckellop 0.0
essesfadaperry 0.0
imjare 0.0
smganonymous 0.0
roaaaar 0.0
phuckyotweet 0.0
evvvvvverrrr 0.0
melvynmarrero 0.0
zouisashton 0.0
trillneyspears 0.0
rooooooar 0.0
fanwars 0.0
fentyncold 0.0
ttish_ 0.0
rachelacogan 0.0
makesmariana 0.0
kkaplon 0.0
rafaelmoncada 0.0
yaaaassssgrl 0.0
oioianna 0.0
katycatrazan 0.0
megaan_katycat 0.0
thekaelynn 0.0
hannahloupunton 0.0
thumbelinafairy 0.0
nic_kathryn 0.0
dannahfields 0.0
rodneybroaddus 0.0
noxisanasshole 0.0
soedesh__ 0.0
hookerofversace 0.0
thinkingofkaty_ 0.0
msgracevalerie 0.0
francfernandez 0.0
katysring 0.0
a_little_spark 0.0
laaxiss 0.0
