awesome 0.000391175272431
christmas 0.0
trying 0.0011734916933
launch 4.79628140644e-05
moment 0.000353950639299
wonderful 4.3938733791e-05
seeing 0.000160741732376
hanging 0.000147933824358
sounds 0.000166934063229
recommend 5.82216640277e-05
worked 0.000253810575229
direct 0.0
others 0.000252440769238
currently 9.30636820298e-05
better 0.00127699793107
please 0.000745217522234
social 0.000219097414138
anxiety 0.0
around 0.000464362884026
people 0.00417926595624
morning 0.000233436479891
traditional 0.000148517938794
general 0.000300860990456
damage 6.37858107431e-05
everything 0.00066140335969
twitter 0.00124835494418
present 0.0
though 0.000202559956047
friend 0.000508513067096
watched 0.000131816201373
beautiful 4.0077189927e-05
anything 0.000632647515425
previous 0.000184389898207
helped 4.26467595365e-05
updated 0.0
thinking 0.000437296918566
finally 0.000159017061297
caught 0.000131458448483
believe 0.000853629747492
already 0.000543218930222
couple 0.000680502695145
orlando 0.000132513330433
chance 0.000389060799818
meaning 0.0
growing 9.33195295819e-05
probably 0.000548436767775
password 0.0
changed 0.00024972516586
history 0.000681312228759
center 0.0
museum 0.0
behind 0.00034827216302
screaming 0.0
pretty 0.000914348102457
really 0.00287904991865
little 0.00062082163454
happiest 8.23745052809e-05
earlier 0.000136570186472
forget 0.000276038092621
someone 0.000941327396506
safety 0.0
program 0.000216509065606
things 0.000812635047046
related 0.000114397557474
visiting 5.36638248504e-05
available 0.000404028320198
perfect 0.000648191859349
different 0.00110713315199
search 0.0
connect 0.0
numbers 0.000145893513124
person 0.000819232932116
watching 0.00144730642174
exhibit 0.0
passed 4.74363174121e-05
prefer 0.0
minutes 0.000200927165471
travel 9.51345430741e-05
outside 4.11734929073e-05
looking 0.000504417578063
forward 0.000119907746082
agreed 0.000260789593034
raising 5.55518532959e-05
listened 6.16516058906e-05
afraid 0.000100567918412
impression 0.0
christian 0.000136438364875
profile 0.0
instant 0.0
drawing 0.0
wheels 8.07948203553e-05
favorite 0.000496670925634
picture 0.000124189591358
instead 0.00017527793131
appreciate 0.00128164550699
international 0.0
station 0.000109192651126
toddler 0.0
market 0.000262272240404
couldn 0.000405119912093
remember 0.000544685119745
vintage 0.0
holidays 0.0
friends 0.000273814728436
everyone 0.000350154719836
florida 0.0
always 0.00162527009409
months 0.000162485836778
moving 0.0
meeting 7.97232154297e-05
answer 0.000438477684863
sweetie 0.0
together 0.000195055460028
inside 0.000202559956047
section 0.0
missed 0.000197170066158
button 0.000129184050933
longer 8.98124137147e-05
enough 0.000943868371465
driving 4.75672715371e-05
building 4.37005982271e-05
enjoying 4.75672715371e-05
london 4.62772551822e-05
exploring 0.0
posting 0.00011678960968
amazing 0.000737225691016
attention 0.000176233413529
gordon 7.72475836858e-05
progress 5.39721683703e-05
tomorrow 0.000194530399909
george 0.000145087324321
feeling 8.14624754556e-05
excited 4.06214591946e-05
understand 0.00106041050311
following 0.000245047971455
asleep 0.000143457717685
learning 4.8228773235e-05
evening 4.45405640708e-05
special 0.000431441723399
secret 8.7164155491e-05
across 4.3463919159e-05
surprised 9.28086774696e-05
anymore 0.000198346795097
sophia 0.0
precious 8.20533672801e-05
rejoice 0.0
version 0.000214974299989
rather 0.000437005982271
avatar 9.85515108273e-05
showing 0.000124525599468
saying 0.00113740085745
tweeted 0.000514263862929
thoughts 0.000165139403959
exactly 0.000967689615411
except 0.000148760096323
getting 0.000817027679618
nothing 0.000739215519654
tweets 0.000300149347644
course 0.000401854330941
photos 0.0
looked 0.000265070063327
difficult 0.000205126899159
stages 0.0
office 0.000252440769238
decisions 0.000176230283945
brought 0.000129334778512
biggest 0.000160308759708
thrilled 0.0
something 0.00175077359918
closing 5.78776892561e-05
anyone 0.000392219748544
taking 0.000233436479891
recently 0.000151699258906
interesting 0.000433461202644
original 0.000414218999889
flying 0.0
happening 0.000127249260373
sometimes 0.000343027825879
lessons 0.000169099665341
village 7.81043767748e-05
stopped 9.12960466364e-05
yesterday 0.000549107647962
service 8.55248908865e-05
serious 0.000457829470742
digital 0.0
hoarder 0.0
wearing 0.0
british 0.0
either 0.000678662721987
second 0.000392219748544
checking 5.04249317008e-05
indeed 0.000212217648582
island 0.0
hearing 4.3463919159e-05
choose 0.000549276645854
staying 5.26035692943e-05
another 0.000582020282381
clothes 6.45920254664e-05
slowly 0.0
weekend 0.000354906119084
hashtag 5.73673929778e-05
delivery 7.1242098877e-05
theory 0.000127571621486
working 0.000544685119745
bigger 0.000182592093273
screen 0.0
riding 6.73346431943e-05
laughing 0.0139374774599
wanted 0.000314622790488
trends 0.0
stripes 0.0
clothing 0.0
current 9.17969792202e-05
adorable 0.0
grateful 5.08509569983e-05
friendship 0.0
family 0.000544685119745
listening 0.000127940278609
stream 0.0
expressions 0.0
wedding 0.000118190440936
sharing 4.57730538212e-05
double 0.000484641887206
especially 8.62231856748e-05
middle 4.46620615238e-05
waiting 0.000199308038574
definitely 0.000510377021359
walking 9.33195295819e-05
account 0.000182592093273
completely 0.000553807051389
thought 0.000666773572525
reaction 0.0
accept 0.000149175448183
simple 0.000135826012635
professional 5.77068417071e-05
friendly 0.0
supposed 0.000310304051109
business 0.000461557955693
absolutely 0.000457829470742
anywhere 5.18636441317e-05
sending 9.03038046607e-05
introducing 0.0
congrats 0.000285889300031
beauty 5.57134272551e-05
community 0.0
greatest 0.00012759425534
selfie 0.0
posted 4.6024333321e-05
saturday 8.2124908721e-05
wednesday 9.38337760852e-05
confused 0.000226789199688
expression 0.0
chicago 0.000211614187279
closest 0.0
relationship 0.000104611798622
actually 0.00139515627002
easter 5.32058679435e-05
basket 9.0608462728e-05
myself 5.09940141187e-05
argument 0.000299944765979
school 0.000434945166855
thursday 0.00012486258293
selling 0.0
talented 5.11376020645e-05
celebrate 0.000128984579993
falcon 0.000121199193683
celebrating 4.64043387348e-05
contest 5.07084267929e-05
experiences 0.0
students 0.0
internet 0.000145087324321
figure 0.000511850251164
opened 0.0
featuring 0.0
inspired 0.0
sitting 8.78774675819e-05
playing 0.000514026106283
street 4.31115928374e-05
points 0.000249320485725
memory 0.0
forever 0.0
imagine 0.000130038360793
problem 0.000876403831952
played 0.000608494868226
canadian 0.0
pulling 0.0
keeping 0.000130391757477
lovely 4.89017798853e-05
dressed 0.000251204413954
specifically 0.000154495167372
unlike 0.0
disappointed 0.000117137447632
otherwise 0.000331384291771
afternoon 4.57730538212e-05
planned 0.0
strange 5.98085477082e-05
images 0.0
noticed 0.000123303211781
notice 0.000105506534761
stretch 0.0
inspiration 5.33579188542e-05
letting 4.78305168176e-05
system 0.000534942881454
possibility 0.0
almost 0.0004279668798
details 4.25314184466e-05
experience 0.000203107295973
living 0.000121864377584
weather 4.97251493943e-05
normal 0.000260789593034
launching 0.0
before 0.0003374995494
captured 0.0
colors 0.0
monday 4.06214591946e-05
example 0.000411411090343
realize 0.000558756786752
autographed 0.0
sleeping 6.18408331968e-05
authentic 0.0
science 0.000164736661307
tweeting 0.00022209723446
forgot 0.00014629871675
chasing 0.0
gorgeous 0.0
herself 0.0
happens 0.000241763879334
silence 0.00018382771444
learned 0.000135086578791
congratulations 4.28784782348e-05
natural 0.0
raised 0.000203403827993
babies 0.0
mission 0.0
smelled 0.0
ironic 0.0
testing 0.0
deleted 0.0
barely 0.0
unforgettable 0.0
forgotten 5.78776892561e-05
trouble 0.000144286695486
fantastic 9.17969792202e-05
loving 9.17969792202e-05
complete 0.0
nearly 0.000102275204129
spirit 0.0
launched 0.0
finding 4.75672715371e-05
mercury 0.0
stories 0.000252440769238
including 4.32286788783e-05
mature 0.0
stuffed 9.8064750862e-05
ancient 0.0
bottle 0.0
somewhere 0.0
wouldn 0.000377638327385
choice 0.000249051198936
conversation 0.000473058049545
making 0.000543218930222
expect 0.000186639059164
occasions 0.0
subject 0.000130415808721
flights 7.89805705918e-05
location 6.10894133342e-05
vacation 0.0
seriously 0.000429948599978
spending 9.67248828809e-05
groups 0.0
childhood 6.33889159099e-05
modern 5.60386132612e-05
welcome 0.000196639244055
moments 0.0
degrees 7.29732396007e-05
jacket 0.0
halloween 0.0
costume 0.0
totally 0.000314343448001
laughed 0.0
flight 0.000186639059164
kidding 0.0
regular 0.000173120525121
context 0.000196872012431
running 0.000326730628607
finished 4.65318410149e-05
strong 4.0077189927e-05
tracking 0.0
respond 0.000293717139909
message 4.12848509899e-05
coming 0.00104763650829
thankful 0.0
cheese 6.16516058906e-05
greens 0.0
issues 0.000232021693674
intolerance 0.0
happen 0.000396472198701
giving 0.000235967092866
turkey 0.000113394599844
excellent 0.000253542133965
limits 0.0
common 0.00024047782581
pressed 0.0
situation 0.000152552870995
options 0.0
health 0.00018359395844
insurance 0.000268466527496
change 0.000350154719836
singing 0.0
august 0.0
crying 0.000122551809627
mental 0.0
happened 0.000532372535773
demand 0.000153845174369
generally 0.000157372592233
personal 4.23017625381e-05
beyond 8.6927838318e-05
bruised 0.0
question 0.000914348102457
chicken 0.000726383822778
reward 0.0
tunnel 0.0
losing 0.000527590954708
respect 8.50628368932e-05
caption 0.0
shouldn 0.000465318410149
visited 0.0
reason 0.000696179469857
simply 4.86311710413e-05
darlin 0.0
audience 0.000376723826462
involved 4.52753375451e-05
unhappy 0.0
reality 4.62772551822e-05
extremely 0.000226126296628
without 0.000313775798835
falling 0.000114734785956
countdown 0.000141522771552
locations 9.26563959755e-05
timing 6.91244145231e-05
crabby 0.0
classic 4.76986703288e-05
highly 5.53909511639e-05
online 0.0
finger 0.0
animals 0.0
planets 0.0
called 0.000547629456873
delicious 0.0
almond 0.0
compliment 0.0
pictures 0.000147522883324
camera 0.0
pillow 0.0
checked 0.000165692145886
heading 4.62772551822e-05
theater 0.0
paying 0.000303398517812
planning 5.05664196354e-05
complex 6.39857952037e-05
sunday 8.03708661882e-05
nights 0.0
descending 0.0
traffic 0.00011678960968
opposite 0.000127571621486
through 0.0
lookout 0.0
reached 0.000173120525121
harder 5.41272664016e-05
random 5.66972999221e-05
changes 0.000192382260648
speaking 0.000267243384425
recorded 0.0
washed 0.000106699716115
november 0.0
answered 0.000122926598804
enchanted 0.0
number 0.000279031254004
adventures 0.0
eclipse 0.0
chocolate 5.9628979372e-05
unless 0.000239814070322
calling 0.000163365314304
mermaid 0.0
distraction 9.71092231289e-05
levels 0.000179425643125
option 0.000169099665341
shopping 0.0
former 0.000293410679312
actual 0.000103434683703
covers 6.29960505355e-05
mountain 0.000206007454628
friday 0.000197170066158
winner 0.000302600752148
closes 0.0
quality 0.000150851877618
father 4.42987076147e-05
wishes 0.0
hourly 0.0
matter 0.000626002737109
themselves 0.000271984579569
usually 0.000414909153053
period 0.000174147883339
parents 0.000186639059164
balance 0.0
publishing 8.30248887754e-05
mobile 0.0
woohoo 0.0
bracelets 0.0
summer 0.00020979907077
reminded 6.75538897128e-05
impressed 0.000176756773378
necklace 0.0
shutdown 0.0
dinner 0.000128984579993
single 0.000320617519416
packed 0.0
definition 6.39857952037e-05
energy 4.62772551822e-05
preview 5.53909511639e-05
monster 0.0
material 0.0
admission 0.000103788802379
europe 0.0
holiday 4.47839416466e-05
emotional 5.60386132612e-05
update 4.53991677531e-05
customers 8.40214307221e-05
messing 9.85515108273e-05
holding 4.6024333321e-05
electric 0.0
eating 4.86311710413e-05
outfit 0.0
picked 0.00053346230265
fabulous 0.0
missing 4.15085331561e-05
surprise 8.32417219532e-05
officially 9.07983355063e-05
french 0.0
global 0.0
follow 0.00023469833866
opinion 0.000405667414344
backwards 8.36863904733e-05
design 0.0
secrets 0.0
request 0.0
breaks 0.0
allows 0.0
promoting 0.0
volunteer 0.0
wondering 0.00010580709364
official 8.03708661882e-05
sweater 0.0
jersey 0.000196246184926
mistake 0.000215270757978
france 0.0
proper 0.0
ginger 0.0
peaceful 0.0
lighter 0.0
thinks 9.07983355063e-05
competition 5.26035692943e-05
hospital 5.66972999221e-05
industry 5.49122204355e-05
trending 0.0
leadership 6.09038163022e-05
organized 9.85515108273e-05
showed 0.000146705339656
circle 0.0
success 0.0
ladies 0.0
dreams 0.0
protect 4.9864097145e-05
onesie 0.0
explanation 0.000139170194856
control 0.000217319595795
coincidence 0.0
discovering 0.0
laying 0.0
invited 0.000219015802626
healthy 5.27532673804e-05
surgery 0.0
allowing 6.82191824376e-05
arrived 0.0
opening 4.23017625381e-05
popular 5.32058679435e-05
pleasure 4.87662389166e-05
spectacular 0.000213002987618
animal 5.839480484e-05
luggage 0.0
wonder 4.2187443675e-05
matters 0.000153412806194
reader 0.0
function 0.0
marketing 0.0
connection 0.0
improves 0.0
benefit 9.75324778333e-05
continues 4.74363174121e-05
cuddle 0.0
routine 7.89805705918e-05
exciting 0.0
corner 0.000111103706592
imagination 0.0
sangria 0.0
mystery 7.07613857759e-05
spring 0.0
beautifully 0.0
places 9.28086774696e-05
feedback 0.0
continue 4.49062068573e-05
attend 0.0
creative 0.0
memories 0.000106411735887
female 0.000103727288263
grandma 0.000328213469121
closer 0.0
accent 0.0
beginning 9.78035597707e-05
sooner 0.0
everywhere 4.64043387348e-05
scenes 0.000148760096323
bought 0.000142701814611
wishing 0.000112733110227
discovered 6.47962312543e-05
remove 0.0
predict 0.0
parrot 0.000131176382748
several 0.000112077226522
teacher 0.000174147883339
passing 0.000105207138589
become 0.000203107295973
spread 0.0
netflix 0.0
season 0.000343027825879
putting 0.00020420664288
weight 0.0
outfits 0.0
notification 0.0
annoying 0.0
necessity 0.0
knocks 0.0
processed 0.0
necessarily 0.0
effects 0.0
lighting 0.0
headed 5.14263862929e-05
returns 0.000104315837214
expected 5.57134272551e-05
bucket 7.32269907198e-05
constantly 0.000143457717685
sweetest 0.0
struggling 0.000134669286389
register 0.0
transition 0.0
flowers 0.0
sprain 0.0
savage 9.10094705342e-05
somebody 0.000754640827804
covering 0.000180510611031
gloves 0.0
repeat 0.0
managers 0.0
brothers 5.9628979372e-05
patriots 0.000674875176989
seahawks 0.000422035792406
player 0.00070567885143
chemistry 8.50443160126e-05
moonlight 0.000450256913717
comment 0.000351004488866
columbia 0.0
physical 0.0
kingdom 0.0
pretend 0.000204657547313
charles 6.24141311937e-05
fighting 0.0
rooting 0.000233449998311
donald 5.58756786752e-05
mexico 0.0
police 0.000351004488866
represent 6.58337439905e-05
president 0.000648430183175
talking 0.0007021996561
unbelievable 0.000123681666394
shrimp 0.000113997611075
giants 0.000225957674859
conference 4.8228773235e-05
america 0.000745137548148
everybody 0.000719442210966
houston 6.62566652165e-05
everyday 5.52307152952e-05
michael 0.000219693668955
protecting 0.0
unconditional 0.0
million 0.000367571957183
election 0.000107327649701
telling 0.000265070063327
correct 0.000200573993638
pulled 0.00011678960968
starbucks 0.0
americans 5.41272664016e-05
killed 0.0
cowboys 0.00019908758716
cowboy 9.66401639677e-05
coverage 5.27532673804e-05
dallas 0.000128373637099
coffee 4.90377972732e-05
timeline 6.66842596998e-05
refuse 0.0
barackobama 0.0
hillary 6.95850974282e-05
clinton 0.000254347417939
gatorade 0.0
sharper 0.0
american 0.000247709105939
deserved 0.000237800961815
realist 0.0
illegal 0.0
arizona 0.0
waffle 0.00023406843976
scared 0.0
pieces 0.000115073490277
taught 0.0
golden 0.000209817792324
straight 0.000431115928374
massage 0.0
filter 8.60949753115e-05
answers 0.0
smoking 0.0
created 0.000187152451435
beside 0.0
worlds 0.0
record 0.000121864377584
freddie 0.0
africa 0.0
recruiting 0.0
journey 5.05664196354e-05
snapchat 0.0
brother 4.74363174121e-05
prayers 6.09038163022e-05
trolling 9.10094705342e-05
hungry 6.26071336237e-05
nflnetwork 0.0
documentary 5.82216640277e-05
boston 0.000168606710371
addition 0.0
church 0.000590952204682
honestly 0.000333311119776
lounge 0.0
lifetime 0.000117486855964
captain 0.000132089253679
favorites 0.000138248829046
country 0.000241112598565
valley 0.0
huddle 0.0
dressing 7.55888909016e-05
finish 4.78305168176e-05
favourite 0.0
prayer 0.0
nominated 0.0
praying 7.98770641304e-05
insane 0.000172610235416
national 0.000210367307698
reform 7.69661503944e-05
shooting 0.000340418197289
australia 0.0
deserve 0.000333890692302
legend 0.000103727288263
mother 0.000346768962115
realest 0.0
creating 0.000214042278292
powerful 4.74363174121e-05
chilling 0.0
wisdom 0.0
breaking 0.000209232497788
parked 0.0
angeles 0.0
dollars 0.0
questions 3.98616077148e-05
racist 0.000560410646906
girlfriend 0.0
performance 9.00577191942e-05
refreshing 0.0
educated 0.000170782751602
reading 0.00012385455297
denver 0.0
videos 0.0
harmony 0.0
create 9.00577191942e-05
jordan 0.000203323156518
admire 0.000143949108631
nobody 0.00042928803296
government 5.82216640277e-05
politics 0.00137677850487
paradise 0.0
recover 0.000175824130638
spotted 0.000131248008287
blessing 8.23745052809e-05
coolest 0.0
banana 8.30248887754e-05
donate 0.0
sandwich 0.000505552738167
lookin 0.0
method 8.14189775478e-05
bullshit 0.0
slight 9.10094705342e-05
bringing 0.000131101794681
deserves 5.17173418515e-05
regret 0.0
celebs 0.0
victim 0.0
stadium 0.000329168719952
funniest 0.0
according 5.15715906171e-05
pumped 7.75310787779e-05
hamburger 0.0
heaven 0.0
honest 0.000338537090083
rolling 0.00017518441452
became 0.000194524684165
feature 5.33579188542e-05
waking 0.0
breakfast 4.89017798853e-05
counting 0.00011046143059
signing 0.0
adding 0.0
awareness 0.0
kindest 0.0
trainer 0.0
facebook 8.32417219532e-05
insanity 0.0
repost 9.39392838589e-05
brazilian 0.0
campaign 0.0
borrow 8.86634851818e-05
scorpion 0.000155787180908
popcorn 0.0
factory 0.0
teenage 0.0
endorsement 0.0
williams 0.000124061980741
custom 0.0
drinks 0.000139170194856
future 0.000200385949635
angels 0.0
fingers 6.03523071049e-05
sister 5.23058993111e-05
earrings 0.000128964528923
warrior 0.0
dancing 0.0
voting 4.79628140644e-05
individuals 0.0
presence 0.000231742751057
commercial 0.000213431675417
chopped 0.0
religion 0.0
century 0.0
submit 0.0
serving 0.0
because 0.00044830890609
aggressive 7.75310787779e-05
sensitive 8.14189775478e-05
smiling 0.0
besides 0.000242384461066
cleveland 0.00023006024739
hometown 6.95850974282e-05
killing 0.0
breath 0.0
phillips 0.0
instagram 0.0
sharks 0.0
cousin 0.0
honored 5.39721683703e-05
dedication 0.0
lifting 0.0
lyrical 0.0
talent 0.000259318220658
goodnight 0.000149042644628
stores 0.0
rushing 0.0
brains 0.0
sandwiches 9.954379358e-05
drinking 5.78776892561e-05
brazil 0.0
tattoo 0.0
ravens 0.000113274283342
regardless 0.000206007454628
skills 0.0
cameras 7.81043767748e-05
phones 0.000143457717685
california 0.0
seconds 5.201050164e-05
listen 0.000562596063318
smiled 0.0
kicking 0.000109824440871
homies 0.0
billion 5.57134272551e-05
shades 8.75417571632e-05
shoutout 0.0
grammy 0.0
guilty 0.0
stevie 0.0
ceiling 0.0
carpet 6.6899841912e-05
grammys 0.0
harvard 0.0
panther 0.000141557369289
nelson 0.0
mandela 0.0
handle 0.000152125280379
sexiest 0.0
promise 0.000138451762847
hosting 0.000101988028237
hahahaha 0.0
longest 6.91244145231e-05
tuesday 0.000132535031663
locker 0.00026152487727
workout 0.000151177781803
ingredient 0.0
leader 0.000202833707172
pageant 0.0
character 0.00020804200656
idiotic 0.000118646824337
mirror 0.0
jackson 0.000314005517442
interview 0.000434945166855
battles 0.0
bleach 0.0
insight 0.0
obviously 0.000436770604503
replay 8.60949753115e-05
battle 0.0
stomped 0.0
destroy 6.75538897128e-05
killer 5.90952204682e-05
personally 0.000112404473581
winning 0.000332068265248
gettin 0.0
japanese 0.0
writing 0.0
society 0.000107327649701
officers 8.23745052809e-05
brooklyn 0.0
sources 0.0
incredible 0.000293718699078
poster 0.0
celebrity 0.0
memorable 0.000160972953671
werent 0.0
chased 0.0
minute 0.000306736379793
confession 0.0
pregnant 0.0
cherry 0.000170782751602
twinning 0.0
phoenix 0.0
orange 0.0
policy 0.000228123584056
comedy 0.000182157315535
illuminati 0.0
reminder 0.0
evidence 0.000115413683414
iphone 6.20309903706e-05
kicked 0.0
intentions 0.0
freedom 0.000162381799205
patient 0.0
utterly 0.0
mississippi 0.000219695081521
download 0.000164736661307
assistant 0.0
invite 0.00011014228039
central 5.12817247898e-05
washington 0.000308558317757
stronger 6.18408331968e-05
promised 0.0
worried 0.000112404473581
throwing 0.000127571621486
security 0.000154714771851
cologne 0.0
headphones 0.0
sanctuary 0.0
fantasy 0.0
monkey 0.0
approve 0.0
spinach 0.0
turning 0.0
helping 8.55248908865e-05
tickets 4.70460931943e-05
collector 0.0
physically 0.0
slavery 9.75840377609e-05
december 5.39721683703e-05
basically 0.000510275699299
return 8.59897199955e-05
yassss 0.0
goddess 0.0
locked 0.0
feelings 0.0
language 0.0
motion 6.84435129615e-05
obsessed 0.0
creation 0.0
followers 0.0
schools 0.000165692145886
gallery 0.0
movies 0.000640438304304
foster 8.04864768354e-05
children 8.55248908865e-05
nation 0.000146705339656
theaters 8.26983306602e-05
between 8.53913758009e-05
knowledge 0.0
begins 0.0
robinthicke 0.0
faithful 0.0
peeing 0.0
closet 9.14146774514e-05
bodies 0.0
italian 0.0
highlights 0.000351412342896
spanking 0.0
forbes 0.0
parade 0.0
tasted 0.0
consider 0.000154714771851
reunion 0.0
latest 0.000336587692317
dedicated 0.0
beyonce 0.0
perform 0.0
signed 0.000300149347644
tuxedo 0.0
princess 0.0
shelter 0.0
germany 0.0
explaining 6.7116631874e-05
married 0.000517830706248
millions 0.000263017846472
blessings 0.0
iconic 7.92771000658e-05
indonesia 0.0
braids 0.0
dollar 0.0
rigged 0.0
replied 0.0
lights 0.000167627036026
turned 8.52935190729e-05
excuses 0.000172903262714
jackie 9.61767224165e-05
charge 0.000215270757978
performing 0.0
ticket 0.0
steady 9.35069116848e-05
whispers 0.0
finest 0.0
confucius 0.0
diamonds 0.0
vancouver 0.0
addicts 0.0
collection 0.000160073756563
families 0.0
select 6.93540704315e-05
hitting 0.000207454576527
announced 4.73058049545e-05
decided 0.0
jewels 0.0
lottery 0.0
owners 0.000448712796296
respects 0.0
celebration 0.0
memorial 0.0
landed 0.0
pastor 0.000363597581048
ultimate 5.63665551137e-05
incase 0.0
rapper 0.0
episode 0.000185617354939
bounce 0.0
disney 0.0
muffin 0.0
kansas 0.000466899996622
sherman 0.000123931875114
retweet 0.0
midnight 0.0
patience 0.0
cereal 9.90444717231e-05
joining 4.57730538212e-05
released 0.0
release 0.0
models 0.0
classics 0.0
popped 9.48187968772e-05
mileycyrus 0.0
highlight 0.000245853197609
scholarship 0.0
within 0.000148760096323
hahahahaha 0.0
standing 0.000133258340676
higher 0.0
purple 0.000289882701213
skinny 0.0
justice 0.000156917697933
served 5.87434279818e-05
speaks 0.000112404473581
horses 0.0
houses 7.95759193654e-05
purchase 0.0
dropped 0.000143888442193
conversations 7.22218197381e-05
consideration 9.90444717231e-05
seattle 0.0
cookie 0.00015620875355
slurpee 0.0
strength 0.0
screens 0.0
monica 9.39392838589e-05
incredibly 5.49122204355e-05
streets 0.000171596336211
boyfriend 0.0
private 0.0
skittles 0.0
barbie 0.0
apologizes 0.0
designer 0.0
impress 0.0
cooking 0.0
exclusive 4.61505876157e-05
fashion 0.0
petite 0.0
talkin 0.000182829354903
peaches 0.0
bitches 0.0
nailed 0.00078394242602
weirdest 0.0
whomever 0.0
teaching 0.0
disgusting 7.6133926771e-05
chillin 0.0
philly 0.0
rights 5.24544480809e-05
dinosaur 0.0
exotic 0.000124887402847
dancers 0.0
cheers 6.01702036771e-05
presents 0.0
flawless 9.954379358e-05
dating 7.69661503944e-05
victory 5.55518532959e-05
marley 0.0
productive 7.72475836858e-05
smurfs 0.0
halftime 0.0
insecure 0.000218394314532
horror 7.72475836858e-05
warning 5.62022367904e-05
discovery 0.0
convention 7.47854660493e-05
understanding 0.000112077226522
action 8.34670316145e-05
having 0.0
speaker 6.47962312543e-05
clever 0.00013293974371
theatre 0.000355004979364
honors 0.0
evolution 0.0
produce 0.0
spider 0.0
apologize 0.000143457717685
formation 0.0
letter 4.79628140644e-05
therapy 0.0
untrue 0.0
written 0.00023718158706
communication 0.0
disease 0.0
marching 0.0
suggest 0.000180510611031
georgetakei 0.0
hairstyle 0.0
humans 0.0
journal 0.0
foundation 0.0
access 9.56610336351e-05
venture 0.0
syndrome 0.0
writes 0.0
colorado 0.0
medicine 0.0
tremendous 0.000146964833552
nytimes 0.0
kindness 0.0
cannot 8.66922405288e-05
reveals 0.0
invented 7.2721141595e-05
sapphire 0.0
candidate 0.000123681666394
sexual 0.000204657547313
madison 0.0
illustration 0.0
newark 0.0
globally 0.0
incorrect 0.0
headline 0.000243615265209
reflect 7.17288588423e-05
streaming 0.0
leaders 0.0
supreme 0.000134233263748
protest 0.000395002463943
policies 7.05232502121e-05
silenced 0.0
defend 0.000254347417939
communicating 0.0
climate 0.0
wrapped 0.0
studio 0.000216509065606
conspiracy 7.668674913e-05
interviews 5.27532673804e-05
differentiation 0.0
confusing 7.8394242602e-05
february 0.0
hamilton 0.0
loneliest 0.0
amazon 0.0
scattered 0.0
francis 0.0
headlines 0.000143457717685
january 0.0
diversity 0.000143457717685
universal 6.86691515426e-05
hurricane 0.0
identifying 0.0
countries 0.0
tickled 0.0
becker 0.0
connected 0.0
suggestion 0.00022515427566
filled 0.0
education 0.000209223597245
mentioned 0.000228795114949
defining 0.0
exists 0.0
unexpected 0.0
plants 0.0
orders 6.98175119827e-05
olympics 0.0
ability 0.000169594722471
director 9.69931459364e-05
content 0.000121438210356
cycling 0.0
previously 0.0
correction 7.86862961166e-05
pearls 0.0
ambassador 0.0
preparing 0.0
depend 0.0
downloads 0.0
lovers 0.0
weekly 0.0
hudson 0.0
bridge 0.0
becoming 0.0
magazine 5.39721683703e-05
appropriate 0.000140573142288
shakespeare 0.0
travesty 0.0
discoveries 0.0
fellow 0.0
reviewed 0.0
copies 0.0
driven 0.0
aussies 0.0
result 5.60386132612e-05
announcing 0.0
visual 0.0
restrictions 0.0
culture 0.000160991474551
edition 5.201050164e-05
prince 5.63665551137e-05
shocks 0.0
symmetry 0.0
clicks 0.0
disagree 0.000180510611031
experiments 0.0
mistakes 0.000138708140863
trolls 0.0
blossoms 0.0
offered 0.0
inspiring 0.0
counter 7.34824167759e-05
approach 0.0
embarrassing 0.000209452535948
creators 0.0
edited 0.0
berniesanders 0.0
overnight 0.0
spotlight 0.0
probable 0.0
repeating 0.000100049642705
concerns 7.10009958728e-05
massive 0.0
promising 0.0
promises 7.399838318e-05
colored 0.0
production 0.0
header 0.0
itunes 0.000385120911296
secretary 0.0
highway 0.0
dangerous 0.000104315837214
letters 7.19745543153e-05
typically 9.66401639677e-05
saving 0.0
pioneer 0.0
visuals 0.0
universe 6.24141311937e-05
ordering 0.0
victims 0.000112733110227
privacy 0.0
disclosure 0.0
proceeds 0.0
musical 0.0
collide 0.0
melbourne 0.0
correctly 7.78166661037e-05
campus 7.69661503944e-05
debate 0.000100007091219
conflict 0.0
meanwhile 0.000477534277063
petition 0.0
contribution 8.01805708392e-05
stated 0.0
humanity 0.000265026660866
illness 0.0
flawed 9.57187655095e-05
breathe 7.58604492582e-05
winners 0.000102852772586
spanish 0.0
comedic 0.0
awards 5.07084267929e-05
presidential 0.0
candidates 0.0
glasgow 0.0
smells 0.000170088632025
treasure 0.0
greater 0.0
themed 0.0
distribution 0.0
absurd 8.36863904733e-05
squirrel 0.0
sisters 0.00022199514954
stress 0.0
leading 4.9311274786e-05
resolution 0.0
achieved 0.0
interacting 0.0
boiling 0.000123931875114
examples 8.26983306602e-05
diverse 0.0
suicide 7.668674913e-05
parallel 0.0
minneapolis 0.0
impairs 0.0
pumping 0.0
slides 0.0
choreography 0.0
element 0.00019908758716
serves 0.0
jumping 7.29732396007e-05
rising 0.0
believed 0.0
features 0.0
environment 0.0
revealed 6.33889159099e-05
classical 0.0
confirmed 0.0
origins 0.0
combination 0.0
consumption 0.0
worldwide 0.0
deaths 0.0
responsible 0.0
overwhelmed 0.0
household 0.0
munich 0.0
alternate 0.0
blockers 0.0
restaurant 0.00012877778326
canada 0.0
versions 0.0
technology 6.50015203671e-05
identify 0.0
combined 7.22218197381e-05
santiago 0.0
branches 0.0
october 0.0
netherlands 0.0
belgium 0.0
european 0.0
imperial 0.0
perspective 0.000114734785956
cities 0.000582216640277
guinea 0.0
americas 0.0
posters 0.0
elastic 0.0
flames 0.0
presumably 0.0
exquisite 0.0
spreading 0.0
happiness 0.0
ashamed 0.000337437588495
naturally 0.0
malbec 0.0
wasting 0.0
hidden 0.0
coffin 0.0
freudian 0.0
genius 5.15715906171e-05
cultured 0.0
malaysia 0.0
traveling 0.0
prepared 0.000117486855964
county 7.17288588423e-05
quinoa 0.0
district 0.0
chosen 0.0
toilet 8.04864768354e-05
yorkers 0.0
ignores 0.0
messages 0.0
creativity 0.0
conventional 0.0
berlin 0.0
montreal 9.30793172015e-05
wonders 0.0
upcoming 0.0
lonely 0.0
australian 0.0
positions 8.20533672801e-05
singapore 0.0
scratch 8.3354226142e-05
deficiency 0.0
elevated 0.0
triggers 0.0
delicate 0.0
barrier 0.0
reflection 0.0
sydney 0.0
separates 0.0
centuries 0.0
israel 0.0
overwhelming 0.0
assault 7.4258969397e-05
protection 6.73346431943e-05
picker 0.0
additional 0.000161589640711
machine 0.000104611798622
samples 0.0
contrary 0.0
immediate 0.0
michelle 7.47854660493e-05
inspire 6.60446268394e-05
lyrics 0.0
missyelliott 0.0
constant 0.0
tuning 0.0
pandora 0.0
preshow 0.0
buenos 0.0
poland 0.0
philippines 0.0
nicely 0.000148517938794
september 0.0
manchester 0.0
checks 0.00022515427566
screenshot 0.0
universalorl 0.0
remarkable 0.0
rihanna 9.35069116848e-05
disgusted 0.000113274283342
flattered 0.0
fiction 7.78166661037e-05
angela 0.0
bitmoji 0.0
process 4.94487417405e-05
genuine 0.0
performances 0.0
comedians 0.0
flotus 0.0
strangers 0.0
hungover 0.0
confidence 6.07191051782e-05
studios 8.30248887754e-05
stjude 0.0
memphis 0.000100049642705
mikeypiff 0.0
chancetherapper 0.000136019809251
scream 0.0
jennifer 7.72475836858e-05
disappoint 0.000190532329893
newcastle 0.0
castle 0.0
literally 0.000287776884386
chrisrock 0.0
gentlemen 0.0
mtvnews 0.0
hillaryclinton 0.0
iamrashidajones 0.0
champagne 0.0
raleigh 0.000247863750228
ijessewilliams 0.0
acknowledge 0.0
buzzfeed 0.0
puppet 0.0
rehearsal 0.0
billboard 0.0
austria 0.0
sweden 0.0
republic 0.0
grilled 0.0
waltdisneyworld 0.0
katyperry 0.0
ronanfarrow 0.0
measly 0.0
bragging 0.0
treats 0.0
literal 0.0
cooper 0.0
counts 0.0
theellenshow 0.0
basking 0.0
cookies 0.0
festival 0.0
amsterdam 0.0
soundcheck 0.0
downloaded 0.0
encouraged 0.0
alright 0.0
jtimberlake 0.0
backstage 6.98175119827e-05
collab 0.0
joined 0.000143096010987
issarae 0.0
playlist 0.0
madness 0.0
romantic 0.0
selfies 0.0
exclusively 0.0
disneyland 0.0
refused 0.0
characters 0.000309204165984
amazingly 0.0
auction 0.0
express 0.000239955812783
gratitude 0.0
sesamestreet 0.0
thegrammys 0.0
throughout 6.14632994022e-05
awkward 0.000193776076399
shining 0.0
thrown 0.000147479080055
stylist 0.0
fighter 0.0
accepting 7.10009958728e-05
playin 0.0
applemusic 0.0
filmed 7.45213223138e-05
makeawish 0.0
bieber 0.0
remixes 0.0
toronto 6.91244145231e-05
capitolrecords 0.0
shazam 0.0
anthem 0.000141522771552
cosmopolitan 0.0
khloekardashian 0.0
cookin 0.0
songwriters 0.0
reveal 5.6531574157e-05
stands 5.38176894945e-05
spotify 0.0
phvegas 0.0
rocked 0.0
glasses 7.1242098877e-05
iambeckyg 0.0
relive 0.0
acoustic 0.0
announce 4.50288595971e-05
although 6.31919846605e-05
isaacfromct 0.0
shampoo 0.0
interactive 0.0
todayshow 0.0
haters 0.000245204617261
appreciation 0.0
floating 0.0
shondarhimes 0.0
showtime 0.0
premiere 6.31919846605e-05
broadway 0.0
makeup 8.3354226142e-05
starring 0.0
newest 0.0
designed 0.0
arianagrande 0.0
aladdin 0.0
swaggy 0.0
owning 0.0
producer 0.0
legendary 6.20309903706e-05
jasmine 0.0
costumes 0.0
square 0.000104908896162
emojis 0.000208707461526
jessica 0.0
magical 0.0
thedoctorluke 0.0
thirsty 0.0
therealjuicyj 0.0
symbols 0.0
privilege 0.000215186576527
spiral 0.0
retrograde 0.0
footage 0.00019016674773
theirs 0.000226548566684
universes 0.0
remembering 0.0
floated 0.0
construction 0.0
consciousness 0.000110509042458
delights 0.0
explodes 0.0
submissions 0.0
pleased 0.0
shredding 0.0
filters 0.0
weasel 0.0
reflective 0.0
firework 0.0
islands 0.0
interstellar 0.0
bubble 0.0
customs 0.0
festive 0.0
window 5.68637384884e-05
senator 0.0
slightly 6.6899841912e-05
therealbuzz 0.0
printing 0.0
snowflake 0.0
applications 0.0
elephant 8.60949753115e-05
fifteen 0.0
editions 0.0
newspaper 0.000144941350606
rainbow 0.0
unlimited 0.0
sirius 0.0
matthew 0.0
affected 0.0
capturing 0.0
canyon 0.0
rivers 0.0
spoken 6.47962312543e-05
accidentally 7.4258969397e-05
bizarre 0.0
dolphin 0.0
successfully 0.000170088632025
liquid 0.0
graffiti 0.0
swallowing 0.0
messenger 0.0
heroes 5.90952204682e-05
disturbing 8.20533672801e-05
graduates 0.0
rewrite 0.0
describe 0.0
hollywood 0.000171092688042
equality 0.0
announcement 0.0
breakout 0.0
dreaming 0.0
animation 0.0
calendar 7.55888909016e-05
circling 0.0
garden 0.0
enhanced 0.0
journalists 0.000277416281726
stirring 0.0
nominations 0.0
yelling 0.0
teachers 0.0
chapter 0.0
napoleon 0.0
aliens 0.0
subjects 0.0
revolution 0.0
mountains 0.0
wonderland 0.0
storage 0.0
crystals 0.0
circuit 0.0
invitation 0.0
kettle 0.0
adjective 0.0
woodpecker 0.0
operate 0.0
exhibition 9.954379358e-05
learnt 0.0
nomination 0.0
madonna 0.0
questioning 0.0
unplug 0.0
initiatives 0.0
switzerland 0.0
represents 0.0
throat 0.0
touchdown 0.0
desire 0.0
forced 0.000118900480908
swedish 0.0
hundred 0.0
prompts 0.0
rainbows 0.0
creates 0.0
oxford 0.0
balloons 0.0
liverpool 0.0
recreate 0.0
glorious 0.0
newton 0.000101608118034
creature 0.0
finalist 0.0
scouts 0.0
treading 0.0
tragedy 6.35868544848e-05
nottingham 0.0
debacle 0.0
legends 0.0
noises 0.000118646824337
addiction 0.0
survived 0.0
idioms 0.0
greeted 0.0
basics 0.0
masses 0.0
confirm 0.0
cadence 0.0
spaghetti 0.0
prepare 0.0
calendars 0.0
narrative 0.000508202047447
application 0.0
octopus 0.0
drumming 0.0
bloody 0.0
confetti 0.0
translate 0.0
birmingham 0.0
singles 0.0
completes 0.0
laptop 0.0
obvious 0.000262496016575
darling 0.0
deserving 9.26563959755e-05
miller 7.00513308633e-05
ordered 0.0
feelin 0.0
alicia 0.0
picasso 0.0
recipe 0.0
alphabetical 0.0
butterfly 0.0
timothy 0.0
mancini 0.0
untold 0.000132331600087
directed 0.0
hacked 0.0
admits 0.0
clocks 0.0
nugget 0.0
cnnopinion 0.0
grabbed 0.0
russia 0.0
surprises 0.0
waterfalls 0.0
olympic 0.0
magnificent 0.0
casual 9.43765416977e-05
assume 0.000190760563454
relief 0.0
subscribe 0.000152267853542
landslide 0.0
telegraph 0.0
standby 0.000141557369289
admitting 0.0
complacency 0.0
voices 0.0
sounding 0.0
douglas 0.0
democracy 0.0
locals 0.0
gossip 0.000102683101243
nickname 0.000396177886892
subtle 0.0
embarrassed 8.3354226142e-05
ireland 0.0
mornings 0.000194218446258
democratic 0.0
impressions 0.0
outgoing 0.0
treasury 0.0
refugees 0.0
unveiling 0.0
listing 0.0
deliver 6.14632994022e-05
negotiating 0.0
roller 0.0
prosperous 0.0
desperate 0.0
acknowledgement 0.0
executive 6.45920254664e-05
republicans 0.0
weapons 0.0
dropping 0.000175706171448
meaningful 0.0
nightmare 6.73346431943e-05
goodies 0.0
scandalous 0.0
rhetoric 0.0
divisive 0.0
vision 0.0
confirmation 0.0
throne 0.0
records 5.87434279818e-05
quoting 0.0
impatient 0.0
refugee 0.0
texted 0.000111182049109
exposed 0.0
stoked 0.0
priority 0.0
freedoms 0.0
notorious 0.000121199193683
empowering 0.0
unconstitutional 0.0
turkish 0.00010492702876
concerned 0.000248888346384
realdonaldtrump 0.0
goodwill 0.0
imagined 0.0
belfast 0.0
sleeve 0.0
basement 0.000100562192013
preposterous 0.000269501889053
griffith 0.0
timeless 0.000110509042458
truman 0.0
intended 8.20533672801e-05
inappropriate 0.0
industries 0.0
responsibility 0.000191357432229
documentaries 0.0
vulnerable 0.000155633332207
respectful 0.0
markets 0.0
claire 0.0
nuggets 0.0
boards 0.0
sequins 0.0
capitol 0.0
technical 0.0
applying 0.0
guitar 0.0
donating 7.00513308633e-05
continually 0.0
norway 0.0
applause 0.0
ballot 8.07948203553e-05
finely 0.0
shakes 0.0
varied 0.0
proverb 0.0
vibrant 0.0
flower 0.0
survives 0.0
fierce 9.14146774514e-05
shopped 0.0
sincerely 0.000184476093921
apology 7.29732396007e-05
sweaty 0.0
conspiracies 0.0
climbing 0.0
relaxed 0.0
encourage 0.000131667487981
funnyordie 0.0
essentials 0.0
jimmykimmellive 0.0
rejectedjokes 0.0
protesting 9.8064750862e-05
releasing 0.0
cleaner 0.0
preferred 9.22380469604e-05
incarceration 0.0
jkcorden 0.0
koppel 0.0
bikini 0.0
transparency 0.0
kamalaharris 0.0
nutshell 0.000118646824337
walled 0.0
floored 0.0
plotting 0.000122088816931
gandhi 0.0
vilify 0.0
meditate 0.0
violent 0.0
preschool 0.0
rhythm 0.0
matching 0.0
senwarren 0.0
venezuela 0.0
candle 0.0
donates 0.0
peacefully 0.0
chelseahandler 0.0
experiencing 0.0
sarabareilles 0.0
haunting 0.0
constitution 0.0
explode 0.0
deeper 8.23745052809e-05
empathy 0.000419708115039
mrgaryhuang 0.0
scored 0.0
charitable 0.0
perfume 0.0
giraffe 0.0
noticing 0.0
noodle 0.0
wrongly 0.0
marshmallow 0.0
fraudulent 0.0
everytime 0.0
helluva 0.00012687229469
therapists 0.0
tangible 0.0
sarahksilverman 0.0
johnfugelsang 0.0
exceptional 0.000277969187926
miracle 0.0
avocado 0.0
snacks 0.0
spelled 0.000206464005489
parental 0.0
superbowl 0.0
shoulders 0.0
valentine 0.0
glitter 0.0
stocking 0.0
poehler 0.0
thumbs 0.0
tinatbh 0.0
educational 9.30793172015e-05
voicemail 0.0
thetweetofgod 0.0
esteem 0.0
teaches 0.0
goodbye 0.0
reminding 8.53913758009e-05
supplies 0.0
ryanseacrest 0.0
okmagazine 0.0
shoots 0.0
bowing 0.0
jennyslate 0.0
craigyferg 0.0
masterpiece 0.0
sneaky 0.0
nashville 0.0
chronicles 0.0
potato 0.0
freakin 0.0
perezhilton 0.0
unethical 0.0
paparazzi 0.0
mantra 0.0
consuming 0.0
unauthorized 0.0
vanityfair 0.0
stalking 0.000118646824337
shoulda 0.0
yeppers 0.0
sacred 0.000101608118034
existed 0.0
earned 0.000205330538885
woulda 0.0
ellenpage 0.0
choker 0.0
contribute 0.0
mustache 0.000111866967998
washes 0.0
creeps 0.0
champion 0.000184954817672
auntie 0.0
magazines 0.0
waited 0.0
conscious 0.0
cracker 0.0
denmark 0.0
potion 0.0
windex 0.0
scarfing 0.0
ladygaga 0.0
purposely 0.000149822026386
pretending 0.0
luckiest 0.0
mascara 0.0
tastes 0.0
gardening 0.0
leashes 0.0
hippie 0.0
womensmarch 0.0
reunited 0.0
clique 0.0
premiering 0.0
rollingstone 0.0
childrensla 0.0
dollywood 0.0
godmother 0.0
eltonofficial 0.0
vmagazine 0.0
donorschoose 0.0
yesssssss 0.0
bettemidler 0.0
rehearsing 0.0
trevorproject 0.0
unicef 0.0
ellemagazine 0.0
yasssss 0.0
acceptance 0.0
solidarity 0.0
pharrell 0.0
greece 0.0
papermagazine 0.0
johnmayer 0.0
lipstick 0.0
tumblr 0.0
coldplay 0.0
colorful 0.0
translifeline 0.0
newsstands 0.0
feminist 0.0
pitchfork 0.0
labels 0.0
jenner 0.0
arkansas 0.000113997611075
beanie 0.0
sparkly 0.0
moschino 0.0
britneyspears 0.0
itsjeremyscott 0.0
nickiminaj 0.0
appstore 0.0
poetry 0.0
puttin 0.0
rubbed 0.0
shrine 0.0
skyferreira 0.0
freaking 0.0
besties 0.0
chanel 0.0
bedazzled 0.0
rubber 0.0
kendricklamar 0.0
popstar 0.0
sosadtoday 0.0
copenhagen 0.0
lenadunham 0.0
wearin 0.0
stoned 0.0
facetime 0.0
barclays 0.0
meditation 0.0
harpersbazaarus 0.0
stared 0.0
ritual 0.0
iconapop 0.0
doubted 0.0
staples 0.0
anaheim 0.0
jingle 0.0
tacoma 0.0
rehearsals 0.0
treadmill 0.0
metamorphosis 0.0
dental 0.0
jodyhighroller 0.0
versace 0.0
werking 0.0
couture 0.0
eggplant 0.0
bangin 0.0
cardigans 0.0
obnoxious 0.00012687229469
bestie 0.0
teganandsara 0.0
barrel 0.000108557524405
dedicating 0.0
jefferson 0.0
pumpkin 0.0
derekblasberg 0.0
glamourmag 0.0
presale 0.0
mtvstyle 0.0
deluxe 0.0
mtvema 0.0
reggae 0.0
azealiabanks 0.0
nominating 0.0
sailor 0.0
mornin 0.0
itunesmusic 0.0
bananas 0.0
lordemusic 0.0
vietnam 0.0
milwaukee 0.0
neworleans 0.0
circus 0.0
strolling 0.0
rapids 0.0
collegegameday 0.0
aaaaand 0.0
godfather 0.00012032956367
bestow 0.0
allison 0.0
rockthevote 0.0
birbigs 0.0
lucille 0.0
louder 0.0
farmers 0.0
shaved 0.0
niagara 0.0
realmattlucas 0.0
ferguson 0.0
painful 0.0
exchange 0.0
nickkroll 0.0
edmonton 0.0
mickey 0.0
angelenos 0.0
pooping 0.0
located 0.0
onslaught 0.0
finalists 0.0
bumped 9.75840377609e-05
sherlock 0.0
stockholm 0.0
casually 0.0
jjwatt 0.0
itstonybennett 0.0
mariolopezextra 0.0
klgandhoda 0.0
entrance 0.0
calgary 0.0
bowling 0.0
winnipeg 0.0
cheeto 0.0
gloriasteinem 0.0
feather 0.0
nathan 0.0
smelling 0.0
narnia 0.0
llamas 0.0
actuallynph 0.0
mourning 0.0
obsession 0.000243316921669
chilled 0.000138689619983
medically 0.0
hyperloop 0.0
aussie 0.0
flaring 0.0
eyeballs 0.0
stuffing 0.0
pitched 0.0
condiments 0.0
relatable 0.00012687229469
olivia 0.0
painted 0.0
mykonos 0.0
eyebrow 0.0
capitalcities 0.0
jackpot 0.0
hipster 0.0
sweating 0.000108557524405
restaurants 0.0
superfan 0.0
restraint 0.0
craziest 0.0
catheter 0.0
delivers 0.0
kanyewest 0.0
paints 0.0
dissect 0.0
billboards 0.000132331600087
milano 0.0
bjnovak 0.0
snapping 0.0
croissant 0.0
repjohnlewis 0.0
blklivesmatter 0.0
mydaughtersarmy 0.0
huddled 0.0
yearning 0.0
thereaibanksy 0.0
affordable 0.0
foodie 0.0
colombia 0.0
peeled 0.0
shootings 0.0
playground 0.0
breaky 0.0
photoshoot 0.0
smokin 0.0
accents 0.0
sweats 0.0
postmates 0.0
armband 0.0
unconscious 0.0
maddow 0.0
aquarium 0.0
holler 0.0
photoshop 0.0
robbie 0.0
espnmag 0.0
laundry 0.0
examining 0.0
zealand 0.0
stuntin 0.0
hehehe 0.0
nostalgia 0.000109197157266
buttons 0.0
slaying 0.0
monument 0.0
bringin 0.0
lining 0.0
muchas 0.0
gracias 0.0
madame 0.0
illustrated 0.0
boxers 0.0
grazie 0.0
winters 0.0
plastic 0.0
unbreakable 0.0
licking 0.0
cheeky 0.0
twerking 0.0
danish 0.0
drummer 0.0
florence 0.0
revoir 0.0
resume 9.39392838589e-05
dodger 0.0
brazilians 0.0
grimezsz 0.0
crocodile 0.0
hahahahahaha 0.0
parisians 0.0
taipei 0.0
taiwan 0.0
bangkok 0.0
uploaded 0.0
manila 0.0
hamburg 0.0
curating 0.0
aaaand 0.0
skating 0.0
brisbane 0.0
googleplay 0.0
raincoat 0.0
glastofest 0.0
vienna 0.0
burning 0.000136438364875
jamming 0.0
reaches 9.22380469604e-05
subtitles 0.0
wristband 0.0
barcelona 0.0
credits 8.98187025205e-05
dreamers 0.0
bogota 0.0
bursting 0.0
brunomars 0.0
beyoncé 0.0
subscribers 0.000209854057519
unlock 0.0
onedirection 0.0
amazonmusic 0.0
snippets 0.000148021845668
preorder 0.0
rehearse 0.0
bahnhof 0.0
delorean 0.0
fragrance 0.0
curate 0.0
samsmithworld 0.0
guitars 0.0
storyline 0.000264663200173
registering 0.0
beatsbydre 0.0
panama 0.0
celestial 0.0
orchestra 0.0
finland 0.0
climbed 0.0
topping 0.0
méxico 0.0
vasconcelos 0.0
leicester 0.0
itunesfestival 0.0
pondering 0.0
millennials 0.0
struck 0.0
watermelon 0.0
benefited 0.0
sophisticated 0.0
couples 0.0
villain 0.0
mindful 0.0
catholic 0.0
airline 0.0
secretly 0.0
playlists 0.0
veggie 0.0
receipts 0.000970827339878
foremost 0.0
bagpipe 0.0
drifting 0.0
trader 0.0
influenced 0.0
moscow 0.0
cobain 0.0
reaper 0.0
commune 0.0
handshake 0.0
despair 0.0
silicon 0.0
investing 0.0
construct 0.0
garland 0.0
coachella 0.0
offline 0.0
realisation 0.0
payback 0.0
educate 8.86634851818e-05
alliances 0.0
etched 0.0
momentarily 0.0
pronoun 0.0
lenses 0.0
validated 0.0
authenticity 0.0
choreographed 0.0
pokemon 0.0
disneyworld 0.0
patriotic 0.0
embody 0.0
snickers 0.0
impactful 0.0
refocus 0.0
eminem 0.0
mahatma 0.0
ecstatic 0.0
snfonnbc 0.0
avenue 0.0
picchu 0.0
doubters 0.0
beverly 0.0
intensity 0.0
outtake 0.0
temple 0.000101081621382
purchased 0.0
fountain 0.0
punched 0.0
goldfish 0.0
comparable 0.0
buyers 0.0
barbara 0.0
corybooker 0.0
listens 0.0
timeout 0.000383712820101
inducing 0.0
signage 0.0
penthouse 0.0
ahahaha 0.0
phenom 0.0
brilliantly 0.0
siphoning 0.0
herstory 0.0
prostitute 0.0
survivors 0.0
courageous 0.0
cruelty 0.0
margot 0.0
xenophobic 0.0
mcginley 0.0
yorkshire 0.0
chants 0.0
alancarr 0.0
chained 0.0
skillz 0.0
debunked 0.0
floods 0.0
fleetwood 0.0
cheesecake 0.0
adidas 0.0
uneven 0.0
raging 0.0
connections 0.0
headlining 0.0
devhynes 0.0
charli_xcx 0.0
shawnmendes 0.0
tavitulle 0.0
bahjournalist 0.0
tyleroakley 0.0
marquee 0.0
grease 0.0
screenshots 0.0
ddlovato 0.0
chattyman 0.0
grimmers 0.0
vevo_uk 0.0
bonniemckee 0.0
electrifying 0.0
idolator 0.0
onairromeo 0.0
godven 0.0
lookie 0.0
preordered 0.0
elvisduran 0.0
shanghai 0.0
tripped 0.0
konnichiwa 0.0
etnad_olegnad 0.0
unannounced 0.0
swedes 0.0
cinderella 0.0
slipper 0.0
jessesaintjohn 0.0
adorbs 0.0
onesies 0.0
jahnsuxx 0.0
walgreens 0.0
aphrodite 0.0
danceonfox 0.0
difficulties 0.0
mermaids 0.0
antique 0.0
girlshbo 0.0
yaaaaasss 0.0
lifesaving 0.0
queens 9.0608462728e-05
yaaaas 0.0
rollin 0.0
bestest 0.0
cleanse 0.0
iamtovelo 0.0
glamour 0.0
emelisande 0.0
lashes 0.0
austrian 0.0
magritte 0.0
misogynoir 0.0
litter 0.0001335223681
spiritual 0.0
preaching 0.0
adelaide 0.0
sheffield 0.0
impending 0.0
starve 0.000144654774504
excess 0.0
conciousness 0.0
vitamins 0.0
generator 0.0
purposefully 0.0
profiles 0.0
petals 0.0
persist 0.0
alexis 0.0
covergirl 0.0
sneezed 0.0
cushion 0.0
demconvention 0.0
directv 0.0
flo_tweet 0.0
billclinton 0.0
grounded 0.0
sunrise 0.0
fightin 0.0
sagekotsenburg 0.0
pwease 0.0
sadder 0.0
waterfall 0.0
sighting 0.0
firsts 0.0
muller 0.0
burritos 0.0
bungee 0.0
potting 0.0
dipping 0.0
closets 0.0
scratched 0.000143075089579
decorating 0.0
summers 0.0
havana 0.0
fresher 0.0
mowing 0.0
invading 0.0
addict 0.0
aesthetics 0.0
footwear 0.0
protector 0.0
hammock 0.0
repurpose 0.0
mishap 0.0
hamster 0.0
cellar 0.0
groove 0.0
mentored 0.0
exaggerate 0.0
scraping 0.0
apropos 0.0
trolled 0.000149822026386
jonlovett 0.0
rheabutcher 0.0
sickening 0.0
flustered 0.0
compiled 0.0
shirley 0.0
subtweet 0.0
pantsuit 0.0
patting 0.0
atrocious 0.0
amoeba 0.0
platter 0.0
aficionado 0.0
bearer 0.0
manifest 0.0
transformation 0.0
thighs 0.0
tapper 0.0
foaming 0.0
sophie 0.0
sabbath 0.0
vibrations 0.0
nutella 0.0
wilder 0.0
distractions 0.0
stripping 0.0
downloading 0.0
judith 0.0
crossroads 0.0
parsons 0.0
stella 0.0
narcissism 0.0
fawcett 0.0
trainers 0.0
surrounding 0.0
longtime 0.0
frosting 0.0
laurent 0.0
savory 0.0
acupuncture 0.0
cancelling 0.000132331600087
nutcracker 0.0
ballet 0.0
tempura 0.0
burner 0.0
voguemagazine 0.0
lagged 0.0
cuttlefish 0.0
passwords 0.0
funfetti 0.0
anagasteyer 0.0
gabbana 0.0
budapest 0.0
montage 0.0
crowns 0.0
scheduling 0.0
possessed 0.0
syncing 0.0
creatively 0.0
hieroglyphics 0.0
halftimes 0.0
floppy 0.0
nessie 0.0
feathers 0.000134750944526
kaceymusgraves 0.0
roaring 0.0
rightful 0.0
balconies 0.0
prodigy 0.0
raquin 0.0
gianni 0.000182609832893
monsieuradi 0.0
drowned 0.0
tropicana 0.0
diesel 0.0
shabbat 0.0
voiceless 0.0
passover 0.0
elevating 0.0
traumatic 0.0
dreamer 0.0
iwillharness 0.0
classrooms 0.0
eligibility 0.0
counselors 0.0
wainwright 0.0
moveon 0.0
runaway 0.0
baghdad 0.0
zaralarsson 0.0
snooze 0.0
iggyazalea 0.0
harviikills 0.0
bolognese 0.0
babysitting 0.0
mohegan 0.0
hooters 0.0
crusts 0.0
tracksuit 0.0
cupcake 0.0
xfactor 0.0
vitamin 0.0
lichtenstein 0.0
concourse 0.0
hitchcock 0.0
teller 0.0
pastels 0.0
remnants 0.0
banger 0.0
lyrically 0.0
boogers 0.0
ritaora 0.0
bumpin 0.0
dabbed 0.0
sleepin 0.0
tinashe 0.0
octaviaspencer 0.0
linder 0.0
musicallyapp 0.0
scavenger 0.0
sanging 0.0
corinthians 0.0
hollywoodbowl 0.0
kraken 0.0
discontinue 0.000198300078474
cypress 0.0
schooling 0.0
maritime 0.0
narration 0.0
zeitgeist 0.0
sampler 0.0
pseudo 0.0
bangladesh 0.0
hungary 0.0
mumble 0.0
sisterhood 0.0
soulful 0.0
lennykravitz 0.0
londontown 0.0
andradaymusic 0.0
lipsticks 0.0
realization 0.0
unconditionally 0.0
wildfire 0.0
goldie 0.0
minnie 0.0
solitude 0.0
waddle 0.000192334923952
westworldhbo 0.0
statuesque 0.0
uncasville 0.0
demented 0.0
skyway 0.0
twentyonepilots 0.0
rejoicing 0.000174844497653
clenching 0.0
adelphia 0.0
entirety 0.0
redhourben 0.0
lakewood 0.0
drjillstein 0.0
entail 0.0
whammy 0.0
smokers 0.0
gobble 0.0
topshop 0.0
cleowade 0.0
mkives 0.0
sweetbabayjamie 0.0
marchesafashion 0.0
hamsters 0.0
gurrrl 0.0
sofifii 0.0
sumthin 0.0
nicomiz 0.0
maisonvalentino 0.0
coziest 0.0
accessorize 0.0
thejgold 0.0
peruvian 0.0
amazeballs 0.0
sendin 0.0
fantabulous 0.0
timelines 0.0
regina 0.0
slovakia 0.0
graves 0.0
embracing 0.0
larsson 0.0
cullen 0.0
psychiatric 0.0
officialadele 0.0
butters 0.0
verrrry 0.0
buttered 0.0
winged 0.0
pedialyte 0.0
topanga 0.0
armpit 0.0
kittens 0.0
dueling 0.0
eagerly 0.0
surrealist 0.0
dethroned 0.0
manolos 0.0
señorita 0.0
monterrey 0.0
parque 0.0
retiree 0.0
batches 0.0
reservations 0.0
sickos 0.0
aplusk 0.0
kirkherbstreit 0.0
fanbases 0.0
indexing 0.0
chuckles 0.0
incorporated 0.0
washboard 0.0
earbuds 0.0
pantone 0.0
knotts 0.0
dismaland 0.0
pollock 0.0
iamkidpresident 0.0
mariah 0.0
teevee 0.0
santorini 0.0
appalachian 0.0
sunburnt 0.0
caliente 0.0
juicery 0.0
karlihenriquez 0.0
trillest 0.0
tommorrow 0.0
crumpets 0.0
fishin 0.0
grillin 0.0
jambalaya 0.0
pepperoni 0.0
cashew 0.0
graceland 0.0
pussies 0.0
delicately 0.0
eraser 0.0
choreo 0.0
snatched 0.000174844497653
elliptical 0.0
mooore 0.0
unborn 0.0
georgina 0.0
stalkers 0.0
sallykohn 0.0
expectancy 0.0
phillipines 0.0
appstoregames 0.0
wilkinson 0.0
puddings 0.0
loveland 0.0
spaced 0.0
shanny 0.0
dripping 0.0
gerber 0.0
shakey 0.0
weaves 0.0
unbeatable 0.0
linguist 0.0
prosthetics 0.0
battleship 0.0
serotonin 0.0
machiavellian 0.0
girlies 0.0
guangzhou 0.0
debuting 0.0
dissecting 0.0
warped 0.0
luckyjess 0.0
ermahgerd 0.0
fabulousness 0.0
elliegoulding 0.0
activewear 0.0
yelyahwilliams 0.0
prismatic 0.0
evaluations 0.0
skywalk 0.0
sparklers 0.0
palettes 0.0
gemmaanningram 0.0
trueeee 0.0
invisalign 0.0
pounded 0.0
lolgop 0.0
procession 0.0
stanning 0.0
squeals 0.0
continual 0.000342954852978
luminary 0.0
cummin 0.0
shaves 0.0
epixhd 0.0
preacher 0.0
boogiecousins 0.0
changers 0.0
autismspeaks 0.0
massaged 0.0
psssssst 0.0
literati 0.0
utilization 0.0
endangerment 0.0
purposeful 0.0
unlabeled 0.0
undiagnosed 0.0
snotty 0.0
gallops 0.0
slovenia 0.0
sequin 0.0
akerlund 0.0
jumbotron 0.0
edibles 0.0
knowles 0.0
caeser 0.0
thehollywoodbowl 0.0
elvispresley 0.0
adoring 0.0
ageist 0.0
thérèse 0.0
confessed 0.0
blackvoices 0.0
patties 0.0
graphically 0.0
wildflowers 0.0
groundhogs 0.0
eataly 0.0
poodles 0.0
hillaryforia 0.0
roadshow 0.0
sweety 0.0
boppin 0.0
bettywho 0.0
johnnywujek 0.0
earring 0.0
itsbennyblanco 0.0
curitiba 0.0
purrfect 0.0
shellback 0.0
chokers 0.0
hairbrush 0.0
hakuna 0.0
matata 0.0
hazing 0.0
mathew 0.0
aegean 0.0
lullaby 0.0
musiciansoncall 0.0
headpiece 0.0
morsel 0.0
whistled 0.0
conquest 0.0
viceland 0.0
lambily 0.0
scalped 0.0
graced 0.0
emblazoned 0.0
hrclosangeles 0.0
kawaii 0.0
glittery 0.0
wonderlandmag 0.0
jumpsmokers 0.0
radiodotcom 0.0
missyfranklin 0.0
pleaaaaase 0.0
lilbthebasedgod 0.0
waaaay 0.000307389893349
flossy 0.0
aria_official 0.0
berliners 0.0
matriarchy 0.0
cornered 0.0
limping 0.0
peasant 0.0
feasibly 0.0
waaaaay 0.000182609832893
slayyy 0.0
fashionistas 0.0
sangin 0.0
worldstarfunny 0.0
pliers 0.0
babyanimalpics 0.0
mediation 0.0
quests 0.0
aaaaaaah 0.0
honked 0.0
rauschenberg 0.0
whitneymuseum 0.0
lonsdale 0.0
transcendental 0.0
roarin 0.0
facetune 0.0
fausto 0.0
herning 0.0
cazzette 0.0
annnnnnnnnd 0.0
shinier 0.0
giambattista 0.0
katys_teddybear 0.0
gnight 0.0
katheryn 0.0
psychoanalysis 0.0
bckgrnd 0.0
kingman 0.0
gracevanderwaal 0.0
fecking 0.0
ihrcountdown 0.0
stubbies 0.0
xfactor_italia 0.0
aaronpauley 0.0
purity_ring 0.0
scorpios 0.0
ayyyye 0.0
capitalizes 0.0
flamin 0.0
motherfucking 0.0
jingled 0.0
pharrellhat 0.0
ontarioglow 0.0
teached 0.0
umusic 0.0
auroramusic 0.0
dailymendeslife 0.0
soloing 0.0
universalse 0.0
dustinkloeppel 0.0
robynkonichiwa 0.0
charli 0.0
lonelydot 0.0
adamselman 0.0
sorrenti 0.0
offish 0.0
vinoodh 0.0
guitarists 0.0
cocking 0.0
cabbages 0.0
amelia_libman 0.0
flutter 0.0
lolita 0.0
kingladygaga 0.0
breakthecycledv 0.0
howbow 0.0
curveballs 0.0
tamagotchi 0.0
jarryd 0.0
alliseeisgold 0.0
thebroadmuseum 0.0
sarahsowitty 0.0
brillz 0.0
jackgarratt 0.0
markryden 0.0
duffscakemix 0.0
sanrio 0.0
theniceguyla 0.0
trills 0.0
susangkomen 0.0
faustopuglisi 0.0
gurlll 0.0
cheesecakes 0.0
scorpio 0.0
oblivia 0.0
skipmarley 0.0
correcto 0.0
jessirklein 0.0
unpatr 0.0
squish 0.0
greg_wells 0.0
onlyleah 0.0
gittin 0.0
popstars 0.0
krafts 0.0
bouche 0.0
problemo 0.0
wheezing 0.0
patmcgrathreal 0.0
cienega 0.0
thundering 0.0
nastialiukin 0.0
janell 0.0
katelyntarver 0.0
miamoretti 0.0
missoni 0.0
dannymoonsworld 0.0
mrchrismcmillan 0.0
madge_freak 0.0
woridstarcomedy 0.0
ikissedasoldier 0.0
kpezandchez 0.0
perrysoldier 0.0
emilynotchez 0.0
iickmekaty 0.0
basicallyadam 0.0
katysangelegg 0.0
nicolasjebran 0.0
xchadballx 0.0
scott_myrick 0.0
lockoir 0.0
shannonwoodward 0.0
calluses 0.0
chamomile 0.0
trollin 0.0
sleighing 0.0
chestercheetah 0.0
royksopp 0.0
scottsimonswvla 0.0
sirenscaiiing 0.0
slowdownkaty 0.0
chefantoniopark 0.0
garnished 0.0
endive 0.0
mdmolinari 0.0
prezzy 0.0
motioning 0.0
hernameisbanks 0.0
rockcampla 0.0
jenniefinch 0.0
getglucky 0.0
stendhal 0.0
ryanphillippe 0.0
hotncolds 0.0
kpcollections 0.0
katie_wignall 0.0
katysdrugx 0.0
evrenperry 0.0
katycatwendy 0.0
yungskeeter 0.0
sarahhudsonuvs 0.0
mothern 0.0
oliverheldens 0.0
marrymemargot 0.0
katyperrylately 0.0
kewlest 0.0
katyshellokitty 0.0
pqgerry 0.0
rasarioatelier 0.0
anakhouri 0.0
romaneperry 0.0
hot_chip 0.0
agador 0.0
freddietinkles 0.0
cynthialovely 0.0
augustgettyatelier 0.0
tbsnetworks 0.0
ronyalwin 0.0
justinandersoncolor 0.0
mmillerrider 0.0
jpgaultier 0.0
harharharhar 0.0
iikeanangel 0.0
vonnypoo 0.0
jcoopkp 0.0
itzmero 0.0
katysprismlight 0.0
hatérs 0.0
awkwardaya 0.0
katysredskittle 0.0
tiedye_princess 0.0
adelshahal 0.0
marinadiamandis 0.0
samadizayee 0.0
itsslatykaty 0.0
johnlordperry 0.0
nuggetperry 0.0
kthnkzbye 0.0
teamkpbrasil 0.0
twenagedream 0.0
ashleyegreer 0.0
perryllover 0.0
perry_slays 0.0
_andresgalvis 0.0
poplitics 0.0
likerotica 0.0
sweetxjaureguix 0.0
jessiambriz 0.0
perryncolds 0.0
pwideawake 0.0
brunastrait_ 0.0
anafalqueto 0.0
pessoalmente 0.0
mark_hodson_ 0.0
sumtxkid 0.0
arpoador 0.0
katysmychampion 0.0
amnattg 0.0
osullivanluke 0.0
stephiruth 0.0
katy_pizza_bae 0.0
kpcatt 0.0
pedroeugeniio 0.0
gugs_prismatic 0.0
zeeusmtz 0.0
legendarycold 0.0
robynxkatheryn 0.0
écouter 0.0
energyberlin 0.0
karysjones 0.0
lilzariya 0.0
puroland 0.0
pavlovitz 0.0
dreamhampton 0.000225122730459
prismsperry 0.0
perrysmic 0.0
focusonreid 0.0
tonyatalterian 0.0
makeup_man 0.0
wtfkates 0.0
sella_sandra 0.0
katycute_ 0.0
caitsperry 0.0
katyperryforum 0.0
radiantjareau 0.0
lillysgomez 0.0
katycatsweden 0.0
perryicecream 0.0
xamyrosex 0.0
wtvrlara 0.0
bijanstephen 0.0
ameliashowalter 0.0
screamkng 0.0
tvmcgee 0.0
liiife 0.0
itskatcombs 0.0
yaaaaaasssssssssss 0.0
katysmyhabibi 0.0
skottpeace 0.0
ferras 0.0
kweens 0.0
habibi 0.0
orlandobloom 0.0
huckchinn 0.0
katycatkenzie 0.0
matarazzo 0.0
fkatwigor 0.0
perryschild 0.0
hotxcolds 0.0
maddisonxperry 0.0
akaruikaty 0.0
chillinlaidback 0.0
erryone 0.0
chrisanokute 0.0
beyelite 0.0
kuntyewest 0.0
chiroprac 0.0
katyperryrises 0.0
godneybjs 0.0
liquoronurlips 0.0
katystumblrr 0.0
holiestkaty 0.0
hollykittykaty 0.0
katysprincess 0.0
katysdonut 0.0
carlythekatycat 0.0
katycatsophia 0.0
fridaaperry 0.0
iegendarylovers 0.0
katycatveronica 0.0
katyperryslave 0.0
hakimkharbouch 0.0
keonovak 0.0
plaaaaay 0.0
scatting 0.0
shotted 0.0
dizzycoco 0.0
fkinsnapss 0.0
junkygs 0.0
ミニチュア料理 0.0
エビフライとエビ天 0.0
adidasboosts 0.0
lilithia 0.0
cottoncandizzle 0.0
ultimatebeyhive 0.0
paramorewebnews 0.0
royale_lala 0.0
musicnews_feed 0.0
katyperryextra 0.0
greeniight 0.0
gagas_illusion 0.0
lesbiyonce 0.0
blurryhface 0.0
lordofgiraffex 0.0
ifuseekamy_ 0.0
legendarymalek 0.0
hausoframez 0.0
unstan 0.0
chioekardashian 0.0
theiife 0.0
handstomyseif 0.0
legendarylovers 0.0
gagas_fandom 0.0
thinagedream 0.0
conditionalbabe 0.0
dannysuschrist 0.0
prismdluxe 0.0
herwonkeye 0.0
camilasviews 0.0
gagalovesbey 0.0
shadykatyfacts 0.0
limalimoncia 0.0
heavymetaiovers 0.0
katyscrush 0.0
waikingonair 0.0
eduardo_katycat 0.0
katyswetdream 0.0
katherynsgod 0.0
katystddbr 0.0
katyboobies 0.0
royaityler 0.0
nothingfaiis 0.0
kathrynluck_ 0.0
prismaticiights 0.0
mendesperry 0.0
katycatghita 0.0
mark_katycat 0.0
iwasdivine 0.0
skywaterr 0.0
xjojospearsx 0.0
alwaysbeperry 0.0
skoglyrihanna 0.0
legendarydurk 0.0
halseysfirework 0.0
rainbowspatrick 0.0
katysfood 0.0
honeymoonprism 0.0
onepulsetony 0.0
butcha 0.0
okurrr 0.0
the_mpt 0.0
talaofficial 0.0
miniatures 0.0
ohmyjurassic 0.0
katysmoonlight 0.0
lilly_jnes 0.0
coco_ho 0.0
perryhumorr 0.0
yikesjonathan 0.0
rubyrankin 0.0
thealekovski 0.0
cydney_moore 0.0
truebluedeluxe 0.0
thedutchass 0.0
katyskettle 0.0
ferraseu 0.0
katyssunlight 0.0
typosqween 0.0
adoreeeperry 0.0
katyperryfrance 0.0
snowiner 0.0
_coolkatycat 0.0
nicothekatycat 0.0
adorbies 0.0
jackygerardchan 0.0
brewmystew 0.0
katyswildfire 0.0
rihftperry 0.0
theolagu 0.0
ritajoness 0.0
iitsjackie 0.0
mjjperry 0.0
jesuskylie 0.0
holyerotica 0.0
graceofkaty 0.0
redsvelvets 0.0
booyakasha 0.0
tariqterry 0.0
katycatalannah 0.0
taylxre 0.0
pacifyher 0.0
basedkatyperry 0.0
diddleurskittle 0.0
katysanalien 0.0
gagasspace 0.0
tayiorhq 0.0
givenchydress 0.0
augustryder 0.0
perrysmoschino 0.0
kittehn 0.0
katrieber 0.0
legendaryhunty 0.0
katyslegs 0.0
katyfroot 0.0
winesandlines 0.0
sam_incolour 0.0
wakingonair 0.0
drwssinup 0.0
huffdaddysays 0.0
fiwwwwine 0.0
matthewroper 0.0
emmabruhhh 0.0
gingerwesson 0.0
nicholas_sewell 0.0
perfectlyperry 0.0
bustabusta 0.0
mynameisziam 0.0
venuzszfly 0.0
katherynsus 0.0
sacredperry 0.0
thedollsftkaty 0.0
_cafajeff 0.0
debkatycat 0.0
katycats 0.0
eastonjames_ 0.0
oliviabooker_ 0.0
protecti 0.0
outrageousness 0.0
joanneprada 0.0
scuffed 0.0
catoure 0.0
blanged 0.0
tahmorrow 0.0
glukatyperrypop 0.0
jamesjoint 0.0
pressin 0.0
bourree 0.0
honeysuckle 0.0
meowings 0.0
fashun 0.0
happun 0.0
vikander 0.0
thekatyperrypopgame 0.0
karolfabianaros 0.0
nico_thekatycat 0.0
miss_lilyjames 0.0
stylinfunk 0.0
hudsontheband 0.0
jere_my 0.0
crabitat 0.0
tiersz 0.0
unrehearsed 0.0
fanclub_kp 0.0
oneofthesophies 0.0
fusterlandia 0.0
lazyblazy 0.0
katycatchloe 0.0
figali 0.0
prismaticness 0.0
titicaca 0.0
ancientaliens_ 0.0
sneezin 0.0
cristos 0.0
mallman 0.0
prismaticlife_ 0.0
ravensuxx 0.0
perrypositive 0.0
derkwhore 0.0
alekjandro 0.0
havss_ 0.0
hqzaynmaiik 0.0
thique 0.0
bbhmms 0.0
jkatharineb 0.0
jennyformica 0.0
tiiiiiight 0.0
ikissedagay 0.0
harryvuitton 0.0
aeschleahd 0.0
princessjavonda 0.0
errrythang 0.0
kooning 0.0
sugarray 0.0
empaths 0.0
goldenboyz_inc 0.0
voguejp 0.0
chickenwingguardingthemimosa 0.0
katyperrypopup 0.0
unmeasurably 0.0
transviolet 0.0
beauteous 0.0
katyskidrauhl 0.0
thooooooseee 0.0
clairesstores 0.0
nailsbymh 0.0
katysacutie 0.0
psychokatycat 0.0
kaceymusgrave 0.0
refueled 0.0
hyungsunju 0.0
okuurrrr 0.0
cholewheeler 0.0
leftshark 0.0
momchella 0.0
crotches 0.0
hookedondolls 0.0
fyuseapp 0.0
mogonoloball 0.0
atletica 0.0
katycatsclub 0.0
catacombs 0.0
poppycorn 0.0
cupped 0.0
christiania 0.0
residenz 0.0
lindseyweber 0.0
butterballface 0.0
joshlecash 0.0
myassistant 0.0
swiftschrist 0.0
snowhiteperry 0.0
emmakphughes 0.0
katyslegend 0.0
dansnierson 0.0
scressful 0.0
prismaticwitch 0.0
finnin 0.0
habibis 0.0
mophies 0.0
strongé 0.0
drumkit 0.0
anamanaguchi 0.0
gaultier 0.0
ngvmelbourne 0.0
dukedumont 0.0
legendaryasmyn 0.0
highlarious 0.0
calpurnia 0.0
waaaaait 0.0
mktfah 0.0
fwding 0.0
caseyhoops 0.0
worldstarvlne 0.0
flapfkp 0.0
bettycrocker 0.0
mexxxico 0.0
whhhhhhhhuuuuuutttt 0.0
yelletweets 0.0
gucciqxxn 0.0
luckyladyrebelettes 0.0
junglejulia 0.0
charlottes_web 0.0
istarbucksniall 0.0
katysroaaar 0.0
fiorucci 0.0
whuteva 0.0
sirdavidd 0.0
fudgery 0.0
bizquick 0.0
itsgrandtheft 0.0
grandtheft 0.0
katysfancy 0.0
ameezyyrush 0.0
mykectown 0.0
itsvalkubus 0.0
walkslikeperry 0.0
iwantperry 0.0
exausto 0.0
selfeh 0.0
aquaberry 0.0
sidepiece 0.000225122730459
versacness 0.0
iamleslii 0.0
alocalgyro 0.0
cutina 0.0
theoutslder 0.0
prism_katy_cat 0.0
katyshoodrat 0.0
thestevetisch 0.0
ronysphotobooth 0.0
schlitterbahn 0.0
kpsnosecrinkle 0.0
alwz_katycat 0.0
whykph 0.0
californiagurls 0.0
katycattt 0.0
varicose 0.0
itsbrillz 0.0
perrystiger 0.0
katysmyaura 0.0
paolablancokp 0.0
callmemargot 0.0
indiggynado 0.0
katycat 0.0
anylinden 0.0
kpkillerqueen 0.0
katyslilacwine 0.0
katypvenezuela 0.0
franzikaty 0.0
katherynelperry 0.0
doessss 0.0
katysleftarm 0.0
datingprism 0.0
_smiler_katycat 0.0
kepyterry 0.0
katycat_camille 0.0
vckatyperry 0.0
bowzerjoe 0.0
taishrox 0.0
mütter 0.0
arianperryarian 0.0
lisasigh 0.0
fridiskp 0.0
kevinruda 0.0
katyperrydaily 0.0
wakingupvegas 0.0
marlyins 0.0
drankin 0.0
herkatycat 0.0
luvhudson 0.0
yaeltsairi 0.0
felipinhoofm_ 0.0
renanmarcall 0.0
kariseperry 0.0
emojing 0.0
konnie 0.0
mcperry 0.0
iturnmycanonon 0.0
katycatelysha 0.0
andrewnavs 0.0
katycatkrystal 0.0
lovelyandlaugh 0.0
lampoonians 0.0
perrytuuda 0.0
katymyhaven 0.0
ruletheschool 0.0
cheapandchic 0.0
sically 0.0
crazyforperry 0.0
kpdaily 0.0
getonupmovie 0.0
cutetina 0.0
chimiuzz 0.0
kefali 0.0
joelkefali 0.0
siclly 0.0
mtvother 0.0
lydiaacav 0.0
prismaticperry 0.0
jwujek 0.0
adorbie 0.0
errone 0.0
kaliyah 0.0
katysweirdness 0.0
vinbiodiesel 0.0
katysfxb 0.0
katyspurrfect_ 0.0
shannonmwoodward 0.0
bippity 0.0
boppity 0.0
swiggty 0.0
swoogity 0.0
pizzarella 0.0
firewerk 0.0
katyslayed 0.0
emerald_epelman 0.0
madkatydisease 0.0
mandee 0.0
ohferras 0.0
sarahh 0.0
iaustinhunt 0.0
lanawhore 0.0
spaceykacey 0.0
crazay 0.0
elektrikpeople 0.0
visa_nz 0.0
fvckin 0.0
nathanspicer 0.0
cashcash 0.0
ashish_uk 0.0
xokatic 0.0
turnting 0.0
scorpiomystique 0.0
toddthomasnyc 0.0
kohngallery 0.0
discnt_universe 0.0
dressinkaty 0.0
lee_cook 0.0
bloodshot 0.0
yaddlizc 0.0
elnett 0.0
itsthekatycats 0.0
kelly_moritz 0.0
katyslaykaty 0.0
skintxghtjeans 0.0
socarrer 0.0
errrday 0.0
therealslacker 0.0
wendywild 0.0
welkys 0.0
sohohouse 0.0
selfing 0.0
camiilaruales 0.0
nexxxt 0.0
turrell 0.0
alliexxxxandra 0.0
surfboardt 0.0
telstra_news 0.0
juanitadele 0.0
oopskatycat 0.0
sophkatycat 0.0
katyschild 0.0
katysconverrse 0.0
katycat_leah 0.0
katycatverified 0.0
katycat_libby 0.0
katyswonk 0.0
kittless 0.0
jlrcukp 0.0
siiiiiiiiiiiiii 0.0
ermagherd 0.0
imlynsey 0.0
perrys_cherry 0.0
casemcgase 0.0
hazzaily 0.0
herses 0.0
gaypropaganda 0.0
tixforcharity 0.0
hudsons 0.0
nomers 0.0
mommacat 0.0
superlove 0.0
bonacorso 0.0
levi_leet 0.0
thinkingofbecki 0.0
cybering 0.0
pamyurin 0.0
idreamofkaty 0.0
xfactor_au 0.0
glohudsonperry 0.0
aubreyplzza 0.0
eeshhuhhayniac 0.0
bonkay 0.0
katysbum 0.0
nevillebradley 0.0
curryswift 0.0
zinepack 0.0
katykatt_suraya 0.0
sweetkatybird 0.0
yohkatheryn 0.0
cottoncandykaty 0.0
karolynadiaz 0.0
maayansharvit 0.0
theprismcess 0.0
camisp_ 0.0
lucasgaldin 0.0
prixy_mtz 0.0
niggasperry 0.0
kaksperry 0.0
zennnnaaa 0.0
katyissmurfy 0.0
dadehoward 0.0
kyledsaavedra 0.0
katysdoritos 0.0
pendejabardera 0.0
rosenilsou 0.0
hackensucks 0.0
gottabesheerio 0.0
ismaellgarcia 0.0
milegendz 0.0
alexskarev 0.0
ladycrystalb 0.0
katyspad 0.0
xcallmechrissyx 0.0
arianastylesss 0.0
jorgebaker 0.0
matty_zee 0.0
katycatzilla 0.0
adorie 0.0
meowwdison 0.0
alvin_koopa 0.0
lexyauditore 0.0
kease_it_raw 0.0
katysking 0.0
chris__kirby 0.0
katysbestfrwend 0.0
katyslildancer 0.0
sssshhh 0.0
conorhughess 0.0
tanimura 0.0
thekatycatlife 0.0
weefififookface 0.0
breakalioz 0.0
hudsonhelper 0.0
lariitaa 0.0
meeeeeooooooooowwwww 0.0
legend__dary 0.0
katyandliam 0.0
_theatrekid 0.0
babybritney 0.0
erinlorimer 0.0
_zacmoore_ 0.0
itscezzurryo 0.0
katycatskp 0.0
larissafilipo 0.0
siaylorswift 0.0
shitkittens 0.0
thefrankradical 0.0
katysprism 0.0
katytinalevine 0.0
serjeeoh 0.0
kayz_perry 0.0
katyslaysurfav 0.0
fuckyeahitskath 0.0
sweetyitosan 0.0
pickerington 0.0
verrado 0.0
retweete 0.0
jameswaterhouse 0.0
hunnah 0.0
truth_ispeak 0.0
_emilybarbarrr 0.0
nbllrrr 0.0
jmoneygraves 0.0
eaglenationnews 0.0
tauentzienstrasse 0.0
avontbh 0.0
vinnie_mate 0.0
demilovve 0.0
coolestkatycat 0.0
terri_katycat 0.0
beeeaaatttt 0.0
laurenfrancisco 0.0
victaytayp 0.0
aylajaye 0.0
iloveu 0.0
augustvaz 0.0
lizzievang_ 0.0
edsssss_ 0.0
hhhhhholly 0.0
holly_hickin 0.0
trixxx 0.0
killah 0.0
treasurefingers 0.0
最強ガール宣言 0.0
voykovic 0.0
annunaki 0.0
katyshomie_ 0.0
katyselephant 0.0
caitlynsmith 0.0
lightsperry 0.0
elizagilham 0.0
ohmyjatyfeels 0.0
junglescope 0.0
drunkskaty 0.0
malikpom 0.0
dancerlaurena 0.0
brirad 0.0
elisa_rv 0.0
moooom 0.0
pattymeagher 0.0
iwasemily 0.0
shahrzadphoto 0.0
tvjohnny 0.0
cstonethebreadwinner 0.0
katysrightboob 0.0
cyberdlck 0.0
beatforkaty 0.0
igabriiel 0.0
duuuuddddeeeee 0.0
redrum 0.0
srbuhiii 0.0
kayleighcat 0.0
applekatycat 0.0
ikatycats 0.0
wehryspencer 0.0
emilyjonesphoto 0.0
coxgabe 0.0
drugmoneyx 0.0
steven_drum 0.0
victoriacha 0.0
hashtaggin 0.0
perryandemetria 0.0
katycatfurlife 0.0
iammelissalynn 0.0
qewtie 0.0
yscheecat 0.0
slayty 0.0
katystree 0.0
katherynsboy 0.0
anapurry 0.0
nenedez 0.0
kevinn_perry 0.0
gloria_swag_ 0.0
andyamaziing 0.0
roarsana 0.0
brighthudson 0.0
fixingperry 0.0
roooooooooooooar 0.0
gretschusa 0.0
katys_cupcake 0.0
wonderation 0.0
kasek_craig 0.0
katysgurll 0.0
pepperperry_ 0.0
teamkatyperry 0.0
meandnutella 0.0
lovatokitten 0.0
katyslolly 0.0
astixxx 0.0
ravemomentz 0.0
erzaabrianto 0.0
katyperryindo 0.0
seeingdaisies 0.0
gillian_e_dubbs 0.0
samanthachazene 0.0
perryprism_ 0.0
katycompletesme 0.0
ltskatyperry 0.0
kittenscks 0.0
nihanofficial 0.0
momcat 0.0
kaytehperreh 0.0
__grazi 0.0
clairekatycat 0.0
fangurl 0.0
rrrrrrrrrrrroooooooooooooaaaaaaaaaaaaar 0.0
marispiva 0.0
mattdrobins 0.0
deihemmings 0.0
rooaaarr 0.0
katycatobsessed 0.0
katycatnick 0.0
tigerkats 0.0
kristenanzelc 0.0
taylermckellop 0.0
essesfadaperry 0.0
imjare 0.0
smganonymous 0.0
roaaaar 0.0
phuckyotweet 0.0
evvvvvverrrr 0.0
melvynmarrero 0.0
zouisashton 0.0
trillneyspears 0.0
rooooooar 0.0
fanwars 0.0
fentyncold 0.0
ttish_ 0.0
rachelacogan 0.0
makesmariana 0.0
kkaplon 0.0
rafaelmoncada 0.0
yaaaassssgrl 0.0
oioianna 0.0
katycatrazan 0.0
megaan_katycat 0.0
thekaelynn 0.0
hannahloupunton 0.0
thumbelinafairy 0.0
nic_kathryn 0.0
dannahfields 0.0
rodneybroaddus 0.0
noxisanasshole 0.0
soedesh__ 0.0
hookerofversace 0.0
thinkingofkaty_ 0.0
msgracevalerie 0.0
francfernandez 0.0
katysring 0.0
a_little_spark 0.0
laaxiss 0.0
