awesome 0.000276530563108
christmas 0.00307298929983
trying 0.000533293435484
launch 4.35934127765e-05
moment 0.000142980363457
wonderful 0.00163737293676
seeing 0.000328720944753
hanging 0.000403371261339
sounds 0.00015172640861
recommend 0.000105835367753
worked 0.000115344245212
direct 0.000100689696602
others 0.000152962315628
currently 0.000126878403124
better 0.000633089298751
please 0.00181809196203
social 3.98275380587e-05
anxiety 0.0
around 0.000316544649376
people 0.00130135022521
morning 0.00120229933265
traditional 0.0
general 0.0
damage 5.79749381109e-05
everything 0.000212170470467
twitter 0.000460943476896
present 4.02631055784e-05
though 0.000405034939796
friend 0.000746610809678
watched 0.000798718505738
beautiful 0.000874228012259
anything 0.000143753368208
previous 0.0
helped 3.87616495887e-05
updated 0.0
thinking 0.000180663304657
finally 0.000361326609314
caught 0.000119482614176
believe 0.000141066231741
already 0.000528998369029
couple 0.000270597712319
orlando 0.000180662094937
chance 0.000530426176168
meaning 0.0
growing 4.2409070991e-05
probably 7.66883545925e-05
password 0.0
changed 0.000113487630452
history 0.000364261671775
center 0.0
museum 6.13997459564e-05
behind 0.000175858138542
screaming 6.54176890343e-05
pretty 0.000361326609314
really 0.00155591678343
little 0.000811130832512
happiest 0.000224610620604
earlier 8.27524493433e-05
forget 0.000286732669844
someone 0.000463435206007
safety 0.000102463149913
program 0.000245981424645
things 0.000246201393959
related 5.19879831999e-05
visiting 0.0
available 0.000183610716754
perfect 0.000147285432653
different 7.1876684104e-05
search 9.4544713897e-05
connect 6.60962623852e-05
numbers 4.42008825871e-05
person 0.000141828762122
watching 0.00127990424516
exhibit 0.0
passed 4.31148798477e-05
prefer 5.3391915255e-05
minutes 0.000511343691838
travel 4.32339040821e-05
outside 0.000112267791628
looking 0.000528998369029
forward 0.00050859283112
agreed 0.000142219032791
raising 0.000252455461431
listened 5.60351588278e-05
afraid 4.57031021317e-05
impression 0.0
christian 0.0
profile 9.67176513153e-05
instant 0.0
drawing 0.000126071861255
wheels 0.0
favorite 8.20771489049e-05
picture 0.000301002528687
instead 7.96550761175e-05
appreciate 0.000374428252673
international 8.74281405595e-05
station 0.0
toddler 0.0
market 4.76758599711e-05
couldn 0.000368213581633
remember 0.000176808725389
vintage 0.0
holidays 5.04910922862e-05
friends 0.000746610809678
everyone 0.000848681881869
florida 0.0
always 0.00130135022521
months 0.000110762560921
moving 0.000114102879328
meeting 0.00021738134673
answer 7.24604489101e-05
sweetie 0.0
together 0.000283657524244
inside 0.0
section 0.0
missed 0.000358415837304
button 0.0
longer 0.0
enough 0.000250215636049
driving 0.000129701712246
building 3.9719483818e-05
enjoying 0.000129701712246
london 0.00063092111879
exploring 7.45783244649e-05
posting 5.3075051601e-05
amazing 0.0011990629698
attention 0.0
gordon 7.02103466465e-05
progress 0.0
tomorrow 0.000919405372024
george 4.39566341909e-05
feeling 0.000444247576495
excited 0.000479971097326
understand 3.85522940437e-05
following 0.000111362078916
asleep 0.0
learning 4.38351431281e-05
evening 0.000364346360705
special 0.000392137482006
secret 0.000435729365773
across 7.90087323167e-05
surprised 4.21769141896e-05
anymore 0.0
sophia 0.0
precious 0.000223734973395
rejoice 0.0
version 0.0
rather 0.000119158451454
avatar 0.0
showing 7.54542307376e-05
saying 0.000110762560921
tweeted 0.0
thoughts 0.000150095242385
exactly 0.000152962315628
except 4.50693619643e-05
getting 0.000636511411401
nothing 0.000176808725389
tweets 0.000116916776302
course 0.00138793287785
photos 0.0
looked 0.0
difficult 0.0
stages 0.0
office 3.8240578907e-05
decisions 0.0
brought 7.83682733666e-05
biggest 0.000109278501532
thrilled 0.000323235770136
something 0.000318255705701
closing 0.0
anyone 0.000712977240011
taking 0.000318255705701
recently 4.59598304811e-05
interesting 0.000236383792295
original 4.18315271813e-05
flying 4.44468390279e-05
happening 0.000231313764262
sometimes 0.000155889035069
lessons 0.000153694724869
village 7.09890860829e-05
stopped 0.0
yesterday 0.000356488620005
service 7.77335930722e-05
serious 7.56584203016e-05
digital 0.000104899523501
hoarder 0.0
wearing 0.00307022292103
british 0.00056685407888
either 7.71045880875e-05
second 0.000106946586002
checking 0.0
indeed 0.00149485619088
island 0.0
hearing 0.000158017464633
choose 0.000124809417558
staying 4.78113962764e-05
another 0.000387932137288
clothes 5.87077068591e-05
slowly 0.0
weekend 0.00107524751191
hashtag 0.0
delivery 6.47519601173e-05
theory 0.0
working 0.000459702686012
bigger 0.0
screen 0.000286868377659
riding 0.0
laughing 4.19462797389e-05
wanted 0.000107235272592
trends 0.0
stripes 0.000100441694204
clothing 0.000150922681152
current 0.0
adorable 0.0
grateful 0.000323529125891
friendship 0.0
family 0.000424340940934
listening 7.75232991774e-05
stream 0.0
expressions 0.0
wedding 0.000214846638109
sharing 0.000124809417558
double 4.00446475612e-05
especially 0.000156736546733
middle 4.05933580303e-05
waiting 7.24604489101e-05
definitely 0.000309254528364
walking 0.000212045354955
account 0.000165957995731
completely 0.000251677678433
thought 0.000499084068007
reaction 0.0
accept 0.0
simple 4.11507647476e-05
professional 0.0
friendly 0.000315630270764
supposed 0.0
business 0.000152549139088
absolutely 0.000416121311659
anywhere 4.71388781253e-05
sending 0.00016415429781
introducing 5.67282182517e-05
congrats 0.000185603464859
beauty 0.00020255178758
community 0.0
greatest 0.000309254528364
selfie 5.29176838766e-05
posted 0.000250989163088
saturday 0.000223930045491
wednesday 8.52855407476e-05
confused 0.000154596566967
expression 0.0
chicago 4.80840459186e-05
closest 6.74939944294e-05
relationship 0.0
actually 0.000326072020095
easter 0.0
basket 0.0
myself 0.0
argument 0.0
school 0.00017969171026
thursday 7.56584203016e-05
selling 4.83588256577e-05
talented 0.000371831826582
celebrate 0.000195390190892
falcon 0.0
celebrating 4.21769141896e-05
contest 4.60889008194e-05
experiences 0.0
students 0.0
internet 4.39566341909e-05
figure 8.45856020829e-05
opened 0.000103366930081
featuring 0.000183839321924
inspired 8.55204099321e-05
sitting 3.99359252869e-05
playing 0.000431260104624
street 0.000313473093466
points 4.53214894075e-05
memory 4.89149104067e-05
forever 0.000199679626435
imagine 0.000118191896147
problem 3.79316021524e-05
played 0.000513556760058
canadian 0.0
pulling 0.0
keeping 0.000316034929267
lovely 0.00373353447835
dressed 0.00011415987492
specifically 0.0
unlike 0.0
disappointed 0.0
otherwise 0.0
afternoon 0.000124809417558
planned 5.07854172481e-05
strange 0.00010872000564
images 6.22083247326e-05
noticed 0.0
notice 0.0
stretch 0.0
inspiration 4.84970247656e-05
letting 0.000173892671113
system 0.0
possibility 0.0
almost 0.000106085235234
details 3.86568160455e-05
experience 0.000110762560921
living 7.38417072809e-05
weather 0.000316366398353
normal 0.0
launching 0.0
before 7.66883545925e-05
captured 7.09890860829e-05
colors 0.0
monday 0.000443050243685
example 0.0
realize 0.000152356251744
autographed 0.0
sleeping 0.00011241429514
authentic 0.0
science 0.0
tweeting 8.0745691071e-05
forgot 4.43236458102e-05
chasing 0.000146868861749
gorgeous 5.74352094473e-05
herself 0.0
happens 7.32464152479e-05
silence 0.000111387368064
learned 0.0
congratulations 0.000740472916576
natural 0.0
raised 0.000138655339668
babies 0.0
mission 4.79474569015e-05
smelled 0.0
ironic 0.0
testing 0.000124008861335
deleted 0.0
barely 0.0
unforgettable 0.000245979944662
forgotten 5.26050451274e-05
trouble 8.74281405595e-05
fantastic 0.000709191512658
loving 0.000292020034624
complete 8.11867160606e-05
nearly 0.000139436934968
spirit 9.16624641294e-05
launched 0.0
finding 0.0
mercury 0.0
stories 0.000114721736721
including 0.0
mature 0.0
stuffed 0.0
ancient 7.54613405762e-05
bottle 0.0
somewhere 0.000138266702458
wouldn 0.0
choice 0.000150908461475
conversation 0.0
making 0.000423198695224
expect 0.0
occasions 0.000108594534276
subject 0.0
flights 7.17854588455e-05
location 5.55241818835e-05
vacation 0.0
seriously 0.000195390190892
spending 0.0
groups 0.0
childhood 5.76142003054e-05
modern 5.0933508531e-05
welcome 0.000357450908641
moments 4.39566341909e-05
degrees 0.000132650788641
jacket 6.2413407691e-05
halloween 5.3075051601e-05
costume 0.000419727311178
totally 8.16305235606e-05
laughed 0.000134043769911
flight 8.4818141982e-05
kidding 0.0
regular 0.0
context 0.0
running 0.0
finished 4.22928010415e-05
strong 0.000109278501532
tracking 8.34590114506e-05
respond 0.0
message 3.75238105963e-05
coming 0.000952197064253
thankful 5.56936840318e-05
cheese 0.000112070317656
greens 0.0
issues 0.0
intolerance 0.0
happen 0.000180176836467
giving 0.000214470545185
turkey 0.0
excellent 4.60889008194e-05
limits 0.0
common 0.0
pressed 0.0
situation 4.62184465559e-05
options 0.00011037521743
health 0.000166868591214
insurance 0.0
change 7.07234901557e-05
singing 4.72723569485e-05
august 4.99097298317e-05
crying 5.56936840318e-05
mental 5.26050451274e-05
happened 0.000223326240312
demand 0.0
generally 0.0
personal 3.84480817373e-05
beyond 0.0
bruised 0.0
question 0.0
chicken 0.000101570834496
reward 0.0
tunnel 0.0
losing 8.7186825553e-05
respect 0.000193284080228
caption 0.0
shouldn 0.0
visited 0.000111048363767
reason 7.44420801039e-05
simply 0.0
darlin 0.0
audience 4.89149104067e-05
involved 4.11507647476e-05
unhappy 8.57788605382e-05
reality 4.20614079193e-05
extremely 0.0
without 0.000142595448002
falling 0.0
countdown 6.43150398687e-05
locations 8.42154196941e-05
timing 0.0
crabby 0.0
classic 0.000216766662371
highly 0.000151034544904
online 0.000190171465546
finger 0.0
animals 0.000118159793738
planets 0.0
called 0.000213317374194
delicious 0.0
almond 0.0
compliment 7.07275857875e-05
pictures 4.46945275707e-05
camera 0.0
pillow 8.74150452091e-05
checked 0.000100398419766
heading 8.41228158386e-05
theater 0.0
paying 0.0
planning 0.0
complex 0.0
sunday 0.00036524549417
nights 5.21412367222e-05
descending 0.0
traffic 0.0
opposite 5.79749381109e-05
through 9.9245225818e-05
lookout 0.0
reached 5.24497617506e-05
harder 0.0
random 0.000154596566967
changes 0.0
speaking 8.09658579344e-05
recorded 0.0
washed 0.0
november 0.0
answered 0.0
enchanted 0.0
number 7.24604489101e-05
adventures 0.0
eclipse 0.0
chocolate 5.4196793118e-05
unless 0.000130780238329
calling 0.000148482771887
mermaid 0.0
distraction 0.0
levels 0.0
option 0.0
shopping 5.37116595271e-05
former 0.0
actual 0.0
covers 0.0
mountain 0.000124826815382
friday 0.000465940588496
winner 7.85811124258e-05
closes 0.0
quality 4.57031021317e-05
father 0.000281841739049
wishes 0.000184355603277
hourly 0.0
matter 7.58632043048e-05
themselves 0.0
usually 0.0
period 0.0
parents 0.000127227212973
balance 5.50205222833e-05
publishing 0.0
mobile 5.87077068591e-05
woohoo 0.0
bracelets 0.0
summer 0.000305098278176
reminded 0.0
impressed 0.0
necklace 0.0
shutdown 0.0
dinner 0.000312624305427
single 0.000109278501532
packed 0.000115949876222
definition 0.0
energy 4.20614079193e-05
preview 0.0
monster 6.10023222057e-05
material 0.0
admission 0.0
europe 0.00014674473122
holiday 4.07041349021e-05
emotional 0.0
update 8.25266281046e-05
customers 0.0
messing 0.0
holding 4.18315271813e-05
electric 0.0
eating 0.000176803530348
outfit 7.26002820297e-05
picked 8.81570927348e-05
fabulous 0.000123200309267
missing 0.000490452499794
surprise 3.78292101508e-05
officially 0.0
french 4.5448234149e-05
global 0.0
follow 0.000426634748387
opinion 4.60889008194e-05
backwards 0.0
design 0.00010678383051
secrets 0.000198976182962
request 0.0
breaks 4.66099715011e-05
allows 0.0
promoting 0.0
volunteer 0.0
wondering 0.000240420229593
official 0.000255671845919
sweater 8.34590114506e-05
jersey 0.0
mistake 0.0
france 4.90553162926e-05
proper 0.00011241429514
ginger 0.0
peaceful 7.45783244649e-05
lighter 0.0
thinks 0.000123789942157
competition 0.0
hospital 0.000257660944946
industry 4.99097298317e-05
trending 5.85230784681e-05
leadership 0.0
organized 0.0
showed 0.0
circle 0.000313098467444
success 0.000119807775861
ladies 0.000145491074297
dreams 4.64789783228e-05
protect 4.53214894075e-05
onesie 0.0
explanation 0.0
control 0.000118513098475
coincidence 7.45783244649e-05
discovering 0.0
laying 0.0
invited 0.0
healthy 0.0
surgery 0.0
allowing 0.0
arrived 4.27602049661e-05
opening 7.68961634745e-05
popular 0.0
pleasure 0.000664854687153
spectacular 0.000322664107705
animal 5.3075051601e-05
luggage 0.0
wonder 0.000115032531889
matters 0.0
reader 0.0
function 0.0
marketing 0.0
connection 0.0
improves 0.0
benefit 4.43236458102e-05
continues 0.0
cuddle 0.0
routine 0.0
exciting 8.4818141982e-05
corner 0.0
imagination 0.0
sangria 0.0
mystery 0.0
spring 4.51951997647e-05
beautifully 0.000209863655589
places 4.21769141896e-05
feedback 0.0
continue 8.16305235606e-05
attend 0.000159699379795
creative 0.000149729189495
memories 9.67176513153e-05
female 0.0
grandma 0.00014915664893
closer 4.43236458102e-05
accent 0.0
beginning 0.000133340517084
sooner 0.0
everywhere 8.43538283793e-05
scenes 0.000135208085893
bought 8.64678081642e-05
wishing 0.000358621024695
discovered 0.0
remove 6.10023222057e-05
predict 0.0
parrot 0.0
several 0.0
teacher 0.0
passing 4.78113962764e-05
become 7.38417072809e-05
spread 0.000121118536607
netflix 0.000117415413718
season 0.000389722587672
putting 0.000148482771887
weight 0.0
outfits 0.0
notification 0.0
annoying 0.0
necessity 0.0
knocks 0.0
processed 0.0
necessarily 0.0
effects 0.0
lighting 0.0
headed 0.0
returns 0.0
expected 0.0
bucket 6.65560287714e-05
constantly 0.0
sweetest 8.49884536186e-05
struggling 0.00012240094549
register 0.0
transition 0.0
flowers 0.0
sprain 0.0
savage 0.0
somebody 5.27610171245e-05
covering 0.0
gloves 8.16362394577e-05
repeat 0.000148013462536
managers 0.0
brothers 0.0
patriots 0.0
seahawks 0.0
player 0.0
chemistry 7.72967984584e-05
moonlight 0.0
comment 0.0
columbia 0.0
physical 0.0
kingdom 0.000152734195563
pretend 0.0
charles 0.0
fighting 0.0
rooting 7.07275857875e-05
donald 5.07854172481e-05
mexico 0.000102164451989
police 0.0
represent 0.000239345220449
president 0.0
talking 0.000106371571591
unbelievable 5.620714757e-05
shrimp 0.0
giants 0.0
conference 0.0
america 0.0
everybody 4.35934127765e-05
houston 0.0
everyday 0.0
michael 0.000199679626435
protecting 0.0
unconditional 0.0
million 0.000185603464859
election 0.0
telling 4.01537069593e-05
correct 0.0
pulled 0.0
starbucks 7.79305386258e-05
americans 0.0
killed 0.0
cowboys 0.0
cowboy 0.0
coverage 0.0
dallas 5.83394141985e-05
coffee 0.000356563722105
timeline 0.0
refuse 6.34571527602e-05
barackobama 0.0
hillary 0.0
clinton 0.0
gatorade 0.0
sharper 0.0
american 0.000187619052982
deserved 0.000324206023644
realist 0.0
illegal 0.00017667992864
arizona 0.0
waffle 0.000106372429469
scared 0.0
pieces 0.0
taught 0.000208564946889
golden 0.000190703439884
straight 7.83682733666e-05
massage 0.000191794214578
filter 0.0
answers 0.0
smoking 0.0
created 0.0
beside 0.0
worlds 0.0
record 3.69208536404e-05
freddie 0.0
africa 0.000117415413718
recruiting 0.000169976907237
journey 0.000183839321924
snapchat 0.000262569714536
brother 0.000431148798477
prayers 5.53554926982e-05
trolling 0.0
hungry 5.69036382049e-05
nflnetwork 0.0
documentary 0.00100543599366
boston 0.0
addition 0.0
church 0.0
honestly 0.0
lounge 0.0
lifetime 0.00010678383051
captain 0.000180083929747
favorites 0.0
country 0.000219147296502
valley 0.0
huddle 0.0
dressing 0.0
finish 0.000173892671113
favourite 0.000570799374598
prayer 0.0
nominated 0.000212300206404
praying 0.0
insane 0.0
national 0.000191202894535
reform 0.0
shooting 0.000265205295523
australia 0.000104899523501
deserve 4.33533324743e-05
legend 0.000141416634376
mother 0.0
realest 0.0
creating 4.8635769039e-05
powerful 4.31148798477e-05
chilling 0.0
wisdom 0.0
breaking 7.60685862183e-05
parked 0.0
angeles 0.000123200309267
dollars 0.0
questions 0.000108690673365
racist 0.0
girlfriend 0.000372891622325
performance 0.000286487186187
refreshing 0.000165437057561
educated 0.0
reading 0.000187619052982
denver 0.0
videos 4.55754372811e-05
harmony 0.0
create 0.0
jordan 0.0
admire 0.0
nobody 0.000130059997423
government 0.0
politics 0.0
paradise 0.0
recover 0.0
spotted 0.0
blessing 0.0
coolest 0.000125239386978
banana 0.0
donate 0.000381406879769
sandwich 6.56424286341e-05
lookin 0.0
method 7.40017274908e-05
bullshit 0.0
slight 0.0
bringing 7.94389676359e-05
deserves 0.0
regret 0.0
celebs 0.0
victim 0.0
stadium 0.0
funniest 6.4532821541e-05
according 0.0
pumped 0.0
hamburger 0.0
heaven 0.000168105476483
honest 0.000131869902573
rolling 0.0
became 0.0
feature 4.84970247656e-05
waking 6.84576609492e-05
breakfast 8.88936780559e-05
counting 5.01992098831e-05
signing 0.0
adding 0.0
awareness 0.000455741522055
kindest 0.000119226244565
trainer 0.0
facebook 3.78292101508e-05
insanity 0.0
repost 0.0
brazilian 0.0
campaign 0.000123115723357
borrow 0.0
scorpion 0.0
popcorn 0.0
factory 0.0
teenage 7.76122411801e-05
endorsement 0.0
williams 0.0
custom 0.0
drinks 0.0
future 7.28523343549e-05
angels 0.0
fingers 0.000164562677584
sister 4.754084396e-05
earrings 0.0
warrior 0.0
dancing 0.0
voting 0.0
individuals 0.0
presence 0.0
commercial 0.0
chopped 0.0
religion 0.0
century 5.79749381109e-05
submit 0.0
serving 0.0
because 0.0
aggressive 0.0
sensitive 7.40017274908e-05
smiling 0.000249653630764
besides 0.0
cleveland 0.0
hometown 0.0
killing 9.01387239286e-05
breath 6.00279765823e-05
phillips 9.23516419401e-05
instagram 9.81106325852e-05
sharks 0.0
cousin 0.0
honored 0.0
dedication 0.0
lifting 0.0
lyrical 0.0
talent 9.42777562505e-05
goodnight 0.000203197341168
stores 0.0
rushing 0.0
brains 0.0
sandwiches 0.0
drinking 5.26050451274e-05
brazil 0.00012691430552
tattoo 0.0
ravens 0.0
regardless 6.2413407691e-05
skills 0.00019622126517
cameras 0.0
phones 6.51943763621e-05
california 0.00010127589379
seconds 4.72723569485e-05
listen 7.3049098834e-05
smiled 0.000223588319582
kicking 0.0
homies 0.0
billion 5.0637946895e-05
shades 7.95667232967e-05
shoutout 0.0
grammy 0.0
guilty 0.000239345220449
stevie 9.33286944267e-05
ceiling 0.0
carpet 0.0
grammys 0.0
harvard 0.0
panther 0.0
nelson 0.0
mandela 0.0
handle 0.0
sexiest 0.0
promise 0.0
hosting 4.63484712057e-05
hahahaha 0.0
longest 0.0
tuesday 8.03074139185e-05
locker 0.0
workout 6.8702760392e-05
ingredient 0.0
leader 0.0
pageant 0.0
character 0.000236361784742
idiotic 0.0
mirror 0.0
jackson 0.0
interview 0.00017969171026
battles 0.0
bleach 0.0
insight 0.000251308785276
obviously 4.9622612909e-05
replay 0.0
battle 4.10385744525e-05
stomped 0.0
destroy 0.0
killer 5.37116595271e-05
personally 0.0
winning 3.77271153688e-05
gettin 0.0
japanese 0.000129503920235
writing 4.09267408838e-05
society 0.0
officers 0.0
brooklyn 0.0
sources 0.0
incredible 0.000419510132491
poster 0.000112070317656
celebrity 0.000115588213444
memorable 0.0
werent 0.0
chased 0.0
minute 7.96550761175e-05
confession 0.0
pregnant 0.0
cherry 0.0
twinning 0.0
phoenix 0.0
orange 0.0
policy 0.0
comedy 0.00011037521743
illuminati 0.0
reminder 0.000170102906318
evidence 5.24497617506e-05
iphone 0.000676559777631
kicked 5.79749381109e-05
intentions 0.0
freedom 0.000147588854787
patient 0.0
utterly 0.0
mississippi 0.0
download 0.0
assistant 0.0
invite 5.00541720376e-05
central 0.0
washington 4.67414543746e-05
stronger 0.0
promised 0.0
worried 5.10822259944e-05
throwing 5.79749381109e-05
security 4.68734306184e-05
cologne 0.0
headphones 0.0
sanctuary 9.75332919597e-05
fantasy 0.0
monkey 0.000145752278695
approve 0.0
spinach 0.0
turning 8.84017651742e-05
helping 0.000194333982681
tickets 0.000342081639729
collector 0.0
physically 0.0
slavery 0.0
december 0.0
basically 0.000103064377978
return 0.000156312152713
yassss 0.0
goddess 0.0
locked 0.0
feelings 6.10023222057e-05
language 0.0
motion 0.0
obsessed 0.0
creation 0.0
followers 9.14062042634e-05
schools 0.0
gallery 0.0
movies 5.29176838766e-05
foster 0.0
children 0.000116600389608
nation 0.0
theaters 0.00045098719098
between 0.0
knowledge 5.01992098831e-05
begins 0.00029604960729
robinthicke 0.0
faithful 0.000104965376734
peeing 0.0
closet 0.0
bodies 0.0
italian 0.0
highlights 0.0
spanking 0.0
forbes 0.0
parade 6.51943763621e-05
tasted 0.000108594534276
consider 0.0
reunion 0.0
latest 0.000229443473442
dedicated 0.0
beyonce 0.0
perform 0.0
signed 0.0
tuxedo 0.0
princess 0.000285010180801
shelter 0.0
germany 5.37116595271e-05
explaining 0.0
married 0.0
millions 9.56227925529e-05
blessings 0.0
iconic 0.0
indonesia 0.0
braids 0.0
dollar 5.94560675959e-05
rigged 0.0
replied 8.86941544505e-05
lights 0.0
turned 0.000116284948766
excuses 0.0
jackie 0.0
charge 4.89149104067e-05
performing 5.67282182517e-05
ticket 0.0
steady 0.0
whispers 0.0
finest 0.000139401207978
confucius 0.0
diamonds 0.0
vancouver 8.74150452091e-05
addicts 0.0
collection 0.0
families 9.03903995295e-05
select 6.30359306273e-05
hitting 0.0
announced 0.000128988771134
decided 0.000126878403124
jewels 0.0
lottery 0.0
owners 0.0
respects 0.0
celebration 0.0
memorial 5.74352094473e-05
landed 0.0
pastor 0.0
ultimate 0.0
incase 0.000236413411419
rapper 0.0
episode 0.000885715197983
bounce 0.0
disney 0.0001425050904
muffin 0.0
kansas 0.0
sherman 0.0
retweet 4.48190290377e-05
midnight 0.0
patience 7.07275857875e-05
cereal 0.0
joining 4.16031391859e-05
released 8.23015294952e-05
release 0.000193808247944
models 0.0
classics 0.0
popped 0.0
mileycyrus 0.0
highlight 0.0
scholarship 0.0
within 0.0
hahahahaha 0.0
standing 4.03728455355e-05
higher 0.0
purple 0.0
skinny 0.0
justice 4.754084396e-05
served 5.3391915255e-05
speaks 5.10822259944e-05
horses 8.19933148872e-05
houses 0.000144653142967
purchase 6.06093390368e-05
dropped 8.7186825553e-05
conversations 0.0
consideration 0.0
seattle 0.0
cookie 0.0
slurpee 0.0
strength 0.0
screens 8.4599812894e-05
monica 0.0
incredibly 4.99097298317e-05
streets 0.0001039759664
boyfriend 8.34590114506e-05
private 9.06429788149e-05
skittles 0.0
barbie 0.00011015797512
apologizes 0.0
designer 0.0
impress 0.0
cooking 0.0
exclusive 0.000167785118956
fashion 0.000102164451989
petite 0.000139693372517
talkin 0.0
peaches 0.0
bitches 0.0
nailed 0.0
weirdest 9.23516419401e-05
whomever 0.0
teaching 0.000161617885068
disgusting 0.0
chillin 0.0
philly 0.0
rights 0.0
dinosaur 9.69793966114e-05
exotic 0.0
dancers 0.0
cheers 0.000437509696111
presents 0.000115588213444
flawless 9.0475376967e-05
dating 0.0
victory 0.000100982184572
marley 0.000112641709904
productive 0.0
smurfs 0.0
halftime 0.0
insecure 0.0
horror 7.02103466465e-05
warning 0.0
discovery 7.20549745529e-05
convention 0.0
understanding 5.0933508531e-05
action 0.00015172640861
having 6.63253943207e-05
speaker 0.0
clever 6.04144818752e-05
theatre 0.0
honors 0.0
evolution 0.0
produce 0.0
spider 0.0
apologize 0.0
formation 0.0
letter 4.35934127765e-05
therapy 0.0
untrue 0.0
written 0.000172459519391
communication 0.0
disease 0.0
marching 0.0
suggest 0.0
georgetakei 0.0
hairstyle 0.0
humans 5.92674793279e-05
journal 0.0
foundation 5.03448483012e-05
access 4.34731677783e-05
venture 0.0
syndrome 0.0
writes 0.0
colorado 0.0
medicine 7.12525452002e-05
tremendous 0.0
nytimes 0.0
kindness 0.000149740413736
cannot 7.87945974316e-05
reveals 0.0
invented 6.60962623852e-05
sapphire 0.0
candidate 0.0
sexual 0.0
madison 0.0
illustration 0.0
newark 0.0
globally 0.0
incorrect 0.0
headline 5.53554926982e-05
reflect 0.0
streaming 0.000115588213444
leaders 0.0
supreme 0.0
protest 0.0
policies 0.0
silenced 0.0
defend 0.0
communicating 0.0
climate 0.0
wrapped 0.000198976182962
studio 0.000196785139716
conspiracy 6.97006039892e-05
interviews 4.79474569015e-05
differentiation 0.0
confusing 7.12525452002e-05
february 5.19879831999e-05
hamilton 0.0
loneliest 0.0
amazon 0.0
scattered 0.0
francis 0.0
headlines 0.0
january 0.00029348946244
diversity 0.0
universal 6.2413407691e-05
hurricane 0.0
identifying 0.0
countries 0.0
tickled 0.0
becker 0.0
connected 0.0
suggestion 0.0
filled 0.0
education 4.754084396e-05
mentioned 0.0
defining 9.0475376967e-05
exists 6.56424286341e-05
unexpected 0.0
plants 8.12827527867e-05
orders 0.0
olympics 6.26196934888e-05
ability 0.0
director 0.000264471278204
content 0.0
cycling 0.0
previously 0.0
correction 0.0
pearls 0.0
ambassador 0.0
preparing 0.0
depend 0.0
downloads 0.0
lovers 0.000141978172166
weekly 6.10023222057e-05
hudson 0.0
bridge 5.69036382049e-05
becoming 0.0
magazine 4.90553162926e-05
appropriate 0.0
shakespeare 0.0
travesty 0.0
discoveries 0.0
fellow 8.96380580754e-05
reviewed 0.0
copies 0.0
driven 0.0
aussies 0.000454040757124
result 0.0
announcing 0.0
visual 0.0
restrictions 0.0
culture 9.75501255923e-05
edition 0.000236361784742
prince 0.000204926299826
shocks 0.0
symmetry 0.0
clicks 0.000108594534276
disagree 5.46887120138e-05
experiments 0.0
mistakes 0.0
trolls 0.0
blossoms 0.0
offered 5.81567040333e-05
inspiring 0.000238379299855
counter 0.0
approach 5.26050451274e-05
embarrassing 0.0
creators 0.0
edited 0.0
berniesanders 0.0
overnight 0.0
spotlight 0.0
probable 0.0
repeating 0.0
concerns 0.0
massive 4.48190290377e-05
promising 0.0
promises 0.0
colored 0.0
production 0.000112759962938
header 0.0
itunes 0.000233357656794
secretary 0.0
highway 0.0
dangerous 0.0
letters 0.0
typically 0.0
saving 0.000102463149913
pioneer 0.0
visuals 0.0
universe 0.0
ordering 0.0
victims 5.12315749565e-05
privacy 0.0
disclosure 0.0
proceeds 7.07275857875e-05
musical 0.000172842600916
collide 0.0
melbourne 0.000292599875879
correctly 0.0
campus 0.0
debate 0.0
conflict 0.000146868861749
meanwhile 0.0
petition 0.0
contribution 0.0
stated 0.0
humanity 0.0
illness 0.0
flawed 0.0
breathe 0.0
winners 0.0
spanish 0.0
comedic 0.0
awards 4.60889008194e-05
presidential 0.0
candidates 0.0
glasgow 0.0
smells 0.0
treasure 0.0
greater 0.0
themed 0.0
distribution 0.0
absurd 0.0
squirrel 0.0
sisters 0.0
stress 0.0
leading 4.48190290377e-05
resolution 0.0
achieved 0.0
interacting 0.000119226244565
boiling 0.0
examples 0.0
diverse 8.16362394577e-05
suicide 0.0
parallel 0.0
minneapolis 0.0
impairs 0.0
pumping 0.0
slides 0.0
choreography 0.0
element 0.0
serves 8.09327834544e-05
jumping 6.63253943207e-05
rising 0.0
believed 0.0
features 5.63799814692e-05
environment 0.0
revealed 5.76142003054e-05
classical 0.0
confirmed 0.000102763121606
origins 0.000103612455025
combination 0.0
consumption 0.0
worldwide 0.000234830827436
deaths 0.0
responsible 0.0
overwhelmed 0.0
household 0.0
munich 0.0
alternate 0.0
blockers 0.0
restaurant 0.0
canada 0.000141017711847
versions 0.0
technology 0.0
identify 0.0
combined 0.0
santiago 0.0
branches 0.0
october 0.000148013462536
netherlands 0.0
belgium 0.0
european 0.0
imperial 0.0
perspective 0.0
cities 0.0
guinea 0.0
americas 0.0
posters 0.0
elastic 0.0
flames 0.0
presumably 0.0
exquisite 0.0
spreading 0.0
happiness 0.0
ashamed 0.0
naturally 7.79305386258e-05
malbec 0.0
wasting 8.69988080706e-05
hidden 5.79749381109e-05
coffin 0.0
freudian 0.0
genius 4.68734306184e-05
cultured 0.0
malaysia 0.0
traveling 0.0
prepared 0.0
county 0.0
quinoa 0.0
district 0.0
chosen 0.0
toilet 0.0
yorkers 0.0
ignores 0.0
messages 0.000117786619094
creativity 0.0
conventional 0.0
berlin 0.0
montreal 0.0
wonders 0.0
upcoming 0.0
lonely 8.16362394577e-05
australian 0.0
positions 0.0
singapore 0.0
scratch 7.57606753848e-05
deficiency 0.0
elevated 0.0
triggers 0.0
delicate 0.0
barrier 0.0
reflection 0.0
sydney 0.0
separates 0.0
centuries 0.0
israel 0.0
overwhelming 0.0
assault 0.0
protection 0.0
picker 0.0
additional 0.0
machine 4.754084396e-05
samples 0.0
contrary 0.0
immediate 0.0
michelle 0.0
inspire 6.00279765823e-05
lyrics 0.0
missyelliott 0.0
constant 0.0
tuning 0.0
pandora 0.0
preshow 0.0
buenos 0.0
poland 0.0
philippines 8.91310746991e-05
nicely 6.74939944294e-05
september 0.000148439785876
manchester 0.0
checks 0.0
screenshot 0.0
universalorl 0.0
remarkable 0.0
rihanna 0.0
disgusted 0.0
flattered 0.0
fiction 0.0
angela 0.0
bitmoji 0.0
process 4.49439727844e-05
genuine 6.38834807401e-05
performances 0.0
comedians 0.0
flotus 0.0
strangers 8.12827527867e-05
hungover 0.0
confidence 0.00011037521743
studios 7.54613405762e-05
stjude 0.0
memphis 0.0
mikeypiff 0.0
chancetherapper 0.0
scream 0.0
jennifer 0.0
disappoint 0.000173174878629
newcastle 0.0
castle 0.0
literally 4.35934127765e-05
chrisrock 0.0
gentlemen 7.57606753848e-05
mtvnews 0.000117215890113
hillaryclinton 0.0
iamrashidajones 0.0
champagne 0.000159133446593
raleigh 0.0
ijessewilliams 0.0
acknowledge 0.0
buzzfeed 7.02103466465e-05
puppet 9.75332919597e-05
rehearsal 7.89030879914e-05
billboard 0.0
austria 0.0
sweden 0.0
republic 0.0
grilled 0.0
waltdisneyworld 0.0
katyperry 0.0
ronanfarrow 0.0
measly 0.0
bragging 0.0
treats 0.0
literal 0.0
cooper 0.0
counts 5.85230784681e-05
theellenshow 0.0
basking 0.0
cookies 7.34344308744e-05
festival 0.000466518550986
amsterdam 0.0
soundcheck 0.0
downloaded 0.0
encouraged 0.0
alright 0.000123603423582
jtimberlake 0.0
backstage 0.000253828611041
collab 0.0
joined 0.000173413329897
issarae 0.0
playlist 0.0
madness 5.620714757e-05
romantic 0.0
selfies 0.0
exclusively 0.0
disneyland 0.0
refused 0.0
characters 0.00011241429514
amazingly 0.0
auction 0.000140936030802
express 0.000163571920229
gratitude 0.0
sesamestreet 0.0
thegrammys 0.0
throughout 0.0
awkward 5.87077068591e-05
shining 0.000213757635601
thrown 6.70218849556e-05
stylist 0.0
fighter 0.0
accepting 0.0
playin 0.0
applemusic 0.0
filmed 0.0
makeawish 0.0
bieber 0.0
remixes 0.0
toronto 0.000376963177914
capitolrecords 0.0
shazam 0.0
anthem 0.0
cosmopolitan 0.0
khloekardashian 0.0
cookin 0.000119226244565
songwriters 0.0
reveal 5.1381560803e-05
stands 0.0
spotify 0.0
phvegas 0.0
rocked 7.40017274908e-05
glasses 0.0
iambeckyg 0.0
relive 0.0
acoustic 0.0
announce 0.000163706963535
although 5.74352094473e-05
isaacfromct 0.0
shampoo 0.0
interactive 0.0
todayshow 0.0
haters 0.0
appreciation 7.63670977817e-05
floating 0.0
shondarhimes 0.0
showtime 0.0
premiere 0.00114870418895
broadway 0.0
makeup 0.0
starring 0.000758445378295
newest 0.0
designed 0.000163080008461
arianagrande 0.000422647469474
aladdin 0.0
swaggy 0.0
owning 0.0
producer 6.38834807401e-05
legendary 0.000112759962938
jasmine 0.0
costumes 0.000180043086432
square 0.0
emojis 0.0
jessica 0.000432937196572
magical 0.00475893089173
thedoctorluke 0.0
thirsty 0.0
therealjuicyj 0.0
symbols 0.0
privilege 6.51943763621e-05
spiral 0.0
retrograde 0.0
footage 5.76142003054e-05
theirs 0.0
universes 0.0
remembering 5.76142003054e-05
floated 0.0
construction 7.3716935427e-05
consciousness 0.0
delights 0.000137889303863
explodes 0.0
submissions 0.0
pleased 5.81567040333e-05
shredding 0.0
filters 0.0
weasel 0.0
reflective 0.0
firework 0.0
islands 0.0
interstellar 0.0
bubble 0.0
customs 0.0
festive 0.0
window 5.16834650404e-05
senator 0.0
slightly 0.000121610563519
therealbuzz 0.0
printing 0.0
snowflake 0.0
applications 0.0
elephant 0.0
fifteen 0.0
editions 0.0
newspaper 0.0
rainbow 0.0
unlimited 0.0
sirius 0.0
matthew 6.72571475566e-05
affected 0.0
capturing 0.0
canyon 0.000296003876986
rivers 0.0
spoken 0.0
accidentally 6.74939944294e-05
bizarre 7.3154177378e-05
dolphin 0.0
successfully 0.0
liquid 8.82625953219e-05
graffiti 0.0
swallowing 0.0
messenger 0.0
heroes 5.37116595271e-05
disturbing 0.0
graduates 0.0
rewrite 0.0
describe 0.0
hollywood 0.000414683156432
equality 0.0
announcement 0.0
breakout 0.0
dreaming 0.0
animation 0.0
calendar 6.8702760392e-05
circling 0.0
garden 0.000105210090255
enhanced 0.0
journalists 0.0
stirring 0.0
nominations 0.0
yelling 0.0
teachers 6.30359306273e-05
chapter 0.0
napoleon 0.0
aliens 0.0
subjects 0.0
revolution 6.58686135146e-05
mountains 0.0
wonderland 0.0
storage 0.0
crystals 0.0
circuit 0.0
invitation 0.0
kettle 0.0
adjective 0.0
woodpecker 0.0
operate 0.0
exhibition 0.0
learnt 0.000211323734737
nomination 6.40985983998e-05
madonna 0.0
questioning 0.0
unplug 0.0
initiatives 0.0
switzerland 0.0
represents 0.0
throat 0.0
touchdown 0.0
desire 0.0
forced 0.000108068674548
swedish 0.0
hundred 0.0
prompts 0.0
rainbows 0.0
creates 0.0
oxford 0.0
balloons 0.0
liverpool 8.42154196941e-05
recreate 0.0
glorious 0.0
newton 0.0
creature 0.0
finalist 0.0
scouts 0.0
treading 0.0
tragedy 0.0
nottingham 0.0
debacle 0.0
legends 7.3154177378e-05
noises 0.0
addiction 0.0
survived 7.04680154012e-05
idioms 0.0
greeted 0.0
basics 0.0
masses 0.0
confirm 0.0
cadence 0.0
spaghetti 0.0
prepare 0.000104282473444
calendars 0.000105661867369
narrative 0.0
application 0.0
octopus 0.0
drumming 0.0
bloody 0.000200364556718
confetti 0.0
translate 0.0
birmingham 0.000234755228813
singles 0.0
completes 0.0
laptop 0.0
obvious 5.96456725171e-05
darling 8.38351821777e-05
deserving 0.0
miller 0.0
ordered 5.1835394554e-05
feelin 0.0
alicia 0.000106372429469
picasso 0.0
recipe 0.0
alphabetical 0.0
butterfly 0.0
timothy 0.0
mancini 0.0
untold 0.0
directed 0.000301103491561
hacked 6.8702760392e-05
admits 0.0
clocks 0.0
nugget 0.000123628436032
cnnopinion 0.0
grabbed 9.9840455158e-05
russia 5.46887120138e-05
surprises 6.72571475566e-05
waterfalls 0.0
olympic 6.51943763621e-05
magnificent 7.3716935427e-05
casual 0.0
assume 0.0
relief 5.85230784681e-05
subscribe 0.0
landslide 0.0
telegraph 0.0
standby 0.0
admitting 0.0
complacency 0.0
voices 0.0
sounding 0.0
douglas 0.0
democracy 0.0
locals 9.53682006647e-05
gossip 0.0
nickname 0.0
subtle 0.000166918022901
embarrassed 0.0
ireland 0.0
mornings 8.82625953219e-05
democratic 0.0
impressions 0.0
outgoing 0.0
treasury 0.0
refugees 6.99545518629e-05
unveiling 0.0
listing 8.69988080706e-05
deliver 0.0
negotiating 0.0
roller 0.0
prosperous 0.0
desperate 6.70218849556e-05
acknowledgement 0.0
executive 0.0
republicans 0.0
weapons 0.0
dropping 5.32331265983e-05
meaningful 0.0
nightmare 0.0
goodies 9.92493214497e-05
scandalous 0.0
rhetoric 0.0
divisive 0.0
vision 0.0
confirmation 0.0
throne 0.0
records 0.0
quoting 0.0
impatient 0.0
refugee 0.0
texted 0.0
exposed 0.0
stoked 0.0
priority 0.0
freedoms 0.0
notorious 0.0
empowering 0.0
unconstitutional 0.0
turkish 0.0
concerned 5.65536688726e-05
realdonaldtrump 0.0
goodwill 0.0
imagined 0.0
belfast 0.0
sleeve 0.0
basement 0.0
preposterous 0.0
griffith 0.0
timeless 0.0
truman 0.0
intended 0.0
inappropriate 0.0
industries 0.0
responsibility 0.0
documentaries 0.000119226244565
vulnerable 0.0
respectful 0.0
markets 0.0
claire 8.95734909439e-05
nuggets 0.0
boards 0.0
sequins 0.0
capitol 0.0
technical 0.0
applying 0.0
guitar 0.00015032906366
donating 0.000127339341589
continually 0.0
norway 0.000157806175983
applause 0.0
ballot 0.0
finely 0.0
shakes 0.0
varied 0.0
proverb 0.000124820808786
vibrant 0.0
flower 0.0
survives 0.0
fierce 0.0
shopped 0.0
sincerely 0.0
apology 0.0
sweaty 0.0
conspiracies 0.0
climbing 0.0
relaxed 0.0
encourage 0.0
funnyordie 0.0
essentials 0.0
jimmykimmellive 0.0
rejectedjokes 0.0
protesting 0.0
releasing 7.28761393474e-05
cleaner 0.0
preferred 0.0
incarceration 0.0
jkcorden 0.000289302267404
koppel 0.0
bikini 0.0
transparency 0.0
kamalaharris 0.0
nutshell 0.0
walled 0.0
floored 0.0
plotting 0.0
gandhi 0.0
vilify 0.0
meditate 0.0
violent 0.0
preschool 0.0
rhythm 0.0
matching 7.95667232967e-05
senwarren 0.0
venezuela 0.000102955022282
candle 0.0
donates 0.0
peacefully 0.0
chelseahandler 0.0
experiencing 0.0
sarabareilles 0.0
haunting 0.000102955022282
constitution 0.0
explode 0.0
deeper 0.0
empathy 0.0
mrgaryhuang 0.0
scored 0.0
charitable 0.0
perfume 0.0
giraffe 0.0
noticing 0.0
noodle 0.000126055027622
wrongly 0.0
marshmallow 0.0
fraudulent 0.0
everytime 0.0
helluva 0.0
therapists 0.0
tangible 0.0
sarahksilverman 0.0
johnfugelsang 0.0
exceptional 0.0
miracle 0.0
avocado 0.0
snacks 0.0
spelled 0.0
parental 0.0
superbowl 0.0
shoulders 0.0
valentine 5.85230784681e-05
glitter 0.0
stocking 0.000104282411047
poehler 0.0
thumbs 0.0
tinatbh 0.0
educational 0.0
voicemail 0.000119226244565
thetweetofgod 0.0
esteem 0.0
teaches 0.0
goodbye 0.000221421970793
reminding 0.0
supplies 0.0
ryanseacrest 0.0
okmagazine 0.0
shoots 0.0
bowing 0.0
jennyslate 0.0
craigyferg 0.000131476757944
masterpiece 0.0
sneaky 0.0
nashville 0.0
chronicles 0.0
potato 0.0
freakin 0.0
perezhilton 0.000198498642899
unethical 0.0
paparazzi 0.0
mantra 0.0
consuming 0.0
unauthorized 0.0
vanityfair 0.0
stalking 0.0
shoulda 0.0
yeppers 0.0
sacred 0.0
existed 0.0
earned 0.0
woulda 0.0
ellenpage 0.0
choker 0.0
contribute 0.0
mustache 0.0
washes 0.0
creeps 0.000117215890113
champion 5.60351588278e-05
auntie 0.0
magazines 0.0
waited 7.3716935427e-05
conscious 0.0
cracker 0.000110966553896
denmark 0.000180043086432
potion 0.0
windex 0.0
scarfing 0.0
ladygaga 0.0
purposely 0.0
pretending 0.0
luckiest 0.0
mascara 0.0
tastes 0.0
gardening 0.0
leashes 0.0
hippie 0.0
womensmarch 0.0
reunited 8.53814367875e-05
clique 0.0
premiering 0.000163272478915
rollingstone 0.0
childrensla 0.0
dollywood 0.0
godmother 0.0
eltonofficial 0.0
vmagazine 0.0
donorschoose 0.0
yesssssss 0.0
bettemidler 0.0
rehearsing 0.0
trevorproject 0.0
unicef 0.0
ellemagazine 0.000113510189281
yasssss 0.0
acceptance 0.0
solidarity 0.0
pharrell 0.0
greece 0.0
papermagazine 0.0
johnmayer 0.000141595004695
lipstick 0.0
tumblr 0.0
coldplay 0.0
colorful 0.0
translifeline 0.0
newsstands 0.0
feminist 0.0
pitchfork 0.0
labels 0.0
jenner 0.0
arkansas 0.0
beanie 0.0
sparkly 0.0
moschino 0.0
britneyspears 0.0
itsjeremyscott 0.0
nickiminaj 0.0
appstore 0.0
poetry 0.0
puttin 0.0
rubbed 0.0
shrine 0.00013004098195
skyferreira 0.0
freaking 0.0
besties 0.0
chanel 0.0
bedazzled 0.0
rubber 0.0
kendricklamar 0.0
popstar 0.0
sosadtoday 0.0
copenhagen 0.0
lenadunham 0.0
wearin 0.0
stoned 0.0
facetime 0.0
barclays 0.0
meditation 0.0
harpersbazaarus 0.0
stared 0.0
ritual 0.0
iconapop 0.0
doubted 0.0
staples 0.0
anaheim 0.0
jingle 0.0
tacoma 0.0
rehearsals 9.64340891347e-05
treadmill 0.0
metamorphosis 0.0
dental 0.0
jodyhighroller 0.0
versace 0.0
werking 0.0
couture 0.0
eggplant 0.0
bangin 0.0
cardigans 0.0
obnoxious 0.0
bestie 0.0
teganandsara 0.0
barrel 0.0
dedicating 0.0
jefferson 0.0
pumpkin 0.0
derekblasberg 0.0
glamourmag 0.0
presale 0.0
mtvstyle 0.0
deluxe 0.0
mtvema 0.0
reggae 0.0
azealiabanks 0.0
nominating 0.0
sailor 0.0
mornin 0.0
itunesmusic 0.0
bananas 0.0
lordemusic 0.0
vietnam 0.0
milwaukee 0.0
neworleans 0.0
circus 0.0
strolling 0.0
rapids 0.0
collegegameday 0.0
aaaaand 0.0
godfather 0.0
bestow 0.0
allison 0.0
rockthevote 0.0
birbigs 0.0
lucille 0.0
louder 0.0
farmers 0.0
shaved 0.0
niagara 0.0
realmattlucas 0.00324422976793
ferguson 0.000189694259966
painful 6.91981436195e-05
exchange 0.0
nickkroll 0.0
edmonton 0.0
mickey 0.0
angelenos 0.0
pooping 0.0
located 0.0
onslaught 0.0
finalists 0.0
bumped 8.86941544505e-05
sherlock 0.000249641617572
stockholm 0.0
casually 0.0
jjwatt 0.0
itstonybennett 0.0
mariolopezextra 0.0
klgandhoda 0.0
entrance 0.0
calgary 0.0
bowling 0.00034152574715
winnipeg 0.0
cheeto 0.0
gloriasteinem 0.0
feather 0.0
nathan 0.0
smelling 0.0
narnia 0.0
llamas 0.0
actuallynph 0.0
mourning 0.0
obsession 0.000147433870854
chilled 0.0
medically 0.0
hyperloop 0.0
aussie 9.23516419401e-05
flaring 0.0
eyeballs 0.0
stuffing 0.0
pitched 0.0
condiments 0.0
relatable 0.0
olivia 0.000401766776816
painted 0.0
mykonos 0.0
eyebrow 0.0
capitalcities 0.0
jackpot 0.0
hipster 0.0
sweating 0.0
restaurants 0.000168430839388
superfan 0.00103605285429
restraint 0.0
craziest 0.0
catheter 0.0
delivers 0.0
kanyewest 0.0
paints 0.0
dissect 0.0
billboards 0.0
milano 0.0
bjnovak 0.0
snapping 0.0
croissant 0.0
repjohnlewis 0.0
blklivesmatter 0.0
mydaughtersarmy 0.0
huddled 0.0
yearning 0.0
thereaibanksy 0.0
affordable 0.0
foodie 0.0
colombia 0.0
peeled 0.0
shootings 0.0
playground 0.0
breaky 0.0
photoshoot 0.0
smokin 0.0
accents 0.0
sweats 0.0
postmates 0.0
armband 0.0
unconscious 0.0
maddow 0.0
aquarium 0.0
holler 0.0
photoshop 8.95734909439e-05
robbie 0.0
espnmag 0.0
laundry 0.0
examining 0.0
zealand 0.0
stuntin 0.0
hehehe 0.0
nostalgia 0.0
buttons 0.0
slaying 0.0
monument 0.0
bringin 0.0
lining 0.0
muchas 0.0
gracias 0.0
madame 0.0
illustrated 9.2836775531e-05
boxers 0.0
grazie 0.0
winters 0.0
plastic 0.00015032906366
unbreakable 0.0
licking 0.0
cheeky 0.00010167591304
twerking 0.0
danish 0.0
drummer 0.0
florence 0.0
revoir 0.0
resume 0.0
dodger 0.0
brazilians 0.0
grimezsz 0.0
crocodile 0.0
hahahahahaha 0.0
parisians 0.0
taipei 0.0
taiwan 0.0
bangkok 0.0
uploaded 0.0
manila 0.0
hamburg 0.0
curating 0.0
aaaand 0.0
skating 0.0
brisbane 0.000113510189281
googleplay 0.0
raincoat 0.0
glastofest 0.0
vienna 0.0
burning 0.0
jamming 0.0
reaches 0.0
subtitles 0.0
wristband 0.0
barcelona 0.0
credits 0.0
dreamers 0.0
bogota 0.0
bursting 0.0
brunomars 0.0
beyoncé 0.0
subscribers 0.0
unlock 9.2836775531e-05
onedirection 0.000123628436032
amazonmusic 0.0
snippets 0.0
preorder 0.0
rehearse 0.0
bahnhof 0.0
delorean 0.0
fragrance 0.0
curate 0.0
samsmithworld 0.0
guitars 0.0
storyline 0.0
registering 0.0
beatsbydre 0.0
panama 0.0
celestial 0.0
orchestra 0.0
finland 0.0
climbed 0.0
topping 0.0
méxico 0.0
vasconcelos 0.0
leicester 0.0
itunesfestival 0.0
pondering 0.0
millennials 0.0
struck 0.0
watermelon 0.0
benefited 0.0
sophisticated 0.00010167591304
couples 0.0
villain 9.43336664447e-05
mindful 0.0
catholic 0.0
airline 0.0
secretly 0.000241758786455
playlists 0.0
veggie 0.0
receipts 0.0
foremost 0.0
bagpipe 0.0
drifting 0.0
trader 0.0
influenced 0.0
moscow 0.0
cobain 0.0
reaper 0.0
commune 0.0
handshake 0.00010167591304
despair 0.0
silicon 0.0
investing 0.0
construct 0.0
garland 0.0
coachella 0.0
offline 0.0
realisation 0.0
payback 0.0
educate 0.0
alliances 0.0
etched 0.0
momentarily 0.0
pronoun 0.0
lenses 0.0
validated 0.0
authenticity 0.0
choreographed 0.0
pokemon 0.0
disneyworld 0.0
patriotic 0.0
embody 0.0
snickers 0.0
impactful 0.0
refocus 0.0
eminem 0.0
mahatma 0.0
ecstatic 0.0
snfonnbc 0.0
avenue 0.0
picchu 0.0
doubters 0.0
beverly 0.0
intensity 0.0
outtake 0.0
temple 0.0
purchased 0.0
fountain 0.0
punched 0.0
goldfish 0.0
comparable 0.0
buyers 0.0
barbara 0.0
corybooker 0.0
listens 0.0
timeout 0.0
inducing 0.0
signage 0.0
penthouse 0.0
ahahaha 0.0
phenom 0.0
brilliantly 0.000180950753934
siphoning 0.0
herstory 0.0
prostitute 0.0
survivors 0.0
courageous 8.4599812894e-05
cruelty 0.000102309653208
margot 0.0
xenophobic 0.0
mcginley 0.0
yorkshire 0.0
chants 0.0
alancarr 0.0
chained 0.0
skillz 0.0
debunked 0.0
floods 0.0
fleetwood 0.0
cheesecake 0.0
adidas 0.0
uneven 0.0
raging 0.0
connections 0.0
headlining 0.0
devhynes 0.0
charli_xcx 0.0
shawnmendes 0.0
tavitulle 0.0
bahjournalist 0.0
tyleroakley 0.0
marquee 0.0
grease 0.0
screenshots 0.0
ddlovato 0.0
chattyman 0.0
grimmers 0.0
vevo_uk 0.0
bonniemckee 0.0
electrifying 0.0
idolator 0.0
onairromeo 0.0
godven 0.0
lookie 0.0
preordered 0.0
elvisduran 0.0
shanghai 0.0
tripped 0.0
konnichiwa 0.0
etnad_olegnad 0.0
unannounced 0.0
swedes 0.0
cinderella 0.000122475164591
slipper 0.0
jessesaintjohn 0.0
adorbs 0.0
onesies 0.0
jahnsuxx 0.0
walgreens 0.0
aphrodite 0.0
danceonfox 0.0
difficulties 0.0
mermaids 0.0
antique 0.0
girlshbo 0.0
yaaaaasss 0.0
lifesaving 0.000127334136863
queens 8.23540526927e-05
yaaaas 0.0
rollin 0.0
bestest 0.0
cleanse 0.0
iamtovelo 0.0
glamour 0.0
emelisande 0.0
lashes 0.0
austrian 0.0
magritte 0.0
misogynoir 0.0
litter 0.0
spiritual 0.0
preaching 0.0
adelaide 0.000252110055244
sheffield 0.0
impending 0.0
starve 0.0
excess 0.0
conciousness 0.0
vitamins 0.0
generator 0.0
purposefully 0.0
profiles 0.0
petals 0.0
persist 0.0
alexis 0.000126055027622
covergirl 0.0
sneezed 0.0
cushion 0.0
demconvention 0.0
directv 0.000428390573448
flo_tweet 0.0
billclinton 0.0
grounded 0.0
sunrise 9.00215432159e-05
fightin 0.0
sagekotsenburg 0.0
pwease 0.0
sadder 0.0
waterfall 0.0
sighting 0.0
firsts 0.0
muller 0.0
burritos 0.0
bungee 0.0
potting 0.0
dipping 0.0
closets 0.0
scratched 0.00013004098195
decorating 0.0
summers 0.0
havana 0.0
fresher 0.0
mowing 0.0
invading 0.0
addict 0.0
aesthetics 0.000162268418444
footwear 0.0
protector 0.0
hammock 0.0
repurpose 0.0
mishap 0.000143605359147
hamster 0.0
cellar 0.0
groove 0.0
mentored 0.0
exaggerate 0.0
scraping 0.0
apropos 0.0
trolled 0.0
jonlovett 0.0
rheabutcher 0.0
sickening 0.0
flustered 0.0
compiled 0.0
shirley 0.0
subtweet 0.0
pantsuit 0.0
patting 0.0
atrocious 0.0
amoeba 0.0
platter 0.0
aficionado 0.0
bearer 0.0
manifest 0.0
transformation 0.0
thighs 0.0
tapper 0.0
foaming 0.0
sophie 0.0001093675682
sabbath 0.0
vibrations 0.0
nutella 0.0
wilder 0.0
distractions 0.0
stripping 0.0
downloading 0.0
judith 0.0
crossroads 0.0
parsons 0.0
stella 0.0
narcissism 0.0
fawcett 0.0
trainers 0.0
surrounding 0.0
longtime 0.0
frosting 0.0
laurent 0.0
savory 0.0
acupuncture 0.000165974119276
cancelling 0.0
nutcracker 0.0
ballet 0.0
tempura 0.0
burner 0.0
voguemagazine 0.0
lagged 0.0
cuttlefish 0.0
passwords 0.0
funfetti 0.0
anagasteyer 0.0
gabbana 0.000180234987107
budapest 0.000551557215451
montage 0.0
crowns 0.0
scheduling 0.000227020378562
possessed 0.0
syncing 0.0
creatively 0.0
hieroglyphics 0.0
halftimes 0.0
floppy 0.0
nessie 0.0
feathers 0.000122475164591
kaceymusgraves 0.000165974119276
roaring 0.000145737625775
rightful 0.000139693372517
balconies 0.000174813256786
prodigy 0.00029147525155
raquin 0.00021887496952
gianni 0.000165974119276
monsieuradi 0.00021887496952
drowned 0.000117215890113
tropicana 0.000165974119276
diesel 0.000113510189281
shabbat 0.000174813256786
voiceless 0.0
passover 0.0
elevating 0.0
traumatic 0.0
dreamer 0.0
iwillharness 0.0
classrooms 0.0
eligibility 0.0
counselors 0.0
wainwright 0.0
moveon 0.0
runaway 0.0
baghdad 0.0
zaralarsson 0.0
snooze 0.0
iggyazalea 0.0
harviikills 0.0
bolognese 0.0
babysitting 0.0
mohegan 0.0
hooters 0.0
crusts 0.0
tracksuit 0.0
cupcake 0.0
xfactor 0.0
vitamin 0.0
lichtenstein 0.0
concourse 0.0
hitchcock 0.0
teller 0.0
pastels 0.0
remnants 0.0
banger 0.0
lyrically 0.0
boogers 0.0
ritaora 0.0
bumpin 0.0
dabbed 0.0
sleepin 0.0
tinashe 0.0
octaviaspencer 0.0
linder 0.0
musicallyapp 0.0
scavenger 0.0
sanging 0.0
corinthians 0.0
hollywoodbowl 0.0
kraken 0.0
discontinue 0.0
cypress 0.0
schooling 0.0
maritime 0.0
narration 0.0
zeitgeist 0.0
sampler 0.0
pseudo 0.0
bangladesh 0.0
hungary 0.0
mumble 0.0
sisterhood 0.0
soulful 0.0
lennykravitz 0.0
londontown 0.0
andradaymusic 0.0
lipsticks 0.0
realization 0.0
unconditionally 0.0
wildfire 0.0
goldie 0.0
minnie 0.0
solitude 0.0
waddle 0.0
westworldhbo 0.0
statuesque 0.0
uncasville 0.0
demented 0.0
skyway 0.0
twentyonepilots 0.0
rejoicing 0.0
clenching 0.0
adelphia 0.0
entirety 0.0
redhourben 0.0
lakewood 0.0
drjillstein 0.0
entail 0.0
whammy 0.0
smokers 0.0
gobble 0.0
topshop 0.0
cleowade 0.0
mkives 0.0
sweetbabayjamie 0.0
marchesafashion 0.0
hamsters 0.0
gurrrl 0.0
sofifii 0.0
sumthin 0.0
nicomiz 0.0
maisonvalentino 0.0
coziest 0.0
accessorize 0.0
thejgold 0.0
peruvian 0.0
amazeballs 0.0
sendin 0.0
fantabulous 0.0
timelines 0.0
regina 0.0
slovakia 0.0
graves 0.0
embracing 0.0
larsson 0.0
cullen 0.0
psychiatric 0.0
officialadele 0.0
butters 0.0
verrrry 0.0
buttered 0.0
winged 0.0
pedialyte 0.0
topanga 0.0
armpit 0.0
kittens 0.0
dueling 0.0
eagerly 0.0
surrealist 0.0
dethroned 0.0
manolos 0.0
señorita 0.0
monterrey 0.0
parque 0.0
retiree 0.0
batches 0.0
reservations 0.0
sickos 0.0
aplusk 0.0
kirkherbstreit 0.0
fanbases 0.0
indexing 0.0
chuckles 0.0
incorporated 0.0
washboard 0.0
earbuds 0.0
pantone 0.0
knotts 0.0
dismaland 0.0
pollock 0.0
iamkidpresident 0.0
mariah 0.0
teevee 0.0
santorini 0.0
appalachian 0.0
sunburnt 0.0
caliente 0.0
juicery 0.0
karlihenriquez 0.0
trillest 0.0
tommorrow 0.0
crumpets 0.0
fishin 0.0
grillin 0.0
jambalaya 0.0
pepperoni 0.0
cashew 0.0
graceland 0.0
pussies 0.0
delicately 0.0
eraser 0.0
choreo 0.0
snatched 0.0
elliptical 0.0
mooore 0.0
unborn 0.0
georgina 0.0
stalkers 0.0
sallykohn 0.0
expectancy 0.0
phillipines 0.0
appstoregames 0.0
wilkinson 0.0
puddings 0.0
loveland 0.0
spaced 0.0
shanny 0.0
dripping 0.0
gerber 0.0
shakey 0.0
weaves 0.0
unbeatable 0.0
linguist 0.0
prosthetics 0.0
battleship 0.0
serotonin 0.0
machiavellian 0.0
girlies 0.0
guangzhou 0.0
debuting 0.0
dissecting 0.0
warped 0.0
luckyjess 0.0
ermahgerd 0.0
fabulousness 0.0
elliegoulding 0.0
activewear 0.0
yelyahwilliams 0.0
prismatic 0.0
evaluations 0.0
skywalk 0.0
sparklers 0.0
palettes 0.0
gemmaanningram 0.0
trueeee 0.0
invisalign 0.0
pounded 0.0
lolgop 0.0
procession 0.0
stanning 0.0
squeals 0.0
continual 0.0
luminary 0.0
cummin 0.0
shaves 0.0
epixhd 0.0
preacher 0.0
boogiecousins 0.0
changers 0.0
autismspeaks 0.0
massaged 0.0
psssssst 0.0
literati 0.0
utilization 0.0
endangerment 0.0
purposeful 0.0
unlabeled 0.0
undiagnosed 0.0
snotty 0.0
gallops 0.0
slovenia 0.0
sequin 0.0
akerlund 0.0
jumbotron 0.0
edibles 0.0
knowles 0.0
caeser 0.0
thehollywoodbowl 0.0
elvispresley 0.0
adoring 0.0
ageist 0.0
thérèse 0.0
confessed 0.0
blackvoices 0.0
patties 0.0
graphically 0.0
wildflowers 0.0
groundhogs 0.0
eataly 0.0
poodles 0.0
hillaryforia 0.0
roadshow 0.0
sweety 0.0
boppin 0.0
bettywho 0.0
johnnywujek 0.0
earring 0.0
itsbennyblanco 0.0
curitiba 0.0
purrfect 0.0
shellback 0.0
chokers 0.0
hairbrush 0.0
hakuna 0.0
matata 0.0
hazing 0.0
mathew 0.0
aegean 0.0
lullaby 0.0
musiciansoncall 0.0
headpiece 0.0
morsel 0.0
whistled 0.0
conquest 0.0
viceland 0.0
lambily 0.0
scalped 0.0
graced 0.0
emblazoned 0.0
hrclosangeles 0.0
kawaii 0.0
glittery 0.0
wonderlandmag 0.0
jumpsmokers 0.0
radiodotcom 0.0
missyfranklin 0.0
pleaaaaase 0.0
lilbthebasedgod 0.0
waaaay 0.0
flossy 0.0
aria_official 0.0
berliners 0.0
matriarchy 0.0
cornered 0.0
limping 0.0
peasant 0.0
feasibly 0.0
waaaaay 0.0
slayyy 0.0
fashionistas 0.0
sangin 0.0
worldstarfunny 0.0
pliers 0.0
babyanimalpics 0.0
mediation 0.0
quests 0.0
aaaaaaah 0.0
honked 0.0
rauschenberg 0.0
whitneymuseum 0.0
lonsdale 0.0
transcendental 0.0
roarin 0.0
facetune 0.0
fausto 0.0
herning 0.0
cazzette 0.0
annnnnnnnnd 0.0
shinier 0.0
giambattista 0.0
katys_teddybear 0.0
gnight 0.0
katheryn 0.0
psychoanalysis 0.0
bckgrnd 0.0
kingman 0.0
gracevanderwaal 0.0
fecking 0.0
ihrcountdown 0.0
stubbies 0.0
xfactor_italia 0.0
aaronpauley 0.0
purity_ring 0.0
scorpios 0.0
ayyyye 0.0
capitalizes 0.0
flamin 0.0
motherfucking 0.0
jingled 0.0
pharrellhat 0.0
ontarioglow 0.0
teached 0.0
umusic 0.0
auroramusic 0.0
dailymendeslife 0.0
soloing 0.0
universalse 0.0
dustinkloeppel 0.0
robynkonichiwa 0.0
charli 0.0
lonelydot 0.0
adamselman 0.0
sorrenti 0.0
offish 0.0
vinoodh 0.0
guitarists 0.0
cocking 0.0
cabbages 0.0
amelia_libman 0.0
flutter 0.0
lolita 0.0
kingladygaga 0.0
breakthecycledv 0.0
howbow 0.0
curveballs 0.0
tamagotchi 0.0
jarryd 0.0
alliseeisgold 0.0
thebroadmuseum 0.0
sarahsowitty 0.0
brillz 0.0
jackgarratt 0.0
markryden 0.0
duffscakemix 0.0
sanrio 0.0
theniceguyla 0.0
trills 0.0
susangkomen 0.0
faustopuglisi 0.0
gurlll 0.0
cheesecakes 0.0
scorpio 0.0
oblivia 0.0
skipmarley 0.0
correcto 0.0
jessirklein 0.0
unpatr 0.0
squish 0.0
greg_wells 0.0
onlyleah 0.0
gittin 0.0
popstars 0.0
krafts 0.0
bouche 0.0
problemo 0.0
wheezing 0.0
patmcgrathreal 0.0
cienega 0.0
thundering 0.0
nastialiukin 0.0
janell 0.0
katelyntarver 0.0
miamoretti 0.0
missoni 0.0
dannymoonsworld 0.0
mrchrismcmillan 0.0
madge_freak 0.0
woridstarcomedy 0.0
ikissedasoldier 0.0
kpezandchez 0.0
perrysoldier 0.0
emilynotchez 0.0
iickmekaty 0.0
basicallyadam 0.0
katysangelegg 0.0
nicolasjebran 0.0
xchadballx 0.0
scott_myrick 0.0
lockoir 0.0
shannonwoodward 0.0
calluses 0.0
chamomile 0.0
trollin 0.0
sleighing 0.0
chestercheetah 0.0
royksopp 0.0
scottsimonswvla 0.0
sirenscaiiing 0.0
slowdownkaty 0.0
chefantoniopark 0.0
garnished 0.0
endive 0.0
mdmolinari 0.0
prezzy 0.0
motioning 0.0
hernameisbanks 0.0
rockcampla 0.0
jenniefinch 0.0
getglucky 0.0
stendhal 0.0
ryanphillippe 0.0
hotncolds 0.0
kpcollections 0.0
katie_wignall 0.0
katysdrugx 0.0
evrenperry 0.0
katycatwendy 0.0
yungskeeter 0.0
sarahhudsonuvs 0.0
mothern 0.0
oliverheldens 0.0
marrymemargot 0.0
katyperrylately 0.0
kewlest 0.0
katyshellokitty 0.0
pqgerry 0.0
rasarioatelier 0.0
anakhouri 0.0
romaneperry 0.0
hot_chip 0.0
agador 0.0
freddietinkles 0.0
cynthialovely 0.0
augustgettyatelier 0.0
tbsnetworks 0.0
ronyalwin 0.0
justinandersoncolor 0.0
mmillerrider 0.0
jpgaultier 0.0
harharharhar 0.0
iikeanangel 0.0
vonnypoo 0.0
jcoopkp 0.0
itzmero 0.0
katysprismlight 0.0
hatérs 0.0
awkwardaya 0.0
katysredskittle 0.0
tiedye_princess 0.0
adelshahal 0.0
marinadiamandis 0.0
samadizayee 0.0
itsslatykaty 0.0
johnlordperry 0.0
nuggetperry 0.0
kthnkzbye 0.0
teamkpbrasil 0.0
twenagedream 0.0
ashleyegreer 0.0
perryllover 0.0
perry_slays 0.0
_andresgalvis 0.0
poplitics 0.0
likerotica 0.0
sweetxjaureguix 0.0
jessiambriz 0.0
perryncolds 0.0
pwideawake 0.0
brunastrait_ 0.0
anafalqueto 0.0
pessoalmente 0.0
mark_hodson_ 0.0
sumtxkid 0.0
arpoador 0.0
katysmychampion 0.0
amnattg 0.0
osullivanluke 0.0
stephiruth 0.0
katy_pizza_bae 0.0
kpcatt 0.0
pedroeugeniio 0.0
gugs_prismatic 0.0
zeeusmtz 0.0
legendarycold 0.0
robynxkatheryn 0.0
écouter 0.0
energyberlin 0.0
karysjones 0.0
lilzariya 0.0
puroland 0.0
pavlovitz 0.0
dreamhampton 0.0
prismsperry 0.0
perrysmic 0.0
focusonreid 0.0
tonyatalterian 0.0
makeup_man 0.0
wtfkates 0.0
sella_sandra 0.0
katycute_ 0.0
caitsperry 0.0
katyperryforum 0.0
radiantjareau 0.0
lillysgomez 0.0
katycatsweden 0.0
perryicecream 0.0
xamyrosex 0.0
wtvrlara 0.0
bijanstephen 0.0
ameliashowalter 0.0
screamkng 0.0
tvmcgee 0.0
liiife 0.0
itskatcombs 0.0
yaaaaaasssssssssss 0.0
katysmyhabibi 0.0
skottpeace 0.0
ferras 0.0
kweens 0.0
habibi 0.0
orlandobloom 0.0
huckchinn 0.0
katycatkenzie 0.0
matarazzo 0.0
fkatwigor 0.0
perryschild 0.0
hotxcolds 0.0
maddisonxperry 0.0
akaruikaty 0.0
chillinlaidback 0.0
erryone 0.0
chrisanokute 0.0
beyelite 0.0
kuntyewest 0.0
chiroprac 0.0
katyperryrises 0.0
godneybjs 0.0
liquoronurlips 0.0
katystumblrr 0.0
holiestkaty 0.0
hollykittykaty 0.0
katysprincess 0.0
katysdonut 0.0
carlythekatycat 0.0
katycatsophia 0.0
fridaaperry 0.0
iegendarylovers 0.0
katycatveronica 0.0
katyperryslave 0.0
hakimkharbouch 0.0
keonovak 0.0
plaaaaay 0.0
scatting 0.0
shotted 0.0
dizzycoco 0.0
fkinsnapss 0.0
junkygs 0.0
ミニチュア料理 0.0
エビフライとエビ天 0.0
adidasboosts 0.0
lilithia 0.0
cottoncandizzle 0.0
ultimatebeyhive 0.0
paramorewebnews 0.0
royale_lala 0.0
musicnews_feed 0.0
katyperryextra 0.0
greeniight 0.0
gagas_illusion 0.0
lesbiyonce 0.0
blurryhface 0.0
lordofgiraffex 0.0
ifuseekamy_ 0.0
legendarymalek 0.0
hausoframez 0.0
unstan 0.0
chioekardashian 0.0
theiife 0.0
handstomyseif 0.0
legendarylovers 0.0
gagas_fandom 0.0
thinagedream 0.0
conditionalbabe 0.0
dannysuschrist 0.0
prismdluxe 0.0
herwonkeye 0.0
camilasviews 0.0
gagalovesbey 0.0
shadykatyfacts 0.0
limalimoncia 0.0
heavymetaiovers 0.0
katyscrush 0.0
waikingonair 0.0
eduardo_katycat 0.0
katyswetdream 0.0
katherynsgod 0.0
katystddbr 0.0
katyboobies 0.0
royaityler 0.0
nothingfaiis 0.0
kathrynluck_ 0.0
prismaticiights 0.0
mendesperry 0.0
katycatghita 0.0
mark_katycat 0.0
iwasdivine 0.0
skywaterr 0.0
xjojospearsx 0.0
alwaysbeperry 0.0
skoglyrihanna 0.0
legendarydurk 0.0
halseysfirework 0.0
rainbowspatrick 0.0
katysfood 0.0
honeymoonprism 0.0
onepulsetony 0.0
butcha 0.0
okurrr 0.0
the_mpt 0.0
talaofficial 0.0
miniatures 0.0
ohmyjurassic 0.0
katysmoonlight 0.0
lilly_jnes 0.0
coco_ho 0.0
perryhumorr 0.0
yikesjonathan 0.0
rubyrankin 0.0
thealekovski 0.0
cydney_moore 0.0
truebluedeluxe 0.0
thedutchass 0.0
katyskettle 0.0
ferraseu 0.0
katyssunlight 0.0
typosqween 0.0
adoreeeperry 0.0
katyperryfrance 0.0
snowiner 0.0
_coolkatycat 0.0
nicothekatycat 0.0
adorbies 0.0
jackygerardchan 0.0
brewmystew 0.0
katyswildfire 0.0
rihftperry 0.0
theolagu 0.0
ritajoness 0.0
iitsjackie 0.0
mjjperry 0.0
jesuskylie 0.0
holyerotica 0.0
graceofkaty 0.0
redsvelvets 0.0
booyakasha 0.0
tariqterry 0.0
katycatalannah 0.0
taylxre 0.0
pacifyher 0.0
basedkatyperry 0.0
diddleurskittle 0.0
katysanalien 0.0
gagasspace 0.0
tayiorhq 0.0
givenchydress 0.0
augustryder 0.0
perrysmoschino 0.0
kittehn 0.0
katrieber 0.0
legendaryhunty 0.0
katyslegs 0.0
katyfroot 0.0
winesandlines 0.0
sam_incolour 0.0
wakingonair 0.0
drwssinup 0.0
huffdaddysays 0.0
fiwwwwine 0.0
matthewroper 0.0
emmabruhhh 0.0
gingerwesson 0.0
nicholas_sewell 0.0
perfectlyperry 0.0
bustabusta 0.0
mynameisziam 0.0
venuzszfly 0.0
katherynsus 0.0
sacredperry 0.0
thedollsftkaty 0.0
_cafajeff 0.0
debkatycat 0.0
katycats 0.0
eastonjames_ 0.0
oliviabooker_ 0.0
protecti 0.0
outrageousness 0.0
joanneprada 0.0
scuffed 0.0
catoure 0.0
blanged 0.0
tahmorrow 0.0
glukatyperrypop 0.0
jamesjoint 0.0
pressin 0.0
bourree 0.0
honeysuckle 0.0
meowings 0.0
fashun 0.0
happun 0.0
vikander 0.0
thekatyperrypopgame 0.0
karolfabianaros 0.0
nico_thekatycat 0.0
miss_lilyjames 0.0
stylinfunk 0.0
hudsontheband 0.0
jere_my 0.0
crabitat 0.0
tiersz 0.0
unrehearsed 0.0
fanclub_kp 0.0
oneofthesophies 0.0
fusterlandia 0.0
lazyblazy 0.0
katycatchloe 0.0
figali 0.0
prismaticness 0.0
titicaca 0.0
ancientaliens_ 0.0
sneezin 0.0
cristos 0.0
mallman 0.0
prismaticlife_ 0.0
ravensuxx 0.0
perrypositive 0.0
derkwhore 0.0
alekjandro 0.0
havss_ 0.0
hqzaynmaiik 0.0
thique 0.0
bbhmms 0.0
jkatharineb 0.0
jennyformica 0.0
tiiiiiight 0.0
ikissedagay 0.0
harryvuitton 0.0
aeschleahd 0.0
princessjavonda 0.0
errrythang 0.0
kooning 0.0
sugarray 0.0
empaths 0.0
goldenboyz_inc 0.0
voguejp 0.0
chickenwingguardingthemimosa 0.0
katyperrypopup 0.0
unmeasurably 0.0
transviolet 0.0
beauteous 0.0
katyskidrauhl 0.0
thooooooseee 0.0
clairesstores 0.0
nailsbymh 0.0
katysacutie 0.0
psychokatycat 0.0
kaceymusgrave 0.0
refueled 0.0
hyungsunju 0.0
okuurrrr 0.0
cholewheeler 0.0
leftshark 0.0
momchella 0.0
crotches 0.0
hookedondolls 0.0
fyuseapp 0.0
mogonoloball 0.0
atletica 0.0
katycatsclub 0.0
catacombs 0.0
poppycorn 0.0
cupped 0.0
christiania 0.0
residenz 0.0
lindseyweber 0.0
butterballface 0.0
joshlecash 0.0
myassistant 0.0
swiftschrist 0.0
snowhiteperry 0.0
emmakphughes 0.0
katyslegend 0.0
dansnierson 0.0
scressful 0.0
prismaticwitch 0.0
finnin 0.0
habibis 0.0
mophies 0.0
strongé 0.0
drumkit 0.0
anamanaguchi 0.0
gaultier 0.0
ngvmelbourne 0.0
dukedumont 0.0
legendaryasmyn 0.0
highlarious 0.0
calpurnia 0.0
waaaaait 0.0
mktfah 0.0
fwding 0.0
caseyhoops 0.0
worldstarvlne 0.0
flapfkp 0.0
bettycrocker 0.0
mexxxico 0.0
whhhhhhhhuuuuuutttt 0.0
yelletweets 0.0
gucciqxxn 0.0
luckyladyrebelettes 0.0
junglejulia 0.0
charlottes_web 0.0
istarbucksniall 0.0
katysroaaar 0.0
fiorucci 0.0
whuteva 0.0
sirdavidd 0.0
fudgery 0.0
bizquick 0.0
itsgrandtheft 0.0
grandtheft 0.0
katysfancy 0.0
ameezyyrush 0.0
mykectown 0.0
itsvalkubus 0.0
walkslikeperry 0.0
iwantperry 0.0
exausto 0.0
selfeh 0.0
aquaberry 0.0
sidepiece 0.0
versacness 0.0
iamleslii 0.0
alocalgyro 0.0
cutina 0.0
theoutslder 0.0
prism_katy_cat 0.0
katyshoodrat 0.0
thestevetisch 0.0
ronysphotobooth 0.0
schlitterbahn 0.0
kpsnosecrinkle 0.0
alwz_katycat 0.0
whykph 0.0
californiagurls 0.0
katycattt 0.0
varicose 0.0
itsbrillz 0.0
perrystiger 0.0
katysmyaura 0.0
paolablancokp 0.0
callmemargot 0.0
indiggynado 0.0
katycat 0.0
anylinden 0.0
kpkillerqueen 0.0
katyslilacwine 0.0
katypvenezuela 0.0
franzikaty 0.0
katherynelperry 0.0
doessss 0.0
katysleftarm 0.0
datingprism 0.0
_smiler_katycat 0.0
kepyterry 0.0
katycat_camille 0.0
vckatyperry 0.0
bowzerjoe 0.0
taishrox 0.0
mütter 0.0
arianperryarian 0.0
lisasigh 0.0
fridiskp 0.0
kevinruda 0.0
katyperrydaily 0.0
wakingupvegas 0.0
marlyins 0.0
drankin 0.0
herkatycat 0.0
luvhudson 0.0
yaeltsairi 0.0
felipinhoofm_ 0.0
renanmarcall 0.0
kariseperry 0.0
emojing 0.0
konnie 0.0
mcperry 0.0
iturnmycanonon 0.0
katycatelysha 0.0
andrewnavs 0.0
katycatkrystal 0.0
lovelyandlaugh 0.0
lampoonians 0.0
perrytuuda 0.0
katymyhaven 0.0
ruletheschool 0.0
cheapandchic 0.0
sically 0.0
crazyforperry 0.0
kpdaily 0.0
getonupmovie 0.0
cutetina 0.0
chimiuzz 0.0
kefali 0.0
joelkefali 0.0
siclly 0.0
mtvother 0.0
lydiaacav 0.0
prismaticperry 0.0
jwujek 0.0
adorbie 0.0
errone 0.0
kaliyah 0.0
katysweirdness 0.0
vinbiodiesel 0.0
katysfxb 0.0
katyspurrfect_ 0.0
shannonmwoodward 0.0
bippity 0.0
boppity 0.0
swiggty 0.0
swoogity 0.0
pizzarella 0.0
firewerk 0.0
katyslayed 0.0
emerald_epelman 0.0
madkatydisease 0.0
mandee 0.0
ohferras 0.0
sarahh 0.0
iaustinhunt 0.0
lanawhore 0.0
spaceykacey 0.0
crazay 0.0
elektrikpeople 0.0
visa_nz 0.0
fvckin 0.0
nathanspicer 0.0
cashcash 0.0
ashish_uk 0.0
xokatic 0.0
turnting 0.0
scorpiomystique 0.0
toddthomasnyc 0.0
kohngallery 0.0
discnt_universe 0.0
dressinkaty 0.0
lee_cook 0.0
bloodshot 0.0
yaddlizc 0.0
elnett 0.0
itsthekatycats 0.0
kelly_moritz 0.0
katyslaykaty 0.0
skintxghtjeans 0.0
socarrer 0.0
errrday 0.0
therealslacker 0.0
wendywild 0.0
welkys 0.0
sohohouse 0.0
selfing 0.0
camiilaruales 0.0
nexxxt 0.0
turrell 0.0
alliexxxxandra 0.0
surfboardt 0.0
telstra_news 0.0
juanitadele 0.0
oopskatycat 0.0
sophkatycat 0.0
katyschild 0.0
katysconverrse 0.0
katycat_leah 0.0
katycatverified 0.0
katycat_libby 0.0
katyswonk 0.0
kittless 0.0
jlrcukp 0.0
siiiiiiiiiiiiii 0.0
ermagherd 0.0
imlynsey 0.0
perrys_cherry 0.0
casemcgase 0.0
hazzaily 0.0
herses 0.0
gaypropaganda 0.0
tixforcharity 0.0
hudsons 0.0
nomers 0.0
mommacat 0.0
superlove 0.0
bonacorso 0.0
levi_leet 0.0
thinkingofbecki 0.0
cybering 0.0
pamyurin 0.0
idreamofkaty 0.0
xfactor_au 0.0
glohudsonperry 0.0
aubreyplzza 0.0
eeshhuhhayniac 0.0
bonkay 0.0
katysbum 0.0
nevillebradley 0.0
curryswift 0.0
zinepack 0.0
katykatt_suraya 0.0
sweetkatybird 0.0
yohkatheryn 0.0
cottoncandykaty 0.0
karolynadiaz 0.0
maayansharvit 0.0
theprismcess 0.0
camisp_ 0.0
lucasgaldin 0.0
prixy_mtz 0.0
niggasperry 0.0
kaksperry 0.0
zennnnaaa 0.0
katyissmurfy 0.0
dadehoward 0.0
kyledsaavedra 0.0
katysdoritos 0.0
pendejabardera 0.0
rosenilsou 0.0
hackensucks 0.0
gottabesheerio 0.0
ismaellgarcia 0.0
milegendz 0.0
alexskarev 0.0
ladycrystalb 0.0
katyspad 0.0
xcallmechrissyx 0.0
arianastylesss 0.0
jorgebaker 0.0
matty_zee 0.0
katycatzilla 0.0
adorie 0.0
meowwdison 0.0
alvin_koopa 0.0
lexyauditore 0.0
kease_it_raw 0.0
katysking 0.0
chris__kirby 0.0
katysbestfrwend 0.0
katyslildancer 0.0
sssshhh 0.0
conorhughess 0.0
tanimura 0.0
thekatycatlife 0.0
weefififookface 0.0
breakalioz 0.0
hudsonhelper 0.0
lariitaa 0.0
meeeeeooooooooowwwww 0.0
legend__dary 0.0
katyandliam 0.0
_theatrekid 0.0
babybritney 0.0
erinlorimer 0.0
_zacmoore_ 0.0
itscezzurryo 0.0
katycatskp 0.0
larissafilipo 0.0
siaylorswift 0.0
shitkittens 0.0
thefrankradical 0.0
katysprism 0.0
katytinalevine 0.0
serjeeoh 0.0
kayz_perry 0.0
katyslaysurfav 0.0
fuckyeahitskath 0.0
sweetyitosan 0.0
pickerington 0.0
verrado 0.0
retweete 0.0
jameswaterhouse 0.0
hunnah 0.0
truth_ispeak 0.0
_emilybarbarrr 0.0
nbllrrr 0.0
jmoneygraves 0.0
eaglenationnews 0.0
tauentzienstrasse 0.0
avontbh 0.0
vinnie_mate 0.0
demilovve 0.0
coolestkatycat 0.0
terri_katycat 0.0
beeeaaatttt 0.0
laurenfrancisco 0.0
victaytayp 0.0
aylajaye 0.0
iloveu 0.0
augustvaz 0.0
lizzievang_ 0.0
edsssss_ 0.0
hhhhhholly 0.0
holly_hickin 0.0
trixxx 0.0
killah 0.0
treasurefingers 0.0
最強ガール宣言 0.0
voykovic 0.0
annunaki 0.0
katyshomie_ 0.0
katyselephant 0.0
caitlynsmith 0.0
lightsperry 0.0
elizagilham 0.0
ohmyjatyfeels 0.0
junglescope 0.0
drunkskaty 0.0
malikpom 0.0
dancerlaurena 0.0
brirad 0.0
elisa_rv 0.0
moooom 0.0
pattymeagher 0.0
iwasemily 0.0
shahrzadphoto 0.0
tvjohnny 0.0
cstonethebreadwinner 0.0
katysrightboob 0.0
cyberdlck 0.0
beatforkaty 0.0
igabriiel 0.0
duuuuddddeeeee 0.0
redrum 0.0
srbuhiii 0.0
kayleighcat 0.0
applekatycat 0.0
ikatycats 0.0
wehryspencer 0.0
emilyjonesphoto 0.0
coxgabe 0.0
drugmoneyx 0.0
steven_drum 0.0
victoriacha 0.0
hashtaggin 0.0
perryandemetria 0.0
katycatfurlife 0.0
iammelissalynn 0.0
qewtie 0.0
yscheecat 0.0
slayty 0.0
katystree 0.0
katherynsboy 0.0
anapurry 0.0
nenedez 0.0
kevinn_perry 0.0
gloria_swag_ 0.0
andyamaziing 0.0
roarsana 0.0
brighthudson 0.0
fixingperry 0.0
roooooooooooooar 0.0
gretschusa 0.0
katys_cupcake 0.0
wonderation 0.0
kasek_craig 0.0
katysgurll 0.0
pepperperry_ 0.0
teamkatyperry 0.0
meandnutella 0.0
lovatokitten 0.0
katyslolly 0.0
astixxx 0.0
ravemomentz 0.0
erzaabrianto 0.0
katyperryindo 0.0
seeingdaisies 0.0
gillian_e_dubbs 0.0
samanthachazene 0.0
perryprism_ 0.0
katycompletesme 0.0
ltskatyperry 0.0
kittenscks 0.0
nihanofficial 0.0
momcat 0.0
kaytehperreh 0.0
__grazi 0.0
clairekatycat 0.0
fangurl 0.0
rrrrrrrrrrrroooooooooooooaaaaaaaaaaaaar 0.0
marispiva 0.0
mattdrobins 0.0
deihemmings 0.0
rooaaarr 0.0
katycatobsessed 0.0
katycatnick 0.0
tigerkats 0.0
kristenanzelc 0.0
taylermckellop 0.0
essesfadaperry 0.0
imjare 0.0
smganonymous 0.0
roaaaar 0.0
phuckyotweet 0.0
evvvvvverrrr 0.0
melvynmarrero 0.0
zouisashton 0.0
trillneyspears 0.0
rooooooar 0.0
fanwars 0.0
fentyncold 0.0
ttish_ 0.0
rachelacogan 0.0
makesmariana 0.0
kkaplon 0.0
rafaelmoncada 0.0
yaaaassssgrl 0.0
oioianna 0.0
katycatrazan 0.0
megaan_katycat 0.0
thekaelynn 0.0
hannahloupunton 0.0
thumbelinafairy 0.0
nic_kathryn 0.0
dannahfields 0.0
rodneybroaddus 0.0
noxisanasshole 0.0
soedesh__ 0.0
hookerofversace 0.0
thinkingofkaty_ 0.0
msgracevalerie 0.0
francfernandez 0.0
katysring 0.0
a_little_spark 0.0
laaxiss 0.0
