awesome 4.04029459804e-05
christmas 0.000282054102017
trying 0.000109084782068
launch 2.22925017256e-05
moment 0.000127953563237
wonderful 0.000694353465509
seeing 5.60330239627e-05
hanging 0.0
sounds 9.69860183664e-05
recommend 0.000189424786637
worked 0.000117967904858
direct 0.0
others 0.000391104121921
currently 0.0
better 0.00014388661432
please 0.00016406884443
social 6.11002032891e-05
anxiety 0.0
around 0.00043165984296
people 0.00025180157506
morning 7.23321908484e-05
traditional 3.45146179539e-05
general 0.0008856301235
damage 0.0
everything 0.000180830477121
twitter 0.000235714127426
present 8.23578878937e-05
though 3.7658909368e-05
friend 0.000290892752181
watched 0.0
beautiful 0.000409802021562
anything 0.000147023231481
previous 0.0
helped 0.000237860011954
updated 0.0
thinking 0.000184772733967
finally 0.00016629546057
caught 4.07334688594e-05
believe 0.000126240600928
already 9.01718578058e-05
couple 1.97680586014e-05
orlando 0.0
chance 7.23321908484e-05
meaning 0.000160454053664
growing 2.16868611113e-05
probably 9.80409176643e-05
password 0.0
changed 0.000116069058904
history 0.00115489660622
center 0.000165909552836
museum 0.000565167290175
behind 0.00016187244111
screaming 0.0
pretty 3.69545467934e-05
really 0.000361660954242
little 0.000288549944979
happiest 3.82866150985e-05
earlier 6.34760736414e-05
forget 5.49852729763e-05
someone 7.29194864131e-05
safety 2.61984529401e-05
program 5.03153204498e-05
things 0.00021582992148
related 7.97557794664e-05
visiting 0.000299307102326
available 0.000112672313344
perfect 9.41472734201e-05
different 0.000183779039351
search 0.000241738150728
connect 0.0
numbers 2.2603145489e-05
person 0.000145054847647
watching 1.81807970113e-05
exhibit 0.000213393496665
passed 0.000110238964122
prefer 0.0
minutes 1.86776746542e-05
travel 0.000707477075987
outside 3.8273824403e-05
looking 0.000360687431223
forward 0.000315812313532
agreed 2.4242332591e-05
raising 2.5819789969e-05
listened 2.86548768565e-05
afraid 0.0
impression 0.0
christian 0.0
profile 9.8917624087e-05
instant 0.0
drawing 0.000193409302386
wheels 3.75523977758e-05
favorite 0.000209860259505
picture 0.000192405771962
instead 6.11002032891e-05
appreciate 0.000106373646042
international 0.000268250432828
station 0.000101502691664
toddler 0.0
market 0.0
couldn 7.5317818736e-05
remember 1.80830477121e-05
vintage 0.000247257914487
holidays 0.000154918739814
friends 0.000199988767125
everyone 0.000126581333985
florida 5.33272591236e-05
always 0.00028777322864
months 1.88803340016e-05
moving 9.72485853674e-05
meeting 0.000352016130538
answer 7.41086590605e-05
sweetie 0.0
together 0.000108791135735
inside 5.6488364052e-05
section 0.0
missed 1.83284243254e-05
button 3.00215462179e-05
longer 4.17436596825e-05
enough 0.000182790804624
driving 2.21086586246e-05
building 0.00012186887034
enjoying 8.84346344984e-05
london 8.60363021754e-05
exploring 0.000343236188417
posting 0.0
amazing 0.000432824917468
attention 2.04777584044e-05
gordon 0.0
progress 7.52567179389e-05
tomorrow 3.61660954242e-05
george 0.000449564868242
feeling 1.8931357658e-05
excited 9.44016700082e-05
understand 0.000276004523956
following 1.89825264742e-05
asleep 0.0
learning 0.000224161161421
evening 6.21056512703e-05
special 0.000291677945652
secret 8.10255663518e-05
across 0.000161611783922
surprised 8.62725694064e-05
anymore 2.3047262542e-05
sophia 0.0
precious 7.6274708537e-05
rejoice 0.0
version 9.99173014961e-05
rather 0.00012186887034
avatar 0.0
showing 9.64631730916e-05
saying 5.66410020049e-05
tweeted 2.39023257401e-05
thoughts 7.67546800486e-05
exactly 3.91104121921e-05
except 6.91417876261e-05
getting 0.000126581333985
nothing 1.80830477121e-05
tweets 3.98587350926e-05
course 9.33883732712e-05
photos 0.0
looked 4.10670569093e-05
difficult 0.0
stages 4.42784934098e-05
office 0.000136886442672
decisions 2.7303193009e-05
brought 0.000160301729825
biggest 7.45094584657e-05
thrilled 8.26470503754e-05
something 0.000126581333985
closing 0.0
anyone 7.29194864131e-05
taking 0.000180830477121
recently 9.40104970045e-05
interesting 0.000221613937299
original 0.000128349124211
flying 0.0
happening 0.0
sometimes 9.96468377315e-05
lessons 7.85953588204e-05
village 0.0
stopped 2.12166166319e-05
yesterday 3.64597432066e-05
service 5.96263109723e-05
serious 3.86896863015e-05
digital 5.36428019678e-05
hoarder 0.0
wearing 0.00010608308316
british 0.000237169610021
either 7.88584354159e-05
second 0.000236988330843
checking 0.0
indeed 0.000172613079145
island 0.000204770885408
hearing 0.000121208837941
choose 0.000127648375251
staying 4.88989306464e-05
another 0.000180343715612
clothes 0.0
slowly 3.27783035195e-05
weekend 0.000146627394603
hashtag 0.0
delivery 0.0
theory 0.0026978613425
working 0.000216996572545
bigger 0.0
screen 0.0
riding 9.38888394407e-05
laughing 0.0
wanted 0.000109674482774
trends 0.0
stripes 0.0
clothing 0.0
current 2.13330301567e-05
adorable 3.41536862408e-05
grateful 0.0
friendship 0.000212316444775
family 0.000162747429409
listening 5.94650029886e-05
stream 0.0
expressions 5.29846296799e-05
wedding 5.49334033027e-05
sharing 4.2549458417e-05
double 0.0
especially 0.0
middle 2.0758354217e-05
waiting 3.70543295303e-05
definitely 1.97680586014e-05
walking 0.000108434305556
account 0.00010608308316
completely 0.0
thought 0.000692735120925
reaction 4.94588120435e-05
accept 0.000115558063085
simple 0.000147303779403
professional 5.36428019678e-05
friendly 0.00016140485242
supposed 0.0
business 3.90047684933e-05
absolutely 7.7379372603e-05
anywhere 2.41055575837e-05
sending 0.0
introducing 0.0
congrats 0.000227790317691
beauty 0.000207159099807
community 8.91700069026e-05
greatest 0.000158144468812
selfie 0.000162364102832
posted 8.55660828077e-05
saturday 5.7255908721e-05
wednesday 0.0
confused 2.63521788913e-05
expression 0.0
chicago 4.91777820705e-05
closest 3.45146179539e-05
relationship 7.29333363816e-05
actually 0.000166744482886
easter 0.000123647030109
basket 0.0
myself 7.11040940725e-05
argument 5.57641943545e-05
school 0.000330802270833
thursday 1.93448431507e-05
selling 0.0
talented 9.50724101166e-05
celebrate 0.000139884222094
falcon 0.0
celebrating 0.000474499131735
contest 0.000188549018874
experiences 3.36834417615e-05
students 0.000191758518803
internet 0.0
figure 4.3254807557e-05
opened 0.0
featuring 9.40104970045e-05
inspired 0.000306129902478
sitting 2.04221607503e-05
playing 0.000275668559027
street 0.000160301729825
points 0.0
memory 7.50413185296e-05
forever 2.04221607503e-05
imagine 0.000100733607863
problem 0.00017457483306
played 0.000141410310931
canadian 0.000218364656607
pulling 0.0
keeping 4.04029459804e-05
lovely 0.000250018131155
dressed 0.0
specifically 0.0
unlike 0.0
disappointed 0.0
otherwise 7.70115874169e-05
afternoon 2.12747292085e-05
planned 5.19405997161e-05
strange 0.000500368446307
images 0.000668045033886
noticed 0.0
notice 4.90380861529e-05
stretch 0.0
inspiration 9.92003093512e-05
letting 2.22310116596e-05
system 0.000180825163912
possibility 0.000105022233474
almost 0.000108498286273
details 5.93041758043e-05
experience 7.55213360066e-05
living 0.000151042672013
weather 0.0
normal 0.0
launching 0.0
before 5.88245505986e-05
captured 0.0
colors 3.47593268552e-05
monday 1.88803340016e-05
example 0.00014341395444
realize 0.0
autographed 4.65017926107e-05
sleeping 2.8742827285e-05
authentic 0.0
science 0.00456852692847
tweeting 2.06455900433e-05
forgot 6.7997769923e-05
chasing 0.0
gorgeous 0.000117483300725
herself 4.34608150242e-05
happens 5.61843774431e-05
silence 0.0
learned 8.37153490556e-05
congratulations 0.000438446086018
natural 0.000128352645695
raised 0.0
babies 0.0
mission 9.80761723058e-05
smelled 0.0
ironic 0.0
testing 3.17074023257e-05
deleted 0.0
barely 0.0
unforgettable 0.0
forgotten 0.000107603234947
trouble 4.47084054714e-05
fantastic 0.000447993633292
loving 6.39990904702e-05
complete 8.30334168678e-05
nearly 2.37681025292e-05
spirit 4.68737249423e-05
launched 2.69805686314e-05
finding 2.21086586246e-05
mercury 4.87687391852e-05
stories 9.77760304803e-05
including 0.000602764089613
mature 0.0
stuffed 0.0
ancient 0.0
bottle 0.0
somewhere 2.35686273593e-05
wouldn 0.0
choice 1.92926346183e-05
conversation 8.79485292222e-05
making 9.01718578058e-05
expect 2.16868611113e-05
occasions 0.000111064662689
subject 0.000121231195361
flights 0.0
location 0.0
vacation 3.24502854288e-05
seriously 5.99503808976e-05
spending 2.24782434121e-05
groups 5.83782972371e-05
childhood 8.83870689121e-05
modern 0.000651150744174
welcome 0.0
moments 0.000157347703885
degrees 0.0
jacket 3.1916542203e-05
halloween 0.00010856462975
costume 7.15457620222e-05
totally 2.08718298413e-05
laughed 3.42731938353e-05
flight 8.67474444451e-05
kidding 0.0
regular 0.0
context 3.05011966907e-05
running 5.69475794227e-05
finished 0.000151391826449
strong 0.000149018916931
tracking 0.0
respond 0.0
message 0.000134320690085
coming 5.41031146835e-05
thankful 0.0
cheese 2.86548768565e-05
greens 0.0
issues 4.31362847032e-05
intolerance 0.0
happen 7.3710080162e-05
giving 3.65581609248e-05
turkey 0.000131760894456
excellent 0.000353529410389
limits 0.0
common 0.000134125216414
pressed 0.0
situation 7.09046207201e-05
options 0.0
health 2.13330301567e-05
insurance 0.0
change 0.000108498286273
singing 4.83476301455e-05
august 0.000102089987228
crying 0.0
mental 8.070242621e-05
happened 1.90338412788e-05
demand 0.0
generally 0.0
personal 0.000176951857287
beyond 0.000161611783922
bruised 0.0
question 0.00016629546057
chicken 2.59702998581e-05
reward 3.76968630247e-05
tunnel 4.26786993329e-05
losing 0.0
respect 0.0
caption 0.0
shouldn 2.16274037785e-05
visited 0.000397510077387
reason 3.80676825576e-05
simply 4.5206290978e-05
darlin 0.0
audience 0.000150082637059
involved 4.2086794115e-05
unhappy 4.3865007917e-05
reality 0.000731308568491
extremely 0.0
without 0.000218758459239
falling 2.66636295618e-05
countdown 0.0
locations 0.0
timing 0.0
crabby 0.0
classic 0.000288206504303
highly 0.000154470028312
online 0.000116698302441
finger 0.0
animals 0.000211483119424
planets 0.000261592058917
called 0.000290892752181
delicious 0.0
almond 0.0
compliment 0.0
pictures 6.85667468687e-05
camera 7.09046207201e-05
pillow 0.0
checked 2.5670529139e-05
heading 8.60363021754e-05
theater 0.0
paying 2.35026242511e-05
planning 0.0
complex 8.9219334467e-05
sunday 0.000112066047925
nights 0.0
descending 6.72336866208e-05
traffic 0.0
opposite 5.92936558791e-05
through 0.0
lookout 0.0
reached 2.68214009839e-05
harder 2.51576602249e-05
random 0.0
changes 0.0
speaking 0.00064175839646
recorded 2.74667016514e-05
washed 0.0
november 0.000218180993319
answered 2.85673544123e-05
enchanted 0.0
number 9.26358238257e-05
adventures 0.000301458543505
eclipse 0.000370892407759
chocolate 2.77147859541e-05
unless 2.22925017256e-05
calling 0.000113895158845
mermaid 0.0
distraction 4.51351232493e-05
levels 0.0
option 2.61984529401e-05
shopping 2.74667016514e-05
former 0.000386391657239
actual 4.80751163151e-05
covers 0.0
mountain 3.1916542203e-05
friday 1.83284243254e-05
winner 4.01842726409e-05
closes 0.0
quality 4.6742680522e-05
father 0.000411789439468
wishes 7.07058820779e-05
hourly 0.0
matter 0.000717696535911
themselves 0.0
usually 2.41055575837e-05
period 2.69805686314e-05
parents 2.16868611113e-05
balance 2.81360189494e-05
publishing 0.0
mobile 0.0
woohoo 0.0
bracelets 0.0
summer 0.00023402861096
reminded 3.13981827875e-05
impressed 5.47695230485e-05
necklace 0.0
shutdown 0.0
dinner 0.000139884222094
single 5.58820938493e-05
packed 8.89404838186e-05
definition 8.9219334467e-05
energy 0.000451690586421
preview 0.0
monster 0.0
material 3.08943451701e-05
admission 4.82397061406e-05
europe 7.50413185296e-05
holiday 0.000104075012686
emotional 0.0
update 2.11009517524e-05
customers 0.0
messing 0.0
holding 8.55660828077e-05
electric 9.70267863609e-05
eating 2.2603145489e-05
outfit 0.0
picked 4.50811720568e-05
fabulous 0.000157503332042
missing 3.85852692366e-05
surprise 1.93448431507e-05
officially 2.11009517524e-05
french 0.000255651083738
global 7.25214452183e-05
follow 7.27231880453e-05
opinion 4.71372547186e-05
backwards 3.88963625349e-05
design 0.000163819158054
secrets 0.000169585136054
request 0.0
breaks 4.76701778522e-05
allows 0.0
promoting 0.0
volunteer 0.0
wondering 4.91777820705e-05
official 9.33883732712e-05
sweater 0.0
jersey 0.000152021189105
mistake 5.00275456864e-05
france 0.000100342290585
proper 0.0
ginger 0.0
peaceful 3.81373542685e-05
lighter 0.0
thinks 2.11009517524e-05
competition 0.000244494653232
hospital 0.0
industry 2.55224968071e-05
trending 0.0
leadership 0.0
organized 4.58054801003e-05
showed 2.27289210141e-05
circle 3.20220312256e-05
success 0.000142955125252
ladies 2.48000773378e-05
dreams 0.000118840512646
protect 9.27047750085e-05
onesie 0.0
explanation 6.46845242406e-05
control 2.02014729902e-05
coincidence 0.0
discovering 0.000140220056894
laying 0.0
invited 0.000152693610245
healthy 2.45190430765e-05
surgery 3.39170272107e-05
allowing 0.0
arrived 8.74656864222e-05
opening 5.8983952429e-05
popular 0.000272023466239
pleasure 0.000407986619538
spectacular 3.30003535842e-05
animal 5.42823148749e-05
luggage 0.0
wonder 9.80409176643e-05
matters 2.37681025292e-05
reader 3.82866150985e-05
function 4.03489223068e-05
marketing 0.0
connection 8.83870689121e-05
improves 0.0
benefit 2.26659233077e-05
continues 2.20477928244e-05
cuddle 0.0
routine 0.0
exciting 0.000195181750002
corner 2.5819789969e-05
imagination 0.000259572447507
sangria 0.0
mystery 0.000460445802317
spring 0.00016178128832
beautifully 3.57728810111e-05
places 0.000172545138813
feedback 0.0
continue 0.0
attend 2.72219927501e-05
creative 0.000204179974457
memories 4.94588120435e-05
female 0.0
grandma 0.0
closer 0.000135995539846
accent 0.0
beginning 0.000136373526084
sooner 0.0
everywhere 4.31362847032e-05
scenes 2.3047262542e-05
bought 6.63259758738e-05
wishing 0.000209587623521
discovered 0.00084326083668
remove 3.11949509439e-05
predict 0.000108504569461
parrot 0.000121938205496
several 0.000182322208369
teacher 0.000161883411789
passing 7.33483959695e-05
become 0.000245444342021
spread 0.0
netflix 0.0
season 5.97881026389e-05
putting 0.0
weight 0.0
outfits 0.0
notification 0.0
annoying 0.0
necessity 0.0
knocks 0.0
processed 0.0
necessarily 0.0
effects 3.35677768819e-05
lighting 0.0
headed 4.78046514802e-05
returns 0.0
expected 2.58948874759e-05
bucket 0.0
constantly 0.0
sweetest 0.0
struggling 0.0
register 0.0
transition 3.50074111579e-05
flowers 0.0
sprain 0.0
savage 0.0
somebody 0.0
covering 0.0
gloves 0.0
repeat 0.0
managers 0.0
brothers 8.31443578623e-05
patriots 0.0
seahawks 0.0
player 0.000126150189476
chemistry 0.000118582526804
moonlight 0.0
comment 0.0
columbia 0.000174647104294
physical 0.000451746876793
kingdom 0.0
pretend 0.0
charles 0.000203065021963
fighting 0.0
rooting 3.61681898204e-05
donald 2.59702998581e-05
mexico 0.000104488319551
police 0.0
represent 0.0
president 0.000341566317447
talking 1.81318559559e-05
unbelievable 2.8742827285e-05
shrimp 0.0
giants 0.000140029644632
conference 0.00053798678741
america 0.000134684040373
everybody 6.68775051769e-05
houston 0.0
everyday 0.0
michael 0.000204221607503
protecting 6.4469767462e-05
unconditional 0.0
million 0.000208807791217
election 9.97690341086e-05
telling 6.16005853639e-05
correct 6.99181676447e-05
pulled 0.0
starbucks 0.0
americans 7.54729806748e-05
killed 2.01467215726e-05
cowboys 0.0
cowboy 8.98342211166e-05
coverage 0.0
dallas 0.0
coffee 2.2792140154e-05
timeline 3.09939898947e-05
refuse 0.0
barackobama 3.48829412716e-05
hillary 3.23422621203e-05
clinton 0.0
gatorade 0.0
sharper 0.0
american 0.000652414780413
deserved 8.28951311819e-05
realist 0.0
illegal 3.01164584529e-05
arizona 0.0
waffle 0.0
scared 0.0
pieces 2.67423422773e-05
taught 0.000186645406933
golden 9.75206227718e-05
straight 2.00377162281e-05
massage 0.0
filter 0.0
answers 9.32242235263e-05
smoking 0.0
created 0.000195718640846
beside 0.0
worlds 0.000443997921131
record 3.77606680033e-05
freddie 0.0
africa 3.00215462179e-05
recruiting 4.34608150242e-05
journey 7.05078727534e-05
snapchat 0.0
brother 0.00019843013542
prayers 0.0
trolling 0.0
hungry 0.0
nflnetwork 0.0
documentary 2.70606838053e-05
boston 2.61220798878e-05
addition 3.15006664083e-05
church 8.24001049541e-05
honestly 2.5819789969e-05
lounge 0.0
lifetime 2.7303193009e-05
captain 0.0
favorites 9.63844278176e-05
country 0.000112066047925
valley 0.000153976247275
huddle 6.15060329723e-05
dressing 0.0
finish 2.22310116596e-05
favourite 5.83782972371e-05
prayer 0.0
nominated 5.42823148749e-05
praying 0.0
insane 0.0
national 0.000469324946305
reform 3.57728810111e-05
shooting 2.2603145489e-05
australia 2.68214009839e-05
deserve 0.0
legend 7.2316672751e-05
mother 0.000261907380444
realest 0.0
creating 9.94841097475e-05
powerful 0.000176382342595
chilling 3.81373542685e-05
wisdom 6.10023933814e-05
breaking 3.8899434147e-05
parked 0.0
angeles 0.00018900399845
dollars 0.0
questions 0.000148217318121
racist 0.0
girlfriend 3.81373542685e-05
performance 4.18576745278e-05
refreshing 0.0
educated 0.0
reading 0.000402962070255
denver 0.0
videos 4.66121117631e-05
harmony 9.97518175725e-05
create 0.000146501860847
jordan 0.0
admire 0.00013381140432
nobody 2.21697311002e-05
government 0.000189424786637
politics 0.000153578164056
paradise 0.000118582526804
recover 0.0
spotted 3.05011966907e-05
blessing 0.0
coolest 0.0
banana 0.0
donate 0.0
sandwich 0.0
lookin 0.0
method 7.56849960909e-05
bullshit 0.0
slight 0.0
bringing 2.031147839e-05
deserves 2.40375581575e-05
regret 0.0
celebs 0.0
victim 0.0
stadium 0.0
funniest 0.0
according 0.000287637778204
pumped 0.0
hamburger 0.0
heaven 0.0
honest 2.24782434121e-05
rolling 8.14234723124e-05
became 0.000271237745868
feature 4.96001546756e-05
waking 0.0
breakfast 4.54578420281e-05
counting 2.5670529139e-05
signing 0.000118506823454
adding 0.0
awareness 2.58948874759e-05
kindest 0.0
trainer 0.0
facebook 0.0
insanity 0.0
repost 0.0
brazilian 0.0
campaign 0.0
borrow 0.0
scorpion 0.0
popcorn 0.0
factory 0.0
teenage 3.96888178797e-05
endorsement 4.03489223068e-05
williams 5.76624198082e-05
custom 3.63019140556e-05
drinks 0.0
future 0.000484311480027
angels 0.0
fingers 2.80509794208e-05
sister 0.000316044457654
earrings 0.0
warrior 0.0
dancing 5.07513458318e-05
voting 0.0
individuals 0.0
presence 0.0
commercial 4.96001546756e-05
chopped 0.0
religion 7.48181673134e-05
century 0.000830111182307
submit 0.0
serving 3.1094189746e-05
because 0.0
aggressive 0.0
sensitive 0.0
smiling 0.0
besides 3.75523977758e-05
cleveland 0.0
hometown 3.23422621203e-05
killing 0.0
breath 0.0
phillips 9.44523039695e-05
instagram 0.0
sharks 0.0
cousin 0.000142056350686
honored 0.000752567179389
dedication 3.81373542685e-05
lifting 4.58054801003e-05
lyrical 0.0
talent 7.2316672751e-05
goodnight 0.0
stores 0.0
rushing 0.0
brains 3.98515866538e-05
sandwiches 0.0
drinking 0.0
brazil 0.00025960228343
tattoo 0.0
ravens 0.0
regardless 3.1916542203e-05
skills 0.0
cameras 0.0
phones 0.000166693274854
california 0.000466107974567
seconds 2.41738150728e-05
listen 0.000112066047925
smiled 0.0
kicking 0.0
homies 0.0
billion 0.000155369324856
shades 0.0
shoutout 3.41536862408e-05
grammy 0.0
guilty 0.0
stevie 0.0
ceiling 0.0
carpet 0.0
grammys 0.0
harvard 0.000205170897709
panther 0.0
nelson 3.87419768076e-05
mandela 4.95926615656e-05
handle 0.0
sexiest 0.0
promise 4.29004041624e-05
hosting 0.0
hahahaha 0.0
longest 6.42562852118e-05
tuesday 0.0
locker 0.0
workout 0.0
ingredient 0.000117002854282
leader 7.07058820779e-05
pageant 0.0
character 0.000120869075364
idiotic 0.0
mirror 2.9462356304e-05
jackson 0.0
interview 0.0010475405243
battles 7.48181673134e-05
bleach 0.0
insight 9.63844278176e-05
obviously 0.0
replay 0.0
battle 0.000272818337357
stomped 0.0
destroy 0.0
killer 0.0
personally 2.61220798878e-05
winning 0.000366560057748
gettin 0.0
japanese 0.000132449660691
writing 0.000209288372639
society 0.00052378742907
officers 0.0
brooklyn 0.0
sources 0.0
incredible 0.000273033379453
poster 2.86548768565e-05
celebrity 2.95543556187e-05
memorable 3.74090836567e-05
werent 0.0
chased 0.0
minute 2.03667344297e-05
confession 0.0
pregnant 0.0
cherry 3.96888178797e-05
twinning 0.0
phoenix 0.0
orange 5.41213676105e-05
policy 2.65072300825e-05
comedy 2.82214624677e-05
illuminati 0.0
reminder 2.17465156495e-05
evidence 0.000402321014758
iphone 0.0
kicked 0.0
intentions 0.0
freedom 0.0001006306409
patient 0.0
utterly 3.88963625349e-05
mississippi 0.0
download 0.0
assistant 0.000292579061706
invite 2.5596360676e-05
central 0.0
washington 0.000334632560361
stronger 0.0
promised 2.96468279395e-05
worried 2.61220798878e-05
throwing 0.0
security 7.19094445511e-05
cologne 0.0
headphones 0.0
sanctuary 0.0
fantasy 6.85463876705e-05
monkey 0.0
approve 0.0
spinach 0.0
turning 4.5206290978e-05
helping 7.95017479631e-05
tickets 2.18664216055e-05
collector 6.04477379306e-05
physically 0.0
slavery 0.0
december 0.00020068458117
basically 0.0
return 7.99338411969e-05
yassss 0.0
goddess 0.0
locked 3.04042378209e-05
feelings 3.11949509439e-05
language 7.59081240039e-05
motion 6.36233365606e-05
obsessed 0.0
creation 0.000219434296279
followers 7.0114020783e-05
schools 0.0
gallery 3.63019140556e-05
movies 0.0
foster 0.0
children 0.00051676136176
nation 6.81867630422e-05
theaters 0.0
between 3.96888178797e-05
knowledge 0.000308046349668
begins 4.3254807557e-05
robinthicke 0.0
faithful 0.0
peeing 0.0
closet 0.0
bodies 3.57728810111e-05
italian 0.000101751081632
highlights 5.44439855002e-05
spanking 0.0
forbes 0.000393676338662
parade 0.000100015964912
tasted 0.0
consider 7.19094445511e-05
reunion 0.0
latest 0.000136886442672
dedicated 9.23857483649e-05
beyonce 0.0
perform 5.78400579646e-05
signed 0.00015943494037
tuxedo 0.0
princess 0.0
shelter 0.000122064862792
germany 0.00041200052477
explaining 0.000124779803776
married 0.000106969369109
millions 2.44494653232e-05
blessings 0.0
iconic 7.3693961645e-05
indonesia 0.0
braids 0.0
dollar 0.0
rigged 0.0
replied 4.53558110093e-05
lights 0.00012985149929
turned 9.91083383143e-05
excuses 0.0
jackie 0.0
charge 0.0
performing 8.70278665555e-05
ticket 0.0
steady 0.000130382445073
whispers 0.0
finest 0.0
confucius 0.0
diamonds 0.0
vancouver 0.0
addicts 0.0
collection 0.000124000386689
families 2.31116126171e-05
select 0.0
hitting 0.0
announced 0.000109935661528
decided 8.65096151139e-05
jewels 0.0
lottery 0.0
owners 0.0
respects 0.0
celebration 0.000177629710411
memorial 0.000176224951088
landed 0.0
pastor 0.0
ultimate 5.23969058803e-05
incase 0.0
rapper 5.0753440228e-05
episode 4.31362847032e-05
bounce 0.0
disney 3.64366399799e-05
muffin 0.0
kansas 0.0
sherman 0.0
retweet 0.0
midnight 2.43801556929e-05
patience 0.0
cereal 0.0
joining 2.12747292085e-05
released 0.000126260382345
release 0.0
models 0.000104648823815
classics 0.0
popped 0.0
mileycyrus 0.0
highlight 2.85673544123e-05
scholarship 0.000132211687382
within 2.3047262542e-05
hahahahaha 0.0
standing 6.19367701298e-05
higher 9.69693303641e-05
purple 6.7366883523e-05
skinny 0.0
justice 4.86222242544e-05
served 8.1909579027e-05
speaks 0.000208976639103
horses 0.0
houses 3.6985868206e-05
purchase 3.09939898947e-05
dropped 2.22925017256e-05
conversations 0.0
consideration 0.0
seattle 0.0
cookie 0.0
slurpee 0.0
strength 0.0
screens 0.0
monica 0.0
incredibly 5.10449936142e-05
streets 2.65852598221e-05
boyfriend 0.0
private 0.000115880968761
skittles 0.0
barbie 0.0
apologizes 0.0
designer 0.0
impress 0.0
cooking 3.08943451701e-05
exclusive 8.58008083247e-05
fashion 2.61220798878e-05
petite 0.0
talkin 4.24883713474e-05
peaches 0.0
bitches 0.0
nailed 0.0
weirdest 4.72261519847e-05
whomever 0.0
teaching 5.50980335836e-05
disgusting 0.0
chillin 0.0
philly 0.000236598987004
rights 0.000341322179701
dinosaur 0.0
exotic 5.80460654319e-05
dancers 0.0
cheers 0.000139831700398
presents 0.0
flawless 0.0
dating 3.57728810111e-05
victory 0.0
marley 0.0
productive 7.18073752014e-05
smurfs 0.0
halftime 0.0
insecure 0.0
horror 0.000107711062802
warning 0.000130610399439
discovery 0.00125279734796
convention 0.0
understanding 0.000208368238136
action 5.81916110198e-05
having 0.0
speaker 0.000120465833811
clever 6.17886903401e-05
theatre 0.0
honors 0.000268210253163
evolution 3.52589652835e-05
produce 6.78340544214e-05
spider 0.0
apologize 0.0
formation 5.51455244625e-05
letter 0.000757945058672
therapy 0.0
untrue 0.0
written 0.000176382342595
communication 0.0
disease 0.0
marching 0.0
suggest 0.0
georgetakei 0.0
hairstyle 0.00014287088574
humans 6.06155976806e-05
journal 0.000374090836567
foundation 5.14900094373e-05
access 0.0
venture 0.0
syndrome 0.0
writes 8.83870689121e-05
colorado 3.98515866538e-05
medicine 0.0
tremendous 0.0
nytimes 5.47695230485e-05
kindness 3.82866150985e-05
cannot 0.000120880329436
reveals 0.0
invented 0.000168999276431
sapphire 0.0
candidate 5.748565457e-05
sexual 0.0
madison 0.0
illustration 0.0
newark 0.0
globally 0.0
incorrect 0.0
headline 8.49219414978e-05
reflect 0.0
streaming 2.95543556187e-05
leaders 2.63521788913e-05
supreme 3.11949509439e-05
protest 3.05986810854e-05
policies 0.0
silenced 0.0
defend 2.95543556187e-05
communicating 0.0
climate 6.11973621708e-05
wrapped 0.0
studio 2.51576602249e-05
conspiracy 0.0
interviews 0.000245190430765
differentiation 0.0
confusing 0.0
february 0.000106341039289
hamilton 7.15457620222e-05
loneliest 0.0
amazon 5.47695230485e-05
scattered 0.0
francis 0.0
headlines 0.000133354619883
january 0.000200110182746
diversity 6.66773099416e-05
universal 0.000127666168812
hurricane 0.0
identifying 0.0
countries 2.6046029767e-05
tickled 0.0
becker 7.69279843234e-05
connected 3.52589652835e-05
suggestion 6.97658825432e-05
filled 2.53756729159e-05
education 0.00017017778489
mentioned 5.31705196443e-05
defining 0.0
exists 6.71355537638e-05
unexpected 0.0
plants 4.15658190391e-05
orders 0.0
olympics 3.20220312256e-05
ability 0.0
director 0.000315568204397
content 0.0
cycling 0.0
previously 0.000180177262444
correction 0.0
pearls 0.0
ambassador 0.0
preparing 6.04237484068e-05
depend 0.0
downloads 0.0
lovers 0.000108905742167
weekly 3.11949509439e-05
hudson 0.0
bridge 0.0
becoming 4.63523875043e-05
magazine 0.000225770153817
appropriate 0.0
shakespeare 9.80784156855e-05
travesty 0.0
discoveries 0.000370892407759
fellow 2.29192489996e-05
reviewed 4.15658190391e-05
copies 0.0
driven 3.27783035195e-05
aussies 0.0
result 5.20920595339e-05
announcing 0.000126002665633
visual 7.53937260495e-05
restrictions 0.0
culture 0.00017459580969
edition 4.83476301455e-05
prince 2.61984529401e-05
shocks 0.0
symmetry 0.000454122542923
clicks 0.0
disagree 0.0
experiments 0.000101506880456
mistakes 0.0
trolls 0.0
blossoms 7.45263118247e-05
offered 0.00020817844709
inspiring 0.000170661089851
counter 0.000102461058722
approach 0.000107603234947
embarrassing 0.0
creators 4.87687391852e-05
edited 0.000212441856737
berniesanders 5.23184117833e-05
overnight 3.87419768076e-05
spotlight 0.0
probable 0.0
repeating 0.0
concerns 0.0
massive 6.87577469987e-05
promising 3.95275089348e-05
promises 0.0
colored 0.0
production 0.000115324839616
header 0.0
itunes 0.0
secretary 3.15006664083e-05
highway 0.0
dangerous 0.0
letters 0.00013381140432
typically 0.0
saving 5.23969058803e-05
pioneer 0.000364660240953
visuals 0.0
universe 0.00374219826188
ordering 4.30655062149e-05
victims 2.61984529401e-05
privacy 0.000272274537744
disclosure 0.0
proceeds 0.0
musical 0.000441935344561
collide 0.000105296872426
melbourne 0.0
correctly 0.0
campus 0.000107318643033
debate 9.296403045e-05
conflict 0.0
meanwhile 0.0
petition 0.0001302358458
contribution 3.72669024673e-05
stated 0.00013098532822
humanity 0.00036954299346
illness 0.0
flawed 4.44888563551e-05
breathe 0.0
winners 2.39023257401e-05
spanish 0.000132900717386
comedic 0.0
awards 4.71372547186e-05
presidential 6.02329169057e-05
candidates 0.0
glasgow 4.34608150242e-05
smells 0.0
treasure 0.0
greater 0.00014731178152
themed 0.0
distribution 0.0
absurd 0.0
squirrel 4.9313805952e-05
sisters 3.43935008175e-05
stress 0.0
leading 0.000183353991996
resolution 7.28732799598e-05
achieved 0.0
interacting 0.0
boiling 0.0
examples 0.0
diverse 0.0
suicide 0.0
parallel 0.000400399707196
minneapolis 0.0
impairs 0.0
pumping 0.0
slides 0.0
choreography 0.0
element 0.0
serves 4.13868541119e-05
jumping 0.0
rising 0.0
believed 0.000132449660691
features 0.000230649679233
environment 9.96755380395e-05
revealed 0.00014731178152
classical 0.000104636823567
confirmed 0.000157650910068
origins 0.000211938518719
combination 4.06882875973e-05
consumption 0.0
worldwide 0.0
deaths 3.78424980455e-05
responsible 2.9462356304e-05
overwhelmed 0.0
household 0.0
munich 0.0
alternate 0.000145506832855
blockers 0.0
restaurant 2.99271322122e-05
canada 9.61502326301e-05
versions 4.36617760734e-05
technology 6.04237484068e-05
identify 0.0
combined 6.71355537638e-05
santiago 0.0
branches 5.63318330466e-05
october 0.000126150189476
netherlands 0.0
belgium 8.81411249211e-05
european 9.32825692379e-05
imperial 5.01636881543e-05
perspective 0.000106654518247
cities 2.70606838053e-05
guinea 0.0
americas 0.0
posters 0.0
elastic 0.0
flames 0.0
presumably 0.0
exquisite 0.0
spreading 0.0
happiness 9.41945483625e-05
ashamed 0.0
naturally 0.0
malbec 0.0
wasting 0.0
hidden 5.92936558791e-05
coffin 6.20594866951e-05
freudian 0.0
genius 0.000719094445511
cultured 0.0
malaysia 0.0
traveling 3.40349674811e-05
prepared 0.0
county 0.0
quinoa 0.0
district 0.0
chosen 3.40349674811e-05
toilet 0.0
yorkers 0.0
ignores 0.0
messages 0.0
creativity 0.000270122335122
conventional 0.0
berlin 0.000519761710105
montreal 4.32620745845e-05
wonders 0.000164838609658
upcoming 5.10449936142e-05
lonely 4.17465826389e-05
australian 3.51327484372e-05
positions 3.81373542685e-05
singapore 0.0
scratch 0.0
deficiency 0.0
elevated 0.0
triggers 0.0
delicate 0.0
barrier 0.0
reflection 0.000230622749926
sydney 8.10356091006e-05
separates 0.0
centuries 5.01636881543e-05
israel 3.84371249876e-05
overwhelming 0.0
assault 0.0
protection 0.0
picker 0.0
additional 0.0
machine 0.000121555560636
samples 0.0
contrary 0.000182316961209
immediate 0.0
michelle 0.000278074614842
inspire 9.20900901985e-05
lyrics 0.000202799131718
missyelliott 0.0
constant 3.50074111579e-05
tuning 0.0
pandora 0.0
preshow 0.0
buenos 5.76019483788e-05
poland 0.000234907215417
philippines 0.0
nicely 3.45146179539e-05
september 0.000101210832005
manchester 6.5556607039e-05
checks 0.0
screenshot 0.0
universalorl 0.0
remarkable 0.000186565138476
rihanna 0.0
disgusted 0.0
flattered 0.0
fiction 0.000289345518563
angela 0.0
bitmoji 0.0
process 9.1932567518e-05
genuine 3.26682981197e-05
performances 3.53860741291e-05
comedians 0.0
flotus 4.58054801003e-05
strangers 0.0
hungover 0.0
confidence 0.0
studios 0.00015435562007
stjude 0.0
memphis 0.0
mikeypiff 0.0
chancetherapper 0.0
scream 0.0
jennifer 3.59036876007e-05
disappoint 0.0
newcastle 0.0
castle 4.03489223068e-05
literally 2.22925017256e-05
chrisrock 0.0
gentlemen 3.87419768076e-05
mtvnews 0.0
hillaryclinton 0.000107711062802
iamrashidajones 0.0
champagne 0.0
raleigh 0.0
ijessewilliams 0.0
acknowledge 0.0
buzzfeed 0.0
puppet 0.000149627726359
rehearsal 0.0
billboard 0.0
austria 0.000310055955218
sweden 7.15457620222e-05
republic 7.59786438733e-05
grilled 5.36764775441e-05
waltdisneyworld 0.0
katyperry 0.0
ronanfarrow 0.0
measly 0.0
bragging 0.0
treats 0.0
literal 0.0
cooper 7.6573230197e-05
counts 0.0
theellenshow 0.0
basking 0.0
cookies 0.0
festival 0.000742202442309
amsterdam 0.0
soundcheck 0.0
downloaded 0.0
encouraged 0.0
alright 0.0
jtimberlake 0.0
backstage 6.49005708575e-05
collab 0.0
joined 4.43394622004e-05
issarae 0.0
playlist 3.56430188817e-05
madness 5.748565457e-05
romantic 0.0
selfies 3.96888178797e-05
exclusively 0.0
disneyland 0.0
refused 7.6573230197e-05
characters 0.0
amazingly 0.0
auction 3.60354524888e-05
express 2.78820971772e-05
gratitude 0.0
sesamestreet 0.0
thegrammys 0.0
throughout 8.57020632369e-05
awkward 0.0
shining 3.64366399799e-05
thrown 0.0
stylist 0.0
fighter 0.0
accepting 0.0
playin 0.0
applemusic 0.0
filmed 3.46365562298e-05
makeawish 0.0
bieber 0.0
remixes 0.0
toronto 3.21281426059e-05
capitolrecords 0.0
shazam 0.0
anthem 0.0
cosmopolitan 0.0
khloekardashian 0.0
cookin 0.0
songwriters 7.24078865465e-05
reveal 7.88254550342e-05
stands 0.000300165274118
spotify 0.0
phvegas 0.0
rocked 0.0
glasses 3.31124151728e-05
iambeckyg 0.0
relive 0.0
acoustic 0.0
announce 0.00010464418632
although 2.93708251814e-05
isaacfromct 0.0
shampoo 0.0
interactive 0.0
todayshow 0.0
haters 0.000151957287747
appreciation 0.000117156254855
floating 0.0
shondarhimes 0.0
showtime 0.0
premiere 0.000117483300725
broadway 0.0
makeup 0.0
starring 0.0
newest 0.0
designed 5.55964940341e-05
arianagrande 0.0
aladdin 0.0
swaggy 0.0
owning 0.0
producer 0.0
legendary 0.000115324839616
jasmine 0.0
costumes 0.0
square 0.0
emojis 0.0
jessica 0.0
magical 3.37998552863e-05
thedoctorluke 0.0
thirsty 0.0
therealjuicyj 0.0
symbols 0.0
privilege 0.0
spiral 0.000207977336257
retrograde 0.0
footage 0.000324085919345
theirs 0.0
universes 0.000796486752012
remembering 5.89247126081e-05
floated 0.0
construction 0.0
consciousness 0.000256815938322
delights 0.0
explodes 0.0
submissions 0.0
pleased 0.000178438668934
shredding 0.0
filters 0.0
weasel 0.0
reflective 0.0
firework 0.0
islands 0.0
interstellar 0.000195345784028
bubble 0.0
customs 0.0
festive 4.49171105583e-05
window 2.64295374053e-05
senator 3.72669024673e-05
slightly 6.21883794919e-05
therealbuzz 7.34359278775e-05
printing 0.0
snowflake 0.0
applications 0.0
elephant 0.0
fifteen 0.0
editions 0.0
newspaper 0.000134733767046
rainbow 3.68469808225e-05
unlimited 0.0
sirius 0.0
matthew 0.0
affected 8.33947410511e-05
capturing 0.0
canyon 0.000151368441199
rivers 0.0
spoken 0.0
accidentally 0.0
bizarre 0.00011222725097
dolphin 0.0
successfully 0.0
liquid 0.000180540492997
graffiti 5.40326441686e-05
swallowing 0.0
messenger 0.0
heroes 0.000137333508257
disturbing 3.81373542685e-05
graduates 0.0
rewrite 0.0
describe 5.22441597757e-05
hollywood 0.000159043380495
equality 0.000162251427144
announcement 0.000323562576639
breakout 0.0
dreaming 0.0
animation 0.000143177371239
calendar 0.0
circling 0.0
garden 0.000376611322314
enhanced 0.0
journalists 3.2234883731e-05
stirring 5.40326441686e-05
nominations 0.0
yelling 0.0
teachers 3.2234883731e-05
chapter 6.00430924358e-05
napoleon 0.0
aliens 4.36617760734e-05
subjects 0.0
revolution 0.000505251626422
mountains 0.00017226202486
wonderland 0.000368539053492
storage 0.0
crystals 0.000139270718239
circuit 0.0
invitation 3.78424980455e-05
kettle 0.0
adjective 0.0
woodpecker 0.0
operate 0.0
exhibition 9.25333608316e-05
learnt 0.0
nomination 0.0
madonna 0.0
questioning 0.0
unplug 0.0
initiatives 0.0
switzerland 0.000280440113789
represents 3.6985868206e-05
throat 8.31316380782e-05
touchdown 0.0
desire 0.0
forced 0.0
swedish 8.85569868196e-05
hundred 0.00011396796581
prompts 0.0
rainbows 0.0
creates 0.0
oxford 0.000607767068255
balloons 0.0
liverpool 4.30655062149e-05
recreate 0.0
glorious 0.000104277980566
newton 0.000850070735725
creature 0.0
finalist 4.72261519847e-05
scouts 0.0
treading 0.0
tragedy 2.95543556187e-05
nottingham 0.0
debacle 0.0
legends 0.0
noises 0.0
addiction 3.98515866538e-05
survived 0.0
idioms 0.0
greeted 5.47668614913e-05
basics 0.0
masses 0.0
confirm 8.78392725282e-05
cadence 0.0
spaghetti 0.0
prepare 5.33272591236e-05
calendars 0.0
narrative 3.93676338662e-05
application 0.0
octopus 0.0
drumming 0.00029374371151
bloody 0.0
confetti 0.0
translate 0.0
birmingham 0.0
singles 0.0
completes 0.0
laptop 0.0
obvious 3.05011966907e-05
darling 0.0
deserving 0.0
miller 0.0
ordered 0.000238565070742
feelin 0.0
alicia 0.0
picasso 0.0
recipe 7.51047955517e-05
alphabetical 0.0
butterfly 0.0
timothy 0.0
mancini 0.0
untold 0.0
directed 0.000153976247275
hacked 0.0
admits 0.0
clocks 0.0
nugget 0.0
cnnopinion 0.0
grabbed 0.0
russia 0.0
surprises 6.87870016351e-05
waterfalls 0.0
olympic 0.000100015964912
magnificent 0.000150787452099
casual 0.0
assume 0.0
relief 0.0
subscribe 0.0
landslide 0.0
telegraph 0.0
standby 0.0
admitting 0.0
complacency 0.0
voices 2.90989939095e-05
sounding 4.03489223068e-05
douglas 4.01816110836e-05
democracy 0.000126414949324
locals 0.0
gossip 0.0
nickname 4.60346020114e-05
subtle 8.53573986658e-05
embarrassed 0.0
ireland 0.000128088124902
mornings 0.0
democratic 3.67091577206e-05
impressions 0.0
outgoing 0.0
treasury 0.0
refugees 0.000178864405056
unveiling 0.0
listing 0.0
deliver 0.0
negotiating 4.30655062149e-05
roller 4.67400189648e-05
prosperous 0.0
desperate 0.0
acknowledgement 0.0
executive 3.00215462179e-05
republicans 0.0
weapons 0.000210796490623
dropping 2.72219927501e-05
meaningful 0.0
nightmare 0.0
goodies 0.0
scandalous 0.0
rhetoric 0.0
divisive 0.0
vision 0.000106654518247
confirmation 7.42516728721e-05
throne 5.36764775441e-05
records 5.4606386018e-05
quoting 0.0
impatient 0.0
refugee 0.000286183048089
texted 0.0
exposed 0.0
stoked 0.0
priority 0.0
freedoms 0.0
notorious 0.0
empowering 0.0
unconstitutional 0.0
turkish 4.87687391852e-05
concerned 2.89200289823e-05
realdonaldtrump 0.0
goodwill 0.0
imagined 0.000201744611534
belfast 0.0
sleeve 0.0
basement 0.0
preposterous 0.0
griffith 0.0
timeless 0.0
truman 6.44611591939e-05
intended 0.0
inappropriate 0.0
industries 0.0
responsibility 0.0
documentaries 0.0
vulnerable 0.0
respectful 0.0
markets 0.0
claire 0.0
nuggets 0.0
boards 0.0
sequins 0.0
capitol 0.0
technical 3.76968630247e-05
applying 8.85569868196e-05
guitar 0.0
donating 0.0
continually 0.0
norway 0.0
applause 0.0
ballot 0.0
finely 0.0
shakes 0.0
varied 6.32202653576e-05
proverb 0.0
vibrant 5.26484362132e-05
flower 0.000175460031668
survives 0.0
fierce 0.0
shopped 0.0
sincerely 0.0
apology 0.0
sweaty 0.0
conspiracies 0.0
climbing 4.67400189648e-05
relaxed 0.0
encourage 0.0
funnyordie 0.0
essentials 0.0
jimmykimmellive 0.0
rejectedjokes 0.0
protesting 0.0
releasing 0.0
cleaner 0.0
preferred 4.28710629504e-05
incarceration 0.0
jkcorden 0.0
koppel 0.0
bikini 0.0
transparency 0.0
kamalaharris 0.0
nutshell 5.51455244625e-05
walled 0.0
floored 0.0
plotting 0.0
gandhi 0.000372356920171
vilify 0.0
meditate 0.0
violent 3.75523977758e-05
preschool 0.0
rhythm 0.0
matching 0.0
senwarren 0.0
venezuela 0.0
candle 4.79809128011e-05
donates 0.0
peacefully 0.0
chelseahandler 0.0
experiencing 0.0
sarabareilles 0.0
haunting 0.0
constitution 4.13868541119e-05
explode 0.0
deeper 0.0
empathy 0.0
mrgaryhuang 0.0
scored 0.00010930991994
charitable 0.0
perfume 0.0
giraffe 0.0
noticing 0.0
noodle 0.0
wrongly 5.33272272153e-05
marshmallow 0.0
fraudulent 0.0
everytime 0.0
helluva 0.0
therapists 0.0
tangible 0.0
sarahksilverman 0.0
johnfugelsang 0.0
exceptional 8.61310124299e-05
miracle 0.000298135219739
avocado 0.0
snacks 0.0
spelled 0.0
parental 0.0
superbowl 0.0
shoulders 4.67400189648e-05
valentine 0.0
glitter 0.0
stocking 0.0
poehler 0.0
thumbs 0.0
tinatbh 0.0
educational 0.000173048298338
voicemail 0.0
thetweetofgod 0.0
esteem 0.0
teaches 0.000187925772334
goodbye 0.0
reminding 0.0
supplies 0.0
ryanseacrest 0.0
okmagazine 0.0
shoots 0.0
bowing 0.0
jennyslate 0.0
craigyferg 0.0
masterpiece 0.000321452888669
sneaky 0.0
nashville 0.0
chronicles 0.0
potato 0.0
freakin 0.0
perezhilton 0.0
unethical 0.0
paparazzi 0.00011793723548
mantra 0.0
consuming 0.0
unauthorized 0.0
vanityfair 0.0
stalking 0.0
shoulda 0.0
yeppers 0.0
sacred 0.0
existed 4.15658190391e-05
earned 0.0
woulda 0.0
ellenpage 0.0
choker 0.0
contribute 0.0
mustache 0.0
washes 0.0
creeps 0.0
champion 0.0
auntie 0.0
magazines 0.0
waited 0.0
conscious 0.0
cracker 0.0
denmark 0.000184138408046
potion 0.0
windex 0.0
scarfing 0.0
ladygaga 0.0
purposely 0.0
pretending 0.0
luckiest 0.0
mascara 0.0
tastes 4.44888563551e-05
gardening 0.0
leashes 0.0
hippie 0.0
womensmarch 0.0
reunited 0.0
clique 0.0
premiering 0.0
rollingstone 0.0
childrensla 0.0
dollywood 0.0
godmother 0.0
eltonofficial 0.0
vmagazine 0.0
donorschoose 0.0
yesssssss 0.0
bettemidler 0.0
rehearsing 0.0
trevorproject 0.0
unicef 0.0
ellemagazine 0.0
yasssss 0.0
acceptance 0.0
solidarity 0.0
pharrell 0.0
greece 0.0
papermagazine 0.0
johnmayer 0.0
lipstick 0.0
tumblr 0.0
coldplay 0.0
colorful 0.000159981681646
translifeline 0.0
newsstands 0.0
feminist 0.0
pitchfork 0.0
labels 0.0
jenner 0.0
arkansas 0.0
beanie 0.0
sparkly 0.0
moschino 0.0
britneyspears 0.0
itsjeremyscott 0.0
nickiminaj 0.0
appstore 0.0
poetry 0.000132211687382
puttin 0.0
rubbed 0.0
shrine 0.0
skyferreira 0.0
freaking 0.0
besties 0.0
chanel 0.0
bedazzled 0.0
rubber 0.0
kendricklamar 0.0
popstar 0.0
sosadtoday 0.0
copenhagen 0.00017150560197
lenadunham 0.0
wearin 0.0
stoned 0.0
facetime 0.0
barclays 0.0
meditation 5.51455244625e-05
harpersbazaarus 0.0
stared 0.0
ritual 5.43960065631e-05
iconapop 0.0
doubted 0.000120895475861
staples 0.0
anaheim 0.0
jingle 0.0
tacoma 0.0
rehearsals 0.0
treadmill 0.0
metamorphosis 0.0
dental 0.0
jodyhighroller 0.0
versace 0.0
werking 0.0
couture 0.0
eggplant 0.0
bangin 0.0
cardigans 0.0
obnoxious 5.89686177402e-05
bestie 0.0
teganandsara 0.0
barrel 0.0
dedicating 6.04477379306e-05
jefferson 4.87687391852e-05
pumpkin 4.15658190391e-05
derekblasberg 0.0
glamourmag 0.0
presale 0.0
mtvstyle 0.0
deluxe 0.0
mtvema 0.0
reggae 0.0
azealiabanks 0.0
nominating 0.0
sailor 0.0
mornin 0.0
itunesmusic 0.0
bananas 0.0
lordemusic 0.0
vietnam 0.0
milwaukee 0.0
neworleans 0.0
circus 0.0
strolling 6.87986581761e-05
rapids 0.0
collegegameday 0.0
aaaaand 0.0
godfather 0.0
bestow 0.0
allison 0.0
rockthevote 0.0
birbigs 0.0
lucille 7.14354428698e-05
louder 0.0
farmers 4.34608150242e-05
shaved 0.0
niagara 0.000151374180974
realmattlucas 0.0
ferguson 0.0
painful 3.53860741291e-05
exchange 3.37998552863e-05
nickkroll 0.0
edmonton 0.0
mickey 0.000100327376309
angelenos 0.0
pooping 0.0
located 9.75374783704e-05
onslaught 0.0
finalists 0.0
bumped 0.0
sherlock 0.0
stockholm 0.000141678455954
casually 0.0
jjwatt 0.0
itstonybennett 0.0
mariolopezextra 0.0
klgandhoda 0.0
entrance 8.10356091006e-05
calgary 0.0
bowling 0.00013098532822
winnipeg 0.0
cheeto 0.0
gloriasteinem 0.0
feather 0.0
nathan 0.0
smelling 0.0
narnia 0.0
llamas 0.0
actuallynph 0.0
mourning 0.0
obsession 0.0
chilled 0.0
medically 0.0
hyperloop 0.0
aussie 0.0
flaring 0.0
eyeballs 0.0
stuffing 0.0
pitched 0.0
condiments 0.0
relatable 0.0
olivia 0.000205452750658
painted 0.000121553413651
mykonos 0.0
eyebrow 0.0
capitalcities 0.0
jackpot 0.0
hipster 5.10557301469e-05
sweating 0.0
restaurants 0.0
superfan 0.0
restraint 0.0
craziest 0.0
catheter 0.0
delivers 3.88963625349e-05
kanyewest 0.0
paints 0.0
dissect 0.0
billboards 0.0
milano 0.0
bjnovak 0.0
snapping 0.0
croissant 0.0
repjohnlewis 6.04477379306e-05
blklivesmatter 0.0
mydaughtersarmy 0.0
huddled 0.0
yearning 0.0
thereaibanksy 0.0
affordable 0.0
foodie 0.0
colombia 0.0
peeled 0.0
shootings 0.0
playground 0.0
breaky 0.0
photoshoot 0.0
smokin 0.0
accents 0.0
sweats 0.0
postmates 0.0
armband 0.0
unconscious 5.76019483788e-05
maddow 0.0
aquarium 0.0
holler 0.0
photoshop 0.0
robbie 0.0
espnmag 0.0
laundry 0.0
examining 0.0
zealand 7.97031733076e-05
stuntin 0.0
hehehe 0.0
nostalgia 0.0
buttons 0.0
slaying 0.0
monument 0.000264923148399
bringin 0.0
lining 0.0
muchas 0.0
gracias 0.0
madame 0.000186178460085
illustrated 0.000142422708862
boxers 0.0
grazie 0.0
winters 6.87986581761e-05
plastic 0.0
unbreakable 0.0
licking 0.0
cheeky 5.19943340644e-05
twerking 0.0
danish 0.000432261153349
drummer 0.0
florence 5.0753440228e-05
revoir 0.0
resume 0.0
dodger 0.0
brazilians 0.0
grimezsz 0.0
crocodile 0.0
hahahahahaha 0.0
parisians 0.0
taipei 0.0
taiwan 0.0
bangkok 0.0
uploaded 0.0
manila 0.0
hamburg 0.0
curating 0.0
aaaand 0.0
skating 0.0
brisbane 0.0
googleplay 0.0
raincoat 0.0
glastofest 0.0
vienna 0.000586599499368
burning 0.0
jamming 0.0
reaches 0.0
subtitles 0.0
wristband 0.0
barcelona 4.49171105583e-05
credits 0.0
dreamers 0.0
bogota 0.0
bursting 0.0
brunomars 0.0
beyoncé 0.0
subscribers 0.0
unlock 0.0
onedirection 0.0
amazonmusic 0.0
snippets 0.0
preorder 0.0
rehearse 0.0
bahnhof 0.0
delorean 7.82608774744e-05
fragrance 0.0
curate 0.0
samsmithworld 0.0
guitars 0.0
storyline 0.0
registering 0.0
beatsbydre 0.0
panama 0.000112663666093
celestial 0.000144815773093
orchestra 5.43960065631e-05
finland 0.0
climbed 0.0
topping 0.0
méxico 0.0
vasconcelos 0.0
leicester 0.0
itunesfestival 0.0
pondering 5.89686177402e-05
millennials 0.0
struck 0.0
watermelon 0.0
benefited 0.0
sophisticated 0.0
couples 0.0
villain 0.0
mindful 0.0
catholic 0.0
airline 0.0
secretly 4.12096524145e-05
playlists 0.0
veggie 0.0
receipts 0.0
foremost 0.0
bagpipe 0.0
drifting 0.0
trader 0.0
influenced 0.000323866762911
moscow 8.85569868196e-05
cobain 0.0
reaper 0.0
commune 0.0
handshake 0.0
despair 4.62666804158e-05
silicon 0.0
investing 0.0
construct 5.8501427141e-05
garland 0.0
coachella 0.0
offline 0.0
realisation 0.0
payback 0.0
educate 0.0
alliances 0.0
etched 0.000285741771479
momentarily 0.0
pronoun 0.0
lenses 0.0
validated 0.0
authenticity 0.0
choreographed 0.0
pokemon 0.0
disneyworld 0.0
patriotic 0.0
embody 0.0
snickers 0.0
impactful 0.0
refocus 0.0
eminem 0.0
mahatma 0.000159401023501
ecstatic 6.57940523448e-05
snfonnbc 0.0
avenue 0.0
picchu 0.0
doubters 0.0
beverly 5.19943340644e-05
intensity 0.0
outtake 0.0
temple 9.3962886167e-05
purchased 0.0
fountain 0.0
punched 0.0
goldfish 0.0
comparable 0.0
buyers 0.0
barbara 4.24883713474e-05
corybooker 0.0
listens 0.0
timeout 0.0
inducing 0.0
signage 0.0
penthouse 0.0
ahahaha 0.0
phenom 0.0
brilliantly 0.000138800041247
siphoning 0.0
herstory 0.0
prostitute 0.0
survivors 0.0
courageous 0.0
cruelty 5.23184117833e-05
margot 0.0
xenophobic 0.0
mcginley 0.0
yorkshire 0.000115203896758
chants 0.0
alancarr 0.0
chained 0.0
skillz 0.0
debunked 0.0
floods 0.0
fleetwood 0.0
cheesecake 0.0
adidas 0.0
uneven 0.0
raging 0.0
connections 8.42273061381e-05
headlining 0.0
devhynes 0.0
charli_xcx 0.0
shawnmendes 0.0
tavitulle 0.0
bahjournalist 0.0
tyleroakley 0.0
marquee 0.0
grease 0.0
screenshots 0.0
ddlovato 0.0
chattyman 0.0
grimmers 0.0
vevo_uk 0.0
bonniemckee 0.0
electrifying 0.0
idolator 0.0
onairromeo 0.0
godven 0.0
lookie 0.0
preordered 0.0
elvisduran 0.0
shanghai 0.0
tripped 0.0
konnichiwa 0.0
etnad_olegnad 0.0
unannounced 0.0
swedes 0.0
cinderella 0.0
slipper 0.0
jessesaintjohn 0.0
adorbs 0.0
onesies 0.0
jahnsuxx 0.0
walgreens 0.0
aphrodite 0.0
danceonfox 0.0
difficulties 5.19943340644e-05
mermaids 0.0
antique 7.82608774744e-05
girlshbo 0.0
yaaaaasss 0.0
lifesaving 0.0
queens 0.0
yaaaas 0.0
rollin 0.0
bestest 0.0
cleanse 0.0
iamtovelo 0.0
glamour 0.0
emelisande 0.0
lashes 0.0
austrian 0.000475994095318
magritte 0.0
misogynoir 0.0
litter 0.0
spiritual 5.33272272153e-05
preaching 0.0
adelaide 0.0
sheffield 0.0
impending 0.0
starve 0.0
excess 0.0
conciousness 0.0
vitamins 0.0
generator 0.0
purposefully 0.0
profiles 0.0
petals 0.0
persist 0.0
alexis 0.0
covergirl 0.0
sneezed 0.0
cushion 0.0
demconvention 0.0
directv 0.0
flo_tweet 0.0
billclinton 0.0
grounded 0.0
sunrise 0.0
fightin 0.0
sagekotsenburg 0.0
pwease 0.0
sadder 0.0
waterfall 0.0
sighting 0.0
firsts 0.0
muller 8.12654833057e-05
burritos 0.0
bungee 0.0
potting 0.0
dipping 0.0
closets 0.0
scratched 0.0
decorating 0.0
summers 5.9941061417e-05
havana 0.000141025781123
fresher 0.0
mowing 0.0
invading 0.0
addict 0.0
aesthetics 0.0
footwear 0.0
protector 0.0
hammock 0.0
repurpose 0.0
mishap 0.0
hamster 0.0
cellar 0.0
groove 0.0
mentored 8.69931369542e-05
exaggerate 0.0
scraping 0.0
apropos 0.0
trolled 0.0
jonlovett 0.0
rheabutcher 0.0
sickening 0.0
flustered 0.0
compiled 0.0
shirley 5.19943340644e-05
subtweet 0.0
pantsuit 0.0
patting 0.0
atrocious 0.0
amoeba 0.0
platter 0.0
aficionado 0.0
bearer 0.0
manifest 0.0
transformation 0.0
thighs 0.0
tapper 0.0
foaming 0.0
sophie 0.0
sabbath 0.0
vibrations 7.24078865465e-05
nutella 0.0
wilder 0.0
distractions 0.0
stripping 0.0
downloading 0.0
judith 0.0
crossroads 0.0
parsons 0.0
stella 0.0
narcissism 0.0
fawcett 0.0
trainers 0.0
surrounding 0.0
longtime 0.0
frosting 0.0
laurent 0.0
savory 0.0
acupuncture 0.0
cancelling 0.0
nutcracker 0.0
ballet 0.0
tempura 0.0
burner 0.0
voguemagazine 0.0
lagged 0.0
cuttlefish 0.0
passwords 0.0
funfetti 0.0
anagasteyer 0.0
gabbana 0.0
budapest 0.0
montage 0.000108792013126
crowns 0.0
scheduling 0.0
possessed 7.56870904871e-05
syncing 0.0
creatively 0.0
hieroglyphics 0.0
halftimes 0.0
floppy 0.0
nessie 0.0
feathers 0.0
kaceymusgraves 0.0
roaring 0.0
rightful 0.0
balconies 0.0
prodigy 0.0
raquin 0.0
gianni 0.0
monsieuradi 0.0
drowned 5.9941061417e-05
tropicana 0.0
diesel 0.0
shabbat 0.0
voiceless 0.0
passover 5.80460654319e-05
elevating 0.0
traumatic 0.0
dreamer 0.0
iwillharness 0.0
classrooms 0.0
eligibility 0.0
counselors 0.0
wainwright 0.0
moveon 0.0
runaway 0.0
baghdad 0.0
zaralarsson 0.0
snooze 0.0
iggyazalea 0.0
harviikills 0.0
bolognese 0.0
babysitting 0.0
mohegan 0.0
hooters 0.0
crusts 0.0
tracksuit 0.0
cupcake 0.0
xfactor 0.0
vitamin 0.000116092130864
lichtenstein 0.0
concourse 0.0
hitchcock 0.0
teller 0.0
pastels 0.0
remnants 0.0
banger 0.0
lyrically 0.0
boogers 0.0
ritaora 0.0
bumpin 0.0
dabbed 0.0
sleepin 0.0
tinashe 0.0
octaviaspencer 0.0
linder 0.0
musicallyapp 0.0
scavenger 0.0
sanging 0.0
corinthians 0.0
hollywoodbowl 0.0
kraken 0.0
discontinue 0.0
cypress 0.0
schooling 0.0
maritime 0.0
narration 0.0
zeitgeist 0.0
sampler 0.0
pseudo 0.0
bangladesh 0.0
hungary 0.0
mumble 0.0
sisterhood 0.0
soulful 0.0
lennykravitz 0.0
londontown 0.0
andradaymusic 0.0
lipsticks 0.0
realization 0.0
unconditionally 0.0
wildfire 0.0
goldie 0.0
minnie 0.0
solitude 0.000514051495142
waddle 0.0
westworldhbo 0.0
statuesque 0.0
uncasville 0.0
demented 0.0
skyway 0.0
twentyonepilots 0.0
rejoicing 0.0
clenching 0.0
adelphia 0.0
entirety 0.0
redhourben 0.0
lakewood 0.0
drjillstein 0.0
entail 0.0
whammy 0.0
smokers 0.0
gobble 0.0
topshop 0.0
cleowade 0.0
mkives 0.0
sweetbabayjamie 0.0
marchesafashion 0.0
hamsters 0.0
gurrrl 0.0
sofifii 0.0
sumthin 0.0
nicomiz 0.0
maisonvalentino 0.0
coziest 0.0
accessorize 0.0
thejgold 0.0
peruvian 0.0
amazeballs 0.0
sendin 0.0
fantabulous 0.0
timelines 0.000201701059862
regina 0.0
slovakia 0.0
graves 0.0
embracing 0.0
larsson 0.0
cullen 0.0
psychiatric 0.0
officialadele 0.0
butters 0.0
verrrry 0.0
buttered 0.0
winged 0.0
pedialyte 0.0
topanga 0.0
armpit 0.0
kittens 0.0
dueling 0.0
eagerly 0.0
surrealist 8.69931369542e-05
dethroned 0.0
manolos 0.0
señorita 0.0
monterrey 0.0
parque 0.0
retiree 0.0
batches 0.0
reservations 0.0
sickos 0.0
aplusk 0.0
kirkherbstreit 0.0
fanbases 0.0
indexing 0.0
chuckles 0.0
incorporated 0.0
washboard 0.0
earbuds 0.0
pantone 0.0
knotts 0.0
dismaland 0.0
pollock 0.0
iamkidpresident 0.0
mariah 0.0
teevee 0.0
santorini 0.0
appalachian 0.0
sunburnt 0.0
caliente 0.0
juicery 0.0
karlihenriquez 0.0
trillest 0.0
tommorrow 0.0
crumpets 0.0
fishin 0.0
grillin 0.0
jambalaya 0.0
pepperoni 0.0
cashew 0.0
graceland 0.0
pussies 0.0
delicately 0.0
eraser 0.0
choreo 0.0
snatched 0.0
elliptical 0.0
mooore 0.0
unborn 0.0
georgina 0.0
stalkers 0.0
sallykohn 0.0
expectancy 0.0
phillipines 0.0
appstoregames 0.0
wilkinson 0.0
puddings 0.0
loveland 0.0
spaced 0.0
shanny 0.0
dripping 0.0
gerber 0.0
shakey 0.0
weaves 0.0
unbeatable 0.0
linguist 0.0
prosthetics 0.0
battleship 0.0
serotonin 0.0
machiavellian 0.0
girlies 0.0
guangzhou 0.0
debuting 0.0
dissecting 0.0
warped 0.000137597316352
luckyjess 0.0
ermahgerd 0.0
fabulousness 0.0
elliegoulding 0.0
activewear 0.0
yelyahwilliams 0.0
prismatic 0.0
evaluations 0.0
skywalk 0.0
sparklers 0.0
palettes 0.0
gemmaanningram 0.0
trueeee 0.0
invisalign 0.0
pounded 0.0
lolgop 0.0
procession 0.0
stanning 0.0
squeals 0.0
continual 0.0
luminary 0.0
cummin 0.0
shaves 0.0
epixhd 0.0
preacher 0.0
boogiecousins 0.0
changers 0.0
autismspeaks 0.0
massaged 0.0
psssssst 0.0
literati 0.0
utilization 0.0
endangerment 0.0
purposeful 0.0
unlabeled 0.0
undiagnosed 0.0
snotty 0.0
gallops 0.0
slovenia 0.0
sequin 0.0
akerlund 0.0
jumbotron 0.0
edibles 0.0
knowles 0.0
caeser 0.0
thehollywoodbowl 0.0
elvispresley 0.0
adoring 9.54465408205e-05
ageist 0.0
thérèse 0.0
confessed 0.000144815773093
blackvoices 0.0
patties 0.0
graphically 0.0
wildflowers 0.0
groundhogs 0.0
eataly 0.0
poodles 0.0
hillaryforia 0.0
roadshow 0.0
sweety 0.0
boppin 0.0
bettywho 0.0
johnnywujek 0.0
earring 0.0
itsbennyblanco 0.0
curitiba 0.0
purrfect 0.0
shellback 0.0
chokers 0.0
hairbrush 0.0
hakuna 0.0
matata 0.0
hazing 0.0
mathew 0.0
aegean 0.0
lullaby 0.0
musiciansoncall 0.0
headpiece 0.0
morsel 0.0
whistled 0.0
conquest 0.0
viceland 0.0
lambily 0.0
scalped 0.0
graced 0.0
emblazoned 0.0
hrclosangeles 0.0
kawaii 0.0
glittery 0.0
wonderlandmag 0.0
jumpsmokers 0.0
radiodotcom 0.0
missyfranklin 0.0
pleaaaaase 0.0
lilbthebasedgod 0.0
waaaay 0.0
flossy 0.0
aria_official 0.0
berliners 0.0
matriarchy 0.0
cornered 0.0
limping 0.0
peasant 0.0
feasibly 0.0
waaaaay 0.0
slayyy 0.0
fashionistas 0.0
sangin 0.0
worldstarfunny 0.0
pliers 0.0
babyanimalpics 0.0
mediation 0.0
quests 0.00018433467376
aaaaaaah 0.0
honked 0.0
rauschenberg 0.0
whitneymuseum 0.0
lonsdale 0.000104634162009
transcendental 0.0
roarin 0.0
facetune 0.0
fausto 0.0
herning 0.0
cazzette 0.0
annnnnnnnnd 0.0
shinier 0.0
giambattista 0.0
katys_teddybear 0.0
gnight 0.0
katheryn 0.0
psychoanalysis 0.0
bckgrnd 0.0
kingman 0.0
gracevanderwaal 0.0
fecking 0.0
ihrcountdown 0.0
stubbies 0.0
xfactor_italia 0.0
aaronpauley 0.0
purity_ring 0.0
scorpios 0.0
ayyyye 0.0
capitalizes 0.0
flamin 0.0
motherfucking 0.0
jingled 0.0
pharrellhat 0.0
ontarioglow 0.0
teached 0.0
umusic 0.0
auroramusic 0.0
dailymendeslife 0.0
soloing 0.0
universalse 0.0
dustinkloeppel 0.0
robynkonichiwa 0.0
charli 0.0
lonelydot 0.0
adamselman 0.0
sorrenti 0.0
offish 0.0
vinoodh 0.0
guitarists 0.0
cocking 0.0
cabbages 0.0
amelia_libman 0.0
flutter 0.0
lolita 0.0
kingladygaga 0.0
breakthecycledv 0.0
howbow 0.0
curveballs 0.0
tamagotchi 0.0
jarryd 0.0
alliseeisgold 0.0
thebroadmuseum 0.0
sarahsowitty 0.0
brillz 0.0
jackgarratt 0.0
markryden 0.0
duffscakemix 0.0
sanrio 0.0
theniceguyla 0.0
trills 0.0
susangkomen 0.0
faustopuglisi 0.0
gurlll 0.0
cheesecakes 0.0
scorpio 0.0
oblivia 0.0
skipmarley 0.0
correcto 0.0
jessirklein 0.0
unpatr 0.0
squish 0.0
greg_wells 0.0
onlyleah 0.0
gittin 0.0
popstars 0.0
krafts 0.0
bouche 0.0
problemo 0.0
wheezing 0.0
patmcgrathreal 0.0
cienega 0.0
thundering 0.0
nastialiukin 0.0
janell 0.0
katelyntarver 0.0
miamoretti 0.0
missoni 0.0
dannymoonsworld 0.0
mrchrismcmillan 0.0
madge_freak 0.0
woridstarcomedy 0.0
ikissedasoldier 0.0
kpezandchez 0.0
perrysoldier 0.0
emilynotchez 0.0
iickmekaty 0.0
basicallyadam 0.0
katysangelegg 0.0
nicolasjebran 0.0
xchadballx 0.0
scott_myrick 0.0
lockoir 0.0
shannonwoodward 0.0
calluses 0.0
chamomile 0.0
trollin 0.0
sleighing 0.0
chestercheetah 0.0
royksopp 0.0
scottsimonswvla 0.0
sirenscaiiing 0.0
slowdownkaty 0.0
chefantoniopark 0.0
garnished 0.0
endive 0.0
mdmolinari 0.0
prezzy 0.0
motioning 0.0
hernameisbanks 0.0
rockcampla 0.0
jenniefinch 0.0
getglucky 0.0
stendhal 0.0
ryanphillippe 0.0
hotncolds 0.0
kpcollections 0.0
katie_wignall 0.0
katysdrugx 0.0
evrenperry 0.0
katycatwendy 0.0
yungskeeter 0.0
sarahhudsonuvs 0.0
mothern 0.0
oliverheldens 0.0
marrymemargot 0.0
katyperrylately 0.0
kewlest 0.0
katyshellokitty 0.0
pqgerry 0.0
rasarioatelier 0.0
anakhouri 0.0
romaneperry 0.0
hot_chip 0.0
agador 0.0
freddietinkles 0.0
cynthialovely 0.0
augustgettyatelier 0.0
tbsnetworks 0.0
ronyalwin 0.0
justinandersoncolor 0.0
mmillerrider 0.0
jpgaultier 0.0
harharharhar 0.0
iikeanangel 0.0
vonnypoo 0.0
jcoopkp 0.0
itzmero 0.0
katysprismlight 0.0
hatérs 0.0
awkwardaya 0.0
katysredskittle 0.0
tiedye_princess 0.0
adelshahal 0.0
marinadiamandis 0.0
samadizayee 0.0
itsslatykaty 0.0
johnlordperry 0.0
nuggetperry 0.0
kthnkzbye 0.0
teamkpbrasil 0.0
twenagedream 0.0
ashleyegreer 0.0
perryllover 0.0
perry_slays 0.0
_andresgalvis 0.0
poplitics 0.0
likerotica 0.0
sweetxjaureguix 0.0
jessiambriz 0.0
perryncolds 0.0
pwideawake 0.0
brunastrait_ 0.0
anafalqueto 0.0
pessoalmente 0.0
mark_hodson_ 0.0
sumtxkid 0.0
arpoador 0.0
katysmychampion 0.0
amnattg 0.0
osullivanluke 0.0
stephiruth 0.0
katy_pizza_bae 0.0
kpcatt 0.0
pedroeugeniio 0.0
gugs_prismatic 0.0
zeeusmtz 0.0
legendarycold 0.0
robynxkatheryn 0.0
écouter 0.0
energyberlin 0.0
karysjones 0.0
lilzariya 0.0
puroland 0.0
pavlovitz 0.0
dreamhampton 0.0
prismsperry 0.0
perrysmic 0.0
focusonreid 0.0
tonyatalterian 0.0
makeup_man 0.0
wtfkates 0.0
sella_sandra 0.0
katycute_ 0.0
caitsperry 0.0
katyperryforum 0.0
radiantjareau 0.0
lillysgomez 0.0
katycatsweden 0.0
perryicecream 0.0
xamyrosex 0.0
wtvrlara 0.0
bijanstephen 0.0
ameliashowalter 0.0
screamkng 0.0
tvmcgee 0.0
liiife 0.0
itskatcombs 0.0
yaaaaaasssssssssss 0.0
katysmyhabibi 0.0
skottpeace 0.0
ferras 0.0
kweens 0.0
habibi 0.0
orlandobloom 0.0
huckchinn 0.0
katycatkenzie 0.0
matarazzo 0.0
fkatwigor 0.0
perryschild 0.0
hotxcolds 0.0
maddisonxperry 0.0
akaruikaty 0.0
chillinlaidback 0.0
erryone 0.0
chrisanokute 0.0
beyelite 0.0
kuntyewest 0.0
chiroprac 0.0
katyperryrises 0.0
godneybjs 0.0
liquoronurlips 0.0
katystumblrr 0.0
holiestkaty 0.0
hollykittykaty 0.0
katysprincess 0.0
katysdonut 0.0
carlythekatycat 0.0
katycatsophia 0.0
fridaaperry 0.0
iegendarylovers 0.0
katycatveronica 0.0
katyperryslave 0.0
hakimkharbouch 0.0
keonovak 0.0
plaaaaay 0.0
scatting 0.0
shotted 0.0
dizzycoco 0.0
fkinsnapss 0.0
junkygs 0.0
ミニチュア料理 0.0
エビフライとエビ天 0.0
adidasboosts 0.0
lilithia 0.0
cottoncandizzle 0.0
ultimatebeyhive 0.0
paramorewebnews 0.0
royale_lala 0.0
musicnews_feed 0.0
katyperryextra 0.0
greeniight 0.0
gagas_illusion 0.0
lesbiyonce 0.0
blurryhface 0.0
lordofgiraffex 0.0
ifuseekamy_ 0.0
legendarymalek 0.0
hausoframez 0.0
unstan 0.0
chioekardashian 0.0
theiife 0.0
handstomyseif 0.0
legendarylovers 0.0
gagas_fandom 0.0
thinagedream 0.0
conditionalbabe 0.0
dannysuschrist 0.0
prismdluxe 0.0
herwonkeye 0.0
camilasviews 0.0
gagalovesbey 0.0
shadykatyfacts 0.0
limalimoncia 0.0
heavymetaiovers 0.0
katyscrush 0.0
waikingonair 0.0
eduardo_katycat 0.0
katyswetdream 0.0
katherynsgod 0.0
katystddbr 0.0
katyboobies 0.0
royaityler 0.0
nothingfaiis 0.0
kathrynluck_ 0.0
prismaticiights 0.0
mendesperry 0.0
katycatghita 0.0
mark_katycat 0.0
iwasdivine 0.0
skywaterr 0.0
xjojospearsx 0.0
alwaysbeperry 0.0
skoglyrihanna 0.0
legendarydurk 0.0
halseysfirework 0.0
rainbowspatrick 0.0
katysfood 0.0
honeymoonprism 0.0
onepulsetony 0.0
butcha 0.0
okurrr 0.0
the_mpt 0.0
talaofficial 0.0
miniatures 0.0
ohmyjurassic 0.0
katysmoonlight 0.0
lilly_jnes 0.0
coco_ho 0.0
perryhumorr 0.0
yikesjonathan 0.0
rubyrankin 0.0
thealekovski 0.0
cydney_moore 0.0
truebluedeluxe 0.0
thedutchass 0.0
katyskettle 0.0
ferraseu 0.0
katyssunlight 0.0
typosqween 0.0
adoreeeperry 0.0
katyperryfrance 0.0
snowiner 0.0
_coolkatycat 0.0
nicothekatycat 0.0
adorbies 0.0
jackygerardchan 0.0
brewmystew 0.0
katyswildfire 0.0
rihftperry 0.0
theolagu 0.0
ritajoness 0.0
iitsjackie 0.0
mjjperry 0.0
jesuskylie 0.0
holyerotica 0.0
graceofkaty 0.0
redsvelvets 0.0
booyakasha 0.0
tariqterry 0.0
katycatalannah 0.0
taylxre 0.0
pacifyher 0.0
basedkatyperry 0.0
diddleurskittle 0.0
katysanalien 0.0
gagasspace 0.0
tayiorhq 0.0
givenchydress 0.0
augustryder 0.0
perrysmoschino 0.0
kittehn 0.0
katrieber 0.0
legendaryhunty 0.0
katyslegs 0.0
katyfroot 0.0
winesandlines 0.0
sam_incolour 0.0
wakingonair 0.0
drwssinup 0.0
huffdaddysays 0.0
fiwwwwine 0.0
matthewroper 0.0
emmabruhhh 0.0
gingerwesson 0.0
nicholas_sewell 0.0
perfectlyperry 0.0
bustabusta 0.0
mynameisziam 0.0
venuzszfly 0.0
katherynsus 0.0
sacredperry 0.0
thedollsftkaty 0.0
_cafajeff 0.0
debkatycat 0.0
katycats 0.0
eastonjames_ 0.0
oliviabooker_ 0.0
protecti 0.0
outrageousness 0.0
joanneprada 0.0
scuffed 0.0
catoure 0.0
blanged 0.0
tahmorrow 0.0
glukatyperrypop 0.0
jamesjoint 0.0
pressin 0.0
bourree 0.0
honeysuckle 0.0
meowings 0.0
fashun 0.0
happun 0.0
vikander 0.0
thekatyperrypopgame 0.0
karolfabianaros 0.0
nico_thekatycat 0.0
miss_lilyjames 0.0
stylinfunk 0.0
hudsontheband 0.0
jere_my 0.0
crabitat 0.0
tiersz 0.0
unrehearsed 0.0
fanclub_kp 0.0
oneofthesophies 0.0
fusterlandia 0.0
lazyblazy 0.0
katycatchloe 0.0
figali 0.0
prismaticness 0.0
titicaca 0.0
ancientaliens_ 0.0
sneezin 0.0
cristos 0.0
mallman 0.0
prismaticlife_ 0.0
ravensuxx 0.0
perrypositive 0.0
derkwhore 0.0
alekjandro 0.0
havss_ 0.0
hqzaynmaiik 0.0
thique 0.0
bbhmms 0.0
jkatharineb 0.0
jennyformica 0.0
tiiiiiight 0.0
ikissedagay 0.0
harryvuitton 0.0
aeschleahd 0.0
princessjavonda 0.0
errrythang 0.0
kooning 0.0
sugarray 0.0
empaths 0.0
goldenboyz_inc 0.0
voguejp 0.0
chickenwingguardingthemimosa 0.0
katyperrypopup 0.0
unmeasurably 0.0
transviolet 0.0
beauteous 0.0
katyskidrauhl 0.0
thooooooseee 0.0
clairesstores 0.0
nailsbymh 0.0
katysacutie 0.0
psychokatycat 0.0
kaceymusgrave 0.0
refueled 0.0
hyungsunju 0.0
okuurrrr 0.0
cholewheeler 0.0
leftshark 0.0
momchella 0.0
crotches 0.0
hookedondolls 0.0
fyuseapp 0.0
mogonoloball 0.0
atletica 0.0
katycatsclub 0.0
catacombs 0.0
poppycorn 0.0
cupped 0.0
christiania 0.0
residenz 0.0
lindseyweber 0.0
butterballface 0.0
joshlecash 0.0
myassistant 0.0
swiftschrist 0.0
snowhiteperry 0.0
emmakphughes 0.0
katyslegend 0.0
dansnierson 0.0
scressful 0.0
prismaticwitch 0.0
finnin 0.0
habibis 0.0
mophies 0.0
strongé 0.0
drumkit 0.0
anamanaguchi 0.0
gaultier 0.0
ngvmelbourne 0.0
dukedumont 0.0
legendaryasmyn 0.0
highlarious 0.0
calpurnia 0.0
waaaaait 0.0
mktfah 0.0
fwding 0.0
caseyhoops 0.0
worldstarvlne 0.0
flapfkp 0.0
bettycrocker 0.0
mexxxico 0.0
whhhhhhhhuuuuuutttt 0.0
yelletweets 0.0
gucciqxxn 0.0
luckyladyrebelettes 0.0
junglejulia 0.0
charlottes_web 0.0
istarbucksniall 0.0
katysroaaar 0.0
fiorucci 0.0
whuteva 0.0
sirdavidd 0.0
fudgery 0.0
bizquick 0.0
itsgrandtheft 0.0
grandtheft 0.0
katysfancy 0.0
ameezyyrush 0.0
mykectown 0.0
itsvalkubus 0.0
walkslikeperry 0.0
iwantperry 0.0
exausto 0.0
selfeh 0.0
aquaberry 0.0
sidepiece 0.0
versacness 0.0
iamleslii 0.0
alocalgyro 0.0
cutina 0.0
theoutslder 0.0
prism_katy_cat 0.0
katyshoodrat 0.0
thestevetisch 0.0
ronysphotobooth 0.0
schlitterbahn 0.0
kpsnosecrinkle 0.0
alwz_katycat 0.0
whykph 0.0
californiagurls 0.0
katycattt 0.0
varicose 0.0
itsbrillz 0.0
perrystiger 0.0
katysmyaura 0.0
paolablancokp 0.0
callmemargot 0.0
indiggynado 0.0
katycat 0.0
anylinden 0.0
kpkillerqueen 0.0
katyslilacwine 0.0
katypvenezuela 0.0
franzikaty 0.0
katherynelperry 0.0
doessss 0.0
katysleftarm 0.0
datingprism 0.0
_smiler_katycat 0.0
kepyterry 0.0
katycat_camille 0.0
vckatyperry 0.0
bowzerjoe 0.0
taishrox 0.0
mütter 0.0
arianperryarian 0.0
lisasigh 0.0
fridiskp 0.0
kevinruda 0.0
katyperrydaily 0.0
wakingupvegas 0.0
marlyins 0.0
drankin 0.0
herkatycat 0.0
luvhudson 0.0
yaeltsairi 0.0
felipinhoofm_ 0.0
renanmarcall 0.0
kariseperry 0.0
emojing 0.0
konnie 0.0
mcperry 0.0
iturnmycanonon 0.0
katycatelysha 0.0
andrewnavs 0.0
katycatkrystal 0.0
lovelyandlaugh 0.0
lampoonians 0.0
perrytuuda 0.0
katymyhaven 0.0
ruletheschool 0.0
cheapandchic 0.0
sically 0.0
crazyforperry 0.0
kpdaily 0.0
getonupmovie 0.0
cutetina 0.0
chimiuzz 0.0
kefali 0.0
joelkefali 0.0
siclly 0.0
mtvother 0.0
lydiaacav 0.0
prismaticperry 0.0
jwujek 0.0
adorbie 0.0
errone 0.0
kaliyah 0.0
katysweirdness 0.0
vinbiodiesel 0.0
katysfxb 0.0
katyspurrfect_ 0.0
shannonmwoodward 0.0
bippity 0.0
boppity 0.0
swiggty 0.0
swoogity 0.0
pizzarella 0.0
firewerk 0.0
katyslayed 0.0
emerald_epelman 0.0
madkatydisease 0.0
mandee 0.0
ohferras 0.0
sarahh 0.0
iaustinhunt 0.0
lanawhore 0.0
spaceykacey 0.0
crazay 0.0
elektrikpeople 0.0
visa_nz 0.0
fvckin 0.0
nathanspicer 0.0
cashcash 0.0
ashish_uk 0.0
xokatic 0.0
turnting 0.0
scorpiomystique 0.0
toddthomasnyc 0.0
kohngallery 0.0
discnt_universe 0.0
dressinkaty 0.0
lee_cook 0.0
bloodshot 0.0
yaddlizc 0.0
elnett 0.0
itsthekatycats 0.0
kelly_moritz 0.0
katyslaykaty 0.0
skintxghtjeans 0.0
socarrer 0.0
errrday 0.0
therealslacker 0.0
wendywild 0.0
welkys 0.0
sohohouse 0.0
selfing 0.0
camiilaruales 0.0
nexxxt 0.0
turrell 0.0
alliexxxxandra 0.0
surfboardt 0.0
telstra_news 0.0
juanitadele 0.0
oopskatycat 0.0
sophkatycat 0.0
katyschild 0.0
katysconverrse 0.0
katycat_leah 0.0
katycatverified 0.0
katycat_libby 0.0
katyswonk 0.0
kittless 0.0
jlrcukp 0.0
siiiiiiiiiiiiii 0.0
ermagherd 0.0
imlynsey 0.0
perrys_cherry 0.0
casemcgase 0.0
hazzaily 0.0
herses 0.0
gaypropaganda 0.0
tixforcharity 0.0
hudsons 0.0
nomers 0.0
mommacat 0.0
superlove 0.0
bonacorso 0.0
levi_leet 0.0
thinkingofbecki 0.0
cybering 0.0
pamyurin 0.0
idreamofkaty 0.0
xfactor_au 0.0
glohudsonperry 0.0
aubreyplzza 0.0
eeshhuhhayniac 0.0
bonkay 0.0
katysbum 0.0
nevillebradley 0.0
curryswift 0.0
zinepack 0.0
katykatt_suraya 0.0
sweetkatybird 0.0
yohkatheryn 0.0
cottoncandykaty 0.0
karolynadiaz 0.0
maayansharvit 0.0
theprismcess 0.0
camisp_ 0.0
lucasgaldin 0.0
prixy_mtz 0.0
niggasperry 0.0
kaksperry 0.0
zennnnaaa 0.0
katyissmurfy 0.0
dadehoward 0.0
kyledsaavedra 0.0
katysdoritos 0.0
pendejabardera 0.0
rosenilsou 0.0
hackensucks 0.0
gottabesheerio 0.0
ismaellgarcia 0.0
milegendz 0.0
alexskarev 0.0
ladycrystalb 0.0
katyspad 0.0
xcallmechrissyx 0.0
arianastylesss 0.0
jorgebaker 0.0
matty_zee 0.0
katycatzilla 0.0
adorie 0.0
meowwdison 0.0
alvin_koopa 0.0
lexyauditore 0.0
kease_it_raw 0.0
katysking 0.0
chris__kirby 0.0
katysbestfrwend 0.0
katyslildancer 0.0
sssshhh 0.0
conorhughess 0.0
tanimura 0.0
thekatycatlife 0.0
weefififookface 0.0
breakalioz 0.0
hudsonhelper 0.0
lariitaa 0.0
meeeeeooooooooowwwww 0.0
legend__dary 0.0
katyandliam 0.0
_theatrekid 0.0
babybritney 0.0
erinlorimer 0.0
_zacmoore_ 0.0
itscezzurryo 0.0
katycatskp 0.0
larissafilipo 0.0
siaylorswift 0.0
shitkittens 0.0
thefrankradical 0.0
katysprism 0.0
katytinalevine 0.0
serjeeoh 0.0
kayz_perry 0.0
katyslaysurfav 0.0
fuckyeahitskath 0.0
sweetyitosan 0.0
pickerington 0.0
verrado 0.0
retweete 0.0
jameswaterhouse 0.0
hunnah 0.0
truth_ispeak 0.0
_emilybarbarrr 0.0
nbllrrr 0.0
jmoneygraves 0.0
eaglenationnews 0.0
tauentzienstrasse 0.0
avontbh 0.0
vinnie_mate 0.0
demilovve 0.0
coolestkatycat 0.0
terri_katycat 0.0
beeeaaatttt 0.0
laurenfrancisco 0.0
victaytayp 0.0
aylajaye 0.0
iloveu 0.0
augustvaz 0.0
lizzievang_ 0.0
edsssss_ 0.0
hhhhhholly 0.0
holly_hickin 0.0
trixxx 0.0
killah 0.0
treasurefingers 0.0
最強ガール宣言 0.0
voykovic 0.0
annunaki 0.0
katyshomie_ 0.0
katyselephant 0.0
caitlynsmith 0.0
lightsperry 0.0
elizagilham 0.0
ohmyjatyfeels 0.0
junglescope 0.0
drunkskaty 0.0
malikpom 0.0
dancerlaurena 0.0
brirad 0.0
elisa_rv 0.0
moooom 0.0
pattymeagher 0.0
iwasemily 0.0
shahrzadphoto 0.0
tvjohnny 0.0
cstonethebreadwinner 0.0
katysrightboob 0.0
cyberdlck 0.0
beatforkaty 0.0
igabriiel 0.0
duuuuddddeeeee 0.0
redrum 0.0
srbuhiii 0.0
kayleighcat 0.0
applekatycat 0.0
ikatycats 0.0
wehryspencer 0.0
emilyjonesphoto 0.0
coxgabe 0.0
drugmoneyx 0.0
steven_drum 0.0
victoriacha 0.0
hashtaggin 0.0
perryandemetria 0.0
katycatfurlife 0.0
iammelissalynn 0.0
qewtie 0.0
yscheecat 0.0
slayty 0.0
katystree 0.0
katherynsboy 0.0
anapurry 0.0
nenedez 0.0
kevinn_perry 0.0
gloria_swag_ 0.0
andyamaziing 0.0
roarsana 0.0
brighthudson 0.0
fixingperry 0.0
roooooooooooooar 0.0
gretschusa 0.0
katys_cupcake 0.0
wonderation 0.0
kasek_craig 0.0
katysgurll 0.0
pepperperry_ 0.0
teamkatyperry 0.0
meandnutella 0.0
lovatokitten 0.0
katyslolly 0.0
astixxx 0.0
ravemomentz 0.0
erzaabrianto 0.0
katyperryindo 0.0
seeingdaisies 0.0
gillian_e_dubbs 0.0
samanthachazene 0.0
perryprism_ 0.0
katycompletesme 0.0
ltskatyperry 0.0
kittenscks 0.0
nihanofficial 0.0
momcat 0.0
kaytehperreh 0.0
__grazi 0.0
clairekatycat 0.0
fangurl 0.0
rrrrrrrrrrrroooooooooooooaaaaaaaaaaaaar 0.0
marispiva 0.0
mattdrobins 0.0
deihemmings 0.0
rooaaarr 0.0
katycatobsessed 0.0
katycatnick 0.0
tigerkats 0.0
kristenanzelc 0.0
taylermckellop 0.0
essesfadaperry 0.0
imjare 0.0
smganonymous 0.0
roaaaar 0.0
phuckyotweet 0.0
evvvvvverrrr 0.0
melvynmarrero 0.0
zouisashton 0.0
trillneyspears 0.0
rooooooar 0.0
fanwars 0.0
fentyncold 0.0
ttish_ 0.0
rachelacogan 0.0
makesmariana 0.0
kkaplon 0.0
rafaelmoncada 0.0
yaaaassssgrl 0.0
oioianna 0.0
katycatrazan 0.0
megaan_katycat 0.0
thekaelynn 0.0
hannahloupunton 0.0
thumbelinafairy 0.0
nic_kathryn 0.0
dannahfields 0.0
rodneybroaddus 0.0
noxisanasshole 0.0
soedesh__ 0.0
hookerofversace 0.0
thinkingofkaty_ 0.0
msgracevalerie 0.0
francfernandez 0.0
katysring 0.0
a_little_spark 0.0
laaxiss 0.0
