awesome 0.000252044882793
christmas 5.58581718812e-05
trying 0.000151222532272
launch 0.00046355621257
moment 0.00017738002936
wonderful 0.000113243691909
seeing 0.000336603398385
hanging 3.17725974768e-05
sounds 0.000242010368685
recommend 3.75138039648e-05
worked 5.4512355623e-05
direct 0.000107069695693
others 0.000298199849857
currently 0.000179890395554
better 0.000349068596818
please 0.000176902507041
social 0.000141170431667
anxiety 0.0
around 0.000648270251234
people 0.000548536366429
morning 0.000626706176237
traditional 9.56941532714e-05
general 0.000161544109126
damage 0.000123296805747
everything 0.000150409482297
twitter 0.000276495000723
present 0.000171257183501
though 0.000234926814554
friend 0.000151222532272
watched 5.66218459546e-05
beautiful 0.000516456501714
anything 0.000203816013067
previous 0.000316819823454
helped 0.000137392343873
updated 3.98457332388e-05
thinking 0.0
finally 0.000332991827588
caught 0.000112936345334
believe 5.0001536121e-05
already 0.000300009216726
couple 0.000438466421899
orlando 0.0
chance 0.000175477729346
meaning 3.7072492069e-05
growing 9.01924720967e-05
probably 2.71825190543e-05
password 0.0
changed 0.000160904726335
history 0.000387342376285
center 0.0
museum 0.00013058043349
behind 0.000224401240812
screaming 0.0
pretty 2.56147559683e-05
really 0.000376023705742
little 0.000125003840303
happiest 5.30761374553e-05
earlier 0.000322651600405
forget 0.000101633635288
someone 5.05435734404e-05
safety 0.0
program 0.000174378360259
things 0.000174534298409
related 0.0
visiting 0.000345770640373
available 0.000286359096715
perfect 0.0
different 0.000433109027768
search 0.000167558914299
connect 0.0
numbers 9.40031643285e-05
person 0.000125679545783
watching 0.000176426287651
exhibit 0.000236659261351
passed 0.000122258045484
prefer 0.000113549972077
minutes 5.17851382131e-05
travel 0.000122595554722
outside 0.000106116811827
looking 0.000875026882118
forward 0.000592325339008
agreed 0.0
raising 7.15871443811e-05
listened 0.0
afraid 3.23993245424e-05
impression 0.0
christian 0.0
profile 0.000239973929499
instant 0.0
drawing 0.0
wheels 0.0
favorite 2.90926005113e-05
picture 0.000160037472734
instead 8.47022590003e-05
appreciate 2.94928253356e-05
international 0.000371871391833
station 0.000140711598582
toddler 0.0
market 0.0
couldn 0.0
remember 0.000250682470495
vintage 0.0
holidays 0.0
friends 0.0
everyone 0.000150409482297
florida 0.0
always 0.00037400206802
months 0.000130867562998
moving 2.69628394728e-05
meeting 0.000565046231076
answer 0.000282523115538
sweetie 0.0
together 0.00030163090988
inside 0.00010441191758
section 0.00011560882903
missed 0.000152450452932
button 0.0
longer 0.000115737168903
enough 0.000202720033554
driving 3.06488886806e-05
building 8.44724572416e-05
enjoying 0.000153244443403
london 0.00014908848003
exploring 0.00211476877977
posting 7.52507266124e-05
amazing 0.00050001536121
attention 0.0
gordon 0.0
progress 0.000382533119824
tomorrow 0.000626706176237
george 3.11612383081e-05
feeling 5.24884917972e-05
excited 0.000157041075597
understand 5.46601096346e-05
following 0.000236836623876
asleep 0.0
learning 0.00024860089794
evening 0.000459179177906
special 0.000101087146881
secret 0.000224648958181
across 0.000364064830701
surprised 8.96987382011e-05
anymore 3.19500606544e-05
sophia 8.24122071652e-05
precious 0.0
rejoice 0.0
version 2.77027593833e-05
rather 0.000394204800461
avatar 0.0
showing 5.34901570297e-05
saying 7.85205377985e-05
tweeted 3.31354214317e-05
thoughts 0.000159605724015
exactly 8.13272317793e-05
except 3.19500606544e-05
getting 0.000451228446891
nothing 0.000100272988198
tweets 0.000110511085774
course 0.000621421658557
photos 0.000151565396393
looked 2.84653102891e-05
difficult 3.3042212085e-05
stages 0.0
office 8.13272317793e-05
decisions 3.78499906922e-05
brought 0.000111111894126
biggest 0.000129114125428
thrilled 0.0
something 0.000325887211643
closing 3.72921716504e-05
anyone 0.000202174293762
taking 0.000325887211643
recently 9.7743964472e-05
interesting 0.000363078117228
original 2.96547315617e-05
flying 0.000189052492551
happening 0.0
sometimes 0.000165766628661
lessons 0.0
village 5.03247773497e-05
stopped 0.000264710382993
yesterday 0.000328533227363
service 8.2659025066e-05
serious 0.0
digital 0.0
hoarder 0.0
wearing 5.88245295541e-05
british 0.000219189687907
either 0.000136650274086
second 5.05435734404e-05
checking 3.24901569606e-05
indeed 0.000170922014162
island 0.000567741370334
hearing 8.4014960931e-05
choose 5.89856506713e-05
staying 0.0
another 0.00125003840303
clothes 4.16184013547e-05
slowly 0.0
weekend 0.000101633635288
hashtag 3.69633738589e-05
delivery 0.00013770967436
theory 8.21978704977e-05
working 0.000501364940989
bigger 5.88245295541e-05
screen 0.00010168173751
riding 4.33855446597e-05
laughing 2.97360806427e-05
wanted 2.53400041942e-05
trends 0.0
stripes 0.0
clothing 0.0
current 0.000325310117342
adorable 0.0
grateful 3.27646566637e-05
friendship 0.0
family 0.000200545976396
listening 8.24354063236e-05
stream 6.89566349753e-05
expressions 0.0
wedding 0.0
sharing 0.000147464126678
double 2.83879971382e-05
especially 0.0
middle 0.0
waiting 0.000179787437161
definitely 5.48083027374e-05
walking 3.00641573656e-05
account 0.000117649059108
completely 2.97360806427e-05
thought 0.000126358933601
reaction 0.0
accept 0.0
simple 2.91721331822e-05
professional 0.0
friendly 0.0
supposed 3.33228920231e-05
business 5.40717023074e-05
absolutely 0.000187722180724
anywhere 6.68343171344e-05
sending 5.81852010226e-05
introducing 4.02151247536e-05
congrats 0.000605249149905
beauty 0.000143590714773
community 9.2711242514e-05
greatest 5.48083027374e-05
selfie 0.0
posted 5.93094631234e-05
saturday 0.000132288288983
wednesday 3.02298288801e-05
confused 3.65316146512e-05
expression 0.0
chicago 0.0
closest 4.78470766357e-05
relationship 0.0
actually 0.000333890954727
easter 6.85639798568e-05
basket 0.0
myself 0.0
argument 3.8652516513e-05
school 0.000305724019601
thursday 2.68174543892e-05
selling 0.0
talented 6.5898699775e-05
celebrate 0.000193919315683
falcon 0.0
celebrating 0.000149497897002
contest 0.0
experiences 0.0
students 0.00109655635758
internet 0.000124644953232
figure 8.99451977769e-05
opened 7.32777111058e-05
featuring 0.000195487928944
inspired 9.09392378359e-05
sitting 0.000113243691909
playing 5.09540032668e-05
street 0.0
points 6.42575919607e-05
memory 3.46762032184e-05
forever 0.0
imagine 5.58581718812e-05
problem 0.00010756016386
played 0.0
canadian 0.0
pulling 4.26909740868e-05
keeping 2.8004986977e-05
lovely 0.000504139980136
dressed 4.04644615434e-05
specifically 0.000149318166676
unlike 0.000139125497328
disappointed 3.77374240396e-05
otherwise 0.000142346616918
afternoon 0.000383406729363
planned 0.000216013330216
strange 7.70725526869e-05
images 0.000749700334117
noticed 3.97238089313e-05
notice 3.39903670578e-05
stretch 0.000138650572472
inspiration 3.43799604717e-05
letting 0.0
system 0.000344678269204
possibility 0.0
almost 0.000175477729346
details 8.22124541061e-05
experience 0.000209388100796
living 0.000287908638595
weather 0.000993217312958
normal 0.000100820302881
launching 0.0
before 0.000163095114326
captured 5.03247773497e-05
colors 0.0
monday 0.000130867562998
example 0.000132541685727
realize 0.0
autographed 0.0
sleeping 0.0
authentic 0.0
science 0.00265360794873
tweeting 8.58619785658e-05
forgot 3.14214160205e-05
chasing 0.0
gorgeous 4.07163169293e-05
herself 0.0
happens 5.19250175261e-05
silence 0.0
learned 0.000174079924361
congratulations 0.000386788800208
natural 0.000320279888066
raised 3.27646566637e-05
babies 0.0
mission 0.000475865138809
smelled 0.0
ironic 0.0
testing 0.000131866432161
deleted 0.0
barely 4.36688826087e-05
unforgettable 0.0
forgotten 3.72921716504e-05
trouble 0.0
fantastic 2.95736470311e-05
loving 0.000118294588124
complete 0.000374100775587
nearly 0.000296544148988
spirit 0.0
launched 0.000336624673938
finding 0.000153244443403
mercury 0.000202822027844
stories 0.0
including 0.000222827322054
mature 6.83629601734e-05
stuffed 0.0
ancient 0.000160485591767
bottle 7.8245946646e-05
somewhere 0.000163364102851
wouldn 2.70358511537e-05
choice 0.000187215549604
conversation 0.0
making 0.000375011520908
expect 6.01283147311e-05
occasions 0.0
subject 8.40304578024e-05
flights 5.08893328917e-05
location 7.87231459087e-05
vacation 0.0
seriously 0.0
spending 9.34837149242e-05
groups 4.04644615434e-05
childhood 0.0
modern 0.0
welcome 0.000354760058719
moments 0.0
degrees 0.000141055937722
jacket 0.0
halloween 0.0
costume 4.959138709e-05
totally 5.78685844516e-05
laughed 4.75123941448e-05
flight 0.0
kidding 0.0
regular 0.0
context 0.0
running 0.000184206263014
finished 0.000329799058515
strong 0.000103291300343
tracking 5.91648153377e-05
respond 0.0
message 2.66009540025e-05
coming 0.000125003840303
thankful 0.0
cheese 3.97238089313e-05
greens 6.10943334863e-05
issues 8.96987382011e-05
intolerance 0.0
happen 7.66373509996e-05
giving 0.000278740046136
turkey 0.0
excellent 0.000490092308553
limits 0.000232672428115
common 0.000247914261222
pressed 0.0
situation 3.27646566637e-05
options 0.0
health 2.95736470311e-05
insurance 0.0
change 0.000125341235247
singing 0.0
august 0.0
crying 0.0
mental 0.0
happened 0.0
demand 6.608442417e-05
generally 0.0
personal 0.000327074133738
beyond 0.00028004986977
bruised 0.0
question 0.00015368853581
chicken 0.0
reward 0.0
tunnel 0.0
losing 0.0
respect 5.48083027374e-05
caption 5.30761374553e-05
shouldn 5.99634651846e-05
visited 0.000354254156589
reason 2.63863173439e-05
simply 3.13343881095e-05
darlin 0.0
audience 0.000381438235403
involved 0.000320893465005
unhappy 0.0
reality 0.0
extremely 0.0
without 0.000202174293762
falling 0.0
countdown 0.0
locations 0.0
timing 0.0
crabby 0.0
classic 6.14671050023e-05
highly 3.56898985642e-05
online 0.000647108147347
finger 0.0
animals 0.000879527251531
planets 7.25281983824e-05
called 0.000277241309165
delicious 0.0
almond 0.0
compliment 0.0
pictures 0.000126737349238
camera 0.000393175879965
pillow 6.19692818982e-05
checked 3.55866542295e-05
heading 0.00065598931213
theater 0.0
paying 0.0
planning 6.51626429813e-05
complex 0.000123683372052
sunday 7.76777073196e-05
nights 0.0
descending 0.00018641002259
traffic 7.52507266124e-05
opposite 0.0
through 0.0
lookout 7.9251847163e-05
reached 3.7182089921e-05
harder 3.48756720519e-05
random 3.65316146512e-05
changes 6.19785653054e-05
speaking 0.0
recorded 7.61533203466e-05
washed 0.000137499066724
november 6.72135352539e-05
answered 0.0
enchanted 0.0
number 0.000102735678378
adventures 0.0
eclipse 0.0
chocolate 0.0
unless 6.18074950093e-05
calling 2.63151804306e-05
mermaid 8.24122071652e-05
distraction 0.0
levels 0.0
option 3.63185067625e-05
shopping 3.80766601733e-05
former 0.000315087487585
actual 0.000233260244162
covers 4.05900712358e-05
mountain 8.84908094751e-05
friday 0.000152450452932
winner 2.78534152567e-05
closes 5.12729323225e-05
quality 0.0
father 0.0
wishes 6.53456411404e-05
hourly 0.00018641002259
matter 5.37800819301e-05
themselves 4.38117682215e-05
usually 0.000100251475702
period 3.74027415487e-05
parents 0.0
balance 0.0
publishing 5.34951972558e-05
mobile 4.16184013547e-05
woohoo 0.0
bracelets 0.0
summer 0.000162215106922
reminded 4.35268111633e-05
impressed 3.79630678529e-05
necklace 0.0
shutdown 0.0
dinner 0.000110811037533
single 7.7468475257e-05
packed 8.21978704977e-05
definition 4.1227790684e-05
energy 2.98176960059e-05
preview 7.13797971285e-05
monster 0.000216225370139
material 4.28283489313e-05
admission 0.0
europe 6.93524064368e-05
holiday 2.88555134203e-05
emotional 3.61072048944e-05
update 0.000204763442507
customers 0.0
messing 0.0
holding 2.96547315617e-05
electric 4.48355736201e-05
eating 0.000250675104876
outfit 0.0
picked 0.0
fabulous 0.0
missing 8.02352355445e-05
surprise 5.36349087783e-05
officially 0.000117007681433
french 3.22186464243e-05
global 0.000469164960038
follow 0.000252037553787
opinion 3.26728205702e-05
backwards 0.0
design 3.78499906922e-05
secrets 4.70186459074e-05
request 0.0
breaks 0.0
allows 0.0
promoting 0.0
volunteer 0.0
wondering 0.0
official 2.58925691065e-05
sweater 0.0
jersey 8.42978415122e-05
mistake 0.0
france 0.000139102952663
proper 3.98457332388e-05
ginger 0.0
peaceful 0.0
lighter 0.0
thinks 5.85038407164e-05
competition 0.000135575650014
hospital 0.0
industry 0.0
trending 0.0
leadership 3.92419877313e-05
organized 0.0
showed 0.0
circle 8.87832850491e-05
success 8.49327689319e-05
ladies 3.43799604717e-05
dreams 6.5898699775e-05
protect 6.42575919607e-05
onesie 0.0
explanation 0.0
control 0.000364064830701
coincidence 5.28692194943e-05
discovering 0.000194384878229
laying 0.0
invited 3.52794617869e-05
healthy 0.0
surgery 0.0
allowing 0.0
arrived 0.000575948506294
opening 8.17685334346e-05
popular 6.85639798568e-05
pleasure 0.000157107080103
spectacular 9.14957511078e-05
animal 0.000225752179837
luggage 0.000374523060029
wonder 8.15475571628e-05
matters 0.0
reader 0.0
function 0.0
marketing 0.0
connection 4.08432050973e-05
improves 0.0
benefit 0.000219949912144
continues 0.000152822556855
cuddle 0.0
routine 5.08893328917e-05
exciting 0.000120256629462
corner 3.57935721905e-05
imagination 0.000119947078703
sangria 0.0
mystery 0.00022796744121
spring 3.20392681599e-05
beautifully 0.0
places 0.000209297055802
feedback 4.88789537311e-05
continue 8.68028766775e-05
attend 0.0
creative 3.53814393164e-05
memories 6.85639798568e-05
female 0.000334171585672
grandma 0.0
closer 0.000157107080103
accent 5.47963692296e-05
beginning 3.15087487585e-05
sooner 4.97727222253e-05
everywhere 0.0
scenes 3.19500606544e-05
bought 3.06488886806e-05
wishing 0.0
discovered 0.000459249743765
remove 4.32450740278e-05
predict 0.0
parrot 0.0
several 0.000397179253839
teacher 0.0
passing 0.000305045212531
become 0.000104694050398
spread 0.0
netflix 4.16184013547e-05
season 2.76277714434e-05
putting 5.26303608613e-05
weight 3.90045243059e-05
outfits 0.0
notification 0.0
annoying 0.0
necessity 0.0
knocks 0.0
processed 7.98526827713e-05
necessarily 0.0
effects 0.000139603456869
lighting 0.0
headed 6.62708428633e-05
returns 0.000168033838135
expected 0.000143590714773
bucket 4.71821446651e-05
constantly 0.0
sweetest 0.0
struggling 8.67710893193e-05
register 0.000111876514951
transition 4.85302281696e-05
flowers 0.0
sprain 0.0
savage 0.0
somebody 0.0
covering 0.00023261580681
gloves 0.0
repeat 6.9952016175e-05
managers 0.0
brothers 0.0
patriots 0.0
seahawks 0.0
player 0.0
chemistry 0.000273981846148
moonlight 0.0
comment 0.0
columbia 0.0
physical 4.17499767059e-05
kingdom 5.41372963757e-05
pretend 0.0
charles 0.0
fighting 0.0
rooting 0.0
donald 3.60022217027e-05
mexico 0.000144850527964
police 0.0
represent 0.0
president 5.57068305135e-05
talking 0.000552990001447
unbelievable 0.0
shrimp 0.00381949182488
giants 0.0
conference 6.21502244849e-05
america 0.0
everybody 0.0
houston 0.0
everyday 3.55866542295e-05
michael 2.83109229773e-05
protecting 8.93734332669e-05
unconditional 0.0
million 0.000447358067321
election 3.45770640373e-05
telling 0.0
correct 0.000193852930952
pulled 0.0
starbucks 0.0
americans 0.0
killed 0.0
cowboys 0.0
cowboy 0.0
coverage 0.000203942202347
dallas 0.0
coffee 0.0
timeline 0.0
refuse 4.4985324648e-05
barackobama 0.0
hillary 0.0
clinton 0.0
gatorade 0.0
sharper 0.0
american 0.0
deserved 7.66108184399e-05
realist 9.12092687486e-05
illegal 0.0
arizona 0.0
waffle 0.0
scared 0.0
pieces 0.0
taught 3.69633738589e-05
golden 3.37978296439e-05
straight 0.000111111894126
massage 0.0
filter 5.54733376336e-05
answers 6.46176436506e-05
smoking 0.0
created 3.01468555216e-05
beside 0.0
worlds 4.73467226303e-05
record 0.000104694050398
freddie 0.0
africa 8.32368027093e-05
recruiting 6.02490501239e-05
journey 0.000260650571925
snapchat 0.0
brother 3.0564511371e-05
prayers 0.0
trolling 5.86398807657e-05
hungry 0.0
nflnetwork 0.0
documentary 7.50276079297e-05
boston 0.0
addition 0.000218344413044
church 0.0
honestly 0.0
lounge 0.000117801933239
lifetime 0.0
captain 8.51087039699e-05
favorites 0.0
country 2.58925691065e-05
valley 4.26909740868e-05
huddle 0.000170529708723
dressing 0.0
finish 0.0
favourite 0.000202322307717
prayer 0.0
nominated 0.0
praying 0.0
insane 0.0
national 0.000243981695338
reform 0.0
shooting 3.13343881095e-05
australia 0.0
deserve 0.0
legend 0.0
mother 0.0
realest 0.0
creating 6.89566349753e-05
powerful 6.11290227419e-05
chilling 0.0
wisdom 4.22833333253e-05
breaking 2.69628394728e-05
parked 7.07777625206e-05
angeles 0.0
dollars 0.0
questions 0.000154103517566
racist 0.0
girlfriend 0.0
performance 2.90133207269e-05
refreshing 0.0
educated 5.50199893043e-05
reading 7.98028620076e-05
denver 0.0
videos 0.0
harmony 0.0
create 0.000116053282907
jordan 0.0
admire 4.63751657761e-05
nobody 0.0
government 3.75138039648e-05
politics 0.0
paradise 0.0
recover 0.000226576552876
spotted 4.22833333253e-05
blessing 0.0
coolest 0.0
banana 0.0
donate 3.37978296439e-05
sandwich 0.000465344856229
lookin 0.0
method 0.000157381394731
bullshit 0.0
slight 5.86398807657e-05
bringing 0.000112629942989
deserves 0.0
regret 0.0
celebs 0.0
victim 0.0
stadium 0.0
funniest 0.0
according 0.00023260286373
pumped 0.0
hamburger 0.0
heaven 0.0
honest 3.11612383081e-05
rolling 7.52507266124e-05
became 0.000156671940547
feature 0.000446939486132
waking 0.0
breakfast 0.000126034995034
counting 0.0
signing 0.0
adding 0.0
awareness 3.58976786933e-05
kindest 0.0
trainer 0.0
facebook 2.68174543892e-05
insanity 0.0
repost 0.0
brazilian 0.0
campaign 2.90926005113e-05
borrow 0.0
scorpion 0.0
popcorn 0.0
factory 0.0
teenage 0.0
endorsement 0.0
williams 0.0
custom 5.03247773497e-05
drinks 4.48355736201e-05
future 0.000723039102399
angels 0.0
fingers 0.0
sister 6.74042312507e-05
earrings 0.0
warrior 0.0
dancing 3.51778996456e-05
voting 3.09037475047e-05
individuals 0.0
presence 0.0
commercial 3.43799604717e-05
chopped 0.0
religion 0.0
century 0.000164395740995
submit 4.33855446597e-05
serving 0.0
because 0.0
aggressive 4.9955385835e-05
sensitive 0.0
smiling 0.0
besides 0.0
cleveland 0.0
hometown 0.0
killing 0.0
breath 0.00017021740794
phillips 0.0
instagram 0.0
sharks 0.000356588916125
cousin 0.0
honored 0.0
dedication 5.28692194943e-05
lifting 0.0
lyrical 0.0
talent 0.0
goodnight 0.0
stores 9.08801020239e-05
rushing 0.0
brains 5.52456331176e-05
sandwiches 0.0
drinking 3.72921716504e-05
brazil 4.4985324648e-05
tattoo 0.000157992013743
ravens 0.0
regardless 4.42454047376e-05
skills 0.000139102952663
cameras 0.000100649554699
phones 4.62168574906e-05
california 7.17953573867e-05
seconds 6.70235657198e-05
listen 0.000103570276426
smiled 0.0
kicking 0.0
homies 0.0
billion 0.000179488393467
shades 0.0
shoutout 0.0
grammy 0.0
guilty 0.0
stevie 0.0
ceiling 0.0
carpet 0.0
grammys 0.0
harvard 0.0
panther 0.0
nelson 0.0
mandela 0.0
handle 3.26728205702e-05
sexiest 0.0
promise 2.97360806427e-05
hosting 0.0
hahahaha 0.0
longest 0.0
tuesday 0.0
locker 5.61692005983e-05
workout 0.0
ingredient 0.0
leader 6.53456411404e-05
pageant 0.0
character 3.35117828599e-05
idiotic 0.0
mirror 0.0
jackson 0.0
interview 0.000127385008167
battles 0.0
bleach 0.0
insight 0.0
obviously 0.0
replay 0.0
battle 0.0
stomped 0.0
destroy 0.0
killer 0.0
personally 0.000181063159955
winning 0.000106980314059
gettin 0.0
japanese 0.00027541934872
writing 0.000232106565815
society 0.000172885320187
officers 0.000106152274911
brooklyn 0.0
sources 0.000129316171051
incredible 5.40717023074e-05
poster 7.94476178626e-05
celebrity 0.0
memorable 5.18596293021e-05
werent 0.0
chased 0.0
minute 0.000141170431667
confession 0.0
pregnant 0.0
cherry 0.000110039978609
twinning 0.0
phoenix 0.0
orange 7.50276079297e-05
policy 0.000146986238799
comedy 0.0
illuminati 0.0
reminder 0.0
evidence 0.000223092539526
iphone 3.99682566854e-05
kicked 0.0
intentions 0.0
freedom 0.0
patient 0.0
utterly 0.0
mississippi 0.0
download 0.000141525757265
assistant 0.0
invite 0.0
central 3.3042212085e-05
washington 0.0
stronger 0.0
promised 4.10989352489e-05
worried 7.24252639821e-05
throwing 0.0
security 3.32289805328e-05
cologne 0.0
headphones 0.0
sanctuary 0.0
fantasy 0.0
monkey 5.16625257365e-05
approve 0.0
spinach 0.0
turning 0.000125337552438
helping 0.000110212033421
tickets 0.0
collector 0.0
physically 5.52456331176e-05
slavery 0.0
december 6.95514763316e-05
basically 3.65316146512e-05
return 0.0001662165563
yassss 0.0
goddess 0.0
locked 0.0
feelings 4.32450740278e-05
language 0.000105230248567
motion 0.0
obsessed 0.0
creation 5.06997238319e-05
followers 0.0
schools 0.000106759962689
gallery 0.000100649554699
movies 0.0
foster 0.0
children 2.75530083553e-05
nation 9.45262462755e-05
theaters 0.0
between 0.0
knowledge 0.000249106579607
begins 0.000119926930369
robinthicke 0.0
faithful 7.44108637683e-05
peeing 0.0
closet 0.0
bodies 0.00019836554836
italian 0.0
highlights 0.000301899392317
spanking 0.0
forbes 0.0
parade 0.0
tasted 0.0
consider 0.0
reunion 5.03247773497e-05
latest 0.000243981695338
dedicated 0.0
beyonce 0.0
perform 0.0
signed 8.28833143303e-05
tuxedo 0.0
princess 0.000151534637393
shelter 0.0
germany 7.61533203466e-05
explaining 0.0
married 0.0
millions 0.0
blessings 0.0
iconic 5.10803949086e-05
indonesia 0.0
braids 0.0
dollar 0.0
rigged 0.0
replied 0.0
lights 0.000180011108513
turned 5.49569375491e-05
excuses 0.0
jackie 6.19692818982e-05
charge 3.46762032184e-05
performing 4.02151247536e-05
ticket 0.0
steady 0.0
whispers 0.0
finest 4.94113612451e-05
confucius 0.0
diamonds 0.0
vancouver 0.0
addicts 0.0
collection 6.87599209434e-05
families 0.0
select 0.0
hitting 0.0
announced 3.04804186396e-05
decided 0.0
jewels 8.10996161524e-05
lottery 0.0
owners 0.0
respects 0.0
celebration 0.0
memorial 0.0
landed 0.000195614866615
pastor 0.0
ultimate 0.0
incase 0.0
rapper 0.0
episode 0.000328895373404
bounce 5.97010396862e-05
disney 0.0
muffin 0.0
kansas 0.0
sherman 0.0
retweet 0.0
midnight 0.000135191318576
patience 5.01393975277e-05
cereal 0.0
joining 0.000117971301343
released 2.91721331822e-05
release 0.000109913875098
models 0.000145073032522
classics 0.0
popped 0.0
mileycyrus 0.0
highlight 0.000158409911727
scholarship 0.0
within 9.58501819632e-05
hahahahaha 0.0
standing 2.86206595219e-05
higher 6.72135352539e-05
purple 0.000140084490125
skinny 0.0
justice 3.37021156254e-05
served 0.0
speaks 0.0
horses 0.000116251540724
houses 5.12729323225e-05
purchase 0.0
dropped 9.2711242514e-05
conversations 0.0
consideration 0.0
seattle 0.0
cookie 0.0
slurpee 0.0
strength 3.46762032184e-05
screens 5.99735393516e-05
monica 0.0
incredibly 0.0
streets 0.0
boyfriend 0.0
private 9.63863879411e-05
skittles 0.0
barbie 0.0
apologizes 0.0
designer 0.0
impress 0.0
cooking 0.0
exclusive 5.94721612854e-05
fashion 3.6212631991e-05
petite 0.0
talkin 0.0
peaches 0.0
bitches 0.0
nailed 0.000101023091595
weirdest 0.0
whomever 0.0
teaching 0.000496480040794
disgusting 0.0
chillin 0.0
philly 0.0
rights 0.000101393488932
dinosaur 6.87495333619e-05
exotic 0.0
dancers 0.0
cheers 0.0
presents 0.0
flawless 0.0
dating 0.0
victory 0.0
marley 7.98526827713e-05
productive 9.95454444506e-05
smurfs 0.0
halftime 0.0
insecure 0.0
horror 0.0
warning 3.6212631991e-05
discovery 0.00132809026762
convention 4.81863127694e-05
understanding 0.000252750434261
action 0.00010756016386
having 0.000141055937722
speaker 8.34999534118e-05
clever 0.0
theatre 4.57478755539e-05
honors 0.0
evolution 0.000195515814924
produce 0.0
spider 5.81257703621e-05
apologize 0.0
formation 0.0
letter 3.09037475047e-05
therapy 0.0
untrue 0.0
written 3.0564511371e-05
communication 0.00010914947383
disease 4.90551627415e-05
marching 0.0
suggest 0.000116307903405
georgetakei 0.0
hairstyle 0.0
humans 0.000126045686704
journal 0.000155578887906
foundation 7.13797971285e-05
access 0.00018491102871
venture 0.000122188666973
syndrome 0.0
writes 0.0
colorado 0.0
medicine 0.0
tremendous 0.0
nytimes 3.79630678529e-05
kindness 0.0
cannot 0.000111716343762
reveals 0.000112208224646
invented 4.68562122958e-05
sapphire 0.0
candidate 0.0
sexual 0.0
madison 0.0
illustration 0.0
newark 0.0
globally 0.0
incorrect 0.0
headline 3.92419877313e-05
reflect 0.000138650572472
streaming 8.1941484625e-05
leaders 0.0
supreme 0.0
protest 8.48369488429e-05
policies 0.0
silenced 0.0
defend 0.0
communicating 7.59224460305e-05
climate 8.48369488429e-05
wrapped 4.70186459074e-05
studio 6.97513441037e-05
conspiracy 4.94113612451e-05
interviews 0.0
differentiation 0.0
confusing 0.0
february 3.6854731111e-05
hamilton 4.959138709e-05
loneliest 0.0
amazon 0.0
scattered 0.0
francis 0.0
headlines 4.62168574906e-05
january 6.93524064368e-05
diversity 9.24337149812e-05
universal 4.42454047376e-05
hurricane 0.0
identifying 0.0
countries 0.0
tickled 0.0
becker 0.0
connected 0.0
suggestion 0.000241788387536
filled 7.03557992912e-05
education 0.000101106346876
mentioned 3.6854731111e-05
defining 6.41387775606e-05
exists 4.65344856229e-05
unexpected 0.000145073032522
plants 5.7622046741e-05
orders 0.0
olympics 0.0
ability 0.0
director 3.12476629048e-05
content 0.000195614866615
cycling 0.0
previously 0.000349687700845
correction 0.0
pearls 0.0
ambassador 0.0
preparing 8.37645001458e-05
depend 6.44647099299e-05
downloads 0.0
lovers 0.0
weekly 0.0
hudson 0.0
bridge 0.000282376370334
becoming 3.21287959804e-05
magazine 0.0
appropriate 4.52875522418e-05
shakespeare 0.0
travesty 0.0
discoveries 0.00132213178554
fellow 0.000127090389907
reviewed 0.0
copies 0.0
driven 0.000136320153036
aussies 0.0
result 7.22144097889e-05
announcing 0.0
visual 0.000156775720057
restrictions 0.0
culture 3.45770640373e-05
edition 3.35117828599e-05
prince 3.63185067625e-05
shocks 0.0
symmetry 0.0
clicks 0.0
disagree 0.0
experiments 0.00063322832448
mistakes 0.0
trolls 0.0
blossoms 0.0
offered 0.0
inspiring 0.000101393488932
counter 0.0
approach 0.0
embarrassing 0.0
creators 0.0
edited 5.89009666194e-05
berniesanders 0.0
overnight 0.000375951788041
spotlight 0.0
probable 0.0
repeating 0.0
concerns 4.57478755539e-05
massive 0.000127090389907
promising 5.47963692296e-05
promises 0.0
colored 0.0
production 3.99682566854e-05
header 0.0
itunes 0.0
secretary 0.0
highway 0.0
dangerous 0.0
letters 0.0
typically 0.000124535779826
saving 0.0
pioneer 5.61692005983e-05
visuals 0.0
universe 0.000201075623768
ordering 0.0
victims 0.0
privacy 0.0
disclosure 0.0
proceeds 0.0
musical 0.0
collide 0.0
melbourne 0.0
correctly 5.01393975277e-05
campus 4.959138709e-05
debate 3.22186464243e-05
conflict 0.0
meanwhile 0.000395599296484
petition 9.0271961043e-05
contribution 5.16625257365e-05
stated 0.0
humanity 8.53819481736e-05
illness 0.0
flawed 0.0
breathe 0.0
winners 3.31354214317e-05
spanish 0.0
comedic 0.0
awards 0.000163364102851
presidential 0.0
candidates 0.0
glasgow 0.0
smells 0.0
treasure 0.000107414796583
greater 0.000122529615292
themed 0.000297157430104
distribution 6.51296419005e-05
absurd 5.39214208177e-05
squirrel 0.0
sisters 0.000143037521515
stress 0.0
leading 0.000190635584861
resolution 0.000252557728988
achieved 5.16625257365e-05
interacting 8.45205163645e-05
boiling 0.0
examples 0.000106569573935
diverse 0.0
suicide 0.0
parallel 6.16742077893e-05
minneapolis 0.0
impairs 0.0
pumping 8.17472751946e-05
slides 0.0
choreography 0.0
element 0.0
serves 5.73739504532e-05
jumping 9.40372918149e-05
rising 0.000121018444429
believed 0.0
features 0.000199841283427
environment 0.000138178644007
revealed 0.000530961666265
classical 0.0
confirmed 0.000182124165134
origins 7.34517658631e-05
combination 0.0
consumption 0.00021107610816
worldwide 8.32368027093e-05
deaths 0.0
responsible 4.08432050973e-05
overwhelmed 0.0
household 0.0
munich 0.0
alternate 0.0
blockers 0.0
restaurant 0.0
canada 0.000133291568093
versions 0.0
technology 8.37645001458e-05
identify 5.37073982915e-05
combined 4.65344856229e-05
santiago 8.84865513472e-05
branches 0.0
october 0.00013990403235
netherlands 0.000126371580103
belgium 0.0
european 0.000215526951752
imperial 0.0
perspective 0.000147853495436
cities 3.75138039648e-05
guinea 8.24122071652e-05
americas 0.0
posters 5.64055385878e-05
elastic 0.0
flames 0.0
presumably 0.0
exquisite 0.0
spreading 0.000128485046794
happiness 0.0
ashamed 0.0
naturally 5.52456331176e-05
malbec 0.0
wasting 0.0
hidden 0.000123296805747
coffin 0.0
freudian 0.0
genius 0.0
cultured 0.0
malaysia 0.0
traveling 0.0
prepared 0.0
county 0.0
quinoa 0.0
district 0.0
chosen 4.71821446651e-05
toilet 0.0
yorkers 0.0
ignores 0.0
messages 0.0
creativity 0.0
conventional 0.0
berlin 0.0
montreal 0.0
wonders 0.000342769791022
upcoming 0.0
lonely 5.78726365006e-05
australian 4.87039812853e-05
positions 5.28692194943e-05
singapore 0.0
scratch 0.0
deficiency 0.0
elevated 8.30953586991e-05
triggers 0.0
delicate 0.0
barrier 6.16742077893e-05
reflection 0.0
sydney 5.61692005983e-05
separates 0.0
centuries 0.0
israel 0.0
overwhelming 0.0
assault 0.0
protection 0.0
picker 0.0
additional 0.0
machine 0.000101106346876
samples 0.00188855738584
contrary 6.31857900514e-05
immediate 5.20583034305e-05
michelle 0.0
inspire 0.00017021740794
lyrics 0.0
missyelliott 0.0
constant 0.0
tuning 0.0
pandora 0.0
preshow 0.0
buenos 7.98526827713e-05
poland 0.0
philippines 0.0
nicely 0.0
september 7.01534990446e-05
manchester 4.5440051012e-05
checks 4.83576775072e-05
screenshot 0.0
universalorl 0.0
remarkable 4.31053903504e-05
rihanna 0.0
disgusted 0.0
flattered 0.0
fiction 0.000100278795055
angela 0.0
bitmoji 0.0
process 3.18611711799e-05
genuine 0.0
performances 0.0
comedians 0.0
flotus 0.0
strangers 0.0
hungover 0.0
confidence 0.0
studios 0.0
stjude 0.0
memphis 0.0
mikeypiff 0.0
chancetherapper 0.0
scream 0.0
jennifer 0.0
disappoint 6.13825849187e-05
newcastle 0.000145056396765
castle 5.59350817777e-05
literally 0.0
chrisrock 0.0
gentlemen 0.0
mtvnews 0.0
hillaryclinton 0.0
iamrashidajones 0.0
champagne 0.0
raleigh 0.0
ijessewilliams 0.0
acknowledge 0.0
buzzfeed 0.0
puppet 0.0
rehearsal 0.0
billboard 0.0
austria 0.0
sweden 0.0
republic 0.0
grilled 0.0
waltdisneyworld 0.0
katyperry 0.0
ronanfarrow 0.0
measly 0.0
bragging 0.0
treats 0.0
literal 0.0
cooper 0.0
counts 8.29750333817e-05
theellenshow 0.0
basking 0.000106644065024
cookies 0.0
festival 0.000183732798498
amsterdam 0.0
soundcheck 0.0
downloaded 0.0
encouraged 0.0
alright 0.0
jtimberlake 0.0
backstage 0.0
collab 0.0
joined 3.07335525012e-05
issarae 0.0
playlist 0.0
madness 0.0
romantic 0.0
selfies 0.0
exclusively 0.0
disneyland 0.0
refused 5.30761374553e-05
characters 3.98457332388e-05
amazingly 0.0
auction 0.0
express 0.0
gratitude 0.0
sesamestreet 0.0
thegrammys 0.0
throughout 7.92049558636e-05
awkward 0.0
shining 0.0
thrown 0.0
stylist 0.0
fighter 0.0
accepting 0.0
playin 0.0
applemusic 0.0
filmed 0.000336112824361
makeawish 0.0
bieber 0.0
remixes 0.0
toronto 0.0
capitolrecords 0.0
shazam 0.0
anthem 0.0
cosmopolitan 0.0
khloekardashian 0.0
cookin 0.0
songwriters 0.0
reveal 7.28496660536e-05
stands 3.46762032184e-05
spotify 0.0
phvegas 0.0
rocked 0.0
glasses 0.0
iambeckyg 0.0
relive 0.0
acoustic 0.000209839709538
announce 2.90133207269e-05
although 8.14326338586e-05
isaacfromct 0.0
shampoo 0.0
interactive 0.000110946675267
todayshow 0.0
haters 0.0
appreciation 5.41372963757e-05
floating 5.83815005136e-05
shondarhimes 0.0
showtime 0.0
premiere 4.07163169293e-05
broadway 0.0
makeup 0.0
starring 0.0
newest 0.000161357925905
designed 0.000154145105374
arianagrande 0.0
aladdin 0.0
swaggy 0.0
owning 0.0
producer 0.0
legendary 3.99682566854e-05
jasmine 0.0
costumes 6.38170508877e-05
square 0.0
emojis 0.0
jessica 0.0
magical 4.68562122958e-05
thedoctorluke 0.0
thirsty 0.0
therealjuicyj 0.0
symbols 0.0
privilege 0.0
spiral 7.20789344944e-05
retrograde 0.0
footage 0.00044927525607
theirs 0.0
universes 0.0
remembering 0.0
floated 0.0
construction 0.0
consciousness 7.12039860824e-05
delights 0.0
explodes 0.0
submissions 7.44108637683e-05
pleased 0.000164911162736
shredding 0.0
filters 6.83629601734e-05
weasel 0.0
reflective 0.0
firework 0.0
islands 0.000957255763315
interstellar 0.0
bubble 0.0
customs 6.47949594096e-05
festive 0.0
window 7.32777111058e-05
senator 0.0
slightly 4.31053903504e-05
therealbuzz 0.0
printing 0.0
snowflake 0.0
applications 0.00017212185136
elephant 5.54733376336e-05
fifteen 0.0
editions 0.0
newspaper 0.0
rainbow 0.000102160789817
unlimited 0.0
sirius 0.0
matthew 0.0
affected 0.0
capturing 0.0
canyon 0.0
rivers 0.0
spoken 0.0
accidentally 0.0
bizarre 0.000103719258604
dolphin 0.000157330300367
successfully 0.000164389107689
liquid 0.000312850587533
graffiti 0.0
swallowing 0.0
messenger 7.75316153886e-05
heroes 0.0
disturbing 0.0
graduates 0.000209839709538
rewrite 7.49046120057e-05
describe 0.0
hollywood 7.34931193993e-05
equality 0.0
announcement 3.20392681599e-05
breakout 0.0
dreaming 0.0
animation 0.0
calendar 0.0
circling 0.0
garden 7.45843433008e-05
enhanced 0.0
journalists 0.000178746866534
stirring 0.0
nominations 0.0
yelling 0.0
teachers 8.93734332669e-05
chapter 4.16184013547e-05
napoleon 0.0
aliens 6.05276392926e-05
subjects 0.00028143481088
revolution 0.0
mountains 0.000179103119059
wonderland 0.0
storage 6.58127934343e-05
crystals 0.0
circuit 0.000135964578193
invitation 5.24604649104e-05
kettle 0.0
adjective 0.0
woodpecker 0.0
operate 6.99465698459e-05
exhibition 0.0
learnt 0.0
nomination 0.0
madonna 0.0
questioning 0.0
unplug 0.0
initiatives 0.0
switzerland 0.0
represents 5.12729323225e-05
throat 0.0
touchdown 0.000126998845511
desire 0.0
forced 3.83054092199e-05
swedish 0.0
hundred 0.000210656018324
prompts 0.0
rainbows 0.0
creates 0.0
oxford 5.61692005983e-05
balloons 7.20789344944e-05
liverpool 5.97010396862e-05
recreate 0.0
glorious 0.000192745251078
newton 0.0
creature 0.000295706813935
finalist 6.54688780342e-05
scouts 0.0
treading 0.0
tragedy 0.0
nottingham 0.0
debacle 0.0
legends 0.0
noises 0.0
addiction 0.0
survived 4.9955385835e-05
idioms 0.0
greeted 0.0
basics 0.0
masses 0.0
confirm 4.05900712358e-05
cadence 0.0
spaghetti 0.000147853406968
prepare 0.000110890121577
calendars 0.0
narrative 0.0
application 0.0
octopus 0.000260471111645
drumming 0.0
bloody 0.0
confetti 0.0
translate 0.0
birmingham 0.0
singles 0.0
completes 0.0
laptop 5.59350817777e-05
obvious 0.0
darling 0.0
deserving 0.0
miller 0.0
ordered 3.67465596997e-05
feelin 0.0
alicia 0.0
picasso 8.76412679848e-05
recipe 0.0
alphabetical 0.000106644065024
butterfly 0.0
timothy 0.0
mancini 0.0
untold 0.0
directed 4.26909740868e-05
hacked 0.0
admits 5.47963692296e-05
clocks 0.0
nugget 0.0
cnnopinion 0.0
grabbed 0.0
russia 3.87693011349e-05
surprises 9.53583476765e-05
waterfalls 0.0
olympic 0.0
magnificent 0.0
casual 0.0
assume 4.09707423125e-05
relief 4.14875166908e-05
subscribe 0.0
landslide 0.0
telegraph 5.89009666194e-05
standby 0.0
admitting 0.0
complacency 0.0
voices 4.03394814762e-05
sounding 0.000279675408889
douglas 5.57031408382e-05
democracy 0.0
locals 6.76073426145e-05
gossip 0.0
nickname 6.38170508877e-05
subtle 0.0
embarrassed 5.37073982915e-05
ireland 0.000177566570098
mornings 6.25701175065e-05
democratic 0.0
impressions 7.25281983824e-05
outgoing 0.0
treasury 6.44647099299e-05
refugees 0.0
unveiling 0.0
listing 0.0
deliver 0.000356422301386
negotiating 0.0
roller 0.0
prosperous 0.0
desperate 0.0
acknowledgement 0.0
executive 0.0
republicans 0.0
weapons 0.0
dropping 7.54748480791e-05
meaningful 0.0
nightmare 0.0
goodies 0.0
scandalous 0.0
rhetoric 0.0
divisive 0.0
vision 3.69633738589e-05
confirmation 0.0
throne 0.0
records 0.000113549972077
quoting 0.0
impatient 0.0
refugee 0.0
texted 0.0
exposed 0.0
stoked 0.000113770086393
priority 0.0
freedoms 0.0
notorious 0.0
empowering 0.0
unconstitutional 0.0
turkish 0.0
concerned 0.0
realdonaldtrump 0.0
goodwill 0.0
imagined 0.0
belfast 0.0
sleeve 0.0
basement 0.0
preposterous 0.0
griffith 0.0
timeless 0.0
truman 0.0
intended 0.000158607658483
inappropriate 0.0
industries 0.0
responsibility 8.21978704977e-05
documentaries 8.45205163645e-05
vulnerable 0.0
respectful 0.0
markets 0.0
claire 0.0
nuggets 0.0
boards 0.0
sequins 0.0
capitol 0.0
technical 0.000104517146704
applying 6.13825849187e-05
guitar 0.0
donating 0.0
continually 0.0
norway 5.59350817777e-05
applause 0.0
ballot 0.0
finely 0.0
shakes 0.0
varied 0.0
proverb 8.84865513472e-05
vibrant 0.0
flower 0.0
survives 8.04683553162e-05
fierce 0.0
shopped 0.0
sincerely 0.0
apology 0.0
sweaty 0.0
conspiracies 0.0
climbing 0.0
relaxed 6.28760535068e-05
encourage 0.000169673897686
funnyordie 0.0
essentials 7.75316153886e-05
jimmykimmellive 0.0
rejectedjokes 0.0
protesting 0.0
releasing 0.0
cleaner 6.72379510997e-05
preferred 0.0
incarceration 0.0
jkcorden 0.0
koppel 0.0
bikini 0.0
transparency 5.45747369152e-05
kamalaharris 0.0
nutshell 0.0
walled 0.0
floored 0.0
plotting 0.0
gandhi 8.60320986266e-05
vilify 0.0
meditate 0.0
violent 5.20583034305e-05
preschool 0.0
rhythm 7.16376225985e-05
matching 0.0
senwarren 0.0
venezuela 0.0
candle 0.0
donates 0.0
peacefully 0.0
chelseahandler 0.0
experiencing 0.0
sarabareilles 0.0
haunting 0.0
constitution 0.0
explode 6.61615189958e-05
deeper 0.000159228412366
empathy 0.0
mrgaryhuang 0.0
scored 0.0
charitable 0.0
perfume 0.0
giraffe 0.0
noticing 0.0
noodle 0.0
wrongly 0.0
marshmallow 0.0
fraudulent 0.0
everytime 6.51296419005e-05
helluva 0.0
therapists 0.0
tangible 0.0
sarahksilverman 0.0
johnfugelsang 0.000190749013915
exceptional 0.0
miracle 0.0
avocado 0.0
snacks 0.0
spelled 0.0
parental 0.0
superbowl 0.0
shoulders 0.0
valentine 0.0
glitter 0.0
stocking 0.0
poehler 0.0
thumbs 0.0
tinatbh 0.0
educational 5.99735393516e-05
voicemail 0.0
thetweetofgod 0.0
esteem 0.0
teaches 0.0
goodbye 3.92419877313e-05
reminding 0.0
supplies 0.0
ryanseacrest 0.0
okmagazine 0.0
shoots 0.0
bowing 0.0
jennyslate 0.0
craigyferg 0.0
masterpiece 0.0
sneaky 0.0
nashville 0.0
chronicles 0.0
potato 0.0
freakin 0.0
perezhilton 0.0
unethical 0.0
paparazzi 0.0
mantra 0.0
consuming 9.32050112952e-05
unauthorized 0.0
vanityfair 0.0
stalking 0.0
shoulda 0.0
yeppers 0.0
sacred 0.0
existed 0.0
earned 8.82000393078e-05
woulda 0.0
ellenpage 0.0
choker 0.0
contribute 5.20583034305e-05
mustache 0.0
washes 0.0
creeps 0.0
champion 0.0
auntie 0.0
magazines 0.0
waited 5.22585733522e-05
conscious 0.0
cracker 0.0
denmark 6.38170508877e-05
potion 0.0
windex 0.0
scarfing 0.0
ladygaga 0.0
purposely 0.0
pretending 0.0
luckiest 0.0
mascara 0.0
tastes 0.0
gardening 0.0
leashes 0.0
hippie 0.0
womensmarch 0.0
reunited 0.0
clique 0.0
premiering 0.0
rollingstone 0.0
childrensla 0.0
dollywood 0.0
godmother 0.0
eltonofficial 0.0
vmagazine 0.0
donorschoose 0.0
yesssssss 0.0
bettemidler 0.0
rehearsing 0.0
trevorproject 0.0
unicef 0.0
ellemagazine 0.0
yasssss 0.0
acceptance 0.0
solidarity 0.0
pharrell 0.0
greece 0.0
papermagazine 0.0
johnmayer 0.0
lipstick 0.0
tumblr 0.0
coldplay 0.0
colorful 0.0
translifeline 0.0
newsstands 0.0
feminist 0.0
pitchfork 0.0
labels 0.0
jenner 0.0
arkansas 0.0
beanie 8.68237038817e-05
sparkly 0.0
moschino 0.0
britneyspears 0.0
itsjeremyscott 0.0
nickiminaj 0.0
appstore 0.0
poetry 0.0
puttin 0.0
rubbed 0.0
shrine 0.0
skyferreira 0.0
freaking 0.0
besties 0.0
chanel 0.0
bedazzled 0.0
rubber 0.000126371580103
kendricklamar 0.0
popstar 0.0
sosadtoday 0.0
copenhagen 0.0
lenadunham 0.0
wearin 0.0
stoned 0.0
facetime 0.0
barclays 0.0
meditation 0.0
harpersbazaarus 0.0
stared 0.0
ritual 0.0
iconapop 0.0
doubted 0.0
staples 0.0
anaheim 0.0
jingle 0.0
tacoma 0.0
rehearsals 0.0
treadmill 0.0
metamorphosis 0.0
dental 0.0
jodyhighroller 0.0
versace 0.0
werking 0.0
couture 8.52648543615e-05
eggplant 0.0
bangin 0.0
cardigans 0.0
obnoxious 0.0
bestie 0.0
teganandsara 0.0
barrel 0.000139893139692
dedicating 0.0
jefferson 6.76073426145e-05
pumpkin 5.7622046741e-05
derekblasberg 0.0
glamourmag 0.0
presale 0.0
mtvstyle 0.0
deluxe 0.0
mtvema 0.0
reggae 0.0
azealiabanks 0.0
nominating 0.0
sailor 0.0
mornin 0.0
itunesmusic 0.0
bananas 0.0
lordemusic 0.0
vietnam 0.0
milwaukee 0.0
neworleans 0.0
circus 0.0
strolling 0.0
rapids 0.0
collegegameday 0.0
aaaaand 0.0
godfather 0.0
bestow 0.0
allison 0.0
rockthevote 0.0
birbigs 0.0
lucille 0.0
louder 0.0
farmers 0.0
shaved 0.0
niagara 0.0
realmattlucas 0.0
ferguson 0.0
painful 0.0
exchange 0.0
nickkroll 0.0
edmonton 0.0
mickey 0.0
angelenos 0.0
pooping 0.0
located 0.0
onslaught 0.0
finalists 0.0
bumped 6.28760535068e-05
sherlock 0.0
stockholm 0.0
casually 0.0
jjwatt 0.0
itstonybennett 0.0
mariolopezextra 0.0
klgandhoda 0.0
entrance 0.0
calgary 0.0
bowling 0.0
winnipeg 0.0
cheeto 0.0
gloriasteinem 0.0
feather 8.45205163645e-05
nathan 0.0
smelling 0.0
narnia 0.0
llamas 0.0
actuallynph 0.0
mourning 0.0
obsession 0.0
chilled 8.93614997591e-05
medically 0.0
hyperloop 0.0
aussie 0.0
flaring 0.0
eyeballs 0.0
stuffing 0.0
pitched 0.0
condiments 0.0
relatable 0.0
olivia 0.0
painted 0.0
mykonos 0.0
eyebrow 0.0
capitalcities 0.0
jackpot 0.0
hipster 0.0
sweating 0.0
restaurants 0.0
superfan 0.0
restraint 0.0
craziest 0.0
catheter 0.0
delivers 5.39214208177e-05
kanyewest 0.0
paints 0.0
dissect 0.0
billboards 0.0
milano 0.0
bjnovak 0.0
snapping 7.44108637683e-05
croissant 0.0
repjohnlewis 0.0
blklivesmatter 0.0
mydaughtersarmy 0.0
huddled 0.0
yearning 0.0
thereaibanksy 0.0
affordable 0.0
foodie 0.0
colombia 0.0
peeled 0.0
shootings 0.0
playground 0.0
breaky 0.0
photoshoot 0.0
smokin 0.0
accents 0.0
sweats 0.0
postmates 0.0
armband 0.0
unconscious 0.0
maddow 0.0
aquarium 8.52648543615e-05
holler 0.0
photoshop 0.0
robbie 0.0
espnmag 0.0
laundry 0.0
examining 8.04683553162e-05
zealand 0.000220982532471
stuntin 0.0
hehehe 0.0
nostalgia 0.0
buttons 0.0
slaying 0.0
monument 0.0
bringin 0.0
lining 0.0
muchas 0.0
gracias 0.0
madame 0.0
illustrated 0.0
boxers 0.0
grazie 0.0
winters 0.0
plastic 0.00042627829574
unbreakable 0.0
licking 0.0
cheeky 0.0
twerking 0.0
danish 0.0
drummer 0.0
florence 0.0
revoir 0.0
resume 6.05276392926e-05
dodger 0.0
brazilians 0.0
grimezsz 0.0
crocodile 0.0
hahahahahaha 0.0
parisians 0.0
taipei 0.0
taiwan 0.0
bangkok 0.0
uploaded 0.0
manila 0.0
hamburg 0.0
curating 0.0
aaaand 0.0
skating 0.0
brisbane 0.0
googleplay 0.0
raincoat 0.0
glastofest 0.0
vienna 7.39267034838e-05
burning 8.79109547742e-05
jamming 0.0
reaches 0.0
subtitles 0.0
wristband 0.0
barcelona 6.22678899128e-05
credits 5.78726365006e-05
dreamers 0.0
bogota 0.0
bursting 0.0
brunomars 0.0
beyoncé 0.0
subscribers 0.0
unlock 0.0
onedirection 0.0
amazonmusic 0.0
snippets 0.0
preorder 0.0
rehearse 0.0
bahnhof 0.0
delorean 0.0
fragrance 0.0
curate 0.0
samsmithworld 0.0
guitars 0.0
storyline 0.0
registering 0.0
beatsbydre 0.0
panama 0.0
celestial 0.0
orchestra 0.0
finland 0.0
climbed 0.0
topping 0.0
méxico 0.0
vasconcelos 0.0
leicester 0.0
itunesfestival 0.0
pondering 0.0
millennials 0.0
struck 5.05115457976e-05
watermelon 0.0
benefited 0.0
sophisticated 0.0
couples 0.0
villain 6.68739523548e-05
mindful 0.0
catholic 0.0
airline 0.0
secretly 0.0
playlists 0.0
veggie 0.0
receipts 0.0
foremost 0.0
bagpipe 0.0
drifting 8.84865513472e-05
trader 0.0
influenced 0.0
moscow 0.0
cobain 0.0
reaper 0.0
commune 0.0
handshake 0.0
despair 0.0
silicon 0.0
investing 6.22678899128e-05
construct 0.0
garland 0.0
coachella 0.0
offline 7.9251847163e-05
realisation 0.0
payback 0.0
educate 0.0
alliances 0.0
etched 0.0
momentarily 0.0
pronoun 0.0
lenses 0.0
validated 0.0
authenticity 0.0
choreographed 0.0
pokemon 0.0
disneyworld 0.0
patriotic 0.0
embody 0.0
snickers 0.0
impactful 0.0
refocus 0.0
eminem 0.0
mahatma 0.0
ecstatic 0.0
snfonnbc 0.0
avenue 0.0
picchu 0.0
doubters 0.0
beverly 0.0
intensity 0.0
outtake 0.0
temple 0.0
purchased 0.0
fountain 0.0
punched 0.0
goldfish 0.0
comparable 0.0
buyers 0.0
barbara 0.0
corybooker 0.0
listens 0.0
timeout 0.0
inducing 0.0
signage 0.0
penthouse 0.0
ahahaha 0.0
phenom 0.000106644065024
brilliantly 0.0
siphoning 0.0
herstory 0.0
prostitute 0.0
survivors 0.0
courageous 0.0
cruelty 0.0
margot 0.0
xenophobic 0.0
mcginley 0.0
yorkshire 7.98526827713e-05
chants 0.0
alancarr 0.0
chained 0.0
skillz 0.0
debunked 0.0
floods 0.0
fleetwood 0.0
cheesecake 0.0
adidas 0.0
uneven 0.0
raging 0.0
connections 5.83815005136e-05
headlining 0.0
devhynes 0.0
charli_xcx 0.0
shawnmendes 0.0
tavitulle 0.0
bahjournalist 0.0
tyleroakley 0.0
marquee 0.0
grease 0.0
screenshots 0.0
ddlovato 0.0
chattyman 0.0
grimmers 0.0
vevo_uk 0.0
bonniemckee 0.0
electrifying 0.0
idolator 0.0
onairromeo 0.0
godven 0.0
lookie 0.0
preordered 0.0
elvisduran 0.0
shanghai 7.25281983824e-05
tripped 0.0
konnichiwa 0.0
etnad_olegnad 0.0
unannounced 0.0
swedes 0.0
cinderella 0.0
slipper 0.0
jessesaintjohn 0.0
adorbs 0.0
onesies 0.0
jahnsuxx 0.0
walgreens 0.0
aphrodite 0.0
danceonfox 0.0
difficulties 0.0
mermaids 0.0
antique 0.0
girlshbo 0.0
yaaaaasss 0.0
lifesaving 0.0
queens 0.0
yaaaas 0.0
rollin 0.0
bestest 0.0
cleanse 0.0
iamtovelo 0.0
glamour 0.0
emelisande 0.0
lashes 0.0
austrian 0.0
magritte 0.0
misogynoir 0.0
litter 0.00077428888764
spiritual 0.0
preaching 0.0
adelaide 0.0
sheffield 8.10996161524e-05
impending 0.0
starve 0.0
excess 0.0
conciousness 0.0
vitamins 0.0
generator 8.45205163645e-05
purposefully 0.0
profiles 6.79822890967e-05
petals 0.0
persist 0.0
alexis 0.0
covergirl 0.0
sneezed 0.0
cushion 0.0
demconvention 0.0
directv 0.0
flo_tweet 0.0
billclinton 0.0
grounded 7.25281983824e-05
sunrise 6.38170508877e-05
fightin 0.0
sagekotsenburg 0.0
pwease 0.0
sadder 0.0
waterfall 0.0
sighting 0.0
firsts 0.0
muller 0.0
burritos 0.0
bungee 0.0
potting 0.0
dipping 0.0
closets 0.0
scratched 0.0
decorating 0.0
summers 0.0
havana 0.0
fresher 0.0
mowing 0.0
invading 0.0
addict 0.0
aesthetics 0.0
footwear 0.0
protector 0.0
hammock 0.000103314663891
repurpose 0.0
mishap 0.0
hamster 0.0
cellar 0.0
groove 0.0
mentored 0.0
exaggerate 0.0
scraping 0.0
apropos 0.0
trolled 0.0
jonlovett 0.0
rheabutcher 0.0
sickening 7.69836049509e-05
flustered 0.0
compiled 0.0
shirley 0.0
subtweet 0.0
pantsuit 0.0
patting 0.0
atrocious 0.0
amoeba 0.0
platter 0.0
aficionado 0.0
bearer 0.0
manifest 0.0
transformation 0.0
thighs 0.0
tapper 0.0
foaming 0.0
sophie 0.0
sabbath 0.0
vibrations 0.0
nutella 0.0
wilder 0.0
distractions 0.0
stripping 0.0
downloading 0.0
judith 9.42661702157e-05
crossroads 0.0
parsons 0.0
stella 0.0
narcissism 0.0
fawcett 0.0
trainers 7.69836049509e-05
surrounding 6.22678899128e-05
longtime 0.0
frosting 0.0
laurent 0.0
savory 0.0
acupuncture 0.0
cancelling 0.0
nutcracker 0.0
ballet 0.0
tempura 0.0
burner 0.0
voguemagazine 0.0
lagged 0.0
cuttlefish 0.000112657072222
passwords 0.0
funfetti 0.0
anagasteyer 0.0
gabbana 0.0
budapest 0.0
montage 0.0
crowns 0.0
scheduling 8.04683553162e-05
possessed 0.0
syncing 0.0
creatively 0.0
hieroglyphics 0.0
halftimes 0.0
floppy 0.0
nessie 0.0
feathers 0.0
kaceymusgraves 0.0
roaring 0.0
rightful 0.0
balconies 0.0
prodigy 0.0
raquin 0.0
gianni 0.0
monsieuradi 0.0
drowned 0.0
tropicana 0.0
diesel 0.0
shabbat 0.0
voiceless 0.0
passover 0.0
elevating 0.0
traumatic 0.0
dreamer 0.0
iwillharness 0.0
classrooms 0.0
eligibility 0.0
counselors 0.0
wainwright 0.0
moveon 0.0
runaway 0.0
baghdad 0.0
zaralarsson 0.0
snooze 0.0
iggyazalea 0.0
harviikills 0.0
bolognese 0.0
babysitting 0.0
mohegan 0.0
hooters 0.0
crusts 0.000123926630289
tracksuit 0.0
cupcake 0.0
xfactor 0.0
vitamin 0.0
lichtenstein 0.0
concourse 0.0
hitchcock 0.0
teller 0.0
pastels 0.0
remnants 0.00010492383325
banger 0.0
lyrically 0.0
boogers 0.0
ritaora 0.0
bumpin 0.0
dabbed 0.0
sleepin 0.0
tinashe 0.0
octaviaspencer 0.0
linder 0.0
musicallyapp 0.0
scavenger 0.0
sanging 0.0
corinthians 0.0
hollywoodbowl 0.0
kraken 0.000115033485846
discontinue 0.0
cypress 0.0
schooling 0.0
maritime 0.000108491834013
narration 0.0
zeitgeist 0.0
sampler 0.000352981467686
pseudo 0.0
bangladesh 0.0
hungary 0.0
mumble 0.0
sisterhood 0.0
soulful 0.0
lennykravitz 0.0
londontown 0.0
andradaymusic 0.0
lipsticks 0.0
realization 0.0
unconditionally 0.0
wildfire 0.0
goldie 0.0
minnie 0.0
solitude 0.0
waddle 0.0
westworldhbo 0.0
statuesque 0.0
uncasville 0.0
demented 0.0
skyway 0.0
twentyonepilots 0.0
rejoicing 0.0
clenching 0.0
adelphia 0.0
entirety 0.0
redhourben 0.0
lakewood 0.0
drjillstein 0.0
entail 0.0
whammy 0.0
smokers 0.000195501841162
gobble 0.0
topshop 0.0
cleowade 0.0
mkives 0.0
sweetbabayjamie 0.0
marchesafashion 0.0
hamsters 0.0
gurrrl 0.0
sofifii 0.0
sumthin 0.0
nicomiz 0.0
maisonvalentino 0.0
coziest 0.0
accessorize 0.0
thejgold 0.0
peruvian 0.0
amazeballs 0.0
sendin 0.0
fantabulous 0.0
timelines 0.0
regina 0.0
slovakia 0.0
graves 0.0
embracing 0.0
larsson 0.0
cullen 0.000101803081629
psychiatric 0.0
officialadele 0.0
butters 0.0
verrrry 0.0
buttered 0.0
winged 0.0
pedialyte 0.0
topanga 0.0
armpit 0.0
kittens 0.0
dueling 0.0
eagerly 0.0
surrealist 0.0
dethroned 0.0
manolos 0.0
señorita 0.0
monterrey 0.0
parque 0.0
retiree 0.0
batches 0.0
reservations 0.0
sickos 0.0
aplusk 0.0
kirkherbstreit 0.0
fanbases 0.0
indexing 0.0
chuckles 0.0
incorporated 0.0
washboard 0.0
earbuds 0.0
pantone 0.0
knotts 0.0
dismaland 0.0
pollock 0.0
iamkidpresident 0.0
mariah 0.0
teevee 0.0
santorini 0.0
appalachian 0.0
sunburnt 0.0
caliente 0.0
juicery 0.0
karlihenriquez 0.0
trillest 0.0
tommorrow 0.0
crumpets 0.0
fishin 0.0
grillin 0.0
jambalaya 0.0
pepperoni 0.0
cashew 0.0
graceland 0.0
pussies 0.0
delicately 0.0
eraser 0.0
choreo 0.0
snatched 0.0
elliptical 0.0
mooore 0.0
unborn 0.0
georgina 0.0
stalkers 0.0
sallykohn 0.0
expectancy 0.0
phillipines 0.0
appstoregames 0.0
wilkinson 0.0
puddings 0.0
loveland 0.0
spaced 0.0
shanny 0.0
dripping 0.0
gerber 0.0
shakey 0.0
weaves 0.0
unbeatable 0.0
linguist 0.0
prosthetics 0.0
battleship 0.0
serotonin 0.0
machiavellian 0.0
girlies 0.0
guangzhou 0.0
debuting 0.0
dissecting 0.0
warped 0.0
luckyjess 0.0
ermahgerd 0.0
fabulousness 0.0
elliegoulding 0.0
activewear 0.0
yelyahwilliams 0.0
prismatic 0.0
evaluations 0.0
skywalk 0.0
sparklers 0.0
palettes 0.0
gemmaanningram 0.0
trueeee 0.0
invisalign 0.0
pounded 0.0
lolgop 0.0
procession 0.0
stanning 0.0
squeals 0.0
continual 0.0
luminary 0.0
cummin 0.0
shaves 0.0
epixhd 0.0
preacher 0.0
boogiecousins 0.0
changers 0.0
autismspeaks 0.0
massaged 0.0
psssssst 0.0
literati 0.0
utilization 0.0
endangerment 0.0
purposeful 0.0
unlabeled 0.0
undiagnosed 0.0
snotty 0.0
gallops 0.0
slovenia 0.0
sequin 0.0
akerlund 0.0
jumbotron 0.0
edibles 0.0
knowles 0.0
caeser 0.0
thehollywoodbowl 0.0
elvispresley 0.0
adoring 0.0
ageist 0.0
thérèse 0.0
confessed 0.0
blackvoices 0.0
patties 0.0
graphically 0.0
wildflowers 0.0
groundhogs 0.0
eataly 0.0
poodles 0.0
hillaryforia 0.0
roadshow 0.0
sweety 0.0
boppin 0.0
bettywho 0.0
johnnywujek 0.0
earring 0.0
itsbennyblanco 0.0
curitiba 0.0
purrfect 0.0
shellback 0.0
chokers 0.0
hairbrush 0.0
hakuna 0.0
matata 0.0
hazing 0.0
mathew 0.0
aegean 0.0
lullaby 0.0
musiciansoncall 0.0
headpiece 0.0
morsel 0.0
whistled 0.0
conquest 0.0
viceland 0.0
lambily 0.0
scalped 0.0
graced 0.0
emblazoned 0.0
hrclosangeles 0.0
kawaii 0.0
glittery 0.0
wonderlandmag 0.0
jumpsmokers 0.0
radiodotcom 0.0
missyfranklin 0.0
pleaaaaase 0.0
lilbthebasedgod 0.0
waaaay 0.0
flossy 0.0
aria_official 0.0
berliners 0.0
matriarchy 0.0
cornered 0.0
limping 0.0
peasant 0.0
feasibly 0.0
waaaaay 0.0
slayyy 0.0
fashionistas 0.0
sangin 0.0
worldstarfunny 0.0
pliers 0.0
babyanimalpics 0.0
mediation 0.0
quests 0.0
aaaaaaah 0.0
honked 0.0
rauschenberg 0.0
whitneymuseum 0.0
lonsdale 0.0
transcendental 0.0
roarin 0.0
facetune 0.0
fausto 0.0
herning 0.0
cazzette 0.0
annnnnnnnnd 0.0
shinier 0.0
giambattista 0.0
katys_teddybear 0.0
gnight 0.0
katheryn 0.0
psychoanalysis 0.0
bckgrnd 0.0
kingman 0.0
gracevanderwaal 0.0
fecking 0.0
ihrcountdown 0.0
stubbies 0.0
xfactor_italia 0.0
aaronpauley 0.0
purity_ring 0.0
scorpios 0.0
ayyyye 0.0
capitalizes 0.0
flamin 0.0
motherfucking 0.0
jingled 0.0
pharrellhat 0.0
ontarioglow 0.0
teached 0.0
umusic 0.0
auroramusic 0.0
dailymendeslife 0.0
soloing 0.0
universalse 0.0
dustinkloeppel 0.0
robynkonichiwa 0.0
charli 0.0
lonelydot 0.0
adamselman 0.0
sorrenti 0.0
offish 0.0
vinoodh 0.0
guitarists 0.0
cocking 0.0
cabbages 0.0
amelia_libman 0.0
flutter 0.0
lolita 0.0
kingladygaga 0.0
breakthecycledv 0.0
howbow 0.0
curveballs 0.0
tamagotchi 0.0
jarryd 0.0
alliseeisgold 0.0
thebroadmuseum 0.0
sarahsowitty 0.0
brillz 0.0
jackgarratt 0.0
markryden 0.0
duffscakemix 0.0
sanrio 0.0
theniceguyla 0.0
trills 0.0
susangkomen 0.0
faustopuglisi 0.0
gurlll 0.0
cheesecakes 0.0
scorpio 0.0
oblivia 0.0
skipmarley 0.0
correcto 0.0
jessirklein 0.0
unpatr 0.0
squish 0.0
greg_wells 0.0
onlyleah 0.0
gittin 0.0
popstars 0.0
krafts 0.0
bouche 0.0
problemo 0.0
wheezing 0.0
patmcgrathreal 0.0
cienega 0.0
thundering 0.0
nastialiukin 0.0
janell 0.0
katelyntarver 0.0
miamoretti 0.0
missoni 0.0
dannymoonsworld 0.0
mrchrismcmillan 0.0
madge_freak 0.0
woridstarcomedy 0.0
ikissedasoldier 0.0
kpezandchez 0.0
perrysoldier 0.0
emilynotchez 0.0
iickmekaty 0.0
basicallyadam 0.0
katysangelegg 0.0
nicolasjebran 0.0
xchadballx 0.0
scott_myrick 0.0
lockoir 0.0
shannonwoodward 0.0
calluses 0.0
chamomile 0.0
trollin 0.0
sleighing 0.0
chestercheetah 0.0
royksopp 0.0
scottsimonswvla 0.0
sirenscaiiing 0.0
slowdownkaty 0.0
chefantoniopark 0.0
garnished 0.0
endive 0.0
mdmolinari 0.0
prezzy 0.0
motioning 0.0
hernameisbanks 0.0
rockcampla 0.0
jenniefinch 0.0
getglucky 0.0
stendhal 0.0
ryanphillippe 0.0
hotncolds 0.0
kpcollections 0.0
katie_wignall 0.0
katysdrugx 0.0
evrenperry 0.0
katycatwendy 0.0
yungskeeter 0.0
sarahhudsonuvs 0.0
mothern 0.0
oliverheldens 0.0
marrymemargot 0.0
katyperrylately 0.0
kewlest 0.0
katyshellokitty 0.0
pqgerry 0.0
rasarioatelier 0.0
anakhouri 0.0
romaneperry 0.0
hot_chip 0.0
agador 0.0
freddietinkles 0.0
cynthialovely 0.0
augustgettyatelier 0.0
tbsnetworks 0.0
ronyalwin 0.0
justinandersoncolor 0.0
mmillerrider 0.0
jpgaultier 0.0
harharharhar 0.0
iikeanangel 0.0
vonnypoo 0.0
jcoopkp 0.0
itzmero 0.0
katysprismlight 0.0
hatérs 0.0
awkwardaya 0.0
katysredskittle 0.0
tiedye_princess 0.0
adelshahal 0.0
marinadiamandis 0.0
samadizayee 0.0
itsslatykaty 0.0
johnlordperry 0.0
nuggetperry 0.0
kthnkzbye 0.0
teamkpbrasil 0.0
twenagedream 0.0
ashleyegreer 0.0
perryllover 0.0
perry_slays 0.0
_andresgalvis 0.0
poplitics 0.0
likerotica 0.0
sweetxjaureguix 0.0
jessiambriz 0.0
perryncolds 0.0
pwideawake 0.0
brunastrait_ 0.0
anafalqueto 0.0
pessoalmente 0.0
mark_hodson_ 0.0
sumtxkid 0.0
arpoador 0.0
katysmychampion 0.0
amnattg 0.0
osullivanluke 0.0
stephiruth 0.0
katy_pizza_bae 0.0
kpcatt 0.0
pedroeugeniio 0.0
gugs_prismatic 0.0
zeeusmtz 0.0
legendarycold 0.0
robynxkatheryn 0.0
écouter 0.0
energyberlin 0.0
karysjones 0.0
lilzariya 0.0
puroland 0.0
pavlovitz 0.0
dreamhampton 0.0
prismsperry 0.0
perrysmic 0.0
focusonreid 0.0
tonyatalterian 0.0
makeup_man 0.0
wtfkates 0.0
sella_sandra 0.0
katycute_ 0.0
caitsperry 0.0
katyperryforum 0.0
radiantjareau 0.0
lillysgomez 0.0
katycatsweden 0.0
perryicecream 0.0
xamyrosex 0.0
wtvrlara 0.0
bijanstephen 0.0
ameliashowalter 0.0
screamkng 0.0
tvmcgee 0.0
liiife 0.0
itskatcombs 0.0
yaaaaaasssssssssss 0.0
katysmyhabibi 0.0
skottpeace 0.0
ferras 0.0
kweens 0.0
habibi 0.0
orlandobloom 0.0
huckchinn 0.0
katycatkenzie 0.0
matarazzo 0.0
fkatwigor 0.0
perryschild 0.0
hotxcolds 0.0
maddisonxperry 0.0
akaruikaty 0.0
chillinlaidback 0.0
erryone 0.0
chrisanokute 0.0
beyelite 0.0
kuntyewest 0.0
chiroprac 0.0
katyperryrises 0.0
godneybjs 0.0
liquoronurlips 0.0
katystumblrr 0.0
holiestkaty 0.0
hollykittykaty 0.0
katysprincess 0.0
katysdonut 0.0
carlythekatycat 0.0
katycatsophia 0.0
fridaaperry 0.0
iegendarylovers 0.0
katycatveronica 0.0
katyperryslave 0.0
hakimkharbouch 0.0
keonovak 0.0
plaaaaay 0.0
scatting 0.0
shotted 0.0
dizzycoco 0.0
fkinsnapss 0.0
junkygs 0.0
ミニチュア料理 0.0
エビフライとエビ天 0.0
adidasboosts 0.0
lilithia 0.0
cottoncandizzle 0.0
ultimatebeyhive 0.0
paramorewebnews 0.0
royale_lala 0.0
musicnews_feed 0.0
katyperryextra 0.0
greeniight 0.0
gagas_illusion 0.0
lesbiyonce 0.0
blurryhface 0.0
lordofgiraffex 0.0
ifuseekamy_ 0.0
legendarymalek 0.0
hausoframez 0.0
unstan 0.0
chioekardashian 0.0
theiife 0.0
handstomyseif 0.0
legendarylovers 0.0
gagas_fandom 0.0
thinagedream 0.0
conditionalbabe 0.0
dannysuschrist 0.0
prismdluxe 0.0
herwonkeye 0.0
camilasviews 0.0
gagalovesbey 0.0
shadykatyfacts 0.0
limalimoncia 0.0
heavymetaiovers 0.0
katyscrush 0.0
waikingonair 0.0
eduardo_katycat 0.0
katyswetdream 0.0
katherynsgod 0.0
katystddbr 0.0
katyboobies 0.0
royaityler 0.0
nothingfaiis 0.0
kathrynluck_ 0.0
prismaticiights 0.0
mendesperry 0.0
katycatghita 0.0
mark_katycat 0.0
iwasdivine 0.0
skywaterr 0.0
xjojospearsx 0.0
alwaysbeperry 0.0
skoglyrihanna 0.0
legendarydurk 0.0
halseysfirework 0.0
rainbowspatrick 0.0
katysfood 0.0
honeymoonprism 0.0
onepulsetony 0.0
butcha 0.0
okurrr 0.0
the_mpt 0.0
talaofficial 0.0
miniatures 0.0
ohmyjurassic 0.0
katysmoonlight 0.0
lilly_jnes 0.0
coco_ho 0.0
perryhumorr 0.0
yikesjonathan 0.0
rubyrankin 0.0
thealekovski 0.0
cydney_moore 0.0
truebluedeluxe 0.0
thedutchass 0.0
katyskettle 0.0
ferraseu 0.0
katyssunlight 0.0
typosqween 0.0
adoreeeperry 0.0
katyperryfrance 0.0
snowiner 0.0
_coolkatycat 0.0
nicothekatycat 0.0
adorbies 0.0
jackygerardchan 0.0
brewmystew 0.0
katyswildfire 0.0
rihftperry 0.0
theolagu 0.0
ritajoness 0.0
iitsjackie 0.0
mjjperry 0.0
jesuskylie 0.0
holyerotica 0.0
graceofkaty 0.0
redsvelvets 0.0
booyakasha 0.0
tariqterry 0.0
katycatalannah 0.0
taylxre 0.0
pacifyher 0.0
basedkatyperry 0.0
diddleurskittle 0.0
katysanalien 0.0
gagasspace 0.0
tayiorhq 0.0
givenchydress 0.0
augustryder 0.0
perrysmoschino 0.0
kittehn 0.0
katrieber 0.0
legendaryhunty 0.0
katyslegs 0.0
katyfroot 0.0
winesandlines 0.0
sam_incolour 0.0
wakingonair 0.0
drwssinup 0.0
huffdaddysays 0.0
fiwwwwine 0.0
matthewroper 0.0
emmabruhhh 0.0
gingerwesson 0.0
nicholas_sewell 0.0
perfectlyperry 0.0
bustabusta 0.0
mynameisziam 0.0
venuzszfly 0.0
katherynsus 0.0
sacredperry 0.0
thedollsftkaty 0.0
_cafajeff 0.0
debkatycat 0.0
katycats 0.0
eastonjames_ 0.0
oliviabooker_ 0.0
protecti 0.0
outrageousness 0.0
joanneprada 0.0
scuffed 0.0
catoure 0.0
blanged 0.0
tahmorrow 0.0
glukatyperrypop 0.0
jamesjoint 0.0
pressin 0.0
bourree 0.0
honeysuckle 0.0
meowings 0.0
fashun 0.0
happun 0.0
vikander 0.0
thekatyperrypopgame 0.0
karolfabianaros 0.0
nico_thekatycat 0.0
miss_lilyjames 0.0
stylinfunk 0.0
hudsontheband 0.0
jere_my 0.0
crabitat 0.0
tiersz 0.0
unrehearsed 0.0
fanclub_kp 0.0
oneofthesophies 0.0
fusterlandia 0.0
lazyblazy 0.0
katycatchloe 0.0
figali 0.0
prismaticness 0.0
titicaca 0.0
ancientaliens_ 0.0
sneezin 0.0
cristos 0.0
mallman 0.0
prismaticlife_ 0.0
ravensuxx 0.0
perrypositive 0.0
derkwhore 0.0
alekjandro 0.0
havss_ 0.0
hqzaynmaiik 0.0
thique 0.0
bbhmms 0.0
jkatharineb 0.0
jennyformica 0.0
tiiiiiight 0.0
ikissedagay 0.0
harryvuitton 0.0
aeschleahd 0.0
princessjavonda 0.0
errrythang 0.0
kooning 0.0
sugarray 0.0
empaths 0.0
goldenboyz_inc 0.0
voguejp 0.0
chickenwingguardingthemimosa 0.0
katyperrypopup 0.0
unmeasurably 0.0
transviolet 0.0
beauteous 0.0
katyskidrauhl 0.0
thooooooseee 0.0
clairesstores 0.0
nailsbymh 0.0
katysacutie 0.0
psychokatycat 0.0
kaceymusgrave 0.0
refueled 0.0
hyungsunju 0.0
okuurrrr 0.0
cholewheeler 0.0
leftshark 0.0
momchella 0.0
crotches 0.0
hookedondolls 0.0
fyuseapp 0.0
mogonoloball 0.0
atletica 0.0
katycatsclub 0.0
catacombs 0.0
poppycorn 0.0
cupped 0.0
christiania 0.0
residenz 0.0
lindseyweber 0.0
butterballface 0.0
joshlecash 0.0
myassistant 0.0
swiftschrist 0.0
snowhiteperry 0.0
emmakphughes 0.0
katyslegend 0.0
dansnierson 0.0
scressful 0.0
prismaticwitch 0.0
finnin 0.0
habibis 0.0
mophies 0.0
strongé 0.0
drumkit 0.0
anamanaguchi 0.0
gaultier 0.0
ngvmelbourne 0.0
dukedumont 0.0
legendaryasmyn 0.0
highlarious 0.0
calpurnia 0.0
waaaaait 0.0
mktfah 0.0
fwding 0.0
caseyhoops 0.0
worldstarvlne 0.0
flapfkp 0.0
bettycrocker 0.0
mexxxico 0.0
whhhhhhhhuuuuuutttt 0.0
yelletweets 0.0
gucciqxxn 0.0
luckyladyrebelettes 0.0
junglejulia 0.0
charlottes_web 0.0
istarbucksniall 0.0
katysroaaar 0.0
fiorucci 0.0
whuteva 0.0
sirdavidd 0.0
fudgery 0.0
bizquick 0.0
itsgrandtheft 0.0
grandtheft 0.0
katysfancy 0.0
ameezyyrush 0.0
mykectown 0.0
itsvalkubus 0.0
walkslikeperry 0.0
iwantperry 0.0
exausto 0.0
selfeh 0.0
aquaberry 0.0
sidepiece 0.0
versacness 0.0
iamleslii 0.0
alocalgyro 0.0
cutina 0.0
theoutslder 0.0
prism_katy_cat 0.0
katyshoodrat 0.0
thestevetisch 0.0
ronysphotobooth 0.0
schlitterbahn 0.0
kpsnosecrinkle 0.0
alwz_katycat 0.0
whykph 0.0
californiagurls 0.0
katycattt 0.0
varicose 0.0
itsbrillz 0.0
perrystiger 0.0
katysmyaura 0.0
paolablancokp 0.0
callmemargot 0.0
indiggynado 0.0
katycat 0.0
anylinden 0.0
kpkillerqueen 0.0
katyslilacwine 0.0
katypvenezuela 0.0
franzikaty 0.0
katherynelperry 0.0
doessss 0.0
katysleftarm 0.0
datingprism 0.0
_smiler_katycat 0.0
kepyterry 0.0
katycat_camille 0.0
vckatyperry 0.0
bowzerjoe 0.0
taishrox 0.0
mütter 0.0
arianperryarian 0.0
lisasigh 0.0
fridiskp 0.0
kevinruda 0.0
katyperrydaily 0.0
wakingupvegas 0.0
marlyins 0.0
drankin 0.0
herkatycat 0.0
luvhudson 0.0
yaeltsairi 0.0
felipinhoofm_ 0.0
renanmarcall 0.0
kariseperry 0.0
emojing 0.0
konnie 0.0
mcperry 0.0
iturnmycanonon 0.0
katycatelysha 0.0
andrewnavs 0.0
katycatkrystal 0.0
lovelyandlaugh 0.0
lampoonians 0.0
perrytuuda 0.0
katymyhaven 0.0
ruletheschool 0.0
cheapandchic 0.0
sically 0.0
crazyforperry 0.0
kpdaily 0.0
getonupmovie 0.0
cutetina 0.0
chimiuzz 0.0
kefali 0.0
joelkefali 0.0
siclly 0.0
mtvother 0.0
lydiaacav 0.0
prismaticperry 0.0
jwujek 0.0
adorbie 0.0
errone 0.0
kaliyah 0.0
katysweirdness 0.0
vinbiodiesel 0.0
katysfxb 0.0
katyspurrfect_ 0.0
shannonmwoodward 0.0
bippity 0.0
boppity 0.0
swiggty 0.0
swoogity 0.0
pizzarella 0.0
firewerk 0.0
katyslayed 0.0
emerald_epelman 0.0
madkatydisease 0.0
mandee 0.0
ohferras 0.0
sarahh 0.0
iaustinhunt 0.0
lanawhore 0.0
spaceykacey 0.0
crazay 0.0
elektrikpeople 0.0
visa_nz 0.0
fvckin 0.0
nathanspicer 0.0
cashcash 0.0
ashish_uk 0.0
xokatic 0.0
turnting 0.0
scorpiomystique 0.0
toddthomasnyc 0.0
kohngallery 0.0
discnt_universe 0.0
dressinkaty 0.0
lee_cook 0.0
bloodshot 0.0
yaddlizc 0.0
elnett 0.0
itsthekatycats 0.0
kelly_moritz 0.0
katyslaykaty 0.0
skintxghtjeans 0.0
socarrer 0.0
errrday 0.0
therealslacker 0.0
wendywild 0.0
welkys 0.0
sohohouse 0.0
selfing 0.0
camiilaruales 0.0
nexxxt 0.0
turrell 0.0
alliexxxxandra 0.0
surfboardt 0.0
telstra_news 0.0
juanitadele 0.0
oopskatycat 0.0
sophkatycat 0.0
katyschild 0.0
katysconverrse 0.0
katycat_leah 0.0
katycatverified 0.0
katycat_libby 0.0
katyswonk 0.0
kittless 0.0
jlrcukp 0.0
siiiiiiiiiiiiii 0.0
ermagherd 0.0
imlynsey 0.0
perrys_cherry 0.0
casemcgase 0.0
hazzaily 0.0
herses 0.0
gaypropaganda 0.0
tixforcharity 0.0
hudsons 0.0
nomers 0.0
mommacat 0.0
superlove 0.0
bonacorso 0.0
levi_leet 0.0
thinkingofbecki 0.0
cybering 0.0
pamyurin 0.0
idreamofkaty 0.0
xfactor_au 0.0
glohudsonperry 0.0
aubreyplzza 0.0
eeshhuhhayniac 0.0
bonkay 0.0
katysbum 0.0
nevillebradley 0.0
curryswift 0.0
zinepack 0.0
katykatt_suraya 0.0
sweetkatybird 0.0
yohkatheryn 0.0
cottoncandykaty 0.0
karolynadiaz 0.0
maayansharvit 0.0
theprismcess 0.0
camisp_ 0.0
lucasgaldin 0.0
prixy_mtz 0.0
niggasperry 0.0
kaksperry 0.0
zennnnaaa 0.0
katyissmurfy 0.0
dadehoward 0.0
kyledsaavedra 0.0
katysdoritos 0.0
pendejabardera 0.0
rosenilsou 0.0
hackensucks 0.0
gottabesheerio 0.0
ismaellgarcia 0.0
milegendz 0.0
alexskarev 0.0
ladycrystalb 0.0
katyspad 0.0
xcallmechrissyx 0.0
arianastylesss 0.0
jorgebaker 0.0
matty_zee 0.0
katycatzilla 0.0
adorie 0.0
meowwdison 0.0
alvin_koopa 0.0
lexyauditore 0.0
kease_it_raw 0.0
katysking 0.0
chris__kirby 0.0
katysbestfrwend 0.0
katyslildancer 0.0
sssshhh 0.0
conorhughess 0.0
tanimura 0.0
thekatycatlife 0.0
weefififookface 0.0
breakalioz 0.0
hudsonhelper 0.0
lariitaa 0.0
meeeeeooooooooowwwww 0.0
legend__dary 0.0
katyandliam 0.0
_theatrekid 0.0
babybritney 0.0
erinlorimer 0.0
_zacmoore_ 0.0
itscezzurryo 0.0
katycatskp 0.0
larissafilipo 0.0
siaylorswift 0.0
shitkittens 0.0
thefrankradical 0.0
katysprism 0.0
katytinalevine 0.0
serjeeoh 0.0
kayz_perry 0.0
katyslaysurfav 0.0
fuckyeahitskath 0.0
sweetyitosan 0.0
pickerington 0.0
verrado 0.0
retweete 0.0
jameswaterhouse 0.0
hunnah 0.0
truth_ispeak 0.0
_emilybarbarrr 0.0
nbllrrr 0.0
jmoneygraves 0.0
eaglenationnews 0.0
tauentzienstrasse 0.0
avontbh 0.0
vinnie_mate 0.0
demilovve 0.0
coolestkatycat 0.0
terri_katycat 0.0
beeeaaatttt 0.0
laurenfrancisco 0.0
victaytayp 0.0
aylajaye 0.0
iloveu 0.0
augustvaz 0.0
lizzievang_ 0.0
edsssss_ 0.0
hhhhhholly 0.0
holly_hickin 0.0
trixxx 0.0
killah 0.0
treasurefingers 0.0
最強ガール宣言 0.0
voykovic 0.0
annunaki 0.0
katyshomie_ 0.0
katyselephant 0.0
caitlynsmith 0.0
lightsperry 0.0
elizagilham 0.0
ohmyjatyfeels 0.0
junglescope 0.0
drunkskaty 0.0
malikpom 0.0
dancerlaurena 0.0
brirad 0.0
elisa_rv 0.0
moooom 0.0
pattymeagher 0.0
iwasemily 0.0
shahrzadphoto 0.0
tvjohnny 0.0
cstonethebreadwinner 0.0
katysrightboob 0.0
cyberdlck 0.0
beatforkaty 0.0
igabriiel 0.0
duuuuddddeeeee 0.0
redrum 0.0
srbuhiii 0.0
kayleighcat 0.0
applekatycat 0.0
ikatycats 0.0
wehryspencer 0.0
emilyjonesphoto 0.0
coxgabe 0.0
drugmoneyx 0.0
steven_drum 0.0
victoriacha 0.0
hashtaggin 0.0
perryandemetria 0.0
katycatfurlife 0.0
iammelissalynn 0.0
qewtie 0.0
yscheecat 0.0
slayty 0.0
katystree 0.0
katherynsboy 0.0
anapurry 0.0
nenedez 0.0
kevinn_perry 0.0
gloria_swag_ 0.0
andyamaziing 0.0
roarsana 0.0
brighthudson 0.0
fixingperry 0.0
roooooooooooooar 0.0
gretschusa 0.0
katys_cupcake 0.0
wonderation 0.0
kasek_craig 0.0
katysgurll 0.0
pepperperry_ 0.0
teamkatyperry 0.0
meandnutella 0.0
lovatokitten 0.0
katyslolly 0.0
astixxx 0.0
ravemomentz 0.0
erzaabrianto 0.0
katyperryindo 0.0
seeingdaisies 0.0
gillian_e_dubbs 0.0
samanthachazene 0.0
perryprism_ 0.0
katycompletesme 0.0
ltskatyperry 0.0
kittenscks 0.0
nihanofficial 0.0
momcat 0.0
kaytehperreh 0.0
__grazi 0.0
clairekatycat 0.0
fangurl 0.0
rrrrrrrrrrrroooooooooooooaaaaaaaaaaaaar 0.0
marispiva 0.0
mattdrobins 0.0
deihemmings 0.0
rooaaarr 0.0
katycatobsessed 0.0
katycatnick 0.0
tigerkats 0.0
kristenanzelc 0.0
taylermckellop 0.0
essesfadaperry 0.0
imjare 0.0
smganonymous 0.0
roaaaar 0.0
phuckyotweet 0.0
evvvvvverrrr 0.0
melvynmarrero 0.0
zouisashton 0.0
trillneyspears 0.0
rooooooar 0.0
fanwars 0.0
fentyncold 0.0
ttish_ 0.0
rachelacogan 0.0
makesmariana 0.0
kkaplon 0.0
rafaelmoncada 0.0
yaaaassssgrl 0.0
oioianna 0.0
katycatrazan 0.0
megaan_katycat 0.0
thekaelynn 0.0
hannahloupunton 0.0
thumbelinafairy 0.0
nic_kathryn 0.0
dannahfields 0.0
rodneybroaddus 0.0
noxisanasshole 0.0
soedesh__ 0.0
hookerofversace 0.0
thinkingofkaty_ 0.0
msgracevalerie 0.0
francfernandez 0.0
katysring 0.0
a_little_spark 0.0
laaxiss 0.0
