awesome 0.00224621095636
christmas 0.000628806490211
trying 0.00056744731974
launch 0.000130458599532
moment 0.000178285899836
wonderful 7.96754150397e-05
seeing 0.000619390266051
hanging 0.000715340829511
sounds 0.000151353255141
recommend 5.2787538983e-05
worked 0.000115060569445
direct 0.0
others 3.81465306473e-05
currently 8.43775736247e-05
better 0.00115780919686
please 0.00103127444525
social 7.94591737149e-05
anxiety 0.0
around 0.000701702543551
people 0.00129814970557
morning 0.00158736496389
traditional 0.0
general 0.0
damage 5.78323554882e-05
everything 0.000493846877656
twitter 0.000282959901528
present 8.03281662989e-05
though 0.000550962004682
friend 0.000709309149675
watched 0.000557727905278
beautiful 0.000835741368809
anything 0.000573599294021
previous 0.0
helped 3.86663198162e-05
updated 0.0
thinking 0.000324394171659
finally 0.000576700749616
caught 0.000119188760572
believe 0.000246258767542
already 0.000738776302626
couple 0.000154246976396
orlando 0.00036043555502
chance 0.000141099107902
meaning 0.0
growing 8.4609541619e-05
probably 0.000267749119738
password 0.000264136571178
changed 3.77361736048e-05
history 3.63365812526e-05
center 9.24689650543e-05
museum 6.12487404168e-05
behind 0.000245595890243
screaming 0.000261027207322
pretty 0.00036043796851
really 0.00162263974087
little 0.000492517535084
happiest 0.0
earlier 4.12744646556e-05
forget 0.000107260306562
someone 0.000533417816511
safety 5.11055768517e-05
program 0.0
things 0.000561362034841
related 0.0
visiting 0.0
available 0.000146527318028
perfect 0.000404038803433
different 0.000107549867629
search 4.71560960803e-05
connect 0.000131867412618
numbers 4.40921756532e-05
person 0.000141479950764
watching 0.00287270205618
exhibit 0.0
passed 4.30088438113e-05
prefer 0.000106521208089
minutes 0.000655824987584
travel 8.62551506389e-05
outside 0.000149322242722
looking 0.00158309207706
forward 0.00119587758594
agreed 0.0
raising 0.000151100745938
listened 0.000335384081201
afraid 4.55907006634e-05
impression 0.0
christian 0.0
profile 9.6479785492e-05
instant 0.0
drawing 6.28809010816e-05
wheels 0.0
favorite 0.00135094227998
picture 7.50655619871e-05
instead 0.00015891834743
appreciate 0.000539510674299
international 4.36065606041e-05
station 0.000198002287438
toddler 0.0
market 0.000142675820202
couldn 0.000293846402497
remember 0.00045857210068
vintage 0.000401940348027
holidays 5.03669153125e-05
friends 0.00127675646942
everyone 0.00116406764019
florida 5.201300141e-05
always 0.00112272406968
months 0.000368300510917
moving 0.000265585265298
meeting 0.000542116806427
answer 7.2282240857e-05
sweetie 0.0
together 0.000212219926146
inside 3.67308003121e-05
section 0.0
missed 0.000214520613124
button 5.85633220768e-05
longer 0.000407148813873
enough 0.000285257439738
driving 0.00112131695831
building 0.000118865395091
enjoying 0.000517530903833
london 0.000587411478846
exploring 0.0
posting 0.000105889039359
amazing 0.00239222802755
attention 0.0
gordon 0.000140075344917
progress 4.89346704431e-05
tomorrow 0.00437407234495
george 0.000219242639788
feeling 0.000221577500605
excited 0.00235712326987
understand 0.000115372437471
following 3.70293989415e-05
asleep 0.00045523826859
learning 8.74546713757e-05
evening 0.0
special 0.000248928314372
secret 3.95143400033e-05
across 0.000118221629282
surprised 0.000126219554912
anymore 0.000269751114638
sophia 0.000115966314759
precious 7.4394907743e-05
rejoice 0.0
version 0.00015592772114
rather 0.000158487193454
avatar 0.0
showing 7.5268659826e-05
saying 0.000110490153275
tweeted 9.32529983993e-05
thoughts 3.7431525145e-05
exactly 0.000267025714531
except 0.000224792595531
getting 0.00179901362575
nothing 0.000740770316484
tweets 0.000116629233078
course 0.000582955544519
photos 4.26550412113e-05
looked 0.000200274767917
difficult 0.000139486019079
stages 0.0
office 0.000228879183884
decisions 0.000213042416177
brought 0.00027361437497
biggest 0.000181682906263
thrilled 0.000322440809324
something 0.000776045093459
closing 0.0
anyone 0.000391173065441
taking 0.000246923438828
recently 0.0
interesting 0.000117901216915
original 8.34572948033e-05
flying 0.00141880087017
happening 0.000192287395785
sometimes 3.88764110259e-05
lessons 0.0
village 0.0
stopped 4.13874603319e-05
yesterday 0.000497856628743
service 0.000116313624501
serious 0.000113208520814
digital 0.0
hoarder 0.000152664254542
wearing 0.000165549841328
british 0.000154216354677
either 3.84574791569e-05
second 0.000177805938837
checking 9.14370309514e-05
indeed 0.0
island 4.99310696185e-05
hearing 0.000354664887847
choose 0.0
staying 0.000143081429111
another 0.0019348903164
clothes 5.85633220768e-05
slowly 0.000127881910692
weekend 0.000572054968329
hashtag 0.0
delivery 0.0
theory 5.78323554882e-05
working 0.00045857210068
bigger 4.13874603319e-05
screen 0.000190775238815
riding 0.000305249786474
laughing 4.18431177387e-05
wanted 0.000320914619705
trends 0.0
stripes 0.00010019466953
clothing 7.52757521788e-05
current 4.16145493265e-05
adorable 0.0
grateful 4.61047776579e-05
friendship 6.90279588271e-05
family 0.000564396431607
listening 0.000502662157611
stream 9.70323100346e-05
expressions 0.0
wedding 0.000267897809713
sharing 4.15008210999e-05
double 7.98923248085e-05
especially 0.0
middle 0.000850363991059
waiting 0.000289128963428
definitely 0.000115685232297
walking 0.000211523854047
account 4.13874603319e-05
completely 4.18431177387e-05
thought 0.000391173065441
reaction 0.0
accept 4.50840474233e-05
simple 8.20991184481e-05
professional 5.2320767657e-05
friendly 0.0
supposed 0.000328232088738
business 0.0
absolutely 0.000113208520814
anywhere 4.70229455328e-05
sending 0.000122812934544
introducing 0.0
congrats 0.00025920579259
beauty 0.0
community 0.0
greatest 0.000424179185088
selfie 0.000158362616949
posted 0.000125185942205
saturday 0.000670137946705
wednesday 0.000297765268051
confused 0.0
expression 0.0
chicago 0.000575589465549
closest 6.7328000794e-05
relationship 0.0
actually 0.000650540167713
easter 9.6479785492e-05
basket 0.0
myself 0.000138703447581
argument 0.0
school 0.000107549867629
thursday 0.000226417041629
selling 0.000192959570984
talented 0.000139094006032
celebrate 7.79638605699e-05
falcon 0.0
celebrating 0.0
contest 0.000137926651572
experiences 0.0
students 0.0
internet 0.00070157644732
figure 0.0
opened 0.000103112711129
featuring 9.16935952385e-05
inspired 0.0
sitting 0.000717078735357
playing 0.00347744572
street 0.000117263303559
points 0.0
memory 4.87946098692e-05
forever 0.000159350830079
imagine 3.93004056382e-05
problem 7.56766275703e-05
played 0.000906365824498
canadian 0.000121704588167
pulling 6.00725925033e-05
keeping 0.000118221629282
lovely 0.000133012581578
dressed 5.69395559872e-05
specifically 0.0
unlike 0.0
disappointed 5.31022059099e-05
otherwise 0.000150227252281
afternoon 0.0001660032844
planned 0.000253302582082
strange 0.0
images 0.0
noticed 0.0
notice 4.78295357034e-05
stretch 6.503403837e-05
inspiration 0.0
letting 0.000130098751723
system 0.00013227652696
possibility 0.0
almost 0.000705495539508
details 7.71234881979e-05
experience 0.000147320204367
living 0.000110490153275
weather 0.000495924521656
normal 0.000283738523216
launching 0.0
before 0.000191249371242
captured 0.0
colors 6.78053568267e-05
monday 0.000331470459825
example 0.0
realize 0.000303963098499
autographed 9.07114989362e-05
sleeping 0.000504620213604
authentic 0.0
science 4.97869826514e-05
tweeting 0.000161094212855
forgot 0.000309502458681
chasing 0.0
gorgeous 0.0
herself 0.0
happens 7.30662742019e-05
silence 0.0
learned 0.000285782604246
congratulations 0.0
natural 5.00757507603e-05
raised 4.61047776579e-05
babies 0.000109770411406
mission 9.56590714069e-05
smelled 0.0
ironic 0.0
testing 0.0
deleted 0.0
barely 0.000184345968637
unforgettable 0.0
forgotten 0.0
trouble 8.72131212083e-05
fantastic 8.3229098653e-05
loving 0.000416145493265
complete 0.0
nearly 0.0
spirit 4.57185154757e-05
launched 5.26312575345e-05
finding 4.31275753194e-05
mercury 0.0
stories 0.000152586122589
including 3.91939256561e-05
mature 9.61969206996e-05
stuffed 0.0
ancient 0.0
bottle 0.00022020752482
somewhere 0.000137926651572
wouldn 0.000152173962209
choice 0.000112902989739
conversation 0.0
making 0.000668416654757
expect 0.000126914312428
occasions 0.0
subject 0.0
flights 0.000572871286816
location 5.53876266109e-05
vacation 0.000189903261803
seriously 0.000194909651425
spending 4.38485279575e-05
groups 0.0
childhood 0.000114945009751
modern 0.0
welcome 0.000106971539902
moments 4.38485279575e-05
degrees 0.000264649098885
jacket 0.000249039636673
halloween 0.000264722598398
costume 0.0
totally 0.000325719051099
laughed 0.0
flight 0.000973009728618
kidding 0.0
regular 0.000104641535314
context 0.0
running 0.000111088196824
finished 0.000337510294499
strong 3.63365812526e-05
tracking 0.0
respond 0.000159781812133
message 0.0
coming 0.000879495598364
thankful 0.000166670135665
cheese 0.000223589387467
greens 8.59688746459e-05
issues 0.000126219554912
intolerance 0.0
happen 0.000215680454973
giving 0.000142628719869
turkey 0.0
excellent 0.0
limits 0.0
common 0.000130819681812
pressed 0.0
situation 4.61047776579e-05
options 0.0
health 0.000249687295959
insurance 0.0
change 0.000141099107902
singing 0.0
august 4.97869826514e-05
crying 0.000111113423777
mental 0.000157427007397
happened 0.000222776995377
demand 0.0
generally 0.0
personal 0.0
beyond 0.000118221629282
bruised 0.0
question 0.000144175187404
chicken 0.000253302582082
reward 0.0
tunnel 0.0
losing 0.000173944799376
respect 7.71234881979e-05
caption 0.0
shouldn 0.000168755147249
visited 5.53876266109e-05
reason 0.000111388497689
simply 4.40921756532e-05
darlin 0.0
audience 0.0
involved 4.10495592241e-05
unhappy 0.0
reality 0.000125873888324
extremely 5.12551938255e-05
without 0.000320050689906
falling 0.00015603900423
countdown 0.0
locations 0.0
timing 6.26726801312e-05
crabby 0.0
classic 0.000216233549957
highly 0.0
online 0.000341466769669
finger 0.000120145185007
animals 5.89345967284e-05
planets 0.0
called 0.000461050947289
delicious 0.0
almond 0.0
compliment 7.05536395099e-05
pictures 8.91692131486e-05
camera 9.22095553158e-05
pillow 0.0
checked 0.000250378753802
heading 0.000461537590522
theater 0.000199871783377
paying 4.58467976193e-05
planning 0.000229233988096
complex 0.0
sunday 0.000874433316778
nights 0.00015603900423
descending 0.0
traffic 0.000105889039359
opposite 0.0
through 9.90011437189e-05
lookout 0.0
reached 0.0
harder 4.90752923836e-05
random 0.000154216354677
changes 0.0
speaking 0.000161533463632
recorded 0.0
washed 0.0
november 4.72897538693e-05
answered 5.5726615984e-05
enchanted 0.0
number 0.000216846722571
adventures 0.0
eclipse 0.0
chocolate 5.40635024039e-05
unless 4.3486199844e-05
calling 3.70293989415e-05
mermaid 0.0
distraction 0.0
levels 5.42263107108e-05
option 0.000102211153703
shopping 0.000321477371656
former 4.43375271928e-05
actual 9.37805967822e-05
covers 0.0
mountain 6.22599091681e-05
friday 0.000643561839371
winner 7.83878513121e-05
closes 7.21486926861e-05
quality 0.0
father 8.03281662989e-05
wishes 0.000183902202096
hourly 0.0
matter 7.56766275703e-05
themselves 0.0
usually 9.40458910655e-05
period 0.0
parents 4.23047708095e-05
balance 0.0
publishing 0.0
mobile 0.000117126644154
woohoo 0.0
bracelets 0.0
summer 0.000190217452761
reminded 6.12487404168e-05
impressed 0.0
necklace 0.0
shutdown 0.0
dinner 0.000974548257123
single 0.000617721881293
packed 0.000231329421953
definition 0.0
energy 0.000125873888324
preview 0.0
monster 6.08522940837e-05
material 0.0
admission 0.0
europe 4.87946098692e-05
holiday 8.12080556254e-05
emotional 5.0808243486e-05
update 8.23236634537e-05
customers 7.61792817797e-05
messing 0.0
holding 4.17286474016e-05
electric 0.0
eating 0.000617290459145
outfit 7.24217300733e-05
picked 4.39701403052e-05
fabulous 0.0
missing 0.000526880618782
surprise 0.000113208520814
officially 0.000576265644176
french 0.0
global 0.0
follow 0.000461050947289
opinion 4.5975550524e-05
backwards 0.0
design 0.000106521208089
secrets 0.0
request 0.0
breaks 0.0
allows 6.63923419535e-05
promoting 0.0
volunteer 0.0
wondering 0.000143897366387
official 0.0
sweater 0.000249761261133
jersey 0.00088964763461
mistake 4.87946098692e-05
france 0.0
proper 0.0
ginger 0.0
peaceful 0.0
lighter 0.0
thinks 0.0
competition 0.0
hospital 0.000308432709355
industry 4.97869826514e-05
trending 0.000175137443274
leadership 0.000110438704594
organized 8.93531953527e-05
showed 0.000133012581578
circle 0.0
success 0.0
ladies 0.0
dreams 9.27293373544e-05
protect 0.0
onesie 0.0
explanation 0.0
control 0.0
coincidence 0.0
discovering 9.11762094012e-05
laying 0.000218922789541
invited 4.96434849987e-05
healthy 4.78295357034e-05
surgery 0.0
allowing 0.0
arrived 0.0
opening 0.00049859580093
popular 4.8239892746e-05
pleasure 8.84292739088e-05
spectacular 6.43741105662e-05
animal 0.000158833559039
luggage 0.000105402004285
wonder 0.000191249371242
matters 0.0
reader 0.0
function 0.0
marketing 0.0
connection 5.74725048754e-05
improves 0.0
benefit 0.0
continues 0.000129026531434
cuddle 0.000105402004285
routine 0.0
exciting 0.000296133395666
corner 0.0
imagination 0.0
sangria 0.0
mystery 0.0
spring 9.01680948466e-05
beautifully 6.97825067724e-05
places 8.41463699416e-05
feedback 0.0
continue 0.000122144644162
attend 0.0
creative 0.0
memories 0.000192959570984
female 4.70229455328e-05
grandma 0.0
closer 0.000132643910863
accent 0.0
beginning 0.0
sooner 0.0
everywhere 8.41463699416e-05
scenes 8.99170382125e-05
bought 0.000258765451917
wishing 0.000153316730555
discovered 0.0
remove 0.0
predict 0.0
parrot 0.0
several 0.0
teacher 0.0
passing 0.0
become 7.36601021833e-05
spread 8.05471064277e-05
netflix 0.000117126644154
season 0.0010496630977
putting 0.00025920579259
weight 5.4885205703e-05
outfits 9.21245138094e-05
notification 0.0
annoying 0.000276111835308
necessity 0.0
knocks 0.0
processed 0.0
necessarily 0.0
effects 0.0
lighting 7.80592918701e-05
headed 0.000233132495998
returns 0.0
expected 0.0
bucket 6.63923419535e-05
constantly 6.503403837e-05
sweetest 0.0
struggling 0.0
register 0.0
transition 0.0
flowers 0.0
sprain 0.0
savage 0.0
somebody 0.0
covering 0.0
gloves 8.14354646141e-05
repeat 0.000147649440626
managers 0.0
brothers 0.0
patriots 0.0
seahawks 0.000191322518996
player 0.000147649440626
chemistry 0.0
moonlight 0.0
comment 4.54633497897e-05
columbia 0.000170342902133
physical 5.87484682963e-05
kingdom 0.000228537845339
pretend 0.0
charles 0.0
fighting 0.0
rooting 0.00021166091853
donald 0.0
mexico 0.000101913190392
police 4.54633497897e-05
represent 5.96891446737e-05
president 0.000235163553936
talking 0.000282959901528
unbelievable 0.0
shrimp 0.0
giants 0.000204867891864
conference 4.37273356879e-05
america 7.50655619871e-05
everybody 8.6972399688e-05
houston 0.00018021777751
everyday 0.000650984759884
michael 0.000119513122559
protecting 6.28809010816e-05
unconditional 0.0
million 0.000111088196824
election 0.0
telling 8.01099071669e-05
correct 9.09266995794e-05
pulled 0.000211778078719
starbucks 0.0
americans 4.90752923836e-05
killed 7.86008112764e-05
cowboys 0.0
cowboy 8.76202442503e-05
coverage 0.0
dallas 0.000174587805568
coffee 8.89216987672e-05
timeline 0.0
refuse 6.33010872676e-05
barackobama 0.0
hillary 0.0
clinton 5.76519688328e-05
gatorade 0.0
sharper 0.0
american 0.000262020676015
deserved 0.0
realist 0.0
illegal 0.000117496936593
arizona 0.000837390081269
waffle 0.0
scared 0.00010341582285
pieces 0.0
taught 0.000832208022561
golden 4.75586067342e-05
straight 0.000234526607117
massage 0.000382645037993
filter 0.0
answers 4.54633497897e-05
smoking 0.0
created 4.24211394972e-05
beside 0.0
worlds 0.0
record 0.000147320204367
freddie 0.0
africa 0.0
recruiting 0.0
journey 4.58467976193e-05
snapchat 0.0
brother 0.0
prayers 0.0
trolling 0.0
hungry 0.000227054761279
nflnetwork 0.0
documentary 0.0
boston 0.000101913190392
addition 0.0
church 0.000107159123885
honestly 0.00020146766125
lounge 0.000248647437178
lifetime 0.0
captain 0.0
favorites 6.26726801312e-05
country 0.000364347215324
valley 6.00725925033e-05
huddle 0.0
dressing 0.000205601381811
finish 8.67325011488e-05
favourite 5.69395559872e-05
prayer 7.80592918701e-05
nominated 0.0
praying 0.000144843460147
insane 0.00104333094139
national 0.000228879183884
reform 0.0
shooting 0.000220460878266
australia 0.000104641535314
deserve 8.64934199827e-05
legend 0.0
mother 0.000786008112764
realest 0.0
creating 4.85161550173e-05
powerful 4.30088438113e-05
chilling 0.000148789815486
wisdom 5.94989809173e-05
breaking 0.000303526017483
parked 9.95949091615e-05
angeles 0.00135187043667
dollars 0.0
questions 0.000252987842999
racist 6.35130826388e-05
girlfriend 0.000297579630972
performance 0.000244956517925
refreshing 0.0
educated 0.0
reading 0.000112294575435
denver 0.000295278915369
videos 0.000227316748949
harmony 0.0
create 0.0
jordan 0.000122897312425
admire 0.0
nobody 0.000129740129974
government 5.2787538983e-05
politics 9.9862139237e-05
paradise 7.71066959657e-05
recover 0.0
spotted 0.0
blessing 0.0
coolest 0.00018739706289
banana 0.0
donate 4.75586067342e-05
sandwich 0.000327404943548
lookin 0.0
method 0.0
bullshit 0.0
slight 8.25150921719e-05
bringing 0.0
deserves 0.0
regret 6.20553305875e-05
celebs 9.07114989362e-05
victim 0.0
stadium 5.96891446737e-05
funniest 6.43741105662e-05
according 0.0
pumped 0.000351473537534
hamburger 0.000127020973352
heaven 0.000391281428067
honest 4.38485279575e-05
rolling 5.29445196797e-05
became 0.0
feature 4.83777519692e-05
waking 0.000204867891864
breakfast 0.000354700217542
counting 5.00757507603e-05
signing 0.0
adding 5.58973468668e-05
awareness 5.05134087495e-05
kindest 0.0
trainer 9.02528632919e-05
facebook 0.000528306430467
insanity 0.0
repost 0.0
brazilian 9.16471577767e-05
campaign 0.0
borrow 0.0
scorpion 0.00070623384118
popcorn 0.0
factory 0.0
teenage 7.74213628926e-05
endorsement 0.0
williams 0.0
custom 0.000141628993351
drinks 6.30903651496e-05
future 0.000181682906263
angels 0.0
fingers 0.000273596591339
sister 0.000142271768338
earrings 0.0
warrior 0.0
dancing 0.000346504003016
voting 8.6972399688e-05
individuals 0.0
presence 0.000140075344917
commercial 9.67555039385e-05
chopped 0.0
religion 0.0
century 0.0
submit 0.0
serving 0.0
because 5.0808243486e-05
aggressive 0.0
sensitive 7.38197288421e-05
smiling 0.000124519818336
besides 7.32538274258e-05
cleveland 0.000556233467632
hometown 0.000126180730299
killing 0.000314709633744
breath 0.0001197606895
phillips 0.0
instagram 0.000391477363545
sharks 8.362899929e-05
cousin 0.000207833028267
honored 0.000146804011329
dedication 0.0
lifting 0.0
lyrical 0.0
talent 0.000141068836598
goodnight 0.000135131733948
stores 0.000127881910692
rushing 8.93531953527e-05
brains 0.0
sandwiches 0.000270758589876
drinking 0.000157427007397
brazil 0.0
tattoo 0.000148212279268
ravens 0.0
regardless 0.0
skills 0.000146804011329
cameras 0.0
phones 6.503403837e-05
california 0.000202053634998
seconds 0.000188624384321
listen 0.000837998595246
smiled 0.0
kicking 4.97869826514e-05
homies 0.0
billion 5.05134087495e-05
shades 7.93710381876e-05
shoutout 6.66239277922e-05
grammy 8.32537537111e-05
guilty 0.0
stevie 0.0
ceiling 0.0
carpet 0.0
grammys 0.0
harvard 0.0
panther 0.0
nelson 0.0
mandela 0.0
handle 0.00022987775262
sexiest 0.0
promise 8.36862354773e-05
hosting 0.000184937930109
hahahaha 0.0
longest 0.0
tuesday 0.000360494582251
locker 7.90384752505e-05
workout 0.000274135175748
ingredient 0.0
leader 0.0
pageant 0.0
character 0.000188624384321
idiotic 0.0
mirror 0.000114945009751
jackson 0.000227758223949
interview 0.000250949691134
battles 7.29742631803e-05
bleach 0.0
insight 0.0
obviously 0.000148501715578
replay 0.0
battle 8.18752896958e-05
stomped 0.0
destroy 0.0
killer 5.35795619426e-05
personally 0.000101913190392
winning 0.000150537319652
gettin 7.64857040522e-05
japanese 0.0
writing 0.000204130431605
society 0.0
officers 0.0
brooklyn 7.13421025155e-05
sources 0.0
incredible 0.00102717424491
poster 5.58973468668e-05
celebrity 0.000576519688328
memorable 0.0
werent 0.0
chased 0.0
minute 0.000198647934287
confession 0.0
pregnant 7.21486926861e-05
cherry 0.0
twinning 0.0
phoenix 0.00671363221259
orange 0.000105575077966
policy 0.0
comedy 0.000165155643615
illuminati 0.0
reminder 8.48422789944e-05
evidence 0.0
iphone 0.000168723964371
kicked 0.0
intentions 0.0
freedom 4.90752923836e-05
patient 0.0
utterly 0.0
mississippi 0.0
download 0.000248934913257
assistant 0.0
invite 0.000199724278474
central 9.29906793859e-05
washington 0.000373011993597
stronger 0.0
promised 5.78323554882e-05
worried 0.000101913190392
throwing 0.0
security 9.35163017264e-05
cologne 0.000109887054382
headphones 9.02528632919e-05
sanctuary 0.0
fantasy 0.0
monkey 7.26969089519e-05
approve 6.97825067724e-05
spinach 0.0
turning 4.40921756532e-05
helping 0.000232627249002
tickets 0.000383895370902
collector 0.0
physically 7.77388775228e-05
slavery 0.0
december 4.89346704431e-05
basically 0.000257027257796
return 0.000116945790855
yassss 0.0
goddess 0.0
locked 0.000118619684615
feelings 0.0
language 0.0
motion 0.0
obsessed 0.000247407751905
creation 0.0
followers 0.00013677210199
schools 0.0
gallery 7.08144966757e-05
movies 0.000263937694915
foster 0.0
children 0.000116313624501
nation 4.43375271928e-05
theaters 0.0
between 7.74213628926e-05
knowledge 0.0
begins 4.21887868124e-05
robinthicke 0.0
faithful 0.0
peeing 0.000127020973352
closet 0.000165764958119
bodies 6.97825067724e-05
italian 6.61622747214e-05
highlights 0.0
spanking 0.0
forbes 0.0
parade 6.503403837e-05
tasted 0.0
consider 0.0
reunion 0.000283257986703
latest 0.000114439591942
dedicated 0.0
beyonce 0.000151148701616
perform 0.000282072908482
signed 0.000311011288207
tuxedo 0.0
princess 0.0
shelter 7.93710381876e-05
germany 5.35795619426e-05
explaining 0.0
married 5.21665470695e-05
millions 0.0
blessings 0.0
iconic 0.0
indonesia 0.0
braids 0.0
dollar 0.000237239369229
rigged 0.0
replied 0.0
lights 0.000101321032833
turned 0.000115998959449
excuses 0.000391913296933
jackie 8.72000580643e-05
charge 4.87946098692e-05
performing 5.65887017916e-05
ticket 9.45795077387e-05
steady 0.0
whispers 0.0
finest 0.0
confucius 0.0
diamonds 0.0
vancouver 0.000261600174193
addicts 0.0
collection 0.0
families 0.0
select 0.0
hitting 9.40458910655e-05
announced 0.000128671538242
decided 0.000210943934062
jewels 0.0
lottery 0.0
owners 0.0
respects 0.0
celebration 0.0
memorial 0.000114587908449
landed 0.000275259406025
pastor 0.0
ultimate 5.11055768517e-05
incase 0.0
rapper 0.0
episode 0.000504878219649
bounce 0.0
disney 0.0
muffin 0.0
kansas 0.0
sherman 0.0
retweet 0.000178835207378
midnight 0.000190234426937
patience 0.0
cereal 0.000179600291384
joining 0.0
released 0.000246297355344
release 0.00030933055853
models 0.0
classics 0.0
popped 0.0
mileycyrus 0.000107572910694
highlight 0.0
scholarship 0.0
within 8.99170382125e-05
hahahahaha 0.0
standing 0.000281914872497
higher 9.45795077387e-05
purple 0.000262826469259
skinny 8.80455237262e-05
justice 0.0
served 0.0
speaks 0.0
horses 8.17916618581e-05
houses 0.0
purchase 0.000181380832234
dropped 0.000130458599532
conversations 6.54809887095e-05
consideration 0.0
seattle 6.43741105662e-05
cookie 0.000141628993351
slurpee 0.0
strength 0.0
screens 8.4391749486e-05
monica 0.0
incredibly 9.95739653028e-05
streets 0.0
boyfriend 0.0
private 4.52100264713e-05
skittles 0.000125745009931
barbie 0.0
apologizes 0.0
designer 7.74213628926e-05
impress 0.0
cooking 0.0
exclusive 8.36862354773e-05
fashion 0.0
petite 0.0
talkin 0.0
peaches 0.0
bitches 0.000594031375667
nailed 0.0
weirdest 9.21245138094e-05
whomever 0.0
teaching 5.37401348874e-05
disgusting 0.000138055917654
chillin 0.0
philly 0.000461535944165
rights 0.0
dinosaur 0.0
exotic 0.0
dancers 0.0
cheers 5.45542114823e-05
presents 0.000230607875331
flawless 0.0
dating 6.97825067724e-05
victory 0.0
marley 0.0
productive 0.000140075344917
smurfs 0.0
halftime 0.0
insecure 0.0
horror 0.0
warning 5.09565951961e-05
discovery 7.18777637169e-05
convention 0.0
understanding 0.0
action 0.0
having 0.000330811373607
speaker 5.87484682963e-05
clever 0.0
theatre 0.000128748221132
honors 0.0
evolution 6.87800063663e-05
produce 0.0
spider 0.0
apologize 0.0
formation 0.0
letter 4.3486199844e-05
therapy 0.0
untrue 0.0
written 0.000129026531434
communication 0.0
disease 0.0
marching 0.0
suggest 0.0
georgetakei 0.0
hairstyle 0.0
humans 0.0
journal 0.0
foundation 0.000150663092993
access 4.33662505744e-05
venture 0.0
syndrome 0.0
writes 0.0
colorado 0.0
medicine 0.0
tremendous 0.000133247855584
nytimes 0.0
kindness 0.0
cannot 0.000550205678934
reveals 0.0
invented 0.000131867412618
sapphire 0.0
candidate 0.000112137825245
sexual 0.0
madison 0.0
illustration 0.0
newark 0.000356799064416
globally 0.0
incorrect 0.0
headline 0.0
reflect 0.0
streaming 0.0
leaders 0.0
supreme 0.0
protest 0.0
policies 0.0
silenced 0.0
defend 0.000115303937666
communicating 0.0
climate 0.0
wrapped 0.000132324549443
studio 0.000196301169534
conspiracy 0.0
interviews 4.78295357034e-05
differentiation 0.0
confusing 0.0
february 0.0
hamilton 0.0
loneliest 0.0
amazon 5.34197205401e-05
scattered 0.0
francis 0.0
headlines 0.0
january 0.0
diversity 0.0
universal 0.0
hurricane 0.000298744289181
identifying 0.0
countries 0.0
tickled 0.0
becker 0.0
connected 0.0
suggestion 6.80464926706e-05
filled 4.95005718594e-05
education 0.0
mentioned 0.0
defining 0.0
exists 0.0
unexpected 0.0
plants 0.000162165694605
orders 0.0
olympics 6.246568763e-05
ability 0.0
director 8.79402806104e-05
content 0.0
cycling 0.0
previously 0.0
correction 7.13421025155e-05
pearls 0.0
ambassador 0.0
preparing 5.89345967284e-05
depend 0.0
downloads 0.0
lovers 0.0
weekly 0.0
hudson 0.0
bridge 0.0
becoming 4.52100264713e-05
magazine 9.78693408863e-05
appropriate 0.0
shakespeare 0.0
travesty 0.0
discoveries 0.0
fellow 4.47088018444e-05
reviewed 0.0
copies 6.70917364185e-05
driven 0.0
aussies 0.0
result 5.0808243486e-05
announcing 0.000184345968637
visual 0.0
restrictions 0.0
culture 0.0
edition 4.71560960803e-05
prince 0.000204422307407
shocks 0.0
symmetry 0.0
clicks 0.0
disagree 0.0
experiments 0.0
mistakes 0.0
trolls 0.0
blossoms 0.0
offered 5.80136743784e-05
inspiring 4.75586067342e-05
counter 0.0
approach 0.0
embarrassing 0.000126602174535
creators 0.0
edited 0.0
berniesanders 0.0
overnight 7.55743508082e-05
spotlight 7.21486926861e-05
probable 0.0
repeating 0.0
concerns 0.0
massive 0.000178835207378
promising 0.0
promises 6.70917364185e-05
colored 0.0
production 0.0
header 0.0
itunes 0.000465567481514
secretary 0.0
highway 0.0
dangerous 0.0
letters 0.0
typically 8.76202442503e-05
saving 5.11055768517e-05
pioneer 0.0
visuals 0.0
universe 0.0
ordering 0.0
victims 0.0
privacy 0.0
disclosure 0.0
proceeds 0.0
musical 0.0
collide 0.0
melbourne 0.0
correctly 7.05536395099e-05
campus 6.97825067724e-05
debate 9.06729189977e-05
conflict 0.0
meanwhile 0.0
petition 0.0
contribution 0.0
stated 8.51714510664e-05
humanity 0.0
illness 0.0
flawed 0.0
breathe 6.87800063663e-05
winners 0.0
spanish 0.0
comedic 0.0
awards 9.19511010481e-05
presidential 0.0
candidates 0.0
glasgow 0.0
smells 0.000231320087897
treasure 0.0
greater 0.0
themed 0.0
distribution 0.0
absurd 0.0
squirrel 0.0
sisters 0.0
stress 0.00039020423022
leading 0.0
resolution 0.0
achieved 0.0
interacting 0.0
boiling 0.0
examples 0.0
diverse 0.0
suicide 0.0
parallel 0.0
minneapolis 0.000102701816369
impairs 0.0
pumping 0.000115030655919
slides 0.0
choreography 0.0
element 0.0
serves 0.0
jumping 0.000132324549443
rising 0.0
believed 0.0
features 0.0
environment 6.48126803665e-05
revealed 0.0
classical 0.000102058034505
confirmed 0.0
origins 0.0
combination 0.0
consumption 0.0
worldwide 5.85633220768e-05
deaths 0.0
responsible 0.0
overwhelmed 0.0
household 7.90384752505e-05
munich 0.0
alternate 0.0
blockers 0.0
restaurant 0.00029189573879
canada 0.000140670895173
versions 0.0
technology 0.0
identify 0.0
combined 6.54809887095e-05
santiago 0.0
branches 0.0
october 0.000196865920835
netherlands 0.0
belgium 0.0
european 0.0
imperial 0.0
perspective 0.0
cities 5.2787538983e-05
guinea 0.0
americas 0.0
posters 0.0
elastic 0.0
flames 0.0
presumably 0.0
exquisite 0.0
spreading 6.02658994781e-05
happiness 0.0
ashamed 0.0
naturally 0.0
malbec 0.0
wasting 0.0
hidden 0.000115664710976
coffin 0.0
freudian 0.0
genius 0.0
cultured 0.0
malaysia 0.0
traveling 6.63923419535e-05
prepared 5.32606040443e-05
county 0.0
quinoa 0.0
district 0.0
chosen 0.0
toilet 7.29742631803e-05
yorkers 0.0
ignores 0.0
messages 0.000234993873185
creativity 0.0
conventional 0.0
berlin 0.0
montreal 0.000168783498972
wonders 0.0
upcoming 0.000248934913257
lonely 0.0
australian 0.0
positions 0.0
singapore 9.07114989362e-05
scratch 7.55743508082e-05
deficiency 0.0
elevated 0.0
triggers 0.0
delicate 0.0
barrier 0.0
reflection 0.0
sydney 0.000237115425752
separates 0.0
centuries 0.0
israel 0.0
overwhelming 0.0
assault 0.0
protection 0.0
picker 0.0
additional 0.0
machine 9.48478455584e-05
samples 0.0
contrary 0.0
immediate 0.0
michelle 0.0
inspire 0.0
lyrics 0.0
missyelliott 0.0
constant 0.0
tuning 7.77388775228e-05
pandora 0.0
preshow 0.0
buenos 0.0
poland 0.0
philippines 0.0
nicely 6.7328000794e-05
september 0.000148074715473
manchester 6.39409553462e-05
checks 0.0
screenshot 0.0
universalorl 0.0
remarkable 0.0
rihanna 8.47794343939e-05
disgusted 0.000102701816369
flattered 0.0
fiction 0.0
angela 0.0
bitmoji 0.0
process 4.48334383065e-05
genuine 6.37263667435e-05
performances 0.0
comedians 0.0
flotus 0.0
strangers 0.0
hungover 0.0
confidence 5.50518812049e-05
studios 0.0
stjude 0.0
memphis 0.000181422997872
mikeypiff 0.0
chancetherapper 0.0
scream 0.000148212279268
jennifer 7.00376724584e-05
disappoint 0.0
newcastle 0.0
castle 0.0
literally 0.000521834398128
chrisrock 0.0
gentlemen 0.0
mtvnews 0.0
hillaryclinton 7.00376724584e-05
iamrashidajones 0.0
champagne 7.93710381876e-05
raleigh 0.0
ijessewilliams 0.0
acknowledge 0.0
buzzfeed 0.0
puppet 0.0
rehearsal 7.87090350162e-05
billboard 7.41061396341e-05
austria 0.000100804861035
sweden 0.0
republic 0.0
grilled 0.000104707226588
waltdisneyworld 0.0
katyperry 9.56612594982e-05
ronanfarrow 0.0
measly 0.0
bragging 0.000102058034505
treats 0.0
literal 0.0
cooper 0.000224058216886
counts 0.0
theellenshow 0.0
basking 0.0
cookies 0.000146507654852
festival 0.00010341582285
amsterdam 0.0
soundcheck 0.000242120088077
downloaded 8.55678973995e-05
encouraged 0.0
alright 0.00018494915299
jtimberlake 0.000230061311838
backstage 6.33010872676e-05
collab 0.0
joined 8.64934199827e-05
issarae 0.0
playlist 0.000139058366908
madness 5.60689126227e-05
romantic 0.0
selfies 0.0
exclusively 0.0
disneyland 0.0
refused 0.0
characters 0.0
amazingly 0.000221459186526
auction 0.0
express 0.0
gratitude 0.0
sesamestreet 0.0
thegrammys 0.0
throughout 0.0
awkward 0.0
shining 0.0
thrown 0.0
stylist 0.0
fighter 0.0
accepting 0.0
playin 0.0
applemusic 0.0
filmed 0.000270263467896
makeawish 0.0
bieber 0.0
remixes 0.0
toronto 0.000188018040394
capitolrecords 0.0
shazam 0.0
anthem 0.0
cosmopolitan 0.0
khloekardashian 0.0
cookin 0.0
songwriters 0.0
reveal 0.0
stands 0.0
spotify 0.000448116433771
phvegas 0.0
rocked 7.38197288421e-05
glasses 6.45927101965e-05
iambeckyg 0.0
relive 0.0
acoustic 0.000393701186467
announce 0.000163304345284
although 0.000114587908449
isaacfromct 0.0
shampoo 0.000129721161268
interactive 0.0
todayshow 0.0
haters 7.41061396341e-05
appreciation 7.61792817797e-05
floating 0.0
shondarhimes 0.0
showtime 8.4391749486e-05
premiere 0.000401057679572
broadway 0.0
makeup 0.0
starring 0.000206340019099
newest 0.0
designed 0.0
arianagrande 0.000105402004285
aladdin 0.0
swaggy 0.0
owning 0.0
producer 0.0
legendary 0.0
jasmine 0.0
costumes 0.0
square 9.51172134683e-05
emojis 0.0
jessica 0.0
magical 6.59337063092e-05
thedoctorluke 0.0
thirsty 0.0
therealjuicyj 0.0
symbols 0.0
privilege 0.0
spiral 0.0
retrograde 0.0
footage 0.0
theirs 0.0
universes 0.0
remembering 0.0
floated 0.0
construction 0.0
consciousness 0.0
delights 0.0
explodes 0.0
submissions 0.0
pleased 0.0
shredding 0.0
filters 0.0
weasel 0.0
reflective 0.000116927611253
firework 0.0
islands 0.0
interstellar 0.0
bubble 0.0
customs 9.11762094012e-05
festive 0.0
window 0.0
senator 0.0
slightly 0.0
therealbuzz 0.0
printing 0.0
snowflake 0.0
applications 0.0
elephant 0.0
fifteen 0.0
editions 0.0
newspaper 0.0
rainbow 7.18777637169e-05
unlimited 9.21245138094e-05
sirius 0.0
matthew 0.0
affected 0.0
capturing 0.0
canyon 0.0
rivers 0.0
spoken 0.0
accidentally 6.7328000794e-05
bizarre 0.0
dolphin 0.0
successfully 0.0
liquid 0.0
graffiti 0.000105402004285
swallowing 0.0
messenger 0.0
heroes 0.0
disturbing 0.0
graduates 0.0
rewrite 0.0
describe 0.0
hollywood 0.000206831645701
equality 0.0
announcement 4.50840474233e-05
breakout 0.0
dreaming 7.80592918701e-05
animation 0.0
calendar 0.0
circling 0.0
garden 5.24756691324e-05
enhanced 0.0
journalists 0.0
stirring 0.0
nominations 0.0
yelling 0.0
teachers 0.0
chapter 5.85633220768e-05
napoleon 0.0
aliens 0.0
subjects 0.0
revolution 0.0
mountains 8.40083016564e-05
wonderland 0.0
storage 0.000463042271353
crystals 0.0
circuit 0.0
invitation 0.0
kettle 0.0
adjective 0.0
woodpecker 0.0
operate 0.0
exhibition 0.0
learnt 0.0
nomination 0.0
madonna 0.0
questioning 0.0
unplug 0.0
initiatives 0.0
switzerland 0.000273528628204
represents 0.0
throat 8.10828473025e-05
touchdown 0.000268059586058
desire 7.29742631803e-05
forced 5.39014461011e-05
swedish 0.0
hundred 0.0
prompts 0.0
rainbows 0.0
creates 0.0
oxford 0.0
balloons 0.0
liverpool 0.0
recreate 0.0
glorious 0.0
newton 0.0
creature 0.0
finalist 0.0
scouts 0.0
treading 0.0
tragedy 0.0
nottingham 0.0
debacle 0.0
legends 0.0
noises 0.0
addiction 7.77388775228e-05
survived 7.02947075067e-05
idioms 0.0
greeted 0.0
basics 0.0
masses 0.0
confirm 0.0
cadence 0.0
spaghetti 0.000416103762305
prepare 5.201300141e-05
calendars 0.0
narrative 0.0
application 0.0
octopus 0.0
drumming 0.00028650435691
bloody 6.66239277922e-05
confetti 0.0
translate 0.0
birmingham 0.0
singles 0.0
completes 0.0
laptop 7.87090350162e-05
obvious 0.0
darling 0.0
deserving 0.0
miller 0.0
ordered 0.000258539557126
feelin 0.0
alicia 0.0
picasso 0.0
recipe 0.0
alphabetical 0.0
butterfly 0.0
timothy 0.0
mancini 0.0
untold 0.0
directed 0.0
hacked 0.0
admits 0.0
clocks 9.90052292779e-05
nugget 0.0
cnnopinion 0.0
grabbed 0.0
russia 0.0
surprises 0.0
waterfalls 0.0
olympic 0.0
magnificent 0.0
casual 0.0
assume 0.0
relief 0.0
subscribe 6.90279588271e-05
landslide 0.0
telegraph 0.0
standby 0.0
admitting 0.0
complacency 0.0
voices 5.67636903198e-05
sounding 0.0
douglas 7.83826593866e-05
democracy 0.0
locals 0.0
gossip 0.0
nickname 0.0
subtle 0.0
embarrassed 0.000604594806466
ireland 0.0
mornings 0.000352182094905
democratic 0.0
impressions 0.0
outgoing 0.0
treasury 0.0
refugees 0.0
unveiling 0.0
listing 8.67848446127e-05
deliver 0.0
negotiating 0.0
roller 0.0
prosperous 0.0
desperate 0.0
acknowledgement 0.0
executive 0.0
republicans 0.0
weapons 0.0
dropping 5.31022059099e-05
meaningful 0.0
nightmare 0.0
goodies 9.90052292779e-05
scandalous 0.0
rhetoric 0.0
divisive 0.0
vision 0.00010402600282
confirmation 0.000144843460147
throne 0.0
records 5.32606040443e-05
quoting 0.0
impatient 0.0
refugee 0.0
texted 0.0
exposed 0.0
stoked 8.00457729667e-05
priority 0.0
freedoms 0.0
notorious 0.0
empowering 0.0
unconstitutional 0.0
turkish 0.0
concerned 0.0
realdonaldtrump 0.0
goodwill 0.000110693644553
imagined 7.87090350162e-05
belfast 0.0
sleeve 0.0
basement 0.000273528628204
preposterous 0.0
griffith 0.0
timeless 0.0
truman 0.0
intended 0.0
inappropriate 0.0
industries 0.0
responsibility 0.0
documentaries 0.0
vulnerable 0.0
respectful 0.0
markets 0.0
claire 0.0
nuggets 0.0
boards 0.0
sequins 0.0
capitol 0.00017274897514
technical 0.0
applying 0.0
guitar 0.000149959346798
donating 0.0
continually 0.0
norway 0.0
applause 0.0
ballot 0.0
finely 0.0
shakes 9.35968330717e-05
varied 0.0
proverb 0.0
vibrant 0.000102701816369
flower 0.0
survives 0.0
fierce 0.0
shopped 0.0
sincerely 0.0
apology 0.0
sweaty 0.0
conspiracies 0.0
climbing 9.11762094012e-05
relaxed 0.0
encourage 0.0
funnyordie 0.0
essentials 0.0
jimmykimmellive 0.0
rejectedjokes 0.0
protesting 0.0
releasing 7.26969089519e-05
cleaner 0.0
preferred 0.0
incarceration 0.0
jkcorden 9.61969206996e-05
koppel 0.0
bikini 0.0
transparency 0.0
kamalaharris 0.0
nutshell 0.0
walled 0.0
floored 0.0
plotting 0.0
gandhi 0.0
vilify 0.0
meditate 0.0
violent 0.0
preschool 0.0
rhythm 0.0
matching 0.000158742076375
senwarren 0.0
venezuela 0.0
candle 0.0
donates 0.0
peacefully 0.0
chelseahandler 0.0
experiencing 0.0
sarabareilles 0.0
haunting 0.0
constitution 0.0
explode 9.3099163349e-05
deeper 0.0
empathy 0.0
mrgaryhuang 0.0
scored 7.10773078459e-05
charitable 0.0
perfume 0.0
giraffe 0.0
noticing 0.0
noodle 0.0
wrongly 0.0
marshmallow 0.0
fraudulent 0.0
everytime 9.16471577767e-05
helluva 0.0
therapists 0.0
tangible 0.0
sarahksilverman 0.0
johnfugelsang 0.0
exceptional 8.40083016564e-05
miracle 7.26969089519e-05
avocado 0.0
snacks 0.0
spelled 9.35968330717e-05
parental 0.0
superbowl 0.0
shoulders 0.0
valentine 0.000525412329821
glitter 0.00022823860535
stocking 0.0
poehler 0.0
thumbs 7.35356371913e-05
tinatbh 0.0
educational 0.0
voicemail 0.000118933021472
thetweetofgod 0.0
esteem 0.0
teaches 0.0
goodbye 0.000110438704594
reminding 0.0
supplies 0.0
ryanseacrest 9.61969206996e-05
okmagazine 0.0
shoots 0.0
bowing 0.0
jennyslate 0.0
craigyferg 0.0
masterpiece 0.0
sneaky 0.0
nashville 0.000382428520261
chronicles 0.0
potato 0.0
freakin 0.0
perezhilton 0.000297015687834
unethical 0.0
paparazzi 0.0
mantra 0.0
consuming 0.0
unauthorized 0.0
vanityfair 0.0
stalking 0.0
shoulda 0.000106834249155
yeppers 0.0
sacred 0.0
existed 0.0
earned 0.0
woulda 0.0
ellenpage 0.0
choker 0.0
contribute 0.0
mustache 0.000202851705897
washes 0.0
creeps 0.000116927611253
champion 0.000111794693734
auntie 0.0
magazines 0.0
waited 0.0
conscious 0.0
cracker 0.0
denmark 0.0
potion 0.0
windex 0.0
scarfing 0.0
ladygaga 0.0
purposely 0.0
pretending 0.0
luckiest 0.0
mascara 0.0
tastes 0.0
gardening 0.0
leashes 0.0
hippie 0.0
womensmarch 0.0
reunited 0.0
clique 0.0
premiering 0.0
rollingstone 0.0
childrensla 0.0
dollywood 0.0
godmother 0.0
eltonofficial 0.0
vmagazine 0.0
donorschoose 0.0
yesssssss 0.0
bettemidler 0.0
rehearsing 0.000196850593234
trevorproject 0.0
unicef 0.0
ellemagazine 0.0
yasssss 0.0
acceptance 0.0
solidarity 0.0
pharrell 0.0
greece 0.0
papermagazine 0.0
johnmayer 0.0
lipstick 0.0
tumblr 0.0
coldplay 0.000110693644553
colorful 0.0
translifeline 0.0
newsstands 0.0
feminist 0.0
pitchfork 0.0
labels 8.89118671792e-05
jenner 0.0
arkansas 0.0
beanie 0.000122173951157
sparkly 0.0
moschino 0.0
britneyspears 0.0
itsjeremyscott 0.0
nickiminaj 0.0
appstore 0.0
poetry 0.000171937749292
puttin 0.0
rubbed 0.0
shrine 0.0
skyferreira 0.0
freaking 0.000152358563559
besties 0.0
chanel 0.0
bedazzled 0.0
rubber 0.0
kendricklamar 0.0
popstar 0.0
sosadtoday 0.0
copenhagen 0.0
lenadunham 0.0
wearin 0.0
stoned 0.0
facetime 0.0
barclays 0.0
meditation 0.0
harpersbazaarus 0.0
stared 0.0
ritual 0.0
iconapop 0.0
doubted 0.0
staples 0.0
anaheim 0.0
jingle 0.0
tacoma 0.0
rehearsals 0.0
treadmill 0.0
metamorphosis 0.0
dental 0.0
jodyhighroller 0.0
versace 0.0
werking 0.0
couture 0.0
eggplant 0.0
bangin 0.0
cardigans 0.0
obnoxious 0.0
bestie 0.0
teganandsara 0.0
barrel 0.0
dedicating 0.0
jefferson 9.51336536583e-05
pumpkin 8.10828473025e-05
derekblasberg 0.0
glamourmag 0.0
presale 0.0
mtvstyle 0.0
deluxe 0.0
mtvema 0.0
reggae 0.000128345097559
azealiabanks 0.0
nominating 0.0
sailor 0.0
mornin 0.0
itunesmusic 0.0
bananas 0.000261600174193
lordemusic 0.0
vietnam 0.0
milwaukee 0.000291880260489
neworleans 0.0
circus 0.0
strolling 0.0
rapids 0.000125745009931
collegegameday 0.0
aaaaand 0.0
godfather 0.0
bestow 0.0
allison 0.0
rockthevote 0.0
birbigs 0.0
lucille 0.0
louder 0.0
farmers 0.0
shaved 0.0
niagara 0.0
realmattlucas 0.0
ferguson 0.0
painful 0.000138055917654
exchange 0.0
nickkroll 0.0
edmonton 0.0
mickey 0.0
angelenos 0.0
pooping 0.0
located 0.0
onslaught 0.0
finalists 0.0
bumped 0.0
sherlock 0.0
stockholm 0.0
casually 0.0
jjwatt 0.0
itstonybennett 0.0
mariolopezextra 0.0
klgandhoda 0.0
entrance 0.0
calgary 0.0
bowling 0.000340685804265
winnipeg 0.0
cheeto 0.0
gloriasteinem 0.0
feather 0.0
nathan 0.0
smelling 0.000114119302675
narnia 0.0
llamas 0.0
actuallynph 0.0
mourning 0.0
obsession 0.0
chilled 0.0
medically 0.0
hyperloop 0.0
aussie 0.0
flaring 0.0
eyeballs 0.0
stuffing 0.0
pitched 0.0
condiments 0.0
relatable 0.0
olivia 0.00020038933906
painted 7.90384752505e-05
mykonos 0.0
eyebrow 0.0
capitalcities 0.0
jackpot 0.0
hipster 0.0
sweating 9.84252966168e-05
restaurants 8.40083016564e-05
superfan 0.0
restraint 0.0
craziest 0.000181422997872
catheter 0.000359583440205
delivers 0.0
kanyewest 0.0
paints 0.0
dissect 0.0
billboards 0.000119980416481
milano 0.0
bjnovak 0.0
snapping 0.0
croissant 0.0
repjohnlewis 0.0
blklivesmatter 0.0
mydaughtersarmy 0.0
huddled 0.0
yearning 0.0
thereaibanksy 0.0
affordable 0.0
foodie 0.0
colombia 0.0
peeled 0.0
shootings 0.0
playground 0.0
breaky 0.0
photoshoot 0.000216654917278
smokin 0.0
accents 0.0
sweats 0.0
postmates 0.0
armband 0.0
unconscious 0.0
maddow 0.0
aquarium 0.0
holler 0.000137550181145
photoshop 8.93531953527e-05
robbie 0.0
espnmag 0.0
laundry 0.0
examining 0.0
zealand 0.0
stuntin 0.0
hehehe 0.0
nostalgia 0.0
buttons 0.0
slaying 0.0
monument 0.0
bringin 0.0
lining 0.0
muchas 0.0
gracias 0.0
madame 0.0
illustrated 0.0
boxers 0.0
grazie 0.0
winters 0.000134206211365
plastic 7.49796733992e-05
unbreakable 0.0
licking 0.0
cheeky 0.0
twerking 0.0
danish 0.0
drummer 0.000996242800976
florence 0.0
revoir 0.0
resume 0.0
dodger 0.000115030655919
brazilians 0.0
grimezsz 0.0
crocodile 0.0
hahahahahaha 0.0
parisians 0.0
taipei 0.0
taiwan 0.0
bangkok 0.0
uploaded 0.0
manila 0.0
hamburg 0.0
curating 0.0
aaaand 0.0
skating 0.0
brisbane 0.0
googleplay 0.0
raincoat 0.0
glastofest 0.0
vienna 0.000104025940576
burning 0.0
jamming 9.95949091615e-05
reaches 0.0
subtitles 0.0
wristband 0.0
barcelona 0.000262860732751
credits 0.0
dreamers 0.0
bogota 0.0
bursting 0.0
brunomars 0.0
beyoncé 0.0
subscribers 0.0
unlock 0.0
onedirection 0.0
amazonmusic 0.0
snippets 0.0
preorder 0.0
rehearse 0.0
bahnhof 0.0
delorean 0.0
fragrance 0.0
curate 0.0
samsmithworld 0.0
guitars 0.000124513826513
storyline 0.0
registering 0.0
beatsbydre 0.0
panama 0.000109887054382
celestial 0.0
orchestra 0.000106110818841
finland 0.0
climbed 0.0
topping 0.0
méxico 0.0
vasconcelos 0.0
leicester 0.0
itunesfestival 0.0
pondering 0.0
millennials 0.0
struck 0.0
watermelon 0.0
benefited 0.0
sophisticated 0.0
couples 0.0
villain 0.0
mindful 0.0
catholic 0.0
airline 8.72000580643e-05
secretly 0.000160776139211
playlists 0.0
veggie 0.0
receipts 0.0
foremost 0.0
bagpipe 0.0
drifting 0.0
trader 0.0
influenced 0.0
moscow 0.0
cobain 0.000150064166914
reaper 0.0
commune 0.0
handshake 0.0
despair 0.0
silicon 0.0
investing 0.0
construct 0.0
garland 0.0
coachella 0.0
offline 0.0
realisation 0.0
payback 0.0
educate 0.0
alliances 0.0
etched 0.0
momentarily 0.0
pronoun 0.0
lenses 0.0
validated 0.0
authenticity 0.0
choreographed 0.0
pokemon 0.0
disneyworld 0.0
patriotic 0.0
embody 0.0
snickers 0.0
impactful 0.0
refocus 0.0
eminem 0.0
mahatma 0.0
ecstatic 0.0
snfonnbc 0.0
avenue 0.0
picchu 0.0
doubters 0.0
beverly 0.0
intensity 0.0
outtake 0.0
temple 9.16471577767e-05
purchased 8.98001456922e-05
fountain 0.0
punched 0.000102701816369
goldfish 0.0
comparable 0.0
buyers 0.000115966314759
barbara 0.0
corybooker 0.0
listens 0.0
timeout 0.0
inducing 0.0
signage 0.0
penthouse 0.0
ahahaha 0.0
phenom 0.0
brilliantly 0.0
siphoning 0.0
herstory 0.0
prostitute 0.0
survivors 0.0
courageous 0.0
cruelty 0.000102058034505
margot 0.0
xenophobic 0.0
mcginley 0.0
yorkshire 0.0
chants 0.0
alancarr 0.0
chained 0.0
skillz 0.0
debunked 0.0
floods 0.0
fleetwood 0.0
cheesecake 0.0
adidas 0.0
uneven 0.0
raging 0.0
connections 0.0
headlining 0.0
devhynes 0.0
charli_xcx 0.0
shawnmendes 0.0
tavitulle 0.0
bahjournalist 0.0
tyleroakley 0.0
marquee 0.00013583837203
grease 0.000114119302675
screenshots 0.0
ddlovato 0.000209414453176
chattyman 0.0
grimmers 0.0
vevo_uk 0.0
bonniemckee 0.0
electrifying 0.0
idolator 0.0
onairromeo 0.0
godven 0.0
lookie 0.0
preordered 0.0
elvisduran 0.0
shanghai 0.0
tripped 0.0
konnichiwa 0.0
etnad_olegnad 0.0
unannounced 0.0
swedes 0.0
cinderella 0.0
slipper 0.0
jessesaintjohn 0.0
adorbs 0.0
onesies 0.0
jahnsuxx 0.0
walgreens 0.0
aphrodite 0.0
danceonfox 0.0
difficulties 0.0
mermaids 0.0
antique 0.0
girlshbo 0.0
yaaaaasss 0.0
lifesaving 0.0
queens 8.21515124709e-05
yaaaas 0.0
rollin 0.0
bestest 0.0
cleanse 0.000898415682913
iamtovelo 0.0
glamour 0.0
emelisande 0.0
lashes 0.0
austrian 0.000132646615622
magritte 0.0
misogynoir 0.0
litter 0.0
spiritual 0.0
preaching 0.0
adelaide 0.0
sheffield 0.0
impending 0.0
starve 0.0
excess 0.0
conciousness 0.0
vitamins 0.0
generator 0.0
purposefully 0.0
profiles 0.0
petals 0.0
persist 0.0
alexis 0.0
covergirl 0.0
sneezed 0.0
cushion 0.0
demconvention 0.0
directv 0.0
flo_tweet 0.0
billclinton 0.0
grounded 0.0
sunrise 0.0
fightin 0.0
sagekotsenburg 0.0
pwease 0.0
sadder 0.0
waterfall 0.0
sighting 0.0
firsts 0.0
muller 0.0
burritos 0.0
bungee 0.0
potting 0.0
dipping 0.0
closets 0.0
scratched 0.0
decorating 0.000242120088077
summers 0.0
havana 0.0
fresher 0.0
mowing 0.0
invading 0.0
addict 0.0
aesthetics 0.0
footwear 0.0
protector 0.0
hammock 0.0
repurpose 0.0
mishap 0.0
hamster 0.0
cellar 0.0
groove 0.0
mentored 0.0
exaggerate 0.0
scraping 0.0
apropos 0.0
trolled 0.0
jonlovett 0.0
rheabutcher 0.0
sickening 0.0
flustered 0.0
compiled 0.0
shirley 0.000101425852948
subtweet 0.0
pantsuit 0.0
patting 0.0
atrocious 0.0
amoeba 0.0
platter 0.0
aficionado 0.0
bearer 0.0
manifest 0.0
transformation 0.0
thighs 0.0
tapper 0.0
foaming 0.0
sophie 0.0
sabbath 0.0
vibrations 0.0
nutella 0.0
wilder 0.0
distractions 0.0
stripping 0.0
downloading 0.0
judith 0.0
crossroads 0.0
parsons 0.0
stella 0.0
narcissism 0.0
fawcett 0.0
trainers 0.0
surrounding 0.0
longtime 0.0
frosting 0.0
laurent 0.0
savory 0.0
acupuncture 0.0
cancelling 0.0
nutcracker 0.0
ballet 0.0
tempura 0.0
burner 0.0
voguemagazine 0.0
lagged 0.0
cuttlefish 0.0
passwords 0.0
funfetti 0.0
anagasteyer 0.0
gabbana 0.0
budapest 0.0
montage 0.000106110818841
crowns 0.0
scheduling 0.0
possessed 0.0
syncing 0.00028650435691
creatively 0.0
hieroglyphics 0.0
halftimes 0.0
floppy 0.0
nessie 0.0
feathers 0.0
kaceymusgraves 0.0
roaring 0.0
rightful 0.0
balconies 0.0
prodigy 0.0
raquin 0.0
gianni 0.0
monsieuradi 0.0
drowned 0.0
tropicana 0.0
diesel 0.0
shabbat 0.0
voiceless 0.0
passover 0.0
elevating 0.000147643543243
traumatic 0.000123324386261
dreamer 0.0
iwillharness 0.0
classrooms 0.0
eligibility 0.0
counselors 0.0
wainwright 0.0
moveon 0.0
runaway 0.0
baghdad 0.0
zaralarsson 0.0
snooze 0.0
iggyazalea 0.0
harviikills 0.0
bolognese 0.0
babysitting 0.0
mohegan 0.0
hooters 0.0
crusts 0.0
tracksuit 0.0
cupcake 0.0
xfactor 0.0
vitamin 0.0
lichtenstein 0.0
concourse 0.0
hitchcock 0.0
teller 0.0
pastels 0.0
remnants 0.0
banger 0.0
lyrically 0.0
boogers 0.0
ritaora 0.0
bumpin 0.0
dabbed 0.0
sleepin 0.0
tinashe 0.0
octaviaspencer 0.0
linder 0.0
musicallyapp 0.0
scavenger 0.0
sanging 0.0
corinthians 0.0
hollywoodbowl 0.0
kraken 0.0
discontinue 0.0
cypress 0.0
schooling 0.0
maritime 0.0
narration 0.0
zeitgeist 0.0
sampler 0.0
pseudo 0.0
bangladesh 0.0
hungary 0.0
mumble 0.0
sisterhood 0.0
soulful 0.0
lennykravitz 0.0
londontown 0.0
andradaymusic 0.0
lipsticks 0.0
realization 0.0
unconditionally 0.0
wildfire 0.0
goldie 0.0
minnie 0.000158525368348
solitude 0.0
waddle 0.0
westworldhbo 0.0
statuesque 0.0
uncasville 0.0
demented 0.0
skyway 0.0
twentyonepilots 0.000485608014382
rejoicing 0.0
clenching 0.0
adelphia 0.0
entirety 0.0
redhourben 0.0
lakewood 0.0
drjillstein 0.0
entail 0.0
whammy 0.0
smokers 0.0
gobble 0.0
topshop 0.0
cleowade 0.0
mkives 0.0
sweetbabayjamie 0.0
marchesafashion 0.0
hamsters 0.0
gurrrl 0.0
sofifii 0.0
sumthin 0.0
nicomiz 0.0
maisonvalentino 0.0
coziest 0.0
accessorize 0.0
thejgold 0.0
peruvian 0.0
amazeballs 0.0
sendin 0.0
fantabulous 0.0
timelines 0.0
regina 0.0
slovakia 0.0
graves 0.0
embracing 0.0
larsson 0.0
cullen 0.0
psychiatric 0.0
officialadele 0.0
butters 0.0
verrrry 0.0
buttered 0.0
winged 0.0
pedialyte 0.0
topanga 0.0
armpit 0.0
kittens 0.0
dueling 0.0
eagerly 0.0
surrealist 0.0
dethroned 0.0
manolos 0.0
señorita 0.0
monterrey 0.0
parque 0.0
retiree 0.0
batches 0.0
reservations 0.000122173951157
sickos 0.0
aplusk 0.0
kirkherbstreit 0.0
fanbases 0.0
indexing 0.0
chuckles 0.0
incorporated 0.0
washboard 0.0
earbuds 0.0
pantone 0.0
knotts 0.0
dismaland 0.0
pollock 0.0
iamkidpresident 0.0
mariah 0.000125745009931
teevee 0.0
santorini 0.0
appalachian 0.0
sunburnt 0.000174383323896
caliente 0.0
juicery 0.0
karlihenriquez 0.0
trillest 0.0
tommorrow 0.0
crumpets 0.0
fishin 0.0
grillin 0.0
jambalaya 0.0
pepperoni 0.0
cashew 0.0
graceland 0.0
pussies 0.0
delicately 0.0
eraser 0.0
choreo 0.0
snatched 0.0
elliptical 0.0
mooore 0.0
unborn 0.0
georgina 0.0
stalkers 0.0
sallykohn 0.0
expectancy 0.0
phillipines 0.0
appstoregames 0.0
wilkinson 0.0
puddings 0.0
loveland 0.0
spaced 0.0
shanny 0.0
dripping 0.0
gerber 0.0
shakey 0.0
weaves 0.0
unbeatable 0.0
linguist 0.0
prosthetics 0.0
battleship 0.0
serotonin 0.0
machiavellian 0.0
girlies 0.0
guangzhou 0.0
debuting 0.0
dissecting 0.0
warped 0.0
luckyjess 0.0
ermahgerd 0.0
fabulousness 0.0
elliegoulding 0.0
activewear 0.0
yelyahwilliams 0.00145682404315
prismatic 0.0
evaluations 0.0
skywalk 0.0
sparklers 0.0
palettes 0.0
gemmaanningram 0.0
trueeee 0.0
invisalign 0.0
pounded 0.0
lolgop 0.0
procession 0.0
stanning 0.0
squeals 0.0
continual 0.0
luminary 0.0
cummin 0.0
shaves 0.0
epixhd 0.0
preacher 0.0
boogiecousins 0.0
changers 0.0
autismspeaks 0.0
massaged 0.0
psssssst 0.0
literati 0.0
utilization 0.0
endangerment 0.0
purposeful 0.0
unlabeled 0.0
undiagnosed 0.0
snotty 0.0
gallops 0.0
slovenia 0.0
sequin 0.0
akerlund 0.0
jumbotron 0.0
edibles 0.0
knowles 0.0
caeser 0.0
thehollywoodbowl 0.0
elvispresley 0.0
adoring 0.0
ageist 0.0
thérèse 0.0
confessed 0.000141246768236
blackvoices 0.0
patties 0.0
graphically 0.0
wildflowers 0.0
groundhogs 0.0
eataly 0.0
poodles 0.0
hillaryforia 0.0
roadshow 0.0
sweety 0.0
boppin 0.0
bettywho 0.0
johnnywujek 0.0
earring 0.000158525368348
itsbennyblanco 0.0
curitiba 0.0
purrfect 0.0
shellback 0.0
chokers 0.0
hairbrush 0.0
hakuna 0.0
matata 0.0
hazing 0.0
mathew 0.0
aegean 0.0
lullaby 0.0
musiciansoncall 0.0
headpiece 0.0
morsel 0.0
whistled 0.0
conquest 0.0
viceland 0.0
lambily 0.0
scalped 0.0
graced 0.0
emblazoned 0.0
hrclosangeles 0.0
kawaii 0.0
glittery 0.0
wonderlandmag 0.0
jumpsmokers 0.0
radiodotcom 0.0
missyfranklin 0.0
pleaaaaase 0.0
lilbthebasedgod 0.0
waaaay 0.0
flossy 0.0
aria_official 0.0
berliners 0.0
matriarchy 0.0
cornered 0.0
limping 0.0
peasant 0.0
feasibly 0.0
waaaaay 0.0
slayyy 0.0
fashionistas 0.0
sangin 0.0
worldstarfunny 0.0
pliers 0.0
babyanimalpics 0.0
mediation 0.0
quests 0.0
aaaaaaah 0.0
honked 0.0
rauschenberg 0.0
whitneymuseum 0.0
lonsdale 0.0
transcendental 0.0
roarin 0.0
facetune 0.0
fausto 0.0
herning 0.0
cazzette 0.0
annnnnnnnnd 0.0
shinier 0.0
giambattista 0.0
katys_teddybear 0.0
gnight 0.0
katheryn 0.0
psychoanalysis 0.0
bckgrnd 0.0
kingman 0.0
gracevanderwaal 0.0
fecking 0.0
ihrcountdown 0.0
stubbies 0.0
xfactor_italia 0.0
aaronpauley 0.0
purity_ring 0.0
scorpios 0.0
ayyyye 0.0
capitalizes 0.0
flamin 0.0
motherfucking 0.0
jingled 0.0
pharrellhat 0.0
ontarioglow 0.0
teached 0.0
umusic 0.0
auroramusic 0.0
dailymendeslife 0.0
soloing 0.0
universalse 0.0
dustinkloeppel 0.0
robynkonichiwa 0.0
charli 0.0
lonelydot 0.0
adamselman 0.0
sorrenti 0.0
offish 0.0
vinoodh 0.0
guitarists 0.0
cocking 0.0
cabbages 0.0
amelia_libman 0.0
flutter 0.0
lolita 0.0
kingladygaga 0.0
breakthecycledv 0.0
howbow 0.0
curveballs 0.0
tamagotchi 0.0
jarryd 0.0
alliseeisgold 0.0
thebroadmuseum 0.0
sarahsowitty 0.0
brillz 0.0
jackgarratt 0.0
markryden 0.0
duffscakemix 0.0
sanrio 0.0
theniceguyla 0.0
trills 0.0
susangkomen 0.0
faustopuglisi 0.0
gurlll 0.0
cheesecakes 0.0
scorpio 0.0
oblivia 0.0
skipmarley 0.0
correcto 0.0
jessirklein 0.0
unpatr 0.0
squish 0.0
greg_wells 0.0
onlyleah 0.0
gittin 0.0
popstars 0.0
krafts 0.0
bouche 0.0
problemo 0.0
wheezing 0.0
patmcgrathreal 0.0
cienega 0.0
thundering 0.0
nastialiukin 0.0
janell 0.0
katelyntarver 0.0
miamoretti 0.0
missoni 0.0
dannymoonsworld 0.0
mrchrismcmillan 0.0
madge_freak 0.0
woridstarcomedy 0.0
ikissedasoldier 0.0
kpezandchez 0.0
perrysoldier 0.0
emilynotchez 0.0
iickmekaty 0.0
basicallyadam 0.0
katysangelegg 0.0
nicolasjebran 0.0
xchadballx 0.0
scott_myrick 0.0
lockoir 0.0
shannonwoodward 0.0
calluses 0.0
chamomile 0.0
trollin 0.0
sleighing 0.0
chestercheetah 0.0
royksopp 0.0
scottsimonswvla 0.0
sirenscaiiing 0.0
slowdownkaty 0.0
chefantoniopark 0.0
garnished 0.0
endive 0.0
mdmolinari 0.0
prezzy 0.0
motioning 0.0
hernameisbanks 0.0
rockcampla 0.0
jenniefinch 0.0
getglucky 0.0
stendhal 0.0
ryanphillippe 0.0
hotncolds 0.0
kpcollections 0.0
katie_wignall 0.0
katysdrugx 0.0
evrenperry 0.0
katycatwendy 0.0
yungskeeter 0.0
sarahhudsonuvs 0.0
mothern 0.0
oliverheldens 0.0
marrymemargot 0.0
katyperrylately 0.0
kewlest 0.0
katyshellokitty 0.0
pqgerry 0.0
rasarioatelier 0.0
anakhouri 0.0
romaneperry 0.0
hot_chip 0.0
agador 0.0
freddietinkles 0.0
cynthialovely 0.0
augustgettyatelier 0.0
tbsnetworks 0.0
ronyalwin 0.0
justinandersoncolor 0.0
mmillerrider 0.0
jpgaultier 0.0
harharharhar 0.0
iikeanangel 0.0
vonnypoo 0.0
jcoopkp 0.0
itzmero 0.0
katysprismlight 0.0
hatérs 0.0
awkwardaya 0.0
katysredskittle 0.0
tiedye_princess 0.0
adelshahal 0.0
marinadiamandis 0.0
samadizayee 0.0
itsslatykaty 0.0
johnlordperry 0.0
nuggetperry 0.0
kthnkzbye 0.0
teamkpbrasil 0.0
twenagedream 0.0
ashleyegreer 0.0
perryllover 0.0
perry_slays 0.0
_andresgalvis 0.0
poplitics 0.0
likerotica 0.0
sweetxjaureguix 0.0
jessiambriz 0.0
perryncolds 0.0
pwideawake 0.0
brunastrait_ 0.0
anafalqueto 0.0
pessoalmente 0.0
mark_hodson_ 0.0
sumtxkid 0.0
arpoador 0.0
katysmychampion 0.0
amnattg 0.0
osullivanluke 0.0
stephiruth 0.0
katy_pizza_bae 0.0
kpcatt 0.0
pedroeugeniio 0.0
gugs_prismatic 0.0
zeeusmtz 0.0
legendarycold 0.0
robynxkatheryn 0.0
écouter 0.0
energyberlin 0.0
karysjones 0.0
lilzariya 0.0
puroland 0.0
pavlovitz 0.0
dreamhampton 0.0
prismsperry 0.0
perrysmic 0.0
focusonreid 0.0
tonyatalterian 0.0
makeup_man 0.0
wtfkates 0.0
sella_sandra 0.0
katycute_ 0.0
caitsperry 0.0
katyperryforum 0.0
radiantjareau 0.0
lillysgomez 0.0
katycatsweden 0.0
perryicecream 0.0
xamyrosex 0.0
wtvrlara 0.0
bijanstephen 0.0
ameliashowalter 0.0
screamkng 0.0
tvmcgee 0.0
liiife 0.0
itskatcombs 0.0
yaaaaaasssssssssss 0.0
katysmyhabibi 0.0
skottpeace 0.0
ferras 0.0
kweens 0.0
habibi 0.0
orlandobloom 0.0
huckchinn 0.0
katycatkenzie 0.0
matarazzo 0.0
fkatwigor 0.0
perryschild 0.0
hotxcolds 0.0
maddisonxperry 0.0
akaruikaty 0.0
chillinlaidback 0.0
erryone 0.0
chrisanokute 0.0
beyelite 0.0
kuntyewest 0.0
chiroprac 0.0
katyperryrises 0.0
godneybjs 0.0
liquoronurlips 0.0
katystumblrr 0.0
holiestkaty 0.0
hollykittykaty 0.0
katysprincess 0.0
katysdonut 0.0
carlythekatycat 0.0
katycatsophia 0.0
fridaaperry 0.0
iegendarylovers 0.0
katycatveronica 0.0
katyperryslave 0.0
hakimkharbouch 0.0
keonovak 0.0
plaaaaay 0.0
scatting 0.0
shotted 0.0
dizzycoco 0.0
fkinsnapss 0.0
junkygs 0.0
ミニチュア料理 0.0
エビフライとエビ天 0.0
adidasboosts 0.0
lilithia 0.0
cottoncandizzle 0.0
ultimatebeyhive 0.0
paramorewebnews 0.0
royale_lala 0.0
musicnews_feed 0.0
katyperryextra 0.0
greeniight 0.0
gagas_illusion 0.0
lesbiyonce 0.0
blurryhface 0.0
lordofgiraffex 0.0
ifuseekamy_ 0.0
legendarymalek 0.0
hausoframez 0.0
unstan 0.0
chioekardashian 0.0
theiife 0.0
handstomyseif 0.0
legendarylovers 0.0
gagas_fandom 0.0
thinagedream 0.0
conditionalbabe 0.0
dannysuschrist 0.0
prismdluxe 0.0
herwonkeye 0.0
camilasviews 0.0
gagalovesbey 0.0
shadykatyfacts 0.0
limalimoncia 0.0
heavymetaiovers 0.0
katyscrush 0.0
waikingonair 0.0
eduardo_katycat 0.0
katyswetdream 0.0
katherynsgod 0.0
katystddbr 0.0
katyboobies 0.0
royaityler 0.0
nothingfaiis 0.0
kathrynluck_ 0.0
prismaticiights 0.0
mendesperry 0.0
katycatghita 0.0
mark_katycat 0.0
iwasdivine 0.0
skywaterr 0.0
xjojospearsx 0.0
alwaysbeperry 0.0
skoglyrihanna 0.0
legendarydurk 0.0
halseysfirework 0.0
rainbowspatrick 0.0
katysfood 0.0
honeymoonprism 0.0
onepulsetony 0.0
butcha 0.0
okurrr 0.0
the_mpt 0.0
talaofficial 0.0
miniatures 0.0
ohmyjurassic 0.0
katysmoonlight 0.0
lilly_jnes 0.0
coco_ho 0.0
perryhumorr 0.0
yikesjonathan 0.0
rubyrankin 0.0
thealekovski 0.0
cydney_moore 0.0
truebluedeluxe 0.0
thedutchass 0.0
katyskettle 0.0
ferraseu 0.0
katyssunlight 0.0
typosqween 0.0
adoreeeperry 0.0
katyperryfrance 0.0
snowiner 0.0
_coolkatycat 0.0
nicothekatycat 0.0
adorbies 0.0
jackygerardchan 0.0
brewmystew 0.0
katyswildfire 0.0
rihftperry 0.0
theolagu 0.0
ritajoness 0.0
iitsjackie 0.0
mjjperry 0.0
jesuskylie 0.0
holyerotica 0.0
graceofkaty 0.0
redsvelvets 0.0
booyakasha 0.0
tariqterry 0.0
katycatalannah 0.0
taylxre 0.0
pacifyher 0.0
basedkatyperry 0.0
diddleurskittle 0.0
katysanalien 0.0
gagasspace 0.0
tayiorhq 0.0
givenchydress 0.0
augustryder 0.0
perrysmoschino 0.0
kittehn 0.0
katrieber 0.0
legendaryhunty 0.0
katyslegs 0.0
katyfroot 0.0
winesandlines 0.0
sam_incolour 0.0
wakingonair 0.0
drwssinup 0.0
huffdaddysays 0.0
fiwwwwine 0.0
matthewroper 0.0
emmabruhhh 0.0
gingerwesson 0.0
nicholas_sewell 0.0
perfectlyperry 0.0
bustabusta 0.0
mynameisziam 0.0
venuzszfly 0.0
katherynsus 0.0
sacredperry 0.0
thedollsftkaty 0.0
_cafajeff 0.0
debkatycat 0.0
katycats 0.0
eastonjames_ 0.0
oliviabooker_ 0.0
protecti 0.0
outrageousness 0.0
joanneprada 0.0
scuffed 0.0
catoure 0.0
blanged 0.0
tahmorrow 0.0
glukatyperrypop 0.0
jamesjoint 0.0
pressin 0.0
bourree 0.0
honeysuckle 0.0
meowings 0.0
fashun 0.0
happun 0.0
vikander 0.0
thekatyperrypopgame 0.0
karolfabianaros 0.0
nico_thekatycat 0.0
miss_lilyjames 0.0
stylinfunk 0.0
hudsontheband 0.0
jere_my 0.0
crabitat 0.0
tiersz 0.0
unrehearsed 0.0
fanclub_kp 0.0
oneofthesophies 0.0
fusterlandia 0.0
lazyblazy 0.0
katycatchloe 0.0
figali 0.0
prismaticness 0.0
titicaca 0.0
ancientaliens_ 0.0
sneezin 0.0
cristos 0.0
mallman 0.0
prismaticlife_ 0.0
ravensuxx 0.0
perrypositive 0.0
derkwhore 0.0
alekjandro 0.0
havss_ 0.0
hqzaynmaiik 0.0
thique 0.0
bbhmms 0.0
jkatharineb 0.0
jennyformica 0.0
tiiiiiight 0.0
ikissedagay 0.0
harryvuitton 0.0
aeschleahd 0.0
princessjavonda 0.0
errrythang 0.0
kooning 0.0
sugarray 0.0
empaths 0.0
goldenboyz_inc 0.0
voguejp 0.0
chickenwingguardingthemimosa 0.0
katyperrypopup 0.0
unmeasurably 0.0
transviolet 0.0
beauteous 0.0
katyskidrauhl 0.0
thooooooseee 0.0
clairesstores 0.0
nailsbymh 0.0
katysacutie 0.0
psychokatycat 0.0
kaceymusgrave 0.0
refueled 0.0
hyungsunju 0.0
okuurrrr 0.0
cholewheeler 0.0
leftshark 0.0
momchella 0.0
crotches 0.0
hookedondolls 0.0
fyuseapp 0.0
mogonoloball 0.0
atletica 0.0
katycatsclub 0.0
catacombs 0.0
poppycorn 0.0
cupped 0.0
christiania 0.0
residenz 0.0
lindseyweber 0.0
butterballface 0.0
joshlecash 0.0
myassistant 0.0
swiftschrist 0.0
snowhiteperry 0.0
emmakphughes 0.0
katyslegend 0.0
dansnierson 0.0
scressful 0.0
prismaticwitch 0.0
finnin 0.0
habibis 0.0
mophies 0.0
strongé 0.0
drumkit 0.0
anamanaguchi 0.0
gaultier 0.0
ngvmelbourne 0.0
dukedumont 0.0
legendaryasmyn 0.0
highlarious 0.0
calpurnia 0.0
waaaaait 0.0
mktfah 0.0
fwding 0.0
caseyhoops 0.0
worldstarvlne 0.0
flapfkp 0.0
bettycrocker 0.0
mexxxico 0.0
whhhhhhhhuuuuuutttt 0.0
yelletweets 0.0
gucciqxxn 0.0
luckyladyrebelettes 0.0
junglejulia 0.0
charlottes_web 0.0
istarbucksniall 0.0
katysroaaar 0.0
fiorucci 0.0
whuteva 0.0
sirdavidd 0.0
fudgery 0.0
bizquick 0.0
itsgrandtheft 0.0
grandtheft 0.0
katysfancy 0.0
ameezyyrush 0.0
mykectown 0.0
itsvalkubus 0.0
walkslikeperry 0.0
iwantperry 0.0
exausto 0.0
selfeh 0.0
aquaberry 0.0
sidepiece 0.0
versacness 0.0
iamleslii 0.0
alocalgyro 0.0
cutina 0.0
theoutslder 0.0
prism_katy_cat 0.0
katyshoodrat 0.0
thestevetisch 0.0
ronysphotobooth 0.0
schlitterbahn 0.0
kpsnosecrinkle 0.0
alwz_katycat 0.0
whykph 0.0
californiagurls 0.0
katycattt 0.0
varicose 0.0
itsbrillz 0.0
perrystiger 0.0
katysmyaura 0.0
paolablancokp 0.0
callmemargot 0.0
indiggynado 0.0
katycat 0.0
anylinden 0.0
kpkillerqueen 0.0
katyslilacwine 0.0
katypvenezuela 0.0
franzikaty 0.0
katherynelperry 0.0
doessss 0.0
katysleftarm 0.0
datingprism 0.0
_smiler_katycat 0.0
kepyterry 0.0
katycat_camille 0.0
vckatyperry 0.0
bowzerjoe 0.0
taishrox 0.0
mütter 0.0
arianperryarian 0.0
lisasigh 0.0
fridiskp 0.0
kevinruda 0.0
katyperrydaily 0.0
wakingupvegas 0.0
marlyins 0.0
drankin 0.0
herkatycat 0.0
luvhudson 0.0
yaeltsairi 0.0
felipinhoofm_ 0.0
renanmarcall 0.0
kariseperry 0.0
emojing 0.0
konnie 0.0
mcperry 0.0
iturnmycanonon 0.0
katycatelysha 0.0
andrewnavs 0.0
katycatkrystal 0.0
lovelyandlaugh 0.0
lampoonians 0.0
perrytuuda 0.0
katymyhaven 0.0
ruletheschool 0.0
cheapandchic 0.0
sically 0.0
crazyforperry 0.0
kpdaily 0.0
getonupmovie 0.0
cutetina 0.0
chimiuzz 0.0
kefali 0.0
joelkefali 0.0
siclly 0.0
mtvother 0.0
lydiaacav 0.0
prismaticperry 0.0
jwujek 0.0
adorbie 0.0
errone 0.0
kaliyah 0.0
katysweirdness 0.0
vinbiodiesel 0.0
katysfxb 0.0
katyspurrfect_ 0.0
shannonmwoodward 0.0
bippity 0.0
boppity 0.0
swiggty 0.0
swoogity 0.0
pizzarella 0.0
firewerk 0.0
katyslayed 0.0
emerald_epelman 0.0
madkatydisease 0.0
mandee 0.0
ohferras 0.0
sarahh 0.0
iaustinhunt 0.0
lanawhore 0.0
spaceykacey 0.0
crazay 0.0
elektrikpeople 0.0
visa_nz 0.0
fvckin 0.0
nathanspicer 0.0
cashcash 0.0
ashish_uk 0.0
xokatic 0.0
turnting 0.0
scorpiomystique 0.0
toddthomasnyc 0.0
kohngallery 0.0
discnt_universe 0.0
dressinkaty 0.0
lee_cook 0.0
bloodshot 0.0
yaddlizc 0.0
elnett 0.0
itsthekatycats 0.0
kelly_moritz 0.0
katyslaykaty 0.0
skintxghtjeans 0.0
socarrer 0.0
errrday 0.0
therealslacker 0.0
wendywild 0.0
welkys 0.0
sohohouse 0.0
selfing 0.0
camiilaruales 0.0
nexxxt 0.0
turrell 0.0
alliexxxxandra 0.0
surfboardt 0.0
telstra_news 0.0
juanitadele 0.0
oopskatycat 0.0
sophkatycat 0.0
katyschild 0.0
katysconverrse 0.0
katycat_leah 0.0
katycatverified 0.0
katycat_libby 0.0
katyswonk 0.0
kittless 0.0
jlrcukp 0.0
siiiiiiiiiiiiii 0.0
ermagherd 0.0
imlynsey 0.0
perrys_cherry 0.0
casemcgase 0.0
hazzaily 0.0
herses 0.0
gaypropaganda 0.0
tixforcharity 0.0
hudsons 0.0
nomers 0.0
mommacat 0.0
superlove 0.0
bonacorso 0.0
levi_leet 0.0
thinkingofbecki 0.0
cybering 0.0
pamyurin 0.0
idreamofkaty 0.0
xfactor_au 0.0
glohudsonperry 0.0
aubreyplzza 0.0
eeshhuhhayniac 0.0
bonkay 0.0
katysbum 0.0
nevillebradley 0.0
curryswift 0.0
zinepack 0.0
katykatt_suraya 0.0
sweetkatybird 0.0
yohkatheryn 0.0
cottoncandykaty 0.0
karolynadiaz 0.0
maayansharvit 0.0
theprismcess 0.0
camisp_ 0.0
lucasgaldin 0.0
prixy_mtz 0.0
niggasperry 0.0
kaksperry 0.0
zennnnaaa 0.0
katyissmurfy 0.0
dadehoward 0.0
kyledsaavedra 0.0
katysdoritos 0.0
pendejabardera 0.0
rosenilsou 0.0
hackensucks 0.0
gottabesheerio 0.0
ismaellgarcia 0.0
milegendz 0.0
alexskarev 0.0
ladycrystalb 0.0
katyspad 0.0
xcallmechrissyx 0.0
arianastylesss 0.0
jorgebaker 0.0
matty_zee 0.0
katycatzilla 0.0
adorie 0.0
meowwdison 0.0
alvin_koopa 0.0
lexyauditore 0.0
kease_it_raw 0.0
katysking 0.0
chris__kirby 0.0
katysbestfrwend 0.0
katyslildancer 0.0
sssshhh 0.0
conorhughess 0.0
tanimura 0.0
thekatycatlife 0.0
weefififookface 0.0
breakalioz 0.0
hudsonhelper 0.0
lariitaa 0.0
meeeeeooooooooowwwww 0.0
legend__dary 0.0
katyandliam 0.0
_theatrekid 0.0
babybritney 0.0
erinlorimer 0.0
_zacmoore_ 0.0
itscezzurryo 0.0
katycatskp 0.0
larissafilipo 0.0
siaylorswift 0.0
shitkittens 0.0
thefrankradical 0.0
katysprism 0.0
katytinalevine 0.0
serjeeoh 0.0
kayz_perry 0.0
katyslaysurfav 0.0
fuckyeahitskath 0.0
sweetyitosan 0.0
pickerington 0.0
verrado 0.0
retweete 0.0
jameswaterhouse 0.0
hunnah 0.0
truth_ispeak 0.0
_emilybarbarrr 0.0
nbllrrr 0.0
jmoneygraves 0.0
eaglenationnews 0.0
tauentzienstrasse 0.0
avontbh 0.0
vinnie_mate 0.0
demilovve 0.0
coolestkatycat 0.0
terri_katycat 0.0
beeeaaatttt 0.0
laurenfrancisco 0.0
victaytayp 0.0
aylajaye 0.0
iloveu 0.0
augustvaz 0.0
lizzievang_ 0.0
edsssss_ 0.0
hhhhhholly 0.0
holly_hickin 0.0
trixxx 0.0
killah 0.0
treasurefingers 0.0
最強ガール宣言 0.0
voykovic 0.0
annunaki 0.0
katyshomie_ 0.0
katyselephant 0.0
caitlynsmith 0.0
lightsperry 0.0
elizagilham 0.0
ohmyjatyfeels 0.0
junglescope 0.0
drunkskaty 0.0
malikpom 0.0
dancerlaurena 0.0
brirad 0.0
elisa_rv 0.0
moooom 0.0
pattymeagher 0.0
iwasemily 0.0
shahrzadphoto 0.0
tvjohnny 0.0
cstonethebreadwinner 0.0
katysrightboob 0.0
cyberdlck 0.0
beatforkaty 0.0
igabriiel 0.0
duuuuddddeeeee 0.0
redrum 0.0
srbuhiii 0.0
kayleighcat 0.0
applekatycat 0.0
ikatycats 0.0
wehryspencer 0.0
emilyjonesphoto 0.0
coxgabe 0.0
drugmoneyx 0.0
steven_drum 0.0
victoriacha 0.0
hashtaggin 0.0
perryandemetria 0.0
katycatfurlife 0.0
iammelissalynn 0.0
qewtie 0.0
yscheecat 0.0
slayty 0.0
katystree 0.0
katherynsboy 0.0
anapurry 0.0
nenedez 0.0
kevinn_perry 0.0
gloria_swag_ 0.0
andyamaziing 0.0
roarsana 0.0
brighthudson 0.0
fixingperry 0.0
roooooooooooooar 0.0
gretschusa 0.0
katys_cupcake 0.0
wonderation 0.0
kasek_craig 0.0
katysgurll 0.0
pepperperry_ 0.0
teamkatyperry 0.0
meandnutella 0.0
lovatokitten 0.0
katyslolly 0.0
astixxx 0.0
ravemomentz 0.0
erzaabrianto 0.0
katyperryindo 0.0
seeingdaisies 0.0
gillian_e_dubbs 0.0
samanthachazene 0.0
perryprism_ 0.0
katycompletesme 0.0
ltskatyperry 0.0
kittenscks 0.0
nihanofficial 0.0
momcat 0.0
kaytehperreh 0.0
__grazi 0.0
clairekatycat 0.0
fangurl 0.0
rrrrrrrrrrrroooooooooooooaaaaaaaaaaaaar 0.0
marispiva 0.0
mattdrobins 0.0
deihemmings 0.0
rooaaarr 0.0
katycatobsessed 0.0
katycatnick 0.0
tigerkats 0.0
kristenanzelc 0.0
taylermckellop 0.0
essesfadaperry 0.0
imjare 0.0
smganonymous 0.0
roaaaar 0.0
phuckyotweet 0.0
evvvvvverrrr 0.0
melvynmarrero 0.0
zouisashton 0.0
trillneyspears 0.0
rooooooar 0.0
fanwars 0.0
fentyncold 0.0
ttish_ 0.0
rachelacogan 0.0
makesmariana 0.0
kkaplon 0.0
rafaelmoncada 0.0
yaaaassssgrl 0.0
oioianna 0.0
katycatrazan 0.0
megaan_katycat 0.0
thekaelynn 0.0
hannahloupunton 0.0
thumbelinafairy 0.0
nic_kathryn 0.0
dannahfields 0.0
rodneybroaddus 0.0
noxisanasshole 0.0
soedesh__ 0.0
hookerofversace 0.0
thinkingofkaty_ 0.0
msgracevalerie 0.0
francfernandez 0.0
katysring 0.0
a_little_spark 0.0
laaxiss 0.0
