chatting 0.0
trying 0.0
launch 0.000398233961427
moment 0.000301419762506
wonderful 8.41897224516e-05
seeing 2.56660442613e-05
recommend 3.71856090838e-05
anybody 0.0
podcast 0.0
challenges 0.000125740234603
worked 0.000135088616202
direct 0.000247643622664
others 0.000295591005808
currently 2.97194331153e-05
better 0.00113690550942
please 0.000100202771514
travels 5.43169753537e-05
social 0.000475780298625
around 0.000939182812129
people 0.00635184165045
leaving 0.000679035662118
morning 0.00074546801711
general 0.000352287798227
overall 8.68569493983e-05
damage 4.07393753339e-05
affect 0.00017202392006
everything 0.000422431876363
twitter 0.0
present 0.000254638373294
though 0.0
friend 7.49497701566e-05
watched 2.80632408172e-05
beautiful 2.5596910406e-05
anything 0.0
practice 3.36929974686e-05
helped 0.000762665944856
helpful 0.0
revive 0.0
updated 0.0
thinking 0.000203125292889
finally 7.61719848332e-05
caught 2.79870763897e-05
believe 0.000396512724229
already 0.000421294769493
orlando 4.23174859923e-05
depends 3.71856090838e-05
chance 0.000198791471229
meaning 3.67481580682e-05
annual 0.000200443607071
renewed 6.39007311922e-05
growing 0.000238409094269
probably 0.0
should 3.28455314566e-05
changed 0.000106331352211
history 0.00025596910406
center 0.0
museum 0.0
behind 0.000247153371613
pretty 0.0
really 0.00027333827294
expensive 0.0
little 2.47820452643e-05
earlier 0.000901335812567
forget 0.000151116718334
paperwork 0.0
someone 7.51520786354e-05
mostly 0.0
worker 0.0
safety 0.00028800615288
program 0.0
things 0.000543737417549
electrical 0.0
visiting 0.000308471054811
available 0.000180634263847
perfect 0.0
different 0.000101016449759
search 0.000166093001165
connect 0.0
numbers 9.31807641964e-05
person 0.000124580020296
watching 0.000174882797032
passed 0.0
minutes 0.000102664177045
daughter 9.01436429031e-05
average 0.000142334490862
positive 8.84277908606e-05
outside 0.000105188433717
metric 0.0
looking 0.000297384543172
forward 0.000510559387858
raising 0.00170306049616
afraid 6.42317488327e-05
impression 0.0
profile 0.0
drawing 0.0
favorite 0.0
picture 0.0
historic 0.000562782819502
instead 2.79870763897e-05
appreciate 0.0
husband 3.87807003936e-05
international 0.00107513589679
toddler 0.0
couldn 2.58746137451e-05
remember 0.000521827611977
holidays 7.09608540066e-05
friends 0.000299799080626
despite 0.0
understood 0.0
impossible 3.37889794811e-05
everyone 0.000993957356147
florida 0.0
always 0.000148292022968
months 0.00010377811952
moving 0.000106907804857
meeting 0.00112020568657
google 0.0
answer 0.0
together 0.00114613618673
included 0.0
inside 0.000155247682471
section 0.0
missed 7.55583591669e-05
button 4.12542968161e-05
active 3.99865657512e-05
longer 2.86811564307e-05
enough 5.02366270843e-05
projects 0.000353192716083
driving 6.07615049862e-05
building 0.000558222919094
enjoying 0.0
kennedy 5.04441202822e-05
tantrums 0.0
apparently 0.0
recent 0.00019707318874
gotten 0.0
amazing 0.000223038407379
determined 0.000191738453788
attention 0.0
progress 0.000620486957612
tomorrow 0.000670921215399
whenever 0.0
curious 3.94971371409e-05
george 0.000247108958052
feeling 0.0
excited 5.18890597598e-05
campaigning 0.000222711185243
understand 2.70909539226e-05
learning 0.000246425977417
special 0.000400811086056
secret 0.0
across 0.00116591921636
comparison 0.0
surprised 0.0
anymore 0.0
spirited 0.0
precious 0.000157220056691
rejoice 0.0
rather 5.58222919094e-05
showing 7.95332861072e-05
saying 7.78335896397e-05
tweeted 0.0
updates 0.000216636990983
thoughts 0.000949256343025
exactly 0.0
except 0.0
getting 0.000397582942459
nothing 4.96978678074e-05
tweets 2.73860659323e-05
course 7.69981327839e-05
photos 0.000150239404839
looked 2.82162774496e-05
difficult 0.000196518825392
office 0.000349334825046
decisions 3.75188546335e-05
brought 0.000192744677691
biggest 0.00038395365609
thrilled 3.78566549328e-05
entire 0.0
something 0.000198791471229
closing 7.39318315028e-05
anyone 0.000125253464392
taking 0.000521827611977
reprint 0.0
flying 0.000124932359848
happening 2.70909539226e-05
sometimes 0.0
lessons 3.600076911e-05
village 0.0
stopped 0.0
yesterday 0.000551115243326
service 0.00101054240603
serious 0.0
emails 0.0
wearing 0.0
afford 0.0
either 0.000108363815691
second 0.000200405543028
checking 0.0
volunteers 0.000468013563249
indeed 3.38853356935e-05
hearing 5.55199626836e-05
choose 2.92348031337e-05
another 0.000297384543172
address 0.000268017155967
display 4.44433231897e-05
compare 0.0
weekend 0.000100744478889
suggested 0.0
appear 0.0
anyway 0.0
theory 0.0
buildings 0.000118897704524
working 0.00188851897668
bigger 8.74648421119e-05
treated 0.0
admired 0.0
retirement 4.74284796404e-05
laughing 0.0
wanted 2.51183135422e-05
current 5.86298354979e-05
grateful 6.49560207546e-05
friendship 0.000145877989896
family 0.000844863752725
listening 8.17142083775e-05
stream 6.83533579886e-05
sharing 2.92348031337e-05
double 0.000309536047522
especially 5.50699079116e-05
middle 5.70504463737e-05
waiting 0.0
definitely 0.0
walking 2.98011367836e-05
account 2.91549473706e-05
completely 5.89518605737e-05
thought 0.000100202771514
accept 6.35179360772e-05
possible 0.000236673975863
simple 2.89169166015e-05
manufacturing 0.000344663740083
destroyed 0.0
members 0.00021923974059
supposed 0.0
manufacturers 0.0
business 0.00182235404165
absolutely 0.000159497028316
anywhere 6.6249607549e-05
sending 0.0
introducing 0.000279043078868
congrats 0.000156509749859
beauty 0.0
community 0.00137850217417
greatest 8.14932066893e-05
posted 0.0
wednesday 0.0
explain 0.000144980028739
broken 3.08032471771e-05
fairly 5.18013817467e-05
closest 9.48569592807e-05
hoping 5.97662228861e-05
relationship 0.000534516285522
actually 0.0
pockets 0.0
wallet 0.0
pocket 4.25905864192e-05
argument 0.000114943078327
decent 4.41490895104e-05
school 0.00073236926075
throwback 0.0
thursday 0.000106331352211
talented 3.2661087786e-05
discuss 0.000960784904255
celebrate 0.000988574321858
celebrating 0.000681673969002
anniversary 0.000300478809677
students 0.000461135808596
corners 0.0
internet 0.000185331718539
figure 0.0
opened 0.00010895494585
inspired 0.000210335166774
latter 0.0
sitting 2.80632408172e-05
playing 2.52541124396e-05
street 0.00129414283592
points 3.18477126121e-05
advice 0.000612253894784
memory 0.000343728334935
forever 2.80632408172e-05
congress 0.0
imagine 0.0
problem 5.33095791891e-05
pulling 4.23174859923e-05
furniture 0.0
keeping 0.000111039925367
dressed 0.0
chinese 0.000120331357237
unlike 0.0
allowed 3.2661087786e-05
otherwise 0.0
afternoon 0.000204643621936
planned 0.000107061753346
images 0.000218571021613
noticed 0.0
expense 0.0
differences 0.0
difference 0.000271644022298
editor 0.0
intent 0.0
suppose 0.0
inspiration 3.40791824688e-05
letting 0.0
system 0.000310602547321
almost 0.00027333827294
details 0.000135822011149
experience 0.000233500768919
living 0.000415112478079
worries 0.0
weather 0.0
bright 3.4970814368e-05
understands 0.0
normal 0.0
launching 0.000161943529897
backyard 0.0
pointed 0.0
before 0.000107778835589
monday 2.59445298799e-05
example 3.28455314566e-05
science 0.000315647097593
tweeting 0.000113481070349
forgot 0.0
disaster 7.61688953425e-05
happens 7.72061161222e-05
silence 0.000313090583129
learned 2.87594935396e-05
congratulations 0.00175270821967
natural 0.000105825957881
babies 3.86632876447e-05
mission 0.000269543979749
surprising 0.0
reference 0.0
forgotten 3.69659157514e-05
setting 0.000846607663048
appeared 5.66285034108e-05
reminds 3.51734002331e-05
fantastic 0.000498353601732
loving 0.0
complete 0.000114100892747
daniel 0.000174856817291
rewarding 7.52582276493e-05
nearly 0.000522577404576
spirit 3.22059121741e-05
launched 0.000407830701444
finding 3.03807524931e-05
stories 0.000188103367332
including 0.000469365506363
wouldn 0.0
choice 0.000265110953691
offended 0.0
conversation 3.02137563364e-05
disrespectful 0.0
making 0.000793025448458
expect 0.0
traits 0.0
discussion 7.24240251879e-05
believes 4.35709266045e-05
response 0.000438522047005
brings 0.000149826794486
seasons 0.0
anytime 0.0
protected 0.000252220601411
location 3.90172126019e-05
needed 0.000159066572214
seriously 5.49207956588e-05
emergency 0.000259721034849
justify 0.0
spending 0.000277997577809
groups 0.000360994071712
condition 0.0
childhood 8.09717649483e-05
modern 0.000465287106006
welcome 0.000627957838554
moments 6.17772395131e-05
totally 0.0
running 0.000208679666478
strong 0.000537535118526
respond 3.75188546335e-05
message 0.00036915524451
coming 0.00109040999163
thankful 0.0
issues 0.00038529398248
challenge 0.000245142625132
intolerance 0.00016473677413
happen 7.596687817e-05
giving 0.000552602897928
turkey 0.000217272075564
excellent 0.0001295479109
limits 4.61273720178e-05
contractors 0.0
common 0.000276463516318
pressed 0.0
healthcare 4.8277887537e-05
benefits 0.000546240976427
situation 0.000422214134905
workers 0.000413847210616
company 2.81396406838e-05
savings 0.000297244261311
health 0.000586298354979
insurance 0.000128600214932
change 0.00047212974417
silver 4.06123039117e-05
august 3.50718997325e-05
crying 3.91363228911e-05
mental 0.000369659157514
carrier 0.000191702193576
decide 6.16064943543e-05
happened 0.000130777364358
parking 0.0
demand 9.82594126958e-05
sacrifice 0.00020881306401
personal 0.000162106339443
rewards 7.01585531391e-05
beyond 0.000222079850734
contributing 0.000217041540633
passion 0.00015052377009
question 0.000101562646444
doctor 0.0
sacrifices 0.000215681025187
respected 5.43169753537e-05
losing 3.06333816483e-05
strain 0.0
respect 0.000162986413379
shouldn 2.97194331153e-05
career 0.000374895036535
visited 0.00132658522847
reason 2.61554728716e-05
simply 3.10602547321e-05
audience 6.8745666987e-05
sacrificed 0.0
employees 9.51920837801e-05
accounts 0.0
attacked 0.0
involved 0.000144584583007
extreme 0.00017202392006
valuable 9.32145931136e-05
knocked 0.0
reality 5.91136632528e-05
mention 0.0
without 0.000150304157271
problems 0.000153166908241
timing 0.0
described 0.0
pattern 0.0
online 0.000988897194923
background 0.000112221818359
buying 0.000202157984812
called 0.000724514444847
scientists 4.77647479182e-05
checked 0.0
heading 0.0
paying 0.0
planning 9.68888374147e-05
opposite 0.0
through 0.000104610422273
reached 0.000257997579614
changing 0.000365576107441
explains 0.000267258142761
harder 0.0
demands 5.28186173853e-05
silent 0.0
speaking 0.000455161983174
november 3.33127540123e-05
ordinary 0.0
number 0.000763776604477
stunning 7.41510366262e-05
atlantic 4.81056545253e-05
stupid 0.0
personality 0.0
grandparents 0.0
unless 3.06333816483e-05
calling 0.000130424791549
painting 0.0
focused 0.000161440417622
ridiculous 0.0
package 0.000133775292298
rooted 0.0
option 3.600076911e-05
knowing 0.0
former 0.000249864719697
actual 0.0
tracked 0.0
suffers 0.0
schedule 0.0
friday 5.03722394446e-05
failure 3.99865657512e-05
achieve 0.000374828873941
winner 0.00173941334711
doctors 4.47411019384e-05
becomes 0.00165314981096
directly 8.19909902188e-05
quality 6.42317488327e-05
tearing 0.0
father 8.48794577648e-05
wishes 0.000485804665875
collar 0.0
caring 0.0
ground 6.44118243481e-05
matter 7.99643687836e-05
strategy 0.000660068749058
themselves 0.0
asking 7.88913252876e-05
usually 0.0
thankfully 0.0
reacts 0.0
period 0.0
parents 0.000864232966724
balance 7.73265752894e-05
resist 0.0
mobile 0.000123762890448
computer 7.68602447145e-05
reminded 4.31460106285e-05
impressed 0.0
dinner 2.74603978294e-05
suffering 0.0
single 0.000537535118526
parent 9.10032677146e-05
approved 0.000187730012214
energy 0.000354681979517
preview 0.0
meltdown 0.0
remind 0.0
emotional 0.0
sounded 0.0
status 0.000224443636718
update 0.000144980028739
outage 0.0
customers 5.3663668493e-05
holding 2.93952929e-05
causes 0.000220745447552
eating 0.0
picked 0.0
missing 2.65110953691e-05
surprise 2.65828380527e-05
officially 0.000115984022992
global 0.00132874400932
follow 0.000274815823908
opinion 0.0
faster 0.000240662714474
backwards 0.0
design 0.0001125565639
website 0.000212079793593
widely 0.000117823082325
origin 6.20227138817e-05
breaks 3.27531375653e-05
allows 9.35387298444e-05
promoting 8.54565533518e-05
volunteer 0.000468013563249
convince 0.0
negative 3.62120125939e-05
official 2.56660442613e-05
jersey 0.0
mistake 0.0
fixing 4.95183439949e-05
translated 0.0
ginger 0.0
peaceful 0.000628880226763
thinks 2.89960057479e-05
hospital 0.000108636037782
lauren 0.0
easier 3.36929974686e-05
excluded 0.0
successful 0.000305838621313
leadership 0.000194493367937
agrees 0.0
decline 0.0
turnout 0.0
showed 9.36992698862e-05
trumps 0.0
circle 0.0
engage 0.0
suited 0.0
experienced 8.65736782831e-05
interested 9.58103309596e-05
effect 3.27531375653e-05
success 0.000449011853075
ladies 3.40791824688e-05
dreams 3.2661087786e-05
protect 0.000382172551345
explanation 0.0
occasion 0.000113744012479
medication 0.0
planet 0.000174350703789
detached 0.0
essence 0.0
control 0.000194319869393
happier 4.53476437195e-05
likely 3.3218600233e-05
coincidence 0.0
cancel 0.0
project 0.000252569167355
laying 5.14059279156e-05
lesson 0.0
requires 4.81056545253e-05
healthy 0.000101078992406
treating 0.0
opening 0.000324212678885
statement 0.00225441385218
enjoyed 0.0
animal 0.0
nervous 0.0
pounds 0.000106899363106
wonder 0.0
matters 0.000228627614502
shared 0.000204475094813
somehow 0.0
benefit 0.000467197819006
terrible 9.50116229331e-05
continues 0.000545348040667
improve 0.00064549491074
equally 0.0
appointment 5.71179320212e-05
session 0.000194868062264
routine 0.0
exciting 0.000119204547134
corner 0.0
imagination 5.94488522622e-05
decides 0.0
cheering 4.91575297451e-05
spring 0.000127035872154
fallen 0.000262285225936
frequently 0.0
places 0.000237103989218
thousands 0.000910626929121
informed 0.0
typical 9.25726272812e-05
continue 0.000717028910767
attend 0.000187036363932
excuse 0.0
settle 4.62863136406e-05
female 0.00036437284152
recovery 8.2249114431e-05
treasured 0.0
grandma 0.0
closer 0.000124586085068
beginning 3.12330899621e-05
everywhere 5.92759973045e-05
scenes 0.0
bought 6.07615049862e-05
multiple 0.0
slogan 0.0
wishing 7.200153822e-05
covered 3.22059121741e-05
remove 4.28667383107e-05
choices 0.0
dealing 4.31460106285e-05
teacher 0.000148302073252
training 0.000450882770437
passing 6.71947735215e-05
stopping 3.77435410642e-05
become 0.000207556239039
spread 5.67405351747e-05
season 0.0
putting 0.000130424791549
weight 0.0
quietly 0.0
necessity 0.0
knocks 0.0
effects 0.0
returns 9.99382620369e-05
expected 7.11672454309e-05
resources 0.000244009536238
bucket 0.0
struggling 8.60119600302e-05
register 0.000406625073265
promotion 5.38795243381e-05
solution 8.25085936322e-05
manage 9.0695287439e-05
transition 0.0
gained 0.0
define 4.8625996632e-05
somebody 0.0
contract 0.00017202392006
ignorant 0.0
managers 0.0
credit 9.19001449448e-05
brothers 0.0
grandkids 0.0
computers 0.0
physical 4.13847210616e-05
series 2.70177232404e-05
offensive 0.0
fighting 0.000226345220706
donald 0.0
mexico 3.58958205992e-05
sandra 0.0
police 0.000192156980851
represent 8.40947406584e-05
president 0.00162897440444
talking 0.000298992048711
america 5.28791206691e-05
michigan 0.0
everybody 3.06333816483e-05
judgment 0.0
carolina 0.0
amount 0.000174350703789
houston 0.0
everyday 0.000141101277175
michael 0.00019644268572
protecting 0.000221478842499
providing 0.000512680262125
attitude 0.0
million 0.0013303328738
election 0.000891138602788
honesty 0.0
targeting 0.0
telling 2.82162774496e-05
correct 0.0
attack 0.000736601759929
elementary 0.0
americans 0.0
killed 0.000166108466019
horrible 0.0
salute 0.0
coverage 3.36929974686e-05
united 0.000611912331307
college 3.10602547321e-05
refuse 0.0
preach 0.0
hillary 0.0
clinton 0.0
presidency 0.0
throws 0.0
manning 0.0
american 5.27364635014e-05
deserved 7.59405777342e-05
humble 0.0
remain 0.000664445472993
founder 0.000367755568027
illegal 0.000248308326369
arizona 0.0
opinions 0.0
speeches 5.32375314337e-05
scared 0.0
salary 0.0
pieces 0.0
taught 0.0
thompson 5.59120666636e-05
straight 0.0
blocking 0.0
answers 3.20261634752e-05
created 0.000268948002987
record 0.000959947605557
stamina 0.0
weapon 0.0
bottom 0.0
athletes 0.000204066807854
registered 0.000406594909908
minnesota 0.0
committed 0.000469635874693
journey 6.45925582764e-05
snapchat 4.61273720178e-05
peoples 0.0
disrespect 0.0
brother 0.0
prayers 0.000350088062286
boston 0.0
korean 0.0
church 0.0
advantage 0.000169814635973
motivation 0.0
honestly 0.0
defeat 0.000579692933291
lifetime 0.000337669691701
captain 0.0
retired 0.0
country 0.00215594771795
ending 0.000167036339226
dressing 0.0
finish 6.10977693736e-05
ranked 5.52158139412e-05
employee 5.47623087924e-05
university 0.000177918113577
dreamed 0.0
prayer 5.49880212028e-05
nominated 0.0
responds 5.00696383125e-05
national 0.00112862020399
reform 0.000737362946176
shooting 6.21205094643e-05
cancer 0.000312330899621
deserve 9.13940268603e-05
mother 2.76847443365e-05
creating 0.000717710258881
powerful 3.02971133704e-05
wisdom 0.0
breaking 0.000133634756071
dollars 0.0
questions 0.00226587059328
racist 0.0
charged 4.70967251671e-05
soldiers 0.000104003014055
performance 0.000115037974158
reading 0.000105472927003
denver 0.0
graphic 0.0
garner 0.0
create 0.000632708857871
jordan 0.00056272890884
admire 0.0
nobody 0.0
government 0.00479694357181
politics 0.000140693600932
blessing 0.0
wrestling 0.0
charities 0.000350313978516
donate 0.000100506433487
sample 0.0
bringing 0.000446578335275
deserves 6.60627238696e-05
regret 0.0
victim 4.72620457645e-05
according 3.29382720426e-05
threat 0.000147863663006
heaven 0.0
heroin 0.0
honest 0.0
became 0.000155301273661
decision 0.000340717170809
counting 3.52753192937e-05
signing 3.25693795651e-05
embrace 0.0
pressure 3.37889794811e-05
celebrities 0.0
facebook 5.31656761054e-05
kardashian 0.0
divided 0.0
lawyer 0.0
lebron 0.0
campaign 0.000403733116269
determine 5.49880212028e-05
whether 3.14071423516e-05
praise 0.0
defined 0.0
proposes 0.0
discover 0.000169269943969
factory 0.0
arrested 0.0
estate 0.0
proposed 0.0
comments 3.02971133704e-05
teenage 5.45386390563e-05
wounded 0.0
endorsement 0.0
williams 7.92371773471e-05
custom 0.0
troops 0.000257029639578
singer 4.84513292113e-05
future 0.000947085685021
struggled 0.0
sister 3.34072678451e-05
sabotage 0.0
athlete 0.000106475062867
warrior 0.0
cheating 0.0
voting 6.12667632965e-05
succeed 0.000233036482784
religion 5.14059279156e-05
century 4.07393753339e-05
serving 0.00021364138338
because 3.57913158466e-05
cleveland 0.0
hiding 0.0
breath 0.0
choosing 0.0
lawrence 0.0
instagram 3.44714976451e-05
opponent 0.0
detroit 0.0
honored 0.0
nonsense 0.0
lifting 0.0
proven 5.34496815532e-05
talent 0.000264998430196
knocking 0.0
russian 8.27694421232e-05
brains 0.0
oakland 0.0
regardless 4.38583174841e-05
skills 0.000896258938773
citizens 0.00025472195396
california 0.0
commitment 0.000740242029879
seconds 3.3218600233e-05
seeking 8.74284086453e-05
threatening 0.0
listen 0.000153996265568
whatever 0.000142626115934
mexicans 0.0
satisfied 0.0
fought 0.000241409779142
compete 4.66072965568e-05
injured 0.000176013103555
billion 0.00106750868146
ceiling 0.0
absolute 3.64250771648e-05
appearance 0.0
bigsean 0.0
handle 0.0
promise 0.000176855581721
nightclub 7.42492982911e-05
hosting 0.000130277518261
actors 0.0
generation 0.00057934610197
criminal 0.000189713918561
tuesday 5.64325548992e-05
ronald 0.0
locker 0.0
struggle 0.000115639290123
degree 0.000265774610998
entering 4.74284796404e-05
leader 0.000485804665875
pageant 0.0
toughest 0.0
character 6.64372004661e-05
mirror 0.0
interview 0.000151524674638
whistle 0.0
obviously 3.48701407577e-05
battle 0.000374895036535
motivate 0.0
destroy 4.31460106285e-05
relentless 6.73875363144e-05
winning 0.000318133144429
charlotte 0.000151900532297
accomplished 0.0
stepped 0.0
defense 7.97265939623e-05
appeal 0.000133329969569
causing 5.24066855636e-05
arabia 0.00013047404159
shipped 0.0
society 0.000616942109622
officers 0.000105223586546
brooklyn 0.0
marked 0.0
incredible 0.000241193917277
poster 0.0
wealthy 0.0
memorable 0.0
officer 4.48913476117e-05
minute 0.000195909534728
luther 0.0
foreign 0.000411245572155
pregnant 0.000101648727477
champions 0.000233036482784
virginia 0.0
tackle 0.00110705692843
unarmed 0.0
orange 0.0
policy 0.000254975540154
comedy 0.0
reminder 0.0
evidence 0.000110570391263
lighten 0.0
presidents 0.0
kicked 0.0
sticker 0.0
accused 0.0
intentions 0.0
facing 0.000163468413835
freedom 0.000207423343472
actions 0.000126546177445
debating 0.000109976042406
outcome 0.000141786137294
utterly 5.34496815532e-05
mississippi 0.0
clearly 3.14946303621e-05
download 3.50718997325e-05
sidelines 0.0
invite 0.0
legally 0.000107327336986
central 9.82594126958e-05
washington 3.28455314566e-05
veteran 0.000146405721743
division 4.56565894568e-05
veterans 0.000340381976424
stronger 0.00122441125137
promised 0.0
worried 0.0
security 0.00204217286664
immediately 0.0
television 0.0
entitled 0.000215518097352
racism 0.0
highest 0.000455934696523
approve 0.0
turning 0.000248482037857
legacy 0.0
ignore 7.11672454309e-05
choked 0.0
backing 0.000308435567494
helping 0.00161140545827
collector 0.0
willing 0.000113230623193
basically 0.0
return 5.49207956588e-05
unacceptable 0.000160991005479
feelings 0.0
network 0.000138680061907
language 3.47698755607e-05
invest 0.000148555031985
coward 0.0
schools 0.000952433620929
patients 0.000520015070277
foster 0.000205623711662
children 0.00177527719978
nation 0.0011556243286
review 0.000295568316264
between 5.45386390563e-05
knowledge 0.000105825957881
begins 0.000178316598692
tenure 0.0
faithful 0.0
highlights 0.000261850909504
shoulder 9.8674556888e-05
produced 3.88986735873e-05
consider 9.88148161278e-05
shattered 0.0
latest 0.000618053921235
beyonce 0.0
signed 0.000219088527458
millionaire 0.0
shelter 0.0
charity 0.000485380216674
germany 0.000113230623193
advance 7.22123303276e-05
proved 0.0
married 0.0
millions 0.000335973867607
blessings 0.0
indonesia 0.000219839835425
fights 0.0
dollar 0.0
rigged 0.0
conduct 0.0
johnson 0.000141101277175
howard 4.55016338573e-05
turned 0.000163428416755
criticism 0.0
stomach 0.0
upgrades 8.85797078936e-05
jackie 0.0
relevant 8.82981790207e-05
charge 0.000137491333974
ticket 6.66255080246e-05
steady 0.0
indian 0.00010320572783
turner 6.11346421588e-05
sanders 0.0
includes 0.000110897747254
survivor 0.0
dealers 0.0
collection 3.40791824688e-05
against 5.47623087924e-05
joyner 0.0
impact 0.000265748801864
families 0.00142915356174
welcoming 4.97007458351e-05
hitting 0.0
announced 0.00187325289286
granted 9.51920837801e-05
decided 0.0
itself 0.0
selfish 0.0
mexican 9.8674556888e-05
respects 0.000377663333823
guarantee 0.000145877989896
beliefs 0.0
citizen 4.45917640993e-05
states 6.26399258827e-05
denied 0.0
drought 0.0
memorial 0.00044396114846
decades 0.000199316484906
trayvon 0.0
landed 0.0
pastor 0.0
ultimate 7.200153822e-05
weekends 0.0
episode 0.0
spikes 0.0
engaged 0.0
financial 0.000262285225936
payments 6.66497102649e-05
tolerant 0.0
symposium 0.0
kansas 0.0
agreement 0.000919388920068
source 6.97402815154e-05
backbone 0.0
dismiss 0.0
midnight 0.000100506433487
homework 0.0
joining 0.000204643621936
reasons 2.89169166015e-05
talked 0.0
released 0.000115667666406
reaching 0.000136504901572
release 0.000136190347296
existing 0.000150208914938
models 4.79346134471e-05
pageants 0.0
helmets 0.0
scheme 0.000597486728891
scholarship 6.05598409691e-05
stacked 0.0
speech 0.00208607957485
standing 5.67405351747e-05
higher 0.000299814786111
purple 0.0
justice 0.000501109017677
served 0.000225113127801
speaks 0.000107687461798
backup 0.0
allegedly 0.0
purchase 0.0
millionaires 0.0
consideration 0.0
strength 0.000412474001922
incredibly 0.00014028759893
private 0.000222933988285
ignored 0.0
neighbors 0.0
apologizes 0.0
beings 5.8647203486e-05
minimum 0.000307263292433
direction 3.80844476712e-05
enemies 0.0
exclusive 2.94759302869e-05
prison 0.00021929158742
himself 0.0
contributes 0.000182761329122
investigation 0.0
teaching 0.000189283274664
disgusting 0.0
philly 0.0
rights 0.000435527878446
cheers 0.0
maintain 0.000109976042406
overcome 5.47623087924e-05
flawless 0.0
unique 0.000228506686027
neighborhood 0.0
dating 0.0
handed 0.0
victory 0.000496725978046
lifted 0.0
greatness 0.0
muslim 0.000140308094767
terrorist 0.000559068001124
productive 0.0
tribute 0.000545266919501
deadspin 0.0
threatened 0.0
horror 0.0
warning 7.17916411984e-05
convention 0.0
understanding 0.0
action 0.000559750581485
having 0.0
afghan 7.97643663972e-05
announces 0.000873316643943
commencement 0.0
speaker 0.0
graduation 6.02773768985e-05
honors 0.0
produce 0.0
apologize 0.0
insult 0.0
continued 0.000127771759258
letter 9.19001449448e-05
discussed 0.000797323832995
therapy 5.20015070277e-05
untrue 0.0
written 9.08913401112e-05
existence 0.0
essential 0.000220016379444
results 0.000227346072641
initiative 0.000199538015341
disease 0.000291755979792
marching 0.0
suggest 0.0
georgetakei 0.0
ensure 0.00113828351137
democrats 0.0
marched 0.0
foundation 7.07553207611e-05
access 0.000336037731555
writes 0.000161943529897
student 0.000142749004461
colorado 0.0
medical 0.000163468413835
medicine 0.0
tremendous 4.69325030535e-05
nytimes 0.0
kindness 0.0
public 0.00057676159467
cannot 2.76847443365e-05
reveals 0.0
invented 0.0
threatens 5.73663294604e-05
candidate 0.0
persistence 0.0
sexual 0.000130712779814
illustration 0.0
measure 4.55016338573e-05
compared 0.0
headline 0.0
reflect 9.16250454013e-05
answering 7.48145455726e-05
streaming 4.06123039117e-05
leaders 0.00115878440301
supreme 0.0
nominee 0.0
immigration 0.000230636860089
policies 0.000135127536674
laundering 0.0
administration 0.0
defend 4.06123039117e-05
communicating 0.0
excitement 0.0
funding 0.00110932048286
climate 0.000168189481317
transfer 0.0
conspiracy 0.0
activist 0.0
horrifying 0.000183403926476
freely 0.0
retreat 6.52370207952e-05
daughters 0.0
compelling 0.000114732658921
platform 0.0
hamilton 4.91575297451e-05
futures 0.0
huffingtonpost 0.0
headlines 0.0
january 6.8745666987e-05
grants 0.000119443905378
unprecedented 0.000110431627882
relationships 0.000207205526987
philadelphia 0.0
diversity 0.000183250090803
funded 0.000183250090803
secure 0.000589519368354
income 0.000273939536741
universal 8.77166349682e-05
contributed 0.0
hurricane 0.0
fundamental 0.000112774752515
countries 0.000680035001085
linked 9.25726272812e-05
african 0.000137437568102
improved 4.8979078882e-05
unclear 0.0
provide 0.000801351697627
livestream 0.0
addresses 0.0
enhance 0.000149497230028
companies 0.00037012101494
proposal 0.0
potential 0.000308471054811
discrimination 0.000347224449623
connected 0.0
drives 4.759604189e-05
attending 0.000229062613503
filled 3.48701407577e-05
education 0.000935403499663
addressed 0.000114235864042
mentioned 0.0
famous 3.41766789943e-05
resistance 5.49880212028e-05
exists 0.0
demonstrated 0.0
officials 4.37142043226e-05
instructions 0.0
transmission 0.0
olympics 0.000220016379444
ability 3.61061651638e-05
political 0.000249085359008
director 6.19485765107e-05
contains 0.0
sponsored 0.0
autism 5.94488522622e-05
previously 0.0
prevent 0.000165017187264
capacity 0.000114235864042
donations 4.69325030535e-05
william 0.0
editors 0.0
passionate 4.50425122246e-05
solving 0.0
innate 0.0
treatment 0.000194493367937
critical 3.94971371409e-05
feeding 5.12105487388e-05
preparing 8.30316744322e-05
depend 6.39007311922e-05
capable 0.0
bridge 0.0
systematically 0.0
becoming 0.000222933988285
embraced 7.74087431684e-05
literacy 7.4748615014e-05
lawyers 5.18013817467e-05
stigma 0.000221279609042
malaria 7.68533189591e-05
standard 3.58958205992e-05
hiring 0.000144316963576
remains 0.000230580734144
fellow 0.0
defending 0.0
quotes 0.0
pushes 0.0
luxury 0.0
admitted 0.0
colleagues 9.10032677146e-05
failed 0.0
independent 0.000766287188846
politically 0.0
driven 0.0
agenda 0.00053689322326
result 0.000536869737699
implications 5.81268613793e-05
insider 0.0
pakistan 0.0
solutions 5.24066855636e-05
trusts 0.0
indiana 0.0
filling 0.0
humility 0.0
clicks 0.0
disagree 0.0
claims 3.98632969812e-05
editorial 0.0
mistakes 0.0
offered 8.17342069175e-05
passionately 0.000169037805169
justification 0.0
inspiring 0.000603038600925
counter 0.000563190036643
shaped 0.000162950926061
retroviral 0.0
majority 0.00012494295798
approach 0.000628420567773
nature 0.0
concern 0.0
server 0.0
berniesanders 0.0
shameful 0.0
experiment 0.0
massive 6.29892607241e-05
promises 0.000330834320352
colored 0.0
consequences 4.79346134471e-05
whatsoever 0.0
proposals 0.000234588813944
guesses 0.0
bernie 0.0
interviewed 7.99731315024e-05
pregnancy 0.0
secretary 0.00277035770506
measures 0.000763540946788
vastly 0.0
reduce 0.000314239433282
compassionate 6.89327480166e-05
distinguished 7.68533189591e-05
dangerous 6.66255080246e-05
influence 0.000121836911735
letters 0.0
implicit 0.0
saving 0.0003600076911
revelations 0.0
incident 0.0
universe 0.0
victims 0.00097202076597
milestone 0.000238887810757
perfectly 0.0
exercise 8.65736782831e-05
receive 0.000279766514944
reputation 0.0
economics 0.0
disclosure 0.0
receives 0.000286831647302
terrific 0.0
collected 0.0
campus 4.91575297451e-05
founders 0.000445495789747
profiling 0.0
systemic 0.0
studying 5.24066855636e-05
necessary 7.63982724331e-05
inaccurate 0.0
breast 5.54457257122e-05
debate 0.000191620661919
suddenly 0.0
conflict 0.000464425775235
interest 0.000174350703789
meanwhile 0.0
indefensible 0.0
recall 0.0
rating 0.0
nominate 0.000104003014055
outstanding 0.000596268209869
devastating 0.000183877784014
illness 0.0
troubling 0.0
romney 0.0
appears 0.0
breathe 0.0
abroad 0.000161638573014
spanish 4.56565894568e-05
profit 0.0
reviews 0.0
republican 0.0
presidential 4.13847210616e-05
candidates 0.0
politicians 0.0
identified 0.0
epidemic 6.05598409691e-05
displaced 0.0
greater 0.000242915294845
absurd 0.0
deadline 0.000159946263005
height 0.0
sisters 9.45240915291e-05
nuclear 0.000175433269936
stress 0.0
leading 0.000409430194707
restored 0.0
conditions 9.32145931136e-05
however 3.93762795056e-05
achieved 0.000204842194955
member 0.000116619789483
examples 5.28186173853e-05
diverse 0.000114732658921
suicide 4.8979078882e-05
contributions 0.0
largest 0.000430499551802
increase 0.000645761670487
targeted 5.49880212028e-05
regulators 0.0
provided 0.000255083509817
element 0.0
effectively 5.59120666636e-05
population 4.70967251671e-05
rising 0.000199932828756
indication 0.0
versus 0.0
believed 0.0
dynamic 5.38795243381e-05
invasion 0.0
primary 9.03892141743e-05
provides 0.000194503986528
environment 9.13131789136e-05
confirmed 0.000216636990983
behavior 0.0
introduced 0.000236310228823
contain 0.0
communities 0.000850716823762
worldwide 0.0
responsible 4.04858824741e-05
household 0.000278388981554
apparent 0.0
munich 6.97431595432e-05
alternate 0.0
expressed 0.000120554753797
movement 3.31248037745e-05
declared 5.43169753537e-05
hundreds 0.000286968465766
information 0.000235181707325
easily 0.0
untreated 0.0
october 6.93400309535e-05
quantify 0.0
scales 0.0
investigating 0.0
innovation 0.000262033427818
perspective 3.66399944944e-05
rivals 0.0
interests 0.000233846824611
toledo 0.0
extraordinary 0.000544874349945
gingrich 0.0
describing 0.0
eliminate 0.000179994313742
obligation 6.89327480166e-05
gender 0.000453476437195
committee 0.000162449215647
preventing 6.35776502888e-05
numerous 0.0
unusual 0.0
improving 0.000429309347944
practices 5.71179320212e-05
cemetery 0.000154817486337
questioned 0.0
affecting 6.66497102649e-05
ferrell 0.0
genius 3.29382720426e-05
warren 0.0
organizers 0.0
regularly 0.0
ceilings 0.0
sexism 0.0
prepared 0.0001125565639
burden 0.0
foreignpolicy 0.0
county 4.58125227006e-05
uniform 5.59120666636e-05
newyorker 0.0
anthony 9.03892141743e-05
reflecting 6.29438889706e-05
grandson 0.0
banning 5.59120666636e-05
considered 0.0
chosen 4.67693649222e-05
outright 0.0
screenings 0.0
naming 0.0
conventions 0.0
reproductive 0.0
ignores 0.0
focusing 0.000104813371127
sensible 5.78707416038e-05
concluded 7.68533189591e-05
performed 0.0
divide 0.0
dismissed 0.0
compromise 0.0
crucial 0.000236310228823
weakness 0.0
barrier 0.0
effective 4.12542968161e-05
wealth 0.0
underway 9.94014916702e-05
israel 5.28186173853e-05
overwhelming 0.000105223586546
assault 0.0
citing 0.0
protection 8.60119600302e-05
prisoners 0.000262330781925
photographing 0.0
traveled 0.0
holder 0.0
seemed 0.0
concludes 0.0
determination 0.000121691141185
tested 0.0
lacking 0.0
machine 0.0
honoring 0.0
contrary 0.0
tolerance 0.0
michelle 0.000191058991673
assumed 0.0
programs 0.0
closely 0.00040968438991
politico 0.0
inspire 0.000210910295742
lyrics 0.0
judges 0.0
federal 0.0
maryjblige 0.0
tuning 0.0
striving 0.0
poland 0.000387359075462
september 3.47698755607e-05
manchester 0.000315297585572
checks 0.0
remarkable 8.54565533518e-05
mharrisperry 0.0
immoral 0.0
fiction 0.0
process 0.000315824291654
anxious 0.0
destructive 0.0
nmaahc 0.0
performances 0.0
whitehouse 0.0
flotus 0.000503551111765
crisis 0.00102828008712
marriage 0.000171466953243
emotions 0.0
confidence 0.000271464902755
voters 0.0
comparing 0.0
oldest 9.97690076704e-05
empirefox 0.0
chancetherapper 0.0
songwriter 0.0
literally 0.0
onstage 0.0
believing 0.0
hillaryclinton 0.0
citizenship 0.0
counted 0.0
hillaryfornc 0.0
raleigh 0.0
discusses 0.00015305010589
johnlegend 0.0
apprentice 0.000442559218085
acknowledge 0.0
conservative 4.59694460034e-05
economists 0.0
buzzfeed 4.9337278444e-05
puppet 0.0
hombres 0.0
republic 0.000104406532005
homecoming 0.0
andersoncooper 0.0
muslims 0.000157220056691
katyperry 0.0
bragging 0.0
treats 0.0
qualified 0.0
islamophobia 0.0
debates 0.0
endorsements 0.0
counts 0.0
theellenshow 0.0
festival 0.000182125385824
encouraged 0.0
stylish 0.0
disregard 0.0
jtimberlake 0.0
backstage 0.0
barack 5.49880212028e-05
joined 0.0001523233781
terrorism 0.00103608284732
pushing 0.0
hopeful 5.54457257122e-05
mentions 0.0
teamed 0.0
exclusively 0.0
aliciakeys 0.0
kingjames 0.0
muhammad 6.35776502888e-05
refused 0.0
characters 0.0
express 0.000191571797212
gratitude 0.0
ugliest 0.0
throughout 0.000157024039951
awkward 0.0
shining 0.0
fighter 0.0
accepting 0.0
applemusic 0.0
reveal 0.000144424660655
stands 0.00010311850048
native 0.0
announce 0.000575189870791
dorothy 0.0
haters 0.0
jessetyler 0.0
shondarhimes 0.0
lavernecox 0.0
broadway 0.0
disabilities 0.000361735901056
adoption 0.000416007793634
touched 4.62863136406e-05
corruption 0.00142677245429
violence 0.000181591576416
leedanielsent 0.0
delivered 0.000482819558285
jasmine 0.0
independence 0.000134223305815
square 6.70042889916e-05
alongside 0.000331999357482
privilege 9.16250454013e-05
secondary 0.000129792228376
staggering 0.0
seventh 0.0
tennis 5.45386390563e-05
sweeping 0.0
footage 0.0
overseas 0.000651803704245
spoiler 0.0
theirs 0.0
offering 0.0
construction 0.000103602763493
spends 0.0
detail 9.10032677146e-05
cabinet 0.000997690076704
earnings 0.0
pleased 0.000367803931129
gravity 0.0
statements 0.000105223586546
decade 7.73265752894e-05
bigotry 0.0
belong 0.0
trillion 0.000123446260739
backed 0.00019663011898
operations 6.17231303693e-05
breakthroughs 0.0
values 0.00031636224961
senator 0.0
removing 5.89115411626e-05
wondered 0.0
introduces 0.0
makers 0.0
measured 0.0
pillars 9.45401094384e-05
instrument 0.0
shares 0.000159453187925
individual 8.35603497853e-05
applications 0.000113744012479
prepares 0.000124045427763
ceremony 0.000220745447552
expanding 0.000172098988381
merger 0.0
newspaper 0.0
detailed 5.47623087924e-05
tuition 0.0
childcare 0.00129651355939
thoroughly 5.71179320212e-05
adviser 0.000258239383641
matthew 4.72620457645e-05
affected 0.00118417322271
newspapers 0.0
corporate 0.0
economy 0.00217211990738
presenting 4.70967251671e-05
spoken 0.000289693047431
richer 0.0
during 0.000186977920071
combat 0.000359841495409
touting 0.0
competitive 0.000248503729175
prominence 0.0
trifecta 0.0
fashioned 0.0
boasts 0.0
ripped 0.0
belief 0.0
heroes 0.000150974164257
disturbing 0.0
russians 0.0
intelligence 0.000135583821261
deepest 0.0
regrets 0.0
complicated 4.44433231897e-05
internships 0.0
adults 9.48569592807e-05
describe 0.0
equality 0.000312142348695
announcement 0.000254071744309
interfere 0.0
terrifying 0.0
nationwide 0.0
manager 7.75614007872e-05
questionable 0.0
enhanced 0.0
services 0.00106476466048
delighted 0.0010320572783
golfer 7.79769368625e-05
regarding 0.0
teachers 0.000221478842499
suggests 0.0
phrase 0.0
immigrants 0.0
revolution 4.62863136406e-05
universities 0.000552844212927
twelve 0.0
principle 0.000109524617585
releases 0.0
malarkey 0.0
library 0.0
advisor 5.76172487441e-05
deadlines 0.0
encouraging 0.000146405721743
circuit 0.0
humanitarian 0.000868061124057
reliant 0.0
assistance 0.000135529754071
swimmer 0.0
hinges 0.0
concrete 0.0
accepted 4.13847210616e-05
confronted 8.60641142866e-05
comprehensive 0.000174380584138
pushed 0.0
unending 0.0
occasionally 0.0
guardia 0.0
donation 0.000125740234603
nomination 0.0
paintings 7.5778569756e-05
significantly 0.0
investment 0.00253153163967
terror 0.000326251075898
worship 7.28091625808e-05
represents 5.08243637385e-05
attempting 0.0
bullying 5.22032660025e-05
astonishing 0.0
endorse 0.0
urgent 0.000108194564043
forced 0.000113910866601
addressing 0.000158455852156
script 0.0
hundred 0.0
command 0.0
qualifies 0.0
stumbled 0.0
territory 0.0
balloons 0.0
objects 0.0
latimes 0.0
pandemics 0.0
separating 0.0
pentagon 0.0
threats 9.69026584226e-05
prisons 0.000500138391366
approaching 0.0
generous 0.0
roughly 0.0
commands 0.0
uncovered 0.0
destroying 0.0
opposition 0.000150208914938
addiction 0.0
manhattan 0.0
ridiculously 0.0
awarded 0.000341232037436
greeted 0.000150516455299
forces 0.00112657896933
confirm 8.04699263808e-05
dealings 0.0
nations 0.000783665262113
equivalent 0.000104406532005
sexist 0.0
yahoonews 0.0
bloody 0.0
boundaries 0.0
exceptionally 0.0
cannon 0.0
feared 0.0
significance 0.0
recommendation 0.0
chapters 0.0
racial 5.81268613793e-05
obvious 0.0
statistics 0.000427942495111
military 0.000308371440327
adopted 0.000109524617585
housing 0.000867283933378
clearer 6.48961141882e-05
calculator 0.0
underwater 7.4748615014e-05
guided 0.0
rescue 0.000264894537062
deserving 0.0
advised 0.0
ordered 0.0
unions 0.000138669264545
avoiding 0.0
alicia 0.0
preserve 5.97219526891e-05
balloon 0.0
economic 0.00149142203388
recipe 0.0
awaits 0.0
squarely 0.0
radical 0.0
banter 0.0
spaces 0.0
carnival 0.0
theories 0.0
bombing 5.78707416038e-05
products 0.000134674042835
margaret 0.000121119681938
gathered 0.0002044442047
taxpayers 0.0
admits 0.0
opposed 0.0
pressing 6.42280914371e-05
russia 0.000192150611786
lincoln 0.0
intelligent 5.04441202822e-05
momentum 5.30271868691e-05
olympic 4.58125227006e-05
magnificent 0.000103602763493
heritage 0.00029323601743
beijing 0.0
beloved 0.0
dummies 0.0
pursuit 6.08455705926e-05
carries 6.35776502888e-05
phelps 0.0
medals 0.000426065343648
gymnastics 0.000170558869007
summed 0.0
accuse 0.0
symbol 0.0
dignity 0.000345703492464
slogans 0.0
priorities 0.000329928127217
applied 0.0
progressive 5.68720062393e-05
activists 0.0
elected 0.000258876063771
brussels 0.000528186173853
subscribe 0.0
elections 0.000299307023011
unites 8.52794345033e-05
complacency 0.0
imperative 0.0
doorsteps 0.0
voices 7.99731315024e-05
blatant 0.0
democracy 0.000303999322894
disastrous 0.0
rebuild 0.000119443905378
accuses 0.0
diplomacy 0.0
hardball 0.0
attacking 0.0
subtle 0.0
barker 0.0
sticking 4.84513292113e-05
openly 0.0
policing 0.0
embarrassed 0.0
slightest 0.0
abbott 0.0
attacks 0.000398632969812
commit 0.000151332360847
argued 6.45598459103e-05
remarks 0.000107327336986
democratic 5.04441202822e-05
semitic 0.0
incomes 0.000243096292386
treasury 0.000447305118345
alarming 0.0
dividing 0.0
reject 0.0
affirming 0.0
quitting 0.0
extended 0.000135127536674
reducing 0.000119443905378
proudly 5.89115411626e-05
inclusive 6.52370207952e-05
oppose 5.54457257122e-05
distinctly 0.0
urging 0.0
strengthen 0.000375798000764
deliver 0.000902888229718
obligations 8.60641142866e-05
relations 0.000673782946462
repeal 5.76172487441e-05
strengths 0.000155953873725
counties 0.0
weakened 0.0
reckless 0.0
prosperous 0.000670248612279
servant 7.10108906081e-05
secretaries 0.000191379734619
negotiator 0.0
faults 0.0
choking 0.0
executive 8.25085936322e-05
alternative 4.16476526601e-05
extend 0.000378680974149
republicans 0.0
embodied 0.0
preparation 0.0
terrorists 0.000342707592127
confident 0.000170913106704
weapons 9.6555775074e-05
unifying 0.0
outrage 0.0
constitutional 0.0
rental 0.0
prevail 0.0
resilient 7.4748615014e-05
humbled 0.0
courage 4.08671034588e-05
commander 0.0
respecting 0.0
enormous 0.0
aligned 0.0
consent 0.0
refusing 0.0
resentment 0.0
substance 0.0
claiming 5.14059279156e-05
lamont 0.0
dropping 0.0
carried 0.0
intimidated 0.0
behalf 0.000266659939138
meaningful 0.000107759048676
amendment 0.0
accepts 0.0
legislation 0.000104003014055
fairer 0.000567224682235
commitments 0.000503255725436
handling 0.0
proves 0.0
rhetoric 0.0
hardest 0.0
peddling 0.0
divisive 0.0
strongly 9.79581577641e-05
vision 0.000219839966966
investigations 0.0
repeatedly 0.0
records 0.000337669691701
madeleine 0.0
disabled 0.000473429892793
quoting 0.0
assassination 0.0
beaten 0.0
deeply 0.000279905960258
grievance 0.0
contempt 0.0
standards 8.91835281987e-05
fairness 5.83856630861e-05
dictated 0.0
consensus 0.0
reconsider 0.0
priority 0.000238823739591
rogers 0.000115741483208
freedoms 6.81480682334e-05
notorious 0.0
invested 0.000129119691821
propaganda 0.0
unconstitutional 0.0
condemn 0.000128456182874
concerned 0.000158962559877
praising 7.23471802111e-05
cheered 0.0
realdonaldtrump 8.62920212571e-05
despicable 6.81480682334e-05
straightforward 0.0
bargain 0.0
attorney 5.78707416038e-05
bedrock 0.0
optimism 0.0
belongs 5.43169753537e-05
truman 0.0
whichever 0.0
inappropriate 0.0
beatings 0.0
optimistic 0.0
campaigned 7.85585010396e-05
allies 0.000520836674434
governor 5.18013817467e-05
attempts 0.0
extent 0.0
denial 0.0
maximum 0.0
merely 0.0
apprenticeships 0.00218899457337
agreeing 6.23259733571e-05
architect 0.0
responsibility 0.000244436252003
mainstream 0.0
legitimacy 0.0
injustice 6.39007311922e-05
dozens 0.0
donnell 0.0
scenario 0.0
crimes 0.000274940106014
thoughtful 0.0
hypocrisy 0.0
undocumented 0.0
sexually 0.0
richest 0.0
softening 0.0
implies 0.0
infrastructure 0.000525470967775
pitching 0.0
broadband 0.00040516048731
tenants 0.000191379734619
allegations 0.0
bloomberg 0.0
insulting 0.0
liberal 0.0
kremlin 0.0
podium 0.0
provoke 0.0
outrageous 0.0
campaigns 0.0
barriers 0.000482219015188
powell 0.0
technical 0.00015540414524
warnings 0.0
flagged 0.0
grassroots 0.0
extremist 8.10320974621e-05
businesses 0.00204229185854
welcomes 0.000473429892793
deputy 0.000176734623488
donating 0.0
continually 0.0
ourselves 5.8647203486e-05
fringe 0.0
politician 0.0
wiggins 0.0
welcomed 0.00100641719994
rallies 0.0
ballot 5.16028639151e-05
failing 0.000221478842499
uniting 8.16912121802e-05
refuses 0.0
appealing 0.0
proverb 0.0
privileges 0.0
ideals 0.0
vibrant 0.000144694360422
tarmac 0.0
residents 0.0
apprenticeship 0.000923895939192
denying 0.0
fierce 0.0
opponents 0.0
polling 0.0
apology 0.0
damning 0.0
outline 0.0
endorses 0.0
losers 0.0
insulted 0.0
equipped 0.0
battlefield 0.0
recession 0.000442559218085
endorsed 6.29438889706e-05
divides 0.0
describes 0.0
appointed 0.000772835079409
encourage 0.000168189481317
undermine 0.000198866688045
undermining 0.0
authority 5.3663668493e-05
betray 0.0
funnyordie 0.0
donated 0.0
jimmykimmellive 0.0
immigrant 0.0
criminals 6.73875363144e-05
automatically 0.0
schooled 0.0
elizabethforma 0.0
releasing 0.0
connects 0.0
screening 0.0
cleaner 0.0
nowthisnews 0.0
sophiabush 0.0
chelseaclinton 0.0
stunts 0.0
truths 0.0
transparency 0.000162291846064
obamacare 0.0
nickkristof 0.0
contraception 0.0
betting 0.0
conscience 0.0
proclaimed 0.0
dispatch 0.0
advocate 0.000209626742254
profits 0.0
toward 0.0
guiding 0.0
senators 0.0
barber 7.10108906081e-05
doubled 0.000127155300578
mosque 7.91540801516e-05
senate 0.0
louisiana 0.0
senwarren 0.0
parenthood 0.0
organizations 0.0
generations 0.000245787648725
minorities 0.0
misogyny 0.0
peacefully 0.0
decency 6.66497102649e-05
intend 0.0
discourse 0.0
pennsylvania 0.0
katiemcgintypa 0.0
experiencing 0.0
mccain 0.0
scandal 0.0
constitution 0.0
sensanders 0.0
intolerable 0.0
strive 0.0
forefathers 0.0
abandon 0.0
buzzfeednews 0.0
paulkrugman 0.0
mothers 0.000184509488071
compassion 0.000169885510233
deeper 5.26117932732e-05
governments 0.000125887777941
activism 0.0
jamilsmith 0.0
mike_pence 0.0
elizabethbanks 0.0
empathy 0.0
audited 0.0
checkers 0.0
warming 0.0
volunteering 0.000324128389848
charitable 0.0
qualifications 8.10320974621e-05
workplace 0.000317888251444
granddaughter 0.0
recycled 0.0
directing 0.0
politifact 0.0
abolish 0.000150516455299
murders 0.0
reagan 0.0
pouring 0.0
ballots 0.0
racists 0.0
empower 0.0
tolerate 7.23471802111e-05
chrismurphyct 0.0
igorvolsky 0.0
outraged 0.0
exceptional 5.91787365991e-05
nightmares 0.0
enforcement 0.0
weaken 0.0
medicaid 0.0
humbly 0.0
newsweek 0.0
conflicts 0.0
suffer 0.0
dallasnews 0.0
bridges 0.0
lesdoggg 0.0
appalling 0.000186977920071
hatred 0.000105223586546
superpower 0.0
goodbye 0.0
renewable 0.0
robdelaney 0.0
motherjones 0.0
trusted 0.0
sheriff 0.0
personalized 0.0
amnesia 0.0
malala 0.000158308160303
problema 0.0
everytown 0.0
casting 0.0
employers 0.00109751738047
rudolph 0.0
packets 0.0
organization 0.0
graceful 0.0
hardworking 0.000319057465589
cherished 0.0
aggressively 0.0
founding 0.000387359075462
sacred 0.0
horrific 0.000102811855831
earned 4.37142043226e-05
siding 0.0
minded 0.0
contribute 0.00010320572783
incites 0.0
chooses 0.0
obtained 0.0
defended 0.0
champion 0.000236257677034
magazines 0.0
waited 5.18013817467e-05
punished 0.0
conviction 6.77648770357e-05
tradition 4.50425122246e-05
giveaways 0.0
distracted 0.0
endorsing 0.0
pathetic 0.0
ladygaga 0.0
pessimistic 0.0
highlighting 0.0
transgender 0.0
womensmarch 0.0
advisors 0.0
wrecking 0.0
hillaryforva 0.0
registration 5.34496815532e-05
ellemagazine 0.0
acceptance 0.0
defeated 0.0
theroot 0.0
pharrell 0.0
tumblr 6.70158701051e-05
nevada 0.0
illinois 0.0
massachusetts 0.0
theadvocatemag 0.0
lending 0.0
rejecting 0.0
legalize 0.0
conned 0.0
arkansas 0.0
celebratin 0.0
rubber 0.0
lenadunham 0.0
hateful 0.0
wizard 0.0
unbearable 0.0
harpersbazaarus 0.0
familia 0.0
iamwill 0.0
retweets 0.0
nominating 0.0
vietnam 0.000373955840143
laurie 0.0
claimed 0.0
rapids 0.0
devoted 0.0
casino 0.0
astounding 0.0
summon 9.45401094384e-05
crushed 0.0
louder 0.0
farmers 0.000597219526891
lin_manuel 0.0
arrangement 0.0
borrowed 0.0
mariska 0.0
purposes 0.0
dialogue 0.000119996209161
comedian 0.0
________ 0.0
lightly 0.0
defeating 0.000205611882557
jerusalem 0.0
cynical 0.0
worrying 5.14059279156e-05
elizabeth 0.000199538015341
insults 0.0
microphone 0.0
sleeves 0.0
theeconomist 0.0
stakes 0.0
nationally 0.0
inspect 0.0
poisoning 0.0
columbus 0.0
declaring 0.0
crushing 0.0
chucktodd 0.0
soldier 5.89115411626e-05
painted 0.0
warned 0.0
ohiostate 0.0
unrelated 0.0
designated 0.0
clears 0.0
congressional 0.0
confront 6.97431595432e-05
usatoday 0.0
delivers 0.000213798726213
pittsburgh 0.0
entiende 0.0
soaked 0.0
bromance 0.0
lifelong 6.32587382878e-05
antiques 0.0
repjohnlewis 0.0
breakers 0.0
fundraising 0.000467085304688
hispanic 0.0
defrauded 0.0
fearful 0.0
nytopinion 0.0
volume 0.0
perfecting 0.0
washingtonpost 5.34496815532e-05
affordable 0.000359841495409
mighty 5.66285034108e-05
normalizing 0.0
boasting 0.0
assaulting 0.0
disqualify 0.0
monique 0.0
jcolenc 0.0
teamusa 0.0
allysonfelix 0.0
usabasketball 0.0
ibtihaj 0.0
simone 0.0
feminism 0.0
conversion 0.0
destiny 0.0
disrespected 0.0
serenawilliams 0.0
tantrum 0.0
heinous 0.0
unconscious 0.0
accomplishments 0.0
saddened 0.000365422862017
disgrace 0.0
rodriguez 0.0
arsenal 0.0
defender 0.0
malalafund 0.000204821601546
merchandise 0.0
laundry 0.0
lesbians 0.0
cnnpolitics 0.0
nickgass 0.0
examining 0.0
monument 7.28091625808e-05
appeals 0.0
gracias 0.0
madame 0.0
grande 0.0
speechless 0.0
coulter 0.0
missiles 0.0
psyched 0.0
chelsea 5.30271868691e-05
biases 0.0
resume 5.99981045806e-05
spectator 0.0
angelina 0.0
spectacle 8.52794345033e-05
admiration 7.18936750623e-05
reaches 0.000117823082325
español 0.0
dreamers 0.0
mañana 0.0
bursting 0.0
undone 0.0
beyoncé 0.0
nuestra 0.0
diwali 0.000239084334086
prestigious 0.0
cynicism 0.0
disability 0.000138669264545
registering 0.0
booker 0.0
méxico 0.0
disponible 0.0
honduras 0.0
famously 0.0
overdue 6.39007311922e-05
equity 0.0
opioid 0.0
millennials 0.0
recommendations 0.000110891451424
investors 0.000203294631107
betrays 0.0
patriotism 0.0
liability 0.0
iranian 0.0
delegate 0.0
struck 0.0
millennial 0.0
dictators 0.0
graduate 5.56777963108e-05
analysts 0.0
victor 0.0
shrink 8.03901045577e-05
dictator 0.0
poised 0.0
avoided 0.0
rallying 0.0
catholic 0.0
thriving 0.000157117002079
racially 0.0
undermines 0.0
yashar 0.0
inequality 0.000119443905378
medicare 0.0
missionaries 0.0
foremost 0.0
deplorable 0.0
demonize 0.0
wikileaks 0.0
enduring 0.000233930810588
privatized 0.0
appoint 0.0
losses 0.0
jbarro 0.0
buffett 0.0
staffers 0.0
takeaway 0.0
moscow 0.0
hampshire 0.0
pandering 0.0
voxdotcom 0.0
reckoning 0.0
moines 0.0
falter 0.0
countless 6.42280914371e-05
democrat 0.0
bostonglobe 0.0
accountable 6.29438889706e-05
dispel 0.0
despair 0.0
persisted 0.0
disclose 0.0
tedcruz 0.0
flooding 0.000190732950866
prejudice 0.0
towers 0.0
criticized 0.0
senatemajldr 0.0
outsider 0.0
declare 0.0
dismantle 0.0
thrive 6.35776502888e-05
threaten 5.71179320212e-05
outsourced 0.0
loophole 0.0
heerjeet 0.0
verbal 0.0
businessinsider 0.0
ukraine 0.000139486319086
vladimir 0.0
businessman 0.0
supremacist 0.0
etched 0.0
zekejmiller 0.0
momentarily 0.0
perpetrators 0.0
mocking 0.0
wrecked 0.0
identities 0.0
inhumane 0.0
disavow 0.0
hostile 0.0
muster 0.0
surrender 7.14483416237e-05
shatter 0.0
patriotic 0.000258239383641
rewarded 0.0
jitters 0.0
bullies 0.0
discipline 0.0
forgets 0.0
expand 0.000109077278113
apologized 0.0
tournament 0.0
grindstone 0.0
mastery 0.0
provider 0.0
steroids 0.0
jenniferjjacobs 0.0
notion 0.0
hernandez 0.0
mcuban 0.0
bullied 0.0
jebbush 0.0
discriminating 0.0
somali 9.56898673095e-05
hayden 0.0
limitless 0.0
implement 0.000393496172888
nydailynews 0.0
corybooker 0.0
interference 0.0
listens 0.0
preside 0.0
remembers 0.0
toughness 0.0
extensively 0.0
suffered 0.0
streep 0.0
billionaire 0.0
cheats 0.0
needing 0.0
percentage 0.0
insiders 0.0
binder 0.0
prescriptions 0.0
slashed 0.0
indebted 0.0
dismisses 0.0
delegates 0.000148498596582
pledged 0.000205611882557
endured 0.0
deployed 7.5778569756e-05
suspense 0.0
courageously 0.0
resilience 7.23471802111e-05
nationalists 0.0
autonomy 0.0
abandoning 0.0
canvas 0.0
blacks 0.0
pledging 0.000247105161196
elaine 8.03901045577e-05
methodist 0.0
candidacy 0.0
bonuses 8.16912121802e-05
resolve 6.26330001273e-05
laughable 0.0
scares 0.0
intellect 8.45189025843e-05
hopeless 0.0
debunked 0.0
shames 0.0
connections 5.78707416038e-05
tyleroakley 0.0
perplexed 0.0
ddlovato 0.0
impromptu 0.0
teenvogue 0.0
unveils 0.000198866688045
billie 0.0
prouder 0.0
sweetness 0.0
cheryl 0.0
filipino 0.0
petersburg 0.0
drastic 0.0
lifesaving 0.000268435639443
decorated 8.30646397875e-05
usagym 0.0
freestyle 0.0
absentee 0.0
lashes 0.0
concentration 0.0
refuge 0.000222747894873
renaissance 0.0
actively 0.0
monitoring 0.0
destined 0.0
willfully 0.0
detained 0.0
warmest 0.000230559956877
heroic 6.70158701051e-05
bragged 0.0
miners 0.0
shareholders 0.0
randall 0.0
excessive 0.0
geneva 0.0
corporations 0.0
unsolvable 0.0
grandchildren 8.45189025843e-05
discredit 0.0
enormously 9.3441469139e-05
frances 8.94785464811e-05
pillar 0.0
trillions 0.0
expansive 0.0
organize 0.0
capabilities 0.0
confederate 0.0
shakers 0.0
ambiguity 0.0
linking 6.73875363144e-05
pretends 0.0
wireless 0.0
inherit 0.0
paranoia 0.0
theatlantic 0.0
languages 0.0
disposable 0.0
reinforcing 0.0
integrated 0.0
optimist 0.0
pigeons 0.0
chadhgriffin 0.0
katieledecky 0.0
richards 7.79769368625e-05
demconvention 0.0
abcpolitics 0.0
chobani 0.0
dominiclowell 0.0
floridians 0.0
cecilerichards 0.0
clintonfdn 0.0
billclinton 0.0
grounded 0.0
abilities 0.000230559956877
grandfather 0.0
profoundly 0.0
fiercely 0.0
drowning 0.0
astound 0.0
alzheimer 0.0
responders 0.0
peacecorps 0.0
nygovcuomo 0.0
hurricanes 0.0
approximately 0.0
daunting 0.0
organizer 0.0
ingenuity 0.0
illnesses 0.0
intruders 0.0
invading 0.0
harmful 0.0
foundations 0.0
skateboards 0.0
housekeeping 0.0
dangerously 0.0
renters 0.0
predatory 0.0
rebuke 0.0
jengranholm 0.0
supremacy 8.23683870652e-05
linger 0.0
adamserwer 0.0
clevelanddotcom 0.0
repadamschiff 0.0
fahrenthold 0.0
revoke 0.0
advising 0.0
strengthening 0.000241170313673
colleges 0.000137074588371
deniers 0.0
aspire 0.0
exceed 8.30646397875e-05
lebassett 0.0
shrugged 0.0
stewardship 0.0
complains 0.0
temperament 0.0
texasinafrica 0.0
americorps 0.0
latino 0.0
payoffs 0.0
protested 0.0
honorable 0.0
fathom 0.0
inconvenience 0.0
johnkasich 0.0
latinos 0.0
votevets 0.0
unsurprising 0.0
loopholes 8.77124140931e-05
dismal 0.0
unqualified 0.0
rigorous 0.0
mittromney 0.0
joyannreid 0.0
theorist 0.0
evan_mcmullin 0.0
discriminate 0.0
ezraklein 0.0
obsessively 0.0
desperation 0.0
latina 0.0
tammyforil 0.0
pantsuit 0.0
superior 0.0
exonerated 0.0
johnpodesta 0.0
recites 0.0
supremacists 0.0
affront 0.0
electing 0.0
defund 0.0
demeans 0.0
govpencein 0.0
squandered 0.0
machado 0.0
pneumonia 0.0
unhinged 0.0
criticizes 0.0
derailment 0.0
iceberg 0.0
epipens 0.0
generals 0.0
timkaine 0.0
provocation 0.0
paulbegala 0.0
clintinfdn 0.0
wesleylowery 0.0
childdefender 0.0
dictatorship 0.0
ceasefire 0.0
stamped 0.0
intimidation 0.0
casinos 0.0
manifest 0.0
restrict 7.74087431684e-05
transformation 0.00013257779203
battleground 0.0
christine 0.000147519739362
touted 0.0
mcconnell 0.0
deflect 0.0
expressing 0.0
commonsense 0.0
statesman 7.42492982911e-05
mcbride 0.0
tumble 0.0
bigoted 0.0
belonged 0.0
praised 7.14483416237e-05
policeman 0.0
booing 0.0
cathedral 7.85585010396e-05
tomperez 0.0
keithellison 0.0
knowingly 0.0
wealthiest 0.0
backward 0.0
pretended 0.0
thedemocrats 0.0
psychologists 0.0
americ 0.0
successor 0.0
diplomats 0.0
congratulated 0.000840973222251
devotion 0.0
remembrance 0.000271059508143
eligible 0.000188831666912
incoherent 0.0
exhaustive 0.0
downgraded 0.0
unified 7.74087431684e-05
embraces 0.0
galling 0.0
senatorreid 0.0
lifetimes 0.0
demagogue 0.0
rodham 0.0
temper 0.0
longtime 0.0
vetoing 0.0
janelle 0.0
voguemagazine 0.0
dominique 0.000107542677682
surpassed 0.0
associates 0.0
demonstrating 0.0
morning_joe 0.0
bazaar 0.0
consequential 0.0
undressed 0.0
entrepreneurial 0.0
billionaires 0.0
prescription 0.0
senseless 7.32799451418e-05
refresher 0.0
classmates 0.0
maturity 0.0
comentarios 0.0
risked 0.0
invincible 0.0
vigilant 0.0
emissions 7.28091625808e-05
recommit 0.0
voiceless 0.0
natlparkservice 0.0
workplaces 0.0
mayaharris_ 0.0
dhsgov 0.0
cyberattacks 0.0
maxinewaters 0.0
jerrybrowngov 0.0
discriminates 0.0
thejusticedept 0.0
simone_biles 0.0
sotomayor 0.0
traumatic 8.68745258131e-05
scammed 0.0
dreamer 0.0
fulfill 8.30646397875e-05
latinas 0.0
discouraged 0.0
usnavy 0.0
oftentimes 0.0
reprehensible 0.0
demeaning 0.0
ratified 0.0
emilyslist 0.0
lawsuits 0.0
nonviolent 0.0
caucus 0.0
joebiden 0.0
joyful 0.0
privatize 0.0
barbaraboxer 0.0
sengillibrand 0.0
camino 0.0
familias 0.0
americaferrera 0.0
universidades 0.0
gabbygiffords 0.0
shuttlecdrkelly 0.0
fulton 0.0
shimon 0.000104005892083
hablar 0.0
fuerza 0.0
trickle 0.0
refinance 0.0
shattering 0.0
damián 0.0
gouging 0.0
moveon 0.0
simone_manuel 0.0
revdrbarber 0.0
senatorbarb 0.0
cnbcnow 0.0
stiffed 0.0
mikebloomberg 0.0
solver 0.0
thrower 0.0
granddaughters 0.0
changemaker 0.0
clairecmc 0.0
anastasiasomoza 0.0
defunding 0.0
preyed 0.0
aspirations 9.45401094384e-05
fannie 0.0
mubarak 0.00039799901334
buzzfeedben 0.0
probed 0.0
marines 0.0
projecting 0.0
outsourcing 0.0
developers 0.000175424828186
crimea 0.0
everyo 0.0
chaser 0.0
dubious 0.0
diplomatic 7.01585531391e-05
rosiegray 0.0
unpatriotic 0.0
multifaceted 0.0
myanmar 0.0
adamparkhomenko 0.0
tjmshow 0.0
tenant 0.0
perjury 0.0
contractual 0.0
surrounds 0.0
exceeded 0.0
thrives 0.0
unclerush 0.0
sailors 0.000184779187838
stereotypes 0.0
librarycongress 0.0
acknowledging 0.0
philippe 0.0
battled 0.0
postopinions 0.0
ambassadorrice 0.000131158465207
shockingly 0.0
mcfaul 0.0
presid 0.0
poisons 0.0
kenvogel 0.0
johndingell 0.0
harnessing 0.0
unwritten 0.0
bewildering 0.0
moonshot 0.0
apologizing 0.0
oligarchs 0.0
espionage 0.0
marcorubio 0.0
desecration 0.0
brianefallon 0.0
bangladesh 9.04113114117e-05
twittermoments 0.0
officialcbc 0.0
thefix 0.0
urgency 0.0
traceeellisross 0.0
andradaymusic 0.0
impeccably 0.0
catastrophe 0.0
tallest 0.0
anastasia 0.0
azcentral 0.0
marrying 0.0
moderates 0.0
resembles 0.0
paraphrase 0.0
applauds 0.0
heavier 0.0
virginians 0.0
railing 0.0
eloquently 0.0
denverpost 0.0
independents 0.0
americanos 0.0
hispanos 0.0
bailouts 0.0
divisiveness 0.0
jmpalmieri 0.0
hardballchris 0.0
republicano 0.0
candidato 0.0
phillyinquirer 0.0
jesserodriguez 0.0
militarytimes 0.0
sunsentinel 0.0
ryanlizza 0.0
bretbaier 0.0
thelastword 0.0
hillaryclinto 0.0
maddowblog 0.0
boundless 0.0
enacting 0.0
gettysburg 0.0
groping 0.0
govchristie 0.0
justices 0.0
watchdogs 0.0
cavalier 0.0
succeeds 0.0
retirees 0.0
pocketed 0.0
multimillionaire 0.0
redcross 0.0
evalongoria 0.0
highways 0.0
marlee 0.0
primero 0.0
pianos 0.0
bribed 0.0
scranton 0.0
wellesley 0.0
perkins 0.0
onward 0.0
algore 0.0
candidly 0.0
trajectory 0.0
quitter 0.0
objectifying 0.0
ignoramus 0.0
disillusioned 0.0
asinine 0.0
vibrancy 0.0
arpaio 0.0
testifying 0.0
chairmen 0.0
luchar 0.0
disrupted 0.0
podemos 0.0
settlements 0.0
massacres 0.0
millones 0.0
eagerly 0.0
grandmas 0.0
dedicado 0.0
seeming 0.0
pragmatic 0.0
hashanah 0.0
porque 0.0
unidos 0.0
nuestras 0.0
primera 0.0
debemos 0.0
muchos 0.0
cuando 0.0
nuestro 0.0
inteligente 0.0
rapists 0.0
agosto 0.0
presidente 0.0
puedes 0.0
mujeres 0.0
safeguarding 0.0
indecent 0.0
motions 0.0
strengthened 0.0
eminently 0.0
innuendo 0.0
memorandum 0.0
reuterspolitics 0.0
educates 0.0
mexicana 0.0
disparage 0.0
absurdity 0.0
backdoor 0.0
affording 0.0
hardline 0.0
steelworkers 0.0
demean 0.0
immigrate 0.0
thuggish 0.0
astrid 0.0
jesuit 0.0
governorship 0.0
waterboarding 0.0
personas 0.0
stephenson 0.0
huracán 0.0
firefighter 0.0
ravages 0.0
marleematlin 0.0
scrolling 0.0
tarnish 0.0
ajentleson 0.0
roanoke 0.0
heaping 0.0
carpentry 0.0
forcefully 0.0
frankiejgrande 0.0
aprildryan 0.0
unjustified 0.0
yamiche 0.0
evacuate 0.0
disrespects 0.0
incomprehensible 0.0
jogger 0.0
vindicated 0.0
blazed 0.0
cambodia 0.0
revolutionize 0.0
welding 0.000114027098937
unbeatable 0.0
polished 0.0
saddled 0.0
interdependence 0.0
alleys 0.0
civility 0.0
vilified 0.0
disagreeable 0.0
terence 0.0
bluster 0.0
incredib 0.0
holton 0.0
hillaryforpa 0.0
hillaryforco 0.0
jes_chastain 0.0
vitalvoices 0.0
indictments 0.0
evokes 0.0
reaffirming 0.000104005892083
rebukes 0.0
minerva 0.0
peddle 0.0
starker 0.0
cascading 0.0
carolinians 0.0
señora 0.0
honrado 0.0
missionary 0.0
ranchers 0.0
denveropinion 0.0
practicality 0.0
thoughtfulness 0.0
scripture 0.0
pueblo 0.0
morningmoneyben 0.0
smalls 0.0
exemplify 0.000116631119605
eviscerated 0.0
jeffflake 0.0
helpless 0.0
sarahemcbride 0.0
indivisible 0.0
colinjones 0.0
mrjoshcharles 0.0
houstonchron 0.0
thoroughness 0.0
isolde 0.0
wonkiest 0.0
equate 0.0
dustbin 0.0
estados 0.0
newrepublic 0.0
expresses 8.45189025843e-05
demonizing 0.0
jeffbezos 0.0
discard 0.0
befriending 0.0
slovenia 0.0
unrelenting 0.0
salmahayek 0.0
revolves 0.0
anselm 0.0
dwells 0.0
usairforce 0.0
deride 0.0
repackaging 0.0
earmarked 0.0
evader 0.0
passpor 0.0
awaited 0.0
guterres 0.000131158465207
precinct 0.0
presidencia 0.0
unshakable 0.0
marshablackburn 0.0
comunidad 0.0
merecen 0.0
juntos 0.0
infomercial 0.0
johnstown 0.0
statewide 0.0
skyscrapers 0.0
phillydotcom 0.0
deducted 0.0
laguardiacc 0.0
annieslisttx 0.0
nickmerrill 0.0
leaninorg 0.0
missbeae 0.0
minassianmedia 0.0
natarsha 0.0
foments 0.0
ruline 0.0
steininger 0.0
michaelnutter 0.0
harren 0.0
louisa 0.0
cannell 0.0
robbymook 0.0
broward 0.0
hillaryforfl 0.0
jeanneshaheen 0.0
ericasmegs 0.0
jeremyshorr 0.0
turpin 0.0
rubycramer 0.0
singularly 0.0
joshschwerin 0.0
clionamccarney 0.0
xochitlhinojosa 0.0
adamsmith_usa 0.0
humayun 0.0
jamestaylor_com 0.0
hillaryformn 0.0
ericwms 0.0
dougmillsnyt 0.0
jencarlosmusic 0.0
hannahbfine 0.0
creynoldsnc 0.0
lefsadventures 0.0
pembroke 0.0
perceptiveness 0.0
hillaryforaz 0.0
fayetteville 0.0
entrust 0.0
daveeddiggs 0.0
petewilliamsnbc 0.0
hillary_esp 0.0
ustedes 0.0
nación 0.0
creativa 0.0
bilingües 0.0
multilingües 0.0
contribuyen 0.0
diversidad 0.0
economía 0.0
hillaryforia 0.0
estaré 0.0
discurso 0.0
síganme 0.0
detall 0.0
hopewell 0.000153804899583
temperamentally 0.0
redone 0.0
barging 0.0
machadooficial 0.0
mikereedschmidt 0.0
franklinfoer 0.0
eamonjavers 0.0
hillaryforoh 0.0
hustling 0.0
relishes 0.0
markkirk 0.0
asmamk 0.0
just_jenna 0.0
discrimina 0.0
samifayebaker 0.0
padded 0.0
wigazette 0.0
phillytrib 0.0
trivializes 0.0
condones 0.0
ellisoncampaign 0.0
barb_kinney 0.0
theriveterspod 0.0
humiliates 0.0
nickmarroletti 0.0
alli_wilber 0.0
brespolitico 0.0
jasoncherkis 0.0
sean_p_thomas 0.0
outclassed 0.0
outmaneuvered 0.0
belittling 0.0
familie 0.0
yuuuuuuge 0.0
disqualifying 0.0
brynnecraig 0.0
buffywicks 0.0
lasvegassun 0.0
cmichaelhuntley 0.0
civically 0.0
raquelwillis_ 0.0
celebramos 0.0
trayectoria 0.0
pionera 0.0
breakups 0.0
rosenbergerlm 0.0
heraldleader 0.0
jaylon 0.0
decisi 0.0
antónio 0.000136673533313
squander 0.0
presidenta 0.0
protegerá 0.0
astrid_nv 0.0
sltrib 0.0
peter_j_k 0.0
brosandprose 0.0
nicholaskitchel 0.0
mahoning 0.0
omerizer 0.0
kendallybrown 0.0
davidnakamura 0.0
chatima 0.0
tammybaldwin 0.0
mpshapiro 0.0
responsibilit 0.0
overgrown 0.0
literally_trump 0.0
imploded 0.0
rnicholasburns 0.0
disastrously 0.0
stiffing 0.0
globeopinion 0.0
degradi 0.0
languishing 0.0
demostrar 0.0
poderosa 0.0
iammarleydias 0.0
tbtimes_opinion 0.0
disloyalty 0.0
defende 0.0
vegalteno 0.0
moodysinvsvc 0.0
decisiveness 0.0
whethe 0.0
preocupada 0.0
trayecto 0.0
afectados 0.0
ayotte 0.0
empathize 0.0
lifelo 0.0
lorellapraeli 0.0
ironworking 0.0
ebeling 0.0
contribuido 0.0
ejército 0.0
inmigrantes 0.0
indocumentados 0.0
enquirer 0.0
delega 0.0
roadshow 0.0
sunsentinelopinion 0.0
resulta 0.0
insultar 0.0
construir 0.0
muralla 0.0
provoked 0.0
discretion 0.0
sdutideas 0.0
merece 0.0
respeto 0.0
enfrentar 0.0
valentía 0.0
ataques 0.0
descaro 0.0
culparla 0.0
petulance 0.0
ninhaitseng 0.0
flippantly 0.0
posteverything 0.0
_vicentefdez 0.0
azcopinions 0.0
aumentó 0.0
andrewjenks 0.0
imwithher 0.0
diferencias 0.0
onevoxdotcom 0.0
ignite_national 0.0
endorsin 0.0
mercersdairy 0.0
everyvoice 0.0
rachaelgass 0.0
galifianakis 0.0
crutcher 0.0
nyledimarco 0.0
mistreat 0.0
wellsfargo 0.0
templeuniv 0.0
sollender 0.0
honremos 0.0
tantas 0.0
contribuciones 0.0
aleatha 0.0
endeavored 0.0
legitimize 0.0
además 0.0
whistles 0.0
ugliness 0.0
jorge_silva 0.0
dnclatinos 0.0
libnofcongress 0.0
unscrupulously 0.0
contractually 0.0
impulsively 0.0
qaddafi 0.0
cancelable 0.0
cnbcopinion 0.0
jbrotherston 0.0
_bxddxss 0.0
sspiderboy 0.0
collegedems 0.0
veered 0.0
charitynav 0.0
usnewsopinion 0.0
humansofny 0.0
unfitness 0.0
steadiness 0.0
nbcusa_inc 0.0
verdadera 0.0
encuentra 0.0
hacemos 0.0
anuncio 0.0
unpresidential 0.0
unfavorably 0.0
heridas 0.0
visibles 0.0
veteranos 0.0
cuidado 0.0
panetta 0.0
experiencia 0.0
confío 0.0
exsecretario 0.0
comercio 0.0
lizromanoff 0.0
americasvoice 0.0
davidleopold 0.0
rebuked 0.0
criminalize 0.0
mentiré 0.0
inmigración 0.0
demonizar 0.0
americanlegion 0.0
sarasolow 0.0
qumber 0.0
zerlinamaxwell 0.0
hillaryforut 0.0
hillaryforga 0.0
grandtetonnps 0.0
marlondmarshall 0.0
mariatcardona 0.0
escuchamos 0.0
claramente 0.0
demonizando 0.0
segunda 0.0
tercera 0.0
rhettbuttle 0.0
hillaryformi 0.0
futuramics 0.0
louisianans 0.0
claressashields 0.0
helen_maroulis 0.0
bri_rollin 0.0
itspooda 0.0
kristihollywood 0.0
meredeetch 0.0
kersee 0.0
rodhams 0.0
bidens 0.0
possibilitie 0.0
maulama 0.0
akonjee 0.0
shotdiva 0.0
auriemma 0.0
maxlinsky 0.0
cowering 0.0
moratory 0.0
hillarycl 0.0
repudiate 0.0
fencer 0.0
bankruptcies 0.0
warrenbuffett 0.0
bishopgarrison 0.0
ajazzyworld 0.0
morell 0.0
starkest 0.0
braille 0.0
frankmugisha 0.0
confiar 0.0
distinguido 0.0
herencia 0.0
harkening 0.0
impulses 0.0
dakota_meyer 0.0
kauveri 0.0
iafftreg 0.0
laurawalkerkc 0.0
jakesherman 0.0
benediction 0.0
denigrates 0.0
ann_oleary 0.0
liberates 0.0
bombast 0.0
repcleaver 0.0
throwed 0.0
luchado 0.0
derechos 0.0
humanos 0.0
trabajadores 0.0
relent 0.0
aprendí 0.0
valores 0.0
trabajo 0.0
mismos 0.0
annella 0.0
drbiden 0.0
expedient 0.0
imangelabassett 0.0
smegielski 0.0
leinonen 0.0
driffin 0.0
buckles 0.0
insatiably 0.0
sybrina 0.0
mcbath 0.0
dontre 0.0
randibrazeau 0.0
sjbxtr 0.0
malcolmkenyatta 0.0
lankford 0.0
countrymen 0.0
countrywomen 0.0
refiere 0.0
separar 0.0
valiente 0.0
strongmen 0.0
seremos 0.0
compañeros 0.0
bienvenidos 0.0
dauntless 0.0
governorva 0.0
sherrodbrown 0.0
vicepresidencia 0.0
ilyseh 0.0
gunsense 0.0
encantada 0.0
anunciar 0.0
splintering 0.0
albamonica 0.0
criminologist 0.0
construiremos 0.0
discriminatio 0.0
endorser 0.0
sniveling 0.0
ryanegraney 0.0
baptize 0.0
convención 0.0
republicana 0.0
