chatting 0.0
trying 3.99888701069e-05
launch 0.000171614140105
moment 2.01025228385e-05
wonderful 8.983755036e-05
seeing 4.1081758142e-05
recommend 2.97601411264e-05
anybody 0.0
podcast 2.94969884808e-05
challenges 6.70877295319e-05
worked 8.64905834659e-05
direct 2.8313215558e-05
others 0.000322589239075
currently 2.37848604742e-05
better 0.00124614097286
please 0.000180435646039
travels 4.34706030616e-05
social 0.000358374914853
around 0.00035604027796
people 0.0026703020847
leaving 0.0
morning 0.00011932160823
general 0.000205047741476
overall 0.0
damage 0.0
affect 6.88365239167e-05
everything 9.94346735247e-05
twitter 9.97030592449e-05
present 0.000317007446847
though 2.07078000231e-05
friend 0.000179949915481
watched 4.491877518e-05
beautiful 6.14566509612e-05
anything 8.08448180618e-05
practice 0.0
helped 8.71959675892e-05
helpful 0.0
revive 0.0
updated 0.000316100879981
thinking 8.12819465868e-05
finally 2.03204866467e-05
caught 2.23984321783e-05
believe 0.000178500625477
already 0.000317334445292
orlando 0.0
depends 2.97601411264e-05
chance 5.96608041148e-05
meaning 0.0
annual 0.000374307976203
renewed 5.11406112529e-05
growing 0.00078705821748
probably 0.000215642115095
should 0.0
changed 0.000255295217095
history 0.000348254355447
center 0.000156394264793
museum 6.90606606686e-05
behind 0.000336260262518
pretty 2.03204866467e-05
really 0.000298304020574
expensive 0.0
little 0.000178500625477
earlier 0.000162885738133
forget 0.0
paperwork 0.0
someone 0.000100242025577
mostly 0.000211446630954
worker 4.19417725503e-05
safety 2.8811897822e-05
program 0.000166003680637
things 0.000375820293402
electrical 6.70511179681e-05
visiting 5.48607817245e-05
available 0.000536952079184
perfect 6.21234000694e-05
different 0.000262745658701
search 0.000106341163188
connect 3.71715833424e-05
numbers 0.00079545401527
person 0.000658040191017
watching 5.99833051604e-05
passed 0.000121235928608
minutes 0.000184867911639
daughter 7.21431650721e-05
average 0.000939775649139
positive 9.43599275936e-05
outside 4.20918563579e-05
metric 0.0
looking 0.000138833819815
forward 8.17215036161e-05
raising 0.0
afraid 5.14055291052e-05
impression 7.30791604097e-05
profile 5.43926102145e-05
drawing 0.0
favorite 0.000161556510887
picture 2.11599343472e-05
historic 0.000240214736034
instead 0.000201585889605
appreciate 2.33970046073e-05
husband 3.10367140711e-05
international 0.000417930750031
toddler 0.0
couldn 2.07078000231e-05
remember 0.00015909547764
holidays 0.0
friends 5.99833051604e-05
despite 0.000169387863691
understood 0.000265703533597
impossible 5.40835459012e-05
everyone 0.000178982412344
florida 2.93234784609e-05
always 9.89000772111e-05
months 0.000498330116219
moving 6.41698113551e-05
meeting 0.000244504259559
google 0.000149977561963
answer 0.000101876774816
together 0.00019940611849
included 3.02971881094e-05
inside 0.000186370200208
section 3.05712804689e-05
missed 0.000120940734197
button 0.0
active 0.0
longer 0.00043612436094
enough 0.000261332796901
projects 0.000388664185818
driving 7.29423696959e-05
building 4.46753280678e-05
enjoying 2.4314123232e-05
kennedy 0.0
tantrums 0.0
apparently 0.0
recent 0.000236580469715
gotten 0.0
amazing 0.000317334445292
determined 7.6725426646e-05
attention 2.25205314268e-05
progress 0.00154492807733
tomorrow 0.000258530151164
whenever 0.0
curious 6.32201759961e-05
george 0.0
feeling 4.16397367981e-05
excited 8.30550193698e-05
campaigning 4.45596863045e-05
understand 0.000390262560525
learning 0.000197218011102
special 0.0
secret 4.45541640194e-05
across 0.000333250274536
comparison 0.00014868633337
surprised 0.000213477186442
anymore 5.06927164711e-05
spirited 0.0
precious 0.0
rejoice 0.0
rather 0.00011168832017
showing 0.000318257771906
saying 8.30550193698e-05
tweeted 2.62867188572e-05
updates 0.000173377486175
thoughts 0.000126617094756
exactly 0.0
except 5.06927164711e-05
getting 0.000377851759394
nothing 0.000139208542935
tweets 4.38348709149e-05
course 0.000308113186065
photos 0.000240477216907
looked 0.0
difficult 0.000366978847034
office 6.45178478151e-05
decisions 3.00268420042e-05
brought 8.81463701494e-05
biggest 0.000266312154165
thrilled 3.02971881094e-05
entire 4.41928826876e-05
something 3.97738694099e-05
closing 5.91686352184e-05
anyone 0.000100242025577
taking 3.97738694099e-05
reprint 0.0
flying 4.99925206544e-05
happening 6.50437600875e-05
sometimes 6.57523063724e-05
lessons 2.8811897822e-05
village 7.98464734467e-05
stopped 0.000583327374258
yesterday 0.000120290430693
service 0.000415304375416
serious 0.000170196811397
emails 0.0
wearing 2.33330949703e-05
afford 6.42018648529e-05
either 2.16812533625e-05
second 0.000120290430693
checking 0.0
volunteers 0.0
indeed 0.000135594440591
hearing 2.22166849691e-05
choose 7.0191013822e-05
another 0.000178500625477
address 0.000107248860277
display 0.0
compare 0.000217753960754
weekend 8.06271561315e-05
suggested 0.0
appear 3.01165474435e-05
anyway 0.0
theory 0.0
buildings 0.0
working 0.000298304020574
bigger 0.000116665474852
treated 6.54129807914e-05
admired 0.0
retirement 0.0
laughing 0.0
wanted 0.0
current 0.000117305607036
grateful 0.0
friendship 0.0
family 0.000656268845263
listening 2.17989918973e-05
stream 8.20561621951e-05
sharing 0.000116985023037
double 0.000112602657134
especially 2.20365925373e-05
middle 0.000273949419236
waiting 8.15014198532e-05
definitely 0.0
walking 2.38502490145e-05
account 4.66661899407e-05
completely 7.07699456952e-05
thought 4.00968102309e-05
accept 7.62513827911e-05
possible 0.000189413353611
simple 0.000185140766055
manufacturing 0.0
destroyed 0.0
members 5.01315718727e-05
supposed 5.28708829569e-05
manufacturers 0.0
business 6.4343574426e-05
absolutely 4.25492028491e-05
anywhere 7.95306727039e-05
sending 9.23180062209e-05
introducing 0.0
congrats 0.000167009132769
beauty 0.0
community 0.000220646751564
greatest 0.00019566031524
posted 4.70508934347e-05
wednesday 0.000143890069033
explain 0.000487323729066
broken 0.0
fairly 0.0
closest 3.79576476568e-05
hoping 4.78317088654e-05
relationship 5.3472568029e-05
actually 6.11260648899e-05
pockets 0.0
wallet 0.0
pocket 6.8171633797e-05
argument 6.13269903203e-05
decent 3.53331078017e-05
school 0.000970137816742
throwback 0.0
thursday 0.00023402061567
talented 2.61391061166e-05
discuss 0.000230678709161
celebrate 6.59307728116e-05
celebrating 2.37196873825e-05
anniversary 2.40477216907e-05
students 0.00042177504625
corners 0.0
internet 0.000271926338275
figure 2.37848604742e-05
opened 2.90660342786e-05
inspired 0.000120238608454
latter 0.0
sitting 0.0
playing 4.04224090309e-05
street 0.000352585480597
points 5.09763021362e-05
advice 9.33323798813e-05
memory 0.000137545195693
forever 0.0
congress 6.90606606686e-05
imagine 6.64694153572e-05
problem 0.000362647148526
pulling 0.0
furniture 0.0
keeping 6.66500549072e-05
dressed 0.0
chinese 0.000321009324265
unlike 0.0
allowed 0.0
otherwise 2.82313106151e-05
afternoon 4.67940092147e-05
planned 8.5682955512e-05
images 6.99701267195e-05
noticed 3.15133640134e-05
expense 0.0
differences 0.000114680302994
difference 0.00019566031524
editor 3.27064903957e-05
intent 0.0
suppose 3.82267676645e-05
inspiration 2.72740262895e-05
letting 2.44486816791e-05
system 0.000223721441795
almost 0.000417625628804
details 2.17400350267e-05
experience 0.000103818774212
living 0.000332220077479
worries 0.0
weather 5.08342551941e-05
bright 2.79876112437e-05
understands 0.0
normal 5.33212866558e-05
launching 6.4802788269e-05
backyard 0.0
pointed 0.0
before 4.3128423019e-05
monday 0.000290692567794
example 0.000236580469715
science 0.000645575757947
tweeting 0.0
forgot 2.49269782408e-05
disaster 0.000182876962138
happens 0.000144174541152
silence 0.0
learned 2.30166079714e-05
congratulations 0.000131504612745
natural 0.00011292524246
babies 0.00235164877771
mission 2.69649572601e-05
surprising 0.000128403729706
reference 0.0
forgotten 0.0
setting 2.82313106151e-05
appeared 0.0
reminds 5.62994868511e-05
fantastic 7.03833642216e-05
loving 4.69222428144e-05
complete 4.56582365393e-05
daniel 0.0
rewarding 0.0
nearly 0.000130695530583
spirit 2.57748229764e-05
launched 0.000178032204046
finding 2.4314123232e-05
stories 4.30118985434e-05
including 4.41928826876e-05
wouldn 0.0
choice 0.0
offended 0.0
conversation 4.8360947941e-05
disrespectful 0.0
making 0.000198334028307
expect 0.000119251245073
traits 0.0
discussion 0.000115923835249
believes 0.0
response 0.000397749078325
brings 9.59267126885e-05
seasons 0.0
anytime 0.0
protected 8.07422105262e-05
location 3.122599796e-05
needed 0.000678949913399
seriously 0.0
emergency 6.92860745598e-05
justify 0.0
spending 9.88823048273e-05
groups 0.000224706526985
condition 3.64155671626e-05
childhood 3.24013941345e-05
modern 0.000286442695692
welcome 0.000180922705547
moments 0.0
totally 2.29539137337e-05
running 6.26284247885e-05
strong 0.000184369952884
respond 6.00536840085e-05
message 8.44113965039e-05
coming 0.000198334028307
thankful 3.13213235201e-05
issues 0.000166037811677
challenge 0.000152592943281
intolerance 0.0
happen 4.05315402198e-05
giving 0.000120615137031
turkey 0.000695543011493
excellent 0.000647993304063
limits 3.69163537955e-05
contractors 0.0
common 0.000295009941198
pressed 0.0
healthcare 3.8637440176e-05
benefits 3.122599796e-05
situation 0.000363896215392
workers 0.000198724480187
company 0.000180164251414
savings 0.0
health 0.00480952988848
insurance 6.86136499137e-05
change 0.00175005025403
silver 3.25025709047e-05
august 2.80685112151e-05
crying 0.0
mental 0.000118337270437
carrier 0.0
decide 2.46522513878e-05
happened 0.000125595452068
parking 0.0
demand 0.000314553297458
sacrifice 0.0
personal 2.16226458665e-05
rewards 5.61488299932e-05
beyond 0.000155516794783
contributing 0.0
passion 6.02330948869e-05
question 0.000162563893174
doctor 0.000121917974759
sacrifices 0.0
respected 0.000173882412246
losing 0.0
strain 5.71810649968e-05
respect 0.000456540735561
shouldn 9.51394418968e-05
career 4.61590031105e-05
visited 3.122599796e-05
reason 0.000251190904137
simply 0.0
audience 8.25271174158e-05
sacrificed 0.0
employees 0.0
accounts 3.32256807128e-05
attacked 3.89160365484e-05
involved 0.0
extreme 0.00223718702729
valuable 0.0
knocked 0.0
reality 0.000212892554918
mention 0.0
without 0.00066159736881
problems 0.000171614140105
timing 0.0
described 3.82267676645e-05
pattern 0.0
online 0.000320849056775
background 0.0
buying 0.0
called 5.99833051604e-05
scientists 0.000114680302994
checked 2.82313106151e-05
heading 0.0
paying 7.75414346053e-05
planning 0.000387707173026
opposite 0.0
through 0.0
reached 0.00035396386177
changing 0.000316956744453
explains 0.000481253112261
harder 2.76672801061e-05
demands 8.45428942117e-05
silent 3.37588670506e-05
speaking 9.10680582378e-05
november 5.33212866558e-05
ordinary 3.93414296197e-05
number 0.00191528336655
stunning 8.9016102023e-05
atlantic 0.0
stupid 2.76672801061e-05
personality 0.0
grandparents 0.0
unless 2.45163057293e-05
calling 2.08761415962e-05
painting 3.8637440176e-05
focused 6.46014645221e-05
ridiculous 0.0
package 0.0
rooted 0.0
option 2.8811897822e-05
knowing 0.000165054234832
former 2.49962603272e-05
actual 0.0
tracked 5.75374713139e-05
suffers 5.51678017316e-05
schedule 0.0
friday 0.000201567890329
failure 9.60053528153e-05
achieve 9.99935231357e-05
winner 8.83857653752e-05
doctors 0.000179034516395
becomes 5.62994868511e-05
directly 3.28092439538e-05
quality 0.000334135939184
tearing 0.0
father 9.0573556242e-05
wishes 2.59197321625e-05
collar 0.0
caring 0.0
ground 2.57748229764e-05
matter 0.0
strategy 0.0
themselves 3.47563901142e-05
asking 4.20918563579e-05
usually 0.0
thankfully 0.0
reacts 0.0
period 0.000178032204046
parents 0.000166951743102
balance 3.09427470752e-05
resist 0.0
mobile 0.000198098198561
computer 6.15122835438e-05
reminded 0.0
impressed 0.000240932379548
dinner 4.39538485411e-05
suffering 3.74301493177e-05
single 6.14566509612e-05
parent 0.0
approved 3.75607109497e-05
energy 0.00120639114454
preview 0.0
meltdown 5.1668109592e-05
remind 0.0
emotional 5.72885391385e-05
sounded 0.0
status 0.000119750166228
update 6.96176755809e-05
outage 0.0
customers 0.0
holding 2.35254467174e-05
causes 0.000317997970215
eating 2.48579379772e-05
picked 7.43674135623e-05
missing 0.00016973747835
surprise 0.000170196811397
officially 4.64117837206e-05
global 0.0043865729815
follow 0.00051985531139
opinion 5.1839464325e-05
faster 0.000866725175514
backwards 4.27764962138e-05
design 0.000120107368017
website 0.000266719042937
widely 0.000188590782528
origin 4.96376088395e-05
breaks 2.62127747881e-05
allows 7.48602986353e-05
promoting 3.41960122556e-05
volunteer 8.32350054796e-05
convince 0.0
negative 2.89809588122e-05
official 8.2163516284e-05
jersey 0.0
mistake 2.75090391386e-05
fixing 7.92603881955e-05
translated 0.0
ginger 0.0
peaceful 0.000125825317651
thinks 4.64117837206e-05
hospital 8.69428764367e-05
lauren 0.0
easier 0.00010785982904
excluded 5.48513147327e-05
successful 0.00029915935618
leadership 0.000124524518394
agrees 3.90568201707e-05
decline 0.000478176633677
turnout 0.0
showed 4.99925206544e-05
trumps 4.67268283621e-05
circle 7.04328224138e-05
engage 0.0
suited 6.28714208323e-05
experienced 6.92860745598e-05
interested 2.55594304802e-05
effect 0.000183489423517
success 0.00029197203867
ladies 2.72740262895e-05
dreams 2.61391061166e-05
protect 2.54881510681e-05
explanation 0.000142274347828
occasion 0.0
medication 0.00012481197446
planet 8.37211224138e-05
detached 0.0
essence 0.0
control 0.000199950164722
happier 0.0
likely 0.00026585290797
coincidence 0.0
cancel 0.0
project 0.00013475632554
laying 0.0
lesson 0.00013833640053
requires 0.000230997598736
healthy 2.69649572601e-05
treating 0.0
opening 0.000129735875199
statement 5.15496459527e-05
enjoyed 0.0
animal 5.96972849233e-05
nervous 0.0
pounds 0.0
wonder 0.0
matters 7.84173183498e-05
shared 8.18220788686e-05
somehow 0.0
benefit 4.98539564816e-05
terrible 7.60390747066e-05
continues 0.000169730300051
improve 0.000273493177824
equally 3.75607109497e-05
appointment 0.0
session 2.59925868137e-05
routine 4.03711052631e-05
exciting 4.77004980291e-05
corner 5.67909221259e-05
imagination 4.75777129033e-05
decides 0.0
cheering 0.0
spring 2.5417127597e-05
fallen 0.000174925316799
frequently 0.0
places 4.74393747649e-05
thousands 0.000116605908971
informed 6.99701267195e-05
typical 0.0
continue 0.000160677396136
attend 0.0
excuse 2.8811897822e-05
settle 0.0
female 0.000212081793877
recovery 0.000131650136345
treasured 0.0
grandma 4.19417725503e-05
closer 4.98539564816e-05
beginning 4.99925206544e-05
everywhere 7.11590621474e-05
scenes 0.0
bought 4.86282464639e-05
multiple 6.02330948869e-05
slogan 0.0
wishing 0.0
covered 2.57748229764e-05
remove 0.0
choices 3.22005800702e-05
dealing 0.0
teacher 8.9016102023e-05
training 2.57748229764e-05
passing 0.000134442193649
stopping 9.06199846946e-05
become 0.000373747587164
spread 0.000181640841819
season 0.0
putting 4.17522831924e-05
weight 9.28282412255e-05
quietly 0.0
necessity 0.0
knocks 0.0
effects 7.3832707591e-05
returns 7.99819299837e-05
expected 0.000541082949505
resources 0.000312454561366
bucket 0.0
struggling 0.0
register 0.000118337270437
promotion 8.62410103064e-05
solution 0.0
manage 0.0
transition 3.84995997893e-05
gained 9.02551452844e-05
define 0.000116748109645
somebody 0.0
contract 0.0
ignorant 0.000256658977283
managers 0.0
credit 2.45163057293e-05
brothers 3.04794936897e-05
grandkids 0.000139053693737
computers 0.0
physical 9.93622400934e-05
series 4.3245291733e-05
offensive 0.0
fighting 0.000203790501545
donald 2.85609851707e-05
mexico 0.000402190685719
sandra 0.0
police 7.68929030536e-05
represent 0.0
president 0.000508218150907
talking 0.00019940611849
america 0.000253919212167
michigan 0.0
everybody 7.3548917188e-05
judgment 4.71476956319e-05
carolina 0.0
amount 2.79070408046e-05
houston 0.0
everyday 0.00011292524246
michael 2.245938759e-05
protecting 7.09009939238e-05
providing 0.000149201775334
attitude 3.52164112069e-05
million 0.00175359589408
election 8.22911725867e-05
honesty 0.0
targeting 0.0
telling 0.000112909324286
correct 0.000256309676845
attack 0.000230678709161
elementary 4.55154285091e-05
americans 5.53345602122e-05
killed 0.000288034133215
horrible 3.38672509681e-05
salute 0.0
coverage 0.000188754700821
united 0.000309297875716
college 4.97158759544e-05
refuse 0.0
preach 0.0
hillary 3.55685869571e-05
clinton 9.7507712714e-05
presidency 0.0
throws 0.0
manning 0.0
american 0.000126617094756
deserved 0.000121552523477
humble 3.66643756689e-05
remain 0.000391826557411
founder 3.67899634904e-05
illegal 3.31207466978e-05
arizona 0.0
opinions 6.8171633797e-05
speeches 0.0
scared 0.0
salary 0.000183644168021
pieces 0.0
taught 8.79704353826e-05
thompson 0.0
straight 2.20365925373e-05
blocking 3.74301493177e-05
answers 0.000153785806107
created 7.17475632981e-05
record 0.000332220077479
stamina 0.0
weapon 0.0
bottom 2.66606433279e-05
athletes 4.08293500534e-05
registered 4.06754191953e-05
minnesota 0.0
committed 3.13213235201e-05
journey 2.58471448684e-05
snapchat 0.0
peoples 4.84668520494e-05
disrespect 0.0
brother 0.0
prayers 0.0
boston 0.0
korean 4.55154285091e-05
church 0.0
advantage 3.39762320451e-05
motivation 0.0
honestly 0.0
defeat 0.0
lifetime 6.00536840085e-05
captain 0.0
retired 0.000121113315789
country 0.00133515713961
ending 0.000294099124159
dressing 0.0
finish 2.44486816791e-05
ranked 0.0
employee 8.76540187573e-05
university 0.000484126849557
dreamed 0.0
prayer 0.0
nominated 2.98486424617e-05
responds 0.0
national 0.000473130883977
reform 0.0
shooting 0.0
cancer 9.99850413088e-05
deserve 2.43812880348e-05
mother 0.000110782358929
creating 0.0
powerful 0.000169730300051
wisdom 0.00016771932383
breaking 0.000406408805249
dollars 0.0
questions 0.000101876774816
racist 0.0
charged 0.0
soldiers 4.16175027398e-05
performance 4.60332159428e-05
reading 0.00021102849126
denver 0.0
graphic 0.000159692946893
garner 0.0
create 9.20664318857e-05
jordan 0.000277144298239
admire 0.000220739780943
nobody 2.43812880348e-05
government 0.00098208465717
politics 0.000197048203979
blessing 0.0
wrestling 0.0
charities 0.0
donate 0.0
sample 0.0
bringing 2.23376640339e-05
deserves 5.28708829569e-05
regret 6.99701267195e-05
victim 0.0
according 7.90828211718e-05
threat 5.91686352184e-05
heaven 0.0
heroin 0.0
honest 7.41617286204e-05
became 2.48579379772e-05
decision 4.95782757082e-05
counting 2.82313106151e-05
signing 2.60657107988e-05
embrace 3.47563901142e-05
pressure 8.11253188518e-05
celebrities 0.0
facebook 0.000106373007123
kardashian 0.0
divided 4.34706030616e-05
lawyer 0.0
lebron 0.0
campaign 0.0
determine 0.000132022950134
whether 0.0
praise 0.0
defined 0.0
proposes 5.36336986585e-05
discover 0.0
factory 4.05226770043e-05
arrested 3.75607109497e-05
estate 4.22714471059e-05
proposed 0.0
comments 0.000145483114329
teenage 0.000174592013969
wounded 0.0
endorsement 0.0
williams 0.0
custom 0.0
troops 0.000205704263987
singer 0.0
future 0.000614566509612
struggled 0.0
sister 0.0
sabotage 0.0
athlete 0.0
warrior 0.0
cheating 0.0
voting 0.0
succeed 0.0
religion 0.00032912682238
century 0.000358646946528
serving 0.0
because 5.72885391385e-05
cleveland 0.0
hiding 0.0
breath 0.0
choosing 0.0
lawrence 0.0
instagram 0.0
opponent 0.0
detroit 0.0
honored 5.51760027619e-05
nonsense 0.0
lifting 5.03748376041e-05
proven 0.000171105984855
talent 0.0
knocking 0.0
russian 0.000264965973582
brains 0.0
oakland 0.0
regardless 0.0
skills 5.51760027619e-05
citizens 0.000203857392271
california 2.84780499739e-05
commitment 0.000131650136345
seconds 5.3170581594e-05
seeking 0.000104955190079
threatening 0.0
listen 0.000267031427923
whatever 0.0
mexicans 0.000147881259519
satisfied 0.0
fought 3.22005800702e-05
compete 3.73004438336e-05
injured 3.52164112069e-05
billion 0.0027338927975
ceiling 0.0
absolute 0.0
appearance 3.05712804689e-05
bigsean 0.0
handle 2.59197321625e-05
promise 0.0
nightclub 0.0
hosting 5.21314215977e-05
actors 8.07422105262e-05
generation 0.000190918184027
criminal 3.79576476568e-05
tuesday 0.000203236783714
ronald 0.0
locker 0.0
struggle 6.16984487386e-05
degree 3.54504969619e-05
entering 7.59152953136e-05
leader 0.000285117053788
pageant 0.0
toughest 0.0
character 0.0
mirror 0.0
interview 0.000282956863216
whistle 0.0
obviously 0.0
battle 0.000115397507776
motivate 0.0
destroy 0.0
relentless 0.0
winning 0.000190954663143
charlotte 0.0
accomplished 0.0
stepped 0.0
defense 3.19031306237e-05
appeal 0.0
causing 0.000209708862752
arabia 0.000313260370347
shipped 0.0
society 0.00024687351776
officers 0.0
brooklyn 0.0
marked 0.000151880447192
incredible 0.00010723929071
poster 3.15133640134e-05
wealthy 4.61118560697e-05
memorable 0.0
officer 3.59271469043e-05
minute 4.47968643566e-05
luther 0.0
foreign 0.00036203787495
pregnant 0.000162701676781
champions 0.0
virginia 0.0
tackle 0.000147665415182
unarmed 0.0
orange 0.0
policy 0.000757938408312
comedy 0.0
reminder 2.39158544327e-05
evidence 0.000147484942404
lighten 0.0
presidents 8.35579463006e-05
kicked 0.0
sticker 0.0
accused 3.93414296197e-05
intentions 0.0
facing 3.27064903957e-05
freedom 0.000110669120424
actions 0.000438865271658
debating 8.80153000891e-05
outcome 3.78244483962e-05
utterly 0.0
mississippi 0.0
clearly 0.000126027873066
download 0.000252616600936
sidelines 0.0
invite 8.44492302766e-05
legally 0.0
central 0.000209702198305
washington 0.000131433594286
veteran 0.0
division 0.000730791604097
veterans 0.0
stronger 6.32201759961e-05
promised 0.000163021339331
worried 0.0
security 0.000342692225078
immediately 0.0
television 3.49850633598e-05
entitled 8.62410103064e-05
racism 0.0
highest 0.000561370224302
approve 0.0
turning 0.000124289689886
legacy 3.15133640134e-05
ignore 0.0
choked 0.0
backing 0.0
helping 8.74325000876e-05
collector 0.0
willing 0.0
basically 0.0
return 0.000131861545623
unacceptable 4.29477528286e-05
feelings 3.43068249569e-05
network 2.77468778612e-05
language 0.0
invest 0.000237781164586
coward 0.0
schools 0.000225850484921
patients 0.0
foster 0.0
children 0.00246996812747
nation 0.000674899028834
review 0.000402130381513
between 4.36480034923e-05
knowledge 0.000282313106151
begins 2.37848604742e-05
tenure 0.0
faithful 0.0
highlights 8.98126246714e-05
shoulder 0.0
produced 3.11311295985e-05
consider 7.90828211718e-05
shattered 0.0
latest 0.000387107086891
beyonce 0.0
signed 2.19174354575e-05
millionaire 0.0
shelter 4.47471760063e-05
charity 0.0
germany 0.000543719908168
advance 5.77924953917e-05
proved 8.04413723396e-05
married 0.000176460259308
millions 0.000349549703486
blessings 0.0
indonesia 0.000879703827455
fights 3.61698495252e-05
dollar 0.000501558505451
rigged 0.0
conduct 0.0
johnson 8.46939318454e-05
howard 0.0
turned 0.000108994959487
criticism 3.69163537955e-05
stomach 0.0
upgrades 0.0
jackie 0.0
relevant 0.000105999323405
charge 2.75090391386e-05
ticket 0.0
steady 0.000286777673002
indian 0.000289089243213
turner 0.0
sanders 0.0
includes 2.95843176092e-05
survivor 4.41899556249e-05
dealers 0.0
collection 0.000109096105158
against 0.0
joyner 0.0
impact 0.000558291106737
families 0.000457508296747
welcoming 0.000119328518202
hitting 0.0
announced 9.6721895882e-05
granted 3.809174997e-05
decided 2.37848604742e-05
itself 6.75177341013e-05
selfish 0.0
mexican 7.89705698231e-05
respects 0.0
guarantee 0.0
beliefs 0.0
citizen 0.000142749544823
states 0.000526381504663
denied 3.9776172734e-05
drought 0.0
memorial 0.000193804393566
decades 0.000510450089979
trayvon 0.0
landed 6.20734281422e-05
pastor 0.0
ultimate 2.8811897822e-05
weekends 0.0
episode 0.0
spikes 0.0
engaged 0.0
financial 0.000209910380159
payments 0.0
tolerant 0.0
symposium 0.0
kansas 3.9776172734e-05
agreement 0.000110369890471
source 0.000279070408046
backbone 0.0
dismiss 5.3931148105e-05
midnight 0.0
homework 0.0
joining 7.0191013822e-05
reasons 0.000161998170298
talked 4.99925206544e-05
released 2.31425957569e-05
reaching 0.00014566226865
release 0.000130793951384
existing 4.00714023258e-05
models 0.000230176279938
pageants 0.0
helmets 0.0
scheme 4.34706030616e-05
scholarship 0.0
stacked 0.0
speech 0.000143101494087
standing 0.0
higher 0.00103976508979
purple 0.0
justice 5.3472568029e-05
served 0.000120107368017
speaks 2.87279061228e-05
backup 0.0
allegedly 0.0
purchase 3.40858168985e-05
millionaires 0.0
consideration 5.06268157307e-05
strength 5.50180782772e-05
incredibly 0.0
private 0.000127440755341
ignored 3.79576476568e-05
neighbors 0.0
apologizes 0.0
beings 4.6936142648e-05
minimum 0.000204922441124
direction 6.09589873793e-05
enemies 0.0
exclusive 4.71799637968e-05
prison 3.51003990536e-05
himself 0.0
contributes 7.31331700774e-05
investigation 0.0
teaching 0.000121188752437
disgusting 3.89160365484e-05
philly 0.0
rights 0.000268122150691
cheers 0.0
maintain 4.40076500446e-05
overcome 4.38270093787e-05
flawless 0.0
unique 3.04794936897e-05
neighborhood 0.0
dating 0.0
handed 3.809174997e-05
victory 0.000113581844252
lifted 4.89268731421e-05
greatness 0.0
muslim 0.000336871343859
terrorist 8.13508383906e-05
productive 0.0
tribute 2.72740262895e-05
deadspin 0.0
threatened 0.0
horror 0.0
warning 5.74558122456e-05
convention 0.0
understanding 0.000257798426123
action 0.000234654037282
having 0.0
afghan 0.000383018946198
announces 6.07762617386e-05
commencement 0.0
speaker 6.62414933956e-05
graduation 4.82407922695e-05
honors 0.0
produce 0.000149201775334
apologize 0.0
insult 0.0
continued 0.000102257450695
letter 0.000220646751564
discussed 7.09009939238e-05
therapy 0.0
untrue 0.0
written 2.42471857216e-05
existence 0.0
essential 0.0
results 0.000233933281324
initiative 7.98464734467e-05
disease 0.000895068840612
marching 0.0
suggest 6.15122835438e-05
georgetakei 0.0
ensure 7.59152953136e-05
democrats 0.0
marched 5.94227081422e-05
foundation 2.8313215558e-05
access 0.00100239594884
writes 0.000162006970672
student 0.000142804925853
colorado 0.0
medical 0.000196238942374
medicine 0.000160285609303
tremendous 0.0
nytimes 0.000150582737217
kindness 0.0
public 0.000784703052878
cannot 0.000110782358929
reveals 0.000474752544123
invented 3.71715833424e-05
threatens 4.59110420054e-05
candidate 3.16100879981e-05
persistence 0.0
sexual 0.000209222377695
illustration 0.0
measure 0.000364155671626
compared 0.000720443324094
headline 6.2262259197e-05
reflect 3.66643756689e-05
answering 0.0
streaming 3.25025709047e-05
leaders 0.000347771505747
supreme 0.0
nominee 0.0
immigration 0.000147665415182
policies 0.000180240629846
laundering 0.0
administration 0.0
defend 3.25025709047e-05
communicating 6.02301678242e-05
excitement 0.0
funding 0.00019024372372
climate 0.0025574816076
transfer 0.0
conspiracy 0.0
activist 0.0
horrifying 0.0
freely 0.000558163849334
retreat 5.22100617245e-05
daughters 0.000127820128893
compelling 9.18220840107e-05
platform 0.0
hamilton 0.0
futures 0.0
huffingtonpost 0.000137733126016
headlines 7.33287513378e-05
january 2.75090391386e-05
grants 4.77962788337e-05
unprecedented 8.83799112497e-05
relationships 0.0
philadelphia 0.0
diversity 7.33287513378e-05
funded 0.000219986254013
secure 3.62923267923e-05
income 0.00295970599659
universal 0.000140401596214
contributed 0.000100252058196
hurricane 8.42118459963e-05
fundamental 4.51275726422e-05
countries 0.00438257324409
linked 3.70435569055e-05
african 0.0022365269158
improved 0.000391986130033
unclear 0.0
provide 0.000174908863457
livestream 0.0
addresses 0.0
enhance 0.0
companies 0.000131650136345
proposal 3.71715833424e-05
potential 8.22911725867e-05
discrimination 4.63147298014e-05
connected 0.0
drives 3.809174997e-05
attending 0.0
filled 2.79070408046e-05
education 0.000668407100362
addressed 0.0
mentioned 2.92372908934e-05
famous 2.7352054065e-05
resistance 8.80153000891e-05
exists 0.0
demonstrated 0.0
officials 3.49850633598e-05
instructions 0.0
transmission 0.000332388720206
olympics 0.000140865644828
ability 0.0
political 0.000113912199896
director 0.000198313102833
contains 0.0
sponsored 0.0
autism 0.0
previously 3.96301940977e-05
prevent 0.000297147297842
capacity 0.000182848984828
donations 0.0
william 0.0
editors 0.0
passionate 0.0
solving 5.1668109592e-05
innate 0.0
treatment 0.000186786777591
critical 6.32201759961e-05
feeding 4.09844882247e-05
preparing 3.32256807128e-05
depend 5.11406112529e-05
capable 0.000163317400214
bridge 0.0
systematically 0.0
becoming 0.000127440755341
embraced 0.0
literacy 0.000478578544039
lawyers 0.0
stigma 0.0
malaria 0.000922601111534
standard 8.61837183684e-05
hiring 7.69991995786e-05
remains 0.000338317559491
fellow 7.56167238395e-05
defending 0.0
quotes 0.0
pushes 5.33406560329e-05
luxury 0.0
admitted 9.55925576674e-05
colleagues 0.000182077835813
failed 0.00035396386177
independent 0.000153317475801
politically 4.38270093787e-05
driven 0.000108144377907
agenda 0.000143227613116
result 5.72885391385e-05
implications 0.0
insider 4.6936142648e-05
pakistan 0.000558163849334
solutions 0.000209708862752
trusts 0.0
indiana 3.9776172734e-05
filling 0.0
humility 0.0
clicks 0.0
disagree 6.15122835438e-05
claims 9.5709391871e-05
editorial 4.14573397964e-05
mistakes 0.0
offered 0.0
passionately 0.0
justification 6.59205236597e-05
inspiring 0.000134061075346
counter 0.0
shaped 0.0
retroviral 0.0
majority 0.000199987046271
approach 2.95843176092e-05
nature 0.000143221347846
concern 3.36510737842e-05
server 0.0
berniesanders 0.0
shameful 0.000138944189404
experiment 0.0
massive 7.56167238395e-05
promises 7.56488967925e-05
colored 5.79004175601e-05
consequences 3.8362713323e-05
whatsoever 0.0
proposals 4.6936142648e-05
guesses 5.54894350855e-05
bernie 0.0
interviewed 3.20017842718e-05
pregnancy 0.00021220756622
secretary 0.00013857214912
measures 0.000349184027939
vastly 0.0
reduce 0.000287417175234
compassionate 0.0
distinguished 0.0
dangerous 0.000239945789951
influence 6.50051418093e-05
letters 0.0
implicit 0.0
saving 0.000633861752084
revelations 0.0
incident 0.0
universe 0.0
victims 5.7623795644e-05
milestone 4.77962788337e-05
perfectly 0.0
exercise 3.46430372799e-05
receive 0.000111950444975
reputation 0.0
economics 0.000191185115335
disclosure 0.0
receives 4.59110420054e-05
terrific 0.0
collected 0.000156630185174
campus 3.93414296197e-05
founders 5.94227081422e-05
profiling 0.0
systemic 0.0
studying 0.0
necessary 6.11425609379e-05
inaccurate 0.0
breast 0.0
debate 0.000204475443841
suddenly 7.30791604097e-05
conflict 0.000784670803007
interest 0.000111628163218
meanwhile 0.000104611188847
indefensible 0.0
recall 3.78244483962e-05
rating 0.0
nominate 0.0
outstanding 0.0
devastating 0.0
illness 0.0
troubling 0.0
romney 0.0
appears 3.29125340864e-05
breathe 0.0
abroad 8.62410103064e-05
spanish 7.30791604097e-05
profit 3.87762478716e-05
reviews 3.56873862058e-05
republican 3.91986130033e-05
presidential 3.31207466978e-05
candidates 6.70877295319e-05
politicians 7.23396990504e-05
identified 4.77962788337e-05
epidemic 0.000436201668444
displaced 0.000826539164001
greater 0.0
absurd 0.0
deadline 0.0
height 0.0
sisters 0.0
nuclear 0.000210602394321
stress 7.33287513378e-05
leading 0.000277261320745
restored 0.0
conditions 3.73004438336e-05
however 0.0
achieved 8.19689764495e-05
member 2.33330949703e-05
examples 0.000126814341318
diverse 0.0
suicide 0.00035278751703
contributions 0.000131481028136
largest 0.000219249264641
increase 0.000969021967832
targeted 4.40076500446e-05
regulators 0.0
provided 0.00012248805016
element 0.0
effectively 4.47471760063e-05
population 0.00697304591986
rising 0.000384021411261
indication 5.86469218304e-05
versus 4.41899556249e-05
believed 0.0
dynamic 4.31205051532e-05
invasion 5.08820452776e-05
primary 0.000542547742878
provides 0.00023349621929
environment 0.000182697901024
confirmed 0.000317858724654
behavior 7.81136403415e-05
introduced 0.0
contain 4.29477528286e-05
communities 0.000226946690377
worldwide 0.000363180030695
responsible 3.24013941345e-05
household 8.9119372609e-05
apparent 0.0
munich 0.0
alternate 0.0
expressed 9.6481584539e-05
movement 5.30204484692e-05
declared 0.000173882412246
hundreds 0.0
information 0.000134442193649
easily 8.77118726801e-05
untreated 9.83124508024e-05
october 0.000110987511445
quantify 0.0
scales 0.0
investigating 0.0
innovation 0.000419417725503
perspective 2.93234784609e-05
rivals 0.0
interests 3.74301493177e-05
toledo 0.0
extraordinary 3.3543864766e-05
gingrich 0.0
describing 0.0
eliminate 9.60345737841e-05
obligation 0.0
gender 0.000979892823393
committee 6.50051418093e-05
preventing 0.0
numerous 5.75374713139e-05
unusual 0.0
improving 0.000128843258486
practices 4.5712246207e-05
cemetery 0.0
questioned 0.0
affecting 0.0
ferrell 0.0
genius 0.0
warren 0.0
organizers 0.0
regularly 0.0
ceilings 0.0
sexism 0.0
prepared 0.000120107368017
burden 0.000642172025832
foreignpolicy 0.000860678457008
county 0.000183321878345
uniform 0.0
newyorker 5.08820452776e-05
anthony 3.61698495252e-05
reflecting 0.0
grandson 0.0
banning 4.47471760063e-05
considered 0.0
chosen 0.0
outright 0.0
screenings 0.0
naming 9.3872285296e-05
conventions 0.0
reproductive 6.3836491033e-05
ignores 0.0
focusing 0.0
sensible 4.63147298014e-05
concluded 0.000123013481538
performed 4.12984633162e-05
divide 0.000213882481069
dismissed 0.0
compromise 0.0
crucial 0.000340420035566
weakness 0.0
barrier 0.0
effective 0.000231114564988
wealth 0.000812753428062
underway 0.0
israel 0.000169085788423
overwhelming 0.0
assault 0.0
citing 0.0
protection 0.000103254785875
prisoners 0.0
photographing 0.0
traveled 0.0
holder 0.0
seemed 0.0
concludes 5.75374713139e-05
determination 4.8695525295e-05
tested 0.000120214206977
lacking 0.0
machine 0.000320835408174
honoring 0.0
contrary 0.000250630145489
tolerance 0.0
michelle 0.0
assumed 4.77962788337e-05
programs 3.94852849116e-05
closely 0.0
politico 0.0
inspire 0.0
lyrics 0.0
judges 0.0
federal 7.40871138111e-05
maryjblige 0.0
tuning 0.0
striving 0.0
poland 5.1668109592e-05
september 8.34803916726e-05
manchester 0.0
checks 0.0
remarkable 0.000102588036767
mharrisperry 0.0
immoral 0.0
fiction 0.0
process 2.52758411717e-05
anxious 0.0
destructive 0.0
nmaahc 0.0
performances 0.0
whitehouse 0.0
flotus 0.0
crisis 0.00109726177283
marriage 6.86136499137e-05
emotions 4.17789731503e-05
confidence 0.0
voters 0.0
comparing 0.000131481028136
oldest 0.0
empirefox 0.0
chancetherapper 0.0
songwriter 0.0
literally 0.0
onstage 0.0
believing 0.0
hillaryclinton 0.0
citizenship 4.91609588971e-05
counted 0.0
hillaryfornc 0.0
raleigh 0.0
discusses 0.0
johnlegend 0.0
apprentice 0.0
acknowledge 0.0
conservative 0.0
economists 0.0
buzzfeed 0.0
puppet 0.0
hombres 0.0
republic 0.000167115892601
homecoming 0.0
andersoncooper 0.0
muslims 0.000461359498054
katyperry 0.0
bragging 0.0
treats 4.22714471059e-05
qualified 0.0
islamophobia 0.0
debates 3.93414296197e-05
endorsements 0.0
counts 3.29125340864e-05
theellenshow 0.0
festival 8.74544317283e-05
encouraged 4.91609588971e-05
stylish 0.0
disregard 0.0
jtimberlake 0.0
backstage 0.0
barack 0.000176030600178
joined 2.43812880348e-05
terrorism 3.94852849116e-05
pushing 9.51218618602e-05
hopeful 0.0
mentions 0.0
teamed 0.0
exclusively 4.06754191953e-05
aliciakeys 0.0
kingjames 0.0
muhammad 5.08820452776e-05
refused 0.0
characters 0.0
express 0.0
gratitude 0.0
ugliest 0.0
throughout 6.2834221414e-05
awkward 0.0
shining 0.0
fighter 0.0
accepting 3.62923267923e-05
applemusic 0.0
reveal 2.88962476958e-05
stands 5.50180782772e-05
native 0.0
announce 6.90498239143e-05
dorothy 0.0
haters 0.0
jessetyler 0.0
shondarhimes 0.0
lavernecox 0.0
broadway 0.0
disabilities 0.0
adoption 0.0
touched 0.0
corruption 9.51554258066e-05
violence 0.000377858445622
leedanielsent 0.0
delivered 3.22005800702e-05
jasmine 0.0
independence 7.1613806558e-05
square 8.04366452074e-05
alongside 3.79576476568e-05
privilege 3.66643756689e-05
secondary 0.0
staggering 0.0
seventh 0.0
tennis 0.0
sweeping 0.0
footage 0.0
overseas 0.0
spoiler 0.0
theirs 0.0
offering 0.0
construction 4.14573397964e-05
spends 9.06410998665e-05
detail 3.64155671626e-05
cabinet 0.0
earnings 0.0
pleased 3.27064903957e-05
gravity 4.75777129033e-05
statements 0.0
decade 0.000433198459052
bigotry 0.0
belong 0.0
trillion 0.0
backed 0.0
operations 9.87956962819e-05
breakthroughs 7.23573837656e-05
values 0.000180849247626
senator 0.0
removing 0.0
wondered 0.0
introduces 0.0
makers 4.51275726422e-05
measured 0.000482407922695
pillars 0.0
instrument 0.0
shares 6.38062612473e-05
individual 0.00010031170109
applications 9.10308570181e-05
prepares 0.0
ceremony 0.000176665539008
expanding 4.59110420054e-05
merger 0.0
newspaper 3.70435569055e-05
detailed 0.000219135046893
tuition 0.0
childcare 0.0
thoroughly 0.0
adviser 0.0
matthew 0.0
affected 0.000152856402345
newspapers 4.47471760063e-05
corporate 4.19417725503e-05
economy 0.00112483195765
presenting 3.76921401073e-05
spoken 3.31207466978e-05
richer 0.000613980234267
during 0.0
combat 0.0
touting 0.0
competitive 3.9776172734e-05
prominence 0.0
trifecta 0.0
fashioned 0.0
boasts 0.0
ripped 0.0
belief 0.000110369890471
heroes 0.0
disturbing 8.38835451007e-05
russians 0.0
intelligence 0.0
deepest 0.000137136738621
regrets 0.0
complicated 3.55685869571e-05
internships 0.0
adults 0.000721195305479
describe 0.0
equality 0.000107062158617
announcement 2.5417127597e-05
interfere 0.0
terrifying 0.0
nationwide 0.0
manager 0.0
questionable 0.0
enhanced 0.0
services 0.000409029802782
delighted 8.25969266323e-05
golfer 0.0
regarding 0.000256650629682
teachers 0.000212702981771
suggests 7.33287513378e-05
phrase 3.71715833424e-05
immigrants 0.000207286698982
revolution 0.000111130670717
universities 0.000147482876691
twelve 5.45398119886e-05
principle 4.38270093787e-05
releases 3.65395802048e-05
malarkey 0.0
library 0.0
advisor 0.0
deadlines 0.0
encouraging 0.0
circuit 0.0
humanitarian 0.000648406217219
reliant 0.0
assistance 0.000108466277879
swimmer 0.0
hinges 0.0
concrete 5.61488299932e-05
accepted 9.93622400934e-05
confronted 0.0
comprehensive 9.3039411778e-05
pushed 3.84995997893e-05
unending 0.0
occasionally 0.0
guardia 0.0
donation 3.3543864766e-05
nomination 3.60481259691e-05
paintings 0.0
significantly 0.000109079623977
investment 0.000229360605987
terror 0.000111901331501
worship 5.82701482397e-05
represents 0.0
attempting 0.0
bullying 0.0
astonishing 4.55154285091e-05
endorse 4.29477528286e-05
urgent 0.000216473897722
forced 6.07762617386e-05
addressing 8.45428942117e-05
script 0.0
hundred 0.0
command 0.0
qualifies 0.0
stumbled 0.0
territory 8.98729197903e-05
balloons 0.0
objects 5.51678017316e-05
latimes 0.0
pandemics 0.0
separating 0.0
pentagon 0.0
threats 0.000232657487229
prisons 0.0
approaching 4.43739570954e-05
generous 0.0
roughly 4.89268731421e-05
commands 0.0
uncovered 0.0
destroying 8.69412061231e-05
opposition 8.01428046516e-05
addiction 0.0
manhattan 0.0
ridiculously 0.0
awarded 0.000136546285527
greeted 0.0
forces 0.000128802320281
confirm 9.66017402105e-05
dealings 0.0
nations 0.00262630707122
equivalent 0.0
sexist 0.0
yahoonews 7.65818827675e-05
bloody 0.0
boundaries 0.0
exceptionally 0.0
cannon 0.0
feared 0.0
significance 0.0
recommendation 0.0
chapters 0.0
racial 0.0
obvious 3.3543864766e-05
statistics 0.000831756843416
military 0.000246793794954
adopted 0.0
housing 0.0
clearer 0.0
calculator 0.0
underwater 0.0
guided 0.0
rescue 7.06662156034e-05
deserving 0.0
advised 0.0
ordered 2.91514772428e-05
unions 0.0
avoiding 0.0
alicia 0.0
preserve 9.55925576674e-05
balloon 0.0
economic 0.00162764322863
recipe 0.0
awaits 0.0
squarely 0.0
radical 4.14573397964e-05
banter 0.0
spaces 0.0
carnival 0.0
theories 0.0
bombing 0.0
products 7.18542938085e-05
margaret 4.84668520494e-05
gathered 0.0
taxpayers 0.0
admits 8.69412061231e-05
opposed 0.0
pressing 0.0
russia 0.000338317559491
lincoln 0.0
intelligent 0.0
momentum 8.4876736116e-05
olympic 0.000146657502676
magnificent 0.0
heritage 0.0
beijing 0.000105534564212
beloved 8.55529924276e-05
dummies 0.0
pursuit 0.0
carries 5.08820452776e-05
phelps 0.0
medals 5.68309670884e-05
gymnastics 0.0
summed 0.0
accuse 0.0
symbol 4.84668520494e-05
dignity 4.61118560697e-05
slogans 0.0
priorities 0.000264045900267
applied 0.000124372019389
progressive 4.55154285091e-05
activists 0.000365697969656
elected 3.45303303343e-05
brussels 0.0
subscribe 0.0
elections 3.99232367233e-05
unites 0.0
complacency 0.0
imperative 0.0
doorsteps 0.0
voices 3.20017842718e-05
blatant 0.0
democracy 0.000625615022055
disastrous 0.0
rebuild 0.0
accuses 0.0
diplomacy 0.0
hardball 0.0
attacking 0.0
subtle 4.6936142648e-05
barker 0.0
sticking 0.0
openly 0.0
policing 0.0
embarrassed 8.52134192621e-05
slightest 0.0
abbott 0.0
attacks 0.000127612522495
commit 0.0
argued 0.0
remarks 0.0
democratic 0.000121113315789
semitic 0.0
incomes 0.00032425536594
treasury 0.0
alarming 0.0
dividing 0.0
reject 0.0
affirming 0.0
quitting 0.0
extended 0.0
reducing 0.000238981394168
proudly 0.000141443086896
inclusive 0.0
oppose 0.0
distinctly 0.0
urging 0.0
strengthen 5.01260290978e-05
deliver 0.000125668442828
obligations 6.88782636668e-05
relations 4.49364598952e-05
repeal 0.0
strengths 0.0
counties 0.000114362129994
weakened 0.0
reckless 0.0
prosperous 0.0
servant 0.0
secretaries 0.0
negotiator 0.0
faults 0.0
choking 0.0
executive 9.90490992805e-05
alternative 6.66623487571e-05
extend 0.0
republicans 0.0
embodied 0.0
preparation 0.0
terrorists 4.5712246207e-05
confident 0.0
weapons 0.0
unifying 0.0
outrage 0.0
constitutional 0.0
rental 0.0
prevail 5.75374713139e-05
resilient 0.0
humbled 8.4876736116e-05
courage 0.0
commander 0.0
respecting 0.0
enormous 9.3872285296e-05
aligned 0.0
consent 0.0
refusing 0.0
resentment 0.0
substance 4.84668520494e-05
claiming 4.11408527975e-05
lamont 0.0
dropping 2.99375415571e-05
carried 0.0
intimidated 0.0
behalf 0.0
meaningful 0.0
amendment 0.0
accepts 0.0
legislation 0.0
fairer 0.0
commitments 0.0
handling 0.0
proves 0.000157365718479
rhetoric 0.0
hardest 0.0
peddling 0.0
divisive 0.0
strongly 7.83972260067e-05
vision 8.79704353826e-05
investigations 0.0
repeatedly 0.0
records 3.00268420042e-05
madeleine 7.16108794953e-05
disabled 0.0
quoting 0.0
assassination 0.0
beaten 0.0
deeply 3.20017842718e-05
grievance 0.0
contempt 0.0
standards 0.0
fairness 0.0
dictated 0.0
consensus 0.000180510290569
reconsider 6.70511179681e-05
priority 0.000114680302994
rogers 4.63147298014e-05
freedoms 0.0
notorious 0.0
invested 0.0
propaganda 4.71476956319e-05
unconstitutional 0.0
condemn 5.14026020425e-05
concerned 0.0
praising 0.0
cheered 0.0
realdonaldtrump 0.0
despicable 0.0
straightforward 0.0
bargain 0.0
attorney 0.0
bedrock 0.0
optimism 0.000181282199733
belongs 0.0
truman 0.0
whichever 0.0
inappropriate 0.0
beatings 0.0
optimistic 8.65895590888e-05
campaigned 0.0
allies 0.0
governor 0.0
attempts 3.89160365484e-05
extent 0.000243477626475
denial 0.0
maximum 0.0
merely 0.0
apprenticeships 0.0
agreeing 0.0
architect 0.0
responsibility 3.26042678662e-05
mainstream 0.0
legitimacy 0.0
injustice 0.0
dozens 4.49364598952e-05
donnell 0.0
scenario 4.27764962138e-05
crimes 0.0
thoughtful 7.35799269809e-05
hypocrisy 0.0
undocumented 6.95268468686e-05
sexually 0.0
richest 0.000776852091197
softening 0.0
implies 0.0
infrastructure 0.0
pitching 0.0
broadband 0.0
tenants 0.0
allegations 0.0
bloomberg 0.000106681312066
insulting 0.0
liberal 0.0
kremlin 0.0
podium 0.0
provoke 0.0
outrageous 0.0
campaigns 0.0
barriers 4.82407922695e-05
powell 0.0
technical 4.14573397964e-05
warnings 0.0
flagged 0.0
grassroots 6.10719976546e-05
extremist 0.0
businesses 0.0
welcomes 4.73615357194e-05
deputy 4.71476956319e-05
donating 0.0
continually 0.0
ourselves 0.0
fringe 0.0
politician 7.89705698231e-05
wiggins 0.0
welcomed 0.0
rallies 0.0
ballot 0.0
failing 0.0
uniting 0.0
refuses 8.45428942117e-05
appealing 0.0
proverb 0.0
privileges 0.0
ideals 0.0
vibrant 0.0
tarmac 0.0
residents 8.65895590888e-05
apprenticeship 0.0
denying 0.0
fierce 4.67268283621e-05
opponents 0.0
polling 0.0
apology 0.0
damning 0.0
outline 0.0
endorses 0.0
losers 0.0
insulted 0.0
equipped 0.0
battlefield 0.0
recession 0.0
endorsed 0.0
divides 0.0
describes 0.0
appointed 4.75777129033e-05
encourage 3.36510737842e-05
undermine 5.30518915549e-05
undermining 0.0
authority 0.0
betray 0.0
funnyordie 0.0
donated 3.56873862058e-05
jimmykimmellive 0.0
immigrant 4.63147298014e-05
criminals 0.0
automatically 4.91609588971e-05
schooled 0.0
elizabethforma 0.0
releasing 0.0
connects 0.0
screening 3.8362713323e-05
cleaner 0.0
nowthisnews 0.0
sophiabush 0.0
chelseaclinton 0.0
stunts 0.0
truths 0.0
transparency 8.65895590888e-05
obamacare 0.0
nickkristof 0.0
contraception 0.00047136921074
betting 0.0
conscience 0.0
proclaimed 0.0
dispatch 0.0
advocate 0.0
profits 8.94943520126e-05
toward 7.1613806558e-05
guiding 0.0
senators 0.0
barber 0.0
doubled 0.00020352818111
mosque 0.0
senate 0.0
louisiana 0.0
senwarren 0.0
parenthood 0.0
organizations 0.0
generations 3.93414296197e-05
minorities 0.0
misogyny 0.0
peacefully 0.0
decency 0.0
intend 0.0
discourse 0.0
pennsylvania 0.0
katiemcgintypa 0.0
experiencing 0.0
mccain 0.0
scandal 0.0
constitution 4.55154285091e-05
sensanders 0.0
intolerable 0.0
strive 5.42331389395e-05
forefathers 0.0
abandon 0.0
buzzfeednews 6.06466045832e-05
paulkrugman 0.0
mothers 0.000147665415182
compassion 0.0
deeper 4.21059229982e-05
governments 0.000453373538437
activism 0.0
jamilsmith 0.0
mike_pence 0.0
elizabethbanks 0.0
empathy 0.0
audited 0.0
checkers 0.0
warming 0.000356873862058
volunteering 0.0
charitable 0.0
qualifications 6.48510731881e-05
workplace 0.0
granddaughter 7.23573837656e-05
recycled 0.0
directing 0.0
politifact 0.0
abolish 0.0
murders 0.0
reagan 0.0
pouring 0.0
ballots 0.0
racists 0.0
empower 5.30518915549e-05
tolerate 0.0
chrismurphyct 0.0
igorvolsky 0.0
outraged 0.0
exceptional 9.47230714388e-05
nightmares 0.0
enforcement 0.0
weaken 0.0
medicaid 0.0
humbly 0.000146266340155
newsweek 6.02301678242e-05
conflicts 0.000218159247955
suffer 4.14573397964e-05
dallasnews 0.0
bridges 0.0
lesdoggg 0.0
appalling 0.0
hatred 0.0
superpower 0.0
goodbye 0.0
renewable 0.000127672982066
robdelaney 0.0
motherjones 0.0
trusted 0.0
sheriff 0.0
personalized 0.0
amnesia 0.0
malala 0.000443436495423
problema 0.0
everytown 0.0
casting 0.0
employers 0.0
rudolph 0.0
packets 0.0
organization 0.0
graceful 0.0
hardworking 0.0
cherished 0.0
aggressively 0.0
founding 5.1668109592e-05
sacred 5.19372295997e-05
horrific 0.0
earned 0.0
siding 0.0
minded 4.8695525295e-05
contribute 0.000247790779897
incites 0.0
chooses 0.0
obtained 0.0
defended 0.0
champion 9.45400920403e-05
magazines 0.0
waited 0.0
punished 0.0
conviction 0.0
tradition 0.0
giveaways 0.0
distracted 0.0
endorsing 0.0
pathetic 0.0
ladygaga 0.0
pessimistic 0.0
highlighting 0.0
transgender 0.0
womensmarch 0.0
advisors 0.0
wrecking 6.70511179681e-05
hillaryforva 0.0
registration 8.55529924276e-05
ellemagazine 0.0
acceptance 0.0
defeated 0.0
theroot 0.0
pharrell 0.0
tumblr 0.0
nevada 0.0
illinois 0.0
massachusetts 0.0
theadvocatemag 0.0
lending 0.000184520222307
rejecting 0.0
legalize 0.0
conned 0.0
arkansas 0.0
celebratin 0.0
rubber 5.01260290978e-05
lenadunham 0.0
hateful 0.0
wizard 0.0
unbearable 0.0
harpersbazaarus 0.0
familia 0.0
iamwill 0.0
retweets 0.0
nominating 0.0
vietnam 0.00104748654067
laurie 0.0
claimed 0.0
rapids 0.0
devoted 0.0
casino 0.0
astounding 0.0
summon 0.0
crushed 0.0
louder 5.36336986585e-05
farmers 9.55925576674e-05
lin_manuel 0.0
arrangement 0.0
borrowed 0.000121293209166
mariska 0.0
purposes 5.22100617245e-05
dialogue 4.80172868921e-05
comedian 0.0
________ 0.0
lightly 0.0
defeating 0.0
jerusalem 0.0
cynical 5.58163849334e-05
worrying 8.22817055949e-05
elizabeth 0.0
insults 0.0
microphone 0.0
sleeves 0.0
theeconomist 0.000436318495909
stakes 0.0
nationally 0.0
inspect 0.0
poisoning 0.0
columbus 0.0
declaring 0.0
crushing 4.16175027398e-05
chucktodd 0.0
soldier 4.71476956319e-05
painted 0.0
warned 0.0
ohiostate 0.0
unrelated 0.0
designated 0.0
clears 0.0
congressional 0.0
confront 0.0
usatoday 4.75777129033e-05
delivers 0.0
pittsburgh 0.0
entiende 0.0
soaked 0.0
bromance 0.0
lifelong 0.0
antiques 0.0
repjohnlewis 0.0
breakers 0.0
fundraising 0.0
hispanic 0.0
defrauded 0.0
fearful 0.0
nytopinion 0.0
volume 0.0
perfecting 0.0
washingtonpost 0.000128329488641
affordable 0.0
mighty 4.53205499333e-05
normalizing 0.0
boasting 0.0
assaulting 0.0
disqualify 0.0
monique 0.0
jcolenc 0.0
teamusa 0.0
allysonfelix 0.0
usabasketball 0.0
ibtihaj 0.0
simone 0.0
feminism 0.0
conversion 5.98223180049e-05
destiny 0.0
disrespected 0.0
serenawilliams 0.0
tantrum 0.0
heinous 0.0
unconscious 0.0
accomplishments 0.0
saddened 0.000125336919451
disgrace 4.96376088395e-05
rodriguez 0.0
arsenal 0.0
defender 0.0
malalafund 0.000163921471718
merchandise 0.0
laundry 0.0
lesbians 0.0
cnnpolitics 0.0
nickgass 0.0
examining 0.0
monument 0.0
appeals 0.0
gracias 5.1668109592e-05
madame 0.0
grande 0.0
speechless 0.0
coulter 0.0
missiles 0.0
psyched 0.0
chelsea 0.0
biases 7.16108794953e-05
resume 0.0
spectator 0.0
angelina 0.0
spectacle 0.0
admiration 0.0
reaches 0.00023573847816
español 7.85615351233e-05
dreamers 0.0
mañana 0.0
bursting 0.0
undone 0.0
beyoncé 0.0
nuestra 0.0
diwali 0.0
prestigious 6.10719976546e-05
cynicism 0.0
disability 0.0
registering 0.0
booker 0.0
méxico 0.0
disponible 0.0
honduras 0.0
famously 0.0
overdue 0.0
equity 0.000538400862044
opioid 0.0
millennials 0.0
recommendations 0.0
investors 5.42331389395e-05
betrays 0.0
patriotism 0.0
liability 0.0
iranian 0.000114362129994
delegate 0.0
struck 4.00714023258e-05
millennial 0.0
dictators 0.0
graduate 0.000133679058913
analysts 6.70511179681e-05
victor 0.0
shrink 0.000128674555332
dictator 0.000113661934177
poised 5.3931148105e-05
avoided 0.0
rallying 0.0
catholic 0.000104973419614
thriving 0.0
racially 0.0
undermines 0.0
yashar 0.0
inequality 0.000621351624838
medicare 0.0
missionaries 0.00010136155363
foremost 0.0
deplorable 0.0
demonize 0.0
wikileaks 0.0
enduring 0.0
privatized 0.0
appoint 0.0
losses 8.32350054796e-05
jbarro 0.0
buffett 0.0
staffers 0.0
takeaway 0.0
moscow 0.0
hampshire 0.0
pandering 0.0
voxdotcom 0.000180690503473
reckoning 0.0
moines 0.0
falter 0.0
countless 0.0
democrat 0.0
bostonglobe 0.0
accountable 0.0
dispel 0.0
despair 0.0
persisted 0.0
disclose 0.0
tedcruz 0.0
flooding 0.00020352818111
prejudice 0.0
towers 0.0
criticized 0.0
senatemajldr 0.0
outsider 0.0
declare 4.67268283621e-05
dismantle 6.70511179681e-05
thrive 5.08820452776e-05
threaten 0.0
outsourced 0.0
loophole 0.0
heerjeet 0.0
verbal 0.0
businessinsider 0.0
ukraine 0.000390714694533
vladimir 0.0
businessman 0.0
supremacist 0.0
etched 0.0
zekejmiller 0.0
momentarily 0.0
perpetrators 0.0
mocking 0.0
wrecked 0.0
identities 0.0
inhumane 0.0
disavow 0.0
hostile 0.0
muster 0.0
surrender 0.0
shatter 0.0
patriotic 0.0
rewarded 0.0
jitters 0.0
bullies 0.0
discipline 0.0
forgets 0.0
expand 0.0
apologized 0.0
tournament 0.0
grindstone 0.0
mastery 0.0
provider 0.000178268124427
steroids 0.0
jenniferjjacobs 0.0
notion 0.0
hernandez 0.0
mcuban 0.0
bullied 0.0
jebbush 0.0
discriminating 0.0
somali 0.000382909413838
hayden 0.0
limitless 0.0
implement 0.000209946839227
nydailynews 0.0
corybooker 0.0
interference 5.1668109592e-05
listens 0.000112973916298
preside 0.0
remembers 4.51275726422e-05
toughness 0.0
extensively 0.0
suffered 0.0
streep 0.0
billionaire 4.77962788337e-05
cheats 0.0
needing 0.0
percentage 0.0001359616498
insiders 0.0
binder 0.0
prescriptions 0.0
slashed 0.0
indebted 0.0
dismisses 0.0
delegates 0.0
pledged 0.0
endured 0.0
deployed 0.0
suspense 0.0
courageously 0.0
resilience 0.0
nationalists 0.0
autonomy 0.0
abandoning 0.0
canvas 0.0
blacks 0.0
pledging 0.0
elaine 0.0
methodist 0.0
candidacy 0.00013528322008
bonuses 0.0
resolve 0.0
laughable 0.0
scares 0.0
intellect 0.0
hopeless 0.0
debunked 0.0
shames 0.0
connections 0.0
tyleroakley 0.0
perplexed 0.0
ddlovato 0.0
impromptu 0.0
teenvogue 0.0
unveils 0.0
billie 0.0
prouder 0.0
sweetness 0.0
cheryl 0.0
filipino 0.0
petersburg 0.0
drastic 7.65818827675e-05
lifesaving 7.16108794953e-05
decorated 0.0
usagym 0.0
freestyle 0.0
absentee 0.0
lashes 0.0
concentration 0.0
refuge 0.0
renaissance 0.0
actively 0.0
monitoring 9.55925576674e-05
destined 0.0
willfully 0.0
detained 0.0
warmest 0.000615067407689
heroic 0.0
bragged 0.0
miners 0.0
shareholders 0.0
randall 0.0
excessive 0.0
geneva 6.06466045832e-05
corporations 0.0
unsolvable 0.0
grandchildren 6.76416100402e-05
discredit 0.0
enormously 0.0
frances 0.0
pillar 0.0
trillions 0.0
expansive 0.0
organize 0.0
capabilities 0.0
confederate 0.0
shakers 0.0
ambiguity 0.0
linking 0.0
pretends 0.0
wireless 0.0
inherit 0.0
paranoia 0.0
theatlantic 0.0
languages 0.000158301846318
disposable 0.0
reinforcing 8.07615799033e-05
integrated 0.000188614262497
optimist 0.000448694757539
pigeons 0.0
chadhgriffin 0.0
katieledecky 0.0
richards 0.0
demconvention 0.0
abcpolitics 0.0
chobani 0.0
dominiclowell 0.0
floridians 0.0
cecilerichards 0.0
clintonfdn 0.0
billclinton 0.0
grounded 5.75374713139e-05
abilities 0.0
grandfather 0.0
profoundly 0.0
fiercely 7.39406297594e-05
drowning 0.0
astound 0.0
alzheimer 5.90310118685e-05
responders 6.28714208323e-05
peacecorps 0.0
nygovcuomo 0.0
hurricanes 0.0
approximately 0.0
daunting 0.0
organizer 0.0
ingenuity 7.96309855949e-05
illnesses 6.76416100402e-05
intruders 0.0
invading 0.0
harmful 0.0
foundations 0.0
skateboards 0.0
housekeeping 0.0
dangerously 0.0
renters 0.0
predatory 0.0
rebuke 0.0
jengranholm 0.0
supremacy 0.0
linger 0.0
adamserwer 0.0
clevelanddotcom 0.0
repadamschiff 0.0
fahrenthold 0.0
revoke 0.0
advising 0.0
strengthening 0.0
colleges 0.0
deniers 0.0
aspire 0.0
exceed 6.64777440411e-05
lebassett 0.0
shrugged 0.0
stewardship 0.0
complains 0.0
temperament 0.0
texasinafrica 0.00010136155363
americorps 0.0
latino 6.15067407689e-05
payoffs 0.0
protested 0.0
honorable 0.000183215992964
fathom 0.0
inconvenience 0.0
johnkasich 0.0
latinos 0.0
votevets 0.0
unsurprising 0.0
loopholes 0.0
dismal 0.0
unqualified 0.0
rigorous 0.0
mittromney 0.0
joyannreid 0.0
theorist 0.0
evan_mcmullin 0.0
discriminate 0.0
ezraklein 6.88782636668e-05
obsessively 0.0
desperation 6.48510731881e-05
latina 0.0
tammyforil 0.0
pantsuit 0.0
superior 0.0
exonerated 0.0
johnpodesta 0.0
recites 0.0
supremacists 0.0
affront 0.0
electing 0.0
defund 0.0
demeans 0.0
govpencein 0.0
squandered 0.0
machado 0.0
pneumonia 0.000716108794953
unhinged 0.0
criticizes 0.0
derailment 0.0
iceberg 6.64777440411e-05
epipens 0.0
generals 0.0
timkaine 0.0
provocation 0.0
paulbegala 0.0
clintinfdn 0.0
wesleylowery 0.0
childdefender 0.0
dictatorship 0.0
ceasefire 0.00024228473971
stamped 0.0
intimidation 0.0
casinos 8.1960735859e-05
manifest 0.0
restrict 0.0
transformation 0.0
battleground 0.0
christine 0.0
touted 0.0
mcconnell 0.0
deflect 0.0
expressing 0.0
commonsense 0.0
statesman 0.0
mcbride 0.0
tumble 0.0
bigoted 0.0
belonged 0.0
praised 0.0
policeman 0.0
booing 0.0
cathedral 6.28714208323e-05
tomperez 0.0
keithellison 0.0
knowingly 0.0
wealthiest 0.000163921471718
backward 0.0
pretended 0.0
thedemocrats 0.0
psychologists 0.0
americ 0.0
successor 6.02301678242e-05
diplomats 0.0
congratulated 0.0
devotion 0.0
remembrance 5.42331389395e-05
eligible 0.000151124512812
incoherent 0.0
exhaustive 0.0
downgraded 0.0
unified 0.0
embraces 0.0
galling 0.0
senatorreid 0.0
lifetimes 0.0
demagogue 0.0
rodham 0.0
temper 0.0
longtime 0.0
vetoing 0.0
janelle 0.0
voguemagazine 0.0
dominique 0.0
surpassed 0.0
associates 0.0
demonstrating 0.0
morning_joe 0.0
bazaar 0.0
consequential 8.60678457008e-05
undressed 0.0
entrepreneurial 0.0
billionaires 0.0
prescription 0.0
senseless 0.0
refresher 0.0
classmates 0.0
maturity 0.0
comentarios 0.0
risked 0.0
invincible 0.0
vigilant 0.0
emissions 0.000116540296479
recommit 0.0
voiceless 0.0
natlparkservice 0.0
workplaces 0.0
mayaharris_ 0.0
dhsgov 0.0
cyberattacks 0.0
maxinewaters 0.0
jerrybrowngov 0.0
discriminates 0.0
thejusticedept 0.0
simone_biles 0.0
sotomayor 0.0
traumatic 0.0
scammed 0.0
dreamer 0.0
fulfill 0.0
latinas 0.0
discouraged 0.0
usnavy 0.0
oftentimes 0.0
reprehensible 0.0
demeaning 0.0
ratified 0.0
emilyslist 0.0
lawsuits 0.0
nonviolent 0.0
caucus 0.0
joebiden 0.0
joyful 6.33480707747e-05
privatize 0.0
barbaraboxer 0.0
sengillibrand 0.0
camino 0.0
familias 0.0
americaferrera 0.0
universidades 0.0
gabbygiffords 0.0
shuttlecdrkelly 0.0
fulton 0.0
shimon 0.0
hablar 0.0
fuerza 0.0
trickle 0.0
refinance 0.0
shattering 0.0
damián 0.0
gouging 0.0
moveon 0.0
simone_manuel 0.0
revdrbarber 0.0
senatorbarb 0.0
cnbcnow 0.0
stiffed 0.0
mikebloomberg 0.0
solver 0.0
thrower 0.0
granddaughters 0.0
changemaker 0.0
clairecmc 0.0
anastasiasomoza 0.0
defunding 0.0
preyed 0.0
aspirations 0.0
fannie 0.0
mubarak 0.0
buzzfeedben 0.0
probed 0.0
marines 0.0
projecting 0.0
outsourcing 7.39406297594e-05
developers 7.01974200842e-05
crimea 0.0
everyo 0.0
chaser 0.0
dubious 0.0
diplomatic 0.000112297659986
rosiegray 0.0
unpatriotic 0.0
multifaceted 0.0
myanmar 7.56617161399e-05
adamparkhomenko 0.0
tjmshow 0.0
tenant 0.0
perjury 0.0
contractual 0.0
surrounds 0.0
exceeded 0.0
thrives 0.0
unclerush 0.0
sailors 0.0
stereotypes 6.10719976546e-05
librarycongress 0.0
acknowledging 0.0
philippe 0.0
battled 0.0
postopinions 0.0
ambassadorrice 0.0
shockingly 0.0
mcfaul 0.0
presid 0.0
poisons 0.0
kenvogel 0.0
johndingell 0.0
harnessing 0.0
unwritten 0.0
bewildering 0.0
moonshot 0.0
apologizing 0.0
oligarchs 0.0
espionage 0.0
marcorubio 0.0
desecration 0.0
brianefallon 0.0
bangladesh 0.00238779366426
twittermoments 0.0
officialcbc 0.0
thefix 0.0
urgency 0.0
traceeellisross 0.0
andradaymusic 0.0
impeccably 0.0
catastrophe 0.0
tallest 0.0
anastasia 0.0
azcentral 0.0
marrying 0.0
moderates 0.0
resembles 0.0
paraphrase 0.0
applauds 7.65818827675e-05
heavier 0.0
virginians 0.0
railing 0.0
eloquently 0.0
denverpost 0.0
independents 0.0
americanos 0.0
hispanos 0.0
bailouts 0.0
divisiveness 0.0
jmpalmieri 0.0
hardballchris 0.0
republicano 0.0
candidato 0.0
phillyinquirer 0.0
jesserodriguez 0.0
militarytimes 0.0
sunsentinel 0.0
ryanlizza 0.0
bretbaier 0.0
thelastword 0.0
hillaryclinto 0.0
maddowblog 0.0
boundless 0.0
enacting 0.0
gettysburg 0.0
groping 0.0
govchristie 0.0
justices 0.0
watchdogs 0.0
cavalier 0.0
succeeds 0.0
retirees 0.0
pocketed 0.0
multimillionaire 0.0
redcross 0.0
evalongoria 0.0
highways 0.0
marlee 0.0
primero 0.0
pianos 0.0
bribed 0.0
scranton 0.0
wellesley 0.0
perkins 0.0
onward 6.53785715272e-05
algore 0.000673042136308
candidly 0.0
trajectory 6.76416100402e-05
quitter 0.0
objectifying 0.0
ignoramus 0.0
disillusioned 0.0
asinine 0.0
vibrancy 0.0
arpaio 0.0
testifying 0.0
chairmen 0.0
luchar 0.0
disrupted 0.0
podemos 0.0
settlements 0.0
massacres 0.0
millones 0.0
eagerly 0.0
grandmas 0.0
dedicado 0.0
seeming 0.0
pragmatic 6.76416100402e-05
hashanah 0.0
porque 8.76510916946e-05
unidos 0.0
nuestras 0.0
primera 0.0
debemos 0.0
muchos 0.0
cuando 0.0
nuestro 0.0
inteligente 0.0
rapists 0.0
agosto 0.0
presidente 0.0
puedes 0.0
mujeres 0.0
safeguarding 0.0
indecent 0.0
motions 0.0
strengthened 0.0
eminently 0.0
innuendo 0.0
memorandum 0.0
reuterspolitics 0.0
educates 0.0
mexicana 0.0
disparage 0.0
absurdity 0.0
backdoor 0.0
affording 0.0
hardline 0.0
steelworkers 0.0
demean 0.0
immigrate 0.0
thuggish 0.0
astrid 0.0
jesuit 0.0
governorship 0.0
waterboarding 0.0
personas 0.0
stephenson 0.0
huracán 0.0
firefighter 0.0
ravages 0.0
marleematlin 0.0
scrolling 0.0
tarnish 0.0
ajentleson 0.0
roanoke 0.0
heaping 0.0
carpentry 0.0
forcefully 0.0
frankiejgrande 0.0
aprildryan 0.0
unjustified 0.0
yamiche 0.0
evacuate 7.85615351233e-05
disrespects 0.0
incomprehensible 0.0
jogger 0.0
vindicated 0.0
blazed 0.0
cambodia 0.000565331059323
revolutionize 0.0
welding 0.0
unbeatable 7.47824595898e-05
polished 0.0
saddled 0.0
interdependence 0.0
alleys 0.0
civility 0.0
vilified 0.0
disagreeable 0.0
terence 0.0
bluster 0.0
incredib 0.0
holton 0.0
hillaryforpa 0.0
hillaryforco 0.0
jes_chastain 0.0
vitalvoices 0.0
indictments 0.0
evokes 0.0
reaffirming 0.0
rebukes 0.0
minerva 0.0
peddle 0.0
starker 0.0
cascading 0.0
carolinians 0.0
señora 0.0
honrado 0.0
missionary 0.000175302183389
ranchers 8.60678457008e-05
denveropinion 0.0
practicality 0.0
thoughtfulness 0.0
scripture 0.0
pueblo 0.0
morningmoneyben 0.0
smalls 0.0
exemplify 0.0
eviscerated 0.0
jeffflake 0.0
helpless 0.0
sarahemcbride 0.0
indivisible 0.0
colinjones 0.0
mrjoshcharles 0.0
houstonchron 0.0
thoroughness 0.0
isolde 0.0
wonkiest 0.0
equate 0.0
dustbin 0.0
estados 0.0
newrepublic 0.0
expresses 0.0
demonizing 0.0
jeffbezos 0.0
discard 0.0
befriending 0.0
slovenia 0.0
unrelenting 0.0
salmahayek 0.0
revolves 0.0
anselm 0.0
dwells 0.0
usairforce 0.0
deride 0.0
repackaging 0.0
earmarked 0.0
evader 0.0
passpor 0.0
awaited 0.0
guterres 0.0
precinct 0.0
presidencia 0.0
unshakable 0.0
marshablackburn 0.0
comunidad 0.0
merecen 0.0
juntos 0.0
infomercial 0.0
johnstown 0.0
statewide 0.0
skyscrapers 0.0
phillydotcom 0.0
deducted 0.0
laguardiacc 0.0
annieslisttx 0.0
nickmerrill 0.0
leaninorg 0.0
missbeae 0.0
minassianmedia 0.0
natarsha 0.0
foments 0.0
ruline 0.0
steininger 0.0
michaelnutter 0.0
harren 0.0
louisa 0.0
cannell 0.0
robbymook 0.0
broward 0.0
hillaryforfl 0.0
jeanneshaheen 0.0
ericasmegs 0.0
jeremyshorr 0.0
turpin 0.0
rubycramer 0.0
singularly 0.0
joshschwerin 0.0
clionamccarney 0.0
xochitlhinojosa 0.0
adamsmith_usa 0.0
humayun 0.0
jamestaylor_com 0.0
hillaryformn 0.0
ericwms 0.0
dougmillsnyt 0.0
jencarlosmusic 0.0
hannahbfine 0.0
creynoldsnc 0.0
lefsadventures 0.0
pembroke 0.0
perceptiveness 0.0
hillaryforaz 0.0
fayetteville 0.0
entrust 0.0
daveeddiggs 0.0
petewilliamsnbc 0.0
hillary_esp 0.0
ustedes 0.0
nación 0.0
creativa 0.0
bilingües 0.0
multilingües 0.0
contribuyen 0.0
diversidad 0.0
economía 0.0
hillaryforia 0.0
estaré 0.0
discurso 0.0
síganme 0.0
detall 0.0
hopewell 0.0
temperamentally 0.0
redone 0.0
barging 0.0
machadooficial 0.0
mikereedschmidt 0.0
franklinfoer 0.0
eamonjavers 0.0
hillaryforoh 0.0
hustling 0.0
relishes 0.0
markkirk 0.0
asmamk 0.0
just_jenna 0.0
discrimina 0.0
samifayebaker 0.0
padded 0.0
wigazette 0.0
phillytrib 0.0
trivializes 0.0
condones 0.0
ellisoncampaign 0.0
barb_kinney 0.0
theriveterspod 0.0
humiliates 0.0
nickmarroletti 0.0
alli_wilber 0.0
brespolitico 0.0
jasoncherkis 0.0
sean_p_thomas 0.0
outclassed 0.0
outmaneuvered 0.0
belittling 0.0
familie 0.0
yuuuuuuge 0.0
disqualifying 0.0
brynnecraig 0.0
buffywicks 0.0
lasvegassun 0.0
cmichaelhuntley 0.0
civically 0.0
raquelwillis_ 0.0
celebramos 0.0
trayectoria 0.0
pionera 0.0
breakups 0.0
rosenbergerlm 0.0
heraldleader 0.0
jaylon 0.0
decisi 0.0
antónio 0.0
squander 0.0
presidenta 0.0
protegerá 0.0
astrid_nv 0.0
sltrib 0.0
peter_j_k 0.0
brosandprose 0.0
nicholaskitchel 0.0
mahoning 0.0
omerizer 0.0
kendallybrown 0.0
davidnakamura 0.0
chatima 0.0
tammybaldwin 0.0
mpshapiro 0.0
responsibilit 0.0
overgrown 0.0
literally_trump 0.0
imploded 0.0
rnicholasburns 0.0
disastrously 0.0
stiffing 0.0
globeopinion 0.0
degradi 0.0
languishing 0.0
demostrar 0.0
poderosa 0.0
iammarleydias 0.0
tbtimes_opinion 0.0
disloyalty 0.0
defende 0.0
vegalteno 0.0
moodysinvsvc 0.0
decisiveness 0.0
whethe 0.0
preocupada 0.0
trayecto 0.0
afectados 0.0
ayotte 0.0
empathize 0.0
lifelo 0.0
lorellapraeli 0.0
ironworking 0.0
ebeling 0.0
contribuido 0.0
ejército 0.0
inmigrantes 0.0
indocumentados 0.0
enquirer 0.0
delega 0.0
roadshow 0.0
sunsentinelopinion 0.0
resulta 0.0
insultar 0.0
construir 0.0
muralla 0.0
provoked 0.0
discretion 0.0
sdutideas 0.0
merece 0.0
respeto 0.0
enfrentar 0.0
valentía 0.0
ataques 0.0
descaro 0.0
culparla 0.0
petulance 0.0
ninhaitseng 0.0
flippantly 0.0
posteverything 0.0
_vicentefdez 0.0
azcopinions 0.0
aumentó 0.0
andrewjenks 0.0
imwithher 0.0
diferencias 0.0
onevoxdotcom 0.0
ignite_national 0.0
endorsin 0.0
mercersdairy 0.0
everyvoice 0.0
rachaelgass 0.0
galifianakis 0.0
crutcher 0.0
nyledimarco 0.0
mistreat 0.0
wellsfargo 0.0
templeuniv 0.0
sollender 0.0
honremos 0.0
tantas 0.0
contribuciones 0.0
aleatha 0.0
endeavored 0.0
legitimize 0.0
además 0.0
whistles 0.0
ugliness 0.0
jorge_silva 0.0
dnclatinos 0.0
libnofcongress 0.0
unscrupulously 0.0
contractually 0.0
impulsively 0.0
qaddafi 0.0
cancelable 0.0
cnbcopinion 0.0
jbrotherston 0.0
_bxddxss 0.0
sspiderboy 0.0
collegedems 0.0
veered 0.0
charitynav 0.0
usnewsopinion 0.0
humansofny 0.0
unfitness 0.0
steadiness 0.0
nbcusa_inc 0.0
verdadera 0.0
encuentra 0.0
hacemos 0.0
anuncio 0.0
unpresidential 0.0
unfavorably 0.0
heridas 0.0
visibles 0.0
veteranos 0.0
cuidado 0.0
panetta 0.0
experiencia 0.0
confío 0.0
exsecretario 0.0
comercio 0.0
lizromanoff 0.0
americasvoice 0.0
davidleopold 0.0
rebuked 0.0
criminalize 0.0
mentiré 0.0
inmigración 0.0
demonizar 0.0
americanlegion 0.0
sarasolow 0.0
qumber 0.0
zerlinamaxwell 0.0
hillaryforut 0.0
hillaryforga 0.0
grandtetonnps 0.0
marlondmarshall 0.0
mariatcardona 0.0
escuchamos 0.0
claramente 0.0
demonizando 0.0
segunda 0.0
tercera 0.0
rhettbuttle 0.0
hillaryformi 0.0
futuramics 0.0
louisianans 0.0
claressashields 0.0
helen_maroulis 0.0
bri_rollin 0.0
itspooda 0.0
kristihollywood 0.0
meredeetch 0.0
kersee 0.0
rodhams 0.0
bidens 0.0
possibilitie 0.0
maulama 0.0
akonjee 0.0
shotdiva 0.0
auriemma 0.0
maxlinsky 0.0
cowering 0.0
moratory 0.0
hillarycl 0.0
repudiate 0.0
fencer 0.0
bankruptcies 0.0
warrenbuffett 0.0
bishopgarrison 0.0
ajazzyworld 0.0
morell 0.0
starkest 0.0
braille 0.0
frankmugisha 0.0
confiar 0.0
distinguido 0.0
herencia 0.0
harkening 0.0
impulses 0.0
dakota_meyer 0.0
kauveri 0.0
iafftreg 0.0
laurawalkerkc 0.0
jakesherman 0.0
benediction 0.0
denigrates 0.0
ann_oleary 0.0
liberates 0.0
bombast 0.0
repcleaver 0.0
throwed 0.0
luchado 0.0
derechos 0.0
humanos 0.0
trabajadores 0.0
relent 0.0
aprendí 0.0
valores 0.0
trabajo 0.0
mismos 0.0
annella 0.0
drbiden 0.0
expedient 0.0
imangelabassett 0.0
smegielski 0.0
leinonen 0.0
driffin 0.0
buckles 0.0
insatiably 0.0
sybrina 0.0
mcbath 0.0
dontre 0.0
randibrazeau 0.0
sjbxtr 0.0
malcolmkenyatta 0.0
lankford 0.0
countrymen 0.0
countrywomen 0.0
refiere 0.0
separar 0.0
valiente 0.0
strongmen 0.0
seremos 0.0
compañeros 0.0
bienvenidos 0.0
dauntless 0.0
governorva 0.0
sherrodbrown 0.0
vicepresidencia 0.0
ilyseh 0.0
gunsense 0.0
encantada 0.0
anunciar 0.0
splintering 0.0
albamonica 0.0
criminologist 0.0
construiremos 0.0
discriminatio 0.0
endorser 0.0
sniveling 0.0
ryanegraney 0.0
baptize 0.0
convención 0.0
republicana 0.0
