chatting 0.0
trying 0.000859037034829
launch 0.000117034867854
moment 0.000191929088331
wonderful 3.57385473393e-05
seeing 0.00013074286663
recommend 4.7355886629e-05
anybody 0.0
podcast 0.000187748577732
challenges 0.0
worked 0.000206442481961
direct 4.50534633009e-05
others 0.0
currently 0.000113543126491
better 0.000975724715469
please 0.000478530996732
travels 0.0
social 0.000249490863393
around 0.000409174880681
people 0.00292717414641
leaving 3.6031340063e-05
morning 0.000126580505285
general 4.07853307787e-05
overall 5.530617825e-05
damage 0.0
affect 5.47681311169e-05
everything 0.00069619277907
twitter 0.000856724585097
present 7.20626801259e-05
though 0.000461318619591
friend 0.000254529491801
watched 7.14770946786e-05
beautiful 6.51953493356e-05
anything 0.000514577941338
practice 0.0
helped 6.93753826322e-05
helpful 0.0
revive 0.0
updated 5.02996184465e-05
thinking 0.000355685184281
finally 0.000485025251293
caught 0.00021384931148
believe 0.000284039492534
already 0.000410279266994
orlando 5.38913337296e-05
depends 4.7355886629e-05
chance 0.000284806136892
meaning 0.0
annual 0.0
renewed 0.0
growing 7.59035169632e-05
probably 0.00147550615098
should 0.000125486388599
changed 3.38532538828e-05
history 0.000358574421346
center 0.000248862699996
museum 0.000274732300769
behind 0.000220324935751
pretty 0.000323350167528
really 0.00215186858985
expensive 0.000163243427442
little 0.000378719323379
earlier 3.70274672122e-05
forget 0.000192447195501
paperwork 0.0
someone 0.00156320125599
mostly 0.000144199239624
worker 0.0
safety 0.000183387969974
program 0.0
things 0.00059802482561
electrical 0.0
visiting 4.36486666628e-05
available 9.85876287414e-05
perfect 0.000131805319883
different 0.000257288970669
search 4.23038994216e-05
connect 0.0
numbers 3.95552456448e-05
person 0.000539419183209
watching 0.000318161864751
passed 3.85833848444e-05
minutes 0.000326857166576
daughter 0.000153063949157
average 0.0
positive 0.0
outside 0.000334893771038
metric 8.93469428192e-05
looking 0.000410279266994
forward 0.000162549391314
raising 0.0
afraid 0.000122698733084
impression 0.000116287366401
profile 4.3276177217e-05
drawing 0.000112821354438
favorite 0.000587604879675
picture 0.000303037106912
historic 0.0
instead 0.00042769862296
appreciate 0.00011169159712
husband 0.000246936179947
international 0.0
toddler 0.0
couldn 0.000593123939474
remember 0.000379741515856
holidays 0.0
friends 0.000445426610652
despite 8.98462637795e-05
understood 0.0
impossible 8.60605552009e-05
everyone 0.00170883682135
florida 4.66610462519e-05
always 0.000944249724648
months 0.000165201840969
moving 3.40367820461e-05
meeting 9.7266978228e-05
google 0.000159101405491
answer 6.4844652152e-05
together 0.000222113781321
included 0.0
inside 6.59026599415e-05
section 4.86466137994e-05
missed 0.000128298130334
button 0.000157612085787
active 0.0
longer 0.000182627315484
enough 0.00063976362777
projects 0.0
driving 0.000116069697892
building 3.55448544768e-05
enjoying 7.73797985949e-05
kennedy 0.0
tantrums 0.0
apparently 0.00032628264623
recent 0.0
gotten 0.000105740867446
amazing 0.000284039492534
determined 0.0
attention 7.16716851941e-05
progress 4.38994647294e-05
tomorrow 9.49353789641e-05
whenever 5.20442710482e-05
curious 5.02996184465e-05
george 0.000157346673765
feeling 3.31296590077e-05
excited 0.000231282577356
campaigning 0.0
understand 0.00024150237739
learning 7.8455892861e-05
special 0.000191412398693
secret 0.000106345359613
across 0.00014140938515
comparison 5.91493595111e-05
surprised 0.000264208014086
anymore 8.0664890799e-05
spirited 0.0
precious 0.0
rejoice 0.0
rather 7.10897089537e-05
showing 0.000135047558197
saying 0.000693847732068
tweeted 4.18287961997e-05
updates 0.0
thoughts 0.000100739858039
exactly 0.000205328319762
except 0.000403324453995
getting 0.00069619277907
nothing 0.000474676894821
tweets 0.000558018638051
course 0.000163428583288
photos 0.000229595923736
looked 0.00035933439546
difficult 8.34222650913e-05
office 0.000444878026151
decisions 0.0
brought 0.00024546041681
biggest 0.000325976746678
thrilled 0.0
entire 0.00056257613389
something 0.000949353789641
closing 9.41522141813e-05
anyone 0.000701845461874
taking 0.000348096389535
reprint 0.0
flying 7.95507027455e-05
happening 0.000172501698136
sometimes 6.97523297564e-05
lessons 0.0
village 0.0
stopped 0.000222773016182
yesterday 6.38041328976e-05
service 0.00017390893512
serious 0.000101559761648
emails 0.000109536262234
wearing 0.000408417196333
afford 0.000255403378334
either 0.000483004754779
second 0.000127608265795
checking 0.0
volunteers 0.0
indeed 0.0
hearing 0.000106057038863
choose 7.44610647469e-05
another 0.000568078985069
address 8.53299862857e-05
display 0.00011319717634
compare 0.0
weekend 0.000192447195501
suggested 0.0
appear 4.79230189243e-05
anyway 0.000245397466169
theory 0.000311289655409
buildings 0.0
working 0.000284806136892
bigger 0.0
treated 0.000104088542096
admired 0.0
retirement 0.000181200557972
laughing 0.000938440197257
wanted 0.000319881813885
current 0.0
grateful 0.0
friendship 0.0
family 0.000822773284356
listening 6.93753826322e-05
stream 0.0
sharing 7.44610647469e-05
double 0.000143343370388
especially 0.0
middle 0.000326941938489
waiting 6.4844652152e-05
definitely 0.000207563256437
walking 0.000189758792408
account 0.000334159524273
completely 3.75376078903e-05
thought 0.000510433063181
accept 0.000121335171881
possible 0.000133957508415
simple 3.68257037596e-05
manufacturing 0.0
destroyed 0.000121656847528
members 7.97719682866e-05
supposed 0.000126196354143
manufacturers 0.0
business 0.000341289489957
absolutely 0.000304679284945
anywhere 0.000126553348793
sending 7.34506099593e-05
introducing 0.0
congrats 0.0001328768154
beauty 4.5315756409e-05
community 0.0
greatest 0.000311344884655
posted 0.000262044413042
wednesday 0.0
explain 7.38528476323e-05
broken 0.000627647142888
fairly 0.0
closest 0.0
hoping 0.0
relationship 0.000127632503081
actually 0.00132931536912
pockets 0.0
wallet 0.0
pocket 5.42391272222e-05
argument 0.0
decent 0.000112447762946
school 0.000643222426672
throwback 0.0
thursday 6.77065077656e-05
talented 0.0
discuss 0.0
celebrate 6.99416531522e-05
celebrating 3.77440020123e-05
anniversary 3.82659872894e-05
students 8.38938027391e-05
corners 0.0
internet 0.000275356679089
figure 7.56954176608e-05
opened 0.00018500555064
inspired 7.65319745787e-05
latter 0.0
sitting 7.14770946786e-05
playing 0.000321611213336
street 0.000385723512131
points 4.055807354e-05
advice 3.71288360303e-05
memory 4.37738158965e-05
forever 3.57385473393e-05
congress 0.000329678760923
imagine 0.000564104510945
problem 0.000407338610368
pulling 0.000215565334918
furniture 0.000240477196167
keeping 7.07046925752e-05
dressed 5.10806756668e-05
chinese 0.000204322702667
unlike 0.000175626318377
allowed 0.000124781721355
otherwise 8.98462637795e-05
afternoon 0.0
planned 4.54477272138e-05
images 5.56700550289e-05
noticed 0.0
expense 0.0
differences 0.0
difference 6.91877521456e-05
editor 0.0
intent 0.0
suppose 0.0
inspiration 0.0
letting 7.7808031414e-05
system 3.95552456448e-05
almost 0.000316451263214
details 6.91877521456e-05
experience 0.000132161472775
living 6.60807363874e-05
worries 0.0
weather 0.0
bright 0.0
understands 0.0
normal 0.000169695217174
launching 0.0
backyard 0.0
pointed 0.0
before 0.000102942289603
monday 0.00026432294555
example 0.000167315184799
science 4.4664077005e-05
tweeting 0.000180647730211
forgot 0.000118995318325
disaster 4.85005578955e-05
happens 0.000131096022439
silence 0.0
learned 0.000183126127166
congratulations 3.48761648782e-05
natural 0.0
babies 4.92377108112e-05
mission 0.000171632177891
surprising 0.000102161351334
reference 0.00021418936534
forgotten 0.0
setting 0.0
appeared 0.0
reminds 0.000179173351717
fantastic 0.0
loving 3.73325583649e-05
complete 7.26537641086e-05
daniel 5.56700550289e-05
rewarding 0.0
nearly 0.0
spirit 8.20284816237e-05
launched 0.0
finding 0.00015475959719
stories 3.4221386627e-05
including 3.51610083681e-05
wouldn 0.00047780528594
choice 0.000135047558197
offended 7.06101517653e-05
conversation 7.69544592629e-05
disrespectful 9.27224949028e-05
making 0.000347159379764
expect 7.59035169632e-05
traits 0.0
discussion 0.0
believes 0.000110975181606
response 0.00011169159712
brings 0.000114482686208
seasons 0.0
anytime 5.20442710482e-05
protected 0.0
location 4.96884343723e-05
needed 0.000270095116394
seriously 0.000279766612609
emergency 5.51258053161e-05
justify 7.24265205327e-05
spending 0.000118010005324
groups 0.0
condition 0.000231785388754
childhood 0.000206235143945
modern 0.0
welcome 0.000127952725554
moments 0.0
totally 0.000146101852387
running 9.96576115498e-05
strong 9.77930240034e-05
respond 4.77802749571e-05
message 6.7159905359e-05
coming 0.000220919605304
thankful 0.0
issues 7.54880040246e-05
challenge 0.0
intolerance 0.0
happen 0.000161239744748
giving 0.000159940906943
turkey 0.0
excellent 0.0
limits 0.0
contractors 0.0
common 0.000117358796036
pressed 0.000260359768692
healthcare 0.000430373350781
benefits 0.0
situation 4.13607579722e-05
workers 0.000105406914505
company 0.000250850898179
savings 7.57081348757e-05
health 0.000373325583649
insurance 0.00027295403378
change 0.00022151588425
silver 5.17197837328e-05
august 0.0
crying 0.000199360485475
mental 0.0
carrier 0.0
decide 7.8455892861e-05
happened 0.00026647203336
parking 0.0
demand 4.17111325456e-05
sacrifice 0.00059832790336
personal 3.44070803268e-05
rewards 0.0
beyond 0.000106057038863
contributing 0.0
passion 0.0
question 0.000129340067011
doctor 9.7001115791e-05
sacrifices 0.0
respected 0.0
losing 0.000234069735708
strain 0.0
respect 0.000138375504291
shouldn 7.56954176608e-05
career 0.000146901219919
visited 0.0
reason 0.00046632605838
simply 3.95552456448e-05
audience 4.37738158965e-05
sacrificed 0.0
employees 6.06135765762e-05
accounts 0.0
attacked 6.19252243129e-05
involved 7.36514075192e-05
extreme 5.47681311169e-05
valuable 5.93544090364e-05
knocked 0.000137231187497
reality 7.5281271551e-05
mention 0.0
without 0.000510433063181
problems 0.0
timing 5.62238814729e-05
described 0.0
pattern 0.0
online 0.000408441384553
background 0.0
buying 0.000171632177891
called 0.000540875170078
scientists 0.0
checked 0.0
heading 0.0
paying 0.000205646615867
planning 4.11293231734e-05
opposite 5.18816092349e-05
through 8.88142737551e-05
reached 0.0
changing 3.87967754301e-05
explains 4.25441676938e-05
harder 0.0
demands 0.0
silent 0.0
speaking 0.000108684178188
november 0.0
ordinary 6.26021319249e-05
number 0.000194533956456
stunning 0.0
atlantic 0.0
stupid 8.80512343321e-05
personality 6.40012507438e-05
grandparents 8.6786589564e-05
unless 0.000156046490472
calling 0.0002657536308
painting 0.0
focused 5.13986075702e-05
ridiculous 0.0
package 0.000113575255444
rooted 0.0
option 4.58469924935e-05
knowing 0.000175095263586
former 0.000119326054118
actual 0.000336523611048
tracked 0.0
suffers 0.0
schedule 0.0
friday 0.000128298130334
failure 5.09229059589e-05
achieve 5.30383007386e-05
winner 3.51610083681e-05
doctors 5.69778095143e-05
becomes 0.000179173351717
directly 0.0
quality 4.08995776948e-05
tearing 0.0
father 7.20626801259e-05
wishes 4.12448278565e-05
collar 8.13776043046e-05
caring 6.35279336918e-05
ground 0.000205071204059
matter 0.000237614189382
strategy 5.25373619289e-05
themselves 5.530617825e-05
asking 0.000133957508415
usually 0.000210922247988
thankfully 0.000143010471037
reacts 0.0
period 9.44313719853e-05
parents 0.000265662309371
balance 0.0
resist 0.000119955393098
mobile 0.0
computer 4.89407747333e-05
reminded 0.000219785840615
impressed 4.79230189243e-05
dinner 0.000209824959457
suffering 0.0
single 0.000325976746678
parent 0.0
approved 0.0
energy 7.5281271551e-05
preview 9.01069266019e-05
meltdown 0.0
remind 0.000132076851498
emotional 0.0
sounded 6.59690784059e-05
status 9.52763508688e-05
update 0.0
outage 0.0
customers 0.0
holding 0.000187174580744
causes 5.62238814729e-05
eating 0.000316441965159
picked 0.0
missing 0.000101285668648
surprise 3.38532538828e-05
officially 0.000184632119081
global 0.0
follow 0.000159080932376
opinion 4.12448278565e-05
faster 0.0
backwards 6.80681888062e-05
design 0.0
website 7.71667696889e-05
widely 0.0
origin 0.0
breaks 8.34222650913e-05
allows 0.0
promoting 0.0
volunteer 0.0
convince 0.0
negative 0.0
official 6.53714333152e-05
jersey 0.000319242407099
mistake 8.75476317931e-05
fixing 0.0
translated 0.0
ginger 0.0
peaceful 0.0
thinks 0.000221558542897
hospital 9.22320222934e-05
lauren 0.0
easier 4.29080444728e-05
excluded 0.0
successful 0.000129828531651
leadership 4.95374748944e-05
agrees 0.0
decline 0.0
turnout 6.88929082368e-05
showed 0.000198876756864
trumps 0.0
circle 5.60381877731e-05
engage 0.0
suited 0.0
experienced 5.51258053161e-05
interested 4.06714970531e-05
effect 8.34222650913e-05
success 3.57385473393e-05
ladies 0.000130199553631
dreams 0.0
protect 0.00024334844124
explanation 0.0
occasion 0.0
medication 0.0
planet 4.44071368776e-05
detached 0.0
essence 0.0
control 7.07046925752e-05
happier 0.0
likely 8.46077988431e-05
coincidence 0.0
cancel 0.0
project 0.0
laying 0.0
lesson 4.40256171661e-05
requires 6.12625684517e-05
healthy 0.0
treating 0.0
opening 0.00010322124098
statement 0.000164056963247
enjoyed 3.75376078903e-05
animal 9.49934291267e-05
nervous 5.20442710482e-05
pounds 6.80681888062e-05
wonder 0.000137256386138
matters 4.15939071184e-05
shared 4.33998512104e-05
somehow 0.000561887432334
benefit 0.0
terrible 0.000282327117796
continues 0.000115750154533
improve 4.83551766171e-05
equally 0.0
appointment 0.0
session 4.13607579722e-05
routine 0.0
exciting 3.79517584816e-05
corner 4.51843366322e-05
imagination 0.0
decides 7.12040371356e-05
cheering 0.0
spring 4.04450572936e-05
fallen 0.0
frequently 8.53447348379e-05
places 3.77440020123e-05
thousands 4.63873489549e-05
informed 5.56700550289e-05
typical 0.0
continue 0.0
attend 0.0
excuse 0.000229234962467
settle 5.89456371764e-05
female 8.43688991953e-05
recovery 0.0
treasured 0.0
grandma 6.67399330359e-05
closer 3.96651061083e-05
beginning 0.0
everywhere 3.77440020123e-05
scenes 0.000120997336198
bought 3.86898992974e-05
multiple 0.00033546113247
slogan 0.00015497371235
wishing 0.0
covered 8.20284816237e-05
remove 0.0
choices 0.000102478480375
dealing 0.0
teacher 0.000283294115956
training 4.10142408119e-05
passing 0.0
stopping 9.61328264159e-05
become 3.30403681937e-05
spread 3.61295460422e-05
season 0.000209256989269
putting 0.0002657536308
weight 0.000246188554056
quietly 0.0
necessity 0.0
knocks 0.0
effects 5.87432249623e-05
returns 0.0
expected 0.000135947269227
resources 6.21492465456e-05
bucket 0.0
struggling 5.47681311169e-05
register 4.70761070906e-05
promotion 0.0
solution 0.0
manage 0.0
transition 0.0
gained 0.0
define 6.19252243129e-05
somebody 4.72156859926e-05
contract 0.000109536262234
ignorant 0.0
managers 0.0
credit 0.00039011622618
brothers 0.000194002231582
grandkids 0.0
computers 0.0
physical 5.27034572527e-05
series 0.000275256642614
offensive 0.000114723311246
fighting 0.0
donald 0.000181790908855
mexico 4.57133405269e-05
sandra 0.0
police 0.000448638638566
represent 0.0
president 0.000773542184099
talking 0.000317305401888
america 0.000168353948285
michigan 0.0
everybody 3.9011622618e-05
judgment 0.0
carolina 0.0
amount 8.88142737551e-05
houston 5.38913337296e-05
everyday 4.49231318898e-05
michael 0.000250169831375
protecting 0.0
providing 0.0
attitude 0.0
million 0.000332192038499
election 0.000436486666628
honesty 0.0
targeting 0.0
telling 0.000143733758184
correct 0.000122355992336
attack 0.000244711984672
elementary 0.000289706082131
americans 8.80512343321e-05
killed 0.000846156766418
horrible 0.000161674001189
salute 0.0
coverage 8.58160889455e-05
united 0.000615213612178
college 0.000395552456448
refuse 0.000227150510889
preach 0.0
hillary 0.00039619011719
clinton 0.000206879134931
presidency 0.000136681402503
throws 0.000123405570579
manning 0.0
american 0.000235059668757
deserved 4.83551766171e-05
humble 0.0
remain 0.0
founder 0.0
illegal 5.27034572527e-05
arizona 0.0
opinions 0.000108478254444
speeches 0.0
scared 0.000139162046865
salary 0.0
pieces 4.67987926023e-05
taught 0.0
thompson 0.0
straight 0.000385723512131
blocking 0.0
answers 8.15706615575e-05
created 7.61123064801e-05
record 3.30403681937e-05
stamina 0.0
weapon 0.000128481210879
bottom 8.4847608587e-05
athletes 0.0
registered 0.0
minnesota 7.12040371356e-05
committed 4.98401213687e-05
journey 0.0
snapchat 5.87432249623e-05
peoples 0.0
disrespect 0.0
brother 0.000270083693911
prayers 0.0
boston 9.14266810539e-05
korean 0.0
church 0.0
advantage 0.0
motivation 0.0
honestly 0.000225921683161
defeat 0.0
lifetime 0.0
captain 0.000268594337975
retired 0.000128481210879
country 0.000261485733261
ending 8.50883353876e-05
dressing 0.0
finish 0.000116712047121
ranked 0.0
employee 6.97398200705e-05
university 4.5315756409e-05
dreamed 0.0
prayer 7.00272649068e-05
nominated 0.0
responds 6.37637025157e-05
national 3.4221386627e-05
reform 0.0
shooting 0.000197776228224
cancer 0.000119326054118
deserve 3.87967754301e-05
mother 0.000211539191605
creating 0.0
powerful 3.85833848444e-05
wisdom 0.0
breaking 3.40367820461e-05
dollars 0.000159114902216
questions 3.2422326076e-05
racist 0.000683733714171
charged 0.0
soldiers 0.000264895752095
performance 0.000183126127166
reading 0.000134319810718
denver 0.0
graphic 0.0
garner 0.0
create 3.66252254333e-05
jordan 0.000165377415948
admire 0.0
nobody 0.00120270003833
government 0.000284135319774
politics 0.000134380013788
blessing 0.0
wrestling 0.000771229793961
charities 0.0
donate 0.000127994979429
sample 0.0
bringing 3.55448544768e-05
deserves 0.000210327256905
regret 0.000111340110058
victim 0.0
according 4.19469013695e-05
threat 0.000141228321272
heaven 0.000150437118613
heroin 0.0
honest 3.93366684413e-05
became 0.000158220982579
decision 7.88915346111e-05
counting 0.0
signing 4.1477116666e-05
embrace 0.0
pressure 0.0
celebrities 0.000235813286605
facebook 6.77065077656e-05
kardashian 0.0
divided 0.0
lawyer 6.01882323895e-05
lebron 7.97631483345e-05
campaign 0.000293802439837
determine 0.0
whether 3.99970071537e-05
praise 0.000161156602785
defined 0.0
proposes 0.0
discover 0.0
factory 0.000128963588578
arrested 5.97685596277e-05
estate 0.0
proposed 0.0
comments 0.0
teenage 6.94549765805e-05
wounded 8.13776043046e-05
endorsement 0.0
williams 0.000100908574035
custom 6.35279336918e-05
troops 0.000851051081516
singer 0.0
future 0.000358574421346
struggled 0.0
sister 4.25441676938e-05
sabotage 0.0
athlete 6.77980155523e-05
warrior 0.00013452905672
cheating 0.000231368938188
voting 0.000156046490472
succeed 0.0
religion 0.0
century 0.00010376321847
serving 5.4414475814e-05
because 0.0
cleveland 0.000124749749372
hiding 0.0
breath 0.0
choosing 6.2831041958e-05
lawrence 0.0
instagram 8.77989294587e-05
opponent 0.000136681402503
detroit 0.0
honored 0.0
nonsense 0.0
lifting 0.0
proven 6.80681888062e-05
talent 4.21844495977e-05
knocking 0.0
russian 0.000474331115275
brains 6.97398200705e-05
oakland 0.0
regardless 5.58535831922e-05
skills 4.38994647294e-05
citizens 0.0
california 0.0
commitment 0.0
seconds 0.000126911698265
seeking 5.56700550289e-05
threatening 0.0
listen 0.00013074286663
whatever 0.000108980646163
mexicans 0.0
satisfied 0.0
fought 0.000102478480375
compete 5.93544090364e-05
injured 0.000112076375546
billion 0.0
ceiling 7.24265205327e-05
absolute 0.000139162046865
appearance 4.86466137994e-05
bigsean 0.0
handle 0.0
promise 7.50752157806e-05
nightclub 0.0
hosting 0.0
actors 6.42406054396e-05
generation 8.67997024207e-05
criminal 0.0
tuesday 0.00017966719773
ronald 8.39660476918e-05
locker 0.000141811387513
struggle 0.0
degree 0.0
entering 0.0
leader 8.2489655713e-05
pageant 0.0
toughest 0.0
character 0.000338431195372
mirror 0.0
interview 3.21611213336e-05
whistle 0.0
obviously 4.44071368776e-05
battle 3.67253049797e-05
motivate 0.0
destroy 0.000384625221077
relentless 0.0
winning 0.000168809447746
charlotte 6.4481794289e-05
accomplished 6.94549765805e-05
stepped 7.21164195926e-05
defense 5.07659231356e-05
appeal 0.0
causing 0.0
arabia 0.0
shipped 0.0
society 4.36486666628e-05
officers 6.70011377783e-05
brooklyn 6.40012507438e-05
marked 0.0
incredible 0.000102386846987
poster 0.000150437118613
wealthy 0.0
memorable 0.0
officer 0.000228676589735
minute 3.56415519133e-05
luther 0.0
foreign 0.000209488554002
pregnant 0.000129449691238
champions 5.93544090364e-05
virginia 0.0
tackle 0.0
unarmed 0.0
orange 9.4711773258e-05
policy 0.0
comedy 0.000246936179947
reminder 0.0
evidence 4.6937144433e-05
lighten 0.0
presidents 0.0
kicked 0.0
sticker 8.1794497695e-05
accused 0.0
intentions 0.0
facing 5.20442710482e-05
freedom 0.00022012808583
actions 0.0
debating 7.00272649068e-05
outcome 6.01882323895e-05
utterly 0.0
mississippi 0.0
clearly 0.000160433692667
download 0.0
sidelines 0.0
invite 8.95866758585e-05
legally 6.83407012515e-05
central 4.17111325456e-05
washington 8.36575923995e-05
veteran 0.000310746232728
division 0.0
veterans 0.000123850448626
stronger 0.0
promised 0.0
worried 0.000319993383689
security 4.19469013695e-05
immediately 0.000353218218078
television 0.000111340110058
entitled 0.0
racism 0.0
highest 4.4664077005e-05
approve 0.0
turning 0.0
legacy 5.01457062042e-05
ignore 0.0
choked 0.0
backing 0.0
helping 6.95635740479e-05
collector 0.0
willing 0.000144199239624
basically 0.000876204211788
return 6.99416531522e-05
unacceptable 0.0
feelings 0.0
network 4.41522772598e-05
language 0.0
invest 0.000126123258005
coward 0.0
schools 0.000179692527559
patients 6.62239380237e-05
foster 0.0
children 0.000313036083215
nation 0.000119326054118
review 0.0
between 0.0
knowledge 0.0
begins 3.78477088304e-05
tenure 0.0
faithful 0.0
highlights 0.0
shoulder 6.2831041958e-05
produced 0.0
consider 4.19469013695e-05
shattered 0.0
latest 3.4221386627e-05
beyonce 0.0
signed 6.97523297564e-05
millionaire 8.4418933071e-05
shelter 0.0
charity 8.83045545196e-05
germany 4.8066413208e-05
advance 4.59812144061e-05
proved 0.0
married 9.35975852045e-05
millions 8.55725684034e-05
blessings 0.0
indonesia 0.0
fights 5.75553484854e-05
dollar 0.0
rigged 0.000322240104434
conduct 0.0
johnson 4.49231318898e-05
howard 0.000115892694377
turned 0.000208126147897
criticism 5.87432249623e-05
stomach 0.000197148797626
upgrades 0.0
jackie 0.0
relevant 0.0
charge 0.00013132144769
ticket 8.4847608587e-05
steady 0.0
indian 0.0
turner 0.000155709977839
sanders 0.000277819906322
includes 9.41522141813e-05
survivor 0.000140634718083
dealers 0.0
collection 8.67997024207e-05
against 0.0
joyner 0.000145213551773
impact 8.46077988431e-05
families 0.000121335171881
welcoming 6.32939178121e-05
hitting 0.000126553348793
announced 3.84772296314e-05
granted 0.0
decided 7.56954176608e-05
itself 0.00010743773519
selfish 0.0
mexican 0.0
respects 0.0
guarantee 0.0
beliefs 7.40245790078e-05
citizen 5.67876277222e-05
states 7.97719682866e-05
denied 0.0
drought 0.0
memorial 5.13986075702e-05
decades 0.000152297769407
trayvon 0.0
landed 0.0
pastor 0.0
ultimate 0.0
weekends 0.0
episode 0.000301952016098
spikes 0.0
engaged 6.77980155523e-05
financial 0.000111340110058
payments 8.48784301488e-05
tolerant 0.000307130481764
symposium 0.0
kansas 6.32939178121e-05
agreement 0.0
source 0.00017762854751
backbone 0.0
dismiss 0.0
midnight 0.000213324965714
homework 0.0
joining 0.0
reasons 3.68257037596e-05
talked 0.0
released 3.68257037596e-05
reaching 0.0
release 0.000173438456581
existing 0.000191291107547
models 0.0
pageants 0.0
helmets 0.0
scheme 0.0
scholarship 0.0
stacked 0.000105782848838
speech 0.0
standing 3.61295460422e-05
higher 0.000127271412881
purple 5.89456371764e-05
justice 0.000170176670775
served 9.55605499142e-05
speaks 4.57133405269e-05
backup 0.0
allegedly 0.0
purchase 5.42391272222e-05
millionaires 0.000106695231295
consideration 0.0
strength 0.0
incredibly 8.932815401e-05
private 4.055807354e-05
ignored 0.0
neighbors 0.000214515706555
apologizes 0.0
beings 0.0
minimum 0.0
direction 4.85005578955e-05
enemies 0.00013452905672
exclusive 7.50752157806e-05
prison 5.58535831922e-05
himself 0.000152297769407
contributes 0.0
investigation 0.000291711321214
teaching 0.0
disgusting 0.000247700897252
philly 0.000887240392666
rights 0.000341319945143
cheers 4.89407747333e-05
maintain 0.0
overcome 0.0
flawless 0.0
unique 0.0
neighborhood 6.62239380237e-05
dating 0.000187806395775
handed 6.06135765762e-05
victory 0.0
lifted 0.0
greatness 0.0
muslim 0.000178682409475
terrorist 0.0
productive 0.0
tribute 0.000260399107262
deadspin 0.0
threatened 0.0
horror 0.000125662083916
warning 0.0
convention 0.0
understanding 4.55802536867e-05
action 0.000101834652592
having 5.93544090364e-05
afghan 0.0
announces 0.0
commencement 0.0
speaker 5.27034572527e-05
graduation 7.67632613e-05
honors 0.0
produce 0.0
apologize 0.000175026792729
insult 6.67399330359e-05
continued 5.42391272222e-05
letter 0.0
discussed 0.0
therapy 0.000132447876047
untrue 8.30793695978e-05
written 3.85833848444e-05
existence 0.0
essential 0.0
results 8.27215159444e-05
initiative 0.0
disease 0.000123850448626
marching 0.0
suggest 0.0
georgetakei 0.0
ensure 0.000120800371981
democrats 0.000555639812644
marched 0.0
foundation 0.0
access 3.8904015707e-05
writes 0.0
student 9.08954544275e-05
colorado 6.97398200705e-05
medical 0.0
medicine 0.0
tremendous 0.0
nytimes 4.79230189243e-05
kindness 6.70011377783e-05
public 0.000110175914939
cannot 0.000211539191605
reveals 0.0
invented 0.000177448078533
threatens 7.30560413337e-05
candidate 0.000251498092232
persistence 0.0
sexual 0.0
illustration 0.0
measure 0.0
compared 0.000109181613512
headline 0.0
reflect 5.83422642429e-05
answering 0.0
streaming 0.0
leaders 0.0
supreme 0.0
nominee 6.40012507438e-05
immigration 0.0
policies 0.0
laundering 0.0
administration 0.000119537119255
defend 0.000206879134931
communicating 0.0
excitement 0.0
funding 5.04542870173e-05
climate 0.0
transfer 0.0
conspiracy 0.000187124624059
activist 0.0
horrifying 7.78549889193e-05
freely 0.0
retreat 0.0
daughters 0.0
compelling 0.0
platform 0.0
hamilton 0.0
futures 0.0
huffingtonpost 0.0
headlines 5.83422642429e-05
january 0.0
grants 0.0
unprecedented 0.0
relationships 0.0
philadelphia 0.000980381708695
diversity 0.000175026792729
funded 0.0
secure 0.0
income 0.000116287366401
universal 5.58535831922e-05
contributed 0.0
hurricane 0.0
fundamental 0.0
countries 0.0
linked 0.0
african 0.000116684528486
improved 0.0
unclear 0.0
provide 0.0
livestream 0.0
addresses 0.0
enhance 0.0
companies 0.000157116415502
proposal 5.91493595111e-05
potential 4.36486666628e-05
discrimination 0.0
connected 6.17027852895e-05
drives 6.06135765762e-05
attending 0.0
filled 8.88142737551e-05
education 0.0
addressed 0.0
mentioned 0.0
famous 0.000261144078425
resistance 7.00272649068e-05
exists 5.87432249623e-05
demonstrated 0.0
officials 5.56700550289e-05
instructions 7.93721496316e-05
transmission 0.0
olympics 5.60381877731e-05
ability 9.19624288123e-05
political 0.000135947269227
director 0.0
contains 0.0
sponsored 0.0
autism 0.000227124404627
previously 6.30616290027e-05
prevent 5.25373619289e-05
capacity 0.0
donations 5.97685596277e-05
william 5.35473413349e-05
editors 0.0
passionate 0.0
solving 0.0
innate 0.0
treatment 9.90749497888e-05
critical 0.0
feeding 0.0
preparing 5.2870433723e-05
depend 0.0
capable 6.49697884179e-05
bridge 0.0
systematically 0.0
becoming 0.0
embraced 0.0
literacy 0.0
lawyers 0.0
stigma 0.0
malaria 0.0
standard 0.0
hiring 0.0
remains 9.78815494665e-05
fellow 4.01084231668e-05
defending 5.40647500957e-05
quotes 5.20442710482e-05
pushes 0.0
luxury 7.67632613e-05
admitted 7.60559283683e-05
colleagues 0.0
failed 0.000187748577732
independent 4.87933506192e-05
politically 0.0
driven 0.0
agenda 0.0
result 4.55802536867e-05
implications 0.0
insider 7.46872348691e-05
pakistan 0.0
solutions 0.0
trusts 0.0
indiana 0.0
filling 0.0
humility 0.0
clicks 0.0
disagree 0.0
claims 0.0
editorial 0.0
mistakes 5.6410677219e-05
offered 5.20442710482e-05
passionately 0.0
justification 0.0
inspiring 0.0
counter 0.0
shaped 0.00013834537555
retroviral 0.0
majority 0.000212153202954
approach 0.0
nature 9.11605073734e-05
concern 0.0
server 0.0
berniesanders 9.15566212166e-05
shameful 0.0
experiment 6.88929082368e-05
massive 0.0001203252695
promises 6.01882323895e-05
colored 9.21341601878e-05
consequences 0.000122089495153
whatsoever 0.0
proposals 0.0
guesses 0.0
bernie 0.00149750015374
interviewed 5.09229059589e-05
pregnancy 8.4418933071e-05
secretary 0.0
measures 0.0
vastly 9.39332207388e-05
reduce 0.000114338294867
compassionate 0.0
distinguished 0.0
dangerous 8.4847608587e-05
influence 0.0
letters 0.0
implicit 0.0
saving 4.58469924935e-05
revelations 0.0
incident 0.0
universe 5.07659231356e-05
victims 9.16939849869e-05
milestone 0.0
perfectly 0.0
exercise 0.0
receive 0.0
reputation 7.5364142481e-05
economics 0.0
disclosure 8.58180518899e-05
receives 0.0
terrific 0.0
collected 8.30793695978e-05
campus 6.26021319249e-05
founders 9.45565082511e-05
profiling 0.0
systemic 0.0
studying 6.67399330359e-05
necessary 0.0
inaccurate 0.0
breast 0.0
debate 4.06714970531e-05
suddenly 0.000116287366401
conflict 0.000131432531751
interest 8.88142737551e-05
meanwhile 0.000110975181606
indefensible 0.0
recall 6.01882323895e-05
rating 0.00013452905672
nominate 0.0
outstanding 0.0
devastating 5.85421061258e-05
illness 0.0
troubling 0.0
romney 0.0
appears 0.000104744277001
breathe 0.0
abroad 0.0
spanish 0.0
profit 6.17027852895e-05
reviews 0.0
republican 0.000249499498745
presidential 5.27034572527e-05
candidates 0.0
politicians 0.000115110696971
identified 0.0
epidemic 0.0
displaced 0.0
greater 0.0
absurd 0.0
deadline 0.0
height 0.0
sisters 0.0
nuclear 0.000167560749577
stress 0.0
leading 0.0
restored 8.88179389245e-05
conditions 0.000237417636146
however 0.0
achieved 6.52166523565e-05
member 0.000148515344121
examples 0.0
diverse 7.30560413337e-05
suicide 6.23748746862e-05
contributions 6.97398200705e-05
largest 4.98401213687e-05
increase 0.0
targeted 0.0
regulators 0.0
provided 0.0
element 0.0
effectively 0.0
population 5.99776965488e-05
rising 0.000152768717877
indication 9.33220366646e-05
versus 0.0
believed 0.0
dynamic 0.0
invasion 0.0
primary 0.0
provides 0.0
environment 0.0
confirmed 9.19624288123e-05
behavior 6.21492465456e-05
introduced 6.01882323895e-05
contain 0.0
communities 0.0
worldwide 0.0
responsible 5.15587859863e-05
household 0.0
apparent 0.0
munich 0.0
alternate 0.000424392150744
expressed 0.0
movement 4.21844495977e-05
declared 6.91726877751e-05
hundreds 5.22077778617e-05
information 4.27862842017e-05
easily 4.65239001054e-05
untreated 0.0
october 0.0
quantify 0.0
scales 0.0
investigating 0.000152111856737
innovation 6.67399330359e-05
perspective 4.66610462519e-05
rivals 0.0
interests 0.0
toledo 0.0
extraordinary 0.0
gingrich 0.0
describing 0.0
eliminate 0.0
obligation 0.0
gender 5.77502406922e-05
committee 5.17197837328e-05
preventing 0.0
numerous 0.0
unusual 0.0
improving 0.0
practices 0.0
cemetery 0.0
questioned 0.0
affecting 0.0
ferrell 0.0
genius 0.0
warren 0.00014547941421
organizers 0.000103194405451
regularly 0.0
ceilings 0.0
sexism 0.0
prepared 0.0
burden 0.0
foreignpolicy 0.0
county 0.0
uniform 0.0
newyorker 0.0
anthony 5.75553484854e-05
reflecting 0.0
grandson 9.15566212166e-05
banning 0.0
considered 9.78815494665e-05
chosen 0.0
outright 0.0
screenings 0.0
naming 0.0
conventions 0.0
reproductive 0.0
ignores 8.6786589564e-05
focusing 0.0
sensible 0.0
concluded 0.0
performed 0.0
divide 0.0
dismissed 0.0
compromise 0.0
crucial 0.0
weakness 0.0
barrier 0.0
effective 0.0
wealth 0.000136136377612
underway 0.0
israel 6.72645283599e-05
overwhelming 0.0
assault 6.04001859906e-05
citing 0.0
protection 5.47681311169e-05
prisoners 0.0
photographing 0.0
traveled 0.0
holder 0.0
seemed 5.67876277222e-05
concludes 0.0
determination 0.0
tested 0.0
lacking 0.0
machine 4.25441676938e-05
honoring 0.0
contrary 0.0
tolerance 0.000157208857737
michelle 0.0
assumed 0.0
programs 0.0
closely 6.52166523565e-05
politico 0.0
inspire 0.0
lyrics 5.91493595111e-05
judges 6.01882323895e-05
federal 0.0
maryjblige 0.0
tuning 0.0
striving 0.0
poland 0.0
september 0.0
manchester 0.0
checks 6.10447475767e-05
remarkable 0.0
mharrisperry 0.0
immoral 0.000100802749726
fiction 0.0
process 0.000321761879797
anxious 0.0
destructive 0.0
nmaahc 0.0
performances 0.0
whitehouse 0.0
flotus 0.0
crisis 0.0
marriage 0.000218363227024
emotions 0.0
confidence 0.0
voters 0.0
comparing 0.0
oldest 0.000127055867384
empirefox 0.0
chancetherapper 0.0
songwriter 0.0
literally 0.000546162716652
onstage 0.0
believing 6.37637025157e-05
hillaryclinton 0.0
citizenship 0.0
counted 0.0
hillaryfornc 0.0
raleigh 0.0
discusses 0.0
johnlegend 0.0
apprentice 0.0
acknowledge 0.0
conservative 0.000175626318377
economists 0.0
buzzfeed 0.0
puppet 0.0
hombres 0.0
republic 0.0
homecoming 0.0
andersoncooper 0.0
muslims 0.000133479866072
katyperry 0.0
bragging 0.0
treats 0.00020179358508
qualified 6.75301416731e-05
islamophobia 0.0
debates 0.0
endorsements 0.0
counts 0.0
theellenshow 0.0
festival 9.27746979098e-05
encouraged 0.0
stylish 0.0
disregard 0.0
jtimberlake 0.0
backstage 5.67876277222e-05
barack 7.00272649068e-05
joined 0.0
terrorism 0.0
pushing 0.0
hopeful 0.0
mentions 0.000118298719022
teamed 0.0
exclusively 0.000129449691238
aliciakeys 0.0
kingjames 0.0
muhammad 0.0
refused 0.0
characters 0.000150898855339
express 0.0
gratitude 0.0
ugliest 0.000118997744773
throughout 4.99925429296e-05
awkward 0.0
shining 0.0
fighter 0.0
accepting 0.0
applemusic 0.0
reveal 4.59812144061e-05
stands 4.37738158965e-05
native 0.0
announce 3.66252254333e-05
dorothy 0.0
haters 0.000132961756302
jessetyler 0.0
shondarhimes 0.0
lavernecox 0.0
broadway 0.0
disabilities 0.0
adoption 0.0
touched 0.0
corruption 0.0
violence 4.625138766e-05
leedanielsent 0.0
delivered 0.0
jasmine 0.0
independence 0.0
square 4.26649931428e-05
alongside 6.04001859906e-05
privilege 5.83422642429e-05
secondary 0.0
staggering 0.0
seventh 0.0
tennis 0.0
sweeping 0.0
footage 0.0
overseas 0.0
spoiler 0.0
theirs 0.0
offering 5.22077778617e-05
construction 0.0
spends 0.0
detail 0.0
cabinet 0.0
earnings 0.0
pleased 0.0
gravity 0.0
statements 6.70011377783e-05
decade 0.0
bigotry 0.0
belong 0.0
trillion 0.0
backed 0.0
operations 0.0
breakthroughs 0.0
values 0.0
senator 0.000456516566495
removing 0.0
wondered 0.000121656847528
introduces 0.0
makers 0.0
measured 0.0
pillars 0.0
instrument 0.0
shares 5.07659231356e-05
individual 0.000319242407099
applications 0.0
prepares 7.89859485799e-05
ceremony 0.0
expanding 0.0
merger 0.0
newspaper 5.89456371764e-05
detailed 6.97398200705e-05
tuition 0.0
childcare 0.000103194405451
thoroughly 0.0
adviser 0.0
matthew 6.01882323895e-05
affected 0.0
newspapers 0.0
corporate 6.67399330359e-05
economy 5.42391272222e-05
presenting 0.0
spoken 0.0
richer 0.0
during 0.0
combat 6.54654678089e-05
touting 0.0
competitive 6.32939178121e-05
prominence 0.000132451541217
trifecta 0.0
fashioned 0.0
boasts 0.0
ripped 0.0
belief 0.0
heroes 4.8066413208e-05
disturbing 0.0
russians 0.0
intelligence 0.0
deepest 7.2739707105e-05
regrets 8.22169871367e-05
complicated 0.0
internships 0.0
adults 0.0
describe 0.0
equality 0.0
announcement 0.0
interfere 0.0
terrifying 0.0
nationwide 0.0
manager 9.87744719789e-05
questionable 0.0
enhanced 0.0
services 0.0
delighted 0.0
golfer 0.0
regarding 0.0
teachers 0.000282053386095
suggests 0.0
phrase 5.91493595111e-05
immigrants 0.0
revolution 0.0
universities 0.0
twelve 0.0
principle 0.0
releases 0.0
malarkey 0.0
library 5.93544090364e-05
advisor 0.0
deadlines 0.0
encouraging 6.21492465456e-05
circuit 8.58180518899e-05
humanitarian 0.0
reliant 0.0
assistance 0.0
swimmer 0.0
hinges 0.0
concrete 0.0
accepted 5.27034572527e-05
confronted 0.0
comprehensive 0.0
pushed 0.000183787705355
unending 0.0
occasionally 0.0
guardia 0.0
donation 0.0
nomination 0.0
paintings 0.0
significantly 8.6786589564e-05
investment 6.08284237642e-05
terror 0.0
worship 0.0
represents 6.47248456189e-05
attempting 0.0
bullying 0.0
astonishing 7.24265205327e-05
endorse 0.0
urgent 6.88929082368e-05
forced 0.000145065529851
addressing 0.0
script 6.04001859906e-05
hundred 0.000132961756302
command 0.0
qualifies 0.0
stumbled 0.0
territory 0.0
balloons 0.0
objects 0.0
latimes 0.0
pandemics 0.0
separating 0.0
pentagon 0.0
threats 0.0
prisons 9.09894889213e-05
approaching 0.0
generous 0.0
roughly 7.78549889193e-05
commands 0.0
uncovered 0.0
destroying 0.0
opposition 0.0
addiction 0.0
manhattan 0.000221095231143
ridiculously 0.000154245958792
awarded 0.0
greeted 0.0
forces 5.12392401876e-05
confirm 0.000102478480375
dealings 0.0
nations 0.0
equivalent 0.0
sexist 0.0
yahoonews 0.0
bloody 0.0
boundaries 0.0
exceptionally 0.0
cannon 8.6786589564e-05
feared 0.0
significance 0.0
recommendation 7.64076079021e-05
chapters 0.0
racial 7.40245790078e-05
obvious 5.33767447611e-05
statistics 0.0
military 0.000147266677831
adopted 0.0
housing 0.0
clearer 0.0
calculator 0.0
underwater 0.000190384776557
guided 0.0
rescue 0.0
deserving 0.0
advised 0.0
ordered 4.63873489549e-05
unions 0.0
avoiding 0.0
alicia 0.0
preserve 0.0
balloon 0.000168837866142
economic 0.0
recipe 0.0
awaits 8.77858795521e-05
squarely 0.0
radical 0.0
banter 0.0
spaces 0.0
carnival 0.0
theories 7.78549889193e-05
bombing 0.000221095231143
products 0.0
margaret 0.0
gathered 0.0
taxpayers 0.0
admits 0.0
opposed 6.30616290027e-05
pressing 0.0
russia 0.0001468223242
lincoln 6.4481794289e-05
intelligent 6.42406054396e-05
momentum 6.75301416731e-05
olympic 5.83422642429e-05
magnificent 0.0
heritage 7.46872348691e-05
beijing 0.0
beloved 6.80681888062e-05
dummies 0.0001176581813
pursuit 0.0
carries 0.0
phelps 0.0
medals 0.0
gymnastics 0.0
summed 0.0
accuse 0.0
symbol 0.000154245958792
dignity 0.0
slogans 0.0
priorities 0.0
applied 0.0
progressive 7.24265205327e-05
activists 0.0
elected 0.000274732300769
brussels 0.0
subscribe 0.0
elections 0.0
unites 0.0
complacency 0.0
imperative 0.0
doorsteps 0.0
voices 0.000101845811918
blatant 9.09894889213e-05
democracy 0.0
disastrous 0.0
rebuild 0.0
accuses 0.0
diplomacy 0.0
hardball 0.0
attacking 0.0
subtle 0.0
barker 0.0
sticking 6.17027852895e-05
openly 0.0
policing 0.0
embarrassed 6.77980155523e-05
slightest 0.0
abbott 0.0
attacks 0.000101531846271
commit 0.0
argued 8.22169871367e-05
remarks 0.0
democratic 0.0
semitic 0.000203159898961
incomes 0.0
treasury 0.0
alarming 0.0
dividing 0.0
reject 0.0
affirming 0.0
quitting 0.0
extended 0.0
reducing 0.0
proudly 0.0
inclusive 0.0
oppose 0.0
distinctly 0.0
urging 0.0
strengthen 0.0
deliver 0.0
obligations 0.0
relations 7.15052355185e-05
repeal 0.000146751174265
strengths 0.0
counties 0.0
weakened 0.0
reckless 0.0
prosperous 0.0
servant 0.0
secretaries 0.0
negotiator 0.0
faults 0.0
choking 0.000112806290067
executive 5.25373619289e-05
alternative 5.30383007386e-05
extend 0.0
republicans 0.000706646659836
embodied 0.0
preparation 0.0
terrorists 0.0
confident 5.4414475814e-05
weapons 0.000184445721763
unifying 0.0
outrage 0.0
constitutional 0.0
rental 0.0
prevail 0.0
resilient 0.0
humbled 0.0
courage 0.0
commander 8.22169871367e-05
respecting 0.0
enormous 0.0
aligned 0.0
consent 8.53447348379e-05
refusing 0.0
resentment 0.0
substance 0.0
claiming 0.000196396403427
lamont 0.0
dropping 4.76381754344e-05
carried 6.72645283599e-05
intimidated 0.0
behalf 5.65985881701e-05
meaningful 0.0
amendment 0.0
accepts 0.0
legislation 0.000198671814071
fairer 0.0
commitments 0.0
handling 0.0
proves 6.26021319249e-05
rhetoric 0.0
hardest 0.0
peddling 0.0
divisive 0.0
strongly 0.0
vision 4.66610462519e-05
investigations 9.04323948945e-05
repeatedly 0.0
records 0.0
madeleine 0.0
disabled 0.0
quoting 0.0
assassination 0.000104896170744
beaten 0.000144853041065
deeply 0.0
grievance 0.0
contempt 0.0
standards 0.0
fairness 0.0
dictated 0.0
consensus 0.0
reconsider 0.0
priority 0.0
rogers 0.0
freedoms 0.0
notorious 0.0
invested 0.0
propaganda 0.0
unconstitutional 0.0
condemn 0.0
concerned 5.06097193866e-05
praising 0.000276402480563
cheered 0.0
realdonaldtrump 0.000274732300769
despicable 0.0
straightforward 0.0
bargain 0.0
attorney 7.3698410381e-05
bedrock 0.0
optimism 0.0
belongs 0.0
truman 0.0
whichever 0.0
inappropriate 0.0
beatings 0.0
optimistic 0.0
campaigned 0.0
allies 7.3698410381e-05
governor 6.59690784059e-05
attempts 0.0
extent 0.0
denial 0.0
maximum 0.0
merely 0.0
apprenticeships 0.0
agreeing 0.0
architect 0.0
responsibility 0.0
mainstream 0.000141811387513
legitimacy 0.0
injustice 0.0
dozens 0.0
donnell 0.000115138837811
scenario 0.0
crimes 7.00272649068e-05
thoughtful 0.0
hypocrisy 0.0
undocumented 0.0
sexually 0.0
richest 0.0
softening 0.0
implies 0.0
infrastructure 0.0
pitching 8.4418933071e-05
broadband 0.0
tenants 0.0
allegations 0.0
bloomberg 0.0
insulting 0.0
liberal 0.000117891274353
kremlin 0.0
podium 0.0
provoke 0.0
outrageous 0.0
campaigns 0.0
barriers 0.0
powell 0.0
technical 0.0
warnings 0.0
flagged 0.0
grassroots 0.0
extremist 0.0
businesses 0.0
welcomes 0.0
deputy 0.0
donating 5.69778095143e-05
continually 0.0
ourselves 0.0
fringe 0.0
politician 0.000125662083916
wiggins 0.0
welcomed 0.0
rallies 0.0
ballot 6.57162658755e-05
failing 5.6410677219e-05
uniting 0.0
refuses 0.0
appealing 0.0
proverb 0.0
privileges 0.0
ideals 0.0
vibrant 0.0
tarmac 0.0
residents 0.0
apprenticeship 0.0
denying 0.0
fierce 0.0
opponents 6.83407012515e-05
polling 0.0
apology 0.0
damning 0.0
outline 0.0
endorses 0.0
losers 0.0
insulted 0.0
equipped 0.0
battlefield 0.0
recession 0.0
endorsed 0.0
divides 0.000106695231295
describes 7.06101517653e-05
appointed 0.0
encourage 0.0
undermine 0.0
undermining 0.0
authority 0.0
betray 0.0
funnyordie 0.0
donated 0.0
jimmykimmellive 0.0
immigrant 0.0
criminals 0.0
automatically 0.00015645495673
schooled 0.0
elizabethforma 0.0
releasing 0.000260866609426
connects 0.0
screening 0.0
cleaner 0.0
nowthisnews 0.0
sophiabush 0.0
chelseaclinton 0.0
stunts 0.0
truths 0.0
transparency 0.0
obamacare 0.000544984922435
nickkristof 0.0
contraception 0.0
betting 0.0
conscience 0.0
proclaimed 0.0
dispatch 0.0
advocate 0.0
profits 0.0
toward 0.0
guiding 0.0
senators 7.33755871324e-05
barber 0.0
doubled 0.0
mosque 0.000100802749726
senate 0.000386890765734
louisiana 0.0
senwarren 0.0
parenthood 8.6786589564e-05
organizations 0.0
generations 0.0
minorities 0.000179769979905
misogyny 0.0
peacefully 0.0
decency 0.0
intend 0.0
discourse 0.0
pennsylvania 9.09894889213e-05
katiemcgintypa 0.0
experiencing 0.0
mccain 0.000183113242433
scandal 0.0
constitution 7.24265205327e-05
sensanders 0.0
intolerable 0.0
strive 0.0
forefathers 0.0
abandon 8.26452249103e-05
buzzfeednews 0.0
paulkrugman 0.0
mothers 0.0
compassion 0.0
deeper 0.0
governments 0.0
activism 0.0
jamilsmith 0.0
mike_pence 0.0
elizabethbanks 0.0
empathy 0.0
audited 0.0
checkers 0.0
warming 0.0
volunteering 0.0
charitable 0.0
qualifications 0.0
workplace 0.0
granddaughter 0.0
recycled 0.00010860339071
directing 0.0
politifact 0.0
abolish 0.0
murders 0.0
reagan 0.000227124404627
pouring 0.0
ballots 0.0
racists 0.0
empower 0.0
tolerate 9.21341601878e-05
chrismurphyct 0.0
igorvolsky 0.0
outraged 0.0
exceptional 0.0
nightmares 8.62985954351e-05
enforcement 0.0
weaken 0.000101579949481
medicaid 0.0
humbly 0.0
newsweek 0.0
conflicts 0.0
suffer 6.59690784059e-05
dallasnews 0.0
bridges 0.000167932095384
lesdoggg 0.0
appalling 0.0
hatred 0.0
superpower 0.0
goodbye 0.0
renewable 0.0
robdelaney 0.000111701791098
motherjones 0.0
trusted 0.0
sheriff 0.0
personalized 0.0
amnesia 0.0
malala 0.0
problema 0.0
everytown 0.0
casting 0.0
employers 8.22169871367e-05
rudolph 0.0
packets 0.0
organization 5.87432249623e-05
graceful 0.0
hardworking 0.0
cherished 0.0
aggressively 0.0
founding 0.000164433974273
sacred 0.0
horrific 0.0
earned 0.0
siding 0.0
minded 0.0
contribute 0.0
incites 0.0
chooses 0.0
obtained 0.0
defended 0.0
champion 0.0
magazines 0.0
waited 0.0
punished 0.0
conviction 0.0
tradition 0.000114723311246
giveaways 0.0
distracted 8.0159065389e-05
endorsing 0.0
pathetic 0.0
ladygaga 0.0
pessimistic 0.0
highlighting 0.0
transgender 0.0
womensmarch 0.0
advisors 0.0
wrecking 0.0
hillaryforva 0.0
registration 0.0
ellemagazine 0.0
acceptance 0.0
defeated 7.43541630751e-05
theroot 0.0
pharrell 0.0
tumblr 0.000170689469676
nevada 0.0
illinois 0.0
massachusetts 0.0
theadvocatemag 0.0
lending 0.0
rejecting 0.0
legalize 0.0
conned 0.0
arkansas 9.27224949028e-05
celebratin 0.0
rubber 7.97631483345e-05
lenadunham 0.0
hateful 0.0
wizard 0.00016358899539
unbearable 0.0
harpersbazaarus 0.0
familia 0.0
iamwill 0.0
retweets 0.0
nominating 0.0
vietnam 0.000238116448895
laurie 0.0
claimed 0.0
rapids 0.0
devoted 0.0
casino 8.6786589564e-05
astounding 0.0
summon 0.0
crushed 0.0
louder 0.0
farmers 0.0
lin_manuel 0.0
arrangement 0.0
borrowed 0.0
mariska 0.0
purposes 0.0
dialogue 0.0
comedian 0.000154245958792
________ 0.0
lightly 0.0
defeating 0.0
jerusalem 0.0
cynical 0.0
worrying 6.54654678089e-05
elizabeth 6.35279336918e-05
insults 0.0
microphone 9.15566212166e-05
sleeves 0.0
theeconomist 0.0
stakes 0.00015645495673
nationally 0.0
inspect 0.00012671297189
poisoning 0.0
columbus 0.0
declaring 9.15566212166e-05
crushing 0.0
chucktodd 0.0
soldier 0.000600190951967
painted 7.09056937566e-05
warned 0.0
ohiostate 0.0
unrelated 0.0
designated 0.0
clears 0.0
congressional 0.0
confront 0.0
usatoday 0.0
delivers 0.0
pittsburgh 0.0
entiende 0.0
soaked 0.0
bromance 0.0
lifelong 0.0
antiques 0.0
repjohnlewis 0.0
breakers 0.0
fundraising 0.0
hispanic 0.000101579949481
defrauded 0.0
fearful 0.0
nytopinion 0.0
volume 0.0
perfecting 0.0
washingtonpost 0.0
affordable 6.54654678089e-05
mighty 0.0
normalizing 0.0
boasting 0.0
assaulting 0.0
disqualify 0.0
monique 0.0
jcolenc 0.0
teamusa 0.0
allysonfelix 0.0
usabasketball 0.0
ibtihaj 0.0
simone 0.0
feminism 0.0
conversion 0.0
destiny 0.0
disrespected 0.000304473986005
serenawilliams 0.0
tantrum 0.0
heinous 0.0
unconscious 0.0
accomplishments 0.0
saddened 0.0
disgrace 0.0
rodriguez 0.0
arsenal 0.0
defender 0.0
malalafund 0.0
merchandise 0.0
laundry 0.000167039172871
lesbians 0.0
cnnpolitics 0.0
nickgass 0.0
examining 0.0
monument 0.0
appeals 0.0
gracias 0.0
madame 0.0
grande 0.0
speechless 0.0
coulter 0.0
missiles 0.000293618188543
psyched 0.0
chelsea 0.0
biases 0.0
resume 0.000152815215804
spectator 0.0
angelina 0.0
spectacle 0.0
admiration 0.0
reaches 0.0
español 0.0
dreamers 0.0
mañana 0.0
bursting 0.0
undone 0.0
beyoncé 0.0
nuestra 0.0
diwali 0.0
prestigious 0.0
cynicism 0.0
disability 0.0
registering 0.0
booker 0.0
méxico 0.0
disponible 0.0
honduras 0.0
famously 0.000120396863592
overdue 8.13776043046e-05
equity 0.0
opioid 0.0
millennials 0.000341378939352
recommendations 0.0
investors 8.62985954351e-05
betrays 0.0
patriotism 9.65040360152e-05
liability 0.0
iranian 0.0
delegate 0.0
struck 6.37637025157e-05
millennial 0.0
dictators 0.0
graduate 7.09056937566e-05
analysts 0.0
victor 0.0
shrink 0.0
dictator 0.0
poised 0.0
avoided 0.0
rallying 0.0
catholic 8.35195864356e-05
thriving 0.0
racially 0.000118997744773
undermines 0.0
yashar 0.0
inequality 0.0
medicare 0.0
missionaries 0.0
foremost 0.0
deplorable 0.0
demonize 0.0
wikileaks 0.0
enduring 0.0
privatized 0.0
appoint 0.0
losses 0.000397343628142
jbarro 0.0
buffett 0.0
staffers 0.000100802749726
takeaway 0.000185444989806
moscow 0.0
hampshire 0.0
pandering 0.0
voxdotcom 0.0
reckoning 0.0
moines 0.0
falter 0.0
countless 0.0
democrat 0.000235813286605
bostonglobe 0.0
accountable 0.0
dispel 0.0
despair 0.0
persisted 0.0
disclose 0.0
tedcruz 0.0
flooding 0.0
prejudice 0.0
towers 0.0
criticized 0.0
senatemajldr 0.000123396750627
outsider 0.0
declare 0.0
dismantle 0.0
thrive 0.0
threaten 7.2739707105e-05
outsourced 0.0
loophole 0.0
heerjeet 0.0
verbal 0.0
businessinsider 0.0
ukraine 8.88179389245e-05
vladimir 0.0
businessman 0.000320085693885
supremacist 0.0
etched 0.0
zekejmiller 0.0
momentarily 0.0
perpetrators 0.0
mocking 0.0
wrecked 0.000102376827255
identities 0.0
inhumane 0.0
disavow 0.0
hostile 7.97631483345e-05
muster 0.0
surrender 0.0
shatter 0.0
patriotic 0.0
rewarded 0.0
jitters 0.0
bullies 0.0
discipline 0.0
forgets 0.000106695231295
expand 0.0
apologized 0.0
tournament 0.000207518063325
grindstone 0.0
mastery 0.0
provider 0.0
steroids 0.0
jenniferjjacobs 0.0
notion 0.0
hernandez 0.000482520180076
mcuban 0.0
bullied 0.0
jebbush 0.0
discriminating 0.0
somali 0.0
hayden 0.0
limitless 0.0
implement 0.0
nydailynews 0.0
corybooker 0.0
interference 0.0
listens 8.98849899523e-05
preside 0.0
remembers 0.000143618688152
toughness 0.000115138837811
extensively 0.0
suffered 0.0
streep 0.0
billionaire 0.0
cheats 0.0
needing 8.0159065389e-05
percentage 7.21164195926e-05
insiders 0.0
binder 0.0
prescriptions 0.0
slashed 0.0
indebted 0.0
dismisses 0.0
delegates 0.0
pledged 0.0
endured 0.0
deployed 0.0
suspense 0.0
courageously 0.0
resilience 0.0
nationalists 0.0
autonomy 0.0
abandoning 0.0
canvas 0.0
blacks 0.000103194405451
pledging 0.0
elaine 0.0
methodist 0.0
candidacy 0.0
bonuses 0.0
resolve 0.0
laughable 0.0
scares 0.0
intellect 0.0
hopeless 0.0
debunked 0.0
shames 0.0
connections 0.0
tyleroakley 0.0
perplexed 0.0
ddlovato 0.0
impromptu 0.0
teenvogue 0.0
unveils 0.0
billie 0.0
prouder 0.0
sweetness 0.0
cheryl 0.0
filipino 0.0
petersburg 0.0
drastic 0.000121861080657
lifesaving 0.0
decorated 0.0
usagym 0.0
freestyle 0.0
absentee 0.0
lashes 0.0
concentration 9.65040360152e-05
refuge 0.0
renaissance 0.0
actively 0.000157208857737
monitoring 7.60559283683e-05
destined 0.0
willfully 0.0
detained 0.0
warmest 0.0
heroic 0.0
bragged 0.0
miners 0.000104033788283
shareholders 0.0
randall 0.0
excessive 0.0
geneva 0.0
corporations 0.0
unsolvable 0.0
grandchildren 0.0
discredit 0.000116373309397
enormously 0.0
frances 0.0
pillar 0.0
trillions 0.0
expansive 0.0
organize 0.0
capabilities 0.0
confederate 0.000215269706072
shakers 0.0
ambiguity 0.0
linking 0.0
pretends 0.0
wireless 0.0
inherit 0.0
paranoia 0.0
theatlantic 0.0
languages 0.0
disposable 0.0
reinforcing 0.0
integrated 0.0
optimist 0.0
pigeons 0.000101579949481
chadhgriffin 0.0
katieledecky 0.0
richards 0.0
demconvention 0.0
abcpolitics 0.0
chobani 0.0
dominiclowell 0.0
floridians 0.0
cecilerichards 0.0
clintonfdn 0.0
billclinton 0.0
grounded 0.0
abilities 0.0
grandfather 0.000289706082131
profoundly 0.0
fiercely 0.0
drowning 0.0
astound 0.0
alzheimer 0.0
responders 0.0
peacecorps 0.0
nygovcuomo 0.0
hurricanes 0.0
approximately 0.0
daunting 0.000125011206597
organizer 0.0
ingenuity 0.0
illnesses 0.0
intruders 0.0
invading 0.0
harmful 0.0
foundations 0.0
skateboards 0.0
housekeeping 0.0
dangerously 0.0
renters 0.0
predatory 0.0
rebuke 0.0
jengranholm 0.0
supremacy 0.0
linger 0.0
adamserwer 0.0
clevelanddotcom 0.0
repadamschiff 0.0
fahrenthold 0.0
revoke 0.0
advising 0.0
strengthening 0.0
colleges 0.0
deniers 0.0
aspire 0.0
exceed 0.0
lebassett 0.0
shrugged 0.0
stewardship 0.0
complains 0.0
temperament 0.0
texasinafrica 0.0
americorps 0.0
latino 0.0
payoffs 0.0
protested 0.0
honorable 0.0
fathom 0.0
inconvenience 0.0
johnkasich 0.0
latinos 0.0
votevets 0.0
unsurprising 0.0
loopholes 0.0
dismal 0.0
unqualified 0.0
rigorous 0.0
mittromney 0.0
joyannreid 0.0
theorist 0.000104896170744
evan_mcmullin 0.0
discriminate 0.0
ezraklein 0.0
obsessively 0.0
desperation 0.0
latina 0.0
tammyforil 0.0
pantsuit 0.0
superior 0.0
exonerated 0.0
johnpodesta 0.0
recites 0.000167030352919
supremacists 0.0
affront 0.000132451541217
electing 0.0
defund 0.0
demeans 0.0
govpencein 0.0
squandered 0.0
machado 0.0
pneumonia 0.0
unhinged 0.0
criticizes 0.0
derailment 0.0
iceberg 0.0
epipens 0.0
generals 0.0
timkaine 0.0
provocation 0.0
paulbegala 0.0
clintinfdn 0.0
wesleylowery 0.0
childdefender 0.0
dictatorship 0.0
ceasefire 0.0
stamped 0.0
intimidation 0.0
casinos 0.0
manifest 0.0
restrict 0.0
transformation 0.0
battleground 0.0
christine 0.0
touted 0.0
mcconnell 0.00104033788283
deflect 0.0
expressing 0.0
commonsense 0.0
statesman 0.0
mcbride 0.000130420191856
tumble 0.0
bigoted 0.0
belonged 0.0
praised 0.0
policeman 0.0
booing 0.000106695231295
cathedral 0.0
tomperez 0.000136955638957
keithellison 0.0
knowingly 0.0
wealthiest 0.0
backward 0.0
pretended 0.000104896170744
thedemocrats 0.0
psychologists 0.0
americ 0.0
successor 0.0
diplomats 0.0
congratulated 0.0
devotion 0.0
remembrance 0.0
eligible 0.0
incoherent 0.0
exhaustive 0.0
downgraded 0.000136955638957
unified 0.0
embraces 0.0
galling 0.0
senatorreid 0.0
lifetimes 0.0
demagogue 0.0
rodham 0.0
temper 0.0
longtime 0.0
vetoing 0.0
janelle 0.0
voguemagazine 0.0
dominique 0.0
surpassed 0.0
associates 0.0
demonstrating 0.0
morning_joe 0.0
bazaar 0.0
consequential 0.0
undressed 0.0
entrepreneurial 0.0
billionaires 0.0
prescription 0.0
senseless 0.0
refresher 0.0
classmates 0.0
maturity 0.0
comentarios 0.0
risked 0.0
invincible 0.000136955638957
vigilant 0.0
emissions 0.0
recommit 0.0
voiceless 0.0
natlparkservice 0.0
workplaces 0.0
mayaharris_ 0.0
dhsgov 0.0
cyberattacks 0.0
maxinewaters 0.0
jerrybrowngov 0.0
discriminates 0.0
thejusticedept 0.0
simone_biles 0.0
sotomayor 0.0
traumatic 0.0
scammed 0.0
dreamer 0.0
fulfill 0.0
latinas 0.0
discouraged 0.0
usnavy 0.0
oftentimes 0.0
reprehensible 0.0
demeaning 0.0
ratified 0.0
emilyslist 0.0
lawsuits 0.0
nonviolent 0.0
caucus 0.000469666103694
joebiden 0.0
joyful 0.0
privatize 0.0
barbaraboxer 0.0
sengillibrand 0.0
camino 0.0
familias 0.0
americaferrera 0.0
universidades 0.0
gabbygiffords 0.0
shuttlecdrkelly 0.0
fulton 0.0
shimon 0.0
hablar 0.0
fuerza 0.0
trickle 0.0
refinance 0.0
shattering 0.0
damián 0.0
gouging 0.0
moveon 0.0
simone_manuel 0.0
revdrbarber 0.0
senatorbarb 0.0
cnbcnow 0.0
stiffed 0.0
mikebloomberg 0.0
solver 0.0
thrower 0.0
granddaughters 0.0
changemaker 0.0
clairecmc 0.0
anastasiasomoza 0.0
defunding 0.0
preyed 0.0
aspirations 0.0
fannie 0.0
mubarak 0.0
buzzfeedben 0.0
probed 0.0
marines 0.0
projecting 0.0
outsourcing 0.0
developers 0.0
crimea 0.0
everyo 0.0
chaser 0.0
dubious 0.0
diplomatic 0.0
rosiegray 0.0
unpatriotic 0.0
multifaceted 0.0
myanmar 0.0
adamparkhomenko 0.0
tjmshow 0.0
tenant 0.0
perjury 0.0
contractual 0.0
surrounds 0.0
exceeded 0.0
thrives 0.000145213551773
unclerush 0.0
sailors 0.0
stereotypes 0.0
librarycongress 0.0
acknowledging 0.0
philippe 0.0
battled 0.00010860339071
postopinions 0.0
ambassadorrice 0.0
shockingly 0.0
mcfaul 0.0
presid 0.0
poisons 0.0
kenvogel 0.0
johndingell 0.0
harnessing 0.0
unwritten 0.0
bewildering 0.0
moonshot 0.0
apologizing 9.93036573212e-05
oligarchs 0.0
espionage 0.0
marcorubio 0.0
desecration 0.0
brianefallon 0.0
bangladesh 0.0
twittermoments 0.0
officialcbc 0.0
thefix 0.0
urgency 0.0
traceeellisross 0.0
andradaymusic 0.0
impeccably 0.0
catastrophe 0.0
tallest 0.0
anastasia 0.0
azcentral 0.0
marrying 0.000111701791098
moderates 0.00021720678142
resembles 0.0
paraphrase 0.0
applauds 0.0
heavier 0.0
virginians 0.0
railing 0.0
eloquently 0.0
denverpost 0.0
independents 0.0
americanos 0.0
hispanos 0.0
bailouts 0.0
divisiveness 0.0
jmpalmieri 0.0
hardballchris 0.0
republicano 0.0
candidato 0.0
phillyinquirer 0.0
jesserodriguez 0.0
militarytimes 0.0
sunsentinel 0.0
ryanlizza 0.000136955638957
bretbaier 0.0
thelastword 0.0
hillaryclinto 0.0
maddowblog 0.0
boundless 0.0
enacting 0.0
gettysburg 0.0
groping 0.0
govchristie 0.0
justices 0.0
watchdogs 0.0
cavalier 0.0
succeeds 0.0
retirees 0.0
pocketed 0.0
multimillionaire 0.0
redcross 0.0
evalongoria 0.0
highways 0.0
marlee 0.0
primero 0.0
pianos 0.0
bribed 0.0
scranton 0.0
wellesley 0.0
perkins 0.0
onward 0.0
algore 0.0
candidly 0.0
trajectory 0.0
quitter 0.0
objectifying 0.0
ignoramus 0.0
disillusioned 0.0
asinine 0.0
vibrancy 0.0
arpaio 0.0
testifying 0.000136955638957
chairmen 0.0
luchar 0.0
disrupted 0.0
podemos 0.0
settlements 0.0
massacres 0.0
millones 0.0
eagerly 0.0
grandmas 0.000123396750627
dedicado 0.0
seeming 0.0
pragmatic 0.0
hashanah 0.0
porque 0.0
unidos 0.0
nuestras 0.0
primera 0.0
debemos 0.0
muchos 0.0
cuando 0.0
nuestro 0.0
inteligente 0.0
rapists 0.0
agosto 0.0
presidente 0.0
puedes 0.0
mujeres 0.0
safeguarding 0.0
indecent 0.0
motions 0.0
strengthened 0.0
eminently 0.0
innuendo 0.0
memorandum 0.0
reuterspolitics 0.0
educates 0.0
mexicana 0.0
disparage 0.0
absurdity 0.0
backdoor 0.0
affording 0.0
hardline 0.0
steelworkers 0.0
demean 0.0
immigrate 0.0
thuggish 0.0
astrid 0.0
jesuit 0.0
governorship 0.0
waterboarding 0.0
personas 0.0
stephenson 0.0
huracán 0.0
firefighter 0.0
ravages 0.0
marleematlin 0.0
scrolling 0.0
tarnish 0.0
ajentleson 0.0
roanoke 0.0
heaping 0.0
carpentry 0.0
forcefully 0.0
frankiejgrande 0.0
aprildryan 0.0
unjustified 0.0
yamiche 0.0
evacuate 0.0
disrespects 0.0
incomprehensible 0.0
jogger 0.0
vindicated 0.0
blazed 0.0
cambodia 0.0
revolutionize 0.0
welding 0.0
unbeatable 0.0
polished 0.0
saddled 0.0
interdependence 0.0
alleys 0.0
civility 0.0
vilified 0.0
disagreeable 0.0
terence 0.0
bluster 0.0
incredib 0.0
holton 0.0
hillaryforpa 0.0
hillaryforco 0.0
jes_chastain 0.0
vitalvoices 0.0
indictments 0.0
evokes 0.0
reaffirming 0.0
rebukes 0.0
minerva 0.0
peddle 0.0
starker 0.0
cascading 0.0
carolinians 0.0
señora 0.0
honrado 0.0
missionary 0.0
ranchers 0.0
denveropinion 0.0
practicality 0.0
thoughtfulness 0.0
scripture 0.0
pueblo 0.0
morningmoneyben 0.0
smalls 0.0
exemplify 0.0
eviscerated 0.0
jeffflake 0.0
helpless 0.0
sarahemcbride 0.0
indivisible 0.0
colinjones 0.0
mrjoshcharles 0.0
houstonchron 0.0
thoroughness 0.0
isolde 0.0
wonkiest 0.0
equate 0.0
dustbin 0.0
estados 0.0
newrepublic 0.0
expresses 0.0
demonizing 0.0
jeffbezos 0.0
discard 0.0
befriending 0.0
slovenia 0.0
unrelenting 0.0
salmahayek 0.0
revolves 0.0
anselm 0.0
dwells 0.0
usairforce 0.0
deride 0.0
repackaging 0.0
earmarked 0.0
evader 0.0
passpor 0.000195870595295
awaited 0.0
guterres 0.0
precinct 0.0
presidencia 0.0
unshakable 0.0
marshablackburn 0.0
comunidad 0.0
merecen 0.0
juntos 0.0
infomercial 0.0
johnstown 0.0
statewide 0.0
skyscrapers 0.0
phillydotcom 0.0
deducted 0.0
laguardiacc 0.0
annieslisttx 0.0
nickmerrill 0.0
leaninorg 0.0
missbeae 0.0
minassianmedia 0.0
natarsha 0.0
foments 0.0
ruline 0.0
steininger 0.0
michaelnutter 0.0
harren 0.0
louisa 0.0
cannell 0.0
robbymook 0.0
broward 0.0
hillaryforfl 0.0
jeanneshaheen 0.0
ericasmegs 0.0
jeremyshorr 0.0
turpin 0.0
rubycramer 0.0
singularly 0.0
joshschwerin 0.0
clionamccarney 0.0
xochitlhinojosa 0.0
adamsmith_usa 0.0
humayun 0.0
jamestaylor_com 0.0
hillaryformn 0.0
ericwms 0.0
dougmillsnyt 0.0
jencarlosmusic 0.0
hannahbfine 0.0
creynoldsnc 0.0
lefsadventures 0.0
pembroke 0.0
perceptiveness 0.0
hillaryforaz 0.0
fayetteville 0.0
entrust 0.0
daveeddiggs 0.0
petewilliamsnbc 0.0
hillary_esp 0.0
ustedes 0.0
nación 0.0
creativa 0.0
bilingües 0.0
multilingües 0.0
contribuyen 0.0
diversidad 0.0
economía 0.0
hillaryforia 0.0
estaré 0.0
discurso 0.0
síganme 0.0
detall 0.0
hopewell 0.0
temperamentally 0.0
redone 0.0
barging 0.0
machadooficial 0.0
mikereedschmidt 0.0
franklinfoer 0.0
eamonjavers 0.0
hillaryforoh 0.0
hustling 0.0
relishes 0.0
markkirk 0.0
asmamk 0.0
just_jenna 0.0
discrimina 0.0
samifayebaker 0.0
padded 0.0
wigazette 0.0
phillytrib 0.0
trivializes 0.0
condones 0.0
ellisoncampaign 0.0
barb_kinney 0.0
theriveterspod 0.0
humiliates 0.0
nickmarroletti 0.0
alli_wilber 0.0
brespolitico 0.0
jasoncherkis 0.0
sean_p_thomas 0.0
outclassed 0.0
outmaneuvered 0.0
belittling 0.0
familie 0.0
yuuuuuuge 0.0
disqualifying 0.0
brynnecraig 0.0
buffywicks 0.0
lasvegassun 0.0
cmichaelhuntley 0.0
civically 0.0
raquelwillis_ 0.0
celebramos 0.0
trayectoria 0.0
pionera 0.0
breakups 0.0
rosenbergerlm 0.0
heraldleader 0.0
jaylon 0.0
decisi 0.0
antónio 0.0
squander 0.0
presidenta 0.0
protegerá 0.0
astrid_nv 0.0
sltrib 0.0
peter_j_k 0.0
brosandprose 0.0
nicholaskitchel 0.0
mahoning 0.0
omerizer 0.0
kendallybrown 0.0
davidnakamura 0.0
chatima 0.0
tammybaldwin 0.0
mpshapiro 0.0
responsibilit 0.0
overgrown 0.0
literally_trump 0.0
imploded 0.0
rnicholasburns 0.0
disastrously 0.0
stiffing 0.0
globeopinion 0.0
degradi 0.0
languishing 0.0
demostrar 0.0
poderosa 0.0
iammarleydias 0.0
tbtimes_opinion 0.0
disloyalty 0.0
defende 0.0
vegalteno 0.0
moodysinvsvc 0.0
decisiveness 0.0
whethe 0.0
preocupada 0.0
trayecto 0.0
afectados 0.0
ayotte 0.0
empathize 0.0
lifelo 0.0
lorellapraeli 0.0
ironworking 0.0
ebeling 0.0
contribuido 0.0
ejército 0.0
inmigrantes 0.0
indocumentados 0.0
enquirer 0.0
delega 0.0
roadshow 0.0
sunsentinelopinion 0.0
resulta 0.0
insultar 0.0
construir 0.0
muralla 0.0
provoked 0.0
discretion 0.0
sdutideas 0.0
merece 0.0
respeto 0.0
enfrentar 0.0
valentía 0.0
ataques 0.0
descaro 0.0
culparla 0.0
petulance 0.0
ninhaitseng 0.0
flippantly 0.0
posteverything 0.0
_vicentefdez 0.0
azcopinions 0.0
aumentó 0.0
andrewjenks 0.0
imwithher 0.0
diferencias 0.0
onevoxdotcom 0.0
ignite_national 0.0
endorsin 0.0
mercersdairy 0.0
everyvoice 0.0
rachaelgass 0.0
galifianakis 0.0
crutcher 0.0
nyledimarco 0.0
mistreat 0.0
wellsfargo 0.0
templeuniv 0.0
sollender 0.0
honremos 0.0
tantas 0.0
contribuciones 0.0
aleatha 0.0
endeavored 0.0
legitimize 0.0
además 0.0
whistles 0.0
ugliness 0.0
jorge_silva 0.0
dnclatinos 0.0
libnofcongress 0.0
unscrupulously 0.0
contractually 0.0
impulsively 0.0
qaddafi 0.0
cancelable 0.0
cnbcopinion 0.0
jbrotherston 0.0
_bxddxss 0.0
sspiderboy 0.0
collegedems 0.0
veered 0.0
charitynav 0.0
usnewsopinion 0.0
humansofny 0.0
unfitness 0.0
steadiness 0.0
nbcusa_inc 0.0
verdadera 0.0
encuentra 0.0
hacemos 0.0
anuncio 0.0
unpresidential 0.0
unfavorably 0.0
heridas 0.0
visibles 0.0
veteranos 0.0
cuidado 0.0
panetta 0.0
experiencia 0.0
confío 0.0
exsecretario 0.0
comercio 0.0
lizromanoff 0.0
americasvoice 0.0
davidleopold 0.0
rebuked 0.0
criminalize 0.0
mentiré 0.0
inmigración 0.0
demonizar 0.0
americanlegion 0.0
sarasolow 0.0
qumber 0.0
zerlinamaxwell 0.0
hillaryforut 0.0
hillaryforga 0.0
grandtetonnps 0.0
marlondmarshall 0.0
mariatcardona 0.0
escuchamos 0.0
claramente 0.0
demonizando 0.0
segunda 0.0
tercera 0.0
rhettbuttle 0.0
hillaryformi 0.0
futuramics 0.0
louisianans 0.0
claressashields 0.0
helen_maroulis 0.0
bri_rollin 0.0
itspooda 0.0
kristihollywood 0.0
meredeetch 0.0
kersee 0.0
rodhams 0.0
bidens 0.0
possibilitie 0.0
maulama 0.0
akonjee 0.0
shotdiva 0.0
auriemma 0.0
maxlinsky 0.0
cowering 0.0
moratory 0.0
hillarycl 0.0
repudiate 0.0
fencer 0.0
bankruptcies 0.0
warrenbuffett 0.0
bishopgarrison 0.0
ajazzyworld 0.0
morell 0.0
starkest 0.0
braille 0.0
frankmugisha 0.0
confiar 0.0
distinguido 0.0
herencia 0.0
harkening 0.0
impulses 0.0
dakota_meyer 0.0
kauveri 0.0
iafftreg 0.0
laurawalkerkc 0.0
jakesherman 0.0
benediction 0.0
denigrates 0.0
ann_oleary 0.0
liberates 0.0
bombast 0.0
repcleaver 0.0
throwed 0.0
luchado 0.0
derechos 0.0
humanos 0.0
trabajadores 0.0
relent 0.0
aprendí 0.0
valores 0.0
trabajo 0.0
mismos 0.0
annella 0.0
drbiden 0.0
expedient 0.0
imangelabassett 0.0
smegielski 0.0
leinonen 0.0
driffin 0.0
buckles 0.0
insatiably 0.0
sybrina 0.0
mcbath 0.0
dontre 0.0
randibrazeau 0.0
sjbxtr 0.0
malcolmkenyatta 0.0
lankford 0.0
countrymen 0.0
countrywomen 0.0
refiere 0.0
separar 0.0
valiente 0.0
strongmen 0.0
seremos 0.0
compañeros 0.0
bienvenidos 0.0
dauntless 0.0
governorva 0.0
sherrodbrown 0.0
vicepresidencia 0.0
ilyseh 0.0
gunsense 0.0
encantada 0.0
anunciar 0.0
splintering 0.0
albamonica 0.0
criminologist 0.0
construiremos 0.0
discriminatio 0.0
endorser 0.0
sniveling 0.0
ryanegraney 0.0
baptize 0.0
convención 0.0
republicana 0.0
