chatting 0.0
trying 0.000501759289972
launch 4.92188316303e-05
moment 0.000141252089222
wonderful 2.25446857393e-05
seeing 0.000185570018527
recommend 0.000209112166836
anybody 3.07799515585e-05
podcast 2.96090146221e-05
challenges 6.7342520948e-05
worked 0.000260457194013
direct 2.8420745867e-05
others 0.000323814395592
currently 0.000262627118773
better 0.000992756882341
please 0.000563487305721
travels 0.0
social 0.00078692245891
around 0.000218406514115
people 0.00291870523408
leaving 9.09175441041e-05
morning 0.000139737240836
general 0.000102913244509
overall 0.000209330345117
damage 0.000163640475471
affect 0.000103646935576
everything 0.000339361870601
twitter 0.00122099698279
present 2.2729386026e-05
though 0.000644379821225
friend 0.000280985202384
watched 2.25446857393e-05
beautiful 0.0
anything 0.000405759286523
practice 0.000135336835202
helped 2.18817819403e-05
helpful 6.84305417558e-05
revive 0.0
updated 3.17301394462e-05
thinking 0.000326362583972
finally 0.000183578953484
caught 0.0
believe 0.000338448372506
already 0.000437992011478
orlando 0.0
depends 0.000268858500218
chance 3.9924925953e-05
meaning 8.85652174537e-05
annual 0.0
renewed 0.0
growing 7.18224884826e-05
probably 0.000432922197677
should 0.0001583193166
changed 8.54215995736e-05
history 0.000246760224776
center 0.0
museum 0.0
behind 9.92756882341e-05
pretty 0.000387555568467
really 0.00105801053775
expensive 6.86517694883e-05
little 0.000398174555889
earlier 4.67155312215e-05
forget 0.000141633395259
paperwork 6.45816231848e-05
someone 0.000744608225417
mostly 0.000212249680735
worker 4.21010625382e-05
safety 8.67639662051e-05
program 0.000111089428909
things 0.000416957890583
electrical 0.0
visiting 5.50691366109e-05
available 0.00010365218479
perfect 0.000124718675076
different 0.000223167607588
search 0.000507038914314
connect 0.000261189296934
numbers 9.98093821706e-05
person 0.000200163439801
watching 4.01407431978e-05
passed 2.43392737208e-05
minutes 0.000185570018527
daughter 0.0
average 2.85862063049e-05
positive 0.000142077443482
outside 6.33775745199e-05
metric 0.0
looking 0.000199087277945
forward 8.2031872409e-05
raising 2.85033037308e-05
afraid 7.74011420143e-05
impression 0.000146713413171
profile 8.18987805596e-05
drawing 0.000106755401514
favorite 0.0
picture 0.000297364162533
historic 0.0
instead 0.000427186477694
appreciate 7.04575911519e-05
husband 0.0
international 9.87101182468e-05
toddler 0.0
couldn 6.23593375379e-05
remember 0.00039924925953
holidays 2.85033037308e-05
friends 0.00018063334439
despite 5.66770597173e-05
understood 0.000152407225601
impossible 2.7144474468e-05
everyone 0.000339361870601
florida 0.0
always 0.000277971927056
months 6.25278395256e-05
moving 0.000236182909807
meeting 0.0
google 0.000903282956096
answer 0.000184074643785
together 6.00490319404e-05
included 3.0412253316e-05
inside 0.00010393222923
section 0.000153436933233
missed 0.000141633395259
button 0.000165708793787
active 6.42466466739e-05
longer 0.000207369810323
enough 0.000302683048332
projects 3.54672988473e-05
driving 7.32193963563e-05
building 0.000112112499456
enjoying 0.0
kennedy 0.0
tantrums 0.0
apparently 0.000463109600289
recent 0.000105546211067
gotten 0.0
amazing 0.000238904733534
determined 3.8508410459e-05
attention 9.0424247173e-05
progress 8.30783322318e-05
tomorrow 5.98873889295e-05
whenever 3.2830705853e-05
curious 0.000158650697231
george 2.48144620882e-05
feeling 8.35957593784e-05
excited 0.0
campaigning 4.47289188251e-05
understand 0.000261163154979
learning 0.000123729388897
special 4.02490932658e-05
secret 0.000156531814485
across 0.000156107429533
comparison 0.000111938270115
surprised 0.000142858632025
anymore 0.0
spirited 0.0
precious 8.42021250763e-05
rejoice 0.0
rather 0.000493294997607
showing 0.0
saying 0.00052106532938
tweeted 0.0
updates 0.000145029961466
thoughts 0.000105914976497
exactly 0.000172701010983
except 0.000127213103823
getting 0.000259512018695
nothing 0.000159699703812
tweets 0.000440013506708
course 0.000206188909474
photos 2.41390521487e-05
looked 4.53352563217e-05
difficult 2.63123278667e-05
office 0.00015111338461
decisions 3.01408804677e-05
brought 4.42405699201e-05
biggest 2.05633520646e-05
thrilled 0.0
entire 0.000243983971719
something 0.000578911426319
closing 2.96966754163e-05
anyone 0.000583611852354
taking 9.98123148825e-05
reprint 0.0
flying 0.0
happening 4.35271924965e-05
sometimes 0.000418012831372
lessons 0.0
village 8.01497210924e-05
stopped 2.34217113589e-05
yesterday 4.02490932658e-05
service 0.000526587351496
serious 0.000106776999467
emails 0.000207293871153
wearing 9.36868454357e-05
afford 6.44456960896e-05
either 0.000217635962482
second 0.000120747279797
checking 7.76181382942e-05
volunteers 4.17755611885e-05
indeed 0.000163331295061
hearing 8.92042454477e-05
choose 7.04575911519e-05
another 0.000378265828095
address 0.000296054492276
display 3.57036723252e-05
compare 0.000291441286723
weekend 6.07000265397e-05
suggested 0.000156255340567
appear 0.000241847412782
anyway 0.0001806026647
theory 0.000261824760753
buildings 0.0
working 0.000179662166789
bigger 0.000117108556795
treated 0.0
admired 0.0
retirement 3.81018064003e-05
laughing 9.4718295655e-05
wanted 0.000100894349444
current 0.000211952016228
grateful 2.60913036439e-05
friendship 0.0
family 0.000159699703812
listening 4.37635638807e-05
stream 5.49118679883e-05
sharing 7.04575911519e-05
double 4.52121235865e-05
especially 0.00019908256464
middle 2.29158206131e-05
waiting 6.13582145951e-05
definitely 4.36452023167e-05
walking 2.39408294942e-05
account 0.000327903959025
completely 4.73591478275e-05
thought 0.000321992746126
accept 0.000127568294499
possible 0.000147881007213
simple 9.29219546061e-05
manufacturing 0.0
destroyed 0.0
members 5.03219657685e-05
supposed 5.30716804385e-05
manufacturers 0.000131253743519
business 0.000193763831578
absolutely 6.40661996802e-05
anywhere 2.66109069917e-05
sending 6.95014644763e-05
introducing 0.0
congrats 4.19108535216e-05
beauty 0.0
community 0.000270703573967
greatest 2.18226011584e-05
posted 0.000118073968178
wednesday 4.8145515609e-05
explain 6.98820754386e-05
broken 0.000173221144456
fairly 0.0
closest 0.0
hoping 0.000120033420371
relationship 0.0
actually 0.000695393098744
pockets 0.0
wallet 0.0
pocket 0.000136861083512
argument 0.000492479224936
decent 0.000141869195389
school 0.000284031500566
throwback 0.0
thursday 0.0
talented 0.0
discuss 5.14566222544e-05
celebrate 0.0
celebrating 0.0
anniversary 0.0
students 0.00015876633711
corners 0.0
internet 0.000769248324735
figure 7.16255778473e-05
opened 0.0
inspired 4.82781042974e-05
latter 0.000225535616791
sitting 2.25446857393e-05
playing 6.08638929785e-05
street 2.212028496e-05
points 7.67548563295e-05
advice 0.000187373690871
memory 5.52270305576e-05
forever 0.0
congress 0.0
imagine 0.00011120309748
problem 0.000513916856947
pulling 0.0
furniture 0.00010113231079
keeping 0.000133806368172
dressed 0.0
chinese 3.22228480448e-05
unlike 0.000110789062515
allowed 5.24767588201e-05
otherwise 0.000226708238869
afternoon 0.0
planned 2.86694564799e-05
images 0.000210707595438
noticed 0.00012653219246
expense 0.0
differences 7.67438969894e-05
difference 0.000152758208109
editor 0.0
intent 0.000697359416605
suppose 0.000268603639463
inspiration 5.47552197564e-05
letting 0.0
system 0.000174666418799
almost 7.9849851906e-05
details 0.00013093560695
experience 0.000270953971278
living 2.08426131752e-05
worries 0.000105353797719
weather 0.0
bright 2.80939049452e-05
understands 0.000124844369894
normal 0.000214095178874
launching 6.50489017432e-05
backyard 0.0
pointed 0.000123891302955
before 0.000194814988955
monday 4.16852263504e-05
example 0.0001583193166
science 5.63502243308e-05
tweeting 4.55826731675e-05
forgot 2.50216480132e-05
disaster 6.11905025435e-05
happens 0.000330793369915
silence 0.0
learned 4.62080447582e-05
congratulations 2.20006753354e-05
natural 5.66770597173e-05
babies 0.0
mission 2.70673670405e-05
surprising 0.0
reference 6.75577533193e-05
forgotten 2.96966754163e-05
setting 0.000226708238869
appeared 0.0
reminds 5.65133057727e-05
fantastic 2.35502240253e-05
loving 2.35502240253e-05
complete 0.000160410744292
daniel 3.51179325729e-05
rewarding 0.0
nearly 0.00013119189705
spirit 0.0
launched 0.0
finding 9.76258618084e-05
stories 6.47628791185e-05
including 0.000155262527457
wouldn 0.000129175887719
choice 2.12977652008e-05
offended 0.0
conversation 9.7089234425e-05
disrespectful 0.0
making 0.0003583571003
expect 0.000215467465448
traits 7.04640217444e-05
discussion 0.000407274351857
believes 7.00056600067e-05
response 0.000328802092042
brings 0.0
seasons 3.77033621737e-05
anytime 0.0
protected 8.10488600775e-05
location 3.13445906787e-05
needed 0.000106488826004
seriously 4.41207801602e-05
emergency 0.000104323822553
justify 0.000137064872483
spending 4.96289241764e-05
groups 6.44456960896e-05
condition 0.0
childhood 0.0
modern 8.62591715489e-05
welcome 0.000121073219333
moments 0.0
totally 0.000184328720287
running 0.000209554267608
strong 0.000123380112388
respond 6.02817609355e-05
message 4.2365990599e-05
coming 3.98174555889e-05
thankful 0.0
issues 0.000380956352067
challenge 0.000131290691642
intolerance 0.0
happen 0.000244112845853
giving 8.07154795552e-05
turkey 0.000145455125663
excellent 0.000208145378393
limits 3.70565578257e-05
contractors 0.0
common 0.000222097766055
pressed 0.0
healthcare 3.87841806927e-05
benefits 9.40337720361e-05
situation 0.000104365214576
workers 6.6493070905e-05
company 0.000226060617932
savings 4.77584075389e-05
health 0.0
insurance 0.0
change 0.000339361870601
silver 0.0
august 0.0
crying 0.0
mental 0.0
carrier 0.00015400451209
decide 0.000123729388897
happened 0.000210120748382
parking 0.0
demand 0.000210498622933
sacrifice 0.0
personal 0.00019534289551
rewards 0.0
beyond 6.69031840858e-05
contributing 0.0
passion 0.0
question 0.000836304121429
doctor 0.0
sacrifices 0.0
respected 0.0
losing 2.46094158152e-05
strain 0.0
respect 0.000109113005792
shouldn 0.000143251155695
career 0.0
visited 6.26891813574e-05
reason 0.000210120748382
simply 0.000249523455427
audience 0.000138067576394
sacrificed 0.0
employees 7.64728360373e-05
accounts 0.000233463075963
attacked 3.90638351418e-05
involved 2.32304886515e-05
extreme 0.000138195914102
valuable 0.000149768426373
knocked 0.0
reality 0.000142467397434
mention 4.92188316303e-05
without 0.000362241839392
problems 0.000123047079076
timing 0.0
described 3.83719484947e-05
pattern 4.56882908278e-05
online 0.000365009951519
background 9.01537226036e-05
buying 2.70673670405e-05
called 0.000280985202384
scientists 0.0
checked 0.000113354119435
heading 0.0
paying 5.18906186539e-05
planning 5.18906186539e-05
opposite 0.000130912380377
through 8.40390855269e-05
reached 0.0
changing 0.000146843312035
explains 5.36756506407e-05
harder 8.33170716814e-05
demands 8.48639783188e-05
silent 3.38870793124e-05
speaking 0.000159974367282
november 0.0
ordinary 3.94908438067e-05
number 0.000286338334777
stunning 0.0
atlantic 0.0
stupid 0.000166634143363
personality 0.0
grandparents 5.47469478692e-05
unless 0.000270703573967
calling 0.000293375974651
painting 3.87841806927e-05
focused 0.0
ridiculous 0.0
package 0.000107468768279
rooted 0.0
option 2.89213220684e-05
knowing 5.52270305576e-05
former 0.000200729545799
actual 0.000132679201096
tracked 5.77559919568e-05
suffers 5.53773226443e-05
schedule 6.19327722912e-05
friday 6.07000265397e-05
failure 3.2123323337e-05
achieve 0.000133831049253
winner 0.0
doctors 7.18857874897e-05
becomes 0.0
directly 9.88015489715e-05
quality 0.0
tearing 0.0
father 6.81881580781e-05
wishes 0.0
collar 0.0
caring 4.00748605462e-05
ground 2.58727127647e-05
matter 0.000299784833219
strategy 0.000132567035029
themselves 0.000104665172559
asking 0.00019013272356
usually 0.0
thankfully 4.51071233582e-05
reacts 5.44391101114e-05
period 2.97847249515e-05
parents 2.39408294942e-05
balance 0.000217421848279
resist 0.0
mobile 6.62835175147e-05
computer 0.000185237700188
reminded 0.0
impressed 6.04618531956e-05
dinner 0.0
suffering 0.0
single 0.00026732357684
parent 0.0
approved 3.77033621737e-05
energy 2.3744566239e-05
preview 0.0
meltdown 0.0
remind 8.33170716814e-05
emotional 0.0
sounded 4.16147899648e-05
status 0.000120204963471
update 0.000256234276608
outage 6.73057703377e-05
customers 0.000517330360954
holding 7.08443809067e-05
causes 0.000177336494236
eating 2.49523455427e-05
picked 0.0
missing 0.000170382121607
surprise 0.000106776999467
officially 4.65880502924e-05
global 0.000133431293241
follow 0.000160562972791
opinion 7.80545168975e-05
faster 3.22228480448e-05
backwards 4.29389563853e-05
design 0.000150704402339
website 0.000316410558371
widely 0.000141980271336
origin 9.9652253442e-05
breaks 0.000105249311467
allows 0.000112716914051
promoting 3.43258847442e-05
volunteer 0.0
convince 3.77033621737e-05
negative 5.81820502653e-05
official 2.06188909474e-05
jersey 0.0
mistake 5.52270305576e-05
fixing 0.000198903524893
translated 0.0
ginger 5.21344811742e-05
peaceful 0.0
thinks 9.31761005849e-05
hospital 2.90910251326e-05
lauren 0.0
easier 0.000162404202243
excluded 0.000110119267329
successful 2.72995935199e-05
leadership 3.12493620182e-05
agrees 0.0
decline 0.0
turnout 8.69184161917e-05
showed 0.0
trumps 0.0
circle 0.0
engage 0.0
suited 0.0
experienced 6.95492150354e-05
interested 0.000256565022328
effect 0.000131561639333
success 4.50893714786e-05
ladies 0.0
dreams 0.0
protect 0.000255849521098
explanation 7.14073446504e-05
occasion 9.13765816555e-05
medication 6.2642997932e-05
planet 2.8013028509e-05
detached 0.0
essence 0.0
control 0.000379118043153
happier 3.64301608404e-05
likely 0.000186803810537
coincidence 4.21010625382e-05
cancel 0.0
project 0.000157812800175
laying 8.25942019699e-05
lesson 8.33170716814e-05
requires 0.00027052071763
healthy 0.0
treating 0.000189840506322
opening 2.17047661677e-05
statement 0.000129363563824
enjoyed 0.0
animal 0.0
nervous 3.2830705853e-05
pounds 0.0
wonder 0.000411276087794
matters 0.0
shared 5.47552197564e-05
somehow 0.000128891392179
benefit 0.000175151536092
terrible 0.000101770483058
continues 0.000146035642325
improve 6.1007082932e-05
equally 0.0
appointment 0.0
session 7.82739109317e-05
routine 0.0
exciting 7.18224884826e-05
corner 0.0
imagination 0.0
decides 4.49171205911e-05
cheering 0.0
spring 0.000102054635599
fallen 0.0
frequently 0.000161512179677
places 2.38097720042e-05
thousands 5.85243823448e-05
informed 0.000421415190875
typical 7.43684880769e-05
continue 4.60821800718e-05
attend 0.0
excuse 0.0
settle 0.0
female 2.66109069917e-05
recovery 6.60750641474e-05
treasured 0.0
grandma 0.0
closer 0.0
beginning 0.0
everywhere 0.0
scenes 2.54426207645e-05
bought 0.0
multiple 0.000120923706391
slogan 0.0
wishing 0.0
covered 2.58727127647e-05
remove 0.000103311354898
choices 0.0
dealing 0.000138645890097
teacher 2.97847249515e-05
training 5.17454255295e-05
passing 5.39811158031e-05
stopping 9.09641488866e-05
become 0.000166740905402
spread 0.0
season 4.40013506708e-05
putting 0.000104777133804
weight 3.10602640399e-05
quietly 0.0
necessity 0.000122607884037
knocks 5.63620767375e-05
effects 0.000148226231303
returns 0.0
expected 5.71724126098e-05
resources 0.00019602576722
bucket 0.0
struggling 0.0
register 8.9090026249e-05
promotion 0.0
solution 0.000331417587574
manage 3.64301608404e-05
transition 0.0
gained 0.0
define 0.000234383010851
somebody 8.93541748546e-05
contract 0.000103646935576
ignorant 4.29389563853e-05
managers 4.95854554391e-05
credit 2.46094158152e-05
brothers 0.0
grandkids 0.0
computers 0.000101638181011
physical 3.32465354525e-05
series 8.68190646709e-05
offensive 3.61850325708e-05
fighting 6.81881580781e-05
donald 5.73389129598e-05
mexico 0.0
sandra 0.0
police 0.000205826489017
represent 3.37788766596e-05
president 0.000221803610653
talking 0.000460375911543
america 6.37208919715e-05
michigan 0.0
everybody 7.38282474455e-05
judgment 0.0
carolina 0.0
amount 5.6026057018e-05
houston 0.0
everyday 5.66770597173e-05
michael 2.25446857393e-05
protecting 0.000177925669189
providing 7.48842131865e-05
attitude 7.07003181047e-05
million 2.09554267608e-05
election 0.000110138273222
honesty 0.0
targeting 0.0
telling 0.000136005768965
correct 0.000231554800145
attack 0.000283011422399
elementary 0.0
americans 0.000111089428909
killed 4.44812389919e-05
horrible 0.0
salute 0.0
coverage 0.0
united 0.000232854414883
college 4.99046910853e-05
refuse 3.58229227596e-05
preach 0.0
hillary 3.57036723252e-05
clinton 0.0
presidency 0.0
throws 0.0
manning 0.0
american 0.000105914976497
deserved 0.0
humble 0.0
remain 0.000140469524726
founder 0.0
illegal 0.00039895842543
arizona 0.0
opinions 0.000171076354389
speeches 8.55370499456e-05
scared 2.92621911724e-05
salary 4.60854068182e-05
pieces 0.0
taught 8.83045368935e-05
thompson 0.0
straight 6.63608548801e-05
blocking 0.000187861523419
answers 0.0
created 9.60267362965e-05
record 2.08426131752e-05
stamina 0.0
weapon 8.10488600775e-05
bottom 2.67618973592e-05
athletes 0.0
registered 4.082989972e-05
minnesota 0.0
committed 3.14402782742e-05
journey 0.0
snapchat 7.41131156515e-05
peoples 4.86509235324e-05
disrespect 0.0
brother 0.0
prayers 0.0
boston 0.0
korean 4.56882908278e-05
church 9.09641488866e-05
advantage 6.82105396679e-05
motivation 0.0
honestly 0.000171019822385
defeat 0.0
lifetime 3.01408804677e-05
captain 0.0
retired 4.05244300387e-05
country 0.000206188909474
ending 5.36756506407e-05
dressing 3.87841806927e-05
finish 2.45415349366e-05
ranked 8.87155679026e-05
employee 4.39934592773e-05
university 0.0
dreamed 0.0
prayer 0.0
nominated 0.0
responds 0.0
national 0.000172701010983
reform 7.89816876134e-05
shooting 4.99046910853e-05
cancer 0.0
deserve 2.44738853391e-05
mother 2.22406194959e-05
creating 0.000109823735977
powerful 4.86785474416e-05
wisdom 0.0
breaking 0.000107355868094
dollars 0.0
questions 0.000184074643785
racist 3.59428937448e-05
charged 0.0
soldiers 0.0
performance 0.0
reading 0.000127097971797
denver 0.0
graphic 0.0
garner 6.67302188031e-05
create 0.000161728156654
jordan 0.0
admire 0.0
nobody 0.000293686624069
government 0.000866321834035
politics 0.000141283264432
blessing 0.0
wrestling 9.73018470647e-05
charities 0.0
donate 0.0
sample 0.000170398176232
bringing 4.48449997825e-05
deserves 7.96075206578e-05
regret 0.0
victim 0.000151872405058
according 0.0
threat 0.000920596937907
heaven 3.16330481151e-05
heroin 0.0
honest 7.44433862646e-05
became 0.0
decision 2.48832841247e-05
counting 0.0
signing 0.000104658821382
embrace 3.48883908528e-05
pressure 0.00013572237234
celebrities 0.0
facebook 0.00100370379499
kardashian 0.0
divided 4.36356993704e-05
lawyer 0.000151872405058
lebron 0.0
campaign 4.63343096509e-05
determine 4.41747859955e-05
whether 0.000353234262021
praise 0.000101661237937
defined 0.0
proposes 5.38373932257e-05
discover 0.0
factory 0.0
arrested 0.0
estate 4.24319891594e-05
proposed 0.000188516810869
comments 0.000219053463487
teenage 8.76275470948e-05
wounded 0.0
endorsement 0.0
williams 0.0
custom 0.000120224581639
troops 0.0
singer 0.0
future 0.000226196872711
struggled 0.0
sister 0.0
sabotage 0.0
athlete 0.0
warrior 0.0
cheating 0.0
voting 2.46094158152e-05
succeed 3.74421065933e-05
religion 8.25942019699e-05
century 3.27280950942e-05
serving 0.0
because 0.000230024457464
cleveland 0.0
hiding 3.27280950942e-05
breath 3.38870793124e-05
choosing 0.0
lawrence 0.0
instagram 5.53855548212e-05
opponent 0.0
detroit 0.0
honored 0.0
nonsense 0.0
lifting 0.0
proven 4.29389563853e-05
talent 2.66109069917e-05
knocking 0.0
russian 0.00013298614181
brains 8.79869185546e-05
oakland 0.0
regardless 7.04674125966e-05
skills 2.76927774106e-05
citizens 3.41052698339e-05
california 0.0
commitment 6.60750641474e-05
seconds 0.000160117551889
seeking 0.000140471730292
threatening 0.0
listen 6.18566728423e-05
whatever 0.000183326564905
mexicans 0.0
satisfied 0.0
fought 9.69686224162e-05
compete 3.74421065933e-05
injured 0.0
billion 0.000142931031525
ceiling 0.0
absolute 2.92621911724e-05
appearance 3.06873866466e-05
bigsean 0.0
handle 0.000156109033795
promise 0.0
nightclub 0.0
hosting 7.84941160362e-05
actors 0.000162097720155
generation 0.000109510439513
criminal 0.000152407225601
tuesday 2.26676281609e-05
ronald 0.0
locker 0.0
struggle 0.0
degree 0.0
entering 0.0
leader 2.60181722992e-05
pageant 0.0
toughest 0.0
character 2.66862586481e-05
mirror 6.50489017432e-05
interview 8.11518573046e-05
whistle 0.0
obviously 2.8013028509e-05
battle 4.63343096509e-05
motivate 0.0
destroy 3.46614725241e-05
relentless 0.0
winning 4.25955304017e-05
charlotte 0.0
accomplished 0.0
stepped 0.0
defense 0.000224170065096
appeal 0.000178518361626
causing 0.000126303187614
arabia 0.0
shipped 0.0
society 0.000165207409833
officers 4.22658364103e-05
brooklyn 0.0
marked 0.0
incredible 0.0
poster 0.0
wealthy 0.0
memorable 0.0
officer 7.21271880829e-05
minute 0.0
luther 0.0
foreign 6.60750641474e-05
pregnant 0.0
champions 7.48842131865e-05
virginia 0.0
tackle 0.0
unarmed 0.0
orange 5.97463333817e-05
policy 0.000292621911724
comedy 9.34637637347e-05
reminder 0.000120033420371
evidence 0.000207263102355
lighten 0.0
presidents 4.19376448449e-05
kicked 0.0
sticker 0.0
accused 3.94908438067e-05
intentions 5.50596336645e-05
facing 3.2830705853e-05
freedom 0.000111089428909
actions 0.0
debating 4.41747859955e-05
outcome 3.79681012645e-05
utterly 4.29389563853e-05
mississippi 0.0
clearly 0.000354218234472
download 8.45253364961e-05
sidelines 6.3110199197e-05
invite 5.65133057727e-05
legally 8.62217268257e-05
central 0.0
washington 2.63865527667e-05
veteran 0.0
division 3.66783532927e-05
veterans 0.0
stronger 0.0
promised 0.0
worried 0.000173022068271
security 0.00251380033757
immediately 8.35567718558e-05
television 3.51179325729e-05
entitled 4.32842718308e-05
racism 0.0
highest 5.63502243308e-05
approve 0.0
turning 2.49523455427e-05
legacy 3.16330481151e-05
ignore 0.00011434482522
choked 0.0
backing 0.0
helping 2.19411396457e-05
collector 0.0
willing 0.000121285531849
basically 0.000320001276459
return 2.20603900801e-05
unacceptable 0.0
feelings 3.44371182992e-05
network 0.000278522572853
language 5.58649603455e-05
invest 3.97807049787e-05
coward 0.0
schools 0.0
patients 0.0
foster 4.1297100985e-05
children 0.000197470256811
nation 5.01823864498e-05
review 0.000118722831195
between 0.0
knowledge 0.00019836970901
begins 4.77503852315e-05
tenure 0.0
faithful 0.0
highlights 9.01537226036e-05
shoulder 0.0
produced 3.12493620182e-05
consider 0.000211688449479
shattered 5.73982320499e-05
latest 0.000172701010983
beyonce 0.0
signed 6.60020260062e-05
millionaire 0.0
shelter 4.49171205911e-05
charity 5.57045145705e-05
germany 0.000121285531849
advance 0.0
proved 0.0
married 0.0
millions 0.000107962231606
blessings 0.0
indonesia 0.0
fights 3.63072184188e-05
dollar 0.0
rigged 0.0
conduct 0.0
johnson 2.83385298586e-05
howard 0.0
turned 6.5645345821e-05
criticism 0.000148226231303
stomach 0.0
upgrades 0.0
jackie 0.0
relevant 0.000177336494236
charge 2.76135152788e-05
ticket 0.0
steady 0.0
indian 0.0
turner 0.0
sanders 0.0
includes 2.96966754163e-05
survivor 0.0
dealers 0.0
collection 8.21328296346e-05
against 0.000175973837109
joyner 0.0
impact 0.000266862586481
families 0.0
welcoming 0.0
hitting 2.66109069917e-05
announced 0.0
granted 7.64728360373e-05
decided 0.000119375963079
itself 6.77741586249e-05
selfish 0.0
mexican 3.96352454443e-05
respects 5.0566155395e-05
guarantee 3.90638351418e-05
beliefs 0.0
citizen 3.58229227596e-05
states 7.54829486528e-05
denied 3.99272380249e-05
drought 0.0
memorial 0.0
decades 6.40485900275e-05
trayvon 0.0
landed 6.23091758231e-05
pastor 0.0
ultimate 0.0
weekends 0.0
episode 4.76195440084e-05
spikes 0.0
engaged 0.0
financial 7.02358651458e-05
payments 5.35432376582e-05
tolerant 0.0
symposium 0.0
kansas 3.99272380249e-05
agreement 7.38593750099e-05
source 0.000420195427635
backbone 0.0
dismiss 0.0
midnight 0.0
homework 0.0
joining 4.69717274346e-05
reasons 0.000162613420561
talked 7.52735796747e-05
released 2.32304886515e-05
reaching 3.65538692633e-05
release 0.000109408909702
existing 0.000120670766593
models 0.000269558873213
pageants 0.0
helmets 6.17403362369e-05
scheme 0.0
scholarship 0.0
stacked 0.0
speech 0.000837929032297
standing 4.55826731675e-05
higher 0.000107047589437
purple 0.0
justice 2.68378253204e-05
served 3.01408804677e-05
speaks 5.76740227569e-05
backup 0.0
allegedly 0.0
purchase 0.0
millionaires 0.0
consideration 5.08190905053e-05
strength 0.0
incredibly 0.0
private 0.000307019425318
ignored 0.0
neighbors 0.0
apologizes 0.0
beings 4.71144006743e-05
minimum 8.22802851154e-05
direction 0.000152976256359
enemies 8.48639783188e-05
exclusive 2.36795739137e-05
prison 0.0
himself 0.0
contributes 7.34109213755e-05
investigation 3.68036227154e-05
teaching 3.0412253316e-05
disgusting 0.0
philly 0.0
rights 0.000188398313266
cheers 0.0
maintain 0.0
overcome 0.0
flawless 0.0
unique 3.05952512717e-05
neighborhood 0.0
dating 0.0
handed 0.0
victory 2.85033037308e-05
lifted 0.0
greatness 0.0
muslim 0.000112716914051
terrorist 4.082989972e-05
productive 0.0
tribute 0.0
deadspin 0.0
threatened 0.0
horror 0.0
warning 2.88370113784e-05
convention 0.0
understanding 8.62591715489e-05
action 0.000107066011864
having 7.48842131865e-05
afghan 0.0
announces 3.0503541466e-05
commencement 0.0
speaker 9.97396063574e-05
graduation 0.0
honors 0.0
produce 7.48842131865e-05
apologize 0.0
insult 8.42021250763e-05
continued 3.42152708779e-05
letter 7.38282474455e-05
discussed 3.55851338379e-05
therapy 0.0
untrue 0.0
written 0.000219053463487
existence 0.0
essential 0.0
results 7.82739109317e-05
initiative 4.00748605462e-05
disease 3.90638351418e-05
marching 0.0
suggest 0.000339602450345
georgetakei 5.70468045103e-05
ensure 3.81018064003e-05
democrats 0.0
marched 0.0
foundation 0.0
access 0.000760787583034
writes 6.50489017432e-05
student 0.00011467782592
colorado 0.0
medical 6.5661411706e-05
medicine 0.0
tremendous 3.77033621737e-05
nytimes 0.000362771119174
kindness 0.0
public 0.000370674477207
cannot 0.000222406194959
reveals 0.0
invented 0.000111938270115
threatens 0.0
candidate 0.0
persistence 0.0
sexual 3.50028300033e-05
illustration 0.0
measure 7.31077385266e-05
compared 3.44371182992e-05
headline 3.12493620182e-05
reflect 0.0
answering 9.01537226036e-05
streaming 3.26260118994e-05
leaders 0.0
supreme 6.88742365984e-05
nominee 4.03734396712e-05
immigration 0.000148226231303
policies 0.0
laundering 0.0
administration 3.77033621737e-05
defend 6.52520237988e-05
communicating 6.04589150162e-05
excitement 0.0
funding 3.18277078865e-05
climate 3.37788766596e-05
transfer 4.39934592773e-05
conspiracy 0.000157389939157
activist 0.000183543424066
horrifying 0.0
freely 0.00016808510727
retreat 0.0
daughters 0.0
compelling 0.0
platform 0.000253064384921
hamilton 0.0
futures 0.0
huffingtonpost 0.0
headlines 0.000184018113577
january 0.0
grants 0.0
unprecedented 0.0
relationships 8.32295799296e-05
philadelphia 0.0
diversity 7.36072454309e-05
funded 3.68036227154e-05
secure 0.000801463538488
income 3.66783532927e-05
universal 0.0
contributed 0.0
hurricane 0.0
fundamental 4.52989619293e-05
countries 0.000115012228732
linked 3.71842440384e-05
african 3.68036227154e-05
improved 7.86949695787e-05
unclear 0.00010372867816
provide 0.000146310955862
livestream 0.0
addresses 0.00014008914701
enhance 0.0
companies 0.00026430025659
proposal 0.000111938270115
potential 0.000192741978138
discrimination 0.0
connected 0.0
drives 7.64728360373e-05
attending 0.0
filled 2.8013028509e-05
education 8.05134759611e-05
addressed 4.58858560165e-05
mentioned 5.86966614666e-05
famous 5.49118679883e-05
resistance 4.41747859955e-05
exists 0.0
demonstrated 6.35886594005e-05
officials 0.0
instructions 5.00697510983e-05
transmission 0.0
olympics 0.0
ability 0.000116023969173
political 0.000200103444134
director 9.95331364988e-05
contains 9.9652253442e-05
sponsored 0.0
autism 0.0
previously 0.000159122819915
prevent 9.94252762721e-05
capacity 0.0
donations 3.77033621737e-05
william 0.0
editors 0.0
passionate 0.0
solving 0.00010372867816
innate 0.0
treatment 3.12493620182e-05
critical 0.000158650697231
feeding 4.11401425577e-05
preparing 0.0
depend 0.0
capable 8.19688303793e-05
bridge 6.42466466739e-05
systematically 0.0
becoming 0.000127924760549
embraced 0.0
literacy 0.0
lawyers 8.32295799296e-05
stigma 0.0
malaria 0.0
standard 0.000144185056892
hiring 0.0
remains 6.17459000626e-05
fellow 5.06026049245e-05
defending 0.000102315809502
quotes 6.5661411706e-05
pushes 0.0
luxury 0.0
admitted 4.79778035574e-05
colleagues 3.65538692633e-05
failed 0.0
independent 0.000153899757793
politically 0.0
driven 3.61850325708e-05
agenda 0.0
result 0.000143765285915
implications 0.0
insider 4.71144006743e-05
pakistan 5.60283690899e-05
solutions 0.000168404250153
trusts 0.0
indiana 0.0
filling 0.0
humility 0.0
clicks 0.000306519710094
disagree 3.08729500313e-05
claims 0.000128097180055
editorial 0.0
mistakes 7.11702676758e-05
offered 6.5661411706e-05
passionately 0.0
justification 0.0
inspiring 0.0
counter 0.000113110086521
shaped 0.0
retroviral 0.0
majority 6.69155246264e-05
approach 0.000207876727914
nature 0.000115012228732
concern 3.37788766596e-05
server 0.000363050373559
berniesanders 0.0
shameful 0.0
experiment 0.000217296040479
massive 7.59039073868e-05
promises 0.0
colored 0.0
consequences 3.8508410459e-05
whatsoever 0.0
proposals 9.42288013485e-05
guesses 0.0
bernie 0.0
interviewed 3.2123323337e-05
pregnancy 0.0
secretary 0.000208647645106
measures 4.38137735474e-05
vastly 0.0
reduce 3.60635940415e-05
compassionate 0.0
distinguished 0.0
dangerous 8.02856920776e-05
influence 0.0
letters 7.38593750099e-05
implicit 0.0
saving 0.0
revelations 5.88696560377e-05
incident 4.11401425577e-05
universe 0.0
victims 2.89213220684e-05
milestone 0.0
perfectly 6.06427659244e-05
exercise 0.0
receive 0.0
reputation 4.75414093392e-05
economics 4.79778035574e-05
disclosure 0.000703767640559
receives 0.0
terrific 0.0
collected 0.000104816698967
campus 0.0
founders 5.9648388696e-05
profiling 0.0
systemic 0.000250571991728
studying 4.21010625382e-05
necessary 0.000276186479819
inaccurate 5.15978231635e-05
breast 0.0
debate 0.000230908520095
suddenly 7.33567065853e-05
conflict 0.0
interest 0.000420195427635
meanwhile 3.50028300033e-05
indefensible 0.0
recall 7.59362025289e-05
rating 0.0
nominate 4.17755611885e-05
outstanding 3.42152708779e-05
devastating 0.0
illness 0.0
troubling 5.44391101114e-05
romney 0.0
appears 0.000165187660368
breathe 0.0
abroad 0.0
spanish 0.0
profit 3.89235155638e-05
reviews 0.000143291691038
republican 7.86949695787e-05
presidential 9.97396063574e-05
candidates 3.3671260474e-05
politicians 0.000181536092094
identified 0.0
epidemic 0.0
displaced 0.0
greater 0.000130097803486
absurd 0.0
deadline 0.0
height 0.0
sisters 0.0
nuclear 0.000140934825193
stress 3.68036227154e-05
leading 0.000101205209849
restored 0.0
conditions 0.0
however 0.000316330481151
achieved 0.0
member 4.68434227178e-05
examples 8.48639783188e-05
diverse 0.0
suicide 3.93474847893e-05
contributions 4.39934592773e-05
largest 0.0
increase 6.4846813392e-05
targeted 4.41747859955e-05
regulators 6.85094805487e-05
provided 4.09844151896e-05
element 0.0
effectively 0.000134751361773
population 3.7835290484e-05
rising 3.2123323337e-05
indication 0.0
versus 0.000266146703708
believed 0.0
dynamic 8.65685436615e-05
invasion 0.0
primary 0.0
provides 0.000117191505425
environment 7.33567065853e-05
confirmed 5.80119845865e-05
behavior 0.0
introduced 3.79681012645e-05
contain 4.31108634128e-05
communities 0.0
worldwide 3.31417587574e-05
responsible 3.25244508716e-05
household 0.0
apparent 0.000102669674726
munich 0.0
alternate 0.000107086475316
expressed 4.84240052037e-05
movement 5.32218139833e-05
declared 8.72713987407e-05
hundreds 0.0
information 0.000242915021114
easily 0.000146741653667
untreated 0.0
october 2.78522572853e-05
quantify 0.0
scales 0.0
investigating 4.79778035574e-05
innovation 0.000168404250153
perspective 0.000323783301943
rivals 0.0
interests 0.00030057843747
toledo 0.0
extraordinary 6.7342520948e-05
gingrich 0.0
describing 4.73267571118e-05
eliminate 0.0
obligation 5.53773226443e-05
gender 0.000145720643362
committee 0.000293634107095
preventing 0.0
numerous 5.77559919568e-05
unusual 0.0
improving 0.0
practices 4.58858560165e-05
cemetery 0.0
questioned 0.0
affecting 5.35432376582e-05
ferrell 0.0
genius 0.0
warren 4.58858560165e-05
organizers 0.0
regularly 0.0
ceilings 0.0
sexism 0.0
prepared 0.0
burden 0.0
foreignpolicy 0.0
county 7.36072454309e-05
uniform 0.0
newyorker 0.0
anthony 0.0
reflecting 0.0
grandson 0.0
banning 0.000179668482364
considered 0.000339602450345
chosen 0.0
outright 5.63620767375e-05
screenings 0.0
naming 0.0
conventions 0.0
reproductive 0.0
ignores 0.0
focusing 4.21010625382e-05
sensible 0.0
concluded 6.17403362369e-05
performed 0.0
divide 4.29389563853e-05
dismissed 5.35432376582e-05
compromise 0.0
crucial 0.0
weakness 4.64906277737e-05
barrier 9.82253834637e-05
effective 0.0
wealth 4.29389563853e-05
underway 0.0
israel 0.0
overwhelming 0.0
assault 3.81018064003e-05
citing 0.000148042999552
protection 0.000207293871153
prisoners 0.0
photographing 0.0
traveled 0.0
holder 0.0
seemed 0.000107468768279
concludes 0.0
determination 0.0
tested 4.02235888645e-05
lacking 0.000159760129459
machine 0.000241540427883
honoring 0.0
contrary 0.0
tolerance 0.0
michelle 0.0
assumed 4.79778035574e-05
programs 0.0
closely 0.0
politico 0.0
inspire 3.38870793124e-05
lyrics 0.0
judges 0.000113904303793
federal 0.0
maryjblige 0.0
tuning 4.39934592773e-05
striving 0.0
poland 0.0
september 0.0
manchester 0.0
checks 0.000115525231377
remarkable 0.0
mharrisperry 0.0
immoral 0.0
fiction 0.0
process 0.000355205702391
anxious 0.0
destructive 0.0
nmaahc 0.0
performances 0.0
whitehouse 0.0
flotus 0.0
crisis 3.05952512717e-05
marriage 0.0
emotions 0.0
confidence 3.11545879116e-05
voters 3.41052698339e-05
comparing 4.39934592773e-05
oldest 0.0
empirefox 0.0
chancetherapper 0.0
songwriter 0.0
literally 0.000270703573967
onstage 0.0
believing 0.0
hillaryclinton 0.0
citizenship 0.0
counted 0.0
hillaryfornc 0.0
raleigh 0.0
discusses 0.0
johnlegend 0.0
apprentice 0.0
acknowledge 0.0
conservative 3.6929687505e-05
economists 0.0
buzzfeed 7.92704908885e-05
puppet 0.000110119267329
hombres 0.0
republic 0.0
homecoming 0.0
andersoncooper 0.0
muslims 0.0
katyperry 0.0
bragging 0.0
treats 0.0
qualified 0.0
islamophobia 0.0
debates 0.0
endorsements 0.0
counts 0.0
theellenshow 0.0
festival 2.92621911724e-05
encouraged 0.0
stylish 5.63620767375e-05
disregard 6.40789346223e-05
jtimberlake 0.0
backstage 0.0
barack 0.0
joined 0.0
terrorism 0.000198176227221
pushing 0.0
hopeful 0.0
mentions 0.0
teamed 5.26860482433e-05
exclusively 4.082989972e-05
aliciakeys 0.0
kingjames 0.0
muhammad 5.10752893844e-05
refused 8.45316728207e-05
characters 3.17301394462e-05
express 6.1559903117e-05
gratitude 0.0
ugliest 0.0
throughout 3.15364292498e-05
awkward 3.31417587574e-05
shining 0.0
fighter 0.0
accepting 3.64301608404e-05
applemusic 0.0
reveal 2.90059922933e-05
stands 2.76135152788e-05
native 0.0
announce 4.62080447582e-05
dorothy 0.0
haters 0.0
jessetyler 0.0
shondarhimes 0.0
lavernecox 0.0
broadway 0.0
disabilities 0.0
adoption 5.57001775244e-05
touched 0.0
corruption 0.0
violence 5.83528474116e-05
leedanielsent 0.0
delivered 6.46457482774e-05
jasmine 0.0
independence 3.59428937448e-05
square 5.38280895047e-05
alongside 0.0
privilege 0.0
secondary 0.0
staggering 0.0
seventh 0.0
tennis 0.0
sweeping 0.0
footage 0.0
overseas 4.36356993704e-05
spoiler 0.0
theirs 0.0
offering 0.000131735398629
construction 0.0
spends 0.0
detail 0.00010966160779
cabinet 8.01497210924e-05
earnings 5.9648388696e-05
pleased 3.2830705853e-05
gravity 0.0
statements 0.0
decade 0.0
bigotry 0.0
belong 0.0
trillion 0.0
backed 7.89816876134e-05
operations 4.95854554391e-05
breakthroughs 0.0
values 0.0
senator 0.0
removing 4.73267571118e-05
wondered 0.000230231690968
introduces 0.0
makers 0.0
measured 9.68480104073e-05
pillars 0.0
instrument 0.0
shares 0.0
individual 0.000100692673297
applications 4.56882908278e-05
prepares 0.0
ceremony 0.0
expanding 0.0
merger 0.0
newspaper 0.000111552732115
detailed 0.0
tuition 0.0
childcare 0.0
thoroughly 0.0
adviser 0.0
matthew 0.0
affected 9.20621599397e-05
newspapers 0.000134751361773
corporate 0.000168404250153
economy 0.000342152708779
presenting 3.7835290484e-05
spoken 3.32465354525e-05
richer 5.60283690899e-05
during 0.0
combat 4.1297100985e-05
touting 0.0
competitive 0.0
prominence 0.0
trifecta 0.0
fashioned 0.0
boasts 0.0
ripped 0.0
belief 0.000110789062515
heroes 0.0
disturbing 4.21010625382e-05
russians 0.0
intelligence 0.000108921655256
deepest 4.58858560165e-05
regrets 0.0
complicated 3.57036723252e-05
internships 0.0
adults 0.0
describe 8.65110341353e-05
equality 0.0
announcement 0.0
interfere 0.0
terrifying 0.0
nationwide 0.0
manager 0.0
questionable 0.0
enhanced 0.0
services 0.000171076354389
delighted 8.29106201803e-05
golfer 0.0
regarding 0.000294428981724
teachers 0.0
suggests 0.000257625359008
phrase 0.0
immigrants 0.0
revolution 0.0
universities 0.0
twelve 0.0
principle 0.0
releases 3.66783532927e-05
malarkey 0.0
library 7.48842131865e-05
advisor 9.25739671022e-05
deadlines 5.88696560377e-05
encouraging 3.9205153444e-05
circuit 5.41359723507e-05
humanitarian 0.0
reliant 0.0
assistance 0.0
swimmer 0.0
hinges 0.0
concrete 0.0
accepted 6.6493070905e-05
confronted 0.0
comprehensive 9.33927646734e-05
pushed 3.86458168042e-05
unending 0.0
occasionally 0.000150949205828
guardia 0.0
donation 0.0
nomination 0.0
paintings 0.0
significantly 5.47469478692e-05
investment 0.000115115845484
terror 0.000149768426373
worship 0.0
represents 8.165979944e-05
attempting 0.0
bullying 0.0
astonishing 0.0
endorse 4.31108634128e-05
urgent 0.0
forced 0.000183021248796
addressing 4.24319891594e-05
script 0.000114305419201
hundred 0.0
command 4.39934592773e-05
qualifies 6.73057703377e-05
stumbled 6.04589150162e-05
territory 0.0
balloons 0.0
objects 5.53773226443e-05
latimes 0.0
pandemics 0.0
separating 0.0
pentagon 5.92552048053e-05
threats 0.000194617577819
prisons 0.0
approaching 0.0
generous 3.7835290484e-05
roughly 4.91126917319e-05
commands 8.10683030173e-05
uncovered 0.0
destroying 0.0
opposition 0.000120670766593
addiction 0.0
manhattan 0.0
ridiculously 0.0
awarded 0.0
greeted 0.0
forces 0.000129291496555
confirm 3.23228741387e-05
dealings 0.0
nations 0.0
equivalent 0.000125812934535
sexist 0.0
yahoonews 0.0
bloody 7.54067243474e-05
boundaries 0.000107674786451
exceptionally 0.0
cannon 0.0
feared 0.000101638181011
significance 0.0
recommendation 0.0
chapters 0.0
racial 0.0
obvious 0.000235698823318
statistics 0.0
military 6.19327722912e-05
adopted 4.39934592773e-05
housing 0.0
clearer 0.0
calculator 0.0
underwater 0.0
guided 0.0
rescue 0.0
deserving 0.0
advised 0.0
ordered 2.92621911724e-05
unions 0.0
avoiding 0.0
alicia 0.0
preserve 0.0
balloon 0.000106506752972
economic 0.0
recipe 0.0
awaits 0.0
squarely 0.0
radical 4.16147899648e-05
banter 0.0
spaces 4.84240052037e-05
carnival 5.92552048053e-05
theories 0.0
bombing 0.0
products 0.0
margaret 4.86509235324e-05
gathered 0.0
taxpayers 0.0
admits 0.0
opposed 3.97807049787e-05
pressing 0.0
russia 3.08729500313e-05
lincoln 0.0
intelligent 0.0
momentum 0.0
olympic 0.0
magnificent 0.0
heritage 4.71144006743e-05
beijing 0.0
beloved 0.0
dummies 0.0
pursuit 0.000146641395757
carries 5.10752893844e-05
phelps 6.35886594005e-05
medals 0.0
gymnastics 0.0
summed 0.0
accuse 0.0
symbol 4.86509235324e-05
dignity 0.0
slogans 0.0
priorities 0.0
applied 0.000124844369894
progressive 0.0
activists 0.000183543424066
elected 0.0
brussels 0.0
subscribe 3.90638351418e-05
elections 4.00748605462e-05
unites 0.0
complacency 0.0
imperative 0.0
doorsteps 0.0
voices 0.0
blatant 0.0
democracy 0.0
disastrous 0.00015400451209
rebuild 4.79778035574e-05
accuses 0.0
diplomacy 0.0
hardball 0.0
attacking 3.83719484947e-05
subtle 9.42288013485e-05
barker 6.97909017694e-05
sticking 3.89235155638e-05
openly 0.0
policing 0.000120099032461
embarrassed 0.0
slightest 7.50664746982e-05
abbott 0.0
attacks 0.000224170065096
commit 8.10488600775e-05
argued 5.18643390799e-05
remarks 0.0
democratic 0.0
semitic 0.0
incomes 0.0
treasury 5.13348373632e-05
alarming 0.0
dividing 0.0
reject 0.0
affirming 0.0
quitting 0.0
extended 0.0
reducing 9.59556071148e-05
proudly 0.0
inclusive 0.0
oppose 4.4542484238e-05
distinctly 0.0
urging 5.15978231635e-05
strengthen 5.03164019428e-05
deliver 9.46092877493e-05
obligations 0.0
relations 0.000315749863507
repeal 0.0
strengths 0.0
counties 5.73982320499e-05
weakened 0.0
reckless 4.84240052037e-05
prosperous 0.0
servant 0.0
secretaries 7.68727318765e-05
negotiator 0.0
faults 0.0
choking 0.0
executive 6.62835175147e-05
alternative 0.000133831049253
extend 8.69184161917e-05
republicans 0.0
embodied 0.0
preparation 4.60854068182e-05
terrorists 0.000229429280082
confident 0.0
weapons 7.75683613854e-05
unifying 0.0
outrage 0.0
constitutional 4.84240052037e-05
rental 0.0
prevail 0.0
resilient 0.0
humbled 0.0
courage 0.0
commander 5.18643390799e-05
respecting 0.0
enormous 0.0
aligned 0.0
consent 0.0
refusing 0.0
resentment 0.0
substance 0.0
claiming 0.000123891302955
lamont 0.0
dropping 3.00512408679e-05
carried 0.0
intimidated 0.0
behalf 3.57036723252e-05
meaningful 4.32842718308e-05
amendment 0.00011847253142
accepts 0.0
legislation 0.000125326683566
fairer 0.0
commitments 0.0
handling 4.52989619293e-05
proves 0.0
rhetoric 4.66963823367e-05
hardest 0.0
peddling 6.91398553238e-05
divisive 0.0
strongly 7.86949695787e-05
vision 8.83045368935e-05
investigations 5.70468045103e-05
repeatedly 4.47289188251e-05
records 3.01408804677e-05
madeleine 0.0
disabled 9.50828186783e-05
quoting 4.75414093392e-05
assassination 0.0
beaten 0.0
deeply 0.000192739940022
grievance 0.0
contempt 0.0
standards 0.0
fairness 0.000187617165748
dictated 0.0
consensus 0.0
reconsider 0.0
priority 7.67438969894e-05
rogers 0.0
freedoms 5.47469478692e-05
notorious 0.0
invested 0.0
propaganda 4.73267571118e-05
unconstitutional 0.0
condemn 0.0
concerned 0.0
praising 0.0
cheered 0.0
realdonaldtrump 0.000311953252717
despicable 0.0
straightforward 6.00495162306e-05
bargain 5.44391101114e-05
attorney 0.0
bedrock 0.0
optimism 0.0
belongs 0.0
truman 0.0
whichever 0.0
inappropriate 4.9826126721e-05
beatings 8.4923297409e-05
optimistic 0.0
campaigned 0.0
allies 0.0
governor 0.0
attempts 3.90638351418e-05
extent 4.88804652524e-05
denial 8.55370499456e-05
maximum 0.0
merely 0.000268373512951
apprenticeships 0.0
agreeing 0.0
architect 0.000246961344948
responsibility 3.27280950942e-05
mainstream 8.94578376503e-05
legitimacy 0.0
injustice 0.0
dozens 4.51071233582e-05
donnell 0.0
scenario 0.000128816869156
crimes 4.41747859955e-05
thoughtful 0.000110789062515
hypocrisy 0.0
undocumented 0.0
sexually 0.0
richest 0.0
softening 0.0
implies 0.0
infrastructure 0.000140712874311
pitching 5.32533764862e-05
broadband 0.0
tenants 0.0
allegations 0.0
bloomberg 0.0
insulting 0.0
liberal 0.0
kremlin 0.0
podium 5.73982320499e-05
provoke 0.0
outrageous 0.0
campaigns 0.0
barriers 9.68480104073e-05
powell 0.0
technical 0.000124844369894
warnings 0.000214172950633
flagged 0.0
grassroots 0.0
extremist 6.50973700428e-05
businesses 3.90638351418e-05
welcomes 0.0
deputy 0.0
donating 0.0
continually 0.0
ourselves 0.0
fringe 0.0
politician 7.92704908885e-05
wiggins 0.0
welcomed 0.0
rallies 0.0
ballot 4.14553100901e-05
failing 0.000106755401514
uniting 0.0
refuses 4.24319891594e-05
appealing 0.0
proverb 0.0
privileges 7.68727318765e-05
ideals 6.50973700428e-05
vibrant 0.0
tarmac 0.0
residents 4.34592080959e-05
apprenticeship 0.0
denying 0.0
fierce 0.0
opponents 4.31108634128e-05
polling 0.0
apology 3.74421065933e-05
damning 0.0
outline 0.000130194740086
endorses 0.0
losers 4.62869835511e-05
insulted 0.000123480672474
equipped 0.0
battlefield 0.000138279710648
recession 0.0
endorsed 0.0
divides 0.0
describes 0.0
appointed 4.77584075389e-05
encourage 0.000236452136618
undermine 0.000159760129459
undermining 5.81203166308e-05
authority 8.62217268257e-05
betray 0.0
funnyordie 0.0
donated 0.0
jimmykimmellive 0.0
immigrant 0.0
criminals 5.41359723507e-05
automatically 0.0
schooled 0.0
elizabethforma 0.0
releasing 4.11401425577e-05
connects 0.0
screening 0.0
cleaner 0.000107086475316
nowthisnews 0.0
sophiabush 0.0
chelseaclinton 0.0
stunts 0.0
truths 0.0
transparency 0.000130377624288
obamacare 0.0
nickkristof 0.0
contraception 0.0
betting 0.0
conscience 0.0
proclaimed 6.91398553238e-05
dispatch 0.0
advocate 0.0
profits 0.0
toward 0.0
guiding 0.0
senators 9.25739671022e-05
barber 0.0
doubled 0.0
mosque 0.0
senate 4.06765774319e-05
louisiana 0.0
senwarren 0.0
parenthood 0.0
organizations 0.0
generations 0.0
minorities 0.0
misogyny 0.0
peacefully 0.0
decency 5.35432376582e-05
intend 0.0
discourse 0.000116240633262
pennsylvania 0.0
katiemcgintypa 0.0
experiencing 5.29676861236e-05
mccain 0.0
scandal 0.0
constitution 0.0
sensanders 5.84914515047e-05
intolerable 0.0
strive 0.0
forefathers 0.0
abandon 0.0
buzzfeednews 0.0
paulkrugman 0.0
mothers 0.0
compassion 0.0
deeper 0.0
governments 5.0566155395e-05
activism 0.0
jamilsmith 0.0
mike_pence 0.0
elizabethbanks 0.0
empathy 5.38373932257e-05
audited 0.0
checkers 0.0
warming 0.0
volunteering 0.0
charitable 0.0
qualifications 0.0
workplace 0.0
granddaughter 0.0
recycled 0.0
directing 0.0
politifact 0.0
abolish 0.0
murders 0.0
reagan 0.0
pouring 0.0
ballots 0.0
racists 0.0
empower 0.0
tolerate 5.81203166308e-05
chrismurphyct 0.0
igorvolsky 0.0
outraged 0.0
exceptional 0.0
nightmares 0.0
enforcement 0.000285248456035
weaken 0.0
medicaid 0.0
humbly 7.34109213755e-05
newsweek 0.0
conflicts 0.0
suffer 8.32295799296e-05
dallasnews 0.0
bridges 0.0
lesdoggg 0.0
appalling 0.0
hatred 4.22658364103e-05
superpower 0.0
goodbye 3.12493620182e-05
renewable 0.0
robdelaney 0.0
motherjones 0.0
trusted 4.79778035574e-05
sheriff 5.57001775244e-05
personalized 0.0
amnesia 0.0
malala 0.0
problema 0.0
everytown 0.0
casting 5.00697510983e-05
employers 0.0
rudolph 0.0
packets 0.0
organization 3.70565578257e-05
graceful 0.0
hardworking 0.0
cherished 0.0
aggressively 6.13039420187e-05
founding 0.0
sacred 0.0
horrific 8.25942019699e-05
earned 0.0
siding 0.0
minded 0.0
contribute 4.14553100901e-05
incites 0.0
chooses 0.000104816698967
obtained 6.04589150162e-05
defended 0.0
champion 3.16330481151e-05
magazines 0.0
waited 4.16147899648e-05
punished 5.53773226443e-05
conviction 0.0
tradition 0.0
giveaways 0.0
distracted 5.0566155395e-05
endorsing 5.53773226443e-05
pathetic 0.0
ladygaga 0.0
pessimistic 0.0
highlighting 5.13348373632e-05
transgender 5.67014890648e-05
womensmarch 0.0
advisors 0.0
wrecking 0.0
hillaryforva 0.0
registration 0.0
ellemagazine 0.0
acceptance 4.31108634128e-05
defeated 0.0
theroot 0.0
pharrell 0.0
tumblr 0.000107674786451
nevada 0.0
illinois 0.0
massachusetts 0.0
theadvocatemag 0.0
lending 0.0
rejecting 0.0
legalize 0.0
conned 0.0
arkansas 0.0
celebratin 0.0
rubber 0.0
lenadunham 0.0
hateful 5.35432376582e-05
wizard 0.0
unbearable 0.0
harpersbazaarus 0.0
familia 0.0
iamwill 0.0
retweets 4.95854554391e-05
nominating 0.0
vietnam 0.0
laurie 0.0
claimed 8.55370499456e-05
rapids 0.0
devoted 0.0
casino 0.0
astounding 0.0
summon 0.0
crushed 0.0
louder 0.0
farmers 0.0
lin_manuel 0.0
arrangement 0.0
borrowed 0.0
mariska 0.0
purposes 0.000104816698967
dialogue 0.0
comedian 0.0
________ 0.0
lightly 0.0
defeating 0.0
jerusalem 0.0
cynical 0.0
worrying 0.0
elizabeth 0.0
insults 0.0
microphone 0.0
sleeves 0.0
theeconomist 0.0
stakes 4.93476665174e-05
nationally 0.0
inspect 0.000399667074214
poisoning 0.0
columbus 0.0
declaring 0.0
crushing 0.0
chucktodd 0.0
soldier 0.0
painted 0.0
warned 0.0
ohiostate 0.0
unrelated 0.0
designated 6.35886594005e-05
clears 0.0
congressional 0.0
confront 0.0
usatoday 4.77584075389e-05
delivers 0.0
pittsburgh 0.0
entiende 0.0
soaked 0.0
bromance 0.0
lifelong 0.0
antiques 0.0
repjohnlewis 0.0
breakers 0.0
fundraising 0.0
hispanic 0.0
defrauded 0.0
fearful 0.0
nytopinion 0.0
volume 0.000138256220455
perfecting 0.0
washingtonpost 0.0
affordable 0.0
mighty 0.0
normalizing 0.0
boasting 0.0
assaulting 0.0
disqualify 0.0
monique 0.0
jcolenc 0.0
teamusa 0.0
allysonfelix 0.0
usabasketball 0.0
ibtihaj 0.0
simone 0.0
feminism 0.0
conversion 6.00495162306e-05
destiny 0.0
disrespected 0.0
serenawilliams 0.0
tantrum 0.0
heinous 0.0
unconscious 0.0
accomplishments 0.0
saddened 8.38752896898e-05
disgrace 0.0
rodriguez 0.0
arsenal 0.0
defender 0.0
malalafund 0.0
merchandise 0.0
laundry 0.0
lesbians 0.0
cnnpolitics 0.0
nickgass 0.0
examining 0.0
monument 0.0
appeals 0.000208537924697
gracias 0.0
madame 0.0
grande 0.0
speechless 0.0
coulter 0.0
missiles 0.0
psyched 0.0
chelsea 0.0
biases 0.0
resume 0.0
spectator 0.0
angelina 0.0
spectacle 6.85094805487e-05
admiration 0.0
reaches 0.0
español 0.0
dreamers 0.0
mañana 0.0
bursting 0.0
undone 0.0
beyoncé 0.0
nuestra 0.0
diwali 0.0
prestigious 0.0
cynicism 0.0
disability 0.0
registering 0.0
booker 0.0
méxico 0.0
disponible 0.0
honduras 0.0
famously 0.0
overdue 0.0
equity 0.0
opioid 0.0
millennials 5.38373932257e-05
recommendations 0.0
investors 0.0
betrays 0.0
patriotism 0.000121753866708
liability 0.000127177318801
iranian 0.0
delegate 0.0
struck 0.0
millennial 0.0
dictators 0.0
graduate 0.0
analysts 0.0
victor 0.0
shrink 0.0
dictator 5.70468045103e-05
poised 0.0
avoided 0.0
rallying 0.0
catholic 5.26860482433e-05
thriving 0.0
racially 0.0
undermines 0.0
yashar 0.0
inequality 0.0
medicare 0.0
missionaries 0.0
foremost 0.0
deplorable 0.0
demonize 0.0
wikileaks 0.000598830211225
enduring 0.0
privatized 0.0
appoint 0.0
losses 0.0
jbarro 0.0
buffett 0.0
staffers 6.35886594005e-05
takeaway 0.0
moscow 0.0
hampshire 5.81203166308e-05
pandering 0.0
voxdotcom 0.0
reckoning 0.0
moines 0.0
falter 0.0
countless 0.0
democrat 0.0
bostonglobe 0.0
accountable 0.0
dispel 0.0
despair 0.0
persisted 0.0
disclose 6.2642997932e-05
tedcruz 0.0
flooding 0.0
prejudice 0.0
towers 0.0
criticized 0.0
senatemajldr 0.0
outsider 0.0
declare 9.38085828738e-05
dismantle 0.0
thrive 0.0
threaten 0.0
outsourced 8.63947213968e-05
loophole 0.0
heerjeet 0.0
verbal 0.0
businessinsider 0.0
ukraine 0.0
vladimir 0.0
businessman 0.0
supremacist 0.0
etched 0.0
zekejmiller 0.0
momentarily 0.0
perpetrators 0.0
mocking 0.0
wrecked 0.0
identities 0.0
inhumane 0.0
disavow 0.0
hostile 5.03164019428e-05
muster 0.0
surrender 0.0
shatter 0.0
patriotic 0.0
rewarded 0.0
jitters 0.0
bullies 0.0
discipline 0.0
forgets 0.0
expand 0.00017525509419
apologized 0.0
tournament 0.0
grindstone 0.0
mastery 0.0
provider 0.000178945166088
steroids 0.0
jenniferjjacobs 0.0
notion 5.18643390799e-05
hernandez 0.0
mcuban 0.0
bullied 0.0
jebbush 0.0
discriminating 0.0
somali 0.0
hayden 0.0
limitless 0.0
implement 5.26860482433e-05
nydailynews 0.0
corybooker 0.0
interference 0.00010372867816
listens 0.0
preside 0.0
remembers 0.0
toughness 0.0
extensively 0.0
suffered 4.47289188251e-05
streep 0.0
billionaire 0.0
cheats 0.0
needing 5.0566155395e-05
percentage 4.54926721257e-05
insiders 0.0
binder 0.0
prescriptions 7.68727318765e-05
slashed 0.0
indebted 0.0
dismisses 0.0
delegates 0.0
pledged 0.0
endured 0.0
deployed 0.000182630800061
suspense 0.0
courageously 0.0
resilience 0.0
nationalists 0.0
autonomy 0.0
abandoning 0.000130194740086
canvas 0.0
blacks 0.0
pledging 0.0
elaine 0.0
methodist 0.0
candidacy 0.0
bonuses 0.0
resolve 0.0
laughable 0.0
scares 0.0
intellect 0.0
hopeless 6.08769333538e-05
debunked 0.0
shames 0.0
connections 9.29812555474e-05
tyleroakley 0.0
perplexed 7.50664746982e-05
ddlovato 0.0
impromptu 0.0
teenvogue 0.000814358973116
unveils 0.0
billie 0.0
prouder 0.0
sweetness 0.0
cheryl 0.0
filipino 0.0
petersburg 0.0
drastic 0.0
lifesaving 0.0
decorated 0.0
usagym 0.0
freestyle 0.0
absentee 0.0
lashes 0.0
concentration 0.0
refuge 0.0
renaissance 0.0
actively 9.91709108783e-05
monitoring 0.000143933410672
destined 0.0
willfully 0.0
detained 5.67014890648e-05
warmest 0.0
heroic 0.0
bragged 0.0
miners 0.0
shareholders 0.0
randall 0.0
excessive 0.0
geneva 0.0
corporations 0.000175474354514
unsolvable 0.0
grandchildren 0.0
discredit 0.0
enormously 0.0
frances 0.0
pillar 0.0
trillions 0.0
expansive 0.0
organize 0.0
capabilities 0.000205528441646
confederate 0.0
shakers 0.0
ambiguity 0.0
linking 0.000108271944701
pretends 0.0
wireless 0.0
inherit 7.04640217444e-05
paranoia 0.0
theatlantic 0.0
languages 0.0
disposable 6.97909017694e-05
reinforcing 0.0
integrated 0.0
optimist 0.0
pigeons 0.000192236803867
chadhgriffin 0.0
katieledecky 0.0
richards 0.0
demconvention 0.0
abcpolitics 0.0
chobani 0.0
dominiclowell 0.0
floridians 0.0
cecilerichards 0.0
clintonfdn 0.0
billclinton 0.0
grounded 5.77559919568e-05
abilities 6.17403362369e-05
grandfather 0.0
profoundly 0.0
fiercely 0.0
drowning 0.0
astound 0.0
alzheimer 0.0
responders 0.0
peacecorps 0.0
nygovcuomo 0.0
hurricanes 0.0
approximately 0.0
daunting 0.0
organizer 0.0
ingenuity 0.0
illnesses 0.0
intruders 0.0
invading 0.0
harmful 0.0
foundations 0.000133460437606
skateboards 0.0
housekeeping 0.0
dangerously 6.17403362369e-05
renters 0.0
predatory 0.0
rebuke 0.0
jengranholm 0.0
supremacy 0.0
linger 0.0
adamserwer 0.0
clevelanddotcom 0.0
repadamschiff 0.0
fahrenthold 0.0
revoke 7.99334148428e-05
advising 0.0
strengthening 0.0
colleges 0.0
deniers 0.0
aspire 0.0
exceed 6.67302188031e-05
lebassett 0.0
shrugged 0.0
stewardship 0.0
complains 6.40789346223e-05
temperament 0.0
texasinafrica 0.0
americorps 0.0
latino 0.0
payoffs 0.0
protested 0.0
honorable 0.0
fathom 0.0
inconvenience 0.0
johnkasich 0.0
latinos 0.0
votevets 0.0
unsurprising 6.73057703377e-05
loopholes 0.0
dismal 0.0
unqualified 0.0
rigorous 0.0
mittromney 0.0
joyannreid 0.0
theorist 0.0
evan_mcmullin 0.0
discriminate 0.0
ezraklein 0.0
obsessively 0.0
desperation 0.0
latina 0.0
tammyforil 0.0
pantsuit 0.0
superior 0.0
exonerated 0.0
johnpodesta 0.0
recites 0.0
supremacists 0.0
affront 0.0
electing 0.0
defund 0.0
demeans 0.0
govpencein 0.0
squandered 0.0
machado 0.0
pneumonia 0.0
unhinged 7.34109213755e-05
criticizes 0.0
derailment 0.0
iceberg 0.0
epipens 0.0
generals 0.0
timkaine 0.0
provocation 0.0
paulbegala 0.0
clintinfdn 0.0
wesleylowery 0.0
childdefender 0.0
dictatorship 0.0
ceasefire 0.0
stamped 0.0
intimidation 0.0
casinos 0.0
manifest 7.18828493103e-05
restrict 0.000124373075766
transformation 0.0
battleground 0.0
christine 0.0
touted 0.0
mcconnell 0.0
deflect 0.0
expressing 0.0
commonsense 0.0
statesman 0.0
mcbride 0.0
tumble 0.0
bigoted 7.11607647294e-05
belonged 0.0
praised 5.73982320499e-05
policeman 0.0
booing 0.0
cathedral 0.0
tomperez 0.0
keithellison 0.0
knowingly 6.97909017694e-05
wealthiest 0.0
backward 0.0
pretended 0.0
thedemocrats 0.0
psychologists 0.0
americ 0.0
successor 6.04589150162e-05
diplomats 0.0
congratulated 0.0
devotion 0.0
remembrance 0.0
eligible 0.0
incoherent 0.0
exhaustive 0.0
downgraded 0.0
unified 6.21865378832e-05
embraces 0.0
galling 0.0
senatorreid 0.0
lifetimes 8.10683030173e-05
demagogue 0.0
rodham 0.0
temper 0.0
longtime 0.0
vetoing 0.0
janelle 0.0
voguemagazine 0.0
dominique 0.0
surpassed 0.0
associates 0.0
demonstrating 0.0
morning_joe 0.0
bazaar 0.0
consequential 0.0
undressed 0.0
entrepreneurial 0.0
billionaires 0.0
prescription 0.0
senseless 0.0
refresher 0.0
classmates 0.0
maturity 0.0
comentarios 0.0
risked 0.0
invincible 0.0
vigilant 6.67302188031e-05
emissions 0.0
recommit 0.0
voiceless 0.0
natlparkservice 0.0
workplaces 0.0
mayaharris_ 0.0
dhsgov 0.0
cyberattacks 0.000192069091815
maxinewaters 0.0
jerrybrowngov 0.0
discriminates 0.0
thejusticedept 0.0
simone_biles 0.0
sotomayor 0.0
traumatic 0.0
scammed 0.0
dreamer 0.0
fulfill 0.0
latinas 0.0
discouraged 0.0
usnavy 0.0
oftentimes 0.0
reprehensible 0.0
demeaning 0.0
ratified 0.0
emilyslist 0.0
lawsuits 7.04640217444e-05
nonviolent 0.0
caucus 0.0
joebiden 0.0
joyful 0.0
privatize 0.0
barbaraboxer 0.0
sengillibrand 0.0
camino 0.0
familias 0.0
americaferrera 0.0
universidades 0.0
gabbygiffords 0.0
shuttlecdrkelly 0.0
fulton 0.0
shimon 0.0
hablar 0.0
fuerza 0.0
trickle 0.0
refinance 0.0
shattering 0.0
damián 0.0
gouging 0.0
moveon 0.0
simone_manuel 0.0
revdrbarber 0.0
senatorbarb 0.0
cnbcnow 0.0
stiffed 0.0
mikebloomberg 0.0
solver 0.0
thrower 0.0
granddaughters 0.0
changemaker 0.0
clairecmc 0.0
anastasiasomoza 0.0
defunding 0.0
preyed 0.0
aspirations 0.0
fannie 0.0
mubarak 0.0
buzzfeedben 0.0
probed 0.0
marines 0.0
projecting 0.0
outsourcing 0.0
developers 7.04640217444e-05
crimea 0.0
everyo 0.0
chaser 0.0
dubious 0.0
diplomatic 0.0
rosiegray 0.0
unpatriotic 0.0
multifaceted 0.0
myanmar 0.0
adamparkhomenko 0.0
tjmshow 0.0
tenant 0.0
perjury 7.99334148428e-05
contractual 0.0
surrounds 0.0
exceeded 0.0
thrives 0.0
unclerush 0.0
sailors 0.0
stereotypes 0.0
librarycongress 0.0
acknowledging 0.0
philippe 0.0
battled 0.0
postopinions 0.0
ambassadorrice 0.0
shockingly 0.0
mcfaul 0.0
presid 0.0
poisons 0.0
kenvogel 0.0
johndingell 0.0
harnessing 0.0
unwritten 0.0
bewildering 0.0
moonshot 0.0
apologizing 0.0
oligarchs 0.0
espionage 7.26321887173e-05
marcorubio 0.0
desecration 0.0
brianefallon 0.0
bangladesh 0.0
twittermoments 0.000159866829686
officialcbc 0.0
thefix 0.0
urgency 0.0
traceeellisross 0.0
andradaymusic 0.0
impeccably 0.0
catastrophe 0.0
tallest 0.0
anastasia 0.0
azcentral 0.0
marrying 7.04640217444e-05
moderates 0.0
resembles 0.0
paraphrase 0.0
applauds 0.0
heavier 0.0
virginians 0.0
railing 0.0
eloquently 0.0
denverpost 0.0
independents 0.0
americanos 0.0
hispanos 0.0
bailouts 0.0
divisiveness 0.0
jmpalmieri 0.0
hardballchris 0.0
republicano 0.0
candidato 0.0
phillyinquirer 0.0
jesserodriguez 0.0
militarytimes 0.0
sunsentinel 0.0
ryanlizza 0.0
bretbaier 0.0
thelastword 0.0
hillaryclinto 0.0
maddowblog 0.0
boundless 0.0
enacting 0.0
gettysburg 0.0
groping 0.0
govchristie 0.0
justices 0.0
watchdogs 0.0
cavalier 7.88599027223e-05
succeeds 0.0
retirees 0.0
pocketed 0.0
multimillionaire 0.0
redcross 0.0
evalongoria 0.0
highways 0.0
marlee 0.0
primero 0.0
pianos 0.0
bribed 0.0
scranton 0.0
wellesley 0.0
perkins 0.0
onward 0.0
algore 0.0
candidly 0.0
trajectory 0.0
quitter 0.0
objectifying 0.0
ignoramus 0.0
disillusioned 0.0
asinine 0.0
vibrancy 0.0
arpaio 0.0
testifying 0.0
chairmen 0.0
luchar 0.0
disrupted 0.0
podemos 0.0
settlements 0.0
massacres 0.0
millones 0.0
eagerly 0.0
grandmas 0.0
dedicado 0.0
seeming 0.0
pragmatic 0.0
hashanah 0.0
porque 0.0
unidos 0.0
nuestras 0.0
primera 0.0
debemos 0.0
muchos 0.0
cuando 0.0
nuestro 0.0
inteligente 0.0
rapists 0.0
agosto 0.0
presidente 0.0
puedes 0.0
mujeres 0.0
safeguarding 0.0
indecent 0.0
motions 0.0
strengthened 0.0
eminently 0.0
innuendo 0.0
memorandum 0.0
reuterspolitics 0.0
educates 8.63947213968e-05
mexicana 0.0
disparage 0.0
absurdity 0.0
backdoor 0.000172789442794
affording 0.000101746513055
hardline 0.0
steelworkers 0.0
demean 0.0
immigrate 0.0
thuggish 0.0
astrid 0.0
jesuit 0.0
governorship 0.0
waterboarding 0.0
personas 0.0
stephenson 0.0
huracán 0.0
firefighter 0.0
ravages 0.0
marleematlin 0.0
scrolling 7.68727318765e-05
tarnish 0.0
ajentleson 0.0
roanoke 0.0
heaping 0.0
carpentry 0.0
forcefully 0.0
frankiejgrande 0.0
aprildryan 0.0
unjustified 0.0
yamiche 0.0
evacuate 0.0
disrespects 0.0
incomprehensible 0.0
jogger 0.0
vindicated 0.0
blazed 0.0
cambodia 0.0
revolutionize 0.0
welding 0.0
unbeatable 0.0
polished 7.50664746982e-05
saddled 0.0
interdependence 0.0
alleys 0.0
civility 0.0
vilified 0.0
disagreeable 0.0
terence 0.0
bluster 0.0
incredib 0.0
holton 0.0
hillaryforpa 0.0
hillaryforco 0.0
jes_chastain 0.0
vitalvoices 0.0
indictments 0.0
evokes 0.0
reaffirming 0.0
rebukes 0.0
minerva 0.0
peddle 0.0
starker 0.0
cascading 0.0
carolinians 0.0
señora 0.0
honrado 0.0
missionary 0.0
ranchers 0.0
denveropinion 0.0
practicality 0.0
thoughtfulness 0.0
scripture 0.0
pueblo 0.0
morningmoneyben 0.0
smalls 0.0
exemplify 0.0
eviscerated 0.0
jeffflake 0.0
helpless 0.0
sarahemcbride 0.0
indivisible 0.0
colinjones 0.0
mrjoshcharles 0.0
houstonchron 0.0
thoroughness 0.0
isolde 0.0
wonkiest 0.0
equate 7.78414673019e-05
dustbin 0.0
estados 0.0
newrepublic 0.0
expresses 0.0
demonizing 0.0
jeffbezos 0.0
discard 0.0
befriending 0.0
slovenia 0.0
unrelenting 0.0
salmahayek 0.0
revolves 0.0
anselm 0.0
dwells 0.0
usairforce 0.0
deride 0.0
repackaging 0.0
earmarked 0.0
evader 0.0
passpor 0.0
awaited 0.0
guterres 0.0
precinct 0.0
presidencia 0.0
unshakable 0.0
marshablackburn 0.0
comunidad 0.0
merecen 0.0
juntos 0.0
infomercial 0.0
johnstown 0.0
statewide 0.0
skyscrapers 0.0
phillydotcom 0.0
deducted 0.0
laguardiacc 0.0
annieslisttx 0.0
nickmerrill 0.0
leaninorg 0.0
missbeae 0.0
minassianmedia 0.0
natarsha 0.0
foments 0.0
ruline 0.0
steininger 0.0
michaelnutter 0.0
harren 0.0
louisa 0.0
cannell 0.0
robbymook 0.0
broward 0.0
hillaryforfl 0.0
jeanneshaheen 0.0
ericasmegs 0.0
jeremyshorr 0.0
turpin 0.0
rubycramer 0.0
singularly 0.0
joshschwerin 0.0
clionamccarney 0.0
xochitlhinojosa 0.0
adamsmith_usa 0.0
humayun 0.0
jamestaylor_com 0.0
hillaryformn 0.0
ericwms 0.0
dougmillsnyt 0.0
jencarlosmusic 0.0
hannahbfine 0.0
creynoldsnc 0.0
lefsadventures 0.0
pembroke 0.0
perceptiveness 0.0
hillaryforaz 0.0
fayetteville 0.0
entrust 0.0
daveeddiggs 0.0
petewilliamsnbc 0.0
hillary_esp 0.0
ustedes 0.0
nación 0.0
creativa 0.0
bilingües 0.0
multilingües 0.0
contribuyen 0.0
diversidad 0.0
economía 0.0
hillaryforia 0.0
estaré 0.0
discurso 0.0
síganme 0.0
detall 0.0
hopewell 0.0
temperamentally 0.0
redone 0.0
barging 0.0
machadooficial 0.0
mikereedschmidt 0.0
franklinfoer 0.0
eamonjavers 0.0
hillaryforoh 0.0
hustling 0.0
relishes 0.0
markkirk 0.0
asmamk 0.0
just_jenna 0.0
discrimina 0.0
samifayebaker 0.0
padded 0.0
wigazette 0.0
phillytrib 0.0
trivializes 0.0
condones 0.0
ellisoncampaign 0.0
barb_kinney 0.0
theriveterspod 0.0
humiliates 0.0
nickmarroletti 0.0
alli_wilber 0.0
brespolitico 0.0
jasoncherkis 0.0
sean_p_thomas 0.0
outclassed 0.0
outmaneuvered 0.0
belittling 0.0
familie 0.0
yuuuuuuge 0.0
disqualifying 0.0
brynnecraig 0.0
buffywicks 0.0
lasvegassun 0.0
cmichaelhuntley 0.0
civically 0.0
raquelwillis_ 0.0
celebramos 0.0
trayectoria 0.0
pionera 0.0
breakups 0.0
rosenbergerlm 0.0
heraldleader 0.0
jaylon 0.0
decisi 0.0
antónio 0.0
squander 0.0
presidenta 0.0
protegerá 0.0
astrid_nv 0.0
sltrib 0.0
peter_j_k 0.0
brosandprose 0.0
nicholaskitchel 0.0
mahoning 0.0
omerizer 0.0
kendallybrown 0.0
davidnakamura 0.0
chatima 0.0
tammybaldwin 0.0
mpshapiro 0.0
responsibilit 0.0
overgrown 0.0
literally_trump 0.0
imploded 0.0
rnicholasburns 0.0
disastrously 0.0
stiffing 0.0
globeopinion 0.0
degradi 0.0
languishing 0.0
demostrar 0.0
poderosa 0.0
iammarleydias 0.0
tbtimes_opinion 0.0
disloyalty 0.0
defende 0.0
vegalteno 0.0
moodysinvsvc 0.0
decisiveness 0.0
whethe 0.0
preocupada 0.0
trayecto 0.0
afectados 0.0
ayotte 0.0
empathize 0.0
lifelo 0.0
lorellapraeli 0.0
ironworking 0.0
ebeling 0.0
contribuido 0.0
ejército 0.0
inmigrantes 0.0
indocumentados 0.0
enquirer 0.0
delega 0.0
roadshow 0.0
sunsentinelopinion 0.0
resulta 0.0
insultar 0.0
construir 0.0
muralla 0.0
provoked 0.0
discretion 0.0
sdutideas 0.0
merece 0.0
respeto 0.0
enfrentar 0.0
valentía 0.0
ataques 0.0
descaro 0.0
culparla 0.0
petulance 0.0
ninhaitseng 0.0
flippantly 0.000115509045734
posteverything 0.0
_vicentefdez 0.0
azcopinions 0.0
aumentó 0.0
andrewjenks 0.0
imwithher 0.0
diferencias 0.0
onevoxdotcom 0.0
ignite_national 0.0
endorsin 0.0
mercersdairy 0.0
everyvoice 0.0
rachaelgass 0.0
galifianakis 0.0
crutcher 0.0
nyledimarco 0.0
mistreat 0.0
wellsfargo 0.0
templeuniv 0.0
sollender 0.0
honremos 0.0
tantas 0.0
contribuciones 0.0
aleatha 0.0
endeavored 0.0
legitimize 0.0
además 0.0
whistles 0.0
ugliness 0.0
jorge_silva 0.0
dnclatinos 0.0
libnofcongress 0.0
unscrupulously 0.0
contractually 0.0
impulsively 0.0
qaddafi 0.0
cancelable 0.0
cnbcopinion 0.0
jbrotherston 0.0
_bxddxss 0.0
sspiderboy 0.0
collegedems 0.0
veered 0.0
charitynav 0.0
usnewsopinion 0.0
humansofny 0.0
unfitness 0.0
steadiness 0.0
nbcusa_inc 0.0
verdadera 0.0
encuentra 0.0
hacemos 0.0
anuncio 0.0
unpresidential 0.0
unfavorably 0.0
heridas 0.0
visibles 0.0
veteranos 0.0
cuidado 0.0
panetta 0.0
experiencia 0.0
confío 0.0
exsecretario 0.0
comercio 0.0
lizromanoff 0.0
americasvoice 0.0
davidleopold 0.0
rebuked 0.0
criminalize 0.0
mentiré 0.0
inmigración 0.0
demonizar 0.0
americanlegion 0.0
sarasolow 0.0
qumber 0.0
zerlinamaxwell 0.0
hillaryforut 0.0
hillaryforga 0.0
grandtetonnps 0.0
marlondmarshall 0.0
mariatcardona 0.0
escuchamos 0.0
claramente 0.0
demonizando 0.0
segunda 0.0
tercera 0.0
rhettbuttle 0.0
hillaryformi 0.0
futuramics 0.0
louisianans 0.0
claressashields 0.0
helen_maroulis 0.0
bri_rollin 0.0
itspooda 0.0
kristihollywood 0.0
meredeetch 0.0
kersee 0.0
rodhams 0.0
bidens 0.0
possibilitie 0.0
maulama 0.0
akonjee 0.0
shotdiva 0.0
auriemma 0.0
maxlinsky 0.0
cowering 0.0
moratory 0.0
hillarycl 0.0
repudiate 0.0
fencer 0.0
bankruptcies 0.0
warrenbuffett 0.0
bishopgarrison 0.0
ajazzyworld 0.0
morell 0.0
starkest 0.0
braille 0.0
frankmugisha 0.0
confiar 0.0
distinguido 0.0
herencia 0.0
harkening 0.0
impulses 0.0
dakota_meyer 0.0
kauveri 0.0
iafftreg 0.0
laurawalkerkc 0.0
jakesherman 0.0
benediction 0.0
denigrates 0.0
ann_oleary 0.0
liberates 0.0
bombast 0.0
repcleaver 0.0
throwed 0.0
luchado 0.0
derechos 0.0
humanos 0.0
trabajadores 0.0
relent 0.0
aprendí 0.0
valores 0.0
trabajo 0.0
mismos 0.0
annella 0.0
drbiden 0.0
expedient 0.0
imangelabassett 0.0
smegielski 0.0
leinonen 0.0
driffin 0.0
buckles 0.0
insatiably 0.0
sybrina 0.0
mcbath 0.0
dontre 0.0
randibrazeau 0.0
sjbxtr 0.0
malcolmkenyatta 0.0
lankford 0.0
countrymen 0.0
countrywomen 0.0
refiere 0.0
separar 0.0
valiente 0.0
strongmen 0.0
seremos 0.0
compañeros 0.0
bienvenidos 0.0
dauntless 0.0
governorva 0.0
sherrodbrown 0.0
vicepresidencia 0.0
ilyseh 0.0
gunsense 0.0
encantada 0.0
anunciar 0.0
splintering 0.0
albamonica 0.0
criminologist 0.0
construiremos 0.0
discriminatio 0.0
endorser 0.0
sniveling 0.0
ryanegraney 0.0
baptize 0.0
convención 0.0
republicana 0.0
