chatting 0.0
trying 0.000377153221372
launch 0.000138734657777
moment 0.000530868900089
wonderful 8.47298796586e-05
seeing 0.000309968596391
recommend 0.000112272570485
anybody 0.0
podcast 0.0
challenges 0.0
worked 4.07866014784e-05
direct 5.340696262e-05
others 8.11329554928e-05
currently 0.000179460669406
better 0.00104470420215
please 0.000605074006037
travels 0.0
social 0.0
around 0.000522352101073
people 0.0011939476596
leaving 0.000213560100701
morning 0.0028134408901
general 9.66949253955e-05
overall 6.55606645537e-05
damage 0.0
affect 0.0
everything 0.000412637997215
twitter 0.000564206938695
present 4.27120201402e-05
though 0.000742157784613
friend 0.000867452409155
watched 0.000254189638976
beautiful 0.00166159346235
anything 0.000228745274485
practice 0.00493378425226
helped 8.22384828053e-05
helpful 0.0
revive 0.0
updated 5.96258233075e-05
thinking 0.000306642802486
finally 0.000268312452175
caught 8.44999203742e-05
believe 0.00134681646639
already 0.000785642938728
orlando 0.0
depends 0.000112272570485
chance 0.000450150542416
meaning 0.0
annual 0.0
renewed 0.0
growing 4.49885091642e-05
probably 0.000203381886395
should 4.95844002083e-05
changed 0.000240780530359
history 0.000154566833707
center 0.000491675147052
museum 0.0
behind 0.000596973829798
pretty 0.000958258757769
really 0.00255085307369
expensive 6.45036288636e-05
little 0.00224469411065
earlier 0.000219464211231
forget 0.000228129413888
paperwork 0.0
someone 0.000605074006037
mostly 0.0
worker 0.0
safety 0.0
program 0.0
things 0.000335797779261
electrical 0.0
visiting 5.17416983752e-05
available 3.89556866977e-05
perfect 0.000507792168419
different 0.000228745274485
search 5.01475937598e-05
connect 0.0
numbers 0.0
person 0.000451365550956
watching 0.00214977336182
passed 9.14744945745e-05
minutes 7.74921490977e-05
daughter 0.0
average 5.37178882891e-05
positive 0.000133492708966
outside 0.000396987441167
metric 0.0
looking 0.00127199332937
forward 0.000847827935321
raising 0.000214248406291
afraid 0.0
impression 0.000137848559812
profile 0.000102600289062
drawing 0.0
favorite 0.00121897034553
picture 0.000518879307981
historic 0.000113278721397
instead 4.22499601871e-05
appreciate 8.82671166703e-05
husband 0.000175632819753
international 0.000417355939398
toddler 0.0
couldn 0.000390609360323
remember 0.00056268817802
holidays 0.000374934711009
friends 0.00094288305343
despite 0.0
understood 0.0
impossible 0.0
everyone 0.00236329034768
florida 0.00016593783721
always 0.00186554321812
months 0.00035249834792
moving 0.00012104293521
meeting 3.84338479204e-05
google 0.0
answer 0.000538073870886
together 0.000300910367304
included 0.000114298624226
inside 7.81218720645e-05
section 5.76663300538e-05
missed 0.000570323534719
button 0.0
active 0.000120729352897
longer 0.0
enough 0.000265434450045
projects 0.0
driving 0.000229317554541
building 4.21353337855e-05
enjoying 0.000550362130898
kennedy 0.0
tantrums 0.0
apparently 9.66949253955e-05
recent 0.0
gotten 0.000501386409953
amazing 0.00329221802895
determined 0.0
attention 0.0
progress 0.0
tomorrow 0.00386379215574
whenever 6.16939572413e-05
curious 0.0
george 0.0
feeling 0.00113889755831
excited 0.00301581919887
campaigning 0.0
understand 0.000122691456806
learning 0.0
special 0.000605074006037
secret 0.000210105292304
across 0.0
comparison 0.0
surprised 8.94844638752e-05
anymore 0.000143431819399
spirited 0.0
precious 0.0
rejoice 0.0
rather 0.0
showing 0.000400217839213
saying 0.000156665932409
tweeted 0.0
updates 5.45067308724e-05
thoughts 0.000477673363015
exactly 0.000121699433239
except 0.0
getting 0.00191313980527
nothing 0.000375125452013
tweets 0.0
course 0.000736175416428
photos 0.00031752700062
looked 0.000212979837957
difficult 4.9444920179e-05
office 0.000243398866478
decisions 0.000113278721397
brought 4.15674253426e-05
biggest 0.00011592512528
thrilled 0.0
entire 0.0
something 0.000412637997215
closing 0.0
anyone 0.000907611009056
taking 0.000600200723221
reprint 0.0
flying 0.000282901319675
happening 0.000204485761343
sometimes 0.000248055962518
lessons 5.43476224677e-05
village 7.53068406161e-05
stopped 4.40130061645e-05
yesterday 0.00109669663594
service 0.000123692351043
serious 0.00012039026518
emails 0.0
wearing 0.000352104049316
afford 0.0
either 8.17943045371e-05
second 0.000605074006037
checking 0.0
volunteers 0.0
indeed 0.0
hearing 8.38142641378e-05
choose 4.41335583352e-05
another 0.00160869744597
address 0.0
display 6.70927041181e-05
compare 0.0
weekend 0.00030417255185
suggested 0.0
appear 0.0
anyway 4.84828924811e-05
theory 0.0
buildings 0.0
working 0.000487663087617
bigger 8.8026012329e-05
treated 0.0
admired 0.0
retirement 0.000286396670897
laughing 0.00480573752277
wanted 0.000379192071492
current 0.0
grateful 0.0
friendship 0.000440441808173
family 0.00116288890124
listening 8.22384828053e-05
stream 5.15939323826e-05
sharing 8.82671166703e-05
double 0.000339842199168
especially 0.00033253940274
middle 0.000129187078406
waiting 0.000192169239602
definitely 0.000984192758171
walking 0.000179954036657
account 0.0
completely 0.000177990278621
thought 0.000756342507547
accept 4.79440980733e-05
possible 0.000277891208817
simple 0.0
manufacturing 0.0
destroyed 0.0
members 0.0
supposed 0.000199459737378
manufacturers 0.0
business 0.00012137070292
absolutely 0.000280910618752
anywhere 0.000150017989145
sending 0.00017413862079
introducing 6.01785869638e-05
congrats 0.00114197583938
beauty 5.37178882891e-05
community 0.0
greatest 4.10080315905e-05
posted 8.8751675053e-05
wednesday 0.000180945691185
explain 0.0
broken 4.65013189926e-05
fairly 0.0
closest 0.0
hoping 9.02245201431e-05
relationship 5.04324109014e-05
actually 0.000384338479204
pockets 0.0
wallet 0.0
pocket 6.42957683575e-05
argument 0.0
decent 0.000199945565746
school 0.000228745274485
throwback 0.000240153330365
thursday 0.00112364247501
talented 0.0
discuss 9.66949253955e-05
celebrate 0.000290184115411
celebrating 0.000223711159688
anniversary 0.000136083000266
students 0.0
corners 0.0
internet 0.000139890598444
figure 0.000134595502054
opened 5.4826997769e-05
inspired 4.53610000885e-05
latter 0.0
sitting 0.000211824699146
playing 0.00304993699314
street 0.000124702276028
points 0.00028846841403
advice 4.40130061645e-05
memory 0.000103780103816
forever 0.000127094819488
congress 0.0
imagine 8.35871049708e-05
problem 0.000281670957137
pulling 0.000127766978837
furniture 0.0
keeping 0.000586699848964
dressed 0.000242206794867
chinese 0.000242206794867
unlike 0.0
allowed 0.0
otherwise 5.32524660665e-05
afternoon 0.000794404050033
planned 0.0
images 0.0
noticed 0.0
expense 0.0
differences 0.0
difference 0.000123024094771
editor 0.000123387914483
intent 0.0
suppose 7.21068063627e-05
inspiration 0.000308680495769
letting 4.61173272908e-05
system 4.68893037472e-05
almost 0.000187562726007
details 0.000123024094771
experience 0.000313331864818
living 7.83329662045e-05
worries 6.59920088302e-05
weather 0.000479440980733
bright 0.000263963890723
understands 7.82006053779e-05
normal 0.000150869191674
launching 0.000122236913842
backyard 0.0
pointed 0.0
before 4.0676377279e-05
monday 0.000391664831023
example 4.95844002083e-05
science 0.0
tweeting 4.2828434788e-05
forgot 0.000329136736407
disaster 0.0
happens 0.000349656600812
silence 0.0
learned 0.000173664078395
congratulations 0.000950881189653
natural 5.32524660665e-05
babies 0.000116734048312
mission 5.08637551779e-05
surprising 0.0
reference 0.0
forgotten 0.0
setting 0.0001597573982
appeared 0.0
reminds 0.0
fantastic 0.000221272506376
loving 0.000619563017854
complete 8.61247189375e-05
daniel 6.59920088302e-05
rewarding 0.0
nearly 0.0
spirit 0.000340331709442
launched 5.5970089581e-05
finding 4.58635109081e-05
stories 4.05664777464e-05
including 4.16803176053e-05
wouldn 8.09138019469e-05
choice 4.00217839213e-05
offended 0.0
conversation 0.0
disrespectful 0.0
making 0.000785642938728
expect 0.0
traits 0.0
discussion 5.46665206856e-05
believes 0.0
response 4.41335583352e-05
brings 4.52364227963e-05
seasons 0.0
anytime 0.000123387914483
protected 0.0
location 0.0
needed 0.000280152487449
seriously 8.29097472603e-05
emergency 0.0
justify 0.0
spending 0.000559562393774
groups 0.0
condition 0.0
childhood 6.11184569211e-05
modern 0.0
welcome 0.000796303350134
moments 0.0
totally 0.000129893280074
running 0.00122073279382
strong 0.000270491958986
respond 0.0
message 0.000119418340754
coming 0.000860466075749
thankful 0.000118162258965
issues 4.47422319376e-05
challenge 0.000205596207013
intolerance 0.0
happen 0.000114681417006
giving 0.000227515242895
turkey 5.46665206856e-05
excellent 0.0
limits 0.0
contractors 0.0
common 4.63728821554e-05
pressed 0.0
healthcare 0.0
benefits 0.0
situation 4.90295815929e-05
workers 0.0
company 0.000339842199168
savings 0.0
health 4.42545012753e-05
insurance 6.47126538605e-05
change 0.000225075271208
silver 6.13093057482e-05
august 0.000211781516118
crying 0.0
mental 5.58046309313e-05
carrier 0.0
decide 0.0
happened 0.000355364349209
parking 7.36725269033e-05
demand 4.9444920179e-05
sacrifice 0.0
personal 0.0
rewards 0.0
beyond 0.0
contributing 0.0
passion 5.68085712576e-05
question 0.000268312452175
doctor 0.0
sacrifices 0.0
respected 0.0
losing 9.24897718513e-05
strain 0.0
respect 0.000205040157952
shouldn 8.9730334703e-05
career 0.000435346551975
visited 0.00011780263548
reason 3.94849276899e-05
simply 0.0
audience 0.0
sacrificed 0.0
employees 0.0
accounts 0.0
attacked 0.0
involved 0.0
extreme 6.49228564693e-05
valuable 7.03594900923e-05
knocked 0.0
reality 0.0
mention 0.0
without 0.000113451376132
problems 0.0
timing 0.0
described 7.21068063627e-05
pattern 8.58553414408e-05
online 4.034764507e-05
background 5.6470914072e-05
buying 5.08637551779e-05
called 0.000113145966412
scientists 0.0
checked 0.0
heading 4.46197002532e-05
paying 4.8755235766e-05
planning 9.7510471532e-05
opposite 0.0
through 0.0
reached 5.56399027858e-05
changing 9.19804065376e-05
explains 0.0
harder 5.21885404149e-05
demands 0.0
silent 0.0
speaking 0.0
november 0.0
ordinary 0.0
number 0.000538073870886
stunning 0.0
atlantic 0.0
stupid 5.21885404149e-05
personality 0.000151735833637
grandparents 0.0
unless 0.0
calling 7.87569544402e-05
painting 0.0
focused 0.000121857158678
ridiculous 5.17416983752e-05
package 6.73167940672e-05
rooted 0.0
option 5.43476224677e-05
knowing 0.0
former 0.000282901319675
actual 0.0
tracked 0.0
suffers 0.0
schedule 0.000465524904968
friday 0.00030417255185
failure 0.0
achieve 0.0
winner 0.000291762223237
doctors 0.0
becomes 0.0
directly 0.0
quality 0.0
tearing 0.0
father 4.27120201402e-05
wishes 0.000195568626091
collar 0.0
caring 0.0
ground 9.72376312692e-05
matter 0.000120716124487
strategy 0.0
themselves 0.0
asking 0.0
usually 0.000150017989145
thankfully 0.000169526476354
reacts 0.0
period 5.5970089581e-05
parents 0.000404896582478
balance 0.0
resist 0.0
mobile 0.0
computer 0.000290075161294
reminded 6.5134250034e-05
impressed 0.000340851427545
dinner 0.00174110469247
suffering 0.0
single 3.86417084266e-05
parent 0.0
approved 0.0
energy 0.000178478801013
preview 5.340696262e-05
meltdown 0.0
remind 5.21885404149e-05
emotional 5.40314268095e-05
sounded 0.0
status 0.0
update 0.0
outage 0.0
customers 0.0
holding 0.0
causes 0.0
eating 0.000234446518736
picked 4.67595266969e-05
missing 0.000440239623135
surprise 0.00012039026518
officially 0.000262638384526
global 5.01475937598e-05
follow 0.000452583865646
opinion 0.0
faster 0.000121103397433
backwards 0.0
design 5.66393606983e-05
website 0.000274423483724
widely 0.0
origin 0.0
breaks 4.9444920179e-05
allows 0.0
promoting 0.000129007257727
volunteer 0.0
convince 0.000141700859202
negative 5.46665206856e-05
official 7.74921490977e-05
jersey 0.000189217055177
mistake 0.000103780103816
fixing 0.0
translated 0.0
ginger 0.0
peaceful 7.91143865036e-05
thinks 0.0
hospital 5.46665206856e-05
lauren 0.0
easier 0.0
excluded 0.0
successful 0.0
leadership 0.0
agrees 0.0
decline 0.0
turnout 0.0
showed 0.000235751099729
trumps 0.0
circle 0.0
engage 0.0
suited 0.0
experienced 0.000130693696254
interested 9.64250454314e-05
effect 0.0
success 0.000211824699146
ladies 0.000411573994359
dreams 9.86119192595e-05
protect 0.0
explanation 0.0
occasion 0.0
medication 0.0
planet 0.0
detached 0.0
essence 0.0
control 8.38142641378e-05
happier 0.000136915776057
likely 0.0
coincidence 0.0
cancel 7.85027192906e-05
project 4.23649398293e-05
laying 0.0
lesson 0.00010437708083
requires 0.0
healthy 0.000406910041423
treating 7.13479151629e-05
opening 0.000285506210349
statement 0.000145856446904
enjoyed 0.000578468405518
animal 0.000225212898047
nervous 0.000246775828965
pounds 0.0
wonder 8.13527545581e-05
matters 0.0
shared 0.0
somehow 6.05516987167e-05
benefit 4.70195337725e-05
terrible 9.56212129326e-05
continues 4.57372472873e-05
improve 5.73208566192e-05
equally 0.0
appointment 8.62265968856e-05
session 0.000882532468673
routine 0.0
exciting 0.000224942545821
corner 0.000160686304718
imagination 0.0
decides 8.44061936881e-05
cheering 0.00014841876627
spring 9.58881961467e-05
fallen 6.59920088302e-05
frequently 0.0
places 4.47422319376e-05
thousands 0.0
informed 0.0
typical 0.0
continue 0.0
attend 0.0
excuse 5.43476224677e-05
settle 0.0
female 0.000200023985527
recovery 0.000372495693556
treasured 0.0
grandma 0.0
closer 0.000141058601317
beginning 4.71502199459e-05
everywhere 0.00017896892775
scenes 0.000430295458197
bought 0.000229317554541
multiple 5.68085712576e-05
slogan 0.0
wishing 0.000108695244935
covered 0.0
remove 0.0
choices 0.0
dealing 0.0
teacher 0.0
training 0.00131270802213
passing 5.07194189656e-05
stopping 0.0
become 0.00035249834792
spread 0.000256970608728
season 0.00136430779385
putting 3.93784772201e-05
weight 5.83670241559e-05
quietly 0.0
necessity 0.0
knocks 0.000317739091676
effects 0.0
returns 0.000100579461116
expected 0.0
resources 0.0
bucket 0.000141208304749
struggling 0.0
register 0.0
promotion 8.13378191593e-05
solution 0.0
manage 6.84578880284e-05
transition 0.0
gained 8.51237324245e-05
define 0.0
somebody 5.5970089581e-05
contract 0.000129845712939
ignorant 0.0
managers 0.0
credit 9.24897718513e-05
brothers 5.74931934816e-05
grandkids 0.0
computers 0.0
physical 0.0
series 0.000203933007392
offensive 0.0
fighting 0.00012813606042
donald 5.38743282011e-05
mexico 0.000216756758738
sandra 0.0
police 9.66949253955e-05
represent 0.00019042714905
president 0.000166721270421
talking 0.000338524163217
america 7.98275858432e-05
michigan 0.0
everybody 0.00120236703407
judgment 0.0
carolina 0.0
amount 0.0
houston 0.000255533957673
everyday 0.0
michael 8.47298796586e-05
protecting 0.0
providing 7.03594900923e-05
attitude 0.0
million 0.000236270863321
election 0.0
honesty 0.0
targeting 0.0
telling 0.000170383870365
correct 4.83474626977e-05
attack 0.000241737313489
elementary 8.58553414408e-05
americans 0.0
killed 0.000125380657456
horrible 0.000127766978837
salute 0.0
coverage 0.000152591265534
united 0.0
college 0.0
refuse 0.0
preach 0.0
hillary 0.0
clinton 0.0
presidency 0.0
throws 0.0
manning 0.0
american 0.000437867249431
deserved 0.000401245996335
humble 0.0
remain 0.0
founder 0.0
illegal 0.0
arizona 0.0
opinions 6.42957683575e-05
speeches 8.03686513094e-05
scared 0.0
salary 0.0
pieces 5.54758987223e-05
taught 0.000110625224806
thompson 0.0
straight 0.000498809104111
blocking 0.0
answers 9.66949253955e-05
created 0.0
record 0.000195832415511
stamina 0.0
weapon 0.0
bottom 0.0
athletes 0.000154032068003
registered 0.0
minnesota 0.0
committed 0.0
journey 9.7510471532e-05
snapchat 6.96349845247e-05
peoples 0.0
disrespect 0.0
brother 0.000548846967447
prayers 0.000528501315664
boston 0.000108378379369
korean 0.0
church 0.0
advantage 0.0
motivation 0.0
honestly 5.35621015727e-05
defeat 0.0
lifetime 0.000113278721397
captain 6.36790458143e-05
retired 7.61516509949e-05
country 0.000271222521842
ending 0.0
dressing 0.0
finish 0.000922346545816
ranked 0.0
employee 0.0
university 5.37178882891e-05
dreamed 0.0
prayer 0.0
nominated 0.0
responds 0.0
national 4.05664777464e-05
reform 0.0
shooting 0.000656450252461
cancer 4.71502199459e-05
deserve 9.19804065376e-05
mother 0.000208967762427
creating 5.15939323826e-05
powerful 0.0
wisdom 0.0
breaking 0.00020173822535
dollars 6.28722929924e-05
questions 0.000576507718807
racist 0.0
charged 7.10983432333e-05
soldiers 0.0
performance 0.000260496117593
reading 0.000199030567923
denver 0.0
graphic 0.0
garner 0.0
create 4.34160195988e-05
jordan 6.53468481269e-05
admire 6.93965756345e-05
nobody 9.19804065376e-05
government 0.0
politics 0.0
blessing 0.0
wrestling 0.0
charities 8.81403940352e-05
donate 0.000354029472745
sample 0.0
bringing 4.21353337855e-05
deserves 9.97298686892e-05
regret 0.0
victim 0.0
according 0.0
threat 0.0
heaven 0.000237773494918
heroin 0.0
honest 0.0
became 4.68893037472e-05
decision 4.67595266969e-05
counting 0.0001597573982
signing 4.91675147052e-05
embrace 0.0
pressure 0.000102017303841
celebrities 0.0
facebook 4.01300883932e-05
kardashian 0.0
divided 0.0
lawyer 0.0
lebron 0.0
campaign 0.000391811896777
determine 0.0
whether 0.0
praise 0.0
defined 0.0
proposes 0.0
discover 0.0
factory 0.0
arrested 0.0
estate 0.0
proposed 0.0
comments 9.14744945745e-05
teenage 0.0
wounded 0.0
endorsement 0.0
williams 5.98091694473e-05
custom 0.0
troops 0.0
singer 0.0
future 0.00011592512528
struggled 0.0
sister 0.0
sabotage 0.0
athlete 0.000160737302619
warrior 0.0
cheating 0.0
voting 0.0
succeed 0.0
religion 0.0
century 6.15011358076e-05
serving 0.000193510886591
because 5.40314268095e-05
cleveland 0.0
hiding 6.15011358076e-05
breath 0.0
choosing 0.0
lawrence 0.0
instagram 0.000208155990689
opponent 0.000324047832043
detroit 0.0
honored 0.000260194988361
nonsense 0.0
lifting 0.0
proven 0.0
talent 0.0
knocking 9.18539292672e-05
russian 6.24753651599e-05
brains 0.0
oakland 0.0
regardless 0.0
skills 0.000208155990689
citizens 0.0
california 5.37178882891e-05
commitment 0.0
seconds 0.00015044278128
seeking 0.0
threatening 0.0
listen 0.000116238223647
whatever 4.30623594687e-05
mexicans 0.0
satisfied 0.0
fought 6.07396631664e-05
compete 7.03594900923e-05
injured 0.0
billion 0.0
ceiling 0.0
absolute 5.498816806e-05
appearance 5.76663300538e-05
bigsean 0.0
handle 9.77843130456e-05
promise 4.44975696552e-05
nightclub 0.000112088517323
hosting 4.91675147052e-05
actors 0.0
generation 0.0
criminal 0.0
tuesday 0.000170383870365
ronald 0.0
locker 0.000168105067116
struggle 0.0
degree 0.0
entering 0.0
leader 4.88921565228e-05
pageant 0.0
toughest 8.93376367871e-05
character 5.01475937598e-05
mirror 0.0
interview 0.000304993699314
whistle 0.0
obviously 0.000105281597707
battle 0.000478881207172
motivate 0.0
destroy 6.5134250034e-05
relentless 0.0
winning 0.000560304974899
charlotte 0.0
accomplished 8.2332834509e-05
stepped 0.0
defense 0.0
appeal 0.0
causing 0.0
arabia 0.0
shipped 0.0
society 0.0
officers 0.0
brooklyn 0.0
marked 0.0
incredible 0.000404569009735
poster 5.94433737295e-05
wealthy 0.0
memorable 7.76036188122e-05
officer 6.77690525059e-05
minute 0.00029574972131
luther 0.0
foreign 6.20826155927e-05
pregnant 7.67256756149e-05
champions 0.000492516430646
virginia 0.0
tackle 6.96349845247e-05
unarmed 0.0
orange 0.0
policy 5.498816806e-05
comedy 0.0
reminder 0.0
evidence 0.0
lighten 0.0
presidents 0.0
kicked 0.0
sticker 0.0
accused 0.0
intentions 0.0
facing 0.0
freedom 0.0
actions 0.0
debating 0.0
outcome 0.0
utterly 0.0
mississippi 0.0
clearly 0.000237725237959
download 0.000105890758059
sidelines 0.0
invite 5.3098606614e-05
legally 0.0
central 9.88898403581e-05
washington 0.000148753200625
veteran 0.0
division 0.0
veterans 0.0
stronger 0.000178877469923
promised 0.0
worried 0.0
security 0.0
immediately 0.0
television 0.0
entitled 0.0
racism 0.0
highest 0.0
approve 0.00014841876627
turning 0.000187557214989
legacy 0.0
ignore 0.0
choked 0.0
backing 0.0
helping 0.000206153918406
collector 0.0
willing 0.0
basically 0.0
return 0.0
unacceptable 0.0
feelings 0.0
network 5.23386849409e-05
language 0.0
invest 0.00014950815392
coward 0.0
schools 0.0
patients 0.0
foster 0.0
children 8.24615673622e-05
nation 0.0
review 0.0
between 0.0
knowledge 0.0
begins 8.9730334703e-05
tenure 0.0
faithful 0.0
highlights 5.6470914072e-05
shoulder 0.0
produced 5.87223684072e-05
consider 0.0
shattered 0.0
latest 8.11329554928e-05
beyonce 0.000241105953928
signed 0.000372083943777
millionaire 0.0
shelter 0.000675249549505
charity 0.000837418959055
germany 0.000113957105421
advance 0.0
proved 0.0
married 0.000166427696167
millions 0.0
blessings 0.0
indonesia 0.0
fights 6.82268602663e-05
dollar 6.30723517256e-05
rigged 0.0
conduct 0.0
johnson 5.32524660665e-05
howard 0.0
turned 0.000246715448416
criticism 0.0
stomach 0.0
upgrades 0.0
jackie 0.0
relevant 0.0
charge 0.0
ticket 0.000100579461116
steady 0.0
indian 0.000779009181092
turner 0.0
sanders 0.0
includes 0.0
survivor 8.33551139186e-05
dealers 0.0
collection 0.000771701239422
against 0.0
joyner 0.0
impact 0.0
families 0.000239720490367
welcoming 7.50294351422e-05
hitting 0.000200023985527
announced 0.0
granted 0.0
decided 0.000134595502054
itself 0.0
selfish 9.31787145042e-05
mexican 0.0
respects 0.0
guarantee 0.0
beliefs 0.0
citizen 0.0
states 4.72813654741e-05
denied 0.0
drought 0.0
memorial 0.0
decades 0.0
trayvon 0.0
landed 5.85442732511e-05
pastor 0.0
ultimate 0.0
weekends 8.73630562447e-05
episode 0.00017896892775
spikes 0.0
engaged 0.000160737302619
financial 0.0
payments 0.0
tolerant 0.0
symposium 0.0
kansas 0.0
agreement 0.0
source 0.0
backbone 0.0
dismiss 0.0
midnight 5.05756389635e-05
homework 0.0
joining 0.0
reasons 0.000174614676879
talked 4.71502199459e-05
released 0.0
reaching 6.8690355225e-05
release 0.0
existing 0.0
models 0.0
pageants 0.0
helmets 0.0
scheme 0.0
scholarship 0.0
stacked 0.0
speech 0.000134965527493
standing 4.2828434788e-05
higher 5.02897305579e-05
purple 0.0
justice 5.04324109014e-05
served 0.0
speaks 0.0
backup 0.000285064802696
allegedly 0.0
purchase 0.0
millionaires 0.0
consideration 0.0
strength 5.18900519081e-05
incredibly 5.29453790296e-05
private 0.0
ignored 0.0
neighbors 0.0
apologizes 0.0
beings 0.0
minimum 0.0
direction 5.74931934816e-05
enemies 0.0
exclusive 8.89951393105e-05
prison 0.0
himself 0.0
contributes 0.0
investigation 0.0
teaching 0.0
disgusting 0.0
philly 7.01164217123e-05
rights 0.0
cheers 5.80150322588e-05
maintain 0.0
overcome 0.0
flawless 0.0
unique 0.0
neighborhood 0.0
dating 0.0
handed 7.18521237058e-05
victory 0.000214248406291
lifted 0.0
greatness 0.0
muslim 0.0
terrorist 7.67256756149e-05
productive 0.0
tribute 5.14467492948e-05
deadspin 0.0
threatened 0.0
horror 0.0
warning 0.0
convention 0.0
understanding 0.0
action 0.0
having 0.000281437960369
afghan 0.0
announces 5.73208566192e-05
commencement 0.0
speaker 0.0
graduation 0.0
honors 9.27318724645e-05
produce 0.0
apologize 6.91596804618e-05
insult 0.0
continued 6.42957683575e-05
letter 4.62448859257e-05
discussed 0.0
therapy 0.0
untrue 9.84833675709e-05
written 0.0
existence 0.0
essential 0.0
results 0.0
initiative 0.0
disease 0.0
marching 0.0
suggest 0.0
georgetakei 0.0
ensure 0.0
democrats 0.0
marched 0.0
foundation 5.340696262e-05
access 0.000230586636454
writes 0.0
student 5.38743282011e-05
colorado 0.0
medical 0.0
medicine 0.0
tremendous 0.0
nytimes 5.68085712576e-05
kindness 0.0
public 0.0
cannot 0.0
reveals 0.0
invented 0.0
threatens 0.0
candidate 0.0
persistence 0.0
sexual 0.000197327140076
illustration 0.0
measure 0.0
compared 0.0
headline 0.0
reflect 0.0
answering 0.000169412742216
streaming 0.0
leaders 0.0
supreme 0.0
nominee 0.0
immigration 0.0
policies 0.0
laundering 0.0
administration 0.0
defend 6.13093057482e-05
communicating 0.0
excitement 0.000132419131014
funding 0.0
climate 0.0
transfer 0.0
conspiracy 0.0
activist 0.0
horrifying 0.0
freely 0.0
retreat 0.0
daughters 0.0
compelling 0.0
platform 0.0
hamilton 0.0
futures 0.0
huffingtonpost 0.0
headlines 6.91596804618e-05
january 5.18900519081e-05
grants 0.0
unprecedented 0.0
relationships 7.82006053779e-05
philadelphia 0.0
diversity 0.0
funded 0.0
secure 0.0
income 0.0
universal 0.0
contributed 0.0
hurricane 7.94240220097e-05
fundamental 0.0
countries 0.000108062853619
linked 0.0
african 0.0
improved 0.0
unclear 0.0
provide 5.498816806e-05
livestream 0.0
addresses 0.0
enhance 0.0
companies 0.0
proposal 0.0
potential 0.0
discrimination 0.0
connected 0.0
drives 0.0
attending 0.000138319360924
filled 0.0
education 0.0
addressed 0.0
mentioned 0.0
famous 0.0
resistance 8.30112325501e-05
exists 0.0
demonstrated 0.0
officials 0.0
instructions 9.40887807033e-05
transmission 0.0
olympics 0.00112928276912
ability 0.0
political 0.0
director 4.67595266969e-05
contains 0.0
sponsored 7.73086697318e-05
autism 0.0
previously 0.0
prevent 0.0
capacity 0.0
donations 0.000212551288804
william 0.0
editors 0.0
passionate 0.0
solving 0.0
innate 0.0
treatment 0.00041105657885
critical 0.0
feeding 7.73086697318e-05
preparing 6.26733012441e-05
depend 0.0
capable 0.0
bridge 0.0
systematically 0.0
becoming 4.80780690049e-05
embraced 0.000116858090908
literacy 0.0
lawyers 0.0
stigma 0.0
malaria 0.0
standard 0.000108378379369
hiring 0.0
remains 0.0
fellow 4.75450475918e-05
defending 6.40890594389e-05
quotes 6.16939572413e-05
pushes 0.0
luxury 0.0
admitted 0.0
colleagues 0.0
failed 0.0
independent 0.0
politically 0.0
driven 0.0
agenda 0.0
result 0.000324188560857
implications 0.0
insider 0.0
pakistan 0.0
solutions 0.0
trusts 0.0
indiana 0.0
filling 0.0
humility 0.0
clicks 0.0
disagree 0.0
claims 0.0
editorial 0.0
mistakes 0.0
offered 0.0
passionately 0.0
justification 0.0
inspiring 0.000101151277927
counter 0.000141700859202
shaped 0.0
retroviral 0.0
majority 0.0
approach 0.0
nature 0.0
concern 0.0
server 0.0
berniesanders 0.0
shameful 0.0
experiment 0.0
massive 0.0
promises 0.0
colored 0.0
consequences 0.0
whatsoever 0.0
proposals 0.0
guesses 0.0
bernie 0.0
interviewed 0.0
pregnancy 0.0
secretary 0.0
measures 0.0
vastly 0.0
reduce 0.0
compassionate 0.0
distinguished 0.0
dangerous 0.0
influence 0.0
letters 0.0
implicit 0.0
saving 0.000108695244935
revelations 0.0
incident 0.0
universe 0.0
victims 0.000108695244935
milestone 0.000180315377589
perfectly 0.000113957105421
exercise 0.000130693696254
receive 0.0
reputation 0.0
economics 0.0
disclosure 0.0
receives 8.66015836034e-05
terrific 6.59920088302e-05
collected 0.0
campus 0.0
founders 0.0
profiling 0.0
systemic 0.0
studying 7.91143865036e-05
necessary 5.76663300538e-05
inaccurate 0.0
breast 0.0
debate 4.82125227157e-05
suddenly 6.89242799058e-05
conflict 0.0
interest 5.26407988536e-05
meanwhile 0.0
indefensible 0.0
recall 0.0
rating 0.0
nominate 0.000235508157872
outstanding 0.0
devastating 0.0
illness 0.0
troubling 0.0
romney 0.0
appears 0.0
breathe 0.0
abroad 0.0
spanish 0.0
profit 0.0
reviews 0.0
republican 0.0
presidential 0.0
candidates 0.0
politicians 0.0
identified 0.0
epidemic 0.0
displaced 0.0
greater 0.0
absurd 0.0
deadline 0.0
height 0.0
sisters 0.0
nuclear 0.0
stress 0.000207479041385
leading 4.75450475918e-05
restored 0.0
conditions 0.000211078470277
however 0.0
achieved 0.0
member 8.8026012329e-05
examples 0.0
diverse 0.0
suicide 0.0
contributions 8.26704916946e-05
largest 0.0
increase 0.000121857158678
targeted 0.0
regulators 0.0
provided 0.0
element 0.0
effectively 0.0
population 0.0
rising 0.0
indication 0.0
versus 0.0
believed 0.0
dynamic 0.0
invasion 0.0
primary 0.0
provides 0.0
environment 0.0
confirmed 5.45067308724e-05
behavior 7.36725269033e-05
introduced 0.0
contain 0.0
communities 0.0
worldwide 6.22784735982e-05
responsible 6.11184569211e-05
household 0.0
apparent 0.0
munich 0.0
alternate 0.0
expressed 0.0
movement 0.0
declared 0.0
hundreds 0.0
information 0.0
easily 0.0
untreated 0.0
october 0.0
quantify 0.0
scales 0.0
investigating 0.0
innovation 0.0
perspective 5.53126124032e-05
rivals 0.0
interests 0.0
toledo 0.0
extraordinary 0.0
gingrich 0.0
describing 0.0
eliminate 0.0
obligation 0.0
gender 6.84578880284e-05
committee 0.0
preventing 0.0
numerous 0.0
unusual 0.0
improving 8.10119580106e-05
practices 0.000258679790657
cemetery 0.0
questioned 0.0
affecting 0.0
ferrell 0.0
genius 4.97244036159e-05
warren 0.0
organizers 0.0
regularly 0.0
ceilings 0.0
sexism 0.0
prepared 0.0
burden 0.0
foreignpolicy 0.0
county 0.0
uniform 0.0
newyorker 0.0
anthony 0.0
reflecting 0.0
grandson 0.0
banning 0.0
considered 5.80150322588e-05
chosen 7.06041523746e-05
outright 0.0
screenings 0.0
naming 8.85352216811e-05
conventions 0.0
reproductive 0.0
ignores 0.0
focusing 0.0
sensible 0.0
concluded 0.0
performed 0.0
divide 0.0
dismissed 0.0
compromise 0.0
crucial 0.0
weakness 0.0
barrier 0.0
effective 6.22784735982e-05
wealth 0.0
underway 0.0
israel 0.0
overwhelming 0.0
assault 0.000214797503173
citing 0.0
protection 0.0
prisoners 0.0
photographing 0.0
traveled 0.0
holder 9.95344473404e-05
seemed 0.0
concludes 0.0
determination 0.0
tested 0.0
lacking 0.0
machine 0.000100864821803
honoring 0.0
contrary 0.0
tolerance 0.0
michelle 0.0
assumed 0.0
programs 0.000223442208215
closely 0.0
politico 0.0
inspire 0.0
lyrics 0.0
judges 0.0
federal 0.0
maryjblige 0.0
tuning 0.0
striving 0.0
poland 0.000584766528968
september 0.000157468308339
manchester 0.000135994508445
checks 0.0
remarkable 0.0
mharrisperry 0.0
immoral 0.0
fiction 0.0
process 0.0
anxious 9.4552275662e-05
destructive 0.0
nmaahc 0.0
performances 7.34069680288e-05
whitehouse 0.000322755672824
flotus 0.000190043201798
crisis 0.0
marriage 6.47126538605e-05
emotions 0.0
confidence 0.000234177093004
voters 0.0
comparing 0.0
oldest 7.53068406161e-05
empirefox 0.0
chancetherapper 0.0
songwriter 0.0
literally 9.24897718513e-05
onstage 0.0
believing 0.0
hillaryclinton 0.0
citizenship 0.0
counted 0.0
hillaryfornc 0.0
raleigh 0.0
discusses 0.0
johnlegend 0.0
apprentice 0.0
acknowledge 0.0
conservative 0.0
economists 0.0
buzzfeed 0.0
puppet 0.0
hombres 0.0
republic 0.0
homecoming 0.0
andersoncooper 0.0
muslims 0.0
katyperry 0.000406919349023
bragging 0.0
treats 0.0
qualified 0.0
islamophobia 0.0
debates 0.0
endorsements 0.0
counts 6.20826155927e-05
theellenshow 0.0
festival 0.00010997633612
encouraged 0.0
stylish 0.0
disregard 0.0
jtimberlake 0.0
backstage 0.0
barack 0.0
joined 9.19804065376e-05
terrorism 0.0
pushing 0.0
hopeful 0.0
mentions 0.0
teamed 9.90052063481e-05
exclusively 0.0
aliciakeys 0.000129924446252
kingjames 0.00031585782734
muhammad 9.59783421493e-05
refused 0.0
characters 0.0
express 0.0
gratitude 0.0
ugliest 0.0
throughout 0.0
awkward 6.22784735982e-05
shining 0.000151172648106
fighter 7.91143865036e-05
accepting 6.84578880284e-05
applemusic 0.0
reveal 5.45067308724e-05
stands 0.00025945025954
native 0.0
announce 0.000130248058796
dorothy 0.0
haters 0.0
jessetyler 0.0
shondarhimes 0.0
lavernecox 0.0
broadway 0.000167404388459
disabilities 0.0
adoption 0.0
touched 0.0
corruption 0.0
violence 0.0
leedanielsent 0.0
delivered 0.0
jasmine 0.0
independence 0.0
square 0.000151726916891
alongside 0.0
privilege 0.0
secondary 0.0
staggering 0.0
seventh 0.0
tennis 0.00691595809876
sweeping 0.0
footage 6.11184569211e-05
overseas 0.0
spoiler 0.0
theirs 0.0
offering 0.0
construction 0.0
spends 0.0
detail 0.0
cabinet 0.0
earnings 0.0
pleased 6.16939572413e-05
gravity 0.0
statements 0.0
decade 5.83670241559e-05
bigotry 0.0
belong 7.88072994666e-05
trillion 0.0
backed 0.0
operations 0.0
breakthroughs 0.0
values 0.0
senator 0.0
removing 0.0
wondered 0.0
introduces 0.0
makers 8.51237324245e-05
measured 0.0
pillars 0.0
instrument 0.0
shares 6.01785869638e-05
individual 0.0
applications 0.0
prepares 0.0
ceremony 0.000599836697239
expanding 8.66015836034e-05
merger 0.0
newspaper 0.0
detailed 0.0
tuition 0.0
childcare 0.0
thoroughly 8.62265968856e-05
adviser 0.0
matthew 0.0
affected 0.000288331650269
newspapers 0.0
corporate 0.0
economy 0.0
presenting 0.0
spoken 6.24753651599e-05
richer 0.0
during 0.0
combat 0.0
touting 0.0
competitive 7.50294351422e-05
prominence 0.0
trifecta 0.0
fashioned 0.0
boasts 0.0
ripped 9.22903186204e-05
belief 0.0
heroes 5.69785527104e-05
disturbing 0.0
russians 0.0
intelligence 6.82268602663e-05
deepest 0.0
regrets 0.0
complicated 0.0
internships 0.0
adults 0.0
describe 0.0
equality 6.73167940672e-05
announcement 9.58881961467e-05
interfere 0.0
terrifying 0.0
nationwide 0.0
manager 5.85442732511e-05
questionable 0.000102299479838
enhanced 0.0
services 6.42957683575e-05
delighted 0.0
golfer 0.000235431699409
regarding 0.0
teachers 0.0
suggests 0.0
phrase 7.01164217123e-05
immigrants 0.0
revolution 0.0
universities 0.0
twelve 0.0
principle 0.0
releases 6.89242799058e-05
malarkey 0.0
library 0.0
advisor 0.0
deadlines 0.0
encouraging 0.0
circuit 0.0
humanitarian 0.0
reliant 0.0
assistance 0.0
swimmer 0.00013795043776
hinges 0.0
concrete 0.0
accepted 0.00012495073032
confronted 0.0
comprehensive 0.0
pushed 0.000145242894268
unending 0.0
occasionally 0.0
guardia 0.0
donation 6.32734889479e-05
nomination 0.0
paintings 0.0
significantly 0.0
investment 0.0
terror 0.0
worship 0.000109914453995
represents 0.0
attempting 9.01576887945e-05
bullying 0.0
astonishing 0.0
endorse 0.0
urgent 0.0
forced 5.73208566192e-05
addressing 0.0
script 0.0
hundred 0.0
command 8.26704916946e-05
qualifies 0.0
stumbled 0.0
territory 0.0
balloons 0.0
objects 0.0
latimes 0.0
pandemics 0.0
separating 0.0
pentagon 0.0
threats 0.0
prisons 0.0
approaching 0.0
generous 0.0
roughly 0.0
commands 0.0
uncovered 0.0
destroying 0.0
opposition 0.0
addiction 0.0
manhattan 0.0
ridiculously 0.0
awarded 0.0
greeted 0.0
forces 0.0
confirm 0.0
dealings 0.0
nations 0.0
equivalent 0.0
sexist 0.0
yahoonews 0.0
bloody 0.0
boundaries 0.0
exceptionally 0.0
cannon 0.0
feared 0.0
significance 0.0
recommendation 0.0
chapters 0.0
racial 0.0
obvious 0.0
statistics 0.0
military 0.0
adopted 8.26704916946e-05
housing 0.0
clearer 0.0
calculator 0.0
underwater 0.0
guided 0.0
rescue 0.0
deserving 0.0
advised 0.0
ordered 0.00016496450418
unions 0.0
avoiding 0.0
alicia 0.0
preserve 0.0
balloon 0.0
economic 0.0
recipe 0.0
awaits 0.000104062525815
squarely 0.0
radical 0.0
banter 0.0
spaces 0.0
carnival 0.0
theories 0.0
bombing 8.73630562447e-05
products 0.00033884526253
margaret 0.0
gathered 0.0
taxpayers 0.0
admits 0.0
opposed 0.0
pressing 0.0
russia 0.000116030064518
lincoln 0.0
intelligent 0.0
momentum 8.00511101216e-05
olympic 0.000622437124156
magnificent 0.0
heritage 0.0
beijing 0.000398137789361
beloved 0.0
dummies 0.0
pursuit 0.0
carries 0.0
phelps 0.0
medals 0.000107199739596
gymnastics 0.000257479749751
summed 0.0
accuse 0.0
symbol 0.0
dignity 0.0
slogans 0.0
priorities 0.0
applied 0.0
progressive 0.0
activists 0.0
elected 6.5134250034e-05
brussels 7.97362486381e-05
subscribe 0.0
elections 0.0
unites 0.0
complacency 0.0
imperative 0.0
doorsteps 0.0
voices 0.0
blatant 0.0
democracy 0.0
disastrous 0.0
rebuild 0.0
accuses 0.0
diplomacy 0.0
hardball 0.0
attacking 7.21068063627e-05
subtle 0.0
barker 0.0
sticking 0.0
openly 0.0
policing 0.0
embarrassed 0.0
slightest 0.0
abbott 0.0
attacks 0.000120357173928
commit 7.61516509949e-05
argued 0.0
remarks 0.0
democratic 0.0
semitic 0.0
incomes 0.0
treasury 0.0
alarming 0.0
dividing 0.0
reject 0.0
affirming 0.0
quitting 0.000102877954438
extended 0.0
reducing 0.0
proudly 8.89342721627e-05
inclusive 0.0
oppose 0.0
distinctly 0.0
urging 0.0
strengthen 0.0
deliver 0.0
obligations 0.0
relations 0.0
repeal 0.0
strengths 0.0
counties 0.0
weakened 0.0
reckless 0.0
prosperous 0.0
servant 0.0
secretaries 0.0
negotiator 0.0
faults 0.0
choking 0.0
executive 0.0
alternative 0.0
extend 0.000163333102737
republicans 0.0
embodied 0.0
preparation 8.66015836034e-05
terrorists 0.0
confident 0.000129007257727
weapons 0.0
unifying 0.0
outrage 0.0
constitutional 0.0
rental 0.0
prevail 0.0
resilient 0.0
humbled 0.0
courage 0.0
commander 0.0
respecting 0.0
enormous 0.0
aligned 0.0
consent 0.0
refusing 0.0
resentment 0.0
substance 0.0
claiming 0.0
lamont 0.0
dropping 0.0
carried 0.0
intimidated 0.0
behalf 0.0
meaningful 0.0
amendment 0.0
accepts 0.0
legislation 0.0
fairer 0.0
commitments 0.0
handling 0.0
proves 7.42093831348e-05
rhetoric 0.0
hardest 6.89242799058e-05
peddling 0.0
divisive 0.0
strongly 0.0
vision 0.0
investigations 0.0
repeatedly 0.0
records 5.66393606983e-05
madeleine 0.0
disabled 0.0
quoting 0.0
assassination 0.0
beaten 0.0
deeply 0.0
grievance 0.0
contempt 0.0
standards 0.0
fairness 0.0
dictated 0.0
consensus 0.0
reconsider 0.0
priority 0.0
rogers 0.000174726112489
freedoms 0.0
notorious 0.0
invested 0.0
propaganda 0.0
unconstitutional 0.0
condemn 0.0
concerned 0.0
praising 0.0
cheered 0.0
realdonaldtrump 0.0
despicable 0.0
straightforward 0.0
bargain 0.0
attorney 0.0
bedrock 0.0
optimism 0.0
belongs 0.0
truman 0.0
whichever 0.0
inappropriate 0.0
beatings 0.0
optimistic 0.0
campaigned 0.0
allies 0.0
governor 0.0
attempts 7.34069680288e-05
extent 0.0
denial 0.0
maximum 0.0
merely 0.0
apprenticeships 0.0
agreeing 0.0
architect 0.0
responsibility 0.0
mainstream 0.0
legitimacy 0.0
injustice 0.0
dozens 0.0
donnell 0.0
scenario 0.0
crimes 0.0
thoughtful 0.0
hypocrisy 0.0
undocumented 0.0
sexually 0.0
richest 0.0
softening 0.0
implies 0.0
infrastructure 0.0
pitching 0.0
broadband 0.0
tenants 0.0
allegations 0.0
bloomberg 0.0
insulting 0.0
liberal 0.0
kremlin 0.000117715849704
podium 0.000215720252234
provoke 0.0
outrageous 0.0
campaigns 0.0
barriers 0.0
powell 0.0
technical 0.0
warnings 0.0
flagged 0.0
grassroots 0.0
extremist 0.0
businesses 0.0
welcomes 8.93376367871e-05
deputy 0.0
donating 0.000270168952169
continually 0.0
ourselves 0.0
fringe 0.0
politician 0.0
wiggins 0.0
welcomed 0.0
rallies 0.0
ballot 0.0
failing 0.0
uniting 0.0
refuses 0.0
appealing 0.0
proverb 0.0
privileges 0.0
ideals 0.0
vibrant 0.0
tarmac 0.0
residents 8.16665513684e-05
apprenticeship 0.0
denying 0.0
fierce 0.0
opponents 0.0
polling 0.0
apology 0.0
damning 0.0
outline 0.0
endorses 0.0
losers 0.0
insulted 0.0
equipped 0.0
battlefield 0.0
recession 0.0
endorsed 0.0
divides 0.0
describes 8.37021942295e-05
appointed 0.0
encourage 6.347571635e-05
undermine 0.0
undermining 0.0
authority 0.0
betray 0.0
funnyordie 0.0
donated 0.000134633588134
jimmykimmellive 0.0
immigrant 0.0
criminals 0.0
automatically 9.27318724645e-05
schooled 0.0
elizabethforma 0.0
releasing 0.0
connects 0.0
screening 0.0
cleaner 0.0
nowthisnews 0.0
sophiabush 0.0
chelseaclinton 0.0
stunts 0.0
truths 0.0
transparency 0.0
obamacare 0.0
nickkristof 0.0
contraception 0.0
betting 0.0
conscience 0.0
proclaimed 0.0
dispatch 0.0
advocate 0.0
profits 0.0
toward 0.0
guiding 0.0
senators 0.0
barber 0.0
doubled 0.0
mosque 0.0
senate 0.0
louisiana 0.0
senwarren 0.0
parenthood 0.0
organizations 0.0
generations 0.0
minorities 0.0
misogyny 0.0
peacefully 0.0
decency 0.0
intend 0.0
discourse 0.0
pennsylvania 0.0
katiemcgintypa 0.0
experiencing 0.0
mccain 0.0
scandal 0.000216320419088
constitution 0.0
sensanders 0.0
intolerable 0.0
strive 0.000102299479838
forefathers 0.0
abandon 0.0
buzzfeednews 0.0
paulkrugman 0.0
mothers 0.000417809907148
compassion 0.0
deeper 0.0
governments 0.0
activism 0.0
jamilsmith 0.0
mike_pence 0.0
elizabethbanks 0.0
empathy 0.0
audited 0.0
checkers 0.0
warming 6.73167940672e-05
volunteering 0.000122327993249
charitable 0.0
qualifications 0.0
workplace 0.0
granddaughter 0.0
recycled 0.0
directing 0.0
politifact 0.0
abolish 0.0
murders 0.0
reagan 0.0
pouring 0.000266802816488
ballots 0.0
racists 0.0
empower 0.0
tolerate 0.0
chrismurphyct 0.0
igorvolsky 0.0
outraged 0.0
exceptional 0.0
nightmares 0.0
enforcement 0.0
weaken 0.0
medicaid 0.0
humbly 0.0
newsweek 0.0
conflicts 0.0
suffer 7.82006053779e-05
dallasnews 0.0
bridges 0.0
lesdoggg 0.0
appalling 0.0
hatred 0.0
superpower 0.0
goodbye 5.87223684072e-05
renewable 0.0
robdelaney 0.0
motherjones 0.0
trusted 0.0
sheriff 0.0
personalized 0.000115199557224
amnesia 0.0
malala 0.0
problema 0.0
everytown 0.0
casting 0.0
employers 0.0
rudolph 0.0
packets 0.0
organization 0.0
graceful 0.0
hardworking 0.0
cherished 0.0
aggressively 0.0
founding 0.0
sacred 0.0
horrific 7.76036188122e-05
earned 0.0
siding 0.0
minded 0.0
contribute 7.79009181092e-05
incites 0.0
chooses 0.0
obtained 0.0
defended 0.0
champion 0.000297216868647
magazines 0.0
waited 0.0
punished 0.0
conviction 0.0
tradition 0.000135994508445
giveaways 0.000117715849704
distracted 0.0
endorsing 0.0
pathetic 0.0
ladygaga 9.54969049617e-05
pessimistic 0.0
highlighting 0.0
transgender 0.0
womensmarch 0.0
advisors 0.0
wrecking 0.000126477917834
hillaryforva 0.0
registration 0.0
ellemagazine 0.0
acceptance 0.0
defeated 0.0
theroot 0.0
pharrell 0.0
tumblr 0.0
nevada 0.0
illinois 0.0
massachusetts 0.0
theadvocatemag 0.0
lending 0.0
rejecting 0.0
legalize 0.0
conned 0.0
arkansas 0.0
celebratin 0.0
rubber 0.0
lenadunham 0.0
hateful 0.0
wizard 0.0
unbearable 0.0
harpersbazaarus 0.0
familia 0.0
iamwill 0.0
retweets 0.0
nominating 0.0
vietnam 0.0
laurie 0.0
claimed 0.0
rapids 0.0
devoted 0.0
casino 0.0
astounding 0.0
summon 0.0
crushed 0.0
louder 0.0
farmers 0.0
lin_manuel 0.0
arrangement 0.0
borrowed 0.000114397142118
mariska 0.0
purposes 0.0
dialogue 0.0
comedian 9.14225849907e-05
________ 0.0
lightly 0.0
defeating 0.000103465539249
jerusalem 0.0
cynical 0.0
worrying 0.0
elizabeth 0.0
insults 0.0
microphone 0.0
sleeves 0.0
theeconomist 0.0
stakes 0.0
nationally 0.0
inspect 0.0
poisoning 0.0
columbus 0.0
declaring 0.0
crushing 7.85027192906e-05
chucktodd 0.0
soldier 0.0
painted 0.0
warned 0.0
ohiostate 0.0
unrelated 0.0
designated 0.0
clears 0.0
congressional 0.0
confront 0.0
usatoday 0.0
delivers 0.0
pittsburgh 0.0
entiende 0.0
soaked 0.000122327993249
bromance 0.0
lifelong 0.0
antiques 0.0
repjohnlewis 0.0
breakers 0.000150207208445
fundraising 0.0
hispanic 0.000120414196099
defrauded 0.0
fearful 0.0
nytopinion 0.0
volume 0.0
perfecting 0.0
washingtonpost 0.0
affordable 0.0
mighty 8.54877437445e-05
normalizing 0.0
boasting 0.0
assaulting 0.0
disqualify 0.0
monique 0.0
jcolenc 0.0
teamusa 0.0
allysonfelix 0.0
usabasketball 0.0
ibtihaj 0.0
simone 0.0
feminism 0.0
conversion 0.0
destiny 0.0
disrespected 0.0
serenawilliams 0.0148409775453
tantrum 0.0
heinous 0.0
unconscious 0.0
accomplishments 0.0
saddened 7.88072994666e-05
disgrace 0.0
rodriguez 0.0
arsenal 0.0
defender 0.0
malalafund 0.0
merchandise 0.0
laundry 0.0
lesbians 0.0
cnnpolitics 0.0
nickgass 0.0
examining 0.0
monument 0.0
appeals 0.0
gracias 0.0
madame 0.0
grande 0.0
speechless 0.0
coulter 0.0
missiles 0.0
psyched 0.0
chelsea 0.000160102220243
biases 0.0
resume 0.0
spectator 0.0
angelina 0.0
spectacle 0.0
admiration 0.0
reaches 0.000177868544325
español 0.0
dreamers 0.0
mañana 0.0
bursting 0.0
undone 0.0
beyoncé 0.0
nuestra 0.0
diwali 0.0
prestigious 0.0
cynicism 0.0
disability 0.0
registering 0.0
booker 0.0
méxico 0.0
disponible 0.0
honduras 0.0
famously 0.0
overdue 0.0
equity 0.0
opioid 0.0
millennials 0.0
recommendations 0.0
investors 0.0
betrays 0.0
patriotism 0.0
liability 0.0
iranian 0.0
delegate 0.0
struck 7.55863240529e-05
millennial 0.0
dictators 0.0
graduate 0.0
analysts 0.0
victor 0.0
shrink 0.0
dictator 0.0
poised 0.0
avoided 0.0
rallying 0.0
catholic 0.0
thriving 0.0
racially 0.0
undermines 0.0
yashar 0.0
inequality 9.01576887945e-05
medicare 0.0
missionaries 0.0
foremost 0.0
deplorable 0.0
demonize 0.0
wikileaks 0.0
enduring 0.0
privatized 0.0
appoint 0.0
losses 0.0
jbarro 0.0
buffett 0.0
staffers 0.0
takeaway 0.0
moscow 0.000367415717069
hampshire 0.0
pandering 0.0
voxdotcom 0.0
reckoning 0.0
moines 0.0
falter 0.0
countless 0.0
democrat 0.0
bostonglobe 0.0
accountable 0.0
dispel 0.0
despair 0.0
persisted 0.0
disclose 0.0
tedcruz 0.0
flooding 0.0
prejudice 0.0
towers 0.000111349664182
criticized 0.000109217034356
senatemajldr 0.0
outsider 0.0
declare 0.0
dismantle 0.0
thrive 0.0
threaten 0.0
outsourced 0.0
loophole 0.0
heerjeet 0.0
verbal 0.0
businessinsider 0.0
ukraine 0.000105285942447
vladimir 0.0
businessman 0.0
supremacist 0.0
etched 0.0
zekejmiller 0.0
momentarily 0.0
perpetrators 0.0
mocking 0.0
wrecked 0.0
identities 0.0
inhumane 0.0
disavow 0.0
hostile 0.0
muster 0.0
surrender 0.0
shatter 0.0
patriotic 0.0
rewarded 0.0
jitters 0.0
bullies 0.0
discipline 0.0
forgets 0.0
expand 0.0
apologized 0.0
tournament 0.00172196231927
grindstone 0.0
mastery 0.0
provider 0.0
steroids 0.0
jenniferjjacobs 0.0
notion 0.0
hernandez 0.0
mcuban 0.0
bullied 0.0
jebbush 0.0
discriminating 0.0
somali 0.0
hayden 0.0
limitless 0.0
implement 0.0
nydailynews 0.0
corybooker 0.0
interference 0.0
listens 0.0
preside 0.0
remembers 0.0
toughness 0.0
extensively 0.0
suffered 0.0
streep 0.0
billionaire 9.01576887945e-05
cheats 0.0
needing 0.0
percentage 8.54877437445e-05
insiders 0.0
binder 0.0
prescriptions 0.0
slashed 0.0
indebted 0.0
dismisses 0.0
delegates 0.0
pledged 0.0
endured 0.0
deployed 0.0
suspense 0.0
courageously 0.0
resilience 0.0
nationalists 0.0
autonomy 0.0
abandoning 0.0
canvas 0.0
blacks 0.0
pledging 0.0
elaine 0.0
methodist 0.0
candidacy 0.0
bonuses 0.0
resolve 0.0
laughable 0.0
scares 0.0
intellect 0.0
hopeless 0.0
debunked 0.0
shames 0.0
connections 8.73630562447e-05
tyleroakley 0.0
perplexed 0.0
ddlovato 0.0
impromptu 0.0
teenvogue 0.0
unveils 0.0
billie 0.0
prouder 0.0
sweetness 0.0
cheryl 0.0
filipino 0.0
petersburg 0.000257479749751
drastic 0.0
lifesaving 0.0
decorated 0.0
usagym 0.0
freestyle 0.0
absentee 0.0
lashes 0.0
concentration 0.0
refuge 0.0
renaissance 0.0
actively 0.0
monitoring 0.0
destined 0.0
willfully 0.0
detained 0.0
warmest 0.0
heroic 0.0
bragged 0.0
miners 0.0
shareholders 0.0
randall 0.0
excessive 0.0
geneva 0.000114397142118
corporations 0.0
unsolvable 0.0
grandchildren 0.0
discredit 0.0
enormously 0.0
frances 0.0
pillar 0.0
trillions 0.0
expansive 0.0
organize 0.0
capabilities 0.0
confederate 0.0
shakers 0.0
ambiguity 0.0
linking 0.0
pretends 0.0
wireless 0.000200142607144
inherit 0.0
paranoia 0.0
theatlantic 0.0
languages 9.95344473404e-05
disposable 0.0
reinforcing 0.0
integrated 0.0
optimist 0.0
pigeons 0.0
chadhgriffin 0.0
katieledecky 0.0
richards 0.0
demconvention 0.0
abcpolitics 0.0
chobani 0.0
dominiclowell 0.0
floridians 0.0
cecilerichards 0.0
clintonfdn 0.0
billclinton 0.0
grounded 0.0
abilities 0.0
grandfather 0.0
profoundly 0.0
fiercely 0.0
drowning 0.0
astound 0.0
alzheimer 0.0
responders 0.0
peacecorps 0.0
nygovcuomo 0.0
hurricanes 0.0
approximately 0.0
daunting 0.0
organizer 0.0
ingenuity 0.0
illnesses 0.0
intruders 0.0
invading 0.0
harmful 0.0
foundations 0.0
skateboards 0.0
housekeeping 0.0
dangerously 0.0
renters 0.0
predatory 0.0
rebuke 0.0
jengranholm 0.0
supremacy 0.0
linger 0.0
adamserwer 0.0
clevelanddotcom 0.0
repadamschiff 0.0
fahrenthold 0.0
revoke 0.0
advising 0.0
strengthening 0.000121358825399
colleges 0.0
deniers 0.0
aspire 0.0
exceed 0.0
lebassett 0.0
shrugged 0.0
stewardship 0.0
complains 0.0
temperament 0.0
texasinafrica 0.0
americorps 0.0
latino 0.0
payoffs 0.0
protested 0.0
honorable 0.0
fathom 0.0
inconvenience 0.0
johnkasich 0.0
latinos 0.0
votevets 0.0
unsurprising 0.0
loopholes 0.0
dismal 0.0
unqualified 0.0
rigorous 0.0
mittromney 0.0
joyannreid 0.0
theorist 0.0
evan_mcmullin 0.0
discriminate 0.0
ezraklein 0.0
obsessively 0.0
desperation 0.0
latina 0.0
tammyforil 0.0
pantsuit 0.0
superior 0.0
exonerated 0.0
johnpodesta 0.0
recites 0.0
supremacists 0.0
affront 0.0
electing 0.0
defund 0.0
demeans 0.0
govpencein 0.0
squandered 0.0
machado 0.0
pneumonia 0.0
unhinged 0.0
criticizes 0.0
derailment 0.0
iceberg 0.0
epipens 0.0
generals 0.0
timkaine 0.0
provocation 0.0
paulbegala 0.0
clintinfdn 0.0
wesleylowery 0.0
childdefender 0.0
dictatorship 0.0
ceasefire 0.0
stamped 0.0
intimidation 0.0
casinos 0.0
manifest 0.0
restrict 0.0
transformation 0.0
battleground 0.0
christine 0.0
touted 0.0
mcconnell 0.0
deflect 0.0
expressing 0.0
commonsense 0.0
statesman 0.0
mcbride 0.0
tumble 0.000146276116536
bigoted 0.0
belonged 0.0
praised 0.0
policeman 0.0
booing 0.0
cathedral 0.0
tomperez 0.0
keithellison 0.0
knowingly 0.0
wealthiest 0.0
backward 0.0
pretended 0.0
thedemocrats 0.0
psychologists 0.0
americ 0.0
successor 0.0
diplomats 0.0
congratulated 0.0
devotion 0.0
remembrance 0.0
eligible 0.0
incoherent 0.0
exhaustive 0.0
downgraded 0.0
unified 0.0
embraces 0.0
galling 0.0
senatorreid 0.0
lifetimes 0.0
demagogue 0.0
rodham 0.0
temper 0.0
longtime 0.0
vetoing 0.0
janelle 0.0
voguemagazine 0.00055312579307
dominique 0.0
surpassed 0.0
associates 0.0
demonstrating 0.0
morning_joe 0.0
bazaar 0.0
consequential 0.0
undressed 0.0
entrepreneurial 0.0
billionaires 0.0
prescription 0.0
senseless 0.0
refresher 0.0
classmates 0.0
maturity 0.0
comentarios 0.0
risked 0.0
invincible 0.0
vigilant 0.0
emissions 0.0
recommit 0.0
voiceless 0.0
natlparkservice 0.0
workplaces 0.0
mayaharris_ 0.0
dhsgov 0.0
cyberattacks 0.0
maxinewaters 0.0
jerrybrowngov 0.0
discriminates 0.0
thejusticedept 0.0
simone_biles 0.0
sotomayor 0.0
traumatic 0.0
scammed 0.0
dreamer 0.0
fulfill 0.0
latinas 0.0
discouraged 0.0
usnavy 0.0
oftentimes 0.0
reprehensible 0.0
demeaning 0.0
ratified 0.0
emilyslist 0.0
lawsuits 0.0
nonviolent 0.0
caucus 0.0
joebiden 0.0
joyful 0.0
privatize 0.0
barbaraboxer 0.0
sengillibrand 0.0
camino 0.0
familias 0.0
americaferrera 0.0
universidades 0.0
gabbygiffords 0.0
shuttlecdrkelly 0.0
fulton 0.0
shimon 0.0
hablar 0.0
fuerza 0.0
trickle 0.0
refinance 0.0
shattering 0.0
damián 0.0
gouging 0.0
moveon 0.0
simone_manuel 0.0
revdrbarber 0.0
senatorbarb 0.0
cnbcnow 0.0
stiffed 0.0
mikebloomberg 0.0
solver 0.0
thrower 0.0
granddaughters 0.0
changemaker 0.0
clairecmc 0.0
anastasiasomoza 0.0
defunding 0.0
preyed 0.0
aspirations 0.0
fannie 0.0
mubarak 0.0
buzzfeedben 0.0
probed 0.0
marines 0.0
projecting 0.0
outsourcing 0.0
developers 0.0
crimea 0.0
everyo 0.0
chaser 0.0
dubious 0.0
diplomatic 0.0
rosiegray 0.0
unpatriotic 0.0
multifaceted 0.0
myanmar 0.0
adamparkhomenko 0.0
tjmshow 0.0
tenant 0.0
perjury 0.0
contractual 0.0
surrounds 0.0
exceeded 0.0
thrives 0.0
unclerush 0.0
sailors 0.0
stereotypes 0.0
librarycongress 0.0
acknowledging 0.0
philippe 0.000162348999488
battled 0.000128739874875
postopinions 0.0
ambassadorrice 0.0
shockingly 0.0
mcfaul 0.0
presid 0.0
poisons 0.0
kenvogel 0.0
johndingell 0.0
harnessing 0.0
unwritten 0.0
bewildering 0.0
moonshot 0.0
apologizing 0.0
oligarchs 0.0
espionage 0.0
marcorubio 0.0
desecration 0.0
brianefallon 0.0
bangladesh 0.0
twittermoments 0.0
officialcbc 0.0
thefix 0.0
urgency 0.0
traceeellisross 0.0
andradaymusic 0.0
impeccably 0.0
catastrophe 0.0
tallest 0.0
anastasia 0.0
azcentral 0.0
marrying 0.0
moderates 0.0
resembles 0.0
paraphrase 0.0
applauds 0.0
heavier 0.0
virginians 0.0
railing 0.0
eloquently 0.0
denverpost 0.0
independents 0.0
americanos 0.0
hispanos 0.0
bailouts 0.0
divisiveness 0.0
jmpalmieri 0.0
hardballchris 0.0
republicano 0.0
candidato 0.0
phillyinquirer 0.0
jesserodriguez 0.0
militarytimes 0.0
sunsentinel 0.0
ryanlizza 0.0
bretbaier 0.0
thelastword 0.0
hillaryclinto 0.0
maddowblog 0.0
boundless 0.0
enacting 0.0
gettysburg 0.0
groping 0.0
govchristie 0.0
justices 0.0
watchdogs 0.0
cavalier 0.0
succeeds 0.0
retirees 0.0
pocketed 0.0
multimillionaire 0.0
redcross 0.0
evalongoria 0.000136487079051
highways 0.0
marlee 0.0
primero 0.0
pianos 0.0
bribed 0.0
scranton 0.0
wellesley 0.0
perkins 0.0
onward 0.0
algore 0.0
candidly 0.0
trajectory 0.0
quitter 0.0
objectifying 0.0
ignoramus 0.0
disillusioned 0.0
asinine 0.0
vibrancy 0.0
arpaio 0.0
testifying 0.0
chairmen 0.0
luchar 0.0
disrupted 0.0
podemos 0.0
settlements 0.0
massacres 0.0
millones 0.0
eagerly 0.0
grandmas 0.0
dedicado 0.0
seeming 0.0
pragmatic 0.0
hashanah 0.0
porque 0.0
unidos 0.0
nuestras 0.0
primera 0.0
debemos 0.0
muchos 0.0
cuando 0.0
nuestro 0.0
inteligente 0.0
rapists 0.0
agosto 0.0
presidente 0.0
puedes 0.0
mujeres 0.0
safeguarding 0.0
indecent 0.0
motions 0.0
strengthened 0.0
eminently 0.0
innuendo 0.0
memorandum 0.0
reuterspolitics 0.0
educates 0.0
mexicana 0.0
disparage 0.0
absurdity 0.0
backdoor 0.0
affording 0.0
hardline 0.0
steelworkers 0.0
demean 0.0
immigrate 0.0
thuggish 0.0
astrid 0.0
jesuit 0.0
governorship 0.0
waterboarding 0.0
personas 0.0
stephenson 0.0
huracán 0.0
firefighter 0.0
ravages 0.0
marleematlin 0.0
scrolling 0.0
tarnish 0.0
ajentleson 0.0
roanoke 0.0
heaping 0.0
carpentry 0.0
forcefully 0.0
frankiejgrande 0.0
aprildryan 0.0
unjustified 0.0
yamiche 0.0
evacuate 0.0
disrespects 0.0
incomprehensible 0.0
jogger 0.0
vindicated 0.0
blazed 0.0
cambodia 0.0
revolutionize 0.0
welding 0.0
unbeatable 0.0
polished 0.0
saddled 0.0
interdependence 0.0
alleys 0.0
civility 0.0
vilified 0.0
disagreeable 0.0
terence 0.0
bluster 0.0
incredib 0.0
holton 0.0
hillaryforpa 0.0
hillaryforco 0.0
jes_chastain 0.0
vitalvoices 0.0
indictments 0.0
evokes 0.0
reaffirming 0.0
rebukes 0.0
minerva 0.0
peddle 0.0
starker 0.0
cascading 0.0
carolinians 0.0
señora 0.0
honrado 0.0
missionary 0.0
ranchers 0.0
denveropinion 0.0
practicality 0.0
thoughtfulness 0.0
scripture 0.0
pueblo 0.0
morningmoneyben 0.0
smalls 0.0
exemplify 0.0
eviscerated 0.0
jeffflake 0.0
helpless 0.0
sarahemcbride 0.0
indivisible 0.0
colinjones 0.0
mrjoshcharles 0.0
houstonchron 0.0
thoroughness 0.0
isolde 0.0
wonkiest 0.0
equate 0.0
dustbin 0.0
estados 0.0
newrepublic 0.0
expresses 0.0
demonizing 0.0
jeffbezos 0.0
discard 0.0
befriending 0.0
slovenia 0.0
unrelenting 0.0
salmahayek 0.0
revolves 0.0
anselm 0.0
dwells 0.0
usairforce 0.0
deride 0.0
repackaging 0.0
earmarked 0.0
evader 0.0
passpor 0.0
awaited 0.0
guterres 0.0
precinct 0.0
presidencia 0.0
unshakable 0.0
marshablackburn 0.0
comunidad 0.0
merecen 0.0
juntos 0.0
infomercial 0.0
johnstown 0.0
statewide 0.0
skyscrapers 0.0
phillydotcom 0.0
deducted 0.0
laguardiacc 0.0
annieslisttx 0.0
nickmerrill 0.0
leaninorg 0.0
missbeae 0.0
minassianmedia 0.0
natarsha 0.0
foments 0.0
ruline 0.0
steininger 0.0
michaelnutter 0.0
harren 0.0
louisa 0.0
cannell 0.0
robbymook 0.0
broward 0.0
hillaryforfl 0.0
jeanneshaheen 0.0
ericasmegs 0.0
jeremyshorr 0.0
turpin 0.0
rubycramer 0.0
singularly 0.0
joshschwerin 0.0
clionamccarney 0.0
xochitlhinojosa 0.0
adamsmith_usa 0.0
humayun 0.0
jamestaylor_com 0.0
hillaryformn 0.0
ericwms 0.0
dougmillsnyt 0.0
jencarlosmusic 0.0
hannahbfine 0.0
creynoldsnc 0.0
lefsadventures 0.0
pembroke 0.0
perceptiveness 0.0
hillaryforaz 0.0
fayetteville 0.0
entrust 0.0
daveeddiggs 0.0
petewilliamsnbc 0.0
hillary_esp 0.0
ustedes 0.0
nación 0.0
creativa 0.0
bilingües 0.0
multilingües 0.0
contribuyen 0.0
diversidad 0.0
economía 0.0
hillaryforia 0.0
estaré 0.0
discurso 0.0
síganme 0.0
detall 0.0
hopewell 0.0
temperamentally 0.0
redone 0.0
barging 0.0
machadooficial 0.0
mikereedschmidt 0.0
franklinfoer 0.0
eamonjavers 0.0
hillaryforoh 0.0
hustling 0.0
relishes 0.0
markkirk 0.0
asmamk 0.0
just_jenna 0.0
discrimina 0.0
samifayebaker 0.0
padded 0.0
wigazette 0.0
phillytrib 0.0
trivializes 0.0
condones 0.0
ellisoncampaign 0.0
barb_kinney 0.0
theriveterspod 0.0
humiliates 0.0
nickmarroletti 0.0
alli_wilber 0.0
brespolitico 0.0
jasoncherkis 0.0
sean_p_thomas 0.0
outclassed 0.0
outmaneuvered 0.0
belittling 0.0
familie 0.0
yuuuuuuge 0.0
disqualifying 0.0
brynnecraig 0.0
buffywicks 0.0
lasvegassun 0.0
cmichaelhuntley 0.0
civically 0.0
raquelwillis_ 0.0
celebramos 0.0
trayectoria 0.0
pionera 0.0
breakups 0.0
rosenbergerlm 0.0
heraldleader 0.0
jaylon 0.0
decisi 0.0
antónio 0.0
squander 0.0
presidenta 0.0
protegerá 0.0
astrid_nv 0.0
sltrib 0.0
peter_j_k 0.0
brosandprose 0.0
nicholaskitchel 0.0
mahoning 0.0
omerizer 0.0
kendallybrown 0.0
davidnakamura 0.0
chatima 0.0
tammybaldwin 0.0
mpshapiro 0.0
responsibilit 0.0
overgrown 0.0
literally_trump 0.0
imploded 0.0
rnicholasburns 0.0
disastrously 0.0
stiffing 0.0
globeopinion 0.0
degradi 0.0
languishing 0.0
demostrar 0.0
poderosa 0.0
iammarleydias 0.0
tbtimes_opinion 0.0
disloyalty 0.0
defende 0.0
vegalteno 0.0
moodysinvsvc 0.0
decisiveness 0.0
whethe 0.0
preocupada 0.0
trayecto 0.0
afectados 0.0
ayotte 0.0
empathize 0.0
lifelo 0.0
lorellapraeli 0.0
ironworking 0.0
ebeling 0.0
contribuido 0.0
ejército 0.0
inmigrantes 0.0
indocumentados 0.0
enquirer 0.0
delega 0.0
roadshow 0.0
sunsentinelopinion 0.0
resulta 0.0
insultar 0.0
construir 0.0
muralla 0.0
provoked 0.0
discretion 0.0
sdutideas 0.0
merece 0.0
respeto 0.0
enfrentar 0.0
valentía 0.0
ataques 0.0
descaro 0.0
culparla 0.0
petulance 0.0
ninhaitseng 0.0
flippantly 0.0
posteverything 0.0
_vicentefdez 0.0
azcopinions 0.0
aumentó 0.0
andrewjenks 0.0
imwithher 0.0
diferencias 0.0
onevoxdotcom 0.0
ignite_national 0.0
endorsin 0.0
mercersdairy 0.0
everyvoice 0.0
rachaelgass 0.0
galifianakis 0.0
crutcher 0.0
nyledimarco 0.0
mistreat 0.0
wellsfargo 0.0
templeuniv 0.0
sollender 0.0
honremos 0.0
tantas 0.0
contribuciones 0.0
aleatha 0.0
endeavored 0.0
legitimize 0.0
además 0.0
whistles 0.0
ugliness 0.0
jorge_silva 0.0
dnclatinos 0.0
libnofcongress 0.0
unscrupulously 0.0
contractually 0.0
impulsively 0.0
qaddafi 0.0
cancelable 0.0
cnbcopinion 0.0
jbrotherston 0.0
_bxddxss 0.0
sspiderboy 0.0
collegedems 0.0
veered 0.0
charitynav 0.0
usnewsopinion 0.0
humansofny 0.0
unfitness 0.0
steadiness 0.0
nbcusa_inc 0.0
verdadera 0.0
encuentra 0.0
hacemos 0.0
anuncio 0.0
unpresidential 0.0
unfavorably 0.0
heridas 0.0
visibles 0.0
veteranos 0.0
cuidado 0.0
panetta 0.0
experiencia 0.0
confío 0.0
exsecretario 0.0
comercio 0.0
lizromanoff 0.0
americasvoice 0.0
davidleopold 0.0
rebuked 0.0
criminalize 0.0
mentiré 0.0
inmigración 0.0
demonizar 0.0
americanlegion 0.0
sarasolow 0.0
qumber 0.0
zerlinamaxwell 0.0
hillaryforut 0.0
hillaryforga 0.0
grandtetonnps 0.0
marlondmarshall 0.0
mariatcardona 0.0
escuchamos 0.0
claramente 0.0
demonizando 0.0
segunda 0.0
tercera 0.0
rhettbuttle 0.0
hillaryformi 0.0
futuramics 0.0
louisianans 0.0
claressashields 0.0
helen_maroulis 0.0
bri_rollin 0.0
itspooda 0.0
kristihollywood 0.0
meredeetch 0.0
kersee 0.0
rodhams 0.0
bidens 0.0
possibilitie 0.0
maulama 0.0
akonjee 0.0
shotdiva 0.0
auriemma 0.0
maxlinsky 0.0
cowering 0.0
moratory 0.0
hillarycl 0.0
repudiate 0.0
fencer 0.0
bankruptcies 0.0
warrenbuffett 0.0
bishopgarrison 0.0
ajazzyworld 0.0
morell 0.0
starkest 0.0
braille 0.0
frankmugisha 0.0
confiar 0.0
distinguido 0.0
herencia 0.0
harkening 0.0
impulses 0.0
dakota_meyer 0.0
kauveri 0.0
iafftreg 0.0
laurawalkerkc 0.0
jakesherman 0.0
benediction 0.0
denigrates 0.0
ann_oleary 0.0
liberates 0.0
bombast 0.0
repcleaver 0.0
throwed 0.0
luchado 0.0
derechos 0.0
humanos 0.0
trabajadores 0.0
relent 0.0
aprendí 0.0
valores 0.0
trabajo 0.0
mismos 0.0
annella 0.0
drbiden 0.0
expedient 0.0
imangelabassett 0.0
smegielski 0.0
leinonen 0.0
driffin 0.0
buckles 0.0
insatiably 0.0
sybrina 0.0
mcbath 0.0
dontre 0.0
randibrazeau 0.0
sjbxtr 0.0
malcolmkenyatta 0.0
lankford 0.0
countrymen 0.0
countrywomen 0.0
refiere 0.0
separar 0.0
valiente 0.0
strongmen 0.0
seremos 0.0
compañeros 0.0
bienvenidos 0.0
dauntless 0.0
governorva 0.0
sherrodbrown 0.0
vicepresidencia 0.0
ilyseh 0.0
gunsense 0.0
encantada 0.0
anunciar 0.000217059302971
splintering 0.0
albamonica 0.0
criminologist 0.0
construiremos 0.0
discriminatio 0.0
endorser 0.0
sniveling 0.0
ryanegraney 0.0
baptize 0.0
convención 0.0
republicana 0.0
