chatting 0.0
trying 0.000199675084433
launch 4.89665789846e-05
moment 0.000160603605328
wonderful 0.000448582828308
seeing 8.20528662473e-05
recommend 5.94401259776e-05
anybody 6.1244400942e-05
podcast 0.00117829058929
challenges 0.0
worked 4.31870530726e-05
direct 0.0
others 0.00017181589678
currently 9.50113171133e-05
better 0.00106668238997
please 0.00208222620565
travels 0.0
social 0.000178946144741
around 0.000829641858867
people 0.00288399312844
leaving 4.52257901803e-05
morning 0.000119160917196
general 5.11929006529e-05
overall 0.0
damage 0.000130241438113
affect 6.87438214102e-05
everything 0.000675245197446
twitter 0.000876205339804
present 0.000135677370541
though 4.13598254413e-05
friend 0.000638960270186
watched 0.000314007979815
beautiful 0.000900150342201
anything 0.000565151607461
practice 0.000107714573645
helped 4.3539270162e-05
helpful 0.0
revive 0.0
updated 0.0
thinking 0.000243517451294
finally 0.000689966112
caught 0.000134209608556
believe 0.000752654337174
already 0.000237680317002
orlando 0.000135286567057
depends 0.0
chance 0.000198601528661
meaning 0.000234963492473
annual 0.0
renewed 0.0
growing 0.000142908778557
probably 0.000516844100957
should 0.000105005273582
changed 4.24919016153e-05
history 0.000368243321809
center 0.00010412243188
museum 0.000275870625264
behind 0.000158027020737
pretty 0.000689966112
really 0.00198601528661
expensive 0.0
little 0.00118840158501
earlier 0.0
forget 0.000402592875596
paperwork 0.0
someone 0.001361455596
mostly 0.000120663928384
worker 0.0
safety 0.0
program 0.000110520081742
things 0.00106668238997
electrical 0.0
visiting 0.000109573800846
available 0.000371235435932
perfect 0.000413598254413
different 0.000242207831769
search 0.000106197952988
connect 7.42430483538e-05
numbers 4.96489233245e-05
person 0.000597412731685
watching 0.000758765320846
passed 9.68581276395e-05
minutes 0.00045129076436
daughter 4.80306729965e-05
average 0.000170638190611
positive 4.71164262931e-05
outside 0.00016814068414
metric 0.0
looking 0.000475360634005
forward 0.000204028622101
raising 0.000226857765977
afraid 0.000102672602021
impression 0.000145961488645
profile 5.43193594021e-05
drawing 0.0
favorite 0.00267361675131
picture 0.000380365886756
historic 5.99728093985e-05
instead 0.000268419217112
appreciate 0.0
husband 0.0
international 0.000147306324885
toddler 0.000209664102722
couldn 4.13598254413e-05
remember 0.000476643668786
holidays 0.000113428882989
friends 0.000838635354619
despite 0.0
understood 0.0
impossible 0.000162032133922
everyone 0.00135049039489
florida 0.0
always 0.000553094572578
months 0.000165886337483
moving 0.00012816678707
meeting 0.000122087492198
google 0.000549177150122
answer 4.06958307326e-05
together 0.000438102669902
included 0.0
inside 0.000289518778089
section 0.0
missed 0.0
button 6.59438062274e-05
active 0.0
longer 0.000183384012625
enough 0.000321207210656
projects 7.05710490416e-05
driving 0.000194251034201
building 0.00017846065428
enjoying 0.0
kennedy 0.0
tantrums 0.0
apparently 0.000409543205223
recent 5.25026367911e-05
gotten 6.636187103e-05
amazing 0.00150530867435
determined 7.6622100113e-05
attention 0.000134941217457
progress 5.51016969507e-05
tomorrow 0.000595804585982
whenever 0.000522599110308
curious 0.00012627007411
george 0.000345621988287
feeling 0.000166334641388
excited 0.000497659012448
campaigning 0.0
understand 0.000303128771475
learning 0.000147714312432
special 0.000200214058235
secret 0.000133482488082
across 4.43735312867e-05
comparison 0.0
surprised 4.73754879111e-05
anymore 0.000253122241625
spirited 0.0
precious 0.0
rejoice 0.000119483509953
rather 0.00013384549071
showing 0.000127131669001
saying 0.000207357921853
tweeted 5.25026367911e-05
updates 5.77146659362e-05
thoughts 0.00016859543847
exactly 0.000128861922585
except 0.000354371138275
getting 0.000476643668786
nothing 0.000357482751589
tweets 0.000262655029591
course 0.000205132165618
photos 4.80306729965e-05
looked 0.000225514537417
difficult 0.000157064843444
office 0.00137452717424
decisions 5.99728093985e-05
brought 4.40138314861e-05
biggest 0.000245495547873
thrilled 6.05127734557e-05
entire 0.000308933575311
something 0.000595804585982
closing 0.0
anyone 0.000600642174706
taking 0.000238321834393
reprint 0.0
flying 0.000199700781862
happening 0.000173216440843
sometimes 0.000700413412244
lessons 0.000115092386755
village 0.000318955775135
stopped 0.000139810033017
yesterday 0.000240256869882
service 0.000436573771414
serious 0.000127475704846
emails 0.000274975285641
wearing 0.000279620066033
afford 0.0
either 8.66082204213e-05
second 0.000120128434941
checking 0.00010296044755
volunteers 0.0
indeed 0.0
hearing 0.0
choose 0.0
another 0.000831881109508
address 0.000107104427676
display 0.0
compare 0.0
weekend 0.000201296437798
suggested 0.0
appear 6.01519786633e-05
anyway 0.000154008903032
theory 6.51207190566e-05
buildings 0.0
working 0.000238321834393
bigger 4.66033443389e-05
treated 0.0
admired 0.0
retirement 0.0
laughing 4.71164262931e-05
wanted 0.000240905407992
current 0.0
grateful 0.00020766065969
friendship 0.0
family 0.000476643668786
listening 0.00043539270162
stream 0.000218521751287
sharing 4.6730991478e-05
double 0.000224902029094
especially 8.80276629721e-05
middle 0.000501564231889
waiting 0.000244174984396
definitely 8.68430304318e-05
walking 9.52725190383e-05
account 4.66033443389e-05
completely 0.0
thought 0.000480513739765
accept 5.0765796437e-05
possible 0.00016814068414
simple 9.2445718009e-05
manufacturing 0.0
destroyed 0.0
members 0.000100128118846
supposed 0.0
manufacturers 0.000261162103453
business 0.000214189741994
absolutely 8.49838032307e-05
anywhere 0.000264745227771
sending 0.000276581043239
introducing 0.0
congrats 0.000500352662093
beauty 0.000113758793741
community 9.79331579693e-05
greatest 0.000825008789102
posted 0.000375900238006
wednesday 4.78987638417e-05
explain 0.000324444965103
broken 0.000196952416576
fairly 0.0
closest 0.0
hoping 0.0
relationship 5.34005562422e-05
actually 0.00093600410685
pockets 0.0
wallet 0.0
pocket 6.80798267016e-05
argument 0.0
decent 0.0
school 0.000242207831769
throwback 8.4762432172e-05
thursday 0.000127475704846
talented 0.000104415617783
discuss 0.000102385801306
celebrate 4.38946556636e-05
celebrating 4.73754879111e-05
anniversary 0.00014409201899
students 0.000210603519796
corners 0.0
internet 0.00074061854633
figure 9.50113171133e-05
opened 5.80537817968e-05
inspired 4.80306729965e-05
latter 0.0
sitting 0.000224291414154
playing 0.000161471887846
street 0.000440138314861
points 0.000101815304168
advice 0.0
memory 5.49439851437e-05
forever 0.000134574848492
congress 0.000137935312632
imagine 0.00039827940389
problem 0.000127820742253
pulling 0.0
furniture 0.0
keeping 0.0
dressed 0.000192346211598
chinese 0.000256461615464
unlike 0.0
allowed 0.000365454662241
otherwise 0.0
afternoon 9.34619829559e-05
planned 0.000114090087771
images 0.0
noticed 6.29418496029e-05
expense 0.0
differences 7.63505749536e-05
difference 0.000260529091295
editor 0.0
intent 0.0
suppose 0.0
inspiration 0.000163423777295
letting 0.0
system 4.96489233245e-05
almost 0.000476643668786
details 0.0
experience 0.000248829506224
living 0.000290301090594
worries 0.0
weather 0.000304594778622
bright 0.0
understands 8.28030179605e-05
normal 0.000106498957201
launching 6.47155180154e-05
backyard 0.0
pointed 8.21708963921e-05
before 0.000172281366986
monday 0.000124414753112
example 5.25026367911e-05
science 0.000840921336132
tweeting 0.000136047168861
forgot 0.00024893408949
disaster 6.08768935925e-05
happens 0.000246823509504
silence 0.00012511657172
learned 0.000275827336622
congratulations 4.37758382652e-05
natural 0.00016915974817
babies 0.000432615068424
mission 0.0
surprising 0.0
reference 0.0
forgotten 0.000118177905016
setting 0.0
appeared 0.0
reminds 5.6223668038e-05
fantastic 0.000328013366694
loving 0.000187436209539
complete 9.11934967071e-05
daniel 0.0
rewarding 0.0
nearly 0.0
spirit 0.000360361566426
launched 0.0
finding 9.71255171007e-05
stories 0.000257723845169
including 8.82667358031e-05
wouldn 0.0
choice 0.0
offended 8.8628396911e-05
conversation 0.000386366559998
disrespectful 0.0
making 0.000475360634005
expect 0.0
traits 0.0
discussion 0.0
believes 0.00013929374455
response 0.0
brings 4.78987638417e-05
seasons 7.50202554881e-05
anytime 0.0
protected 8.06334745694e-05
location 0.0
needed 0.000169508892001
seriously 0.000219473278318
emergency 0.0
justify 0.0
spending 0.000148123709266
groups 0.0
condition 7.27330522561e-05
childhood 0.000129431036031
modern 0.000286056941818
welcome 0.000521961717315
moments 9.87491395107e-05
totally 0.000320922022094
running 0.000250176331047
strong 4.09159246455e-05
respond 0.0
message 0.000252893157706
coming 0.000594200792506
thankful 6.25582858601e-05
issues 0.000142126463733
challenge 0.000130617810486
intolerance 0.0
happen 0.000202384780914
giving 0.00020075450666
turkey 0.000289419300036
excellent 5.17696518476e-05
limits 0.0
contractors 0.0
common 0.000147306324885
pressed 0.0
healthcare 7.71708138669e-05
benefits 0.0
situation 0.0
workers 0.0
company 0.000314862840732
savings 9.50272794975e-05
health 0.000140577157155
insurance 0.0
change 0.00162853253502
silver 0.00012983519809
august 0.0
crying 0.00025023314344
mental 5.90889525082e-05
carrier 0.0
decide 9.84762082881e-05
happened 0.000292661394706
parking 0.000312033777176
demand 0.000157064843444
sacrifice 0.0
personal 8.63741061452e-05
rewards 0.0
beyond 0.000221867656433
contributing 0.0
passion 6.01519786633e-05
question 4.05862418823e-05
doctor 0.000121753787185
sacrifices 0.000114919970601
respected 0.0
losing 9.79331579693e-05
strain 0.0
respect 4.34215152159e-05
shouldn 4.75056585566e-05
career 0.0
visited 0.000187103674472
reason 0.00037627893605
simply 0.000546138156569
audience 0.000109887970287
sacrificed 0.000110187013929
employees 0.000152161806445
accounts 0.0
attacked 7.77272562372e-05
involved 4.62228590045e-05
extreme 0.0
valuable 0.0
knocked 0.0
reality 0.000141737234268
mention 4.89665789846e-05
without 0.000280299681529
problems 4.89665789846e-05
timing 0.0
described 0.0
pattern 0.0
online 0.000256333574139
background 0.0
buying 0.000161571860468
called 0.0011980505066
scientists 0.000458103449722
checked 5.63865827232e-05
heading 9.44914895122e-05
paying 5.16246727668e-05
planning 5.16246727668e-05
opposite 0.0
through 0.000111477832988
reached 5.89145294646e-05
changing 0.000146090721761
explains 0.0
harder 0.0
demands 0.0
silent 0.0
speaking 0.00022736354102
november 0.000425995828804
ordinary 7.85768966218e-05
number 4.06958307326e-05
stunning 0.000118528298098
atlantic 0.0
stupid 0.000221040163483
personality 0.000160666083046
grandparents 0.000108932725878
unless 9.79331579693e-05
calling 0.000166784220698
painting 7.71708138669e-05
focused 0.0
ridiculous 0.000328721402539
package 0.0
rooted 0.0
option 5.75461933773e-05
knowing 5.49439851437e-05
former 0.000149775586397
actual 0.000475197133163
tracked 0.0
suffers 0.0
schedule 0.0
friday 0.000362333588036
failure 0.0
achieve 0.0
winner 0.000132400103705
doctors 0.000143034727741
becomes 0.0
directly 0.0
quality 5.13363010106e-05
tearing 0.0
father 0.000542709482164
wishes 5.17696518476e-05
collar 0.000102143479849
caring 0.0
ground 0.0
matter 0.000213034570421
strategy 0.0
themselves 6.9419167004e-05
asking 8.407034207e-05
usually 0.0
thankfully 0.0
reacts 0.0
period 0.0
parents 0.000238181297596
balance 0.0
resist 0.0
mobile 6.59438062274e-05
computer 0.00018428833389
reminded 0.0
impressed 0.0
dinner 0.000307262589645
suffering 0.0
single 0.000368243321809
parent 0.0
approved 0.0
energy 0.00023622872378
preview 5.65501720053e-05
meltdown 0.0
remind 0.000221040163483
emotional 0.0
sounded 0.0
status 0.000119588898054
update 0.000139047842187
outage 0.0
customers 0.0
holding 0.0
causes 7.05710490416e-05
eating 0.000595787079894
picked 9.90230167706e-05
missing 0.0
surprise 8.49838032307e-05
officially 9.26985614579e-05
global 0.000477890788445
follow 0.00151753064169
opinion 0.0
faster 0.000192346211598
backwards 0.000170875555531
design 0.000239891237594
website 9.68581276395e-05
widely 0.0
origin 0.0
breaks 0.000104709895629
allows 0.0
promoting 6.82999206145e-05
volunteer 0.0
convince 0.0
negative 0.000289419300036
official 0.000287185031866
jersey 0.0
mistake 0.000109887970287
fixing 0.0
translated 0.0
ginger 0.0
peaceful 0.0
thinks 9.26985614579e-05
hospital 5.78838600071e-05
lauren 0.0
easier 0.000107714573645
excluded 0.0
successful 0.0
leadership 0.000124356820575
agrees 0.0
decline 0.0
turnout 0.0
showed 4.99251954656e-05
trumps 9.33278021963e-05
circle 7.03379701639e-05
engage 0.0
suited 0.0
experienced 6.91927666412e-05
interested 5.10500189232e-05
effect 5.23549478147e-05
success 0.0
ladies 0.000381322147021
dreams 5.22078088916e-05
protect 0.0
explanation 0.0
occasion 0.0
medication 0.0
planet 0.000501650248445
detached 0.0
essence 0.000100117048225
control 8.87470625733e-05
happier 0.0
likely 0.0
coincidence 0.0
cancel 0.0
project 0.000179433131323
laying 0.0
lesson 5.52600408708e-05
requires 0.000153791008709
healthy 5.38572868226e-05
treating 0.0
opening 4.31870530726e-05
statement 0.0
enjoyed 0.0
animal 0.000178850670833
nervous 6.53248887884e-05
pounds 0.0
wonder 0.00124903991065
matters 0.0
shared 5.44745924316e-05
somehow 6.41154038661e-05
benefit 0.000448081361081
terrible 0.0002024977933
continues 4.84290638197e-05
improve 0.0
equally 0.0
appointment 0.0
session 0.0
routine 0.0
exciting 0.000333453816634
corner 0.0
imagination 0.0
decides 0.0
cheering 0.0
spring 0.000253828982185
fallen 6.98758975843e-05
frequently 0.000107122939753
places 9.47509758222e-05
thousands 0.00029112218796
informed 0.0
typical 0.0
continue 4.58460031563e-05
attend 5.9794449027e-05
excuse 0.0
settle 7.39873403078e-05
female 0.000105898091109
recovery 6.57364212095e-05
treasured 0.0
grandma 0.0
closer 0.0
beginning 9.98503909312e-05
everywhere 0.000142126463733
scenes 0.0002024977933
bought 0.000242813792752
multiple 6.01519786633e-05
slogan 0.000194519787107
wishing 5.75461933773e-05
covered 0.00010296044755
remove 0.0
choices 6.43144307615e-05
dealing 0.0
teacher 0.000118528298098
training 5.14802237752e-05
passing 0.0
stopping 0.0
become 0.000456187428077
spread 0.000226745281436
season 0.000787965088774
putting 0.000166784220698
weight 0.000123604305264
quietly 0.0
necessity 0.0
knocks 0.0
effects 7.37332766979e-05
returns 0.000159748435801
expected 0.0
resources 0.0
bucket 7.475948388e-05
struggling 0.0
register 0.000118177905016
promotion 0.0
solution 0.0
manage 0.0
transition 0.0
gained 0.0
define 7.77272562372e-05
somebody 5.92641490489e-05
contract 0.0
ignorant 0.0
managers 0.0
credit 0.0
brothers 6.08768935925e-05
grandkids 0.0
computers 0.0
physical 0.0
series 0.000388683477654
offensive 0.000287996638156
fighting 4.52257901803e-05
donald 0.000171135131656
mexico 0.000344270617218
sandra 0.0
police 0.000102385801306
represent 0.0
president 0.00101506746174
talking 0.000398275154456
america 0.00114109766027
michigan 0.0
everybody 0.000391732631877
judgment 0.0
carolina 7.29807443225e-05
amount 0.000111477832988
houston 0.000135286567057
everyday 0.0
michael 0.000358866262646
protecting 7.08055111848e-05
providing 0.0
attitude 7.03379701639e-05
million 0.000250176331047
election 0.000602655904654
honesty 8.54377777657e-05
targeting 0.0
telling 0.00013530872245
correct 5.11929006529e-05
attack 5.11929006529e-05
elementary 0.000181816530575
americans 0.000552600408708
killed 0.000354026136791
horrible 0.000202929850586
salute 8.24856929197e-05
coverage 5.38572868226e-05
united 5.14802237752e-05
college 0.000297893539947
refuse 0.000142557303265
preach 0.0
hillary 0.000284165492442
clinton 0.00012983519809
presidency 0.0
throws 7.74480553919e-05
manning 9.01335982087e-05
american 0.000842977192352
deserved 0.0
humble 0.00014645999825
remain 5.58998403628e-05
founder 0.000220442509526
illegal 6.61522856303e-05
arizona 7.85768966218e-05
opinions 6.80798267016e-05
speeches 0.0
scared 0.000116448875184
salary 0.0
pieces 0.000176222619355
taught 0.000117135953517
thompson 0.0
straight 8.80276629721e-05
blocking 0.0
answers 0.0
created 0.000429905642878
record 0.000207357921853
stamina 0.0
weapon 0.0
bottom 0.000159748435801
athletes 0.0
registered 0.0
minnesota 0.000178747659002
committed 6.25582858601e-05
journey 0.000258123363834
snapchat 0.000516132936885
peoples 0.000290409488919
disrespect 0.0
brother 0.000193716255279
prayers 0.000124356820575
boston 0.000459027489624
korean 0.000181816530575
church 6.03319641919e-05
advantage 0.0
motivation 8.68241219466e-05
honestly 5.67144414943e-05
defeat 0.0
lifetime 5.99728093985e-05
captain 0.000134853615232
retired 8.06334745694e-05
country 0.000492317197484
ending 5.34005562422e-05
dressing 0.000154341627734
finish 4.88315130234e-05
ranked 0.0
employee 0.0
university 0.000170638190611
dreamed 0.0
prayer 8.78967694246e-05
nominated 0.000238467561111
responds 0.0
national 0.000257723845169
reform 0.0
shooting 0.000198595693298
cancer 9.98503909312e-05
deserve 4.86969072537e-05
mother 0.000354026136791
creating 0.000109260875644
powerful 9.68581276395e-05
wisdom 6.6997382136e-05
breaking 8.54445247131e-05
dollars 0.000133145148448
questions 0.00016278332293
racist 0.000572138910964
charged 0.0
soldiers 0.0
performance 0.0
reading 0.000800828332734
denver 8.31229124628e-05
graphic 0.0
garner 0.0
create 0.000137913668311
jordan 6.91927666412e-05
admire 7.34808365088e-05
nobody 4.86969072537e-05
government 0.000534961133799
politics 0.000449789344304
blessing 0.0
wrestling 0.0
charities 0.0
donate 0.000374865496866
sample 8.4762432172e-05
bringing 0.00017846065428
deserves 5.27996814626e-05
regret 0.000139751795169
victim 0.0
according 0.0
threat 5.90889525082e-05
heaven 6.29418496029e-05
heroin 0.0
honest 9.87491395107e-05
became 0.0
decision 0.0
counting 0.0
signing 0.000208244863759
embrace 0.0
pressure 0.0
celebrities 0.000197325295203
facebook 0.000424919016153
kardashian 0.0
divided 0.000173648243893
lawyer 0.0
lebron 0.000100117048225
campaign 0.000507065245938
determine 0.0
whether 5.02034132012e-05
praise 0.0
defined 0.0
proposes 0.0
discover 6.76432835285e-05
factory 8.0936209807e-05
arrested 0.000300081021952
estate 8.44290398544e-05
proposed 0.0
comments 9.68581276395e-05
teenage 0.000174356889992
wounded 0.0
endorsement 0.0
williams 0.000126658347669
custom 0.0
troops 0.0
singer 0.000232344166176
future 0.000409159246455
struggled 0.0
sister 0.0
sabotage 0.0
athlete 8.50986619051e-05
warrior 0.0
cheating 0.0
voting 9.79331579693e-05
succeed 0.0
religion 8.21708963921e-05
century 0.000130241438113
serving 0.0
because 0.000114422776727
cleveland 7.82916480528e-05
hiding 6.51207190566e-05
breath 0.0
choosing 7.88642197442e-05
lawrence 0.000181816530575
instagram 0.000330610181704
opponent 0.0
detroit 7.37332766979e-05
honored 5.51016969507e-05
nonsense 0.0
lifting 0.0
proven 0.000170875555531
talent 5.29490455543e-05
knocking 0.0
russian 0.000132304571261
brains 8.75359746323e-05
oakland 0.000421569761051
regardless 0.0
skills 5.51016969507e-05
citizens 6.78609521518e-05
california 0.000113758793741
commitment 0.0
seconds 5.30989764939e-05
seeking 6.98758975843e-05
threatening 0.0
listen 0.00151797802558
whatever 0.000319177238475
mexicans 0.0
satisfied 0.0
fought 0.000128628861523
compete 0.0
injured 0.0
billion 0.000284396984352
ceiling 0.0
absolute 0.0
appearance 0.0
bigsean 0.0
handle 0.00020707860739
promise 9.42328525861e-05
nightclub 0.0
hosting 0.000156183647819
actors 0.00112886864397
generation 0.000108949184863
criminal 0.0
tuesday 0.00013530872245
ronald 0.000105392440263
locker 0.0
struggle 0.000123230718231
degree 7.08055111848e-05
entering 0.000303252239155
leader 0.0
pageant 0.00014606936251
toughest 9.45955073836e-05
character 0.00026549488247
mirror 6.47155180154e-05
interview 0.000484415663538
whistle 0.0
obviously 0.0
battle 9.21936810796e-05
motivate 0.0
destroy 0.0
relentless 0.0
winning 8.47544460003e-05
charlotte 0.0
accomplished 0.0
stepped 9.05190330238e-05
defense 6.37203330219e-05
appeal 0.0
causing 0.000167541157384
arabia 0.000104279500323
shipped 0.0
society 0.000164360701269
officers 0.0
brooklyn 0.000401665207616
marked 0.0
incredible 0.000514055380785
poster 0.000188825548809
wealthy 0.0
memorable 8.21708963921e-05
officer 0.0
minute 0.000223682680927
luther 9.45955073836e-05
foreign 0.0
pregnant 8.12412827915e-05
champions 7.4500422262e-05
virginia 0.000316614591266
tackle 7.37332766979e-05
unarmed 0.0
orange 0.000237760503911
policy 0.0
comedy 0.000929847502982
reminder 4.77672936532e-05
evidence 5.89145294646e-05
lighten 0.0
presidents 8.34454183778e-05
kicked 0.0
sticker 0.00010266675578
accused 0.0
intentions 0.0
facing 0.0
freedom 0.000165780122612
actions 6.7426807616e-05
debating 0.0
outcome 0.0
utterly 0.0
mississippi 0.0
clearly 5.03432602683e-05
download 0.000280307112044
sidelines 0.0
invite 0.000224894672152
legally 8.57798297309e-05
central 5.23549478147e-05
washington 0.000262513183956
veteran 0.0
division 0.0
veterans 0.0
stronger 0.0
promised 6.51207190566e-05
worried 0.0
security 0.0
immediately 0.000609609241907
television 0.000279503590337
entitled 0.000172249738175
racism 7.6622100113e-05
highest 5.60614224088e-05
approve 0.0
turning 9.92978466489e-05
legacy 6.29418496029e-05
ignore 0.0
choked 0.0
backing 0.0
helping 0.0
collector 0.000132776436232
willing 6.03319641919e-05
basically 0.00040518702005
return 4.38946556636e-05
unacceptable 0.0
feelings 0.000137042495106
network 0.000332514131949
language 0.000111157290924
invest 7.91536478165e-05
coward 0.0
schools 0.0
patients 0.0
foster 8.21708963921e-05
children 0.000436573771414
nation 9.98503909312e-05
review 0.000472457447561
between 8.71784449959e-05
knowledge 0.0
begins 4.75056585566e-05
tenure 0.0
faithful 0.0
highlights 0.0
shoulder 0.000157728439488
produced 0.0
consider 0.000315905279693
shattered 0.000114208117916
latest 0.0
beyonce 8.50986619051e-05
signed 0.000393982544387
millionaire 0.000105960892591
shelter 0.0
charity 0.000277095109958
germany 6.03319641919e-05
advance 5.77146659362e-05
proved 0.0
married 0.0
millions 5.37044558576e-05
blessings 0.0
indonesia 0.0
fights 0.0
dollar 0.000133568814398
rigged 0.0
conduct 9.13013705724e-05
johnson 5.63865827232e-05
howard 7.27330522561e-05
turned 0.00021769635081
criticism 0.0
stomach 8.24856929197e-05
upgrades 0.0
jackie 9.81895071538e-05
relevant 0.0
charge 0.000109887970287
ticket 0.000372746350203
steady 0.0
indian 0.0
turner 9.77219661328e-05
sanders 8.71784449959e-05
includes 5.90889525082e-05
survivor 0.0
dealers 0.000152957499092
collection 0.000163423777295
against 0.0
joyner 0.0
impact 5.30989764939e-05
families 0.000152297389311
welcoming 0.0
hitting 5.29490455543e-05
announced 0.0
granted 0.0
decided 0.00028503395134
itself 0.0
selfish 0.0
mexican 0.000157728439488
respects 0.0
guarantee 7.77272562372e-05
beliefs 0.0
citizen 0.000213835954898
states 0.0
denied 0.0
drought 0.0
memorial 0.000129028930785
decades 0.0
trayvon 0.0
landed 6.19898335322e-05
pastor 0.0
ultimate 0.000230184773509
weekends 0.0
episode 0.0004263793912
spikes 0.0
engaged 0.0
financial 0.0
payments 0.0
tolerant 0.0
symposium 0.0
kansas 0.000158890423818
agreement 0.0
source 0.0
backbone 0.0
dismiss 0.0
midnight 0.0
homework 8.82608895615e-05
joining 9.34619829559e-05
reasons 4.62228590045e-05
talked 4.99251954656e-05
released 9.2445718009e-05
reaching 0.0
release 8.70785403241e-05
existing 0.0
models 0.000153244200226
pageants 0.0
helmets 0.0
scheme 0.0
scholarship 0.000193606325946
stacked 0.0
speech 9.52725190383e-05
standing 4.53490562871e-05
higher 0.0
purple 0.0
justice 0.000213602224969
served 0.0
speaks 0.0
backup 0.0
allegedly 0.0
purchase 6.80798267016e-05
millionaires 0.0
consideration 0.0
strength 5.49439851437e-05
incredibly 5.60614224088e-05
private 0.000101815304168
ignored 0.0
neighbors 0.0
apologizes 0.0
beings 0.0
minimum 0.0
direction 0.000182630680778
enemies 0.000253287119563
exclusive 4.71164262931e-05
prison 0.000140212516651
himself 0.0
contributes 0.0
investigation 0.0
teaching 6.05127734557e-05
disgusting 0.000233181768712
philly 0.0
rights 0.000107104427676
cheers 6.14294446302e-05
maintain 0.0
overcome 0.0
flawless 0.0
unique 6.08768935925e-05
neighborhood 8.31229124628e-05
dating 7.85768966218e-05
handed 0.0
victory 0.0
lifted 0.0
greatness 8.4762432172e-05
muslim 0.00052331638716
terrorist 8.12412827915e-05
productive 0.0
tribute 0.000217898369727
deadspin 0.0
threatened 0.0
horror 0.000788642197442
warning 0.0
convention 0.0
understanding 0.000171634165091
action 0.00029824839859
having 0.0
afghan 0.0
announces 0.0
commencement 0.0
speaker 0.0
graduation 0.0
honors 0.0
produce 7.4500422262e-05
apologize 0.00014645999825
insult 8.37705786922e-05
continued 0.0
letter 4.89665789846e-05
discussed 0.0
therapy 8.31229124628e-05
untrue 0.0
written 0.000242145319099
existence 0.0
essential 7.03379701639e-05
results 0.0
initiative 0.0
disease 0.000155454512474
marching 0.000170875555531
suggest 0.00012285888926
georgetakei 0.0
ensure 0.0
democrats 0.0
marched 0.0
foundation 0.0
access 4.88315130234e-05
writes 6.47155180154e-05
student 0.0
colorado 0.0
medical 0.0
medicine 0.0
tremendous 0.0
nytimes 0.000120303957327
kindness 0.000168196874927
public 0.000184387362159
cannot 0.000177013068395
reveals 0.0
invented 0.000371215241769
threatens 0.0
candidate 0.000189405111164
persistence 0.0
sexual 0.0
illustration 0.0
measure 0.000145466104512
compared 0.0
headline 0.000124356820575
reflect 0.0
answering 0.000119588898054
streaming 0.0
leaders 0.000289419300036
supreme 0.000342606237764
nominee 0.0
immigration 7.37332766979e-05
policies 7.1999159539e-05
laundering 0.0
administration 0.0
defend 0.0
communicating 0.0
excitement 0.0
funding 0.0
climate 0.00262124894517
transfer 0.0
conspiracy 7.82916480528e-05
activist 0.0
horrifying 0.0
freely 0.000111482433432
retreat 0.0
daughters 0.00017019732381
compelling 9.16984267304e-05
platform 6.29418496029e-05
hamilton 0.000235730689865
futures 0.0
huffingtonpost 0.0
headlines 7.32299991252e-05
january 0.000109887970287
grants 0.0
unprecedented 8.82608895615e-05
relationships 0.0
philadelphia 8.78967694246e-05
diversity 0.0
funded 0.00014645999825
secure 0.0
income 7.29807443225e-05
universal 0.000140212516651
contributed 0.0
hurricane 0.000672787499706
fundamental 0.0
countries 0.000228845553454
linked 7.39873403078e-05
african 7.32299991252e-05
improved 0.0
unclear 0.0
provide 0.0
livestream 0.0
addresses 0.0
enhance 0.0
companies 0.000328682106047
proposal 0.0
potential 0.0
discrimination 0.0
connected 7.74480553919e-05
drives 7.60809032227e-05
attending 0.0
filled 0.000111477832988
education 0.000747607787391
addressed 0.0
mentioned 0.0
famous 0.000273152189109
resistance 0.0
exists 0.000221199830094
demonstrated 0.0
officials 0.0
instructions 0.0
transmission 0.0
olympics 7.03379701639e-05
ability 0.000115429331872
political 0.000398155778093
director 9.90230167706e-05
contains 0.0
sponsored 0.000163717176801
autism 9.50272794975e-05
previously 0.0
prevent 0.0
capacity 0.0
donations 0.000150040510976
william 0.000268846045658
editors 0.0
passionate 0.000143998319078
solving 0.0
innate 0.0
treatment 0.0
critical 0.0
feeding 0.0
preparing 0.0
depend 0.0
capable 0.0
bridge 0.0
systematically 0.0
becoming 0.000203630608335
embraced 0.0
literacy 0.000119483509953
lawyers 8.28030179605e-05
stigma 0.0
malaria 0.0
standard 0.000172135308609
hiring 7.68955043543e-05
remains 0.0
fellow 0.000151029780805
defending 0.0
quotes 6.53248887884e-05
pushes 0.0
luxury 0.00019270330457
admitted 0.0
colleagues 0.0
failed 0.000117829058929
independent 0.0
politically 0.0
driven 7.1999159539e-05
agenda 0.0
result 0.0
implications 0.0
insider 0.0
pakistan 0.0
solutions 0.0
trusts 0.0
indiana 7.94452119088e-05
filling 8.0936209807e-05
humility 0.000234271766857
clicks 0.0
disagree 0.00012285888926
claims 0.0
editorial 0.0
mistakes 7.08055111848e-05
offered 0.0
passionately 0.0
justification 0.0
inspiring 0.000160656641514
counter 0.0
shaped 0.000347296487786
retroviral 0.0
majority 0.0
approach 0.0
nature 0.000343268330181
concern 0.0
server 0.0
berniesanders 0.0
shameful 0.0
experiment 0.0
massive 0.000151029780805
promises 0.000151094040056
colored 0.0
consequences 0.0
whatsoever 0.00035845052986
proposals 0.0
guesses 0.0
bernie 8.54377777657e-05
interviewed 0.000127834749207
pregnancy 0.0
secretary 0.000207578299924
measures 0.0
vastly 0.0
reduce 0.0
compassionate 0.000110187013929
distinguished 0.0
dangerous 0.000106498957201
influence 6.49175990452e-05
letters 7.34808365088e-05
implicit 0.0
saving 0.000115092386755
revelations 0.0
incident 0.0
universe 0.000382321998132
victims 5.75461933773e-05
milestone 0.0
perfectly 0.000120663928384
exercise 0.000138385533282
receive 5.58998403628e-05
reputation 0.0
economics 9.54638226705e-05
disclosure 0.0
receives 0.0
terrific 0.000838510771012
collected 0.0
campus 0.000157153793244
founders 0.0
profiling 0.0
systemic 0.0
studying 0.0
necessary 0.000122120439863
inaccurate 0.0
breast 0.0
debate 0.000255250094616
suddenly 0.0
conflict 8.24856929197e-05
interest 5.57389164939e-05
meanwhile 0.0
indefensible 0.0
recall 7.55470200279e-05
rating 0.0
nominate 8.31229124628e-05
outstanding 6.80798267016e-05
devastating 0.0
illness 0.0
troubling 0.000216640411552
romney 0.0
appears 0.0
breathe 0.000542136387743
abroad 0.0
spanish 0.000145961488645
profit 0.000154896110784
reviews 0.000213835954898
republican 7.82916480528e-05
presidential 0.000264609142521
candidates 0.000133994764272
politicians 0.000144484557599
identified 0.0
epidemic 0.000290409488919
displaced 0.0
greater 0.000129431036031
absurd 8.54377777657e-05
deadline 0.0
height 9.6351652285e-05
sisters 7.55470200279e-05
nuclear 0.000210318774977
stress 0.0
leading 5.03432602683e-05
restored 0.0
conditions 0.0
however 6.29418496029e-05
achieved 0.0
member 0.0
examples 0.000168858079709
diverse 0.0
suicide 0.000156583296106
contributions 0.0
largest 0.0
increase 0.0
targeted 0.0
regulators 0.0
provided 8.15487299088e-05
element 0.0
effectively 0.0
population 0.000150565519621
rising 0.0
indication 0.0
versus 8.82608895615e-05
believed 0.0
dynamic 0.0
invasion 0.0
primary 0.0
provides 0.0
environment 7.29807443225e-05
confirmed 5.77146659362e-05
behavior 7.80084442939e-05
introduced 7.55470200279e-05
contain 0.0
communities 0.0
worldwide 6.59438062274e-05
responsible 0.0
household 0.0
apparent 0.0
munich 0.0
alternate 0.0
expressed 0.0
movement 0.0
declared 8.68241219466e-05
hundreds 6.5530119147e-05
information 0.000107408911715
easily 0.0
untreated 0.0
october 0.0
quantify 0.0
scales 0.0
investigating 0.0
innovation 0.0
perspective 5.85679767584e-05
rivals 0.0
interests 0.0
toledo 0.0
extraordinary 0.0
gingrich 0.0
describing 0.0
eliminate 0.0
obligation 0.0
gender 0.000217460710357
committee 0.0
preventing 0.0
numerous 0.0
unusual 0.0
improving 0.0
practices 0.0
cemetery 0.0
questioned 0.0
affecting 0.0
ferrell 0.0
genius 5.26508799489e-05
warren 0.0
organizers 0.0
regularly 8.44290398544e-05
ceilings 0.0
sexism 0.0
prepared 5.99728093985e-05
burden 0.0
foreignpolicy 0.0
county 0.000366149995626
uniform 0.0
newyorker 0.000101627044323
anthony 0.0
reflecting 0.0
grandson 0.0
banning 8.93738295011e-05
considered 6.14294446302e-05
chosen 0.0
outright 0.0
screenings 0.0
naming 0.0
conventions 0.0
reproductive 0.0
ignores 0.0
focusing 0.0
sensible 0.0
concluded 0.0
performed 0.0
divide 8.54377777657e-05
dismissed 0.0
compromise 0.0
crucial 7.55470200279e-05
weakness 0.0
barrier 0.000195443932266
effective 0.000131887612455
wealth 8.54377777657e-05
underway 0.0
israel 8.44290398544e-05
overwhelming 0.0
assault 0.0
citing 0.0
protection 0.0
prisoners 0.0
photographing 0.0
traveled 0.0
holder 0.0
seemed 0.0
concludes 0.0
determination 9.72598935533e-05
tested 0.0
lacking 0.0
machine 5.34005562422e-05
honoring 0.0
contrary 0.0
tolerance 9.86626476015e-05
michelle 0.0
assumed 0.0
programs 0.0
closely 0.0
politico 0.0
inspire 0.0
lyrics 0.000371215241769
judges 0.0
federal 7.39873403078e-05
maryjblige 0.0
tuning 0.0
striving 0.0
poland 0.0
september 5.5578645462e-05
manchester 0.000143998319078
checks 0.0
remarkable 0.000136599841229
mharrisperry 0.0
immoral 0.0
fiction 0.0
process 0.0
anxious 0.00020023409645
destructive 0.0
nmaahc 0.0
performances 0.000233181768712
whitehouse 0.0
flotus 0.0
crisis 0.000121753787185
marriage 0.000137042495106
emotions 0.0
confidence 0.0
voters 0.0
comparing 0.0
oldest 0.0
empirefox 0.0
chancetherapper 0.0
songwriter 0.000124643889522
literally 0.000440699210862
onstage 0.0
believing 8.00348759179e-05
hillaryclinton 0.0
citizenship 0.0
counted 0.0
hillaryfornc 0.0
raleigh 0.0
discusses 0.0
johnlegend 0.0
apprentice 0.0
acknowledge 0.0
conservative 0.0
economists 0.0
buzzfeed 7.88642197442e-05
puppet 0.0
hombres 0.0
republic 8.34454183778e-05
homecoming 0.0
andersoncooper 0.0
muslims 8.37705786922e-05
katyperry 0.0
bragging 0.0
treats 0.0
qualified 0.0
islamophobia 0.0
debates 0.0
endorsements 0.0
counts 6.57364212095e-05
theellenshow 0.0
festival 0.000232897750368
encouraged 0.0
stylish 0.0
disregard 0.000127501044194
jtimberlake 0.0
backstage 0.0
barack 0.0
joined 0.000146090721761
terrorism 0.000157728439488
pushing 0.0
hopeful 8.8628396911e-05
mentions 0.0
teamed 0.0
exclusively 0.0
aliciakeys 0.0
kingjames 0.0
muhammad 0.000101627044323
refused 0.0
characters 6.31350370548e-05
express 0.0
gratitude 8.40984374633e-05
ugliest 0.0
throughout 0.0
awkward 0.0
shining 8.00348759179e-05
fighter 0.000167541157384
accepting 7.24869034524e-05
applemusic 0.0
reveal 0.0
stands 0.0
native 0.000160666083046
announce 0.000137913668311
dorothy 0.000272633443693
haters 0.0
jessetyler 0.0
shondarhimes 0.0
lavernecox 0.0
broadway 0.000354513587644
disabilities 0.0
adoption 0.0
touched 0.0
corruption 9.50272794975e-05
violence 0.00017416134539
leedanielsent 0.0
delivered 6.43144307615e-05
jasmine 0.0
independence 7.15173638705e-05
square 0.0
alongside 0.0
privilege 0.0
secondary 0.0
staggering 0.0
seventh 0.0
tennis 0.000523070669976
sweeping 0.0
footage 0.0
overseas 0.0
spoiler 0.000249368737389
theirs 0.0
offering 0.0
construction 0.0
spends 0.0
detail 0.0
cabinet 7.97389437837e-05
earnings 0.0
pleased 0.0
gravity 0.000190054558995
statements 8.40984374633e-05
decade 0.0
bigotry 0.0
belong 0.0
trillion 0.0
backed 0.0
operations 0.0
breakthroughs 0.0
values 0.0
senator 8.18585884006e-05
removing 0.0
wondered 0.0
introduces 0.0
makers 0.0
measured 9.6351652285e-05
pillars 0.0
instrument 0.0
shares 6.37203330219e-05
individual 0.0
applications 0.0
prepares 9.91415232246e-05
ceremony 0.0
expanding 0.0
merger 0.0
newspaper 7.39873403078e-05
detailed 8.75359746323e-05
tuition 0.0
childcare 0.0
thoroughly 0.0
adviser 0.0
matthew 0.00037773510014
affected 0.0
newspapers 8.93738295011e-05
corporate 0.0
economy 0.0
presenting 0.0
spoken 6.61522856303e-05
richer 0.0
during 9.96262747687e-05
combat 0.0
touting 0.0
competitive 7.94452119088e-05
prominence 0.0
trifecta 0.0
fashioned 0.000308000267339
boasts 0.0
ripped 0.0
belief 0.0
heroes 0.000241327856767
disturbing 0.0
russians 0.000290409488919
intelligence 0.000144484557599
deepest 0.0
regrets 0.000103197055758
complicated 0.0
internships 0.000144519879398
adults 7.58130597887e-05
describe 0.000114756872406
equality 7.12786516326e-05
announcement 5.0765796437e-05
interfere 0.0
terrifying 0.0
nationwide 0.0
manager 0.000185969500596
questionable 0.0
enhanced 0.0
services 0.0
delighted 0.0
golfer 0.000124643889522
regarding 0.0
teachers 0.000212416533555
suggests 7.32299991252e-05
phrase 0.000371215241769
immigrants 0.000165606035921
revolution 7.39873403078e-05
universities 0.0
twelve 0.000108932725878
principle 0.0
releases 0.0
malarkey 0.0
library 0.0
advisor 0.0
deadlines 0.0
encouraging 0.0
circuit 0.0
humanitarian 0.000185009430051
reliant 0.0
assistance 0.0
swimmer 0.0
hinges 0.0
concrete 0.0
accepted 0.0
confronted 0.0
comprehensive 0.0
pushed 0.0
unending 0.0
occasionally 0.00020023409645
guardia 0.0
donation 0.000267989528544
nomination 7.1999159539e-05
paintings 0.0
significantly 0.0
investment 7.63505749536e-05
terror 0.0
worship 0.0
represents 0.0
attempting 0.0
bullying 8.34454183778e-05
astonishing 0.0
endorse 0.0
urgent 8.64729484771e-05
forced 0.000242777656117
addressing 0.0
script 7.58130597887e-05
hundred 0.0
command 8.75359746323e-05
qualifies 0.0
stumbled 0.0
territory 0.0
balloons 0.000114208117916
objects 0.0
latimes 0.0
pandemics 0.0
separating 0.0
pentagon 0.000117903028993
threats 0.0
prisons 0.0
approaching 0.0
generous 0.000150565519621
roughly 0.0
commands 0.0
uncovered 0.0
destroying 0.0
opposition 0.0
addiction 0.000350143898529
manhattan 0.000277514145077
ridiculously 0.0
awarded 0.0
greeted 0.0
forces 0.0
confirm 0.0
dealings 0.0
nations 0.0
equivalent 8.34454183778e-05
sexist 9.54638226705e-05
yahoonews 0.0
bloody 0.0
boundaries 0.0
exceptionally 0.0
cannon 0.0
feared 0.000101117272667
significance 0.0
recommendation 0.0
chapters 0.0
racial 9.2914115116e-05
obvious 0.0
statistics 0.0
military 0.000184846077346
adopted 8.75359746323e-05
housing 0.0
clearer 0.0
calculator 0.0
underwater 0.0
guided 0.0
rescue 0.000282284196166
deserving 0.0
advised 0.0
ordered 0.000116448875184
unions 0.0
avoiding 0.0
alicia 0.0
preserve 0.0
balloon 0.000211921785182
economic 0.0
recipe 0.0
awaits 0.000220374027859
squarely 0.0
radical 8.28030179605e-05
banter 0.0
spaces 0.0
carnival 0.0
theories 9.77219661328e-05
bombing 9.25047150256e-05
products 7.17575272556e-05
margaret 0.0
gathered 0.0
taxpayers 0.0
admits 0.0
opposed 0.0
pressing 0.0
russia 0.000552865001671
lincoln 8.0936209807e-05
intelligent 8.06334745694e-05
momentum 0.0
olympic 0.000219689997376
magnificent 0.000248409053882
heritage 0.0
beijing 0.0
beloved 0.0
dummies 0.0
pursuit 0.0
carries 0.0
phelps 0.000126525519194
medals 0.0
gymnastics 0.0
summed 0.0
accuse 0.0
symbol 9.68031629729e-05
dignity 9.20995139844e-05
slogans 0.0
priorities 0.0
applied 8.28030179605e-05
progressive 0.0
activists 0.0
elected 6.8967656316e-05
brussels 8.44290398544e-05
subscribe 0.000310909024949
elections 0.000159477887567
unites 0.0
complacency 0.0
imperative 0.0
doorsteps 0.0
voices 0.0
blatant 0.0
democracy 6.9419167004e-05
disastrous 0.0
rebuild 0.0
accuses 0.0
diplomacy 0.0
hardball 0.0
attacking 0.0
subtle 0.0
barker 0.0
sticking 0.0
openly 0.0
policing 0.0
embarrassed 8.50986619051e-05
slightest 0.0
abbott 0.0
attacks 0.0
commit 0.0
argued 0.0
remarks 8.57798297309e-05
democratic 0.0
semitic 0.0
incomes 0.0
treasury 0.000204286959698
alarming 0.0
dividing 0.0
reject 0.0
affirming 0.0
quitting 0.000108932725878
extended 0.0
reducing 9.54638226705e-05
proudly 0.0
inclusive 0.0
oppose 0.0
distinctly 0.0
urging 0.0
strengthen 0.0
deliver 0.0
obligations 0.0
relations 0.0
repeal 0.0
strengths 0.0
counties 0.0
weakened 0.0
reckless 0.0
prosperous 0.0
servant 0.000113508865056
secretaries 0.000152957499092
negotiator 0.0
faults 0.0
choking 0.000141592113885
executive 6.59438062274e-05
alternative 6.65725742238e-05
extend 0.0
republicans 8.06334745694e-05
embodied 0.0
preparation 0.0
terrorists 0.000182602741145
confident 0.0
weapons 0.0
unifying 0.0
outrage 8.68241219466e-05
constitutional 0.0
rental 0.0
prevail 0.0
resilient 0.0
humbled 0.0
courage 6.53248887884e-05
commander 0.0
respecting 0.0
enormous 0.000281237600997
aligned 0.0
consent 0.0
refusing 0.0
resentment 0.0
substance 0.0
claiming 0.0
lamont 0.0
dropping 5.9794449027e-05
carried 0.0
intimidated 0.0
behalf 7.10413731104e-05
meaningful 0.0
amendment 7.85768966218e-05
accepts 0.0
legislation 0.0
fairer 0.0
commitments 0.0
handling 0.0
proves 0.0
rhetoric 0.0
hardest 0.0
peddling 0.0
divisive 0.0
strongly 0.0
vision 5.85679767584e-05
investigations 0.0
repeatedly 0.0
records 0.000119945618797
madeleine 0.0
disabled 0.0
quoting 0.0
assassination 0.0
beaten 0.0
deeply 6.39173746034e-05
grievance 0.0
contempt 0.0
standards 0.0
fairness 0.0
dictated 0.0
consensus 0.0
reconsider 0.000133921639754
priority 0.0
rogers 0.0
freedoms 0.0
notorious 0.0
invested 0.0
propaganda 9.41684031677e-05
unconstitutional 0.0
condemn 0.0
concerned 0.000127048538637
praising 0.0
cheered 0.0
realdonaldtrump 0.000896579532108
despicable 0.0
straightforward 0.0
bargain 0.0
attorney 0.0
bedrock 0.0
optimism 0.0
belongs 0.0
truman 0.000141592113885
whichever 0.000131663496292
inappropriate 0.0
beatings 0.0
optimistic 8.64729484771e-05
campaigned 0.0
allies 9.25047150256e-05
governor 0.0
attempts 0.0
extent 0.0
denial 0.00017019732381
maximum 0.0
merely 8.89993550843e-05
apprenticeships 0.0
agreeing 0.0
architect 0.0
responsibility 6.51207190566e-05
mainstream 0.0
legitimacy 0.000138866429401
injustice 0.000102143479849
dozens 8.97518874597e-05
donnell 0.0
scenario 0.0
crimes 0.0
thoughtful 7.34808365088e-05
hypocrisy 0.0
undocumented 0.0
sexually 0.0
richest 0.000110829414347
softening 0.0
implies 0.0
infrastructure 0.0
pitching 0.0
broadband 0.0
tenants 0.0
allegations 0.0
bloomberg 0.0
insulting 0.0
liberal 0.0
kremlin 0.0
podium 0.0
provoke 0.0
outrageous 9.45955073836e-05
campaigns 9.6351652285e-05
barriers 9.6351652285e-05
powell 0.000110829414347
technical 0.0
warnings 0.0
flagged 0.0
grassroots 0.0
extremist 0.0
businesses 0.0
welcomes 0.0
deputy 0.0
donating 0.000786691002576
continually 0.0
ourselves 0.0
fringe 0.0
politician 0.000157728439488
wiggins 0.0
welcomed 0.0
rallies 0.0
ballot 0.0
failing 7.08055111848e-05
uniting 0.0
refuses 0.0
appealing 0.0
proverb 0.000140205769704
privileges 0.0
ideals 0.0
vibrant 0.0
tarmac 0.0
residents 0.0
apprenticeship 0.0
denying 0.0
fierce 0.0
opponents 0.0
polling 8.50986619051e-05
apology 0.0
damning 0.0
outline 0.0
endorses 0.0
losers 9.20995139844e-05
insulted 0.0
equipped 0.0
battlefield 0.0
recession 0.0
endorsed 0.0
divides 0.0
describes 0.0
appointed 0.0
encourage 6.72115114146e-05
undermine 0.0
undermining 0.0
authority 0.0
betray 0.0
funnyordie 0.0
donated 0.000213835954898
jimmykimmellive 0.0
immigrant 9.25047150256e-05
criminals 0.0
automatically 0.0
schooled 0.0
elizabethforma 0.0
releasing 8.18585884006e-05
connects 0.0
screening 7.6622100113e-05
cleaner 0.0
nowthisnews 0.0
sophiabush 0.0
chelseaclinton 0.0
stunts 0.0
truths 0.0
transparency 0.0
obamacare 9.77219661328e-05
nickkristof 0.0
contraception 0.0
betting 0.0
conscience 0.0
proclaimed 0.0
dispatch 0.0
advocate 0.0
profits 0.000178747659002
toward 0.0
guiding 0.0
senators 0.0
barber 0.000113508865056
doubled 0.000101627044323
mosque 0.0
senate 0.0
louisiana 0.0
senwarren 0.0
parenthood 0.000108932725878
organizations 0.0
generations 0.0
minorities 0.0
misogyny 0.0
peacefully 0.000130581051727
decency 0.0
intend 0.0
discourse 0.0
pennsylvania 0.0
katiemcgintypa 0.0
experiencing 0.0
mccain 0.000114919970601
scandal 7.63505749536e-05
constitution 9.09082652873e-05
sensanders 0.0
intolerable 0.0
strive 0.0
forefathers 0.0
abandon 0.0
buzzfeednews 0.0
paulkrugman 0.0
mothers 0.000147466553396
compassion 0.0
deeper 0.0
governments 0.0
activism 0.0
jamilsmith 0.0
mike_pence 0.0
elizabethbanks 0.0
empathy 0.000107122939753
audited 0.0
checkers 0.0
warming 0.00028511460653
volunteering 0.0
charitable 0.0
qualifications 0.0
workplace 0.0
granddaughter 0.0
recycled 0.0
directing 0.000510717399245
politifact 0.0
abolish 0.0
murders 0.0
reagan 9.50272794975e-05
pouring 0.0
ballots 0.0
racists 0.000108932725878
empower 0.0
tolerate 0.0
chrismurphyct 0.0
igorvolsky 0.0
outraged 0.000526962201314
exceptional 0.0
nightmares 0.0
enforcement 0.0
weaken 0.0
medicaid 0.0
humbly 0.0
newsweek 0.0
conflicts 0.0
suffer 8.28030179605e-05
dallasnews 0.0
bridges 0.000105392440263
lesdoggg 0.0
appalling 0.0
hatred 0.0
superpower 0.000141592113885
goodbye 0.000186535230862
renewable 0.0
robdelaney 0.000140205769704
motherjones 0.0
trusted 0.0
sheriff 0.000110829414347
personalized 0.00109781553017
amnesia 0.0
malala 0.0
problema 0.0
everytown 0.0
casting 9.96262747687e-05
employers 0.0
rudolph 0.0
packets 0.000149363499321
organization 7.37332766979e-05
graceful 0.0
hardworking 0.0
cherished 0.0
aggressively 0.0
founding 0.000103197055758
sacred 0.000207469141845
horrific 0.000164341792784
earned 0.0
siding 0.0
minded 0.0
contribute 0.0
incites 0.0
chooses 0.0
obtained 0.0
defended 0.0
champion 0.0
magazines 0.000121979503353
waited 0.0
punished 0.0
conviction 0.0
tradition 0.0
giveaways 0.0
distracted 0.0
endorsing 0.0
pathetic 9.16984267304e-05
ladygaga 0.0
pessimistic 0.0
highlighting 0.0
transgender 0.0
womensmarch 0.0
advisors 0.0
wrecking 0.0
hillaryforva 0.0
registration 0.0
ellemagazine 0.0
acceptance 0.0
defeated 0.0
theroot 0.0
pharrell 0.000105960892591
tumblr 0.0
nevada 0.000105960892591
illinois 0.0
massachusetts 0.0
theadvocatemag 0.0
lending 0.0
rejecting 0.0
legalize 0.0
conned 0.0
arkansas 0.0
celebratin 0.0
rubber 0.0
lenadunham 0.0
hateful 0.0
wizard 0.0
unbearable 0.0
harpersbazaarus 0.0
familia 0.0
iamwill 0.0
retweets 0.0
nominating 0.0
vietnam 0.0
laurie 0.0
claimed 0.0
rapids 0.0
devoted 0.0
casino 0.0
astounding 0.0
summon 0.0
crushed 8.06334745694e-05
louder 0.0
farmers 0.000286391468012
lin_manuel 0.000238967019907
arrangement 0.0
borrowed 0.0
mariska 0.0
purposes 0.0
dialogue 0.0
comedian 0.000193606325946
________ 0.0
lightly 0.000125573503123
defeating 0.0
jerusalem 0.0
cynical 0.0
worrying 0.0
elizabeth 7.97389437837e-05
insults 0.000106537643786
microphone 0.000114919970601
sleeves 0.0
theeconomist 0.0
stakes 0.0
nationally 0.0
inspect 0.0
poisoning 0.0
columbus 0.0
declaring 0.0
crushing 0.0
chucktodd 0.0
soldier 9.41684031677e-05
painted 0.000177998710169
warned 0.0
ohiostate 0.0
unrelated 0.0
designated 0.0
clears 0.0
congressional 0.0
confront 0.0
usatoday 0.000285081838492
delivers 8.54377777657e-05
pittsburgh 0.0
entiende 0.0
soaked 0.0
bromance 0.000132776436232
lifelong 0.0
antiques 0.0
repjohnlewis 0.0
breakers 0.0
fundraising 9.33278021963e-05
hispanic 0.0
defrauded 0.0
fearful 0.0
nytopinion 0.0
volume 0.0
perfecting 0.0
washingtonpost 8.54377777657e-05
affordable 0.0
mighty 9.05190330238e-05
normalizing 0.0
boasting 0.0
assaulting 0.0
disqualify 0.0
monique 0.0
jcolenc 0.0
teamusa 0.0
allysonfelix 0.0
usabasketball 0.0
ibtihaj 0.0
simone 0.0
feminism 0.0
conversion 0.0
destiny 0.0
disrespected 0.0
serenawilliams 0.000123735648254
tantrum 0.0
heinous 0.0
unconscious 0.0
accomplishments 0.0
saddened 0.0
disgrace 0.0
rodriguez 0.0
arsenal 0.0
defender 0.0
malalafund 0.0
merchandise 0.0
laundry 0.0
lesbians 0.0
cnnpolitics 0.0
nickgass 0.0
examining 0.0
monument 0.0
appeals 0.0
gracias 0.0
madame 0.0
grande 0.000117135883429
speechless 0.0
coulter 0.0
missiles 0.0
psyched 0.00011564488553
chelsea 8.4762432172e-05
biases 0.0
resume 0.0
spectator 0.0
angelina 0.0
spectacle 0.0
admiration 0.0
reaches 0.0
español 0.0
dreamers 0.0
mañana 0.0
bursting 0.0
undone 0.0
beyoncé 0.000232766702106
nuestra 0.0
diwali 0.0
prestigious 0.0
cynicism 0.0
disability 0.000110829414347
registering 0.0
booker 0.0
méxico 0.0
disponible 0.0
honduras 0.0
famously 0.0
overdue 0.0
equity 0.0
opioid 0.000275142019797
millennials 0.000535614698763
recommendations 0.0
investors 0.0
betrays 0.0
patriotism 0.0
liability 0.0
iranian 0.000114208117916
delegate 0.0
struck 0.0
millennial 0.000238967019907
dictators 0.0
graduate 0.0
analysts 0.0
victor 0.0
shrink 0.0
dictator 0.0
poised 0.0
avoided 0.0
rallying 0.0
catholic 0.0
thriving 0.0
racially 0.0
undermines 0.0
yashar 0.0
inequality 0.0
medicare 0.0
missionaries 0.0
foremost 0.0
deplorable 0.0
demonize 0.0
wikileaks 0.000216640411552
enduring 0.0
privatized 0.0
appoint 0.000118685366541
losses 0.0
jbarro 0.0
buffett 0.0
staffers 0.0
takeaway 0.0
moscow 0.0
hampshire 0.0
pandering 0.0
voxdotcom 0.0
reckoning 0.0
moines 0.0
falter 0.0
countless 0.0
democrat 0.0
bostonglobe 0.0
accountable 0.0
dispel 0.0
despair 0.000101627044323
persisted 0.0
disclose 0.0
tedcruz 0.0
flooding 0.0
prejudice 0.0
towers 0.000235806057985
criticized 0.0
senatemajldr 0.0
outsider 0.000133921639754
declare 9.33278021963e-05
dismantle 0.000133921639754
thrive 0.0
threaten 9.13013705724e-05
outsourced 0.0
loophole 0.0
heerjeet 0.0
verbal 0.0
businessinsider 0.0
ukraine 0.0
vladimir 0.0
businessman 0.0
supremacist 0.0
etched 0.0
zekejmiller 0.0
momentarily 0.0
perpetrators 0.0
mocking 0.0
wrecked 0.0
identities 0.0
inhumane 0.0
disavow 0.0
hostile 0.0
muster 0.0
surrender 0.0
shatter 0.000453358932669
patriotic 0.0
rewarded 0.0
jitters 0.0
bullies 0.0
discipline 0.0
forgets 0.0
expand 8.71784449959e-05
apologized 0.0
tournament 0.0
grindstone 0.0
mastery 0.0
provider 0.0
steroids 0.0
jenniferjjacobs 0.0
notion 0.0
hernandez 0.000121129862968
mcuban 0.0
bullied 0.0
jebbush 0.0
discriminating 0.0
somali 0.0
hayden 0.0
limitless 0.0
implement 0.0
nydailynews 0.0
corybooker 0.0
interference 0.0
listens 0.0
preside 0.0
remembers 0.0
toughness 0.0
extensively 0.0
suffered 0.0
streep 0.0
billionaire 0.0
cheats 0.0
needing 0.0
percentage 0.0
insiders 0.0
binder 0.0
prescriptions 0.0
slashed 0.0
indebted 0.0
dismisses 0.0
delegates 0.0
pledged 0.0
endured 0.0
deployed 0.0
suspense 0.0
courageously 0.0
resilience 0.0
nationalists 0.0
autonomy 0.0
abandoning 0.0
canvas 0.0
blacks 0.000129527475818
pledging 0.0
elaine 0.0
methodist 0.0
candidacy 0.0
bonuses 0.000130581051727
resolve 0.0
laughable 0.0
scares 0.000251147006246
intellect 0.0
hopeless 0.0
debunked 0.0
shames 0.0
connections 0.0
tyleroakley 0.0
perplexed 0.0
ddlovato 0.0
impromptu 0.0
teenvogue 0.0
unveils 0.0
billie 0.0
prouder 0.0
sweetness 0.0
cheryl 0.0
filipino 0.0
petersburg 0.000136316721847
drastic 0.0
lifesaving 0.0
decorated 0.0
usagym 0.0
freestyle 0.0
absentee 0.0
lashes 0.0
concentration 0.0
refuge 0.000118685366541
renaissance 0.000124643889522
actively 0.0
monitoring 0.0
destined 0.000245695637279
willfully 0.0
detained 0.0
warmest 0.000122847818639
heroic 0.0
bragged 0.0
miners 0.0
shareholders 0.0
randall 0.0
excessive 0.0
geneva 0.0
corporations 0.000116383351053
unsolvable 0.0
grandchildren 0.0
discredit 0.0
enormously 0.0
frances 0.0
pillar 0.0
trillions 0.0
expansive 0.000182269036132
organize 0.00011564488553
capabilities 0.0
confederate 0.0
shakers 0.0
ambiguity 0.0
linking 0.0
pretends 0.0
wireless 0.000211921785182
inherit 0.000280411539407
paranoia 0.0
theatlantic 0.0
languages 0.000105392440263
disposable 0.0
reinforcing 0.0
integrated 0.0
optimist 0.0
pigeons 0.000382503132582
chadhgriffin 0.0
katieledecky 0.0
richards 0.0
demconvention 0.0
abcpolitics 0.0
chobani 0.00018643148823
dominiclowell 0.0
floridians 0.0
cecilerichards 0.0
clintonfdn 0.0
billclinton 0.0
grounded 0.0
abilities 0.0
grandfather 9.09082652873e-05
profoundly 0.0
fiercely 0.0
drowning 0.0
astound 0.0
alzheimer 0.0
responders 0.0
peacecorps 0.0
nygovcuomo 0.0
hurricanes 0.0
approximately 0.000122847818639
daunting 0.0
organizer 0.0
ingenuity 0.0
illnesses 0.0
intruders 0.0
invading 0.0
harmful 0.0
foundations 0.0
skateboards 0.0
housekeeping 0.0
dangerously 0.0
renters 0.0
predatory 0.0
rebuke 0.0
jengranholm 0.0
supremacy 0.0
linger 0.0
adamserwer 0.0
clevelanddotcom 0.0
repadamschiff 0.0
fahrenthold 0.0
revoke 0.0
advising 0.0
strengthening 0.0
colleges 0.0
deniers 0.000892507309358
aspire 0.0
exceed 0.0
lebassett 0.0
shrugged 0.0
stewardship 0.0
complains 0.0
temperament 0.0
texasinafrica 0.0
americorps 0.0
latino 0.0
payoffs 0.0
protested 0.0
honorable 0.0
fathom 0.0
inconvenience 0.0
johnkasich 0.0
latinos 0.0
votevets 0.0
unsurprising 0.0
loopholes 0.0
dismal 0.0
unqualified 0.0
rigorous 0.0
mittromney 0.0
joyannreid 0.0
theorist 0.0
evan_mcmullin 0.0
discriminate 0.0
ezraklein 0.0
obsessively 0.0
desperation 0.0
latina 0.0
tammyforil 0.0
pantsuit 0.0
superior 0.000314496154083
exonerated 0.0
johnpodesta 0.0
recites 0.0
supremacists 0.000147682107054
affront 0.0
electing 0.0
defund 0.0
demeans 0.0
govpencein 0.0
squandered 0.0
machado 0.0
pneumonia 0.0
unhinged 0.0
criticizes 0.0
derailment 0.0
iceberg 0.0
epipens 0.0
generals 0.000132776436232
timkaine 0.0
provocation 0.0
paulbegala 0.0
clintinfdn 0.0
wesleylowery 0.0
childdefender 0.0
dictatorship 0.0
ceasefire 0.0
stamped 0.0
intimidation 0.0
casinos 0.000163700717816
manifest 0.0
restrict 0.0
transformation 0.0
battleground 0.0
christine 0.0
touted 0.0
mcconnell 0.0
deflect 0.0
expressing 0.0
commonsense 0.0
statesman 0.0
mcbride 0.0
tumble 0.0
bigoted 0.0
belonged 0.0
praised 0.0
policeman 0.0
booing 0.0
cathedral 0.0
tomperez 0.0
keithellison 0.0
knowingly 0.0
wealthiest 0.0
backward 0.0
pretended 0.0
thedemocrats 0.0
psychologists 0.0
americ 0.0
successor 0.0
diplomats 0.0
congratulated 0.0
devotion 0.0
remembrance 0.0
eligible 0.0
incoherent 0.0
exhaustive 0.0
downgraded 0.0
unified 0.0
embraces 0.0
galling 0.0
senatorreid 0.0
lifetimes 0.0
demagogue 0.0
rodham 0.0
temper 0.0
longtime 0.0
vetoing 0.0
janelle 0.0
voguemagazine 0.0
dominique 0.0
surpassed 0.0
associates 0.0
demonstrating 0.0
morning_joe 0.0
bazaar 0.0
consequential 0.0
undressed 0.0
entrepreneurial 0.0
billionaires 0.000114208117916
prescription 0.0
senseless 0.0
refresher 0.0
classmates 0.0
maturity 0.0
comentarios 0.0
risked 0.0
invincible 0.0
vigilant 0.0
emissions 0.000116383351053
recommit 0.0
voiceless 0.0
natlparkservice 0.0
workplaces 0.0
mayaharris_ 0.0
dhsgov 0.0
cyberattacks 0.0
maxinewaters 0.0
jerrybrowngov 0.0
discriminates 0.0
thejusticedept 0.0
simone_biles 0.0
sotomayor 0.0
traumatic 0.0
scammed 0.0
dreamer 0.0
fulfill 0.0
latinas 0.0
discouraged 0.0
usnavy 0.0
oftentimes 0.0
reprehensible 0.0
demeaning 0.0
ratified 0.0
emilyslist 0.0
lawsuits 0.0
nonviolent 0.0
caucus 0.0
joebiden 0.0
joyful 0.000126525519194
privatize 0.0
barbaraboxer 0.0
sengillibrand 0.0
camino 0.0
familias 0.0
americaferrera 0.0
universidades 0.0
gabbygiffords 0.0
shuttlecdrkelly 0.0
fulton 0.0
shimon 0.0
hablar 0.0
fuerza 0.0
trickle 0.000137571009898
refinance 0.0
shattering 0.0
damián 0.0
gouging 0.0
moveon 0.0
simone_manuel 0.0
revdrbarber 0.0
senatorbarb 0.0
cnbcnow 0.0
stiffed 0.0
mikebloomberg 0.0
solver 0.0
thrower 0.0
granddaughters 0.0
changemaker 0.0
clairecmc 0.0
anastasiasomoza 0.0
defunding 0.0
preyed 0.0
aspirations 0.0
fannie 0.0
mubarak 0.0
buzzfeedben 0.0
probed 0.0
marines 0.0
projecting 0.0
outsourcing 0.0
developers 0.0
crimea 0.0
everyo 0.0
chaser 0.0
dubious 0.000123735648254
diplomatic 0.0
rosiegray 0.0
unpatriotic 0.0
multifaceted 0.0
myanmar 0.0
adamparkhomenko 0.0
tjmshow 0.0
tenant 0.0
perjury 0.0
contractual 0.0
surrounds 0.0
exceeded 0.0
thrives 0.0
unclerush 0.0
sailors 0.0
stereotypes 0.000121979503353
librarycongress 0.0
acknowledging 0.0
philippe 0.0
battled 0.0
postopinions 0.0
ambassadorrice 0.0
shockingly 0.0
mcfaul 0.0
presid 0.0
poisons 0.0
kenvogel 0.0
johndingell 0.0
harnessing 0.0
unwritten 0.0
bewildering 0.0
moonshot 0.0
apologizing 0.0
oligarchs 0.0
espionage 0.0
marcorubio 0.0
desecration 0.0
brianefallon 0.0
bangladesh 0.0
twittermoments 0.0
officialcbc 0.0
thefix 0.0
urgency 0.0
traceeellisross 0.0
andradaymusic 0.0
impeccably 0.0
catastrophe 0.000232766702106
tallest 0.0
anastasia 0.0
azcentral 0.0
marrying 0.0
moderates 0.0
resembles 0.0
paraphrase 0.0
applauds 0.0
heavier 0.0
virginians 0.0
railing 0.0
eloquently 0.0
denverpost 0.0
independents 0.0
americanos 0.0
hispanos 0.0
bailouts 0.0
divisiveness 0.0
jmpalmieri 0.0
hardballchris 0.0
republicano 0.0
candidato 0.0
phillyinquirer 0.0
jesserodriguez 0.0
militarytimes 0.0
sunsentinel 0.0
ryanlizza 0.0
bretbaier 0.0
thelastword 0.0
hillaryclinto 0.0
maddowblog 0.0
boundless 0.0
enacting 0.0
gettysburg 0.0
groping 0.0
govchristie 0.0
justices 0.000143028881499
watchdogs 0.0
cavalier 0.0
succeeds 0.0
retirees 0.0
pocketed 0.0
multimillionaire 0.0
redcross 0.0
evalongoria 0.0
highways 0.0
marlee 0.0
primero 0.0
pianos 0.0
bribed 0.0
scranton 0.0
wellesley 0.0
perkins 0.0
onward 0.0
algore 0.0
candidly 0.0
trajectory 0.0
quitter 0.0
objectifying 0.0
ignoramus 0.0
disillusioned 0.0
asinine 0.0
vibrancy 0.0
arpaio 0.0
testifying 0.0
chairmen 0.0
luchar 0.0
disrupted 0.0
podemos 0.0
settlements 0.0
massacres 0.0
millones 0.0
eagerly 0.0
grandmas 0.0
dedicado 0.0
seeming 0.0
pragmatic 0.0
hashanah 0.0
porque 0.0
unidos 0.0
nuestras 0.0
primera 0.0
debemos 0.0
muchos 0.0
cuando 0.0
nuestro 0.0
inteligente 0.0
rapists 0.0
agosto 0.0
presidente 0.0
puedes 0.0
mujeres 0.00018643148823
safeguarding 0.0
indecent 0.0
motions 0.0
strengthened 0.0
eminently 0.0
innuendo 0.0
memorandum 0.0
reuterspolitics 0.0
educates 0.0
mexicana 0.0
disparage 0.0
absurdity 0.00014606936251
backdoor 0.0
affording 0.0
hardline 0.0
steelworkers 0.0
demean 0.0
immigrate 0.0
thuggish 0.0
astrid 0.000209653032101
jesuit 0.000196360105822
governorship 0.000245852705723
waterboarding 0.000182269036132
personas 0.000382169427569
stephenson 0.0
huracán 0.0
firefighter 0.0
ravages 0.0
marleematlin 0.0
scrolling 0.0
tarnish 0.0
ajentleson 0.0
roanoke 0.0
heaping 0.0
carpentry 0.0
forcefully 0.0
frankiejgrande 0.0
aprildryan 0.0
unjustified 0.0
yamiche 0.0
evacuate 0.0
disrespects 0.0
incomprehensible 0.0
jogger 0.0
vindicated 0.0
blazed 0.0
cambodia 0.0
revolutionize 0.0
welding 0.0
unbeatable 0.0
polished 0.0
saddled 0.0
interdependence 0.0
alleys 0.0
civility 0.0
vilified 0.0
disagreeable 0.0
terence 0.0
bluster 0.0
incredib 0.0
holton 0.0
hillaryforpa 0.0
hillaryforco 0.0
jes_chastain 0.0
vitalvoices 0.0
indictments 0.0
evokes 0.0
reaffirming 0.0
rebukes 0.0
minerva 0.0
peddle 0.0
starker 0.0
cascading 0.0
carolinians 0.0
señora 0.0
honrado 0.0
missionary 0.0
ranchers 0.0
denveropinion 0.0
practicality 0.0
thoughtfulness 0.0
scripture 0.0
pueblo 0.0
morningmoneyben 0.0
smalls 0.0
exemplify 0.0
eviscerated 0.0
jeffflake 0.0
helpless 0.0
sarahemcbride 0.0
indivisible 0.0
colinjones 0.0
mrjoshcharles 0.0
houstonchron 0.0
thoroughness 0.0
isolde 0.0
wonkiest 0.0
equate 0.0
dustbin 0.0
estados 0.0
newrepublic 0.0
expresses 0.0
demonizing 0.0
jeffbezos 0.0
discard 0.0
befriending 0.0
slovenia 0.0
unrelenting 0.0
salmahayek 0.0
revolves 0.0
anselm 0.0
dwells 0.0
usairforce 0.0
deride 0.0
repackaging 0.0
earmarked 0.0
evader 0.0
passpor 0.0
awaited 0.0
guterres 0.0
precinct 0.0
presidencia 0.0
unshakable 0.0
marshablackburn 0.0
comunidad 0.0
merecen 0.0
juntos 0.0
infomercial 0.0
johnstown 0.0
statewide 0.0
skyscrapers 0.0
phillydotcom 0.0
deducted 0.0
laguardiacc 0.0
annieslisttx 0.0
nickmerrill 0.0
leaninorg 0.0
missbeae 0.0
minassianmedia 0.0
natarsha 0.0
foments 0.0
ruline 0.0
steininger 0.0
michaelnutter 0.0
harren 0.0
louisa 0.0
cannell 0.0
robbymook 0.0
broward 0.0
hillaryforfl 0.0
jeanneshaheen 0.0
ericasmegs 0.0
jeremyshorr 0.0
turpin 0.0
rubycramer 0.0
singularly 0.0
joshschwerin 0.0
clionamccarney 0.0
xochitlhinojosa 0.0
adamsmith_usa 0.0
humayun 0.0
jamestaylor_com 0.0
hillaryformn 0.0
ericwms 0.0
dougmillsnyt 0.0
jencarlosmusic 0.0
hannahbfine 0.0
creynoldsnc 0.0
lefsadventures 0.0
pembroke 0.0
perceptiveness 0.0
hillaryforaz 0.0
fayetteville 0.0
entrust 0.0
daveeddiggs 0.0
petewilliamsnbc 0.0
hillary_esp 0.0
ustedes 0.0
nación 0.0
creativa 0.0
bilingües 0.0
multilingües 0.0
contribuyen 0.0
diversidad 0.0
economía 0.0
hillaryforia 0.0
estaré 0.0
discurso 0.0
síganme 0.0
detall 0.0
hopewell 0.0
temperamentally 0.0
redone 0.0
barging 0.0
machadooficial 0.0
mikereedschmidt 0.0
franklinfoer 0.0
eamonjavers 0.0
hillaryforoh 0.0
hustling 0.0
relishes 0.0
markkirk 0.0
asmamk 0.0
just_jenna 0.0
discrimina 0.0
samifayebaker 0.0
padded 0.0
wigazette 0.0
phillytrib 0.0
trivializes 0.0
condones 0.0
ellisoncampaign 0.0
barb_kinney 0.0
theriveterspod 0.0
humiliates 0.0
nickmarroletti 0.0
alli_wilber 0.0
brespolitico 0.0
jasoncherkis 0.0
sean_p_thomas 0.0
outclassed 0.0
outmaneuvered 0.0
belittling 0.0
familie 0.0
yuuuuuuge 0.0
disqualifying 0.0
brynnecraig 0.0
buffywicks 0.0
lasvegassun 0.0
cmichaelhuntley 0.0
civically 0.0
raquelwillis_ 0.0
celebramos 0.0
trayectoria 0.0
pionera 0.0
breakups 0.0
rosenbergerlm 0.0
heraldleader 0.0
jaylon 0.0
decisi 0.0
antónio 0.0
squander 0.0
presidenta 0.0
protegerá 0.0
astrid_nv 0.0
sltrib 0.0
peter_j_k 0.0
brosandprose 0.0
nicholaskitchel 0.0
mahoning 0.0
omerizer 0.0
kendallybrown 0.0
davidnakamura 0.0
chatima 0.0
tammybaldwin 0.0
mpshapiro 0.0
responsibilit 0.0
overgrown 0.0
literally_trump 0.0
imploded 0.0
rnicholasburns 0.0
disastrously 0.0
stiffing 0.0
globeopinion 0.0
degradi 0.0
languishing 0.0
demostrar 0.0
poderosa 0.0
iammarleydias 0.0
tbtimes_opinion 0.0
disloyalty 0.0
defende 0.0
vegalteno 0.0
moodysinvsvc 0.0
decisiveness 0.0
whethe 0.0
preocupada 0.0
trayecto 0.0
afectados 0.0
ayotte 0.0
empathize 0.0
lifelo 0.0
lorellapraeli 0.0
ironworking 0.0
ebeling 0.0
contribuido 0.0
ejército 0.0
inmigrantes 0.0
indocumentados 0.0
enquirer 0.0
delega 0.0
roadshow 0.0
sunsentinelopinion 0.0
resulta 0.0
insultar 0.0
construir 0.0
muralla 0.0
provoked 0.0
discretion 0.0
sdutideas 0.0
merece 0.0
respeto 0.0
enfrentar 0.0
valentía 0.0
ataques 0.0
descaro 0.0
culparla 0.0
petulance 0.0
ninhaitseng 0.0
flippantly 0.0
posteverything 0.0
_vicentefdez 0.0
azcopinions 0.0
aumentó 0.0
andrewjenks 0.0
imwithher 0.0
diferencias 0.0
onevoxdotcom 0.0
ignite_national 0.0
endorsin 0.0
mercersdairy 0.0
everyvoice 0.0
rachaelgass 0.0
galifianakis 0.0
crutcher 0.0
nyledimarco 0.0
mistreat 0.0
wellsfargo 0.0
templeuniv 0.0
sollender 0.0
honremos 0.0
tantas 0.0
contribuciones 0.0
aleatha 0.0
endeavored 0.0
legitimize 0.0
además 0.0
whistles 0.0
ugliness 0.0
jorge_silva 0.0
dnclatinos 0.0
libnofcongress 0.0
unscrupulously 0.0
contractually 0.0
impulsively 0.0
qaddafi 0.0
cancelable 0.0
cnbcopinion 0.0
jbrotherston 0.0
_bxddxss 0.0
sspiderboy 0.0
collegedems 0.0
veered 0.0
charitynav 0.0
usnewsopinion 0.0
humansofny 0.0
unfitness 0.0
steadiness 0.0
nbcusa_inc 0.0
verdadera 0.0
encuentra 0.0
hacemos 0.0
anuncio 0.0
unpresidential 0.0
unfavorably 0.0
heridas 0.0
visibles 0.0
veteranos 0.0
cuidado 0.0
panetta 0.0
experiencia 0.0
confío 0.0
exsecretario 0.0
comercio 0.0
lizromanoff 0.0
americasvoice 0.0
davidleopold 0.0
rebuked 0.0
criminalize 0.0
mentiré 0.0
inmigración 0.0
demonizar 0.0
americanlegion 0.0
sarasolow 0.0
qumber 0.0
zerlinamaxwell 0.0
hillaryforut 0.0
hillaryforga 0.0
grandtetonnps 0.0
marlondmarshall 0.0
mariatcardona 0.0
escuchamos 0.0
claramente 0.0
demonizando 0.0
segunda 0.0
tercera 0.0
rhettbuttle 0.0
hillaryformi 0.0
futuramics 0.0
louisianans 0.0
claressashields 0.0
helen_maroulis 0.0
bri_rollin 0.0
itspooda 0.0
kristihollywood 0.0
meredeetch 0.0
kersee 0.0
rodhams 0.0
bidens 0.0
possibilitie 0.0
maulama 0.0
akonjee 0.0
shotdiva 0.0
auriemma 0.0
maxlinsky 0.0
cowering 0.0
moratory 0.0
hillarycl 0.0
repudiate 0.0
fencer 0.0
bankruptcies 0.0
warrenbuffett 0.0
bishopgarrison 0.0
ajazzyworld 0.0
morell 0.0
starkest 0.0
braille 0.0
frankmugisha 0.0
confiar 0.0
distinguido 0.0
herencia 0.0
harkening 0.0
impulses 0.0
dakota_meyer 0.0
kauveri 0.0
iafftreg 0.0
laurawalkerkc 0.0
jakesherman 0.0
benediction 0.0
denigrates 0.0
ann_oleary 0.0
liberates 0.0
bombast 0.0
repcleaver 0.0
throwed 0.0
luchado 0.0
derechos 0.0
humanos 0.0
trabajadores 0.0
relent 0.0
aprendí 0.0
valores 0.0
trabajo 0.0
mismos 0.0
annella 0.0
drbiden 0.0
expedient 0.0
imangelabassett 0.0
smegielski 0.0
leinonen 0.0
driffin 0.0
buckles 0.0
insatiably 0.0
sybrina 0.0
mcbath 0.0
dontre 0.0
randibrazeau 0.0
sjbxtr 0.0
malcolmkenyatta 0.0
lankford 0.0
countrymen 0.0
countrywomen 0.0
refiere 0.0
separar 0.0
valiente 0.0
strongmen 0.0
seremos 0.0
compañeros 0.0
bienvenidos 0.0
dauntless 0.0
governorva 0.0
sherrodbrown 0.0
vicepresidencia 0.0
ilyseh 0.0
gunsense 0.0
encantada 0.0
anunciar 0.0
splintering 0.0
albamonica 0.0
criminologist 0.0
construiremos 0.0
discriminatio 0.0
endorser 0.0
sniveling 0.0
ryanegraney 0.0
baptize 0.0
convención 0.0
republicana 0.0
