chatting 0.000165842207937
trying 0.000328461163625
launch 0.000604117167061
moment 0.000264189431737
wonderful 0.000442745387648
seeing 0.000134975177313
recommend 0.000146666568341
anybody 0.000100745705234
podcast 0.0
challenges 0.00016531385094
worked 3.55208806999e-05
direct 4.65119004527e-05
others 0.000247304231034
currently 0.0
better 0.000519902012439
please 0.000395217316545
travels 7.14118944942e-05
social 0.000846292214663
around 0.000682371391326
people 0.00136474278265
leaving 0.000185988598811
morning 0.00124144171352
general 0.000168422412496
overall 0.0
damage 5.35610820403e-05
affect 0.0
everything 0.000130678075108
twitter 0.000655153951968
present 7.43954395245e-05
though 0.000340180058778
friend 6.56922327251e-05
watched 0.000110686346912
beautiful 0.000336529023088
anything 0.000298819954757
practice 8.85940634489e-05
helped 0.000107431726257
helpful 5.59949158436e-05
revive 0.0
updated 0.0
thinking 0.000367199160102
finally 0.00040058090193
caught 0.000183976568405
believe 0.000521305257589
already 0.000390978943192
orlando 0.0
depends 0.0
chance 0.000490042781653
meaning 4.8313728254e-05
annual 4.39213757975e-05
renewed 0.0
growing 7.83606090707e-05
probably 0.000247974208338
should 4.31828468303e-05
changed 6.98982523976e-05
history 0.000168264511544
center 0.0
museum 0.00022690058412
behind 9.74816273324e-05
pretty 0.000333817418275
really 0.000718729413092
expensive 0.0
little 0.000781957886384
earlier 0.000344034835177
forget 0.000165564127293
paperwork 0.0
someone 0.000362282540166
mostly 9.92447666594e-05
worker 6.89003884308e-05
safety 4.73311171811e-05
program 0.0
things 0.000682371391326
electrical 0.0
visiting 0.000225308143921
available 0.000203558068034
perfect 0.000170090029389
different 9.96066515858e-05
search 0.000174693318959
connect 6.10640985144e-05
numbers 8.16713971811e-05
person 0.00019654618559
watching 0.000295615047263
passed 7.96647548725e-05
minutes 0.000303694148955
daughter 7.9009410648e-05
average 0.0
positive 0.000426280221066
outside 0.000311161232447
metric 0.0
looking 0.00166166050857
forward 0.000469871693534
raising 0.0
afraid 0.0
impression 0.0
profile 8.93541627752e-05
drawing 0.0
favorite 3.79141491943e-05
picture 0.000139043021508
historic 9.86539648491e-05
instead 0.000147181254724
appreciate 0.0
husband 0.0
international 0.000121157847556
toddler 0.0
couldn 0.000238126041144
remember 0.000196017112661
holidays 4.6647010318e-05
friends 0.000164230581813
despite 0.000278264100301
understood 0.000124710831634
impossible 4.44232216919e-05
everyone 0.000588051337984
florida 4.81715228814e-05
always 0.000617383639772
months 0.000136439705519
moving 0.000281108763193
meeting 0.000635965671797
google 0.000123188788251
answer 0.000200831264778
together 0.000294819278385
included 4.97710969795e-05
inside 0.000170090029389
section 0.000100442731485
missed 0.000596030858255
button 0.0
active 0.0
longer 3.77078381788e-05
enough 0.00079256829521
projects 5.80439190805e-05
driving 0.000159769359583
building 0.000146781944109
enjoying 0.000319538719166
kennedy 0.000331600772317
tantrums 0.0
apparently 8.4211206248e-05
recent 0.000302279927812
gotten 0.0
amazing 0.000521305257589
determined 0.000126041685341
attention 7.3991787596e-05
progress 0.000181282181996
tomorrow 0.00346296899035
whenever 0.0
curious 0.0
george 0.000162440183074
feeling 0.000136808430598
excited 0.000204659558278
campaigning 0.0
understand 3.56171589208e-05
learning 0.000242986825739
special 0.000362282540166
secret 0.000146383856498
across 0.000218980476637
comparison 0.0
surprised 3.89658227284e-05
anymore 0.0
spirited 0.0
precious 0.0
rejoice 0.0
rather 0.00025686840219
showing 0.000209128825722
saying 0.000477538969316
tweeted 0.0
updates 9.49393680512e-05
thoughts 0.000312002801033
exactly 0.000105987527586
except 8.32761145533e-05
getting 0.00114343315719
nothing 0.000163347593884
tweets 0.000108015450321
course 0.000641132092237
photos 0.000118514115972
looked 0.000222579900496
difficult 8.61227485121e-05
office 0.000847900220687
decisions 0.0
brought 0.000108602690816
biggest 0.000100958706926
thrilled 0.0
entire 0.000145196857353
something 0.000751398931868
closing 0.000194400079042
anyone 0.000724565080332
taking 0.000294025668992
reprint 0.0
flying 0.000205314647085
happening 0.000641108860574
sometimes 0.0
lessons 9.46622343623e-05
village 6.55844126367e-05
stopped 0.0
yesterday 0.000592825974817
service 0.000359077171231
serious 0.000349491261988
emails 0.000226164177034
wearing 0.0
afford 0.0
either 3.56171589208e-05
second 0.000494021645681
checking 0.00038107730936
volunteers 6.83676900125e-05
indeed 0.000133649710888
hearing 0.000364967461062
choose 3.84357314329e-05
another 0.00140100787977
address 4.40461125179e-05
display 0.000116861511007
compare 0.0
weekend 0.000761594985548
suggested 0.000127859643087
appear 9.89486943862e-05
anyway 0.000253341290137
theory 0.0
buildings 0.00015631780444
working 0.00052271230043
bigger 0.000114992229154
treated 5.37290094206e-05
admired 0.0001032828384
retirement 0.0
laughing 3.87527473696e-05
wanted 0.000132094715868
current 3.85410601338e-05
grateful 0.0
friendship 0.0
family 0.000457373262876
listening 0.000322295178772
stream 4.49329399992e-05
sharing 7.68714628657e-05
double 7.3991787596e-05
especially 0.000144803587754
middle 0.0
waiting 0.000133887509852
definitely 3.57137232586e-05
walking 0.000352622740818
account 7.66614861029e-05
completely 0.0
thought 0.000922173738604
accept 0.0
possible 0.000311161232447
simple 3.80177980087e-05
manufacturing 0.0
destroyed 0.0
members 0.000123531430528
supposed 8.68543256736e-05
manufacturers 0.0
business 0.000880843647714
absolutely 0.000139796504795
anywhere 4.35500131751e-05
sending 0.000151656596777
introducing 5.24092797817e-05
congrats 0.000617301921071
beauty 4.67826843179e-05
community 0.000281921344628
greatest 0.0
posted 0.000193233656838
wednesday 7.87924229621e-05
explain 0.0
broken 0.00012149341287
fairly 6.8104580269e-05
closest 6.23554158169e-05
hoping 0.000157152314733
relationship 0.0
actually 0.000569021916871
pockets 0.0
wallet 0.0
pocket 0.0
argument 0.0
decent 0.000812614867127
school 0.000166011085976
throwback 0.0
thursday 0.000314542135789
talented 0.000171761416379
discuss 0.0
celebrate 0.0
celebrating 3.89658227284e-05
anniversary 0.000118514115972
students 0.000129914325638
corners 0.0
internet 0.000162440183074
figure 3.90728866663e-05
opened 0.000190994412507
inspired 0.000118514115972
latter 0.0
sitting 0.000110686346912
playing 0.000298819954757
street 0.000543013454078
points 0.0
advice 0.000421638173566
memory 9.03816585116e-05
forever 0.0
congress 0.00011345029206
imagine 3.63978301218e-05
problem 7.00874454033e-05
pulling 0.0
furniture 0.0
keeping 7.29934922124e-05
dressed 0.0
chinese 0.000158202663742
unlike 0.0
allowed 8.58807081893e-05
otherwise 4.63773500502e-05
afternoon 7.68714628657e-05
planned 4.69189271832e-05
images 0.0
noticed 5.17689856499e-05
expense 0.0
differences 0.0
difference 0.000107141169776
editor 0.000483561084786
intent 0.0
suppose 0.0
inspiration 4.48047588634e-05
letting 0.0
system 0.0
almost 0.000294025668992
details 0.000249996062811
experience 0.000170549631899
living 0.000204659558278
worries 0.0
weather 0.00045929746015
bright 0.000183908039044
understands 0.0
normal 8.75942321657e-05
launching 0.0
backyard 0.0
pointed 6.75846671649e-05
before 0.000141699547622
monday 0.000409319116557
example 8.63656936607e-05
science 4.61099092337e-05
tweeting 0.000372991047923
forgot 0.0001637964615
disaster 5.00705818256e-05
happens 0.000203009647828
silence 5.14535086497e-05
learned 0.000113432489842
congratulations 0.000144020600428
natural 9.27547001004e-05
babies 0.0
mission 8.85940634489e-05
surprising 5.27342212473e-05
reference 5.5280735979e-05
forgotten 4.86000197604e-05
setting 9.27547001004e-05
appeared 7.44509186052e-05
reminds 4.62433544963e-05
fantastic 0.000192705300669
loving 3.85410601338e-05
complete 7.50056576375e-05
daniel 5.74721645794e-05
rewarding 0.0
nearly 8.58807081893e-05
spirit 0.0
launched 0.00014623235102
finding 3.99423398958e-05
stories 0.000635925165516
including 0.000217795286029
wouldn 0.000105701237726
choice 3.48548042871e-05
offended 0.0
conversation 0.0
disrespectful 0.0
making 0.000423560521791
expect 7.83606090707e-05
traits 0.0
discussion 0.000190435377223
believes 0.0
response 0.000230614388597
brings 0.000118188634443
seasons 6.17033429159e-05
anytime 5.37290094206e-05
protected 0.0
location 0.00010259382271
needed 6.97096085742e-05
seriously 0.000180514380614
emergency 0.0
justify 0.0
spending 8.12200915371e-05
groups 5.27342212473e-05
condition 0.0
childhood 0.0
modern 0.000141167231113
welcome 0.000264189431737
moments 4.06100457686e-05
totally 0.0
running 0.000137178204682
strong 0.000134611609235
respond 0.0
message 0.00013866791157
coming 0.000912284200781
thankful 0.0
issues 0.0
challenge 0.000107431726257
intolerance 0.0
happen 3.32918555301e-05
giving 3.30236789671e-05
turkey 0.0
excellent 0.000468379721688
limits 0.0
contractors 0.0
common 4.03859491853e-05
pressed 0.0
healthcare 0.0
benefits 0.00010259382271
situation 0.000128098972854
workers 5.44095343099e-05
company 0.000295967150384
savings 7.81589022198e-05
health 0.000269787420936
insurance 0.0
change 0.000294025668992
silver 0.000213576072174
august 9.22198184674e-05
crying 0.0
mental 0.0
carrier 0.0
decide 4.04978042898e-05
happened 0.000240710809078
parking 6.41610956573e-05
demand 8.61227485121e-05
sacrifice 0.0
personal 3.55208806999e-05
rewards 0.0
beyond 7.29934922124e-05
contributing 0.0
passion 0.0
question 0.00013352696731
doctor 0.000100141163651
sacrifices 0.0
respected 0.0
losing 8.05489556081e-05
strain 0.0
respect 7.14274465173e-05
shouldn 0.0
career 7.58282983885e-05
visited 0.00010259382271
reason 6.87745168794e-05
simply 0.000122507095772
audience 0.000135572487767
sacrificed 0.0
employees 6.25757141236e-05
accounts 0.000109163832036
attacked 0.0
involved 0.000342160182078
extreme 0.0
valuable 0.0
knocked 0.0
reality 7.77182207935e-05
mention 0.000281921344628
without 0.000230543434651
problems 8.05489556081e-05
timing 0.0
described 0.000125595032369
pattern 0.0
online 0.000913603480376
background 4.91802829619e-05
buying 0.0
called 0.000197076698175
scientists 6.27975161846e-05
checked 0.000139132050151
heading 0.000582886655951
paying 8.49214619685e-05
planning 0.000382146578858
opposite 0.0
through 0.0
reached 0.0
changing 0.000120158027229
explains 0.000131764127392
harder 0.0
demands 0.0
silent 5.54578147593e-05
speaking 7.48016142939e-05
november 8.75942321657e-05
ordinary 6.46286415046e-05
number 0.000167359387315
stunning 0.00014623235102
atlantic 0.000316228573403
stupid 0.0
personality 6.60730515557e-05
grandparents 0.0
unless 0.000120823433412
calling 0.000137178204682
painting 0.0
focused 5.30624450055e-05
ridiculous 4.50616287843e-05
package 0.0
rooted 0.0
option 0.0
knowing 0.0
former 0.000369566364754
actual 8.68543256736e-05
tracked 0.0
suffers 0.0
schedule 0.0
friday 0.00155630279655
failure 0.000105142688672
achieve 0.000219020868399
winner 0.000290393714705
doctors 0.0
becomes 0.000184973417985
directly 0.0
quality 8.44470967123e-05
tearing 0.0
father 0.000148790879049
wishes 0.000255479848193
collar 0.0
caring 0.0
ground 0.000169367693049
matter 7.00874454033e-05
strategy 0.000108476124544
themselves 0.0
asking 6.91469405437e-05
usually 8.71000263502e-05
thankfully 7.38199497355e-05
reacts 0.0
period 4.87441170067e-05
parents 0.0
balance 0.000152494791919
resist 0.000123838499723
mobile 0.000488142560448
computer 0.00020210019614
reminded 0.00017017543809
impressed 0.000247371735966
dinner 7.22057522456e-05
suffering 0.0
single 0.000201917413853
parent 0.0
approved 0.0
energy 7.77182207935e-05
preview 9.30238009055e-05
meltdown 8.48784541975e-05
remind 4.54507816485e-05
emotional 4.70557437044e-05
sounded 6.8104580269e-05
status 0.000147540848886
update 0.000609948455999
outage 0.0
customers 0.0
holding 0.000231880388206
causes 0.0
eating 4.08356985905e-05
picked 8.14453525999e-05
missing 0.00024398363001
surprise 0.000349491261988
officially 7.62435569999e-05
global 0.000262039978438
follow 0.000197076698175
opinion 8.51599493978e-05
faster 5.27342212473e-05
backwards 7.02716415074e-05
design 4.93269824245e-05
website 0.000796647548725
widely 0.0
origin 0.0
breaks 4.30613742561e-05
allows 0.0
promoting 0.000112351881379
volunteer 0.0
convince 0.0
negative 0.000142826532918
official 0.000236206560298
jersey 5.49294474141e-05
mistake 4.51908292558e-05
fixing 0.0
translated 0.0
ginger 0.0
peaceful 0.0
thinks 0.0
hospital 0.000142826532918
lauren 0.0
easier 0.0
excluded 0.0
successful 0.000134031244163
leadership 0.0
agrees 0.0
decline 0.000214235683483
turnout 0.000426738348846
showed 0.0
trumps 0.0
circle 0.000115704428485
engage 0.0
suited 0.0
experienced 0.0
interested 0.000419880844579
effect 8.61227485121e-05
success 0.000442745387648
ladies 0.0
dreams 4.29403540946e-05
protect 0.0
explanation 0.0
occasion 0.0
medication 0.0
planet 0.0
detached 0.0
essence 0.0
control 0.0
happier 0.0
likely 8.73466594794e-05
coincidence 0.0
cancel 0.0
project 0.000258268142795
laying 0.0
lesson 0.0
requires 0.0
healthy 0.000132891095173
treating 0.0
opening 0.000284167045599
statement 0.000127025769787
enjoyed 0.000116258242109
animal 0.0
nervous 0.0
pounds 0.0
wonder 0.000566798190488
matters 4.29403540946e-05
shared 0.0
somehow 0.000210936884989
benefit 8.18982307501e-05
terrible 8.32761145533e-05
continues 0.000119497132309
improve 9.98409887455e-05
equally 0.0
appointment 0.00022528314815
session 0.00021349828809
routine 0.0
exciting 0.000235081827212
corner 9.3294020636e-05
imagination 0.0
decides 0.000147018002366
cheering 0.0
spring 4.17543145591e-05
fallen 0.0
frequently 8.81074510173e-05
places 0.000194829113642
thousands 9.57779313188e-05
informed 5.74721645794e-05
typical 0.0
continue 7.54156763576e-05
attend 4.91802829619e-05
excuse 4.73311171811e-05
settle 0.0
female 8.71000263502e-05
recovery 0.000108134980708
treasured 0.0
grandma 0.0
closer 0.000122847346125
beginning 8.21258588342e-05
everywhere 0.000116897468185
scenes 0.00012491417183
bought 0.000199711699479
multiple 0.0
slogan 0.00015999040592
wishing 0.000189324468725
covered 8.46838465244e-05
remove 0.0
choices 0.0
dealing 0.00017017543809
teacher 9.74882340134e-05
training 0.000211709616311
passing 0.000309199309444
stopping 0.0
become 0.000102329779139
spread 0.0
season 0.000108015450321
putting 0.000308650960536
weight 0.0
quietly 6.99927224062e-05
necessity 0.0
knocks 0.0
effects 0.0
returns 0.000131391348249
expected 0.00023391342159
resources 6.41610956573e-05
bucket 0.0
struggling 0.000113082088517
register 4.86000197604e-05
promotion 0.0
solution 0.0
manage 5.96196884633e-05
transition 6.32457146806e-05
gained 0.0
define 6.39298215437e-05
somebody 4.87441170067e-05
contract 0.000113082088517
ignorant 7.02716415074e-05
managers 0.0
credit 0.000120823433412
brothers 0.0
grandkids 0.0
computers 0.0
physical 0.0
series 0.000213125284199
offensive 0.0
fighting 0.0
donald 4.69189271832e-05
mexico 0.0
sandra 0.0
police 0.000589478443736
represent 5.5280735979e-05
president 0.00039929135772
talking 0.000687911649566
america 0.000139043021508
michigan 6.58278135933e-05
everybody 0.00020137238902
judgment 0.0
carolina 0.0
amount 0.0
houston 0.0
everyday 4.63773500502e-05
michael 0.000258268142795
protecting 0.0
providing 6.12757857502e-05
attitude 5.78522142426e-05
million 0.000137178204682
election 0.000135184886353
honesty 7.02716415074e-05
targeting 0.0
telling 3.70966500827e-05
correct 0.0
attack 0.00021052801562
elementary 0.0
americans 4.54507816485e-05
killed 0.000109193490365
horrible 0.0
salute 6.78435838797e-05
coverage 0.000442970317245
united 0.000338735386098
college 8.16713971811e-05
refuse 0.0
preach 0.0
hillary 0.0
clinton 0.0
presidency 0.0
throws 0.0
manning 0.0
american 0.00013866791157
deserved 0.000249602471864
humble 0.000180692629678
remain 0.000137931029283
founder 0.000181311562725
illegal 0.0
arizona 0.0
opinions 0.0
speeches 0.0
scared 4.78889656594e-05
salary 7.54209570813e-05
pieces 9.6627456508e-05
taught 4.81715228814e-05
thompson 7.35090011829e-05
straight 7.24017938771e-05
blocking 0.000122977722218
answers 0.0
created 0.000117864236049
record 0.000136439705519
stamina 0.0
weapon 0.0
bottom 4.37971160829e-05
athletes 0.0
registered 0.0
minnesota 0.0
committed 0.0
journey 8.49214619685e-05
snapchat 0.0
peoples 0.0
disrespect 0.0
brother 7.96647548725e-05
prayers 0.0
boston 4.71931387327e-05
korean 0.0
church 0.000148867149989
advantage 0.0
motivation 0.0
honestly 4.6647010318e-05
defeat 5.86259145034e-05
lifetime 4.93269824245e-05
captain 0.000166373444278
retired 6.63201544635e-05
country 6.74875886566e-05
ending 4.39213757975e-05
dressing 6.34721537557e-05
finish 0.000160653550089
ranked 0.0
employee 7.19973855737e-05
university 0.000421044158861
dreamed 0.0
prayer 7.22941353602e-05
nominated 0.000147102728475
responds 0.0
national 0.000211975055172
reform 0.0
shooting 0.000204178492953
cancer 4.10629294171e-05
deserve 4.0052675743e-05
mother 0.000181989150609
creating 8.98658799983e-05
powerful 7.96647548725e-05
wisdom 0.00022041846792
breaking 0.000281108763193
dollars 0.0
questions 0.000133887509852
racist 0.0
charged 0.000123838499723
soldiers 6.83676900125e-05
performance 0.000226864979684
reading 0.000416003734711
denver 0.0
graphic 6.55844126367e-05
garner 0.0
create 0.000113432489842
jordan 5.69102968203e-05
admire 6.04371875749e-05
nobody 4.0052675743e-05
government 9.77777122272e-05
politics 0.00036994683597
blessing 0.0
wrestling 0.0
charities 0.0
donate 0.0
sample 6.97161771133e-05
bringing 3.66954860271e-05
deserves 0.00013028148851
regret 0.0
victim 6.21366010117e-05
according 4.33047752127e-05
threat 4.86000197604e-05
heaven 5.17689856499e-05
heroin 0.0
honest 8.12200915371e-05
became 0.000122507095772
decision 0.0001628907052
counting 0.000139132050151
signing 4.28197829887e-05
embrace 0.0
pressure 0.000177692886768
celebrities 0.0
facebook 0.00059413514538
kardashian 0.0
divided 0.0
lawyer 0.0
lebron 0.0
campaign 0.00026539904436
determine 0.0
whether 8.25835209478e-05
praise 0.000277289073797
defined 0.0
proposes 0.0
discover 5.56358638392e-05
factory 0.000199707452696
arrested 0.000493626743328
estate 6.94419655639e-05
proposed 6.17033429159e-05
comments 0.000238994264618
teenage 7.17033213425e-05
wounded 0.0
endorsement 0.0
williams 5.20875556111e-05
custom 6.55844126367e-05
troops 0.0
singer 0.00019110054567
future 0.000370181925397
struggled 9.11559859949e-05
sister 0.000131764127392
sabotage 0.0
athlete 0.0
warrior 0.0
cheating 0.0
voting 0.0
succeed 6.12757857502e-05
religion 0.0
century 0.000107122164081
serving 0.0
because 0.0
cleveland 0.0
hiding 0.0
breath 5.54578147593e-05
choosing 0.0
lawrence 0.0
instagram 0.0
opponent 0.0
detroit 6.06448168805e-05
honored 0.0
nonsense 0.0
lifting 8.275391494e-05
proven 0.0
talent 8.71000263502e-05
knocking 0.0
russian 0.0
brains 0.000143994771147
oakland 0.0
regardless 0.0
skills 0.000181282181996
citizens 0.0
california 0.0
commitment 0.000108134980708
seconds 4.36733297397e-05
seeking 5.74721645794e-05
threatening 0.0
listen 0.000236206560298
whatever 3.75028288188e-05
mexicans 0.0
satisfied 0.0
fought 0.0
compete 6.12757857502e-05
injured 0.0
billion 0.0
ceiling 0.0
absolute 4.78889656594e-05
appearance 5.02213657425e-05
bigsean 0.0
handle 4.25799746989e-05
promise 3.87527473696e-05
nightclub 0.0
hosting 4.28197829887e-05
actors 0.0
generation 4.48047588634e-05
criminal 0.0
tuesday 0.00040806315091
ronald 0.0
locker 0.0
struggle 0.0
degree 5.82367616393e-05
entering 6.23554158169e-05
leader 0.000212899873495
pageant 0.0
toughest 0.0
character 8.73466594794e-05
mirror 0.000159683425794
interview 0.000232415520367
whistle 8.31678552611e-05
obviously 0.000183378606527
battle 0.000151656596777
motivate 0.0
destroy 0.0
relentless 0.0
winning 0.000139419217148
charlotte 0.0
accomplished 0.0
stepped 0.0
defense 0.0
appeal 0.000233723022015
causing 0.0
arabia 0.0
shipped 0.0
society 0.0
officers 0.0
brooklyn 0.0
marked 0.000166335710522
incredible 3.52337459086e-05
poster 5.17689856499e-05
wealthy 0.0
memorable 0.00013516933433
officer 0.00017705935346
minute 0.000183976568405
luther 0.0
foreign 0.0
pregnant 6.68200701051e-05
champions 6.12757857502e-05
virginia 0.0
tackle 0.0
unarmed 0.0
orange 0.000146666568341
policy 4.78889656594e-05
comedy 0.000101971925605
reminder 0.000117864236049
evidence 0.000145369676122
lighten 0.0
presidents 0.0
kicked 0.0
sticker 0.0
accused 6.46286415046e-05
intentions 0.0
facing 0.000107458018841
freedom 0.0
actions 0.0
debating 0.0
outcome 0.0
utterly 0.0
mississippi 0.0
clearly 0.0
download 9.22198184674e-05
sidelines 0.0
invite 0.000231216772482
legally 0.0
central 0.000301429619792
washington 0.0
veteran 0.0
division 0.000120051734399
veterans 0.0
stronger 0.0
promised 5.35610820403e-05
worried 0.0
security 4.33047752127e-05
immediately 0.0
television 0.000114944329159
entitled 0.0
racism 6.30208426705e-05
highest 4.61099092337e-05
approve 0.0
turning 0.0
legacy 0.0001035379713
ignore 4.67826843179e-05
choked 0.0
backing 0.0
helping 0.000143630868492
collector 0.0
willing 0.0
basically 4.76088443058e-05
return 0.000180514380614
unacceptable 0.0
feelings 0.0
network 4.55815418884e-05
language 0.0
invest 6.51030130795e-05
coward 0.0
schools 0.000139132050151
patients 0.0
foster 6.75846671649e-05
children 0.000251354019862
nation 4.10629294171e-05
review 0.000272013772777
between 0.0
knowledge 4.63773500502e-05
begins 3.90728866663e-05
tenure 0.0
faithful 0.0
highlights 4.91802829619e-05
shoulder 0.0
produced 0.0
consider 8.66095504254e-05
shattered 0.0
latest 0.000706583517239
beyonce 0.0
signed 0.000180025750535
millionaire 8.71516798852e-05
shelter 0.0
charity 9.11630837768e-05
germany 4.96223833297e-05
advance 4.74696840256e-05
proved 6.60730515557e-05
married 0.0
millions 0.000132513989762
blessings 0.0
indonesia 0.0
fights 0.0
dollar 0.0
rigged 0.0
conduct 0.0
johnson 0.0
howard 5.98221431729e-05
turned 0.000214863452515
criticism 0.0
stomach 0.0
upgrades 0.0
jackie 0.0
relevant 0.0
charge 4.51908292558e-05
ticket 4.37971160829e-05
steady 7.85179542242e-05
indian 0.000135687167759
turner 0.000321501010493
sanders 0.0
includes 4.86000197604e-05
survivor 7.25936202062e-05
dealers 0.0
collection 4.48047588634e-05
against 0.0
joyner 0.0
impact 0.000174693318959
families 4.17543145591e-05
welcoming 0.000196028464108
hitting 8.71000263502e-05
announced 3.97227858458e-05
granted 0.0
decided 0.000195364433332
itself 0.0
selfish 0.0
mexican 0.0
respects 0.0
guarantee 6.39298215437e-05
beliefs 0.0
citizen 0.0
states 0.000123531430528
denied 0.0
drought 0.0
memorial 5.30624450055e-05
decades 0.0
trayvon 0.0
landed 0.000101971925605
pastor 0.000101771222791
ultimate 0.0
weekends 0.0
episode 0.000116897468185
spikes 0.0
engaged 0.0
financial 5.74721645794e-05
payments 0.0
tolerant 0.0
symposium 0.0
kansas 0.0
agreement 6.04371875749e-05
source 9.16893032637e-05
backbone 0.0
dismiss 0.0
midnight 4.40461125179e-05
homework 0.0
joining 7.68714628657e-05
reasons 3.80177980087e-05
talked 0.000123188788251
released 3.80177980087e-05
reaching 0.0
release 0.000107431726257
existing 0.0
models 0.0
pageants 0.0
helmets 0.0
scheme 0.000214235683483
scholarship 0.0
stacked 0.0
speech 7.83606090707e-05
standing 0.000186495523962
higher 0.0
purple 0.000121707562864
justice 0.000131764127392
served 0.0
speaks 0.000235965693664
backup 0.0
allegedly 0.0
purchase 0.0
millionaires 0.0
consideration 0.0
strength 0.0
incredibly 0.0
private 0.00012561296785
ignored 0.000124710831634
neighbors 0.0
apologizes 0.0
beings 0.0
minimum 0.0
direction 0.0
enemies 0.0
exclusive 0.000193763736848
prison 0.000172984901339
himself 5.24092797817e-05
contributes 0.0
investigation 0.000240923506238
teaching 4.97710969795e-05
disgusting 0.0
philly 0.0
rights 0.000132138337554
cheers 0.000858925833594
maintain 0.0
overcome 0.0
flawless 0.0
unique 0.000100141163651
neighborhood 0.0
dating 0.0
handed 0.0
victory 0.000186588041272
lifted 0.0
greatness 0.0
muslim 0.0
terrorist 6.68200701051e-05
productive 6.48649616428e-05
tribute 0.00013441427659
deadspin 0.0
threatened 0.0
horror 6.48649616428e-05
warning 9.43862774655e-05
convention 6.27975161846e-05
understanding 4.70557437044e-05
action 3.50437227017e-05
having 0.0
afghan 0.0
announces 0.0
commencement 0.0
speaker 0.00016322860293
graduation 0.0
honors 0.0
produce 6.12757857502e-05
apologize 0.0
insult 0.0
continued 0.0
letter 0.000281921344628
discussed 0.0
therapy 0.0
untrue 0.0
written 0.0
existence 0.0
essential 0.0
results 0.000170798630472
initiative 0.000131168825273
disease 0.0
marching 7.02716415074e-05
suggest 5.05250490349e-05
georgetakei 0.0
ensure 0.0
democrats 7.17033213425e-05
marched 0.0
foundation 4.65119004527e-05
access 0.000120490162567
writes 5.32278085979e-05
student 0.00014075678155
colorado 0.0
medical 0.0
medicine 0.0
tremendous 0.0
nytimes 0.000296846083159
kindness 0.0
public 0.000417055641137
cannot 0.000109193490365
reveals 4.87441170067e-05
invented 0.0
threatens 0.0
candidate 0.0
persistence 0.0
sexual 0.0
illustration 0.0
measure 5.98221431729e-05
compared 0.0
headline 0.000204564260517
reflect 0.0
answering 0.0
streaming 0.0
leaders 0.000238044221529
supreme 5.63579796853e-05
nominee 0.0
immigration 6.06448168805e-05
policies 0.0
laundering 0.0
administration 0.0
defend 0.0
communicating 0.0
excitement 0.0
funding 0.000104175111222
climate 5.5280735979e-05
transfer 0.000215992156721
conspiracy 0.0
activist 0.0
horrifying 0.0
freely 0.0
retreat 0.0
daughters 6.99927224062e-05
compelling 0.0
platform 0.00015530695695
hamilton 6.46286415046e-05
futures 9.11559859949e-05
huffingtonpost 0.0
headlines 0.000301154382797
january 0.0
grants 7.85179542242e-05
unprecedented 7.25936202062e-05
relationships 6.8104580269e-05
philadelphia 0.0
diversity 6.02308765594e-05
funded 0.0
secure 0.0
income 0.0
universal 0.0
contributed 0.0
hurricane 6.91700486986e-05
fundamental 0.0
countries 0.0
linked 0.000121707562864
african 6.02308765594e-05
improved 0.0
unclear 0.0
provide 0.0
livestream 7.44509186052e-05
addresses 0.000152841695071
enhance 0.0
companies 0.0
proposal 0.0
potential 9.01232575686e-05
discrimination 0.0
connected 0.0
drives 0.0
attending 0.0
filled 4.58446516318e-05
education 0.000131764127392
addressed 7.50943827166e-05
mentioned 0.000288179622852
famous 0.000224664699996
resistance 0.0
exists 0.0
demonstrated 0.0
officials 5.74721645794e-05
instructions 0.0
transmission 0.0
olympics 5.78522142426e-05
ability 0.0
political 0.00023391342159
director 4.07226763e-05
contains 0.0
sponsored 0.0
autism 0.0
previously 0.0
prevent 0.0
capacity 7.50943827166e-05
donations 0.0
william 0.000331684415874
editors 0.000518937318679
passionate 0.0
solving 0.0
innate 0.0
treatment 0.0
critical 5.19278802246e-05
feeding 6.7327797244e-05
preparing 5.45819160181e-05
depend 0.0
capable 6.70729420099e-05
bridge 0.00126171226406
systematically 0.0
becoming 0.000167483957133
embraced 0.0
literacy 0.0
lawyers 0.0
stigma 0.0
malaria 0.0
standard 4.71931387327e-05
hiring 6.32457146806e-05
remains 0.0
fellow 4.14067831631e-05
defending 0.0
quotes 5.37290094206e-05
pushes 0.0
luxury 7.92481844107e-05
admitted 0.0
colleagues 5.98221431729e-05
failed 4.84565587072e-05
independent 0.000151118557852
politically 0.0
driven 0.0
agenda 0.000235289010875
result 9.41114874089e-05
implications 0.0
insider 0.0
pakistan 0.0
solutions 0.0
trusts 0.0
indiana 0.0
filling 6.65691508985e-05
humility 0.0
clicks 0.0
disagree 0.00010105009807
claims 5.24092797817e-05
editorial 0.000272418321076
mistakes 0.0
offered 5.37290094206e-05
passionately 0.0
justification 0.0
inspiring 0.000176184450072
counter 0.0
shaped 7.14118944942e-05
retroviral 0.0
majority 0.0
approach 4.86000197604e-05
nature 4.70557437044e-05
concern 5.5280735979e-05
server 0.0
berniesanders 0.0
shameful 0.0
experiment 0.0
massive 0.000165627132653
promises 0.0
colored 0.0
consequences 6.30208426705e-05
whatsoever 0.0
proposals 0.0
guesses 0.0
bernie 0.000421629849044
interviewed 0.000105142688672
pregnancy 0.0
secretary 0.0
measures 0.0
vastly 0.0
reduce 0.0
compassionate 9.06276186496e-05
distinguished 0.0
dangerous 0.000131391348249
influence 5.33940180436e-05
letters 0.00012087437515
implicit 0.0
saving 4.73311171811e-05
revelations 0.0
incident 0.000201983391732
universe 0.000104818559563
victims 4.73311171811e-05
milestone 0.0
perfectly 0.000148867149989
exercise 0.000113820593641
receive 0.0
reputation 0.000389018871798
economics 0.000157035908448
disclosure 8.85960899363e-05
receives 7.54209570813e-05
terrific 0.0
collected 8.57687530612e-05
campus 0.0
founders 0.0
profiling 0.0
systemic 0.0
studying 6.89003884308e-05
necessary 5.02213657425e-05
inaccurate 0.0
breast 0.0
debate 0.000167952337831
suddenly 6.00258671994e-05
conflict 0.0
interest 0.000320912561423
meanwhile 5.72837937575e-05
indefensible 0.0
recall 0.0
rating 0.0
nominate 0.0
outstanding 0.000167984747531
devastating 0.0
illness 7.1123058141e-05
troubling 0.0
romney 9.11559859949e-05
appears 0.000216269961416
breathe 0.0
abroad 0.0
spanish 0.000180077601598
profit 0.0
reviews 5.86259145034e-05
republican 0.000321970138319
presidential 0.00021763813724
candidates 5.51046169799e-05
politicians 0.0
identified 7.85179542242e-05
epidemic 0.0
displaced 0.0
greater 5.32278085979e-05
absurd 0.0
deadline 5.2571344336e-05
height 0.0
sisters 6.21366010117e-05
nuclear 5.76616337797e-05
stress 6.02308765594e-05
leading 0.000372661048468
restored 0.0
conditions 6.12757857502e-05
however 0.00015530695695
achieved 0.0
member 0.000114992229154
examples 0.0
diverse 0.0
suicide 0.0
contributions 7.19973855737e-05
largest 5.14535086497e-05
increase 0.000159187335017
targeted 0.00014458827072
regulators 0.0
provided 6.70729420099e-05
element 0.0
effectively 0.000147018002366
population 0.0
rising 0.0
indication 0.0
versus 0.0
believed 5.98221431729e-05
dynamic 7.08367666346e-05
invasion 0.0
primary 5.94184873513e-05
provides 6.39298215437e-05
environment 6.00258671994e-05
confirmed 0.000284818104153
behavior 0.0
introduced 0.0
contain 0.0
communities 0.0
worldwide 0.000108476124544
responsible 0.000106455617196
household 0.0
apparent 0.0
munich 0.0
alternate 8.76260514601e-05
expressed 0.0
movement 0.0
declared 0.000142823788988
hundreds 0.0
information 4.41713299206e-05
easily 4.8029937142e-05
untreated 0.0
october 4.55815418884e-05
quantify 0.0
scales 0.0
investigating 0.000235553862673
innovation 0.0
perspective 4.81715228814e-05
rivals 0.0
interests 6.1488861109e-05
toledo 0.0
extraordinary 0.00011020923396
gingrich 0.0
describing 7.74524857947e-05
eliminate 0.0
obligation 0.0
gender 5.96196884633e-05
committee 5.33940180436e-05
preventing 0.0
numerous 0.0
unusual 0.0
improving 0.0
practices 0.0
cemetery 0.000101771222791
questioned 0.0
affecting 0.0
ferrell 0.000108291791442
genius 4.33047752127e-05
warren 7.50943827166e-05
organizers 0.0
regularly 0.0
ceilings 0.0
sexism 0.0
prepared 0.0
burden 0.0
foreignpolicy 0.0
county 0.000662539642153
uniform 0.0
newyorker 8.3587136895e-05
anthony 0.0
reflecting 8.275391494e-05
grandson 9.45204239543e-05
banning 0.0
considered 0.0
chosen 0.0
outright 0.0
screenings 0.0
naming 7.71049543987e-05
conventions 0.0
reproductive 0.0
ignores 0.0
focusing 0.0
sensible 7.60841204209e-05
concluded 0.0
performed 0.000135687167759
divide 0.0
dismissed 0.0
compromise 0.0
crucial 0.0
weakness 0.0
barrier 8.03752526232e-05
effective 0.0
wealth 7.02716415074e-05
underway 6.53428213693e-05
israel 0.0
overwhelming 0.0
assault 0.0
citing 0.0
protection 5.65410442584e-05
prisoners 0.0
photographing 0.0
traveled 0.0
holder 0.0
seemed 0.00017587774351
concludes 0.0
determination 0.0
tested 0.0
lacking 8.71516798852e-05
machine 8.7842751595e-05
honoring 0.0
contrary 0.0
tolerance 8.1148952884e-05
michelle 0.0
assumed 0.0
programs 0.0
closely 6.7327797244e-05
politico 0.0
inspire 0.0
lyrics 0.0
judges 0.0
federal 0.0
maryjblige 0.0
tuning 0.0
striving 0.000117639696967
poland 0.0
september 0.0
manchester 5.92185244077e-05
checks 0.0
remarkable 0.000449407525515
mharrisperry 0.0
immoral 0.0
fiction 6.53428213693e-05
process 0.0
anxious 8.23451815535e-05
destructive 0.0
nmaahc 0.0
performances 0.0
whitehouse 0.0
flotus 0.0
crisis 0.000400564654605
marriage 0.0
emotions 0.0
confidence 5.09859628023e-05
voters 0.0
comparing 0.0
oldest 0.000262337650547
empirefox 0.0
chancetherapper 0.0
songwriter 0.000102518241341
literally 0.0
onstage 9.33598050152e-05
believing 0.0
hillaryclinton 0.0
citizenship 0.0
counted 0.0
hillaryfornc 0.0
raleigh 0.0
discusses 6.70729420099e-05
johnlegend 0.0
apprentice 0.000193947913972
acknowledge 0.0
conservative 0.00012087437515
economists 0.0
buzzfeed 0.0
puppet 0.0
hombres 0.0
republic 0.000617696528529
homecoming 0.000104868219934
andersoncooper 0.0
muslims 0.0
katyperry 0.0
bragging 9.45204239543e-05
treats 6.94419655639e-05
qualified 0.0
islamophobia 0.0
debates 0.0
endorsements 0.0
counts 0.0
theellenshow 0.0
festival 0.00081411241621
encouraged 0.0
stylish 0.0
disregard 0.0
jtimberlake 0.0
backstage 5.86259145034e-05
barack 0.000289176541441
joined 0.0
terrorism 0.0
pushing 5.20875556111e-05
hopeful 7.28958909978e-05
mentions 6.10640985144e-05
teamed 0.0
exclusively 6.68200701051e-05
aliciakeys 0.0
kingjames 0.0
muhammad 0.0
refused 6.91700486986e-05
characters 0.000103855760449
express 0.0
gratitude 0.0
ugliest 0.0
throughout 5.16108642878e-05
awkward 0.0
shining 0.000263311254373
fighter 0.0
accepting 5.96196884633e-05
applemusic 0.0
reveal 0.0
stands 4.51908292558e-05
native 6.60730515557e-05
announce 0.000151243319789
dorothy 0.0
haters 0.0
jessetyler 0.0
shondarhimes 0.0
lavernecox 0.0
broadway 0.0
disabilities 0.0
adoption 0.0
touched 0.000121707562864
corruption 0.0
violence 0.00014324580938
leedanielsent 0.0
delivered 0.000158693756102
jasmine 0.0
independence 5.88222527188e-05
square 0.00022023056259
alongside 0.0
privilege 0.000120461753119
secondary 0.0
staggering 0.0
seventh 0.0
tennis 0.0
sweeping 8.40118994896e-05
footage 0.000106455617196
overseas 7.14118944942e-05
spoiler 0.0
theirs 0.0
offering 5.38978091549e-05
construction 6.8104580269e-05
spends 0.0
detail 0.0
cabinet 0.0
earnings 0.0
pleased 0.000322374056524
gravity 0.0
statements 0.0
decade 0.0
bigotry 0.0
belong 0.0
trillion 0.0
backed 0.000129257283009
operations 0.0
breakthroughs 0.0
values 0.0
senator 6.7327797244e-05
removing 0.0
wondered 0.000125595032369
introduces 0.0
makers 0.0
measured 0.0
pillars 0.0
instrument 0.0
shares 0.000104818559563
individual 0.0
applications 0.0
prepares 0.0
ceremony 0.0
expanding 0.0
merger 0.000101771222791
newspaper 0.00121707562864
detailed 0.0
tuition 9.51166585868e-05
childcare 0.0
thoroughly 0.0
adviser 0.000169756908395
matthew 0.0
affected 0.0
newspapers 0.00147018002366
corporate 6.89003884308e-05
economy 0.000167984747531
presenting 0.0
spoken 0.00010881906862
richer 0.0
during 0.0
combat 6.75846671649e-05
touting 0.0
competitive 0.0
prominence 0.0
trifecta 0.0
fashioned 8.44422882422e-05
boasts 0.0
ripped 0.0
belief 0.0
heroes 9.92447666594e-05
disturbing 0.0
russians 0.0
intelligence 5.94184873513e-05
deepest 0.000150188765433
regrets 8.48784541975e-05
complicated 0.0
internships 0.0
adults 0.0
describe 0.0
equality 0.0
announcement 0.000250525887355
interfere 0.0
terrifying 0.0
nationwide 0.0
manager 0.000509859628023
questionable 0.0
enhanced 0.0001032828384
services 0.000167984747531
delighted 0.000474905087158
golfer 0.000102518241341
regarding 6.02308765594e-05
teachers 0.000174710284918
suggests 6.02308765594e-05
phrase 0.0
immigrants 0.0
revolution 0.0
universities 0.0
twelve 0.0
principle 7.19973855737e-05
releases 6.00258671994e-05
malarkey 0.0
library 6.12757857502e-05
advisor 0.0
deadlines 0.0
encouraging 0.0
circuit 0.0
humanitarian 0.0
reliant 0.0
assistance 0.0
swimmer 0.0
hinges 0.0
concrete 0.0
accepted 0.0
confronted 0.0
comprehensive 0.0
pushed 0.0
unending 0.0
occasionally 0.0
guardia 0.0
donation 5.51046169799e-05
nomination 0.0
paintings 9.96279927793e-05
significantly 0.0
investment 0.000251190064739
terror 0.0
worship 0.00019144807687
represents 6.68200701051e-05
attempting 7.85179542242e-05
bullying 0.0
astonishing 0.0
endorse 0.0
urgent 7.1123058141e-05
forced 0.0
addressing 0.0
script 6.23554158169e-05
hundred 6.86329476143e-05
command 0.0
qualifies 0.0
stumbled 0.0
territory 0.0
balloons 0.0
objects 0.0
latimes 0.0
pandemics 0.0
separating 0.0
pentagon 0.0
threats 6.37001818899e-05
prisons 9.39349328748e-05
approaching 0.0
generous 0.0
roughly 0.0
commands 0.0
uncovered 0.0
destroying 0.0
opposition 6.58278135933e-05
addiction 7.19973855737e-05
manhattan 0.0
ridiculously 0.0
awarded 0.000149542115804
greeted 0.0
forces 0.0
confirm 5.28979187007e-05
dealings 0.0
nations 0.0
equivalent 0.0
sexist 0.0
yahoonews 0.000125805876781
bloody 6.17033429159e-05
boundaries 0.0
exceptionally 0.0
cannon 0.0
feared 0.0
significance 0.0
recommendation 0.0
chapters 0.0
racial 0.0
obvious 5.51046169799e-05
statistics 0.0
military 0.0
adopted 7.19973855737e-05
housing 0.0
clearer 0.0
calculator 0.0
underwater 0.0
guided 0.000203542445583
rescue 0.000174131757241
deserving 0.0
advised 0.00017525210292
ordered 0.0
unions 0.0
avoiding 7.19973855737e-05
alicia 0.0
preserve 0.0
balloon 0.0
economic 0.000118836974703
recipe 0.0
awaits 0.0
squarely 0.0
radical 0.0
banter 9.33598050152e-05
spaces 0.0
carnival 9.69739569858e-05
theories 0.0
bombing 0.0
products 0.0
margaret 7.9619547033e-05
gathered 0.000179191960781
taxpayers 0.0
admits 0.0
opposed 0.0
pressing 8.44422882422e-05
russia 5.05250490349e-05
lincoln 6.65691508985e-05
intelligent 6.63201544635e-05
momentum 0.0
olympic 0.000120461753119
magnificent 6.8104580269e-05
heritage 0.000231314863196
beijing 0.000173368268076
beloved 0.0
dummies 0.0
pursuit 7.999520296e-05
carries 0.0
phelps 0.0
medals 9.33598050152e-05
gymnastics 0.0
summed 0.0
accuse 0.0
symbol 0.0
dignity 7.57508469785e-05
slogans 0.0
priorities 0.0
applied 6.8104580269e-05
progressive 0.0
activists 0.0
elected 0.00011345029206
brussels 6.94419655639e-05
subscribe 0.0
elections 0.0
unites 0.0
complacency 0.0
imperative 0.0
doorsteps 0.0
voices 5.2571344336e-05
blatant 9.39349328748e-05
democracy 0.000114193017305
disastrous 0.0
rebuild 0.0
accuses 0.0
diplomacy 0.0
hardball 0.0
attacking 0.0
subtle 0.0
barker 0.0
sticking 0.0
openly 0.0
policing 0.0
embarrassed 0.0
slightest 0.0
abbott 0.0
attacks 0.0
commit 0.0
argued 0.0
remarks 7.05529755226e-05
democratic 6.63201544635e-05
semitic 0.0
incomes 0.0
treasury 0.0
alarming 0.0
dividing 0.0
reject 0.0
affirming 0.0
quitting 0.0
extended 0.000118437048815
reducing 0.0
proudly 0.0
inclusive 0.0
oppose 0.0
distinctly 0.0
urging 0.0
strengthen 8.23451815535e-05
deliver 5.16108642878e-05
obligations 0.0
relations 0.0
repeal 0.0
strengths 0.0
counties 9.39349328748e-05
weakened 0.0
reckless 0.0
prosperous 0.0
servant 0.0
secretaries 0.0
negotiator 0.0
faults 0.0
choking 0.0
executive 5.4238062272e-05
alternative 5.47552170997e-05
extend 0.0
republicans 6.63201544635e-05
embodied 0.0
preparation 0.0
terrorists 0.0
confident 5.61759406894e-05
weapons 0.0
unifying 0.0
outrage 0.0
constitutional 0.0
rental 0.0
prevail 0.0
resilient 0.0
humbled 0.0
courage 0.0
commander 0.0
respecting 0.0
enormous 0.0
aligned 0.0
consent 0.0
refusing 0.0
resentment 0.0
substance 0.0
claiming 0.0
lamont 0.0
dropping 4.91802829619e-05
carried 0.0
intimidated 0.0
behalf 0.0
meaningful 0.0
amendment 0.0
accepts 0.0
legislation 0.0
fairer 0.0
commitments 0.0
handling 0.0
proves 0.0
rhetoric 0.0
hardest 0.0
peddling 0.0
divisive 0.0
strongly 0.0
vision 0.0
investigations 0.0
repeatedly 0.0
records 0.0
madeleine 0.0
disabled 7.78037743596e-05
quoting 7.78037743596e-05
assassination 0.0
beaten 0.0
deeply 0.000105142688672
grievance 0.0
contempt 0.0
standards 0.0
fairness 0.0
dictated 0.0
consensus 0.0
reconsider 0.0
priority 6.27975161846e-05
rogers 0.0
freedoms 0.0
notorious 0.0
invested 0.0
propaganda 0.000154904971589
unconstitutional 0.0
condemn 0.0
concerned 0.0
praising 0.0
cheered 0.0
realdonaldtrump 0.0
despicable 0.0
straightforward 0.0
bargain 0.0
attorney 0.0
bedrock 0.0
optimism 0.0
belongs 0.0
truman 0.0
whichever 0.0
inappropriate 0.0
beatings 0.0
optimistic 0.0
campaigned 0.0
allies 0.0
governor 0.0
attempts 0.0
extent 0.0
denial 0.0
maximum 0.0
merely 0.0
apprenticeships 0.0
agreeing 0.0
architect 0.000404163970419
responsibility 5.35610820403e-05
mainstream 0.0
legitimacy 0.0
injustice 0.0
dozens 0.0
donnell 0.000475464105987
scenario 0.000140543283015
crimes 7.22941353602e-05
thoughtful 0.0
hypocrisy 0.0
undocumented 0.0
sexually 0.0
richest 9.11559859949e-05
softening 0.0
implies 0.0
infrastructure 0.0
pitching 0.00017430335977
broadband 0.00010653493787
tenants 0.0
allegations 0.0
bloomberg 0.0
insulting 0.0
liberal 0.000121707562864
kremlin 0.0
podium 9.39349328748e-05
provoke 0.0
outrageous 0.0
campaigns 0.0
barriers 0.0
powell 0.0
technical 6.8104580269e-05
warnings 8.76260514601e-05
flagged 0.0
grassroots 0.0
extremist 0.0
businesses 0.00051143857235
welcomes 0.0
deputy 0.000232357457384
donating 0.0
continually 0.0
ourselves 0.0
fringe 0.0
politician 0.0
wiggins 0.0
welcomed 0.0
rallies 0.0
ballot 0.0
failing 5.82367616393e-05
uniting 0.0
refuses 0.0
appealing 0.0
proverb 0.0
privileges 0.0
ideals 0.0
vibrant 0.0
tarmac 0.0
residents 7.1123058141e-05
apprenticeship 0.0
denying 0.0
fierce 0.0
opponents 0.0
polling 0.0
apology 6.12757857502e-05
damning 0.0
outline 0.0
endorses 0.0
losers 0.0
insulted 0.0
equipped 0.0
battlefield 0.0
recession 0.0
endorsed 0.0
divides 0.0
describes 7.28958909978e-05
appointed 7.81589022198e-05
encourage 0.0
undermine 0.0
undermining 0.0
authority 7.05529755226e-05
betray 0.0
funnyordie 0.0
donated 0.0
jimmykimmellive 0.0
immigrant 0.0
criminals 0.0
automatically 0.0
schooled 0.0
elizabethforma 0.0
releasing 0.0
connects 0.0
screening 0.0
cleaner 0.0
nowthisnews 0.0
sophiabush 0.0
chelseaclinton 0.0
stunts 0.0
truths 0.0
transparency 0.0
obamacare 0.0
nickkristof 0.0
contraception 0.0
betting 0.000155607548719
conscience 0.0
proclaimed 0.0
dispatch 0.0
advocate 0.0
profits 0.0
toward 5.88222527188e-05
guiding 0.0
senators 0.0
barber 0.00018671961003
doubled 0.0
mosque 0.0
senate 0.0
louisiana 0.0
senwarren 0.0
parenthood 0.0
organizations 0.0
generations 0.0
minorities 0.0
misogyny 0.0
peacefully 0.0
decency 0.0
intend 0.0
discourse 0.0
pennsylvania 0.0
katiemcgintypa 0.0
experiencing 8.66841340379e-05
mccain 0.0
scandal 0.0
constitution 0.0
sensanders 0.0
intolerable 0.0
strive 0.0
forefathers 0.0
abandon 0.0
buzzfeednews 0.0
paulkrugman 0.0
mothers 6.06448168805e-05
compassion 7.44509186052e-05
deeper 6.91700486986e-05
governments 0.0
activism 0.0
jamilsmith 0.0
mike_pence 0.0
elizabethbanks 0.0
empathy 0.0
audited 0.0
checkers 0.000110149089841
warming 0.000117251829007
volunteering 0.0
charitable 0.0
qualifications 0.0
workplace 0.0
granddaughter 0.0
recycled 0.0
directing 0.0
politifact 0.0
abolish 0.0
murders 0.0
reagan 0.0
pouring 0.0
ballots 0.0
racists 0.0
empower 0.0
tolerate 0.0
chrismurphyct 0.0
igorvolsky 0.0
outraged 0.0
exceptional 7.78037743596e-05
nightmares 0.0
enforcement 0.0
weaken 0.0
medicaid 0.0
humbly 0.0
newsweek 0.0
conflicts 0.0
suffer 0.0
dallasnews 0.0
bridges 8.66841340379e-05
lesdoggg 0.0
appalling 0.0
hatred 0.0
superpower 0.0
goodbye 0.0
renewable 0.0
robdelaney 0.0
motherjones 0.0
trusted 0.0
sheriff 0.0
personalized 0.0
amnesia 0.0
malala 0.0
problema 0.0
everytown 0.0
casting 0.0
employers 0.0
rudolph 0.0
packets 0.0
organization 0.0
graceful 0.0
hardworking 0.0
cherished 0.0
aggressively 0.0
founding 8.48784541975e-05
sacred 0.0
horrific 0.0
earned 5.74721645794e-05
siding 0.0
minded 0.0
contribute 6.78435838797e-05
incites 0.0
chooses 0.0
obtained 0.0
defended 0.0
champion 5.17689856499e-05
magazines 0.00010032681274
waited 0.0
punished 0.0
conviction 0.0
tradition 0.000118437048815
giveaways 0.0
distracted 0.0
endorsing 0.0
pathetic 0.0
ladygaga 0.0
pessimistic 0.0
highlighting 0.0
transgender 0.0
womensmarch 0.0
advisors 0.0
wrecking 0.0
hillaryforva 0.0
registration 0.0
ellemagazine 0.0
acceptance 0.0
defeated 0.0
theroot 0.0
pharrell 0.0
tumblr 0.0
nevada 0.0
illinois 0.0
massachusetts 0.0
theadvocatemag 0.0
lending 0.0
rejecting 9.82738853591e-05
legalize 0.0
conned 0.0
arkansas 0.0
celebratin 0.0
rubber 0.0
lenadunham 0.0
hateful 0.0
wizard 0.0
unbearable 0.0
harpersbazaarus 0.0
familia 0.0
iamwill 0.0
retweets 8.1148952884e-05
nominating 0.000104065861248
vietnam 0.0
laurie 0.0
claimed 0.0
rapids 0.0
devoted 0.0
casino 0.0
astounding 0.0
summon 0.0
crushed 0.0
louder 0.0
farmers 0.0
lin_manuel 0.0
arrangement 0.0
borrowed 9.96279927793e-05
mariska 0.0
purposes 8.57687530612e-05
dialogue 0.000157762036132
comedian 7.9619547033e-05
________ 0.0
lightly 0.0
defeating 0.0
jerusalem 0.00011315065703
cynical 0.0
worrying 0.00013516933433
elizabeth 0.0
insults 0.0
microphone 0.0
sleeves 0.0
theeconomist 0.000806363823514
stakes 0.0
nationally 0.0
inspect 0.0
poisoning 0.0
columbus 0.0
declaring 0.0
crushing 6.83676900125e-05
chucktodd 0.0
soldier 0.0
painted 7.32010000543e-05
warned 0.0
ohiostate 0.0
unrelated 0.0
designated 0.0
clears 0.0
congressional 0.0
confront 0.0
usatoday 0.0
delivers 0.0
pittsburgh 0.0
entiende 0.0
soaked 0.0
bromance 0.0
lifelong 0.0
antiques 0.0
repjohnlewis 0.0
breakers 0.0
fundraising 0.0
hispanic 0.0
defrauded 0.0
fearful 0.0
nytopinion 0.0
volume 0.0
perfecting 0.0
washingtonpost 0.0
affordable 6.75846671649e-05
mighty 0.0
normalizing 0.0
boasting 0.0
assaulting 0.0
disqualify 0.0
monique 0.0
jcolenc 0.0
teamusa 0.0
allysonfelix 0.0
usabasketball 0.0
ibtihaj 0.0
simone 0.0
feminism 0.0
conversion 0.0
destiny 8.48784541975e-05
disrespected 0.0
serenawilliams 0.0
tantrum 0.0
heinous 0.0
unconscious 0.0
accomplishments 0.0
saddened 0.000274531790457
disgrace 0.0
rodriguez 0.0
arsenal 0.0
defender 0.0
malalafund 0.0
merchandise 0.0
laundry 0.0
lesbians 0.0
cnnpolitics 0.0
nickgass 0.0
examining 0.000104868219934
monument 9.57240384349e-05
appeals 0.0
gracias 0.0
madame 0.0
grande 0.0
speechless 0.0
coulter 0.00036440077289
missiles 0.0
psyched 9.51166585868e-05
chelsea 0.0
biases 0.0
resume 0.0
spectator 0.0
angelina 0.0
spectacle 0.000224238037542
admiration 0.0
reaches 0.0
español 0.0
dreamers 0.0
mañana 0.0
bursting 0.0
undone 0.0
beyoncé 0.0
nuestra 0.0
diwali 0.0
prestigious 0.00010032681274
cynicism 0.0
disability 0.0
registering 0.0
booker 0.0
méxico 0.0
disponible 0.0
honduras 0.0
famously 0.0
overdue 0.0
equity 9.82738853591e-05
opioid 0.0
millennials 0.0
recommendations 7.28958909978e-05
investors 0.0
betrays 0.0
patriotism 0.0
liability 0.0
iranian 0.0
delegate 0.0
struck 0.0
millennial 0.0
dictators 0.0
graduate 0.0
analysts 0.0
victor 0.0
shrink 0.0
dictator 0.0
poised 0.0
avoided 0.0
rallying 0.0
catholic 0.000344892881082
thriving 0.0
racially 0.0
undermines 0.0
yashar 0.0
inequality 0.0
medicare 0.0
missionaries 0.000166513001058
foremost 0.0
deplorable 0.0
demonize 0.0
wikileaks 8.90921892792e-05
enduring 0.0
privatized 0.0
appoint 9.76174210972e-05
losses 6.83676900125e-05
jbarro 0.0
buffett 0.000121466924297
staffers 0.0
takeaway 9.57240384349e-05
moscow 0.0
hampshire 9.51166585868e-05
pandering 0.0
voxdotcom 0.0
reckoning 0.0
moines 0.0
falter 0.0
countless 0.0
democrat 0.000324595811536
bostonglobe 0.0
accountable 0.0
dispel 0.0
despair 0.0
persisted 0.0
disclose 0.0
tedcruz 0.0
flooding 0.00016717427379
prejudice 0.0
towers 0.0
criticized 0.0
senatemajldr 0.0
outsider 0.0
declare 0.0
dismantle 0.0
thrive 0.0
threaten 7.50943827166e-05
outsourced 0.0
loophole 0.0
heerjeet 0.0
verbal 0.000203542445583
businessinsider 0.0
ukraine 0.0
vladimir 0.0
businessman 0.000110149089841
supremacist 0.0
etched 0.0
zekejmiller 0.0
momentarily 0.0
perpetrators 0.0
mocking 0.0
wrecked 0.000105690893642
identities 0.0
inhumane 0.0
disavow 0.0
hostile 0.0
muster 0.0
surrender 0.0
shatter 0.0
patriotic 0.0
rewarded 0.0
jitters 0.0
bullies 0.0
discipline 0.0
forgets 0.0
expand 7.17033213425e-05
apologized 0.0
tournament 0.0
grindstone 0.0
mastery 0.0
provider 0.0
steroids 0.0
jenniferjjacobs 0.0
notion 0.0
hernandez 0.0
mcuban 0.0
bullied 0.0
jebbush 0.0
discriminating 0.0
somali 0.0
hayden 0.0
limitless 0.0
implement 8.62232202705e-05
nydailynews 0.0
corybooker 0.0
interference 0.0
listens 0.0
preside 0.0
remembers 0.0
toughness 0.0
extensively 0.0
suffered 0.000146402000109
streep 0.0
billionaire 7.85179542242e-05
cheats 0.0
needing 8.275391494e-05
percentage 0.0
insiders 0.0
binder 0.0
prescriptions 0.0
slashed 0.0
indebted 0.0
dismisses 0.0
delegates 9.76174210972e-05
pledged 0.0
endured 0.0
deployed 0.0
suspense 0.0
courageously 0.0
resilience 0.0
nationalists 0.0
autonomy 0.0
abandoning 0.0
canvas 0.0
blacks 0.0
pledging 0.0
elaine 0.000105690893642
methodist 0.0
candidacy 0.0
bonuses 0.0
resolve 8.23451815535e-05
laughable 0.0
scares 0.0
intellect 0.0
hopeless 0.0
debunked 0.0
shames 0.0
connections 0.000152168240842
tyleroakley 0.0
perplexed 0.0
ddlovato 0.0
impromptu 0.0
teenvogue 0.0
unveils 8.71516798852e-05
billie 0.0
prouder 0.0
sweetness 0.0
cheryl 0.0
filipino 0.0
petersburg 0.0
drastic 0.0
lifesaving 0.0
decorated 0.0
usagym 0.0
freestyle 0.0
absentee 0.0
lashes 0.0
concentration 0.0
refuge 0.0
renaissance 0.0
actively 0.0
monitoring 0.0
destined 0.0
willfully 0.0
detained 0.0
warmest 0.000101040992605
heroic 0.0
bragged 0.0
miners 0.0
shareholders 0.0
randall 0.0
excessive 0.0
geneva 0.0
corporations 0.0
unsolvable 0.0
grandchildren 0.0
discredit 0.0
enormously 0.0
frances 0.000117639696967
pillar 0.0
trillions 0.0
expansive 0.0
organize 0.0
capabilities 0.0
confederate 0.0
shakers 0.0
ambiguity 0.0
linking 8.85960899363e-05
pretends 0.0
wireless 0.0
inherit 0.0
paranoia 0.0
theatlantic 0.0
languages 8.66841340379e-05
disposable 0.00011421612546
reinforcing 0.0
integrated 0.0
optimist 0.0
pigeons 0.0
chadhgriffin 0.0
katieledecky 0.0
richards 0.0
demconvention 0.0
abcpolitics 0.0
chobani 0.0
dominiclowell 0.0
floridians 0.0
cecilerichards 0.0
clintonfdn 0.0
billclinton 9.89438859161e-05
grounded 0.0
abilities 0.0
grandfather 0.0
profoundly 0.0
fiercely 0.0
drowning 0.0
astound 0.0
alzheimer 0.0
responders 0.0
peacecorps 0.0
nygovcuomo 0.0
hurricanes 0.0
approximately 0.0
daunting 0.0
organizer 0.0
ingenuity 0.0
illnesses 0.0
intruders 0.0
invading 0.0
harmful 0.0
foundations 0.0
skateboards 0.0
housekeeping 0.0
dangerously 0.000101040992605
renters 0.0
predatory 0.0
rebuke 0.0
jengranholm 0.0
supremacy 0.0
linger 0.0
adamserwer 0.0
clevelanddotcom 0.0
repadamschiff 0.0
fahrenthold 0.0
revoke 0.0
advising 0.0
strengthening 0.0
colleges 0.0
deniers 0.0
aspire 0.0
exceed 0.000109207172418
lebassett 0.0
shrugged 0.0
stewardship 0.000141389064877
complains 0.0
temperament 0.0
texasinafrica 0.0
americorps 0.0
latino 0.0
payoffs 0.0
protested 0.0
honorable 0.0
fathom 0.0
inconvenience 0.0
johnkasich 0.0
latinos 0.0
votevets 0.0
unsurprising 0.0
loopholes 0.0
dismal 0.0
unqualified 0.0
rigorous 0.0
mittromney 0.0
joyannreid 0.0
theorist 0.0
evan_mcmullin 0.0
discriminate 0.0
ezraklein 0.0
obsessively 0.0
desperation 0.0
latina 0.0
tammyforil 0.0
pantsuit 0.0
superior 0.0
exonerated 0.0
johnpodesta 0.0
recites 0.0
supremacists 0.0
affront 0.0
electing 0.0
defund 0.0
demeans 0.0
govpencein 0.0
squandered 0.0
machado 0.0
pneumonia 0.0
unhinged 0.0
criticizes 0.0
derailment 0.0
iceberg 0.0
epipens 0.0
generals 0.0
timkaine 0.0
provocation 0.0
paulbegala 0.0
clintinfdn 0.0
wesleylowery 0.0
childdefender 0.0
dictatorship 0.0
ceasefire 0.0
stamped 0.0
intimidation 0.0
casinos 0.0
manifest 0.0
restrict 0.0
transformation 0.0
battleground 0.00011421612546
christine 0.0
touted 0.0
mcconnell 0.000107401492578
deflect 0.0
expressing 0.0
commonsense 0.0
statesman 9.76174210972e-05
mcbride 0.000673210285758
tumble 0.0
bigoted 0.0
belonged 0.0
praised 0.00018786986575
policeman 0.0
booing 0.0
cathedral 0.0001032828384
tomperez 0.0
keithellison 0.0
knowingly 0.0
wealthiest 0.0
backward 0.0
pretended 0.0
thedemocrats 0.0
psychologists 0.0
americ 0.0
successor 0.0
diplomats 0.0
congratulated 0.0
devotion 0.0
remembrance 0.0
eligible 0.0
incoherent 0.0
exhaustive 0.0
downgraded 0.0
unified 0.0
embraces 0.0
galling 0.000161504048017
senatorreid 0.0
lifetimes 0.0
demagogue 0.0
rodham 0.0
temper 0.0
longtime 0.0
vetoing 0.0
janelle 0.0
voguemagazine 0.0
dominique 0.0
surpassed 0.0
associates 0.0
demonstrating 0.0
morning_joe 0.0
bazaar 0.0
consequential 0.0
undressed 0.0
entrepreneurial 0.0
billionaires 0.0
prescription 0.0
senseless 0.0
refresher 0.0
classmates 0.0
maturity 0.000115317718269
comentarios 0.0
risked 0.0
invincible 0.0
vigilant 0.0
emissions 0.0
recommit 0.0
voiceless 0.0
natlparkservice 0.0
workplaces 0.0
mayaharris_ 0.0
dhsgov 0.0
cyberattacks 0.0
maxinewaters 0.0
jerrybrowngov 0.0
discriminates 0.0
thejusticedept 0.0
simone_biles 0.0
sotomayor 0.0
traumatic 0.0
scammed 0.0
dreamer 0.0
fulfill 0.0
latinas 0.0
discouraged 0.0
usnavy 0.0
oftentimes 0.0
reprehensible 0.0
demeaning 0.0
ratified 0.0
emilyslist 0.0
lawsuits 0.0
nonviolent 0.0
caucus 0.0
joebiden 0.0
joyful 0.000208131722496
privatize 0.0
barbaraboxer 0.0
sengillibrand 0.0
camino 0.0
familias 0.0
americaferrera 0.0
universidades 0.0
gabbygiffords 0.0
shuttlecdrkelly 0.0
fulton 0.000161504048017
shimon 0.0
hablar 0.0
fuerza 0.0
trickle 0.0
refinance 0.0
shattering 0.0
damián 0.0
gouging 0.0
moveon 0.0
simone_manuel 0.0
revdrbarber 0.0
senatorbarb 0.0
cnbcnow 0.0
stiffed 0.0
mikebloomberg 0.0
solver 0.0
thrower 0.0
granddaughters 0.0
changemaker 0.0
clairecmc 0.0
anastasiasomoza 0.0
defunding 0.0
preyed 0.0
aspirations 0.0
fannie 0.0
mubarak 0.0
buzzfeedben 0.0
probed 0.0
marines 0.000102518241341
projecting 0.0
outsourcing 0.0
developers 0.0
crimea 0.0
everyo 0.0
chaser 0.0
dubious 0.0
diplomatic 0.0
rosiegray 0.0
unpatriotic 0.0
multifaceted 0.0
myanmar 0.0
adamparkhomenko 0.0
tjmshow 0.0
tenant 0.0
perjury 0.0
contractual 0.0
surrounds 0.000143989962677
exceeded 0.0
thrives 0.0
unclerush 0.0
sailors 0.000121466924297
stereotypes 0.0
librarycongress 0.0
acknowledging 0.0
philippe 0.0
battled 0.0
postopinions 0.0
ambassadorrice 0.0
shockingly 0.0
mcfaul 0.0
presid 0.0
poisons 0.0
kenvogel 0.0
johndingell 0.0
harnessing 0.0
unwritten 0.0
bewildering 0.0
moonshot 0.0
apologizing 0.0
oligarchs 0.0
espionage 0.0
marcorubio 0.0
desecration 0.0
brianefallon 0.0
bangladesh 0.0
twittermoments 0.0
officialcbc 0.0
thefix 0.0
urgency 0.0
traceeellisross 0.0
andradaymusic 0.0
impeccably 0.0
catastrophe 0.0
tallest 0.0
anastasia 0.0
azcentral 0.0
marrying 0.0
moderates 0.0
resembles 0.0
paraphrase 0.0
applauds 0.0
heavier 0.0
virginians 0.0
railing 0.0
eloquently 0.0
denverpost 0.0
independents 0.0
americanos 0.0
hispanos 0.0
bailouts 0.0
divisiveness 0.0
jmpalmieri 0.0
hardballchris 0.0
republicano 0.0
candidato 0.0
phillyinquirer 0.0
jesserodriguez 0.0
militarytimes 0.0
sunsentinel 0.0
ryanlizza 0.0
bretbaier 0.0
thelastword 0.0
hillaryclinto 0.0
maddowblog 0.0
boundless 0.0
enacting 0.0
gettysburg 0.0
groping 0.0
govchristie 0.0
justices 0.0
watchdogs 0.0
cavalier 0.0
succeeds 0.0
retirees 0.0
pocketed 0.0
multimillionaire 0.0
redcross 0.0
evalongoria 0.0
highways 0.0
marlee 0.0
primero 0.0
pianos 0.0
bribed 0.0
scranton 0.0
wellesley 0.0
perkins 0.0
onward 0.000107401492578
algore 0.0
candidly 0.0
trajectory 0.0
quitter 0.0
objectifying 0.0
ignoramus 0.0
disillusioned 0.0
asinine 0.0
vibrancy 0.0
arpaio 0.0
testifying 0.0
chairmen 0.0
luchar 0.0
disrupted 0.0
podemos 0.0
settlements 0.0
massacres 0.0
millones 0.0
eagerly 0.0
grandmas 0.0
dedicado 0.0
seeming 0.0
pragmatic 0.0
hashanah 0.0
porque 0.0
unidos 0.0
nuestras 0.0
primera 0.0
debemos 0.0
muchos 0.0
cuando 0.0
nuestro 0.0
inteligente 0.0
rapists 0.0
agosto 0.0
presidente 0.0
puedes 0.0
mujeres 0.0
safeguarding 0.0
indecent 0.0
motions 0.0
strengthened 0.000134642057152
eminently 0.0
innuendo 0.0
memorandum 0.0
reuterspolitics 0.0
educates 0.0
mexicana 0.0
disparage 0.0
absurdity 0.0
backdoor 0.0
affording 0.0
hardline 0.0
steelworkers 0.0
demean 0.0
immigrate 0.0
thuggish 0.0
astrid 0.0
jesuit 0.0
governorship 0.0
waterboarding 0.0
personas 0.0
stephenson 0.0
huracán 0.0
firefighter 0.0
ravages 0.0
marleematlin 0.0
scrolling 0.0
tarnish 0.0
ajentleson 0.0
roanoke 0.0
heaping 0.0
carpentry 0.0
forcefully 0.0
frankiejgrande 0.0
aprildryan 0.0
unjustified 0.0
yamiche 0.0
evacuate 0.0
disrespects 0.0
incomprehensible 0.0
jogger 0.0
vindicated 0.0
blazed 0.0
cambodia 0.0
revolutionize 0.0
welding 0.0
unbeatable 0.0
polished 0.0
saddled 0.0
interdependence 0.0
alleys 0.0
civility 0.0
vilified 0.0
disagreeable 0.0
terence 0.0
bluster 0.0
incredib 0.0
holton 0.0
hillaryforpa 0.0
hillaryforco 0.0
jes_chastain 0.0
vitalvoices 0.0
indictments 0.0
evokes 0.0
reaffirming 0.0
rebukes 0.0
minerva 0.0
peddle 0.0
starker 0.0
cascading 0.0
carolinians 0.0
señora 0.0
honrado 0.0
missionary 0.0
ranchers 0.0
denveropinion 0.0
practicality 0.0
thoughtfulness 0.0
scripture 0.0
pueblo 0.0
morningmoneyben 0.0
smalls 0.0
exemplify 0.0
eviscerated 0.0
jeffflake 0.0
helpless 0.0
sarahemcbride 0.0
indivisible 0.0
colinjones 0.0
mrjoshcharles 0.0
houstonchron 0.0
thoroughness 0.0
isolde 0.0
wonkiest 0.0
equate 0.0
dustbin 0.0
estados 0.0
newrepublic 0.0
expresses 0.0
demonizing 0.0
jeffbezos 0.0
discard 0.0
befriending 0.0
slovenia 0.0
unrelenting 0.0
salmahayek 0.0
revolves 0.0
anselm 0.0
dwells 0.0
usairforce 0.0
deride 0.0
repackaging 0.0
earmarked 0.0
evader 0.0
passpor 0.0
awaited 0.0
guterres 0.0
precinct 0.0
presidencia 0.0
unshakable 0.0
marshablackburn 0.0
comunidad 0.0
merecen 0.0
juntos 0.0
infomercial 0.0
johnstown 0.0
statewide 0.0
skyscrapers 0.0
phillydotcom 0.0
deducted 0.0
laguardiacc 0.0
annieslisttx 0.0
nickmerrill 0.0
leaninorg 0.0
missbeae 0.0
minassianmedia 0.0
natarsha 0.0
foments 0.0
ruline 0.0
steininger 0.0
michaelnutter 0.0
harren 0.0
louisa 0.0
cannell 0.0
robbymook 0.0
broward 0.0
hillaryforfl 0.0
jeanneshaheen 0.0
ericasmegs 0.0
jeremyshorr 0.0
turpin 0.0
rubycramer 0.0
singularly 0.0
joshschwerin 0.0
clionamccarney 0.0
xochitlhinojosa 0.0
adamsmith_usa 0.0
humayun 0.0
jamestaylor_com 0.0
hillaryformn 0.0
ericwms 0.0
dougmillsnyt 0.0
jencarlosmusic 0.0
hannahbfine 0.0
creynoldsnc 0.0
lefsadventures 0.0
pembroke 0.0
perceptiveness 0.0
hillaryforaz 0.0
fayetteville 0.0
entrust 0.0
daveeddiggs 0.0
petewilliamsnbc 0.0
hillary_esp 0.0
ustedes 0.0
nación 0.0
creativa 0.0
bilingües 0.0
multilingües 0.0
contribuyen 0.0
diversidad 0.0
economía 0.0
hillaryforia 0.0
estaré 0.0
discurso 0.0
síganme 0.0
detall 0.0
hopewell 0.0
temperamentally 0.0
redone 0.0
barging 0.0
machadooficial 0.0
mikereedschmidt 0.0
franklinfoer 0.0
eamonjavers 0.0
hillaryforoh 0.0
hustling 0.0
relishes 0.0
markkirk 0.0
asmamk 0.0
just_jenna 0.0
discrimina 0.0
samifayebaker 0.0
padded 0.0
wigazette 0.0
phillytrib 0.0
trivializes 0.0
condones 0.0
ellisoncampaign 0.0
barb_kinney 0.0
theriveterspod 0.0
humiliates 0.0
nickmarroletti 0.0
alli_wilber 0.0
brespolitico 0.0
jasoncherkis 0.0
sean_p_thomas 0.0
outclassed 0.0
outmaneuvered 0.0
belittling 0.0
familie 0.0
yuuuuuuge 0.0
disqualifying 0.0
brynnecraig 0.0
buffywicks 0.0
lasvegassun 0.0
cmichaelhuntley 0.0
civically 0.0
raquelwillis_ 0.0
celebramos 0.0
trayectoria 0.0
pionera 0.0
breakups 0.0
rosenbergerlm 0.0
heraldleader 0.0
jaylon 0.0
decisi 0.0
antónio 0.0
squander 0.0
presidenta 0.0
protegerá 0.0
astrid_nv 0.0
sltrib 0.0
peter_j_k 0.0
brosandprose 0.0
nicholaskitchel 0.0
mahoning 0.0
omerizer 0.0
kendallybrown 0.0
davidnakamura 0.0
chatima 0.0
tammybaldwin 0.0
mpshapiro 0.0
responsibilit 0.0
overgrown 0.0
literally_trump 0.0
imploded 0.0
rnicholasburns 0.0
disastrously 0.0
stiffing 0.0
globeopinion 0.0
degradi 0.0
languishing 0.0
demostrar 0.0
poderosa 0.0
iammarleydias 0.0
tbtimes_opinion 0.0
disloyalty 0.0
defende 0.0
vegalteno 0.0
moodysinvsvc 0.0
decisiveness 0.0
whethe 0.0
preocupada 0.0
trayecto 0.0
afectados 0.0
ayotte 0.0
empathize 0.0
lifelo 0.0
lorellapraeli 0.0
ironworking 0.0
ebeling 0.0
contribuido 0.0
ejército 0.0
inmigrantes 0.0
indocumentados 0.0
enquirer 0.0
delega 0.0
roadshow 0.0
sunsentinelopinion 0.0
resulta 0.0
insultar 0.0
construir 0.0
muralla 0.0
provoked 0.0
discretion 0.0
sdutideas 0.0
merece 0.0
respeto 0.0
enfrentar 0.0
valentía 0.0
ataques 0.0
descaro 0.0
culparla 0.0
petulance 0.0
ninhaitseng 0.0
flippantly 0.0
posteverything 0.0
_vicentefdez 0.0
azcopinions 0.0
aumentó 0.0
andrewjenks 0.0
imwithher 0.0
diferencias 0.0
onevoxdotcom 0.0
ignite_national 0.0
endorsin 0.0
mercersdairy 0.0
everyvoice 0.0
rachaelgass 0.0
galifianakis 0.0
crutcher 0.0
nyledimarco 0.0
mistreat 0.0
wellsfargo 0.0
templeuniv 0.0
sollender 0.0
honremos 0.0
tantas 0.0
contribuciones 0.0
aleatha 0.0
endeavored 0.0
legitimize 0.0
además 0.0
whistles 0.0
ugliness 0.0
jorge_silva 0.0
dnclatinos 0.0
libnofcongress 0.0
unscrupulously 0.0
contractually 0.0
impulsively 0.0
qaddafi 0.0
cancelable 0.0
cnbcopinion 0.0
jbrotherston 0.0
_bxddxss 0.0
sspiderboy 0.0
collegedems 0.0
veered 0.0
charitynav 0.0
usnewsopinion 0.0
humansofny 0.0
unfitness 0.0
steadiness 0.0
nbcusa_inc 0.0
verdadera 0.0
encuentra 0.0
hacemos 0.0
anuncio 0.0
unpresidential 0.0
unfavorably 0.0
heridas 0.0
visibles 0.0
veteranos 0.0
cuidado 0.0
panetta 0.0
experiencia 0.0
confío 0.0
exsecretario 0.0
comercio 0.0
lizromanoff 0.0
americasvoice 0.0
davidleopold 0.0
rebuked 0.0
criminalize 0.0
mentiré 0.0
inmigración 0.0
demonizar 0.0
americanlegion 0.0
sarasolow 0.0
qumber 0.0
zerlinamaxwell 0.0
hillaryforut 0.0
hillaryforga 0.0
grandtetonnps 0.0
marlondmarshall 0.0
mariatcardona 0.0
escuchamos 0.0
claramente 0.0
demonizando 0.0
segunda 0.0
tercera 0.0
rhettbuttle 0.0
hillaryformi 0.0
futuramics 0.0
louisianans 0.0
claressashields 0.0
helen_maroulis 0.0
bri_rollin 0.0
itspooda 0.0
kristihollywood 0.0
meredeetch 0.0
kersee 0.0
rodhams 0.0
bidens 0.0
possibilitie 0.0
maulama 0.0
akonjee 0.0
shotdiva 0.0
auriemma 0.0
maxlinsky 0.0
cowering 0.0
moratory 0.0
hillarycl 0.0
repudiate 0.0
fencer 0.0
bankruptcies 0.0
warrenbuffett 0.0
bishopgarrison 0.0
ajazzyworld 0.0
morell 0.0
starkest 0.0
braille 0.0
frankmugisha 0.0
confiar 0.0
distinguido 0.0
herencia 0.0
harkening 0.0
impulses 0.0
dakota_meyer 0.0
kauveri 0.0
iafftreg 0.0
laurawalkerkc 0.0
jakesherman 0.0
benediction 0.0
denigrates 0.0
ann_oleary 0.0
liberates 0.0
bombast 0.0
repcleaver 0.0
throwed 0.0
luchado 0.0
derechos 0.0
humanos 0.0
trabajadores 0.0
relent 0.0
aprendí 0.0
valores 0.0
trabajo 0.0
mismos 0.0
annella 0.0
drbiden 0.0
expedient 0.0
imangelabassett 0.0
smegielski 0.0
leinonen 0.0
driffin 0.0
buckles 0.0
insatiably 0.0
sybrina 0.0
mcbath 0.0
dontre 0.0
randibrazeau 0.0
sjbxtr 0.0
malcolmkenyatta 0.0
lankford 0.0
countrymen 0.0
countrywomen 0.0
refiere 0.0
separar 0.0
valiente 0.0
strongmen 0.0
seremos 0.0
compañeros 0.0
bienvenidos 0.0
dauntless 0.0
governorva 0.0
sherrodbrown 0.0
vicepresidencia 0.0
ilyseh 0.0
gunsense 0.0
encantada 0.0
anunciar 0.0
splintering 0.0
albamonica 0.0
criminologist 0.0
construiremos 0.0
discriminatio 0.0
endorser 0.0
sniveling 0.0
ryanegraney 0.0
baptize 0.0
convención 0.0
republicana 0.0
