chatting 0.0
trying 0.000746875555106
launch 0.0
moment 0.000546118607099
wonderful 0.0
seeing 0.000174383526961
recommend 0.0
anybody 0.000260320330814
podcast 0.0
challenges 0.0
worked 0.000183567277495
direct 0.0
others 0.000182576571902
currently 0.000121154148566
better 0.00127622324323
please 0.000238283678836
travels 0.0
social 3.80306761764e-05
around 0.000403017866283
people 0.0023845223755
leaving 0.000269126148219
morning 0.000303897259905
general 0.000217596263957
overall 0.0
damage 5.53593369088e-05
affect 5.84393481058e-05
everything 0.000506495433175
twitter 0.00084643753852
present 0.0
though 0.000632882219312
friend 0.000101846666605
watched 0.000266939213794
beautiful 0.000347827617723
anything 0.00051475418097
practice 0.000183137024861
helped 3.70128764022e-05
helpful 0.000173624652077
revive 0.0
updated 5.36713021248e-05
thinking 0.000517537460607
finally 0.000414029968485
caught 3.80306761764e-05
believe 0.000370430164925
already 0.000269403756309
orlando 0.0
depends 5.05302460963e-05
chance 0.00040519634654
meaning 4.99358089466e-05
annual 0.0
renewed 8.68325073175e-05
growing 8.09914809911e-05
probably 0.000878741731625
should 0.000178530655117
changed 0.000216735029788
history 0.000347827617723
center 0.000177029641862
museum 0.0
behind 0.000201508933141
pretty 0.000483034963233
really 0.00185714992164
expensive 5.80619865831e-05
little 0.000639833921233
earlier 0.00015803796856
forget 0.000205347314588
paperwork 0.0
someone 0.00122545891973
mostly 5.12884006881e-05
worker 0.0
safety 0.0
program 9.39534840672e-05
things 0.00100754466571
electrical 0.0
visiting 0.0
available 0.000105196153994
perfect 0.000351601232951
different 0.000240218617786
search 9.02792282342e-05
connect 0.0
numbers 0.000253240275596
person 0.000474005021571
watching 0.000203693333211
passed 0.000123509118097
minutes 0.000627780697058
daughter 4.08310326866e-05
average 9.67067237629e-05
positive 0.0
outside 0.000250139657599
metric 0.0
looking 0.000269403756309
forward 0.000173445400996
raising 0.0
afraid 0.000130923473718
impression 0.0
profile 9.2354131262e-05
drawing 0.0
favorite 3.91870753709e-05
picture 0.00017963904899
historic 0.0
instead 7.60613523529e-05
appreciate 7.94523383277e-05
husband 5.26977608532e-05
international 8.34837266974e-05
toddler 0.0
couldn 0.000210960739771
remember 0.000472729070963
holidays 0.0
friends 0.000305539999816
despite 4.79344189581e-05
understood 0.0
impossible 9.18293657462e-05
everyone 0.000877925417503
florida 0.000248944145919
always 0.000772450910375
months 7.05102598552e-05
moving 7.26366707729e-05
meeting 0.000103786977645
google 0.000127324717358
answer 3.45956592149e-05
together 0.000304717513867
included 5.14421072364e-05
inside 0.000105480369885
section 0.000103814986563
missed 0.000479143734039
button 5.6059046013e-05
active 0.000108672739683
longer 0.000116921513065
enough 0.00037545654238
projects 0.0
driving 0.000206416801807
building 3.7927496918e-05
enjoying 0.0
kennedy 0.0
tantrums 0.0
apparently 0.000217596263957
recent 8.92653275587e-05
gotten 5.64144442732e-05
amazing 0.000707184860311
determined 6.5136698677e-05
attention 0.000114713971656
progress 9.36842666953e-05
tomorrow 0.000270130897693
whenever 0.000111065804535
curious 5.36713021248e-05
george 4.19734837301e-05
feeling 7.07008121656e-05
excited 3.52551299276e-05
campaigning 0.0
understand 0.000331316695405
learning 0.0
special 6.80810510959e-05
secret 3.78246336763e-05
across 0.000113166253564
comparison 6.31142589717e-05
surprised 0.000161096230784
anymore 4.30360096026e-05
spirited 0.0
precious 0.0
rejoice 0.0
rather 0.00018963748459
showing 0.000144100065191
saying 0.000599337208769
tweeted 4.46326637794e-05
updates 0.0
thoughts 7.16617676739e-05
exactly 0.000255607200663
except 0.000258216057615
getting 0.00104675722856
nothing 0.000506495433175
tweets 0.000483781788397
course 0.000104630116176
photos 0.0
looked 0.000115026388857
difficult 0.0
office 0.000182576571902
decisions 0.00010196616404
brought 3.74163025406e-05
biggest 0.000313044855951
thrilled 5.14421072364e-05
entire 0.000112553762519
something 0.00104675722856
closing 5.02317123779e-05
anyone 0.000306364729931
taking 0.000270130897693
reprint 0.0
flying 4.24415724528e-05
happening 7.36259323121e-05
sometimes 0.000372139837228
lessons 9.78404155589e-05
village 0.0
stopped 3.96176559121e-05
yesterday 6.80810510959e-05
service 7.42265590657e-05
serious 0.000216735029788
emails 5.84393481058e-05
wearing 0.000237705935473
afford 0.0
either 0.000220877796936
second 0.000544648408767
checking 0.000262581042722
volunteers 7.06630605825e-05
indeed 0.000368364944146
hearing 0.000226332507127
choose 3.97261691638e-05
another 0.000538807512618
address 0.0
display 0.0
compare 6.16213544297e-05
weekend 0.000171122762157
suggested 0.0
appear 5.11353943998e-05
anyway 0.000610976210684
theory 0.000221437347635
buildings 0.0
working 0.000101299086635
bigger 0.000118852967736
treated 0.0
admired 0.000106750446968
retirement 6.44489308431e-05
laughing 0.00120161485694
wanted 0.000102397238831
current 0.000119505102483
grateful 0.00013239975605
friendship 0.0
family 0.00040519634654
listening 0.0
stream 0.0
sharing 3.97261691638e-05
double 0.000305903924416
especially 0.000149665210163
middle 0.000116285836088
waiting 0.000103786977645
definitely 0.000110738317609
walking 8.09914809911e-05
account 0.000277323591385
completely 8.01076571293e-05
thought 0.000646769985411
accept 0.0
possible 0.000571747788798
simple 0.000157176816325
manufacturing 0.0
destroyed 0.0
members 0.0
supposed 8.97703648582e-05
manufacturers 0.0
business 0.000327750124234
absolutely 0.000180612524823
anywhere 4.50121573334e-05
sending 0.0
introducing 0.0
congrats 0.000141783813177
beauty 9.67067237629e-05
community 4.16266494375e-05
greatest 0.000258389407753
posted 3.99442531911e-05
wednesday 4.07188962813e-05
explain 0.000197008378019
broken 0.000293002317064
fairly 0.0
closest 0.0
hoping 4.06071330427e-05
relationship 0.0
actually 0.000622721865868
pockets 0.0
wallet 0.0
pocket 0.000115749768051
argument 0.000156192198488
decent 5.99926803098e-05
school 0.00017158472699
throwback 0.0
thursday 3.61225049646e-05
talented 0.0
discuss 8.70385055828e-05
celebrate 0.0
celebrating 8.0548115392e-05
anniversary 0.0
students 0.0
corners 0.0
internet 0.00016789393492
figure 0.0
opened 0.0002467585518
inspired 0.0
latter 7.62983739747e-05
sitting 0.000114402520197
playing 0.000857923634949
street 3.74163025406e-05
points 0.00108191905118
advice 0.000198088279561
memory 0.0
forever 0.000190670866996
congress 0.000117259261787
imagine 0.000300958780325
problem 0.000470863606743
pulling 5.75037772421e-05
furniture 0.0
keeping 3.77220845212e-05
dressed 5.45047151673e-05
chinese 0.000109009430335
unlike 6.24663001816e-05
allowed 0.000221910148074
otherwise 0.000191737675833
afternoon 0.000158904676655
planned 9.69883579046e-05
images 0.0
noticed 0.000160521218514
expense 0.0
differences 6.49058742482e-05
difference 0.000110738317609
editor 0.000111065804535
intent 0.0
suppose 0.0
inspiration 4.63090297387e-05
letting 4.15118294207e-05
system 0.0
almost 0.00040519634654
details 0.000184563862681
experience 0.000105765389783
living 0.000176275649638
worries 0.0
weather 4.31561700963e-05
bright 0.000142561913042
understands 7.03911172166e-05
normal 9.05351129032e-05
launching 0.0
backyard 0.0
pointed 0.0
before 0.000256299671724
monday 3.52551299276e-05
example 0.000178530655117
science 9.53159982162e-05
tweeting 7.71027630489e-05
forgot 0.000126971811686
disaster 5.17516469593e-05
happens 6.99418250575e-05
silence 0.0
learned 0.000273562011051
congratulations 0.000446567804674
natural 4.79344189581e-05
babies 0.000105076425408
mission 0.0
surprising 0.000109009430335
reference 0.0
forgotten 0.000200926849511
setting 0.0
appeared 0.0
reminds 0.0
fantastic 7.96700683218e-05
loving 3.98350341609e-05
complete 0.000155047781451
daniel 5.94017297754e-05
rewarding 0.0
nearly 8.87640592295e-05
spirit 0.0
launched 0.0
finding 0.000123850081084
stories 0.000109545943141
including 0.0
wouldn 0.000327750124234
choice 0.000180125081488
offended 0.000226029872921
conversation 0.0
disrespectful 0.0
making 0.000505132043079
expect 0.000161982961982
traits 0.0
discussion 9.84145185785e-05
believes 0.000118414069217
response 0.000357535522474
brings 4.07188962813e-05
seasons 0.0
anytime 0.0
protected 6.85467812623e-05
location 0.0
needed 0.000108075048893
seriously 0.000298519926264
emergency 5.88209979195e-05
justify 0.0
spending 0.0
groups 0.0
condition 6.18306063352e-05
childhood 0.0
modern 0.0
welcome 0.000204794477662
moments 0.00012592045119
totally 3.89738376882e-05
running 0.000212675719766
strong 0.000104348285317
respond 5.09830820199e-05
message 0.000143323535348
coming 0.000639833921233
thankful 0.0
issues 4.0274057696e-05
challenge 0.000111038629207
intolerance 0.0
happen 0.000206457559453
giving 0.000136529651775
turkey 0.0
excellent 0.000308066856119
limits 0.000125361800829
contractors 0.0
common 4.17418633487e-05
pressed 0.0
healthcare 0.000196809486118
benefits 0.0
situation 8.82665040331e-05
workers 5.62362750374e-05
company 0.000114713971656
savings 0.0
health 0.000398350341609
insurance 0.000233000549358
change 0.000337663622116
silver 5.51866639208e-05
august 0.0
crying 0.0
mental 5.02317123779e-05
carrier 0.0
decide 8.37149477325e-05
happened 0.000248792411761
parking 0.000331576172067
demand 0.0
sacrifice 7.09372239188e-05
personal 7.3426910998e-05
rewards 9.53360464767e-05
beyond 0.000113166253564
contributing 0.0
passion 0.0
question 0.000172512486869
doctor 0.000207006587837
sacrifices 0.0
respected 7.38094709071e-05
losing 0.000208133247187
strain 0.0
respect 0.000184563862681
shouldn 4.03847161888e-05
career 0.000274309527596
visited 0.0
reason 0.000142167092435
simply 8.44134251986e-05
audience 4.67080620231e-05
sacrificed 0.0
employees 6.4676625425e-05
accounts 0.000112828888546
attacked 0.0
involved 0.000157176816325
extreme 5.84393481058e-05
valuable 0.0
knocked 7.32150337574e-05
reality 8.03275252286e-05
mention 4.16266494375e-05
without 0.000306364729931
problems 0.0
timing 0.0
described 6.49058742482e-05
pattern 0.0
online 3.63183353865e-05
background 0.000101662914566
buying 0.0
called 0.00044133555529
scientists 0.000194717622745
checked 0.0
heading 4.01637626143e-05
paying 0.00021943151841
planning 0.0
opposite 0.000166078010727
through 0.000142151507315
reached 0.000100166869553
changing 4.13974006143e-05
explains 4.53959880505e-05
harder 9.39534840672e-05
demands 0.0
silent 0.0
speaking 0.000115969495274
november 4.52675564516e-05
ordinary 0.0
number 3.45956592149e-05
stunning 0.000100761295064
atlantic 0.0
stupid 0.000610697646437
personality 6.82913821442e-05
grandparents 0.0
unless 0.00016650659775
calling 0.000141783813177
painting 6.56031620393e-05
focused 0.0
ridiculous 0.00013972357136
package 0.0
rooted 0.0
option 4.89202077795e-05
knowing 9.34161240462e-05
former 0.000212207862264
actual 0.000269311094574
tracked 9.76938440213e-05
suffers 0.0
schedule 5.23794189229e-05
friday 3.42245524313e-05
failure 0.000108672739683
achieve 0.0
winner 0.000187589604198
doctors 0.0
becomes 0.0
directly 0.0
quality 8.7282315812e-05
tearing 0.0
father 7.68931852053e-05
wishes 4.40095508742e-05
collar 8.68325073175e-05
caring 0.0
ground 0.0
matter 0.000181101387209
strategy 0.000280295230065
themselves 0.000118026923221
asking 0.0001429369472
usually 0.000135036472
thankfully 0.0
reacts 9.20833622917e-05
period 0.000554187122851
parents 8.09914809911e-05
balance 0.000105076425408
resist 0.0
mobile 0.0
computer 0.0
reminded 5.86296308936e-05
impressed 0.0
dinner 7.4629981566e-05
suffering 0.0
single 6.95655235446e-05
parent 6.18306063352e-05
approved 0.000127549930613
energy 8.03275252286e-05
preview 0.0
meltdown 0.0
remind 0.0
emotional 4.86355889388e-05
sounded 7.03911172166e-05
status 0.0
update 0.000315213404831
outage 0.0
customers 7.29217146685e-05
holding 0.000199721265956
causes 5.99926803098e-05
eating 0.000126620137798
picked 0.000210449478543
missing 0.000216150097786
surprise 7.22450099292e-05
officially 0.000118205026812
global 0.0
follow 0.000237642222079
opinion 0.000264057305245
faster 0.0
backwards 0.0
design 5.09830820199e-05
website 8.23394120648e-05
widely 0.0
origin 0.0
breaks 8.9014225792e-05
allows 6.35532825068e-05
promoting 0.000174185959749
volunteer 0.0
convince 6.37749653063e-05
negative 0.0
official 0.000174383526961
jersey 0.000283868218282
mistake 0.000140124186069
fixing 0.0
translated 0.0
ginger 0.0
peaceful 0.0
thinks 0.000118205026812
hospital 0.000147621777868
lauren 0.0
easier 0.000183137024861
excluded 0.0
successful 4.6177065631e-05
leadership 0.000158574211714
agrees 0.0
decline 7.38094709071e-05
turnout 0.000147021874377
showed 0.000169766289811
trumps 0.000158676541647
circle 0.000179383617573
engage 0.0
suited 0.0
experienced 0.000117641995839
interested 4.33977885643e-05
effect 4.4507112896e-05
success 7.62683467983e-05
ladies 4.63090297387e-05
dreams 0.0
protect 4.32767620471e-05
explanation 6.03925043436e-05
occasion 7.72814145597e-05
medication 0.0
planet 9.47676715436e-05
detached 0.0
essence 0.0
control 0.000150888338085
happier 0.0
likely 0.000270837684702
coincidence 0.000142427287538
cancel 0.0
project 7.62683467983e-05
laying 0.0
lesson 0.000140930226101
requires 6.53691205194e-05
healthy 0.000137352768646
treating 6.42227695697e-05
opening 7.3426910998e-05
statement 0.000218817535602
enjoyed 0.0
animal 0.0
nervous 0.0
pounds 7.26309351708e-05
wonder 0.000183071194089
matters 0.0
shared 9.26180594773e-05
somehow 0.000218018860669
benefit 8.46478744571e-05
terrible 0.000129108028808
continues 8.23394120648e-05
improve 0.0
equally 0.000127549930613
appointment 0.0
session 0.0
routine 6.85467812623e-05
exciting 0.000121487221487
corner 0.0001928525311
imagination 8.07830020528e-05
decides 0.0
cheering 0.0
spring 0.000129468510289
fallen 0.0
frequently 0.0
places 0.000161096230784
thousands 4.94967854115e-05
informed 0.000118803459551
typical 0.000125793761446
continue 3.89738376882e-05
attend 0.0
excuse 4.89202077795e-05
settle 0.0
female 0.0
recovery 5.58827473289e-05
treasured 0.0
grandma 0.0
closer 8.46478744571e-05
beginning 0.0
everywhere 4.0274057696e-05
scenes 0.0
bought 0.000123850081084
multiple 5.11353943998e-05
slogan 0.0
wishing 0.0
covered 0.000131290521361
remove 5.82501373395e-05
choices 0.000109347817168
dealing 0.0
teacher 0.0
training 0.0
passing 0.0
stopping 5.12884006881e-05
become 0.00014102051971
spread 3.85513815244e-05
season 0.00107920552796
putting 0.000212675719766
weight 5.25382127042e-05
quietly 7.23426516652e-05
necessity 0.0
knocks 0.0
effects 0.0
returns 4.52675564516e-05
expected 0.000145060085644
resources 0.0
bucket 0.0
struggling 0.0
register 0.0
promotion 0.0
solution 0.000112118092026
manage 6.16213544297e-05
transition 0.0
gained 0.0
define 0.0
somebody 0.0
contract 0.000116878696212
ignorant 0.000145261870342
managers 0.0
credit 4.16266494375e-05
brothers 0.000103503293919
grandkids 0.0
computers 0.0
physical 5.62362750374e-05
series 0.00117483057597
offensive 0.000306033608644
fighting 0.000192232963013
donald 0.000533435968475
mexico 0.000146332790566
sandra 0.0
police 0.00030463476954
represent 0.0
president 0.000900430100151
talking 0.000338575015408
america 0.000754484005757
michigan 0.0
everybody 0.000208133247187
judgment 0.0
carolina 6.20411701735e-05
amount 0.0
houston 5.75037772421e-05
everyday 4.79344189581e-05
michael 0.000190670866996
protecting 0.0
providing 0.0
attitude 0.000119589078382
million 0.00024812167306
election 0.000326021666508
honesty 7.26309351708e-05
targeting 0.0
telling 0.000268394907332
correct 0.000565750286288
attack 0.000174077011166
elementary 0.000154562829119
americans 0.000140930226101
killed 3.76198475406e-05
horrible 0.000115007554484
salute 0.0
coverage 0.000228921281076
united 0.00131290521361
college 0.000253240275596
refuse 0.0
preach 0.0
hillary 0.0
clinton 0.000220746655683
presidency 0.000437530288011
throws 0.000329194229846
manning 7.66228675347e-05
american 0.000214985303022
deserved 5.1596520484e-05
humble 0.0
remain 9.50412753613e-05
founder 6.24663001816e-05
illegal 5.62362750374e-05
arizona 0.0
opinions 5.78748840257e-05
speeches 0.0
scared 0.000148490356235
salary 0.0
pieces 0.00014980742684
taught 9.95776583677e-05
thompson 0.000227930956992
straight 0.00059866084065
blocking 0.000127106565014
answers 8.70385055828e-05
created 0.000121821399128
record 0.000387806429203
stamina 0.0
weapon 0.0
bottom 4.52675564516e-05
athletes 0.000277299371316
registered 0.0
minnesota 0.000151953971328
committed 5.3181004042e-05
journey 0.0
snapchat 0.0
peoples 0.0
disrespect 0.0
brother 0.000123509118097
prayers 0.0
boston 0.000195110387421
korean 7.72814145597e-05
church 0.0
advantage 0.000173066454159
motivation 0.0
honestly 0.00028927879665
defeat 0.0
lifetime 0.0002549154101
captain 5.73197503587e-05
retired 0.0
country 0.000418520464706
ending 4.53959880505e-05
dressing 6.56031620393e-05
finish 0.000124535488262
ranked 0.00015006174354
employee 0.0
university 0.000145060085644
dreamed 0.0
prayer 0.0
nominated 0.0
responds 0.0
national 0.000365153143804
reform 0.0
shooting 0.00059089397639
cancer 0.000127324717358
deserve 0.000206987003071
mother 7.52396950812e-05
creating 4.64415144161e-05
powerful 0.000247018236194
wisdom 0.0
breaking 0.000472138360024
dollars 0.0
questions 3.45956592149e-05
racist 0.000790362893455
charged 0.0
soldiers 0.0
performance 0.0
reading 0.000358308838369
denver 0.0
graphic 0.0
garner 0.0
create 3.9080287293e-05
jordan 0.000117641995839
admire 0.000124932600363
nobody 0.000413974006143
government 0.000404241968771
politics 0.000238979623249
blessing 0.0
wrestling 0.000246878059264
charities 0.0
donate 0.0
sample 0.0
bringing 0.000113782490754
deserves 8.97703648582e-05
regret 0.000118803459551
victim 0.0
according 8.95173715482e-05
threat 0.000100463424756
heaven 5.35070728382e-05
heroin 0.0
honest 0.000335787869841
became 8.44134251986e-05
decision 0.000547168644213
counting 0.0
signing 0.0
embrace 0.0
pressure 4.59146828731e-05
celebrities 0.0
facebook 7.22450099292e-05
kardashian 0.0
divided 0.0
lawyer 6.42227695697e-05
lebron 0.00357461290813
campaign 0.000274309527596
determine 0.0
whether 0.000256068517576
praise 5.73197503587e-05
defined 0.0
proposes 0.0
discover 5.75037772421e-05
factory 0.000206412412443
arrested 0.0
estate 0.000287093615052
proposed 6.37749653063e-05
comments 0.0
teenage 7.41106820937e-05
wounded 0.0
endorsement 0.0
williams 0.000376854369067
custom 6.77863377067e-05
troops 0.0
singer 6.58388459693e-05
future 0.000382610379495
struggled 0.0
sister 4.53959880505e-05
sabotage 0.000104433333647
athlete 0.00014468530333
warrior 0.0
cheating 0.0
voting 4.16266494375e-05
succeed 6.33330533754e-05
religion 0.0
century 0.0
serving 5.80619865831e-05
because 0.0
cleveland 0.00153078769773
hiding 0.0
breath 0.000114639500717
choosing 0.0
lawrence 0.0
instagram 9.36842666953e-05
opponent 0.0
detroit 0.000125361800829
honored 0.0
nonsense 6.31142589717e-05
lifting 0.0
proven 0.0
talent 0.0
knocking 0.0
russian 0.000337417650224
brains 7.44146192105e-05
oakland 0.000179188918448
regardless 0.0
skills 4.68421333476e-05
citizens 5.76888180528e-05
california 0.0
commitment 0.000111765494658
seconds 0.000406256527054
seeking 0.0
threatening 0.0
listen 0.000174383526961
whatever 7.75238907254e-05
mexicans 0.0
satisfied 0.0
fought 0.0
compete 6.33330533754e-05
injured 5.97945391911e-05
billion 4.83533618814e-05
ceiling 0.000231844243679
absolute 4.94967854115e-05
appearance 0.0
bigsean 0.0
handle 4.40095508742e-05
promise 4.00538285646e-05
nightclub 0.0
hosting 0.0
actors 0.0
generation 4.63090297387e-05
criminal 6.44489308431e-05
tuesday 0.0
ronald 0.0
locker 0.000151317287467
struggle 5.23794189229e-05
degree 0.0
entering 6.44489308431e-05
leader 4.40095508742e-05
pageant 0.0
toughest 0.0
character 0.0
mirror 0.0
interview 0.00017158472699
whistle 0.000257880375676
obviously 0.000284303014631
battle 7.83741507417e-05
motivate 0.0
destroy 0.000175888892681
relentless 0.0
winning 0.000360250162976
charlotte 0.0
accomplished 0.0
stepped 7.69505269355e-05
defense 5.41688641466e-05
appeal 0.0
causing 0.0
arabia 0.0
shipped 0.0
society 9.31490475736e-05
officers 7.14923575858e-05
brooklyn 0.0
marked 0.0
incredible 7.28333609409e-05
poster 5.35070728382e-05
wealthy 7.82940989852e-05
memorable 0.0
officer 0.0
minute 3.80306761764e-05
luther 0.0
foreign 0.000111765494658
pregnant 6.9063481026e-05
champions 0.0
virginia 6.72887756849e-05
tackle 0.0
unarmed 0.0
orange 5.05302460963e-05
policy 0.000395974283292
comedy 0.000105395521706
reminder 0.000162428532171
evidence 0.000350584043434
lighten 0.0
presidents 0.000283748895675
kicked 5.53593369088e-05
sticker 0.0
accused 0.0
intentions 9.31329734083e-05
facing 0.000166598706803
freedom 0.000140930226101
actions 5.73197503587e-05
debating 0.0
outcome 0.0
utterly 0.0
mississippi 0.0
clearly 0.000470766677844
download 0.0
sidelines 0.0
invite 0.0
legally 7.29217146685e-05
central 8.9014225792e-05
washington 0.00138361257716
veteran 6.63152344133e-05
division 0.0
veterans 6.60761955238e-05
stronger 5.36713021248e-05
promised 5.53593369088e-05
worried 0.000146332790566
security 0.000358069486193
immediately 9.42237848118e-05
television 0.000118803459551
entitled 0.0
racism 0.000130273397354
highest 4.76579991081e-05
approve 6.67984776022e-05
turning 0.000126620137798
legacy 0.000107014145676
ignore 4.83533618814e-05
choked 0.0
backing 0.0
helping 3.71132795329e-05
collector 0.0
willing 0.000205153602752
basically 0.000393658074314
return 0.000223889944698
unacceptable 7.29217146685e-05
feelings 0.0
network 9.42237848118e-05
language 9.44951776835e-05
invest 0.0
coward 0.0
schools 0.0
patients 7.06630605825e-05
foster 0.0
children 0.000185566397664
nation 8.48831449057e-05
review 0.000240982575686
between 0.000148221364187
knowledge 0.0
begins 0.0
tenure 0.0
faithful 0.0
highlights 0.0
shoulder 0.000402256391586
produced 0.0
consider 0.0
shattered 0.0
latest 3.65153143804e-05
beyonce 0.0
signed 3.72139837228e-05
millionaire 0.0
shelter 0.0
charity 9.42237848118e-05
germany 5.12884006881e-05
advance 0.0
proved 6.82913821442e-05
married 0.0
millions 0.000136963002331
blessings 0.0
indonesia 0.0
fights 0.00012282679642
dollar 0.0
rigged 8.59601252253e-05
conduct 0.0
johnson 9.58688379163e-05
howard 0.0
turned 0.000111038629207
criticism 0.0
stomach 0.0
upgrades 0.0
jackie 0.0
relevant 5.99926803098e-05
charge 0.000186832248092
ticket 9.05351129032e-05
steady 0.0
indian 7.01213581584e-05
turner 8.30737640019e-05
sanders 0.0
includes 0.000100463424756
survivor 0.0
dealers 0.0
collection 0.0
against 0.0
joyner 0.0
impact 9.02792282342e-05
families 0.0
welcoming 0.0
hitting 0.000135036472
announced 0.000123169305072
granted 0.0
decided 0.000242308297133
itself 0.0
selfish 8.38734404045e-05
mexican 0.0
respects 0.0
guarantee 0.0
beliefs 0.0
citizen 6.05942155938e-05
states 0.000170238484634
denied 6.75366352763e-05
drought 0.0
memorial 0.0
decades 0.000108337728293
trayvon 0.0
landed 0.0
pastor 0.0
ultimate 0.0
weekends 0.0
episode 0.000161096230784
spikes 0.0
engaged 7.23426516652e-05
financial 0.0
payments 9.05680004957e-05
tolerant 0.0
symposium 0.0
kansas 6.75366352763e-05
agreement 0.000187398900545
source 0.000236919178859
backbone 0.0
dismiss 0.0
midnight 0.0
homework 0.0
joining 3.97261691638e-05
reasons 3.92942040811e-05
talked 0.000212207862264
released 3.92942040811e-05
reaching 0.0
release 3.70128764022e-05
existing 0.000204113731755
models 6.5136698677e-05
pageants 0.0
helmets 0.0
scheme 7.38094709071e-05
scholarship 0.0
stacked 0.0
speech 8.09914809911e-05
standing 7.71027630489e-05
higher 0.0
purple 0.0
justice 0.000136187964152
served 0.0
speaks 4.87775968552e-05
backup 8.55322873097e-05
allegedly 9.10655625175e-05
purchase 0.0
millionaires 0.0
consideration 0.0
strength 9.34161240462e-05
incredibly 0.000190631996432
private 0.000173107048188
ignored 6.44489308431e-05
neighbors 0.0
apologizes 0.000114849831766
beings 0.0
minimum 6.95882545494e-05
direction 0.000103503293919
enemies 0.0
exclusive 0.000160215314259
prison 0.000238390240789
himself 5.41688641466e-05
contributes 0.0
investigation 6.2253062499e-05
teaching 0.0
disgusting 0.0
philly 6.31142589717e-05
rights 4.55249126702e-05
cheers 0.00120109156541
maintain 0.0
overcome 0.0
flawless 8.63934837824e-05
unique 0.0
neighborhood 0.0
dating 0.000133596955204
handed 6.4676625425e-05
victory 9.64262655501e-05
lifted 0.0
greatness 0.0
muslim 0.0
terrorist 0.0
productive 0.0
tribute 4.63090297387e-05
deadspin 0.0
threatened 0.000217027954996
horror 0.0
warning 0.0
convention 0.0
understanding 4.86355889388e-05
action 0.000144881109767
having 0.000126666106751
afghan 0.0
announces 0.0
commencement 0.0
speaker 5.62362750374e-05
graduation 0.0
honors 0.0
produce 0.0
apologize 6.2253062499e-05
insult 0.000213640931307
continued 0.0
letter 0.000208133247187
discussed 0.0
therapy 0.0
untrue 0.0
written 0.000205848530162
existence 0.000143546807526
essential 0.000119589078382
results 8.82665040331e-05
initiative 0.0
disease 0.0
marching 7.26309351708e-05
suggest 0.0
georgetakei 0.0
ensure 0.0
democrats 7.41106820937e-05
marched 0.0
foundation 0.0
access 4.15118294207e-05
writes 0.000220059496698
student 4.84941789523e-05
colorado 0.0
medical 5.55329022677e-05
medicine 0.0
tremendous 6.37749653063e-05
nytimes 0.0001022707888
kindness 0.0
public 0.000274309527596
cannot 7.52396950812e-05
reveals 5.03806475319e-05
invented 0.0
threatens 0.0
candidate 0.0
persistence 0.0
sexual 0.000414449242261
illustration 0.0
measure 0.0
compared 0.0
headline 0.000317148423428
reflect 0.0
answering 0.0
streaming 0.0
leaders 4.92072592892e-05
supreme 5.82501373395e-05
nominee 6.82913821442e-05
immigration 6.26809004146e-05
policies 6.12067217288e-05
laundering 0.0
administration 0.000382649791838
defend 0.000110373327842
communicating 0.0
excitement 0.000119195120394
funding 5.38363384382e-05
climate 0.000228546905406
transfer 0.0
conspiracy 0.000332779934289
activist 0.0
horrifying 8.30737640019e-05
freely 0.0
retreat 0.0
daughters 0.0
compelling 0.0
platform 0.0
hamilton 0.0
futures 9.42164487296e-05
huffingtonpost 0.0
headlines 0.0
january 9.34161240462e-05
grants 0.0
unprecedented 0.0
relationships 0.0
philadelphia 0.0
diversity 0.0
funded 6.2253062499e-05
secure 0.0
income 6.20411701735e-05
universal 0.0
contributed 0.0
hurricane 0.0
fundamental 7.66228675347e-05
countries 4.86355889388e-05
linked 0.000251587522891
african 0.0
improved 0.0
unclear 0.0
provide 9.8993570823e-05
livestream 0.0
addresses 0.0
enhance 0.0
companies 0.000111765494658
proposal 0.0
potential 9.31490475736e-05
discrimination 0.0
connected 0.0
drives 0.0
attending 0.0
filled 9.47676715436e-05
education 9.0791976101e-05
addressed 0.0
mentioned 4.96424898578e-05
famous 0.0
resistance 0.0
exists 0.0
demonstrated 0.0
officials 0.000237606919101
instructions 0.0
transmission 0.0
olympics 0.00101650716625
ability 4.90634268544e-05
political 0.00033847353317
director 4.20898957087e-05
contains 0.0
sponsored 0.0
autism 0.0
previously 0.00013457755137
prevent 0.0
capacity 0.0
donations 0.0
william 0.0
editors 7.66228675347e-05
passionate 0.0
solving 0.0
innate 0.0
treatment 5.28580705713e-05
critical 5.36713021248e-05
feeding 6.95882545494e-05
preparing 5.64144442732e-05
depend 8.68325073175e-05
capable 0.000138649685658
bridge 5.43363698414e-05
systematically 0.0
becoming 0.000129830286141
embraced 0.000105188080515
literacy 0.0
lawyers 7.03911172166e-05
stigma 0.0
malaria 0.0
standard 0.0
hiring 0.0
remains 0.000104442744818
fellow 4.27969707131e-05
defending 5.76888180528e-05
quotes 5.55329022677e-05
pushes 0.0
luxury 0.0
admitted 0.0
colleagues 0.0
failed 0.000200333739105
independent 5.20640661628e-05
politically 7.44146192105e-05
driven 0.0
agenda 0.0
result 0.000145906766817
implications 7.89865940796e-05
insider 0.0
pakistan 0.0
solutions 0.0
trusts 0.0
indiana 0.000135073270553
filling 6.8804137481e-05
humility 0.0
clicks 0.0
disagree 5.22213724091e-05
claims 0.00032501318488
editorial 0.0
mistakes 6.01919973469e-05
offered 0.000111065804535
passionately 0.0
justification 0.0
inspiring 4.55249126702e-05
counter 0.0
shaped 7.38094709071e-05
retroviral 0.0
majority 5.65935637495e-05
approach 0.0
nature 4.86355889388e-05
concern 0.000114273452703
server 0.0
berniesanders 0.0
shameful 0.0
experiment 0.0
massive 0.000128390912139
promises 0.0
colored 0.0
consequences 6.5136698677e-05
whatsoever 0.0
proposals 0.0
guesses 0.0
bernie 0.000145261870342
interviewed 5.43363698414e-05
pregnancy 9.00777024129e-05
secretary 0.000176462993759
measures 0.0
vastly 0.0
reduce 0.0
compassionate 9.36703420274e-05
distinguished 0.0
dangerous 0.000226337782258
influence 5.51866639208e-05
letters 0.0
implicit 0.0
saving 0.000146760623338
revelations 0.0
incident 6.95882545494e-05
universe 0.00016250659244
victims 4.89202077795e-05
milestone 8.11541088364e-05
perfectly 0.000102576801376
exercise 0.000235283991678
receive 4.75206376807e-05
reputation 8.04159511623e-05
economics 0.0
disclosure 0.0
receives 0.0
terrific 0.000178205189326
collected 0.0
campus 6.67984776022e-05
founders 0.0
profiling 0.000106750446968
systemic 0.0
studying 0.0
necessary 0.0
inaccurate 0.0
breast 0.000150686581947
debate 8.67955771286e-05
suddenly 0.0
conflict 7.01213581584e-05
interest 4.73838357718e-05
meanwhile 0.000592070346087
indefensible 0.0
recall 6.42227695697e-05
rating 7.1773403763e-05
nominate 0.0
outstanding 5.78748840257e-05
devastating 6.24663001816e-05
illness 0.0
troubling 0.0
romney 0.0
appears 0.000167648241987
breathe 6.58388459693e-05
abroad 0.0
spanish 0.0
profit 6.58388459693e-05
reviews 6.05942155938e-05
republican 0.0
presidential 0.0
candidates 5.69546943494e-05
politicians 0.00012282679642
identified 0.0
epidemic 0.0
displaced 0.0
greater 5.50148741744e-05
absurd 0.000217892805512
deadline 0.000108672739683
height 0.0
sisters 0.0
nuclear 5.95975601972e-05
stress 0.0
leading 0.000171187882852
restored 0.0
conditions 0.000126666106751
however 0.0
achieved 0.0
member 0.000118852967736
examples 0.0
diverse 0.0
suicide 0.0
contributions 0.0
largest 5.3181004042e-05
increase 0.0
targeted 0.0
regulators 0.0
provided 0.0
element 0.0
effectively 0.0
population 6.3998121092e-05
rising 0.0
indication 0.0
versus 0.00015006174354
believed 0.0
dynamic 0.0
invasion 0.0
primary 0.0
provides 0.0
environment 0.0
confirmed 0.0
behavior 6.63152344133e-05
introduced 0.0
contain 0.0
communities 0.0
worldwide 5.6059046013e-05
responsible 0.0
household 0.0
apparent 0.0
munich 0.0
alternate 0.0
expressed 0.0
movement 4.50121573334e-05
declared 0.0
hundreds 5.57073692688e-05
information 4.56543341105e-05
easily 0.0
untreated 0.0
october 0.0
quantify 0.0
scales 0.0
investigating 0.0
innovation 0.0
perspective 4.97888291838e-05
rivals 0.000182131125035
interests 0.0
toledo 0.0
extraordinary 0.000113909388699
gingrich 0.0
describing 0.000160105736934
eliminate 8.15293621503e-05
obligation 0.0
gender 0.0
committee 5.51866639208e-05
preventing 0.0
numerous 0.0
unusual 0.0
improving 0.0
practices 0.0
cemetery 0.0
questioned 0.0
affecting 0.0
ferrell 0.0
genius 0.000223793428871
warren 0.0
organizers 0.0
regularly 7.1773403763e-05
ceilings 0.0
sexism 0.0
prepared 0.0
burden 0.0
foreignpolicy 0.0
county 0.0
uniform 0.000151953971328
newyorker 0.0
anthony 0.00012282679642
reflecting 0.0
grandson 0.0
banning 0.0
considered 0.000208885489636
chosen 0.0
outright 0.0
screenings 0.0
naming 0.0
conventions 0.0
reproductive 0.0
ignores 9.26040676397e-05
focusing 7.12136437689e-05
sensible 0.000157277123439
concluded 0.000104433333647
performed 0.0
divide 7.26309351708e-05
dismissed 0.0
compromise 0.0
crucial 0.0
weakness 0.0
barrier 0.0
effective 0.0
wealth 0.0
underway 0.0
israel 0.0
overwhelming 7.14923575858e-05
assault 0.000128897861686
citing 0.0
protection 5.84393481058e-05
prisoners 0.0
photographing 0.0
traveled 9.36703420274e-05
holder 0.0
seemed 6.05942155938e-05
concludes 0.0
determination 0.0
tested 0.0
lacking 0.0
machine 0.0
honoring 0.0
contrary 0.0
tolerance 0.0
michelle 0.0
assumed 0.0
programs 6.70427319311e-05
closely 0.000208764763648
politico 8.51098311459e-05
inspire 0.0
lyrics 0.0
judges 0.0
federal 0.000125793761446
maryjblige 0.0
tuning 0.0
striving 0.0
poland 0.0
september 0.0
manchester 0.0
checks 0.000325683493385
remarkable 0.000174185959749
mharrisperry 0.0
immoral 0.0
fiction 6.75366352763e-05
process 4.29162774893e-05
anxious 0.0
destructive 0.0
nmaahc 0.0
performances 0.0
whitehouse 0.0
flotus 0.0
crisis 0.000207006587837
marriage 0.000116500274679
emotions 0.0
confidence 0.000368884325972
voters 0.000288444090264
comparing 7.44146192105e-05
oldest 0.0
empirefox 0.0
chancetherapper 0.0
songwriter 0.0
literally 0.000707653040437
onstage 0.0
believing 6.80379105849e-05
hillaryclinton 0.0
citizenship 0.0
counted 0.0
hillaryfornc 0.0
raleigh 0.0
discusses 0.0
johnlegend 0.0
apprentice 0.000100229751746
acknowledge 0.0
conservative 0.00037479780109
economists 0.0
buzzfeed 0.0
puppet 9.31329734083e-05
hombres 0.0
republic 0.0
homecoming 0.0
andersoncooper 0.0
muslims 7.12136437689e-05
katyperry 0.0
bragging 0.0
treats 0.0
qualified 0.000216170464998
islamophobia 0.0
debates 6.67984776022e-05
endorsements 0.0
counts 0.000111765494658
theellenshow 0.0
festival 0.000148490356235
encouraged 0.000250413666473
stylish 0.0
disregard 0.0
jtimberlake 0.0
backstage 0.0
barack 0.0
joined 0.0
terrorism 6.70427319311e-05
pushing 0.000161509015314
hopeful 0.0
mentions 6.31142589717e-05
teamed 0.0
exclusively 0.0
aliciakeys 0.0
kingjames 0.0
muhammad 0.0
refused 0.0
characters 5.36713021248e-05
express 0.0
gratitude 0.0
ugliest 0.0
throughout 0.0
awkward 0.000168177138039
shining 0.0
fighter 0.0
accepting 0.0
applemusic 0.0
reveal 4.90634268544e-05
stands 0.000233540310116
native 0.0
announce 3.9080287293e-05
dorothy 0.0
haters 7.09372239188e-05
jessetyler 0.0
shondarhimes 0.0
lavernecox 0.0
broadway 0.0
disabilities 0.000196620193162
adoption 0.0
touched 6.28968807229e-05
corruption 0.0
violence 9.87034207201e-05
leedanielsent 0.0
delivered 5.4673908584e-05
jasmine 0.0
independence 0.0
square 9.10498253404e-05
alongside 6.44489308431e-05
privilege 6.2253062499e-05
secondary 0.0
staggering 0.0
seventh 0.000108389055957
tennis 0.0
sweeping 8.68325073175e-05
footage 0.000165044622523
overseas 7.38094709071e-05
spoiler 0.0
theirs 0.0
offering 0.0
construction 7.03911172166e-05
spends 0.0
detail 0.0
cabinet 0.0
earnings 0.0
pleased 5.55329022677e-05
gravity 0.0
statements 0.0
decade 0.0
bigotry 0.0
belong 7.09372239188e-05
trillion 0.0
backed 0.0
operations 0.0
breakthroughs 0.0
values 0.0
senator 6.95882545494e-05
removing 0.0
wondered 0.000129811748496
introduces 0.0
makers 0.0
measured 8.19088557043e-05
pillars 0.0
instrument 9.59101599816e-05
shares 5.41688641466e-05
individual 0.0
applications 0.0
prepares 0.0
ceremony 0.0
expanding 0.0
merger 0.0
newspaper 6.28968807229e-05
detailed 7.44146192105e-05
tuition 0.0
childcare 0.0
thoroughly 7.76155946522e-05
adviser 8.77281556539e-05
matthew 0.000128445539139
affected 5.19074932816e-05
newspapers 0.000151953971328
corporate 7.12136437689e-05
economy 5.78748840257e-05
presenting 0.0
spoken 5.62362750374e-05
richer 0.0
during 0.0
combat 0.0
touting 0.0
competitive 0.000135073270553
prominence 0.0
trifecta 0.0
fashioned 0.0
boasts 0.000126974400784
ripped 0.0
belief 0.0
heroes 0.000102576801376
disturbing 0.0
russians 0.000246878059264
intelligence 6.14133982099e-05
deepest 0.0
regrets 0.0
complicated 0.000241570017374
internships 0.0
adults 6.44489308431e-05
describe 0.000195110387421
equality 0.0
announcement 4.31561700963e-05
interfere 0.0
terrifying 0.0
nationwide 0.0
manager 0.0
questionable 9.20833622917e-05
enhanced 0.0
services 0.0
delighted 0.0
golfer 0.0
regarding 0.000311265312495
teachers 0.0
suggests 0.0
phrase 0.0
immigrants 0.0
revolution 0.0
universities 0.0
twelve 0.0
principle 0.000297658476842
releases 0.0
malarkey 0.0
library 0.0
advisor 0.0
deadlines 0.0
encouraging 0.0
circuit 0.0
humanitarian 0.0
reliant 0.000125545043701
assistance 0.0
swimmer 0.0
hinges 0.0
concrete 0.0
accepted 0.0
confronted 0.0
comprehensive 0.0
pushed 6.53691205194e-05
unending 0.0
occasionally 8.51098311459e-05
guardia 0.0
donation 0.0
nomination 0.0
paintings 0.0
significantly 0.0
investment 0.0
terror 0.000126666106751
worship 0.0
represents 6.9063481026e-05
attempting 8.11541088364e-05
bullying 0.0
astonishing 0.0
endorse 0.000145843429337
urgent 0.0
forced 5.1596520484e-05
addressing 0.0
script 0.0
hundred 0.000141874447838
command 7.44146192105e-05
qualifies 0.0
stumbled 0.0
territory 7.62983739747e-05
balloons 0.0
objects 0.0
latimes 0.0
pandemics 0.0
separating 0.0
pentagon 0.0
threats 6.58388459693e-05
prisons 9.70886957178e-05
approaching 0.0
generous 6.3998121092e-05
roughly 0.0
commands 0.0
uncovered 0.0
destroying 0.000147618941814
opposition 6.80379105849e-05
addiction 0.0
manhattan 0.0
ridiculously 0.0
awarded 0.0
greeted 0.0
forces 0.000164021725752
confirm 5.4673908584e-05
dealings 0.0
nations 0.0
equivalent 0.000141874447838
sexist 0.0
yahoonews 0.0
bloody 0.0
boundaries 9.10655625175e-05
exceptionally 0.0
cannon 9.26040676397e-05
feared 0.0
significance 0.0
recommendation 0.0
chapters 0.0
racial 0.0
obvious 0.000113909388699
statistics 0.0
military 0.000261897094614
adopted 7.44146192105e-05
housing 0.000138649685658
clearer 0.0
calculator 0.0
underwater 0.0
guided 0.0
rescue 0.0
deserving 0.0
advised 9.05680004957e-05
ordered 0.0
unions 0.0
avoiding 0.0
alicia 0.0
preserve 0.0
balloon 0.0
economic 0.0
recipe 7.01213581584e-05
awaits 0.0
squarely 0.0
radical 0.0
banter 0.0
spaces 8.19088557043e-05
carnival 0.0
theories 0.0
bombing 7.86385617196e-05
products 0.0
margaret 8.22926864214e-05
gathered 0.0
taxpayers 8.95944592241e-05
admits 0.0
opposed 0.0
pressing 0.0
russia 0.000626656468909
lincoln 0.000137608274962
intelligent 0.0
momentum 0.000144113643332
olympic 0.000311265312495
magnificent 0.0
heritage 7.9693669084e-05
beijing 8.95944592241e-05
beloved 0.0
dummies 0.0
pursuit 0.0
carries 0.0
phelps 0.0
medals 0.0
gymnastics 0.0
summed 0.0
accuse 0.0
symbol 0.0
dignity 0.0
slogans 0.0
priorities 0.0
applied 0.0
progressive 0.0
activists 7.76155946522e-05
elected 0.0
brussels 0.0
subscribe 0.0
elections 6.77863377067e-05
unites 0.0
complacency 0.0
imperative 0.0
doorsteps 0.0
voices 0.0
blatant 9.70886957178e-05
democracy 5.90134616107e-05
disastrous 0.000173665014635
rebuild 8.11541088364e-05
accuses 8.95944592241e-05
diplomacy 0.0
hardball 0.0
attacking 0.0
subtle 0.000159387338168
barker 0.0
sticking 0.000131677691939
openly 8.04159511623e-05
policing 0.0
embarrassed 0.0
slightest 0.0
abbott 0.0
attacks 0.000108337728293
commit 6.85467812623e-05
argued 0.000175456311308
remarks 0.0
democratic 6.85467812623e-05
semitic 0.0
incomes 0.0
treasury 0.0
alarming 0.0
dividing 0.0
reject 7.14923575858e-05
affirming 0.0
quitting 0.0
extended 6.12067217288e-05
reducing 0.0
proudly 8.00528684672e-05
inclusive 0.0
oppose 0.0
distinctly 0.0
urging 0.0
strengthen 0.0
deliver 0.0
obligations 0.0
relations 0.0
repeal 7.82940989852e-05
strengths 0.000105960179397
counties 0.0
weakened 0.0
reckless 0.0
prosperous 0.0
servant 0.0
secretaries 0.0
negotiator 0.00011588329245
faults 0.0
choking 0.0
executive 5.6059046013e-05
alternative 5.65935637495e-05
extend 0.0
republicans 0.000479827468836
embodied 0.0
preparation 0.0
terrorists 0.0
confident 5.80619865831e-05
weapons 6.56031620393e-05
unifying 0.0
outrage 0.0
constitutional 8.19088557043e-05
rental 0.000220223464257
prevail 0.0
resilient 0.0
humbled 0.0
courage 0.0
commander 0.0
respecting 0.0
enormous 0.0
aligned 0.0
consent 0.000182131125035
refusing 0.0
resentment 0.0
substance 0.0
claiming 6.98537485975e-05
lamont 0.0
dropping 5.0831457283e-05
carried 0.0
intimidated 0.0
behalf 6.03925043436e-05
meaningful 0.0
amendment 6.67984776022e-05
accepts 0.0
legislation 0.0
fairer 0.0
commitments 0.0
handling 7.66228675347e-05
proves 0.0
rhetoric 7.89865940796e-05
hardest 0.0
peddling 0.0
divisive 0.0
strongly 0.0
vision 4.97888291838e-05
investigations 0.0
repeatedly 0.0
records 5.09830820199e-05
madeleine 0.0
disabled 8.04159511623e-05
quoting 0.0
assassination 0.0
beaten 7.72814145597e-05
deeply 5.43363698414e-05
grievance 0.0
contempt 9.26040676397e-05
standards 0.0
fairness 0.000238014812471
dictated 0.0
consensus 7.66228675347e-05
reconsider 0.0
priority 0.0
rogers 7.86385617196e-05
freedoms 0.0
notorious 0.0
invested 8.77281556539e-05
propaganda 8.00528684672e-05
unconstitutional 0.0
condemn 8.72773459028e-05
concerned 0.000108004379498
praising 0.0
cheered 0.0
realdonaldtrump 0.0
despicable 0.0
straightforward 0.0
bargain 0.0
attorney 0.0
bedrock 0.0
optimism 7.69505269355e-05
belongs 0.000147618941814
truman 0.0
whichever 0.0
inappropriate 0.0
beatings 0.0
optimistic 0.0
campaigned 0.0
allies 7.86385617196e-05
governor 0.000140782234433
attempts 0.000198228586572
extent 0.0
denial 7.23426516652e-05
maximum 0.0
merely 7.56586437336e-05
apprenticeships 0.0
agreeing 0.0
architect 0.0
responsibility 0.0
mainstream 0.0
legitimacy 0.0
injustice 0.0
dozens 0.0
donnell 0.0
scenario 0.000145261870342
crimes 0.000149442664094
thoughtful 0.0
hypocrisy 0.0
undocumented 0.0
sexually 0.0
richest 0.000188432897459
softening 0.0
implies 0.000197875737089
infrastructure 0.0
pitching 0.0
broadband 0.0
tenants 0.0
allegations 0.000165361909172
bloomberg 0.0
insulting 0.000172786967565
liberal 0.000125793761446
kremlin 0.000105960179397
podium 0.000194177391436
provoke 0.0
outrageous 0.0
campaigns 0.0
barriers 0.0
powell 0.00131903028221
technical 0.000140782234433
warnings 0.0
flagged 0.0
grassroots 0.0
extremist 0.0
businesses 0.0
welcomes 0.0
deputy 0.0
donating 0.0
continually 0.0
ourselves 0.0
fringe 0.0
politician 6.70427319311e-05
wiggins 0.0
welcomed 0.0
rallies 9.59101599816e-05
ballot 0.0
failing 0.0
uniting 0.0
refuses 0.0
appealing 0.0
proverb 0.0
privileges 0.0
ideals 0.0
vibrant 0.0
tarmac 0.0
residents 7.35109371886e-05
apprenticeship 0.0
denying 8.42805341427e-05
fierce 0.0
opponents 7.29217146685e-05
polling 0.0
apology 0.0
damning 0.000100894819463
outline 0.0
endorses 0.0
losers 0.0
insulted 0.000104433333647
equipped 0.0
battlefield 0.0
recession 0.0
endorsed 0.0
divides 0.0
describes 0.0
appointed 0.0
encourage 5.71367263516e-05
undermine 0.0
undermining 0.0
authority 0.0
betray 0.0
funnyordie 0.0
donated 0.0
jimmykimmellive 0.0
immigrant 0.0
criminals 0.0
automatically 0.0
schooled 0.0
elizabethforma 0.0
releasing 6.95882545494e-05
connects 0.0
screening 0.0
cleaner 0.0
nowthisnews 0.0
sophiabush 0.0
chelseaclinton 0.0
stunts 0.0
truths 0.0
transparency 0.0
obamacare 0.000249221292006
nickkristof 0.000111007380465
contraception 0.0
betting 0.000160831902325
conscience 0.0
proclaimed 0.0
dispatch 0.0
advocate 0.0
profits 0.0
toward 0.000182391436951
guiding 0.0
senators 0.000469764593911
barber 9.64942585681e-05
doubled 0.0
mosque 0.0
senate 6.8804137481e-05
louisiana 0.0
senwarren 0.0
parenthood 0.0
organizations 0.0
generations 0.0
minorities 9.59101599816e-05
misogyny 0.0
peacefully 0.0
decency 0.0
intend 0.0
discourse 0.0
pennsylvania 9.70886957178e-05
katiemcgintypa 0.0
experiencing 0.0
mccain 0.0
scandal 6.49058742482e-05
constitution 0.0
sensanders 9.89378685444e-05
intolerable 0.0
strive 0.0
forefathers 0.0
abandon 0.000264555297177
buzzfeednews 0.000102972893895
paulkrugman 0.000131668280767
mothers 0.0
compassion 0.0
deeper 0.0
governments 8.55322873097e-05
activism 0.0
jamilsmith 0.000245713647192
mike_pence 0.0
elizabethbanks 0.0
empathy 0.0
audited 0.0
checkers 0.0
warming 6.05942155938e-05
volunteering 0.0
charitable 0.0
qualifications 0.0
workplace 0.0
granddaughter 0.0
recycled 0.0
directing 0.0
politifact 0.0
abolish 0.0
murders 0.0
reagan 8.07830020528e-05
pouring 0.0
ballots 0.0
racists 0.0
empower 0.0
tolerate 0.0
chrismurphyct 0.0
igorvolsky 0.0
outraged 0.0
exceptional 0.0
nightmares 0.0
enforcement 8.04159511623e-05
weaken 0.0
medicaid 0.0
humbly 0.0
newsweek 0.0
conflicts 0.0
suffer 0.0
dallasnews 0.0
bridges 8.95944592241e-05
lesdoggg 0.0
appalling 0.0
hatred 0.000142984715172
superpower 0.0
goodbye 5.28580705713e-05
renewable 0.0
robdelaney 0.0
motherjones 0.0
trusted 0.0
sheriff 0.0
personalized 0.000103695175973
amnesia 0.0
malala 0.0
problema 0.0
everytown 0.0
casting 0.0
employers 0.0
rudolph 0.0
packets 0.0
organization 0.000125361800829
graceful 0.0
hardworking 0.0
cherished 0.0
aggressively 0.0
founding 0.0
sacred 0.0
horrific 0.0
earned 0.000118803459551
siding 0.0
minded 8.26809545861e-05
contribute 0.0
incites 0.0
chooses 0.0
obtained 0.0
defended 8.86483453302e-05
champion 5.35070728382e-05
magazines 0.0
waited 0.0
punished 0.0
conviction 0.0
tradition 0.000122413443458
giveaways 0.0
distracted 0.0
endorsing 0.0
pathetic 7.79531333948e-05
ladygaga 0.0
pessimistic 0.0
highlighting 0.0
transgender 0.0
womensmarch 0.0
advisors 0.00010226581889
wrecking 0.0
hillaryforva 0.0
registration 0.0
ellemagazine 0.0
acceptance 0.0
defeated 7.93382708237e-05
theroot 0.0
pharrell 0.0
tumblr 0.0
nevada 0.0
illinois 9.15706069549e-05
massachusetts 0.000104433333647
theadvocatemag 0.0
lending 0.0
rejecting 0.0
legalize 0.000108389055957
conned 0.000133390956939
arkansas 0.0
celebratin 0.0
rubber 0.0
lenadunham 0.0
hateful 0.0
wizard 8.72773459028e-05
unbearable 0.0
harpersbazaarus 0.0
familia 0.0
iamwill 0.0
retweets 0.0
nominating 0.0
vietnam 8.46926230206e-05
laurie 0.0
claimed 0.0
rapids 0.0
devoted 0.0
casino 9.26040676397e-05
astounding 0.0
summon 0.0
crushed 0.000137093562525
louder 0.0
farmers 0.0
lin_manuel 0.0
arrangement 0.0
borrowed 0.0
mariska 0.0
purposes 0.0
dialogue 0.0
comedian 0.000164585372843
________ 0.0
lightly 0.000106750446968
defeating 0.0
jerusalem 0.0
cynical 0.0
worrying 6.98537485975e-05
elizabeth 0.0
insults 0.0
microphone 0.0
sleeves 0.0
theeconomist 0.0
stakes 8.34712221577e-05
nationally 9.70886957178e-05
inspect 0.0
poisoning 0.0
columbus 0.000235915685159
declaring 9.76938440213e-05
crushing 0.0
chucktodd 0.0
soldier 0.0
painted 0.0
warned 0.00020335901312
ohiostate 0.0
unrelated 0.0
designated 0.0
clears 0.0
congressional 0.0
confront 0.0
usatoday 0.0
delivers 7.26309351708e-05
pittsburgh 0.000330723818344
entiende 0.0
soaked 0.0
bromance 0.0
lifelong 0.0
antiques 0.0
repjohnlewis 0.0
breakers 0.0
fundraising 0.0
hispanic 0.0
defrauded 0.0
fearful 0.0
nytopinion 0.000111007380465
volume 7.79531333948e-05
perfecting 0.0
washingtonpost 7.26309351708e-05
affordable 0.0
mighty 7.69505269355e-05
normalizing 0.0
boasting 0.0
assaulting 0.000125545043701
disqualify 0.0
monique 0.0
jcolenc 0.0
teamusa 0.0
allysonfelix 0.0
usabasketball 0.0
ibtihaj 0.0
simone 0.0
feminism 0.0
conversion 0.0
destiny 0.0
disrespected 0.0
serenawilliams 0.0
tantrum 0.0
heinous 0.0
unconscious 0.0
accomplishments 0.0
saddened 0.0
disgrace 0.0
rodriguez 0.0
arsenal 0.0
defender 8.911807078e-05
malalafund 0.0
merchandise 0.0
laundry 0.0
lesbians 0.0
cnnpolitics 0.0
nickgass 0.0
examining 0.0
monument 0.0
appeals 0.0
gracias 0.0
madame 0.0
grande 0.0
speechless 0.0
coulter 0.000125545043701
missiles 0.000208866667294
psyched 0.0
chelsea 0.000144113643332
biases 0.0
resume 8.15293621503e-05
spectator 0.0
angelina 0.0
spectacle 0.0
admiration 0.0
reaches 8.00528684672e-05
español 0.0
dreamers 0.0
mañana 0.0
bursting 0.0
undone 0.0
beyoncé 0.0
nuestra 0.0
diwali 0.0
prestigious 0.0
cynicism 0.0
disability 0.0
registering 0.0
booker 0.00010226581889
méxico 0.0
disponible 0.0
honduras 0.0
famously 0.0
overdue 8.68325073175e-05
equity 0.0
opioid 0.000116949566838
millennials 0.0
recommendations 0.0
investors 0.0
betrays 0.0
patriotism 0.0
liability 0.0
iranian 0.0
delegate 0.0
struck 6.80379105849e-05
millennial 0.0
dictators 0.000113847225306
graduate 0.000151317287467
analysts 0.0
victor 0.0
shrink 0.0
dictator 0.000192988517136
poised 9.15706069549e-05
avoided 0.000173665014635
rallying 0.0
catholic 0.0
thriving 0.0
racially 0.0
undermines 0.0
yashar 0.000122856823596
inequality 8.11541088364e-05
medicare 0.0
missionaries 0.0
foremost 0.0
deplorable 0.0
demonize 0.0
wikileaks 9.20833622917e-05
enduring 0.0
privatized 0.0
appoint 0.0
losses 0.000141326121165
jbarro 0.000141330032018
buffett 0.0
staffers 0.0
takeaway 0.0
moscow 0.0
hampshire 0.0
pandering 0.0
voxdotcom 0.0
reckoning 0.0
moines 0.0
falter 0.0
countless 0.0
democrat 8.38734404045e-05
bostonglobe 0.000105188080515
accountable 0.0
dispel 0.0
despair 0.0
persisted 0.0
disclose 0.0
tedcruz 0.0
flooding 0.0
prejudice 0.0
towers 0.0
criticized 0.000196620193162
senatemajldr 0.0
outsider 0.000113847225306
declare 0.0
dismantle 0.0
thrive 0.000172786967565
threaten 0.0
outsourced 0.0
loophole 0.0
heerjeet 0.00182041540491
verbal 0.0
businessinsider 0.0
ukraine 0.0
vladimir 9.70886957178e-05
businessman 0.000113847225306
supremacist 0.000333022141394
etched 0.0
zekejmiller 0.0
momentarily 0.0
perpetrators 0.0
mocking 9.83100965808e-05
wrecked 0.0
identities 0.0
inhumane 0.0
disavow 0.0
hostile 0.0
muster 0.0
surrender 0.0
shatter 0.0
patriotic 8.77281556539e-05
rewarded 0.000104433333647
jitters 0.0
bullies 0.0
discipline 0.0
forgets 0.000113847225306
expand 0.0
apologized 0.0
tournament 0.0
grindstone 0.0
mastery 0.0
provider 0.0
steroids 0.0
jenniferjjacobs 0.0
notion 0.0
hernandez 0.000308918681684
mcuban 0.0
bullied 0.0
jebbush 0.0
discriminating 0.0
somali 0.000130029671779
hayden 0.0
limitless 0.0
implement 8.911807078e-05
nydailynews 0.0
corybooker 0.0
interference 0.000350912622616
listens 0.0
preside 0.0
remembers 7.66228675347e-05
toughness 0.000122856823596
extensively 0.000118050807207
suffered 7.56586437336e-05
streep 0.0
billionaire 8.11541088364e-05
cheats 0.000124174044274
needing 0.0
percentage 7.69505269355e-05
insiders 0.0
binder 0.0
prescriptions 0.0
slashed 0.000128467305326
indebted 0.0
dismisses 0.0
delegates 0.0
pledged 0.0
endured 0.000119189384792
deployed 0.0
suspense 0.0
courageously 0.0
resilience 0.0
nationalists 0.00011588329245
autonomy 0.0
abandoning 0.000110111732128
canvas 0.0
blacks 0.0
pledging 0.0
elaine 0.0
methodist 0.0
candidacy 0.0
bonuses 0.0
resolve 8.51098311459e-05
laughable 0.000121589321392
scares 0.0
intellect 0.0
hopeless 0.000102972893895
debunked 0.0
shames 0.0
connections 0.0
tyleroakley 0.0
perplexed 0.0
ddlovato 0.0
impromptu 0.0
teenvogue 0.000105960179397
unveils 0.0
billie 0.0
prouder 0.0
sweetness 0.0
cheryl 0.0
filipino 0.0
petersburg 0.0
drastic 0.0
lifesaving 0.0
decorated 0.0
usagym 0.0
freestyle 0.0
absentee 0.0
lashes 0.0
concentration 0.000102972893895
refuge 0.0
renaissance 0.0
actively 0.0
monitoring 0.0
destined 0.0
willfully 0.0
detained 0.0
warmest 0.0
heroic 0.0
bragged 0.000135206794952
miners 0.0
shareholders 0.0
randall 0.0
excessive 0.0
geneva 0.0
corporations 0.0
unsolvable 0.0
grandchildren 0.0
discredit 0.000124174044274
enormously 0.0
frances 0.0
pillar 0.0
trillions 0.0
expansive 0.0
organize 0.0
capabilities 0.0
confederate 0.0
shakers 0.0
ambiguity 0.0
linking 9.15706069549e-05
pretends 0.0
wireless 0.0
inherit 0.0
paranoia 0.0
theatlantic 9.89378685444e-05
languages 0.0
disposable 0.0
reinforcing 0.0
integrated 0.0
optimist 0.0
pigeons 0.0
chadhgriffin 0.0
katieledecky 0.0
richards 0.0
demconvention 0.0
abcpolitics 0.0
chobani 0.0
dominiclowell 0.0
floridians 0.0
cecilerichards 0.0
clintonfdn 0.0
billclinton 0.0
grounded 0.0
abilities 0.0
grandfather 7.72814145597e-05
profoundly 0.0
fiercely 0.0
drowning 0.0
astound 0.0
alzheimer 0.0
responders 0.0
peacecorps 0.0
nygovcuomo 0.0
hurricanes 0.0
approximately 0.000313300000941
daunting 0.0
organizer 0.0
ingenuity 0.0
illnesses 0.0
intruders 0.0
invading 0.0
harmful 0.0
foundations 0.0
skateboards 0.0
housekeeping 0.0
dangerously 0.000104433333647
renters 0.0
predatory 0.0
rebuke 0.0
jengranholm 0.0
supremacy 0.000223855140282
linger 0.0
adamserwer 0.000861882872036
clevelanddotcom 0.0
repadamschiff 0.0
fahrenthold 0.000260059343558
revoke 0.0
advising 0.0
strengthening 0.0
colleges 0.0
deniers 0.0
aspire 0.0
exceed 0.0
lebassett 0.0
shrugged 0.0
stewardship 0.0
complains 0.0
temperament 0.0
texasinafrica 0.0
americorps 0.0
latino 0.000104433333647
payoffs 0.0
protested 0.0
honorable 0.0
fathom 0.0
inconvenience 0.0
johnkasich 0.0
latinos 0.0
votevets 0.0
unsurprising 0.000113847225306
loopholes 0.0
dismal 0.0
unqualified 0.0
rigorous 0.0
mittromney 0.0
joyannreid 0.0
theorist 0.0
evan_mcmullin 0.0
discriminate 0.0
ezraklein 0.000116949566838
obsessively 0.0
desperation 0.000110111732128
latina 0.0
tammyforil 0.0
pantsuit 0.0
superior 0.0
exonerated 0.0
johnpodesta 0.0
recites 0.0
supremacists 0.000125545043701
affront 0.0
electing 0.0
defund 0.0
demeans 0.0
govpencein 0.0
squandered 0.0
machado 0.0
pneumonia 0.0
unhinged 0.0
criticizes 0.0
derailment 0.0
iceberg 0.0
epipens 0.0
generals 0.0
timkaine 0.0
provocation 0.0
paulbegala 0.0
clintinfdn 0.0
wesleylowery 0.0
childdefender 0.0
dictatorship 0.0
ceasefire 0.0
stamped 0.0
intimidation 0.0
casinos 0.0
manifest 0.0
restrict 0.0
transformation 0.0
battleground 0.0
christine 0.0
touted 0.0
mcconnell 0.0
deflect 0.0
expressing 0.0
commonsense 0.0
statesman 0.0
mcbride 0.0
tumble 0.0
bigoted 0.0
belonged 0.0
praised 9.70886957178e-05
policeman 0.0
booing 0.0
cathedral 0.0
tomperez 0.0
keithellison 0.0
knowingly 0.0
wealthiest 0.0
backward 0.0
pretended 0.0
thedemocrats 0.0
psychologists 0.0
americ 0.0
successor 0.0
diplomats 0.0
congratulated 0.000126974400784
devotion 0.000122856823596
remembrance 0.0
eligible 0.0
incoherent 0.0
exhaustive 0.0
downgraded 0.0
unified 0.0
embraces 0.0
galling 0.0
senatorreid 0.0
lifetimes 0.0
demagogue 0.0
rodham 0.0
temper 0.0
longtime 0.0
vetoing 0.0
janelle 0.0
voguemagazine 0.0
dominique 0.0
surpassed 0.0
associates 0.0
demonstrating 0.000110111732128
morning_joe 0.0
bazaar 0.0
consequential 0.0
undressed 0.0
entrepreneurial 0.0
billionaires 9.70886957178e-05
prescription 0.0
senseless 0.0
refresher 0.0
classmates 0.0
maturity 0.0
comentarios 0.0
risked 0.0
invincible 0.0
vigilant 0.0
emissions 0.0
recommit 0.0
voiceless 0.0
natlparkservice 0.0
workplaces 0.0
mayaharris_ 0.0
dhsgov 0.0
cyberattacks 0.0
maxinewaters 0.0
jerrybrowngov 0.0
discriminates 0.0
thejusticedept 0.0
simone_biles 0.0
sotomayor 0.0
traumatic 0.0
scammed 0.0
dreamer 0.0
fulfill 0.0
latinas 0.0
discouraged 0.0
usnavy 0.0
oftentimes 0.0
reprehensible 0.0
demeaning 0.0
ratified 0.0
emilyslist 0.0
lawsuits 0.0
nonviolent 0.0
caucus 0.000100229751746
joebiden 0.0
joyful 0.0
privatize 0.0
barbaraboxer 0.0
sengillibrand 0.0
camino 0.0
familias 0.0
americaferrera 0.0
universidades 0.0
gabbygiffords 0.0
shuttlecdrkelly 0.0
fulton 0.0
shimon 0.0
hablar 0.0
fuerza 0.0
trickle 0.0
refinance 0.0
shattering 0.0
damián 0.0
gouging 0.0
moveon 0.0
simone_manuel 0.0
revdrbarber 0.0
senatorbarb 0.0
cnbcnow 0.0
stiffed 0.0
mikebloomberg 0.0
solver 0.0
thrower 0.0
granddaughters 0.0
changemaker 0.0
clairecmc 0.0
anastasiasomoza 0.0
defunding 0.0
preyed 0.0
aspirations 0.0
fannie 0.0
mubarak 0.0
buzzfeedben 0.0
probed 0.0
marines 0.0
projecting 0.000253948801568
outsourcing 0.0
developers 0.0
crimea 0.0
everyo 0.0
chaser 0.0
dubious 0.0
diplomatic 0.0
rosiegray 0.0
unpatriotic 0.0
multifaceted 0.0
myanmar 0.0
adamparkhomenko 0.0
tjmshow 0.0
tenant 0.0
perjury 0.0
contractual 0.0
surrounds 0.0
exceeded 0.0
thrives 0.0
unclerush 0.0
sailors 0.0
stereotypes 0.0
librarycongress 0.0
acknowledging 0.0
philippe 0.0
battled 0.0
postopinions 0.0
ambassadorrice 0.0
shockingly 0.0
mcfaul 0.0
presid 0.0
poisons 0.000141330032018
kenvogel 0.0
johndingell 0.0
harnessing 0.0
unwritten 0.0
bewildering 0.0
moonshot 0.0
apologizing 0.0
oligarchs 0.0
espionage 0.0
marcorubio 0.0
desecration 0.0
brianefallon 0.0
bangladesh 0.0
twittermoments 0.0
officialcbc 0.0
thefix 0.0
urgency 0.0
traceeellisross 0.0
andradaymusic 0.0
impeccably 0.0
catastrophe 0.0
tallest 0.0
anastasia 0.0
azcentral 0.0
marrying 0.0
moderates 0.0
resembles 0.0
paraphrase 0.0
applauds 0.0
heavier 0.000122856823596
virginians 0.0
railing 0.0
eloquently 0.0
denverpost 0.0
independents 0.0
americanos 0.0
hispanos 0.0
bailouts 0.0
divisiveness 0.0
jmpalmieri 0.0
hardballchris 0.0
republicano 0.0
candidato 0.0
phillyinquirer 0.0
jesserodriguez 0.0
militarytimes 0.0
sunsentinel 0.0
ryanlizza 0.0
bretbaier 0.0
thelastword 0.0
hillaryclinto 0.0
maddowblog 0.0
boundless 0.0
enacting 0.0
gettysburg 0.0
groping 0.0
govchristie 0.0
justices 0.0
watchdogs 0.0
cavalier 0.000133390956939
succeeds 0.0
retirees 0.0
pocketed 0.0
multimillionaire 0.0
redcross 0.0
evalongoria 0.0
highways 0.0
marlee 0.0
primero 0.0
pianos 0.0
bribed 0.0
scranton 0.0
wellesley 0.0
perkins 0.0
onward 0.0
algore 0.0
candidly 0.0
trajectory 0.0
quitter 0.0
objectifying 0.0
ignoramus 0.0
disillusioned 0.0
asinine 0.0
vibrancy 0.0
arpaio 0.0
testifying 0.0
chairmen 0.0
luchar 0.0
disrupted 0.0
podemos 0.0
settlements 0.000124174044274
massacres 0.0
millones 0.0
eagerly 0.0
grandmas 0.0
dedicado 0.0
seeming 0.0
pragmatic 0.0
hashanah 0.0
porque 0.0
unidos 0.0
nuestras 0.0
primera 0.0
debemos 0.0
muchos 0.0
cuando 0.0
nuestro 0.0
inteligente 0.0
rapists 0.0
agosto 0.0
presidente 0.0
puedes 0.0
mujeres 0.0
safeguarding 0.0
indecent 0.0
motions 0.0
strengthened 0.0
eminently 0.0
innuendo 0.0
memorandum 0.0
reuterspolitics 0.0
educates 0.0
mexicana 0.0
disparage 0.0
absurdity 0.0
backdoor 0.0
affording 0.0
hardline 0.0
steelworkers 0.0
demean 0.0
immigrate 0.0
thuggish 0.0
astrid 0.0
jesuit 0.0
governorship 0.0
waterboarding 0.0
personas 0.0
stephenson 0.0
huracán 0.0
firefighter 0.0
ravages 0.0
marleematlin 0.0
scrolling 0.0
tarnish 0.0
ajentleson 0.0
roanoke 0.0
heaping 0.0
carpentry 0.0
forcefully 0.0
frankiejgrande 0.0
aprildryan 0.0
unjustified 0.0
yamiche 0.0
evacuate 0.0
disrespects 0.0
incomprehensible 0.0
jogger 0.0
vindicated 0.0
blazed 0.0
cambodia 0.000137126450117
revolutionize 0.000137126450117
welding 0.0
unbeatable 0.000126974400784
polished 0.0
saddled 0.0
interdependence 0.0
alleys 0.0
civility 0.0
vilified 0.0
disagreeable 0.0
terence 0.0
bluster 0.0
incredib 0.0
holton 0.0
hillaryforpa 0.0
hillaryforco 0.0
jes_chastain 0.0
vitalvoices 0.0
indictments 0.0
evokes 0.0
reaffirming 0.000141330032018
rebukes 0.0
minerva 0.0
peddle 0.0
starker 0.0
cascading 0.0
carolinians 0.0
señora 0.0
honrado 0.0
missionary 0.0
ranchers 0.0
denveropinion 0.0
practicality 0.0
thoughtfulness 0.0
scripture 0.0
pueblo 0.0
morningmoneyben 0.0
smalls 0.0
exemplify 0.0
eviscerated 0.0
jeffflake 0.0
helpless 0.0
sarahemcbride 0.0
indivisible 0.0
colinjones 0.0
mrjoshcharles 0.0
houstonchron 0.0
thoroughness 0.0
isolde 0.0
wonkiest 0.0
equate 0.0
dustbin 0.0
estados 0.0
newrepublic 0.0
expresses 0.0
demonizing 0.0
jeffbezos 0.0
discard 0.0
befriending 0.0
slovenia 0.0
unrelenting 0.0
salmahayek 0.0
revolves 0.0
anselm 0.0
dwells 0.0
usairforce 0.0
deride 0.0
repackaging 0.0
earmarked 0.0
evader 0.000172103493323
passpor 0.0
awaited 0.0
guterres 0.0
precinct 0.0
presidencia 0.0
unshakable 0.0
marshablackburn 0.0
comunidad 0.0
merecen 0.0
juntos 0.0
infomercial 0.0
johnstown 0.0
statewide 0.0
skyscrapers 0.0
phillydotcom 0.0
deducted 0.0
laguardiacc 0.0
annieslisttx 0.0
nickmerrill 0.0
leaninorg 0.0
missbeae 0.0
minassianmedia 0.0
natarsha 0.0
foments 0.0
ruline 0.0
steininger 0.0
michaelnutter 0.0
harren 0.0
louisa 0.0
cannell 0.0
robbymook 0.0
broward 0.0
hillaryforfl 0.0
jeanneshaheen 0.0
ericasmegs 0.0
jeremyshorr 0.0
turpin 0.0
rubycramer 0.0
singularly 0.0
joshschwerin 0.000209000191693
clionamccarney 0.0
xochitlhinojosa 0.0
adamsmith_usa 0.0
humayun 0.0
jamestaylor_com 0.0
hillaryformn 0.0
ericwms 0.0
dougmillsnyt 0.0
jencarlosmusic 0.0
hannahbfine 0.0
creynoldsnc 0.0
lefsadventures 0.0
pembroke 0.0
perceptiveness 0.0
hillaryforaz 0.0
fayetteville 0.0
entrust 0.0
daveeddiggs 0.0
petewilliamsnbc 0.0
hillary_esp 0.0
ustedes 0.0
nación 0.0
creativa 0.0
bilingües 0.0
multilingües 0.0
contribuyen 0.0
diversidad 0.0
economía 0.0
hillaryforia 0.0
estaré 0.0
discurso 0.0
síganme 0.0
detall 0.0
hopewell 0.0
temperamentally 0.0
redone 0.0
barging 0.0
machadooficial 0.0
mikereedschmidt 0.0
franklinfoer 0.0
eamonjavers 0.0
hillaryforoh 0.0
hustling 0.000143647145339
relishes 0.0
markkirk 0.0
asmamk 0.0
just_jenna 0.0
discrimina 0.0
samifayebaker 0.0
padded 0.0
wigazette 0.0
phillytrib 0.0
trivializes 0.0
condones 0.0
ellisoncampaign 0.0
barb_kinney 0.0
theriveterspod 0.0
humiliates 0.0
nickmarroletti 0.0
alli_wilber 0.0
brespolitico 0.0
jasoncherkis 0.0
sean_p_thomas 0.0
outclassed 0.0
outmaneuvered 0.0
belittling 0.0
familie 0.0
yuuuuuuge 0.0
disqualifying 0.0
brynnecraig 0.0
buffywicks 0.0
lasvegassun 0.0
cmichaelhuntley 0.0
civically 0.0
raquelwillis_ 0.0
celebramos 0.0
trayectoria 0.0
pionera 0.0
breakups 0.0
rosenbergerlm 0.0
heraldleader 0.0
jaylon 0.0
decisi 0.0
antónio 0.0
squander 0.0
presidenta 0.0
protegerá 0.0
astrid_nv 0.0
sltrib 0.0
peter_j_k 0.0
brosandprose 0.0
nicholaskitchel 0.0
mahoning 0.0
omerizer 0.0
kendallybrown 0.0
davidnakamura 0.0
chatima 0.0
tammybaldwin 0.0
mpshapiro 0.0
responsibilit 0.0
overgrown 0.0
literally_trump 0.0
imploded 0.0
rnicholasburns 0.0
disastrously 0.0
stiffing 0.0
globeopinion 0.0
degradi 0.0
languishing 0.0
demostrar 0.0
poderosa 0.0
iammarleydias 0.0
tbtimes_opinion 0.0
disloyalty 0.0
defende 0.0
vegalteno 0.0
moodysinvsvc 0.0
decisiveness 0.0
whethe 0.0
preocupada 0.0
trayecto 0.0
afectados 0.0
ayotte 0.0
empathize 0.0
lifelo 0.0
lorellapraeli 0.0
ironworking 0.0
ebeling 0.0
contribuido 0.0
ejército 0.0
inmigrantes 0.0
indocumentados 0.0
enquirer 0.000324883484144
delega 0.0
roadshow 0.0
sunsentinelopinion 0.0
resulta 0.0
insultar 0.0
construir 0.0
muralla 0.0
provoked 0.0
discretion 0.0
sdutideas 0.0
merece 0.0
respeto 0.0
enfrentar 0.0
valentía 0.0
ataques 0.0
descaro 0.0
culparla 0.0
petulance 0.0
ninhaitseng 0.0
flippantly 0.0
posteverything 0.0
_vicentefdez 0.0
azcopinions 0.0
aumentó 0.0
andrewjenks 0.0
imwithher 0.0
diferencias 0.0
onevoxdotcom 0.0
ignite_national 0.0
endorsin 0.0
mercersdairy 0.0
everyvoice 0.0
rachaelgass 0.0
galifianakis 0.0
crutcher 0.0
nyledimarco 0.0
mistreat 0.0
wellsfargo 0.0
templeuniv 0.0
sollender 0.0
honremos 0.0
tantas 0.0
contribuciones 0.0
aleatha 0.0
endeavored 0.0
legitimize 0.0
además 0.0
whistles 0.000139162517261
ugliness 0.0
jorge_silva 0.0
dnclatinos 0.0
libnofcongress 0.0
unscrupulously 0.0
contractually 0.0
impulsively 0.0
qaddafi 0.0
cancelable 0.0
cnbcopinion 0.0
jbrotherston 0.0
_bxddxss 0.0
sspiderboy 0.0
collegedems 0.0
veered 0.0
charitynav 0.0
usnewsopinion 0.0
humansofny 0.0
unfitness 0.0
steadiness 0.0
nbcusa_inc 0.0
verdadera 0.0
encuentra 0.0
hacemos 0.0
anuncio 0.0
unpresidential 0.0
unfavorably 0.0
heridas 0.0
visibles 0.0
veteranos 0.0
cuidado 0.0
panetta 0.0
experiencia 0.0
confío 0.0
exsecretario 0.0
comercio 0.0
lizromanoff 0.0
americasvoice 0.0
davidleopold 0.0
rebuked 0.0
criminalize 0.0
mentiré 0.0
inmigración 0.0
demonizar 0.0
americanlegion 0.0
sarasolow 0.0
qumber 0.0
zerlinamaxwell 0.0
hillaryforut 0.0
hillaryforga 0.0
grandtetonnps 0.0
marlondmarshall 0.0
mariatcardona 0.0
escuchamos 0.0
claramente 0.0
demonizando 0.0
segunda 0.0
tercera 0.0
rhettbuttle 0.0
hillaryformi 0.0
futuramics 0.0
louisianans 0.0
claressashields 0.0
helen_maroulis 0.0
bri_rollin 0.0
itspooda 0.0
kristihollywood 0.0
meredeetch 0.0
kersee 0.0
rodhams 0.0
bidens 0.0
possibilitie 0.0
maulama 0.0
akonjee 0.0
shotdiva 0.0
auriemma 0.0
maxlinsky 0.0
cowering 0.0
moratory 0.0
hillarycl 0.0
repudiate 0.0
fencer 0.0
bankruptcies 0.0
warrenbuffett 0.0
bishopgarrison 0.0
ajazzyworld 0.0
morell 0.0
starkest 0.0
braille 0.0
frankmugisha 0.0
confiar 0.0
distinguido 0.0
herencia 0.0
harkening 0.0
impulses 0.0
dakota_meyer 0.0
kauveri 0.0
iafftreg 0.0
laurawalkerkc 0.0
jakesherman 0.0
benediction 0.0
denigrates 0.0
ann_oleary 0.0
liberates 0.0
bombast 0.0
repcleaver 0.0
throwed 0.0
luchado 0.0
derechos 0.0
humanos 0.0
trabajadores 0.0
relent 0.0
aprendí 0.0
valores 0.0
trabajo 0.0
mismos 0.0
annella 0.0
drbiden 0.0
expedient 0.0
imangelabassett 0.0
smegielski 0.0
leinonen 0.0
driffin 0.0
buckles 0.0
insatiably 0.0
sybrina 0.0
mcbath 0.0
dontre 0.0
randibrazeau 0.0
sjbxtr 0.0
malcolmkenyatta 0.0
lankford 0.0
countrymen 0.0
countrywomen 0.0
refiere 0.0
separar 0.0
valiente 0.0
strongmen 0.0
seremos 0.0
compañeros 0.0
bienvenidos 0.0
dauntless 0.0
governorva 0.0
sherrodbrown 0.0
vicepresidencia 0.0
ilyseh 0.0
gunsense 0.0
encantada 0.0
anunciar 0.0
splintering 0.0
albamonica 0.0
criminologist 0.0
construiremos 0.0
discriminatio 0.0
endorser 0.0
sniveling 0.0
ryanegraney 0.0
baptize 0.0
convención 0.0
republicana 0.0
