chatting 4.23047267814e-05
trying 0.000201089360182
launch 0.0
moment 0.000151632320874
wonderful 0.000197645038978
seeing 0.000103292546624
recommend 0.000112239625464
anybody 0.0
podcast 0.0
challenges 4.21699480741e-05
worked 0.000108732355055
direct 0.000177970969985
others 0.000378509357392
currently 0.000179408008853
better 0.000969797814504
please 0.000277244208276
travels 0.0
social 0.000337900499596
around 0.000472465601938
people 0.000770864929477
leaving 2.84663245445e-05
morning 0.000275011275738
general 0.000322221838148
overall 0.000262165706292
damage 4.0988726031e-05
affect 4.32692037638e-05
everything 0.000300012300805
twitter 0.000601644137624
present 0.000142331622722
though 0.00111941825682
friend 0.000100544680091
watched 2.82350055682e-05
beautiful 0.0
anything 0.000355721569721
practice 0.0
helped 0.0
helpful 0.0
revive 0.0
updated 0.000158955538224
thinking 0.000229914616411
finally 5.10921369801e-05
caught 0.000112633499865
believe 0.000274270997297
already 0.00024933727027
orlando 0.0
depends 7.48264169757e-05
chance 0.000150006150403
meaning 0.000110919239987
annual 3.36117414154e-05
renewed 0.000128583688019
growing 2.99835385551e-05
probably 0.00051508292301
should 0.000132186267382
changed 0.000133727709021
history 0.000334796535551
center 0.0
museum 4.3410091453e-05
behind 0.00014919966377
pretty 0.000919658465642
really 0.00107504407788
expensive 0.0
little 0.000473740813513
earlier 0.000351039699399
forget 5.06805493516e-05
paperwork 0.0
someone 0.000730916549091
mostly 0.000189872776821
worker 0.0
safety 0.0
program 0.0
things 0.000522198823194
electrical 0.0
visiting 6.89686872031e-05
available 0.000129814185416
perfect 7.80989481502e-05
different 0.000304904202618
search 6.68438380769e-05
connect 0.0
numbers 3.12503631004e-05
person 0.000150411034406
watching 0.000100544680091
passed 6.09651016635e-05
minutes 0.000309877639872
daughter 3.02317929694e-05
average 3.58014169515e-05
positive 8.89690247679e-05
outside 5.291612667e-05
metric 0.0
looking 0.0009225479
forward 0.000128421083411
raising 0.000142790358466
afraid 3.23124438435e-05
impression 4.59360366087e-05
profile 0.000205140364508
drawing 0.0
favorite 0.0
picture 0.000106405548544
historic 0.000113245481132
instead 0.000112633499865
appreciate 8.82412157572e-05
husband 0.0
international 0.000123624732257
toddler 0.000197952308946
couldn 5.20659654334e-05
remember 0.000250010250671
holidays 3.56975896165e-05
friends 2.51361700227e-05
despite 0.000212947359109
understood 9.54375437577e-05
impossible 3.39957893676e-05
everyone 0.000325013325872
florida 0.0
always 0.000920064593247
months 0.000261033267824
moving 0.000188233759204
meeting 0.000102460186599
google 0.000188545537147
answer 7.68451399493e-05
together 0.000100274022937
included 0.0
inside 0.000338428775317
section 3.84329390465e-05
missed 0.000152041648055
button 0.000166027196631
active 0.0
longer 5.77134064307e-05
enough 0.00025272053479
projects 0.0
driving 0.0
building 0.000196573858524
enjoying 3.05667018787e-05
kennedy 0.000101505740291
tantrums 0.0
apparently 0.000225555286703
recent 0.000198279401073
gotten 0.0
amazing 7.4801181081e-05
determined 4.8228003544e-05
attention 8.49356191507e-05
progress 6.93649699473e-05
tomorrow 0.000500020501342
whenever 0.0
curious 3.9738884556e-05
george 0.000310776776104
feeling 2.61738704059e-05
excited 2.61033267824e-05
campaigning 0.000224074318302
understand 0.000109027070656
learning 0.0
special 7.56120568026e-05
secret 8.40174557833e-05
across 0.000279298899534
comparison 0.0
surprised 5.96388038309e-05
anymore 0.000127457538732
spirited 0.0
precious 0.0
rejoice 0.0
rather 8.42459393674e-05
showing 5.334672002e-05
saying 0.000522066535648
tweeted 9.91397005367e-05
updates 7.26543153791e-05
thoughts 0.000185707353833
exactly 0.000108145530683
except 0.0
getting 0.000475019476275
nothing 0.000250010250671
tweets 0.000275536859455
course 0.000748870963023
photos 3.02317929694e-05
looked 0.000170333873288
difficult 6.59072148905e-05
office 8.11091480126e-05
decisions 0.0
brought 5.54069705154e-05
biggest 0.000334796535551
thrilled 0.0
entire 2.77787246816e-05
something 0.000725029726945
closing 0.0
anyone 0.000176428132539
taking 0.00017500717547
reprint 0.0
flying 0.000219969793338
happening 0.000190797373648
sometimes 0.000137768429727
lessons 3.62211165454e-05
village 0.000150569485477
stopped 0.0
yesterday 0.000277244208276
service 0.000137395616695
serious 0.000160473250825
emails 4.32692037638e-05
wearing 2.9333394055e-05
afford 0.000121067861113
either 0.000299824444304
second 0.000579692435486
checking 0.0
volunteers 0.0
indeed 0.000375020088749
hearing 0.000195509229674
choose 0.0
another 0.000997349081081
address 0.000101121596313
display 0.0
compare 9.1250399857e-05
weekend 0.000177381922731
suggested 0.000195694473722
appear 7.57225352966e-05
anyway 3.23124438435e-05
theory 0.0
buildings 5.981271677e-05
working 0.000200008200537
bigger 0.00023466715244
treated 8.22344718653e-05
admired 0.0
retirement 0.0
laughing 5.93126831786e-05
wanted 0.000202176427832
current 0.000176966061318
grateful 0.0
friendship 0.0
family 0.000225009225604
listening 5.4809567281e-05
stream 3.43858618466e-05
sharing 0.0
double 8.49356191507e-05
especially 5.54069705154e-05
middle 0.000229598524493
waiting 0.000128075233249
definitely 0.0
walking 5.99670771102e-05
account 0.000322667334605
completely 2.96563415893e-05
thought 0.000655304492289
accept 3.19533529735e-05
possible 0.0
simple 5.81878127745e-05
manufacturing 0.0
destroyed 4.80570983309e-05
members 0.000220581626215
supposed 9.97006041708e-05
manufacturers 0.0
business 0.000215706823399
absolutely 0.0
anywhere 9.9982645459e-05
sending 5.80291739757e-05
introducing 0.0
congrats 0.0
beauty 3.58014169515e-05
community 0.000184925263703
greatest 0.000191314658648
posted 5.91504213014e-05
wednesday 0.000271338892305
explain 5.83469592183e-05
broken 9.29753474908e-05
fairly 0.00015635531672
closest 9.54375437577e-05
hoping 6.01320299024e-05
relationship 6.72234828308e-05
actually 0.000461070839696
pockets 0.0
wallet 6.18031076153e-05
pocket 0.0
argument 0.0
decent 0.000710708956974
school 0.000279495519066
throwback 5.33517467305e-05
thursday 0.000160473250825
talented 0.0
discuss 9.66665514443e-05
celebrate 0.0
celebrating 5.96388038309e-05
anniversary 6.04635859388e-05
students 0.0
corners 0.0
internet 0.0
figure 0.000179408008853
opened 7.30812126033e-05
inspired 0.0
latter 0.000112984487246
sitting 5.64700111365e-05
playing 0.000304904202618
street 0.00036014530835
points 0.000160213203599
advice 2.9333394055e-05
memory 3.45832169351e-05
forever 2.82350055682e-05
congress 0.0
imagine 0.000278541924501
problem 0.000187725536144
pulling 4.25764957229e-05
furniture 0.0
keeping 8.37896698601e-05
dressed 4.03559537042e-05
chinese 4.03559537042e-05
unlike 0.0
allowed 9.85829827897e-05
otherwise 0.000106473679555
afternoon 0.000117654954343
planned 7.18113592453e-05
images 4.39817628513e-05
noticed 0.000118851861587
expense 0.0
differences 0.0
difference 5.46613310423e-05
editor 4.11172359326e-05
intent 0.0
suppose 0.0
inspiration 0.0
letting 0.0
system 0.000125001452402
almost 0.00017500717547
details 2.73306655212e-05
experience 5.22066535648e-05
living 7.83099803472e-05
worries 0.0
weather 6.39067059469e-05
bright 0.0
understands 0.000104236877814
normal 3.35166490982e-05
launching 4.07336816349e-05
backyard 0.0
pointed 5.17205646486e-05
before 2.71096275268e-05
monday 0.000182723287477
example 9.91397005367e-05
science 0.0
tweeting 0.000114175646144
forgot 0.000156685788205
disaster 3.83175485349e-05
happens 5.17857775303e-05
silence 0.0
learned 0.0
congratulations 2.75536859455e-05
natural 3.54912265182e-05
babies 0.0
mission 3.38992198846e-05
surprising 4.03559537042e-05
reference 0.00029613308747
forgotten 0.000111576511481
setting 7.09824530364e-05
appeared 0.0
reminds 7.07773672973e-05
fantastic 0.000117977374212
loving 0.0
complete 0.0
daniel 4.39817628513e-05
rewarding 0.0
nearly 6.57219885265e-05
spirit 0.0
launched 0.0
finding 3.05667018787e-05
stories 8.11091480126e-05
including 0.00016667234809
wouldn 0.000431413646798
choice 0.00010669344004
offended 5.57850885582e-05
conversation 6.07973672001e-05
disrespectful 0.0
making 0.000174536089189
expect 0.000179901231331
traits 0.0
discussion 3.64336529728e-05
believes 4.3837608183e-05
response 5.88274771715e-05
brings 3.01487658117e-05
seasons 4.72197596022e-05
anytime 0.0
protected 0.0
location 0.0
needed 2.667336001e-05
seriously 0.000193399309605
emergency 0.0
justify 0.0
spending 0.0
groups 4.03559537042e-05
condition 0.0
childhood 0.0
modern 7.20207625915e-05
welcome 0.000126360267395
moments 6.21553552208e-05
totally 0.000173140219292
running 0.000262446147229
strong 0.000103014318631
respond 3.77484937106e-05
message 0.000159177731857
coming 0.000374005905405
thankful 0.0
issues 0.000238555215323
challenge 2.74047836405e-05
intolerance 8.28725335958e-05
happen 0.000305727373699
giving 0.000126360267395
turkey 0.0
excellent 0.000260681651805
limits 0.0
contractors 8.50362116276e-05
common 0.000123624732257
pressed 0.0
healthcare 0.0
benefits 3.92560225758e-05
situation 0.0
workers 4.1638021682e-05
company 5.66237461005e-05
savings 0.0
health 2.9494343553e-05
insurance 0.0
change 0.000250010250671
silver 4.08608768515e-05
august 0.000176432809504
crying 3.93758618952e-05
mental 0.0
carrier 0.0
decide 3.09917824969e-05
happened 0.000184208926148
parking 0.0
demand 0.0
sacrifice 0.000105045565896
personal 0.000108732355055
rewards 0.0
beyond 0.00016757933972
contributing 7.27899906291e-05
passion 3.78612676483e-05
question 0.00015327641094
doctor 0.00015327019414
sacrifices 0.0
respected 0.0
losing 9.24626318513e-05
strain 7.1885650582e-05
respect 0.000109322662085
shouldn 8.97040044263e-05
career 5.80291739757e-05
visited 3.92560225758e-05
reason 0.00015789336527
simply 0.0
audience 0.000103749650805
sacrificed 0.0
employees 4.78873597153e-05
accounts 4.17699403501e-05
attacked 0.0
involved 5.81878127745e-05
extreme 4.32692037638e-05
valuable 4.68925626364e-05
knocked 0.0
reality 2.97377380961e-05
mention 0.000154104386419
without 0.000277244208276
problems 6.16417545676e-05
timing 0.0
described 9.61141966617e-05
pattern 0.0
online 8.06716110874e-05
background 0.000112908686736
buying 0.000135596879538
called 0.000502723400454
scientists 0.0
checked 0.000106473679555
heading 0.000148688690481
paying 6.49879055124e-05
planning 3.24939527562e-05
opposite 8.19774520619e-05
through 0.000105250704101
reached 3.70823839548e-05
changing 0.000214557970677
explains 0.0
harder 3.47821508811e-05
demands 0.0
silent 0.0
speaking 8.58652241004e-05
november 0.0
ordinary 9.89168097237e-05
number 7.68451399493e-05
stunning 0.0
atlantic 9.68001830032e-05
stupid 0.000347821508811
personality 5.05637695334e-05
grandparents 0.0
unless 0.000308208772838
calling 5.24892294457e-05
painting 0.0
focused 0.0
ridiculous 0.0
package 0.000134594081543
rooted 0.0
option 0.000108663349636
knowing 6.91664338702e-05
former 0.000628485123822
actual 0.0
tracked 0.0
suffers 0.0
schedule 0.0
friday 0.000582826317544
failure 0.0
achieve 0.0
winner 5.55574493632e-05
doctors 0.0
becomes 0.0
directly 0.0
quality 0.000161562219218
tearing 0.0
father 0.000170797947267
wishes 0.0
collar 0.0
caring 5.01898284923e-05
ground 0.000194418196135
matter 0.000187725536144
strategy 0.000207533995789
themselves 0.000131082853146
asking 0.00015874838001
usually 0.000133310193945
thankfully 0.0
reacts 6.81796408653e-05
period 0.000111907331676
parents 5.99670771102e-05
balance 7.77998627489e-05
resist 4.73849868588e-05
mobile 4.15067991578e-05
computer 0.0
reminded 4.3410091453e-05
impressed 0.000113583802945
dinner 5.52569456015e-05
suffering 0.0
single 7.72607389734e-05
parent 0.0
approved 0.0
energy 5.94754761923e-05
preview 0.0
meltdown 0.0
remind 3.47821508811e-05
emotional 7.20207625915e-05
sounded 0.000104236877814
status 3.76362289122e-05
update 8.75204388275e-05
outage 8.42938696169e-05
customers 0.0
holding 0.0
causes 4.44193098109e-05
eating 0.0
picked 6.2327740909e-05
missing 5.334672002e-05
surprise 8.02366254125e-05
officially 5.83469592183e-05
global 0.0
follow 0.000226225530204
opinion 0.000260681651805
faster 0.0
backwards 0.000107553654698
design 0.0
website 6.09651016635e-05
widely 0.0
origin 0.000124804664095
breaks 3.29536074452e-05
allows 4.70556229625e-05
promoting 4.29898007049e-05
volunteer 0.0
convince 0.0
negative 3.64336529728e-05
official 2.5823136656e-05
jersey 0.0
mistake 3.45832169351e-05
fixing 0.0
translated 0.0
ginger 0.0
peaceful 0.0
thinks 2.91734796092e-05
hospital 3.64336529728e-05
lauren 0.0
easier 3.38992198846e-05
excluded 6.89567856957e-05
successful 3.41900607513e-05
leadership 0.000156547032111
agrees 4.91006057302e-05
decline 0.000163948288605
turnout 5.44283915406e-05
showed 0.0
trumps 0.0
circle 0.0
engage 4.98214275227e-05
suited 0.0
experienced 8.71035638509e-05
interested 0.000224925751571
effect 3.29536074452e-05
success 5.64700111365e-05
ladies 3.42877685808e-05
dreams 0.0
protect 0.0
explanation 8.94306887722e-05
occasion 0.000114440197645
medication 0.0
planet 0.0
detached 9.74887957244e-05
essence 0.0
control 0.000111719559813
happier 0.0
likely 0.000334219190384
coincidence 0.0
cancel 0.0
project 8.47050167047e-05
laying 5.17205646486e-05
lesson 0.0
requires 0.0
healthy 0.0
treating 0.0
opening 0.000135915443819
statement 9.72090980676e-05
enjoyed 2.96563415893e-05
animal 3.75244686763e-05
nervous 4.11172359326e-05
pounds 0.000215107309395
wonder 0.000108438510107
matters 9.85829827897e-05
shared 0.0
somehow 4.03559537042e-05
benefit 3.1337157641e-05
terrible 6.37287693662e-05
continues 0.0
improve 0.0
equally 0.0
appointment 0.0
session 6.53535926104e-05
routine 0.0
exciting 2.99835385551e-05
corner 0.0
imagination 0.00011962543354
decides 0.0
cheering 0.0
spring 6.39067059469e-05
fallen 4.39817628513e-05
frequently 0.0
places 0.000149097009577
thousands 0.0001099440649
informed 0.0
typical 4.65696151021e-05
continue 8.65701096461e-05
attend 3.76362289122e-05
excuse 3.62211165454e-05
settle 4.65696151021e-05
female 6.66550969727e-05
recovery 4.13762654689e-05
treasured 0.0
grandma 0.0
closer 3.1337157641e-05
beginning 0.0
everywhere 0.0
scenes 6.37287693662e-05
bought 9.1700105636e-05
multiple 0.0
slogan 6.12179838983e-05
wishing 0.0
covered 6.48060653784e-05
remove 0.0
choices 0.0
dealing 4.3410091453e-05
teacher 7.46048877842e-05
training 0.0
passing 6.76060479576e-05
stopping 0.0
become 0.000234929941041
spread 0.0
season 8.26610578364e-05
putting 7.87338441686e-05
weight 0.0
quietly 0.0
necessity 0.0
knocks 7.05879677776e-05
effects 0.0
returns 0.0
expected 0.000393815586467
resources 4.91006057302e-05
bucket 0.0
struggling 0.000173076815055
register 0.0
promotion 5.42093010429e-05
solution 0.0
manage 9.1250399857e-05
transition 4.84000915016e-05
gained 0.0
define 0.0
somebody 7.46048877842e-05
contract 4.32692037638e-05
ignorant 0.0
managers 0.0
credit 3.08208772838e-05
brothers 0.000114952645605
grandkids 0.0
computers 0.0
physical 4.1638021682e-05
series 0.000135915443819
offensive 4.53182008362e-05
fighting 0.000113865298178
donald 0.000107717038868
mexico 0.0
sandra 0.0
police 0.000128888735259
represent 0.0
president 0.000194451072771
talking 0.000325890574547
america 0.0
michigan 0.0
everybody 3.08208772838e-05
judgment 0.0
carolina 0.0
amount 0.000105250704101
houston 0.0
everyday 0.0
michael 0.000169410033409
protecting 8.91337731365e-05
providing 4.68925626364e-05
attitude 8.85452074359e-05
million 2.62446147229e-05
election 0.00182767021088
honesty 0.0
targeting 0.0
telling 5.67779577628e-05
correct 9.66665514443e-05
attack 0.000322221838148
elementary 0.0
americans 0.0
killed 0.00013927096225
horrible 0.0
salute 5.19187060207e-05
coverage 0.000305092978961
united 0.0
college 3.12503631004e-05
refuse 4.48646938478e-05
preach 0.0
hillary 0.0
clinton 0.000245165261109
presidency 0.0
throws 9.74957638699e-05
manning 0.0
american 5.30592439522e-05
deserved 3.82026910068e-05
humble 9.21858485249e-05
remain 0.000281478862641
founder 0.0
illegal 4.1638021682e-05
arizona 0.0
opinions 4.28512676969e-05
speeches 0.0
scared 0.0
salary 0.0
pieces 7.39461599917e-05
taught 7.37285087854e-05
thompson 0.000168762851432
straight 0.000138517426288
blocking 0.000141166868888
answers 3.22221838148e-05
created 6.01320299024e-05
record 0.000182723287477
stamina 0.0
weapon 5.07528701453e-05
bottom 3.35166490982e-05
athletes 0.0
registered 0.0
minnesota 0.0
committed 3.93758618952e-05
journey 9.74818582686e-05
snapchat 0.0
peoples 0.0
disrespect 0.0
brother 9.14476524953e-05
prayers 3.91367580277e-05
boston 0.0
korean 0.0
church 0.000113923666093
advantage 0.0
motivation 0.0
honestly 0.0
defeat 0.000134594081543
lifetime 0.0
captain 8.48804799625e-05
retired 0.0
country 0.000206585093248
ending 3.36117414154e-05
dressing 0.0
finish 9.22075894426e-05
ranked 0.0
employee 0.0
university 7.16028339031e-05
dreamed 0.0
prayer 0.0
nominated 0.0
responds 5.03760961096e-05
national 0.000378509357392
reform 0.000197833619447
shooting 0.0
cancer 6.28485123822e-05
deserve 3.06511386682e-05
mother 0.0
creating 3.43858618466e-05
powerful 6.09651016635e-05
wisdom 0.0
breaking 0.000403358055437
dollars 0.0
questions 0.000102460186599
racist 9.00298914574e-05
charged 0.000189539947435
soldiers 0.0
performance 5.78710395936e-05
reading 0.000106118487904
denver 0.0
graphic 0.0
garner 0.0
create 2.89355197968e-05
jordan 0.0
admire 0.0
nobody 3.06511386682e-05
government 0.000785677378245
politics 0.000672384989324
blessing 5.29338106635e-05
wrestling 6.09305054292e-05
charities 0.0
donate 0.0
sample 0.0
bringing 5.61639595783e-05
deserves 6.64670694472e-05
regret 0.0
victim 4.75513193226e-05
according 6.6279750125e-05
threat 0.000111576511481
heaven 7.92345743914e-05
heroin 0.0
honest 0.000186466065662
became 9.37510893013e-05
decision 0.000155819352273
counting 7.09824530364e-05
signing 0.000131074898921
embrace 0.0
pressure 3.39957893676e-05
celebrities 0.0
facebook 5.34910836083e-05
kardashian 0.0
divided 5.46494295349e-05
lawyer 0.0
lebron 0.0
campaign 0.000232116695903
determine 0.0
whether 0.000126397495564
praise 4.24402399813e-05
defined 5.44283915406e-05
proposes 0.0
discover 0.0
factory 5.09434198182e-05
arrested 0.0
estate 0.0
proposed 0.0
comments 0.000121930203327
teenage 0.000164617349878
wounded 6.42918440096e-05
endorsement 0.0
williams 0.0
custom 0.0
troops 5.17205646486e-05
singer 0.000146243645805
future 0.000154521477947
struggled 0.0
sister 6.72234828308e-05
sabotage 0.0
athlete 0.0
warrior 0.0
cheating 0.0
voting 0.000277387895554
succeed 0.0
religion 5.17205646486e-05
century 0.000122966178093
serving 8.59796014098e-05
because 3.60103812958e-05
cleveland 0.0
hiding 4.0988726031e-05
breath 0.0
choosing 0.0
lawrence 0.0
instagram 0.0
opponent 5.39921240238e-05
detroit 9.28194013125e-05
honored 0.0
nonsense 0.0001401916938
lifting 0.0
proven 0.0
talent 3.33275484863e-05
knocking 6.12179838983e-05
russian 0.0
brains 0.0
oakland 0.0
regardless 0.000176507032305
skills 0.0
citizens 0.0
california 0.0
commitment 0.0
seconds 0.000133687676154
seeking 8.79635257025e-05
threatening 0.0
listen 2.5823136656e-05
whatever 0.000286998155617
mexicans 0.0
satisfied 0.0
fought 0.0001214436797
compete 0.0
injured 0.0
billion 3.58014169515e-05
ceiling 0.0
absolute 0.000146592086534
appearance 0.0
bigsean 0.0
handle 0.0
promise 2.96563415893e-05
nightclub 7.47037508726e-05
hosting 0.0
actors 0.0
generation 6.85755371616e-05
criminal 9.54375437577e-05
tuesday 0.000141944894407
ronald 6.63368267773e-05
locker 0.0
struggle 3.87823585283e-05
degree 4.45668865682e-05
entering 0.0
leader 0.000749459748939
pageant 0.0
toughest 0.0
character 3.34219190384e-05
mirror 0.000122201044905
interview 0.000127043417757
whistle 0.000127291843407
obviously 0.000105250704101
battle 0.000145072934939
motivate 0.0
destroy 0.0
relentless 0.0
winning 0.00021338688008
charlotte 0.0
accomplished 0.0
stepped 0.0
defense 0.0
appeal 0.0
causing 5.27274475653e-05
arabia 0.0
shipped 0.0
society 0.000137937374406
officers 0.000264669053318
brooklyn 0.0
marked 0.0
incredible 5.39267058498e-05
poster 7.92345743914e-05
wealthy 0.000115939805364
memorable 0.0
officer 0.000135498333001
minute 8.44751248991e-05
luther 0.000238163791314
foreign 0.000165505061876
pregnant 0.0
champions 4.68925626364e-05
virginia 0.0
tackle 0.000185638802625
unarmed 0.0
orange 0.000112239625464
policy 0.0001099440649
comedy 0.0
reminder 3.00660149512e-05
evidence 0.000222494303729
lighten 0.0
presidents 0.0
kicked 0.0
sticker 0.0
accused 9.89168097237e-05
intentions 0.0
facing 0.000370055123394
freedom 3.47821508811e-05
actions 0.0
debating 0.0
outcome 0.000237756596613
utterly 0.000268884136744
mississippi 0.0
clearly 0.000411936165985
download 0.0
sidelines 0.0
invite 0.0
legally 0.0
central 0.000131814429781
washington 0.0
veteran 0.000245503028651
division 0.0
veterans 0.0
stronger 0.0
promised 0.0
worried 3.61155256834e-05
security 0.0
immediately 3.48822178597e-05
television 0.0
entitled 5.42093010429e-05
racism 0.0
highest 0.000105859685703
approve 0.0
turning 0.000187502178603
legacy 0.000118851861587
ignore 0.000143205667806
choked 0.0
backing 0.000155161693946
helping 0.000137395616695
collector 0.0
willing 0.0
basically 3.64336529728e-05
return 0.000248656255207
unacceptable 0.0
feelings 0.0
network 0.000279057742878
language 0.000104948067451
invest 9.96428550454e-05
coward 0.0
schools 0.000425894718218
patients 0.0
foster 0.000827529034378
children 0.0
nation 0.000157121280955
review 2.97377380961e-05
between 0.0
knowledge 0.0
begins 0.0
tenure 0.0
faithful 0.0
highlights 0.0
shoulder 0.0
produced 0.0
consider 0.000165699375312
shattered 0.0
latest 0.000378509357392
beyonce 0.0
signed 0.000165322115673
millionaire 0.000133389251818
shelter 0.0
charity 0.0
germany 0.0
advance 0.0
proved 0.0
married 3.69730799958e-05
millions 6.76060479576e-05
blessings 0.0
indonesia 0.0
fights 4.54712266153e-05
dollar 0.0
rigged 0.0
conduct 0.000287337649127
johnson 0.0
howard 0.0
turned 2.74047836405e-05
criticism 4.64097006562e-05
stomach 0.0
upgrades 0.0
jackie 0.0
relevant 0.000133257929433
charge 0.000242082518546
ticket 3.35166490982e-05
steady 6.00874887439e-05
indian 0.0
turner 0.0
sanders 0.0
includes 3.71921704935e-05
survivor 0.0
dealers 0.0
collection 3.42877685808e-05
against 5.50974886954e-05
joyner 0.0
impact 0.000100265757115
families 3.19533529735e-05
welcoming 0.0
hitting 0.0
announced 9.11960508002e-05
granted 9.57747194306e-05
decided 0.0
itself 4.24402399813e-05
selfish 0.0
mexican 0.0
respects 0.0
guarantee 9.7847236861e-05
beliefs 0.0
citizen 0.0
states 9.45349826636e-05
denied 0.0
drought 0.0
memorial 0.0
decades 8.02145710513e-05
trayvon 0.0
landed 7.8036125527e-05
pastor 0.0
ultimate 3.62211165454e-05
weekends 0.000116449894156
episode 0.0
spikes 0.0
engaged 0.000107126757473
financial 4.39817628513e-05
payments 0.0
tolerant 8.08821427504e-05
symposium 0.0
kansas 0.0
agreement 0.000138752424105
source 0.00028066854427
backbone 0.0
dismiss 0.0
midnight 0.000101121596313
homework 0.0
joining 8.82412157572e-05
reasons 5.81878127745e-05
talked 9.42727685733e-05
released 2.90939063872e-05
reaching 0.0
release 0.0
existing 0.000100752192219
models 0.0
pageants 0.0
helmets 0.0
scheme 0.00010929885907
scholarship 0.0
stacked 0.0
speech 5.99670771102e-05
standing 0.000256895203824
higher 0.000134066596393
purple 0.0
justice 0.0
served 3.77484937106e-05
speaks 0.0
backup 0.0
allegedly 0.0
purchase 8.57025353937e-05
millionaires 0.0
consideration 6.36459217033e-05
strength 0.0
incredibly 0.0
private 3.20426407198e-05
ignored 4.77187718788e-05
neighbors 0.0
apologizes 0.0
beings 0.0
minimum 5.15239896279e-05
direction 0.000114952645605
enemies 0.0
exclusive 2.96563415893e-05
prison 0.0
himself 4.01072855256e-05
contributes 0.0
investigation 4.60929242625e-05
teaching 0.0
disgusting 0.0
philly 0.0
rights 6.74143975422e-05
cheers 0.000154661355873
maintain 0.0
overcome 0.0
flawless 0.0
unique 0.0
neighborhood 0.0
dating 0.0
handed 0.0
victory 0.000214185537699
lifted 6.1508824765e-05
greatness 0.0
muslim 0.0
terrorist 0.0
productive 0.0
tribute 6.85755371616e-05
deadspin 0.0
threatened 5.35633787366e-05
horror 0.0
warning 0.00010834657705
convention 0.0
understanding 7.20207625915e-05
action 0.0
having 0.0
afghan 0.0
announces 0.0
commencement 0.0
speaker 0.0
graduation 0.0
honors 0.0
produce 0.0
apologize 0.0
insult 0.0
continued 0.0
letter 0.000123283509135
discussed 8.91337731365e-05
therapy 5.23197890809e-05
untrue 6.56363125487e-05
written 0.000152412754159
existence 0.000212567602679
essential 0.0
results 0.000294091166747
initiative 0.0
disease 0.0
marching 0.000107553654698
suggest 7.73306779365e-05
georgetakei 0.0
ensure 0.0
democrats 0.0
marched 0.0
foundation 0.000106782581991
access 3.07358631475e-05
writes 4.07336816349e-05
student 7.18113592453e-05
colorado 0.0
medical 0.0
medicine 0.0
tremendous 0.0
nytimes 0.0
kindness 0.0
public 0.000348175043854
cannot 0.0
reveals 3.73024438921e-05
invented 0.0
threatens 5.77174476138e-05
candidate 0.000635822152896
persistence 0.0
sexual 0.0
illustration 0.0
measure 4.57801325831e-05
compared 4.31291098123e-05
headline 0.000273957306194
reflect 0.0
answering 0.0
streaming 0.0
leaders 0.000145734611891
supreme 0.0
nominee 0.0
immigration 4.64097006562e-05
policies 4.53182008362e-05
laundering 0.000380475018377
administration 0.000566637115226
defend 4.08608768515e-05
communicating 0.0
excitement 0.0
funding 3.98610794487e-05
climate 4.23047267814e-05
transfer 5.50974886954e-05
conspiracy 0.0
activist 0.0
horrifying 0.0
freely 0.0
retreat 0.0
daughters 0.0
compelling 0.0
platform 0.000158469148783
hamilton 0.0
futures 0.0
huffingtonpost 0.0
headlines 0.000138278772787
january 0.0
grants 0.0
unprecedented 0.0
relationships 5.21184389068e-05
philadelphia 0.0
diversity 9.21858485249e-05
funded 0.0
secure 4.56251999285e-05
income 9.18720732175e-05
universal 0.0
contributed 0.0
hurricane 0.0
fundamental 0.0
countries 0.0
linked 9.31392302042e-05
african 4.60929242625e-05
improved 0.000197115447067
unclear 0.0
provide 3.66480216334e-05
livestream 0.0
addresses 5.84826344683e-05
enhance 0.0
companies 8.27525309378e-05
proposal 0.0
potential 0.000103453030805
discrimination 0.000116449894156
connected 0.0
drives 4.78873597153e-05
attending 0.0
filled 0.0
education 0.000201670448492
addressed 0.0
mentioned 0.000183779514883
famous 0.00010315758554
resistance 0.000165973747825
exists 9.28194013125e-05
demonstrated 0.0
officials 4.39817628513e-05
instructions 6.27074476624e-05
transmission 8.35730478244e-05
olympics 4.42726037179e-05
ability 7.26543153791e-05
political 0.000859234006837
director 3.11638704545e-05
contains 0.00024960932819
sponsored 0.0
autism 0.0
previously 4.98214275227e-05
prevent 0.0
capacity 5.74675298255e-05
donations 0.0
william 8.46094535629e-05
editors 0.0
passionate 0.0
solving 0.0
innate 0.0
treatment 0.0
critical 0.000119216653668
feeding 0.0
preparing 4.17699403501e-05
depend 0.0
capable 5.13289563879e-05
bridge 0.000120693926335
systematically 0.0
becoming 9.61279221593e-05
embraced 0.0
literacy 0.0
lawyers 5.21184389068e-05
stigma 0.0
malaria 0.0
standard 0.000144462102734
hiring 0.0
remains 0.000154661355873
fellow 9.50621921503e-05
defending 8.54270043773e-05
quotes 0.0
pushes 6.70576485698e-05
luxury 0.0001819389375
admitted 0.0
colleagues 0.000366241060665
failed 7.41647679096e-05
independent 0.000154195470045
politically 0.000110194977391
driven 4.53182008362e-05
agenda 0.000585194294473
result 0.000396114194253
implications 5.84826344683e-05
insider 0.0
pakistan 0.0
solutions 0.0
trusts 0.0
indiana 0.0
filling 0.0
humility 0.0
clicks 0.0
disagree 0.000115996016905
claims 0.000521394711833
editorial 5.21184389068e-05
mistakes 0.0
offered 8.22344718653e-05
passionately 0.0
justification 0.0
inspiring 3.37071987711e-05
counter 4.72197596022e-05
shaped 0.0
retroviral 0.0
majority 0.000502830751054
approach 7.43843409871e-05
nature 0.0
concern 0.0
server 0.0
berniesanders 0.0
shameful 0.0
experiment 0.0
massive 0.000158436986917
promises 0.0
colored 0.0
consequences 0.0
whatsoever 0.0
proposals 0.0
guesses 0.0
bernie 0.0
interviewed 0.000120693926335
pregnancy 0.0
secretary 4.35517819254e-05
measures 5.48724499592e-05
vastly 0.0
reduce 0.0
compassionate 0.0
distinguished 0.0
dangerous 3.35166490982e-05
influence 8.1721753703e-05
letters 4.62508080349e-05
implicit 0.0
saving 0.0
revelations 0.0
incident 5.15239896279e-05
universe 0.0
victims 0.0
milestone 0.0
perfectly 0.000113923666093
exercise 4.35517819254e-05
receive 3.51848578301e-05
reputation 0.0
economics 0.0
disclosure 0.0
receives 0.0
terrific 8.79635257025e-05
collected 0.0
campus 0.0
founders 0.0
profiling 0.0
systemic 0.0
studying 0.0
necessary 3.84329390465e-05
inaccurate 6.46212079059e-05
breast 5.57850885582e-05
debate 0.000160661251122
suddenly 0.0
conflict 0.000155756118062
interest 0.000105250704101
meanwhile 4.3837608183e-05
indefensible 0.0
recall 0.000285307915936
rating 0.0
nominate 0.0
outstanding 4.28512676969e-05
devastating 0.0
illness 0.000108856783081
troubling 0.0
romney 0.0
appears 0.000165505061876
breathe 0.0
abroad 0.0
spanish 0.0
profit 4.87478819349e-05
reviews 4.48646938478e-05
republican 9.85577235337e-05
presidential 0.0
candidates 0.000253019688445
politicians 0.000227356133077
identified 0.0
epidemic 0.0
displaced 0.0
greater 4.07336816349e-05
absurd 0.0
deadline 4.02313087784e-05
height 0.0
sisters 4.75513193226e-05
nuclear 4.41267580762e-05
stress 0.0
leading 0.000190124384301
restored 0.0
conditions 4.68925626364e-05
however 3.96172871957e-05
achieved 0.0
member 0.00041066751677
examples 0.000106283801339
diverse 0.0
suicide 4.92788617668e-05
contributions 5.50974886954e-05
largest 7.87517237903e-05
increase 0.000121821401175
targeted 0.0
regulators 0.0
provided 0.0
element 0.000191900356942
effectively 0.0
population 0.000142154960576
rising 0.000160925235114
indication 0.0
versus 0.000222215078328
believed 0.0
dynamic 0.000216837204172
invasion 6.39667856472e-05
primary 4.54712266153e-05
provides 0.0
environment 0.0
confirmed 7.26543153791e-05
behavior 0.0
introduced 9.51026386453e-05
contain 0.0
communities 4.75513193226e-05
worldwide 4.15067991578e-05
responsible 0.0
household 5.60185795754e-05
apparent 0.0
munich 0.0
alternate 0.0
expressed 0.0
movement 0.000133310193945
declared 0.00010929885907
hundreds 0.000247478480527
information 0.0
easily 3.67559029767e-05
untreated 0.0
october 3.48822178597e-05
quantify 0.0
scales 0.0
investigating 6.00874887439e-05
innovation 0.0
perspective 0.0
rivals 0.0
interests 0.00018822249185
toledo 0.0
extraordinary 8.43398961482e-05
gingrich 0.0
describing 0.0
eliminate 0.0
obligation 0.0
gender 0.0
committee 8.1721753703e-05
preventing 0.0
numerous 0.0
unusual 5.27274475653e-05
improving 0.0
practices 0.0
cemetery 7.78825335472e-05
questioned 0.0
affecting 0.0
ferrell 0.0
genius 6.6279750125e-05
warren 0.0
organizers 0.0
regularly 5.31419006697e-05
ceilings 0.0
sexism 6.06463125001e-05
prepared 0.000150993974843
burden 0.00024840365958
foreignpolicy 0.0
county 0.000138278772787
uniform 0.0
newyorker 0.0
anthony 0.0
reflecting 0.0
grandson 0.0
banning 0.0
considered 0.000115996016905
chosen 4.70556229625e-05
outright 0.0
screenings 0.0
naming 0.0
conventions 0.0
reproductive 0.0
ignores 0.0
focusing 0.0
sensible 0.0
concluded 7.7323709791e-05
performed 0.0
divide 0.0
dismissed 0.0
compromise 6.00874887439e-05
crucial 4.75513193226e-05
weakness 0.0
barrier 0.00012301764953
effective 4.15067991578e-05
wealth 0.0
underway 0.0
israel 0.0
overwhelming 0.0
assault 0.0
citing 0.000247212430461
protection 0.0
prisoners 0.0
photographing 0.0
traveled 0.0
holder 0.0
seemed 0.000134594081543
concludes 0.0
determination 0.0
tested 0.0
lacking 6.66946259089e-05
machine 3.36117414154e-05
honoring 0.0
contrary 0.0
tolerance 0.0
michelle 9.61141966617e-05
assumed 6.00874887439e-05
programs 0.0
closely 0.0
politico 6.30163536302e-05
inspire 0.0
lyrics 4.67305646001e-05
judges 0.0
federal 4.65696151021e-05
maryjblige 0.0
tuning 5.50974886954e-05
striving 0.0
poland 0.0
september 0.0
manchester 9.06364016724e-05
checks 0.0
remarkable 4.29898007049e-05
mharrisperry 0.0
immoral 0.0
fiction 0.0
process 0.000127102934284
anxious 0.0
destructive 0.0
nmaahc 0.0
performances 4.89236184305e-05
whitehouse 0.0
flotus 0.0
crisis 7.66350970698e-05
marriage 8.62582196245e-05
emotions 0.0
confidence 3.90180627635e-05
voters 0.000213567510943
comparing 5.50974886954e-05
oldest 0.0
empirefox 0.0
chancetherapper 0.0
songwriter 0.0
literally 3.08208772838e-05
onstage 0.0
believing 0.0
hillaryclinton 0.0
citizenship 0.000123606215231
counted 0.0
hillaryfornc 0.0
raleigh 0.0
discusses 0.0
johnlegend 0.0
apprentice 0.0
acknowledge 0.0
conservative 4.62508080349e-05
economists 0.0
buzzfeed 0.0
puppet 0.0
hombres 0.0
republic 0.000157568348844
homecoming 0.0
andersoncooper 0.0
muslims 0.0
katyperry 0.0
bragging 0.0
treats 0.0
qualified 0.0
islamophobia 0.0
debates 0.0
endorsements 0.0
counts 8.27525309378e-05
theellenshow 0.0
festival 0.000146592086534
encouraged 0.0
stylish 0.0
disregard 0.0
jtimberlake 0.0
backstage 0.0
barack 5.53245826082e-05
joined 6.13022773364e-05
terrorism 0.0
pushing 3.98610794487e-05
hopeful 0.0
mentions 0.0001869222584
teamed 0.0
exclusively 5.11354409317e-05
aliciakeys 0.0
kingjames 0.0
muhammad 0.0
refused 0.0
characters 0.0
express 7.70977350223e-05
gratitude 0.0
ugliest 0.0
throughout 3.94962815524e-05
awkward 8.30135983155e-05
shining 0.0
fighter 0.0
accepting 0.0
applemusic 0.0
reveal 3.63271576896e-05
stands 6.91664338702e-05
native 0.0
announce 8.68065593904e-05
dorothy 0.0
haters 5.2522782948e-05
jessetyler 0.0
shondarhimes 0.0
lavernecox 0.0
broadway 0.0
disabilities 0.0
adoption 0.0
touched 0.0
corruption 0.00011962543354
violence 7.30812126033e-05
leedanielsent 0.0
delivered 8.09624531335e-05
jasmine 0.0
independence 0.000900298914574
square 0.000101121596313
alongside 4.77187718788e-05
privilege 0.0
secondary 6.5293319378e-05
staggering 0.0
seventh 0.0
tennis 5.48724499592e-05
sweeping 6.42918440096e-05
footage 0.0
overseas 5.46494295349e-05
spoiler 0.0
theirs 7.27899906291e-05
offering 8.24928268424e-05
construction 0.0
spends 0.0
detail 4.57801325831e-05
cabinet 5.01898284923e-05
earnings 0.0
pleased 4.11172359326e-05
gravity 0.0
statements 0.0
decade 0.000272299519621
bigotry 0.0
belong 0.0
trillion 0.0
backed 0.000197833619447
operations 0.0
breakthroughs 0.0
values 9.09424532306e-05
senator 0.0
removing 0.0
wondered 4.80570983309e-05
introduces 0.0
makers 5.67325025995e-05
measured 0.0
pillars 9.51187545943e-05
instrument 0.0
shares 4.01072855256e-05
individual 8.40717918803e-05
applications 5.72200988225e-05
prepares 0.00024960932819
ceremony 0.0
expanding 0.0
merger 0.0
newspaper 9.31392302042e-05
detailed 5.50974886954e-05
tuition 0.0
childcare 0.0
thoroughly 0.0
adviser 0.0
matthew 9.51026386453e-05
affected 0.0
newspapers 0.0
corporate 0.0
economy 4.28512676969e-05
presenting 0.0
spoken 8.32760433639e-05
richer 0.0
during 0.0
combat 0.0
touting 0.0
competitive 5.00049457773e-05
prominence 0.0
trifecta 0.0
fashioned 0.0
boasts 0.0
ripped 0.0
belief 0.0
heroes 0.0
disturbing 0.0
russians 0.000243722021717
intelligence 0.0
deepest 5.74675298255e-05
regrets 0.0
complicated 0.0
internships 0.0
adults 0.0
describe 3.61155256834e-05
equality 0.0
announcement 0.000127813411894
interfere 0.0
terrifying 0.0
nationwide 0.0
manager 0.000351162564872
questionable 6.81796408653e-05
enhanced 0.0
services 0.000299958873878
delighted 0.000259593530104
golfer 0.0
regarding 0.0
teachers 4.45668865682e-05
suggests 0.0
phrase 4.67305646001e-05
immigrants 0.0
revolution 0.0
universities 0.0
twelve 0.0
principle 5.50974886954e-05
releases 4.59360366087e-05
malarkey 0.0
library 0.000140677687909
advisor 0.000173909708046
deadlines 0.0
encouraging 4.91006057302e-05
circuit 0.0
humanitarian 0.0
reliant 0.0
assistance 0.0
swimmer 0.0
hinges 0.0
concrete 7.05879677776e-05
accepted 4.1638021682e-05
confronted 0.0
comprehensive 0.0
pushed 0.0
unending 0.0
occasionally 0.0
guardia 0.0
donation 0.0
nomination 4.53182008362e-05
paintings 0.0
significantly 0.0
investment 9.61141966617e-05
terror 9.37851252728e-05
worship 0.0
represents 0.0
attempting 6.00874887439e-05
bullying 0.0
astonishing 5.72200988225e-05
endorse 5.39921240238e-05
urgent 0.0
forced 7.64053820136e-05
addressing 0.0
script 0.0
hundred 0.0
command 0.0
qualifies 0.0
stumbled 7.57188555154e-05
territory 0.0
balloons 7.1885650582e-05
objects 0.0
latimes 0.0
pandemics 0.0
separating 0.0
pentagon 0.0
threats 4.87478819349e-05
prisons 0.0
approaching 0.000111570177116
generous 0.0
roughly 0.00012301764953
commands 0.0
uncovered 0.0
destroying 0.0
opposition 0.000100752192219
addiction 5.50974886954e-05
manhattan 0.0
ridiculously 0.0
awarded 0.0
greeted 0.0
forces 4.04812265667e-05
confirm 0.000202406132834
dealings 0.0
nations 4.92788617668e-05
equivalent 0.000105045565896
sexist 0.0
yahoonews 0.0
bloody 0.000330538317215
boundaries 0.0
exceptionally 0.0
cannon 0.0
feared 0.0
significance 0.0
recommendation 0.0
chapters 0.0
racial 0.0
obvious 0.000210849740371
statistics 0.0
military 0.0
adopted 0.0
housing 0.000461960607491
clearer 0.0
calculator 0.0
underwater 0.0
guided 0.0
rescue 0.0
deserving 0.0
advised 0.0
ordered 0.0
unions 6.9759003995e-05
avoiding 0.0
alicia 0.0
preserve 6.00874887439e-05
balloon 6.66946259089e-05
economic 9.09424532306e-05
recipe 0.0
awaits 0.0
squarely 0.0
radical 5.21184389068e-05
banter 0.0
spaces 0.0
carnival 0.0
theories 0.0
bombing 5.8224947078e-05
products 0.0
margaret 6.09305054292e-05
gathered 0.0
taxpayers 6.63368267773e-05
admits 5.46494295349e-05
opposed 4.98214275227e-05
pressing 6.46212079059e-05
russia 7.73306779365e-05
lincoln 0.0
intelligent 5.07528701453e-05
momentum 0.000160055240191
olympic 0.0
magnificent 0.0
heritage 0.0
beijing 0.0
beloved 0.0
dummies 0.0
pursuit 0.0
carries 0.0
phelps 0.0
medals 0.0
gymnastics 0.0
summed 0.0
accuse 0.0
symbol 6.09305054292e-05
dignity 0.0
slogans 0.0
priorities 0.0
applied 0.0
progressive 0.000114440197645
activists 0.0
elected 0.000781381646155
brussels 0.000106283801339
subscribe 0.0
elections 0.00155588468326
unites 0.0
complacency 0.0
imperative 0.0
doorsteps 0.000114725016771
voices 0.000160925235114
blatant 0.0
democracy 0.0
disastrous 0.0
rebuild 0.0
accuses 0.000132673653555
diplomacy 7.1885650582e-05
hardball 0.0
attacking 4.80570983309e-05
subtle 5.90061613972e-05
barker 0.0
sticking 0.0
openly 5.95409478285e-05
policing 0.0
embarrassed 5.35633787366e-05
slightest 0.0
abbott 0.0
attacks 0.000200536427628
commit 5.07528701453e-05
argued 6.49549929259e-05
remarks 5.39921240238e-05
democratic 0.000101505740291
semitic 0.0
incomes 0.0
treasury 0.0
alarming 0.0
dividing 0.0
reject 5.29338106635e-05
affirming 0.0
quitting 0.0
extended 0.0
reducing 0.0
proudly 0.0
inclusive 0.0
oppose 0.0
distinctly 0.0
urging 0.0
strengthen 0.0
deliver 3.94962815524e-05
obligations 0.0
relations 5.64922436229e-05
repeal 0.0
strengths 0.0
counties 7.1885650582e-05
weakened 0.0
reckless 6.06463125001e-05
prosperous 0.0
servant 0.0
secretaries 0.0
negotiator 0.0
faults 0.000178243743258
choking 0.0
executive 4.15067991578e-05
alternative 0.000167610250351
extend 5.44283915406e-05
republicans 0.000152258610436
embodied 0.0
preparation 0.0
terrorists 0.000114935059651
confident 0.0
weapons 0.0
unifying 0.0
outrage 5.46494295349e-05
constitutional 0.000545816812501
rental 0.0
prevail 0.0
resilient 0.0
humbled 0.0
courage 0.0
commander 6.49549929259e-05
respecting 0.0
enormous 0.0
aligned 0.0
consent 0.0
refusing 5.72200988225e-05
resentment 0.0
substance 0.0
claiming 0.000310323387892
lamont 0.0
dropping 3.76362289122e-05
carried 5.31419006697e-05
intimidated 0.0
behalf 4.47153443861e-05
meaningful 0.0
amendment 0.0
accepts 0.0
legislation 0.0
fairer 0.0
commitments 0.0
handling 0.0
proves 0.0
rhetoric 0.0
hardest 0.0
peddling 8.6590881001e-05
divisive 0.0
strongly 4.92788617668e-05
vision 3.68642543927e-05
investigations 0.0
repeatedly 0.0
records 0.0
madeleine 0.0
disabled 0.0
quoting 0.000178622843486
assassination 0.0
beaten 0.0
deeply 0.0
grievance 0.0
contempt 6.8565177435e-05
standards 4.48646938478e-05
fairness 0.0
dictated 0.0
consensus 5.67325025995e-05
reconsider 0.0
priority 9.61141966617e-05
rogers 0.0
freedoms 0.0
notorious 7.78825335472e-05
invested 0.0
propaganda 0.0
unconstitutional 0.0
condemn 0.0
concerned 0.0
praising 0.0
cheered 0.0
realdonaldtrump 0.0
despicable 0.0
straightforward 7.52061237291e-05
bargain 0.0
attorney 0.0
bedrock 0.0
optimism 5.69751056031e-05
belongs 0.0
truman 0.0
whichever 0.0
inappropriate 0.0
beatings 0.0
optimistic 0.000163285174622
campaigned 0.0
allies 0.0
governor 0.0
attempts 4.89236184305e-05
extent 6.12179838983e-05
denial 5.35633787366e-05
maximum 0.0
merely 0.000112037159151
apprenticeships 0.0
agreeing 0.0
architect 0.0
responsibility 0.0
mainstream 0.0
legitimacy 8.74062527577e-05
injustice 0.0
dozens 5.64922436229e-05
donnell 0.0
scenario 0.0
crimes 0.0
thoughtful 0.0
hypocrisy 0.0
undocumented 0.0
sexually 0.0
richest 0.0
softening 0.0
implies 0.0
infrastructure 5.87430202049e-05
pitching 6.66946259089e-05
broadband 0.0
tenants 0.0
allegations 0.000122435967797
bloomberg 0.0
insulting 0.0
liberal 0.0
kremlin 0.0
podium 0.0
provoke 0.0
outrageous 0.0
campaigns 0.00024258525
barriers 0.0
powell 0.000209277011985
technical 0.0
warnings 0.000335288242849
flagged 0.0
grassroots 0.0
extremist 8.15280650567e-05
businesses 0.0
welcomes 0.0
deputy 0.0
donating 0.0
continually 0.0
ourselves 0.0
fringe 0.0
politician 4.96392537363e-05
wiggins 0.000103037619529
welcomed 0.000112508567621
rallies 0.0
ballot 0.000155756118062
failing 0.0
uniting 0.0
refuses 5.31419006697e-05
appealing 0.0
proverb 0.0
privileges 0.0
ideals 0.0
vibrant 0.0
tarmac 0.0
residents 0.0
apprenticeship 0.0
denying 6.24023320475e-05
fierce 0.0
opponents 5.39921240238e-05
polling 0.000267816893683
apology 0.000140677687909
damning 7.47037508726e-05
outline 0.0
endorses 0.0
losers 0.000115939805364
insulted 0.0
equipped 8.58013984821e-05
battlefield 8.6590881001e-05
recession 7.42113266502e-05
endorsed 0.0
divides 8.42938696169e-05
describes 0.0
appointed 5.981271677e-05
encourage 0.0
undermine 0.0
undermining 0.0
authority 0.000161976372071
betray 0.0
funnyordie 0.0
donated 0.0
jimmykimmellive 0.0
immigrant 0.0
criminals 0.0
automatically 0.0
schooled 0.0
elizabethforma 0.0
releasing 0.0
connects 0.0
screening 0.0
cleaner 0.0
nowthisnews 0.0
sophiabush 0.0
chelseaclinton 0.0
stunts 0.0
truths 0.0
transparency 5.44283915406e-05
obamacare 0.0
nickkristof 0.0
contraception 0.0
betting 0.0
conscience 0.0
proclaimed 8.6590881001e-05
dispatch 0.0
advocate 0.0
profits 0.0
toward 0.0
guiding 0.0
senators 0.0
barber 7.144552209e-05
doubled 6.39667856472e-05
mosque 0.0
senate 0.0
louisiana 0.0
senwarren 0.0
parenthood 0.0
organizations 0.0
generations 0.0
minorities 0.0
misogyny 0.00029881500349
peacefully 0.0
decency 0.0
intend 0.0
discourse 0.0
pennsylvania 0.0
katiemcgintypa 0.0
experiencing 0.0
mccain 0.0
scandal 0.000240285491654
constitution 0.000514980889403
sensanders 0.0
intolerable 0.000100108754643
strive 0.0
forefathers 0.0
abandon 0.0
buzzfeednews 0.0
paulkrugman 0.0
mothers 0.0
compassion 0.0
deeper 0.0
governments 6.33291453095e-05
activism 0.0
jamilsmith 0.0
mike_pence 0.0
elizabethbanks 0.0
empathy 6.74260495394e-05
audited 0.0
checkers 0.0
warming 0.0
volunteering 0.0
charitable 0.0
qualifications 0.0
workplace 0.0
granddaughter 0.0
recycled 0.0
directing 0.0
politifact 0.0
abolish 0.0
murders 0.0
reagan 5.981271677e-05
pouring 0.0
ballots 0.0
racists 0.0
empower 0.0
tolerate 0.0
chrismurphyct 0.0
igorvolsky 0.0
outraged 6.63368267773e-05
exceptional 0.0
nightmares 0.0
enforcement 0.0
weaken 0.0
medicaid 0.0
humbly 0.0
newsweek 7.57188555154e-05
conflicts 0.0
suffer 0.0
dallasnews 0.0
bridges 0.0
lesdoggg 0.0
appalling 0.0
hatred 0.000105867621327
superpower 0.0
goodbye 0.0
renewable 0.0
robdelaney 0.0
motherjones 0.0
trusted 0.0
sheriff 0.0
personalized 0.0
amnesia 9.29550765625e-05
malala 0.0
problema 0.0
everytown 0.0
casting 0.0
employers 0.0
rudolph 0.0
packets 0.0
organization 0.0
graceful 0.0
hardworking 0.0
cherished 0.0
aggressively 0.0
founding 0.0
sacred 0.0
horrific 5.17205646486e-05
earned 8.79635257025e-05
siding 0.0
minded 0.000122435967797
contribute 0.0
incites 0.0
chooses 0.0
obtained 0.0
defended 0.0
champion 7.92345743914e-05
magazines 0.0
waited 0.0
punished 0.0
conviction 0.0
tradition 4.53182008362e-05
giveaways 0.0
distracted 0.0
endorsing 0.0
pathetic 0.0
ladygaga 0.0
pessimistic 0.0
highlighting 0.0
transgender 0.0
womensmarch 0.0
advisors 0.0
wrecking 0.0
hillaryforva 0.0
registration 0.0
ellemagazine 0.0
acceptance 0.0
defeated 0.0
theroot 0.0
pharrell 0.0
tumblr 0.0
nevada 0.0
illinois 0.0
massachusetts 0.0
theadvocatemag 0.0
lending 0.0
rejecting 0.0
legalize 8.02525746773e-05
conned 0.0
arkansas 0.0
celebratin 0.0
rubber 0.0
lenadunham 0.0
hateful 0.0
wizard 0.0
unbearable 0.0
harpersbazaarus 0.0
familia 0.0
iamwill 0.0
retweets 0.0
nominating 0.0
vietnam 6.27074476624e-05
laurie 0.0
claimed 0.000214253514947
rapids 0.0
devoted 0.0
casino 0.0
astounding 0.0
summon 0.0
crushed 0.0
louder 6.74260495394e-05
farmers 0.0
lin_manuel 0.0
arrangement 0.0
borrowed 7.62423824443e-05
mariska 0.0
purposes 0.0
dialogue 0.0
comedian 6.09305054292e-05
________ 0.0
lightly 0.0
defeating 0.0
jerusalem 0.000173181762002
cynical 0.0
worrying 5.17205646486e-05
elizabeth 0.0
insults 6.70576485698e-05
microphone 0.0
sleeves 0.0
theeconomist 0.0
stakes 0.0
nationally 0.000215656951746
inspect 0.0
poisoning 0.0
columbus 0.0
declaring 0.0
crushing 0.000104639578162
chucktodd 0.0
soldier 0.0
painted 5.60185795754e-05
warned 0.0
ohiostate 0.0
unrelated 7.23337097425e-05
designated 0.0
clears 0.0
congressional 0.0
confront 0.0
usatoday 0.0
delivers 0.0
pittsburgh 0.0
entiende 0.0
soaked 0.0
bromance 0.0
lifelong 0.0
antiques 0.0
repjohnlewis 0.0
breakers 0.0
fundraising 0.0
hispanic 0.0
defrauded 0.0
fearful 0.0
nytopinion 0.0
volume 0.0
perfecting 0.0
washingtonpost 0.0
affordable 5.17205646486e-05
mighty 0.000284875528015
normalizing 0.0
boasting 0.000103037619529
assaulting 0.0
disqualify 0.0
monique 0.0
jcolenc 0.0
teamusa 0.0
allysonfelix 0.0
usabasketball 0.0
ibtihaj 0.0
simone 0.0
feminism 0.0
conversion 0.0
destiny 6.49549929259e-05
disrespected 0.0
serenawilliams 0.0
tantrum 0.0
heinous 0.0
unconscious 0.0
accomplishments 0.0
saddened 0.0
disgrace 0.0
rodriguez 0.0
arsenal 0.000202278148618
defender 0.0
malalafund 0.0
merchandise 0.0
laundry 0.0
lesbians 0.0
cnnpolitics 0.0
nickgass 0.0
examining 0.0
monument 0.0
appeals 0.0
gracias 0.0
madame 0.0
grande 0.0
speechless 6.24023320475e-05
coulter 0.0
missiles 0.0
psyched 0.0
chelsea 0.0
biases 0.0
resume 0.0
spectator 0.0
angelina 0.0
spectacle 0.000171602796964
admiration 0.0
reaches 5.92721169872e-05
español 0.0
dreamers 0.0
mañana 0.0
bursting 0.0
undone 0.0
beyoncé 0.0
nuestra 0.0
diwali 0.0
prestigious 0.0
cynicism 0.0
disability 0.0
registering 0.0
booker 0.0
méxico 0.0
disponible 0.0
honduras 0.0
famously 0.0
overdue 0.0
equity 0.0
opioid 0.0
millennials 0.0
recommendations 5.57850885582e-05
investors 6.81796408653e-05
betrays 0.0
patriotism 7.62423824443e-05
liability 0.0
iranian 0.0
delegate 0.0
struck 0.000100752192219
millennial 0.0
dictators 0.0
graduate 0.0
analysts 0.0
victor 0.0
shrink 0.0
dictator 0.0
poised 0.0
avoided 6.42918440096e-05
rallying 0.0
catholic 0.000593856926838
thriving 0.0
racially 0.0
undermines 0.0
yashar 0.0
inequality 0.0
medicare 0.0
missionaries 0.0
foremost 0.0
deplorable 0.0
demonize 0.0
wikileaks 0.0
enduring 0.0
privatized 0.0
appoint 7.47037508726e-05
losses 0.0
jbarro 0.0
buffett 0.0
staffers 0.0
takeaway 0.0
moscow 6.12179838983e-05
hampshire 0.0
pandering 0.0
voxdotcom 0.0
reckoning 0.0
moines 0.0
falter 0.0
countless 6.46212079059e-05
democrat 0.0
bostonglobe 0.0
accountable 0.0
dispel 0.0
despair 0.0
persisted 0.0
disclose 0.0
tedcruz 0.0
flooding 0.0
prejudice 0.0
towers 0.0001484226533
criticized 0.0
senatemajldr 0.0
outsider 0.0
declare 0.000234972080819
dismantle 0.0
thrive 0.0
threaten 5.74675298255e-05
outsourced 0.0
loophole 0.0
heerjeet 0.0
verbal 0.0
businessinsider 0.0
ukraine 7.01700317106e-05
vladimir 0.0
businessman 0.0
supremacist 0.0
etched 0.0
zekejmiller 0.0
momentarily 0.0
perpetrators 0.0
mocking 0.0
wrecked 0.0
identities 9.19399719197e-05
inhumane 0.0
disavow 0.0
hostile 0.0
muster 0.0
surrender 0.0
shatter 0.0
patriotic 0.0
rewarded 0.0
jitters 0.0
bullies 0.0
discipline 0.0
forgets 0.0
expand 0.0
apologized 0.0
tournament 0.0
grindstone 0.0
mastery 0.0
provider 0.0
steroids 0.0
jenniferjjacobs 0.0
notion 0.000259819971704
hernandez 0.0
mcuban 0.0
bullied 0.0
jebbush 0.0
discriminating 0.0
somali 0.0
hayden 0.0
limitless 0.0
implement 0.0
nydailynews 0.0
corybooker 0.0
interference 0.0
listens 0.0
preside 0.0
remembers 0.0
toughness 0.0
extensively 0.0
suffered 0.0
streep 0.0
billionaire 6.00874887439e-05
cheats 0.0
needing 0.0
percentage 0.0
insiders 0.0
binder 0.0
prescriptions 0.0
slashed 0.0
indebted 0.0
dismisses 0.0
delegates 0.0
pledged 0.0
endured 0.0
deployed 0.0
suspense 0.0
courageously 0.0
resilience 0.0
nationalists 0.000171602796964
autonomy 0.000101530090664
abandoning 0.0
canvas 0.0
blacks 0.0
pledging 0.0
elaine 0.0
methodist 0.0
candidacy 0.0
bonuses 0.0
resolve 0.0
laughable 0.0
scares 0.0
intellect 0.0
hopeless 0.0
debunked 0.0
shames 0.0
connections 0.000116449894156
tyleroakley 0.0
perplexed 0.0
ddlovato 0.0
impromptu 0.0
teenvogue 0.0
unveils 0.0
billie 0.0
prouder 0.0
sweetness 0.0
cheryl 0.0
filipino 0.0
petersburg 0.0
drastic 0.0
lifesaving 0.0
decorated 0.0
usagym 0.0
freestyle 0.0
absentee 0.0
lashes 0.0
concentration 0.0
refuge 7.47037508726e-05
renaissance 0.0
actively 0.0
monitoring 0.0
destined 0.0
willfully 0.0
detained 0.0
warmest 0.0
heroic 0.0
bragged 0.0
miners 0.0
shareholders 0.0
randall 0.0
excessive 0.0
geneva 0.0
corporations 0.0
unsolvable 0.0
grandchildren 0.0
discredit 0.0
enormously 0.0
frances 0.0
pillar 0.0
trillions 0.0
expansive 0.0
organize 0.0
capabilities 0.0
confederate 0.0
shakers 0.0
ambiguity 0.000103037619529
linking 6.77999905805e-05
pretends 0.0
wireless 0.000266778503636
inherit 0.0
paranoia 0.0
theatlantic 0.0
languages 0.000199010480332
disposable 0.0
reinforcing 0.0
integrated 0.0
optimist 0.0
pigeons 0.0
chadhgriffin 0.0
katieledecky 0.0
richards 0.0
demconvention 0.0
abcpolitics 0.0
chobani 0.0
dominiclowell 0.0
floridians 0.0
cecilerichards 0.0
clintonfdn 0.0
billclinton 0.0
grounded 0.0
abilities 0.0
grandfather 0.000114440197645
profoundly 0.0
fiercely 0.0
drowning 0.0
astound 0.0
alzheimer 0.0
responders 0.0
peacecorps 0.0
nygovcuomo 0.0
hurricanes 0.0
approximately 0.0
daunting 0.0
organizer 0.0
ingenuity 0.0
illnesses 0.0
intruders 0.0
invading 0.0
harmful 0.0
foundations 0.000167146095649
skateboards 0.0
housekeeping 0.0
dangerously 0.0
renters 0.0
predatory 0.0
rebuke 0.0
jengranholm 0.0
supremacy 0.0
linger 9.40133899227e-05
adamserwer 0.0
clevelanddotcom 0.0
repadamschiff 0.0
fahrenthold 0.0
revoke 0.0
advising 0.0
strengthening 0.0
colleges 0.0
deniers 0.0
aspire 0.0
exceed 0.0
lebassett 0.0
shrugged 0.0
stewardship 0.0
complains 0.0
temperament 0.0
texasinafrica 0.0
americorps 0.0
latino 0.0
payoffs 0.0
protested 0.0
honorable 0.0
fathom 0.0
inconvenience 0.0
johnkasich 0.0
latinos 0.0
votevets 0.0
unsurprising 0.0
loopholes 0.0
dismal 9.09646857171e-05
unqualified 0.0
rigorous 0.0
mittromney 0.0
joyannreid 0.0
theorist 0.0
evan_mcmullin 0.0
discriminate 0.0
ezraklein 0.0
obsessively 0.00011019129761
desperation 0.0
latina 0.0
tammyforil 0.0
pantsuit 0.0
superior 6.5984102982e-05
exonerated 0.0
johnpodesta 0.0
recites 0.0
supremacists 0.0
affront 0.0
electing 0.0
defund 0.0
demeans 0.0
govpencein 0.0
squandered 0.000104642473805
machado 0.0
pneumonia 0.0
unhinged 0.0
criticizes 0.0
derailment 0.0
iceberg 8.35730478244e-05
epipens 0.0
generals 0.0
timkaine 0.0
provocation 0.0
paulbegala 0.0
clintinfdn 0.0
wesleylowery 0.0
childdefender 0.0
dictatorship 0.0
ceasefire 0.000101530090664
stamped 0.000106358092676
intimidation 8.2191213973e-05
casinos 0.000103037619529
manifest 9.00262116762e-05
restrict 7.78825335472e-05
transformation 6.66946259089e-05
battleground 8.74062527577e-05
christine 0.0001484226533
touted 9.09646857171e-05
mcconnell 8.2191213973e-05
deflect 8.82492694429e-05
expressing 6.42918440096e-05
commonsense 0.000103037619529
statesman 7.47037508726e-05
mcbride 0.000103037619529
tumble 9.74887957244e-05
bigoted 0.000178243743258
belonged 9.87642861038e-05
praised 0.0
policeman 0.0
booing 0.0
cathedral 0.0
tomperez 0.0
keithellison 0.0
knowingly 0.0
wealthiest 0.0
backward 0.0
pretended 0.0
thedemocrats 0.0
psychologists 0.0
americ 0.0
successor 0.0
diplomats 0.0
congratulated 0.0
devotion 0.0
remembrance 0.0
eligible 0.0
incoherent 0.0
exhaustive 0.0
downgraded 0.0
unified 0.0
embraces 0.0
galling 0.0
senatorreid 0.0
lifetimes 0.0
demagogue 0.0
rodham 0.0
temper 0.0
longtime 0.0
vetoing 0.0
janelle 0.0
voguemagazine 0.0
dominique 0.0
surpassed 0.0
associates 0.0
demonstrating 0.0
morning_joe 0.0
bazaar 0.0
consequential 0.0
undressed 0.0
entrepreneurial 0.0
billionaires 0.0
prescription 0.0
senseless 0.0
refresher 0.0
classmates 0.0
maturity 0.0
comentarios 0.0
risked 0.0
invincible 0.0
vigilant 0.0
emissions 0.0
recommit 0.0
voiceless 0.0
natlparkservice 0.0
workplaces 0.0
mayaharris_ 0.0
dhsgov 0.0
cyberattacks 0.0
maxinewaters 0.0
jerrybrowngov 0.0
discriminates 0.0
thejusticedept 0.0
simone_biles 0.0
sotomayor 0.0
traumatic 0.0
scammed 0.0
dreamer 0.0
fulfill 0.0
latinas 0.0
discouraged 0.0
usnavy 0.0
oftentimes 0.0
reprehensible 0.0
demeaning 0.0
ratified 0.0
emilyslist 0.0
lawsuits 0.0
nonviolent 0.0
caucus 0.0
joebiden 0.0
joyful 0.0
privatize 0.0
barbaraboxer 0.0
sengillibrand 0.0
camino 0.0
familias 0.0
americaferrera 0.0
universidades 0.0
gabbygiffords 0.0
shuttlecdrkelly 0.0
fulton 0.0
shimon 0.0
hablar 0.0
fuerza 0.0
trickle 0.0
refinance 0.0
shattering 0.0
damián 0.0
gouging 0.0
moveon 0.0
simone_manuel 0.0
revdrbarber 0.0
senatorbarb 0.0
cnbcnow 0.0
stiffed 0.0
mikebloomberg 0.0
solver 0.0
thrower 0.0
granddaughters 0.0
changemaker 0.0
clairecmc 0.0
anastasiasomoza 0.0
defunding 0.0
preyed 0.0
aspirations 0.0
fannie 0.0
mubarak 0.0
buzzfeedben 0.0
probed 0.0
marines 0.0
projecting 0.0
outsourcing 0.0
developers 0.0
crimea 0.0
everyo 0.0
chaser 0.0
dubious 0.0
diplomatic 0.0
rosiegray 0.0
unpatriotic 0.0
multifaceted 0.0
myanmar 0.0
adamparkhomenko 0.0
tjmshow 0.0
tenant 0.0
perjury 0.0
contractual 0.0
surrounds 0.0
exceeded 0.0
thrives 0.0
unclerush 0.0
sailors 0.0
stereotypes 0.0
librarycongress 0.0
acknowledging 0.0
philippe 0.0
battled 0.0
postopinions 0.0
ambassadorrice 0.0
shockingly 0.0
mcfaul 0.0
presid 0.0
poisons 0.0
kenvogel 0.0
johndingell 0.0
harnessing 0.0
unwritten 0.0
bewildering 0.0
moonshot 0.0
apologizing 0.0
oligarchs 0.0
espionage 0.0
marcorubio 0.0
desecration 0.0
brianefallon 0.0
bangladesh 0.0
twittermoments 0.0
officialcbc 0.0
thefix 0.0
urgency 0.0
traceeellisross 0.0
andradaymusic 0.0
impeccably 0.0
catastrophe 0.0
tallest 0.0
anastasia 0.0
azcentral 0.0
marrying 0.0
moderates 0.0
resembles 0.0
paraphrase 0.0
applauds 0.0
heavier 0.0
virginians 0.0
railing 0.0
eloquently 0.0
denverpost 0.0
independents 0.0
americanos 0.0
hispanos 0.0
bailouts 0.0
divisiveness 0.0
jmpalmieri 0.0
hardballchris 0.0
republicano 0.0
candidato 0.0
phillyinquirer 0.0
jesserodriguez 0.0
militarytimes 0.0
sunsentinel 0.0
ryanlizza 0.0
bretbaier 0.0
thelastword 0.0
hillaryclinto 0.0
maddowblog 0.0
boundless 0.0
enacting 0.0
gettysburg 0.0
groping 0.0
govchristie 0.0
justices 0.0
watchdogs 0.0
cavalier 0.0
succeeds 0.0
retirees 0.0
pocketed 0.0
multimillionaire 0.0
redcross 0.0
evalongoria 0.0
highways 0.0
marlee 0.0
primero 0.0
pianos 0.0
bribed 0.0
scranton 0.0
wellesley 0.0
perkins 0.0
onward 0.0
algore 0.0
candidly 0.0
trajectory 0.0
quitter 0.0
objectifying 0.0
ignoramus 0.0
disillusioned 0.0
asinine 0.0
vibrancy 0.0
arpaio 0.0
testifying 0.0
chairmen 0.0
luchar 0.0
disrupted 0.0
podemos 0.0
settlements 0.0
massacres 0.0
millones 0.0
eagerly 0.0
grandmas 0.0
dedicado 0.0
seeming 0.0
pragmatic 0.0
hashanah 0.0
porque 0.0
unidos 0.0
nuestras 0.0
primera 0.0
debemos 0.0
muchos 0.0
cuando 0.0
nuestro 0.0
inteligente 0.0
rapists 0.0
agosto 0.0
presidente 0.0
puedes 0.0
mujeres 0.0
safeguarding 0.0
indecent 0.0
motions 0.0
strengthened 0.0
eminently 0.0
innuendo 0.0
memorandum 0.0
reuterspolitics 0.0
educates 0.0
mexicana 0.0
disparage 0.0
absurdity 0.0
backdoor 0.0
affording 0.0
hardline 0.0
steelworkers 0.0
demean 0.0
immigrate 0.0
thuggish 0.0
astrid 0.0
jesuit 0.0
governorship 0.0
waterboarding 0.0
personas 0.0
stephenson 0.0
huracán 0.0
firefighter 0.0
ravages 0.0
marleematlin 0.0
scrolling 0.0
tarnish 0.0
ajentleson 0.0
roanoke 0.0
heaping 0.0
carpentry 0.0
forcefully 0.0
frankiejgrande 0.0
aprildryan 0.0
unjustified 0.0
yamiche 0.0
evacuate 0.0
disrespects 0.0
incomprehensible 0.0
jogger 0.0
vindicated 0.0
blazed 0.0
cambodia 0.0
revolutionize 0.0
welding 0.0
unbeatable 0.0
polished 0.0
saddled 0.0
interdependence 0.0
alleys 0.0
civility 0.0
vilified 0.0
disagreeable 0.0
terence 0.0
bluster 0.0
incredib 0.0
holton 0.0
hillaryforpa 0.0
hillaryforco 0.0
jes_chastain 0.0
vitalvoices 0.0
indictments 0.0
evokes 0.0
reaffirming 0.0
rebukes 0.0
minerva 0.0
peddle 0.0
starker 0.0
cascading 0.0
carolinians 0.0
señora 0.0
honrado 0.0
missionary 0.0
ranchers 0.0
denveropinion 0.0
practicality 0.0
thoughtfulness 0.0
scripture 0.0
pueblo 0.0
morningmoneyben 0.0
smalls 0.0
exemplify 0.0
eviscerated 0.0
jeffflake 0.0
helpless 0.0
sarahemcbride 0.0
indivisible 0.0
colinjones 0.0
mrjoshcharles 0.0
houstonchron 0.0
thoroughness 0.0
isolde 0.0
wonkiest 0.0
equate 0.0
dustbin 0.0
estados 0.0
newrepublic 0.0
expresses 0.0
demonizing 0.0
jeffbezos 0.0
discard 0.0
befriending 0.0
slovenia 0.0
unrelenting 0.0
salmahayek 0.0
revolves 0.0
anselm 0.0
dwells 0.0
usairforce 0.0
deride 0.0
repackaging 0.0
earmarked 0.0
evader 0.0
passpor 0.0
awaited 0.0
guterres 0.0
precinct 0.0
presidencia 0.0
unshakable 0.0
marshablackburn 0.0
comunidad 0.0
merecen 0.0
juntos 0.0
infomercial 0.0
johnstown 0.0
statewide 0.0
skyscrapers 0.0
phillydotcom 0.0
deducted 0.0
laguardiacc 0.0
annieslisttx 0.0
nickmerrill 0.0
leaninorg 0.0
missbeae 0.0
minassianmedia 0.0
natarsha 0.0
foments 0.0
ruline 0.0
steininger 0.0
michaelnutter 0.0
harren 0.0
louisa 0.0
cannell 0.0
robbymook 0.0
broward 0.0
hillaryforfl 0.0
jeanneshaheen 0.0
ericasmegs 0.0
jeremyshorr 0.0
turpin 0.0
rubycramer 0.0
singularly 0.0
joshschwerin 0.0
clionamccarney 0.0
xochitlhinojosa 0.0
adamsmith_usa 0.0
humayun 0.0
jamestaylor_com 0.0
hillaryformn 0.0
ericwms 0.0
dougmillsnyt 0.0
jencarlosmusic 0.0
hannahbfine 0.0
creynoldsnc 0.0
lefsadventures 0.0
pembroke 0.0
perceptiveness 0.0
hillaryforaz 0.0
fayetteville 0.0
entrust 0.0
daveeddiggs 0.0
petewilliamsnbc 0.0
hillary_esp 0.0
ustedes 0.0
nación 0.0
creativa 0.0
bilingües 0.0
multilingües 0.0
contribuyen 0.0
diversidad 0.0
economía 0.0
hillaryforia 0.0
estaré 0.0
discurso 0.0
síganme 0.0
detall 0.0
hopewell 0.0
temperamentally 0.0
redone 0.0
barging 0.0
machadooficial 0.0
mikereedschmidt 0.0
franklinfoer 0.0
eamonjavers 0.0
hillaryforoh 0.0
hustling 0.0
relishes 0.0
markkirk 0.0
asmamk 0.0
just_jenna 0.0
discrimina 0.0
samifayebaker 0.0
padded 0.0
wigazette 0.0
phillytrib 0.0
trivializes 0.0
condones 0.0
ellisoncampaign 0.0
barb_kinney 0.0
theriveterspod 0.0
humiliates 0.0
nickmarroletti 0.0
alli_wilber 0.0
brespolitico 0.0
jasoncherkis 0.0
sean_p_thomas 0.0
outclassed 0.0
outmaneuvered 0.0
belittling 0.0
familie 0.0
yuuuuuuge 0.0
disqualifying 0.0
brynnecraig 0.0
buffywicks 0.0
lasvegassun 0.0
cmichaelhuntley 0.0
civically 0.0
raquelwillis_ 0.0
celebramos 0.0
trayectoria 0.0
pionera 0.0
breakups 0.0
rosenbergerlm 0.0
heraldleader 0.0
jaylon 0.0
decisi 0.0
antónio 0.0
squander 0.0
presidenta 0.0
protegerá 0.0
astrid_nv 0.0
sltrib 0.0
peter_j_k 0.0
brosandprose 0.0
nicholaskitchel 0.0
mahoning 0.0
omerizer 0.0
kendallybrown 0.0
davidnakamura 0.0
chatima 0.0
tammybaldwin 0.0
mpshapiro 0.0
responsibilit 0.0
overgrown 0.0
literally_trump 0.0
imploded 0.0
rnicholasburns 0.0
disastrously 0.0
stiffing 0.0
globeopinion 0.0
degradi 0.0
languishing 0.0
demostrar 0.0
poderosa 0.0
iammarleydias 0.0
tbtimes_opinion 0.0
disloyalty 0.0
defende 0.0
vegalteno 0.0
moodysinvsvc 0.0
decisiveness 0.0
whethe 0.0
preocupada 0.0
trayecto 0.0
afectados 0.0
ayotte 0.0
empathize 0.0
lifelo 0.0
lorellapraeli 0.0
ironworking 0.0
ebeling 0.0
contribuido 0.0
ejército 0.0
inmigrantes 0.0
indocumentados 0.0
enquirer 0.0
delega 0.0
roadshow 0.0
sunsentinelopinion 0.0
resulta 0.0
insultar 0.0
construir 0.0
muralla 0.0
provoked 0.0
discretion 0.0
sdutideas 0.0
merece 0.0
respeto 0.0
enfrentar 0.0
valentía 0.0
ataques 0.0
descaro 0.0
culparla 0.0
petulance 0.0
ninhaitseng 0.0
flippantly 0.0
posteverything 0.0
_vicentefdez 0.0
azcopinions 0.0
aumentó 0.0
andrewjenks 0.0
imwithher 0.0
diferencias 0.0
onevoxdotcom 0.0
ignite_national 0.0
endorsin 0.0
mercersdairy 0.0
everyvoice 0.0
rachaelgass 0.0
galifianakis 0.0
crutcher 0.0
nyledimarco 0.0
mistreat 0.0
wellsfargo 0.0
templeuniv 0.0
sollender 0.0
honremos 0.0
tantas 0.0
contribuciones 0.0
aleatha 0.0
endeavored 0.0
legitimize 0.0
además 0.0
whistles 0.0
ugliness 0.0
jorge_silva 0.0
dnclatinos 0.0
libnofcongress 0.0
unscrupulously 0.0
contractually 0.0
impulsively 0.0
qaddafi 0.0
cancelable 0.0
cnbcopinion 0.0
jbrotherston 0.0
_bxddxss 0.0
sspiderboy 0.0
collegedems 0.0
veered 0.0
charitynav 0.0
usnewsopinion 0.0
humansofny 0.0
unfitness 0.0
steadiness 0.0
nbcusa_inc 0.0
verdadera 0.0
encuentra 0.0
hacemos 0.0
anuncio 0.0
unpresidential 0.0
unfavorably 0.0
heridas 0.0
visibles 0.0
veteranos 0.0
cuidado 0.0
panetta 0.0
experiencia 0.0
confío 0.0
exsecretario 0.0
comercio 0.0
lizromanoff 0.0
americasvoice 0.0
davidleopold 0.0
rebuked 0.0
criminalize 0.0
mentiré 0.0
inmigración 0.0
demonizar 0.0
americanlegion 0.0
sarasolow 0.0
qumber 0.0
zerlinamaxwell 0.0
hillaryforut 0.0
hillaryforga 0.0
grandtetonnps 0.0
marlondmarshall 0.0
mariatcardona 0.0
escuchamos 0.0
claramente 0.0
demonizando 0.0
segunda 0.0
tercera 0.0
rhettbuttle 0.0
hillaryformi 0.0
futuramics 0.0
louisianans 0.0
claressashields 0.0
helen_maroulis 0.0
bri_rollin 0.0
itspooda 0.0
kristihollywood 0.0
meredeetch 0.0
kersee 0.0
rodhams 0.0
bidens 0.0
possibilitie 0.0
maulama 0.0
akonjee 0.0
shotdiva 0.0
auriemma 0.0
maxlinsky 0.0
cowering 0.0
moratory 0.0
hillarycl 0.0
repudiate 0.0
fencer 0.0
bankruptcies 0.0
warrenbuffett 0.0
bishopgarrison 0.0
ajazzyworld 0.0
morell 0.0
starkest 0.0
braille 0.0
frankmugisha 0.0
confiar 0.0
distinguido 0.0
herencia 0.0
harkening 0.0
impulses 0.0
dakota_meyer 0.0
kauveri 0.0
iafftreg 0.0
laurawalkerkc 0.0
jakesherman 0.0
benediction 0.0
denigrates 0.0
ann_oleary 0.0
liberates 0.0
bombast 0.0
repcleaver 0.0
throwed 0.0
luchado 0.0
derechos 0.0
humanos 0.0
trabajadores 0.0
relent 0.0
aprendí 0.0
valores 0.0
trabajo 0.0
mismos 0.0
annella 0.0
drbiden 0.0
expedient 0.0
imangelabassett 0.0
smegielski 0.0
leinonen 0.0
driffin 0.0
buckles 0.0
insatiably 0.0
sybrina 0.0
mcbath 0.0
dontre 0.0
randibrazeau 0.0
sjbxtr 0.0
malcolmkenyatta 0.0
lankford 0.0
countrymen 0.0
countrywomen 0.0
refiere 0.0
separar 0.0
valiente 0.0
strongmen 0.0
seremos 0.0
compañeros 0.0
bienvenidos 0.0
dauntless 0.0
governorva 0.0
sherrodbrown 0.0
vicepresidencia 0.0
ilyseh 0.0
gunsense 0.0
encantada 0.0
anunciar 0.0
splintering 0.0
albamonica 0.0
criminologist 0.0
construiremos 0.0
discriminatio 0.0
endorser 0.0
sniveling 0.0
ryanegraney 0.0
baptize 0.0
convención 0.0
republicana 0.0
