chatting 8.14514747017e-05
trying 0.000266177812707
launch 2.96705131714e-05
moment 0.000170301562834
wonderful 0.000108724628036
seeing 4.97186182745e-05
recommend 0.0
anybody 7.42201249304e-05
podcast 0.0
challenges 0.0
worked 7.85055064248e-05
direct 0.000137062678923
others 0.0
currently 0.0
better 0.000718154539907
please 0.00160137776565
travels 0.0
social 0.00013553693291
around 0.000119692423318
people 0.00117298574851
leaving 0.000191826895352
morning 0.000529493408247
general 6.20390341576e-05
overall 0.0
damage 0.0
affect 4.16542160163e-05
everything 0.000120339410965
twitter 0.000796383858581
present 2.74038421931e-05
though 0.000150367937189
friend 0.000459761676494
watched 0.000135905785045
beautiful 4.95846965946e-05
anything 0.000684889104394
practice 0.0
helped 2.63819224378e-05
helpful 0.000123755637217
revive 0.0
updated 3.82556630942e-05
thinking 0.000221333240832
finally 0.000491851646294
caught 5.42147731638e-05
believe 0.000288037151969
already 0.000336043343964
orlando 4.09873627382e-05
depends 0.0
chance 0.000120339410965
meaning 0.0
annual 0.0
renewed 0.0
growing 5.7728854856e-05
probably 0.000208782262283
should 0.0
changed 7.72418587963e-05
history 9.91693931892e-05
center 0.000126182635201
museum 4.17898451874e-05
behind 0.000430892723944
pretty 4.91851646294e-05
really 0.00125152987404
expensive 0.0
little 0.000264034055972
earlier 5.63229048112e-05
forget 0.000390311513388
paperwork 0.0
someone 0.000291159593755
mostly 0.0
worker 0.0
safety 6.97383858122e-05
program 0.000167419677309
things 0.000430892723944
electrical 0.0
visiting 3.31972435962e-05
available 0.000199950362879
perfect 0.000125306614324
different 4.89206503139e-05
search 0.0
connect 0.000134959153146
numbers 3.00839687802e-05
person 9.65313767977e-05
watching 0.00135508704651
passed 8.8034443435e-05
minutes 0.00072091996498
daughter 0.000261930743538
average 0.0
positive 2.85494428222e-05
outside 0.000101882150783
metric 0.0
looking 0.000600077399936
forward 0.000370883613573
raising 0.0
afraid 0.000217744857579
impression 0.0
profile 6.58278892266e-05
drawing 0.0
favorite 0.00153624026533
picture 0.000102434048211
historic 3.63395619641e-05
instead 8.13221597457e-05
appreciate 0.000141579473889
husband 0.000751234907747
international 2.97526349832e-05
toddler 0.0
couldn 0.000125306614324
remember 0.000168475175351
holidays 0.000103095618579
friends 0.000387167727574
despite 3.4166545429e-05
understood 0.0
impossible 0.0
everyone 0.00055356129044
florida 0.000177441630788
always 0.000430892723944
months 5.02580827913e-05
moving 5.17737393237e-05
meeting 0.000172612901446
google 3.0251371453e-05
answer 0.000394543774733
together 0.000120664220997
included 0.000110000233573
inside 0.000150367937189
section 0.0
missed 0.000780623026776
button 0.0
active 0.0
longer 0.000250016852686
enough 9.7315178762e-05
projects 0.0
driving 2.9425824656e-05
building 8.11015283771e-05
enjoying 5.88516493121e-05
kennedy 0.00019543424261
tantrums 0.0
apparently 0.000713448892812
recent 9.54393920556e-05
gotten 8.0421822774e-05
amazing 0.000192024767979
determined 0.0
attention 2.7255155475e-05
progress 0.0
tomorrow 0.00156441234255
whenever 7.91651372593e-05
curious 0.0
george 0.000448765929529
feeling 0.000100787808144
excited 0.000477451786517
campaigning 0.0
understand 7.87182931108e-05
learning 0.0
special 0.000509529289071
secret 0.000215684194017
across 2.68874295857e-05
comparison 0.0
surprised 0.000344477004655
anymore 0.000122700290032
spirited 0.0
precious 0.0
rejoice 0.0
rather 0.00010813537117
showing 5.13555971958e-05
saying 0.000276419455352
tweeted 0.000159065653426
updates 0.0
thoughts 0.000766182764066
exactly 0.00013013635867
except 0.00015337536254
getting 0.000770172230177
nothing 0.000312882468509
tweets 0.000132626335428
course 0.000124296545686
photos 8.73102478462e-05
looked 0.000245964450545
difficult 3.17236409187e-05
office 0.000156163630404
decisions 0.0
brought 8.00084257821e-05
biggest 7.43770448919e-05
thrilled 0.000330000700718
entire 0.000213935251476
something 0.000288814586316
closing 3.58040030575e-05
anyone 0.000679372385428
taking 0.000264746704123
reprint 0.0
flying 9.07541143591e-05
happening 0.0
sometimes 0.0
lessons 0.0
village 0.0
stopped 2.82385490412e-05
yesterday 0.000242632994796
service 7.9360462403e-05
serious 0.000102989145062
emails 0.0
wearing 0.000451816784659
afford 0.0
either 0.000131197155185
second 0.000121316497398
checking 6.23872318329e-05
volunteers 0.0
indeed 0.000262562014355
hearing 5.37748591714e-05
choose 0.0
another 0.000288037151969
address 6.48982101256e-05
display 0.0
compare 0.0
weekend 0.000243944695867
suggested 0.000188390337065
appear 3.64481267065e-05
anyway 6.22128164512e-05
theory 0.000315670842042
buildings 0.0
working 0.000120339410965
bigger 0.000112954196165
treated 0.0
admired 0.0
retirement 4.59377076298e-05
laughing 0.000114197771289
wanted 0.000243287946905
current 0.00806375150944
grateful 3.14571615288e-05
friendship 4.70975842664e-05
family 0.000409153997282
listening 7.91457673134e-05
stream 0.000165512187962
sharing 5.66317895557e-05
double 5.45103109499e-05
especially 2.66694752607e-05
middle 0.000110514473394
waiting 7.39769577625e-05
definitely 5.26211414336e-05
walking 8.6593282284e-05
account 0.000141192745206
completely 2.85494428222e-05
thought 0.000412476091153
accept 3.07607201294e-05
possible 0.000203764301566
simple 2.80080000554e-05
manufacturing 0.0
destroyed 4.62634063228e-05
members 6.06710276815e-05
supposed 9.59793604189e-05
manufacturers 0.0
business 0.000103827871055
absolutely 0.000128736431327
anywhere 3.20836249154e-05
sending 8.37949235636e-05
introducing 0.0
congrats 0.000404240894064
beauty 3.44651582574e-05
community 0.000118682052686
greatest 5.26211414336e-05
posted 2.84713400297e-05
wednesday 0.000203164413984
explain 2.80846032717e-05
broken 0.0
fairly 0.0
closest 0.0
hoping 5.78876509198e-05
relationship 0.0001294288423
actually 0.000567156676179
pockets 0.0
wallet 0.0
pocket 0.0
argument 3.71100624652e-05
decent 0.0
school 0.000171222276098
throwback 0.0
thursday 0.000154483717593
talented 0.000221441391137
discuss 0.000310195170788
celebrate 7.97917877476e-05
celebrating 5.74128341091e-05
anniversary 0.000116413663795
students 0.0
corners 0.0
internet 2.99177286353e-05
figure 8.63558756084e-05
opened 0.0
inspired 0.000116413663795
latter 0.0
sitting 0.000135905785045
playing 0.000146761950942
street 0.000133347376303
points 6.16933505668e-05
advice 0.000367101137536
memory 3.32924265632e-05
forever 2.71811570091e-05
congress 8.35796903748e-05
imagine 5.362911486e-05
problem 2.58169762263e-05
pulling 0.0
furniture 6.09654366013e-05
keeping 8.06622887572e-05
dressed 3.88497006396e-05
chinese 0.0
unlike 0.0
allowed 0.0
otherwise 0.0
afternoon 5.66317895557e-05
planned 0.000207393176456
images 0.0
noticed 0.0
expense 0.0
differences 0.0
difference 7.89317121505e-05
editor 3.95825686297e-05
intent 5.60517484067e-05
suppose 0.0
inspiration 3.30080055778e-05
letting 8.87660163555e-05
system 0.0
almost 0.000336950350702
details 0.0
experience 5.02580827913e-05
living 0.000125645206978
worries 4.23401794169e-05
weather 3.07607201294e-05
bright 0.00013548644681
understands 0.0
normal 9.67970025034e-05
launching 0.0
backyard 0.0
pointed 0.0
before 0.0
monday 0.000879516448848
example 0.0
science 3.39695197516e-05
tweeting 0.000274785333135
forgot 3.01675237853e-05
disaster 7.37747545622e-05
happens 0.000224338120253
silence 0.0
learned 5.57110502306e-05
congratulations 7.9575801257e-05
natural 6.8333090858e-05
babies 7.48960463121e-05
mission 0.0
surprising 0.0
reference 0.000122177212053
forgotten 7.16080061149e-05
setting 0.0
appeared 0.0
reminds 6.81356597768e-05
fantastic 0.000227147929844
loving 0.000227147929844
complete 2.76286183485e-05
daniel 0.0
rewarding 0.0
nearly 3.16344844482e-05
spirit 9.35808477494e-05
launched 0.0
finding 2.9425824656e-05
stories 0.000182190902138
including 0.000106967625738
wouldn 0.000155741806582
choice 0.000154066791587
offended 5.37029556166e-05
conversation 0.000351168930272
disrespectful 0.0
making 0.000456058823951
expect 8.6593282284e-05
traits 0.0
discussion 0.000210442779508
believes 0.000253208431225
response 8.49476843335e-05
brings 0.000116093950848
seasons 4.54573205794e-05
anytime 0.0
protected 0.0
location 7.55816470875e-05
needed 2.56777985979e-05
seriously 0.00021277810066
emergency 0.0
justify 0.0
spending 2.99177286353e-05
groups 0.0
condition 4.4071426465e-05
childhood 0.00011763999055
modern 6.93326463557e-05
welcome 0.000170301562834
moments 0.000119670914541
totally 0.000138898251492
running 0.000126325279395
strong 4.95846965946e-05
respond 0.0
message 0.000102157701876
coming 0.000816105263913
thankful 0.000227437139749
issues 8.61192511637e-05
challenge 2.63819224378e-05
intolerance 0.0
happen 0.000122631811989
giving 0.000194630357524
turkey 0.000245516576093
excellent 3.13689902148e-05
limits 4.46774964231e-05
contractors 0.0
common 5.95052699664e-05
pressed 0.0
healthcare 4.67604169367e-05
benefits 7.55816470875e-05
situation 3.14571615288e-05
workers 0.0
company 0.0001090206219
savings 0.0
health 5.67869824609e-05
insurance 0.000166077403829
change 9.62715287721e-05
silver 0.0
august 6.79390395033e-05
crying 3.79061899582e-05
mental 0.00014321601223
carrier 0.0
decide 8.95051184605e-05
happened 0.000304000248325
parking 0.0
demand 3.17236409187e-05
sacrifice 0.0
personal 0.000104674008566
rewards 0.0
beyond 2.68874295857e-05
contributing 0.0
passion 0.0
question 0.00245925823147
doctor 0.000184436886406
sacrifices 0.0
respected 0.0
losing 5.93410263428e-05
strain 0.0
respect 5.26211414336e-05
shouldn 0.000172711751217
career 5.58632823758e-05
visited 3.77908235437e-05
reason 7.60000620812e-05
simply 3.00839687802e-05
audience 0.000299631839069
sacrificed 0.0
employees 0.0
accounts 4.0210911387e-05
attacked 0.0
involved 5.60160001108e-05
extreme 4.16542160163e-05
valuable 4.51423359736e-05
knocked 0.0
reality 0.000171766807624
mention 5.93410263428e-05
without 0.000145579796877
problems 2.96705131714e-05
timing 4.2761395293e-05
described 0.0
pattern 0.0
online 0.000232981826957
background 3.62314873577e-05
buying 0.0
called 0.000435563693521
scientists 4.62634063228e-05
checked 0.000102499636287
heading 5.72556025414e-05
paying 3.12811424661e-05
planning 3.12811424661e-05
opposite 0.000118376565766
through 3.37741024651e-05
reached 0.000178491571059
changing 2.95071099113e-05
explains 0.00019414326345
harder 0.0
demands 0.0
silent 0.0
speaking 8.26603746279e-05
november 3.22656675011e-05
ordinary 0.0
number 0.000123294929604
stunning 0.0
atlantic 4.65935975532e-05
stupid 0.000234387548233
personality 0.0
grandparents 0.0
unless 5.93410263428e-05
calling 0.000151590335274
painting 0.0
focused 3.9091505571e-05
ridiculous 9.95917307886e-05
package 0.0
rooted 0.0
option 0.0
knowing 3.32924265632e-05
former 0.000332765085983
actual 0.000127972480559
tracked 0.0
suffers 6.6766053825e-05
schedule 0.0
friday 0.000439100452561
failure 0.0
achieve 4.03385836078e-05
winner 0.000160451438607
doctors 8.66695991718e-05
becomes 3.40678298884e-05
directly 0.0
quality 3.11064082256e-05
tearing 0.0
father 0.000219230737545
wishes 9.41069706445e-05
collar 0.0
caring 0.0
ground 9.35808477494e-05
matter 2.58169762263e-05
strategy 0.0
themselves 0.000126190292541
asking 0.000305646452348
usually 6.41672498307e-05
thankfully 5.43837166952e-05
reacts 0.000262539565463
period 3.59101605914e-05
parents 0.000230915419424
balance 3.74480231561e-05
resist 0.0
mobile 7.99151834502e-05
computer 3.72221867201e-05
reminded 4.17898451874e-05
impressed 0.000145792506826
dinner 0.000132986312913
suffering 0.0
single 0.000198338786378
parent 4.4071426465e-05
approved 4.54573205794e-05
energy 2.86278012707e-05
preview 0.00095943875246
meltdown 0.0
remind 3.34839354619e-05
emotional 3.46663231778e-05
sounded 0.0
status 0.0
update 2.80846032717e-05
outage 0.0
customers 0.0
holding 5.69426800593e-05
causes 0.0
eating 3.00839687802e-05
picked 3.00007044017e-05
missing 5.13555971958e-05
surprise 0.000360462007716
officially 0.000252761429445
global 3.21744731635e-05
follow 0.000459761676494
opinion 3.13689902148e-05
faster 0.0
backwards 0.0
design 0.0
website 5.86896289567e-05
widely 0.0
origin 0.0
breaks 6.34472818374e-05
allows 0.0
promoting 8.27704828975e-05
volunteer 0.0
convince 4.54573205794e-05
negative 3.50737965847e-05
official 4.97186182745e-05
jersey 0.000121400821204
mistake 6.65848531264e-05
fixing 0.0
translated 0.0
ginger 0.0
peaceful 0.0
thinks 0.00033701523926
hospital 3.50737965847e-05
lauren 0.0
easier 3.26339591448e-05
excluded 0.0
successful 0.0
leadership 3.76760104476e-05
agrees 0.0
decline 0.0
turnout 0.0
showed 0.0
trumps 0.0
circle 4.26201648854e-05
engage 0.0
suited 0.0
experienced 4.19262471785e-05
interested 9.27988205591e-05
effect 0.0
success 5.43623140181e-05
ladies 0.000330080055778
dreams 0.0
protect 9.25400258502e-05
explanation 0.0
occasion 0.0
medication 0.0
planet 3.37741024651e-05
detached 0.0
essence 0.0
control 5.37748591714e-05
happier 0.0
likely 6.43489463271e-05
coincidence 5.07594385804e-05
cancel 5.03669956165e-05
project 2.71811570091e-05
laying 0.0
lesson 3.34839354619e-05
requires 0.0
healthy 0.0
treating 0.0
opening 0.000130842510708
statement 6.23872318329e-05
enjoyed 0.000199846099755
animal 0.0
nervous 7.91651372593e-05
pounds 5.17696511192e-05
wonder 0.000365368958996
matters 3.16344844482e-05
shared 0.0
somehow 3.88497006396e-05
benefit 0.000271507714068
terrible 0.00015337536254
continues 5.86896289567e-05
improve 0.0
equally 0.0
appointment 0.0
session 0.0
routine 4.88585606525e-05
exciting 8.6593282284e-05
corner 0.0
imagination 0.0
decides 0.0
cheering 0.0
spring 0.0
fallen 0.0
frequently 0.0
places 0.0
thousands 0.0
informed 4.23401794169e-05
typical 0.0
continue 8.33389508954e-05
attend 0.0
excuse 6.97383858122e-05
settle 0.0
female 0.000160418124577
recovery 0.000159327720399
treasured 0.0
grandma 0.0
closer 0.0
beginning 6.0502742906e-05
everywhere 0.0
scenes 0.000276075652572
bought 0.00014712912328
multiple 3.64481267065e-05
slogan 0.000117866145137
wishing 0.000313822736155
covered 3.11936159165e-05
remove 0.0
choices 0.0
dealing 0.0
teacher 7.18203211827e-05
training 0.0
passing 0.000195248122037
stopping 3.65571860508e-05
become 0.000201032331165
spread 0.000577049199584
season 0.000265252670857
putting 5.0530111758e-05
weight 7.48960463121e-05
quietly 0.0
necessity 0.0
knocks 0.0
effects 0.0
returns 0.000129062670004
expected 0.000103395474772
resources 0.0
bucket 0.0
struggling 0.0
register 0.0
promotion 0.000104371966171
solution 7.99151834502e-05
manage 4.39222765453e-05
transition 0.0
gained 5.46150082013e-05
define 4.70975842664e-05
somebody 0.000107730481774
contract 0.0
ignorant 0.0
managers 0.0
credit 0.000118682052686
brothers 7.37747545622e-05
grandkids 0.0
computers 0.0
physical 0.0
series 0.000340190527841
offensive 4.36267359438e-05
fighting 0.0
donald 0.000449351882321
mexico 0.0
sandra 0.0
police 0.000124078068315
represent 8.14514747017e-05
president 0.000534838128689
talking 0.00135143927517
america 0.000332910656685
michigan 4.84958494004e-05
everybody 2.96705131714e-05
judgment 5.70598335529e-05
carolina 0.0
amount 3.37741024651e-05
houston 0.0
everyday 3.4166545429e-05
michael 0.000489260826163
protecting 0.0
providing 0.0
attitude 0.0
million 0.000176855391153
election 0.000232380705173
honesty 0.0
targeting 0.0
telling 8.19881501816e-05
correct 0.0
attack 6.20390341576e-05
elementary 5.50844052929e-05
americans 6.69678709238e-05
killed 5.362911486e-05
horrible 4.09873627382e-05
salute 0.000199923530618
coverage 0.000391607509738
united 6.23872318329e-05
college 3.00839687802e-05
refuse 4.31901557339e-05
preach 0.0
hillary 0.000301324664334
clinton 0.000275350445595
presidency 0.000103953824043
throws 0.0
manning 0.0
american 5.10788509378e-05
deserved 0.0
humble 0.0
remain 0.0
founder 0.0
illegal 0.0
arizona 0.0
opinions 0.0
speeches 5.15641693025e-05
scared 0.000105840492329
salary 5.55631909462e-05
pieces 0.0
taught 3.54883261577e-05
thompson 5.41546385388e-05
straight 0.000213355802086
blocking 0.0
answers 6.20390341576e-05
created 0.0
record 0.000226161372561
stamina 0.0
weapon 0.0
bottom 6.45313350022e-05
athletes 0.0
registered 0.0
minnesota 0.0
committed 7.58123799163e-05
journey 9.38434273983e-05
snapchat 8.93549928462e-05
peoples 0.0
disrespect 0.0
brother 2.93448144783e-05
prayers 0.000113028031343
boston 6.95350862739e-05
korean 0.0
church 0.000182785930254
advantage 0.0
motivation 0.0
honestly 0.0
defeat 0.0
lifetime 7.26791239283e-05
captain 4.0856192631e-05
retired 4.88585606525e-05
country 0.000248593091372
ending 0.000226500474025
dressing 0.00014028125081
finish 0.0
ranked 0.0
employee 0.0
university 3.44651582574e-05
dreamed 0.0
prayer 5.32596376757e-05
nominated 3.61238984815e-05
responds 9.69916988009e-05
national 0.00013013635867
reform 0.0
shooting 0.000120335875121
cancer 0.000151256857265
deserve 0.0
mother 0.00040221836145
creating 3.31024375924e-05
powerful 0.0
wisdom 4.05959891489e-05
breaking 0.000284755566281
dollars 0.0
questions 0.000838405521308
racist 8.66695991718e-05
charged 0.0
soldiers 5.03669956165e-05
performance 0.000167133150692
reading 0.000127697127344
denver 0.0
graphic 0.0
garner 0.0
create 5.57110502306e-05
jordan 0.0
admire 4.45245343393e-05
nobody 0.000118028439645
government 0.000108050372967
politics 0.000170339149442
blessing 0.0
wrestling 0.0
charities 0.0
donate 9.73473151885e-05
sample 0.0
bringing 8.11015283771e-05
deserves 3.19931201396e-05
regret 4.23401794169e-05
victim 4.57765051037e-05
according 0.000191417737494
threat 7.16080061149e-05
heaven 0.0
heroin 0.0
honest 5.98354572705e-05
became 6.01679375603e-05
decision 9.00021132052e-05
counting 6.8333090858e-05
signing 6.30913176004e-05
embrace 0.0
pressure 3.27269242506e-05
celebrities 0.000119566097771
facebook 0.000180231003858
kardashian 0.00068480325154
divided 0.0
lawyer 0.000137329515311
lebron 0.0
campaign 0.000558632823758
determine 5.32596376757e-05
whether 6.08399060553e-05
praise 0.0
defined 0.0
proposes 6.49094272216e-05
discover 4.09873627382e-05
factory 0.0
arrested 0.000136371961738
estate 0.000102316845121
proposed 4.54573205794e-05
comments 8.8034443435e-05
teenage 0.0
wounded 0.0
endorsement 0.00016110886685
williams 0.000460479565946
custom 0.0
troops 0.000149370410243
singer 9.38568139844e-05
future 4.95846965946e-05
struggled 0.0
sister 0.000161786052875
sabotage 0.0
athlete 5.15641693025e-05
warrior 0.0
cheating 0.000293281619993
voting 5.93410263428e-05
succeed 4.51423359736e-05
religion 0.000298740820486
century 3.94588552553e-05
serving 8.27704828975e-05
because 0.0
cleveland 0.0
hiding 0.000118376565766
breath 0.0
choosing 0.0
lawrence 0.000110168810586
instagram 0.000166939947516
opponent 5.19769120214e-05
detroit 4.46774964231e-05
honored 6.67759790063e-05
nonsense 8.99727687637e-05
lifting 0.000121930873203
proven 0.0
talent 0.0
knocking 0.0
russian 0.0
brains 5.30410198579e-05
oakland 0.0
regardless 0.0
skills 0.0
citizens 4.11192555493e-05
california 3.44651582574e-05
commitment 0.0
seconds 0.000128697892654
seeking 0.0
threatening 5.09580993443e-05
listen 0.000149155854823
whatever 2.76286183485e-05
mexicans 0.0
satisfied 6.52694112182e-05
fought 0.0
compete 0.0
injured 0.0
billion 0.0
ceiling 0.0
absolute 0.0
appearance 0.000147993843744
bigsean 0.0
handle 6.27379804297e-05
promise 2.85494428222e-05
nightclub 0.0
hosting 0.000378547905602
actors 4.88585606525e-05
generation 6.60160111556e-05
criminal 4.59377076298e-05
tuesday 0.000136646916969
ronald 0.000127721717622
locker 0.0
struggle 0.0
degree 4.29034638682e-05
entering 0.0
leader 9.41069706445e-05
pageant 0.000265525162315
toughest 0.0
character 9.65234194906e-05
mirror 3.92133301833e-05
interview 0.00428055690246
whistle 0.0
obviously 6.75482049302e-05
battle 0.000111726564752
motivate 0.0
destroy 8.35796903748e-05
relentless 0.0
winning 0.0
charlotte 0.0
accomplished 0.0
stepped 0.0
defense 0.000386103137981
appeal 0.0
causing 0.000101518877161
arabia 0.0
shipped 7.49756314903e-05
society 3.31972435962e-05
officers 0.0
brooklyn 4.86765180668e-05
marked 6.12703895745e-05
incredible 5.19139355274e-05
poster 0.0
wealthy 0.0
memorable 0.0
officer 0.0
minute 0.000162644319491
luther 5.73186305023e-05
foreign 7.96638601994e-05
pregnant 4.92268522962e-05
champions 0.0
virginia 0.0
tackle 8.93549928462e-05
unarmed 0.0
orange 0.000216100745933
policy 7.05603282196e-05
comedy 0.000450740944648
reminder 8.68314763797e-05
evidence 0.000107094942635
lighten 0.0
presidents 0.0
kicked 7.89177105106e-05
sticker 6.22092740148e-05
accused 9.52248204604e-05
intentions 0.0
facing 7.91651372593e-05
freedom 0.000100451806386
actions 0.0
debating 5.32596376757e-05
outcome 0.0
utterly 0.0
mississippi 0.0
clearly 6.10093822299e-05
download 0.0
sidelines 0.0
invite 3.40678298884e-05
legally 0.0
central 3.17236409187e-05
washington 6.36262613704e-05
veteran 4.72679656594e-05
division 4.42215114999e-05
veterans 0.0
stronger 0.0
promised 0.0
worried 0.000104302629411
security 0.000127611824996
immediately 0.0
television 8.46803588337e-05
entitled 0.0
racism 0.0
highest 0.0
approve 4.76124102302e-05
turning 0.000150419843901
legacy 7.62772085125e-05
ignore 0.0
choked 0.0
backing 0.0
helping 0.000132267437338
collector 0.0
willing 3.65571860508e-05
basically 0.0
return 0.000159583575495
unacceptable 0.0
feelings 4.15193509573e-05
network 0.00047012374531
language 6.73539776077e-05
invest 0.0
coward 0.0
schools 3.4166545429e-05
patients 0.0
foster 9.95802734952e-05
children 0.000211627899741
nation 0.0
review 5.72556025414e-05
between 0.0
knowledge 3.4166545429e-05
begins 0.000230282334956
tenure 0.0
faithful 7.14414493971e-05
highlights 0.0
shoulder 0.0
produced 0.0
consider 0.000191417737494
shattered 6.92025772917e-05
latest 0.000780818152018
beyonce 0.000154692507907
signed 2.65252670857e-05
millionaire 0.000192615910145
shelter 0.0
charity 0.000100740802566
germany 0.0
advance 0.0
proved 0.0
married 0.000854234158414
millions 3.25413536728e-05
blessings 0.0
indonesia 0.0
fights 0.0
dollar 4.04669404015e-05
rigged 0.0
conduct 5.53226011355e-05
johnson 6.8333090858e-05
howard 4.4071426465e-05
turned 0.000184673457065
criticism 4.46774964231e-05
stomach 4.99808826546e-05
upgrades 0.0
jackie 0.000178489071059
relevant 0.0
charge 3.32924265632e-05
ticket 0.000225859672508
steady 0.0
indian 0.0
turner 0.000355278348221
sanders 0.0
includes 0.0
survivor 0.0
dealers 0.0
collection 0.0
against 0.0
joyner 0.0
impact 3.21744731635e-05
families 9.22821603883e-05
welcoming 9.62771039033e-05
hitting 6.41672498307e-05
announced 0.000175584465136
granted 4.61000030627e-05
decided 0.000143926459347
itself 0.0
selfish 0.0
mexican 4.77865090679e-05
respects 6.09654366013e-05
guarantee 0.0
beliefs 0.0
citizen 0.0
states 0.000151677569204
denied 0.0
drought 0.0
memorial 3.9091505571e-05
decades 0.0
trayvon 0.0
landed 0.0
pastor 0.0
ultimate 6.97383858122e-05
weekends 0.0
episode 0.000344477004655
spikes 0.0
engaged 0.000103128338605
financial 4.23401794169e-05
payments 0.0
tolerant 0.0
symposium 0.0
kansas 4.81385519516e-05
agreement 0.0
source 0.0
backbone 0.0
dismiss 0.0
midnight 0.0
homework 5.34802704325e-05
joining 0.000254843053001
reasons 5.60160001108e-05
talked 9.07541143591e-05
released 0.000112032000222
reaching 0.0
release 0.000105527689751
existing 0.0
models 4.64279326383e-05
pageants 0.0
helmets 0.0
scheme 5.26096841403e-05
scholarship 0.0
stacked 0.0
speech 0.000404101983992
standing 5.4957066627e-05
higher 0.0
purple 0.0
justice 3.23572105751e-05
served 3.63395619641e-05
speaks 6.95350862739e-05
backup 6.09654366013e-05
allegedly 6.49094272216e-05
purchase 0.0
millionaires 0.0
consideration 0.0
strength 3.32924265632e-05
incredibly 0.0
private 3.08466752834e-05
ignored 9.18754152595e-05
neighbors 5.43837166952e-05
apologizes 0.0
beings 0.0
minimum 0.0
direction 0.0
enemies 5.11584225607e-05
exclusive 0.000171296656933
prison 0.000212398814067
himself 0.000115830941394
contributes 0.0
investigation 4.43725434499e-05
teaching 0.000146666978097
disgusting 0.0
philly 4.49863843819e-05
rights 9.73473151885e-05
cheers 0.0
maintain 0.0
overcome 0.0
flawless 0.0
unique 0.0
neighborhood 0.0
dating 0.000238062051151
handed 0.0
victory 0.000103095618579
lifted 0.000118426116074
greatness 0.0
muslim 4.5299310206e-05
terrorist 4.92268522962e-05
productive 4.77865090679e-05
tribute 6.60160111556e-05
deadspin 0.0
threatened 5.15641693025e-05
horror 0.0
warning 0.000139070172548
convention 0.000138790218969
understanding 0.0
action 5.16339524527e-05
having 4.51423359736e-05
afghan 0.0
announces 0.0
commencement 0.0
speaker 0.0
graduation 0.0
honors 0.0
produce 4.51423359736e-05
apologize 0.00013311763035
insult 0.000101518877161
continued 0.0
letter 2.96705131714e-05
discussed 4.29034638682e-05
therapy 0.000100733991233
untrue 0.0
written 5.86896289567e-05
existence 0.0
essential 4.26201648854e-05
results 0.0
initiative 0.0
disease 9.41951685327e-05
marching 0.0
suggest 3.72221867201e-05
georgetakei 0.000275115504947
ensure 0.0
democrats 0.000105648761018
marched 0.0
foundation 6.85313394614e-05
access 0.0
writes 0.0
student 0.000103696588228
colorado 0.0
medical 0.000118747705889
medicine 4.84958494004e-05
tremendous 0.0
nytimes 0.00010934438012
kindness 0.0
public 2.79316411879e-05
cannot 2.681455743e-05
reveals 0.000107730481774
invented 0.0
threatens 0.0
candidate 0.000191278315471
persistence 0.0
sexual 0.000379812646837
illustration 0.0
measure 8.81428529299e-05
compared 8.30387019145e-05
headline 7.53520208951e-05
reflect 0.0
answering 3.62314873577e-05
streaming 0.000314686223538
leaders 3.50737965847e-05
supreme 0.0
nominee 0.0
immigration 0.0
policies 0.0
laundering 0.0
administration 9.09146411589e-05
defend 3.93357779422e-05
communicating 0.0
excitement 0.0
funding 3.83732971622e-05
climate 0.0
transfer 0.0
conspiracy 4.74395684348e-05
activist 0.000110645202271
horrifying 0.0
freely 0.0
retreat 0.0
daughters 0.000103128338605
compelling 0.000111126381892
platform 3.81386042562e-05
hamilton 0.0
futures 0.0
huffingtonpost 0.000222252763785
headlines 0.00013311763035
january 0.0
grants 0.0
unprecedented 0.0
relationships 0.000100346321347
philadelphia 5.32596376757e-05
diversity 0.0
funded 0.0
secure 0.0
income 0.0
universal 0.0
contributed 0.0
hurricane 0.000968203887542
fundamental 0.0
countries 0.0
linked 4.48314421926e-05
african 0.0
improved 4.74395684348e-05
unclear 0.0
provide 0.0
livestream 0.000109697112491
addresses 0.0
enhance 0.0
companies 0.0
proposal 0.0
potential 6.63944871924e-05
discrimination 0.0
connected 0.0
drives 0.0
attending 0.0
filled 6.75482049302e-05
education 0.0
addressed 0.0
mentioned 3.53840188699e-05
famous 0.000165512187962
resistance 0.0
exists 4.46774964231e-05
demonstrated 0.0
officials 8.46803588337e-05
instructions 0.0
transmission 0.0
olympics 0.0
ability 3.4971276151e-05
political 0.000103395474772
director 0.000300007044017
contains 0.0
sponsored 0.0
autism 0.0
previously 0.0
prevent 3.99575917251e-05
capacity 0.0
donations 4.54573205794e-05
william 0.000285080161456
editors 0.000109230016403
passionate 0.0
solving 0.0
innate 0.0
treatment 0.0
critical 0.0
feeding 9.92017974585e-05
preparing 4.0210911387e-05
depend 0.0
capable 0.0
bridge 0.0
systematically 0.0
becoming 0.000123386701134
embraced 0.0
literacy 0.0
lawyers 0.0
stigma 0.0
malaria 0.0
standard 0.000104302629411
hiring 4.65935975532e-05
remains 3.72221867201e-05
fellow 6.10093822299e-05
defending 0.0
quotes 0.0
pushes 0.0
luxury 0.0
admitted 0.0
colleagues 8.81428529299e-05
failed 3.56983142118e-05
independent 0.0
politically 0.0
driven 0.0
agenda 0.0
result 0.0
implications 0.0
insider 0.0
pakistan 0.0
solutions 0.0
trusts 0.0
indiana 0.0
filling 0.000147125994643
humility 0.0
clicks 0.0
disagree 0.00011166656016
claims 0.00019305156899
editorial 0.0
mistakes 0.0
offered 3.95825686297e-05
passionately 8.18623043697e-05
justification 0.0
inspiring 0.0
counter 4.54573205794e-05
shaped 0.0
retroviral 0.0
majority 0.0
approach 7.16080061149e-05
nature 0.0
concern 0.0
server 0.0
berniesanders 0.000557071304075
shameful 0.0
experiment 0.0
massive 0.0
promises 0.0
colored 0.0
consequences 0.0
whatsoever 7.23991164862e-05
proposals 0.0
guesses 0.000134310612109
bernie 0.000414157208953
interviewed 0.000154918831936
pregnancy 6.42053033817e-05
secretary 8.3852494357e-05
measures 0.0
vastly 0.0
reduce 0.0
compassionate 0.0
distinguished 0.0
dangerous 0.000193594005007
influence 3.93357779422e-05
letters 4.45245343393e-05
implicit 0.0
saving 0.0
revelations 0.0
incident 4.96008987292e-05
universe 0.0
victims 0.000592776279404
milestone 0.0
perfectly 3.65571860508e-05
exercise 0.000125778741535
receive 0.0
reputation 0.0
economics 5.78447722237e-05
disclosure 0.0
receives 0.0
terrific 0.00080446340892
collected 6.31864907046e-05
campus 0.0
founders 0.0
profiling 0.0
systemic 0.0
studying 0.0
necessary 0.0
inaccurate 0.0
breast 0.000107405911233
debate 0.000989854085964
suddenly 4.42215114999e-05
conflict 0.0
interest 3.37741024651e-05
meanwhile 4.22014052041e-05
indefensible 8.41438856472e-05
recall 9.15530102073e-05
rating 0.0
nominate 0.0
outstanding 0.0
devastating 0.0
illness 0.000104793792418
troubling 0.0
romney 0.00543957979041
appears 0.0
breathe 0.0
abroad 0.0
spanish 0.0
profit 0.0
reviews 8.63803114679e-05
republican 0.000569274821218
presidential 0.000160335665902
candidates 0.000121787967447
politicians 0.000131322150481
identified 0.0
epidemic 0.0
displaced 0.0
greater 0.0
absurd 0.0
deadline 0.0
height 0.0
sisters 9.15530102073e-05
nuclear 0.00012743928844
stress 4.43725434499e-05
leading 6.10093822299e-05
restored 0.0
conditions 0.0
however 0.000114415812769
achieved 0.0
member 2.82385490412e-05
examples 0.0
diverse 0.0
suicide 4.74395684348e-05
contributions 0.0
largest 0.0
increase 0.0
targeted 0.0
regulators 0.0
provided 0.0
element 0.0
effectively 0.0
population 0.0
rising 0.0
indication 0.0
versus 5.34802704325e-05
believed 0.0
dynamic 5.21859830854e-05
invasion 0.0
primary 0.0
provides 0.0
environment 0.0
confirmed 3.4971276151e-05
behavior 0.0
introduced 9.15530102073e-05
contain 5.19769120214e-05
communities 0.0
worldwide 0.0
responsible 3.92133301833e-05
household 0.0
apparent 6.18922033574e-05
munich 0.0
alternate 0.0
expressed 0.0
movement 3.20836249154e-05
declared 0.0
hundreds 0.0
information 3.25413536728e-05
easily 0.0
untreated 0.0
october 3.35802675221e-05
quantify 0.0
scales 7.49756314903e-05
investigating 0.0
innovation 0.0
perspective 3.54883261577e-05
rivals 0.0
interests 0.0
toledo 0.0
extraordinary 0.0
gingrich 0.00183137049283
describing 0.0
eliminate 0.0
obligation 0.0
gender 8.78445530906e-05
committee 3.93357779422e-05
preventing 6.15792775333e-05
numerous 0.0
unusual 0.000101518877161
improving 0.0
practices 0.0
cemetery 0.0
questioned 0.0
affecting 0.0
ferrell 0.0
genius 9.5708868747e-05
warren 0.000387258207948
organizers 0.0
regularly 0.0
ceilings 0.0
sexism 5.83827383389e-05
prepared 0.0
burden 0.0
foreignpolicy 0.0
county 4.43725434499e-05
uniform 0.0
newyorker 0.0
anthony 0.0016634139061
reflecting 0.0
grandson 0.000139267826019
banning 0.0
considered 3.72221867201e-05
chosen 4.5299310206e-05
outright 0.0
screenings 0.0
naming 0.0
conventions 0.0
reproductive 7.72572127678e-05
ignores 0.0
focusing 0.0
sensible 0.0
concluded 0.0
performed 4.99808826546e-05
divide 0.0
dismissed 0.0
compromise 5.78447722237e-05
crucial 0.0
weakness 0.0
barrier 0.0
effective 0.0
wealth 0.0
underway 4.81385519516e-05
israel 0.000204633690243
overwhelming 0.0
assault 0.000229688538149
citing 0.0
protection 4.16542160163e-05
prisoners 6.35213001436e-05
photographing 9.38501059192e-05
traveled 0.0
holder 0.0
seemed 4.31901557339e-05
concludes 0.0
determination 0.0
tested 4.84958494004e-05
lacking 0.0
machine 9.70716317252e-05
honoring 0.0
contrary 0.0
tolerance 0.0
michelle 0.000277580437937
assumed 0.0
programs 0.0
closely 0.0
politico 0.0
inspire 0.0
lyrics 4.49863843819e-05
judges 0.0
federal 4.48314421926e-05
maryjblige 8.7569502998e-05
tuning 0.000106082039716
striving 0.0
poland 0.0
september 6.73539776077e-05
manchester 0.0
checks 9.28558652765e-05
remarkable 0.0
mharrisperry 0.000118981256746
immoral 0.0
fiction 4.81385519516e-05
process 0.0
anxious 0.0
destructive 0.0
nmaahc 0.0
performances 4.70975842664e-05
whitehouse 0.0
flotus 6.09654366013e-05
crisis 3.68873772811e-05
marriage 0.00103798377393
emotions 0.0
confidence 0.0
voters 8.22385110986e-05
comparing 0.000106082039716
oldest 4.83165340701e-05
empirefox 0.0
chancetherapper 0.0
songwriter 7.55259657197e-05
literally 0.0
onstage 0.0
believing 0.0
hillaryclinton 0.000191146036272
citizenship 0.0
counted 0.0
hillaryfornc 0.0
raleigh 0.0
discusses 0.0
johnlegend 0.0
apprentice 0.000285765797588
acknowledge 0.0
conservative 8.90490686786e-05
economists 0.0
buzzfeed 0.0
puppet 6.6383029899e-05
hombres 0.0
republic 0.0
homecoming 0.0
andersoncooper 0.000491173826218
muslims 5.07594385804e-05
katyperry 0.0
bragging 0.0
treats 0.0
qualified 5.13604362884e-05
islamophobia 0.0
debates 0.000238062051151
endorsements 0.0
counts 0.0
theellenshow 0.0
festival 3.52801641098e-05
encouraged 0.0
stylish 6.79533294398e-05
disregard 0.0
jtimberlake 0.0
backstage 0.000647852336009
barack 0.000106519275351
joined 0.000147535549556
terrorism 4.77865090679e-05
pushing 0.0
hopeful 0.000107405911233
mentions 0.0
teamed 0.0
exclusively 0.0
aliciakeys 0.0
kingjames 0.0
muhammad 0.0
refused 0.0
characters 0.0
express 3.71100624652e-05
gratitude 0.0
ugliest 0.0
throughout 7.60442300998e-05
awkward 3.99575917251e-05
shining 0.0
fighter 0.0
accepting 4.39222765453e-05
applemusic 0.0
reveal 3.4971276151e-05
stands 0.0
native 0.0
announce 0.000111422100461
dorothy 0.000165197862497
haters 0.0
jessetyler 0.0
shondarhimes 0.0
lavernecox 9.91918244002e-05
broadway 0.00016110886685
disabilities 0.0
adoption 0.000268621224218
touched 4.48314421926e-05
corruption 0.0
violence 3.51767579678e-05
leedanielsent 0.0
delivered 7.79405955895e-05
jasmine 0.0
independence 0.0
square 0.0
alongside 4.59377076298e-05
privilege 0.0
secondary 0.0
staggering 0.0
seventh 0.0
tennis 0.0
sweeping 0.0
footage 0.0
overseas 0.0
spoiler 0.000100733991233
theirs 0.0
offering 0.0
construction 0.0
spends 0.000109697112491
detail 0.0
cabinet 0.00014494960221
earnings 0.0
pleased 0.0
gravity 0.0
statements 0.000152874298033
decade 0.0
bigotry 0.0
belong 0.0
trillion 0.0
backed 0.0
operations 0.0
breakthroughs 0.0
values 4.37740501605e-05
senator 9.92017974585e-05
removing 0.0
wondered 9.25268126457e-05
introduces 6.6766053825e-05
makers 0.0
measured 0.0
pillars 0.0
instrument 0.0
shares 0.000115830941394
individual 0.0
applications 0.0
prepares 0.0
ceremony 0.000213806976465
expanding 0.0
merger 0.0
newspaper 0.0
detailed 5.30410198579e-05
tuition 0.0
childcare 0.0
thoroughly 0.0
adviser 0.0
matthew 0.000183106020415
affected 3.6998460936e-05
newspapers 0.0
corporate 0.0
economy 0.0
presenting 9.12327617268e-05
spoken 0.0
richer 0.0
during 0.0
combat 9.95802734952e-05
touting 0.0
competitive 0.0
prominence 0.0
trifecta 0.0
fashioned 6.22092740148e-05
boasts 0.0
ripped 5.92130580368e-05
belief 0.0
heroes 7.31143721016e-05
disturbing 5.07594385804e-05
russians 0.0
intelligence 0.0
deepest 0.0
regrets 0.0
complicated 0.0
internships 0.0
adults 0.0
describe 6.95350862739e-05
equality 4.31901557339e-05
announcement 9.22821603883e-05
interfere 0.0
terrifying 0.0
nationwide 0.0
manager 0.0
questionable 0.0
enhanced 0.0
services 0.0
delighted 0.0
golfer 0.0
regarding 4.43725434499e-05
teachers 4.29034638682e-05
suggests 0.0
phrase 4.49863843819e-05
immigrants 5.01731606736e-05
revolution 0.0
universities 0.0
twelve 6.60060380973e-05
principle 0.0
releases 0.0
malarkey 0.0
library 0.0
advisor 5.58062233348e-05
deadlines 0.0
encouraging 0.0
circuit 0.0
humanitarian 0.0
reliant 0.0
assistance 6.56348913657e-05
swimmer 0.0
hinges 0.0
concrete 0.0
accepted 0.0
confronted 0.0
comprehensive 0.0
pushed 9.31871951063e-05
unending 0.0
occasionally 0.0
guardia 0.0
donation 8.11919782977e-05
nomination 0.0
paintings 0.0
significantly 0.0
investment 0.0
terror 0.0
worship 0.0
represents 0.0
attempting 0.0
bullying 0.0
astonishing 0.0
endorse 0.0
urgent 0.0
forced 0.0
addressing 0.0
script 0.0
hundred 0.0
command 0.0
qualifies 0.0
stumbled 0.0
territory 0.0
balloons 0.0
objects 0.0
latimes 0.0
pandemics 0.0
separating 0.0
pentagon 0.0
threats 0.0
prisons 0.0
approaching 0.0
generous 4.56163808634e-05
roughly 0.0
commands 0.0
uncovered 0.0
destroying 0.000105219368281
opposition 0.0
addiction 0.000159123059574
manhattan 0.000112103496813
ridiculously 0.0
awarded 0.0
greeted 0.0
forces 3.89702977947e-05
confirm 0.0
dealings 0.0
nations 0.0
equivalent 0.0
sexist 5.78447722237e-05
yahoonews 0.0
bloody 0.0
boundaries 0.0
exceptionally 0.0
cannon 0.0
feared 0.0
significance 0.0
recommendation 0.0
chapters 0.0
racial 0.0
obvious 0.0
statistics 0.0
military 0.000112004515862
adopted 0.000106082039716
housing 4.94131449459e-05
clearer 0.0
calculator 0.0
underwater 0.0
guided 0.0
rescue 0.0
deserving 0.0
advised 0.0
ordered 7.05603282196e-05
unions 6.71553060545e-05
avoiding 0.0
alicia 0.0
preserve 0.0
balloon 0.0
economic 0.0
recipe 9.99617653091e-05
awaits 0.0
squarely 0.0
radical 0.0
banter 0.0
spaces 0.0
carnival 0.0
theories 0.0
bombing 5.60517484067e-05
products 0.0
margaret 0.0
gathered 0.0
taxpayers 0.0
admits 0.000105219368281
opposed 0.0
pressing 6.22092740148e-05
russia 7.44443734403e-05
lincoln 4.90419982142e-05
intelligent 4.88585606525e-05
momentum 0.0
olympic 0.0
magnificent 0.0
heritage 5.68038045384e-05
beijing 0.0
beloved 0.0
dummies 0.0
pursuit 0.0
carries 0.0
phelps 0.0
medals 0.0
gymnastics 0.0
summed 0.0
accuse 0.0
symbol 0.0
dignity 0.0
slogans 0.0
priorities 0.0
applied 0.0
progressive 0.000110168810586
activists 0.0
elected 0.000125369535562
brussels 0.0
subscribe 0.0
elections 0.0
unites 0.0
complacency 0.0
imperative 0.0
doorsteps 0.0
voices 3.8729707984e-05
blatant 0.0
democracy 0.0
disastrous 0.0
rebuild 0.0
accuses 6.38608588108e-05
diplomacy 0.0
hardball 0.0
attacking 9.25268126457e-05
subtle 0.0
barker 0.0
sticking 0.0
openly 0.0
policing 0.0
embarrassed 0.0
slightest 0.0
abbott 0.0
attacks 3.86103137981e-05
commit 0.0
argued 0.0
remarks 5.19769120214e-05
democratic 0.0
semitic 0.000154514425536
incomes 0.0
treasury 0.0
alarming 0.0
dividing 0.0
reject 0.0
affirming 0.0
quitting 0.0
extended 4.36267359438e-05
reducing 0.0
proudly 0.0
inclusive 0.0
oppose 0.0
distinctly 0.0
urging 0.0
strengthen 0.0
deliver 0.0
obligations 0.0
relations 0.0
repeal 0.0
strengths 0.0
counties 0.0
weakened 0.0
reckless 0.0
prosperous 0.0
servant 0.0
secretaries 0.0
negotiator 0.0
faults 0.0
choking 0.0
executive 0.0
alternative 0.0
extend 0.0
republicans 0.000244292803263
embodied 0.0
preparation 5.55631909462e-05
terrorists 0.0
confident 4.13852414487e-05
weapons 4.67604169367e-05
unifying 0.0
outrage 5.26096841403e-05
constitutional 0.0
rental 0.0
prevail 0.0
resilient 0.0
humbled 0.0
courage 7.91651372593e-05
commander 0.0
respecting 0.0
enormous 5.68038045384e-05
aligned 0.0
consent 0.0
refusing 0.0
resentment 0.0
substance 0.0
claiming 0.0
lamont 0.0
dropping 0.000144925949431
carried 5.11584225607e-05
intimidated 0.0
behalf 0.0
meaningful 0.0
amendment 0.0
accepts 0.0
legislation 0.0
fairer 0.0
commitments 0.0
handling 5.46150082013e-05
proves 0.0
rhetoric 5.62998178252e-05
hardest 0.0
peddling 0.0
divisive 0.0
strongly 0.0
vision 3.54883261577e-05
investigations 0.0
repeatedly 0.0
records 0.0
madeleine 0.0
disabled 5.73186305023e-05
quoting 5.73186305023e-05
assassination 0.0
beaten 0.0
deeply 0.0
grievance 0.0
contempt 0.000132012076195
standards 0.0
fairness 0.0
dictated 0.0
consensus 0.0
reconsider 0.0
priority 0.0
rogers 0.0
freedoms 0.0
notorious 0.0
invested 0.0
propaganda 0.0
unconstitutional 0.0
condemn 0.0
concerned 0.0
praising 0.0
cheered 0.0
realdonaldtrump 0.000334318761499
despicable 0.0
straightforward 0.0
bargain 0.0
attorney 0.00016815524522
bedrock 0.0
optimism 0.0
belongs 0.0
truman 8.57954704432e-05
whichever 0.0
inappropriate 0.0
beatings 0.0
optimistic 0.0
campaigned 0.0
allies 0.0
governor 5.01731606736e-05
attempts 4.70975842664e-05
extent 0.0
denial 5.15641693025e-05
maximum 6.25306007812e-05
merely 0.0
apprenticeships 0.0
agreeing 0.0
architect 0.0
responsibility 3.94588552553e-05
mainstream 0.0
legitimacy 0.0
injustice 0.0
dozens 0.0
donnell 0.000612986520986
scenario 0.0
crimes 0.0
thoughtful 0.0
hypocrisy 6.42053033817e-05
undocumented 0.0
sexually 0.000132766059798
richest 6.71553060545e-05
softening 0.0
implies 0.0
infrastructure 0.0
pitching 0.0
broadband 0.0
tenants 0.0
allegations 5.89330725683e-05
bloomberg 0.000193664329553
insulting 0.0
liberal 0.000134494326578
kremlin 0.0
podium 0.0
provoke 0.0
outrageous 5.73186305023e-05
campaigns 0.0
barriers 0.0
powell 0.0
technical 0.0
warnings 0.0
flagged 0.0
grassroots 0.0
extremist 0.0
businesses 0.0
welcomes 5.73186305023e-05
deputy 5.70598335529e-05
donating 0.0
continually 0.0
ourselves 0.0
fringe 0.0
politician 4.77865090679e-05
wiggins 0.0
welcomed 0.0
rallies 0.0
ballot 0.0
failing 0.0
uniting 0.0
refuses 0.0
appealing 0.0
proverb 0.0
privileges 0.0
ideals 0.0
vibrant 0.0
tarmac 0.0
residents 0.0
apprenticeship 0.0
denying 0.0
fierce 0.0
opponents 0.0
polling 0.0
apology 0.000135427007921
damning 0.0
outline 0.0
endorses 0.0
losers 0.0
insulted 0.0
equipped 0.0
battlefield 0.0
recession 0.0
endorsed 6.09654366013e-05
divides 0.0
describes 0.0
appointed 0.0
encourage 0.0
undermine 0.0
undermining 0.0
authority 0.0
betray 0.0
funnyordie 0.0
donated 4.31901557339e-05
jimmykimmellive 0.000273450177082
immigrant 0.0
criminals 0.0
automatically 0.0
schooled 8.25989312487e-05
elizabethforma 0.0
releasing 0.0
connects 0.0
screening 4.64279326383e-05
cleaner 0.0
nowthisnews 0.0
sophiabush 0.0
chelseaclinton 0.0
stunts 0.0
truths 0.0
transparency 0.0
obamacare 5.92130580368e-05
nickkristof 0.0
contraception 9.50779896603e-05
betting 5.73186305023e-05
conscience 6.56348913657e-05
proclaimed 0.0
dispatch 0.0
advocate 0.0
profits 0.0
toward 4.33347995859e-05
guiding 0.0
senators 0.0
barber 0.0
doubled 0.0
mosque 0.0
senate 4.90419982142e-05
louisiana 0.0
senwarren 0.0
parenthood 0.000330030190486
organizations 0.0
generations 4.76124102302e-05
minorities 0.0
misogyny 0.0
peacefully 0.0
decency 0.0
intend 0.0
discourse 0.0
pennsylvania 0.0
katiemcgintypa 0.0
experiencing 0.0
mccain 0.000278535652037
scandal 0.000370107250583
constitution 5.50844052929e-05
sensanders 0.0
intolerable 0.0
strive 0.0
forefathers 0.0
abandon 0.0
buzzfeednews 0.0
paulkrugman 0.0
mothers 4.46774964231e-05
compassion 0.0
deeper 0.0
governments 0.0
activism 6.83625442706e-05
jamilsmith 0.0
mike_pence 0.0
elizabethbanks 0.0
empathy 0.0
audited 0.0
checkers 0.0
warming 4.31901557339e-05
volunteering 0.0
charitable 0.0
qualifications 0.0
workplace 0.0
granddaughter 0.0
recycled 0.0
directing 0.0
politifact 0.0
abolish 0.0
murders 0.0
reagan 0.000172740767669
pouring 0.0
ballots 0.0
racists 0.0
empower 0.0
tolerate 0.0
chrismurphyct 0.0
igorvolsky 0.0
outraged 0.000127721717622
exceptional 0.0
nightmares 0.0
enforcement 0.0
weaken 0.0
medicaid 0.0
humbly 0.0
newsweek 0.000145785421953
conflicts 0.0
suffer 0.0
dallasnews 0.0
bridges 0.0
lesdoggg 0.0
appalling 0.0
hatred 0.0
superpower 0.0
goodbye 7.53520208951e-05
renewable 0.0
robdelaney 0.0
motherjones 0.0
trusted 0.0
sheriff 0.000201465918163
personalized 0.0
amnesia 0.0
malala 0.0
problema 0.0
everytown 0.0
casting 0.000120733886624
employers 0.0
rudolph 9.15685246417e-05
packets 0.0
organization 0.0
graceful 0.0
hardworking 0.0
cherished 0.0
aggressively 0.0
founding 0.000125061201562
sacred 0.0
horrific 0.0
earned 0.0
siding 0.0
minded 0.0
contribute 4.99808826546e-05
incites 0.0
chooses 0.0
obtained 0.0
defended 6.31864907046e-05
champion 0.0
magazines 0.0
waited 0.0
punished 0.0
conviction 0.0
tradition 4.36267359438e-05
giveaways 0.0
distracted 0.0
endorsing 0.0
pathetic 0.0
ladygaga 0.000612703895745
pessimistic 0.0
highlighting 0.0
transgender 6.83625442706e-05
womensmarch 0.0
advisors 0.0
wrecking 0.0
hillaryforva 0.0
registration 0.0
ellemagazine 0.0
acceptance 0.0
defeated 0.0
theroot 0.0
pharrell 0.0
tumblr 0.0
nevada 0.0
illinois 6.52694112182e-05
massachusetts 0.0
theadvocatemag 0.000108161417793
lending 0.0
rejecting 0.0
legalize 7.72572127678e-05
conned 0.0
arkansas 0.0
celebratin 0.0
rubber 0.0
lenadunham 0.0
hateful 0.0
wizard 0.0
unbearable 0.0
harpersbazaarus 0.0
familia 0.0
iamwill 0.0
retweets 5.97830488854e-05
nominating 0.0
vietnam 0.0
laurie 0.0
claimed 0.0
rapids 0.0
devoted 0.000125061201562
casino 0.0
astounding 0.0
summon 0.0
crushed 9.77171213051e-05
louder 0.0
farmers 0.0
lin_manuel 0.0
arrangement 0.0
borrowed 7.33966976899e-05
mariska 0.0
purposes 0.0
dialogue 0.0
comedian 0.000527906915987
________ 0.0
lightly 0.0
defeating 0.0
jerusalem 0.0
cynical 6.75509924958e-05
worrying 0.0
elizabeth 0.000531481874771
insults 0.0
microphone 6.96339130094e-05
sleeves 0.0
theeconomist 0.0
stakes 0.0
nationally 0.0
inspect 0.0
poisoning 0.0
columbus 5.60517484067e-05
declaring 6.96339130094e-05
crushing 0.0
chucktodd 0.0
soldier 0.0
painted 0.0
warned 0.000193266136281
ohiostate 0.0
unrelated 0.0
designated 0.0
clears 0.0
congressional 0.000121930873203
confront 0.0
usatoday 0.0
delivers 0.0
pittsburgh 0.0
entiende 0.0
soaked 0.0
bromance 0.0
lifelong 0.0
antiques 0.0
repjohnlewis 0.0
breakers 0.0
fundraising 0.0
hispanic 0.0
defrauded 0.0
fearful 0.0
nytopinion 0.0
volume 0.0
perfecting 0.0
washingtonpost 0.0
affordable 0.0
mighty 0.0
normalizing 0.0
boasting 0.0
assaulting 0.0
disqualify 0.0
monique 0.0
jcolenc 0.0
teamusa 0.0
allysonfelix 0.0
usabasketball 0.0
ibtihaj 0.0
simone 0.0
feminism 0.0
conversion 7.23991164862e-05
destiny 0.0
disrespected 0.0
serenawilliams 0.0
tantrum 0.0
heinous 0.0
unconscious 0.0
accomplishments 0.0
saddened 5.05624129031e-05
disgrace 0.0
rodriguez 0.0
arsenal 0.0
defender 0.0
malalafund 0.0
merchandise 0.0
laundry 0.000127042600287
lesbians 0.0
cnnpolitics 0.0
nickgass 0.0
examining 7.72572127678e-05
monument 0.0
appeals 0.0
gracias 0.0
madame 0.0
grande 0.0
speechless 6.00732158886e-05
coulter 0.000805370437153
missiles 0.0
psyched 0.0
chelsea 5.13604362884e-05
biases 0.0
resume 5.81122441087e-05
spectator 0.0
angelina 0.000750800847354
spectacle 0.0
admiration 0.0
reaches 0.0
español 0.0
dreamers 0.0
mañana 0.0
bursting 0.0
undone 0.0
beyoncé 0.0
nuestra 0.0
diwali 0.0
prestigious 0.0
cynicism 0.0
disability 6.71553060545e-05
registering 0.0
booker 0.0
méxico 0.0
disponible 0.0
honduras 0.0
famously 0.0
overdue 0.0
equity 0.0
opioid 0.0
millennials 0.0
recommendations 0.0
investors 0.0
betrays 0.0
patriotism 0.0
liability 0.0
iranian 0.0
delegate 8.57954704432e-05
struck 0.0
millennial 0.0
dictators 0.0
graduate 0.0
analysts 0.0
victor 0.0
shrink 0.0
dictator 0.000137557752474
poised 0.0
avoided 0.0
rallying 0.0
catholic 0.000254085200574
thriving 0.0
racially 0.0
undermines 0.0
yashar 0.0
inequality 0.0
medicare 0.0
missionaries 0.0
foremost 0.0
deplorable 0.0
demonize 0.0
wikileaks 0.0
enduring 0.0
privatized 0.000112965170159
appoint 0.0
losses 0.0
jbarro 0.0
buffett 0.0
staffers 0.0
takeaway 7.05206249234e-05
moscow 0.0
hampshire 0.0
pandering 0.0
voxdotcom 0.0
reckoning 0.0
moines 0.0
falter 0.0
countless 0.0
democrat 0.0
bostonglobe 0.0
accountable 0.0
dispel 0.0
despair 0.0
persisted 0.0
disclose 0.0
tedcruz 0.0
flooding 0.0
prejudice 0.0
towers 0.0
criticized 0.0
senatemajldr 0.0
outsider 0.0
declare 0.0
dismantle 0.0
thrive 0.0
threaten 0.0
outsourced 0.0
loophole 0.0
heerjeet 0.0
verbal 0.0
businessinsider 0.0
ukraine 0.0
vladimir 0.000138405154583
businessman 0.0
supremacist 0.0
etched 0.0
zekejmiller 0.0
momentarily 0.0
perpetrators 0.0
mocking 0.0
wrecked 0.0
identities 0.0
inhumane 0.0
disavow 0.0
hostile 0.000121328639233
muster 0.0
surrender 0.0
shatter 0.0
patriotic 0.0
rewarded 0.0
jitters 0.0
bullies 0.0
discipline 0.0
forgets 0.0
expand 5.28243805091e-05
apologized 0.000154514425536
tournament 0.0
grindstone 0.0
mastery 0.0
provider 7.19154942869e-05
steroids 0.0
jenniferjjacobs 0.0
notion 0.0
hernandez 0.0
mcuban 0.0
bullied 0.0
jebbush 0.0
discriminating 0.0
somali 0.0
hayden 0.0
limitless 0.0
implement 0.0
nydailynews 8.25989312487e-05
corybooker 0.0
interference 0.0
listens 0.0
preside 0.0
remembers 5.46150082013e-05
toughness 0.0
extensively 0.0
suffered 0.0
streep 0.000302103862879
billionaire 0.0
cheats 0.0
needing 6.09654366013e-05
percentage 0.0
insiders 0.0
binder 0.000216322835586
prescriptions 0.0
slashed 0.0
indebted 0.0
dismisses 0.0
delegates 0.0
pledged 0.0
endured 0.0
deployed 0.0
suspense 0.0
courageously 0.0
resilience 0.0
nationalists 0.0
autonomy 0.0
abandoning 0.0
canvas 0.0
blacks 7.84850965089e-05
pledging 0.0
elaine 0.0
methodist 0.0
candidacy 0.0
bonuses 0.0
resolve 0.0
laughable 0.0
scares 0.0
intellect 0.0
hopeless 0.0
debunked 0.0
shames 0.0
connections 0.0
tyleroakley 0.0
perplexed 0.0
ddlovato 0.0
impromptu 0.0
teenvogue 0.0
unveils 0.0
billie 0.0
prouder 0.0
sweetness 0.0
cheryl 0.000271513250415
filipino 0.0
petersburg 0.0
drastic 0.0
lifesaving 0.0
decorated 0.0
usagym 0.0
freestyle 0.0
absentee 0.0
lashes 0.0
concentration 0.0
refuge 0.0
renaissance 7.55259657197e-05
actively 0.0
monitoring 0.0
destined 0.0
willfully 0.0
detained 0.0
warmest 0.0
heroic 0.0
bragged 0.0
miners 0.0
shareholders 0.0
randall 0.0
excessive 0.0
geneva 0.0
corporations 0.0
unsolvable 0.0
grandchildren 0.0
discredit 0.0
enormously 0.0
frances 0.0
pillar 0.0
trillions 0.0
expansive 0.0
organize 0.0
capabilities 0.0
confederate 0.0
shakers 0.0
ambiguity 0.0
linking 0.0
pretends 0.0
wireless 6.42053033817e-05
inherit 8.4955437422e-05
paranoia 0.0
theatlantic 0.0
languages 6.38608588108e-05
disposable 0.0
reinforcing 0.0
integrated 0.0
optimist 9.05044168051e-05
pigeons 0.0
chadhgriffin 0.0
katieledecky 0.0
richards 0.000151051931439
demconvention 0.0
abcpolitics 9.38501059192e-05
chobani 0.0
dominiclowell 0.0
floridians 0.0
cecilerichards 0.000108161417793
clintonfdn 0.0
billclinton 0.0
grounded 6.96339130094e-05
abilities 0.0
grandfather 5.50844052929e-05
profoundly 0.0
fiercely 0.0
drowning 0.0
astound 0.0
alzheimer 7.14414493971e-05
responders 0.0
peacecorps 0.0
nygovcuomo 0.0
hurricanes 0.0
approximately 0.0
daunting 0.0
organizer 0.0
ingenuity 0.0
illnesses 0.0
intruders 0.0
invading 8.25989312487e-05
harmful 0.0
foundations 0.0
skateboards 0.0
housekeeping 0.0
dangerously 0.0
renters 0.0
predatory 0.0
rebuke 0.0
jengranholm 0.000586443376923
supremacy 0.0
linger 0.0
adamserwer 0.0
clevelanddotcom 0.0
repadamschiff 0.0
fahrenthold 0.0
revoke 0.0
advising 0.0
strengthening 0.0
colleges 0.0
deniers 0.0
aspire 0.0
exceed 0.0
lebassett 0.0
shrugged 0.0
stewardship 0.0
complains 0.0
temperament 0.0
texasinafrica 0.0
americorps 0.0
latino 7.44376653751e-05
payoffs 0.0
protested 0.0
honorable 0.0
fathom 0.0
inconvenience 0.0
johnkasich 0.000183137049283
latinos 0.0
votevets 0.0
unsurprising 0.0
loopholes 0.000169910874844
dismal 0.0
unqualified 0.0
rigorous 0.0
mittromney 8.41438856472e-05
joyannreid 0.0
theorist 0.0
evan_mcmullin 0.0
discriminate 0.0
ezraklein 0.0
obsessively 0.0
desperation 7.84850965089e-05
latina 0.0
tammyforil 0.0
pantsuit 0.0
superior 0.0
exonerated 0.0
johnpodesta 0.0
recites 0.0
supremacists 0.0
affront 0.0
electing 0.0
defund 0.0
demeans 0.0
govpencein 0.0
squandered 0.0
machado 0.0
pneumonia 0.0
unhinged 0.0
criticizes 0.0
derailment 0.0
iceberg 0.0
epipens 0.0
generals 0.0
timkaine 0.0
provocation 0.0
paulbegala 0.000237962513492
clintinfdn 0.0
wesleylowery 0.0
childdefender 0.0
dictatorship 0.0
ceasefire 0.0
stamped 0.0
intimidation 0.0
casinos 0.0
manifest 0.0
restrict 0.0
transformation 0.0
battleground 0.0
christine 0.000357207246985
touted 0.0
mcconnell 7.91234939326e-05
deflect 0.0
expressing 0.0
commonsense 0.0
statesman 0.0
mcbride 0.0
tumble 0.0
bigoted 0.0
belonged 0.0
praised 0.0
policeman 0.0
booing 0.0
cathedral 0.0
tomperez 0.0
keithellison 0.0
knowingly 0.0
wealthiest 0.0
backward 0.0
pretended 7.9779383856e-05
thedemocrats 0.0
psychologists 0.0
americ 0.0
successor 0.0
diplomats 0.0
congratulated 0.0
devotion 0.0
remembrance 6.56348913657e-05
eligible 0.0
incoherent 0.0
exhaustive 0.0
downgraded 0.0
unified 0.0
embraces 0.0
galling 0.0
senatorreid 0.0
lifetimes 0.0
demagogue 9.63722770075e-05
rodham 0.0
temper 0.0
longtime 0.0
vetoing 0.0
janelle 0.0
voguemagazine 0.0
dominique 0.0
surpassed 0.0
associates 0.0
demonstrating 0.0
morning_joe 8.94856041281e-05
bazaar 0.0
consequential 0.0
undressed 0.0
entrepreneurial 0.0
billionaires 0.0
prescription 0.0
senseless 0.0
refresher 0.0
classmates 0.0
maturity 0.0
comentarios 0.0
risked 0.0
invincible 0.0
vigilant 0.0
emissions 0.0
recommit 0.0
voiceless 0.0
natlparkservice 0.0
workplaces 0.0
mayaharris_ 0.0
dhsgov 0.0
cyberattacks 0.0
maxinewaters 0.0
jerrybrowngov 0.0
discriminates 0.0
thejusticedept 0.0
simone_biles 0.0
sotomayor 0.0
traumatic 0.0
scammed 0.0
dreamer 0.0
fulfill 0.0
latinas 0.0
discouraged 0.0
usnavy 0.0
oftentimes 0.0
reprehensible 0.0
demeaning 0.0
ratified 0.0
emilyslist 0.0
lawsuits 0.0
nonviolent 0.0
caucus 0.0
joebiden 0.0
joyful 0.0
privatize 0.0
barbaraboxer 0.000237962513492
sengillibrand 0.0
camino 0.0
familias 0.0
americaferrera 0.0
universidades 0.0
gabbygiffords 0.0
shuttlecdrkelly 0.0
fulton 0.0
shimon 0.000100736778799
hablar 0.0
fuerza 0.0
trickle 8.33589469764e-05
refinance 0.0
shattering 0.0
damián 0.0
gouging 0.0
moveon 0.0
simone_manuel 0.0
revdrbarber 0.0
senatorbarb 0.0
cnbcnow 0.0
stiffed 0.0
mikebloomberg 9.77405628206e-05
solver 0.0
thrower 0.0
granddaughters 0.0
changemaker 0.0
clairecmc 0.0
anastasiasomoza 0.0
defunding 0.0
preyed 0.0
aspirations 0.0
fannie 0.0
mubarak 0.000192744554015
buzzfeedben 0.0
probed 0.0
marines 0.0
projecting 0.0
outsourcing 0.0
developers 0.0
crimea 0.0
everyo 0.0
chaser 0.0
dubious 0.0
diplomatic 0.0
rosiegray 0.0
unpatriotic 0.0
multifaceted 0.0
myanmar 0.0
adamparkhomenko 0.0
tjmshow 0.0
tenant 0.0
perjury 9.63722770075e-05
contractual 0.0
surrounds 0.0
exceeded 0.0
thrives 0.0
unclerush 0.0
sailors 0.0
stereotypes 0.0
librarycongress 0.0
acknowledging 0.0
philippe 0.0
battled 0.0
postopinions 0.0
ambassadorrice 0.0
shockingly 0.0
mcfaul 0.0
presid 0.0
poisons 0.0
kenvogel 0.0
johndingell 0.0
harnessing 0.0
unwritten 0.0
bewildering 0.0
moonshot 0.0
apologizing 7.55259657197e-05
oligarchs 0.0
espionage 0.0
marcorubio 8.33589469764e-05
desecration 0.0
brianefallon 0.0
bangladesh 0.0
twittermoments 0.0
officialcbc 0.0
thefix 0.0
urgency 0.0
traceeellisross 0.0
andradaymusic 0.0
impeccably 0.0
catastrophe 0.0
tallest 0.0
anastasia 0.0
azcentral 0.0
marrying 0.0
moderates 0.0
resembles 0.0
paraphrase 0.0
applauds 0.0
heavier 8.7569502998e-05
virginians 0.0
railing 0.0
eloquently 0.0
denverpost 0.0
independents 0.0
americanos 0.0
hispanos 0.0
bailouts 0.0
divisiveness 0.0
jmpalmieri 0.0
hardballchris 0.0
republicano 0.0
candidato 0.0
phillyinquirer 0.0
jesserodriguez 0.0
militarytimes 0.0
sunsentinel 0.0
ryanlizza 0.0
bretbaier 0.0
thelastword 0.0
hillaryclinto 0.0
maddowblog 0.0
boundless 0.0
enacting 0.0
gettysburg 0.000100736778799
groping 0.000220885998141
govchristie 0.0
justices 0.0
watchdogs 0.0
cavalier 0.0
succeeds 0.0
retirees 0.0
pocketed 0.0
multimillionaire 0.0
redcross 0.000221734570961
evalongoria 0.000612986520986
highways 0.0
marlee 0.0
primero 0.0
pianos 0.0
bribed 0.0
scranton 0.0
wellesley 0.0
perkins 0.0
onward 0.0
algore 0.000814539751246
candidly 0.0
trajectory 0.0
quitter 0.0
objectifying 0.0
ignoramus 0.0
disillusioned 0.0
asinine 0.0
vibrancy 0.0
arpaio 0.0
testifying 0.000416649584598
chairmen 0.0
luchar 0.0
disrupted 0.0
podemos 0.0
settlements 0.0
massacres 0.0
millones 0.0
eagerly 0.0
grandmas 0.0
dedicado 0.0
seeming 0.0
pragmatic 0.0
hashanah 0.0
porque 0.0
unidos 0.0
nuestras 0.0
primera 0.0
debemos 0.0
muchos 0.0
cuando 0.0
nuestro 0.0
inteligente 0.0
rapists 0.0
agosto 0.0
presidente 0.0
puedes 0.0
mujeres 0.0
safeguarding 0.0
indecent 0.0
motions 0.0
strengthened 0.0
eminently 0.0
innuendo 0.0
memorandum 0.0
reuterspolitics 0.0
educates 0.0
mexicana 0.0
disparage 0.0
absurdity 0.0
backdoor 0.0
affording 0.0
hardline 0.0
steelworkers 0.0
demean 0.0
immigrate 0.0
thuggish 0.0
astrid 0.0
jesuit 0.0
governorship 0.0
waterboarding 0.0
personas 0.0
stephenson 0.0
huracán 0.0
firefighter 0.0
ravages 0.0
marleematlin 0.000694708305309
scrolling 9.26821433225e-05
tarnish 0.000139264283582
ajentleson 0.0
roanoke 0.0
heaping 0.0
carpentry 0.0
forcefully 0.0
frankiejgrande 0.0
aprildryan 0.0
unjustified 0.0
yamiche 0.0
evacuate 0.0
disrespects 0.0
incomprehensible 0.0
jogger 0.0
vindicated 0.0
blazed 0.0
cambodia 0.0
revolutionize 0.0
welding 0.0
unbeatable 0.0
polished 0.0
saddled 0.0
interdependence 0.0
alleys 0.0
civility 0.0
vilified 0.0
disagreeable 0.0
terence 0.0
bluster 0.0
incredib 0.0
holton 0.0
hillaryforpa 0.0
hillaryforco 0.0
jes_chastain 0.0
vitalvoices 0.0
indictments 0.0
evokes 0.0
reaffirming 0.0
rebukes 0.0
minerva 0.0
peddle 0.0
starker 0.0
cascading 0.0
carolinians 0.0
señora 0.0
honrado 0.0
missionary 0.0
ranchers 0.0
denveropinion 0.0
practicality 0.0
thoughtfulness 0.0
scripture 0.0
pueblo 0.0
morningmoneyben 0.0
smalls 0.0
exemplify 0.0
eviscerated 0.0
jeffflake 0.0
helpless 0.0
sarahemcbride 0.0
indivisible 0.0
colinjones 0.0
mrjoshcharles 0.0
houstonchron 0.0
thoroughness 0.0
isolde 0.0
wonkiest 0.0
equate 0.0
dustbin 0.0
estados 0.0
newrepublic 0.0
expresses 0.0
demonizing 0.0
jeffbezos 0.0
discard 0.0
befriending 0.0
slovenia 0.0
unrelenting 0.0
salmahayek 0.0
revolves 0.0
anselm 0.0
dwells 0.0
usairforce 0.0
deride 0.0
repackaging 0.0
earmarked 0.0
evader 0.0
passpor 0.0
awaited 0.0
guterres 0.0
precinct 0.0
presidencia 0.0
unshakable 0.0
marshablackburn 0.0
comunidad 0.0
merecen 0.0
juntos 0.0
infomercial 0.0
johnstown 0.0
statewide 0.0
skyscrapers 0.0
phillydotcom 0.0
deducted 0.0
laguardiacc 0.0
annieslisttx 0.0
nickmerrill 0.0
leaninorg 0.0
missbeae 0.0
minassianmedia 0.0
natarsha 0.0
foments 0.0
ruline 0.0
steininger 0.0
michaelnutter 0.0
harren 0.0
louisa 0.0
cannell 0.0
robbymook 0.0
broward 0.0
hillaryforfl 0.0
jeanneshaheen 0.0
ericasmegs 0.0
jeremyshorr 0.0
turpin 0.0
rubycramer 0.0
singularly 0.0
joshschwerin 0.0
clionamccarney 0.0
xochitlhinojosa 0.0
adamsmith_usa 0.0
humayun 0.0
jamestaylor_com 0.0
hillaryformn 0.0
ericwms 0.0
dougmillsnyt 0.0
jencarlosmusic 0.0
hannahbfine 0.0
creynoldsnc 0.0
lefsadventures 0.0
pembroke 0.0
perceptiveness 0.0
hillaryforaz 0.0
fayetteville 0.0
entrust 0.0
daveeddiggs 0.0
petewilliamsnbc 0.0
hillary_esp 0.0
ustedes 0.0
nación 0.0
creativa 0.0
bilingües 0.0
multilingües 0.0
contribuyen 0.0
diversidad 0.0
economía 0.0
hillaryforia 0.0
estaré 0.0
discurso 0.0
síganme 0.0
detall 0.0
hopewell 0.0
temperamentally 0.0
redone 0.0
barging 0.0
machadooficial 0.0
mikereedschmidt 0.0
franklinfoer 0.0
eamonjavers 0.0
hillaryforoh 0.0
hustling 0.0
relishes 0.0
markkirk 0.0
asmamk 0.0
just_jenna 0.0
discrimina 0.0
samifayebaker 0.0
padded 0.0
wigazette 0.0
phillytrib 0.0
trivializes 0.0
condones 0.0
ellisoncampaign 0.0
barb_kinney 0.0
theriveterspod 0.0
humiliates 0.0
nickmarroletti 0.0
alli_wilber 0.0
brespolitico 0.0
jasoncherkis 0.0
sean_p_thomas 0.0
outclassed 0.0
outmaneuvered 0.0
belittling 0.0
familie 0.0
yuuuuuuge 0.0
disqualifying 0.0
brynnecraig 0.0
buffywicks 0.0
lasvegassun 0.0
cmichaelhuntley 0.0
civically 0.0
raquelwillis_ 0.0
celebramos 0.0
trayectoria 0.0
pionera 0.0
breakups 0.0
rosenbergerlm 0.0
heraldleader 0.0
jaylon 0.0
decisi 0.0
antónio 0.0
squander 0.0
presidenta 0.0
protegerá 0.0
astrid_nv 0.0
sltrib 0.0
peter_j_k 0.0
brosandprose 0.0
nicholaskitchel 0.0
mahoning 0.0
omerizer 0.0
kendallybrown 0.0
davidnakamura 0.0
chatima 0.0
tammybaldwin 0.0
mpshapiro 0.0
responsibilit 0.0
overgrown 0.0
literally_trump 0.0
imploded 0.0
rnicholasburns 0.0
disastrously 0.0
stiffing 0.0
globeopinion 0.0
degradi 0.0
languishing 0.0
demostrar 0.0
poderosa 0.0
iammarleydias 0.0
tbtimes_opinion 0.0
disloyalty 0.0
defende 0.0
vegalteno 0.0
moodysinvsvc 0.0
decisiveness 0.0
whethe 0.0
preocupada 0.0
trayecto 0.0
afectados 0.0
ayotte 0.0
empathize 0.0
lifelo 0.0
lorellapraeli 0.0
ironworking 0.0
ebeling 0.0
contribuido 0.0
ejército 0.0
inmigrantes 0.0
indocumentados 0.0
enquirer 0.0
delega 0.0
roadshow 0.0
sunsentinelopinion 0.0
resulta 0.0
insultar 0.0
construir 0.0
muralla 0.0
provoked 0.0
discretion 0.0
sdutideas 0.0
merece 0.0
respeto 0.0
enfrentar 0.0
valentía 0.0
ataques 0.0
descaro 0.0
culparla 0.0
petulance 0.0
ninhaitseng 0.0
flippantly 0.0
posteverything 0.0
_vicentefdez 0.0
azcopinions 0.0
aumentó 0.0
andrewjenks 0.0
imwithher 0.0
diferencias 0.0
onevoxdotcom 0.0
ignite_national 0.0
endorsin 0.0
mercersdairy 0.0
everyvoice 0.0
rachaelgass 0.0
galifianakis 0.0
crutcher 0.0
nyledimarco 0.0
mistreat 0.0
wellsfargo 0.0
templeuniv 0.0
sollender 0.0
honremos 0.0
tantas 0.0
contribuciones 0.0
aleatha 0.0
endeavored 0.0
legitimize 0.0
además 0.0
whistles 0.0
ugliness 0.0
jorge_silva 0.0
dnclatinos 0.0
libnofcongress 0.0
unscrupulously 0.0
contractually 0.0
impulsively 0.0
qaddafi 0.0
cancelable 0.0
cnbcopinion 0.0
jbrotherston 0.0
_bxddxss 0.0
sspiderboy 0.0
collegedems 0.0
veered 0.0
charitynav 0.0
usnewsopinion 0.0
humansofny 0.0
unfitness 0.0
steadiness 0.0
nbcusa_inc 0.0
verdadera 0.0
encuentra 0.0
hacemos 0.0
anuncio 0.0
unpresidential 0.0
unfavorably 0.0
heridas 0.0
visibles 0.0
veteranos 0.0
cuidado 0.0
panetta 0.0
experiencia 0.0
confío 0.0
exsecretario 0.0
comercio 0.0
lizromanoff 0.0
americasvoice 0.0
davidleopold 0.0
rebuked 0.0
criminalize 0.0
mentiré 0.0
inmigración 0.0
demonizar 0.0
americanlegion 0.0
sarasolow 0.0
qumber 0.0
zerlinamaxwell 0.0
hillaryforut 0.0
hillaryforga 0.0
grandtetonnps 0.0
marlondmarshall 0.0
mariatcardona 0.0
escuchamos 0.0
claramente 0.0
demonizando 0.0
segunda 0.0
tercera 0.0
rhettbuttle 0.0
hillaryformi 0.0
futuramics 0.0
louisianans 0.0
claressashields 0.0
helen_maroulis 0.0
bri_rollin 0.0
itspooda 0.0
kristihollywood 0.0
meredeetch 0.0
kersee 0.0
rodhams 0.0
bidens 0.0
possibilitie 0.0
maulama 0.0
akonjee 0.0
shotdiva 0.0
auriemma 0.0
maxlinsky 0.0
cowering 0.0
moratory 0.0
hillarycl 0.0
repudiate 0.0
fencer 0.0
bankruptcies 0.0
warrenbuffett 0.0
bishopgarrison 0.0
ajazzyworld 0.0
morell 0.0
starkest 0.0
braille 0.0
frankmugisha 0.0
confiar 0.0
distinguido 0.0
herencia 0.0
harkening 0.0
impulses 0.0
dakota_meyer 0.0
kauveri 0.0
iafftreg 0.0
laurawalkerkc 0.0
jakesherman 0.0
benediction 0.0
denigrates 0.0
ann_oleary 0.0
liberates 0.0
bombast 0.0
repcleaver 0.0
throwed 0.0
luchado 0.0
derechos 0.0
humanos 0.0
trabajadores 0.0
relent 0.0
aprendí 0.0
valores 0.0
trabajo 0.0
mismos 0.0
annella 0.0
drbiden 0.0
expedient 0.0
imangelabassett 0.0
smegielski 0.0
leinonen 0.0
driffin 0.0
buckles 0.0
insatiably 0.0
sybrina 0.0
mcbath 0.0
dontre 0.0
randibrazeau 0.0
sjbxtr 0.0
malcolmkenyatta 0.0
lankford 0.0
countrymen 0.0
countrywomen 0.0
refiere 0.0
separar 0.0
valiente 0.0
strongmen 0.0
seremos 0.0
compañeros 0.0
bienvenidos 0.0
dauntless 0.0
governorva 0.0
sherrodbrown 0.0
vicepresidencia 0.0
ilyseh 0.0
gunsense 0.0
encantada 0.0
anunciar 0.0
splintering 0.0
albamonica 0.0
criminologist 0.0
construiremos 0.0
discriminatio 0.0
endorser 0.0
sniveling 0.0
ryanegraney 0.0
baptize 0.0
convención 0.0
republicana 0.0
