awesome 0.00161071959915
christmas 0.000156717474773
trying 0.000424274776426
launch 0.000260113629225
moment 0.000248831543714
wonderful 0.00107230542657
seeing 0.000217935061735
hanging 8.91422163642e-05
sounds 0.000226330678645
contacts 0.000179949807088
anybody 0.000108444737404
worked 0.000420589426418
direct 5.00663608343e-05
others 0.000532406663511
currently 8.41177085277e-05
better 0.00108428924439
please 0.00173713167435
social 0.000277250596876
anxiety 7.65583142781e-05
around 0.000559633158394
people 0.00367259260196
morning 0.00161764235334
damage 0.0
everything 0.000668156624208
present 0.000160161545041
though 7.32353544174e-05
friend 0.0010253307097
watched 0.000436865173786
beautiful 0.00260817640276
demanding 7.78188857457e-05
anything 0.000643311820577
tagged 0.000101743717325
helped 0.000115641707165
thinking 0.000179663947865
finally 0.000287462316585
caught 0.000158428912501
believe 0.000455929207638
already 0.000315643297596
couple 0.000115328946227
launches 0.0
chance 0.000175830690581
annual 4.72778671181e-05
quickly 4.90649038495e-05
growing 0.000126523443164
probably 0.000381320727182
changed 0.000150479816656
history 0.000108674016782
center 4.60920900907e-05
museum 6.10601072387e-05
behind 0.000349770723996
screaming 0.000195167474011
pretty 0.0014732443725
really 0.00140664552465
possibly 4.89241508531e-05
little 0.00105214432532
happiest 0.000446736329846
earlier 8.22946960522e-05
forget 0.000320789902448
someone 0.00102809833788
things 0.00115424338919
available 0.000109557033638
perfect 0.000439412126504
different 0.000178697727938
person 0.000705221112059
watching 0.000883905784222
exhibit 0.0
passed 0.000128629156981
prefer 0.000371676008468
minutes 0.000363225102891
travel 8.59895030014e-05
daughter 0.000170094690791
positive 0.000125142749334
outside 0.00018607795221
looking 0.000666358072702
forward 0.000216762642851
raising 0.0
impression 0.0
wheels 0.0
favorite 0.00151002792543
instead 0.000435679509377
appreciate 0.000206865036702
couldn 0.000402794449296
remember 0.000527492071743
impressive 0.0
vintage 0.000160280982675
holidays 5.02117958563e-05
friends 0.0011313994038
impossible 0.000286908385811
everyone 0.00073848890044
always 0.00237844092317
limited 0.000138665625885
months 0.000293732978535
moving 0.000113471708058
meeting 7.2059626829e-05
answer 0.000504417387803
together 0.000528915834044
inside 0.000219706063252
upstairs 0.0
missed 0.000178216612471
active 5.65888701483e-05
eventually 6.39592749168e-05
longer 4.05894881561e-05
enough 0.000426568360652
building 7.8999543194e-05
enjoying 0.000128984254502
london 0.000167314964462
posting 0.000105562923493
recent 0.000139448698304
amazing 0.00175357387553
attention 0.00015929254666
tomorrow 0.000773655038556
whenever 0.0
feeling 0.000184079240603
excited 0.000771049068653
understand 0.000268373267733
following 0.000184576781087
asleep 0.000453836230919
learning 8.71853294678e-05
evening 0.000120776981023
special 0.000389968335058
secret 0.0
across 0.0004321442827
surprised 4.19436084515e-05
candles 0.0
sophia 0.0
version 7.77237483537e-05
rather 0.000118499314791
showing 0.0
saying 0.000257016356218
thoughts 0.000149264975829
exactly 0.000228174284362
getting 0.000703322762324
nothing 0.00073848890044
tweets 0.000348810119054
photos 0.000255142036187
looked 0.000319452742323
difficult 0.0
office 0.000114087142181
brought 0.000116902157363
biggest 0.000108674016782
thrilled 0.000107149253255
entire 0.000156292866588
something 0.000843987314789
closing 0.0
anyone 0.000886291670586
taking 0.000175830690581
interesting 0.000509331793013
original 0.000124800395956
flying 0.000132602930934
sometimes 0.000465080158739
yesterday 0.000283613334588
serious 0.000263339679148
digital 0.0
wearing 0.000123779987099
british 5.12471336308e-05
either 0.000115017114743
second 0.000212710000941
checking 0.0
indeed 0.0
island 0.000149331877425
hearing 0.0
staying 9.50938456959e-05
another 0.000736501027724
compare 0.0
bummer 0.0
clothes 0.000408680715938
landing 0.0
weekend 0.000178216612471
delivery 0.0
secretive 0.0
anyway 0.000272701745634
recognize 0.0
working 0.000492325933627
bigger 8.25199913993e-05
laughing 0.000166856999111
wanted 0.000355473633876
clothing 0.000150087837537
grateful 0.00018385113874
friendship 6.88153673001e-05
family 0.00123081483407
listening 0.000115641707165
stream 4.83667355117e-05
double 0.000119469409995
especially 0.000272771700513
shaking 0.0
waiting 0.000180149067073
definitely 0.000153771928302
account 4.12599956996e-05
completely 0.0
thought 0.000850840003763
possible 0.000334940313977
simple 0.000245538811535
professional 5.21596307485e-05
members 8.8647838725e-05
business 0.000189631623201
absolutely 0.000112859862492
sending 0.000204057827761
introducing 0.0
congrats 3.69153562174e-05
community 8.6704543075e-05
keeper 9.69937769879e-05
greatest 0.000230657892453
selfie 0.00021049985807
pasadena 0.0
posted 0.0
saturday 0.000185576128732
designs 0.0
broken 4.35926647339e-05
chicago 4.78180643019e-05
glimpse 0.000159598497801
actually 0.000540447201218
myself 9.21841801815e-05
pajamas 0.000113767839337
school 0.000536093183814
throwback 0.0
thursday 0.000150479816656
selling 9.61826481397e-05
talented 0.000369775002359
celebrate 0.000155447496707
celebrating 4.19436084515e-05
anniversary 0.000127571018093
contest 0.0
experiences 0.0
students 0.0
figure 8.41177085277e-05
featuring 4.57055991704e-05
inspired 8.50473453956e-05
breeze 0.000210154776769
sitting 0.000198575078994
playing 3.57395455876e-05
street 0.0003117390863
points 4.5070789143e-05
advice 4.12599956996e-05
memory 0.0
forever 0.000357435142189
imagine 0.000195896843467
problem 0.000226330678645
played 0.000314286751054
keeping 3.92858438818e-05
lovely 0.000618813677691
dressed 0.0
chinese 0.0
sunshine 7.30282211165e-05
afternoon 0.000124119022021
notice 9.53644616805e-05
difference 0.000269100874529
suppose 0.0
letting 0.0
system 4.39563810692e-05
mutant 0.0
bathroom 0.0
almost 0.000351661381162
details 3.84429820756e-05
experience 0.000146866489267
luckily 0.000169036663301
viewed 8.41318407303e-05
living 0.000403882845485
weather 0.000269671188503
bright 0.000247452967775
launching 0.0
colors 6.75965306555e-05
monday 0.000257016356218
walked 5.29386623367e-05
pinned 0.0
wanting 5.53856089554e-05
tweeting 0.00016059807672
forgot 0.000528941582586
gorgeous 0.00228470003809
herself 0.0
happens 0.000109261868275
learned 0.000244202103612
congratulations 0.000426323478844
raised 0.00018385113874
mission 4.76822308403e-05
smelled 0.0
unforgettable 8.15397608229e-05
forgotten 5.231405516e-05
trouble 8.69445232239e-05
channel 4.27584190313e-05
fantastic 0.000331891082465
loving 0.000622295779622
hardly 0.0
dining 0.0
complete 8.07376237768e-05
daniel 0.0
rewarding 0.0
spirit 9.11554242175e-05
finding 0.000257968509004
stories 0.000342261426543
including 0.000234439299882
somewhere 0.0
conversation 0.000171033676125
disrespectful 0.0
making 0.000491000685149
expect 0.0
polite 8.3749573839e-05
brings 0.000169627550826
anytime 0.0
needed 0.000300147393035
seriously 0.000544066238476
modern 5.06517648323e-05
welcome 0.000391020997264
moments 8.7426967514e-05
jacket 6.2068161804e-05
halloween 0.0
costume 0.0
totally 0.000162357952624
flight 0.000126523443164
attached 7.91265921618e-05
finished 4.20588542638e-05
strong 0.000217348033563
message 0.000111948731871
coming 0.000280571820085
temporary 7.59446656892e-05
challenge 3.85472357217e-05
achievement 6.55042548177e-05
unlocked 0.0
happen 0.000215016204746
celebrated 0.0
giving 0.000248831543714
excellent 0.000229169777717
common 0.000173889046448
pressed 0.0
company 0.000119469409995
change 0.00028132910493
singing 0.000235054326345
silver 0.000229897651805
august 0.0
crying 0.000110771217911
happened 0.000222090889306
parking 0.000207192946457
demand 4.63521438716e-05
sacrifice 0.0
personal 7.64708048032e-05
beyond 0.000392858438818
question 0.000323395106158
chicken 5.05044927309e-05
position 0.0
losing 8.6704543075e-05
respect 0.000192214910378
caption 0.0
shouldn 8.41177085277e-05
career 0.000163246262209
reason 0.000296121185742
explore 0.0
glamorous 0.0
reality 4.18287411154e-05
burned 0.000165254437076
without 0.000850840003763
problems 0.000216761357687
countdown 0.0
online 3.78239026859e-05
animals 0.000998802540607
buying 9.53644616805e-05
pictures 4.44472954072e-05
underneath 0.0
camera 0.00018385113874
checked 0.000149764584088
heading 4.18287411154e-05
complex 0.00011567000904
sunday 0.000435870123469
nights 5.18528123565e-05
traffic 0.0
through 9.8696241116e-05
changing 4.3113519263e-05
diapers 0.0
convinced 0.0
capture 0.0
random 0.000153741400892
recorded 0.0
november 0.0
number 0.000108089440244
stupid 0.000293544905119
grandparents 9.6442945566e-05
recording 5.64144205478e-05
chocolate 0.000107793996481
unless 0.000433522715375
calling 0.000258407493522
mermaid 0.000115609163015
levels 0.0
package 0.0
option 0.0
knowing 0.000145932998345
actual 0.000186983544722
friday 0.000178216612471
achieve 0.000176818906357
winner 0.000117219649941
becomes 0.000149331877425
directly 0.0
quality 0.000136350872817
father 4.00403862604e-05
wishes 0.000320837688804
themselves 0.00012291969912
asking 0.0
usually 0.000468781247969
period 0.000262345821914
resist 0.0
collections 0.0
summer 0.000265484272481
bracelet 0.0
reminded 6.10601072387e-05
dinner 0.000233171245061
single 0.000253572705824
catching 0.0
energy 0.000376458670039
preview 0.0
monster 0.0
material 6.00802932424e-05
events 4.35926647339e-05
europe 0.0
holiday 8.09579519741e-05
emotional 0.0
affects 0.0
holding 0.000124800395956
survive 5.96959259415e-05
eating 0.000131869143208
outfit 0.0
missing 0.000150073696517
surprise 7.52399083281e-05
german 0.0
officially 0.0
french 0.000225984163918
global 9.40217305378e-05
follow 0.00031820608232
design 0.000106193145277
improvement 0.0
website 8.5752771321e-05
breaks 0.000139056431615
negative 5.12471336308e-05
official 0.0
jersey 5.91271805257e-05
france 4.87839619985e-05
lighter 0.0
thinks 0.0
hospital 0.000102494267262
jealous 0.00041389026368
successful 9.61826481397e-05
trending 5.81993523188e-05
leadership 0.0
showed 8.84019539558e-05
attended 0.0
circle 0.0
interested 0.000180787331134
effect 9.27042877431e-05
success 0.000198575078994
ladies 0.000192915034863
dreams 0.000600884378834
protect 0.000630991048003
arguing 0.0
essence 0.0
control 0.000157143375527
happier 6.41758519084e-05
likely 0.0
cancel 0.0
project 7.94300315975e-05
laying 0.0
lesson 9.78483017062e-05
fridays 0.0
invited 0.000148471780665
treating 0.0
allowing 6.16614470771e-05
remote 0.000154365842909
opening 3.82354024016e-05
alcohol 8.18985031718e-05
popular 0.00014427397221
pedestal 0.0
designing 0.0
followed 4.67458861804e-05
enjoyed 8.34284995557e-05
spectacular 0.000128351703817
recovered 0.0
length 0.000138630096522
matters 9.24437505898e-05
factor 0.000174050112018
england 0.000154192718651
shared 0.0
benefit 4.40784652155e-05
continues 4.28763856605e-05
fathers 7.05964029896e-05
kitchen 0.000113177740297
exciting 0.000210872405274
corner 5.02117958563e-05
spring 0.000269671188503
fallen 0.0
victoria 0.000156282514717
tornado 0.000381466572132
typical 0.0
continue 8.11789763121e-05
creative 4.96336492653e-05
excuse 0.0
female 0.000375024998375
closer 0.000220392326078
accent 0.0
beginning 0.000132602930934
sooner 0.0
everywhere 0.000251661650709
scenes 4.48200563676e-05
wishing 0.000509481824741
choices 0.000227761605892
unpredictable 0.0
become 0.000477316090119
photographs 0.0
spread 0.00012044855754
season 0.000387566798949
putting 0.000147661424869
annoying 0.0
quietly 7.53415977772e-05
extending 9.48406621077e-05
stance 0.0
sleepy 0.000190733286066
returns 0.0
bucket 0.0
condolences 0.0
register 0.00010462811032
flowers 0.000333255734123
define 0.0
somebody 0.0
chicks 0.0
covering 5.43861960387e-05
repeat 4.90649038495e-05
football 0.000132602930934
brothers 0.000161690994722
player 4.90649038495e-05
physical 0.000117135070856
series 0.000191177012008
pretend 0.000184984341231
fighting 8.00807725207e-05
atlanta 6.08619363267e-05
mexico 5.07996596505e-05
president 0.000312585733176
talking 0.000493654778441
america 0.00041158906755
greats 0.0
everybody 4.33522715375e-05
judgment 0.0
amount 9.8696241116e-05
houston 0.0
everyday 4.99215280294e-05
shooter 0.0
attitude 0.000186819919535
million 0.000479899630826
honesty 7.56418320018e-05
telling 7.98631855808e-05
pulled 5.27814617467e-05
attack 0.000135969996837
killed 0.000195896843467
horrible 0.000359325489673
norman 0.0
salute 0.000146056442233
jacksonville 0.0
barackobama 0.000135673847704
lilduval 0.0
liquor 0.0
american 7.46324879143e-05
realist 0.0
remain 0.00019796237422
innocent 6.73577783811e-05
pieces 5.20058851277e-05
taught 0.0
golden 0.000142236408825
straight 3.89673857875e-05
forgive 0.000213367151745
answers 4.53233322792e-05
product 0.000169243261643
smoking 0.0
created 0.00029603343946
record 0.0
weapon 0.000214165111615
bottom 4.71441114202e-05
arrangements 0.0
africa 0.000116765918839
committed 0.000110771217911
journey 0.000274233595023
brother 0.000471640242265
prayers 5.50492883603e-05
documentary 5.26249645174e-05
addition 0.0
honestly 0.000150635387569
velvet 0.000200988806728
country 0.00108967530867
speedy 0.0
dressing 6.83227243336e-05
employee 7.74994582069e-05
yoooooo 0.0
prayer 7.78188857457e-05
nominated 0.0
praying 0.0
insane 0.000156017655383
illest 0.0
shooting 0.0
cancer 8.84019539558e-05
australia 0.000156478892245
marijuana 0.0
deserve 0.000129340557789
legend 4.68781247969e-05
mother 0.00035261431824
murder 0.0
realest 0.0
powerful 0.000214381928302
attendance 0.0
wisdom 0.000237262946515
breaking 0.00018911951343
bothered 0.0
angeles 0.0
dollars 0.000294698177261
soldiers 0.0
performance 0.00020350175301
reading 0.000223897463743
videos 0.0
jordan 0.0
nobody 0.000129340557789
politics 0.000348441047325
paradise 0.0
blessing 7.44560549744e-05
coolest 0.0
strippers 0.0
charities 0.0
donate 0.0003792970902
bullshit 0.0
sample 0.0
rocking 0.000118631473257
bringing 3.9499771597e-05
deserves 0.000280475317082
hilarious 0.000326299019473
victim 0.0
stadium 0.0
funniest 6.41758519084e-05
heaven 5.572519485e-05
ruined 0.0
honest 4.3713483757e-05
rolling 0.000105562923493
became 8.79127621385e-05
driver 0.000107470882074
breakfast 4.42009769779e-05
decision 8.76694431287e-05
counting 4.99215280294e-05
pressure 9.56361286037e-05
awareness 0.000100715676249
dearly 0.0
lastnight 0.0
facebook 0.000112859862492
basketball 0.000134715556762
campaign 0.000122434696657
twisted 0.000259552696889
defined 0.0
discover 5.98875816122e-05
comments 8.5752771321e-05
giveaway 0.0
bipolar 0.0
teenage 0.0
williams 0.0
custom 0.000141192805979
singer 0.000548545427844
future 0.000398471394866
randomly 0.0
angels 0.000153116628556
blessed 0.00024109629013
sister 0.000330945069827
stripper 0.0
dancing 0.00024674060279
reigns 0.0
voting 0.000130056814612
niggas 0.0
commercial 0.0
hating 0.0
boring 0.0
century 0.000115308488107
acting 0.000251789190622
submit 0.0
besides 7.30282211165e-05
hiding 0.000172962732161
periscope 0.0
breath 0.0
choosing 6.98219712268e-05
lawrence 0.0
instagram 0.0
detroit 0.0
cousin 0.000207192946457
honored 0.000146351885995
dedication 0.0
rockin 8.11846605912e-05
fucked 0.0
lionelrichie 0.0
talent 0.000187512499188
goodnight 6.73577783811e-05
stores 6.3744030715e-05
drinking 0.00015694216548
brazil 6.31061332949e-05
tattoo 0.0
consecutive 0.0
regardless 6.2068161804e-05
staring 0.0
commitment 5.81993523188e-05
seconds 4.70108652689e-05
ohhhhhh 0.000133792884593
listen 0.000254257572024
whatever 0.000201844059442
wherever 0.000134715556762
kicking 0.0
compete 0.0
lauderdale 0.0
homies 0.0
billion 0.000100715676249
belated 7.71829214547e-05
pirate 0.0
shoutout 0.0
grammy 0.0
guilty 5.9505314721e-05
ceiling 0.0
grammys 0.0
absolute 0.0
nelson 0.0
mandela 0.0
bigsean 0.0
handle 0.00013750186663
tonite 0.0
cocaine 0.000106505222242
promise 0.000166856999111
longest 0.0
generation 0.000144686276147
tuesday 7.98631855808e-05
struggle 0.0
workout 0.0
character 0.000282065191614
mirror 0.00011459100341
interview 0.00014295818235
buffalo 0.0
justin 0.0
insights 0.0
winning 3.75184241293e-05
oxygen 8.82035340348e-05
espnnfl 0.0
charlotte 0.0
accomplished 0.000231548764364
defense 0.0
gettin 0.0
arabia 0.0
lmfaooooo 0.0
writing 0.000162801402408
soccer 0.0
society 9.70105175036e-05
brooklyn 7.11223839149e-05
incredible 0.000530968544963
witcho 0.0
celebrity 0.000229897651805
minute 0.000118821684375
foreign 0.0
cherry 7.71829214547e-05
champs 0.0
murdered 0.0
evidence 5.21596307485e-05
android 0.0
sneaking 0.000112018621236
clearly 0.000713137730914
download 0.0
mixtape 0.0
central 4.63521438716e-05
washington 4.64828994347e-05
veterans 0.0
stronger 0.0
promised 0.0
marcus 0.0
zombie 8.04850958237e-05
throwing 0.000115308488107
security 9.32282912779e-05
fastest 0.000144397372896
fantasy 6.66511468245e-05
turning 0.000175825524277
ignore 0.000352504866871
fucking 0.0
tickets 8.50473453956e-05
collector 0.000117552833722
prizes 0.0
december 0.0
loyalty 0.0
return 7.77237483537e-05
escape 0.0
yassss 0.0
goddess 0.0
handsome 0.000452049586663
language 0.0
motion 6.18642132821e-05
gallery 0.0
movies 0.00099987432583
children 0.00146876843946
backpack 0.0
potentially 0.0
guardian 6.35301029998e-05
review 4.18287411154e-05
theaters 0.0
shhhhh 0.0
begins 0.0
closet 0.000247881655613
bodies 6.95675913972e-05
hahaha 0.00018868818047
produced 5.50492883603e-05
latest 7.60580947873e-05
banned 0.000125792120313
beyonce 0.0
perform 0.0
lionel 0.0
signed 7.75133597898e-05
princess 7.0858404757e-05
ghetto 0.000124130350238
conditioning 0.0
charity 4.90649038495e-05
germany 0.000160243644641
ronaldo 0.0
married 0.000364041195894
millions 9.50938456959e-05
blessings 0.000182729807793
diamond 7.97992489003e-05
nephew 0.0
lights 0.000101008985462
howard 6.43937782981e-05
turned 0.000192736178609
buckle 0.0
relevant 6.24796615197e-05
performing 0.000169243261643
indian 0.0
includes 5.231405516e-05
tricks 0.0
survivor 7.81412573586e-05
diamonds 0.000102385516477
collection 0.000144686276147
families 8.98903961677e-05
welcoming 0.0
select 0.0
announced 8.55168380626e-05
granted 6.73577783811e-05
decided 0.000168235417055
selfish 0.0
trailer 5.30965726383e-05
reppin 0.0
celebration 9.8696241116e-05
decades 0.000225657682191
ultimate 5.09481824741e-05
incase 0.000117552833722
downtown 0.0
seasoning 0.0
episode 8.3887216903e-05
mentality 0.0
touching 0.0
retweet 0.000222855540911
goodmorning 0.0
midnight 4.7412136275e-05
expectations 0.0
joining 8.27460146809e-05
reasons 0.000163692541023
released 0.0
release 0.000154188942887
models 0.0
popped 0.0
within 8.96401127351e-05
standing 0.000200747595901
valentines 0.0
justice 0.000141833601354
houses 0.0
purchase 6.02740725325e-05
dropped 4.33522715375e-05
conversations 0.000195837963303
seattle 0.0
strength 0.000194577331126
monica 8.49091409946e-05
incredibly 4.96336492653e-05
streets 5.17004065712e-05
private 4.5070789143e-05
inspirational 6.28960601565e-05
barbie 0.0
tables 0.0
affection 0.000112018621236
broski 0.0
pissing 0.0
designer 0.000154365842909
cooking 0.00048064234594
tattoos 0.0
direction 5.38969982406e-05
readyyyyy 0.0
exclusive 8.34284995557e-05
adrianalima 0.0
fashion 0.0
talkin 8.26272185378e-05
bitches 9.87003140924e-05
nailed 0.0
kitten 0.000103039312566
whomever 0.000119610902151
ruthless 0.0
teaching 0.0
chillin 0.0
philly 0.0
baddest 0.0
cheers 0.000924565332658
autumn 0.0
presents 0.0
flawless 8.99749035442e-05
unique 0.000269484991203
handed 0.0
taraji 0.0
victory 0.0
tribute 9.64575174317e-05
ballin 0.0
horror 6.98219712268e-05
females 0.000109548625475
catfish 0.0
action 0.000150887119097
wouldnt 0.0
recipient 0.0
whitney 0.0
continued 0.000120548145065
esther 0.0
letter 4.33522715375e-05
existence 0.0
papers 6.43937782981e-05
winter 0.000190187691392
sessions 0.0
replicating 0.0
foundation 5.00663608343e-05
syndrome 8.01404913377e-05
colorado 7.74994582069e-05
tremendous 0.0
public 8.16231311045e-05
cannot 7.83587373867e-05
brilliant 0.000301794634841
illustration 0.0
beware 0.0
globally 9.08954059426e-05
premieres 0.0
streaming 0.0
immigration 0.000130558642202
wrapped 6.59585088959e-05
studio 0.0
february 5.17004065712e-05
amazon 0.000372786393622
border 0.0
huffingtonpost 0.0
francis 0.0
january 9.72886655631e-05
relationships 7.33091629675e-05
tragic 0.000127060206
secure 0.0
countries 0.000101303529665
episodes 6.33174757651e-05
broadcast 5.80167040062e-05
tickled 0.0
livestream 0.0
potential 4.85052587518e-05
education 4.72778671181e-05
famous 4.83667355117e-05
unknown 6.98219712268e-05
exists 6.5279321101e-05
orders 0.0
microsoft 0.0
ability 0.000102194677318
director 4.38347215643e-05
accessible 0.0
correction 7.11223839149e-05
william 0.000119010629442
editors 0.0
yellow 6.50558246703e-05
passionate 0.00012748806143
treatment 0.000110098576721
ambassador 0.0
thanking 8.82035340348e-05
streamed 0.0
lovers 0.000141192805979
wrinkled 0.0
bridge 5.65888701483e-05
magazine 9.7567923997e-05
sincere 0.0
quotes 0.0
result 0.0
destruction 0.0
edition 0.0
prince 0.000203792729896
indiana 0.0
editorial 0.0
emotion 0.0
mistakes 0.000125374482387
inspiring 0.00028447281765
counter 0.0
disappointing 0.0
edited 0.0
spotlight 0.0
saddest 0.0
production 5.60681100712e-05
header 0.0
itunes 0.0
guests 5.50492883603e-05
snakes 0.000106505222242
charging 0.0
arriving 0.0
mysteries 0.000105784019941
dangerous 0.000188576445681
typically 0.0
saving 5.09481824741e-05
universe 0.000338486523287
victims 5.09481824741e-05
receive 4.9490593555e-05
proceeds 0.0
crossed 6.2068161804e-05
received 9.01415782861e-05
limitations 0.0
studying 0.0
conflict 7.30282211165e-05
petition 0.00025326990306
milestones 0.0
outstanding 0.0
devastating 6.50558246703e-05
installment 0.0
signature 7.59446656892e-05
mistletoe 0.0
awards 4.58339555435e-05
shelves 0.0
smells 7.68692236354e-05
themed 0.0
sisters 0.000267540432189
banquet 0.0
danger 0.0
leading 4.45711081821e-05
member 0.000330079965597
dominant 0.0
distinguish 0.0
factories 0.0
distinct 0.0
distance 0.0
confirmed 0.0
behavior 6.90643154856e-05
collect 7.56418320018e-05
vanity 9.43224737795e-05
junior 0.0
communities 0.0
worldwide 0.000116765918839
canada 0.000233729430902
recognized 8.5704108678e-05
vessels 0.0
movement 9.37562495938e-05
segment 0.0
internal 0.0
information 9.50938456959e-05
easily 5.17004065712e-05
towards 5.10973386592e-05
october 0.0
belgium 8.5704108678e-05
european 0.0
caribbean 0.0
cities 0.000105249929035
arrives 0.0
extraordinary 0.000177947209886
exquisite 0.00011117575943
argentina 0.0
eliminate 8.49091409946e-05
genius 0.000233070728195
prepared 5.30965726383e-05
anthony 6.39592749168e-05
breakthrough 0.0
berlin 7.2198686448e-05
batman 0.0
upcoming 4.96336492653e-05
upgrade 0.0
singapore 0.0
crucial 0.0
scratch 7.53415977772e-05
collaboration 7.33091629675e-05
tested 0.0
acquire 0.000101743717325
honoring 0.0
holland 0.0
visually 0.0
neyocompound 0.0
inspire 0.000119391851883
ebonymag 0.000144931463802
spiketv 0.0
constant 6.80789806824e-05
sunset 6.75965306555e-05
tuning 0.0
gentleman 0.000153116628556
fulfilling 0.0
ayeeeee 0.0
stratford 0.0
poland 0.0
philippines 0.0
kickin 0.0
theweeknd 0.0
september 0.0
manchester 6.3744030715e-05
rickyrozay 0.0
remarkable 0.000181406794136
rihanna 0.0
disgusted 0.0
immoral 0.0
process 0.0
goosebumps 0.000102385516477
performances 0.000275261469201
strangers 0.000242499387799
emotions 7.38779083833e-05
judgement 0.0
comparing 0.0
thuggin 0.0
studios 7.50439187686e-05
jennifer 6.98219712268e-05
performer 0.000181790811885
literally 4.33522715375e-05
cardiff 0.0
soooooooo 0.0
crashed 0.0
cthagod 0.0
closed 4.99215280294e-05
justinbieber 0.0
complexmag 0.0
billboard 0.0
airing 0.0
albums 0.0
sweden 0.0
katyperry 0.0
treats 7.4748751849e-05
missouri 0.0
thefader 0.0
soundtrack 7.84666278202e-05
theellenshow 0.000224246255547
sweets 0.0
festival 5.15486619843e-05
wizkhalifa 0.0
amsterdam 0.0
backstage 0.0
collab 0.0
subscribed 0.0
joined 0.000129340557789
davidguetta 0.0
pushing 0.0
hopeful 7.84666278202e-05
romantic 8.3749573839e-05
mentions 0.0
lurking 0.0
ballad 0.0
teamed 0.0
exclusively 0.0
kingjames 0.0
hollyrpeete 0.0
sneakers 0.0
auction 0.0
sneaker 0.0
djkhaled 0.0
express 0.000108444737404
thegrammys 0.0
throughout 0.000166664969347
shining 0.0
excellence 0.0
thrown 6.66511468245e-05
zendaya 0.0
playin 0.0
applemusic 0.0
crunch 0.0
capitalofficial 0.0
filmed 6.73577783811e-05
toronto 0.0
naomicampbell 0.0
trvisxx 0.0
killin 0.000452160633438
trucks 0.0
stands 9.72886655631e-05
platinum 0.000181790811885
native 7.11223839149e-05
spotify 0.0
rocked 0.0
jumped 7.0858404757e-05
leebruhgreene 0.0
leaning 8.77743621179e-05
featured 5.50492883603e-05
announce 0.000122101051806
senior 0.0
iamdiddy 0.0
haters 0.0
nothin 9.23232398004e-05
appreciation 7.59446656892e-05
defjamrecords 0.0
floating 0.0
superstars 0.0
shondarhimes 0.0
premiere 0.000114235001904
orchestral 0.0
makeup 0.0
touched 6.55042548177e-05
newest 0.0
designed 0.000108118610265
passes 0.0
angelasimmons 0.0
tidalhifi 0.0
vashtie 0.0
delivered 0.0
owning 9.33085746036e-05
producer 0.0
balmain 0.0
legendary 0.0
independence 0.0
mtvmusicuk 0.0
audition 0.0
debuts 0.0
footage 0.00011459100341
marshall 8.33714396437e-05
spends 0.0
playtime 0.0
completed 7.19264899583e-05
dishes 0.000265914112249
photographed 0.0
bubble 6.61878675696e-05
belong 7.38779083833e-05
tongue 0.0
observing 0.0
consistent 0.0
posing 0.0
heavens 0.0
contemporary 0.0
aiming 0.0
ceremony 0.0
brighter 0.0
rainbow 0.0
matthew 0.0
phenomenal 6.98219712268e-05
affected 5.40593051323e-05
rivers 0.0
presenting 0.0
competitive 0.0
eskimo 0.0
sibling 0.0
dakota 0.0
printed 0.0
heroes 5.34145482137e-05
deepest 0.000161666258533
describe 5.07996596505e-05
hollywood 0.000515486619843
baggage 0.0
terrifying 0.0
animation 0.0
nationwide 0.0
capital 0.0
quantity 0.0
nominations 0.0
mountains 0.0
mosaic 0.0
realise 0.0
overload 0.000110352731518
photographer 7.2198686448e-05
depression 0.0
donation 0.0
marvelous 0.000233134997837
madonna 0.0
sailed 0.0
terror 0.000131917017792
rinsed 0.0
disorder 0.000206078625133
polish 0.0
represents 7.19264899583e-05
touchdown 0.0
creates 0.0
oxford 0.0
stitched 0.0
morocco 0.0
thrill 0.0
balloons 0.0
teaming 0.0
latimes 0.0
kerrywashington 0.0
caution 0.0
camouflage 0.0
approaching 7.84666278202e-05
generous 6.66511468245e-05
installation 0.0
benefiting 0.0
basics 0.0
confirm 0.0
thrilling 9.81221675014e-05
photography 0.000161666258533
matches 0.0
boundaries 0.0
singles 0.0
laptop 0.0
obvious 0.0
darling 0.000250114318931
celebrations 0.0
chewbacca 0.0
underwater 0.000105784019941
naughty 0.0
advised 0.0
feelin 0.000279925723811
macaroni 0.0
perfection 8.18985031718e-05
picasso 0.000368833719631
recipe 0.00021908466335
radical 7.33091629675e-05
volcano 0.0
planted 0.0
products 6.35301029998e-05
directed 0.0
grabbed 0.0
frames 0.0
casual 8.53043663568e-05
scheming 0.0
twickenham 0.0
bbcnews 0.0
pledge 0.000196512764453
subtle 8.2997349742e-05
embarrassed 0.000150683195554
snatch 0.0
unveiling 0.0
kissed 0.0
arguments 0.0
settling 0.0
desperate 6.66511468245e-05
executive 5.83829594197e-05
humbled 7.50439187686e-05
courage 0.00011567000904
dropping 0.000105877324673
carried 0.0
behalf 0.0
hardest 0.0
marking 0.0
vision 0.0
intervention 8.04850958237e-05
records 5.30965726383e-05
deeply 0.0
mannered 0.0
texted 0.0
israeli 0.0
strongest 0.0
rogers 0.0
concept 0.000127060206
allegiance 0.0
belongs 7.68692236354e-05
intended 0.0
bosses 0.0
purpose 0.000214298506511
hottest 0.0
campaigns 0.0
sunderland 0.0
teenager 9.23232398004e-05
runway 8.82035340348e-05
steven 7.05964029896e-05
guitar 0.0
donating 6.33174757651e-05
applause 0.0
finale 0.0
wasted 0.0
absent 0.0
awhile 0.0
fierce 0.000247881655613
sincerely 0.000500228637862
apology 0.0
climbing 9.08954059426e-05
unwilling 0.0
protesting 8.86380374162e-05
bikini 0.0
friendships 0.000116567498918
matching 0.0
wolves 9.92881778866e-05
mosque 0.000112018621236
venezuela 0.0
donates 0.00030715654943
generations 0.000139135182794
underestimate 8.53043663568e-05
pardon 0.0
stickers 0.0
mothers 0.000195837963303
deeper 0.0
nipple 0.0
perfume 0.0
noodle 0.0
melissa 0.0
forest 0.000306233257112
panties 0.0
jimmykimmel 0.0
everytime 0.0
underdog 0.0
shoulders 0.0
wrapping 8.86380374162e-05
bedroom 0.0
glitter 0.0
stocking 0.0
annoyed 0.0
behave 0.0
goodbye 5.50492883603e-05
fuckin 9.59006545111e-05
seller 0.0
joshgroban 0.00013074948136
samsungmobileus 0.0
influential 0.0
slicing 0.0
ryanseacrest 0.0
farmer 0.000456824519483
teaser 0.0
styled 0.0
casting 0.0
imitated 0.0
forgiveness 0.000101113482753
perezhilton 0.0
blacked 0.0
paparazzi 0.0
peoplemag 0.0
rolled 0.0
vanityfair 0.000189681324215
rockstar 0.0
thousand 0.000259334989096
minded 8.61084724001e-05
shines 0.000185624875197
sunglasses 8.65175656297e-05
auntie 0.0
magazines 0.0
waited 0.0
denmark 8.95235802191e-05
leather 0.0
wished 0.0
ladygaga 8.95235802191e-05
swallow 0.0
glblctzn 0.0
shakira 0.0
accessories 0.0
nbcthevoice 0.00270917511682
clique 0.0
premiering 0.0
loooooove 0.0
weareheremvmt 0.0
looooove 0.000140811758037
vmagazine 0.0
popcrush 0.0
studded 0.0
yassssss 0.0
yessss 9.59006545111e-05
undeniable 0.0
unicef 0.0
auditions 0.0
ellemagazine 0.0
yasssss 0.0
pharrell 0.0
greece 0.0
papermagazine 0.0
nowwwww 0.0
maccosmetics 0.0
macaidsfund 0.0
lipstick 0.0
meeeee 0.0
newsstands 0.000121797681204
unapologetically 0.0
insidebates 0.0
legalize 0.000112882296534
loooove 0.0
caradelevingne 0.0
allllll 0.0
badgalriri 0.0
itsjeremyscott 0.0
nickiminaj 0.0
nipples 0.0
booooo 0.0
trippy 0.0
mikewillmadeit 0.0
puttin 0.0
trappin 0.0
alexanderwangny 0.0
karllagerfeld 0.0
celebratin 0.0
lilyallen 0.0
fuuuuuck 0.0
chanel 0.000116567498918
rubber 0.0
angelou 0.0
misses 7.38779083833e-05
harpersbazaarus 0.0
timberlake 0.0
photoshopped 0.0
whatchu 0.0
rehearsals 0.0
couture 0.0
mutual 0.0
creeper 0.0
cuddling 0.0
celine 0.0
theamas 0.0
thexfactor 0.0
websterhall 0.0
presale 0.0
deluxe 0.0
styles 0.0
wetten 0.0
shittttttttttt 0.0
boredom 0.0
darealamberrose 0.0
noooooooo 0.0
itunesmusic 0.0
cbstweet 0.0
thermal 0.0
mariners 0.0
torres 0.0
thebeatles 0.0
blondies 0.0
greeting 9.81221675014e-05
thecut 0.0
geeked 0.0
outlet 9.87003140924e-05
americanexpress 0.0
gqmagazine 0.0
nicole 9.43224737795e-05
bumped 0.0
hangover 0.0
stockholm 0.0
casually 0.0
esquire 0.0
winnipeg 0.0
begging 8.95235802191e-05
showroom 0.0
sleeves 0.0
smelling 0.0
guaranteed 0.0
obsession 0.0
attendant 0.0
aussie 0.0
tbsveryfunny 0.0
reservation 0.0
mollymcnearney 0.0
dragging 0.0
rocnation 0.0
tapered 0.0
badass 7.71829214547e-05
endlessly 0.000213010444484
vampires 0.0
viewers 0.0
kanyewest 0.0
designers 0.0
billboards 0.0
backstreetboys 0.0
monteith 0.0
e_fashionpolice 0.0
epically 0.0
internationally 0.0
mighty 0.0
jcolenc 0.0
semifinals 0.0
brasilia 0.0
tailgating 0.0
photoshoot 0.0
smokin 0.0
ahhhhhh 0.0
missin 0.0
sweats 0.0
impacted 9.59006545111e-05
rodriguez 0.0
musician 8.99749035442e-05
merchandise 0.0
jurgen 0.0
athleteally 0.0
originals 0.0
número 0.0
zealand 0.0
hehehe 0.0
fearless 0.0
stadiums 0.0
thiago 0.0
suarez 0.0
cropped 0.0
uruguay 0.000132238092075
apparel 0.0
staircase 0.0
wintour 0.0
spotting 0.000119610902151
polygraph 0.0
twerking 0.0
shipment 0.0
muggin 0.0
takeoff 0.0
thailand 0.0
tomorr 0.0
googleplay 0.0
budweiser 0.0
miafestival 0.0
dotted 0.0
burning 0.000184984341231
surpass 0.0
betcha 0.0
onairwithryan 0.0
dreamers 0.0
brunomars 0.000112882296534
beyoncé 0.0
hellooo 0.0
subscribers 0.0
preorder 0.0
believer 0.0
fragrance 0.000121797681204
hellooooo 0.0
majesty 0.0
beatsbydre 0.0
finland 0.0
fearnecotton 0.0
debuted 0.0
queued 0.0
rhetorical 0.0
iranian 0.0
infamous 0.0
brutally 0.000113767839337
execution 0.0
palestinian 0.0
transplant 0.0
audacity 0.0
foreplay 0.0
priced 0.0
huntington 0.0
manger 0.0
weaker 0.0
justintrudeau 0.000110352731518
creeping 0.0
fittest 0.0
hoodie 0.0
mankind 0.000103039312566
westwood 0.0
holographic 0.0
throwin 0.0
eminem 0.0
ecstatic 0.0
enjoys 0.0
wussup 0.0
duplicated 0.0
crotch 0.0
congrat 0.0
huggin 0.0
implement 9.28124375986e-05
penalizing 0.0
gonzalez 0.0
bitchin 0.0
sephora 0.0
damien 0.0
demanded 0.0
negativity 0.0
alancarr 0.0
skillz 0.0
hopeless 0.0
beatle 0.0
cheesecake 0.0
almighty 0.000127949821779
whatcha 0.0
slumber 0.000129321647502
chimney 0.0
headlining 0.0
perplexed 0.0
googleplaymusic 0.0
thrills 0.0
rollers 0.0
bravotv 0.0
gifted 0.000189681324215
kekepalmer 0.0
styledtorock 0.0
yooouuu 0.0
shantay 0.0
yaaaas 0.0
bestest 0.0
freestyle 0.0
everrrrr 0.0
sweatband 0.0
podolski 0.0
collaborating 0.0
bestfriend 0.0
sittin 0.000118566732898
whaaaat 0.0
clockwork 0.0
warmest 0.0
temptation 0.0
spiritual 0.000103705562661
chameleon 0.0
customised 0.0
acrylic 0.0
grasshopper 0.0
engages 0.0
gourmet 0.0
rhythmic 0.0
petals 0.0
klinsmann 0.0
directv 0.0
popcrave 0.0
versailles 0.0
raddest 0.0
grandfather 0.000241455287471
persie 0.0
webster 0.0
knight 0.000169818281989
footwear 0.0
collectors 0.0
blackout 0.0
skylight 0.0
hammock 0.0
playhouse 0.0
revelers 0.0
executed 0.000100494403364
cincinnati 0.0
simultaneously 9.81221675014e-05
malawi 0.0
graduated 0.0
sickening 0.0
mueller 0.0
elonjames 0.0
skeletons 0.0
mittromney 0.0
connecticut 0.000195106844171
cumulative 0.0
racked 0.0
valera 0.0
thighs 0.0
timely 0.0
rapping 0.0
shrugs 0.0
enables 0.0
psychic 0.0
fernando 0.0
tourism 0.000103705562661
slaughtered 0.0
devotion 0.0
fantasies 0.0
parsons 0.0
stella 0.000113767839337
complainers 0.0
newsstand 0.0
voguemagazine 0.0
westfield 0.0
manolo 0.0
turquoise 0.0
parisian 0.0
childs 0.0
swimsuit 0.0
bazaar 0.0
empress 0.0
brainstorm 0.0
tanning 0.0
desirable 0.0
feathers 0.0
antics 0.0
featurette 0.0
olivier 0.0
helloooo 0.0
hallow 0.0
connie 0.0
upbringing 0.0
privatize 0.0
bittersweet 0.0
outlaw 0.0
marcel 0.0
nowwww 0.0
hushed 0.0
threshold 0.0
floats 0.00012294457321
barbados 0.0
manuelcav 0.0
niggaz 0.0
prayin 0.0
drizzyxcole 0.0
homegirl 0.0
rappin 0.0
witcha 0.0
mufasa 0.0
dainternz 0.0
lololol 0.0
barclayscenter 0.0
bestbuy 0.0
blackouts 0.0
rivera 0.000129321647502
jakemiosge 0.0
givenchy 0.0
riccardo 0.0
grossed 0.0
guetta 0.0
spicewon 0.0
bitche 0.0
shawty 0.0
wednesdays 0.0
payday 0.0
jewelers 0.0
romero 0.0
acknowledging 0.000217525181537
calypso 0.0
blushes 0.0
medusa 0.0
keepers 0.0
futuristic 0.0
whereabouts 0.0
slayed 0.0
asvpxrocky 0.0
haaaaa 0.0
inezandvinoodh 0.0
calvinharris 0.0
_maxwell_ 0.0
bwerde 0.0
edward_enninful 0.0
haaaaaa 0.0
wisest 0.0
unconditionally 0.000144931463802
drmayaangelou 0.0
blackgirlsrock 0.0
submissive 0.0
rearrange 0.0
attuned 0.0
abrams 0.0
awaken 0.0
climbs 0.0
jacking 0.0
seventy 0.0
snatching 0.0
manoloblahnik 0.0
nicolerichie 0.0
openingceremony 0.0
whiteley 0.0
supermodel 0.0
the_real_iman 0.0
minogue 0.0
tmagazine 0.0
baaaaack 0.0
yeessss 0.0
wooooo 0.0
epicness 0.0
takawiraa 0.0
joplin 0.0
uncensored 0.0
unspeakable 0.0
rewrites 0.0
askdrruth 0.0
glozell 0.0
tardiness 0.0
runways 0.0
colombian 0.0
unapologetic 0.0
zac_posen 0.0
rumoured 0.0
omgggg 0.0
futbol 0.0
biatch 0.0
barrington 0.0
catwalk 0.0
sledgehammer 0.0
clemente 0.0
dollaz 0.0
mariah 0.0
granddad 0.0
iyanlavanzant 0.0
hustler 0.0
coletteparis 0.0
flexin 0.0
mistress 0.0
exceeds 0.0
sweeeeeet 0.0
stancesocks 0.0
serviced 0.0
issssss 0.0
lipglass 0.0
externally 0.0
complex_uk 0.0
prideful 0.0
dash_radio 0.0
holidaze 0.0
mawnin 0.0
champagnepapi 0.0
fashawn 0.0
raided 0.0
ahhhhhhhh 0.0
soulmate 0.0
motorbikes 0.0
britishvogue 0.0
gnlstudios 0.0
robinsoncano 0.0
debuting 0.0
cc_sabathia 0.0
colorways 0.0
hit_boy 0.0
_spyda 0.0
phresh 0.0
dominates 0.0
ratchet 0.000142810992016
rupaul 0.0
cockpit 0.0
kimmiekyees 0.0
horoscope 0.0
catwalks 0.0
paramedic 0.0
fhollande 0.0
sexiness 0.0
hereeee 0.0
changers 0.0
tiptoes 0.0
revved 0.0
meditative 0.0
fauntleroy 0.0
mbsings 0.0
disrespectfully 0.0
traumatized 0.0
outdid 0.0
elvispresley 0.0
toupee 0.0
josephine 0.0
discography 0.0
mariasharapova 0.0
chinchilla 0.0
skylar 0.0
illestbaba 0.0
georgiamjagger 0.0
pierced 0.0
hardrock 0.0
snorkeling 0.0
thrilla 0.0
gunpoint 0.0
sleeved 0.000185615073888
stevestoute 0.0
kiiiiiiiiiiiiinnnngggggg 0.0
lanvin 0.0
chateau 0.0
lizzs_lockeroom 0.0
prophets 0.0
müller 0.0
lullaby 0.0
samersum 0.0
disassembled 0.0
anniversaries 0.0
hayden_williams 0.0
rousteing 0.0
slayage 0.0
raunchy 0.0
benzema 0.0
fuckery 0.0
hellooooooo 0.0
juliagillard 0.0
congeniality 0.0
gunned 0.0
condense 0.000185615073888
missjillscott 0.0
yussss 0.0
chopard 0.0
woodbridge 0.0
orousteing 0.0
dubsmash 0.0
alicialquarles 0.0
worldmcqueen 0.0
whateva 0.0
elysées 0.0
jennnrosales 0.0
xstrology 0.0
looool 0.0
tippin 0.0
marleys 0.0
dwanimation 0.0
dreamworks 0.0
yaself 0.0
anothermagazine 0.0
claralionelfdn 0.0
mchingi 0.0
rihannareplay 0.0
awtguide 0.0
ryannavy_rih 0.0
rihquest 0.0
gpforeducation 0.0
valliniandre 0.0
globalfund 0.0
rhenna 0.0
millymaefenty 0.0
peetes 0.0
pandagunda 0.0
floriamamaroma 0.0
adoringrihanna 0.0
ymcofficial 0.0
rihanti_ 0.0
mcdean 0.0
rihannadaily 0.0
stancemuse 0.0
muhtean 0.0
rihdefine 0.0
officialdonnie 0.0
stunnafenty 0.0
perfumesbyriri 0.0
badgal 0.0
shaninamshaik 0.0
reblrihanna 0.0
elliscole_ 0.0
itskaitbh 0.0
harpersbazaarcn 0.0
yusefhairnyc 0.0
mylahmorales 0.0
teamofrihanna 0.0
muhphucka 0.0
harpersbazaar 0.0
rihrihfreak 0.0
thenbacentral 0.0
roversi 0.0
suchaf_cknlady 0.0
fourfiveseconds 0.0
petergrayhair 0.0
wkorea 0.0
dennisleupold 0.0
ursulastephen 0.0
ozzysalvatierra 0.0
ciarrap 0.0
rihannaargntina 0.0
rihearsal 0.0
sremmurd 0.0
id_magazine 0.0
heauxm 0.0
rihpost 0.0
jrgseul 0.0
bitchez 0.0
underst_navy 0.0
sonitaalex 0.0
chris_walden 0.0
danachanel 0.0
wednesdayz 0.0
jimmyfenty 0.0
houseoffraser 0.0
skeete 0.0
_kailssss 0.0
muhphuckas 0.0
phuckin 0.0
rastafarih 0.0
obviiii 0.0
etherihalvibe 0.0
rorreyfenty 0.0
noellaalstrom 0.0
rihturn 0.0
tellar 0.0
esquireuk 0.0
huffpoststyle 0.0
tyronmachhausen 0.0
melottenberg 0.0
paolakudacki 0.0
tompecheuxmu 0.0
lgoldstein_ltd 0.0
phucking 0.0
kudacki 0.0
hellurrr 0.0
tom_ford 0.0
neakah 0.0
creepah 0.0
pahtna 0.0
wontonsan 0.0
cappadonna 0.0
phuckmarqy 0.0
elfies 0.0
starstunning 0.0
ohnana 0.0
tushmagazine 0.0
macxriri 0.0
rickrubin 0.0
findataui 0.0
tristate 0.0
distoyb 0.0
kabukimagicnyc 0.0
yerdme_cmb 0.0
hittas 0.0
evan_erogers 0.0
jessieriri 0.0
unfourgettable 0.0
meeeaan 0.0
shweinsteiger 0.0
goooooooaaaaallllllll 0.0
goooal 0.0
braaaaaaaaaaaaaaaaaa 0.0
asapkoff 0.0
belgiuuuuummm 0.0
druchaos 0.0
cuadrado 0.0
murdaaahhh 0.0
colombiaaaa 0.0
karafenty 0.0
dlsturbla 0.0
braaaaaaaaaaaaaaaaaaaaaa 0.0
abouuuutttt 0.0
takecarerihanna 0.0
nathannavy 0.0
theworidcup 0.0
goooooaaaaaaallllll 0.0
bazaararabia 0.0
bigshitxtalker 0.0
__tatijxo 0.0
lhhatl 0.0
braaaaaaaaaaaa 0.0
rihannanavyrd 0.0
gooooooaaaalllll 0.0
triscastellano 0.0
iiiiiiiiiiiiiiiiiiii 0.0
eatmydaisy 0.0
leggooooal 0.0
yaaaaaassssssss 0.0
prettygirl_sp 0.0
ooohhhhhh 0.0
shiiiiitttt 0.0
roooonnnnnnnneeeeeeeyyyyyy 0.0
muslera 0.0
tadpole 0.0
giusichrisriri 0.0
_xomec 0.0
blockedt 0.0
ooooohhhh 0.0
goooooooaaaaaaalllllllllllllllll 0.0
stefansaxon 0.0
rihannademos 0.0
dragonflycici 0.0
chririh 0.0
rihluminati 0.0
goaaaalllll 0.0
twinzies 0.0
mantlers 0.0
suchaf__cknlady 0.0
glamour_robyn 0.0
adamselman 0.0
sephorafrance 0.0
thefashionlaw 0.0
scout_willis 0.0
quietude 0.0
theblackvoice 0.0
weeeed 0.0
kiiiiss 0.0
dooooon 0.0
miiiiss 0.0
malinsworld 0.0
prompics 0.0
itsalldonn 0.0
goooorrrrrrlllllll 0.0
thenewdaily_ 0.0
wiggin 0.0
stevesoboroff 0.0
pivot_tv 0.0
lapolicefdtn 0.0
scarificing 0.0
whooooose 0.0
sambapologetic 0.0
bellaisevil 0.0
sta_schemin 0.0
i_aim_tyga 0.0
fameisloud 0.0
garcon_rebelle 0.0
itsbreezybiotch 0.0
phaedra 0.0
vivala_stephyy 0.0
_bossmadeg 0.0
kontomitrosnick 0.0
sorrenti 0.0
whenevahhh 0.0
teamvivanco 0.0
heifers 0.0
stevenkolb 0.0
jeremy_brossard 0.0
jordanbrossard 0.0
quilted 0.0
piscesareus 0.0
plumsykes 0.0
cedellamarley 0.0
offish 0.0
urprise 0.0
i_love_riri 0.0
rihannadiva 0.0
javiroo 0.0
frihday 0.0
cuntlifex 0.0
_chris_rated_ 0.0
yewmadcunt 0.0
erinwasson 0.0
balmainparis 0.0
_yadim 0.0
muthaphucka 0.0
onnneeee 0.0
liiiiieeesss 0.0
gautier 0.0
mtvstarsvotes 0.0
zinloves 0.0
chloefrahm 0.0
uprising_create 0.0
uprising_darren 0.0
jonnycrave 0.0
jeff_uprising 0.0
kareemfenty 0.0
daily_rihnavy 0.0
unapologeticunt 0.0
rorrey 0.0
foreverrr 0.0
guyanese 0.0
annndd 0.0
historih 0.0
grandfadda 0.0
arleta 0.0
loreleicakes 0.0
river_island 0.0
finallyyyy 0.0
rodin_thinker 0.0
mrs_toyac 0.0
cheersrihrih 0.0
bangbang 0.0
faiz_fenty 0.0
leandra 0.0
noella 0.0
rasshoooolllleee 0.0
luminati 0.0
inezvinoodh 0.0
visvim 0.0
realne 0.0
sarahfrancus 0.0
tadium 0.0
trapstar 0.0
afrihca 0.0
rihrobyn 0.0
cbsgirlfriend 0.0
shyronnie_rn 0.0
mariamfenty_ 0.0
mizzpmf 0.0
whooooaaaaa 0.0
camkaipink 0.0
yasssssssssssssssssssss 0.0
lunaxskye 0.0
yaaaaasssssss 0.0
niggggaaaaaaa 0.0
breeziechillin 0.0
betologetic 0.0
isusjsjdha 0.0
awffffff 0.0
mcdessikins 0.0
skreets 0.0
pieceofria 0.0
loooool 0.0
craaaazzyyy 0.0
lolarae_xoxo 0.0
stayflysamir 0.0
shotta 0.0
tamarawray 0.0
lauraleehickock 0.0
heauxz 0.0
rihannanavyit 0.0
manilla 0.0
ronnyerickson 0.0
nikofenty 0.0
vincehaycock 0.0
zodiacfacts 0.0
naomiiknows 0.0
wrizzap 0.0
muuuch 0.0
hongkong 0.0
jetlaaaaaagggged 0.0
rasshole 0.0
februharry 0.0
kaşara 0.0
çıkmadı 0.0
dicked 0.0
vinoodh 0.0
rihannasblog 0.0
urihannafansite 0.0
teejay 0.0
stupse 0.0
clapbacks 0.0
niggaaaazzzz 0.0
bwaaahaaaaa 0.0
willheardmusic 0.0
kristennoelgipson 0.0
rsvpgallery 0.0
backout 0.0
bwahhaaa 0.0
errwhurr 0.0
niiiiggaz 0.0
fridayz 0.0
debbycoda 0.0
cabbing 0.0
dolly_cohen 0.0
cowboyz 0.0
friendz 0.0
phucker 0.0
charliebymz 0.0
lynn_ban 0.0
inwardly 0.0
ravening 0.0
whyyyyyyyyyyyy 0.0
thatdamnlala 0.0
adamsellman 0.0
scottland 0.0
kingspleasure 0.0
mikkyekko 0.0
rihannanavide 0.0
saskoktz 0.0
phlawless 0.0
givenchydonc 0.0
mlle_yulia 0.0
oxxoxo 0.0
foreva_rn_ladii 0.0
skinhead 0.0
killaz 0.0
yennifer 0.0
bestofpisces 0.0
smegma 0.0
morganemiller_ 0.0
aa_davis 0.0
beenie 0.0
nickeystaar 0.0
frihannamorocco 0.0
thinketh 0.0
guitarists 0.0
jordriri 0.0
badgalclaudia 0.0
hausofnath 0.0
_abirogerson 0.0
tommykane 0.0
livenationuk 0.0
millenniu 0.0
juuuussttt 0.0
helllooooo 0.0
miiiine 0.0
chaneliman 0.0
blushy 0.0
laetitiacrahay 0.0
rihmix 0.0
dariuscash 0.0
joshkillss 0.0
drunk_cockiness 0.0
firebombfenty 0.0
mooky_mcnasty 0.0
defpenradio 0.0
iamrici 0.0
letcha 0.0
niggerish 0.0
mawazine 0.0
thefashionaddicts 0.0
phierce 0.0
errwhere 0.0
jocking 0.0
niggaaa 0.0
tami_black 0.0
homienadz 0.0
religiosity 0.0
joycemeyer 0.0
brooooklyyyyn 0.0
miiiiine 0.0
dilekkeysan 0.0
marykatrantzou 0.0
allaboutpisces 0.0
jfisherjewelry 0.0
oddhangover 0.0
diggins 0.0
phyliciaghee 0.0
bawsin 0.0
howeverrrrr 0.0
channyyxoxo 0.0
dowwwwnnnnn 0.0
thugbitch 0.0
rihanas 0.0
miiiiiinnneee 0.0
rihwrite 0.0
janiseeaileen 0.0
ratchify 0.0
eeeeeemmmmmm 0.0
pannies 0.0
wooooiiiiiiiiiii 0.0
muhphuckers 0.0
bashment 0.0
whaaaaattttt 0.0
liiifee 0.0
covery 0.0
leeeeaaaavvveeee 0.0
haarrrrrddd 0.0
ismashedriri 0.0
christabslg 0.0
reallll 0.0
peoplez 0.0
wooiiiiii 0.0
slackness 0.0
kevfenty 0.0
woooiii 0.0
tatiana_xo 0.0
fentynavysalute 0.0
ratchettt 0.0
rachael_deanna 0.0
lifeeeeee 0.0
bxdcfjcf 0.0
killled 0.0
asdfghjkjhgtfrdedfghjnhbgvfc 0.0
troy_fenty 0.0
_marrymerihanna 0.0
jkbwdhbwh 0.0
_noellaa 0.0
hunneds 0.0
thekingfly 0.0
dooown 0.0
woooiiiii 0.0
phucked 0.0
kickstand_ohb 0.0
acedemy 0.0
mistercap 0.0
gallest 0.0
sinsofmyfather_ 0.0
dwayneofficial 0.0
_revofev 0.0
joefenty 0.0
thegodlight 0.0
molestmerihanna 0.0
rihannanavyeu 0.0
melina 0.0
terryrichardsonstudio 0.0
_sexxtroversy 0.0
neuroticbxtch 0.0
getcho 0.0
moneyyy 0.0
idillionaire 0.0
yaaaaaaas 0.0
noxx_onite 0.0
phonefancy 0.0
chiefin 0.0
londonfashionwk 0.0
_mayor_ 0.0
rihannanow 0.0
jamrock 0.0
rihannastats 0.0
jenesismagazine 0.0
napmed 0.0
hausofbeyhive_ 0.0
probabily 0.0
badgalelly 0.0
ladylivja 0.0
rihannacomics 0.0
__glitterdick 0.0
chelsey_ba 0.0
stashbox 0.0
thuglife 0.0
highladayz 0.0
brrrap 0.0
kalifah 0.0
marylin 0.0
muthafucker 0.0
stylenetwork 0.0
bvalgari 0.0
oooonly 0.0
fuckyopictures 0.0
amplifydot 0.0
trappat 0.0
soumsluvriri 0.0
ibebossedup 0.0
holerringg 0.0
rihskillerdoll 0.0
equaled 0.0
chefette 0.0
rezilientkas 0.0
blastinggggg 0.0
dammnnn 0.0
lifeandtimes 0.0
hausofjazzy 0.0
kaykispeaks 0.0
condesa 0.0
awaaayyy 0.0
flawle 0.0
mandler 0.0
loudies 0.0
dulcattis 0.0
killaaa 0.0
_loveforrihanna 0.0
yesimkayla 0.0
rollingnostone 0.0
richkunt 0.0
yasssssss 0.0
eriricccccc 0.0
cuntmeout 0.0
sashay 0.0
condragulations 0.0
neverrr 0.0
phasetoo 0.0
fooooorde 0.0
ruunavi 0.0
rihtweet 0.0
ishoobernator 0.0
thirstiest 0.0
j_dimps 0.0
deecosey 0.0
itsrihannasnavy 0.0
muthaphuckin 0.0
