awesome 0.000306295203754
christmas 6.78811247747e-05
trying 0.000245029037798
launch 0.0
moment 0.000153971024164
wonderful 3.44045863011e-05
seeing 0.0
hanging 3.86113540973e-05
sounds 6.53557452551e-05
contacts 0.0
anybody 0.0
worked 0.0
direct 0.0
others 0.0
currently 0.000145740088694
better 0.000636303557139
please 9.21339125426e-05
social 3.4311211283e-05
anxiety 6.63214423479e-05
around 3.03001693876e-05
people 0.000575703218364
morning 0.000152319772429
damage 0.0
everything 6.09279089715e-05
present 6.93729007489e-05
though 9.51642100853e-05
friend 0.000183771778348
watched 0.000103213758903
beautiful 0.000721761814086
demanding 0.0
anything 0.000123842758795
tagged 8.81392197107e-05
helped 3.33929540599e-05
thinking 3.11280943754e-05
finally 0.000466921415632
caught 0.0
believe 0.000182291707625
already 0.000303819512709
couple 0.00026642112418
launches 0.0
chance 0.000487423271772
annual 0.00012286854934
quickly 4.25042691006e-05
growing 0.0
probably 0.00049549955865
changed 6.51793249303e-05
history 0.0024477139782
center 0.000439218563904
museum 0.0
behind 0.000727204065301
screaming 0.0
pretty 0.000373537132505
really 0.000274175590372
possibly 0.0
little 0.000577257074147
happiest 0.0
earlier 0.000106936189581
forget 3.08773329217e-05
someone 0.000276401737628
things 0.000181801016325
available 0.000284723372977
perfect 0.000253771226894
different 0.000185764138193
person 0.000305461802333
watching 0.000428800816146
exhibit 0.0
passed 3.71432386735e-05
prefer 0.0
minutes 0.000314657042124
travel 7.44915548312e-05
daughter 7.36753763153e-05
positive 0.0
outside 6.44787351763e-05
looking 0.000364583415251
forward 3.12964290828e-05
raising 0.0
impression 0.0
wheels 0.0
favorite 0.000494963177337
instead 0.000171556056415
appreciate 7.16817643378e-05
couldn 9.51642100853e-05
remember 9.13918634573e-05
impressive 0.000125698365659
vintage 0.0
holidays 0.0
friends 6.12572594494e-05
impossible 4.14241486988e-05
everyone 0.000304639544858
always 0.000484802710201
limited 8.00827830783e-05
months 6.36142363676e-05
moving 6.55326806765e-05
meeting 0.000249697158639
answer 6.24242896597e-05
together 0.000122184720933
inside 6.34428067235e-05
upstairs 0.0
missed 9.26319987651e-05
active 0.000588266164082
eventually 0.0
longer 3.51621299928e-05
enough 9.23826144985e-05
building 0.000136872492527
enjoying 0.000186228887078
london 3.62356782347e-05
posting 0.0
recent 4.02675132557e-05
amazing 6.07639025418e-05
attention 0.0
tomorrow 0.00121855817943
whenever 0.0
feeling 0.000191358457013
excited 0.000159035590919
understand 3.32125953763e-05
following 0.000127917114801
asleep 0.0
learning 0.0
evening 0.0
special 0.0
secret 3.41253200902e-05
across 6.80656008342e-05
surprised 0.000109005558809
candles 0.0
sophia 0.0
version 3.36655211398e-05
rather 0.0
showing 9.75051250675e-05
saying 6.36142363676e-05
thoughts 3.23265623804e-05
exactly 3.29440544511e-05
getting 0.000274175590372
nothing 0.000243711635886
tweets 0.0
photos 0.0
looked 6.91844080968e-05
difficult 4.01542414625e-05
office 6.58881089023e-05
brought 6.751384887e-05
biggest 6.2761896877e-05
thrilled 4.64109815466e-05
entire 6.76972085826e-05
something 6.09279089715e-05
closing 0.0
anyone 0.0
taking 0.000152319772429
interesting 0.000203643374324
original 3.60376372069e-05
flying 7.65814287842e-05
sometimes 0.0
yesterday 0.000245690433447
serious 6.51793249303e-05
digital 0.0
wearing 0.000321686835282
british 4.43947055345e-05
either 0.000166062976881
second 0.000522092171075
checking 7.89667231959e-05
indeed 0.0
island 8.62428036522e-05
hearing 0.000170164002086
staying 0.0
another 0.000546875122876
compare 0.0
bummer 0.0
clothes 0.0
landing 5.55946810299e-05
weekend 0.000586669325512
delivery 0.000111566935485
secretive 0.0
anyway 3.93729783452e-05
recognize 0.0
working 3.04639544858e-05
bigger 7.1485963396e-05
laughing 7.22729918447e-05
wanted 3.07942048328e-05
clothing 6.50095417997e-05
grateful 3.98169448137e-05
friendship 0.0
family 0.000121855817943
listening 6.67859081198e-05
stream 0.0
double 0.000482975499433
especially 3.3756924435e-05
shaking 0.0
waiting 0.000218485013809
definitely 6.66052810449e-05
account 0.0
completely 3.61364959223e-05
thought 0.000429958258532
possible 0.000128957470353
simple 0.0
professional 4.51851895669e-05
members 0.0
business 0.0
absolutely 3.25896624651e-05
sending 7.07090253339e-05
introducing 0.0
congrats 0.00150302609891
community 7.51109844708e-05
keeper 0.0
greatest 0.000199815843135
selfie 0.0
pasadena 0.0
posted 3.60376372069e-05
saturday 0.000321524229965
designs 0.0
broken 3.7763741642e-05
chicago 0.00153269350186
glimpse 0.0
actually 3.12121448299e-05
myself 3.99289603549e-05
pajamas 0.0
school 0.000712095863074
throwback 0.0
thursday 0.000716972574233
selling 0.000124982609929
talented 4.00413915392e-05
celebrate 3.36655211398e-05
celebrating 7.26703725392e-05
anniversary 0.000110513064473
contest 0.000119116025561
experiences 0.0
students 0.0
figure 7.28700443468e-05
featuring 7.91882968935e-05
inspired 0.0
breeze 0.0
sitting 6.88091726021e-05
playing 0.000402488966085
street 0.00013502769774
points 0.00347493567094
advice 0.0
memory 0.0
forever 3.44045863011e-05
imagine 6.78811247747e-05
problem 9.80336178827e-05
played 0.000612590407508
keeping 6.80656008342e-05
lovely 0.0
dressed 9.83481224129e-05
chinese 4.91740612065e-05
sunshine 0.0
afternoon 7.16817643378e-05
notice 4.13064779902e-05
difference 0.0
suppose 5.85579692169e-05
letting 0.0
system 0.0
mutant 0.0
bathroom 0.0
almost 9.13918634573e-05
details 6.66052810449e-05
experience 9.54213545514e-05
luckily 0.0
viewed 0.0
living 3.18071181838e-05
weather 0.000116806269508
bright 0.0
launching 0.0
colors 0.000351347815301
monday 0.000286264063654
walked 0.0
pinned 9.16392797569e-05
wanting 0.0
tweeting 3.47809907612e-05
forgot 0.000152738336372
gorgeous 0.0
herself 0.0
happens 9.46520931918e-05
learned 0.0
congratulations 0.000100723178226
raised 0.000119450834441
mission 0.0
smelled 0.0
unforgettable 0.0
forgotten 0.0
trouble 0.0
channel 3.70410457625e-05
fantastic 0.0
loving 3.59390999839e-05
hardly 0.0
dining 0.0
complete 3.49709610975e-05
daniel 0.0
rewarding 0.0
spirit 0.0
finding 0.0
stories 3.29440544511e-05
including 0.000338486042913
somewhere 0.0
conversation 3.70410457625e-05
disrespectful 0.0
making 0.000212673658896
expect 0.0
polite 0.0
brings 3.67365188837e-05
anytime 5.01016898575e-05
needed 0.000260013666847
seriously 3.36655211398e-05
modern 4.38789455178e-05
welcome 3.07942048328e-05
moments 0.0
jacket 0.000107537634639
halloween 0.0
costume 6.02654727399e-05
totally 3.51621299928e-05
flight 3.65351881138e-05
attached 0.0
finished 0.000182175110867
strong 0.00021966663907
message 0.0
coming 0.000729166830502
temporary 0.0
challenge 0.000233750678419
achievement 5.67454586795e-05
unlocked 0.0
happen 6.20885528521e-05
celebrated 0.0
giving 9.23826144985e-05
excellent 0.000277937392976
common 0.00011297831409
pressed 0.0
company 6.8996499919e-05
change 6.09279089715e-05
singing 0.0
silver 0.0
august 8.59939312746e-05
crying 0.0
happened 3.20657271737e-05
parking 5.98294915578e-05
demand 4.01542414625e-05
sacrifice 0.0
personal 3.31228170309e-05
beyond 0.0
question 0.0
chicken 0.000175005462675
position 4.15422781638e-05
losing 0.000262888445648
respect 0.000199815843135
caption 0.0
shouldn 0.0
career 0.00219197978535
reason 0.0
explore 0.0
glamorous 0.0
reality 0.0
burned 0.0
without 0.000245690433447
problems 0.0
countdown 0.0
online 0.0
animals 0.0
buying 0.0
pictures 3.85040967485e-05
underneath 0.0
camera 3.98169448137e-05
checked 4.32463511553e-05
heading 0.000289885425878
complex 0.0
sunday 0.000409054154761
nights 0.000404274572127
traffic 4.57238734327e-05
through 4.27496159422e-05
changing 0.0
diapers 0.0
convinced 0.0
capture 0.0
random 0.0
recorded 0.000138816923281
november 8.16806246867e-05
number 0.000187272868979
stupid 0.0
grandparents 0.0
recording 4.88710569875e-05
chocolate 0.0
unless 0.000112666476706
calling 3.19792787003e-05
mermaid 0.0
levels 0.0
package 5.46679981213e-05
option 8.82714563023e-05
knowing 4.21399340169e-05
actual 0.0
friday 0.000524914659669
achieve 0.0
winner 0.00176012742315
becomes 0.000129364205478
directly 0.0
quality 3.93729783452e-05
father 0.000104059351123
wishes 0.0
themselves 0.0
asking 3.22393675881e-05
usually 4.06098916939e-05
period 0.000545440012905
resist 0.0
collections 0.0
summer 0.000197130402633
bracelet 0.0
reminded 0.0
dinner 0.000134662084559
single 0.000376571381262
catching 0.0
energy 0.000108707034704
preview 4.33718178745e-05
monster 5.25531747121e-05
material 0.0
events 0.0
europe 0.0
holiday 0.0
emotional 0.0
affects 0.0
holding 7.20752744139e-05
survive 0.0
eating 0.000114236472697
outfit 0.0
missing 3.25017083558e-05
surprise 6.51793249303e-05
german 0.0
officially 0.000142192498527
french 3.91534109395e-05
global 0.0
follow 0.0
design 4.5996849778e-05
improvement 0.0
website 0.0
breaks 0.0
negative 0.0
official 0.000157328521062
jersey 0.000204884338502
france 8.45217858752e-05
lighter 0.0
thinks 0.0
hospital 0.0
jealous 0.0
successful 0.0
trending 0.000100834638952
leadership 9.53769225122e-05
showed 0.0
attended 0.0
circle 0.0
interested 3.91534109395e-05
effect 4.01542414625e-05
success 3.44045863011e-05
ladies 0.0
dreams 0.0
protect 0.0
arguing 0.0
essence 0.0
control 0.0
happier 0.0
likely 4.0724882987e-05
cancel 0.0
project 0.0
laying 6.3021933029e-05
lesson 0.0
fridays 8.98387400511e-05
invited 0.0
treating 0.0
allowing 0.000160249457396
remote 0.0
opening 0.00036435098734
alcohol 0.0
popular 4.16608699762e-05
pedestal 0.0
designing 0.0
followed 4.04953351514e-05
enjoyed 3.61364959223e-05
spectacular 0.0
recovered 0.0
length 0.0
matters 0.0
factor 0.0
england 0.000178100116178
shared 0.0
benefit 0.0
continues 0.00011142971602
fathers 0.0
kitchen 0.0
exciting 0.0
corner 0.0
spring 0.000116806269508
fallen 5.35921394466e-05
victoria 0.0
tornado 8.26148456568e-05
typical 5.67454586795e-05
continue 3.51621299928e-05
creative 0.0
excuse 0.0
female 4.06098916939e-05
closer 3.81845840931e-05
accent 6.65907789604e-05
beginning 3.82907143921e-05
sooner 0.0
everywhere 3.63351862696e-05
scenes 0.0
wishing 0.0
choices 0.0
unpredictable 0.0
become 0.000127228472735
photographs 0.0
spread 0.0
season 0.00543905162422
putting 6.39585574006e-05
annoying 5.96138310788e-05
quietly 0.0
extending 8.21591954254e-05
stance 0.0
sleepy 0.0
returns 4.08403123434e-05
bucket 0.000229350653004
condolences 0.0
register 0.0
flowers 0.0
define 0.0
somebody 9.09066688176e-05
chicks 0.0
covering 4.71140332584e-05
repeat 4.25042691006e-05
football 7.65814287842e-05
brothers 4.66902477575e-05
player 0.00225272626233
physical 5.07362715726e-05
series 0.00354414142231
pretend 0.0
fighting 6.93729007489e-05
atlanta 0.000105447760686
mexico 4.40070648182e-05
president 3.38486042913e-05
talking 0.0002749156221
america 9.72420264521e-05
greats 0.0
everybody 0.0
judgment 0.0
amount 8.54992318843e-05
houston 0.000207519239613
everyday 0.0
shooter 0.0
attitude 0.0
million 9.59378361009e-05
honesty 0.0
telling 0.0
pulled 4.57238734327e-05
attack 0.0
killed 0.0
horrible 0.0
norman 0.0
salute 6.32633699191e-05
jacksonville 9.16392797569e-05
barackobama 0.0
lilduval 0.0
liquor 0.0
american 0.000193959374282
realist 0.0
remain 0.000128619115174
innocent 0.0
pieces 0.0
taught 0.0
golden 0.000164289994742
straight 0.00195790161723
forgive 6.16123686753e-05
answers 0.0
product 9.77421139751e-05
smoking 0.0
created 0.0
record 0.00127228472735
weapon 0.0
bottom 0.00012252093703
arrangements 0.0
africa 0.0
committed 0.0
journey 7.91882968935e-05
brother 7.4286477347e-05
prayers 0.0
documentary 0.0
addition 0.0
honestly 0.0
velvet 0.000174113911515
country 0.000283191337911
speedy 0.0
dressing 0.0
employee 0.0
yoooooo 0.0
prayer 0.0
nominated 0.0
praying 0.000125089510291
insane 4.50520017947e-05
illest 0.0
shooting 3.80788242322e-05
cancer 0.0
australia 0.0
marijuana 0.0
deserve 0.000112045993013
legend 0.000203049458469
mother 0.0
murder 4.93267072189e-05
realest 0.0
powerful 0.0
attendance 0.0
wisdom 0.0
breaking 9.82990210147e-05
bothered 0.0
angeles 5.30682041552e-05
dollars 5.10586168402e-05
soldiers 0.0
performance 0.0
reading 0.000129306249521
videos 0.0
jordan 0.000530682041552
nobody 0.0
politics 0.0
paradise 6.65907789604e-05
blessing 0.0
coolest 0.0
strippers 0.0
charities 0.00021473655849
donate 0.0
bullshit 0.0
sample 0.0
rocking 0.00020553771301
bringing 3.42181231318e-05
deserves 4.04953351514e-05
hilarious 0.0
victim 0.0
stadium 0.00010309731443
funniest 0.0
heaven 4.8273989996e-05
ruined 0.0
honest 0.0
rolling 0.0
became 7.61576484644e-05
driver 0.000139650878747
breakfast 0.000114872143176
decision 3.79734322324e-05
counting 4.32463511553e-05
pressure 4.14241486988e-05
awareness 0.0
dearly 0.0
lastnight 0.0
facebook 0.0
basketball 5.8351141319e-05
campaign 0.0
twisted 0.00037474504207
defined 0.0
discover 0.0
comments 0.0
giveaway 0.000798062476159
bipolar 0.0
teenage 0.0
williams 0.000631423687175
custom 0.0
singer 5.93996947148e-05
future 0.000125523793754
randomly 0.0
angels 6.63214423479e-05
blessed 0.0
sister 0.0
stripper 0.0
dancing 8.54992318843e-05
reigns 0.0
voting 3.75554922354e-05
niggas 0.0
commercial 4.17799277694e-05
hating 0.0
boring 0.0
century 0.0
acting 0.0
submit 5.27238803432e-05
besides 0.0
hiding 0.0
periscope 0.0
breath 0.0
choosing 0.0
lawrence 0.000139446321223
instagram 0.0
detroit 0.000282753008066
cousin 0.000119658983116
honored 8.45217858752e-05
dedication 0.0
rockin 0.0
fucked 0.0
lionelrichie 0.0
talent 8.12197833877e-05
goodnight 0.0
stores 0.0
drinking 0.0
brazil 0.0
tattoo 0.0
consecutive 0.00149898016828
regardless 0.0
staring 0.0
commitment 0.000100834638952
seconds 0.000447973712857
ohhhhhh 0.0
listen 0.0
whatever 0.0
wherever 5.8351141319e-05
kicking 4.29969656373e-05
compete 0.0
lauderdale 0.000110841217033
homies 0.0
billion 0.0
belated 0.0
pirate 0.0
shoutout 0.000805527311334
grammy 0.0
guilty 0.0
ceiling 0.0
grammys 0.0
absolute 0.000133967746527
nelson 0.0
mandela 0.0
bigsean 0.0
handle 3.97053418537e-05
tonite 0.0
cocaine 0.0
promise 7.22729918447e-05
longest 0.00156963352636
generation 0.0
tuesday 6.91844080968e-05
struggle 0.0
workout 5.91870610746e-05
character 8.14497659741e-05
mirror 0.0
interview 0.0
buffalo 0.000619526367626
justin 0.000256105423128
insights 0.0
winning 0.00136507175094
oxygen 0.0
espnnfl 0.0
charlotte 0.000310374878335
accomplished 0.0
defense 9.77421139751e-05
gettin 0.0
arabia 0.0
lmfaooooo 0.0
writing 3.52581686449e-05
soccer 0.0
society 0.0
brooklyn 0.0
incredible 0.0
witcho 0.0
celebrity 4.97893142106e-05
minute 0.000137244845132
foreign 0.0
cherry 0.0
champs 0.00317783671071
murdered 0.0
evidence 0.0
android 0.0
sneaking 0.0
clearly 7.72227081946e-05
download 0.0
mixtape 0.0
central 8.0308482925e-05
washington 0.000201337566278
veterans 0.0
stronger 4.84221573788e-05
promised 0.0
marcus 0.000227011425308
zombie 0.0
throwing 0.0
security 4.03812100847e-05
fastest 0.000125089510291
fantasy 0.0
turning 3.80788242322e-05
ignore 0.0
fucking 0.0
tickets 0.00125248139736
collector 0.0
prizes 0.000129507685301
december 0.0
loyalty 0.0
return 0.000168327605699
escape 0.0
yassss 0.0
goddess 0.0
handsome 0.000195802251415
language 0.0
motion 0.0
gallery 0.0
movies 0.0
children 0.0
backpack 0.0
potentially 0.0
guardian 0.0
review 7.24713564695e-05
theaters 0.0
shhhhh 0.0
begins 0.000437220266081
closet 0.0
bodies 0.0
hahaha 0.0
produced 9.53769225122e-05
latest 6.58881089023e-05
banned 0.0
beyonce 0.0
perform 0.0
lionel 0.0
signed 0.000268595141937
princess 0.0
ghetto 0.0
conditioning 0.0
charity 0.000127512807302
germany 9.25446155209e-05
ronaldo 0.0
married 0.0
millions 0.0
blessings 0.0
diamond 0.0
nephew 0.000137672526139
lights 0.0
howard 5.57834677427e-05
turned 3.33929540599e-05
buckle 0.0
relevant 0.0
performing 0.0
indian 0.0
includes 0.000135956896099
tricks 6.63214423479e-05
survivor 0.0
diamonds 0.0
collection 0.0
families 0.0
welcoming 0.0
select 0.000108610235008
announced 0.000222246274575
granted 0.0
decided 0.000182175110867
selfish 7.56704751027e-05
trailer 0.0
reppin 0.000305503336562
celebration 0.0
decades 4.88710569875e-05
ultimate 0.0
incase 0.0
downtown 0.0
seasoning 0.0
episode 3.63351862696e-05
mentality 0.0
touching 0.0
retweet 0.000888061144238
goodmorning 0.0
midnight 0.000328579989484
expectations 0.0
joining 0.000250886175182
reasons 0.0
released 7.09023280138e-05
release 0.0
models 0.0
popped 0.0
within 0.000116481043729
standing 3.47809907612e-05
valentines 0.0
justice 0.0
houses 0.0
purchase 0.0
dropped 3.75554922354e-05
conversations 0.0
seattle 0.0
strength 4.21399340169e-05
monica 0.0
incredibly 4.29969656373e-05
streets 0.0
private 0.0
inspirational 0.0
barbie 0.0
tables 0.0
affection 0.0
broski 0.0
pissing 0.0
designer 0.0
cooking 5.20467534075e-05
tattoos 0.0
direction 4.66902477575e-05
readyyyyy 0.0
exclusive 0.0
adrianalima 0.0
fashion 4.40070648182e-05
talkin 7.157885283e-05
bitches 0.0
nailed 0.000122767374132
kitten 0.0
whomever 0.0
ruthless 0.0
teaching 0.0
chillin 0.0
philly 0.0
baddest 0.0
cheers 0.0
autumn 0.0
presents 0.0
flawless 0.0
unique 9.3380495515e-05
handed 0.0
taraji 0.0
victory 8.69956125726e-05
tribute 0.0
ballin 0.0
horror 0.0
females 0.0
catfish 0.00012555218609
action 6.53557452551e-05
wouldnt 0.0
recipient 0.0
whitney 0.0
continued 0.0
esther 0.0
letter 0.0
existence 6.47538426503e-05
papers 0.0
winter 4.11892624886e-05
sessions 0.0
replicating 0.0
foundation 0.0
syndrome 0.0
colorado 0.000134273485458
tremendous 0.0
public 0.000106063538001
cannot 3.39405623873e-05
brilliant 7.46973286751e-05
illustration 0.0
beware 0.0
globally 0.0
premieres 0.0
streaming 4.97893142106e-05
immigration 0.0
wrapped 0.0
studio 0.000169529346659
february 0.000358298958498
amazon 0.000138402797243
border 0.0
huffingtonpost 0.0
francis 0.0
january 0.000168559736068
relationships 0.0
tragic 0.0
secure 5.55946810299e-05
countries 0.0
episodes 0.0
broadcast 0.0
tickled 0.0
livestream 0.0
potential 4.20194560475e-05
education 0.0
famous 0.0
unknown 0.0
exists 0.0
orders 0.000382675986849
microsoft 0.0
ability 4.42649401567e-05
director 7.59468644648e-05
accessible 0.0
correction 0.0
william 5.15486572148e-05
editors 0.0
yellow 0.0
passionate 0.0
treatment 4.76884612561e-05
ambassador 0.0
thanking 0.0
streamed 0.0
lovers 0.0
wrinkled 0.0
bridge 0.0
magazine 0.0
sincere 7.49490084141e-05
quotes 0.0
result 0.0
destruction 0.0
edition 4.0724882987e-05
prince 0.000176542912605
indiana 6.09314373364e-05
editorial 0.0
emotion 0.0
mistakes 0.0
inspiring 0.0
counter 0.0
disappointing 0.0
edited 0.0
spotlight 0.0
saddest 0.0
production 0.0
header 0.0
itunes 0.0
guests 0.0
snakes 0.0
charging 7.99783861954e-05
arriving 0.0
mysteries 0.0
dangerous 0.0
typically 0.0
saving 0.0
universe 0.0
victims 0.0
receive 0.0
proceeds 0.0
crossed 0.0
received 7.80884420435e-05
limitations 0.0
studying 0.0
conflict 0.0
petition 0.0
milestones 0.0
outstanding 0.0
devastating 0.0
installment 0.0
signature 6.57898467937e-05
mistletoe 0.0
awards 0.0
shelves 0.0
smells 0.0
themed 0.0
sisters 0.0
banquet 0.000106505237231
danger 0.0
leading 0.000193056770487
member 7.1485963396e-05
dominant 0.0
distinguish 0.0
factories 0.0
distinct 0.0
distance 0.0
confirmed 0.00013279482047
behavior 0.0
collect 0.0
vanity 0.0
junior 6.07078188352e-05
communities 0.0
worldwide 0.0
canada 0.000485944021817
recognized 0.0
vessels 0.0
movement 0.0
segment 0.0
internal 0.0
information 4.11892624886e-05
easily 0.0
towards 4.42649401567e-05
october 0.0
belgium 0.0
european 5.238342542e-05
caribbean 0.0
cities 4.55883019789e-05
arrives 6.16123686753e-05
extraordinary 0.0
exquisite 0.0
argentina 0.0
eliminate 0.0
genius 0.0
prepared 0.0
anthony 0.000110814126565
breakthrough 0.0
berlin 0.0
batman 7.00246573216e-05
upcoming 0.0
upgrade 0.0
singapore 0.0
crucial 0.0
scratch 0.0
collaboration 0.0
tested 0.0
acquire 8.81392197107e-05
honoring 0.0
holland 0.0
visually 0.0
neyocompound 0.0
inspire 0.0
ebonymag 0.0
spiketv 0.0
constant 0.0
sunset 0.0
tuning 0.0
gentleman 6.63214423479e-05
fulfilling 0.0
ayeeeee 0.0
stratford 0.0
poland 0.0
philippines 0.0
kickin 0.0
theweeknd 0.0
september 0.0
manchester 0.000552206001132
rickyrozay 0.0
remarkable 0.0
rihanna 0.0
disgusted 0.0
immoral 0.0
process 7.74379849353e-05
goosebumps 0.0
performances 0.0
strangers 0.0
emotions 0.0
judgement 7.18994925352e-05
comparing 0.0
thuggin 0.0
studios 0.0
jennifer 0.0
performer 0.0
literally 7.51109844708e-05
cardiff 0.0
soooooooo 0.0
crashed 0.0
cthagod 0.0
closed 0.0
justinbieber 0.0
complexmag 0.0
billboard 0.0
airing 0.0
albums 7.56704751027e-05
sweden 0.00012053094548
katyperry 0.0
treats 0.0
missouri 8.35472321267e-05
thefader 0.0
soundtrack 0.0
theellenshow 0.0
sweets 0.0
festival 4.46559155089e-05
wizkhalifa 0.0
amsterdam 0.0
backstage 0.0
collab 0.0
subscribed 0.0
joined 3.73486643375e-05
davidguetta 0.0
pushing 4.85710528596e-05
hopeful 6.79745888123e-05
romantic 0.0
mentions 5.69415769654e-05
lurking 0.0
ballad 0.0
teamed 0.0
exclusively 0.0
kingjames 0.0
hollyrpeete 0.0
sneakers 0.0
auction 0.0
sneaker 0.0
djkhaled 0.0
express 0.0
thegrammys 0.0
throughout 4.81265436253e-05
shining 0.0
excellence 0.0
thrown 0.0
zendaya 0.0
playin 0.0
applemusic 0.0
crunch 8.30774526485e-05
capitalofficial 0.0
filmed 0.0
toronto 0.000108250588025
naomicampbell 0.0
trvisxx 0.0
killin 0.0
trucks 0.0
stands 4.21399340169e-05
platinum 0.0
native 0.000123224737351
spotify 0.0
rocked 0.000127504185847
jumped 0.0
leebruhgreene 0.0
leaning 7.60377543801e-05
featured 4.76884612561e-05
announce 0.00014103267458
senior 0.000570525961216
iamdiddy 0.0
haters 0.0
nothin 0.0
appreciation 0.0
defjamrecords 0.0
floating 0.0
superstars 0.0
shondarhimes 0.0
premiere 0.0
orchestral 0.0
makeup 6.52674171382e-05
touched 5.67454586795e-05
newest 0.0
designed 0.0
passes 0.000199157256842
angelasimmons 0.0
tidalhifi 0.0
vashtie 0.0
delivered 9.86534144378e-05
owning 0.0
producer 5.50352773986e-05
balmain 0.0
legendary 4.85710528596e-05
independence 0.0
mtvmusicuk 0.0
audition 0.0
debuts 0.0
footage 0.0
marshall 0.0
spends 0.0
playtime 0.0
completed 6.23089549717e-05
dishes 0.0
photographed 0.0
bubble 0.000401363642758
belong 0.0
tongue 0.0
observing 0.0
consistent 6.32633699191e-05
posing 0.0
heavens 0.0
contemporary 0.0
aiming 0.0
ceremony 0.0
brighter 0.0
rainbow 0.0
matthew 5.79416733392e-05
phenomenal 0.0
affected 0.0
rivers 0.0
presenting 0.0
competitive 0.0
eskimo 0.0
sibling 0.0
dakota 0.00177830330786
printed 0.0
heroes 4.62723077604e-05
deepest 0.0
describe 0.0
hollywood 0.0
baggage 0.0
terrifying 0.0
animation 0.0
nationwide 0.0
capital 0.0
quantity 0.0
nominations 0.0
mountains 0.0
mosaic 0.0
realise 0.0
overload 0.0
photographer 0.0
depression 6.57898467937e-05
donation 0.0
marvelous 0.0
madonna 0.0
sailed 0.0
terror 0.0
rinsed 0.0
disorder 0.0
polish 0.00014315770566
represents 0.0
touchdown 0.0
creates 0.0
oxford 0.000136518199071
stitched 0.0
morocco 0.0
thrill 0.0
balloons 0.0
teaming 0.0
latimes 0.0
kerrywashington 0.0
caution 0.0
camouflage 0.0
approaching 6.79745888123e-05
generous 0.0
installation 0.0
benefiting 0.0
basics 0.0
confirm 0.0
thrilling 8.50019196003e-05
photography 0.0
matches 6.85463070828e-05
boundaries 0.0
singles 0.0
laptop 6.79745888123e-05
obvious 5.13844282524e-05
darling 7.22235616071e-05
celebrations 0.0
chewbacca 0.0
underwater 0.0
naughty 0.000151340950205
advised 0.0
feelin 0.0
macaroni 0.0
perfection 0.0
picasso 0.0
recipe 0.0
radical 0.0
volcano 0.0
planted 0.0
products 0.0
directed 0.0
grabbed 0.0
frames 0.0
casual 7.38980301318e-05
scheming 0.0
twickenham 0.0
bbcnews 0.0
pledge 0.0
subtle 0.0
embarrassed 0.0
snatch 0.0
unveiling 0.0
kissed 0.0
arguments 0.0
settling 0.0
desperate 0.0
executive 0.0
humbled 6.50095417997e-05
courage 5.01016898575e-05
dropping 4.58600541985e-05
carried 0.0
behalf 0.0
hardest 0.000279867190395
marking 0.0
vision 4.4919396903e-05
intervention 0.0
records 4.5996849778e-05
deeply 0.0
mannered 0.0
texted 0.0
israeli 0.0
strongest 0.0
rogers 0.0
concept 0.0
allegiance 0.0
belongs 0.0
intended 6.42488281368e-05
bosses 0.0
purpose 0.0
hottest 5.93996947148e-05
campaigns 0.0
sunderland 0.0
teenager 0.0
runway 0.0
steven 0.0
guitar 0.0
donating 0.0
applause 0.0
finale 0.0
wasted 0.0
absent 0.0
awhile 0.0
fierce 0.0
sincerely 0.0
apology 0.0
climbing 0.0
unwilling 0.0
protesting 0.0
bikini 0.0
friendships 0.0
matching 0.000137092614166
wolves 0.0
mosque 0.0
venezuela 0.0
donates 0.0
generations 0.0
underestimate 0.0
pardon 0.0
stickers 0.0
mothers 0.0
deeper 0.0
nipple 0.0
perfume 0.0
noodle 0.0
melissa 7.35556516936e-05
forest 0.0
panties 0.0
jimmykimmel 0.0
everytime 0.0
underdog 0.0
shoulders 0.0
wrapping 0.0
bedroom 0.0
glitter 0.0
stocking 0.0
annoyed 0.0
behave 0.0
goodbye 9.53769225122e-05
fuckin 0.0
seller 0.0
joshgroban 0.0
samsungmobileus 0.0
influential 0.0
slicing 0.0
ryanseacrest 0.0
farmer 0.0
teaser 0.0
styled 0.0
casting 0.0
imitated 0.0
forgiveness 0.0
perezhilton 0.0
blacked 0.0
paparazzi 0.0
peoplemag 0.0
rolled 0.0
vanityfair 0.0
rockstar 0.0
thousand 0.0
minded 0.0
shines 0.0
sunglasses 0.0
auntie 0.0
magazines 0.0
waited 0.0
denmark 0.0
leather 7.53075944854e-05
wished 0.0
ladygaga 0.0
swallow 0.0
glblctzn 0.0
shakira 0.0
accessories 0.0
nbcthevoice 0.0
clique 0.0
premiering 0.0
loooooove 0.0
weareheremvmt 0.0
looooove 0.0
vmagazine 0.0
popcrush 0.0
studded 0.0
yassssss 0.0
yessss 0.0
undeniable 0.0
unicef 0.0
auditions 0.0
ellemagazine 0.0
yasssss 0.0
pharrell 0.0
greece 0.0
papermagazine 0.0
nowwwww 0.0
maccosmetics 0.0
macaidsfund 0.0
lipstick 0.0
meeeee 0.0
newsstands 0.0
unapologetically 0.0
insidebates 0.0
legalize 0.0
loooove 0.0
caradelevingne 0.0
allllll 0.0
badgalriri 0.0
itsjeremyscott 0.0
nickiminaj 0.0
nipples 0.0
booooo 0.0
trippy 0.0
mikewillmadeit 0.0
puttin 0.0
trappin 0.0
alexanderwangny 0.0
karllagerfeld 0.0
celebratin 0.0
lilyallen 0.0
fuuuuuck 0.0
chanel 0.0
rubber 0.0
angelou 0.0
misses 6.39994426188e-05
harpersbazaarus 0.0
timberlake 0.0
photoshopped 0.0
whatchu 0.0
rehearsals 0.0
couture 0.000103617322638
mutual 0.0
creeper 0.0
cuddling 0.0
celine 0.0
theamas 0.0
thexfactor 0.0
websterhall 0.0
presale 0.0
deluxe 0.0
styles 0.0
wetten 0.0
shittttttttttt 0.0
boredom 0.0
darealamberrose 0.0
noooooooo 0.0
itunesmusic 0.0
cbstweet 0.0
thermal 0.0
mariners 0.0
torres 0.0
thebeatles 0.0
blondies 0.0
greeting 0.0
thecut 0.0
geeked 0.0
outlet 0.0
americanexpress 0.0
gqmagazine 0.0
nicole 8.17102958167e-05
bumped 0.0
hangover 0.0
stockholm 0.0
casually 0.0
esquire 0.0
winnipeg 0.0
begging 7.75530785946e-05
showroom 0.0
sleeves 0.0
smelling 9.85555555761e-05
guaranteed 0.0
obsession 6.3506746082e-05
attendant 0.0
aussie 0.0
tbsveryfunny 0.0
reservation 0.0
mollymcnearney 0.0
dragging 0.0
rocnation 0.0
tapered 0.0
badass 0.0
endlessly 0.0
vampires 0.0
viewers 6.74134585281e-05
kanyewest 0.0
designers 0.0
billboards 0.0
backstreetboys 0.0
monteith 0.0
e_fashionpolice 0.0
epically 0.0
internationally 0.0
mighty 0.0
jcolenc 0.0
semifinals 0.000219395357404
brasilia 0.0
tailgating 0.0
photoshoot 0.0
smokin 0.0
ahhhhhh 0.0
missin 0.0
sweats 0.0
impacted 0.0
rodriguez 0.000176278439421
musician 7.79440539468e-05
merchandise 0.0
jurgen 0.0
athleteally 0.0
originals 0.0
número 0.0
zealand 0.0
hehehe 0.0
fearless 7.22235616071e-05
stadiums 0.0
thiago 0.0
suarez 0.0
cropped 0.0
uruguay 0.0
apparel 0.0
staircase 0.0
wintour 0.0
spotting 0.0
polygraph 0.0
twerking 0.0
shipment 0.000129598209905
muggin 0.0
takeoff 0.0
thailand 0.0
tomorr 0.000127507714212
googleplay 0.0
budweiser 0.0
miafestival 0.0
dotted 0.0
burning 0.0
surpass 0.0
betcha 0.0
onairwithryan 0.0
dreamers 0.0
brunomars 0.0
beyoncé 0.0
hellooo 0.0
subscribers 0.0
preorder 0.0
believer 0.0
fragrance 0.0
hellooooo 0.0
majesty 0.0
beatsbydre 0.0
finland 8.65299830075e-05
fearnecotton 0.0
debuted 0.0
queued 0.0
rhetorical 0.0
iranian 0.0
infamous 0.0
brutally 0.0
execution 0.0
palestinian 0.0
transplant 0.0
audacity 0.0
foreplay 0.0
priced 0.0
huntington 0.000113266524633
manger 0.0
weaker 0.0
justintrudeau 0.0
creeping 0.0
fittest 0.0
hoodie 0.000344048075125
mankind 0.0
westwood 0.000105511700045
holographic 0.0
throwin 0.0
eminem 0.0
ecstatic 0.0
enjoys 0.0
wussup 0.0
duplicated 0.0
crotch 0.0
congrat 0.0
huggin 0.0
implement 0.0
penalizing 0.0
gonzalez 0.0
bitchin 0.0
sephora 0.0
damien 0.0
demanded 0.0
negativity 0.0
alancarr 0.0
skillz 0.0
hopeless 0.0
beatle 0.0
cheesecake 0.0
almighty 0.0
whatcha 0.0
slumber 0.000112029611285
chimney 0.0
headlining 0.0
perplexed 0.0
googleplaymusic 0.0
thrills 0.0
rollers 0.0
bravotv 0.0
gifted 0.0
kekepalmer 0.0
styledtorock 0.0
yooouuu 0.0
shantay 0.0
yaaaas 0.0
bestest 0.0
freestyle 0.0
everrrrr 0.0
sweatband 0.0
podolski 0.0
collaborating 0.0
bestfriend 0.0
sittin 0.0
whaaaat 0.0
clockwork 0.0
warmest 0.0
temptation 0.0
spiritual 0.0
chameleon 0.0
customised 0.0
acrylic 0.0
grasshopper 0.0
engages 0.0
gourmet 0.0
rhythmic 0.0
petals 0.0
klinsmann 0.0
directv 0.0
popcrave 0.0
versailles 0.0
raddest 0.0
grandfather 6.97231606113e-05
persie 0.0
webster 0.0
knight 0.000294222606774
footwear 0.0
collectors 0.0
blackout 9.93426172141e-05
skylight 0.0
hammock 0.0
playhouse 0.0
revelers 0.0
executed 0.0
cincinnati 0.000168048820021
simultaneously 0.0
malawi 0.0
graduated 8.65299830075e-05
sickening 9.35536111778e-05
mueller 0.0
elonjames 0.0
skeletons 0.0
mittromney 0.0
connecticut 0.000591564561445
cumulative 0.0
racked 0.0
valera 0.0
thighs 0.0
timely 0.0
rapping 0.0
shrugs 0.0
enables 0.0
psychic 0.0
fernando 0.0
tourism 0.0
slaughtered 0.0
devotion 0.0
fantasies 0.0
parsons 0.0
stella 0.0
complainers 0.0
newsstand 0.0
voguemagazine 0.0
westfield 0.0
manolo 0.0
turquoise 0.0
parisian 0.0
childs 0.0
swimsuit 0.0
bazaar 0.0
empress 0.0
brainstorm 0.0
tanning 0.0
desirable 0.000118790898687
feathers 0.0
antics 0.0
featurette 0.0
olivier 0.0
helloooo 0.0
hallow 0.0
connie 0.0
upbringing 0.0
privatize 0.0
bittersweet 0.0
outlaw 0.0
marcel 0.000129598209905
nowwww 0.0
hushed 0.0
threshold 0.0
floats 0.0
barbados 0.0
manuelcav 0.0
niggaz 0.0
prayin 0.0
drizzyxcole 0.0
homegirl 0.0
rappin 0.0
witcha 0.0
mufasa 0.0
dainternz 0.0
lololol 0.0
barclayscenter 0.0
bestbuy 0.0
blackouts 0.0
rivera 0.0
jakemiosge 0.0
givenchy 0.0
riccardo 0.0
grossed 0.0
guetta 0.0
spicewon 0.0
bitche 0.0
shawty 0.0
wednesdays 0.000112029611285
payday 0.0
jewelers 0.0
romero 0.0
acknowledging 0.0
calypso 0.0
blushes 0.0
medusa 0.0
keepers 0.0
futuristic 0.0
whereabouts 0.0
slayed 0.0
asvpxrocky 0.0
haaaaa 0.0
inezandvinoodh 0.0
calvinharris 0.0
_maxwell_ 0.0
bwerde 0.0
edward_enninful 0.0
haaaaaa 0.0
wisest 0.0
unconditionally 0.0
drmayaangelou 0.0
blackgirlsrock 0.0
submissive 0.0
rearrange 0.0
attuned 0.0
abrams 0.0
awaken 0.0
climbs 0.0
jacking 0.0
seventy 0.0
snatching 0.0
manoloblahnik 0.0
nicolerichie 0.0
openingceremony 0.0
whiteley 0.0
supermodel 0.0
the_real_iman 0.0
minogue 0.0
tmagazine 0.0
baaaaack 0.0
yeessss 0.0
wooooo 0.0
epicness 0.0
takawiraa 0.0
joplin 0.0
uncensored 0.0
unspeakable 0.0
rewrites 0.0
askdrruth 0.0
glozell 0.0
tardiness 0.0
runways 0.0
colombian 0.0
unapologetic 0.0
zac_posen 0.0
rumoured 0.0
omgggg 0.0
futbol 0.0
biatch 0.0
barrington 0.00016079585265
catwalk 0.0
sledgehammer 0.0
clemente 0.0
dollaz 0.0
mariah 0.0
granddad 0.0
iyanlavanzant 0.0
hustler 0.0
coletteparis 0.0
flexin 0.0
mistress 0.0
exceeds 0.0
sweeeeeet 0.0
stancesocks 0.0
serviced 0.0
issssss 0.0
lipglass 0.0
externally 0.0
complex_uk 0.0
prideful 0.0
dash_radio 0.0
holidaze 0.0
mawnin 0.0
champagnepapi 0.0
fashawn 0.0
raided 0.0
ahhhhhhhh 0.0
soulmate 0.0
motorbikes 0.0
britishvogue 0.0
gnlstudios 0.0
robinsoncano 0.0
debuting 0.0
cc_sabathia 0.0
colorways 0.0
hit_boy 0.0
_spyda 0.0
phresh 0.0
dominates 0.0
ratchet 0.0
rupaul 0.0
cockpit 0.0
kimmiekyees 0.0
horoscope 0.0
catwalks 0.0
paramedic 0.0
fhollande 0.0
sexiness 0.0
hereeee 0.0
changers 0.0
tiptoes 0.0
revved 0.0
meditative 0.0
fauntleroy 0.0
mbsings 0.0
disrespectfully 0.0
traumatized 0.0
outdid 0.0
elvispresley 0.0
toupee 0.0
josephine 0.0
discography 0.0
mariasharapova 0.0
chinchilla 0.0
skylar 0.0
illestbaba 0.0
georgiamjagger 0.0
pierced 0.0
hardrock 0.0
snorkeling 0.0
thrilla 0.0
gunpoint 0.0
sleeved 0.0
stevestoute 0.0
kiiiiiiiiiiiiinnnngggggg 0.0
lanvin 0.0
chateau 0.0
lizzs_lockeroom 0.0
prophets 0.0
müller 0.0
lullaby 0.0
samersum 0.0
disassembled 0.0
anniversaries 0.0
hayden_williams 0.0
rousteing 0.0
slayage 0.0
raunchy 0.0
benzema 0.0
fuckery 0.0
hellooooooo 0.0
juliagillard 0.0
congeniality 0.0
gunned 0.0
condense 0.0
missjillscott 0.0
yussss 0.0
chopard 0.0
woodbridge 0.0
orousteing 0.0
dubsmash 0.0
alicialquarles 0.0
worldmcqueen 0.0
whateva 0.0
elysées 0.0
jennnrosales 0.0
xstrology 0.0
looool 0.0
tippin 0.0
marleys 0.0
dwanimation 0.0
dreamworks 0.0
yaself 0.0
anothermagazine 0.0
claralionelfdn 0.0
mchingi 0.0
rihannareplay 0.0
awtguide 0.0
ryannavy_rih 0.0
rihquest 0.0
gpforeducation 0.0
valliniandre 0.0
globalfund 0.0
rhenna 0.0
millymaefenty 0.0
peetes 0.0
pandagunda 0.0
floriamamaroma 0.0
adoringrihanna 0.0
ymcofficial 0.0
rihanti_ 0.0
mcdean 0.0
rihannadaily 0.0
stancemuse 0.0
muhtean 0.0
rihdefine 0.0
officialdonnie 0.0
stunnafenty 0.0
perfumesbyriri 0.0
badgal 0.0
shaninamshaik 0.0
reblrihanna 0.0
elliscole_ 0.0
itskaitbh 0.0
harpersbazaarcn 0.0
yusefhairnyc 0.0
mylahmorales 0.0
teamofrihanna 0.0
muhphucka 0.0
harpersbazaar 0.0
rihrihfreak 0.0
thenbacentral 0.0
roversi 0.0
suchaf_cknlady 0.0
fourfiveseconds 0.0
petergrayhair 0.0
wkorea 0.0
dennisleupold 0.0
ursulastephen 0.0
ozzysalvatierra 0.0
ciarrap 0.0
rihannaargntina 0.0
rihearsal 0.0
sremmurd 0.0
id_magazine 0.0
heauxm 0.0
rihpost 0.0
jrgseul 0.0
bitchez 0.0
underst_navy 0.0
sonitaalex 0.0
chris_walden 0.0
danachanel 0.0
wednesdayz 0.0
jimmyfenty 0.0
houseoffraser 0.0
skeete 0.0
_kailssss 0.0
muhphuckas 0.0
phuckin 0.0
rastafarih 0.0
obviiii 0.0
etherihalvibe 0.0
rorreyfenty 0.0
noellaalstrom 0.0
rihturn 0.0
tellar 0.0
esquireuk 0.0
huffpoststyle 0.0
tyronmachhausen 0.0
melottenberg 0.0
paolakudacki 0.0
tompecheuxmu 0.0
lgoldstein_ltd 0.0
phucking 0.0
kudacki 0.0
hellurrr 0.0
tom_ford 0.0
neakah 0.0
creepah 0.0
pahtna 0.0
wontonsan 0.0
cappadonna 0.0
phuckmarqy 0.0
elfies 0.0
starstunning 0.0
ohnana 0.0
tushmagazine 0.0
macxriri 0.0
rickrubin 0.0
findataui 0.0
tristate 0.0
distoyb 0.0
kabukimagicnyc 0.0
yerdme_cmb 0.0
hittas 0.0
evan_erogers 0.0
jessieriri 0.0
unfourgettable 0.0
meeeaan 0.0
shweinsteiger 0.0
goooooooaaaaallllllll 0.0
goooal 0.0
braaaaaaaaaaaaaaaaaa 0.0
asapkoff 0.0
belgiuuuuummm 0.0
druchaos 0.0
cuadrado 0.0
murdaaahhh 0.0
colombiaaaa 0.0
karafenty 0.0
dlsturbla 0.0
braaaaaaaaaaaaaaaaaaaaaa 0.0
abouuuutttt 0.0
takecarerihanna 0.0
nathannavy 0.0
theworidcup 0.0
goooooaaaaaaallllll 0.0
bazaararabia 0.0
bigshitxtalker 0.0
__tatijxo 0.0
lhhatl 0.0
braaaaaaaaaaaa 0.0
rihannanavyrd 0.0
gooooooaaaalllll 0.0
triscastellano 0.0
iiiiiiiiiiiiiiiiiiii 0.0
eatmydaisy 0.0
leggooooal 0.0
yaaaaaassssssss 0.0
prettygirl_sp 0.0
ooohhhhhh 0.0
shiiiiitttt 0.0
roooonnnnnnnneeeeeeeyyyyyy 0.0
muslera 0.0
tadpole 0.0
giusichrisriri 0.0
_xomec 0.0
blockedt 0.0
ooooohhhh 0.0
goooooooaaaaaaalllllllllllllllll 0.0
stefansaxon 0.0
rihannademos 0.0
dragonflycici 0.0
chririh 0.0
rihluminati 0.0
goaaaalllll 0.0
twinzies 0.0
mantlers 0.0
suchaf__cknlady 0.0
glamour_robyn 0.0
adamselman 0.0
sephorafrance 0.0
thefashionlaw 0.0
scout_willis 0.0
quietude 0.0
theblackvoice 0.0
weeeed 0.0
kiiiiss 0.0
dooooon 0.0
miiiiss 0.0
malinsworld 0.0
prompics 0.0
itsalldonn 0.0
goooorrrrrrlllllll 0.0
thenewdaily_ 0.0
wiggin 0.0
stevesoboroff 0.0
pivot_tv 0.0
lapolicefdtn 0.0
scarificing 0.0
whooooose 0.0
sambapologetic 0.0
bellaisevil 0.0
sta_schemin 0.0
i_aim_tyga 0.0
fameisloud 0.0
garcon_rebelle 0.0
itsbreezybiotch 0.0
phaedra 0.0
vivala_stephyy 0.0
_bossmadeg 0.0
kontomitrosnick 0.0
sorrenti 0.0
whenevahhh 0.0
teamvivanco 0.0
heifers 0.0
stevenkolb 0.0
jeremy_brossard 0.0
jordanbrossard 0.0
quilted 0.0
piscesareus 0.0
plumsykes 0.0
cedellamarley 0.0
offish 0.0
urprise 0.0
i_love_riri 0.0
rihannadiva 0.0
javiroo 0.0
frihday 0.0
cuntlifex 0.0
_chris_rated_ 0.0
yewmadcunt 0.0
erinwasson 0.0
balmainparis 0.0
_yadim 0.0
muthaphucka 0.0
onnneeee 0.0
liiiiieeesss 0.0
gautier 0.0
mtvstarsvotes 0.0
zinloves 0.0
chloefrahm 0.0
uprising_create 0.0
uprising_darren 0.0
jonnycrave 0.0
jeff_uprising 0.0
kareemfenty 0.0
daily_rihnavy 0.0
unapologeticunt 0.0
rorrey 0.0
foreverrr 0.0
guyanese 0.0
annndd 0.0
historih 0.0
grandfadda 0.0
arleta 0.0
loreleicakes 0.0
river_island 0.0
finallyyyy 0.0
rodin_thinker 0.0
mrs_toyac 0.0
cheersrihrih 0.0
bangbang 0.0
faiz_fenty 0.0
leandra 0.0
noella 0.0
rasshoooolllleee 0.0
luminati 0.0
inezvinoodh 0.0
visvim 0.0
realne 0.0
sarahfrancus 0.0
tadium 0.0
trapstar 0.0
afrihca 0.0
rihrobyn 0.0
cbsgirlfriend 0.0
shyronnie_rn 0.0
mariamfenty_ 0.0
mizzpmf 0.0
whooooaaaaa 0.0
camkaipink 0.0
yasssssssssssssssssssss 0.0
lunaxskye 0.0
yaaaaasssssss 0.0
niggggaaaaaaa 0.0
breeziechillin 0.0
betologetic 0.0
isusjsjdha 0.0
awffffff 0.0
mcdessikins 0.0
skreets 0.0
pieceofria 0.0
loooool 0.0
craaaazzyyy 0.0
lolarae_xoxo 0.0
stayflysamir 0.0
shotta 0.0
tamarawray 0.0
lauraleehickock 0.0
heauxz 0.0
rihannanavyit 0.0
manilla 0.0
ronnyerickson 0.0
nikofenty 0.0
vincehaycock 0.0
zodiacfacts 0.0
naomiiknows 0.0
wrizzap 0.0
muuuch 0.0
hongkong 0.0
jetlaaaaaagggged 0.0
rasshole 0.0
februharry 0.0
kaşara 0.0
çıkmadı 0.0
dicked 0.0
vinoodh 0.0
rihannasblog 0.0
urihannafansite 0.0
teejay 0.0
stupse 0.0
clapbacks 0.0
niggaaaazzzz 0.0
bwaaahaaaaa 0.0
willheardmusic 0.0
kristennoelgipson 0.0
rsvpgallery 0.0
backout 0.0
bwahhaaa 0.0
errwhurr 0.0
niiiiggaz 0.0
fridayz 0.0
debbycoda 0.0
cabbing 0.0
dolly_cohen 0.0
cowboyz 0.0
friendz 0.0
phucker 0.0
charliebymz 0.0
lynn_ban 0.0
inwardly 0.0
ravening 0.0
whyyyyyyyyyyyy 0.0
thatdamnlala 0.0
adamsellman 0.0
scottland 0.0
kingspleasure 0.0
mikkyekko 0.0
rihannanavide 0.0
saskoktz 0.0
phlawless 0.0
givenchydonc 0.0
mlle_yulia 0.0
oxxoxo 0.0
foreva_rn_ladii 0.0
skinhead 0.0
killaz 0.0
yennifer 0.0
bestofpisces 0.0
smegma 0.0
morganemiller_ 0.0
aa_davis 0.0
beenie 0.0
nickeystaar 0.0
frihannamorocco 0.0
thinketh 0.0
guitarists 0.0
jordriri 0.0
badgalclaudia 0.0
hausofnath 0.0
_abirogerson 0.0
tommykane 0.0
livenationuk 0.0
millenniu 0.0
juuuussttt 0.0
helllooooo 0.0
miiiine 0.0
chaneliman 0.0
blushy 0.0
laetitiacrahay 0.0
rihmix 0.0
dariuscash 0.0
joshkillss 0.0
drunk_cockiness 0.0
firebombfenty 0.0
mooky_mcnasty 0.0
defpenradio 0.0
iamrici 0.0
letcha 0.0
niggerish 0.0
mawazine 0.0
thefashionaddicts 0.0
phierce 0.0
errwhere 0.0
jocking 0.0
niggaaa 0.0
tami_black 0.0
homienadz 0.0
religiosity 0.0
joycemeyer 0.0
brooooklyyyyn 0.0
miiiiine 0.0
dilekkeysan 0.0
marykatrantzou 0.0
allaboutpisces 0.0
jfisherjewelry 0.0
oddhangover 0.0
diggins 0.0
phyliciaghee 0.0
bawsin 0.0
howeverrrrr 0.0
channyyxoxo 0.0
dowwwwnnnnn 0.0
thugbitch 0.0
rihanas 0.0
miiiiiinnneee 0.0
rihwrite 0.0
janiseeaileen 0.0
ratchify 0.0
eeeeeemmmmmm 0.0
pannies 0.0
wooooiiiiiiiiiii 0.0
muhphuckers 0.0
bashment 0.0
whaaaaattttt 0.0
liiifee 0.0
covery 0.0
leeeeaaaavvveeee 0.0
haarrrrrddd 0.0
ismashedriri 0.0
christabslg 0.0
reallll 0.0
peoplez 0.0
wooiiiiii 0.0
slackness 0.0
kevfenty 0.0
woooiii 0.0
tatiana_xo 0.0
fentynavysalute 0.0
ratchettt 0.0
rachael_deanna 0.0
lifeeeeee 0.0
bxdcfjcf 0.0
killled 0.0
asdfghjkjhgtfrdedfghjnhbgvfc 0.0
troy_fenty 0.0
_marrymerihanna 0.0
jkbwdhbwh 0.0
_noellaa 0.0
hunneds 0.0
thekingfly 0.0
dooown 0.0
woooiiiii 0.0
phucked 0.0
kickstand_ohb 0.0
acedemy 0.0
mistercap 0.0
gallest 0.0
sinsofmyfather_ 0.0
dwayneofficial 0.0
_revofev 0.0
joefenty 0.0
thegodlight 0.0
molestmerihanna 0.0
rihannanavyeu 0.0
melina 0.0
terryrichardsonstudio 0.0
_sexxtroversy 0.0
neuroticbxtch 0.0
getcho 0.0
moneyyy 0.0
idillionaire 0.0
yaaaaaaas 0.0
noxx_onite 0.0
phonefancy 0.0
chiefin 0.0
londonfashionwk 0.0
_mayor_ 0.0
rihannanow 0.0
jamrock 0.0
rihannastats 0.0
jenesismagazine 0.0
napmed 0.0
hausofbeyhive_ 0.0
probabily 0.0
badgalelly 0.0
ladylivja 0.0
rihannacomics 0.0
__glitterdick 0.0
chelsey_ba 0.0
stashbox 0.0
thuglife 0.0
highladayz 0.0
brrrap 0.0
kalifah 0.0
marylin 0.0
muthafucker 0.0
stylenetwork 0.0
bvalgari 0.0
oooonly 0.0
fuckyopictures 0.0
amplifydot 0.0
trappat 0.0
soumsluvriri 0.0
ibebossedup 0.0
holerringg 0.0
rihskillerdoll 0.0
equaled 0.0
chefette 0.0
rezilientkas 0.0
blastinggggg 0.0
dammnnn 0.0
lifeandtimes 0.0
hausofjazzy 0.0
kaykispeaks 0.0
condesa 0.0
awaaayyy 0.0
flawle 0.0
mandler 0.0
loudies 0.0
dulcattis 0.0
killaaa 0.0
_loveforrihanna 0.0
yesimkayla 0.0
rollingnostone 0.0
richkunt 0.0
yasssssss 0.0
eriricccccc 0.0
cuntmeout 0.0
sashay 0.0
condragulations 0.0
neverrr 0.0
phasetoo 0.0
fooooorde 0.0
ruunavi 0.0
rihtweet 0.0
ishoobernator 0.0
thirstiest 0.0
j_dimps 0.0
deecosey 0.0
itsrihannasnavy 0.0
muthaphuckin 0.0
