awesome 0.00019719852744
christmas 0.000196664066466
trying 0.000228180232207
launch 6.21743702321e-05
moment 0.000509808333833
wonderful 8.54369105172e-05
seeing 0.000182323830525
hanging 3.19611923838e-05
sounds 0.000108198616512
contacts 0.0
anybody 0.0
worked 8.22538928382e-05
direct 3.59017456789e-05
others 5.45399811445e-05
currently 6.0319394666e-05
better 0.000802607059565
please 0.000940606388886
social 2.84016774437e-05
anxiety 0.0
around 0.000150488823668
people 0.000275896176725
morning 0.000504340929167
damage 0.0
everything 0.000353038650417
present 5.74245757212e-05
though 0.000393868811092
friend 0.000228180232207
watched 0.000370226612241
beautiful 0.000233784931482
demanding 0.0
anything 0.000153769363899
tagged 0.0
helped 0.0
thinking 0.000180367595308
finally 0.000283434792627
caught 0.000142008387219
believe 0.000226342502365
already 0.000427535837801
couple 2.75668161739e-05
launches 0.0
chance 0.000252170464583
annual 0.000305119473417
quickly 7.03672354216e-05
growing 3.0242611361e-05
probably 5.4687736601e-05
changed 2.69766366947e-05
history 0.000311713241976
center 0.0
museum 4.37851764075e-05
behind 0.000300977647337
screaming 4.66504382049e-05
pretty 0.000515335986595
really 0.000655643207916
possibly 3.50826861033e-05
little 0.00045268500473
happiest 5.33911853269e-05
earlier 2.95060715334e-05
forget 0.000178914591476
someone 0.000406748708707
things 0.000225733235503
available 0.000418994704198
perfect 0.000183805445176
different 5.12564546328e-05
person 7.58553305772e-05
watching 0.00124231459757
exhibit 0.0
passed 9.22378060616e-05
prefer 3.80746596221e-05
minutes 0.000651156537588
travel 0.00015415406754
daughter 0.0
positive 2.99125872493e-05
outside 5.33733485347e-05
looking 0.000377237503942
forward 0.000129530705958
raising 7.20120693766e-05
impression 9.26658939916e-05
wheels 0.0
favorite 0.000526775176194
instead 8.52050323311e-05
appreciate 0.000118671552137
couldn 0.000262579207394
remember 0.000226953418125
impressive 0.000173414864664
vintage 0.0
holidays 0.000180030173441
friends 0.000228180232207
impossible 6.85790600641e-05
everyone 0.000176519325208
always 0.000702281177119
limited 0.0
months 0.000105315490452
moving 5.42457695021e-05
meeting 2.58363734953e-05
answer 0.000568400216897
together 0.000176995771347
inside 0.000210063365916
upstairs 0.0
missed 7.66776820613e-05
active 0.0
eventually 0.0
longer 0.0
enough 0.000178432916841
building 5.66492443477e-05
enjoying 0.00015415406754
london 0.000209962809439
posting 0.0
recent 6.66642115031e-05
amazing 0.000528132505518
attention 2.8556501828e-05
tomorrow 0.00075651139375
whenever 8.29450189317e-05
feeling 0.000343200334996
excited 0.00034227534397
understand 5.49845596045e-05
following 0.0
asleep 0.0
learning 0.0
evening 2.88690475622e-05
special 0.000864341006003
secret 0.000197734620358
across 0.0
surprised 6.01541129968e-05
candles 6.95526068967e-05
sophia 0.0
version 0.000250804769919
rather 8.49738665216e-05
showing 8.07114936408e-05
saying 7.89866178393e-05
thoughts 0.000187311958477
exactly 0.000109079962289
getting 0.000403472743333
nothing 0.000327821603958
tweets 0.0
photos 0.0
looked 2.86342738922e-05
difficult 0.0
office 0.000109079962289
brought 2.79428572599e-05
biggest 0.000103904413992
thrilled 0.000345757176911
entire 0.000140093733951
something 0.000252170464583
closing 0.0
anyone 0.000305061531531
taking 0.000176519325208
interesting 2.8094866638e-05
original 2.98307552987e-05
flying 6.33915550392e-05
sometimes 8.33752908196e-05
yesterday 0.000381326914413
serious 2.69766366947e-05
digital 7.4805588688e-05
wearing 0.000177521095718
british 0.000220490748006
either 2.74922798022e-05
second 0.000457592297296
checking 0.0
indeed 0.000137549254668
island 0.0
hearing 8.4513654617e-05
staying 3.40950990537e-05
another 0.000301790003153
compare 0.0
bummer 0.0
clothes 0.0
landing 9.20388490616e-05
weekend 0.000638980683844
delivery 0.0
secretive 0.0
anyway 3.25916395587e-05
recognize 4.51017073803e-05
working 0.000100868185833
bigger 2.95868492864e-05
laughing 0.000209388110745
wanted 0.00015294250015
clothing 0.0
grateful 0.0
friendship 0.0
family 0.000277387511042
listening 0.000248774172399
stream 0.000312146756396
double 0.000114226007312
especially 5.58857145198e-05
shaking 5.84707917053e-05
waiting 0.000206690987963
definitely 0.00013783408087
account 0.0
completely 0.0
thought 0.000457592297296
possible 0.000160120045604
simple 2.93452923251e-05
professional 0.000112208383032
members 0.0
business 5.43926596253e-05
absolutely 5.39532733893e-05
sending 2.92652875663e-05
introducing 4.0453832581e-05
congrats 0.000105885525409
community 0.0
keeper 0.000278210427587
greatest 0.000578903139652
selfie 3.77364773669e-05
pasadena 0.0
posted 0.0
saturday 0.000159688226589
designs 0.0
broken 6.25191340718e-05
chicago 0.00017144765016
glimpse 0.0
actually 0.000232527361458
myself 0.0
pajamas 8.15810050153e-05
school 0.000128141136582
throwback 0.0
thursday 2.69766366947e-05
selling 0.000137941920072
talented 6.62898594581e-05
celebrate 0.000250804769919
celebrating 3.00770564984e-05
anniversary 0.0
contest 9.860027699e-05
experiences 0.0
students 0.000100278660595
figure 0.0
featuring 9.83241503981e-05
inspired 3.04930108178e-05
breeze 0.0
sitting 5.69579403448e-05
playing 0.000691962137543
street 0.000251485715339
points 0.000161597526003
advice 5.91736985728e-05
memory 6.97640665366e-05
forever 5.69579403448e-05
imagine 5.6189733276e-05
problem 0.000108198616512
played 0.000225369745645
keeping 8.4513654617e-05
lovely 0.000126783110078
dressed 0.0
chinese 0.000244227896264
sunshine 0.000104734619342
afternoon 0.000385682544444
notice 0.0
difference 2.75668161739e-05
suppose 0.0
letting 0.000155007182075
system 6.30407638109e-05
mutant 0.0
bathroom 0.0
almost 0.000252170464583
details 0.000110267264696
experience 5.26577452262e-05
luckily 0.0
viewed 6.03295286309e-05
living 0.000157973235679
weather 0.000193376675781
bright 0.000106466617927
launching 0.0
colors 0.0
monday 0.00076353730578
walked 3.79614247995e-05
pinned 0.0
wanting 0.0
tweeting 2.87905452427e-05
forgot 0.0
gorgeous 8.19159994388e-05
herself 0.0
happens 0.000104466465224
learned 0.000145927685976
congratulations 0.000111167054426
raised 0.0
mission 0.0
smelled 0.0
unforgettable 0.0
forgotten 0.000150054117974
trouble 0.0
channel 3.06613434672e-05
fantastic 0.000446237842031
loving 0.000118996757875
hardly 0.0
dining 0.0
complete 0.000115791185429
daniel 0.000133085362
rewarding 0.0
spirit 6.53660222748e-05
finding 6.1661627016e-05
stories 2.72699905722e-05
including 2.80187467902e-05
somewhere 0.0
conversation 6.13226869345e-05
disrespectful 0.0
making 0.000377237503942
expect 9.07278340829e-05
polite 0.0
brings 9.12277987916e-05
anytime 4.14725094659e-05
needed 0.00029594214335
seriously 0.000167203179946
modern 3.63215290445e-05
welcome 0.000433337083758
moments 6.26924086525e-05
jacket 8.90160707793e-05
halloween 0.0
costume 0.0
totally 8.73181187967e-05
flight 0.000151213056805
attached 5.67403490267e-05
finished 3.0159697333e-05
strong 7.7928310494e-05
message 0.0
coming 0.000326939170083
temporary 0.0
challenge 2.7641574711e-05
achievement 4.6971999925e-05
unlocked 0.0
happen 5.13948352481e-05
celebrated 4.91690880754e-05
giving 0.00015294250015
excellent 9.860027699e-05
common 6.23464559625e-05
pressed 0.0
company 0.0
change 0.000201736371667
singing 6.74214023511e-05
silver 0.0
august 0.0
crying 7.94321781673e-05
happened 0.000159257643108
parking 0.0
demand 3.32383431354e-05
sacrifice 0.0
personal 8.22538928382e-05
beyond 8.4513654617e-05
question 0.000103067197319
chicken 7.24318453929e-05
position 0.000137549254668
losing 0.00015543592558
respect 2.75668161739e-05
caption 0.000106782370654
shouldn 6.0319394666e-05
career 0.000351183450796
reason 2.65429405181e-05
explore 0.0
glamorous 0.0
reality 8.99840611883e-05
burned 0.0
without 0.000508435885884
problems 0.00015543592558
countdown 0.0
online 0.0
animals 8.42617071535e-05
buying 0.0
pictures 3.18724083243e-05
underneath 0.0
camera 9.8877420625e-05
checked 0.0
heading 0.0
complex 0.0
sunday 0.000312555138042
nights 0.000111548340099
traffic 0.0
through 0.0
changing 0.0
diapers 0.0
convinced 0.0
capture 0.000101622741674
random 0.0
recorded 3.83026745617e-05
november 3.38062497506e-05
number 7.7509120486e-05
stupid 0.0
grandparents 0.0
recording 0.0
chocolate 0.0
unless 6.21743702321e-05
calling 7.94141440567e-05
mermaid 0.0
levels 0.000116295056727
package 0.0
option 0.0
knowing 3.48820332683e-05
actual 3.35206891258e-05
friday 0.000153355364123
achieve 0.0
winner 0.000532356189013
becomes 0.000107083378854
directly 0.0
quality 0.000293324756028
father 5.74245757212e-05
wishes 6.57335179933e-05
themselves 0.0
asking 0.0
usually 3.36155152146e-05
period 3.76247557095e-05
resist 0.0
collections 0.0
summer 0.000108785319251
bracelet 0.0
reminded 0.0
dinner 0.000111468786631
single 0.000207808827984
catching 7.45850918881e-05
energy 2.99946870628e-05
preview 0.000251312219753
monster 0.0
material 0.0
events 6.25191340718e-05
europe 0.000139528133073
holiday 0.000290267931803
emotional 0.000108964587134
affects 0.0
holding 2.98307552987e-05
survive 8.56138898656e-05
eating 0.000252163055244
outfit 0.000155317392917
missing 0.000134519156068
surprise 8.0929910084e-05
german 8.67225082732e-05
officially 0.000117702212398
french 0.000129639555905
global 0.000134842804702
follow 0.000126766795671
design 3.80746596221e-05
improvement 0.0
website 0.0
breaks 9.97150294062e-05
negative 0.0
official 7.81387845105e-05
jersey 0.000763183928816
france 0.00013992863613
lighter 0.0
thinks 8.82766592987e-05
hospital 3.67484580011e-05
jealous 8.47982143129e-05
successful 6.89709600358e-05
trending 0.0
leadership 7.89498384777e-05
showed 0.0
attended 5.0623493774e-05
circle 0.0
interested 9.72296669291e-05
effect 6.64766862708e-05
success 0.00011391588069
ladies 6.91680641841e-05
dreams 0.000232014508103
protect 3.23195052007e-05
arguing 0.0
essence 0.0
control 5.63424364113e-05
happier 0.000184077698123
likely 6.74214023511e-05
cancel 0.0
project 8.54369105172e-05
laying 0.0
lesson 3.50826861033e-05
fridays 0.0
invited 7.09777452846e-05
treating 0.0
allowing 4.42163870964e-05
remote 0.0
opening 0.000109671857118
alcohol 0.0
popular 0.0
pedestal 0.0
designing 0.0
followed 0.0
enjoyed 5.98251744986e-05
spectacular 0.0
recovered 0.0
length 9.94093116785e-05
matters 0.0
factor 4.16028031127e-05
england 0.000405419690064
shared 6.91680641841e-05
benefit 3.16079263944e-05
continues 6.14918707077e-05
fathers 0.0
kitchen 0.0
exciting 0.000120970445444
corner 0.000108018104065
spring 3.22294459635e-05
fallen 4.43617873332e-05
victoria 5.6033782004e-05
tornado 0.0
typical 4.6971999925e-05
continue 2.91060395989e-05
creative 0.0
excuse 0.0
female 3.36155152146e-05
closer 0.0
accent 0.000165364884016
beginning 6.33915550392e-05
sooner 5.0068161776e-05
everywhere 3.00770564984e-05
scenes 0.000160698544712
wishing 0.000146136340609
choices 0.0
unpredictable 7.69011548539e-05
become 0.000131644363065
photographs 0.0
spread 5.75810904853e-05
season 0.00161192228918
putting 2.64713813522e-05
annoying 4.93463430224e-05
quietly 0.0
extending 0.0
stance 0.0
sleepy 0.0
returns 6.76124995011e-05
bucket 0.0
condolences 0.0
register 0.0
flowers 4.77944169025e-05
define 0.0
somebody 0.000112874267129
chicks 0.0
covering 0.0
repeat 7.03672354216e-05
football 0.00259905375661
brothers 3.86486313654e-05
player 0.000633305118794
physical 4.19977950652e-05
series 2.74179642794e-05
pretend 0.0
fighting 0.000143561439303
atlanta 0.000523716856536
mexico 0.000254993073527
president 2.80187467902e-05
talking 0.000252851101924
america 0.00104641822186
greats 0.0
everybody 0.0
judgment 0.0
amount 0.0
houston 0.0
everyday 0.000143191554038
shooter 0.0
attitude 0.0
million 7.94141440567e-05
honesty 0.0
telling 0.000114537095569
pulled 3.78486988991e-05
attack 0.000130002398552
killed 5.6189733276e-05
horrible 0.0
norman 0.0
salute 0.0
jacksonville 0.0
barackobama 0.0
lilduval 0.0
liquor 0.0
american 0.000909800941175
realist 0.0
remain 3.54888726423e-05
innocent 4.83011305123e-05
pieces 0.0
taught 0.000148731120132
golden 0.00183591607688
straight 8.38285717797e-05
forgive 5.10006658531e-05
answers 0.0
product 8.0907665162e-05
smoking 0.0
created 0.0
record 0.000131644363065
weapon 0.0
bottom 3.38062497506e-05
arrangements 7.16266367375e-05
africa 0.0
committed 0.0
journey 3.27747167994e-05
brother 3.07459353539e-05
prayers 3.94749192389e-05
documentary 0.000264155341568
addition 0.0
honestly 7.20120693766e-05
velvet 0.0
country 0.000156277569021
speedy 0.000262064946524
dressing 0.0
employee 0.0
yoooooo 0.0
prayer 5.58026147398e-05
nominated 0.0
praying 0.000103544928611
insane 7.45850918881e-05
illest 0.0
shooting 3.15203819055e-05
cancer 0.0
australia 3.7402794344e-05
marijuana 0.0
deserve 3.09159798737e-05
legend 0.00073954133472
mother 0.000252853799742
murder 0.0
realest 0.0
powerful 0.0
attendance 0.0
wisdom 4.2534317568e-05
breaking 0.000135614423755
bothered 5.89879537513e-05
angeles 0.00013178427347
dollars 0.0
soldiers 0.0
performance 0.000350226446342
reading 0.000107035404844
videos 3.2500599638e-05
jordan 0.00013178427347
nobody 3.09159798737e-05
politics 0.0
paradise 0.0
blessing 0.0
coolest 0.0
strippers 0.0
charities 5.92505893512e-05
donate 3.39984458681e-05
bullshit 0.0
sample 0.0
rocking 8.50686351361e-05
bringing 0.000141623110869
deserves 0.000100562067377
hilarious 3.34262201982e-05
victim 0.0
stadium 0.000298691825817
funniest 0.0
heaven 3.99596004198e-05
ruined 0.000220486512022
honest 3.13462043262e-05
rolling 0.0
became 9.45611457164e-05
driver 3.85327814106e-05
breakfast 3.16957775196e-05
decision 0.000157165709599
counting 7.15957770188e-05
pressure 0.0
awareness 7.22215182872e-05
dearly 0.0
lastnight 0.0
facebook 2.69766366947e-05
basketball 0.000193204522049
campaign 5.85305751327e-05
twisted 0.0
defined 0.0
discover 0.0
comments 0.0
giveaway 0.00102094199498
bipolar 0.0
teenage 0.000110693150876
williams 0.00012061649748
custom 0.000101246987548
singer 0.0
future 0.000467569862964
randomly 0.0
angels 0.0
blessed 8.64430482678e-05
sister 3.3902163713e-05
stripper 0.0
dancing 0.0
reigns 0.0
voting 0.0
niggas 0.0
commercial 0.000242088224644
hating 0.0
boring 4.3643071378e-05
century 8.26857783484e-05
acting 0.000108332277431
submit 4.3643071378e-05
besides 5.2367309671e-05
hiding 0.0
periscope 0.0
breath 0.0
choosing 5.0068161776e-05
lawrence 0.0
instagram 3.49821590324e-05
detroit 0.0
cousin 0.0
honored 0.000104946477097
dedication 0.0
rockin 0.0
fucked 0.0
lionelrichie 0.0
talent 0.000235308606502
goodnight 9.66022610246e-05
stores 0.0
drinking 0.000225081176961
brazil 0.000135757041889
tattoo 0.000158929818377
consecutive 6.20402918494e-05
regardless 4.45080353897e-05
staring 5.36010733351e-05
commitment 4.17337771472e-05
seconds 0.000235974908229
ohhhhhh 0.0
listen 0.000807434106609
whatever 0.0
wherever 0.0
kicking 3.55914554872e-05
compete 0.0
lauderdale 0.0
homies 0.0
billion 7.22215182872e-05
belated 0.0
pirate 0.0
shoutout 9.52555239991e-05
grammy 5.95160042154e-05
guilty 4.2670260831e-05
ceiling 0.0
grammys 0.0
absolute 0.0
nelson 0.0
mandela 0.0
bigsean 0.0
handle 0.0
tonite 0.0
cocaine 0.0
promise 0.0
longest 0.00022401557459
generation 3.45840320921e-05
tuesday 0.000114537095569
struggle 3.91174575502e-05
workout 0.000195972308132
character 0.0
mirror 0.0
interview 0.000743218592176
buffalo 0.0
justin 8.47982143129e-05
insights 0.0
winning 0.000269038312136
oxygen 0.0
espnnfl 0.0
charlotte 5.13835965067e-05
accomplished 0.0
defense 0.000161815330324
gettin 0.0
arabia 0.000132406886394
lmfaooooo 0.000128528556306
writing 2.91855371951e-05
soccer 0.00275374889768
society 3.47823056196e-05
brooklyn 0.0
incredible 0.000244766968314
witcho 0.0
celebrity 4.12139353137e-05
minute 0.000113606709775
foreign 0.0
cherry 0.0
champs 0.0
murdered 0.0
evidence 0.0
android 0.0
sneaking 0.0
clearly 0.000319611923838
download 0.000142365821949
mixtape 7.91320886104e-05
central 6.64766862708e-05
washington 9.99963172546e-05
veterans 0.0
stronger 4.00822484423e-05
promised 4.13428891742e-05
marcus 0.000187912493805
zombie 0.000115429018329
throwing 8.26857783484e-05
security 0.000100278660595
fastest 0.0
fantasy 9.55888338049e-05
turning 6.30407638109e-05
ignore 3.61107591436e-05
fucking 4.60194245308e-05
tickets 0.000640353227175
collector 0.0
prizes 0.0
december 6.99643180649e-05
loyalty 0.0
return 0.000390140753208
escape 4.51017073803e-05
yassss 0.0
goddess 0.000153802309708
handsome 0.0
language 3.52849571239e-05
motion 0.0
gallery 0.0
movies 0.000113209432101
children 0.000110866226967
backpack 0.0
potentially 0.0
guardian 0.0
review 5.99893741255e-05
theaters 0.0
shhhhh 0.0
begins 3.0159697333e-05
closet 5.92505893512e-05
bodies 0.0
hahaha 9.02034147607e-05
produced 7.89498384777e-05
latest 0.000190889934006
banned 0.0
beyonce 5.40261931838e-05
perform 8.0658717052e-05
lionel 0.000240980010364
signed 5.5583527213e-05
princess 0.0
ghetto 0.0
conditioning 0.0
charity 0.0
germany 3.83026745617e-05
ronaldo 0.000510133265475
married 0.0
millions 0.000102285297161
blessings 0.0
diamond 0.0
nephew 0.0
lights 7.24318453929e-05
howard 0.000184702783525
turned 0.0
buckle 7.91320886104e-05
relevant 0.0
performing 8.0907665162e-05
indian 0.0
includes 0.00011254058848
tricks 5.48986801321e-05
survivor 0.0
diamonds 0.0
collection 3.45840320921e-05
families 3.22294459635e-05
welcoming 0.0
select 4.49519668125e-05
announced 3.06613434672e-05
granted 4.83011305123e-05
decided 3.0159697333e-05
selfish 0.0
trailer 0.0
reppin 0.000168590321716
celebration 0.000247706953559
decades 0.0
ultimate 0.0
incase 0.0
downtown 0.0
seasoning 0.0
episode 0.000451155847476
mentality 0.0
touching 0.0
retweet 6.39223847676e-05
goodmorning 0.0
midnight 0.0
expectations 0.0
joining 0.000415350432478
reasons 5.86905846502e-05
released 5.86905846502e-05
release 5.5283149422e-05
models 0.0
popped 0.0
within 6.4279417885e-05
standing 0.0
valentines 0.000120110822939
justice 6.7804327426e-05
houses 0.0
purchase 0.0
dropped 3.1087185116e-05
conversations 4.68107037382e-05
seattle 0.00225495180201
strength 0.0
monica 0.0
incredibly 0.000142365821949
streets 0.0
private 0.0
inspirational 0.0
barbie 0.0
tables 0.0
affection 0.0
broski 0.0
pissing 0.0
designer 0.0
cooking 0.0
tattoos 0.0
direction 0.0
readyyyyy 0.0
exclusive 0.000119650348997
adrianalima 0.0
fashion 3.64275819324e-05
talkin 0.0
bitches 0.0
nailed 0.0
kitten 0.0
whomever 0.0
ruthless 0.0
teaching 0.0
chillin 0.0
philly 0.000141403020322
baddest 0.0
cheers 0.000467993122589
autumn 0.0
presents 4.12139353137e-05
flawless 0.0
unique 0.000115945894096
handed 0.0
taraji 0.0
victory 0.000144024138753
tribute 0.000207504192552
ballin 0.0
horror 0.000400545294208
females 0.0
catfish 0.0
action 0.000243446887151
wouldnt 0.0
recipient 6.58574863932e-05
whitney 0.0
continued 8.64430482678e-05
esther 0.0
letter 6.21743702321e-05
existence 0.0
papers 0.0
winter 0.000306855891483
sessions 4.46551412108e-05
replicating 0.0
foundation 0.0
syndrome 0.0
colorado 0.0
tremendous 0.0
public 2.92652875663e-05
cannot 0.000365233266294
brilliant 0.000340075778611
illustration 0.0
beware 5.6033782004e-05
globally 0.0
premieres 0.0
streaming 0.0
immigration 4.68107037382e-05
wrapped 0.0
studio 0.000245578802723
february 3.70734924066e-05
amazon 0.0
border 0.0
huffingtonpost 0.0
francis 0.0
january 0.000104646099805
relationships 0.0
tragic 0.0
secure 4.60194245308e-05
countries 0.0
episodes 0.0
broadcast 0.000124808409338
tickled 0.0
livestream 0.0
potential 6.95646112391e-05
education 0.0
famous 6.93659458657e-05
unknown 0.0
exists 4.68107037382e-05
orders 0.0
microsoft 0.0
ability 0.000109923127636
director 0.0
accessible 0.0
correction 0.0
william 4.2670260831e-05
editors 0.0
yellow 0.000233252191025
passionate 9.14195456249e-05
treatment 3.94749192389e-05
ambassador 0.0
thanking 0.0
streamed 0.0
lovers 0.000151870481322
wrinkled 0.0
bridge 0.000162315709827
magazine 0.0
sincere 0.0
quotes 0.0
result 0.000108964587134
destruction 0.0
edition 6.74214023511e-05
prince 0.0
indiana 0.000100874027159
editorial 0.0
emotion 0.000111147117243
mistakes 4.49519668125e-05
inspiring 3.39984458681e-05
counter 0.000142883285999
disappointing 5.0623493774e-05
edited 5.92505893512e-05
spotlight 0.000103154553558
saddest 0.00027203457765
production 0.0
header 0.000139907837976
itunes 0.0
guests 0.000276324434672
snakes 7.63731043899e-05
charging 0.0
arriving 0.0
mysteries 0.000151711884688
dangerous 6.76124995011e-05
typically 0.0
saving 0.0
universe 0.0
victims 3.65340851524e-05
receive 3.54888726423e-05
proceeds 0.0
crossed 0.0
received 6.46390104013e-05
limitations 0.0
studying 5.3183039148e-05
conflict 0.0
petition 0.0
milestones 0.0
outstanding 8.64430482678e-05
devastating 0.0
installment 8.42951608582e-05
signature 0.00010891728609
mistletoe 0.0
awards 0.0
shelves 0.0
smells 0.000220486512022
themed 5.9784257795e-05
sisters 0.0
banquet 0.0
danger 4.4071824906e-05
leading 0.0
member 5.91736985728e-05
dominant 0.0
distinguish 7.91320886104e-05
factories 0.0
distinct 0.0
distance 0.0
confirmed 0.000109923127636
behavior 4.95248595811e-05
collect 5.42414860989e-05
vanity 0.0
junior 0.0
communities 0.0
worldwide 4.18654387126e-05
canada 6.70413782515e-05
recognized 0.0
vessels 0.0
movement 0.000134462060858
segment 5.02519096352e-05
internal 0.0
information 0.0
easily 3.70734924066e-05
towards 0.0
october 3.51836177108e-05
belgium 6.14569755445e-05
european 8.67225082732e-05
caribbean 0.0
cities 0.0
arrives 0.0
extraordinary 8.50686351361e-05
exquisite 7.97222680897e-05
argentina 0.0
eliminate 0.0
genius 6.68524403964e-05
prepared 3.80746596221e-05
anthony 4.5864120811e-05
breakthrough 0.0
berlin 0.0
batman 5.79640780954e-05
upcoming 7.11829109743e-05
upgrade 5.6033782004e-05
singapore 0.0
crucial 0.0
scratch 5.40261931838e-05
collaboration 0.0
tested 0.0
acquire 0.0
honoring 0.0
holland 0.0
visually 0.0
neyocompound 0.0
inspire 4.28069449328e-05
ebonymag 0.0
spiketv 0.0
constant 0.0
sunset 0.0
tuning 5.55735586217e-05
gentleman 0.0
fulfilling 0.0
ayeeeee 0.0
stratford 0.0
poland 0.0
philippines 0.0
kickin 0.0
theweeknd 0.0
september 0.0
manchester 0.00114274432031
rickyrozay 0.0
remarkable 0.00026016752482
rihanna 0.0
disgusted 0.0
immoral 0.0
process 6.41005836805e-05
goosebumps 0.0
performances 0.0
strangers 0.0
emotions 0.000158929818377
judgement 5.95160042154e-05
comparing 5.55735586217e-05
thuggin 0.0
studios 0.000430501860568
jennifer 0.0
performer 0.0
literally 3.1087185116e-05
cardiff 0.0
soooooooo 0.0
crashed 0.0
cthagod 0.0
closed 0.000107393665528
justinbieber 0.0
complexmag 0.0
billboard 0.0
airing 0.000100874027159
albums 0.0
sweden 0.0
katyperry 0.0
treats 0.0
missouri 0.0
thefader 8.81614866041e-05
soundtrack 0.000112534199384
theellenshow 0.0
sweets 0.0
festival 7.39293578287e-05
wizkhalifa 0.0
amsterdam 0.0
backstage 0.0
collab 0.0
subscribed 0.0
joined 0.000123663919495
davidguetta 0.0
pushing 0.0
hopeful 0.0
romantic 6.00554114696e-05
mentions 4.71343401073e-05
lurking 0.0
ballad 0.0
teamed 0.0
exclusively 0.0
kingjames 0.0
hollyrpeete 0.0
sneakers 0.0
auction 5.02519096352e-05
sneaker 0.0
djkhaled 0.0
express 3.88819490535e-05
thegrammys 0.0
throughout 0.0
shining 0.0
excellence 0.0
thrown 0.0
zendaya 0.0
playin 0.0
applemusic 0.0
crunch 0.0
capitalofficial 0.0
filmed 0.0
toronto 4.4803114918e-05
naomicampbell 0.0
trvisxx 0.0
killin 0.0
trucks 0.0
stands 6.97640665366e-05
platinum 0.0
native 0.0
spotify 0.0
rocked 0.0
jumped 0.0
leebruhgreene 0.0
leaning 0.0
featured 3.94749192389e-05
announce 0.000116742148781
senior 0.0
iamdiddy 0.0
haters 0.0
nothin 0.0
appreciation 0.0
defjamrecords 0.0
floating 0.0
superstars 0.0
shondarhimes 0.0
premiere 0.0
orchestral 0.0
makeup 5.40261931838e-05
touched 0.0
newest 8.11578549137e-05
designed 0.000116295056727
passes 0.0
angelasimmons 0.0
tidalhifi 0.0
vashtie 0.0
delivered 0.0
owning 6.69100102197e-05
producer 0.000455563688442
balmain 0.0
legendary 4.02054991601e-05
independence 0.0
mtvmusicuk 0.0
audition 0.0
debuts 0.000461716073316
footage 8.21712821334e-05
marshall 0.0
spends 0.0
playtime 0.0
completed 0.0
dishes 0.0
photographed 0.0
bubble 0.0
belong 0.0
tongue 5.3812732571e-05
observing 0.0
consistent 0.0
posing 0.0
heavens 0.0
contemporary 0.0
aiming 6.35608465198e-05
ceremony 0.000268818689508
brighter 0.0
rainbow 0.0
matthew 0.000143886559687
phenomenal 5.0068161776e-05
affected 0.0
rivers 0.0
presenting 0.0
competitive 5.04370135795e-05
eskimo 0.0
sibling 0.0
dakota 0.0
printed 0.0
heroes 0.0
deepest 0.0
describe 7.28551638648e-05
hollywood 0.0
baggage 0.0
terrifying 0.0
animation 0.0
nationwide 0.0
capital 0.0
quantity 0.0
nominations 5.13835965067e-05
mountains 0.0
mosaic 0.0
realise 0.0
overload 0.0
photographer 0.0
depression 0.0
donation 0.0
marvelous 0.0
madonna 0.0
sailed 0.0
terror 0.0
rinsed 0.0
disorder 0.0
polish 0.0
represents 0.000825236428462
touchdown 6.38763408761e-05
creates 0.0
oxford 0.0
stitched 0.0
morocco 0.0
thrill 0.0
balloons 0.0
teaming 6.6554238714e-05
latimes 0.0
kerrywashington 0.0
caution 0.0
camouflage 0.0
approaching 5.62670996921e-05
generous 0.0
installation 0.0
benefiting 0.0
basics 0.0
confirm 0.0
thrilling 0.0
photography 0.0
matches 0.000226961396107
boundaries 0.0
singles 0.0
laptop 0.0
obvious 0.0
darling 0.0
celebrations 0.000133820020439
chewbacca 0.0
underwater 0.0
naughty 0.0
advised 6.76370602738e-05
feelin 0.0
macaroni 0.0
perfection 5.87280398128e-05
picasso 0.0
recipe 0.0
radical 0.0
volcano 0.0
planted 0.0
products 0.0
directed 4.29443779923e-05
grabbed 0.0
frames 0.0
casual 0.000122340654092
scheming 0.0
twickenham 0.0
bbcnews 0.0
pledge 0.0
subtle 0.0
embarrassed 0.0
snatch 0.0
unveiling 0.0
kissed 0.0
arguments 0.0
settling 7.5349228734e-05
desperate 9.55888338049e-05
executive 0.0
humbled 5.3812732571e-05
courage 0.00315191071941
dropping 0.000113884274398
carried 0.00010720214667
behalf 4.51017073803e-05
hardest 4.63329469958e-05
marking 0.0
vision 0.0
intervention 0.0
records 0.0
deeply 0.000121736782371
mannered 0.0
texted 0.0
israeli 0.0
strongest 0.0
rogers 5.87280398128e-05
concept 4.55563688442e-05
allegiance 0.0
belongs 0.0
intended 0.0
bosses 0.0
purpose 3.84174641012e-05
hottest 0.0
campaigns 0.0
sunderland 0.00149222497085
teenager 0.0
runway 0.0
steven 0.000151870481322
guitar 0.00010720214667
donating 0.0
applause 5.95160042154e-05
finale 0.0
wasted 0.0
absent 0.0
awhile 0.0
fierce 0.0
sincerely 0.0
apology 0.0
climbing 0.0
unwilling 0.0
protesting 0.0
bikini 0.0
friendships 0.0
matching 0.0
wolves 0.0
mosque 0.0
venezuela 0.0
donates 0.0
generations 0.0
underestimate 0.0
pardon 6.62034431969e-05
stickers 0.0
mothers 0.0
deeper 0.0
nipple 0.000298852977158
perfume 0.0
noodle 0.0
melissa 6.08869175831e-05
forest 5.48986801321e-05
panties 0.0
jimmykimmel 6.17469379718e-05
everytime 0.0
underdog 7.63731043899e-05
shoulders 0.0
wrapping 0.0
bedroom 5.84707917053e-05
glitter 0.0
stocking 7.43655155697e-05
annoyed 0.0
behave 0.0
goodbye 3.94749192389e-05
fuckin 0.0
seller 0.0
joshgroban 0.0
samsungmobileus 0.0
influential 0.0
slicing 0.0
ryanseacrest 0.0
farmer 0.0
teaser 5.84707917053e-05
styled 0.0
casting 6.32492714496e-05
imitated 0.0
forgiveness 0.0
perezhilton 0.0
blacked 0.0
paparazzi 0.0
peoplemag 0.0
rolled 0.000106366078296
vanityfair 0.0
rockstar 0.0
thousand 0.0
minded 0.0
shines 0.0
sunglasses 0.0
auntie 0.0
magazines 0.0
waited 0.0
denmark 0.0
leather 0.0
wished 0.0
ladygaga 0.0
swallow 0.0
glblctzn 0.0
shakira 0.0
accessories 0.0
nbcthevoice 0.0
clique 0.0
premiering 0.0
loooooove 0.0
weareheremvmt 0.0
looooove 0.0
vmagazine 0.0
popcrush 0.0
studded 0.0
yassssss 0.0
yessss 0.0
undeniable 0.0
unicef 0.0
auditions 0.0
ellemagazine 0.0
yasssss 0.0
pharrell 0.0
greece 0.0
papermagazine 0.0
nowwwww 0.0
maccosmetics 0.0
macaidsfund 0.0
lipstick 0.0
meeeee 0.0
newsstands 0.0
unapologetically 0.0
insidebates 0.0
legalize 0.0
loooove 0.0
caradelevingne 0.0
allllll 0.0
badgalriri 0.0
itsjeremyscott 0.0
nickiminaj 0.0
nipples 0.000181608166562
booooo 0.0
trippy 0.0
mikewillmadeit 0.0
puttin 0.0
trappin 0.0
alexanderwangny 0.0
karllagerfeld 0.0
celebratin 0.0
lilyallen 0.0
fuuuuuck 0.0
chanel 0.0
rubber 0.0
angelou 0.0
misses 0.0
harpersbazaarus 0.0
timberlake 9.17506662083e-05
photoshopped 7.38877588273e-05
whatchu 0.0
rehearsals 0.0
couture 0.0
mutual 0.0
creeper 0.0
cuddling 9.08040832811e-05
celine 8.98919292826e-05
theamas 0.0
thexfactor 0.0
websterhall 0.0
presale 0.000455135654063
deluxe 0.0
styles 6.14569755445e-05
wetten 0.0
shittttttttttt 0.0
boredom 0.0
darealamberrose 0.0
noooooooo 0.0
itunesmusic 0.0
cbstweet 0.0
thermal 0.0
mariners 0.0
torres 9.48257127467e-05
thebeatles 0.0
blondies 0.0
greeting 0.0
thecut 0.0
geeked 0.0
outlet 7.07763359655e-05
americanexpress 0.0
gqmagazine 0.0
nicole 0.0
bumped 0.0
hangover 0.0
stockholm 0.0
casually 0.0
esquire 0.0
winnipeg 0.0
begging 0.0
showroom 0.0
sleeves 7.11978832096e-05
smelling 0.0
guaranteed 0.000216965944396
obsession 5.25687683494e-05
attendant 7.79918254111e-05
aussie 0.0
tbsveryfunny 0.0
reservation 0.0
mollymcnearney 0.0
dragging 0.0
rocnation 0.0
tapered 0.0
badass 0.0
endlessly 0.0
vampires 0.0
viewers 0.00011160522948
kanyewest 0.0
designers 0.0
billboards 0.0
backstreetboys 0.0
monteith 0.0
e_fashionpolice 0.0
epically 0.0
internationally 0.0
mighty 0.000114934798162
jcolenc 0.0
semifinals 0.0
brasilia 0.0
tailgating 0.0
photoshoot 0.0
smokin 0.0
ahhhhhh 0.0
missin 0.0
sweats 8.90117873761e-05
impacted 6.87687471453e-05
rodriguez 0.0
musician 0.0
merchandise 0.0
jurgen 0.0016370372527
athleteally 0.0
originals 0.0
número 0.0
zealand 0.0
hehehe 0.0
fearless 0.0
stadiums 0.0
thiago 0.0
suarez 0.0
cropped 0.0
uruguay 0.0
apparel 8.42951608582e-05
staircase 0.0
wintour 0.0
spotting 0.0
polygraph 0.0
twerking 0.0
shipment 0.0
muggin 0.0
takeoff 0.0
thailand 0.0
tomorr 0.0
googleplay 0.0
budweiser 0.0
miafestival 0.0
dotted 0.0
burning 4.42163870964e-05
surpass 0.0
betcha 0.0
onairwithryan 0.0
dreamers 0.0
brunomars 0.0
beyoncé 0.0
hellooo 0.0
subscribers 0.000340043222063
preorder 0.0
believer 7.25067786441e-05
fragrance 0.0
hellooooo 0.0
majesty 0.000159444536179
beatsbydre 0.0
finland 0.0
fearnecotton 0.0
debuted 0.0
queued 0.0
rhetorical 0.0
iranian 0.0
infamous 0.0
brutally 0.0
execution 0.0
palestinian 0.0
transplant 0.0
audacity 9.71074187283e-05
foreplay 0.0
priced 0.0
huntington 0.0
manger 0.000111143405667
weaker 0.0
justintrudeau 0.000158264177221
creeping 7.74405621082e-05
fittest 0.0
hoodie 0.0
mankind 7.38877588273e-05
westwood 0.0
holographic 0.0
throwin 0.0
eminem 0.0
ecstatic 0.0
enjoys 0.0
wussup 0.0
duplicated 0.0
crotch 0.0
congrat 0.0
huggin 0.0
implement 0.0
penalizing 0.0
gonzalez 0.0
bitchin 0.0
sephora 0.0
damien 0.0
demanded 0.0
negativity 0.0
alancarr 0.0
skillz 0.0
hopeless 0.0
beatle 0.0
cheesecake 0.0
almighty 9.17506662083e-05
whatcha 0.0
slumber 0.0
chimney 0.0
headlining 0.0
perplexed 0.0
googleplaymusic 0.0
thrills 0.0
rollers 0.0
bravotv 0.0
gifted 0.0
kekepalmer 0.0
styledtorock 0.0
yooouuu 0.0
shantay 0.0
yaaaas 0.0
bestest 0.0
freestyle 0.0
everrrrr 0.0
sweatband 0.0
podolski 0.0
collaborating 0.0
bestfriend 0.0
sittin 0.0
whaaaat 0.0
clockwork 0.0
warmest 0.0
temptation 0.0
spiritual 7.43655155697e-05
chameleon 0.0
customised 0.0
acrylic 0.0
grasshopper 0.0
engages 0.0
gourmet 0.0
rhythmic 0.0
petals 0.0
klinsmann 0.000578581492178
directv 7.63731043899e-05
popcrave 0.0
versailles 0.0
raddest 0.0
grandfather 5.77145091646e-05
persie 0.0
webster 0.0
knight 0.0
footwear 0.0
collectors 0.0
blackout 0.0
skylight 0.0
hammock 0.0
playhouse 0.0
revelers 0.0
executed 0.0
cincinnati 6.95526068967e-05
simultaneously 0.0
malawi 0.0
graduated 0.0
sickening 0.0
mueller 0.0
elonjames 0.0
skeletons 0.0
mittromney 0.0
connecticut 6.9953918988e-05
cumulative 0.0
racked 0.0
valera 0.0
thighs 0.0
timely 5.92505893512e-05
rapping 0.0
shrugs 0.0
enables 0.0
psychic 0.0
fernando 0.0
tourism 0.0
slaughtered 0.0
devotion 0.0
fantasies 0.0
parsons 0.0
stella 0.0
complainers 0.0
newsstand 0.0
voguemagazine 0.0
westfield 0.0
manolo 0.000133101449074
turquoise 0.0
parisian 0.0
childs 0.0
swimsuit 0.0
bazaar 0.0
empress 0.0
brainstorm 0.0
tanning 0.0
desirable 0.0
feathers 0.0
antics 0.0
featurette 0.0
olivier 0.000697323613369
helloooo 0.0
hallow 0.0
connie 0.0
upbringing 0.0
privatize 0.0
bittersweet 0.0
outlaw 0.0
marcel 0.0
nowwww 0.0
hushed 0.0
threshold 0.0
floats 0.0
barbados 0.0
manuelcav 0.0
niggaz 0.0
prayin 0.0
drizzyxcole 0.0
homegirl 0.0
rappin 0.0
witcha 0.0
mufasa 0.0
dainternz 0.0
lololol 0.0
barclayscenter 0.0
bestbuy 0.0
blackouts 0.0
rivera 0.0
jakemiosge 0.0
givenchy 0.0
riccardo 0.0
grossed 0.0
guetta 0.0
spicewon 0.0
bitche 0.0
shawty 0.0
wednesdays 0.0
payday 0.0
jewelers 0.0
romero 0.0
acknowledging 0.0
calypso 0.0
blushes 0.0
medusa 0.0
keepers 0.0
futuristic 0.0
whereabouts 0.0
slayed 0.0
asvpxrocky 0.0
haaaaa 0.0
inezandvinoodh 0.0
calvinharris 0.0
_maxwell_ 0.0
bwerde 0.0
edward_enninful 0.0
haaaaaa 0.0
wisest 0.0
unconditionally 0.0
drmayaangelou 0.0
blackgirlsrock 0.0
submissive 0.0
rearrange 0.0
attuned 0.0
abrams 0.0
awaken 0.0
climbs 0.0
jacking 0.0
seventy 0.0
snatching 0.0
manoloblahnik 0.0
nicolerichie 0.0
openingceremony 0.0
whiteley 0.0
supermodel 0.0
the_real_iman 0.0
minogue 0.0
tmagazine 0.0
baaaaack 0.0
yeessss 0.0
wooooo 0.0
epicness 0.0
takawiraa 0.0
joplin 0.0
uncensored 0.0
unspeakable 9.17506662083e-05
rewrites 0.0
askdrruth 0.0
glozell 0.0
tardiness 0.0
runways 0.0
colombian 0.0
unapologetic 0.0
zac_posen 0.0
rumoured 0.0
omgggg 0.0
futbol 0.0
biatch 0.0
barrington 0.0
catwalk 0.0
sledgehammer 0.0
clemente 0.0
dollaz 0.0
mariah 0.0
granddad 0.0
iyanlavanzant 0.0
hustler 0.0
coletteparis 0.0
flexin 0.0
mistress 0.0
exceeds 0.0
sweeeeeet 0.0
stancesocks 0.0
serviced 0.0
issssss 0.0
lipglass 0.0
externally 0.0
complex_uk 0.0
prideful 0.0
dash_radio 0.0
holidaze 0.0
mawnin 0.0
champagnepapi 0.0
fashawn 0.0
raided 0.0
ahhhhhhhh 0.0
soulmate 0.0
motorbikes 0.0
britishvogue 0.0
gnlstudios 0.0
robinsoncano 0.0
debuting 0.000167177187671
cc_sabathia 0.0
colorways 0.0
hit_boy 0.0
_spyda 0.0
phresh 0.0
dominates 0.0
ratchet 0.0
rupaul 0.0
cockpit 0.0
kimmiekyees 0.0
horoscope 0.0
catwalks 0.0
paramedic 0.0
fhollande 0.0
sexiness 0.0
hereeee 0.0
changers 0.0
tiptoes 0.0
revved 0.0
meditative 0.0
fauntleroy 0.0
mbsings 0.0
disrespectfully 0.0
traumatized 0.0
outdid 0.0
elvispresley 0.0
toupee 0.0
josephine 0.0
discography 0.0
mariasharapova 0.0
chinchilla 0.0
skylar 0.0
illestbaba 0.0
georgiamjagger 0.0
pierced 0.0
hardrock 0.0
snorkeling 0.0
thrilla 0.0
gunpoint 0.0
sleeved 0.000266202898148
stevestoute 0.0
kiiiiiiiiiiiiinnnngggggg 0.0
lanvin 0.0
chateau 0.0
lizzs_lockeroom 0.0
prophets 0.0
müller 0.0
lullaby 0.0
samersum 0.0
disassembled 0.0
anniversaries 0.0
hayden_williams 0.0
rousteing 0.0
slayage 0.0
raunchy 0.0
benzema 0.000145913706944
fuckery 0.0
hellooooooo 0.0
juliagillard 0.0
congeniality 0.0
gunned 0.0
condense 0.0
missjillscott 0.0
yussss 0.0
chopard 0.0
woodbridge 0.0
orousteing 0.0
dubsmash 0.0
alicialquarles 0.0
worldmcqueen 0.0
whateva 0.0
elysées 0.0
jennnrosales 0.0
xstrology 0.0
looool 0.0
tippin 0.0
marleys 0.0
dwanimation 0.0
dreamworks 0.0
yaself 0.0
anothermagazine 0.0
claralionelfdn 0.0
mchingi 0.0
rihannareplay 0.0
awtguide 0.0
ryannavy_rih 0.0
rihquest 0.0
gpforeducation 0.0
valliniandre 0.0
globalfund 0.0
rhenna 0.0
millymaefenty 0.0
peetes 0.0
pandagunda 0.0
floriamamaroma 0.0
adoringrihanna 0.0
ymcofficial 0.0
rihanti_ 0.0
mcdean 0.0
rihannadaily 0.0
stancemuse 0.0
muhtean 0.0
rihdefine 0.0
officialdonnie 0.0
stunnafenty 0.0
perfumesbyriri 0.0
badgal 0.0
shaninamshaik 0.0
reblrihanna 0.0
elliscole_ 0.0
itskaitbh 0.0
harpersbazaarcn 0.0
yusefhairnyc 0.0
mylahmorales 0.0
teamofrihanna 0.0
muhphucka 0.0
harpersbazaar 0.0
rihrihfreak 0.0
thenbacentral 0.0
roversi 0.0
suchaf_cknlady 0.0
fourfiveseconds 0.0
petergrayhair 0.0
wkorea 0.0
dennisleupold 0.0
ursulastephen 0.0
ozzysalvatierra 0.0
ciarrap 0.0
rihannaargntina 0.0
rihearsal 0.0
sremmurd 0.0
id_magazine 0.0
heauxm 0.0
rihpost 0.0
jrgseul 0.0
bitchez 0.0
underst_navy 0.0
sonitaalex 0.0
chris_walden 0.0
danachanel 0.0
wednesdayz 0.0
jimmyfenty 0.0
houseoffraser 0.0
skeete 0.0
_kailssss 0.0
muhphuckas 0.0
phuckin 0.0
rastafarih 0.0
obviiii 0.0
etherihalvibe 0.0
rorreyfenty 0.0
noellaalstrom 0.0
rihturn 0.0
tellar 0.0
esquireuk 0.0
huffpoststyle 0.0
tyronmachhausen 0.0
melottenberg 0.0
paolakudacki 0.0
tompecheuxmu 0.0
lgoldstein_ltd 0.0
phucking 0.0
kudacki 0.0
hellurrr 0.0
tom_ford 0.0
neakah 0.0
creepah 0.0
pahtna 0.0
wontonsan 0.0
cappadonna 0.0
phuckmarqy 0.0
elfies 0.0
starstunning 0.0
ohnana 0.0
tushmagazine 0.0
macxriri 0.0
rickrubin 0.0
findataui 0.0
tristate 0.0
distoyb 0.0
kabukimagicnyc 0.0
yerdme_cmb 0.0
hittas 0.0
evan_erogers 0.0
jessieriri 0.0
unfourgettable 0.0
meeeaan 0.0
shweinsteiger 0.0
goooooooaaaaallllllll 0.0
goooal 0.0
braaaaaaaaaaaaaaaaaa 0.0
asapkoff 0.0
belgiuuuuummm 0.0
druchaos 0.0
cuadrado 0.0
murdaaahhh 0.0
colombiaaaa 0.0
karafenty 0.0
dlsturbla 0.0
braaaaaaaaaaaaaaaaaaaaaa 0.0
abouuuutttt 0.0
takecarerihanna 0.0
nathannavy 0.0
theworidcup 0.0
goooooaaaaaaallllll 0.0
bazaararabia 0.0
bigshitxtalker 0.0
__tatijxo 0.0
lhhatl 0.0
braaaaaaaaaaaa 0.0
rihannanavyrd 0.0
gooooooaaaalllll 0.0
triscastellano 0.0
iiiiiiiiiiiiiiiiiiii 0.0
eatmydaisy 0.0
leggooooal 0.0
yaaaaaassssssss 0.0
prettygirl_sp 0.0
ooohhhhhh 0.0
shiiiiitttt 0.0
roooonnnnnnnneeeeeeeyyyyyy 0.0
muslera 0.0
tadpole 0.0
giusichrisriri 0.0
_xomec 0.0
blockedt 0.0
ooooohhhh 0.0
goooooooaaaaaaalllllllllllllllll 0.0
stefansaxon 0.0
rihannademos 0.0
dragonflycici 0.0
chririh 0.0
rihluminati 0.0
goaaaalllll 0.0
twinzies 0.0
mantlers 0.0
suchaf__cknlady 0.0
glamour_robyn 0.0
adamselman 0.0
sephorafrance 0.0
thefashionlaw 0.0
scout_willis 0.0
quietude 0.0
theblackvoice 0.0
weeeed 0.0
kiiiiss 0.0
dooooon 0.0
miiiiss 0.0
malinsworld 0.0
prompics 0.0
itsalldonn 0.0
goooorrrrrrlllllll 0.0
thenewdaily_ 0.0
wiggin 0.0
stevesoboroff 0.0
pivot_tv 0.0
lapolicefdtn 0.0
scarificing 0.0
whooooose 0.0
sambapologetic 0.0
bellaisevil 0.0
sta_schemin 0.0
i_aim_tyga 0.0
fameisloud 0.0
garcon_rebelle 0.0
itsbreezybiotch 0.0
phaedra 0.0
vivala_stephyy 0.0
_bossmadeg 0.0
kontomitrosnick 0.0
sorrenti 0.0
whenevahhh 0.0
teamvivanco 0.0
heifers 0.0
stevenkolb 0.0
jeremy_brossard 0.0
jordanbrossard 0.0
quilted 0.0
piscesareus 0.0
plumsykes 0.0
cedellamarley 0.0
offish 0.0
urprise 0.0
i_love_riri 0.0
rihannadiva 0.0
javiroo 0.0
frihday 0.0
cuntlifex 0.0
_chris_rated_ 0.0
yewmadcunt 0.0
erinwasson 0.0
balmainparis 0.0
_yadim 0.0
muthaphucka 0.0
onnneeee 0.0
liiiiieeesss 0.0
gautier 0.0
mtvstarsvotes 0.0
zinloves 0.0
chloefrahm 0.0
uprising_create 0.0
uprising_darren 0.0
jonnycrave 0.0
jeff_uprising 0.0
kareemfenty 0.0
daily_rihnavy 0.0
unapologeticunt 0.0
rorrey 0.0
foreverrr 0.0
guyanese 0.0
annndd 0.0
historih 0.0
grandfadda 0.0
arleta 0.0
loreleicakes 0.0
river_island 0.0
finallyyyy 0.0
rodin_thinker 0.0
mrs_toyac 0.0
cheersrihrih 0.0
bangbang 0.0
faiz_fenty 0.0
leandra 0.0
noella 0.0
rasshoooolllleee 0.0
luminati 0.0
inezvinoodh 0.0
visvim 0.0
realne 0.0
sarahfrancus 0.0
tadium 0.0
trapstar 0.0
afrihca 0.0
rihrobyn 0.0
cbsgirlfriend 0.0
shyronnie_rn 0.0
mariamfenty_ 0.0
mizzpmf 0.0
whooooaaaaa 0.0
camkaipink 0.0
yasssssssssssssssssssss 0.0
lunaxskye 0.0
yaaaaasssssss 0.0
niggggaaaaaaa 0.0
breeziechillin 0.0
betologetic 0.0
isusjsjdha 0.0
awffffff 0.0
mcdessikins 0.0
skreets 0.0
pieceofria 0.0
loooool 0.0
craaaazzyyy 0.0
lolarae_xoxo 0.0
stayflysamir 0.0
shotta 0.0
tamarawray 0.0
lauraleehickock 0.0
heauxz 0.0
rihannanavyit 0.0
manilla 0.0
ronnyerickson 0.0
nikofenty 0.0
vincehaycock 0.0
zodiacfacts 0.0
naomiiknows 0.0
wrizzap 0.0
muuuch 0.0
hongkong 0.0
jetlaaaaaagggged 0.0
rasshole 0.0
februharry 0.0
kaşara 0.0
çıkmadı 0.0
dicked 0.0
vinoodh 0.0
rihannasblog 0.0
urihannafansite 0.0
teejay 0.0
stupse 0.0
clapbacks 0.0
niggaaaazzzz 0.0
bwaaahaaaaa 0.0
willheardmusic 0.0
kristennoelgipson 0.0
rsvpgallery 0.0
backout 0.0
bwahhaaa 0.0
errwhurr 0.0
niiiiggaz 0.0
fridayz 0.0
debbycoda 0.0
cabbing 0.0
dolly_cohen 0.0
cowboyz 0.0
friendz 0.0
phucker 0.0
charliebymz 0.0
lynn_ban 0.0
inwardly 0.0
ravening 0.0
whyyyyyyyyyyyy 0.0
thatdamnlala 0.0
adamsellman 0.0
scottland 0.0
kingspleasure 0.0
mikkyekko 0.0
rihannanavide 0.0
saskoktz 0.0
phlawless 0.0
givenchydonc 0.0
mlle_yulia 0.0
oxxoxo 0.0
foreva_rn_ladii 0.0
skinhead 0.0
killaz 0.0
yennifer 0.0
bestofpisces 0.0
smegma 0.0
morganemiller_ 0.0
aa_davis 0.0
beenie 0.0
nickeystaar 0.0
frihannamorocco 0.0
thinketh 0.0
guitarists 0.0
jordriri 0.0
badgalclaudia 0.0
hausofnath 0.0
_abirogerson 0.0
tommykane 0.0
livenationuk 0.0
millenniu 0.0
juuuussttt 0.0
helllooooo 0.0
miiiine 0.0
chaneliman 0.0
blushy 0.0
laetitiacrahay 0.0
rihmix 0.0
dariuscash 0.0
joshkillss 0.0
drunk_cockiness 0.0
firebombfenty 0.0
mooky_mcnasty 0.0
defpenradio 0.0
iamrici 0.0
letcha 0.0
niggerish 0.0
mawazine 0.0
thefashionaddicts 0.0
phierce 0.0
errwhere 0.0
jocking 0.0
niggaaa 0.0
tami_black 0.0
homienadz 0.0
religiosity 0.0
joycemeyer 0.0
brooooklyyyyn 0.0
miiiiine 0.0
dilekkeysan 0.0
marykatrantzou 0.0
allaboutpisces 0.0
jfisherjewelry 0.0
oddhangover 0.0
diggins 0.0
phyliciaghee 0.0
bawsin 0.0
howeverrrrr 0.0
channyyxoxo 0.0
dowwwwnnnnn 0.0
thugbitch 0.0
rihanas 0.0
miiiiiinnneee 0.0
rihwrite 0.0
janiseeaileen 0.0
ratchify 0.0
eeeeeemmmmmm 0.0
pannies 0.0
wooooiiiiiiiiiii 0.0
muhphuckers 0.0
bashment 0.0
whaaaaattttt 0.0
liiifee 0.0
covery 0.0
leeeeaaaavvveeee 0.0
haarrrrrddd 0.0
ismashedriri 0.0
christabslg 0.0
reallll 0.0
peoplez 0.0
wooiiiiii 0.0
slackness 0.0
kevfenty 0.0
woooiii 0.0
tatiana_xo 0.0
fentynavysalute 0.0
ratchettt 0.0
rachael_deanna 0.0
lifeeeeee 0.0
bxdcfjcf 0.0
killled 0.0
asdfghjkjhgtfrdedfghjnhbgvfc 0.0
troy_fenty 0.0
_marrymerihanna 0.0
jkbwdhbwh 0.0
_noellaa 0.0
hunneds 0.0
thekingfly 0.0
dooown 0.0
woooiiiii 0.0
phucked 0.0
kickstand_ohb 0.0
acedemy 0.0
mistercap 0.0
gallest 0.0
sinsofmyfather_ 0.0
dwayneofficial 0.0
_revofev 0.0
joefenty 0.0
thegodlight 0.0
molestmerihanna 0.0
rihannanavyeu 0.0
melina 0.0
terryrichardsonstudio 0.0
_sexxtroversy 0.0
neuroticbxtch 0.0
getcho 0.0
moneyyy 0.0
idillionaire 0.0
yaaaaaaas 0.0
noxx_onite 0.0
phonefancy 0.0
chiefin 0.0
londonfashionwk 0.0
_mayor_ 0.0
rihannanow 0.0
jamrock 0.0
rihannastats 0.0
jenesismagazine 0.0
napmed 0.0
hausofbeyhive_ 0.0
probabily 0.0
badgalelly 0.0
ladylivja 0.0
rihannacomics 0.0
__glitterdick 0.0
chelsey_ba 0.0
stashbox 0.0
thuglife 0.0
highladayz 0.0
brrrap 0.0
kalifah 0.0
marylin 0.0
muthafucker 0.0
stylenetwork 0.0
bvalgari 0.0
oooonly 0.0
fuckyopictures 0.0
amplifydot 0.0
trappat 0.0
soumsluvriri 0.0
ibebossedup 0.0
holerringg 0.0
rihskillerdoll 0.0
equaled 0.000133101449074
chefette 0.0
rezilientkas 0.0
blastinggggg 0.0
dammnnn 0.0
lifeandtimes 0.0
hausofjazzy 0.0
kaykispeaks 0.0
condesa 0.0
awaaayyy 0.0
flawle 0.0
mandler 0.0
loudies 0.0
dulcattis 0.0
killaaa 0.0
_loveforrihanna 0.0
yesimkayla 0.0
rollingnostone 0.0
richkunt 0.0
yasssssss 0.0
eriricccccc 0.0
cuntmeout 0.0
sashay 0.0
condragulations 0.0
neverrr 0.0
phasetoo 0.0
fooooorde 0.0
ruunavi 0.0
rihtweet 0.0
ishoobernator 0.0
thirstiest 0.0
j_dimps 0.0
deecosey 0.0
itsrihannasnavy 0.0
muthaphuckin 0.0
