awesome 0.000292978984288
christmas 0.000109569349707
trying 6.59183546234e-05
launch 4.04131082174e-05
moment 0.000530197617787
wonderful 0.000222134689751
seeing 0.000237019616478
hanging 0.000249295866784
sounds 7.03286962414e-05
contacts 0.0
anybody 0.0
worked 3.56431485639e-05
direct 0.0
others 0.000106352351553
currently 0.0
better 0.00039126869118
please 0.000462673995114
social 0.000110765904967
anxiety 0.0
around 0.000423874415445
people 0.00104338317648
morning 0.000950677183718
damage 0.0
everything 0.000229473802966
present 3.7325759542e-05
though 0.0
friend 0.000791020255481
watched 0.000185112241459
beautiful 0.000911755988872
demanding 0.0
anything 0.000133266015574
tagged 0.0
helped 0.000143735361812
thinking 3.34966464748e-05
finally 0.000401959757697
caught 0.000332297714902
believe 0.000457712205612
already 0.000228856102806
couple 3.58366549138e-05
launches 0.0
chance 0.00183579042373
annual 8.81451186926e-05
quickly 0.0
growing 3.93151686505e-05
probably 0.0
changed 7.01388520068e-05
history 0.000101306220986
center 4.29671747002e-05
museum 5.69204019556e-05
behind 0.000619508761035
screaming 0.0
pretty 0.000200979878849
really 0.000655639437047
possibly 0.0
little 0.000751955766363
happiest 0.0
earlier 0.0
forget 0.00016613402229
someone 0.000231336997557
things 0.00078253738236
available 0.000102129371758
perfect 0.00051202650953
different 9.99495116806e-05
person 9.86113625932e-05
watching 0.00145020380171
exhibit 0.0
passed 3.9969486078e-05
prefer 0.0
minutes 0.000135439780845
travel 0.000120239481131
daughter 0.000277484802506
positive 0.000116658419319
outside 3.46924770159e-05
looking 0.000392324747668
forward 0.000235744528973
raising 0.0
impression 6.02324846711e-05
wheels 6.8077111031e-05
favorite 0.000418491205272
instead 0.0
appreciate 0.000154272130491
couldn 0.000238945704447
remember 0.000360601690376
impressive 0.000135262816482
vintage 0.0
holidays 0.000140422727652
friends 0.00059326519161
impossible 0.000178304530659
everyone 0.000196691831114
always 0.00114120034928
limited 0.0
months 3.42273375406e-05
moving 3.52595473833e-05
meeting 3.35870923698e-05
answer 0.000806090216876
together 0.000361574996175
inside 0.0
upstairs 0.0
missed 0.000265814435664
active 0.0
eventually 0.0
longer 3.78376338578e-05
enough 0.000165686755558
building 3.68217970477e-05
enjoying 4.00798270437e-05
london 3.89928689165e-05
posting 0.0
recent 0.0
amazing 0.00166738017759
attention 0.0
tomorrow 0.00232752000152
whenever 5.39139522229e-05
feeling 0.000102959508334
excited 0.00177982155211
understand 3.57397581879e-05
following 3.4412597836e-05
asleep 0.0
learning 0.0
evening 0.000225177275892
special 0.000561818422638
secret 0.000220331595461
across 7.32447460721e-05
surprised 7.8199897134e-05
candles 0.0
sophia 0.0
version 0.000144908589187
rather 3.68217970477e-05
showing 0.00013989911769
saying 0.0
thoughts 0.000104358919509
exactly 3.54507838509e-05
getting 0.000721203380751
nothing 0.000229473802966
tweets 7.22581697886e-05
photos 7.92813721445e-05
looked 3.72243419664e-05
difficult 0.0
office 0.000106352351553
brought 0.000290604044112
biggest 0.000135074961314
thrilled 0.000149827248273
entire 0.000254969129351
something 0.00055729352149
closing 4.87673078594e-05
anyone 0.000132192570033
taking 0.000622857465194
interesting 0.000109569349707
original 3.87797588489e-05
flying 4.12042737917e-05
sometimes 0.00025290359426
yesterday 0.000132192570033
serious 0.0
digital 0.0
wearing 0.000346164145709
british 0.0
either 7.14795163758e-05
second 3.30481425081e-05
checking 4.24876701134e-05
indeed 4.47032506592e-05
island 9.28050612443e-05
hearing 0.000109867119108
staying 0.0
another 0.000490405934585
compare 0.0
bummer 0.0
clothes 0.0
landing 0.0
weekend 0.00146197939615
delivery 0.0
secretive 0.0
anyway 0.0
recognize 0.0
working 0.000262255774819
bigger 0.00011538804857
laughing 7.77722795458e-05
wanted 0.000231961457782
clothing 6.99561499938e-05
grateful 0.000128539907523
friendship 0.0
family 0.000688421408899
listening 0.000251536883171
stream 0.0
double 0.000111369716593
especially 7.2651011028e-05
shaking 0.0
waiting 3.35870923698e-05
definitely 7.16733098276e-05
account 3.84626828566e-05
completely 0.0
thought 0.000132192570033
possible 3.46924770159e-05
simple 3.8148660613e-05
professional 0.0
members 4.13188810248e-05
business 7.07100508284e-05
absolutely 7.01388520068e-05
sending 0.000570669825371
introducing 0.0
congrats 0.000997965337243
community 0.000202065541087
keeper 0.0
greatest 7.16733098276e-05
selfie 0.000343399968995
pasadena 0.0
posted 0.0
saturday 0.000899571835951
designs 8.79276726454e-05
broken 0.0
chicago 0.000133728397994
glimpse 0.0
actually 3.35870923698e-05
myself 8.59343494004e-05
pajamas 0.0
school 0.000199899023361
throwback 6.99561499938e-05
thursday 0.000315624834031
selling 0.0
talented 0.000430881608289
celebrate 0.000362271472968
celebrating 0.00039099948567
anniversary 0.000118922058217
contest 4.27265409566e-05
experiences 6.1063248701e-05
students 0.000130361509007
figure 7.84147620682e-05
featuring 0.0
inspired 0.000118922058217
breeze 0.0
sitting 3.70224482918e-05
playing 0.000433114550616
street 7.2651011028e-05
points 4.20151151135e-05
advice 0.000307701462853
memory 4.53463824418e-05
forever 7.40448965836e-05
imagine 7.30462331379e-05
problem 3.51643481207e-05
played 0.000109867119108
keeping 3.6622373036e-05
lovely 0.000123612821375
dressed 0.0
chinese 0.0
sunshine 6.8077111031e-05
afternoon 0.0
notice 0.0
difference 3.58366549138e-05
suppose 0.0
letting 4.03016355472e-05
system 0.0
mutant 0.0
bathroom 0.0
almost 0.000360601690376
details 0.000215019929483
experience 0.000239591362784
luckily 7.87882240587e-05
viewed 0.0
living 0.000136909350162
weather 0.000125694116336
bright 9.22705381816e-05
launching 0.000106822052393
colors 6.30136740618e-05
monday 0.00112950213884
walked 4.93495684083e-05
pinned 0.0
wanting 0.000103261237717
tweeting 0.0
forgot 4.10900679857e-05
gorgeous 5.32450933994e-05
herself 7.87882240587e-05
happens 0.000237659841498
learned 0.0
congratulations 0.000180645424471
raised 0.0
mission 4.44495083338e-05
smelled 0.0
unforgettable 0.0
forgotten 0.0
trouble 4.05249632988e-05
channel 7.97190345157e-05
fantastic 0.000193368619399
loving 0.000580105858198
hardly 0.0
dining 0.0
complete 0.0
daniel 0.0
rewarding 0.0
spirit 0.000212438350567
finding 4.00798270437e-05
stories 0.000319057054658
including 3.64241613359e-05
somewhere 4.27265409566e-05
conversation 0.000199297586289
disrespectful 0.0
making 0.000196162373834
expect 7.8630337301e-05
polite 0.0
brings 0.000276722731448
anytime 5.39139522229e-05
needed 0.0
seriously 3.62271472968e-05
modern 0.0
welcome 6.62747022234e-05
moments 0.00114099527511
jacket 0.0
halloween 9.84060511614e-05
costume 0.00025940440949
totally 0.0
flight 0.0
attached 0.0
finished 3.92073810341e-05
strong 0.000202612441972
message 6.95726130061e-05
coming 0.00098081186917
temporary 0.0
challenge 0.000179669202265
achievement 0.0
unlocked 0.0
happen 0.000367470958537
celebrated 0.0
giving 0.00019882410667
excellent 4.27265409566e-05
common 0.000567349486183
pressed 0.0
company 7.42464777288e-05
change 0.000196691831114
singing 0.000350589275833
silver 0.0
august 4.62686260222e-05
crying 0.0
happened 0.00010351687265
parking 0.0
demand 4.32095975587e-05
sacrifice 6.88691918666e-05
personal 3.56431485639e-05
beyond 0.000146489492144
question 0.000100489939424
chicken 0.000235402143626
position 0.0
losing 0.0
respect 0.000143346619655
caption 0.0
shouldn 3.92073810341e-05
career 7.60893100495e-05
reason 3.45056242165e-05
explore 6.50882359578e-05
glamorous 0.0
reality 7.7985737833e-05
burned 0.0
without 9.91444275244e-05
problems 0.0
countdown 0.000238492056545
online 3.52595473833e-05
animals 0.000109539589289
buying 0.0
pictures 0.0
underneath 0.0
camera 0.000128539907523
checked 4.65369874076e-05
heading 3.89928689165e-05
complex 0.0
sunday 0.00128667791802
nights 0.0
traffic 0.0
through 4.60024553664e-05
changing 0.0
diapers 0.0
convinced 0.0
capture 0.0
random 0.0
recorded 0.0
november 8.78957438245e-05
number 6.71741847397e-05
stupid 0.0
grandparents 0.0
recording 0.0
chocolate 0.0
unless 0.0
calling 6.88251956719e-05
mermaid 0.0
levels 0.0
package 0.0
option 0.0
knowing 0.0
actual 0.0
friday 0.00116293815603
achieve 5.4943692253e-05
winner 0.000582786581374
becomes 0.0
directly 0.0
quality 0.0
father 3.7325759542e-05
wishes 8.54530819132e-05
themselves 0.0
asking 3.46924770159e-05
usually 8.73998368831e-05
period 4.89119011086e-05
resist 6.21323846226e-05
collections 0.0
summer 0.00091923066077
bracelet 0.0
reminded 0.0
dinner 0.000253590031078
single 0.0002363811823
catching 9.69600617947e-05
energy 7.7985737833e-05
preview 0.0014468320295
monster 0.0
material 0.0
events 0.0
europe 0.0
holiday 0.000603753825698
emotional 0.000283306297129
affects 0.0
holding 0.0
survive 5.56487083525e-05
eating 8.19525216094e-05
outfit 0.000336519082518
missing 3.49747794224e-05
surprise 0.00150798531815
german 0.0
officially 3.82529990197e-05
french 4.21326133461e-05
global 0.0
follow 0.000494387659675
design 0.0
improvement 0.0
website 3.9969486078e-05
breaks 8.64191951173e-05
negative 0.0
official 0.000304739506901
jersey 0.000275592611463
france 4.54765451866e-05
lighter 0.0
thinks 3.82529990197e-05
hospital 0.0
jealous 0.0
successful 0.0
trending 0.0
leadership 0.0
showed 0.000123612821375
attended 0.0
circle 5.80513496953e-05
interested 0.0
effect 4.32095975587e-05
success 0.000222134689751
ladies 0.00148364644365
dreams 0.000430881608289
protect 0.0
arguing 0.0
essence 0.000247885875727
control 3.6622373036e-05
happier 0.0
likely 0.0
cancel 0.0
project 0.000111067344875
laying 0.0
lesson 4.56072296272e-05
fridays 9.66746142225e-05
invited 9.22705381816e-05
treating 6.23504839259e-05
allowing 0.0
remote 0.0
opening 0.000106929445692
alcohol 0.0
popular 4.48308661813e-05
pedestal 0.0
designing 0.0
followed 8.71532904702e-05
enjoyed 0.000116658419319
spectacular 0.0
recovered 0.0
length 0.0
matters 0.000129264482487
factor 0.0
england 0.0
shared 0.000359671865127
benefit 8.21801359714e-05
continues 0.000119908458234
fathers 0.000131620326806
kitchen 0.000844036836677
exciting 0.000117945505951
corner 4.68075758839e-05
spring 0.000125694116336
fallen 0.0
victoria 0.0
tornado 0.0
typical 0.0
continue 7.56752677156e-05
creative 4.62686260222e-05
excuse 4.7494037539e-05
female 0.000131099755325
closer 0.000123270203957
accent 7.16577042723e-05
beginning 0.000123612821375
sooner 0.0
everywhere 0.000117299845701
scenes 0.0003760324319
wishing 4.7494037539e-05
choices 5.30800007719e-05
unpredictable 0.0
become 3.42273375406e-05
photographs 0.0
spread 7.48549871071e-05
season 0.00281806862175
putting 0.0
annoying 0.0
quietly 0.0
extending 0.0
stance 0.0
sleepy 8.89010501304e-05
returns 0.0
bucket 0.000123401028823
condolences 0.0
register 0.0
flowers 0.000186397153868
define 0.0
somebody 0.000146735703326
chicks 0.0
covering 5.06989633552e-05
repeat 0.0
football 0.000164817095167
brothers 5.02429318059e-05
player 4.57384399622e-05
physical 0.0
series 0.000249502039947
pretend 0.0
fighting 7.46515190839e-05
atlanta 5.67356664798e-05
mexico 4.73555841494e-05
president 0.000182120806679
talking 0.000756020446548
america 0.000139521627131
greats 0.0
everybody 4.04131082174e-05
judgment 0.0
amount 0.0
houston 0.000111654740605
everyday 0.000139610962223
shooter 0.0
attitude 5.80513496953e-05
million 0.00017206298918
honesty 7.05135263744e-05
telling 3.72243419664e-05
pulled 0.0
attack 0.0
killed 0.000146092466276
horrible 0.0
norman 7.91525376171e-05
salute 0.000340385555155
jacksonville 0.0
barackobama 6.32377692687e-05
lilduval 0.0
liquor 0.0
american 0.000139145226012
realist 0.0
remain 4.61352690908e-05
innocent 6.27911085268e-05
pieces 0.0
taught 4.83373360339e-05
golden 4.41977254281e-05
straight 0.00018162752757
forgive 6.6300484286e-05
answers 0.00021125268264
product 5.2589679889e-05
smoking 0.0
created 7.88466275441e-05
record 0.000136909350162
weapon 0.0
bottom 4.39478719123e-05
arrangements 0.0
africa 0.000163274271917
committed 0.0
journey 0.000127820660365
brother 0.000359725374702
prayers 0.000410536798907
documentary 9.81142768557e-05
addition 5.71061900609e-05
honestly 0.0
velvet 0.0
country 0.000169299726056
speedy 0.0
dressing 0.00012738126766
employee 0.0
yoooooo 0.0
prayer 7.25429819353e-05
nominated 4.92030255807e-05
praying 0.0
insane 4.84800308973e-05
illest 0.0
shooting 0.000163905043219
cancer 0.000164817095167
australia 4.8623352993e-05
marijuana 0.0
deserve 0.000120571628047
legend 0.000393299265974
mother 0.000255661815983
murder 0.0
realest 0.0
powerful 0.000359725374702
attendance 0.0
wisdom 0.000110588589633
breaking 7.05190947666e-05
bothered 0.0
angeles 5.71061900609e-05
dollars 0.0
soldiers 0.0
performance 0.000720878622631
reading 6.95726130061e-05
videos 8.45010730561e-05
jordan 0.0
nobody 0.0
politics 0.0
paradise 0.0
blessing 0.000277632566913
coolest 0.0
strippers 0.000262530225706
charities 0.0
donate 0.00022098862714
bullshit 0.0
sample 0.0
rocking 0.000110588589633
bringing 0.000405039767525
deserves 0.0
hilarious 0.000608353708699
victim 0.0
stadium 0.0
funniest 0.0
heaven 5.19471817748e-05
ruined 0.0
honest 4.0749831254e-05
rolling 0.0
became 0.0
driver 0.0
breakfast 8.24085475834e-05
decision 0.0
counting 0.0
pressure 4.45761326648e-05
awareness 0.000140831150678
dearly 0.0
lastnight 0.0
facebook 0.000140277704014
basketball 0.0
campaign 7.60893100495e-05
twisted 0.0
defined 0.0
discover 0.000111654740605
comments 0.0
giveaway 0.000468429515319
bipolar 0.0
teenage 0.0
williams 5.22668482986e-05
custom 0.0
singer 0.000383516681215
future 0.000202612441972
randomly 0.0
angels 7.13678737038e-05
blessed 0.00134850379714
sister 0.000308507915424
stripper 0.0
dancing 0.000138007366099
reigns 0.0
voting 0.0
niggas 0.0
commercial 0.000134876949423
hating 0.0
boring 0.0
century 0.0
acting 9.38874337856e-05
submit 0.000680827997757
besides 0.0
hiding 0.0
periscope 0.0
breath 0.0
choosing 0.0
lawrence 0.0
instagram 0.00040928890668
detroit 6.08535648641e-05
cousin 6.43819471666e-05
honored 0.000500241997053
dedication 0.0
rockin 0.00196769473202
fucked 0.0
lionelrichie 0.0
talent 0.000480699102857
goodnight 0.0
stores 0.0
drinking 0.0
brazil 5.88277131412e-05
tattoo 6.88691918666e-05
consecutive 0.0
regardless 0.0
staring 0.0
commitment 5.42535982551e-05
seconds 8.76473189582e-05
ohhhhhh 0.0
listen 0.000338599452112
whatever 3.76319188267e-05
wherever 0.0
kicking 9.25372520444e-05
compete 0.000122973411235
lauderdale 0.0
homies 0.0
billion 0.0
belated 0.0
pirate 0.0
shoutout 0.000309578672474
grammy 0.000232111081467
guilty 0.0
ceiling 0.0
grammys 0.0
absolute 9.61076124204e-05
nelson 0.0
mandela 0.0
bigsean 0.0
handle 0.0
tonite 0.000148148096756
cocaine 0.0
promise 7.77722795458e-05
longest 0.0
generation 0.0
tuesday 0.000223346051798
struggle 0.000101704804682
workout 0.0
character 0.000131470978437
mirror 0.0
interview 0.000433114550616
buffalo 0.0
justin 0.0
insights 0.0
winning 0.000209848676534
oxygen 0.000246670739942
espnnfl 0.0
charlotte 0.0
accomplished 0.0
defense 0.0
gettin 0.00127945074135
arabia 0.0
lmfaooooo 0.0
writing 3.79409801385e-05
soccer 0.0
society 0.0
brooklyn 0.0
incredible 0.000318195228728
witcho 0.0
celebrity 5.35778077584e-05
minute 0.000110765904967
foreign 0.0
cherry 7.19501342527e-05
champs 0.0
murdered 0.0
evidence 4.8623352993e-05
android 0.0
sneaking 0.0
clearly 4.15493111307e-05
download 4.62686260222e-05
mixtape 0.0
central 0.0
washington 0.000129994464776
veterans 0.0
stronger 0.0
promised 0.0
marcus 0.0
zombie 0.0
throwing 0.0
security 0.0
fastest 0.0
fantasy 0.0
turning 0.000122928782414
ignore 0.0
fucking 0.0
tickets 0.000475688232867
collector 0.0
prizes 0.000139361989139
december 0.000181906180746
loyalty 7.47071891314e-05
return 7.24542945936e-05
escape 0.0
yassss 0.000126238918291
goddess 0.0
handsome 0.000210700941583
language 4.58701804415e-05
motion 0.0
gallery 0.0
movies 0.000245285692139
children 3.60313165324e-05
backpack 0.0
potentially 0.0
guardian 0.0
review 7.7985737833e-05
theaters 0.00104521491854
shhhhh 0.0
begins 3.92073810341e-05
closet 7.70253231501e-05
bodies 0.0
hahaha 5.86318823768e-05
produced 0.000102634199727
latest 0.000283606270807
banned 0.0
beyonce 0.000280934588778
perform 0.00083884583277
lionel 0.0
signed 0.000180645424471
princess 6.605440218e-05
ghetto 0.0
conditioning 0.0
charity 0.000228692199811
germany 0.0
ronaldo 0.0
married 9.69600617947e-05
millions 0.0
blessings 0.000340682471067
diamond 7.43890819812e-05
nephew 0.0
lights 0.0
howard 0.000120056118796
turned 0.0
buckle 0.0
relevant 0.0
performing 0.000473307119001
indian 0.0
includes 4.87673078594e-05
tricks 0.0
survivor 7.28434976503e-05
diamonds 0.0
collection 0.000224794915704
families 8.37960775571e-05
welcoming 0.0
select 0.0
announced 0.0
granted 0.0
decided 0.0
selfish 0.0
trailer 0.000544464501142
reppin 0.000109583078855
celebration 0.000184009821466
decades 5.2589679889e-05
ultimate 0.000189976150156
incase 0.0
downtown 0.0
seasoning 0.0
episode 0.000860198868474
mentality 0.0
touching 0.0
retweet 0.000249295866784
goodmorning 0.0
midnight 0.0
expectations 0.0
joining 0.000192840163114
reasons 7.6297321226e-05
released 0.0
release 3.5933840453e-05
models 6.32377692687e-05
popped 0.0
within 0.0
standing 7.48549871071e-05
valentines 0.0
justice 0.000176290237385
houses 0.0
purchase 0.0
dropped 0.0
conversations 0.0
seattle 0.0
strength 0.000136039147326
monica 7.91525376171e-05
incredibly 9.25372520444e-05
streets 0.0
private 0.0
inspirational 5.86318823768e-05
barbie 0.000408486134578
tables 0.0
affection 0.0
broski 0.0
pissing 0.0
designer 7.19501342527e-05
cooking 0.000112014033241
tattoos 0.0
direction 5.02429318059e-05
readyyyyy 0.0
exclusive 0.000194430698864
adrianalima 0.0
fashion 0.000378844673195
talkin 0.0026188609871
bitches 0.0
nailed 0.0
kitten 0.0
whomever 0.0
ruthless 0.0
teaching 4.99424160909e-05
chillin 0.000330514500969
philly 0.0
baddest 0.0
cheers 5.06989633552e-05
autumn 0.0
presents 5.35778077584e-05
flawless 8.38748555686e-05
unique 0.0
handed 0.0
taraji 0.0
victory 4.68075758839e-05
tribute 4.49589831409e-05
ballin 0.000111501615975
horror 0.0
females 0.0
catfish 0.0
action 3.51643481207e-05
wouldnt 0.0
recipient 0.0
whitney 9.36811625862e-05
continued 0.000112375316428
esther 0.000934870687689
letter 0.0
existence 0.0
papers 0.0
winter 0.0
sessions 0.0
replicating 0.0
foundation 0.0
syndrome 0.0
colorado 0.0
tremendous 6.19157344949e-05
public 0.0
cannot 0.000146092466276
brilliant 0.00016076217073
illustration 0.0
beware 0.0
globally 0.0
premieres 0.00077821322847
streaming 0.0
immigration 0.0
wrapped 0.000122973411235
studio 9.12144592543e-05
february 0.0
amazon 0.0
border 0.0
huffingtonpost 0.0
francis 0.0
january 0.0
relationships 0.00020501701742
tragic 5.92229388805e-05
secure 0.0
countries 0.0
episodes 0.000118049454361
broadcast 0.0
tickled 0.0
livestream 0.000224121567394
potential 0.0
education 0.000132217678039
famous 0.0
unknown 0.0
exists 0.0
orders 0.0
microsoft 0.0
ability 0.0
director 0.000204314247378
accessible 0.0
correction 0.0
william 5.54710200421e-05
editors 0.0
yellow 6.06452208692e-05
passionate 5.94223628921e-05
treatment 0.0
ambassador 0.000113103943545
thanking 0.0
streamed 0.0
lovers 0.000197430490209
wrinkled 0.0
bridge 0.0
magazine 0.000181906180746
sincere 0.0
quotes 5.39139522229e-05
result 0.0
destruction 0.0
edition 0.0
prince 0.000142482112617
indiana 0.0
editorial 0.0
emotion 0.0
mistakes 0.0
inspiring 0.000441977254281
counter 0.0
disappointing 0.0
edited 7.70253231501e-05
spotlight 0.000134100148356
saddest 0.0
production 0.000104533696597
header 0.0
itunes 0.0
guests 0.000667122298224
snakes 0.0
charging 0.0
arriving 0.0
mysteries 0.0
dangerous 0.0
typically 0.0
saving 0.0
universe 0.000105179359778
victims 0.0
receive 4.61352690908e-05
proceeds 0.0
crossed 0.0
received 0.0
limitations 0.0
studying 0.0
conflict 0.0
petition 0.000177074181541
milestones 0.0
outstanding 5.61876582142e-05
devastating 0.0
installment 0.000109583078855
signature 0.0
mistletoe 0.0
awards 0.000299085786696
shelves 0.0
smells 7.16577042723e-05
themed 0.0
sisters 0.000249401935704
banquet 0.0
danger 0.0
leading 8.30986222613e-05
member 3.84626828566e-05
dominant 0.0
distinguish 0.0
factories 0.0
distinct 0.0
distance 0.0
confirmed 0.0
behavior 0.0
collect 0.0
vanity 0.0
junior 0.0
communities 0.0
worldwide 0.0
canada 0.0
recognized 0.0
vessels 0.0
movement 0.000218499592208
segment 0.000130654213602
internal 0.0
information 0.0
easily 4.81952629365e-05
towards 0.0
october 9.14768799245e-05
belgium 0.0
european 0.0
caribbean 0.0
cities 0.0
arrives 0.0
extraordinary 0.0
exquisite 0.000103638352447
argentina 0.0
eliminate 7.91525376171e-05
genius 4.34538363356e-05
prepared 0.0
anthony 5.96230141362e-05
breakthrough 0.0
berlin 0.0
batman 0.0
upcoming 0.000185074504089
upgrade 0.0
singapore 0.0
crucial 0.0
scratch 7.02336471944e-05
collaboration 6.83390058066e-05
tested 0.0
acquire 0.0
honoring 0.000136154222062
holland 0.0
visually 0.0
neyocompound 0.000525060451413
inspire 5.56487083525e-05
ebonymag 0.000135105514037
spiketv 0.0
constant 0.0
sunset 0.0
tuning 0.000216735632083
gentleman 0.0
fulfilling 0.0
ayeeeee 0.0
stratford 0.0
poland 0.0
philippines 0.0
kickin 0.000672374738207
theweeknd 0.0
september 0.000366961443532
manchester 0.0
rickyrozay 0.0
remarkable 0.0
rihanna 0.0
disgusted 0.0
immoral 0.0
process 0.0
goosebumps 0.0
performances 0.0002565995079
strangers 0.0
emotions 0.000137738383733
judgement 0.0
comparing 0.0
thuggin 0.0
studios 0.0
jennifer 0.000130176471916
performer 8.4732950467e-05
literally 0.0
cardiff 0.0
soooooooo 0.0
crashed 0.0
cthagod 0.0
closed 0.0
justinbieber 0.000168602160512
complexmag 0.000210458382174
billboard 0.000137738383733
airing 0.000196703221634
albums 8.14282789856e-05
sweden 0.0
katyperry 8.89010501304e-05
treats 0.000557447956557
missouri 0.0
thefader 0.0
soundtrack 0.000146293617801
theellenshow 0.000209042983709
sweets 0.0
festival 4.80538062102e-05
wizkhalifa 0.0
amsterdam 0.0
backstage 0.00205896995994
collab 0.000176821458495
subscribed 0.0
joined 0.000120571628047
davidguetta 0.0
pushing 5.22668482986e-05
hopeful 0.0
romantic 7.80715858865e-05
mentions 0.0
lurking 0.0
ballad 0.0
teamed 0.0
exclusively 0.0
kingjames 0.0
hollyrpeete 0.00129849092273
sneakers 0.0
auction 6.5327106801e-05
sneaker 0.0
djkhaled 0.0
express 0.000101092486112
thegrammys 0.000612729201867
throughout 5.17885161368e-05
shining 0.00013210880436
excellence 0.0
thrown 0.0
zendaya 0.0
playin 0.000266703150391
applemusic 8.79276726454e-05
crunch 8.93988571169e-05
capitalofficial 0.0
filmed 0.0
toronto 0.0
naomicampbell 0.0
trvisxx 0.0
killin 8.43010802558e-05
trucks 0.0
stands 9.06927648837e-05
platinum 0.0
native 0.0
spotify 0.0
rocked 0.000205809063632
jumped 6.605440218e-05
leebruhgreene 0.0
leaning 0.0
featured 5.13170998634e-05
announce 0.000151763920554
senior 0.0
iamdiddy 0.000510607668222
haters 0.0
nothin 0.000430319905822
appreciation 0.000141591657562
defjamrecords 0.0
floating 0.0
superstars 0.0
shondarhimes 0.000826312405374
premiere 0.00250251938977
orchestral 0.0
makeup 0.000140467294389
touched 0.000183189746103
newest 0.000105504604585
designed 0.0
passes 0.0
angelasimmons 0.0
tidalhifi 0.0
vashtie 0.0
delivered 0.0
owning 0.0
producer 5.92229388805e-05
balmain 0.0
legendary 0.000418134786389
independence 0.0
mtvmusicuk 0.0
audition 8.65200127137e-05
debuts 7.50284303926e-05
footage 5.34110261965e-05
marshall 0.0
spends 0.0
playtime 0.0
completed 0.0
dishes 0.000578400376697
photographed 9.31140922188e-05
bubble 0.0
belong 0.0
tongue 6.99561499938e-05
observing 0.0
consistent 0.0
posing 0.0
heavens 0.0
contemporary 9.92844646784e-05
aiming 0.0
ceremony 0.0
brighter 0.000174903336434
rainbow 0.000200394873817
matthew 0.0
phenomenal 6.50882359578e-05
affected 0.000100788469484
rivers 8.02705576922e-05
presenting 0.0
competitive 0.0
eskimo 0.0
sibling 0.0
dakota 0.0
printed 7.34529681852e-05
heroes 9.95863810954e-05
deepest 0.0
describe 4.73555841494e-05
hollywood 0.000288322837261
baggage 0.0
terrifying 0.0
animation 0.0
nationwide 0.0
capital 0.0
quantity 0.0
nominations 0.000133596582545
mountains 0.0
mosaic 0.0
realise 0.0
overload 0.000102871123537
photographer 0.0
depression 7.07958287809e-05
donation 0.000110588589633
marvelous 0.0
madonna 0.0
sailed 0.0
terror 0.0
rinsed 0.0
disorder 9.60535340296e-05
polish 0.0
represents 0.0
touchdown 0.0
creates 0.0
oxford 0.0
stitched 0.0
morocco 0.0
thrill 9.25567158382e-05
balloons 0.0
teaming 0.0
latimes 0.0
kerrywashington 0.0
caution 0.0
camouflage 0.0
approaching 0.0
generous 0.0
installation 0.0
benefiting 0.0
basics 0.0
confirm 0.0
thrilling 0.0
photography 0.0
matches 0.0
boundaries 0.0
singles 0.0
laptop 0.0
obvious 0.0
darling 0.0
celebrations 0.0
chewbacca 0.0
underwater 0.0
naughty 8.14282789856e-05
advised 0.0
feelin 0.000347930052044
macaroni 0.0
perfection 0.0
picasso 0.0
recipe 0.00156577355371
radical 0.0
volcano 0.0
planted 0.0
products 0.0
directed 5.58273703024e-05
grabbed 0.0
frames 0.0
casual 0.0
scheming 0.0
twickenham 0.0
bbcnews 0.0
pledge 0.0
subtle 0.0
embarrassed 0.0
snatch 0.0
unveiling 0.0
kissed 0.0
arguments 0.0
settling 0.0
desperate 0.0
executive 0.0
humbled 6.99561499938e-05
courage 0.000107827904446
dropping 0.0
carried 0.0
behalf 0.0
hardest 0.0
marking 0.0
vision 0.0
intervention 0.0
records 0.0
deeply 0.0
mannered 0.0
texted 0.0
israeli 0.0
strongest 7.31468089004e-05
rogers 0.0
concept 0.0
allegiance 0.0
belongs 0.0
intended 0.0
bosses 0.0
purpose 0.0
hottest 0.000319597234346
campaigns 0.0
sunderland 0.0
teenager 0.0
runway 0.0
steven 0.0
guitar 0.000139361989139
donating 0.0
applause 0.0
finale 0.00114961945254
wasted 0.0
absent 0.0
awhile 0.0
fierce 0.000308101292601
sincerely 0.0
apology 0.0
climbing 0.0
unwilling 0.0
protesting 8.26286252424e-05
bikini 0.0
friendships 0.0
matching 0.0
wolves 0.0
mosque 0.0
venezuela 0.0
donates 0.0
generations 0.0
underestimate 0.0
pardon 0.0
stickers 0.0
mothers 6.08535648641e-05
deeper 0.0
nipple 0.0
perfume 0.0
noodle 0.0
melissa 0.0
forest 0.0
panties 0.0
jimmykimmel 8.02705576922e-05
everytime 0.0
underdog 9.92844646784e-05
shoulders 0.0
wrapping 0.000165257250485
bedroom 0.0
glitter 0.0
stocking 0.0
annoyed 0.0
behave 0.0
goodbye 0.0
fuckin 0.0
seller 0.0
joshgroban 0.0
samsungmobileus 0.0
influential 7.6683898834e-05
slicing 0.0
ryanseacrest 0.0
farmer 0.0
teaser 0.0
styled 0.0
casting 0.0
imitated 0.0
forgiveness 0.0
perezhilton 0.0
blacked 0.0
paparazzi 0.0001069016461
peoplemag 0.000787534637347
rolled 0.0
vanityfair 0.000265232187742
rockstar 0.0
thousand 0.0
minded 0.0
shines 0.0
sunglasses 0.0
auntie 0.000105229191087
magazines 0.0
waited 0.0
denmark 0.0
leather 8.10377866026e-05
wished 0.0
ladygaga 0.000166908261417
swallow 0.0
glblctzn 0.0
shakira 0.0
accessories 0.0
nbcthevoice 0.00031568757326
clique 0.0
premiering 0.000529763966314
loooooove 0.0
weareheremvmt 0.0
looooove 0.0
vmagazine 0.0
popcrush 0.0
studded 0.0
yassssss 0.0
yessss 0.000178797714234
undeniable 0.0
unicef 0.0
auditions 0.0
ellemagazine 0.000105229191087
yasssss 0.000133128804334
pharrell 0.000349806672868
greece 0.0
papermagazine 0.000115714658063
nowwwww 0.0
maccosmetics 0.0
macaidsfund 0.0
lipstick 0.000207276704894
meeeee 0.0
newsstands 0.000113540137495
unapologetically 0.0
insidebates 0.0
legalize 0.0
loooove 0.0
caradelevingne 0.0
allllll 0.0
badgalriri 0.0
itsjeremyscott 0.0
nickiminaj 0.000291923264927
nipples 0.0
booooo 0.0
trippy 0.0
mikewillmadeit 0.0
puttin 0.0
trappin 0.0
alexanderwangny 0.0
karllagerfeld 0.0
celebratin 0.0
lilyallen 0.0
fuuuuuck 0.0
chanel 0.0
rubber 0.0
angelou 0.000108664547009
misses 6.88691918666e-05
harpersbazaarus 0.0
timberlake 0.0
photoshopped 0.0
whatchu 0.0
rehearsals 0.000268196571351
couture 0.0
mutual 7.53528681367e-05
creeper 0.0
cuddling 0.0
celine 0.0
theamas 0.0
thexfactor 0.0
websterhall 0.0
presale 0.0
deluxe 0.0
styles 7.98936087047e-05
wetten 0.0
shittttttttttt 0.0
boredom 0.0
darealamberrose 0.0
noooooooo 0.0
itunesmusic 0.0
cbstweet 0.00016205996765
thermal 0.0
mariners 0.0
torres 0.0
thebeatles 0.0
blondies 0.0
greeting 0.0
thecut 0.0
geeked 0.0
outlet 0.0
americanexpress 0.000123272717575
gqmagazine 0.0
nicole 0.0
bumped 0.0
hangover 0.0
stockholm 0.0
casually 0.0
esquire 0.0
winnipeg 0.0
begging 0.0
showroom 0.0
sleeves 0.0
smelling 0.000106054696553
guaranteed 0.0
obsession 0.0
attendant 0.0
aussie 8.56142399062e-05
tbsveryfunny 0.0
reservation 0.0
mollymcnearney 0.0
dragging 0.0
rocnation 0.0
tapered 0.0
badass 0.0
endlessly 0.0
vampires 0.0
viewers 0.0
kanyewest 0.0
designers 0.0
billboards 0.0
backstreetboys 0.0
monteith 0.0
e_fashionpolice 0.000461597036093
epically 0.0
internationally 0.0
mighty 0.0
jcolenc 0.0
semifinals 0.0
brasilia 0.0
tailgating 0.0
photoshoot 0.0
smokin 0.0
ahhhhhh 0.0
missin 0.0
sweats 0.0
impacted 0.0
rodriguez 0.0
musician 0.0
merchandise 0.0
jurgen 0.0
athleteally 0.0
originals 0.0
número 0.0
zealand 0.0
hehehe 0.0
fearless 0.000155438176274
stadiums 0.0
thiago 0.0
suarez 0.0
cropped 0.0
uruguay 0.0
apparel 0.0
staircase 0.0
wintour 0.0
spotting 0.0
polygraph 0.0
twerking 0.000116858835961
shipment 0.0
muggin 0.0
takeoff 0.0
thailand 0.0
tomorr 0.0
googleplay 0.0
budweiser 0.0
miafestival 0.0
dotted 0.0
burning 5.74809726271e-05
surpass 0.0
betcha 0.0
onairwithryan 0.0
dreamers 0.0
brunomars 0.0
beyoncé 0.0
hellooo 0.0
subscribers 0.0
preorder 0.0
believer 9.42582701167e-05
fragrance 0.0
hellooooo 0.0
majesty 0.0
beatsbydre 0.0
finland 0.0
fearnecotton 0.0
debuted 0.0
queued 0.0
rhetorical 0.0
iranian 0.0
infamous 0.0
brutally 0.0
execution 0.0
palestinian 0.0
transplant 0.0
audacity 0.0
foreplay 0.0
priced 0.0
huntington 0.0
manger 0.0
weaker 0.0
justintrudeau 0.0
creeping 0.0
fittest 0.0
hoodie 0.0
mankind 0.0
westwood 0.000113540137495
holographic 0.0
throwin 0.000119275180067
eminem 0.0
ecstatic 0.0
enjoys 0.0
wussup 0.0
duplicated 0.0
crotch 0.0
congrat 0.0
huggin 0.0
implement 0.0
penalizing 0.0
gonzalez 0.0
bitchin 0.0
sephora 0.0
damien 0.0
demanded 0.0
negativity 9.79534339811e-05
alancarr 0.0
skillz 0.0
hopeless 0.0
beatle 0.0
cheesecake 0.0
almighty 0.0
whatcha 0.0
slumber 0.0
chimney 0.0
headlining 0.0
perplexed 0.0
googleplaymusic 0.0
thrills 0.0
rollers 0.0
bravotv 0.0
gifted 0.0
kekepalmer 0.00156063320502
styledtorock 0.0
yooouuu 0.0
shantay 0.000180306645726
yaaaas 0.0
bestest 0.0
freestyle 0.0
everrrrr 0.0
sweatband 0.0
podolski 0.0
collaborating 0.00011052823849
bestfriend 0.0
sittin 0.00011052823849
whaaaat 0.0
clockwork 0.0
warmest 0.0
temptation 0.0
spiritual 0.000193349228445
chameleon 0.0
customised 0.0
acrylic 0.0
grasshopper 0.0
engages 0.0
gourmet 0.0
rhythmic 0.0
petals 0.0
klinsmann 0.0
directv 0.0
popcrave 0.0
versailles 0.0
raddest 0.0
grandfather 0.0
persie 0.0
webster 0.0
knight 0.0
footwear 0.0
collectors 0.0
blackout 0.0
skylight 0.0
hammock 0.0
playhouse 0.0
revelers 0.0
executed 0.0
cincinnati 0.0
simultaneously 0.0
malawi 0.0
graduated 9.31140922188e-05
sickening 0.0
mueller 0.0
elonjames 0.0
skeletons 0.0
mittromney 0.0
connecticut 0.0
cumulative 0.0
racked 0.0
valera 0.0
thighs 0.0
timely 0.0
rapping 0.000104424070569
shrugs 0.0
enables 0.0
psychic 0.0
fernando 0.0
tourism 0.0
slaughtered 0.0
devotion 0.0
fantasies 0.0
parsons 0.0
stella 0.0
complainers 0.0
newsstand 0.0
voguemagazine 0.0
westfield 0.0
manolo 0.0
turquoise 0.000441967996
parisian 0.0
childs 0.0
swimsuit 0.0
bazaar 0.0
empress 0.000283751491823
brainstorm 0.0
tanning 0.0
desirable 0.0
feathers 0.0
antics 0.0
featurette 0.0
olivier 0.0
helloooo 0.0
hallow 0.0
connie 0.0
upbringing 0.0
privatize 0.0
bittersweet 0.0
outlaw 0.0
marcel 0.0
nowwww 0.0
hushed 0.0
threshold 0.0
floats 0.0
barbados 0.0
manuelcav 0.0
niggaz 0.0
prayin 0.0
drizzyxcole 0.0
homegirl 0.000504955673166
rappin 0.0
witcha 0.0
mufasa 0.0
dainternz 0.0
lololol 0.0
barclayscenter 0.0
bestbuy 0.0
blackouts 0.0
rivera 0.0
jakemiosge 0.0
givenchy 0.0
riccardo 0.0
grossed 0.0
guetta 0.0
spicewon 0.0
bitche 0.0
shawty 0.0
wednesdays 0.0
payday 0.0
jewelers 0.0
romero 0.0
acknowledging 0.0
calypso 0.0
blushes 0.0
medusa 0.0
keepers 0.0
futuristic 0.0
whereabouts 0.0
slayed 0.0
asvpxrocky 0.0
haaaaa 0.0
inezandvinoodh 0.0
calvinharris 0.0
_maxwell_ 0.000144485596367
bwerde 0.0
edward_enninful 0.0
haaaaaa 0.000147322665333
wisest 0.0
unconditionally 0.0
drmayaangelou 0.0003241199353
blackgirlsrock 0.0
submissive 0.0
rearrange 0.0
attuned 0.0
abrams 0.0
awaken 0.0
climbs 0.0
jacking 0.0
seventy 0.0
snatching 0.0
manoloblahnik 0.0
nicolerichie 0.0
openingceremony 0.0
whiteley 0.0
supermodel 0.000144485596367
the_real_iman 0.0
minogue 0.0
tmagazine 0.0
baaaaack 0.0
yeessss 0.0
wooooo 0.0
epicness 0.0
takawiraa 0.0
joplin 0.0
uncensored 0.0
unspeakable 0.0
rewrites 0.0
askdrruth 0.0
glozell 0.0
tardiness 0.0
runways 0.0
colombian 0.0
unapologetic 0.0
zac_posen 0.0
rumoured 0.0
omgggg 0.0
futbol 0.0
biatch 0.0
barrington 0.0
catwalk 0.0
sledgehammer 0.0
clemente 0.0
dollaz 0.0
mariah 0.0
granddad 0.0
iyanlavanzant 0.00116960313548
hustler 0.0
coletteparis 0.0
flexin 0.0
mistress 0.0
exceeds 0.0
sweeeeeet 0.0
stancesocks 0.0
serviced 0.0
issssss 0.0
lipglass 0.0
externally 0.0
complex_uk 0.0
prideful 0.0
dash_radio 0.0
holidaze 0.0
mawnin 0.0
champagnepapi 0.0
fashawn 0.0
raided 0.0
ahhhhhhhh 0.0
soulmate 0.0
motorbikes 0.0
britishvogue 0.0
gnlstudios 0.0
robinsoncano 0.0
debuting 0.0
cc_sabathia 0.0
colorways 0.0
hit_boy 0.0
_spyda 0.0
phresh 0.0
dominates 0.0
ratchet 0.0
rupaul 0.0022315069185
cockpit 0.0
kimmiekyees 0.0
horoscope 0.0
catwalks 0.0
paramedic 0.0
fhollande 0.0
sexiness 0.0
hereeee 0.0
changers 0.0
tiptoes 0.0
revved 0.0
meditative 0.0
fauntleroy 0.0
mbsings 0.0
disrespectfully 0.0
traumatized 0.0
outdid 0.0
elvispresley 0.0
toupee 0.0
josephine 0.0
discography 0.0
mariasharapova 0.0
chinchilla 0.0
skylar 0.0
illestbaba 0.0
georgiamjagger 0.0
pierced 0.0
hardrock 0.0
snorkeling 0.0
thrilla 0.0
gunpoint 0.0
sleeved 0.0
stevestoute 0.0
kiiiiiiiiiiiiinnnngggggg 0.0
lanvin 0.0
chateau 0.0
lizzs_lockeroom 0.0
prophets 0.0
müller 0.0
lullaby 0.0
samersum 0.0
disassembled 0.0
anniversaries 0.0
hayden_williams 0.0
rousteing 0.0
slayage 0.0
raunchy 0.0
benzema 0.0
fuckery 0.0
hellooooooo 0.0
juliagillard 0.0
congeniality 0.0
gunned 0.0
condense 0.0
missjillscott 0.00016205996765
yussss 0.0
chopard 0.0
woodbridge 0.0
orousteing 0.0
dubsmash 0.0
alicialquarles 0.0
worldmcqueen 0.0
whateva 0.0
elysées 0.0
jennnrosales 0.0
xstrology 0.0
looool 0.0
tippin 0.0
marleys 0.0
dwanimation 0.0
dreamworks 0.0
yaself 0.0
anothermagazine 0.0
claralionelfdn 0.0
mchingi 0.0
rihannareplay 0.0
awtguide 0.0
ryannavy_rih 0.0
rihquest 0.0
gpforeducation 0.0
valliniandre 0.0
globalfund 0.0
rhenna 0.0
millymaefenty 0.0
peetes 0.0
pandagunda 0.0
floriamamaroma 0.0
adoringrihanna 0.0
ymcofficial 0.0
rihanti_ 0.0
mcdean 0.0
rihannadaily 0.0
stancemuse 0.0
muhtean 0.0
rihdefine 0.0
officialdonnie 0.0
stunnafenty 0.0
perfumesbyriri 0.0
badgal 0.0
shaninamshaik 0.0
reblrihanna 0.0
elliscole_ 0.0
itskaitbh 0.0
harpersbazaarcn 0.0
yusefhairnyc 0.0
mylahmorales 0.0
teamofrihanna 0.0
muhphucka 0.0
harpersbazaar 0.0
rihrihfreak 0.0
thenbacentral 0.0
roversi 0.0
suchaf_cknlady 0.0
fourfiveseconds 0.0
petergrayhair 0.0
wkorea 0.0
dennisleupold 0.0
ursulastephen 0.0
ozzysalvatierra 0.0
ciarrap 0.0
rihannaargntina 0.0
rihearsal 0.0
sremmurd 0.0
id_magazine 0.0
heauxm 0.0
rihpost 0.0
jrgseul 0.0
bitchez 0.0
underst_navy 0.0
sonitaalex 0.0
chris_walden 0.0
danachanel 0.0
wednesdayz 0.0
jimmyfenty 0.0
houseoffraser 0.0
skeete 0.0
_kailssss 0.0
muhphuckas 0.0
phuckin 0.0
rastafarih 0.0
obviiii 0.0
etherihalvibe 0.0
rorreyfenty 0.0
noellaalstrom 0.0
rihturn 0.0
tellar 0.0
esquireuk 0.0
huffpoststyle 0.0
tyronmachhausen 0.0
melottenberg 0.0
paolakudacki 0.0
tompecheuxmu 0.0
lgoldstein_ltd 0.0
phucking 0.0
kudacki 0.0
hellurrr 0.0
tom_ford 0.0
neakah 0.0
creepah 0.0
pahtna 0.0
wontonsan 0.0
cappadonna 0.0
phuckmarqy 0.0
elfies 0.0
starstunning 0.0
ohnana 0.0
tushmagazine 0.0
macxriri 0.0
rickrubin 0.0
findataui 0.0
tristate 0.0
distoyb 0.0
kabukimagicnyc 0.0
yerdme_cmb 0.0
hittas 0.0
evan_erogers 0.0
jessieriri 0.0
unfourgettable 0.0
meeeaan 0.0
shweinsteiger 0.0
goooooooaaaaallllllll 0.0
goooal 0.0
braaaaaaaaaaaaaaaaaa 0.0
asapkoff 0.0
belgiuuuuummm 0.0
druchaos 0.0
cuadrado 0.0
murdaaahhh 0.0
colombiaaaa 0.0
karafenty 0.0
dlsturbla 0.0
braaaaaaaaaaaaaaaaaaaaaa 0.0
abouuuutttt 0.0
takecarerihanna 0.0
nathannavy 0.0
theworidcup 0.0
goooooaaaaaaallllll 0.0
bazaararabia 0.0
bigshitxtalker 0.0
__tatijxo 0.0
lhhatl 0.0
braaaaaaaaaaaa 0.0
rihannanavyrd 0.0
gooooooaaaalllll 0.0
triscastellano 0.0
iiiiiiiiiiiiiiiiiiii 0.0
eatmydaisy 0.0
leggooooal 0.0
yaaaaaassssssss 0.0
prettygirl_sp 0.0
ooohhhhhh 0.0
shiiiiitttt 0.0
roooonnnnnnnneeeeeeeyyyyyy 0.0
muslera 0.0
tadpole 0.0
giusichrisriri 0.0
_xomec 0.0
blockedt 0.0
ooooohhhh 0.0
goooooooaaaaaaalllllllllllllllll 0.0
stefansaxon 0.0
rihannademos 0.0
dragonflycici 0.0
chririh 0.0
rihluminati 0.0
goaaaalllll 0.0
twinzies 0.0
mantlers 0.0
suchaf__cknlady 0.0
glamour_robyn 0.0
adamselman 0.0
sephorafrance 0.0
thefashionlaw 0.0
scout_willis 0.0
quietude 0.0
theblackvoice 0.0
weeeed 0.0
kiiiiss 0.0
dooooon 0.0
miiiiss 0.0
malinsworld 0.0
prompics 0.0
itsalldonn 0.0
goooorrrrrrlllllll 0.0
thenewdaily_ 0.0
wiggin 0.0
stevesoboroff 0.0
pivot_tv 0.0
lapolicefdtn 0.0
scarificing 0.0
whooooose 0.0
sambapologetic 0.0
bellaisevil 0.0
sta_schemin 0.0
i_aim_tyga 0.0
fameisloud 0.0
garcon_rebelle 0.0
itsbreezybiotch 0.0
phaedra 0.0
vivala_stephyy 0.0
_bossmadeg 0.0
kontomitrosnick 0.0
sorrenti 0.0
whenevahhh 0.0
teamvivanco 0.0
heifers 0.0
stevenkolb 0.0
jeremy_brossard 0.0
jordanbrossard 0.0
quilted 0.0
piscesareus 0.0
plumsykes 0.0
cedellamarley 0.0
offish 0.0
urprise 0.0
i_love_riri 0.0
rihannadiva 0.0
javiroo 0.0
frihday 0.0
cuntlifex 0.0
_chris_rated_ 0.0
yewmadcunt 0.0
erinwasson 0.0
balmainparis 0.0
_yadim 0.0
muthaphucka 0.0
onnneeee 0.0
liiiiieeesss 0.0
gautier 0.0
mtvstarsvotes 0.0
zinloves 0.0
chloefrahm 0.0
uprising_create 0.0
uprising_darren 0.0
jonnycrave 0.0
jeff_uprising 0.0
kareemfenty 0.0
daily_rihnavy 0.0
unapologeticunt 0.0
rorrey 0.0
foreverrr 0.0
guyanese 0.0
annndd 0.0
historih 0.0
grandfadda 0.0
arleta 0.0
loreleicakes 0.0
river_island 0.0
finallyyyy 0.0
rodin_thinker 0.0
mrs_toyac 0.0
cheersrihrih 0.0
bangbang 0.0
faiz_fenty 0.0
leandra 0.0
noella 0.0
rasshoooolllleee 0.0
luminati 0.0
inezvinoodh 0.0
visvim 0.0
realne 0.0
sarahfrancus 0.0
tadium 0.0
trapstar 0.0
afrihca 0.0
rihrobyn 0.0
cbsgirlfriend 0.0
shyronnie_rn 0.0
mariamfenty_ 0.0
mizzpmf 0.0
whooooaaaaa 0.0
camkaipink 0.0
yasssssssssssssssssssss 0.0
lunaxskye 0.0
yaaaaasssssss 0.0
niggggaaaaaaa 0.0
breeziechillin 0.0
betologetic 0.0
isusjsjdha 0.0
awffffff 0.0
mcdessikins 0.0
skreets 0.0
pieceofria 0.0
loooool 0.0
craaaazzyyy 0.0
lolarae_xoxo 0.0
stayflysamir 0.0
shotta 0.0
tamarawray 0.0
lauraleehickock 0.0
heauxz 0.0
rihannanavyit 0.0
manilla 0.0
ronnyerickson 0.0
nikofenty 0.0
vincehaycock 0.0
zodiacfacts 0.0
naomiiknows 0.0
wrizzap 0.0
muuuch 0.0
hongkong 0.0
jetlaaaaaagggged 0.0
rasshole 0.0
februharry 0.0
kaşara 0.0
çıkmadı 0.0
dicked 0.0
vinoodh 0.0
rihannasblog 0.0
urihannafansite 0.0
teejay 0.0
stupse 0.0
clapbacks 0.0
niggaaaazzzz 0.0
bwaaahaaaaa 0.0
willheardmusic 0.0
kristennoelgipson 0.0
rsvpgallery 0.0
backout 0.0
bwahhaaa 0.0
errwhurr 0.0
niiiiggaz 0.0
fridayz 0.0
debbycoda 0.0
cabbing 0.0
dolly_cohen 0.0
cowboyz 0.0
friendz 0.0
phucker 0.0
charliebymz 0.0
lynn_ban 0.0
inwardly 0.0
ravening 0.0
whyyyyyyyyyyyy 0.0
thatdamnlala 0.0
adamsellman 0.0
scottland 0.0
kingspleasure 0.0
mikkyekko 0.0
rihannanavide 0.0
saskoktz 0.0
phlawless 0.0
givenchydonc 0.0
mlle_yulia 0.0
oxxoxo 0.0
foreva_rn_ladii 0.0
skinhead 0.0
killaz 0.0
yennifer 0.0
bestofpisces 0.0
smegma 0.0
morganemiller_ 0.0
aa_davis 0.0
beenie 0.0
nickeystaar 0.0
frihannamorocco 0.0
thinketh 0.0
guitarists 0.0
jordriri 0.0
badgalclaudia 0.0
hausofnath 0.0
_abirogerson 0.0
tommykane 0.0
livenationuk 0.0
millenniu 0.0
juuuussttt 0.0
helllooooo 0.0
miiiine 0.0
chaneliman 0.0
blushy 0.0
laetitiacrahay 0.0
rihmix 0.0
dariuscash 0.0
joshkillss 0.0
drunk_cockiness 0.0
firebombfenty 0.0
mooky_mcnasty 0.0
defpenradio 0.0
iamrici 0.0
letcha 0.0
niggerish 0.0
mawazine 0.0
thefashionaddicts 0.0
phierce 0.0
errwhere 0.0
jocking 0.0
niggaaa 0.0
tami_black 0.0
homienadz 0.0
religiosity 0.0
joycemeyer 0.0
brooooklyyyyn 0.0
miiiiine 0.0
dilekkeysan 0.0
marykatrantzou 0.0
allaboutpisces 0.0
jfisherjewelry 0.0
oddhangover 0.0
diggins 0.0
phyliciaghee 0.0
bawsin 0.0
howeverrrrr 0.0
channyyxoxo 0.0
dowwwwnnnnn 0.0
thugbitch 0.0
rihanas 0.0
miiiiiinnneee 0.0
rihwrite 0.0
janiseeaileen 0.0
ratchify 0.0
eeeeeemmmmmm 0.0
pannies 0.0
wooooiiiiiiiiiii 0.0
muhphuckers 0.0
bashment 0.0
whaaaaattttt 0.0
liiifee 0.0
covery 0.0
leeeeaaaavvveeee 0.0
haarrrrrddd 0.0
ismashedriri 0.0
christabslg 0.0
reallll 0.0
peoplez 0.0
wooiiiiii 0.0
slackness 0.0
kevfenty 0.0
woooiii 0.0
tatiana_xo 0.0
fentynavysalute 0.0
ratchettt 0.0
rachael_deanna 0.0
lifeeeeee 0.0
bxdcfjcf 0.0
killled 0.0
asdfghjkjhgtfrdedfghjnhbgvfc 0.0
troy_fenty 0.0
_marrymerihanna 0.0
jkbwdhbwh 0.0
_noellaa 0.0
hunneds 0.0
thekingfly 0.0
dooown 0.0
woooiiiii 0.0
phucked 0.0
kickstand_ohb 0.0
acedemy 0.0
mistercap 0.0
gallest 0.0
sinsofmyfather_ 0.0
dwayneofficial 0.0
_revofev 0.0
joefenty 0.0
thegodlight 0.0
molestmerihanna 0.0
rihannanavyeu 0.0
melina 0.0
terryrichardsonstudio 0.0
_sexxtroversy 0.0
neuroticbxtch 0.0
getcho 0.0
moneyyy 0.0
idillionaire 0.0
yaaaaaaas 0.0
noxx_onite 0.0
phonefancy 0.0
chiefin 0.0
londonfashionwk 0.0
_mayor_ 0.0
rihannanow 0.0
jamrock 0.0
rihannastats 0.0
jenesismagazine 0.0
napmed 0.0
hausofbeyhive_ 0.0
probabily 0.0
badgalelly 0.0
ladylivja 0.0
rihannacomics 0.0
__glitterdick 0.0
chelsey_ba 0.0
stashbox 0.0
thuglife 0.0
highladayz 0.0
brrrap 0.0
kalifah 0.0
marylin 0.0
muthafucker 0.0
stylenetwork 0.0
bvalgari 0.0
oooonly 0.0
fuckyopictures 0.0
amplifydot 0.0
trappat 0.0
soumsluvriri 0.0
ibebossedup 0.0
holerringg 0.0
rihskillerdoll 0.0
equaled 0.0
chefette 0.0
rezilientkas 0.0
blastinggggg 0.0
dammnnn 0.0
lifeandtimes 0.0
hausofjazzy 0.0
kaykispeaks 0.0
condesa 0.0
awaaayyy 0.0
flawle 0.0
mandler 0.0
loudies 0.0
dulcattis 0.0
killaaa 0.0
_loveforrihanna 0.0
yesimkayla 0.0
rollingnostone 0.0
richkunt 0.0
yasssssss 0.0
eriricccccc 0.0
cuntmeout 0.0
sashay 0.0
condragulations 0.0
neverrr 0.0
phasetoo 0.0
fooooorde 0.0
ruunavi 0.0
rihtweet 0.0
ishoobernator 0.0
thirstiest 0.0
j_dimps 0.0
deecosey 0.0
itsrihannasnavy 0.0
muthaphuckin 0.0
