awesome 0.00127483007249
christmas 0.000977980723531
trying 0.000382437900824
launch 0.00191178625115
moment 0.00017746399355
wonderful 0.000660900897271
seeing 0.000483556743633
hanging 0.000185427884123
sounds 0.00106714319299
contacts 7.48639944972e-05
anybody 4.51159484728e-05
worked 0.000445394968945
direct 8.33158495169e-05
others 0.000221495594645
currently 0.000139980981813
better 0.00113500995108
please 0.000206483952726
social 0.000329553596793
anxiety 6.37006653307e-05
around 0.00081487893924
people 0.00142603814367
morning 0.000409641850494
damage 4.79714547008e-05
everything 0.000146300660891
present 3.33157707159e-05
though 0.00170620191538
friend 0.000264764700571
watched 0.000165225224318
beautiful 0.000391831569175
demanding 0.000194248587265
anything 0.000267635144349
tagged 8.46562851851e-05
helped 6.41467771407e-05
thinking 0.000298980277267
finally 0.000298980277267
caught 9.88660790379e-05
believe 0.000496083280237
already 0.00110889203818
couple 0.000223906507219
launches 0.000797275400791
chance 0.000146300660891
annual 0.000118013240727
quickly 0.00048989589947
growing 0.000982560689821
probably 0.000793198761458
changed 0.000313018400752
history 0.000482254238984
center 0.000805373439735
museum 0.000457247856572
behind 0.000145514096293
screaming 0.000108259941568
pretty 0.00128561519225
really 0.00169708766633
possibly 0.000122122632511
little 0.00131316162416
happiest 0.000247805886767
earlier 0.000102710468637
forget 0.000118628701736
someone 0.000383470197919
things 0.00081487893924
available 9.1157387675e-05
perfect 0.000335146804806
different 0.000267635144349
person 0.000293391086696
watching 0.000323601300698
exhibit 0.00214080704261
passed 0.000142701903473
prefer 8.83584503064e-05
minutes 6.04445929541e-05
travel 0.000178869813302
daughter 7.07639991475e-05
positive 6.94170317013e-05
outside 0.000278688487953
looking 0.000466901910811
forward 0.000390776236133
raising 0.000208894672882
impression 5.37615757476e-05
wheels 0.000121526873127
favorite 0.000305616903016
instead 0.000131821438717
appreciate 0.000137698334618
couldn 0.000396082587498
remember 0.000438901982672
impressive 0.000120731233218
vintage 0.000466768615061
holidays 0.000250673607458
friends 0.000205928100444
impossible 7.95744404661e-05
everyone 0.000292601321781
always 0.000582056385171
limited 0.000230754626996
months 0.000794305694954
moving 6.29430725902e-05
meeting 0.000149893784097
answer 8.99362704581e-05
together 0.000352069304036
inside 9.1403674038e-05
upstairs 0.000367277805686
missed 0.000237257403472
active 0.000141255017672
eventually 0.000159652745937
longer 0.000405271838914
enough 0.000325350654842
building 0.000230061650182
enjoying 0.000143095850641
london 6.96075576931e-05
posting 8.78340716379e-05
recent 7.73525814514e-05
amazing 0.000525264649663
attention 0.000231945050975
tomorrow 0.000526682379206
whenever 4.81218572023e-05
feeling 0.000245062242252
excited 0.000152751095184
understand 0.000191400941951
following 0.000122862305637
asleep 0.000377616332508
learning 3.62714588647e-05
evening 6.69953278567e-05
special 0.000235981660258
secret 6.55536284317e-05
across 0.000130751802306
surprised 6.97987093871e-05
candles 8.07040774777e-05
sophia 0.000288579261644
version 6.46703696237e-05
rather 9.8597850078e-05
showing 3.12173615855e-05
saying 0.00018330131422
thoughts 3.10491367283e-05
exactly 0.000284780050258
getting 0.00079002356881
nothing 0.000234081057425
tweets 0.000193485944819
photos 0.000106145998721
looked 0.000132900994618
difficult 0.000154269980052
office 3.16422278065e-05
brought 6.48459523768e-05
biggest 9.04226698096e-05
thrilled 8.91539839456e-05
entire 3.25110331973e-05
something 0.000555942511385
closing 4.35281282152e-05
anyone 0.00026547936779
taking 0.000292601321781
interesting 0.000651987149021
original 0.000103840690993
flying 3.67776076094e-05
sometimes 0.000354724232169
yesterday 0.000147488537661
serious 3.13018400752e-05
digital 8.67992774765e-05
wearing 0.000411966622159
british 4.26403916982e-05
either 0.000191400941951
second 8.84931225967e-05
checking 3.79231258284e-05
indeed 0.000598510224906
island 0.00020708702111
hearing 6.53759011531e-05
staying 7.91232317064e-05
another 0.000291813694257
compare 5.339778577e-05
bummer 0.000418083941414
clothes 0.00053435563903
landing 0.00010679557154
weekend 8.8971526302e-05
delivery 5.35791123332e-05
secretive 0.000104304432992
anyway 0.000529439463163
recognize 0.000104665859389
working 0.000672983040097
bigger 0.00010299165554
laughing 3.47085158506e-05
wanted 0.000118309329034
clothing 0.000312203031092
grateful 3.82435270747e-05
friendship 5.72581139401e-05
family 0.000643722907919
listening 3.20733885704e-05
stream 4.02437444061e-05
double 9.94050218466e-05
especially 0.000129691904754
shaking 6.78454987456e-05
waiting 5.99575136387e-05
definitely 0.000511786302214
account 0.00010299165554
completely 0.000173542579253
thought 0.000383470197919
possible 0.000123861550202
simple 6.8100531413e-05
professional 8.67992774765e-05
members 0.000110639707003
business 3.15567569102e-05
absolutely 0.000219112880526
sending 0.000135829734674
introducing 0.000140819563114
congrats 0.000706458257411
community 0.000144285754804
keeper 8.07040774777e-05
greatest 3.19866438884e-05
selfie 4.37868216453e-05
pasadena 0.000101342269635
posted 3.46135636644e-05
saturday 9.26456360581e-05
designs 0.00015696281696
broken 0.000108814376594
chicago 7.95744404661e-05
glimpse 0.000132794597054
actually 0.000239830054555
myself 0.000115053348534
pajamas 9.46610061539e-05
school 0.000237897906088
throwback 6.24406062183e-05
thursday 0.000125207360301
selling 4.0014587165e-05
talented 7.69182089988e-05
celebrate 0.000161675924059
celebrating 6.97987093871e-05
anniversary 0.000141527998295
contest 3.81363342491e-05
experiences 5.4503088962e-05
students 3.87854946784e-05
figure 0.00010498573636
featuring 0.000114088604377
inspired 3.53819995737e-05
breeze 8.74300801215e-05
sitting 3.30450448636e-05
playing 8.9211714783e-05
street 0.000129691904754
points 7.50026769127e-05
advice 0.00010299165554
memory 4.04747203745e-05
forever 0.000132180179454
imagine 0.000293394217059
problem 0.000408025338496
played 3.26879505766e-05
keeping 6.53759011531e-05
lovely 0.000294220860875
dressed 0.000188923539957
chinese 9.44617699787e-05
sunshine 0.000121526873127
afternoon 0.000206547501927
notice 7.93483988674e-05
difference 9.59599316652e-05
suppose 0.000337463854898
letting 3.59719417861e-05
system 7.31481811229e-05
mutant 0.00011267679235
bathroom 0.00034354868364
almost 0.000409641850494
details 6.39732877768e-05
experience 0.000122200876147
luckily 0.0001406476621
viewed 0.000210006748995
living 0.000122200876147
weather 7.47936797815e-05
bright 0.000123536565563
launching 0.000143018884891
colors 0.000112487951633
monday 3.05502190367e-05
walked 4.40478352268e-05
pinned 8.8018035861e-05
wanting 9.21676547732e-05
tweeting 0.000100219725653
forgot 7.33513423711e-05
gorgeous 0.000190099421441
herself 7.03238310502e-05
happens 6.06078627344e-05
learned 3.38648968043e-05
congratulations 6.44953149398e-05
raised 3.82435270747e-05
mission 7.93483988674e-05
smelled 0.000104304432992
unforgettable 6.78454987456e-05
forgotten 8.70562564305e-05
trouble 0.000144685107775
channel 7.1154642483e-05
fantastic 3.45189202664e-05
loving 6.90378405327e-05
hardly 0.00054315931923
dining 7.48639944972e-05
complete 0.000100767115896
daniel 0.000102948754381
rewarding 0.000265854345749
spirit 3.79231258284e-05
finding 0.000107321887981
stories 6.32844556129e-05
including 3.25110331973e-05
somewhere 0.000152545336996
conversation 0.000142309284966
disrespectful 8.57342906199e-05
making 0.000145906847129
expect 7.01829064158e-05
polite 6.96841829005e-05
brings 7.05696562674e-05
anytime 0.000192487428809
needed 9.36520847566e-05
seriously 3.23351848118e-05
modern 4.21450126014e-05
welcome 0.000236618658067
moments 7.27439736755e-05
jacket 0.000103288146821
halloween 8.78340716379e-05
costume 0.000115768010287
totally 0.000202635919457
flight 0.000245640172455
attached 0.00019751283503
finished 6.99904909066e-05
strong 0.000150704449683
message 6.20982734567e-05
coming 0.000175088216554
temporary 0.000189570229374
challenge 3.20733885704e-05
achievement 5.4503088962e-05
unlocked 8.21240088071e-05
happen 0.000178905131707
celebrated 5.70524394497e-05
giving 2.95773322584e-05
excellent 3.81363342491e-05
common 7.23425538877e-05
pressed 8.02457558913e-05
company 0.000231945050975
change 0.000321861453959
singing 3.91155869044e-05
silver 4.78218254804e-05
august 4.12978852891e-05
crying 0.00013825148216
happened 3.07986087601e-05
parking 5.74652523181e-05
demand 3.8567495013e-05
sacrifice 0.000245881689618
personal 9.54417790596e-05
beyond 6.53759011531e-05
question 2.98980277267e-05
chicken 0.000126067422702
position 7.98013633208e-05
losing 3.6071438701e-05
respect 6.39732877768e-05
caption 6.19514716917e-05
shouldn 0.000174976227267
career 6.79148673369e-05
reason 3.07986087601e-05
explore 0.000116191325888
glamorous 0.000176036071722
reality 3.48037788465e-05
burned 6.87503224818e-05
without 0.000206483952726
problems 0.000180357193505
countdown 5.3217581979e-05
online 3.14715362951e-05
animals 4.88857545816e-05
buying 7.93483988674e-05
pictures 0.000110947673664
underneath 0.000166221279076
camera 7.64870541494e-05
checked 8.30748320358e-05
heading 3.48037788465e-05
complex 0.000192487428809
sunday 9.06668894311e-05
nights 4.31443492131e-05
traffic 4.3917035819e-05
through 0.00016424123974
changing 3.58727838733e-05
diapers 0.00030125487902
convinced 5.18147649219e-05
capture 5.89580317939e-05
random 8.52807833963e-05
recorded 4.44437980595e-05
november 0.000117679364764
number 8.99362704581e-05
stupid 0.000122122632511
grandparents 8.02457558913e-05
recording 4.69398543715e-05
chocolate 4.48452226205e-05
unless 7.2142877402e-05
calling 3.07155764092e-05
mermaid 9.61930872146e-05
levels 4.4980270748e-05
package 0.000105015443854
option 8.47832962779e-05
knowing 8.0949440749e-05
actual 3.88951099465e-05
friday 8.8971526302e-05
achieve 4.90409699855e-05
winner 3.25110331973e-05
becomes 4.1417404222e-05
directly 4.82730410189e-05
quality 3.78171045117e-05
father 3.33157707159e-05
wishes 3.81363342491e-05
themselves 5.11379246658e-05
asking 3.09653875504e-05
usually 0.00011701541892
period 4.36571874922e-05
resist 0.000110914730498
collections 9.46610061539e-05
summer 6.31135138204e-05
bracelet 0.000250850364849
reminded 5.08053173969e-05
dinner 3.23351848118e-05
single 9.04226698096e-05
catching 8.65434281041e-05
energy 3.48037788465e-05
preview 4.16579247585e-05
monster 0.000100952936965
material 9.99801181333e-05
events 0.000145085835459
europe 4.04747203745e-05
holiday 3.36807011308e-05
emotional 4.21450126014e-05
affects 6.44837480697e-05
holding 3.46135636644e-05
survive 4.96702446476e-05
eating 7.31481811229e-05
outfit 0.000180219656328
missing 3.12173615855e-05
surprise 0.000156509200376
german 5.03134270519e-05
officially 0.000102430184423
french 3.76062135942e-05
global 3.91155869044e-05
follow 8.82549001903e-05
design 4.41792251532e-05
improvement 6.61161096799e-05
website 3.56754758683e-05
breaks 3.8567495013e-05
negative 0.000127921175095
official 6.04445929541e-05
jersey 4.91970176477e-05
france 4.0590899448e-05
lighter 8.26131433338e-05
thinks 3.41433948076e-05
hospital 4.26403916982e-05
jealous 4.91970176477e-05
successful 4.0014587165e-05
trending 4.84250143108e-05
leadership 4.580399043e-05
showed 3.67776076094e-05
attended 5.87400321284e-05
circle 5.18147649219e-05
interested 0.000112818640783
effect 3.8567495013e-05
success 3.30450448636e-05
ladies 4.01289402365e-05
dreams 3.84591044994e-05
protect 3.75013384564e-05
arguing 5.85236532933e-05
essence 7.37516494486e-05
control 3.26879505766e-05
happier 5.339778577e-05
likely 3.91155869044e-05
cancel 6.12328470505e-05
project 3.30450448636e-05
laying 6.05315403623e-05
lesson 4.07075441703e-05
fridays 8.62886467954e-05
invited 8.23577103752e-05
treating 5.56520336623e-05
allowing 5.13056647224e-05
remote 6.42203723422e-05
opening 6.36278527064e-05
alcohol 6.81439918162e-05
popular 4.0014587165e-05
pedestal 0.000149135726596
designing 8.02457558913e-05
followed 3.88951099465e-05
enjoyed 3.47085158506e-05
spectacular 5.339778577e-05
recovered 7.37516494486e-05
length 5.76738755718e-05
matters 3.84591044994e-05
factor 4.82730410189e-05
england 4.27655653073e-05
shared 8.0257880473e-05
benefit 3.66756711856e-05
continues 3.56754758683e-05
fathers 5.87400321284e-05
kitchen 4.70850058906e-05
exciting 3.50914532079e-05
corner 4.17789345763e-05
spring 3.73968398907e-05
fallen 5.14743771906e-05
victoria 6.50177597359e-05
tornado 7.93502138708e-05
typical 5.4503088962e-05
continue 3.37726532429e-05
creative 8.25957705783e-05
excuse 4.2391648139e-05
female 3.900513964e-05
closer 3.66756711856e-05
accent 6.39593587607e-05
beginning 7.35552152189e-05
sooner 5.80956629438e-05
everywhere 3.48993546935e-05
scenes 3.72927152027e-05
wishing 8.47832962779e-05
choices 4.73774989984e-05
unpredictable 8.92308288124e-05
become 6.11004380734e-05
photographs 8.98567200159e-05
spread 3.34065752178e-05
season 6.44953149398e-05
putting 3.07155764092e-05
annoying 5.72581139401e-05
quietly 6.26882912815e-05
extending 7.89125692438e-05
stance 5.66454003774e-05
sleepy 0.000158700427742
returns 3.92264549214e-05
bucket 5.5071891809e-05
condolences 6.39593587607e-05
register 4.35281282152e-05
flowers 5.54573652491e-05
define 0.0
somebody 0.0
chicks 0.0
covering 0.0
repeat 0.0
football 0.0
brothers 0.0
player 0.0
physical 0.0
series 0.0
pretend 0.0
fighting 0.0
atlanta 0.0
mexico 0.0
president 0.0
talking 0.0
america 0.0
greats 0.0
everybody 0.0
judgment 0.0
amount 0.0
houston 0.0
everyday 0.0
shooter 0.0
attitude 0.0
million 0.0
honesty 0.0
telling 0.0
pulled 0.0
attack 0.0
killed 0.0
horrible 0.0
norman 0.0
salute 0.0
jacksonville 0.0
barackobama 0.0
lilduval 0.0
liquor 0.0
american 0.0
realist 0.0
remain 0.0
innocent 0.0
pieces 0.0
taught 0.0
golden 0.0
straight 0.0
forgive 0.0
answers 0.0
product 0.0
smoking 0.0
created 0.0
record 0.0
weapon 0.0
bottom 0.0
arrangements 0.0
africa 0.0
committed 0.0
journey 0.0
brother 0.0
prayers 0.0
documentary 0.0
addition 0.0
honestly 0.0
velvet 0.0
country 0.0
speedy 0.0
dressing 0.0
employee 0.0
yoooooo 0.0
prayer 0.0
nominated 0.0
praying 0.0
insane 0.0
illest 0.0
shooting 0.0
cancer 0.0
australia 0.0
marijuana 0.0
deserve 0.0
legend 0.0
mother 0.0
murder 0.0
realest 0.0
powerful 0.0
attendance 0.0
wisdom 0.0
breaking 0.0
bothered 0.0
angeles 0.0
dollars 0.0
soldiers 0.0
performance 0.0
reading 0.0
videos 0.0
jordan 0.0
nobody 0.0
politics 0.0
paradise 0.0
blessing 0.0
coolest 0.0
strippers 0.0
charities 0.0
donate 0.0
bullshit 0.0
sample 0.0
rocking 0.0
bringing 0.0
deserves 0.0
hilarious 0.0
victim 0.0
stadium 0.0
funniest 0.0
heaven 0.0
ruined 0.0
honest 0.0
rolling 0.0
became 0.0
driver 0.0
breakfast 0.0
decision 0.0
counting 0.0
pressure 0.0
awareness 0.0
dearly 0.0
lastnight 0.0
facebook 0.0
basketball 0.0
campaign 0.0
twisted 0.0
defined 0.0
discover 0.0
comments 0.0
giveaway 0.0
bipolar 0.0
teenage 0.0
williams 0.0
custom 0.0
singer 0.0
future 0.0
randomly 0.0
angels 0.0
blessed 0.0
sister 0.0
stripper 0.0
dancing 0.0
reigns 0.0
voting 0.0
niggas 0.0
commercial 0.0
hating 0.0
boring 0.0
century 0.0
acting 0.0
submit 0.0
besides 0.0
hiding 0.0
periscope 0.0
breath 0.0
choosing 0.0
lawrence 0.0
instagram 0.0
detroit 0.0
cousin 0.0
honored 0.0
dedication 0.0
rockin 0.0
fucked 0.0
lionelrichie 0.0
talent 0.0
goodnight 0.0
stores 0.0
drinking 0.0
brazil 0.0
tattoo 0.0
consecutive 0.0
regardless 0.0
staring 0.0
commitment 0.0
seconds 0.0
ohhhhhh 0.0
listen 0.0
whatever 0.0
wherever 0.0
kicking 0.0
compete 0.0
lauderdale 0.0
homies 0.0
billion 0.0
belated 0.0
pirate 0.0
shoutout 0.0
grammy 0.0
guilty 0.0
ceiling 0.0
grammys 0.0
absolute 0.0
nelson 0.0
mandela 0.0
bigsean 0.0
handle 0.0
tonite 0.0
cocaine 0.0
promise 0.0
longest 0.0
generation 0.0
tuesday 0.0
struggle 0.0
workout 0.0
character 0.0
mirror 0.0
interview 0.0
buffalo 0.0
justin 0.0
insights 0.0
winning 0.0
oxygen 0.0
espnnfl 0.0
charlotte 0.0
accomplished 0.0
defense 0.0
gettin 0.0
arabia 0.0
lmfaooooo 0.0
writing 0.0
soccer 0.0
society 0.0
brooklyn 0.0
incredible 0.0
witcho 0.0
celebrity 0.0
minute 0.0
foreign 0.0
cherry 0.0
champs 0.0
murdered 0.0
evidence 0.0
android 0.0
sneaking 0.0
clearly 0.0
download 0.0
mixtape 0.0
central 0.0
washington 0.0
veterans 0.0
stronger 0.0
promised 0.0
marcus 0.0
zombie 0.0
throwing 0.0
security 0.0
fastest 0.0
fantasy 0.0
turning 0.0
ignore 0.0
fucking 0.0
tickets 0.0
collector 0.0
prizes 0.0
december 0.0
loyalty 0.0
return 0.0
escape 0.0
yassss 0.0
goddess 0.0
handsome 0.0
language 0.0
motion 0.0
gallery 0.0
movies 0.0
children 0.0
backpack 0.0
potentially 0.0
guardian 0.0
review 0.0
theaters 0.0
shhhhh 0.0
begins 0.0
closet 0.0
bodies 0.0
hahaha 0.0
produced 0.0
latest 0.0
banned 0.0
beyonce 0.0
perform 0.0
lionel 0.0
signed 0.0
princess 0.0
ghetto 0.0
conditioning 0.0
charity 0.0
germany 0.0
ronaldo 0.0
married 0.0
millions 0.0
blessings 0.0
diamond 0.0
nephew 0.0
lights 0.0
howard 0.0
turned 0.0
buckle 0.0
relevant 0.0
performing 0.0
indian 0.0
includes 0.0
tricks 0.0
survivor 0.0
diamonds 0.0
collection 0.0
families 0.0
welcoming 0.0
select 0.0
announced 0.0
granted 0.0
decided 0.0
selfish 0.0
trailer 0.0
reppin 0.0
celebration 0.0
decades 0.0
ultimate 0.0
incase 0.0
downtown 0.0
seasoning 0.0
episode 0.0
mentality 0.0
touching 0.0
retweet 0.0
goodmorning 0.0
midnight 0.0
expectations 0.0
joining 0.0
reasons 0.0
released 0.0
release 0.0
models 0.0
popped 0.0
within 0.0
standing 0.0
valentines 0.0
justice 0.0
houses 0.0
purchase 0.0
dropped 0.0
conversations 0.0
seattle 0.0
strength 0.0
monica 0.0
incredibly 0.0
streets 0.0
private 0.0
inspirational 0.0
barbie 0.0
tables 0.0
affection 0.0
broski 0.0
pissing 0.0
designer 0.0
cooking 0.0
tattoos 0.0
direction 0.0
readyyyyy 0.0
exclusive 0.0
adrianalima 0.0
fashion 0.0
talkin 0.0
bitches 0.0
nailed 0.0
kitten 0.0
whomever 0.0
ruthless 0.0
teaching 0.0
chillin 0.0
philly 0.0
baddest 0.0
cheers 0.0
autumn 0.0
presents 0.0
flawless 0.0
unique 0.0
handed 0.0
taraji 0.0
victory 0.0
tribute 0.0
ballin 0.0
horror 0.0
females 0.0
catfish 0.0
action 0.0
wouldnt 0.0
recipient 0.0
whitney 0.0
continued 0.0
esther 0.0
letter 0.0
existence 0.0
papers 0.0
winter 0.0
sessions 0.0
replicating 0.0
foundation 0.0
syndrome 0.0
colorado 0.0
tremendous 0.0
public 0.0
cannot 0.0
brilliant 0.0
illustration 0.0
beware 0.0
globally 0.0
premieres 0.0
streaming 0.0
immigration 0.0
wrapped 0.0
studio 0.0
february 0.0
amazon 0.0
border 0.0
huffingtonpost 0.0
francis 0.0
january 0.0
relationships 0.0
tragic 0.0
secure 0.0
countries 0.0
episodes 0.0
broadcast 0.0
tickled 0.0
livestream 0.0
potential 0.0
education 0.0
famous 0.0
unknown 0.0
exists 0.0
orders 0.0
microsoft 0.0
ability 0.0
director 0.0
accessible 0.0
correction 0.0
william 0.0
editors 0.0
yellow 0.0
passionate 0.0
treatment 0.0
ambassador 0.0
thanking 0.0
streamed 0.0
lovers 0.0
wrinkled 0.0
bridge 0.0
magazine 0.0
sincere 0.0
quotes 0.0
result 0.0
destruction 0.0
edition 0.0
prince 0.0
indiana 0.0
editorial 0.0
emotion 0.0
mistakes 0.0
inspiring 0.0
counter 0.0
disappointing 0.0
edited 0.0
spotlight 0.0
saddest 0.0
production 0.0
header 0.0
itunes 0.0
guests 0.0
snakes 0.0
charging 0.0
arriving 0.0
mysteries 0.0
dangerous 0.0
typically 0.0
saving 0.0
universe 0.0
victims 0.0
receive 0.0
proceeds 0.0
crossed 0.0
received 0.0
limitations 0.0
studying 0.0
conflict 0.0
petition 0.0
milestones 0.0
outstanding 0.0
devastating 0.0
installment 0.0
signature 0.0
mistletoe 0.0
awards 0.0
shelves 0.0
smells 0.0
themed 0.0
sisters 0.0
banquet 0.0
danger 0.0
leading 0.0
member 0.0
dominant 0.0
distinguish 0.0
factories 0.0
distinct 0.0
distance 0.0
confirmed 0.0
behavior 0.0
collect 0.0
vanity 0.0
junior 0.0
communities 0.0
worldwide 0.0
canada 0.0
recognized 0.0
vessels 0.0
movement 0.0
segment 0.0
internal 0.0
information 0.0
easily 0.0
towards 0.0
october 0.0
belgium 0.0
european 0.0
caribbean 0.0
cities 0.0
arrives 0.0
extraordinary 0.0
exquisite 0.0
argentina 0.0
eliminate 0.0
genius 0.0
prepared 0.0
anthony 0.0
breakthrough 0.0
berlin 0.0
batman 0.0
upcoming 0.0
upgrade 0.0
singapore 0.0
crucial 0.0
scratch 0.0
collaboration 0.0
tested 0.0
acquire 0.0
honoring 0.0
holland 0.0
visually 0.0
neyocompound 0.0
inspire 0.0
ebonymag 0.0
spiketv 0.0
constant 0.0
sunset 0.0
tuning 0.0
gentleman 0.0
fulfilling 0.0
ayeeeee 0.0
stratford 0.0
poland 0.0
philippines 0.0
kickin 0.0
theweeknd 0.0
september 0.0
manchester 0.0
rickyrozay 0.0
remarkable 0.0
rihanna 0.0
disgusted 0.0
immoral 0.0
process 0.0
goosebumps 0.0
performances 0.0
strangers 0.0
emotions 0.0
judgement 0.0
comparing 0.0
thuggin 0.0
studios 0.0
jennifer 0.0
performer 0.0
literally 0.0
cardiff 0.0
soooooooo 0.0
crashed 0.0
cthagod 0.0
closed 0.0
justinbieber 0.0
complexmag 0.0
billboard 0.0
airing 0.0
albums 0.0
sweden 0.0
katyperry 0.0
treats 0.0
missouri 0.0
thefader 0.0
soundtrack 0.0
theellenshow 0.0
sweets 0.0
festival 0.0
wizkhalifa 0.0
amsterdam 0.0
backstage 0.0
collab 0.0
subscribed 0.0
joined 0.0
davidguetta 0.0
pushing 0.0
hopeful 0.0
romantic 0.0
mentions 0.0
lurking 0.0
ballad 0.0
teamed 0.0
exclusively 0.0
kingjames 0.0
hollyrpeete 0.0
sneakers 0.0
auction 0.0
sneaker 0.0
djkhaled 0.0
express 0.0
thegrammys 0.0
throughout 0.0
shining 0.0
excellence 0.0
thrown 0.0
zendaya 0.0
playin 0.0
applemusic 0.0
crunch 0.0
capitalofficial 0.0
filmed 0.0
toronto 0.0
naomicampbell 0.0
trvisxx 0.0
killin 0.0
trucks 0.0
stands 0.0
platinum 0.0
native 0.0
spotify 0.0
rocked 0.0
jumped 0.0
leebruhgreene 0.0
leaning 0.0
featured 0.0
announce 0.0
senior 0.0
iamdiddy 0.0
haters 0.0
nothin 0.0
appreciation 0.0
defjamrecords 0.0
floating 0.0
superstars 0.0
shondarhimes 0.0
premiere 0.0
orchestral 0.0
makeup 0.0
touched 0.0
newest 0.0
designed 0.0
passes 0.0
angelasimmons 0.0
tidalhifi 0.0
vashtie 0.0
delivered 0.0
owning 0.0
producer 0.0
balmain 0.0
legendary 0.0
independence 0.0
mtvmusicuk 0.0
audition 0.0
debuts 0.0
footage 0.0
marshall 0.0
spends 0.0
playtime 0.0
completed 0.0
dishes 0.0
photographed 0.0
bubble 0.0
belong 0.0
tongue 0.0
observing 0.0
consistent 0.0
posing 0.0
heavens 0.0
contemporary 0.0
aiming 0.0
ceremony 0.0
brighter 0.0
rainbow 0.0
matthew 0.0
phenomenal 0.0
affected 0.0
rivers 0.0
presenting 0.0
competitive 0.0
eskimo 0.0
sibling 0.0
dakota 0.0
printed 0.0
heroes 0.0
deepest 0.0
describe 0.0
hollywood 0.0
baggage 0.0
terrifying 0.0
animation 0.0
nationwide 0.0
capital 0.0
quantity 0.0
nominations 0.0
mountains 0.0
mosaic 0.0
realise 0.0
overload 0.0
photographer 0.0
depression 0.0
donation 0.0
marvelous 0.0
madonna 0.0
sailed 0.0
terror 0.0
rinsed 0.0
disorder 0.0
polish 0.0
represents 0.0
touchdown 0.0
creates 0.0
oxford 0.0
stitched 0.0
morocco 0.0
thrill 0.0
balloons 0.0
teaming 0.0
latimes 0.0
kerrywashington 0.0
caution 0.0
camouflage 0.0
approaching 0.0
generous 0.0
installation 0.0
benefiting 0.0
basics 0.0
confirm 0.0
thrilling 0.0
photography 0.0
matches 0.0
boundaries 0.0
singles 0.0
laptop 0.0
obvious 0.0
darling 0.0
celebrations 0.0
chewbacca 0.0
underwater 0.0
naughty 0.0
advised 0.0
feelin 0.0
macaroni 0.0
perfection 0.0
picasso 0.0
recipe 0.0
radical 0.0
volcano 0.0
planted 0.0
products 0.0
directed 0.0
grabbed 0.0
frames 0.0
casual 0.0
scheming 0.0
twickenham 0.0
bbcnews 0.0
pledge 0.0
subtle 0.0
embarrassed 0.0
snatch 0.0
unveiling 0.0
kissed 0.0
arguments 0.0
settling 0.0
desperate 0.0
executive 0.0
humbled 0.0
courage 0.0
dropping 0.0
carried 0.0
behalf 0.0
hardest 0.0
marking 0.0
vision 0.0
intervention 0.0
records 0.0
deeply 0.0
mannered 0.0
texted 0.0
israeli 0.0
strongest 0.0
rogers 0.0
concept 0.0
allegiance 0.0
belongs 0.0
intended 0.0
bosses 0.0
purpose 0.0
hottest 0.0
campaigns 0.0
sunderland 0.0
teenager 0.0
runway 0.0
steven 0.0
guitar 0.0
donating 0.0
applause 0.0
finale 0.0
wasted 0.0
absent 0.0
awhile 0.0
fierce 0.0
sincerely 0.0
apology 0.0
climbing 0.0
unwilling 0.0
protesting 0.0
bikini 0.0
friendships 0.0
matching 0.0
wolves 0.0
mosque 0.0
venezuela 0.0
donates 0.0
generations 0.0
underestimate 0.0
pardon 0.0
stickers 0.0
mothers 0.0
deeper 0.0
nipple 0.0
perfume 0.0
noodle 0.0
melissa 0.0
forest 0.0
panties 0.0
jimmykimmel 0.0
everytime 0.0
underdog 0.0
shoulders 0.0
wrapping 0.0
bedroom 0.0
glitter 0.0
stocking 0.0
annoyed 0.0
behave 0.0
goodbye 0.0
fuckin 0.0
seller 0.0
joshgroban 0.0
samsungmobileus 0.0
influential 0.0
slicing 0.0
ryanseacrest 0.0
farmer 0.0
teaser 0.0
styled 0.0
casting 0.0
imitated 0.0
forgiveness 0.0
perezhilton 0.0
blacked 0.0
paparazzi 0.0
peoplemag 0.0
rolled 0.0
vanityfair 0.0
rockstar 0.0
thousand 0.0
minded 0.0
shines 0.0
sunglasses 0.0
auntie 0.0
magazines 0.0
waited 0.0
denmark 0.0
leather 0.0
wished 0.0
ladygaga 0.0
swallow 0.0
glblctzn 0.0
shakira 0.0
accessories 0.0
nbcthevoice 0.0
clique 0.0
premiering 0.0
loooooove 0.0
weareheremvmt 0.0
looooove 0.0
vmagazine 0.0
popcrush 0.0
studded 0.0
yassssss 0.0
yessss 0.0
undeniable 0.0
unicef 0.0
auditions 0.0
ellemagazine 0.0
yasssss 0.0
pharrell 0.0
greece 0.0
papermagazine 0.0
nowwwww 0.0
maccosmetics 0.0
macaidsfund 0.0
lipstick 0.0
meeeee 0.0
newsstands 0.0
unapologetically 0.0
insidebates 0.0
legalize 0.0
loooove 0.0
caradelevingne 0.0
allllll 0.0
badgalriri 0.0
itsjeremyscott 0.0
nickiminaj 0.0
nipples 0.0
booooo 0.0
trippy 0.0
mikewillmadeit 0.0
puttin 0.0
trappin 0.0
alexanderwangny 0.0
karllagerfeld 0.0
celebratin 0.0
lilyallen 0.0
fuuuuuck 0.0
chanel 0.0
rubber 0.0
angelou 0.0
misses 0.0
harpersbazaarus 0.0
timberlake 0.0
photoshopped 0.0
whatchu 0.0
rehearsals 0.0
couture 0.0
mutual 0.0
creeper 0.0
cuddling 0.0
celine 0.0
theamas 0.0
thexfactor 0.0
websterhall 0.0
presale 0.0
deluxe 0.0
styles 0.0
wetten 0.0
shittttttttttt 0.0
boredom 0.0
darealamberrose 0.0
noooooooo 0.0
itunesmusic 0.0
cbstweet 0.0
thermal 0.0
mariners 0.0
torres 0.0
thebeatles 0.0
blondies 0.0
greeting 0.0
thecut 0.0
geeked 0.0
outlet 0.0
americanexpress 0.0
gqmagazine 0.0
nicole 0.0
bumped 0.0
hangover 0.0
stockholm 0.0
casually 0.0
esquire 0.0
winnipeg 0.0
begging 0.0
showroom 0.0
sleeves 0.0
smelling 0.0
guaranteed 0.0
obsession 0.0
attendant 0.0
aussie 0.0
tbsveryfunny 0.0
reservation 0.0
mollymcnearney 0.0
dragging 0.0
rocnation 0.0
tapered 0.0
badass 0.0
endlessly 0.0
vampires 0.0
viewers 0.0
kanyewest 0.0
designers 0.0
billboards 0.0
backstreetboys 0.0
monteith 0.0
e_fashionpolice 0.0
epically 0.0
internationally 0.0
mighty 0.0
jcolenc 0.0
semifinals 0.0
brasilia 0.0
tailgating 0.0
photoshoot 0.0
smokin 0.0
ahhhhhh 0.0
missin 0.0
sweats 0.0
impacted 0.0
rodriguez 0.0
musician 0.0
merchandise 0.0
jurgen 0.0
athleteally 0.0
originals 0.0
número 0.0
zealand 0.0
hehehe 0.0
fearless 0.0
stadiums 0.0
thiago 0.0
suarez 0.0
cropped 0.0
uruguay 0.0
apparel 0.0
staircase 0.0
wintour 0.0
spotting 0.0
polygraph 0.0
twerking 0.0
shipment 0.0
muggin 0.0
takeoff 0.0
thailand 0.0
tomorr 0.0
googleplay 0.0
budweiser 0.0
miafestival 0.0
dotted 0.0
burning 0.0
surpass 0.0
betcha 0.0
onairwithryan 0.0
dreamers 0.0
brunomars 0.0
beyoncé 0.0
hellooo 0.0
subscribers 0.0
preorder 0.0
believer 0.0
fragrance 0.0
hellooooo 0.0
majesty 0.0
beatsbydre 0.0
finland 0.0
fearnecotton 0.0
debuted 0.0
queued 0.0
rhetorical 0.0
iranian 0.0
infamous 0.0
brutally 0.0
execution 0.0
palestinian 0.0
transplant 0.0
audacity 0.0
foreplay 0.0
priced 0.0
huntington 0.0
manger 0.0
weaker 0.0
justintrudeau 0.0
creeping 0.0
fittest 0.0
hoodie 0.0
mankind 0.0
westwood 0.0
holographic 0.0
throwin 0.0
eminem 0.0
ecstatic 0.0
enjoys 0.0
wussup 0.0
duplicated 0.0
crotch 0.0
congrat 0.0
huggin 0.0
implement 0.0
penalizing 0.0
gonzalez 0.0
bitchin 0.0
sephora 0.0
damien 0.0
demanded 0.0
negativity 0.0
alancarr 0.0
skillz 0.0
hopeless 0.0
beatle 0.0
cheesecake 0.0
almighty 0.0
whatcha 0.0
slumber 0.0
chimney 0.0
headlining 0.0
perplexed 0.0
googleplaymusic 0.0
thrills 0.0
rollers 0.0
bravotv 0.0
gifted 0.0
kekepalmer 0.0
styledtorock 0.0
yooouuu 0.0
shantay 0.0
yaaaas 0.0
bestest 0.0
freestyle 0.0
everrrrr 0.0
sweatband 0.0
podolski 0.0
collaborating 0.0
bestfriend 0.0
sittin 0.0
whaaaat 0.0
clockwork 0.0
warmest 0.0
temptation 0.0
spiritual 0.0
chameleon 0.0
customised 0.0
acrylic 0.0
grasshopper 0.0
engages 0.0
gourmet 0.0
rhythmic 0.0
petals 0.0
klinsmann 0.0
directv 0.0
popcrave 0.0
versailles 0.0
raddest 0.0
grandfather 0.0
persie 0.0
webster 0.0
knight 0.0
footwear 0.0
collectors 0.0
blackout 0.0
skylight 0.0
hammock 0.0
playhouse 0.0
revelers 0.0
executed 0.0
cincinnati 0.0
simultaneously 0.0
malawi 0.0
graduated 0.0
sickening 0.0
mueller 0.0
elonjames 0.0
skeletons 0.0
mittromney 0.0
connecticut 0.0
cumulative 0.0
racked 0.0
valera 0.0
thighs 0.0
timely 0.0
rapping 0.0
shrugs 0.0
enables 0.0
psychic 0.0
fernando 0.0
tourism 0.0
slaughtered 0.0
devotion 0.0
fantasies 0.0
parsons 0.0
stella 0.0
complainers 0.0
newsstand 0.0
voguemagazine 0.0
westfield 0.0
manolo 0.0
turquoise 0.0
parisian 0.0
childs 0.0
swimsuit 0.0
bazaar 0.0
empress 0.0
brainstorm 0.0
tanning 0.0
desirable 0.0
feathers 0.0
antics 0.0
featurette 0.0
olivier 0.0
helloooo 0.0
hallow 0.0
connie 0.0
upbringing 0.0
privatize 0.0
bittersweet 0.0
outlaw 0.0
marcel 0.0
nowwww 0.0
hushed 0.0
threshold 0.0
floats 0.0
barbados 0.0
manuelcav 0.0
niggaz 0.0
prayin 0.0
drizzyxcole 0.0
homegirl 0.0
rappin 0.0
witcha 0.0
mufasa 0.0
dainternz 0.0
lololol 0.0
barclayscenter 0.0
bestbuy 0.0
blackouts 0.0
rivera 0.0
jakemiosge 0.0
givenchy 0.0
riccardo 0.0
grossed 0.0
guetta 0.0
spicewon 0.0
bitche 0.0
shawty 0.0
wednesdays 0.0
payday 0.0
jewelers 0.0
romero 0.0
acknowledging 0.0
calypso 0.0
blushes 0.0
medusa 0.0
keepers 0.0
futuristic 0.0
whereabouts 0.0
slayed 0.0
asvpxrocky 0.0
haaaaa 0.0
inezandvinoodh 0.0
calvinharris 0.0
_maxwell_ 0.0
bwerde 0.0
edward_enninful 0.0
haaaaaa 0.0
wisest 0.0
unconditionally 0.0
drmayaangelou 0.0
blackgirlsrock 0.0
submissive 0.0
rearrange 0.0
attuned 0.0
abrams 0.0
awaken 0.0
climbs 0.0
jacking 0.0
seventy 0.0
snatching 0.0
manoloblahnik 0.0
nicolerichie 0.0
openingceremony 0.0
whiteley 0.0
supermodel 0.0
the_real_iman 0.0
minogue 0.0
tmagazine 0.0
baaaaack 0.0
yeessss 0.0
wooooo 0.0
epicness 0.0
takawiraa 0.0
joplin 0.0
uncensored 0.0
unspeakable 0.0
rewrites 0.0
askdrruth 0.0
glozell 0.0
tardiness 0.0
runways 0.0
colombian 0.0
unapologetic 0.0
zac_posen 0.0
rumoured 0.0
omgggg 0.0
futbol 0.0
biatch 0.0
barrington 0.0
catwalk 0.0
sledgehammer 0.0
clemente 0.0
dollaz 0.0
mariah 0.0
granddad 0.0
iyanlavanzant 0.0
hustler 0.0
coletteparis 0.0
flexin 0.0
mistress 0.0
exceeds 0.0
sweeeeeet 0.0
stancesocks 0.0
serviced 0.0
issssss 0.0
lipglass 0.0
externally 0.0
complex_uk 0.0
prideful 0.0
dash_radio 0.0
holidaze 0.0
mawnin 0.0
champagnepapi 0.0
fashawn 0.0
raided 0.0
ahhhhhhhh 0.0
soulmate 0.0
motorbikes 0.0
britishvogue 0.0
gnlstudios 0.0
robinsoncano 0.0
debuting 0.0
cc_sabathia 0.0
colorways 0.0
hit_boy 0.0
_spyda 0.0
phresh 0.0
dominates 0.0
ratchet 0.0
rupaul 0.0
cockpit 0.0
kimmiekyees 0.0
horoscope 0.0
catwalks 0.0
paramedic 0.0
fhollande 0.0
sexiness 0.0
hereeee 0.0
changers 0.0
tiptoes 0.0
revved 0.0
meditative 0.0
fauntleroy 0.0
mbsings 0.0
disrespectfully 0.0
traumatized 0.0
outdid 0.0
elvispresley 0.0
toupee 0.0
josephine 0.0
discography 0.0
mariasharapova 0.0
chinchilla 0.0
skylar 0.0
illestbaba 0.0
georgiamjagger 0.0
pierced 0.0
hardrock 0.0
snorkeling 0.0
thrilla 0.0
gunpoint 0.0
sleeved 0.0
stevestoute 0.0
kiiiiiiiiiiiiinnnngggggg 0.0
lanvin 0.0
chateau 0.0
lizzs_lockeroom 0.0
prophets 0.0
müller 0.0
lullaby 0.0
samersum 0.0
disassembled 0.0
anniversaries 0.0
hayden_williams 0.0
rousteing 0.0
slayage 0.0
raunchy 0.0
benzema 0.0
fuckery 0.0
hellooooooo 0.0
juliagillard 0.0
congeniality 0.0
gunned 0.0
condense 0.0
missjillscott 0.0
yussss 0.0
chopard 0.0
woodbridge 0.0
orousteing 0.0
dubsmash 0.0
alicialquarles 0.0
worldmcqueen 0.0
whateva 0.0
elysées 0.0
jennnrosales 0.0
xstrology 0.0
looool 0.0
tippin 0.0
marleys 0.0
dwanimation 0.0
dreamworks 0.0
yaself 0.0
anothermagazine 0.0
claralionelfdn 0.0
mchingi 0.0
rihannareplay 0.0
awtguide 0.0
ryannavy_rih 0.0
rihquest 0.0
gpforeducation 0.0
valliniandre 0.0
globalfund 0.0
rhenna 0.0
millymaefenty 0.0
peetes 0.0
pandagunda 0.0
floriamamaroma 0.0
adoringrihanna 0.0
ymcofficial 0.0
rihanti_ 0.0
mcdean 0.0
rihannadaily 0.0
stancemuse 0.0
muhtean 0.0
rihdefine 0.0
officialdonnie 0.0
stunnafenty 0.0
perfumesbyriri 0.0
badgal 0.0
shaninamshaik 0.0
reblrihanna 0.0
elliscole_ 0.0
itskaitbh 0.0
harpersbazaarcn 0.0
yusefhairnyc 0.0
mylahmorales 0.0
teamofrihanna 0.0
muhphucka 0.0
harpersbazaar 0.0
rihrihfreak 0.0
thenbacentral 0.0
roversi 0.0
suchaf_cknlady 0.0
fourfiveseconds 0.0
petergrayhair 0.0
wkorea 0.0
dennisleupold 0.0
ursulastephen 0.0
ozzysalvatierra 0.0
ciarrap 0.0
rihannaargntina 0.0
rihearsal 0.0
sremmurd 0.0
id_magazine 0.0
heauxm 0.0
rihpost 0.0
jrgseul 0.0
bitchez 0.0
underst_navy 0.0
sonitaalex 0.0
chris_walden 0.0
danachanel 0.0
wednesdayz 0.0
jimmyfenty 0.0
houseoffraser 0.0
skeete 0.0
_kailssss 0.0
muhphuckas 0.0
phuckin 0.0
rastafarih 0.0
obviiii 0.0
etherihalvibe 0.0
rorreyfenty 0.0
noellaalstrom 0.0
rihturn 0.0
tellar 0.0
esquireuk 0.0
huffpoststyle 0.0
tyronmachhausen 0.0
melottenberg 0.0
paolakudacki 0.0
tompecheuxmu 0.0
lgoldstein_ltd 0.0
phucking 0.0
kudacki 0.0
hellurrr 0.0
tom_ford 0.0
neakah 0.0
creepah 0.0
pahtna 0.0
wontonsan 0.0
cappadonna 0.0
phuckmarqy 0.0
elfies 0.0
starstunning 0.0
ohnana 0.0
tushmagazine 0.0
macxriri 0.0
rickrubin 0.0
findataui 0.0
tristate 0.0
distoyb 0.0
kabukimagicnyc 0.0
yerdme_cmb 0.0
hittas 0.0
evan_erogers 0.0
jessieriri 0.0
unfourgettable 0.0
meeeaan 0.0
shweinsteiger 0.0
goooooooaaaaallllllll 0.0
goooal 0.0
braaaaaaaaaaaaaaaaaa 0.0
asapkoff 0.0
belgiuuuuummm 0.0
druchaos 0.0
cuadrado 0.0
murdaaahhh 0.0
colombiaaaa 0.0
karafenty 0.0
dlsturbla 0.0
braaaaaaaaaaaaaaaaaaaaaa 0.0
abouuuutttt 0.0
takecarerihanna 0.0
nathannavy 0.0
theworidcup 0.0
goooooaaaaaaallllll 0.0
bazaararabia 0.0
bigshitxtalker 0.0
__tatijxo 0.0
lhhatl 0.0
braaaaaaaaaaaa 0.0
rihannanavyrd 0.0
gooooooaaaalllll 0.0
triscastellano 0.0
iiiiiiiiiiiiiiiiiiii 0.0
eatmydaisy 0.0
leggooooal 0.0
yaaaaaassssssss 0.0
prettygirl_sp 0.0
ooohhhhhh 0.0
shiiiiitttt 0.0
roooonnnnnnnneeeeeeeyyyyyy 0.0
muslera 0.0
tadpole 0.0
giusichrisriri 0.0
_xomec 0.0
blockedt 0.0
ooooohhhh 0.0
goooooooaaaaaaalllllllllllllllll 0.0
stefansaxon 0.0
rihannademos 0.0
dragonflycici 0.0
chririh 0.0
rihluminati 0.0
goaaaalllll 0.0
twinzies 0.0
mantlers 0.0
suchaf__cknlady 0.0
glamour_robyn 0.0
adamselman 0.0
sephorafrance 0.0
thefashionlaw 0.0
scout_willis 0.0
quietude 0.0
theblackvoice 0.0
weeeed 0.0
kiiiiss 0.0
dooooon 0.0
miiiiss 0.0
malinsworld 0.0
prompics 0.0
itsalldonn 0.0
goooorrrrrrlllllll 0.0
thenewdaily_ 0.0
wiggin 0.0
stevesoboroff 0.0
pivot_tv 0.0
lapolicefdtn 0.0
scarificing 0.0
whooooose 0.0
sambapologetic 0.0
bellaisevil 0.0
sta_schemin 0.0
i_aim_tyga 0.0
fameisloud 0.0
garcon_rebelle 0.0
itsbreezybiotch 0.0
phaedra 0.0
vivala_stephyy 0.0
_bossmadeg 0.0
kontomitrosnick 0.0
sorrenti 0.0
whenevahhh 0.0
teamvivanco 0.0
heifers 0.0
stevenkolb 0.0
jeremy_brossard 0.0
jordanbrossard 0.0
quilted 0.0
piscesareus 0.0
plumsykes 0.0
cedellamarley 0.0
offish 0.0
urprise 0.0
i_love_riri 0.0
rihannadiva 0.0
javiroo 0.0
frihday 0.0
cuntlifex 0.0
_chris_rated_ 0.0
yewmadcunt 0.0
erinwasson 0.0
balmainparis 0.0
_yadim 0.0
muthaphucka 0.0
onnneeee 0.0
liiiiieeesss 0.0
gautier 0.0
mtvstarsvotes 0.0
zinloves 0.0
chloefrahm 0.0
uprising_create 0.0
uprising_darren 0.0
jonnycrave 0.0
jeff_uprising 0.0
kareemfenty 0.0
daily_rihnavy 0.0
unapologeticunt 0.0
rorrey 0.0
foreverrr 0.0
guyanese 0.0
annndd 0.0
historih 0.0
grandfadda 0.0
arleta 0.0
loreleicakes 0.0
river_island 0.0
finallyyyy 0.0
rodin_thinker 0.0
mrs_toyac 0.0
cheersrihrih 0.0
bangbang 0.0
faiz_fenty 0.0
leandra 0.0
noella 0.0
rasshoooolllleee 0.0
luminati 0.0
inezvinoodh 0.0
visvim 0.0
realne 0.0
sarahfrancus 0.0
tadium 0.0
trapstar 0.0
afrihca 0.0
rihrobyn 0.0
cbsgirlfriend 0.0
shyronnie_rn 0.0
mariamfenty_ 0.0
mizzpmf 0.0
whooooaaaaa 0.0
camkaipink 0.0
yasssssssssssssssssssss 0.0
lunaxskye 0.0
yaaaaasssssss 0.0
niggggaaaaaaa 0.0
breeziechillin 0.0
betologetic 0.0
isusjsjdha 0.0
awffffff 0.0
mcdessikins 0.0
skreets 0.0
pieceofria 0.0
loooool 0.0
craaaazzyyy 0.0
lolarae_xoxo 0.0
stayflysamir 0.0
shotta 0.0
tamarawray 0.0
lauraleehickock 0.0
heauxz 0.0
rihannanavyit 0.0
manilla 0.0
ronnyerickson 0.0
nikofenty 0.0
vincehaycock 0.0
zodiacfacts 0.0
naomiiknows 0.0
wrizzap 0.0
muuuch 0.0
hongkong 0.0
jetlaaaaaagggged 0.0
rasshole 0.0
februharry 0.0
kaşara 0.0
çıkmadı 0.0
dicked 0.0
vinoodh 0.0
rihannasblog 0.0
urihannafansite 0.0
teejay 0.0
stupse 0.0
clapbacks 0.0
niggaaaazzzz 0.0
bwaaahaaaaa 0.0
willheardmusic 0.0
kristennoelgipson 0.0
rsvpgallery 0.0
backout 0.0
bwahhaaa 0.0
errwhurr 0.0
niiiiggaz 0.0
fridayz 0.0
debbycoda 0.0
cabbing 0.0
dolly_cohen 0.0
cowboyz 0.0
friendz 0.0
phucker 0.0
charliebymz 0.0
lynn_ban 0.0
inwardly 0.0
ravening 0.0
whyyyyyyyyyyyy 0.0
thatdamnlala 0.0
adamsellman 0.0
scottland 0.0
kingspleasure 0.0
mikkyekko 0.0
rihannanavide 0.0
saskoktz 0.0
phlawless 0.0
givenchydonc 0.0
mlle_yulia 0.0
oxxoxo 0.0
foreva_rn_ladii 0.0
skinhead 0.0
killaz 0.0
yennifer 0.0
bestofpisces 0.0
smegma 0.0
morganemiller_ 0.0
aa_davis 0.0
beenie 0.0
nickeystaar 0.0
frihannamorocco 0.0
thinketh 0.0
guitarists 0.0
jordriri 0.0
badgalclaudia 0.0
hausofnath 0.0
_abirogerson 0.0
tommykane 0.0
livenationuk 0.0
millenniu 0.0
juuuussttt 0.0
helllooooo 0.0
miiiine 0.0
chaneliman 0.0
blushy 0.0
laetitiacrahay 0.0
rihmix 0.0
dariuscash 0.0
joshkillss 0.0
drunk_cockiness 0.0
firebombfenty 0.0
mooky_mcnasty 0.0
defpenradio 0.0
iamrici 0.0
letcha 0.0
niggerish 0.0
mawazine 0.0
thefashionaddicts 0.0
phierce 0.0
errwhere 0.0
jocking 0.0
niggaaa 0.0
tami_black 0.0
homienadz 0.0
religiosity 0.0
joycemeyer 0.0
brooooklyyyyn 0.0
miiiiine 0.0
dilekkeysan 0.0
marykatrantzou 0.0
allaboutpisces 0.0
jfisherjewelry 0.0
oddhangover 0.0
diggins 0.0
phyliciaghee 0.0
bawsin 0.0
howeverrrrr 0.0
channyyxoxo 0.0
dowwwwnnnnn 0.0
thugbitch 0.0
rihanas 0.0
miiiiiinnneee 0.0
rihwrite 0.0
janiseeaileen 0.0
ratchify 0.0
eeeeeemmmmmm 0.0
pannies 0.0
wooooiiiiiiiiiii 0.0
muhphuckers 0.0
bashment 0.0
whaaaaattttt 0.0
liiifee 0.0
covery 0.0
leeeeaaaavvveeee 0.0
haarrrrrddd 0.0
ismashedriri 0.0
christabslg 0.0
reallll 0.0
peoplez 0.0
wooiiiiii 0.0
slackness 0.0
kevfenty 0.0
woooiii 0.0
tatiana_xo 0.0
fentynavysalute 0.0
ratchettt 0.0
rachael_deanna 0.0
lifeeeeee 0.0
bxdcfjcf 0.0
killled 0.0
asdfghjkjhgtfrdedfghjnhbgvfc 0.0
troy_fenty 0.0
_marrymerihanna 0.0
jkbwdhbwh 0.0
_noellaa 0.0
hunneds 0.0
thekingfly 0.0
dooown 0.0
woooiiiii 0.0
phucked 0.0
kickstand_ohb 0.0
acedemy 0.0
mistercap 0.0
gallest 0.0
sinsofmyfather_ 0.0
dwayneofficial 0.0
_revofev 0.0
joefenty 0.0
thegodlight 0.0
molestmerihanna 0.0
rihannanavyeu 0.0
melina 0.0
terryrichardsonstudio 0.0
_sexxtroversy 0.0
neuroticbxtch 0.0
getcho 0.0
moneyyy 0.0
idillionaire 0.0
yaaaaaaas 0.0
noxx_onite 0.0
phonefancy 0.0
chiefin 0.0
londonfashionwk 0.0
_mayor_ 0.0
rihannanow 0.0
jamrock 0.0
rihannastats 0.0
jenesismagazine 0.0
napmed 0.0
hausofbeyhive_ 0.0
probabily 0.0
badgalelly 0.0
ladylivja 0.0
rihannacomics 0.0
__glitterdick 0.0
chelsey_ba 0.0
stashbox 0.0
thuglife 0.0
highladayz 0.0
brrrap 0.0
kalifah 0.0
marylin 0.0
muthafucker 0.0
stylenetwork 0.0
bvalgari 0.0
oooonly 0.0
fuckyopictures 0.0
amplifydot 0.0
trappat 0.0
soumsluvriri 0.0
ibebossedup 0.0
holerringg 0.0
rihskillerdoll 0.0
equaled 0.0
chefette 0.0
rezilientkas 0.0
blastinggggg 0.0
dammnnn 0.0
lifeandtimes 0.0
hausofjazzy 0.0
kaykispeaks 0.0
condesa 0.0
awaaayyy 0.0
flawle 0.0
mandler 0.0
loudies 0.0
dulcattis 0.0
killaaa 0.0
_loveforrihanna 0.0
yesimkayla 0.0
rollingnostone 0.0
richkunt 0.0
yasssssss 0.0
eriricccccc 0.0
cuntmeout 0.0
sashay 0.0
condragulations 0.0
neverrr 0.0
phasetoo 0.0
fooooorde 0.0
ruunavi 0.0
rihtweet 0.0
ishoobernator 0.0
thirstiest 0.0
j_dimps 0.0
deecosey 0.0
itsrihannasnavy 0.0
muthaphuckin 0.0
