awesome 0.000506174524893
christmas 0.000367129204349
trying 0.000331304600461
launch 0.0
moment 0.000916012894013
wonderful 9.30371177305e-05
seeing 0.00025526931802
hanging 0.000104413087995
sounds 0.000265103180392
contacts 0.0
anybody 0.0
worked 8.95709484981e-05
direct 0.0
others 0.000356350150026
currently 9.85278363122e-05
better 0.00110616199322
please 0.000664397751563
social 0.000185569224735
anxiety 0.0
around 0.000942286142371
people 0.00217135502372
morning 0.00111214126179
damage 0.0
everything 0.00107095084469
present 4.68996682434e-05
though 0.000128671854095
friend 0.00111815302655
watched 0.000186074235461
beautiful 0.00517649510731
demanding 0.00018229993591
anything 0.000418620544849
tagged 0.0
helped 0.000135452182351
thinking 0.000336707223368
finally 0.000336707223368
caught 0.000139176918551
believe 0.00139670436939
already 0.000616193104142
couple 0.0
launches 0.0
chance 0.000453094588138
annual 5.53769953336e-05
quickly 0.0
growing 0.000197597411468
probably 4.4664443252e-05
changed 0.000220322970682
history 0.000212151438824
center 0.000107976167854
museum 7.15202584155e-05
behind 0.000204844813559
screaming 0.0
pretty 0.000210442014605
really 0.000617856256552
possibly 5.73053024308e-05
little 0.000985908966627
happiest 8.72110537171e-05
earlier 0.0
forget 0.00066798956002
someone 0.000290674016309
things 0.000819379254236
available 0.000299425347577
perfect 0.000900702978663
different 0.000209310272424
person 8.26031896363e-05
watching 0.000786848426094
exhibit 9.72155498867e-05
passed 5.02215001093e-05
prefer 0.0
minutes 0.00012763465901
travel 0.0
daughter 0.000149425092634
positive 0.000342021958534
outside 4.35909592344e-05
looking 0.000616193104142
forward 0.000296212061983
raising 0.000117627065446
impression 0.0
wheels 0.0
favorite 0.00162530055687
instead 9.27846123676e-05
appreciate 0.0
couldn 0.000214453090158
remember 0.000494285005242
impressive 0.0
vintage 9.38692856797e-05
holidays 0.000470508261784
friends 0.000621196125864
impossible 0.0
everyone 0.00082380834207
always 0.00196651021017
limited 0.0
months 0.000172026053343
moving 0.000443034808931
meeting 8.44040956559e-05
answer 0.000168808191312
together 0.00173466698236
inside 0.000214453090158
upstairs 0.0
missed 4.17493475013e-05
active 0.0
eventually 0.0
longer 9.50856725661e-05
enough 0.000749465095101
building 0.000323865089632
enjoying 5.03601430934e-05
london 0.000587932614414
posting 0.0
recent 0.0
amazing 0.00250585195684
attention 4.66452018184e-05
tomorrow 0.00152404543283
whenever 6.77426662972e-05
feeling 0.00215613687107
excited 0.00202130612678
understand 0.000134720591571
following 8.64785843184e-05
asleep 7.59403572772e-05
learning 0.000204241937185
evening 4.71557250938e-05
special 0.00166099437891
secret 0.000322986734461
across 0.000184063463598
surprised 9.8257859378e-05
candles 0.0
sophia 0.0
version 0.000455192663317
rather 0.0
showing 0.0
saying 0.000172026053343
thoughts 0.000262253133668
exactly 0.00013363130626
getting 0.000741427507863
nothing 0.000700237090759
tweets 0.0
photos 0.000149425092634
looked 4.67722374634e-05
difficult 5.42926872835e-05
office 0.0
brought 0.00027385711824
biggest 0.000169721151059
thrilled 0.0
entire 4.57668136874e-05
something 0.00111214126179
closing 0.000122551856294
anyone 0.000332198875781
taking 0.000247142502621
interesting 0.0
original 0.0
flying 5.17730059549e-05
sometimes 0.00013618815394
yesterday 0.000415248594727
serious 0.000220322970682
digital 0.000122190098861
wearing 0.000144984623584
british 6.00262332655e-05
either 0.000179627455428
second 8.30497189453e-05
checking 5.3385588323e-05
indeed 0.0
island 5.83045949644e-05
hearing 0.000138047597698
staying 5.56921427546e-05
another 0.000492954483313
compare 7.51697584576e-05
bummer 0.0
clothes 0.00020515347255
landing 0.0
weekend 0.000709738907521
delivery 0.0
secretive 0.0
anyway 0.0
recognize 0.0
working 0.000411904171035
bigger 0.0
laughing 0.00151466867351
wanted 0.000374732547551
clothing 0.0
grateful 0.000807549409958
friendship 0.0
family 0.00193594960386
listening 0.000722411639205
stream 0.000226609587107
double 0.0
especially 0.0002282142652
shaking 0.0
waiting 0.000379818430452
definitely 9.00572284146e-05
account 4.83282078612e-05
completely 9.7720559581e-05
thought 0.000166099437891
possible 0.000305136714641
simple 9.58672803251e-05
professional 0.0
members 0.0
business 4.44234486588e-05
absolutely 0.000440645941363
sending 0.0028681774533
introducing 0.0
congrats 0.00056211079807
community 0.000203115638244
keeper 0.0
greatest 0.000405257527866
selfie 0.000123280198205
pasadena 0.0
posted 0.000974532251663
saturday 0.000608627616164
designs 0.0
broken 0.000204241937185
chicago 0.00016802919961
glimpse 0.0
actually 8.44040956559e-05
myself 0.000161964251781
pajamas 0.0
school 0.000251172326909
throwback 8.78996239207e-05
thursday 0.000969421070999
selling 0.0
talented 0.00054140102516
celebrate 0.00027311559799
celebrating 0.00049128929689
anniversary 0.00039846691369
contest 0.000268428642932
experiences 0.0
students 0.000218398289337
figure 4.92639181561e-05
featuring 0.000428283068803
inspired 0.000647508734746
breeze 0.000123078099773
sitting 9.30371177305e-05
playing 0.000125586163455
street 4.56428530399e-05
points 0.0
advice 0.000144984623584
memory 0.0
forever 0.000697778382979
imagine 0.000229455752718
problem 8.83677267975e-05
played 9.20317317988e-05
keeping 0.000230079329497
lovely 0.000155319017865
dressed 0.0
chinese 0.0
sunshine 0.000256615856837
afternoon 0.0
notice 0.0
difference 0.000135085842622
suppose 0.0
letting 0.000202555378379
system 0.0
mutant 0.0
bathroom 0.0
almost 0.000288332919724
details 0.000225143071036
experience 0.00030104559335
luckily 0.0
viewed 0.0
living 0.000516078160029
weather 5.26447188985e-05
bright 0.000347812691487
launching 0.0
colors 0.000237529291665
monday 0.000344052106686
walked 0.0
pinned 0.0
wanting 0.000129747334033
tweeting 0.000329192476367
forgot 0.0
gorgeous 0.00107043596558
herself 0.000197994179632
happens 0.000170639225454
learned 0.000238363452366
congratulations 0.000544752615761
raised 5.38366273305e-05
mission 0.000111701260471
smelled 0.0
unforgettable 0.000382033050967
forgotten 0.0
trouble 5.09194550255e-05
channel 0.0
fantastic 0.000194373520267
loving 0.0013120212618
hardly 0.0
dining 0.0
complete 0.000141853068497
daniel 0.0
rewarding 0.0
spirit 0.000266927941615
finding 5.03601430934e-05
stories 0.000267262612519
including 0.0
somewhere 0.000161057185759
conversation 0.000851416520319
disrespectful 0.0
making 0.000451874943037
expect 0.0
polite 0.0
brings 0.000496715728898
anytime 0.0
needed 0.000219728355421
seriously 0.00027311559799
modern 5.93288723822e-05
welcome 0.000791102044829
moments 0.000256010003579
jacket 0.0
halloween 0.000185470217187
costume 0.000244455455734
totally 0.000237714181415
flight 4.93993528669e-05
attached 0.0
finished 9.85278363122e-05
strong 0.000381872589884
message 0.00104901253467
coming 0.000657272644418
temporary 0.0
challenge 9.03014549007e-05
achievement 0.0
unlocked 0.000115608574711
happen 0.000461725796232
celebrated 0.000401572652406
giving 0.000374732547551
excellent 0.0
common 0.000814711280408
pressed 0.0
company 0.0
change 0.000906189176277
singing 0.000165192760925
silver 0.0
august 5.81363443677e-05
crying 0.000194621001049
happened 0.000173424717744
parking 0.0
demand 0.000162878061851
sacrifice 0.0
personal 0.000134356422747
beyond 0.000230079329497
question 0.000252530417526
chicken 0.0
position 5.6169456457e-05
losing 5.0778909561e-05
respect 0.000135085842622
caption 0.000174422107434
shouldn 9.85278363122e-05
career 9.56059151101e-05
reason 8.67123588719e-05
explore 8.17831093172e-05
glamorous 0.000123905783736
reality 0.000195977538138
burned 0.0
without 0.000498298313672
problems 0.0
countdown 0.000149832159719
online 4.43034808931e-05
animals 0.0
buying 0.0
pictures 5.20615209692e-05
underneath 0.0
camera 5.38366273305e-05
checked 0.0
heading 4.89943845345e-05
complex 0.000135485332594
sunday 0.00119125681743
nights 0.000121471340521
traffic 0.0
through 5.78019019985e-05
changing 0.000100998513705
diapers 0.0
convinced 0.0
capture 0.0
random 0.0
recorded 0.0
november 0.000110440652138
number 0.0
stupid 0.0
grandparents 0.0
recording 0.0
chocolate 6.31300437603e-05
unless 0.0
calling 0.000129717876478
mermaid 0.0
levels 0.0
package 7.39167873258e-05
option 0.0
knowing 0.000227910195924
actual 5.47538812275e-05
friday 0.000250496085008
achieve 6.90365305449e-05
winner 0.0
becomes 0.0
directly 0.0
quality 0.0
father 0.00014069900473
wishes 0.000268428642932
themselves 0.000143976960457
asking 0.000261545755407
usually 0.0
period 0.0
resist 0.0
collections 0.0
summer 0.000266540691953
bracelet 0.0
reminded 7.15202584155e-05
dinner 4.55192663317e-05
single 0.000212151438824
catching 6.09149657881e-05
energy 0.000930893306156
preview 0.00011728636672
monster 7.10573273577e-05
material 0.0
events 0.0
europe 0.0
holiday 0.000379307139003
emotional 0.000237315489529
affects 9.07758195765e-05
holding 0.000194906450333
survive 0.0
eating 0.000102973017089
outfit 8.45669774512e-05
missing 4.39456710841e-05
surprise 0.000396581347227
german 0.000141655617518
officially 0.0
french 0.0
global 0.000110128507283
follow 0.000372717675518
design 0.0
improvement 0.0
website 0.0
breaks 5.42926872835e-05
negative 6.00262332655e-05
official 0.00025526931802
jersey 0.0
france 0.0
lighter 0.0
thinks 0.000144194222865
hospital 0.0
jealous 0.0
successful 0.0
trending 0.0
leadership 6.44797316475e-05
showed 5.17730059549e-05
attended 0.0
circle 0.0
interested 0.0
effect 5.42926872835e-05
success 0.0
ladies 0.000451926266416
dreams 0.00119108225535
protect 5.27918248473e-05
arguing 0.0
essence 0.000103822538612
control 0.000138047597698
happier 7.51697584576e-05
likely 0.0
cancel 0.0
project 0.000139555676596
laying 0.0
lesson 0.0
fridays 0.0
invited 5.79687819144e-05
treating 0.0
allowing 0.0
remote 0.0
opening 8.95709484981e-05
alcohol 0.0
popular 0.0
pedestal 0.0
designing 0.000112964498445
followed 0.000109507762455
enjoyed 0.0
spectacular 0.000150339516915
recovered 0.0
length 0.0
matters 0.000162420307548
factor 0.0
england 0.0
shared 0.000508417049718
benefit 0.000154888520443
continues 0.000150664500328
fathers 0.0
kitchen 0.0
exciting 4.93993528669e-05
corner 5.8813532723e-05
spring 0.000157934156696
fallen 7.24621151304e-05
victoria 0.0
tornado 0.0
typical 0.0
continue 0.000332799853981
creative 0.000290681721838
excuse 0.0
female 5.49087735205e-05
closer 5.16295068145e-05
accent 0.0
beginning 0.000362411041685
sooner 0.0
everywhere 0.000245644648445
scenes 0.000262490696346
wishing 0.000417732483415
choices 0.000266779238479
unpredictable 0.0
become 0.000129019540007
photographs 0.0
spread 0.000517302462862
season 0.000499356564447
putting 4.32392921592e-05
annoying 0.0
quietly 0.0
extending 0.0
stance 7.97415286553e-05
sleepy 0.0
returns 0.000165660978208
bucket 0.0
condolences 0.0
register 6.1275928147e-05
flowers 0.0
define 0.0
somebody 0.000307288044945
chicks 0.0
covering 0.000127406091172
repeat 0.000114940335389
football 0.0
brothers 0.000378780262562
player 0.0
physical 0.0
series 0.000134356422747
pretend 0.0
fighting 0.000187598672973
atlanta 0.0
mexico 5.95021029266e-05
president 0.0
talking 0.000619523922272
america 0.000525925106857
greats 0.000203647312391
everybody 0.000101557819122
judgment 0.0
amount 0.0
houston 0.0
everyday 0.000467788315039
shooter 0.0
attitude 0.0
million 0.000172957168637
honesty 0.000265799895371
telling 4.67722374634e-05
pulled 0.0
attack 0.000106175261835
killed 0.000413020354893
horrible 7.01468684954e-05
norman 0.0
salute 8.55386189458e-05
jacksonville 0.0
barackobama 0.0
lilduval 0.0
liquor 0.0
american 8.74177112227e-05
realist 0.0
remain 0.0
innocent 0.0
pieces 0.0
taught 0.000242942681041
golden 0.000111068532034
straight 0.00018257141216
forgive 0.000249918883544
answers 5.30876309173e-05
product 0.0
smoking 0.0
created 0.000148605710345
record 0.000215032566679
weapon 8.36178470633e-05
bottom 5.52203260692e-05
arrangements 0.0
africa 0.0002735379634
committed 6.48736670164e-05
journey 0.000321212301602
brother 0.00135598050295
prayers 0.000128959463295
documentary 0.000246560396409
addition 0.0
honestly 0.000235254130892
velvet 0.0
country 0.00012763465901
speedy 0.0
dressing 0.0
employee 0.0
yoooooo 0.000185110342392
prayer 0.0
nominated 0.0
praying 0.0
insane 0.000121829931576
illest 0.000181545576533
shooting 5.14865085447e-05
cancer 0.0
australia 0.000183285148292
marijuana 0.0
deserve 0.000302995541115
legend 5.49087735205e-05
mother 0.000458911505437
murder 0.0
realest 0.000144006095705
powerful 0.00276218250601
attendance 0.0
wisdom 0.000277908245081
breaking 8.86069617862e-05
bothered 0.0
angeles 0.0
dollars 0.0
soldiers 0.0
performance 0.00209759838082
reading 0.00030596198928
videos 0.000106175261835
jordan 0.0
nobody 5.04992568526e-05
politics 0.000174913784893
paradise 0.000180075240193
blessing 0.000348844214868
coolest 7.29412897474e-05
strippers 0.0
charities 0.0
donate 0.000333205596102
bullshit 0.0
sample 0.0
rocking 0.000486339428892
bringing 0.000508930855136
deserves 0.000328523287365
hilarious 5.45995723343e-05
victim 0.0
stadium 6.96991158123e-05
funniest 0.0
heaven 0.000195814281181
ruined 0.0
honest 0.000409616005726
rolling 0.0
became 0.000102973017089
driver 0.0
breakfast 0.0
decision 0.000102688015322
counting 0.00017542061814
pressure 0.0
awareness 0.000235938373434
dearly 0.0
lastnight 0.000169759540434
facebook 0.000176258376545
basketball 0.0
campaign 0.00019121183022
twisted 0.0
defined 0.0
discover 7.01468684954e-05
comments 5.02215001093e-05
giveaway 0.0
bipolar 0.0
teenage 0.0
williams 0.0
custom 0.0
singer 8.03145304812e-05
future 0.000381872589884
randomly 0.000100859636125
angels 8.96734491412e-05
blessed 0.000211798706466
sister 0.00077527793467
stripper 0.0
dancing 0.0
reigns 0.0
voting 0.000710904733854
niggas 0.0
commercial 0.0
hating 0.0
boring 0.0
century 0.0
acting 0.0
submit 0.0
besides 0.0
hiding 0.0
periscope 0.0
breath 0.0
choosing 8.17831093172e-05
lawrence 0.0
instagram 5.71410979517e-05
detroit 0.0
cousin 0.0
honored 0.000514269881565
dedication 0.000173742120748
rockin 0.00133129262859
fucked 0.0
lionelrichie 0.0
talent 0.000713814055767
goodnight 0.00023669033354
stores 0.00022399188711
drinking 0.0
brazil 0.000295667149303
tattoo 0.0
consecutive 0.0
regardless 7.27010018872e-05
staring 8.75538922258e-05
commitment 6.81694301844e-05
seconds 5.50642536415e-05
ohhhhhh 0.0
listen 0.00191451988515
whatever 0.000189137424662
wherever 0.000157793555693
kicking 0.0
compete 0.0
lauderdale 0.0
homies 0.000122266806674
billion 5.89845933586e-05
belated 9.04050572025e-05
pirate 0.0
shoutout 0.0
grammy 9.72155498867e-05
guilty 0.0
ceiling 0.0
grammys 0.0
absolute 0.000120758832332
nelson 8.82482980484e-05
mandela 0.000225928996891
bigsean 0.0
handle 0.000107371457173
tonite 0.0
cocaine 0.0
promise 9.7720559581e-05
longest 0.0
generation 0.000338944699812
tuesday 4.67722374634e-05
struggle 0.0
workout 0.000160054055617
character 5.50642536415e-05
mirror 0.0
interview 0.000293034381394
buffalo 0.0
justin 0.0
insights 0.0
winning 0.0
oxygen 0.0
espnnfl 0.0
charlotte 0.0
accomplished 0.0
defense 0.0
gettin 0.000178624973564
arabia 0.0
lmfaooooo 0.0
writing 0.000238363452366
soccer 0.0
society 5.68146503064e-05
brooklyn 0.000166612589029
incredible 0.00182136139501
witcho 0.0
celebrity 0.0
minute 0.000278353837103
foreign 0.0
cherry 0.0
champs 0.0
murdered 0.0
evidence 0.0
android 0.0
sneaking 0.0
clearly 0.000104413087995
download 0.000232545377471
mixtape 0.0
central 0.000162878061851
washington 0.0
veterans 0.0
stronger 0.000130943529371
promised 0.0
marcus 0.0
zombie 0.000188545848091
throwing 6.75309399205e-05
security 0.0
fastest 0.0
fantasy 0.0
turning 5.14865085447e-05
ignore 5.89845933586e-05
fucking 0.0
tickets 0.000697317098958
collector 0.0
prizes 0.0
december 0.0
loyalty 0.0
return 4.55192663317e-05
escape 0.0
yassss 0.000158618698184
goddess 0.000125613070881
handsome 0.0
language 0.0
motion 7.24621151304e-05
gallery 0.0
movies 0.0
children 0.000633824880583
backpack 0.0
potentially 0.0
guardian 7.44133868935e-05
review 0.000244971922673
theaters 0.000525323353355
shhhhh 0.000158618698184
begins 4.92639181561e-05
closet 9.67820118441e-05
bodies 0.000162970303823
hahaha 0.00036835363375
produced 0.000386878389885
latest 4.45437687532e-05
banned 0.0
beyonce 0.000617738086339
perform 0.00111988185187
lionel 0.0
signed 0.000226980256567
princess 8.29970933284e-05
ghetto 0.0
conditioning 0.0
charity 0.000114940335389
germany 0.0
ronaldo 0.0
married 0.000121829931576
millions 0.000167076428264
blessings 0.00353154588922
diamond 9.34695853121e-05
nephew 0.0
lights 5.91563712317e-05
howard 0.0
turned 4.51507274503e-05
buckle 0.0
relevant 0.0
performing 0.00118941702089
indian 0.0
includes 6.1275928147e-05
tricks 0.0
survivor 0.0
diamonds 0.000119925085749
collection 0.000451926266416
families 0.000263223594493
welcoming 8.23856049212e-05
select 0.000220278405604
announced 5.00833247246e-05
granted 0.000157793555693
decided 4.92639181561e-05
selfish 0.0
trailer 0.000186577493938
reppin 0.000275381404503
celebration 0.000173405705996
decades 0.0
ultimate 0.0
incase 0.0
downtown 0.0
seasoning 0.0
episode 0.000147386789067
mentality 0.0
touching 0.000237529291665
retweet 0.000991924335953
goodmorning 0.0013194727331
midnight 5.55342660169e-05
expectations 0.0
joining 0.000290763476538
reasons 0.000239668200813
released 0.000143800920488
release 4.51507274503e-05
models 0.0
popped 0.000100386001223
within 5.24981392691e-05
standing 0.000141082489872
valentines 0.000196193273613
justice 0.000387638967335
houses 0.0
purchase 7.05995688221e-05
dropped 0.000152336728683
conversations 0.000382311309746
seattle 0.0
strength 0.000455820391849
monica 0.0
incredibly 0.000406954410574
streets 0.000181671467937
private 0.0
inspirational 0.00022101218025
barbie 0.0
tables 0.0
affection 0.0
broski 0.0
pissing 0.0
designer 0.0
cooking 0.0
tattoos 0.0
direction 0.0
readyyyyy 0.0
exclusive 0.000293161678743
adrianalima 0.0
fashion 5.95021029266e-05
talkin 0.000387128047376
bitches 0.0
nailed 8.29970933284e-05
kitten 0.0
whomever 0.0
ruthless 0.0
teaching 0.0
chillin 0.000622935231673
philly 0.000153981802122
baddest 0.000141362019439
cheers 0.000445921319103
autumn 9.80966368064e-05
presents 0.0
flawless 0.0
unique 0.000252520175041
handed 0.0
taraji 0.0
victory 0.000117627065446
tribute 0.000338944699812
ballin 0.0
horror 0.0
females 0.0
catfish 0.0
action 0.000309287043791
wouldnt 0.000140101336503
recipient 0.0
whitney 0.000235420015553
continued 0.000141199137644
esther 0.0
letter 0.000101557819122
existence 0.0
papers 0.0
winter 0.000111384285509
sessions 7.29412897474e-05
replicating 0.0
foundation 0.0
syndrome 0.0
colorado 0.0
tremendous 0.0
public 0.0
cannot 4.58911505437e-05
brilliant 0.000151497770558
illustration 0.0
beware 0.0
globally 0.0
premieres 0.000325940607646
streaming 0.0
immigration 0.0
wrapped 0.0
studio 0.000630358326739
february 0.0
amazon 6.23782985824e-05
border 0.0
huffingtonpost 9.50923306138e-05
francis 0.0
january 0.0
relationships 0.0
tragic 0.0
secure 0.0
countries 0.0
episodes 0.0
broadcast 0.0
tickled 0.0
livestream 0.000187738571359
potential 5.68146503064e-05
education 0.000332261972001
famous 5.66523967767e-05
unknown 0.0
exists 7.64622619492e-05
orders 0.0
microsoft 0.0
ability 0.0
director 0.0
accessible 0.0
correction 0.0
william 0.0
editors 0.0
yellow 0.0
passionate 0.0
treatment 0.00025791892659
ambassador 0.0
thanking 0.0
streamed 0.0
lovers 8.26902082776e-05
wrinkled 0.0
bridge 0.00013256611557
magazine 0.0
sincere 0.000101338810742
quotes 0.000135485332594
result 0.0
destruction 9.67820118441e-05
edition 0.0
prince 0.000179028207178
indiana 0.0
editorial 0.0
emotion 9.07758195765e-05
mistakes 7.34261352014e-05
inspiring 0.000833013990254
counter 0.0
disappointing 0.0
edited 0.0
spotlight 8.42481512296e-05
saddest 0.0
production 6.56730867747e-05
header 0.0
itunes 0.000543643940449
guests 0.0
snakes 0.0
charging 0.0
arriving 0.0
mysteries 0.0
dangerous 0.0
typically 0.0
saving 0.000119352138119
universe 0.0
victims 5.96760690594e-05
receive 0.000173906345743
proceeds 0.0
crossed 0.0
received 0.0
limitations 0.000128315300404
studying 0.0
conflict 0.0
petition 0.000667479012133
milestones 0.0
outstanding 7.05995688221e-05
devastating 7.62004785492e-05
installment 0.000137690702252
signature 0.0
mistletoe 0.0
awards 5.36857285864e-05
shelves 0.0
smells 0.0
themed 0.0
sisters 0.000783431347901
banquet 0.0
danger 0.0
leading 0.0
member 0.0
dominant 0.0
distinguish 0.0
factories 0.0
distinct 0.0
distance 0.0
confirmed 0.0
behavior 0.0
collect 8.85999651236e-05
vanity 0.0
junior 0.0
communities 0.00031337253916
worldwide 0.0001367689817
canada 0.0
recognized 0.0
vessels 0.0
movement 0.000439270188164
segment 0.0
internal 0.0
information 0.0
easily 0.0
towards 0.0
october 0.000172410503083
belgium 0.0
european 0.0
caribbean 0.0
cities 0.0
arrives 0.0
extraordinary 6.94770612702e-05
exquisite 0.0
argentina 0.000405355242966
eliminate 0.0
genius 0.000163798717003
prepared 0.0
anthony 0.0
breakthrough 0.0
berlin 0.000422834887256
batman 0.0
upcoming 0.0
upgrade 0.0
singapore 0.0
crucial 7.83431347901e-05
scratch 0.0
collaboration 0.0
tested 0.00107896221327
acquire 0.0
honoring 0.000171077237892
holland 0.0
visually 0.0
neyocompound 0.0
inspire 0.000699223804668
ebonymag 0.000169759540434
spiketv 0.0
constant 0.000159483057311
sunset 7.91764305552e-05
tuning 0.0
gentleman 8.96734491412e-05
fulfilling 0.0
ayeeeee 0.0
stratford 0.0
poland 0.000214033084195
philippines 0.000519112693061
kickin 0.0
theweeknd 0.000148322606743
september 5.76356990821e-05
manchester 0.0
rickyrozay 0.0
remarkable 0.0
rihanna 0.000296991269449
disgusted 0.0
immoral 0.0
process 0.0
goosebumps 0.000359775257246
performances 0.00112845690988
strangers 0.0
emotions 0.000259601596085
judgement 0.0
comparing 0.0
thuggin 0.0
studios 0.0
jennifer 8.17831093172e-05
performer 0.0
literally 5.0778909561e-05
cardiff 0.0
soooooooo 0.000167275812563
crashed 0.0
cthagod 0.0
closed 5.84735393799e-05
justinbieber 0.0
complexmag 0.000264440119213
billboard 0.000778804788256
airing 0.0
albums 0.00020462861664
sweden 8.14851519114e-05
katyperry 0.000111703815509
treats 0.0
missouri 0.0
thefader 0.000576024382822
soundtrack 0.000183817348265
theellenshow 0.000175107784452
sweets 0.0
festival 0.000483035329326
wizkhalifa 0.0
amsterdam 0.000104859782943
backstage 0.000147833574652
collab 0.000444350917087
subscribed 0.0
joined 0.0
davidguetta 0.0
pushing 0.0
hopeful 9.19086741325e-05
romantic 9.80966368064e-05
mentions 0.0
lurking 0.0
ballad 0.000475856094552
teamed 0.0
exclusively 0.000168496302459
kingjames 0.000115608574711
hollyrpeete 0.0
sneakers 0.000387771471356
auction 0.000164166499161
sneaker 0.000306296111077
djkhaled 0.00111102633255
express 0.000127022306277
thegrammys 0.0
throughout 6.5072064318e-05
shining 0.000912968026612
excellence 0.0
thrown 0.0
zendaya 0.000464675036384
playin 0.000446815262035
applemusic 0.000883846164597
crunch 0.0
capitalofficial 0.0
filmed 0.0
toronto 0.0
naomicampbell 0.0
trvisxx 0.000689614466798
killin 0.000529619858386
trucks 0.0
stands 0.000227910195924
platinum 0.0
native 8.33062945147e-05
spotify 0.000436055268586
rocked 0.000172398845985
jumped 0.0
leebruhgreene 0.0
leaning 0.0
featured 0.000128959463295
announce 4.76726904732e-05
senior 0.0
iamdiddy 0.000256630600808
haters 0.0
nothin 0.000540695248247
appreciation 0.0
defjamrecords 0.0
floating 9.59284609146e-05
superstars 0.0
shondarhimes 0.0
premiere 0.000200706743546
orchestral 0.0
makeup 0.000176496596097
touched 0.000306902915422
newest 6.62830577848e-05
designed 6.33201552973e-05
passes 0.0
angelasimmons 0.0
tidalhifi 0.000963705483602
vashtie 0.0
delivered 0.000133389619239
owning 0.0
producer 0.0
balmain 0.0
legendary 0.000262692347099
independence 0.0
mtvmusicuk 0.0
audition 0.000434848205901
debuts 0.0
footage 0.0
marshall 0.0
spends 9.38692856797e-05
playtime 0.0
completed 0.0
dishes 0.0
photographed 0.0
bubble 0.0
belong 8.65338653618e-05
tongue 0.0
observing 0.0
consistent 0.0
posing 0.0
heavens 0.0
contemporary 0.0
aiming 0.0
ceremony 0.00021954898573
brighter 0.000109882672906
rainbow 0.000167863574022
matthew 0.0
phenomenal 8.17831093172e-05
affected 0.000316600776486
rivers 0.0
presenting 0.0
competitive 8.23856049212e-05
eskimo 0.0
sibling 0.0
dakota 0.0
printed 0.0
heroes 0.00012512989132
deepest 0.000189361157558
describe 0.000119004205853
hollywood 0.0
baggage 0.0
terrifying 0.0
animation 0.0
nationwide 0.000188545848091
capital 0.0
quantity 0.0
nominations 8.39317870111e-05
mountains 9.80966368064e-05
mosaic 0.0
realise 0.0
overload 0.0
photographer 0.0
depression 0.0
donation 6.94770612702e-05
marvelous 0.0
madonna 0.0
sailed 0.0
terror 0.0
rinsed 0.0
disorder 0.0
polish 0.0
represents 0.0
touchdown 0.0
creates 0.0
oxford 0.0
stitched 0.0
morocco 0.000282724038879
thrill 0.0
balloons 0.0
teaming 0.0
latimes 0.0
kerrywashington 0.000145395007112
caution 0.0
camouflage 0.0
approaching 0.0
generous 0.0
installation 0.0
benefiting 0.0
basics 0.000116297144915
confirm 0.0
thrilling 0.0
photography 0.0
matches 0.0
boundaries 0.000222175458544
singles 0.0
laptop 0.0
obvious 6.94770612702e-05
darling 0.0
celebrations 0.0
chewbacca 0.0
underwater 0.000123905783736
naughty 0.0
advised 0.0
feelin 0.00371596816275
macaroni 0.0
perfection 9.59284609146e-05
picasso 0.0
recipe 0.0
radical 8.58676886885e-05
volcano 0.0
planted 0.0
products 0.0
directed 7.01468684954e-05
grabbed 0.0
frames 0.0
casual 9.99177794097e-05
scheming 0.0
twickenham 0.0
bbcnews 0.0
pledge 0.000153451457711
subtle 0.0
embarrassed 0.0
snatch 0.0
unveiling 0.0
kissed 0.0
arguments 0.0
settling 0.0
desperate 0.0
executive 0.0
humbled 0.000263698871762
courage 6.77426662972e-05
dropping 6.20075362084e-05
carried 0.0
behalf 0.0
hardest 7.56818771598e-05
marking 0.0
vision 0.0
intervention 0.0
records 6.21924979795e-05
deeply 0.00013256611557
mannered 0.0
texted 0.0
israeli 0.0
strongest 9.19086741325e-05
rogers 0.0
concept 0.0
allegiance 0.0
belongs 0.000270112860289
intended 0.0
bosses 0.0
purpose 0.000376514681766
hottest 0.0
campaigns 0.0
sunderland 0.0
teenager 0.0
runway 0.000103313600854
steven 0.0
guitar 0.0
donating 7.41643346815e-05
applause 0.0
finale 0.000361123066161
wasted 0.0
absent 0.0
awhile 0.000112329308005
fierce 0.000193564023688
sincerely 0.0
apology 0.0
climbing 0.0
unwilling 0.0
protesting 0.000103822538612
bikini 0.0
friendships 0.0
matching 0.0
wolves 0.0
mosque 0.0
venezuela 0.0
donates 0.0
generations 0.000162970303823
underestimate 0.0
pardon 0.0
stickers 0.000120690883049
mothers 0.000611698095594
deeper 0.000174422107434
nipple 0.0
perfume 0.0
noodle 0.0
melissa 0.0
forest 8.96734491412e-05
panties 0.0
jimmykimmel 0.000100859636125
everytime 0.000107016542098
underdog 0.0
shoulders 0.0
wrapping 0.0
bedroom 0.0
glitter 0.0
stocking 0.0
annoyed 0.0
behave 0.0
goodbye 0.0
fuckin 0.0
seller 0.000122266806674
joshgroban 0.0
samsungmobileus 0.0
influential 9.63530135503e-05
slicing 0.0
ryanseacrest 0.0
farmer 0.0
teaser 0.0
styled 0.000138878291569
casting 0.0
imitated 0.0
forgiveness 0.0
perezhilton 0.000115608574711
blacked 0.0
paparazzi 0.0
peoplemag 0.0
rolled 8.6871060374e-05
vanityfair 0.000111087729272
rockstar 0.000256630600808
thousand 0.0
minded 0.0
shines 0.0
sunglasses 0.0
auntie 0.000132220059606
magazines 0.0
waited 8.58676886885e-05
denmark 0.0
leather 0.0
wished 0.0
ladygaga 0.00031457934883
swallow 0.0
glblctzn 0.000634474792735
shakira 0.0
accessories 0.0
nbcthevoice 0.00885874399362
clique 0.0
premiering 9.50923306138e-05
loooooove 0.0
weareheremvmt 0.00691187793711
looooove 0.0
vmagazine 0.000990785307138
popcrush 0.000193331612632
studded 0.0
yassssss 0.0
yessss 0.000112329308005
undeniable 0.000406242189275
unicef 0.0
auditions 0.0
ellemagazine 0.000132220059606
yasssss 0.000167275812563
pharrell 0.00351624553298
greece 0.0
papermagazine 0.000145395007112
nowwwww 0.000386663225264
maccosmetics 0.0
macaidsfund 0.0
lipstick 0.0
meeeee 0.0
newsstands 0.0
unapologetically 0.0
insidebates 0.0
legalize 0.0
loooove 0.0
caradelevingne 0.0
allllll 0.0
badgalriri 0.0
itsjeremyscott 0.0
nickiminaj 0.000122266806674
nipples 0.0
booooo 0.0
trippy 0.0
mikewillmadeit 0.0
puttin 0.0
trappin 0.0
alexanderwangny 0.0
karllagerfeld 0.0
celebratin 0.0
lilyallen 0.0
fuuuuuck 0.0
chanel 0.0
rubber 0.0
angelou 0.000136536570644
misses 0.0
harpersbazaarus 0.0001606175806
timberlake 0.0
photoshopped 0.0
whatchu 0.000334551625126
rehearsals 0.000449317232021
couture 0.0
mutual 0.0
creeper 0.0
cuddling 0.0
celine 0.0
theamas 0.0
thexfactor 0.000669103250252
websterhall 0.0
presale 0.0
deluxe 0.0
styles 0.000200772002445
wetten 0.0
shittttttttttt 0.0
boredom 0.0
darealamberrose 0.0
noooooooo 0.0
itunesmusic 0.000129257157119
cbstweet 0.0
thermal 0.0
mariners 0.0
torres 0.0
thebeatles 0.0
blondies 0.0
greeting 0.0
thecut 0.0
geeked 0.0
outlet 0.0
americanexpress 0.0
gqmagazine 0.0
nicole 0.0
bumped 0.0
hangover 0.0
stockholm 0.0
casually 0.0
esquire 0.0
winnipeg 0.0
begging 0.0
showroom 0.0
sleeves 0.0
smelling 0.0
guaranteed 8.85999651236e-05
obsession 0.0
attendant 0.0
aussie 0.0
tbsveryfunny 0.0
reservation 0.0
mollymcnearney 0.0
dragging 0.0
rocnation 0.0
tapered 0.0
badass 0.000180810114405
endlessly 0.000249501069089
vampires 0.0
viewers 0.0
kanyewest 0.000384945901211
designers 0.0
billboards 0.0
backstreetboys 0.0
monteith 0.0
e_fashionpolice 0.0
epically 0.0
internationally 0.0
mighty 0.0
jcolenc 0.0001724036167
semifinals 0.0
brasilia 0.0
tailgating 0.0
photoshoot 0.0
smokin 0.0
ahhhhhh 0.000416634874706
missin 0.0
sweats 0.0
impacted 0.0
rodriguez 0.0
musician 0.000105388422055
merchandise 0.0
jurgen 0.0
athleteally 0.0
originals 0.0
número 0.0
zealand 0.0
hehehe 0.0
fearless 9.76537247877e-05
stadiums 0.0
thiago 0.0
suarez 0.0
cropped 0.0
uruguay 0.0
apparel 0.0
staircase 0.0
wintour 0.0
spotting 0.0
polygraph 0.0
twerking 0.0
shipment 0.0
muggin 0.0
takeoff 0.0
thailand 0.0
tomorr 0.0
googleplay 0.0
budweiser 0.0
miafestival 0.0
dotted 0.0
burning 0.000144449226464
surpass 0.0
betcha 0.000167275812563
onairwithryan 0.000273073141287
dreamers 0.0
brunomars 0.0
beyoncé 0.000241381766098
hellooo 0.0
subscribers 0.0
preorder 0.0
believer 0.0
fragrance 0.000142662730677
hellooooo 0.0
majesty 0.0
beatsbydre 0.0
finland 0.0
fearnecotton 0.0
debuted 0.0
queued 0.0
rhetorical 0.0
iranian 0.0
infamous 0.0
brutally 0.0
execution 0.0
palestinian 0.0
transplant 0.0
audacity 0.0
foreplay 0.0
priced 0.0
huntington 0.0
manger 0.0
weaker 0.0
justintrudeau 0.0
creeping 0.0
fittest 0.0
hoodie 0.0
mankind 0.0
westwood 0.0
holographic 0.0
throwin 0.0
eminem 0.0
ecstatic 0.000299737577665
enjoys 0.0
wussup 0.0
duplicated 0.0
crotch 0.0
congrat 0.0
huggin 0.0
implement 0.0
penalizing 0.0
gonzalez 0.0
bitchin 0.0
sephora 0.0
damien 0.0
demanded 0.0
negativity 0.000123078099773
alancarr 0.0
skillz 0.0
hopeless 0.000125613070881
beatle 0.000203627704073
cheesecake 0.0
almighty 0.0
whatcha 0.0
slumber 0.0
chimney 0.0
headlining 0.0
perplexed 0.0
googleplaymusic 0.000167275812563
thrills 0.0
rollers 0.0
bravotv 0.0
gifted 0.000111087729272
kekepalmer 0.0
styledtorock 0.0
yooouuu 0.0
shantay 0.0
yaaaas 0.0
bestest 0.0
freestyle 0.000242942535677
everrrrr 0.0
sweatband 0.0
podolski 0.0
collaborating 0.0
bestfriend 0.0
sittin 0.0
whaaaat 0.0
clockwork 0.0
warmest 0.0
temptation 0.0
spiritual 0.0
chameleon 0.0
customised 0.0
acrylic 0.0
grasshopper 0.0
engages 0.0
gourmet 0.0
rhythmic 0.0
petals 0.0
klinsmann 0.0
directv 0.0
popcrave 0.0
versailles 0.0
raddest 0.0
grandfather 0.0
persie 0.0
webster 0.0
knight 0.0
footwear 0.0
collectors 0.0
blackout 0.0
skylight 0.0
hammock 0.0
playhouse 0.0
revelers 0.0
executed 0.0
cincinnati 0.0
simultaneously 0.0
malawi 0.0
graduated 0.0
sickening 0.0
mueller 0.0
elonjames 0.0
skeletons 0.0
mittromney 0.0
connecticut 0.0
cumulative 0.0
racked 0.0
valera 0.0
thighs 0.0
timely 0.0
rapping 0.0
shrugs 0.0
enables 0.0
psychic 0.0
fernando 0.0
tourism 0.0
slaughtered 0.0
devotion 0.0
fantasies 0.0
parsons 0.0
stella 0.000133257303938
complainers 0.0
newsstand 0.0
voguemagazine 0.000121471267838
westfield 0.0
manolo 0.0
turquoise 0.0
parisian 0.000158618698184
childs 0.0
swimsuit 0.0
bazaar 0.0
empress 0.0
brainstorm 0.0
tanning 0.0
desirable 0.0
feathers 0.0
antics 0.0
featurette 0.0
olivier 0.0
helloooo 0.0
hallow 0.0
connie 0.000162719013666
upbringing 0.0
privatize 0.0
bittersweet 0.0
outlaw 0.0
marcel 0.0
nowwww 0.0
hushed 0.0
threshold 0.0
floats 0.0
barbados 0.0
manuelcav 0.0
niggaz 0.0
prayin 0.0
drizzyxcole 0.0
homegirl 0.000158618698184
rappin 0.0
witcha 0.0
mufasa 0.0
dainternz 0.0
lololol 0.0
barclayscenter 0.000169759540434
bestbuy 0.0
blackouts 0.0
rivera 0.0
jakemiosge 0.0
givenchy 0.000555331027176
riccardo 0.0
grossed 0.0
guetta 0.0
spicewon 0.0
bitche 0.0
shawty 0.0
wednesdays 0.0
payday 0.0
jewelers 0.0
romero 0.0
acknowledging 0.0
calypso 0.0
blushes 0.0
medusa 0.0
keepers 0.0
futuristic 0.0
whereabouts 0.0
slayed 0.000151475620767
asvpxrocky 0.00224124701709
haaaaa 0.000579994837895
inezandvinoodh 0.000453109164844
calvinharris 0.000156712821398
_maxwell_ 0.000726182306131
bwerde 0.000434825245177
edward_enninful 0.000193331612632
haaaaaa 0.000185110342392
wisest 0.000178266309827
unconditionally 0.000169759540434
drmayaangelou 0.000203627704073
blackgirlsrock 0.000238340618521
submissive 0.0
rearrange 0.0
attuned 0.0
abrams 0.0
awaken 0.0
climbs 0.0
jacking 0.0
seventy 0.0
snatching 0.0
manoloblahnik 0.0
nicolerichie 0.0
openingceremony 0.0
whiteley 0.0
supermodel 0.0
the_real_iman 0.0
minogue 0.0
tmagazine 0.0
baaaaack 0.0
yeessss 0.0
wooooo 0.0
epicness 0.0
takawiraa 0.0
joplin 0.0
uncensored 0.0
unspeakable 0.0
rewrites 0.0
askdrruth 0.0
glozell 0.0
tardiness 0.0
runways 0.0
colombian 0.0
unapologetic 0.0
zac_posen 0.0
rumoured 0.0
omgggg 0.0
futbol 0.0
biatch 0.0
barrington 0.0
catwalk 0.0
sledgehammer 0.0
clemente 0.0
dollaz 0.0
mariah 0.0
granddad 0.0
iyanlavanzant 0.0
hustler 0.0
coletteparis 0.0
flexin 0.0
mistress 0.0
exceeds 0.0
sweeeeeet 0.0
stancesocks 0.0
serviced 0.0
issssss 0.0
lipglass 0.0
externally 0.0
complex_uk 0.0
prideful 0.0
dash_radio 0.0
holidaze 0.0
mawnin 0.0
champagnepapi 0.0
fashawn 0.0
raided 0.0
ahhhhhhhh 0.0
soulmate 0.0
motorbikes 0.0
britishvogue 0.0
gnlstudios 0.0
robinsoncano 0.0
debuting 0.0
cc_sabathia 0.0
colorways 0.0
hit_boy 0.0
_spyda 0.0
phresh 0.0
dominates 0.0
ratchet 0.0
rupaul 0.0
cockpit 0.0
kimmiekyees 0.0
horoscope 0.0
catwalks 0.0
paramedic 0.0
fhollande 0.0
sexiness 0.0
hereeee 0.0
changers 0.0
tiptoes 0.0
revved 0.0
meditative 0.0
fauntleroy 0.0
mbsings 0.0
disrespectfully 0.0
traumatized 0.0
outdid 0.0
elvispresley 0.0
toupee 0.0
josephine 0.0
discography 0.0
mariasharapova 0.0
chinchilla 0.0
skylar 0.0
illestbaba 0.0
georgiamjagger 0.0
pierced 0.0
hardrock 0.0
snorkeling 0.0
thrilla 0.0
gunpoint 0.0
sleeved 0.0
stevestoute 0.0
kiiiiiiiiiiiiinnnngggggg 0.0
lanvin 0.0
chateau 0.0
lizzs_lockeroom 0.0
prophets 0.0
müller 0.0
lullaby 0.0
samersum 0.0
disassembled 0.0
anniversaries 0.0
hayden_williams 0.0
rousteing 0.0
slayage 0.0
raunchy 0.0
benzema 0.0
fuckery 0.0
hellooooooo 0.0
juliagillard 0.0
congeniality 0.0
gunned 0.0
condense 0.0
missjillscott 0.0
yussss 0.0
chopard 0.0
woodbridge 0.0
orousteing 0.0
dubsmash 0.0
alicialquarles 0.0
worldmcqueen 0.0
whateva 0.0
elysées 0.0
jennnrosales 0.0
xstrology 0.0
looool 0.0
tippin 0.0
marleys 0.0
dwanimation 0.0
dreamworks 0.0
yaself 0.0
anothermagazine 0.0
claralionelfdn 0.0
mchingi 0.0
rihannareplay 0.0
awtguide 0.0
ryannavy_rih 0.0
rihquest 0.0
gpforeducation 0.0
valliniandre 0.0
globalfund 0.0
rhenna 0.0
millymaefenty 0.0
peetes 0.0
pandagunda 0.0
floriamamaroma 0.0
adoringrihanna 0.0
ymcofficial 0.0
rihanti_ 0.0
mcdean 0.0
rihannadaily 0.0
stancemuse 0.0
muhtean 0.0
rihdefine 0.0
officialdonnie 0.0
stunnafenty 0.0
perfumesbyriri 0.0
badgal 0.0
shaninamshaik 0.0
reblrihanna 0.0
elliscole_ 0.0
itskaitbh 0.0
harpersbazaarcn 0.0
yusefhairnyc 0.0
mylahmorales 0.0
teamofrihanna 0.0
muhphucka 0.0
harpersbazaar 0.0
rihrihfreak 0.0
thenbacentral 0.0
roversi 0.0
suchaf_cknlady 0.0
fourfiveseconds 0.0
petergrayhair 0.0
wkorea 0.0
dennisleupold 0.0
ursulastephen 0.0
ozzysalvatierra 0.0
ciarrap 0.0
rihannaargntina 0.0
rihearsal 0.0
sremmurd 0.0
id_magazine 0.0
heauxm 0.0
rihpost 0.0
jrgseul 0.0
bitchez 0.0
underst_navy 0.0
sonitaalex 0.0
chris_walden 0.0
danachanel 0.0
wednesdayz 0.0
jimmyfenty 0.0
houseoffraser 0.0
skeete 0.0
_kailssss 0.0
muhphuckas 0.0
phuckin 0.0
rastafarih 0.0
obviiii 0.0
etherihalvibe 0.0
rorreyfenty 0.0
noellaalstrom 0.0
rihturn 0.0
tellar 0.0
esquireuk 0.0
huffpoststyle 0.0
tyronmachhausen 0.0
melottenberg 0.0
paolakudacki 0.0
tompecheuxmu 0.0
lgoldstein_ltd 0.0
phucking 0.0
kudacki 0.0
hellurrr 0.0
tom_ford 0.0
neakah 0.0
creepah 0.0
pahtna 0.0
wontonsan 0.0
cappadonna 0.0
phuckmarqy 0.0
elfies 0.0
starstunning 0.0
ohnana 0.0
tushmagazine 0.0
macxriri 0.0
rickrubin 0.0
findataui 0.0
tristate 0.0
distoyb 0.0
kabukimagicnyc 0.0
yerdme_cmb 0.0
hittas 0.0
evan_erogers 0.0
jessieriri 0.0
unfourgettable 0.0
meeeaan 0.0
shweinsteiger 0.0
goooooooaaaaallllllll 0.0
goooal 0.0
braaaaaaaaaaaaaaaaaa 0.0
asapkoff 0.0
belgiuuuuummm 0.0
druchaos 0.0
cuadrado 0.0
murdaaahhh 0.0
colombiaaaa 0.0
karafenty 0.0
dlsturbla 0.0
braaaaaaaaaaaaaaaaaaaaaa 0.0
abouuuutttt 0.0
takecarerihanna 0.0
nathannavy 0.0
theworidcup 0.0
goooooaaaaaaallllll 0.0
bazaararabia 0.0
bigshitxtalker 0.0
__tatijxo 0.0
lhhatl 0.0
braaaaaaaaaaaa 0.0
rihannanavyrd 0.0
gooooooaaaalllll 0.0
triscastellano 0.0
iiiiiiiiiiiiiiiiiiii 0.0
eatmydaisy 0.0
leggooooal 0.0
yaaaaaassssssss 0.0
prettygirl_sp 0.0
ooohhhhhh 0.0
shiiiiitttt 0.0
roooonnnnnnnneeeeeeeyyyyyy 0.0
muslera 0.0
tadpole 0.0
giusichrisriri 0.0
_xomec 0.0
blockedt 0.0
ooooohhhh 0.0
goooooooaaaaaaalllllllllllllllll 0.0
stefansaxon 0.0
rihannademos 0.0
dragonflycici 0.0
chririh 0.0
rihluminati 0.0
goaaaalllll 0.0
twinzies 0.0
mantlers 0.0
suchaf__cknlady 0.0
glamour_robyn 0.0
adamselman 0.0
sephorafrance 0.0
thefashionlaw 0.0
scout_willis 0.0
quietude 0.0
theblackvoice 0.0
weeeed 0.0
kiiiiss 0.0
dooooon 0.0
miiiiss 0.0
malinsworld 0.0
prompics 0.0
itsalldonn 0.0
goooorrrrrrlllllll 0.0
thenewdaily_ 0.0
wiggin 0.0
stevesoboroff 0.0
pivot_tv 0.0
lapolicefdtn 0.0
scarificing 0.0
whooooose 0.0
sambapologetic 0.0
bellaisevil 0.0
sta_schemin 0.0
i_aim_tyga 0.0
fameisloud 0.0
garcon_rebelle 0.0
itsbreezybiotch 0.0
phaedra 0.0
vivala_stephyy 0.0
_bossmadeg 0.0
kontomitrosnick 0.0
sorrenti 0.0
whenevahhh 0.0
teamvivanco 0.0
heifers 0.0
stevenkolb 0.0
jeremy_brossard 0.0
jordanbrossard 0.0
quilted 0.0
piscesareus 0.0
plumsykes 0.0
cedellamarley 0.0
offish 0.0
urprise 0.0
i_love_riri 0.0
rihannadiva 0.0
javiroo 0.0
frihday 0.0
cuntlifex 0.0
_chris_rated_ 0.0
yewmadcunt 0.0
erinwasson 0.0
balmainparis 0.0
_yadim 0.0
muthaphucka 0.0
onnneeee 0.0
liiiiieeesss 0.0
gautier 0.0
mtvstarsvotes 0.0
zinloves 0.0
chloefrahm 0.0
uprising_create 0.0
uprising_darren 0.0
jonnycrave 0.0
jeff_uprising 0.0
kareemfenty 0.0
daily_rihnavy 0.0
unapologeticunt 0.0
rorrey 0.0
foreverrr 0.0
guyanese 0.0
annndd 0.0
historih 0.0
grandfadda 0.0
arleta 0.0
loreleicakes 0.0
river_island 0.0
finallyyyy 0.0
rodin_thinker 0.0
mrs_toyac 0.0
cheersrihrih 0.0
bangbang 0.0
faiz_fenty 0.0
leandra 0.0
noella 0.0
rasshoooolllleee 0.0
luminati 0.0
inezvinoodh 0.0
visvim 0.0
realne 0.0
sarahfrancus 0.0
tadium 0.0
trapstar 0.0
afrihca 0.0
rihrobyn 0.0
cbsgirlfriend 0.0
shyronnie_rn 0.0
mariamfenty_ 0.0
mizzpmf 0.0
whooooaaaaa 0.0
camkaipink 0.0
yasssssssssssssssssssss 0.0
lunaxskye 0.0
yaaaaasssssss 0.0
niggggaaaaaaa 0.0
breeziechillin 0.0
betologetic 0.0
isusjsjdha 0.0
awffffff 0.0
mcdessikins 0.0
skreets 0.0
pieceofria 0.0
loooool 0.0
craaaazzyyy 0.0
lolarae_xoxo 0.0
stayflysamir 0.0
shotta 0.0
tamarawray 0.0
lauraleehickock 0.0
heauxz 0.0
rihannanavyit 0.0
manilla 0.0
ronnyerickson 0.0
nikofenty 0.0
vincehaycock 0.0
zodiacfacts 0.0
naomiiknows 0.0
wrizzap 0.0
muuuch 0.0
hongkong 0.0
jetlaaaaaagggged 0.0
rasshole 0.0
februharry 0.0
kaşara 0.0
çıkmadı 0.0
dicked 0.0
vinoodh 0.0
rihannasblog 0.0
urihannafansite 0.0
teejay 0.0
stupse 0.0
clapbacks 0.0
niggaaaazzzz 0.0
bwaaahaaaaa 0.0
willheardmusic 0.0
kristennoelgipson 0.0
rsvpgallery 0.0
backout 0.0
bwahhaaa 0.0
errwhurr 0.0
niiiiggaz 0.0
fridayz 0.0
debbycoda 0.0
cabbing 0.0
dolly_cohen 0.0
cowboyz 0.0
friendz 0.0
phucker 0.0
charliebymz 0.0
lynn_ban 0.0
inwardly 0.0
ravening 0.0
whyyyyyyyyyyyy 0.0
thatdamnlala 0.0
adamsellman 0.0
scottland 0.0
kingspleasure 0.0
mikkyekko 0.0
rihannanavide 0.0
saskoktz 0.0
phlawless 0.0
givenchydonc 0.0
mlle_yulia 0.0
oxxoxo 0.0
foreva_rn_ladii 0.0
skinhead 0.0
killaz 0.0
yennifer 0.0
bestofpisces 0.0
smegma 0.0
morganemiller_ 0.0
aa_davis 0.0
beenie 0.0
nickeystaar 0.0
frihannamorocco 0.0
thinketh 0.0
guitarists 0.0
jordriri 0.0
badgalclaudia 0.0
hausofnath 0.0
_abirogerson 0.0
tommykane 0.0
livenationuk 0.0
millenniu 0.0
juuuussttt 0.0
helllooooo 0.0
miiiine 0.0
chaneliman 0.0
blushy 0.0
laetitiacrahay 0.0
rihmix 0.0
dariuscash 0.0
joshkillss 0.0
drunk_cockiness 0.0
firebombfenty 0.0
mooky_mcnasty 0.0
defpenradio 0.0
iamrici 0.0
letcha 0.0
niggerish 0.0
mawazine 0.0
thefashionaddicts 0.0
phierce 0.0
errwhere 0.0
jocking 0.0
niggaaa 0.0
tami_black 0.0
homienadz 0.0
religiosity 0.0
joycemeyer 0.0
brooooklyyyyn 0.0
miiiiine 0.0
dilekkeysan 0.0
marykatrantzou 0.0
allaboutpisces 0.0
jfisherjewelry 0.0
oddhangover 0.0
diggins 0.0
phyliciaghee 0.0
bawsin 0.0
howeverrrrr 0.0
channyyxoxo 0.0
dowwwwnnnnn 0.0
thugbitch 0.0
rihanas 0.0
miiiiiinnneee 0.0
rihwrite 0.0
janiseeaileen 0.0
ratchify 0.0
eeeeeemmmmmm 0.0
pannies 0.0
wooooiiiiiiiiiii 0.0
muhphuckers 0.0
bashment 0.0
whaaaaattttt 0.0
liiifee 0.0
covery 0.0
leeeeaaaavvveeee 0.0
haarrrrrddd 0.0
ismashedriri 0.0
christabslg 0.0
reallll 0.0
peoplez 0.0
wooiiiiii 0.0
slackness 0.0
kevfenty 0.0
woooiii 0.0
tatiana_xo 0.0
fentynavysalute 0.0
ratchettt 0.0
rachael_deanna 0.0
lifeeeeee 0.0
bxdcfjcf 0.0
killled 0.0
asdfghjkjhgtfrdedfghjnhbgvfc 0.0
troy_fenty 0.0
_marrymerihanna 0.0
jkbwdhbwh 0.0
_noellaa 0.0
hunneds 0.0
thekingfly 0.0
dooown 0.0
woooiiiii 0.0
phucked 0.0
kickstand_ohb 0.0
acedemy 0.0
mistercap 0.0
gallest 0.0
sinsofmyfather_ 0.0
dwayneofficial 0.0
_revofev 0.0
joefenty 0.0
thegodlight 0.0
molestmerihanna 0.0
rihannanavyeu 0.0
melina 0.0
terryrichardsonstudio 0.0
_sexxtroversy 0.0
neuroticbxtch 0.0
getcho 0.0
moneyyy 0.0
idillionaire 0.0
yaaaaaaas 0.0
noxx_onite 0.0
phonefancy 0.0
chiefin 0.0
londonfashionwk 0.0
_mayor_ 0.0
rihannanow 0.0
jamrock 0.0
rihannastats 0.0
jenesismagazine 0.0
napmed 0.0
hausofbeyhive_ 0.0
probabily 0.0
badgalelly 0.0
ladylivja 0.0
rihannacomics 0.0
__glitterdick 0.0
chelsey_ba 0.0
stashbox 0.0
thuglife 0.0
highladayz 0.0
brrrap 0.0
kalifah 0.0
marylin 0.0
muthafucker 0.0
stylenetwork 0.0
bvalgari 0.0
oooonly 0.0
fuckyopictures 0.0
amplifydot 0.0
trappat 0.0
soumsluvriri 0.0
ibebossedup 0.0
holerringg 0.0
rihskillerdoll 0.0
equaled 0.0
chefette 0.0
rezilientkas 0.0
blastinggggg 0.0
dammnnn 0.0
lifeandtimes 0.0
hausofjazzy 0.0
kaykispeaks 0.0
condesa 0.0
awaaayyy 0.0
flawle 0.0
mandler 0.0
loudies 0.0
dulcattis 0.0
killaaa 0.0
_loveforrihanna 0.0
yesimkayla 0.0
rollingnostone 0.0
richkunt 0.0
yasssssss 0.0
eriricccccc 0.0
cuntmeout 0.0
sashay 0.0
condragulations 0.0
neverrr 0.0
phasetoo 0.0
fooooorde 0.0
ruunavi 0.0
rihtweet 0.0
ishoobernator 0.0
thirstiest 0.0
j_dimps 0.0
deecosey 0.0
itsrihannasnavy 0.0
muthaphuckin 0.0
