awesome 0.00127412305943
christmas 0.000453810658477
trying 0.000245716587692
launch 0.000351501478567
moment 0.000247044905379
wonderful 0.00013800450139
seeing 0.000631079935495
hanging 0.000309757578456
sounds 8.73855107378e-05
contacts 0.0
anybody 0.0
worked 4.42876792549e-05
direct 0.0
others 0.0
currently 0.000194865379253
better 0.000688731006581
please 0.000821266130711
social 4.58766510931e-05
anxiety 0.0
around 0.000283595120357
people 0.00153951636765
morning 0.00354373459281
damage 0.0
everything 0.000366593233739
present 9.27567475459e-05
though 4.24138845524e-05
friend 0.000409527646154
watched 0.000230007502317
beautiful 0.000335669367219
demanding 0.0
anything 0.000165587014367
tagged 0.0
helped 4.46488726306e-05
thinking 0.000249723516855
finally 0.000707549964422
caught 0.000183506604372
believe 0.000609344056592
already 0.000649966993698
couple 0.000222640583442
launches 6.93671790854e-05
chance 0.000651721304425
annual 5.47614745306e-05
quickly 0.0
growing 0.000146550822461
probably 0.0
changed 8.71496235924e-05
history 0.000125876012707
center 0.0
museum 0.0
behind 0.000810271772448
screaming 0.0
pretty 0.000457826447567
really 0.000814651630531
possibly 5.6668348303e-05
little 0.00150304867293
happiest 0.0
earlier 0.00023830278186
forget 0.000454138292932
someone 0.000123189919607
things 0.000364622297602
available 0.00114208921968
perfect 0.000381724960972
different 8.27935071835e-05
person 8.16850469797e-05
watching 0.00114667740923
exhibit 0.0
passed 9.93265662956e-05
prefer 6.15012221878e-05
minutes 0.000126215987099
travel 0.0
daughter 0.0
positive 0.000144951578784
outside 0.00025863864836
looking 0.000853081679228
forward 0.000627684933205
raising 5.81598144657e-05
impression 7.48406655787e-05
wheels 0.000253763546103
favorite 4.72716229343e-05
instead 0.0
appreciate 0.0
couldn 0.000339311076419
remember 0.000529523559845
impressive 0.0
vintage 0.0
holidays 0.0
friends 0.000204763823077
impossible 0.0
everyone 0.00187369875022
always 0.000972326126937
limited 0.000214153319598
months 0.000255170950013
moving 8.76220866059e-05
meeting 0.0001669318715
answer 8.34659357501e-05
together 0.000204212617449
inside 8.48277691049e-05
upstairs 0.0
missed 0.000743135388434
active 0.0
eventually 0.0
longer 0.0
enough 0.000288219056275
building 0.0
enjoying 0.000249001925507
london 0.000872096527521
posting 0.000122272464869
recent 0.0
amazing 0.00158429454714
attention 4.61267357676e-05
tomorrow 0.0032178739406
whenever 0.0
feeling 0.000724938206507
excited 0.00140344022507
understand 0.0
following 8.55173662651e-05
asleep 7.5096272664e-05
learning 0.000100985883884
evening 0.000326421091683
special 0.00156040564835
secret 9.12562013801e-05
across 0.0
surprised 4.85828567562e-05
candles 0.0
sophia 0.0
version 0.000225066575828
rather 4.57521852851e-05
showing 4.34572105855e-05
saying 0.000255170950013
thoughts 0.000172892109361
exactly 8.80973206793e-05
getting 0.000855384212057
nothing 0.000407325815265
tweets 0.000404023227251
photos 0.0
looked 4.62523593988e-05
difficult 0.0
office 8.80973206793e-05
brought 4.51355281954e-05
biggest 0.000167834683609
thrilled 0.0
entire 0.0
something 0.000529523559845
closing 6.059484012e-05
anyone 0.00036956975882
taking 0.000570256141372
interesting 9.07621316954e-05
original 0.0
flying 0.000102395087704
sometimes 0.0
yesterday 0.000574886291498
serious 0.000305023682573
digital 0.0
wearing 0.000573492420374
british 0.000237436142885
either 0.0
second 0.000123189919607
checking 5.27922022068e-05
indeed 0.00016663538211
island 0.0
hearing 0.000136513184939
staying 0.0
another 0.000487475245273
compare 0.0
bummer 0.0
clothes 0.000202873171328
landing 7.43342391268e-05
weekend 0.00148627077687
delivery 7.45866610563e-05
secretive 0.0
anyway 0.0
recognize 7.28518693056e-05
working 0.000203662907633
bigger 4.77910350311e-05
laughing 0.000531489122209
wanted 0.000288219056275
clothing 0.0
grateful 0.000106476455742
friendship 0.0
family 0.000610988722898
listening 0.000714381962089
stream 0.00039215889832
double 0.000138380207303
especially 4.51355281954e-05
shaking 0.0
waiting 0.00025039780725
definitely 0.000178112466753
account 0.0
completely 0.0
thought 0.000164253226142
possible 0.0
simple 0.000237004264958
professional 6.04159718885e-05
members 0.0
business 0.0
absolutely 0.000348598494369
sending 0.000141814868803
introducing 0.0
congrats 0.000897932345783
community 5.02144969381e-05
keeper 0.000112346909282
greatest 8.90562333767e-05
selfie 0.000243819853116
pasadena 0.0
posted 0.00048185011445
saturday 0.000687843039731
designs 0.0
broken 0.000100985883884
chicago 5.5387179456e-05
glimpse 0.0
actually 0.000208664839375
myself 0.0
pajamas 0.0
school 0.000538157796693
throwback 8.6922610871e-05
thursday 0.000827921424127
selling 5.5703693477e-05
talented 5.35383298996e-05
celebrate 0.000135039945497
celebrating 0.000145748570269
anniversary 9.85094785926e-05
contest 5.30890063813e-05
experiences 0.0
students 0.00010798538533
figure 4.87163448131e-05
featuring 0.000158820997484
inspired 0.000197018957185
breeze 0.0
sitting 0.0
playing 0.00103491883979
street 0.000225677640977
points 0.0
advice 4.77910350311e-05
memory 0.000112688475731
forever 0.000184006001854
imagine 4.53810658477e-05
problem 8.73855107378e-05
played 0.000364035159839
keeping 4.55043949798e-05
lovely 0.00271346982415
dressed 6.5749391072e-05
chinese 0.0
sunshine 0.000338351394804
afternoon 0.000479219352698
notice 0.0
difference 8.90562333767e-05
suppose 0.0
letting 0.0
system 0.0
mutant 0.0
bathroom 0.0
almost 0.00012219774458
details 0.000356224933507
experience 0.000127585475006
luckily 0.0
viewed 0.0
living 4.25284916688e-05
weather 5.20595676195e-05
bright 0.000114648906292
launching 6.63647991879e-05
colors 0.0
monday 0.000467813408357
walked 0.0
pinned 0.0
wanting 6.41525897646e-05
tweeting 4.65047813283e-05
forgot 0.000204222558875
gorgeous 0.000198475868158
herself 0.0
happens 0.000168742553516
learned 0.0
congratulations 8.9782939389e-05
raised 0.000212952911484
mission 0.0
smelled 0.0
unforgettable 0.0
forgotten 0.00018178452036
trouble 0.000251767401129
channel 0.000198106574385
fantastic 0.00043247933839
loving 0.00216239669195
hardly 0.0
dining 0.000104217019277
complete 0.000374070286806
daniel 7.16566915242e-05
rewarding 0.0
spirit 5.27922022068e-05
finding 4.98003851014e-05
stories 8.80973206793e-05
including 0.000588355443102
somewhere 0.0
conversation 4.95266435963e-05
disrespectful 0.0
making 0.000365606433955
expect 0.000146550822461
polite 0.0
brings 9.8238936848e-05
anytime 0.000334948499167
needed 0.000217286052928
seriously 0.000900266303313
modern 0.0
welcome 0.000247044905379
moments 0.000151898656178
jacket 7.18929230309e-05
halloween 0.000305681162171
costume 8.05794363552e-05
totally 0.0
flight 4.88502741537e-05
attached 0.0
finished 0.000292298068879
strong 4.19586709024e-05
message 0.000259338164042
coming 0.00247799916347
temporary 0.0
challenge 0.000446488726306
achievement 0.000151745829518
unlocked 0.000114323573922
happen 8.30170305728e-05
celebrated 0.0
giving 0.000247044905379
excellent 0.0
common 0.0
pressed 0.000111708886826
company 0.0
change 0.000162930326106
singing 0.000980139761884
silver 6.65720302721e-05
august 0.000287450765631
crying 6.41525897646e-05
happened 0.000171497084782
parking 0.0
demand 5.36892186722e-05
sacrifice 0.0
personal 4.42876792549e-05
beyond 0.0
question 0.000457826447567
chicken 0.0
position 5.554512737e-05
losing 0.0
respect 0.0
caption 0.0
shouldn 0.0
career 0.000141814868803
reason 0.0
explore 0.0
glamorous 0.0
reality 0.0
burned 0.0
without 0.000123189919607
problems 0.0
countdown 0.000296333520766
online 0.000219055216515
animals 6.80531096667e-05
buying 5.52298449335e-05
pictures 0.000154448555979
underneath 0.0
camera 5.32382278709e-05
checked 0.0
heading 0.000339148649592
complex 0.0
sunday 0.00122008787529
nights 0.000480484698027
traffic 0.000122272464869
through 5.71594281172e-05
changing 4.99379525973e-05
diapers 0.0
convinced 0.0
capture 0.0
random 0.000178077107164
recorded 0.000247478120302
november 0.000163819639982
number 0.00121025606838
stupid 0.000113336696606
grandparents 0.0
recording 0.000196032755429
chocolate 0.00031214173527
unless 5.02144969381e-05
calling 0.000213793415663
mermaid 0.0
levels 0.0
package 0.0
option 0.0
knowing 0.0
actual 5.41452863997e-05
friday 0.00140370017815
achieve 0.000136538365303
winner 0.000497839221087
becomes 0.0
directly 0.0
quality 0.0
father 4.6378373773e-05
wishes 5.30890063813e-05
themselves 0.0
asking 0.00012931932418
usually 0.0
period 0.0
resist 0.000231604044456
collections 0.0
summer 0.00114217161799
bracelet 0.00011640164935
reminded 0.0
dinner 0.000360106521325
single 0.00193009886151
catching 6.02378898936e-05
energy 9.6899614169e-05
preview 5.7991358553e-05
monster 0.0
material 0.0
events 5.04929419422e-05
europe 0.0
holiday 0.000234431939051
emotional 0.000234677704293
affects 0.0
holding 9.637002289e-05
survive 0.0
eating 0.000254571154444
outfit 0.000669016056784
missing 8.69144211711e-05
surprise 0.000261448870777
german 7.00405506303e-05
officially 9.50609931716e-05
french 0.0
global 0.0
follow 0.000286669352308
design 0.0
improvement 0.0
website 9.93265662956e-05
breaks 0.0
negative 0.0
official 0.000546935944096
jersey 0.00013697282842
france 0.0
lighter 0.0
thinks 0.000142591489757
hospital 5.93590357212e-05
jealous 6.84864142102e-05
successful 5.5703693477e-05
trending 0.000539293761581
leadership 0.0
showed 0.0
attended 0.0
circle 0.0
interested 5.2351033543e-05
effect 5.36892186722e-05
success 0.0
ladies 0.000614491708987
dreams 0.000160614989699
protect 0.0
arguing 0.0
essence 0.0
control 4.55043949798e-05
happier 0.0
likely 0.0
cancel 8.52413078451e-05
project 0.0
laying 0.0
lesson 0.0
fridays 0.0
invited 0.000114648906292
treating 0.0
allowing 0.0
remote 0.0
opening 0.000132863037765
alcohol 9.48622065444e-05
popular 0.0
pedestal 0.0
designing 0.0
followed 5.41452863997e-05
enjoyed 0.000434854736353
spectacular 0.0
recovered 0.000205337081569
length 0.0
matters 5.35383298996e-05
factor 0.00107520256812
england 0.00166693206355
shared 0.0
benefit 0.0
continues 4.96632831478e-05
fathers 0.0
kitchen 0.0
exciting 0.00039080219323
corner 5.81598144657e-05
spring 0.000156178702859
fallen 0.0
victoria 0.0
tornado 0.0
typical 7.58729147591e-05
continue 0.0
creative 0.0
excuse 0.0
female 0.0
closer 5.10556397186e-05
accent 0.0
beginning 0.0
sooner 0.0
everywhere 0.000145748570269
scenes 0.000882548493034
wishing 0.00011802552725
choices 0.0
unpredictable 0.0
become 4.25284916688e-05
photographs 0.0
spread 4.65047813283e-05
season 0.000852937924196
putting 8.55173662651e-05
annoying 0.000159416285608
quietly 0.0
extending 0.0
stance 0.0
sleepy 0.0
returns 0.000163819639982
bucket 7.66647364842e-05
condolences 0.0
register 0.00012118968024
flowers 7.7201348152e-05
define 0.0
somebody 0.0
chicks 0.0
covering 6.29949799078e-05
repeat 0.000227325524291
football 0.000409580350815
brothers 6.24283470541e-05
player 0.000340988286437
physical 0.0
series 0.000265726075529
pretend 0.0
fighting 4.6378373773e-05
atlanta 0.0
mexico 0.0
president 0.0
talking 0.000326740187919
america 4.33399497551e-05
greats 0.0
everybody 0.000100428993876
judgment 0.0
amount 0.0
houston 0.0
everyday 0.000115647200365
shooter 0.0
attitude 7.21305400676e-05
million 0.000256552098795
honesty 0.0
telling 4.62523593988e-05
pulled 0.0
attack 5.24975566272e-05
killed 0.000181524263391
horrible 0.000138734358171
norman 0.0
salute 0.0
jacksonville 0.0
barackobama 7.85748216702e-05
lilduval 0.0
liquor 0.0
american 0.0
realist 0.0
remain 0.0
innocent 0.0
pieces 0.0
taught 6.00605872534e-05
golden 0.000164750991404
straight 0.000315948697368
forgive 0.0
answers 0.000104995113254
product 6.53442518096e-05
smoking 0.0
created 4.89846477051e-05
record 0.000170113966675
weapon 0.0
bottom 0.0
arrangements 0.0
africa 0.0
committed 0.0
journey 0.00010588066499
brother 4.96632831478e-05
prayers 0.0
documentary 6.0954963279e-05
addition 7.09561509236e-05
honestly 0.000174479443397
velvet 0.0
country 0.000126215987099
speedy 0.0
dressing 7.91375194466e-05
employee 0.0
yoooooo 0.0
prayer 0.0
nominated 0.000366817394606
praying 0.0
insane 0.000542141009042
illest 0.0
shooting 0.000152742692666
cancer 0.000255987719259
australia 0.000362495831331
marijuana 0.0
deserve 9.98759051946e-05
legend 0.000597283027545
mother 0.000136143197543
murder 0.0
realest 0.0
powerful 0.0
attendance 0.0
wisdom 6.87048168341e-05
breaking 4.38110433029e-05
bothered 0.0
angeles 7.09561509236e-05
dollars 0.0
soldiers 0.0
performance 0.00127285570217
reading 0.000259338164042
videos 0.000209990226509
jordan 0.0
nobody 0.0
politics 0.0
paradise 0.0
blessing 0.0
coolest 7.21305400676e-05
strippers 0.0
charities 0.0
donate 0.00010983399427
bullshit 0.0
sample 0.0
rocking 0.000206114450502
bringing 0.000137256555855
deserves 0.0
hilarious 0.000161978077996
victim 0.0
stadium 0.000206773209654
funniest 0.0
heaven 6.45459286661e-05
ruined 0.0
honest 0.000101265770785
rolling 0.0
became 5.09142308888e-05
driver 0.0
breakfast 0.000204790175408
decision 0.000203093255667
counting 0.000115647200365
pressure 5.5387179456e-05
awareness 0.0
dearly 0.0
lastnight 0.0
facebook 0.000435748117962
basketball 0.0
campaign 0.000141814868803
twisted 0.0
defined 0.0
discover 0.0
comments 0.000198653132591
giveaway 9.70062829458e-05
bipolar 0.0
teenage 0.000178800392026
williams 0.0
custom 0.0
singer 0.000158843652997
future 0.0
randomly 0.0
angels 0.0
blessed 0.0
sister 0.000219045898123
stripper 0.0
dancing 0.000228637712469
reigns 0.0
voting 0.000150643490814
niggas 0.0
commercial 5.58628826351e-05
hating 0.0
boring 0.000281983057122
century 0.0
acting 0.0
submit 7.04957642804e-05
besides 0.0
hiding 0.0
periscope 0.0
breath 0.000138290372527
choosing 0.0
lawrence 9.32250711317e-05
instagram 5.65059689729e-05
detroit 0.0
cousin 7.99964969653e-05
honored 0.0
dedication 0.0
rockin 0.0
fucked 0.0
lionelrichie 0.000154970942824
talent 0.000271492285248
goodnight 7.80198323253e-05
stores 0.0
drinking 0.00018178452036
brazil 0.0
tattoo 0.0
consecutive 0.0
regardless 7.18929230309e-05
staring 0.0
commitment 0.0
seconds 5.44522089936e-05
ohhhhhh 0.000154970942824
listen 0.000967655901093
whatever 0.000280552715105
wherever 0.0
kicking 0.000402431071883
compete 7.6399072656e-05
lauderdale 0.0
homies 0.0
billion 0.0
belated 0.0
pirate 0.0
shoutout 7.69321538817e-05
grammy 0.0
guilty 0.000206773209654
ceiling 0.0
grammys 0.0
absolute 0.000537374636627
nelson 0.0
mandela 0.0
bigsean 0.0
handle 0.0
tonite 0.0
cocaine 0.0
promise 4.83171929281e-05
longest 0.0
generation 0.0
tuesday 9.25047187977e-05
struggle 6.31856324414e-05
workout 0.000158275038893
character 0.0
mirror 6.63647991879e-05
interview 0.000372570782326
buffalo 0.0
justin 0.0
insights 0.0
winning 0.000347657684684
oxygen 0.0
espnnfl 0.0
charlotte 0.0
accomplished 0.0
defense 0.0
gettin 0.0
arabia 0.0
lmfaooooo 0.0
writing 4.7142803784e-05
soccer 0.000404370409674
society 0.0
brooklyn 0.0
incredible 0.000571085808995
witcho 0.0
celebrity 0.000266288121088
minute 0.000412889859838
foreign 0.0
cherry 0.0
champs 0.0
murdered 0.0
evidence 0.0
android 0.0
sneaking 0.0
clearly 0.0
download 0.000287450765631
mixtape 0.0
central 0.0
washington 0.0
veterans 0.0
stronger 0.0
promised 6.67803268164e-05
marcus 0.000303531223865
zombie 0.0
throwing 0.0
security 0.0
fastest 0.0
fantasy 7.7201348152e-05
turning 0.0
ignore 5.83289737453e-05
fucking 0.0
tickets 0.00344783175074
collector 0.000136160256421
prizes 0.000259742166055
december 0.000113011937946
loyalty 0.0
return 9.00266303313e-05
escape 0.0
yassss 0.0001568556356
goddess 0.0
handsome 0.000174534818902
language 5.69950725627e-05
motion 0.0
gallery 0.0
movies 6.0954963279e-05
children 0.000179079958311
backpack 0.0
potentially 0.0
guardian 0.0
review 9.6899614169e-05
theaters 0.0
shhhhh 0.0
begins 9.74326896263e-05
closet 0.0
bodies 0.0
hahaha 7.28518693056e-05
produced 6.37630330264e-05
latest 0.000176194641359
banned 7.28518693056e-05
beyonce 8.72674094511e-05
perform 0.000651431914038
lionel 0.000259500068327
signed 0.000808046454501
princess 0.0
ghetto 0.0
conditioning 0.0
charity 0.00039781966751
germany 0.000433086710528
ronaldo 0.0
married 0.0
millions 0.0
blessings 0.0
diamond 0.0
nephew 9.20392229044e-05
lights 0.0
howard 0.0
turned 8.92977452611e-05
buckle 0.0
relevant 0.0
performing 0.00150291779162
indian 0.0
includes 6.059484012e-05
tricks 0.000177353439696
survivor 0.0
diamonds 0.0
collection 5.58628826351e-05
families 0.000208238270478
welcoming 0.0
select 0.0
announced 0.00039621314877
granted 0.0
decided 0.000194865379253
selfish 0.0
trailer 0.000123002444376
reppin 0.0
celebration 5.71594281172e-05
decades 0.0
ultimate 0.000177038290875
incase 0.0
downtown 0.0
seasoning 0.0
episode 0.000194331427025
mentality 0.0
touching 0.0
retweet 0.000154878789228
goodmorning 0.0
midnight 0.000329501982809
expectations 7.43342391268e-05
joining 0.000287531611619
reasons 4.74008529916e-05
released 0.000568810235899
release 8.92977452611e-05
models 0.0
popped 0.0
within 0.000103829234475
standing 0.000186019125313
valentines 0.0
justice 5.47614745306e-05
houses 0.000166623449323
purchase 0.0
dropped 5.02144969381e-05
conversations 0.0
seattle 0.0
strength 0.0
monica 0.0
incredibly 0.0
streets 0.0
private 0.000156615115413
inspirational 7.28518693056e-05
barbie 0.0
tables 0.0
affection 0.0
broski 0.0
pissing 0.0
designer 0.0
cooking 0.0
tattoos 0.0
direction 0.0
readyyyyy 0.0
exclusive 0.000434854736353
adrianalima 0.0
fashion 0.0
talkin 0.0
bitches 0.0
nailed 0.0
kitten 0.0
whomever 0.0
ruthless 0.000146673986238
teaching 6.20549472807e-05
chillin 0.000102668540784
philly 0.0
baddest 0.0
cheers 0.00201583935705
autumn 0.0
presents 0.0
flawless 0.0
unique 0.0
handed 0.0
taraji 0.0
victory 0.000116319628931
tribute 5.58628826351e-05
ballin 0.0
horror 0.0
females 0.0
catfish 0.0
action 0.000174771021476
wouldnt 0.0
recipient 0.0
whitney 0.00011640164935
continued 0.000139629695206
esther 0.0
letter 0.0
existence 0.0
papers 0.0
winter 0.00016521935717
sessions 0.000144261080135
replicating 0.0
foundation 0.0
syndrome 0.0
colorado 0.0
tremendous 0.0
public 0.0
cannot 4.53810658477e-05
brilliant 0.00074906928896
illustration 0.0
beware 0.0
globally 0.0
premieres 8.05794363552e-05
streaming 0.000199716090816
immigration 0.0
wrapped 0.00038199536328
studio 0.00056668348303
february 0.000119768114352
amazon 0.000370109745591
border 0.0
huffingtonpost 0.0
francis 0.0
january 0.000112688475731
relationships 0.0
tragic 7.35862747078e-05
secure 0.0
countries 0.0
episodes 7.33399907358e-05
broadcast 0.0
tickled 0.0
livestream 0.000185651838493
potential 0.0
education 0.0
famous 5.602269976e-05
unknown 0.0
exists 0.0
orders 7.30951948936e-05
microsoft 0.0
ability 0.0
director 5.07733139167e-05
accessible 0.0
correction 0.0
william 0.0
editors 0.0
yellow 0.0
passionate 0.0
treatment 0.0
ambassador 7.0267518107e-05
thanking 0.0
streamed 0.000108078376693
lovers 0.0
wrinkled 0.0
bridge 6.55463150146e-05
magazine 0.0
sincere 0.0
quotes 0.0
result 0.000234677704293
destruction 0.0
edition 0.000598974298929
prince 0.00011802552725
indiana 0.0
editorial 0.0
emotion 0.0
mistakes 0.0
inspiring 5.49169971348e-05
counter 0.0
disappointing 0.0
edited 0.000287118810511
spotlight 0.0
saddest 0.0
production 0.0
header 0.0
itunes 0.00147840353116
guests 6.37630330264e-05
snakes 0.0
charging 0.0
arriving 0.000178800392026
mysteries 0.0
dangerous 0.0
typically 0.0
saving 0.0
universe 0.0
victims 0.0
receive 5.73244531462e-05
proceeds 0.0
crossed 0.0
received 0.0
limitations 0.0
studying 0.0
conflict 0.0
petition 0.0
milestones 0.0
outstanding 0.0
devastating 0.0
installment 0.0
signature 0.0
mistletoe 0.0
awards 0.000212356025525
shelves 0.000108661316083
smells 0.0
themed 0.000193136587876
sisters 0.0
banquet 0.0
danger 7.11883211213e-05
leading 0.0
member 4.77910350311e-05
dominant 0.0
distinguish 0.0
factories 0.0
distinct 0.0
distance 0.0
confirmed 0.000177556589169
behavior 0.0
collect 0.0
vanity 0.0
junior 0.0
communities 0.0
worldwide 0.0
canada 0.0
recognized 0.0
vessels 0.0
movement 0.0
segment 0.0
internal 0.0
information 5.50731190568e-05
easily 0.000119768114352
towards 0.0
october 0.000113662762146
belgium 0.0
european 0.0
caribbean 0.00011859210651
cities 0.0
arrives 8.23803367775e-05
extraordinary 0.0
exquisite 0.0
argentina 0.0
eliminate 0.0
genius 0.000269963463326
prepared 0.0
anthony 0.0
breakthrough 0.0
berlin 0.0
batman 0.000187256389485
upcoming 0.0
upgrade 0.0
singapore 0.0
crucial 0.0
scratch 0.0
collaboration 0.0
tested 0.0
acquire 0.0
honoring 0.0
holland 0.000113653912582
visually 0.0
neyocompound 0.0
inspire 0.0
ebonymag 0.0
spiketv 0.0
constant 0.0
sunset 7.82963766661e-05
tuning 0.000179533674653
gentleman 0.0
fulfilling 0.0
ayeeeee 0.0
stratford 0.0
poland 0.0
philippines 0.0
kickin 0.0
theweeknd 0.0
september 5.69950725627e-05
manchester 0.0011075109752
rickyrozay 0.0
remarkable 0.0
rihanna 0.0
disgusted 0.0
immoral 0.0
process 5.17701836133e-05
goosebumps 0.0
performances 0.000159416285608
strangers 0.0
emotions 0.0
judgement 0.0
comparing 0.0
thuggin 0.0
studios 0.000260767832613
jennifer 8.08740819348e-05
performer 0.00010528322788
literally 0.000100428993876
cardiff 0.000621084345613
soooooooo 0.0
crashed 0.0
cthagod 0.0
closed 0.0
justinbieber 0.0
complexmag 0.0
billboard 0.0
airing 0.0
albums 0.00101177074622
sweden 8.05794363552e-05
katyperry 0.000110462216505
treats 8.65807220183e-05
missouri 0.0
thefader 0.0
soundtrack 0.0
theellenshow 0.0
sweets 0.000129750034164
festival 0.000238833171834
wizkhalifa 0.0
amsterdam 0.000207388512084
backstage 0.000219285584681
collab 0.0
subscribed 0.0
joined 9.98759051946e-05
davidguetta 0.0
pushing 0.0
hopeful 0.0
romantic 0.0
mentions 0.0
lurking 0.0
ballad 0.0
teamed 0.0
exclusively 0.000166623449323
kingjames 0.0
hollyrpeete 0.0
sneakers 0.0
auction 0.000324683544437
sneaker 0.0
djkhaled 0.0
express 0.0
thegrammys 0.0
throughout 6.43487818604e-05
shining 0.0
excellence 0.0
thrown 0.0
zendaya 0.0
playin 0.0
applemusic 0.000983274892536
crunch 0.0
capitalofficial 0.00128164908285
filmed 7.80198323253e-05
toronto 0.0
naomicampbell 0.0
trvisxx 0.0
killin 0.0
trucks 0.0
stands 0.0
platinum 0.00021056645576
native 0.0
spotify 0.00319094268516
rocked 8.52413078451e-05
jumped 0.0
leebruhgreene 0.0
leaning 0.0
featured 0.0
announce 0.000141428411352
senior 0.0
iamdiddy 0.0
haters 0.0
nothin 0.0
appreciation 0.0
defjamrecords 0.0
floating 0.0
superstars 0.000126889063096
shondarhimes 0.0
premiere 6.61586227194e-05
orchestral 0.0
makeup 8.72674094511e-05
touched 0.0
newest 0.0
designed 0.0
passes 0.000199716090816
angelasimmons 0.0
tidalhifi 0.0
vashtie 0.0
delivered 0.0
owning 0.0
producer 0.0
balmain 0.0
legendary 0.000129886247786
independence 0.0
mtvmusicuk 0.000661666101173
audition 0.000752525943585
debuts 0.0
footage 6.63647991879e-05
marshall 0.0
spends 0.0
playtime 0.0
completed 0.0
dishes 0.0
photographed 0.00011569704744
bubble 0.0
belong 8.55720328542e-05
tongue 0.0
observing 0.0
consistent 0.0
posing 0.0
heavens 0.0
contemporary 0.0
aiming 0.0
ceremony 0.0
brighter 0.0
rainbow 8.29988768627e-05
matthew 0.0
phenomenal 0.0
affected 6.26163454825e-05
rivers 0.0
presenting 7.7201348152e-05
competitive 0.0
eskimo 0.0
sibling 0.0
dakota 0.0
printed 0.0
heroes 0.000123739060151
deepest 0.0
describe 0.0
hollywood 0.000179124878876
baggage 0.0
terrifying 0.0
animation 0.0
nationwide 0.0
capital 7.30951948936e-05
quantity 0.0
nominations 8.29988768627e-05
mountains 0.0
mosaic 0.0
realise 0.0
overload 0.00012782045098
photographer 0.0
depression 0.0
donation 6.87048168341e-05
marvelous 0.0
madonna 0.0
sailed 0.0
terror 0.0
rinsed 0.0
disorder 0.0
polish 0.0
represents 0.0
touchdown 0.0
creates 0.0
oxford 9.12675121694e-05
stitched 0.0
morocco 0.0
thrill 0.0
balloons 0.0
teaming 0.0
latimes 0.0
kerrywashington 0.0
caution 0.0
camouflage 0.0
approaching 0.0
generous 0.0
installation 0.0
benefiting 0.0
basics 0.0
confirm 0.0
thrilling 0.0
photography 0.0
matches 0.0
boundaries 0.0
singles 0.000109852978128
laptop 0.0
obvious 0.0
darling 0.0
celebrations 0.0
chewbacca 0.0
underwater 0.0
naughty 0.0
advised 0.0
feelin 0.000108078376693
macaroni 0.0
perfection 0.0
picasso 0.0
recipe 0.0
radical 0.0
volcano 0.0
planted 0.0
products 0.0
directed 0.0
grabbed 0.0
frames 0.0
casual 0.000197614366736
scheming 0.0
twickenham 0.0
bbcnews 0.0
pledge 0.0
subtle 0.0
embarrassed 0.0
snatch 0.0
unveiling 0.0
kissed 0.00013282849594
arguments 0.0
settling 0.0
desperate 0.0
executive 0.0
humbled 0.0
courage 0.0
dropping 6.13183162851e-05
carried 0.0
behalf 0.0
hardest 0.0
marking 0.0
vision 0.0
intervention 0.0
records 0.0
deeply 0.0
mannered 0.0
texted 0.0
israeli 0.0
strongest 0.0
rogers 0.0
concept 0.0
allegiance 0.0
belongs 0.0
intended 0.0
bosses 0.0
purpose 0.0
hottest 0.0
campaigns 0.0
sunderland 0.0
teenager 0.0
runway 0.0
steven 0.0
guitar 0.0
donating 0.000146679981472
applause 0.0
finale 0.0
wasted 0.0
absent 0.0
awhile 0.0
fierce 0.0
sincerely 0.0
apology 0.0
climbing 0.00010528322788
unwilling 0.0
protesting 0.0
bikini 0.0
friendships 0.0
matching 0.0
wolves 0.0
mosque 0.0
venezuela 0.0
donates 0.0
generations 0.0
underestimate 0.0
pardon 0.0
stickers 0.0
mothers 0.0
deeper 0.0
nipple 0.0
perfume 0.0
noodle 0.0
melissa 0.0
forest 0.0
panties 0.0
jimmykimmel 0.0
everytime 0.000105827042604
underdog 0.0
shoulders 0.0
wrapping 0.0
bedroom 0.0
glitter 0.0
stocking 0.000120121102632
annoyed 0.000101177074622
behave 0.000108661316083
goodbye 0.000191289099079
fuckin 0.0
seller 0.0
joshgroban 0.0
samsungmobileus 0.0
influential 0.0
slicing 0.0
ryanseacrest 0.0
farmer 0.0
teaser 0.000188893357832
styled 0.000137334645565
casting 0.0
imitated 0.0
forgiveness 0.0
perezhilton 0.0
blacked 0.0
paparazzi 0.00013282849594
peoplemag 0.0
rolled 0.0
vanityfair 0.0
rockstar 0.0
thousand 7.5096272664e-05
minded 0.0
shines 0.000107503706226
sunglasses 0.0
auntie 0.000130750420512
magazines 0.0
waited 0.0
denmark 0.0
leather 0.0
wished 0.0
ladygaga 0.000207388512084
swallow 0.0
glblctzn 0.0
shakira 0.0
accessories 0.0
nbcthevoice 0.0
clique 0.0
premiering 0.0
loooooove 0.0
weareheremvmt 0.0
looooove 0.0
vmagazine 0.0
popcrush 0.0
studded 0.00014820298236
yassssss 0.0
yessss 0.000666484539544
undeniable 0.0
unicef 0.000360363307897
auditions 0.000299583908397
ellemagazine 0.0
yasssss 0.0
pharrell 0.000108661316083
greece 0.0
papermagazine 0.0
nowwwww 0.0
maccosmetics 0.0
macaidsfund 0.0
lipstick 0.0
meeeee 0.0
newsstands 0.0
unapologetically 0.0
insidebates 0.0
legalize 0.0
loooove 0.0
caradelevingne 0.0
allllll 0.0
badgalriri 0.0
itsjeremyscott 0.0
nickiminaj 0.0
nipples 0.000146673986238
booooo 0.0
trippy 0.0
mikewillmadeit 0.0
puttin 0.0
trappin 0.0
alexanderwangny 0.0
karllagerfeld 0.0
celebratin 0.0
lilyallen 0.0
fuuuuuck 0.0
chanel 0.0
rubber 0.0
angelou 0.0
misses 0.0
harpersbazaarus 0.0
timberlake 0.0
photoshopped 0.0
whatchu 0.0
rehearsals 0.0012218883225
couture 0.0
mutual 0.0
creeper 0.0
cuddling 0.0
celine 0.0
theamas 0.0
thexfactor 0.0133987385488
websterhall 0.0
presale 0.000367585675932
deluxe 0.000604538994873
styles 0.0
wetten 0.0
shittttttttttt 0.0
boredom 0.0
darealamberrose 0.0
noooooooo 0.0
itunesmusic 0.0
cbstweet 0.0
thermal 0.0
mariners 0.0
torres 0.0
thebeatles 0.0
blondies 0.0
greeting 0.0
thecut 0.0
geeked 0.0
outlet 0.0
americanexpress 0.0
gqmagazine 0.0
nicole 0.0
bumped 0.0
hangover 0.000325983948249
stockholm 0.000106378256394
casually 0.0
esquire 0.0
winnipeg 0.0
begging 0.0
showroom 0.0
sleeves 0.0
smelling 0.0
guaranteed 8.76151677119e-05
obsession 0.0
attendant 0.0
aussie 0.000106378256394
tbsveryfunny 0.0
reservation 0.0
mollymcnearney 0.0
dragging 0.0
rocnation 0.0
tapered 0.0
badass 0.0
endlessly 0.0
vampires 0.0
viewers 0.0
kanyewest 0.000126889063096
designers 0.0
billboards 0.0
backstreetboys 0.0
monteith 0.0
e_fashionpolice 0.0
epically 0.0
internationally 0.0
mighty 0.0
jcolenc 0.0
semifinals 0.0
brasilia 0.0
tailgating 0.0
photoshoot 0.000250176325348
smokin 0.0
ahhhhhh 0.0
missin 0.0
sweats 0.0
impacted 0.0
rodriguez 0.0
musician 0.0
merchandise 0.0
jurgen 0.0
athleteally 0.0
originals 0.0
número 0.0
zealand 0.0
hehehe 0.0
fearless 0.0
stadiums 0.0
thiago 0.0
suarez 0.0
cropped 0.0
uruguay 0.0
apparel 0.0
staircase 0.0
wintour 0.0
spotting 0.0
polygraph 0.0
twerking 0.0
shipment 0.0
muggin 0.0
takeoff 0.0
thailand 0.0
tomorr 0.0
googleplay 0.0
budweiser 0.0
miafestival 0.0
dotted 0.0
burning 0.0
surpass 0.0
betcha 0.000165416525293
onairwithryan 0.0
dreamers 0.0
brunomars 0.000261500841024
beyoncé 0.0
hellooo 0.0
subscribers 0.0
preorder 0.000103694256042
believer 0.0
fragrance 0.0
hellooooo 0.0
majesty 0.0
beatsbydre 0.0
finland 0.0
fearnecotton 0.000549158467656
debuted 0.0
queued 0.0
rhetorical 0.0
iranian 0.0
infamous 0.0
brutally 0.0
execution 0.0
palestinian 0.0
transplant 0.0
audacity 0.0
foreplay 0.0
priced 0.0
huntington 0.0
manger 0.0
weaker 0.0
justintrudeau 0.0
creeping 0.0
fittest 0.0
hoodie 0.0
mankind 0.0
westwood 0.0
holographic 0.0
throwin 0.0
eminem 0.0
ecstatic 0.0
enjoys 0.0
wussup 0.0
duplicated 0.0
crotch 0.0
congrat 0.0
huggin 0.0
implement 0.0
penalizing 0.0
gonzalez 0.0
bitchin 0.0
sephora 0.0
damien 0.0
demanded 0.0
negativity 0.0
alancarr 0.000732211290208
skillz 0.0
hopeless 0.0
beatle 0.0
cheesecake 0.00013177613577
almighty 0.0
whatcha 0.0
slumber 0.0
chimney 0.0
headlining 0.000386321267617
perplexed 0.0
googleplaymusic 0.000165416525293
thrills 0.0
rollers 0.0
bravotv 0.0
gifted 0.0
kekepalmer 0.0
styledtorock 0.0
yooouuu 0.0
shantay 0.0
yaaaas 0.0
bestest 0.0
freestyle 0.000120121102632
everrrrr 0.0
sweatband 0.0
podolski 0.0
collaborating 0.0
bestfriend 0.0
sittin 0.0
whaaaat 0.0
clockwork 0.0
warmest 0.000125978607059
temptation 0.0
spiritual 0.0
chameleon 0.0
customised 0.0
acrylic 0.0
grasshopper 0.0
engages 0.0
gourmet 0.0
rhythmic 0.0
petals 0.0
klinsmann 0.0
directv 0.0
popcrave 0.0
versailles 0.0
raddest 0.0
grandfather 0.0
persie 0.0
webster 0.0
knight 0.0
footwear 0.0
collectors 0.0
blackout 0.0
skylight 0.0
hammock 0.0
playhouse 0.0
revelers 0.0
executed 0.0
cincinnati 0.0
simultaneously 0.0
malawi 0.0
graduated 0.0
sickening 0.0
mueller 0.0
elonjames 0.0
skeletons 0.0
mittromney 0.0
connecticut 0.0
cumulative 0.0
racked 0.0
valera 0.0
thighs 0.0
timely 0.0
rapping 0.0
shrugs 0.0
enables 0.0
psychic 0.0
fernando 0.0
tourism 0.0
slaughtered 0.0
devotion 0.0
fantasies 0.0
parsons 0.0
stella 0.0
complainers 0.0
newsstand 0.0
voguemagazine 0.0
westfield 0.000167872646282
manolo 0.0
turquoise 0.0
parisian 0.0
childs 0.0
swimsuit 0.0
bazaar 0.0
empress 0.0
brainstorm 0.0
tanning 0.0
desirable 0.0
feathers 0.0
antics 0.0
featurette 0.0
olivier 0.0
helloooo 0.0
hallow 0.0
connie 0.0
upbringing 0.0
privatize 0.0
bittersweet 0.0
outlaw 0.0
marcel 0.0
nowwww 0.000622828677442
hushed 0.0
threshold 0.0
floats 0.0
barbados 0.0
manuelcav 0.0
niggaz 0.0
prayin 0.0
drizzyxcole 0.0
homegirl 0.0
rappin 0.0
witcha 0.0
mufasa 0.0
dainternz 0.0
lololol 0.0
barclayscenter 0.0
bestbuy 0.0
blackouts 0.0
rivera 0.0
jakemiosge 0.0
givenchy 0.000549158467656
riccardo 0.0
grossed 0.0
guetta 0.0
spicewon 0.0
bitche 0.0
shawty 0.0
wednesdays 0.000149791954199
payday 0.0
jewelers 0.0
romero 0.000732211290208
acknowledging 0.0
calypso 0.0
blushes 0.0
medusa 0.0
keepers 0.0
futuristic 0.0
whereabouts 0.0
slayed 0.0
asvpxrocky 0.0
haaaaa 0.0
inezandvinoodh 0.0
calvinharris 0.000154970942824
_maxwell_ 0.0
bwerde 0.0
edward_enninful 0.0
haaaaaa 0.0
wisest 0.0
unconditionally 0.0
drmayaangelou 0.0
blackgirlsrock 0.0
submissive 0.0
rearrange 0.0
attuned 0.0
abrams 0.0
awaken 0.0
climbs 0.0
jacking 0.0
seventy 0.0
snatching 0.0
manoloblahnik 0.0
nicolerichie 0.0
openingceremony 0.0
whiteley 0.0
supermodel 0.0
the_real_iman 0.0
minogue 0.0
tmagazine 0.0
baaaaack 0.0
yeessss 0.0
wooooo 0.000165416525293
epicness 0.0
takawiraa 0.0
joplin 0.0
uncensored 0.0
unspeakable 0.0
rewrites 0.0
askdrruth 0.0
glozell 0.0
tardiness 0.0
runways 0.0
colombian 0.0
unapologetic 0.0
zac_posen 0.0
rumoured 0.0
omgggg 0.0
futbol 0.0
biatch 0.0
barrington 0.0
catwalk 0.0
sledgehammer 0.0
clemente 0.0
dollaz 0.0
mariah 0.0
granddad 0.0
iyanlavanzant 0.0
hustler 0.0
coletteparis 0.0
flexin 0.0
mistress 0.0
exceeds 0.0
sweeeeeet 0.0
stancesocks 0.0
serviced 0.0
issssss 0.0
lipglass 0.0
externally 0.0
complex_uk 0.0
prideful 0.0
dash_radio 0.0
holidaze 0.0
mawnin 0.0
champagnepapi 0.0
fashawn 0.0
raided 0.0
ahhhhhhhh 0.0
soulmate 0.0
motorbikes 0.0
britishvogue 0.0
gnlstudios 0.0
robinsoncano 0.0
debuting 0.0
cc_sabathia 0.0
colorways 0.0
hit_boy 0.0
_spyda 0.0
phresh 0.0
dominates 0.0
ratchet 0.0
rupaul 0.0
cockpit 0.0
kimmiekyees 0.0
horoscope 0.0
catwalks 0.0
paramedic 0.0
fhollande 0.0
sexiness 0.0
hereeee 0.0
changers 0.0
tiptoes 0.0
revved 0.0
meditative 0.0
fauntleroy 0.0
mbsings 0.0
disrespectfully 0.0
traumatized 0.0
outdid 0.0
elvispresley 0.0
toupee 0.0
josephine 0.0
discography 0.0
mariasharapova 0.0
chinchilla 0.0
skylar 0.0
illestbaba 0.0
georgiamjagger 0.0
pierced 0.0
hardrock 0.0
snorkeling 0.0
thrilla 0.0
gunpoint 0.0
sleeved 0.0
stevestoute 0.0
kiiiiiiiiiiiiinnnngggggg 0.0
lanvin 0.0
chateau 0.0
lizzs_lockeroom 0.0
prophets 0.0
müller 0.0
lullaby 0.0
samersum 0.0
disassembled 0.0
anniversaries 0.0
hayden_williams 0.0
rousteing 0.0
slayage 0.0
raunchy 0.00019595452601
benzema 0.0
fuckery 0.0
hellooooooo 0.0
juliagillard 0.0
congeniality 0.0
gunned 0.0
condense 0.0
missjillscott 0.0
yussss 0.0
chopard 0.0
woodbridge 0.0
orousteing 0.0
dubsmash 0.0
alicialquarles 0.0
worldmcqueen 0.000429992119392
whateva 0.0
elysées 0.0
jennnrosales 0.0
xstrology 0.0
looool 0.0
tippin 0.0
marleys 0.0
dwanimation 0.0
dreamworks 0.0
yaself 0.0
anothermagazine 0.0
claralionelfdn 0.0
mchingi 0.0
rihannareplay 0.0
awtguide 0.0
ryannavy_rih 0.0
rihquest 0.0
gpforeducation 0.0
valliniandre 0.0
globalfund 0.0
rhenna 0.0
millymaefenty 0.0
peetes 0.0
pandagunda 0.0
floriamamaroma 0.0
adoringrihanna 0.0
ymcofficial 0.0
rihanti_ 0.0
mcdean 0.0
rihannadaily 0.0
stancemuse 0.0
muhtean 0.0
rihdefine 0.0
officialdonnie 0.0
stunnafenty 0.0
perfumesbyriri 0.0
badgal 0.0
shaninamshaik 0.0
reblrihanna 0.0
elliscole_ 0.0
itskaitbh 0.0
harpersbazaarcn 0.0
yusefhairnyc 0.0
mylahmorales 0.0
teamofrihanna 0.0
muhphucka 0.0
harpersbazaar 0.0
rihrihfreak 0.0
thenbacentral 0.0
roversi 0.0
suchaf_cknlady 0.0
fourfiveseconds 0.0
petergrayhair 0.0
wkorea 0.0
dennisleupold 0.0
ursulastephen 0.0
ozzysalvatierra 0.0
ciarrap 0.0
rihannaargntina 0.0
rihearsal 0.0
sremmurd 0.0
id_magazine 0.0
heauxm 0.0
rihpost 0.0
jrgseul 0.0
bitchez 0.0
underst_navy 0.0
sonitaalex 0.0
chris_walden 0.0
danachanel 0.0
wednesdayz 0.0
jimmyfenty 0.0
houseoffraser 0.0
skeete 0.0
_kailssss 0.0
muhphuckas 0.0
phuckin 0.0
rastafarih 0.0
obviiii 0.0
etherihalvibe 0.0
rorreyfenty 0.0
noellaalstrom 0.0
rihturn 0.0
tellar 0.0
esquireuk 0.0
huffpoststyle 0.0
tyronmachhausen 0.0
melottenberg 0.0
paolakudacki 0.0
tompecheuxmu 0.0
lgoldstein_ltd 0.0
phucking 0.0
kudacki 0.0
hellurrr 0.0
tom_ford 0.0
neakah 0.0
creepah 0.0
pahtna 0.0
wontonsan 0.0
cappadonna 0.0
phuckmarqy 0.0
elfies 0.0
starstunning 0.0
ohnana 0.0
tushmagazine 0.0
macxriri 0.0
rickrubin 0.0
findataui 0.0
tristate 0.0
distoyb 0.0
kabukimagicnyc 0.0
yerdme_cmb 0.0
hittas 0.0
evan_erogers 0.0
jessieriri 0.0
unfourgettable 0.0
meeeaan 0.0
shweinsteiger 0.0
goooooooaaaaallllllll 0.0
goooal 0.0
braaaaaaaaaaaaaaaaaa 0.0
asapkoff 0.0
belgiuuuuummm 0.0
druchaos 0.0
cuadrado 0.0
murdaaahhh 0.0
colombiaaaa 0.0
karafenty 0.0
dlsturbla 0.0
braaaaaaaaaaaaaaaaaaaaaa 0.0
abouuuutttt 0.0
takecarerihanna 0.0
nathannavy 0.0
theworidcup 0.0
goooooaaaaaaallllll 0.0
bazaararabia 0.0
bigshitxtalker 0.0
__tatijxo 0.0
lhhatl 0.0
braaaaaaaaaaaa 0.0
rihannanavyrd 0.0
gooooooaaaalllll 0.0
triscastellano 0.0
iiiiiiiiiiiiiiiiiiii 0.0
eatmydaisy 0.0
leggooooal 0.0
yaaaaaassssssss 0.0
prettygirl_sp 0.0
ooohhhhhh 0.0
shiiiiitttt 0.0
roooonnnnnnnneeeeeeeyyyyyy 0.0
muslera 0.0
tadpole 0.0
giusichrisriri 0.0
_xomec 0.0
blockedt 0.0
ooooohhhh 0.0
goooooooaaaaaaalllllllllllllllll 0.0
stefansaxon 0.0
rihannademos 0.0
dragonflycici 0.0
chririh 0.0
rihluminati 0.0
goaaaalllll 0.0
twinzies 0.0
mantlers 0.0
suchaf__cknlady 0.0
glamour_robyn 0.0
adamselman 0.0
sephorafrance 0.0
thefashionlaw 0.0
scout_willis 0.0
quietude 0.0
theblackvoice 0.0
weeeed 0.0
kiiiiss 0.0
dooooon 0.0
miiiiss 0.0
malinsworld 0.0
prompics 0.0
itsalldonn 0.0
goooorrrrrrlllllll 0.0
thenewdaily_ 0.0
wiggin 0.0
stevesoboroff 0.0
pivot_tv 0.0
lapolicefdtn 0.0
scarificing 0.0
whooooose 0.0
sambapologetic 0.0
bellaisevil 0.0
sta_schemin 0.0
i_aim_tyga 0.0
fameisloud 0.0
garcon_rebelle 0.0
itsbreezybiotch 0.0
phaedra 0.0
vivala_stephyy 0.0
_bossmadeg 0.0
kontomitrosnick 0.0
sorrenti 0.0
whenevahhh 0.0
teamvivanco 0.0
heifers 0.0
stevenkolb 0.0
jeremy_brossard 0.0
jordanbrossard 0.0
quilted 0.0
piscesareus 0.0
plumsykes 0.0
cedellamarley 0.0
offish 0.0
urprise 0.0
i_love_riri 0.0
rihannadiva 0.0
javiroo 0.0
frihday 0.0
cuntlifex 0.0
_chris_rated_ 0.0
yewmadcunt 0.0
erinwasson 0.0
balmainparis 0.000224036405738
_yadim 0.0
muthaphucka 0.0
onnneeee 0.0
liiiiieeesss 0.0
gautier 0.0
mtvstarsvotes 0.0
zinloves 0.0
chloefrahm 0.0
uprising_create 0.0
uprising_darren 0.0
jonnycrave 0.0
jeff_uprising 0.0
kareemfenty 0.0
daily_rihnavy 0.0
unapologeticunt 0.0
rorrey 0.0
foreverrr 0.0
guyanese 0.0
annndd 0.0
historih 0.0
grandfadda 0.0
arleta 0.0
loreleicakes 0.0
river_island 0.0
finallyyyy 0.0
rodin_thinker 0.0
mrs_toyac 0.0
cheersrihrih 0.0
bangbang 0.0
faiz_fenty 0.0
leandra 0.0
noella 0.0
rasshoooolllleee 0.0
luminati 0.0
inezvinoodh 0.0
visvim 0.0
realne 0.0
sarahfrancus 0.0
tadium 0.0
trapstar 0.0
afrihca 0.0
rihrobyn 0.0
cbsgirlfriend 0.0
shyronnie_rn 0.0
mariamfenty_ 0.0
mizzpmf 0.0
whooooaaaaa 0.0
camkaipink 0.0
yasssssssssssssssssssss 0.0
lunaxskye 0.0
yaaaaasssssss 0.0
niggggaaaaaaa 0.0
breeziechillin 0.0
betologetic 0.0
isusjsjdha 0.0
awffffff 0.0
mcdessikins 0.0
skreets 0.0
pieceofria 0.0
loooool 0.0
craaaazzyyy 0.0
lolarae_xoxo 0.0
stayflysamir 0.0
shotta 0.0
tamarawray 0.0
lauraleehickock 0.0
heauxz 0.0
rihannanavyit 0.0
manilla 0.0
ronnyerickson 0.0
nikofenty 0.0
vincehaycock 0.0
zodiacfacts 0.0
naomiiknows 0.0
wrizzap 0.0
muuuch 0.0
hongkong 0.0
jetlaaaaaagggged 0.0
rasshole 0.0
februharry 0.0
kaşara 0.0
çıkmadı 0.0
dicked 0.0
vinoodh 0.0
rihannasblog 0.0
urihannafansite 0.0
teejay 0.0
stupse 0.0
clapbacks 0.0
niggaaaazzzz 0.0
bwaaahaaaaa 0.0
willheardmusic 0.0
kristennoelgipson 0.0
rsvpgallery 0.0
backout 0.0
bwahhaaa 0.0
errwhurr 0.0
niiiiggaz 0.0
fridayz 0.0
debbycoda 0.0
cabbing 0.0
dolly_cohen 0.0
cowboyz 0.0
friendz 0.0
phucker 0.0
charliebymz 0.0
lynn_ban 0.0
inwardly 0.0
ravening 0.0
whyyyyyyyyyyyy 0.0
thatdamnlala 0.0
adamsellman 0.0
scottland 0.0
kingspleasure 0.0
mikkyekko 0.0
rihannanavide 0.0
saskoktz 0.0
phlawless 0.0
givenchydonc 0.0
mlle_yulia 0.0
oxxoxo 0.0
foreva_rn_ladii 0.0
skinhead 0.0
killaz 0.0
yennifer 0.0
bestofpisces 0.0
smegma 0.0
morganemiller_ 0.0
aa_davis 0.0
beenie 0.0
nickeystaar 0.0
frihannamorocco 0.0
thinketh 0.0
guitarists 0.0
jordriri 0.0
badgalclaudia 0.0
hausofnath 0.0
_abirogerson 0.0
tommykane 0.0
livenationuk 0.000429992119392
millenniu 0.0
juuuussttt 0.0
helllooooo 0.0
miiiine 0.0
chaneliman 0.0
blushy 0.0
laetitiacrahay 0.0
rihmix 0.0
dariuscash 0.0
joshkillss 0.0
drunk_cockiness 0.0
firebombfenty 0.0
mooky_mcnasty 0.0
defpenradio 0.0
iamrici 0.0
letcha 0.0
niggerish 0.0
mawazine 0.0
thefashionaddicts 0.0
phierce 0.0
errwhere 0.0
jocking 0.0
niggaaa 0.0
tami_black 0.0
homienadz 0.0
religiosity 0.0
joycemeyer 0.0
brooooklyyyyn 0.0
miiiiine 0.0
dilekkeysan 0.0
marykatrantzou 0.0
allaboutpisces 0.0
jfisherjewelry 0.0
oddhangover 0.0
diggins 0.0
phyliciaghee 0.0
bawsin 0.0
howeverrrrr 0.0
channyyxoxo 0.0
dowwwwnnnnn 0.0
thugbitch 0.0
rihanas 0.0
miiiiiinnneee 0.0
rihwrite 0.0
janiseeaileen 0.0
ratchify 0.0
eeeeeemmmmmm 0.0
pannies 0.0
wooooiiiiiiiiiii 0.0
muhphuckers 0.0
bashment 0.0
whaaaaattttt 0.0
liiifee 0.0
covery 0.0
leeeeaaaavvveeee 0.0
haarrrrrddd 0.0
ismashedriri 0.0
christabslg 0.0
reallll 0.0
peoplez 0.0
wooiiiiii 0.0
slackness 0.0
kevfenty 0.0
woooiii 0.0
tatiana_xo 0.0
fentynavysalute 0.0
ratchettt 0.0
rachael_deanna 0.0
lifeeeeee 0.0
bxdcfjcf 0.0
killled 0.0
asdfghjkjhgtfrdedfghjnhbgvfc 0.0
troy_fenty 0.0
_marrymerihanna 0.0
jkbwdhbwh 0.0
_noellaa 0.0
hunneds 0.0
thekingfly 0.0
dooown 0.0
woooiiiii 0.0
phucked 0.0
kickstand_ohb 0.0
acedemy 0.0
mistercap 0.0
gallest 0.0
sinsofmyfather_ 0.0
dwayneofficial 0.0
_revofev 0.0
joefenty 0.0
thegodlight 0.0
molestmerihanna 0.0
rihannanavyeu 0.0
melina 0.0
terryrichardsonstudio 0.0
_sexxtroversy 0.0
neuroticbxtch 0.0
getcho 0.0
moneyyy 0.0
idillionaire 0.0
yaaaaaaas 0.0
noxx_onite 0.0
phonefancy 0.0
chiefin 0.0
londonfashionwk 0.0
_mayor_ 0.0
rihannanow 0.0
jamrock 0.0
rihannastats 0.0
jenesismagazine 0.0
napmed 0.0
hausofbeyhive_ 0.0
probabily 0.0
badgalelly 0.0
ladylivja 0.0
rihannacomics 0.0
__glitterdick 0.0
chelsey_ba 0.0
stashbox 0.0
thuglife 0.0
highladayz 0.0
brrrap 0.0
kalifah 0.0
marylin 0.0
muthafucker 0.0
stylenetwork 0.0
bvalgari 0.0
oooonly 0.0
fuckyopictures 0.0
amplifydot 0.0
trappat 0.0
soumsluvriri 0.0
ibebossedup 0.0
holerringg 0.0
rihskillerdoll 0.0
equaled 0.0
chefette 0.0
rezilientkas 0.0
blastinggggg 0.0
dammnnn 0.0
lifeandtimes 0.0
hausofjazzy 0.0
kaykispeaks 0.0
condesa 0.0
awaaayyy 0.0
flawle 0.0
mandler 0.0
loudies 0.0
dulcattis 0.0
killaaa 0.0
_loveforrihanna 0.0
yesimkayla 0.0
rollingnostone 0.0
richkunt 0.0
yasssssss 0.0
eriricccccc 0.0
cuntmeout 0.0
sashay 0.0
condragulations 0.0
neverrr 0.0
phasetoo 0.0
fooooorde 0.0
ruunavi 0.0
rihtweet 0.0
ishoobernator 0.0
thirstiest 0.0
j_dimps 0.0
deecosey 0.0
itsrihannasnavy 0.0
muthaphuckin 0.0
