awesome 0.0
christmas 8.05274501858e-05
trying 0.000290678206951
launch 2.97014134659e-05
moment 0.000121770659317
wonderful 0.000108837859075
seeing 9.95407952529e-05
hanging 0.0
sounds 0.000103375453051
contacts 0.0
anybody 3.71487106628e-05
worked 5.23915105478e-05
direct 3.43013556414e-05
others 0.000208435022257
currently 0.000115261081008
better 0.000742865875813
please 0.000364328526638
social 0.000189949322594
anxiety 0.0
around 0.000167743907442
people 0.00182121956651
morning 0.000337301266947
damage 0.0
everything 2.40929476391e-05
present 2.74323818678e-05
though 0.000551923304408
friend 0.000193785471301
watched 5.44189295374e-05
beautiful 2.48181682371e-05
demanding 0.0
anything 9.79431972475e-05
tagged 6.97064331038e-05
helped 0.0
thinking 0.000221563747877
finally 0.000147709165251
caught 0.0
believe 0.000432505691496
already 0.000576674255328
couple 2.63379718062e-05
launches 8.20600978843e-05
chance 0.00026502242403
annual 0.0
quickly 0.0
growing 2.88944882261e-05
probably 0.000287374584939
changed 0.00030928920868
history 0.000173727177659
center 0.0
museum 4.18333671351e-05
behind 0.000359451230232
screaming 4.45709043233e-05
pretty 0.000147709165251
really 0.00115646148668
possibly 0.000201112843422
little 0.00024028093972
happiest 0.0
earlier 0.000197335467643
forget 0.000146519250939
someone 0.000485771368851
things 0.000359451230232
available 5.00396501925e-05
perfect 2.50874229276e-05
different 0.00039177278899
person 0.0003382116822
watching 0.0
exhibit 0.0
passed 0.000117501502298
prefer 0.000218264446354
minutes 7.46555964396e-05
travel 0.0
daughter 2.91337256409e-05
positive 0.000114316702321
outside 0.0
looking 0.000288337127664
forward 4.95026492725e-05
raising 0.0
impression 0.0
wheels 0.0
favorite 0.0
instead 0.000135678087567
appreciate 5.66907686156e-05
couldn 0.000175611960494
remember 0.000530044848059
impressive 3.31369120574e-05
vintage 5.49056781609e-05
holidays 3.44009957657e-05
friends 9.68927356505e-05
impossible 3.27610076381e-05
everyone 0.000168650633473
always 0.000551158553023
limited 0.0
months 2.51552119837e-05
moving 0.0
meeting 0.000123423334853
answer 0.00039495467153
together 0.0001449478638
inside 0.000100349691711
upstairs 0.0
missed 0.000195359001252
active 0.0
eventually 4.38196385543e-05
longer 8.34257440731e-05
enough 0.000535790900993
building 0.00013530998566
enjoying 0.0
london 0.00022926092508
posting 0.0
recent 0.000477693936064
amazing 0.000144168563832
attention 0.000136417701501
tomorrow 0.000361394214586
whenever 0.0
feeling 0.000100892773398
excited 0.000100620847935
understand 7.8800274114e-05
following 0.000126456840595
asleep 0.0
learning 0.0
evening 5.51643074025e-05
special 0.000315751389753
secret 5.39772044686e-05
across 0.000269154314435
surprised 5.74726265862e-05
candles 0.0
sophia 0.0
version 0.000133124811233
rather 0.000243557974187
showing 5.1409081376e-05
saying 0.00040248339174
thoughts 7.66980703518e-05
exactly 0.0
getting 0.000192743581113
nothing 0.000168650633473
tweets 0.000159317350621
photos 5.82674512819e-05
looked 5.47156910471e-05
difficult 0.000127026717755
office 0.000286598155604
brought 2.66972501304e-05
biggest 0.000124090841185
thrilled 3.67049310293e-05
entire 0.00010707902695
something 0.00026502242403
closing 7.16825821245e-05
anyone 0.000582925642621
taking 0.000457766005142
interesting 0.00045632221772
original 5.70019828955e-05
flying 0.0
sometimes 0.00013276445885
yesterday 0.000340039958195
serious 0.000103096402893
digital 0.000285883937177
wearing 0.0
british 0.000702206482349
either 0.00013133379019
second 0.000315751389753
checking 6.24522048862e-05
indeed 0.000492816485665
island 0.0
hearing 0.000161492588661
staying 9.77257313944e-05
another 0.000768899007104
compare 8.79360386184e-05
bummer 0.0
clothes 0.0
landing 0.0
weekend 0.000293038501878
delivery 4.41173245607e-05
secretive 0.0
anyway 0.00028024923537
recognize 0.0
working 0.000120464738195
bigger 0.000226143664157
laughing 0.0
wanted 0.000170478923043
clothing 0.0
grateful 6.29798450489e-05
friendship 0.0
family 0.000144557685834
listening 0.0
stream 0.0
double 0.000109134161201
especially 5.33945002609e-05
shaking 0.0
waiting 9.87386678825e-05
definitely 0.000184365802643
account 0.000339215496235
completely 5.71583511604e-05
thought 0.000680079916391
possible 0.000203976511475
simple 5.6074337858e-05
professional 0.0
members 0.00048587370718
business 2.5984000594e-05
absolutely 0.000206192805787
sending 5.59214610754e-05
introducing 3.86505244294e-05
congrats 0.0
community 8.91042403976e-05
keeper 0.0
greatest 5.26759436123e-05
selfie 3.60543006012e-05
pasadena 0.0
posted 5.70019828955e-05
saturday 0.000305139627524
designs 0.000129244013912
broken 0.000209062777888
chicago 3.27610076381e-05
glimpse 0.0
actually 0.00081459401003
myself 0.0
pajamas 0.0
school 0.000269343792431
throwback 0.0
thursday 0.00015464460434
selling 0.0
talented 3.16674301164e-05
celebrate 0.0
celebrating 5.74726265862e-05
anniversary 0.00032047098205
contest 0.000125606637539
experiences 0.0
students 3.19361815167e-05
figure 2.8815270252e-05
featuring 9.39411604413e-05
inspired 2.91337256409e-05
breeze 0.0
sitting 8.16283943061e-05
playing 0.0
street 0.000373761501826
points 0.0005866972093
advice 0.0
memory 6.66541977837e-05
forever 0.0
imagine 0.000134212416976
problem 0.000206750906102
played 0.000107661725774
keeping 2.69154314435e-05
lovely 0.000423960273536
dressed 0.0
chinese 7.77803211597e-05
sunshine 0.0
afternoon 2.83453843078e-05
notice 0.00016333972857
difference 0.000105351887225
suppose 4.63115872515e-05
letting 2.96194871798e-05
system 0.000180691798003
mutant 0.0
bathroom 0.0
almost 0.000192743581113
details 0.0
experience 5.03104239675e-05
luckily 0.0
viewed 5.76402227278e-05
living 5.03104239675e-05
weather 0.0
bright 6.78137744445e-05
launching 0.0
colors 0.0
monday 0.000125776059919
walked 3.62692205651e-05
pinned 0.0
wanting 7.58913345623e-05
tweeting 5.50143015502e-05
forgot 0.000120795766762
gorgeous 3.91322173384e-05
herself 0.0
happens 7.4857252241e-05
learned 0.000111538140777
congratulations 0.000159317350621
raised 3.14899225244e-05
mission 3.26679457139e-05
smelled 0.0
unforgettable 0.0
forgotten 0.000143365164249
trouble 0.000119134483213
channel 8.78836636067e-05
fantastic 0.000170538369438
loving 5.68461231461e-05
hardly 0.000268344154255
dining 0.0
complete 0.0
daniel 0.0
rewarding 7.29686249394e-05
spirit 0.0
finding 0.000147282350601
stories 7.81631333464e-05
including 0.000240927810637
somewhere 3.14016593847e-05
conversation 5.85891090711e-05
disrespectful 0.0
making 0.000192224751776
expect 8.66834646784e-05
polite 0.000114756649742
brings 0.0
anytime 0.0
needed 2.5704540688e-05
seriously 5.3249924493e-05
modern 6.94048526965e-05
welcome 0.000170478923043
moments 2.99488863917e-05
jacket 0.0
halloween 0.0
costume 0.0
totally 0.000111234325431
flight 0.0
attached 0.0
finished 2.8815270252e-05
strong 0.000545999701215
message 0.000230094211055
coming 0.000216252845748
temporary 0.0
challenge 0.000105637591345
achievement 0.0
unlocked 0.0
happen 0.000196415242617
celebrated 0.0
giving 9.74165274533e-05
excellent 0.00053382820954
common 5.95672416065e-05
pressed 0.0
company 0.000109134161201
change 0.000795067272089
singing 0.0
silver 0.0
august 0.0
crying 7.58913345623e-05
happened 0.000228237636565
parking 9.46343855686e-05
demand 6.35133588776e-05
sacrifice 0.0
personal 0.000104783021096
beyond 8.07462943306e-05
question 0.000763164020466
chicken 6.92030552165e-05
position 0.000131417729511
losing 0.000297014134659
respect 5.26759436123e-05
caption 0.000153033508654
shouldn 0.000172891621512
career 5.59214610754e-05
reason 0.000152158424377
explore 4.78362762287e-05
glamorous 0.0
reality 0.00011463046254
burned 0.0
without 0.000485771368851
problems 5.94028269317e-05
countdown 0.0
online 0.000129569147443
animals 0.0
buying 3.26679457139e-05
pictures 0.0
underneath 0.0
camera 0.0
checked 0.0
heading 0.000143288078175
complex 3.96237918137e-05
sunday 0.00151799712761
nights 0.0
traffic 0.0
through 0.000202855658605
changing 8.86135200892e-05
diapers 0.0
convinced 8.53291031355e-05
capture 0.0
random 0.000280882592939
recorded 0.0
november 6.45985410273e-05
number 0.000543062673354
stupid 0.000100556421711
grandparents 0.0
recording 0.0
chocolate 0.0
unless 5.94028269317e-05
calling 0.000202330944953
mermaid 0.0
levels 7.40739858128e-05
package 0.0
option 0.000104716522064
knowing 0.0
actual 0.000288237953775
friday 0.000195359001252
achieve 8.07611882843e-05
winner 0.000160618540425
becomes 0.000204619858556
directly 0.0
quality 0.0
father 2.74323818678e-05
wishes 0.0
themselves 0.0002105361886
asking 0.000127485319672
usually 0.0001605851917
period 3.59475591537e-05
resist 0.0
collections 7.79443732804e-05
summer 2.5984000594e-05
bracelet 0.0
reminded 4.18333671351e-05
dinner 2.66249622465e-05
single 9.92726729483e-05
catching 0.0
energy 0.000200603309445
preview 3.43013556414e-05
monster 8.31251823986e-05
material 8.23241582256e-05
events 5.97322222538e-05
europe 0.00036659808781
holiday 0.000194130072515
emotional 6.94048526965e-05
affects 0.0
holding 0.000114003965791
survive 4.08987422281e-05
eating 0.0
outfit 0.0
missing 2.5704540688e-05
surprise 7.73223021701e-05
german 4.14283420227e-05
officially 5.62277038471e-05
french 0.00126957136455
global 0.000128831924808
follow 0.000121115919563
design 3.63774077256e-05
improvement 0.0
website 0.000264378380171
breaks 0.000127026717755
negative 7.02206482349e-05
official 0.000124425994066
jersey 0.0
france 0.000802146272535
lighter 0.0
thinks 0.000281138519235
hospital 3.51103241174e-05
jealous 0.0
successful 6.58964455454e-05
trending 0.0
leadership 0.00113145744152
showed 3.02828766811e-05
attended 0.0
circle 8.53291031355e-05
interested 6.19303104656e-05
effect 0.00025405343551
success 0.000108837859075
ladies 3.30423816968e-05
dreams 0.0
protect 0.0
arguing 0.0
essence 0.0
control 0.000107661725774
happier 0.0
likely 0.000740783567645
cancel 0.0
project 5.44189295374e-05
laying 0.0
lesson 6.70376144742e-05
fridays 0.0
invited 0.000135627548889
treating 0.0
allowing 0.0
remote 0.0
opening 5.23915105478e-05
alcohol 0.000168330370152
popular 0.000296534004954
pedestal 0.0
designing 0.0
followed 3.20264393083e-05
enjoyed 2.85791755802e-05
spectacular 0.0
recovered 0.0
length 4.74889742751e-05
matters 0.000126669720466
factor 3.97482773682e-05
england 0.000211280356377
shared 0.0
benefit 0.0
continues 2.93753755746e-05
fathers 0.0
kitchen 0.0
exciting 0.0
corner 0.0
spring 6.15855116353e-05
fallen 8.4768549018e-05
victoria 0.000107071934699
tornado 0.0
typical 0.0
continue 8.34257440731e-05
creative 3.40048972376e-05
excuse 0.0
female 0.0
closer 0.0
accent 0.0
beginning 6.05657533623e-05
sooner 0.0
everywhere 0.0
scenes 9.2121056996e-05
wishing 0.0
choices 0.0
unpredictable 0.0
become 0.000100620847935
photographs 7.39884986568e-05
spread 2.75071507751e-05
season 0.0
putting 0.000126456840595
annoying 0.0
quietly 0.0
extending 0.0
stance 0.0
sleepy 0.0
returns 9.6897811541e-05
bucket 0.0
condolences 0.0
register 3.58412910622e-05
flowers 0.0
define 9.42932678958e-05
somebody 3.59475591537e-05
chicks 0.0
covering 7.45219033787e-05
repeat 3.36152396221e-05
football 3.02828766811e-05
brothers 0.0
player 3.36152396221e-05
physical 0.0
series 0.0
pretend 0.0
fighting 2.74323818678e-05
atlanta 0.0
mexico 0.000208822510336
president 0.0002141580539
talking 0.0001207898865
america 2.56351819845e-05
greats 0.000119116638755
everybody 0.0
judgment 0.0
amount 6.76185528682e-05
houston 0.0
everyday 0.000239414896748
shooter 0.0
attitude 0.0
million 5.05827362381e-05
honesty 0.0
telling 0.000136789227618
pulled 3.61615196407e-05
attack 9.31554668717e-05
killed 5.36849667906e-05
horrible 0.000123090146826
norman 0.00011634552997
salute 0.0
jacksonville 0.0
barackobama 0.0
lilduval 0.0
liquor 0.0
american 0.000102264093802
realist 0.0
remain 0.000406882646667
innocent 0.0
pieces 3.56301582837e-05
taught 0.0
golden 0.00016241449558
straight 2.66972501304e-05
forgive 0.0
answers 0.000403673689777
product 0.0
smoking 0.0
created 5.79479378939e-05
record 0.000226396907854
weapon 0.0
bottom 6.45985410273e-05
arrangements 0.0
africa 7.99984109524e-05
committed 0.0
journey 0.0
brother 5.87507511491e-05
prayers 0.0
documentary 0.0
addition 4.19699111817e-05
honestly 6.88019915313e-05
velvet 0.0
country 0.000423048379825
speedy 0.0
dressing 0.0
employee 0.0
yoooooo 0.0
prayer 0.0
nominated 3.61615196407e-05
praying 0.0
insane 3.56301582837e-05
illest 0.0
shooting 0.0
cancer 0.0
australia 0.00025014844503
marijuana 0.0
deserve 0.0
legend 0.0
mother 5.36849667906e-05
murder 3.90108833306e-05
realest 0.0
powerful 8.81261267237e-05
attendance 0.0
wisdom 8.12765355153e-05
breaking 0.000129569147443
bothered 5.63584511538e-05
angeles 0.0
dollars 0.0
soldiers 5.04194502197e-05
performance 8.36536055825e-05
reading 0.000332358304858
videos 0.0
jordan 0.0
nobody 0.000295378400297
politics 0.00126182246109
paradise 0.0
blessing 0.0
coolest 0.0
strippers 0.0
charities 0.0
donate 0.0
bullshit 0.0
sample 0.0
rocking 0.0
bringing 0.0
deserves 0.0
hilarious 0.0
victim 0.0
stadium 0.0
funniest 0.0
heaven 0.0
ruined 0.0
honest 0.000119795545567
rolling 7.23230392814e-05
became 0.000120461198668
driver 0.0
breakfast 0.0
decision 0.000210223640012
counting 0.000102606384321
pressure 0.0
awareness 0.0
dearly 0.0
lastnight 0.0
facebook 7.73223021701e-05
basketball 0.0
campaign 0.00131415433527
twisted 0.0
defined 0.0
discover 0.0
comments 5.87507511491e-05
giveaway 0.0
bipolar 0.0
teenage 0.0
williams 0.000153653043812
custom 0.0
singer 0.0
future 7.44545047112e-05
randomly 0.0
angels 0.0
blessed 0.0
sister 3.2390908925e-05
stripper 0.0
dancing 3.38092764341e-05
reigns 0.0
voting 0.000742535336647
niggas 0.0
commercial 3.30423816968e-05
hating 0.0
boring 0.0
century 3.94999495983e-05
acting 0.0
submit 0.0
besides 0.0
hiding 7.89998991966e-05
periscope 0.0
breath 0.0
choosing 0.0
lawrence 0.0
instagram 0.0
detroit 0.0
cousin 0.0
honored 0.0
dedication 0.0
rockin 0.0
fucked 0.0
lionelrichie 0.0
talent 0.0
goodnight 0.0
stores 0.0
drinking 3.58412910622e-05
brazil 0.0
tattoo 0.0
consecutive 0.0
regardless 0.0
staring 5.12117013939e-05
commitment 7.97468259615e-05
seconds 0.0
ohhhhhh 0.0
listen 0.000149311192879
whatever 0.0
wherever 0.0
kicking 3.40048972376e-05
compete 0.0
lauderdale 0.0
homies 0.0
billion 0.0
belated 0.0
pirate 0.0
shoutout 0.0
grammy 0.0
guilty 8.15363021712e-05
ceiling 0.0
grammys 0.0
absolute 3.53169065636e-05
nelson 0.0
mandela 0.0
bigsean 0.0
handle 0.0
tonite 0.0
cocaine 0.0
promise 0.000114316702321
longest 4.28059290595e-05
generation 3.30423816968e-05
tuesday 0.0
struggle 0.000186868604554
workout 0.0
character 0.000128831924808
mirror 0.000117762506474
interview 0.00039177278899
buffalo 0.0
justin 0.0
insights 0.0
winning 0.000154227244128
oxygen 0.0
espnnfl 0.0
charlotte 4.90930729017e-05
accomplished 0.0
defense 0.0
gettin 0.0
arabia 0.0
lmfaooooo 0.0
writing 0.000167307211165
soccer 0.0
society 9.96954503902e-05
brooklyn 0.0
incredible 0.0
witcho 0.0
celebrity 0.0
minute 0.0
foreign 0.000279113890865
cherry 0.000105758788702
champs 0.0
murdered 0.0
evidence 0.000178677460736
android 0.0
sneaking 7.67459528004e-05
clearly 0.0
download 0.0
mixtape 0.0
central 0.0
washington 0.0
veterans 0.0
stronger 7.65910087505e-05
promised 7.89998991966e-05
marcus 0.0
zombie 0.0
throwing 0.0
security 0.0
fastest 0.0
fantasy 0.0
turning 0.0
ignore 6.900210385e-05
fucking 4.39680193092e-05
tickets 0.0
collector 0.0
prizes 0.0
december 6.68455227112e-05
loyalty 5.49056781609e-05
return 0.000106499848986
escape 4.3091211183e-05
yassss 0.0
goddess 0.0
handsome 0.0
language 0.000202272369804
motion 0.000127152823527
gallery 4.83668532244e-05
movies 0.0
children 7.94431121921e-05
backpack 0.0
potentially 0.0
guardian 0.000478781657521
review 2.8657615635e-05
theaters 0.0
shhhhh 0.0
begins 2.8815270252e-05
closet 0.0
bodies 0.0
hahaha 0.0
produced 0.0
latest 0.000338706911168
banned 0.000301638478281
beyonce 0.0
perform 3.85315990471e-05
lionel 0.0
signed 2.65528917701e-05
princess 0.0
ghetto 0.0
conditioning 0.0
charity 3.36152396221e-05
germany 0.000146381033826
ronaldo 0.0
married 0.0
millions 0.000130300975193
blessings 0.0
diamond 0.0
nephew 0.0
lights 0.0
howard 0.0
turned 5.28187956725e-05
buckle 0.0
relevant 0.0
performing 0.0
indian 0.0
includes 3.58412910622e-05
tricks 5.24514648479e-05
survivor 0.0
diamonds 0.0
collection 6.60847633936e-05
families 3.07927558177e-05
welcoming 0.0
select 8.58962911836e-05
announced 2.92945545356e-05
granted 0.0
decided 0.000201706891764
selfish 0.0
trailer 0.0
reppin 0.0
celebration 0.0
decades 0.0
ultimate 0.0
incase 0.0
downtown 0.0
seasoning 0.0
episode 0.0
mentality 0.0
touching 0.0
retweet 3.05364601623e-05
goodmorning 0.0
midnight 3.2482899116e-05
expectations 4.39680193092e-05
joining 5.66907686156e-05
reasons 5.6074337858e-05
released 0.0
release 7.92281935087e-05
models 0.0
popped 0.0
within 0.000153535094993
standing 0.000495128713952
valentines 0.0
justice 6.47818178499e-05
houses 0.0
purchase 0.0
dropped 2.97014134659e-05
conversations 0.0
seattle 0.0
strength 0.0
monica 0.0
incredibly 0.0
streets 0.0
private 0.000123515201958
inspirational 0.0
barbie 0.0
tables 5.49056781609e-05
affection 0.0
broski 0.0
pissing 0.0
designer 0.0
cooking 0.0
tattoos 0.0
direction 3.69257935637e-05
readyyyyy 0.0
exclusive 0.000171475053481
adrianalima 0.0
fashion 0.0
talkin 0.0
bitches 0.0
nailed 0.0
kitten 0.0
whomever 0.0
ruthless 0.0
teaching 0.0
chillin 0.0
philly 0.0
baddest 0.0
cheers 7.45219033787e-05
autumn 0.0
presents 7.87534882132e-05
flawless 0.0
unique 7.38515871275e-05
handed 4.61480138153e-05
taraji 0.0
victory 0.000481613940719
tribute 6.60847633936e-05
ballin 0.0
horror 0.0
females 0.0
catfish 0.0
action 2.58438632627e-05
wouldnt 0.0
recipient 0.0
whitney 0.0
continued 0.0
esther 0.0
letter 0.000207909894261
existence 0.0
papers 0.000132351973682
winter 0.0
sessions 0.0
replicating 0.0
foundation 6.86027112829e-05
syndrome 5.49056781609e-05
colorado 0.0
tremendous 0.0
public 0.00036348949699
cannot 2.68424833953e-05
brilliant 0.000472605440476
illustration 0.0
beware 0.0
globally 0.0
premieres 0.0
streaming 0.0
immigration 0.000491964282801
wrapped 0.0
studio 0.0
february 0.0
amazon 0.000182430427663
border 0.0
huffingtonpost 0.0
francis 0.0
january 0.0
relationships 0.0
tragic 0.0
secure 8.79360386184e-05
countries 3.47024263483e-05
episodes 0.0
broadcast 0.000119244832105
tickled 0.0
livestream 0.0
potential 6.64636335935e-05
education 3.2390908925e-05
famous 0.000231958384402
unknown 0.0
exists 4.47240257092e-05
orders 0.0
microsoft 0.0
ability 7.00153938282e-05
director 9.00958457195e-05
accessible 0.0
correction 0.000194908848503
william 8.15363021712e-05
editors 0.0
yellow 4.45709043233e-05
passionate 0.0
treatment 0.0
ambassador 0.0
thanking 0.0
streamed 0.0
lovers 4.83668532244e-05
wrinkled 0.0
bridge 0.000310160343665
magazine 0.0
sincere 0.0
quotes 0.0
result 0.000589941247921
destruction 5.66093792618e-05
edition 3.22079812019e-05
prince 0.000279244058838
indiana 0.0
editorial 0.000602704960893
emotion 0.0
mistakes 4.29481455918e-05
inspiring 0.0
counter 0.000227523310059
disappointing 0.000145100559673
edited 0.0
spotlight 0.0
saddest 0.0
production 0.0
header 0.0
itunes 0.0
guests 0.0
snakes 0.0
charging 0.000126504592289
arriving 0.0
mysteries 0.0
dangerous 6.45985410273e-05
typically 0.000119690619635
saving 6.98110147096e-05
universe 0.0
victims 0.0
receive 6.78137744445e-05
proceeds 0.0
crossed 4.25240032742e-05
received 6.17576009789e-05
limitations 0.0
studying 0.000101624603785
conflict 0.0
petition 0.0
milestones 0.0
outstanding 0.0
devastating 8.91418086466e-05
installment 0.0
signature 0.0
mistletoe 0.0
awards 3.14016593847e-05
shelves 0.0
smells 0.0
themed 0.0
sisters 0.0
banquet 0.0
danger 0.00012632171316
leading 9.16093804868e-05
member 0.000424019370294
dominant 6.358745427e-05
distinguish 0.0
factories 0.0
distinct 0.0
distance 0.0
confirmed 0.000140030787656
behavior 0.0
collect 5.18235665151e-05
vanity 6.46220069559e-05
junior 0.0
communities 0.0
worldwide 0.0
canada 6.40528786166e-05
recognized 0.0
vessels 0.0
movement 6.42340766801e-05
segment 0.0
internal 0.000100065870282
information 6.51504875963e-05
easily 7.08417389661e-05
towards 0.000140030787656
october 3.36152396221e-05
belgium 5.87174115056e-05
european 0.000538568446295
caribbean 0.0
cities 0.0
arrives 4.87272121257e-05
extraordinary 0.000203191338788
exquisite 0.0
argentina 0.0
eliminate 0.0
genius 3.19361815167e-05
prepared 3.63774077256e-05
anthony 8.76392771086e-05
breakthrough 0.0
berlin 0.0
batman 0.0
upcoming 0.0
upgrade 0.0
singapore 0.0
crucial 0.0
scratch 0.0
collaboration 0.0
tested 4.85463553023e-05
acquire 0.0
honoring 0.0
holland 0.0
visually 0.0
neyocompound 0.0
inspire 0.0
ebonymag 0.0
spiketv 0.0
constant 0.0
sunset 0.0
tuning 0.0
gentleman 5.24514648479e-05
fulfilling 0.0
ayeeeee 0.0
stratford 0.0
poland 0.0
philippines 6.07274983463e-05
kickin 0.0
theweeknd 0.0
september 3.37120616341e-05
manchester 0.000218360854588
rickyrozay 0.0
remarkable 4.14283420227e-05
rihanna 0.0
disgusted 0.0
immoral 0.0
process 0.00012248635135
goosebumps 0.0
performances 0.0
strangers 0.0
emotions 0.0
judgement 0.0
comparing 5.30962593182e-05
thuggin 0.0
studios 0.0
jennifer 0.0
performer 0.0
literally 0.000178208480795
cardiff 0.000146946273057
soooooooo 0.0
crashed 0.0
cthagod 0.0
closed 0.000205212768641
justinbieber 0.0
complexmag 0.0
billboard 0.0
airing 0.0
albums 0.0
sweden 0.0
katyperry 0.0
treats 0.0
missouri 0.0
thefader 0.0
soundtrack 0.0
theellenshow 0.0
sweets 0.0
festival 0.0
wizkhalifa 0.0
amsterdam 0.0
backstage 0.0
collab 0.0
subscribed 0.0
joined 0.000118151360119
davidguetta 0.0
pushing 0.0
hopeful 5.37588844485e-05
romantic 0.0
mentions 9.00664707173e-05
lurking 0.0
ballad 0.0
teamed 0.0
exclusively 4.92781194995e-05
kingjames 0.0
hollyrpeete 0.0
sneakers 0.0
auction 0.0
sneaker 0.0
djkhaled 0.0
express 0.000111446131989
thegrammys 0.0
throughout 0.0
shining 0.0
excellence 0.0
thrown 0.0
zendaya 0.0
playin 0.0
applemusic 0.0
crunch 0.0
capitalofficial 0.0
filmed 4.61480138153e-05
toronto 4.28059290595e-05
naomicampbell 0.0
trvisxx 0.0
killin 0.0
trucks 0.0
stands 6.66541977837e-05
platinum 0.0
native 0.0
spotify 5.10111695513e-05
rocked 0.0
jumped 0.0
leebruhgreene 0.0
leaning 0.00012027155803
featured 0.0
announce 8.36536055825e-05
senior 7.52017279785e-05
iamdiddy 0.0
haters 0.0
nothin 0.0
appreciation 0.0
defjamrecords 0.0
floating 0.0
superstars 0.0
shondarhimes 0.0
premiere 0.0
orchestral 0.0
makeup 0.0
touched 0.0
newest 0.0
designed 7.40739858128e-05
passes 0.0
angelasimmons 0.0
tidalhifi 0.0
vashtie 0.0
delivered 0.0
owning 0.0
producer 0.0
balmain 0.0
legendary 0.0
independence 0.000477179235754
mtvmusicuk 0.0
audition 0.0
debuts 0.0
footage 0.0
marshall 0.000114238516797
spends 0.0
playtime 0.0
completed 0.0
dishes 0.0
photographed 0.0
bubble 0.000317425409551
belong 0.0
tongue 0.0
observing 0.0
consistent 0.000300197610847
posing 0.0
heavens 0.0
contemporary 0.0
aiming 6.07274983463e-05
ceremony 0.0
brighter 0.0
rainbow 0.0
matthew 4.582417895e-05
phenomenal 0.0
affected 0.0
rivers 0.0
presenting 9.13277758975e-05
competitive 0.0
eskimo 0.0
sibling 0.0
dakota 0.0
printed 0.0
heroes 0.0
deepest 0.0
describe 3.48037517227e-05
hollywood 3.53169065636e-05
baggage 0.0
terrifying 4.71466339479e-05
animation 0.0
nationwide 0.0
capital 0.0
quantity 0.0
nominations 0.000638209947722
mountains 0.0
mosaic 0.0
realise 0.000321215804096
overload 0.0
photographer 0.0
depression 0.000104062086537
donation 0.0
marvelous 0.0
madonna 0.0
sailed 0.0
terror 0.0
rinsed 0.0
disorder 0.0
polish 0.0
represents 9.85562389991e-05
touchdown 0.0
creates 0.0
oxford 0.000161951684089
stitched 0.0
morocco 0.0
thrill 0.0
balloons 0.0
teaming 0.0
latimes 0.0
kerrywashington 0.0
caution 0.0
camouflage 0.0
approaching 5.37588844485e-05
generous 9.13277758975e-05
installation 0.0
benefiting 0.0
basics 0.0
confirm 3.90108833306e-05
thrilling 0.0
photography 0.0
matches 0.0
boundaries 0.00019493108103
singles 0.0
laptop 0.0
obvious 4.06382677576e-05
darling 0.0
celebrations 0.0
chewbacca 0.0
underwater 0.0
naughty 0.0
advised 0.0
feelin 0.0
macaroni 0.0
perfection 0.0
picasso 0.0
recipe 0.0
radical 0.0
volcano 0.0
planted 0.0
products 0.0
directed 0.0
grabbed 0.0
frames 0.0
casual 0.0
scheming 0.0
twickenham 0.000307484987231
bbcnews 6.6452164368e-05
pledge 0.000179512527221
subtle 0.0
embarrassed 0.0
snatch 0.0
unveiling 0.0
kissed 0.0
arguments 0.000100838900439
settling 0.000143980781059
desperate 0.0
executive 0.0
humbled 0.0
courage 0.0
dropping 0.0
carried 0.000102423402788
behalf 0.0
hardest 4.42675659014e-05
marking 0.000145937249879
vision 3.55252854014e-05
intervention 0.0
records 0.0
deeply 3.87700429582e-05
mannered 0.0
texted 0.0
israeli 0.0
strongest 0.0
rogers 0.0
concept 0.0
allegiance 0.0
belongs 5.26644743868e-05
intended 5.08123018925e-05
bosses 0.000117434823011
purpose 7.34098620587e-05
hottest 0.0
campaigns 0.000116887081841
sunderland 0.0
teenager 0.000316261480722
runway 0.00012085962468
steven 0.0
guitar 0.0
donating 0.0
applause 0.000113725925486
finale 0.0
wasted 4.98419905823e-05
absent 0.0
awhile 0.0
fierce 0.0
sincerely 5.71192583983e-05
apology 9.03786987317e-05
climbing 0.0
unwilling 0.0
protesting 0.0
bikini 0.0
friendships 0.0
matching 0.0
wolves 0.0
mosque 0.0
venezuela 0.0
donates 0.0
generations 0.0
underestimate 0.0
pardon 6.32522961444e-05
stickers 0.0
mothers 0.0
deeper 0.0
nipple 0.0
perfume 0.0
noodle 0.0
melissa 0.0
forest 0.0
panties 0.0
jimmykimmel 0.0
everytime 0.0
underdog 0.0
shoulders 0.0
wrapping 0.0
bedroom 0.0
glitter 0.0
stocking 0.0
annoyed 0.0
behave 0.0
goodbye 0.000113145744152
fuckin 0.0
seller 0.0
joshgroban 0.0
samsungmobileus 0.0
influential 0.0
slicing 0.0
ryanseacrest 0.0
farmer 0.0
teaser 0.0
styled 0.0
casting 0.0
imitated 0.0
forgiveness 0.0
perezhilton 0.0
blacked 0.0
paparazzi 0.0
peoplemag 0.0
rolled 0.0
vanityfair 0.0
rockstar 0.0
thousand 8.88375102866e-05
minded 0.0
shines 0.0
sunglasses 0.0
auntie 0.0
magazines 0.0
waited 0.0
denmark 6.13341994948e-05
leather 0.0
wished 0.0
ladygaga 0.0
swallow 0.0
glblctzn 0.0
shakira 8.95787987251e-05
accessories 0.0
nbcthevoice 0.0
clique 0.0
premiering 0.0
loooooove 0.0
weareheremvmt 0.0
looooove 0.0
vmagazine 0.0
popcrush 0.0
studded 0.0
yassssss 0.0
yessss 0.0
undeniable 0.0
unicef 0.0
auditions 0.0
ellemagazine 0.0
yasssss 0.0
pharrell 0.0
greece 0.0
papermagazine 0.0
nowwwww 0.0
maccosmetics 0.0
macaidsfund 0.0
lipstick 0.0
meeeee 0.0
newsstands 0.0
unapologetically 0.0
insidebates 0.0
legalize 0.0
loooove 0.0
caradelevingne 0.0
allllll 0.0
badgalriri 0.0
itsjeremyscott 0.0
nickiminaj 0.0
nipples 0.0
booooo 0.0
trippy 0.0
mikewillmadeit 0.0
puttin 0.0
trappin 0.0
alexanderwangny 0.0
karllagerfeld 0.0
celebratin 0.0
lilyallen 0.0
fuuuuuck 0.0
chanel 0.0
rubber 6.07274983463e-05
angelou 0.0
misses 0.000101230142046
harpersbazaarus 0.0
timberlake 0.0
photoshopped 0.000211782205446
whatchu 0.0
rehearsals 0.0
couture 0.0
mutual 0.0
creeper 0.0
cuddling 0.0
celine 0.0
theamas 0.0
thexfactor 0.0
websterhall 0.0
presale 0.0
deluxe 0.0
styles 0.0
wetten 0.0
shittttttttttt 0.0
boredom 0.0
darealamberrose 0.0
noooooooo 0.0
itunesmusic 0.0
cbstweet 0.0
thermal 0.0
mariners 0.0
torres 0.0
thebeatles 0.0
blondies 0.0
greeting 0.0
thecut 0.0
geeked 0.0
outlet 0.0
americanexpress 0.0
gqmagazine 0.0
nicole 0.0
bumped 6.04298123399e-05
hangover 0.0
stockholm 6.29217610371e-05
casually 0.0
esquire 0.0
winnipeg 0.0
begging 0.00012266839899
showroom 0.0
sleeves 0.0
smelling 0.0
guaranteed 5.18235665151e-05
obsession 0.0
attendant 0.0
aussie 0.0
tbsveryfunny 0.0
reservation 0.0
mollymcnearney 0.0
dragging 0.0
rocnation 0.0
tapered 0.0
badass 0.0
endlessly 0.0
vampires 0.0
viewers 0.0
kanyewest 0.0
designers 0.0
billboards 0.0
backstreetboys 0.0
monteith 0.0
e_fashionpolice 0.0
epically 0.0
internationally 0.0
mighty 5.49056781609e-05
jcolenc 0.0
semifinals 0.0
brasilia 0.0
tailgating 0.0
photoshoot 0.0
smokin 0.0
ahhhhhh 0.0
missin 0.0
sweats 0.0
impacted 0.0
rodriguez 0.0
musician 0.0
merchandise 0.0
jurgen 0.0
athleteally 0.0
originals 0.0
número 0.0
zealand 0.0
hehehe 0.0
fearless 0.0
stadiums 0.0
thiago 0.0
suarez 0.0
cropped 0.0
uruguay 0.0
apparel 0.0
staircase 0.000166891521958
wintour 0.0
spotting 0.0
polygraph 0.0
twerking 0.0
shipment 0.0
muggin 0.0
takeoff 0.0
thailand 0.0
tomorr 0.0
googleplay 0.0
budweiser 0.0
miafestival 0.0
dotted 0.0
burning 0.0
surpass 0.0
betcha 0.0
onairwithryan 0.0
dreamers 0.0
brunomars 0.0
beyoncé 0.0
hellooo 0.0
subscribers 0.0
preorder 0.0
believer 0.0
fragrance 0.0
hellooooo 0.0
majesty 0.0
beatsbydre 0.0
finland 0.0
fearnecotton 0.0
debuted 0.0
queued 0.0
rhetorical 0.0001571336693
iranian 6.92746481724e-05
infamous 0.0
brutally 0.0
execution 0.0
palestinian 0.0
transplant 0.0
audacity 0.0
foreplay 0.0
priced 0.0
huntington 0.0
manger 0.0
weaker 0.000147976997314
justintrudeau 0.0
creeping 0.0
fittest 0.0
hoodie 0.0
mankind 0.0
westwood 0.0
holographic 0.0
throwin 0.0
eminem 0.0
ecstatic 0.0
enjoys 0.0
wussup 0.0
duplicated 0.0
crotch 0.0
congrat 0.0
huggin 0.0
implement 0.0
penalizing 0.0
gonzalez 0.0
bitchin 0.0
sephora 0.0
damien 0.0
demanded 0.0
negativity 0.0
alancarr 0.0
skillz 0.0
hopeless 0.000367365682643
beatle 0.0
cheesecake 0.0
almighty 0.0
whatcha 0.0
slumber 0.0
chimney 0.0
headlining 0.0
perplexed 0.0
googleplaymusic 0.0
thrills 0.0
rollers 0.0
bravotv 0.0
gifted 0.0
kekepalmer 0.0
styledtorock 0.0
yooouuu 0.0
shantay 0.0
yaaaas 0.0
bestest 0.0
freestyle 0.0
everrrrr 0.0
sweatband 0.0
podolski 0.0
collaborating 0.0
bestfriend 0.0
sittin 0.0
whaaaat 0.0
clockwork 0.0
warmest 0.0
temptation 0.0
spiritual 0.0
chameleon 0.0
customised 0.0
acrylic 0.0
grasshopper 0.0
engages 0.0
gourmet 0.0
rhythmic 0.0
petals 0.0
klinsmann 0.0
directv 0.0
popcrave 0.0
versailles 0.0
raddest 0.0
grandfather 5.51417728327e-05
persie 0.0
webster 7.856683465e-05
knight 0.0
footwear 0.0
collectors 0.0
blackout 0.0
skylight 0.0
hammock 0.0
playhouse 0.0
revelers 0.0
executed 0.0
cincinnati 0.0
simultaneously 0.0
malawi 0.0
graduated 0.0
sickening 7.39884986568e-05
mueller 0.0
elonjames 0.0
skeletons 0.0
mittromney 0.0
connecticut 0.0
cumulative 0.0
racked 0.0
valera 0.0
thighs 0.0
timely 0.0
rapping 0.0
shrugs 0.0
enables 0.0
psychic 0.0
fernando 0.0
tourism 0.0
slaughtered 0.0
devotion 0.0
fantasies 0.0
parsons 0.0
stella 0.0
complainers 0.0
newsstand 0.0
voguemagazine 0.0
westfield 0.0
manolo 0.0
turquoise 0.0
parisian 0.0
childs 0.0
swimsuit 0.0
bazaar 0.0
empress 0.0
brainstorm 0.0
tanning 8.95787987251e-05
desirable 0.0
feathers 0.0
antics 0.0
featurette 0.0
olivier 0.0
helloooo 0.0
hallow 0.0
connie 0.0
upbringing 0.0
privatize 0.0
bittersweet 0.0
outlaw 0.0
marcel 0.0
nowwww 0.0
hushed 0.0
threshold 0.000135242686674
floats 8.42315171225e-05
barbados 0.0
manuelcav 0.0
niggaz 0.0
prayin 0.0
drizzyxcole 0.0
homegirl 0.0
rappin 0.0
witcha 0.0
mufasa 0.0
dainternz 0.0
lololol 0.0
barclayscenter 0.0
bestbuy 0.0
blackouts 0.0
rivera 0.0
jakemiosge 0.0
givenchy 0.0
riccardo 0.0
grossed 0.0
guetta 0.0
spicewon 0.0
bitche 0.0
shawty 0.0
wednesdays 0.0
payday 0.0
jewelers 0.0
romero 0.0
acknowledging 0.0
calypso 0.0
blushes 0.0
medusa 0.0
keepers 0.0
futuristic 0.0
whereabouts 0.0
slayed 0.0
asvpxrocky 0.0
haaaaa 0.0
inezandvinoodh 0.0
calvinharris 0.0
_maxwell_ 0.0
bwerde 0.0
edward_enninful 0.0
haaaaaa 0.0
wisest 0.0
unconditionally 0.0
drmayaangelou 0.0
blackgirlsrock 0.0
submissive 0.0
rearrange 0.000104270875861
attuned 0.0
abrams 0.0
awaken 0.0
climbs 0.0
jacking 0.0
seventy 0.0
snatching 0.0
manoloblahnik 0.0
nicolerichie 0.0
openingceremony 0.0
whiteley 0.0
supermodel 0.0
the_real_iman 0.0
minogue 0.0
tmagazine 0.0
baaaaack 0.0
yeessss 0.0
wooooo 0.0
epicness 0.0
takawiraa 0.0
joplin 0.0
uncensored 0.0
unspeakable 8.76607020754e-05
rewrites 0.0
askdrruth 0.0
glozell 0.0
tardiness 0.0
runways 0.0
colombian 0.0
unapologetic 0.0
zac_posen 0.0
rumoured 0.0
omgggg 0.0
futbol 0.0
biatch 0.0
barrington 0.0
catwalk 0.0
sledgehammer 0.0
clemente 0.0
dollaz 0.0
mariah 0.0
granddad 0.0
iyanlavanzant 0.0
hustler 0.0
coletteparis 0.0
flexin 0.0
mistress 0.0
exceeds 0.0
sweeeeeet 0.0
stancesocks 0.0
serviced 0.0
issssss 0.0
lipglass 0.0
externally 0.0
complex_uk 0.0
prideful 0.0
dash_radio 0.0
holidaze 0.0
mawnin 0.0
champagnepapi 0.0
fashawn 0.0
raided 0.0
ahhhhhhhh 0.0
soulmate 0.0
motorbikes 0.0
britishvogue 0.0
gnlstudios 0.0
robinsoncano 0.0
debuting 0.0
cc_sabathia 0.0
colorways 0.0
hit_boy 0.0
_spyda 0.0
phresh 0.0
dominates 0.0
ratchet 0.0
rupaul 0.0
cockpit 0.0
kimmiekyees 0.0
horoscope 0.0
catwalks 0.0
paramedic 0.0
fhollande 0.0
sexiness 0.0
hereeee 0.0
changers 0.0
tiptoes 0.0
revved 0.0
meditative 0.0
fauntleroy 0.0
mbsings 0.0
disrespectfully 0.0
traumatized 0.0
outdid 0.0
elvispresley 0.0
toupee 0.0
josephine 0.0
discography 0.0
mariasharapova 0.0
chinchilla 0.0
skylar 0.0
illestbaba 0.0
georgiamjagger 0.0
pierced 0.0
hardrock 0.0
snorkeling 0.0
thrilla 0.0
gunpoint 0.0
sleeved 0.0
stevestoute 0.0
kiiiiiiiiiiiiinnnngggggg 0.0
lanvin 0.0
chateau 0.0
lizzs_lockeroom 0.0
prophets 0.0
müller 0.0
lullaby 0.0
samersum 0.0
disassembled 0.0
anniversaries 0.0
hayden_williams 0.0
rousteing 0.0
slayage 0.0
raunchy 0.0
benzema 0.0
fuckery 0.0
hellooooooo 0.0
juliagillard 0.0
congeniality 0.0
gunned 0.0
condense 0.0
missjillscott 0.0
yussss 0.0
chopard 0.0
woodbridge 0.0
orousteing 0.0
dubsmash 0.0
alicialquarles 0.0
worldmcqueen 0.0
whateva 0.0
elysées 0.0
jennnrosales 0.0
xstrology 0.0
looool 0.0
tippin 0.0
marleys 0.0
dwanimation 0.0
dreamworks 0.0
yaself 0.0
anothermagazine 0.0
claralionelfdn 0.0
mchingi 0.0
rihannareplay 0.0
awtguide 0.0
ryannavy_rih 0.0
rihquest 0.0
gpforeducation 0.0
valliniandre 0.0
globalfund 0.0
rhenna 0.0
millymaefenty 0.0
peetes 0.0
pandagunda 0.0
floriamamaroma 0.0
adoringrihanna 0.0
ymcofficial 0.0
rihanti_ 0.0
mcdean 0.0
rihannadaily 0.0
stancemuse 0.0
muhtean 0.0
rihdefine 0.0
officialdonnie 0.0
stunnafenty 0.0
perfumesbyriri 0.0
badgal 0.0
shaninamshaik 0.0
reblrihanna 0.0
elliscole_ 0.0
itskaitbh 0.0
harpersbazaarcn 0.0
yusefhairnyc 0.0
mylahmorales 0.0
teamofrihanna 0.0
muhphucka 0.0
harpersbazaar 0.0
rihrihfreak 0.0
thenbacentral 0.0
roversi 0.0
suchaf_cknlady 0.0
fourfiveseconds 0.0
petergrayhair 0.0
wkorea 0.0
dennisleupold 0.0
ursulastephen 0.0
ozzysalvatierra 0.0
ciarrap 0.0
rihannaargntina 0.0
rihearsal 0.0
sremmurd 0.0
id_magazine 0.0
heauxm 0.0
rihpost 0.0
jrgseul 0.0
bitchez 0.0
underst_navy 0.0
sonitaalex 0.0
chris_walden 0.0
danachanel 0.0
wednesdayz 0.0
jimmyfenty 0.0
houseoffraser 0.0
skeete 0.0
_kailssss 0.0
muhphuckas 0.0
phuckin 0.0
rastafarih 0.0
obviiii 0.0
etherihalvibe 0.0
rorreyfenty 0.0
noellaalstrom 0.0
rihturn 0.0
tellar 0.0
esquireuk 0.0
huffpoststyle 0.0
tyronmachhausen 0.0
melottenberg 0.0
paolakudacki 0.0
tompecheuxmu 0.0
lgoldstein_ltd 0.0
phucking 0.0
kudacki 0.0
hellurrr 0.0
tom_ford 0.0
neakah 0.0
creepah 0.0
pahtna 0.0
wontonsan 0.0
cappadonna 0.0
phuckmarqy 0.0
elfies 0.0
starstunning 0.0
ohnana 0.0
tushmagazine 0.0
macxriri 0.0
rickrubin 0.0
findataui 0.0
tristate 0.0
distoyb 0.0
kabukimagicnyc 0.0
yerdme_cmb 0.0
hittas 0.0
evan_erogers 0.0
jessieriri 0.0
unfourgettable 0.0
meeeaan 0.0
shweinsteiger 0.0
goooooooaaaaallllllll 0.0
goooal 0.0
braaaaaaaaaaaaaaaaaa 0.0
asapkoff 0.0
belgiuuuuummm 0.0
druchaos 0.0
cuadrado 0.0
murdaaahhh 0.0
colombiaaaa 0.0
karafenty 0.0
dlsturbla 0.0
braaaaaaaaaaaaaaaaaaaaaa 0.0
abouuuutttt 0.0
takecarerihanna 0.0
nathannavy 0.0
theworidcup 0.0
goooooaaaaaaallllll 0.0
bazaararabia 0.0
bigshitxtalker 0.0
__tatijxo 0.0
lhhatl 0.0
braaaaaaaaaaaa 0.0
rihannanavyrd 0.0
gooooooaaaalllll 0.0
triscastellano 0.0
iiiiiiiiiiiiiiiiiiii 0.0
eatmydaisy 0.0
leggooooal 0.0
yaaaaaassssssss 0.0
prettygirl_sp 0.0
ooohhhhhh 0.0
shiiiiitttt 0.0
roooonnnnnnnneeeeeeeyyyyyy 0.0
muslera 0.0
tadpole 0.0
giusichrisriri 0.0
_xomec 0.0
blockedt 0.0
ooooohhhh 0.0
goooooooaaaaaaalllllllllllllllll 0.0
stefansaxon 0.0
rihannademos 0.0
dragonflycici 0.0
chririh 0.0
rihluminati 0.0
goaaaalllll 0.0
twinzies 0.0
mantlers 0.0
suchaf__cknlady 0.0
glamour_robyn 0.0
adamselman 0.0
sephorafrance 0.0
thefashionlaw 0.0
scout_willis 0.0
quietude 0.0
theblackvoice 0.0
weeeed 0.0
kiiiiss 0.0
dooooon 0.0
miiiiss 0.0
malinsworld 0.0
prompics 0.0
itsalldonn 0.0
goooorrrrrrlllllll 0.0
thenewdaily_ 0.0
wiggin 0.0
stevesoboroff 0.0
pivot_tv 0.0
lapolicefdtn 0.0
scarificing 0.0
whooooose 0.0
sambapologetic 0.0
bellaisevil 0.0
sta_schemin 0.0
i_aim_tyga 0.0
fameisloud 0.0
garcon_rebelle 0.0
itsbreezybiotch 0.0
phaedra 0.0
vivala_stephyy 0.0
_bossmadeg 0.0
kontomitrosnick 0.0
sorrenti 0.0
whenevahhh 0.0
teamvivanco 0.0
heifers 0.0
stevenkolb 0.0
jeremy_brossard 0.0
jordanbrossard 0.0
quilted 0.0
piscesareus 0.0
plumsykes 0.0
cedellamarley 0.0
offish 0.0
urprise 0.0
i_love_riri 0.0
rihannadiva 0.0
javiroo 0.0
frihday 0.0
cuntlifex 0.0
_chris_rated_ 0.0
yewmadcunt 0.0
erinwasson 0.0
balmainparis 0.0
_yadim 0.0
muthaphucka 0.0
onnneeee 0.0
liiiiieeesss 0.0
gautier 0.0
mtvstarsvotes 0.0
zinloves 0.0
chloefrahm 0.0
uprising_create 0.0
uprising_darren 0.0
jonnycrave 0.0
jeff_uprising 0.0
kareemfenty 0.0
daily_rihnavy 0.0
unapologeticunt 0.0
rorrey 0.0
foreverrr 0.0
guyanese 0.0
annndd 0.0
historih 0.0
grandfadda 0.0
arleta 0.0
loreleicakes 0.0
river_island 0.0
finallyyyy 0.0
rodin_thinker 0.0
mrs_toyac 0.0
cheersrihrih 0.0
bangbang 0.0
faiz_fenty 0.0
leandra 0.0
noella 0.0
rasshoooolllleee 0.0
luminati 0.0
inezvinoodh 0.0
visvim 0.0
realne 0.0
sarahfrancus 0.0
tadium 0.0
trapstar 0.0
afrihca 0.0
rihrobyn 0.0
cbsgirlfriend 0.0
shyronnie_rn 0.0
mariamfenty_ 0.0
mizzpmf 0.0
whooooaaaaa 0.0
camkaipink 0.0
yasssssssssssssssssssss 0.0
lunaxskye 0.0
yaaaaasssssss 0.0
niggggaaaaaaa 0.0
breeziechillin 0.0
betologetic 0.0
isusjsjdha 0.0
awffffff 0.0
mcdessikins 0.0
skreets 0.0
pieceofria 0.0
loooool 0.0
craaaazzyyy 0.0
lolarae_xoxo 0.0
stayflysamir 0.0
shotta 0.0
tamarawray 0.0
lauraleehickock 0.0
heauxz 0.0
rihannanavyit 0.0
manilla 0.0
ronnyerickson 0.0
nikofenty 0.0
vincehaycock 0.0
zodiacfacts 0.0
naomiiknows 0.0
wrizzap 0.0
muuuch 0.0
hongkong 0.0
jetlaaaaaagggged 0.0
rasshole 0.0
februharry 0.0
kaşara 0.0
çıkmadı 0.0
dicked 0.0
vinoodh 0.0
rihannasblog 0.0
urihannafansite 0.0
teejay 0.0
stupse 0.0
clapbacks 0.0
niggaaaazzzz 0.0
bwaaahaaaaa 0.0
willheardmusic 0.0
kristennoelgipson 0.0
rsvpgallery 0.0
backout 0.0
bwahhaaa 0.0
errwhurr 0.0
niiiiggaz 0.0
fridayz 0.0
debbycoda 0.0
cabbing 0.0
dolly_cohen 0.0
cowboyz 0.0
friendz 0.0
phucker 0.0
charliebymz 0.0
lynn_ban 0.0
inwardly 0.0
ravening 0.0
whyyyyyyyyyyyy 0.0
thatdamnlala 0.0
adamsellman 0.0
scottland 0.0
kingspleasure 0.0
mikkyekko 0.0
rihannanavide 0.0
saskoktz 0.0
phlawless 0.0
givenchydonc 0.0
mlle_yulia 0.0
oxxoxo 0.0
foreva_rn_ladii 0.0
skinhead 0.0
killaz 0.0
yennifer 0.0
bestofpisces 0.0
smegma 0.0
morganemiller_ 0.0
aa_davis 0.0
beenie 0.0
nickeystaar 0.0
frihannamorocco 0.0
thinketh 0.0
guitarists 0.0
jordriri 0.0
badgalclaudia 0.0
hausofnath 0.0
_abirogerson 0.0
tommykane 0.0
livenationuk 0.0
millenniu 0.0
juuuussttt 0.0
helllooooo 0.0
miiiine 0.0
chaneliman 0.0
blushy 0.0
laetitiacrahay 0.0
rihmix 0.0
dariuscash 0.0
joshkillss 0.0
drunk_cockiness 0.0
firebombfenty 0.0
mooky_mcnasty 0.0
defpenradio 0.0
iamrici 0.0
letcha 0.0
niggerish 0.0
mawazine 0.0
thefashionaddicts 0.0
phierce 0.0
errwhere 0.0
jocking 0.0
niggaaa 0.0
tami_black 0.0
homienadz 0.0
religiosity 0.0
joycemeyer 0.0
brooooklyyyyn 0.0
miiiiine 0.0
dilekkeysan 0.0
marykatrantzou 0.0
allaboutpisces 0.0
jfisherjewelry 0.0
oddhangover 0.0
diggins 0.0
phyliciaghee 0.0
bawsin 0.0
howeverrrrr 0.0
channyyxoxo 0.0
dowwwwnnnnn 0.0
thugbitch 0.0
rihanas 0.0
miiiiiinnneee 0.0
rihwrite 0.0
janiseeaileen 0.0
ratchify 0.0
eeeeeemmmmmm 0.0
pannies 0.0
wooooiiiiiiiiiii 0.0
muhphuckers 0.0
bashment 0.0
whaaaaattttt 0.0
liiifee 0.0
covery 0.0
leeeeaaaavvveeee 0.0
haarrrrrddd 0.0
ismashedriri 0.0
christabslg 0.0
reallll 0.0
peoplez 0.0
wooiiiiii 0.0
slackness 0.0
kevfenty 0.0
woooiii 0.0
tatiana_xo 0.0
fentynavysalute 0.0
ratchettt 0.0
rachael_deanna 0.0
lifeeeeee 0.0
bxdcfjcf 0.0
killled 0.0
asdfghjkjhgtfrdedfghjnhbgvfc 0.0
troy_fenty 0.0
_marrymerihanna 0.0
jkbwdhbwh 0.0
_noellaa 0.0
hunneds 0.0
thekingfly 0.0
dooown 0.0
woooiiiii 0.0
phucked 0.0
kickstand_ohb 0.0
acedemy 0.0
mistercap 0.0
gallest 0.0
sinsofmyfather_ 0.0
dwayneofficial 0.0
_revofev 0.0
joefenty 0.0
thegodlight 0.0
molestmerihanna 0.0
rihannanavyeu 0.0
melina 0.0
terryrichardsonstudio 0.0
_sexxtroversy 0.0
neuroticbxtch 0.0
getcho 0.0
moneyyy 0.0
idillionaire 0.0
yaaaaaaas 0.0
noxx_onite 0.0
phonefancy 0.0
chiefin 0.0
londonfashionwk 0.0
_mayor_ 0.0
rihannanow 0.0
jamrock 0.0
rihannastats 0.0
jenesismagazine 0.0
napmed 0.0
hausofbeyhive_ 0.0
probabily 0.0
badgalelly 0.0
ladylivja 0.0
rihannacomics 0.0
__glitterdick 0.0
chelsey_ba 0.0
stashbox 0.0
thuglife 0.0
highladayz 0.0
brrrap 0.0
kalifah 0.0
marylin 0.0
muthafucker 0.0
stylenetwork 0.0
bvalgari 0.0
oooonly 0.0
fuckyopictures 0.0
amplifydot 0.0
trappat 0.0
soumsluvriri 0.0
ibebossedup 0.0
holerringg 0.0
rihskillerdoll 0.0
equaled 0.0
chefette 0.0
rezilientkas 0.0
blastinggggg 0.0
dammnnn 0.0
lifeandtimes 0.0
hausofjazzy 0.0
kaykispeaks 0.0
condesa 0.0
awaaayyy 0.0
flawle 0.0
mandler 0.0
loudies 0.0
dulcattis 0.0
killaaa 0.0
_loveforrihanna 0.0
yesimkayla 0.0
rollingnostone 0.0
richkunt 0.0
yasssssss 0.0
eriricccccc 0.0
cuntmeout 0.0
sashay 0.0
condragulations 0.0
neverrr 0.0
phasetoo 0.0
fooooorde 0.0
ruunavi 0.0
rihtweet 0.0
ishoobernator 0.0
thirstiest 0.0
j_dimps 0.0
deecosey 0.0
itsrihannasnavy 0.0
muthaphuckin 0.0
