awesome 0.000176648890296
christmas 0.000528510373075
trying 0.000476938134903
launch 0.000146200193929
moment 0.000479516411632
wonderful 0.00013393399713
seeing 0.00028581744408
hanging 0.000400828187544
sounds 0.000254424108484
contacts 0.0
anybody 0.0
worked 0.000128944183265
direct 5.62808775927e-05
others 0.000256496552854
currently 0.000189117738063
better 0.00070773520093
please 0.000996303150307
social 0.000178093995309
anxiety 0.000172122320967
around 0.000275230355917
people 0.00137615177959
morning 0.000790623117695
damage 6.48106113209e-05
everything 0.000672029650041
present 0.000360083383786
though 0.000205814340644
friend 0.000437193290328
watched 0.00013393399713
beautiful 0.000692258380538
demanding 0.0
anything 0.000361581641091
tagged 0.0
helped 0.000129995802713
thinking 0.000161571873635
finally 0.00149453983113
caught 0.000178093995309
believe 0.000473096945704
already 0.000670220673081
couple 0.000216073700229
launches 0.0
chance 0.000355780402963
annual 0.0
quickly 0.0
growing 4.74094135508e-05
probably 8.57304777597e-05
changed 0.000211447766531
history 0.000325768649665
center 5.18132981339e-05
museum 0.000686392292955
behind 0.000432504845013
screaming 7.31309175251e-05
pretty 0.000161571873635
really 0.00138359045597
possibly 0.0
little 0.000906769145933
happiest 0.000334791827983
earlier 9.25095740505e-05
forget 0.000480810852683
someone 0.00051807763816
things 0.000550460711835
available 0.000533675417046
perfect 0.00032930294503
different 0.000241054427394
person 0.000396378550609
watching 0.00067566235778
exhibit 9.32994450466e-05
passed 4.81984424823e-05
prefer 0.000119374432471
minutes 0.000449141697841
travel 4.83315005527e-05
daughter 0.0
positive 0.0
outside 0.000209174988485
looking 0.000157698981901
forward 0.000162445623044
raising 0.000112888729646
impression 0.0002178996204
wheels 0.000164185784826
favorite 0.00178921568875
instead 0.000178093995309
appreciate 0.000139525369308
couldn 0.000164651472515
remember 0.000948747741234
impressive 0.0
vintage 0.000270263932191
holidays 0.000112888729646
friends 0.00075515204693
impossible 0.0
everyone 0.00106734120889
always 0.00110092142367
limited 0.0
months 8.25481897143e-05
moving 8.50376341187e-05
meeting 0.000121506106176
answer 0.000202510176961
together 0.000634205680974
inside 0.000370465813159
upstairs 0.0
missed 0.000200337855285
active 0.0
eventually 0.0
longer 0.000182510729871
enough 0.000359637308724
building 0.000133208112582
enjoying 9.66630011055e-05
london 0.000517228342799
posting 0.000118665984035
recent 0.0
amazing 0.000473096945704
attention 0.000223831035715
tomorrow 0.00138359045597
whenever 0.0
feeling 0.000372470734105
excited 0.000908030086858
understand 0.000172391576513
following 4.14974967211e-05
asleep 0.000145762549281
learning 9.80072602419e-05
evening 0.00018102466065
special 0.000199260630061
secret 0.000265693677175
across 0.000264973335444
surprised 4.71498837486e-05
candles 0.0
sophia 0.000259918438001
version 0.000174742509511
rather 4.44027041938e-05
showing 4.21754207956e-05
saying 0.000330192758857
thoughts 0.000125844434669
exactly 0.000128248276427
getting 0.000869685429465
nothing 0.000355780402963
tweets 8.71347515862e-05
photos 0.00038241559051
looked 0.000134664376348
difficult 0.000156316893734
office 0.000170997701903
brought 0.000306629649758
biggest 0.000244326487249
thrilled 6.02246089601e-05
entire 0.0
something 0.000751091961811
closing 0.000117615136622
anyone 0.00051807763816
taking 0.000474373870617
interesting 8.80850621791e-05
original 9.35275461242e-05
flying 9.93748989667e-05
sometimes 0.000435673757931
yesterday 0.000278964882086
serious 0.000126868659918
digital 5.86339758775e-05
wearing 0.000463814171581
british 0.000115216429027
either 8.61957882567e-05
second 0.000797042520246
checking 5.12350726795e-05
indeed 5.39067990884e-05
island 0.000111911856903
hearing 4.4162222574e-05
staying 0.000267243564353
another 0.000551946436655
compare 0.0
bummer 0.0
clothes 0.000131259557829
landing 0.0
weekend 0.000801351421139
delivery 7.23866942541e-05
secretive 0.0
anyway 0.0
recognize 0.0
working 0.000158124623539
bigger 9.27628343163e-05
laughing 0.000656488781108
wanted 0.000279717906785
clothing 0.000168717579465
grateful 0.00025833971309
friendship 0.000154714231231
family 0.000474373870617
listening 0.000216659671188
stream 0.00027185142634
double 0.000179064828572
especially 0.000175216942719
shaking 0.0
waiting 0.000526526460098
definitely 8.64294800915e-05
account 4.63814171581e-05
completely 0.000281352334761
thought 0.000438373386135
possible 0.0
simple 0.000138008231135
professional 5.86339758775e-05
members 0.0
business 8.52679043991e-05
absolutely 8.45791066123e-05
sending 0.00055052790423
introducing 0.000190250681959
congrats 0.000414974967211
community 0.000146200193929
keeper 0.0
greatest 0.000129644220137
selfie 0.000828198972674
pasadena 0.0
posted 0.000140291319186
saturday 0.000292055226218
designs 0.0
broken 0.0
chicago 0.000161260529756
glimpse 0.0
actually 0.000526526460098
myself 0.000259066490669
pajamas 0.0
school 0.00076333902008
throwback 0.0
thursday 0.000803501512817
selling 0.000108121376435
talented 0.000259795965018
celebrate 0.000131056882133
celebrating 0.000141449651246
anniversary 0.0
contest 0.000257615612413
experiences 7.36350093308e-05
students 0.000104800308274
figure 4.72794345158e-05
featuring 0.000102757667597
inspired 0.000621425334579
breeze 0.0
sitting 0.00013393399713
playing 0.000723163282181
street 0.000131412707039
points 5.06652275998e-05
advice 0.0
memory 0.000109364678927
forever 8.92893314198e-05
imagine 0.000132127593269
problem 4.24040180807e-05
played 4.4162222574e-05
keeping 0.000132486667722
lovely 0.000198749797933
dressed 0.000255240333943
chinese 0.0
sunshine 0.0
afternoon 9.30169128719e-05
notice 0.000214403264191
difference 0.0
suppose 0.0
letting 0.000194395900821
system 4.94124929623e-05
mutant 0.0
bathroom 0.0
almost 0.000197655779424
details 0.000129644220137
experience 0.000288918664
luckily 0.0
viewed 0.0
living 0.000536563233143
weather 5.05240474759e-05
bright 0.0
launching 0.00012881467973
colors 0.000379934950745
monday 0.000536563233143
walked 0.0
pinned 0.0
wanting 0.0
tweeting 0.000225665510407
forgot 0.000148649192627
gorgeous 0.00019262173399
herself 9.50092197375e-05
happens 0.000122824062534
learned 0.000137256917341
congratulations 0.000174269503172
raised 5.1667942618e-05
mission 5.36008160479e-05
smelled 0.000281835691989
unforgettable 0.000183321864075
forgotten 5.88075683108e-05
trouble 4.886828189e-05
channel 0.0
fantastic 9.32718150223e-05
loving 0.000233179537556
hardly 0.0
dining 0.0
complete 0.000226898073136
daniel 0.0
rewarding 0.0
spirit 0.000512350726795
finding 9.66630011055e-05
stories 0.000170997701903
including 0.00017569281143
somewhere 5.15231224827e-05
conversation 9.61316663506e-05
disrespectful 0.0
making 0.000709645418557
expect 4.74094135508e-05
polite 0.0
brings 0.0
anytime 0.0
needed 0.0
seriously 0.000218428136889
modern 0.000170816835628
welcome 0.000439556710663
moments 0.000245697229385
jacket 0.000139544818464
halloween 0.000296664960087
costume 0.000469216259851
totally 9.12553649353e-05
flight 0.000142228240652
attached 0.0
finished 0.000189117738063
strong 0.000162884324833
message 0.000209740724448
coming 0.00220778574662
temporary 0.0
challenge 0.0
achievement 0.0
unlocked 0.0
happen 0.000241705218796
celebrated 0.0
giving 0.000399597009693
excellent 5.15231224827e-05
common 0.00014660484567
pressed 0.000108413983434
company 0.0
change 0.000592967338271
singing 0.000317076700959
silver 0.0
august 0.000278972277216
crying 0.000124520761089
happened 4.16096754627e-05
parking 0.0
demand 0.000208422524979
sacrifice 0.0
personal 0.000128944183265
beyond 0.000176648890296
question 8.07859368177e-05
chicken 0.000340640357226
position 0.0
losing 0.000146200193929
respect 0.000129644220137
caption 8.36979569958e-05
shouldn 4.72794345158e-05
career 0.0
reason 8.32193509255e-05
explore 0.0
glamorous 0.0
reality 0.000141062275309
burned 0.0
without 0.000239112756074
problems 0.0
countdown 0.00028759303153
online 0.000297631719416
animals 0.000132091705748
buying 0.0
pictures 0.000449679081004
underneath 0.0
camera 5.1667942618e-05
checked 5.61180673299e-05
heading 0.000141062275309
complex 6.50138087875e-05
sunday 0.00016332425376
nights 0.000291445367352
traffic 5.93329920175e-05
through 0.000166420455947
changing 0.0
diapers 0.0
convinced 0.0
capture 0.0
random 5.76082145134e-05
recorded 6.0044660718e-05
november 0.000317975413412
number 0.000324016283137
stupid 0.0
grandparents 0.0
recording 0.0
chocolate 6.05869951408e-05
unless 9.74667959526e-05
calling 8.29949934422e-05
mermaid 0.000129959219
levels 6.07694484718e-05
package 0.0
option 0.000114544311734
knowing 0.0
actual 0.000210192988205
friday 0.000560945994797
achieve 0.0
winner 0.000219616014288
becomes 0.0
directly 0.0
quality 0.000102183670563
father 0.00013503126892
wishes 0.000103046244965
themselves 0.000138177179739
asking 0.0
usually 0.000105393799729
period 5.89819305578e-05
resist 0.0
collections 0.0
summer 0.000383705569796
bracelet 0.0
reminded 0.000137278458591
dinner 0.000218428136889
single 0.000610816218122
catching 0.0
energy 0.000141062275309
preview 0.000337685265556
monster 0.000204584839052
material 6.75377953053e-05
events 0.0
europe 0.000164047018391
holiday 0.00031852417037
emotional 0.000170816835628
affects 0.0
holding 0.000187055092248
survive 0.0
eating 0.000444712436661
outfit 0.000324641565044
missing 0.000168701683182
surprise 0.000380605979755
german 0.0
officially 0.000276771380462
french 0.000101613832964
global 0.000264230584132
follow 0.000516682979479
design 5.96872162356e-05
improvement 0.0
website 0.0
breaks 0.000104211262489
negative 0.0
official 0.00016332425376
jersey 6.64663769068e-05
france 0.00016451790072
lighter 0.000111612381905
thinks 9.22571268207e-05
hospital 5.76082145134e-05
jealous 0.0
successful 0.0
trending 0.000261693525892
leadership 6.18823139557e-05
showed 4.96874494833e-05
attended 0.0
circle 7.00030176484e-05
interested 0.0
effect 0.0
success 4.46446657099e-05
ladies 0.000433721456163
dreams 0.000467632737032
protect 5.06652275998e-05
arguing 0.0
essence 0.0
control 0.000176648890296
happier 0.0
likely 0.0
cancel 0.0
project 0.0
laying 0.00016355918992
lesson 0.0
fridays 0.0
invited 0.000111267285716
treating 0.0
allowing 6.93152107983e-05
remote 0.0
opening 0.000343851155372
alcohol 0.0
popular 0.000162182064652
pedestal 0.0
designing 0.0
followed 0.0
enjoyed 0.0
spectacular 0.000216425152866
recovered 0.0
length 0.0
matters 5.19591930036e-05
factor 0.0
england 0.0
shared 0.0
benefit 0.000148649192627
continues 0.000144595327447
fathers 0.0
kitchen 0.0
exciting 4.74094135508e-05
corner 5.64443648231e-05
spring 0.000252620237379
fallen 0.0
victoria 0.0
tornado 0.0
typical 0.0
continue 0.000273766094806
creative 0.000390561188103
excuse 0.0
female 0.000210787599458
closer 0.000198198923503
accent 8.64106616494e-05
beginning 0.000198749797933
sooner 0.000156977329704
everywhere 0.000282899302492
scenes 0.000453450352227
wishing 5.72721558669e-05
choices 0.0
unpredictable 0.0
become 0.000288918664
photographs 0.0
spread 0.00031593171457
season 0.000304971630552
putting 4.14974967211e-05
annoying 7.73571156156e-05
quietly 0.0
extending 0.0
stance 0.0
sleepy 0.0
returns 5.29959022353e-05
bucket 0.000223210427764
condolences 0.0
register 5.88075683108e-05
flowers 0.000149848519978
define 0.0
somebody 5.89819305578e-05
chicks 0.0
covering 6.11369149061e-05
repeat 0.000330930684991
football 0.0
brothers 6.05869951408e-05
player 0.00011031022833
physical 6.58372655292e-05
series 0.0
pretend 0.000207945632395
fighting 4.50104229732e-05
atlanta 0.0
mexico 0.000685262370716
president 0.000395308825718
talking 0.000158551420244
america 0.000630924279385
greats 0.0
everybody 9.74667959526e-05
judgment 0.0
amount 0.0
houston 6.73211632296e-05
everyday 0.00011223613466
shooter 0.0
attitude 0.0
million 0.000290482477048
honesty 0.0
telling 8.97762508984e-05
pulled 0.000118665984035
attack 0.0
killed 4.40425310896e-05
horrible 0.0
norman 0.0
salute 0.0
jacksonville 0.0
barackobama 0.000457543333762
lilduval 0.0
liquor 0.0
american 8.38962897791e-05
realist 0.000143831669359
remain 0.0
innocent 0.0
pieces 5.84611464903e-05
taught 0.000291445367352
golden 0.000692863545846
straight 0.000306629649758
forgive 0.0
answers 5.09491178026e-05
product 0.0
smoking 7.87767146553e-05
created 0.000142619471083
record 0.000866755992001
weapon 0.0
bottom 0.0
arrangements 0.0
africa 6.56297789143e-05
committed 0.0
journey 0.000102757667597
brother 0.000192793769929
prayers 0.00043317619769
documentary 5.91570694767e-05
addition 6.88632676354e-05
honestly 0.000282221824116
velvet 0.0
country 0.00036747957096
speedy 0.0
dressing 7.68033230484e-05
employee 0.0
yoooooo 0.0
prayer 0.000174956402266
nominated 5.93329920175e-05
praying 8.1160391261e-05
insane 0.000350766878942
illest 0.0
shooting 4.94124929623e-05
cancer 0.0
australia 0.000293169879387
marijuana 0.0
deserve 4.84650104341e-05
legend 0.000158090699594
mother 0.000132127593269
murder 0.0
realest 0.000138205141341
powerful 0.000289190654894
attendance 0.0
wisdom 6.6678337648e-05
breaking 4.25188170594e-05
bothered 0.0
angeles 0.000344316338177
dollars 0.000198766658069
soldiers 0.0
performance 0.000320266140463
reading 4.19481448895e-05
videos 0.000356643824618
jordan 6.88632676354e-05
nobody 9.69300208681e-05
politics 5.59559284516e-05
paradise 8.64106616494e-05
blessing 8.36979569958e-05
coolest 7.00030176484e-05
strippers 0.0
charities 0.0
donate 0.000159891587503
bullshit 7.57186026067e-05
sample 0.0
rocking 0.0
bringing 0.000399624337745
deserves 0.000105096494103
hilarious 0.0
victim 7.51872617873e-05
stadium 6.68914472335e-05
funniest 7.21417176219e-05
heaven 0.000125284235479
ruined 0.0
honest 4.9139445877e-05
rolling 0.000177998976052
became 4.94124929623e-05
driver 0.0
breakfast 0.000198749797933
decision 0.0
counting 5.61180673299e-05
pressure 0.0
awareness 5.66085346745e-05
dearly 0.0
lastnight 0.0
facebook 0.000126868659918
basketball 0.0
campaign 0.000137631976057
twisted 0.0
defined 0.0
discover 0.0
comments 0.0
giveaway 0.0
bipolar 0.0
teenage 8.67632973967e-05
williams 0.000315137987581
custom 0.000317436893669
singer 0.0
future 0.000285047568457
randomly 0.0
angels 0.000430305802417
blessed 0.0
sister 0.000372023823071
stripper 0.0
dancing 0.000221893941263
reigns 0.0
voting 0.000194933591905
niggas 0.0
commercial 0.000108430364041
hating 0.0
boring 0.0
century 6.48106113209e-05
acting 0.0
submit 0.000205249380904
besides 0.000164185784826
hiding 0.0
periscope 0.0
breath 0.00013421143637
choosing 0.0
lawrence 0.0
instagram 0.000383875101681
detroit 0.0
cousin 0.000155273929285
honored 0.000329035801441
dedication 8.33716595026e-05
rockin 0.0
fucked 0.0
lionelrichie 0.0
talent 0.000158090699594
goodnight 0.000530030218247
stores 0.0002149688891
drinking 0.000235230273243
brazil 0.000425635317303
tattoo 8.30480476159e-05
consecutive 0.0
regardless 6.9772409232e-05
staring 0.0
commitment 0.0
seconds 0.000158538350479
ohhhhhh 0.0
listen 0.000775790205361
whatever 0.0
wherever 0.0
kicking 0.000278972277216
compete 0.0
lauderdale 0.0
homies 0.00011734156957
billion 5.66085346745e-05
belated 0.0
pirate 0.0
shoutout 0.00022398901717
grammy 0.00027989833514
guilty 6.68914472335e-05
ceiling 9.04753561194e-05
grammys 0.000112284511473
absolute 0.0
nelson 8.46934183247e-05
mandela 0.000108413983434
bigsean 0.0
handle 5.15231224827e-05
tonite 0.0
cocaine 0.0
promise 0.000234460278967
longest 0.000210704959783
generation 0.0
tuesday 0.000403993129043
struggle 0.0
workout 0.000153606646097
character 0.000105692233653
mirror 6.4407339865e-05
interview 4.0175737899e-05
buffalo 0.0
justin 0.0
insights 0.0
winning 0.000126526262387
oxygen 0.0
espnnfl 0.0
charlotte 0.0
accomplished 0.0
defense 0.0
gettin 8.5714738663e-05
arabia 0.0
lmfaooooo 0.0
writing 9.15046115609e-05
soccer 0.0
society 5.45260027875e-05
brooklyn 0.000399752460186
incredible 0.000724777187392
witcho 0.0
celebrity 6.4608458576e-05
minute 0.000267140992964
foreign 0.0
cherry 0.00026028989219
champs 0.0
murdered 0.0
evidence 5.86339758775e-05
android 0.0
sneaking 0.0
clearly 0.0
download 0.000111588910886
mixtape 0.0
central 0.000104211262489
washington 5.22526169196e-05
veterans 0.0
stronger 0.000125668770449
promised 0.000259242445284
marcus 0.0
zombie 0.0
throwing 0.000129621222642
security 0.000104800308274
fastest 0.0
fantasy 7.49242599888e-05
turning 9.88249859246e-05
ignore 0.0
fucking 0.0
tickets 0.000764831181021
collector 0.000132144148988
prizes 0.0
december 0.00010967860048
loyalty 0.0
return 8.73712547556e-05
escape 0.0
yassss 0.000152229108736
goddess 0.000361659111658
handsome 0.0
language 5.53139775015e-05
motion 6.95431454788e-05
gallery 7.93592234173e-05
movies 5.91570694767e-05
children 0.000173797915146
backpack 0.0
potentially 0.0
guardian 0.0
review 0.0
theaters 0.000168053970087
shhhhh 0.0
begins 9.45588690316e-05
closet 9.28833710869e-05
bodies 0.00015640541995
hahaha 0.0
produced 0.0
latest 8.54988509514e-05
banned 0.0
beyonce 0.000169386836649
perform 0.000126443527894
lionel 0.0
signed 8.71347515862e-05
princess 0.000238961238929
ghetto 0.0
conditioning 0.0
charity 0.0
germany 0.000120089321436
ronaldo 0.0
married 5.84611464903e-05
millions 5.34487128707e-05
blessings 0.000205411253655
diamond 0.0
nephew 0.0
lights 5.6773392871e-05
howard 0.0
turned 0.000129995802713
buckle 0.0
relevant 0.0
performing 0.000190250681959
indian 0.0
includes 0.0
tricks 0.0
survivor 0.0
diamonds 0.000115094179486
collection 0.000379506274143
families 0.000101048094952
welcoming 0.0
select 7.04683322184e-05
announced 9.61316663506e-05
granted 0.0
decided 9.45588690316e-05
selfish 0.0
trailer 0.0
reppin 0.0
celebration 0.000221893941263
decades 0.0
ultimate 0.000171816467601
incase 0.000132144148988
downtown 0.0
seasoning 0.0
episode 0.000141449651246
mentality 0.0
touching 0.0
retweet 0.000150310570329
goodmorning 0.0
midnight 0.00037308037084
expectations 0.0
joining 9.30169128719e-05
reasons 0.0
released 0.000138008231135
release 0.000259991605426
models 7.62572222936e-05
popped 9.63421820423e-05
within 5.03833724697e-05
standing 0.000135399306244
valentines 0.0
justice 5.31462604387e-05
houses 8.08544082205e-05
purchase 0.000203266882694
dropped 4.87333979763e-05
conversations 7.3382155583e-05
seattle 7.21417176219e-05
strength 0.000328094036782
monica 9.54485385232e-05
incredibly 0.000390561188103
streets 0.00017435325068
private 5.06652275998e-05
inspirational 0.0
barbie 0.000123146413641
tables 0.0
affection 0.0
broski 0.0
pissing 0.0
designer 8.67632973967e-05
cooking 6.75377953053e-05
tattoos 0.0
direction 0.0
readyyyyy 0.0
exclusive 0.000422028502141
adrianalima 0.0
fashion 0.000456841580478
talkin 9.28833710869e-05
bitches 0.000110951549168
nailed 0.000238961238929
kitten 0.0
whomever 0.000268915352765
ruthless 0.0
teaching 6.02246089601e-05
chillin 0.000199280572853
philly 0.00059111599747
baddest 0.0
cheers 0.000183410744718
autumn 0.0
presents 6.4608458576e-05
flawless 0.000303429275569
unique 0.0
handed 0.0
taraji 0.0
victory 5.64443648231e-05
tribute 0.0
ballin 0.0
horror 0.000156977329704
females 0.0
catfish 0.0
action 0.000169616072323
wouldnt 0.0
recipient 0.0
whitney 0.0
continued 0.0
esther 0.0
letter 4.87333979763e-05
existence 0.0
papers 0.0
winter 0.0
sessions 0.0
replicating 0.0
foundation 5.62808775927e-05
syndrome 0.000270263932191
colorado 8.71191244612e-05
tremendous 7.46630057234e-05
public 0.0
cannot 4.40425310896e-05
brilliant 0.0
illustration 0.000113664253822
beware 0.0
globally 0.000102177852161
premieres 0.0
streaming 0.000193825375728
immigration 0.0
wrapped 7.41456479661e-05
studio 0.000219987560478
february 0.000116235500453
amazon 0.000179596596865
border 0.0
huffingtonpost 0.0
francis 0.000180950712239
january 5.46823394637e-05
relationships 0.0
tragic 0.0
secure 0.0
countries 0.000398572616466
episodes 0.0
broadcast 0.0
tickled 0.000152229108736
livestream 0.0
potential 0.0
education 0.000212585041755
famous 0.0
unknown 0.0
exists 0.000146764311166
orders 7.09392195504e-05
microsoft 0.0
ability 5.7439826152e-05
director 9.85514647983e-05
accessible 0.0
correction 7.99504920372e-05
william 0.0
editors 0.0
yellow 0.0
passionate 0.0
treatment 0.0
ambassador 6.81949463506e-05
thanking 0.0
streamed 0.0
lovers 0.000238077670252
wrinkled 0.0
bridge 0.000190838991741
magazine 5.48393002401e-05
sincere 0.0
quotes 0.0
result 0.000113877890419
destruction 0.0
edition 5.28461168264e-05
prince 0.000286360779335
indiana 0.0
editorial 0.0
emotion 0.0
mistakes 7.04683322184e-05
inspiring 0.000106594391669
counter 7.46630057234e-05
disappointing 0.0
edited 9.28833710869e-05
spotlight 0.000242563224662
saddest 0.0
production 0.000126055195033
header 0.00010966229851
itunes 0.00117392511294
guests 0.0
snakes 0.0
charging 0.0
arriving 0.0
mysteries 0.0
dangerous 0.000158987706706
typically 9.81928117231e-05
saving 5.72721558669e-05
universe 0.000317084469932
victims 5.72721558669e-05
receive 0.0
proceeds 0.00023720067092
crossed 0.0
received 0.0
limitations 0.0
studying 0.0
conflict 8.20928924128e-05
petition 0.00014235359006
milestones 0.0
outstanding 0.0
devastating 0.0
installment 0.0
signature 0.0
mistletoe 0.0
awards 0.000154569367448
shelves 0.0
smells 0.000172821323299
themed 0.000374879876318
sisters 0.000751872617873
banquet 0.0
danger 0.0
leading 0.000100207046886
member 0.0
dominant 0.0
distinguish 0.0
factories 0.0
distinct 0.0
distance 0.0
confirmed 5.7439826152e-05
behavior 0.0
collect 0.0
vanity 0.0
junior 0.0
communities 0.0
worldwide 0.000393778673486
canada 0.000262741235256
recognized 0.0
vessels 0.0
movement 0.0
segment 0.0
internal 0.0
information 0.0
easily 0.0
towards 0.0
october 0.000827326712477
belgium 9.63421820423e-05
european 6.79746733808e-05
caribbean 0.0
cities 0.000118314138953
arrives 0.0
extraordinary 0.0
exquisite 0.000124975516564
argentina 0.0
eliminate 0.0
genius 0.000209600616548
prepared 5.96872162356e-05
anthony 0.0
breakthrough 0.0
berlin 0.000243481173783
batman 0.0
upcoming 0.000111588910886
upgrade 0.0
singapore 0.000203314136188
crucial 0.0
scratch 8.46934183247e-05
collaboration 0.0
tested 0.0
acquire 0.0
honoring 0.0
holland 0.0
visually 0.0
neyocompound 0.0
inspire 6.71057181849e-05
ebonymag 0.0
spiketv 0.0
constant 0.000153058649144
sunset 0.0
tuning 0.000261357373383
gentleman 0.0
fulfilling 0.0
ayeeeee 0.0
stratford 0.0
poland 0.000102705626828
philippines 0.000199280572853
kickin 0.0
theweeknd 0.0
september 0.000331883865009
manchester 0.000358281481833
rickyrozay 0.0
remarkable 6.79746733808e-05
rihanna 0.000285027659212
disgusted 0.000115094179486
immoral 0.0
process 5.02431989798e-05
goosebumps 0.0
performances 7.73571156156e-05
strangers 9.08665894197e-05
emotions 0.0
judgement 0.0
comparing 0.0
thuggin 0.0
studios 8.43587897324e-05
jennifer 7.84886648522e-05
performer 0.0
literally 0.000438600581787
cardiff 0.0
soooooooo 0.0
crashed 0.0
cthagod 0.0
closed 0.0
justinbieber 0.0
complexmag 0.0
billboard 0.00107962461901
airing 0.0
albums 0.0
sweden 7.82027099752e-05
katyperry 0.0440608786102
treats 8.40269850437e-05
missouri 0.0
thefader 0.0
soundtrack 0.0
theellenshow 0.000168053970087
sweets 0.0
festival 0.000115894340506
wizkhalifa 0.0
amsterdam 0.000201271495511
backstage 0.000141878439101
collab 0.00031983844677
subscribed 0.0
joined 4.84650104341e-05
davidguetta 0.0
pushing 0.0
hopeful 0.0
romantic 9.41450394062e-05
mentions 0.0
lurking 0.0
ballad 0.0
teamed 0.0
exclusively 0.000323417632882
kingjames 0.0
hollyrpeete 0.0
sneakers 0.0
auction 7.87767146553e-05
sneaker 0.0
djkhaled 0.0
express 0.000121905504808
thegrammys 0.000738878481845
throughout 6.24507858669e-05
shining 7.96537463096e-05
excellence 0.0
thrown 7.49242599888e-05
zendaya 0.0
playin 0.00021440816842
applemusic 0.000212060613656
crunch 0.0
capitalofficial 0.0
filmed 0.000151437205213
toronto 0.000351174932971
naomicampbell 0.0
trvisxx 0.0
killin 0.0
trucks 0.0
stands 5.46823394637e-05
platinum 0.0
native 0.0
spotify 0.000418489784979
rocked 0.000165454154977
jumped 0.0
leebruhgreene 0.0
leaning 0.0
featured 0.0
announce 0.000549027669366
senior 0.0
iamdiddy 0.0
haters 8.30480476159e-05
nothin 0.0
appreciation 8.53713423992e-05
defjamrecords 0.0
floating 0.000368256813974
superstars 0.0
shondarhimes 0.000142347771659
premiere 0.00038524346798
orchestral 0.0
makeup 0.000254080254974
touched 0.0
newest 6.36129972471e-05
designed 0.000121538896944
passes 0.0
angelasimmons 0.0
tidalhifi 0.0
vashtie 0.0
delivered 0.0
owning 0.000104890556815
producer 7.14158147467e-05
balmain 0.0
legendary 0.000189082792549
independence 0.0
mtvmusicuk 0.0
audition 0.0
debuts 0.0
footage 6.4407339865e-05
marshall 0.0
spends 0.0
playtime 0.0
completed 0.0
dishes 0.0
photographed 0.0
bubble 0.000148806951843
belong 0.0
tongue 0.0
observing 0.0
consistent 0.0
posing 0.0
heavens 0.0
contemporary 0.0
aiming 0.0
ceremony 0.0
brighter 0.0
rainbow 0.00136936339612
matthew 7.51872617873e-05
phenomenal 0.0
affected 6.07694484718e-05
rivers 9.67967376515e-05
presenting 0.0
competitive 0.0
eskimo 0.0
sibling 0.0
dakota 0.0
printed 0.0
heroes 6.0044660718e-05
deepest 0.0
describe 5.71051975597e-05
hollywood 0.000115894340506
baggage 0.0
terrifying 0.0
animation 0.00010433283651
nationwide 0.0
capital 0.0
quantity 0.0
nominations 0.000161101576014
mountains 9.41450394062e-05
mosaic 0.0
realise 0.0
overload 0.0
photographer 0.0
depression 0.0
donation 0.0
marvelous 0.0
madonna 0.00100451143715
sailed 0.0
terror 0.0
rinsed 0.0
disorder 0.0
polish 0.0
represents 8.08544082205e-05
touchdown 0.000100134866813
creates 7.76369646424e-05
oxford 8.85755362309e-05
stitched 0.0
morocco 0.0
thrill 0.0
balloons 0.000227328507644
teaming 0.0
latimes 0.0
kerrywashington 0.0
caution 0.0
camouflage 0.0
approaching 0.0
generous 0.0
installation 0.0
benefiting 0.0
basics 0.000111612381905
confirm 0.000128016325212
thrilling 0.0
photography 0.0
matches 0.0
boundaries 0.0
singles 0.00010661281559
laptop 8.82063445768e-05
obvious 0.000133356675296
darling 9.37199690795e-05
celebrations 0.0
chewbacca 0.0
underwater 0.0
naughty 0.0
advised 0.0
feelin 0.00041956222726
macaroni 0.0
perfection 0.0
picasso 0.000276410282682
recipe 8.20928924128e-05
radical 0.0
volcano 0.0
planted 0.0
products 0.0
directed 0.000471248142607
grabbed 0.000111612381905
frames 0.0
casual 0.000191785642936
scheming 0.0
twickenham 0.0
bbcnews 0.0
pledge 0.0
subtle 9.32994450466e-05
embarrassed 8.46934183247e-05
snatch 0.0
unveiling 0.000116578077187
kissed 0.0
arguments 0.0
settling 0.0
desperate 7.49242599888e-05
executive 6.56297789143e-05
humbled 0.0
courage 0.0
dropping 5.9509705224e-05
carried 0.0
behalf 0.0
hardest 0.0
marking 0.0
vision 0.000174867220411
intervention 0.0
records 0.000119374432471
deeply 0.0
mannered 0.0
texted 0.000112968330836
israeli 0.0
strongest 0.0
rogers 0.0
concept 0.0
allegiance 0.0
belongs 0.0
intended 8.33716595026e-05
bosses 0.0
purpose 0.0
hottest 0.0
campaigns 0.0
sunderland 0.0
teenager 0.0
runway 0.0
steven 0.0
guitar 8.40269850437e-05
donating 7.11767950302e-05
applause 9.32994450466e-05
finale 0.0
wasted 0.0
absent 0.0
awhile 0.0
fierce 9.28833710869e-05
sincerely 9.37199690795e-05
apology 0.000148291295932
climbing 0.000102177852161
unwilling 0.0
protesting 9.96402864267e-05
bikini 0.000133283899001
friendships 0.0
matching 8.89482273841e-05
wolves 0.0
mosque 0.0
venezuela 0.000230188358972
donates 0.000115094179486
generations 0.0
underestimate 0.0
pardon 0.0
stickers 0.0
mothers 0.0
deeper 0.000167395913992
nipple 0.0
perfume 0.000279076207292
noodle 0.000140917845995
melissa 0.0
forest 0.0
panties 0.0
jimmykimmel 0.0
everytime 0.000102705626828
underdog 0.0
shoulders 0.000102177852161
wrapping 0.0
bedroom 0.0
glitter 0.000383668019785
stocking 0.000116578077187
annoyed 0.0
behave 0.0
goodbye 6.18823139557e-05
fuckin 0.0
seller 0.0
joshgroban 0.0
samsungmobileus 0.0
influential 0.0
slicing 0.0
ryanseacrest 0.00010780438018
farmer 0.0
teaser 0.0
styled 0.0
casting 0.0
imitated 0.0
forgiveness 0.0
perezhilton 0.000110951549168
blacked 0.0
paparazzi 0.0003867319808
peoplemag 0.0
rolled 0.0
vanityfair 0.00010661281559
rockstar 0.0
thousand 0.0
minded 0.0
shines 0.0
sunglasses 0.0
auntie 0.000380681635798
magazines 0.000121398631579
waited 8.24087063378e-05
denmark 0.000100635747756
leather 0.0
wished 0.0
ladygaga 0.000402542991023
swallow 0.0
glblctzn 0.0
shakira 0.0
accessories 0.0
nbcthevoice 0.0
clique 0.000140917845995
premiering 9.12617547789e-05
loooooove 0.0
weareheremvmt 0.0
looooove 0.0
vmagazine 0.000950873799758
popcrush 0.0
studded 0.0
yassssss 0.0
yessss 0.0
undeniable 0.0
unicef 0.000932624617493
auditions 0.0
ellemagazine 0.000126893878599
yasssss 0.000321074982347
pharrell 0.000105456302148
greece 0.000291769829463
papermagazine 0.000139538103646
nowwwww 0.0
maccosmetics 0.0
macaidsfund 0.0
lipstick 0.000124975516564
meeeee 0.0
newsstands 0.000136915890683
unapologetically 0.0
insidebates 0.0
legalize 0.0
loooove 0.0
caradelevingne 0.0
allllll 0.0
badgalriri 0.0
itsjeremyscott 0.00185543693262
nickiminaj 0.00011734156957
nipples 0.0
booooo 0.0
trippy 0.0
mikewillmadeit 0.0
puttin 0.000145373773765
trappin 0.0
alexanderwangny 0.0
karllagerfeld 0.0
celebratin 0.0
lilyallen 0.0
fuuuuuck 0.0
chanel 0.000524146035668
rubber 9.96402864267e-05
angelou 0.0
misses 0.0
harpersbazaarus 0.000154147470772
timberlake 0.0
photoshopped 0.0
whatchu 0.0
rehearsals 0.000215608760359
couture 0.000403373029147
mutual 0.0
creeper 0.0
cuddling 0.0
celine 0.0
theamas 0.0
thexfactor 0.0
websterhall 0.0
presale 0.00011891452421
deluxe 0.00011734156957
styles 0.0
wetten 0.0
shittttttttttt 0.0
boredom 0.0
darealamberrose 0.0
noooooooo 0.0
itunesmusic 0.00111645296842
cbstweet 0.0
thermal 0.0
mariners 0.0
torres 0.0
thebeatles 0.0
blondies 0.0
greeting 0.0
thecut 0.0
geeked 0.0
outlet 0.0
americanexpress 0.0
gqmagazine 0.0
nicole 0.0
bumped 9.91518500552e-05
hangover 0.0
stockholm 0.000309721746965
casually 0.000112968330836
esquire 0.0
winnipeg 0.000140917845995
begging 0.0
showroom 0.0
sleeves 0.0
smelling 0.000127889339928
guaranteed 0.0
obsession 8.24087063378e-05
attendant 0.0
aussie 0.00113564640554
tbsveryfunny 0.0
reservation 0.0
mollymcnearney 0.0
dragging 0.0
rocnation 0.0
tapered 0.0
badass 0.0
endlessly 0.0
vampires 0.0
viewers 0.0
kanyewest 0.000492585654563
designers 0.0
billboards 0.000134457676382
backstreetboys 0.0
monteith 0.0
e_fashionpolice 0.0
epically 0.0
internationally 0.0
mighty 0.0
jcolenc 0.0
semifinals 0.0
brasilia 0.0
tailgating 0.0
photoshoot 0.000121398631579
smokin 0.000146978838348
ahhhhhh 0.0
missin 0.0
sweats 0.000139538103646
impacted 0.0
rodriguez 0.0
musician 0.0
merchandise 0.0
jurgen 0.0
athleteally 0.0
originals 0.0
número 0.0
zealand 0.000174238248922
hehehe 0.00031658020218
fearless 0.0
stadiums 0.0
thiago 0.0
suarez 0.0
cropped 0.0
uruguay 0.0
apparel 0.0
staircase 0.0
wintour 0.0
spotting 0.0
polygraph 0.0
twerking 0.000281835691989
shipment 0.0
muggin 0.0
takeoff 0.0
thailand 0.0
tomorr 0.0
googleplay 0.000129959219
budweiser 0.0
miafestival 0.0
dotted 0.0
burning 0.000277260843193
surpass 0.0
betcha 0.0
onairwithryan 0.0
dreamers 0.000152229108736
brunomars 0.000126893878599
beyoncé 0.000115829128404
hellooo 0.0
subscribers 0.00010661281559
preorder 0.00070445023429
believer 0.0
fragrance 0.000273831781366
hellooooo 0.0
majesty 0.0
beatsbydre 0.000142347771659
finland 0.000112284511473
fearnecotton 0.0
debuted 0.0
queued 0.0
rhetorical 0.0
iranian 0.0
infamous 0.0
brutally 0.0
execution 0.0
palestinian 0.0
transplant 0.0
audacity 0.0
foreplay 0.0
priced 0.0
huntington 0.0
manger 0.0
weaker 0.0
justintrudeau 0.0
creeping 0.0
fittest 0.0
hoodie 0.0
mankind 0.0
westwood 0.0
holographic 0.0
throwin 0.0
eminem 0.000123146413641
ecstatic 0.000287663338719
enjoys 0.0
wussup 0.0
duplicated 0.0
crotch 0.0
congrat 0.0
huggin 0.0
implement 0.0
penalizing 0.0
gonzalez 0.0
bitchin 0.0
sephora 0.0
damien 0.0
demanded 0.0
negativity 0.0
alancarr 0.000177653597986
skillz 0.000154147470772
hopeless 0.0
beatle 0.0
cheesecake 0.000127889339928
almighty 0.0
whatcha 0.0
slumber 0.0
chimney 0.0
headlining 0.000124975516564
perplexed 0.0
googleplaymusic 0.0
thrills 0.0
rollers 0.0
bravotv 0.0
gifted 0.0
kekepalmer 0.0
styledtorock 0.0
yooouuu 0.0
shantay 0.0
yaaaas 0.000171085261532
bestest 0.000152229108736
freestyle 0.0
everrrrr 0.0
sweatband 0.0
podolski 0.0
collaborating 0.0
bestfriend 0.0
sittin 0.0
whaaaat 0.0
clockwork 0.0
warmest 0.0
temptation 0.0
spiritual 0.000233156154373
chameleon 0.0
customised 0.0
acrylic 0.0
grasshopper 0.0
engages 0.0
gourmet 0.0
rhythmic 0.0
petals 0.000174232430521
klinsmann 0.0
directv 0.000119725246175
popcrave 0.0
versailles 0.0
raddest 0.0
grandfather 0.0
persie 0.0
webster 0.0
knight 0.0
footwear 0.000160537491173
collectors 0.0
blackout 0.0
skylight 0.0
hammock 0.000162921167779
playhouse 0.0
revelers 0.0
executed 0.0
cincinnati 0.0
simultaneously 0.0
malawi 0.0
graduated 0.0
sickening 0.000121398631579
mueller 0.0
elonjames 0.0
skeletons 0.0
mittromney 0.0
connecticut 0.0
cumulative 0.0
racked 0.0
valera 0.0
thighs 0.000139538103646
timely 0.0
rapping 0.0
shrugs 0.0
enables 0.0
psychic 0.0
fernando 0.0
tourism 0.0
slaughtered 0.0
devotion 0.0
fantasies 0.0
parsons 0.000431495008078
stella 0.000127889339928
complainers 0.0
newsstand 0.0
voguemagazine 0.00116578077187
westfield 0.0
manolo 0.0
turquoise 0.0
parisian 0.0
childs 0.0
swimsuit 0.0
bazaar 0.0
empress 0.0
brainstorm 0.0
tanning 0.0
desirable 0.0
feathers 0.000136915890683
antics 0.0
featurette 0.0
olivier 0.0
helloooo 0.0
hallow 0.0
connie 0.0
upbringing 0.0
privatize 0.0
bittersweet 0.0
outlaw 0.0
marcel 0.0
nowwww 0.0
hushed 0.0
threshold 0.0
floats 0.0
barbados 0.0
manuelcav 0.0
niggaz 0.0
prayin 0.0
drizzyxcole 0.0
homegirl 0.0
rappin 0.0
witcha 0.0
mufasa 0.0
dainternz 0.0
lololol 0.0
barclayscenter 0.0
bestbuy 0.0
blackouts 0.0
rivera 0.0
jakemiosge 0.0
givenchy 0.0
riccardo 0.0
grossed 0.0
guetta 0.0
spicewon 0.0
bitche 0.0
shawty 0.0
wednesdays 0.0
payday 0.0
jewelers 0.0
romero 0.0
acknowledging 0.0
calypso 0.0
blushes 0.0
medusa 0.0
keepers 0.0
futuristic 0.0
whereabouts 0.0
slayed 0.0
asvpxrocky 0.0
haaaaa 0.0
inezandvinoodh 0.0
calvinharris 0.0
_maxwell_ 0.0
bwerde 0.0
edward_enninful 0.0
haaaaaa 0.0
wisest 0.0
unconditionally 0.00130336934223
drmayaangelou 0.0
blackgirlsrock 0.0
submissive 0.0
rearrange 0.0
attuned 0.0
abrams 0.0
awaken 0.0
climbs 0.0
jacking 0.0
seventy 0.0
snatching 0.0
manoloblahnik 0.0
nicolerichie 0.0
openingceremony 0.0
whiteley 0.0
supermodel 0.0
the_real_iman 0.0
minogue 0.0
tmagazine 0.0
baaaaack 0.0
yeessss 0.0
wooooo 0.0
epicness 0.0
takawiraa 0.0
joplin 0.0
uncensored 0.0
unspeakable 0.0
rewrites 0.0
askdrruth 0.0
glozell 0.0
tardiness 0.0
runways 0.0
colombian 0.0
unapologetic 0.0
zac_posen 0.0
rumoured 0.0
omgggg 0.0
futbol 0.0
biatch 0.0
barrington 0.0
catwalk 0.0
sledgehammer 0.0
clemente 0.0
dollaz 0.0
mariah 0.000140917845995
granddad 0.0
iyanlavanzant 0.0
hustler 0.0
coletteparis 0.0
flexin 0.0
mistress 0.0
exceeds 0.0
sweeeeeet 0.0
stancesocks 0.0
serviced 0.0
issssss 0.0
lipglass 0.0
externally 0.0
complex_uk 0.0
prideful 0.0
dash_radio 0.0
holidaze 0.0
mawnin 0.0
champagnepapi 0.0
fashawn 0.0
raided 0.0
ahhhhhhhh 0.0
soulmate 0.0
motorbikes 0.0
britishvogue 0.0
gnlstudios 0.0
robinsoncano 0.0
debuting 0.000131036508917
cc_sabathia 0.0
colorways 0.0
hit_boy 0.0
_spyda 0.0
phresh 0.0
dominates 0.0
ratchet 0.0
rupaul 0.0
cockpit 0.0
kimmiekyees 0.0
horoscope 0.0
catwalks 0.0
paramedic 0.0
fhollande 0.0
sexiness 0.0
hereeee 0.0
changers 0.000171085261532
tiptoes 0.0
revved 0.0
meditative 0.0
fauntleroy 0.0
mbsings 0.0
disrespectfully 0.0
traumatized 0.0
outdid 0.0
elvispresley 0.000402972045387
toupee 0.0
josephine 0.0
discography 0.0
mariasharapova 0.0
chinchilla 0.0
skylar 0.0
illestbaba 0.0
georgiamjagger 0.0
pierced 0.0
hardrock 0.0
snorkeling 0.0
thrilla 0.0
gunpoint 0.0
sleeved 0.0
stevestoute 0.0
kiiiiiiiiiiiiinnnngggggg 0.0
lanvin 0.0
chateau 0.0
lizzs_lockeroom 0.0
prophets 0.0
müller 0.0
lullaby 0.000168171438167
samersum 0.0
disassembled 0.0
anniversaries 0.0
hayden_williams 0.0
rousteing 0.0
slayage 0.0
raunchy 0.0
benzema 0.0
fuckery 0.0
hellooooooo 0.0
juliagillard 0.0
congeniality 0.0
gunned 0.0
condense 0.0
missjillscott 0.0
yussss 0.0
chopard 0.0
woodbridge 0.0
orousteing 0.0
dubsmash 0.0
alicialquarles 0.0
worldmcqueen 0.0
whateva 0.0
elysées 0.0
jennnrosales 0.0
xstrology 0.0
looool 0.0
tippin 0.0
marleys 0.0
dwanimation 0.0
dreamworks 0.0
yaself 0.0
anothermagazine 0.0
claralionelfdn 0.0
mchingi 0.0
rihannareplay 0.0
awtguide 0.0
ryannavy_rih 0.0
rihquest 0.0
gpforeducation 0.0
valliniandre 0.0
globalfund 0.0
rhenna 0.0
millymaefenty 0.0
peetes 0.0
pandagunda 0.0
floriamamaroma 0.0
adoringrihanna 0.0
ymcofficial 0.0
rihanti_ 0.0
mcdean 0.0
rihannadaily 0.0
stancemuse 0.0
muhtean 0.0
rihdefine 0.0
officialdonnie 0.0
stunnafenty 0.0
perfumesbyriri 0.0
badgal 0.0
shaninamshaik 0.0
reblrihanna 0.0
elliscole_ 0.0
itskaitbh 0.0
harpersbazaarcn 0.0
yusefhairnyc 0.0
mylahmorales 0.0
teamofrihanna 0.0
muhphucka 0.0
harpersbazaar 0.0
rihrihfreak 0.0
thenbacentral 0.0
roversi 0.0
suchaf_cknlady 0.0
fourfiveseconds 0.0
petergrayhair 0.0
wkorea 0.0
dennisleupold 0.0
ursulastephen 0.0
ozzysalvatierra 0.0
ciarrap 0.0
rihannaargntina 0.0
rihearsal 0.0
sremmurd 0.0
id_magazine 0.0
heauxm 0.0
rihpost 0.0
jrgseul 0.0
bitchez 0.0
underst_navy 0.0
sonitaalex 0.0
chris_walden 0.0
danachanel 0.0
wednesdayz 0.0
jimmyfenty 0.0
houseoffraser 0.0
skeete 0.0
_kailssss 0.0
muhphuckas 0.0
phuckin 0.0
rastafarih 0.0
obviiii 0.0
etherihalvibe 0.0
rorreyfenty 0.0
noellaalstrom 0.0
rihturn 0.0
tellar 0.0
esquireuk 0.0
huffpoststyle 0.0
tyronmachhausen 0.0
melottenberg 0.0
paolakudacki 0.0
tompecheuxmu 0.0
lgoldstein_ltd 0.0
phucking 0.0
kudacki 0.0
hellurrr 0.0
tom_ford 0.0
neakah 0.0
creepah 0.0
pahtna 0.0
wontonsan 0.0
cappadonna 0.0
phuckmarqy 0.0
elfies 0.0
starstunning 0.0
ohnana 0.0
tushmagazine 0.0
macxriri 0.0
rickrubin 0.0
findataui 0.0
tristate 0.0
distoyb 0.0
kabukimagicnyc 0.0
yerdme_cmb 0.0
hittas 0.0
evan_erogers 0.0
jessieriri 0.0
unfourgettable 0.0
meeeaan 0.0
shweinsteiger 0.0
goooooooaaaaallllllll 0.0
goooal 0.0
braaaaaaaaaaaaaaaaaa 0.0
asapkoff 0.0
belgiuuuuummm 0.0
druchaos 0.0
cuadrado 0.0
murdaaahhh 0.0
colombiaaaa 0.0
karafenty 0.0
dlsturbla 0.0
braaaaaaaaaaaaaaaaaaaaaa 0.0
abouuuutttt 0.0
takecarerihanna 0.0
nathannavy 0.0
theworidcup 0.0
goooooaaaaaaallllll 0.0
bazaararabia 0.0
bigshitxtalker 0.0
__tatijxo 0.0
lhhatl 0.0
braaaaaaaaaaaa 0.0
rihannanavyrd 0.0
gooooooaaaalllll 0.0
triscastellano 0.0
iiiiiiiiiiiiiiiiiiii 0.0
eatmydaisy 0.0
leggooooal 0.0
yaaaaaassssssss 0.0
prettygirl_sp 0.0
ooohhhhhh 0.0
shiiiiitttt 0.0
roooonnnnnnnneeeeeeeyyyyyy 0.0
muslera 0.0
tadpole 0.0
giusichrisriri 0.0
_xomec 0.0
blockedt 0.0
ooooohhhh 0.0
goooooooaaaaaaalllllllllllllllll 0.0
stefansaxon 0.0
rihannademos 0.0
dragonflycici 0.0
chririh 0.0
rihluminati 0.0
goaaaalllll 0.0
twinzies 0.0
mantlers 0.0
suchaf__cknlady 0.0
glamour_robyn 0.0
adamselman 0.000228739614866
sephorafrance 0.0
thefashionlaw 0.0
scout_willis 0.0
quietude 0.0
theblackvoice 0.0
weeeed 0.0
kiiiiss 0.0
dooooon 0.0
miiiiss 0.0
malinsworld 0.0
prompics 0.0
itsalldonn 0.0
goooorrrrrrlllllll 0.0
thenewdaily_ 0.0
wiggin 0.0
stevesoboroff 0.0
pivot_tv 0.0
lapolicefdtn 0.0
scarificing 0.0
whooooose 0.0
sambapologetic 0.0
bellaisevil 0.0
sta_schemin 0.0
i_aim_tyga 0.0
fameisloud 0.0
garcon_rebelle 0.0
itsbreezybiotch 0.0
phaedra 0.0
vivala_stephyy 0.0
_bossmadeg 0.0
kontomitrosnick 0.0
sorrenti 0.000244681944297
whenevahhh 0.0
teamvivanco 0.0
heifers 0.0
stevenkolb 0.0
jeremy_brossard 0.0
jordanbrossard 0.0
quilted 0.0
piscesareus 0.0
plumsykes 0.0
cedellamarley 0.0
offish 0.000228739614866
urprise 0.0
i_love_riri 0.0
rihannadiva 0.0
javiroo 0.0
frihday 0.0
cuntlifex 0.0
_chris_rated_ 0.0
yewmadcunt 0.0
erinwasson 0.0
balmainparis 0.0
_yadim 0.0
muthaphucka 0.0
onnneeee 0.0
liiiiieeesss 0.0
gautier 0.0
mtvstarsvotes 0.0
zinloves 0.0
chloefrahm 0.0
uprising_create 0.0
uprising_darren 0.0
jonnycrave 0.0
jeff_uprising 0.0
kareemfenty 0.0
daily_rihnavy 0.0
unapologeticunt 0.0
rorrey 0.0
foreverrr 0.0
guyanese 0.0
annndd 0.0
historih 0.0
grandfadda 0.0
arleta 0.0
loreleicakes 0.0
river_island 0.0
finallyyyy 0.0
rodin_thinker 0.0
mrs_toyac 0.0
cheersrihrih 0.0
bangbang 0.0
faiz_fenty 0.0
leandra 0.0
noella 0.0
rasshoooolllleee 0.0
luminati 0.0
inezvinoodh 0.0
visvim 0.0
realne 0.0
sarahfrancus 0.0
tadium 0.0
trapstar 0.0
afrihca 0.0
rihrobyn 0.0
cbsgirlfriend 0.0
shyronnie_rn 0.0
mariamfenty_ 0.0
mizzpmf 0.0
whooooaaaaa 0.0
camkaipink 0.0
yasssssssssssssssssssss 0.0
lunaxskye 0.0
yaaaaasssssss 0.0
niggggaaaaaaa 0.0
breeziechillin 0.0
betologetic 0.0
isusjsjdha 0.0
awffffff 0.0
mcdessikins 0.0
skreets 0.0
pieceofria 0.0
loooool 0.0
craaaazzyyy 0.0
lolarae_xoxo 0.0
stayflysamir 0.0
shotta 0.0
tamarawray 0.0
lauraleehickock 0.0
heauxz 0.0
rihannanavyit 0.0
manilla 0.0
ronnyerickson 0.0
nikofenty 0.0
vincehaycock 0.0
zodiacfacts 0.0
naomiiknows 0.0
wrizzap 0.0
muuuch 0.0
hongkong 0.0
jetlaaaaaagggged 0.0
rasshole 0.0
februharry 0.0
kaşara 0.0
çıkmadı 0.0
dicked 0.0
vinoodh 0.000244681944297
rihannasblog 0.0
urihannafansite 0.0
teejay 0.0
stupse 0.0
clapbacks 0.0
niggaaaazzzz 0.0
bwaaahaaaaa 0.0
willheardmusic 0.0
kristennoelgipson 0.0
rsvpgallery 0.0
backout 0.0
bwahhaaa 0.0
errwhurr 0.0
niiiiggaz 0.0
fridayz 0.0
debbycoda 0.0
cabbing 0.0
dolly_cohen 0.0
cowboyz 0.0
friendz 0.0
phucker 0.0
charliebymz 0.0
lynn_ban 0.0
inwardly 0.0
ravening 0.0
whyyyyyyyyyyyy 0.0
thatdamnlala 0.0
adamsellman 0.0
scottland 0.0
kingspleasure 0.0
mikkyekko 0.0
rihannanavide 0.0
saskoktz 0.0
phlawless 0.0
givenchydonc 0.0
mlle_yulia 0.0
oxxoxo 0.0
foreva_rn_ladii 0.0
skinhead 0.0
killaz 0.0
yennifer 0.0
bestofpisces 0.0
smegma 0.0
morganemiller_ 0.0
aa_davis 0.0
beenie 0.0
nickeystaar 0.0
frihannamorocco 0.0
thinketh 0.0
guitarists 0.000217428352124
jordriri 0.0
badgalclaudia 0.0
hausofnath 0.0
_abirogerson 0.0
tommykane 0.0
livenationuk 0.0
millenniu 0.0
juuuussttt 0.0
helllooooo 0.0
miiiine 0.0
chaneliman 0.0
blushy 0.0
laetitiacrahay 0.0
rihmix 0.0
dariuscash 0.0
joshkillss 0.0
drunk_cockiness 0.0
firebombfenty 0.0
mooky_mcnasty 0.0
defpenradio 0.0
iamrici 0.0
letcha 0.0
niggerish 0.0
mawazine 0.0
thefashionaddicts 0.0
phierce 0.0
errwhere 0.0
jocking 0.0
niggaaa 0.0
tami_black 0.0
homienadz 0.0
religiosity 0.0
joycemeyer 0.0
brooooklyyyyn 0.0
miiiiine 0.0
dilekkeysan 0.0
marykatrantzou 0.0
allaboutpisces 0.0
jfisherjewelry 0.0
oddhangover 0.0
diggins 0.0
phyliciaghee 0.0
bawsin 0.0
howeverrrrr 0.0
channyyxoxo 0.0
dowwwwnnnnn 0.0
thugbitch 0.0
rihanas 0.0
miiiiiinnneee 0.0
rihwrite 0.0
janiseeaileen 0.0
ratchify 0.0
eeeeeemmmmmm 0.0
pannies 0.0
wooooiiiiiiiiiii 0.0
muhphuckers 0.0
bashment 0.0
whaaaaattttt 0.0
liiifee 0.0
covery 0.0
leeeeaaaavvveeee 0.0
haarrrrrddd 0.0
ismashedriri 0.0
christabslg 0.0
reallll 0.0
peoplez 0.0
wooiiiiii 0.0
slackness 0.0
kevfenty 0.0
woooiii 0.0
tatiana_xo 0.0
fentynavysalute 0.0
ratchettt 0.0
rachael_deanna 0.0
lifeeeeee 0.0
bxdcfjcf 0.0
killled 0.0
asdfghjkjhgtfrdedfghjnhbgvfc 0.0
troy_fenty 0.0
_marrymerihanna 0.0
jkbwdhbwh 0.0
_noellaa 0.0
hunneds 0.0
thekingfly 0.0
dooown 0.0
woooiiiii 0.0
phucked 0.0
kickstand_ohb 0.0
acedemy 0.0
mistercap 0.0
gallest 0.0
sinsofmyfather_ 0.0
dwayneofficial 0.0
_revofev 0.0
joefenty 0.0
thegodlight 0.0
molestmerihanna 0.0
rihannanavyeu 0.0
melina 0.0
terryrichardsonstudio 0.0
_sexxtroversy 0.0
neuroticbxtch 0.0
getcho 0.0
moneyyy 0.0
idillionaire 0.0
yaaaaaaas 0.0
noxx_onite 0.0
phonefancy 0.0
chiefin 0.0
londonfashionwk 0.0
_mayor_ 0.0
rihannanow 0.0
jamrock 0.0
rihannastats 0.0
jenesismagazine 0.0
napmed 0.0
hausofbeyhive_ 0.0
probabily 0.0
badgalelly 0.0
ladylivja 0.0
rihannacomics 0.0
__glitterdick 0.0
chelsey_ba 0.0
stashbox 0.0
thuglife 0.0
highladayz 0.0
brrrap 0.0
kalifah 0.0
marylin 0.0
muthafucker 0.0
stylenetwork 0.0
bvalgari 0.0
oooonly 0.0
fuckyopictures 0.0
amplifydot 0.0
trappat 0.0
soumsluvriri 0.0
ibebossedup 0.0
holerringg 0.0
rihskillerdoll 0.0
equaled 0.0
chefette 0.0
rezilientkas 0.0
blastinggggg 0.0
dammnnn 0.0
lifeandtimes 0.0
hausofjazzy 0.0
kaykispeaks 0.0
condesa 0.0
awaaayyy 0.0
flawle 0.0
mandler 0.0
loudies 0.0
dulcattis 0.0
killaaa 0.0
_loveforrihanna 0.0
yesimkayla 0.0
rollingnostone 0.0
richkunt 0.0
yasssssss 0.0
eriricccccc 0.0
cuntmeout 0.0
sashay 0.0
condragulations 0.0
neverrr 0.0
phasetoo 0.0
fooooorde 0.0
ruunavi 0.0
rihtweet 0.0
ishoobernator 0.0
thirstiest 0.0
j_dimps 0.0
deecosey 0.0
itsrihannasnavy 0.0
muthaphuckin 0.0
