awesome 0.000252044882793
christmas 5.58581718812e-05
trying 0.000151222532272
launch 0.00046355621257
moment 0.00017738002936
wonderful 0.000113243691909
seeing 0.000336603398385
hanging 3.17725974768e-05
sounds 0.000242010368685
contacts 0.0
anybody 0.0
worked 5.4512355623e-05
direct 0.000107069695693
others 0.000298199849857
currently 0.000179890395554
better 0.000349068596818
please 0.000176902507041
social 0.000141170431667
anxiety 0.0
around 0.000648270251234
people 0.000548536366429
morning 0.000626706176237
damage 0.000123296805747
everything 0.000150409482297
present 0.000171257183501
though 0.000234926814554
friend 0.000151222532272
watched 5.66218459546e-05
beautiful 0.000516456501714
demanding 0.0
anything 0.000203816013067
tagged 0.0
helped 0.000137392343873
thinking 0.0
finally 0.000332991827588
caught 0.000112936345334
believe 5.0001536121e-05
already 0.000300009216726
couple 0.000438466421899
launches 4.26909740868e-05
chance 0.000175477729346
annual 6.74042312507e-05
quickly 0.0
growing 9.01924720967e-05
probably 2.71825190543e-05
changed 0.000160904726335
history 0.000387342376285
center 0.0
museum 0.00013058043349
behind 0.000224401240812
screaming 0.0
pretty 2.56147559683e-05
really 0.000376023705742
possibly 6.97513441037e-05
little 0.000125003840303
happiest 5.30761374553e-05
earlier 0.000322651600405
forget 0.000101633635288
someone 5.05435734404e-05
things 0.000174534298409
available 0.000286359096715
perfect 0.0
different 0.000433109027768
person 0.000125679545783
watching 0.000176426287651
exhibit 0.000236659261351
passed 0.000122258045484
prefer 0.000113549972077
minutes 5.17851382131e-05
travel 0.000122595554722
daughter 0.0
positive 0.0
outside 0.000106116811827
looking 0.000875026882118
forward 0.000592325339008
raising 7.15871443811e-05
impression 0.0
wheels 0.0
favorite 2.90926005113e-05
instead 8.47022590003e-05
appreciate 2.94928253356e-05
couldn 0.0
remember 0.000250682470495
impressive 0.0
vintage 0.0
holidays 0.0
friends 0.0
impossible 3.40871961938e-05
everyone 0.000150409482297
always 0.00037400206802
limited 3.29493498875e-05
months 0.000130867562998
moving 2.69628394728e-05
meeting 0.000565046231076
answer 0.000282523115538
together 0.00030163090988
inside 0.00010441191758
upstairs 0.0
missed 0.000152450452932
active 0.000161357925905
eventually 4.5593488242e-05
longer 0.000115737168903
enough 0.000202720033554
building 8.44724572416e-05
enjoying 0.000153244443403
london 0.00014908848003
posting 7.52507266124e-05
recent 0.000762114692929
amazing 0.00050001536121
attention 0.0
tomorrow 0.000626706176237
whenever 4.1227790684e-05
feeling 5.24884917972e-05
excited 0.000157041075597
understand 5.46601096346e-05
following 0.000236836623876
asleep 0.0
learning 0.00024860089794
evening 0.000459179177906
special 0.000101087146881
secret 0.000224648958181
across 0.000364064830701
surprised 8.96987382011e-05
candles 0.0
sophia 8.24122071652e-05
version 2.77027593833e-05
rather 0.000394204800461
showing 5.34901570297e-05
saying 7.85205377985e-05
thoughts 0.000159605724015
exactly 8.13272317793e-05
getting 0.000451228446891
nothing 0.000100272988198
tweets 0.000110511085774
photos 0.000151565396393
looked 2.84653102891e-05
difficult 3.3042212085e-05
office 8.13272317793e-05
brought 0.000111111894126
biggest 0.000129114125428
thrilled 0.0
entire 8.35602457702e-05
something 0.000325887211643
closing 3.72921716504e-05
anyone 0.000202174293762
taking 0.000325887211643
interesting 0.000363078117228
original 2.96547315617e-05
flying 0.000189052492551
sometimes 0.000165766628661
yesterday 0.000328533227363
serious 0.0
digital 0.0
wearing 5.88245295541e-05
british 0.000219189687907
either 0.000136650274086
second 5.05435734404e-05
checking 3.24901569606e-05
indeed 0.000170922014162
island 0.000567741370334
hearing 8.4014960931e-05
staying 0.0
another 0.00125003840303
compare 4.57478755539e-05
bummer 0.0
clothes 4.16184013547e-05
landing 0.0
weekend 0.000101633635288
delivery 0.00013770967436
secretive 0.0
anyway 9.71979736273e-05
recognize 0.0
working 0.000501364940989
bigger 5.88245295541e-05
laughing 2.97360806427e-05
wanted 2.53400041942e-05
clothing 0.0
grateful 3.27646566637e-05
friendship 0.0
family 0.000200545976396
listening 8.24354063236e-05
stream 6.89566349753e-05
double 2.83879971382e-05
especially 0.0
shaking 0.0
waiting 0.000179787437161
definitely 5.48083027374e-05
account 0.000117649059108
completely 2.97360806427e-05
thought 0.000126358933601
possible 0.000291821232524
simple 2.91721331822e-05
professional 0.0
members 9.4789165399e-05
business 5.40717023074e-05
absolutely 0.000187722180724
sending 5.81852010226e-05
introducing 4.02151247536e-05
congrats 0.000605249149905
community 9.2711242514e-05
keeper 0.0
greatest 5.48083027374e-05
selfie 0.0
pasadena 0.0
posted 5.93094631234e-05
saturday 0.000132288288983
designs 6.72379510997e-05
broken 0.0
chicago 0.0
glimpse 0.000227540172786
actually 0.000333890954727
myself 0.0
pajamas 0.0
school 0.000305724019601
throwback 0.0
thursday 2.68174543892e-05
selling 0.0
talented 6.5898699775e-05
celebrate 0.000193919315683
celebrating 0.000149497897002
anniversary 0.000151565396393
contest 0.0
experiences 0.0
students 0.00109655635758
figure 8.99451977769e-05
featuring 0.000195487928944
inspired 9.09392378359e-05
breeze 0.0
sitting 0.000113243691909
playing 5.09540032668e-05
street 0.0
points 6.42575919607e-05
advice 0.000117649059108
memory 3.46762032184e-05
forever 0.0
imagine 5.58581718812e-05
problem 0.00010756016386
played 0.0
keeping 2.8004986977e-05
lovely 0.000504139980136
dressed 4.04644615434e-05
chinese 0.000161857846174
sunshine 0.000728816248027
afternoon 0.000383406729363
notice 3.39903670578e-05
difference 5.48083027374e-05
suppose 4.81863127694e-05
letting 0.0
system 0.000344678269204
mutant 0.0
bathroom 0.0
almost 0.000175477729346
details 8.22124541061e-05
experience 0.000209388100796
luckily 0.0
viewed 0.0
living 0.000287908638595
weather 0.000993217312958
bright 0.000141117847147
launching 0.0
colors 0.0
monday 0.000130867562998
walked 0.0
pinned 0.0
wanting 0.0
tweeting 8.58619785658e-05
forgot 3.14214160205e-05
gorgeous 4.07163169293e-05
herself 0.0
happens 5.19250175261e-05
learned 0.000174079924361
congratulations 0.000386788800208
raised 3.27646566637e-05
mission 0.000475865138809
smelled 0.0
unforgettable 0.0
forgotten 3.72921716504e-05
trouble 0.0
channel 0.000182882511838
fantastic 2.95736470311e-05
loving 0.000118294588124
hardly 4.65344856229e-05
dining 0.0
complete 0.000374100775587
daniel 4.41000196539e-05
rewarding 0.0
spirit 0.0
finding 0.000153244443403
stories 0.0
including 0.000222827322054
somewhere 0.000163364102851
conversation 0.0
disrespectful 0.0
making 0.000375011520908
expect 6.01283147311e-05
polite 0.0
brings 6.04596577602e-05
anytime 0.0
needed 0.000106980314059
seriously 0.0
modern 0.0
welcome 0.000354760058719
moments 0.0
jacket 0.0
halloween 0.0
costume 4.959138709e-05
totally 5.78685844516e-05
flight 0.0
attached 5.64055385878e-05
finished 0.000329799058515
strong 0.000103291300343
message 2.66009540025e-05
coming 0.000125003840303
temporary 0.0
challenge 0.000109913875098
achievement 4.66948300418e-05
unlocked 0.0
happen 7.66373509996e-05
celebrated 0.0
giving 0.000278740046136
excellent 0.000490092308553
common 0.000247914261222
pressed 0.0
company 8.51639914146e-05
change 0.000125341235247
singing 0.0
silver 4.09707423125e-05
august 0.0
crying 0.0
happened 0.0
parking 0.0
demand 6.608442417e-05
sacrifice 0.0
personal 0.000327074133738
beyond 0.00028004986977
question 0.00015368853581
chicken 0.0
position 0.000102553208497
losing 0.0
respect 5.48083027374e-05
caption 5.30761374553e-05
shouldn 5.99634651846e-05
career 0.000145463002556
reason 2.63863173439e-05
explore 0.00134386350008
glamorous 0.0
reality 0.0
burned 0.0
without 0.000202174293762
problems 3.09037475047e-05
countdown 0.0
online 0.000647108147347
animals 0.000879527251531
buying 3.39903670578e-05
pictures 0.000126737349238
underneath 0.0
camera 0.000393175879965
checked 3.55866542295e-05
heading 0.00065598931213
complex 0.000123683372052
sunday 7.76777073196e-05
nights 0.0
traffic 7.52507266124e-05
through 0.0
changing 9.22006575035e-05
diapers 0.0
convinced 0.0
capture 0.0
random 3.65316146512e-05
recorded 7.61533203466e-05
november 6.72135352539e-05
number 0.000102735678378
stupid 0.0
grandparents 0.0
recording 0.000201075623768
chocolate 0.0
unless 6.18074950093e-05
calling 2.63151804306e-05
mermaid 8.24122071652e-05
levels 0.0
package 0.0
option 3.63185067625e-05
knowing 0.000173381016092
actual 0.000233260244162
friday 0.000152450452932
achieve 4.20152289012e-05
winner 2.78534152567e-05
becomes 7.09676712918e-05
directly 4.1357315501e-05
quality 0.0
father 0.0
wishes 6.53456411404e-05
themselves 4.38117682215e-05
asking 7.95876088703e-05
usually 0.000100251475702
period 3.74027415487e-05
resist 4.75123941448e-05
collections 0.0
summer 0.000162215106922
bracelet 0.0
reminded 4.35268111633e-05
dinner 0.000110811037533
single 7.7468475257e-05
catching 7.41449841379e-05
energy 2.98176960059e-05
preview 7.13797971285e-05
monster 0.000216225370139
material 4.28283489313e-05
events 0.0
europe 6.93524064368e-05
holiday 2.88555134203e-05
emotional 3.61072048944e-05
affects 0.0
holding 2.96547315617e-05
survive 0.0
eating 0.000250675104876
outfit 0.0
missing 8.02352355445e-05
surprise 5.36349087783e-05
german 0.0
officially 0.000117007681433
french 3.22186464243e-05
global 0.000469164960038
follow 0.000252037553787
design 3.78499906922e-05
improvement 5.66441382191e-05
website 0.000336209625081
breaks 0.0
negative 3.65316146512e-05
official 2.58925691065e-05
jersey 8.42978415122e-05
france 0.000139102952663
lighter 0.0
thinks 5.85038407164e-05
hospital 0.0
jealous 4.21489207561e-05
successful 0.000308537909355
trending 0.0
leadership 3.92419877313e-05
showed 0.0
attended 0.0
circle 8.87832850491e-05
interested 0.000193311878546
effect 3.3042212085e-05
success 8.49327689319e-05
ladies 3.43799604717e-05
dreams 6.5898699775e-05
protect 6.42575919607e-05
arguing 0.0
essence 0.0
control 0.000364064830701
happier 0.0
likely 0.00013404713144
cancel 0.0
project 0.000566218459546
laying 0.0
lesson 6.97513441037e-05
fridays 0.0
invited 3.52794617869e-05
treating 0.0
allowing 0.0
remote 5.50199893043e-05
opening 8.17685334346e-05
alcohol 0.0
popular 6.85639798568e-05
pedestal 0.0
designing 0.0
followed 9.99686760694e-05
enjoyed 0.000951554580566
spectacular 9.14957511078e-05
recovered 0.000315928950257
length 0.000395290889961
matters 0.0
factor 0.0
england 0.0
shared 6.87599209434e-05
benefit 0.000219949912144
continues 0.000152822556855
fathers 0.0
kitchen 0.0
exciting 0.000120256629462
corner 3.57935721905e-05
spring 3.20392681599e-05
fallen 0.0
victoria 5.57031408382e-05
tornado 6.79822890967e-05
typical 4.66948300418e-05
continue 8.68028766775e-05
creative 3.53814393164e-05
excuse 0.00014527402705
female 0.000334171585672
closer 0.000157107080103
accent 5.47963692296e-05
beginning 3.15087487585e-05
sooner 4.97727222253e-05
everywhere 0.0
scenes 3.19500606544e-05
wishing 0.0
choices 4.05900712358e-05
unpredictable 0.0
become 0.000104694050398
photographs 0.0
spread 0.0
season 2.76277714434e-05
putting 5.26303608613e-05
annoying 0.0
quietly 0.0
extending 0.0
stance 0.0
sleepy 0.0
returns 0.000168033838135
bucket 4.71821446651e-05
condolences 0.0
register 0.000111876514951
flowers 0.0
define 9.8110325483e-05
somebody 0.0
chicks 7.035870272e-05
covering 0.00023261580681
repeat 6.9952016175e-05
football 3.15087487585e-05
brothers 0.0
player 0.0
physical 4.17499767059e-05
series 0.000245305600304
pretend 0.0
fighting 0.0
atlanta 0.0
mexico 0.000144850527964
president 5.57068305135e-05
talking 0.000552990001447
america 0.0
greats 0.0
everybody 0.0
judgment 0.0
amount 0.000140711598582
houston 0.0
everyday 3.55866542295e-05
shooter 0.0
attitude 0.0
million 0.000447358067321
honesty 0.0
telling 0.0
pulled 0.0
attack 3.23088218253e-05
killed 0.0
horrible 0.0
norman 0.0
salute 0.0
jacksonville 7.54083356268e-05
barackobama 0.0
lilduval 0.0
liquor 0.0
american 0.0
realist 9.12092687486e-05
remain 0.0
innocent 0.0
pieces 0.0
taught 3.69633738589e-05
golden 3.37978296439e-05
straight 0.000111111894126
forgive 5.06997238319e-05
answers 6.46176436506e-05
product 4.02151247536e-05
smoking 0.0
created 3.01468555216e-05
record 0.000104694050398
weapon 0.000101778665783
bottom 0.000571315049658
arrangements 7.12039860824e-05
africa 8.32368027093e-05
committed 7.89634689878e-05
journey 0.000260650571925
brother 3.0564511371e-05
prayers 0.0
documentary 7.50276079297e-05
addition 0.000218344413044
honestly 0.0
velvet 7.16376225985e-05
country 2.58925691065e-05
speedy 0.0
dressing 0.0
employee 0.0
yoooooo 0.0
prayer 0.0
nominated 0.0
praying 0.0
insane 0.0
illest 0.0
shooting 3.13343881095e-05
cancer 6.3017497517e-05
australia 0.0
marijuana 0.0
deserve 0.0
legend 0.0
mother 0.0
murder 0.0
realest 0.0
powerful 6.11290227419e-05
attendance 0.0
wisdom 4.22833333253e-05
breaking 2.69628394728e-05
bothered 0.0
angeles 0.0
dollars 0.0
soldiers 0.0
performance 2.90133207269e-05
reading 7.98028620076e-05
videos 0.0
jordan 0.0
nobody 0.0
politics 0.0
paradise 0.0
blessing 0.0
coolest 0.0
strippers 0.0
charities 0.0
donate 3.37978296439e-05
bullshit 0.0
sample 0.000213980789023
rocking 0.0
bringing 0.000112629942989
deserves 0.0
hilarious 0.0
victim 0.0
stadium 0.0
funniest 0.0
heaven 0.0
ruined 0.0
honest 3.11612383081e-05
rolling 7.52507266124e-05
became 0.000156671940547
driver 0.0
breakfast 0.000126034995034
decision 3.12476629048e-05
counting 0.0
pressure 0.000272697569551
awareness 3.58976786933e-05
dearly 0.0
lastnight 0.0
facebook 2.68174543892e-05
basketball 0.0
campaign 2.90926005113e-05
twisted 0.0
defined 0.00010914947383
discover 0.000170763896347
comments 6.11290227419e-05
giveaway 0.0
bipolar 0.0
teenage 0.0
williams 0.0
custom 5.03247773497e-05
singer 0.0
future 0.000723039102399
randomly 0.0
angels 0.0
blessed 0.0
sister 6.74042312507e-05
stripper 0.0
dancing 3.51778996456e-05
reigns 0.0
voting 3.09037475047e-05
niggas 0.0
commercial 3.43799604717e-05
hating 0.0
boring 8.67710893193e-05
century 0.000164395740995
acting 3.58976786933e-05
submit 4.33855446597e-05
besides 0.0
hiding 0.0
periscope 0.0
breath 0.00017021740794
choosing 0.0
lawrence 0.0
instagram 0.0
detroit 0.0
cousin 0.0
honored 0.0
dedication 5.28692194943e-05
rockin 0.0
fucked 0.0
lionelrichie 0.0
talent 0.0
goodnight 0.0
stores 9.08801020239e-05
drinking 3.72921716504e-05
brazil 4.4985324648e-05
tattoo 0.000157992013743
consecutive 0.0
regardless 4.42454047376e-05
staring 5.32847869675e-05
commitment 0.000124462550073
seconds 6.70235657198e-05
ohhhhhh 0.0
listen 0.000103570276426
whatever 5.75539654749e-05
wherever 0.0
kicking 0.0
compete 4.70186459074e-05
lauderdale 9.12092687486e-05
homies 0.0
billion 0.000179488393467
belated 0.0
pirate 0.0
shoutout 0.0
grammy 0.0
guilty 0.0
ceiling 0.0
grammys 0.0
absolute 0.0
nelson 0.0
mandela 0.0
bigsean 0.0
handle 3.26728205702e-05
tonite 0.0
cocaine 0.0
promise 2.97360806427e-05
longest 0.0
generation 0.000103139881415
tuesday 0.0
struggle 0.0
workout 0.0
character 3.35117828599e-05
mirror 0.0
interview 0.000127385008167
buffalo 0.0
justin 0.0
insights 0.000366566000918
winning 0.000106980314059
oxygen 0.0
espnnfl 0.0
charlotte 0.0
accomplished 0.0
defense 0.0
gettin 0.0
arabia 0.0
lmfaooooo 0.0
writing 0.000232106565815
soccer 0.0
society 0.000172885320187
brooklyn 0.0
incredible 5.40717023074e-05
witcho 0.0
celebrity 0.0
minute 0.000141170431667
foreign 4.14875166908e-05
cherry 0.000110039978609
champs 0.0
murdered 0.0
evidence 0.000223092539526
android 5.78726365006e-05
sneaking 0.0
clearly 6.35451949535e-05
download 0.000141525757265
mixtape 0.0
central 3.3042212085e-05
washington 0.0
veterans 0.0
stronger 0.0
promised 4.10989352489e-05
marcus 0.0
zombie 0.000229495801813
throwing 0.0
security 3.32289805328e-05
fastest 0.0
fantasy 0.0
turning 0.000125337552438
ignore 7.17953573867e-05
fucking 0.0
tickets 0.0
collector 0.0
prizes 0.000106569573935
december 6.95514763316e-05
loyalty 0.0
return 0.0001662165563
escape 4.48355736201e-05
yassss 0.0
goddess 0.0
handsome 0.0
language 0.000105230248567
motion 0.0
gallery 0.000100649554699
movies 0.0
children 2.75530083553e-05
backpack 0.0
potentially 5.45747369152e-05
guardian 0.000407587970176
review 0.000298176960059
theaters 0.0
shhhhh 0.0
begins 0.000119926930369
closet 0.0
bodies 0.00019836554836
hahaha 0.0
produced 0.0
latest 0.000243981695338
banned 8.96711472402e-05
beyonce 0.0
perform 0.0
lionel 0.0
signed 8.28833143303e-05
princess 0.000151534637393
ghetto 0.0
conditioning 0.0
charity 0.0
germany 7.61533203466e-05
ronaldo 0.0
married 0.0
millions 0.0
blessings 0.0
diamond 0.0
nephew 0.0
lights 0.000180011108513
howard 0.0
turned 5.49569375491e-05
buckle 0.0
relevant 8.90774861526e-05
performing 4.02151247536e-05
indian 0.00166586570978
includes 7.45843433008e-05
tricks 0.0
survivor 0.0
diamonds 0.0
collection 6.87599209434e-05
families 0.0
welcoming 0.0
select 0.0
announced 3.04804186396e-05
granted 9.60322355319e-05
decided 0.0
selfish 0.0
trailer 0.0
reppin 0.0
celebration 0.0
decades 0.000120645374261
ultimate 0.0
incase 0.0
downtown 0.0
seasoning 0.0
episode 0.000328895373404
mentality 0.0
touching 0.0
retweet 0.0
goodmorning 0.0
midnight 0.000135191318576
expectations 0.0
joining 0.000117971301343
reasons 5.83442663645e-05
released 2.91721331822e-05
release 0.000109913875098
models 0.000145073032522
popped 0.0
within 9.58501819632e-05
standing 2.86206595219e-05
valentines 0.0
justice 3.37021156254e-05
houses 5.12729323225e-05
purchase 0.0
dropped 9.2711242514e-05
conversations 0.0
seattle 0.0
strength 3.46762032184e-05
monica 0.0
incredibly 0.0
streets 0.0
private 9.63863879411e-05
inspirational 8.96711472402e-05
barbie 0.0
tables 0.0
affection 7.98526827713e-05
broski 0.0
pissing 0.0
designer 0.0
cooking 0.0
tattoos 0.0
direction 3.84205755734e-05
readyyyyy 0.0
exclusive 5.94721612854e-05
adrianalima 0.0
fashion 3.6212631991e-05
talkin 0.0
bitches 0.0
nailed 0.000101023091595
kitten 0.0
whomever 0.0
ruthless 9.02682713677e-05
teaching 0.000496480040794
chillin 0.0
philly 0.0
baddest 0.0
cheers 0.0
autumn 5.97010396862e-05
presents 0.0
flawless 0.0
unique 3.84205755734e-05
handed 9.60322355319e-05
taraji 0.0
victory 0.0
tribute 0.0
ballin 0.0
horror 0.0
females 0.0
catfish 0.0
action 0.00010756016386
wouldnt 0.0
recipient 0.0
whitney 0.0
continued 4.29664848591e-05
esther 0.0
letter 3.09037475047e-05
existence 0.0
papers 0.000321322573507
winter 3.38939125034e-05
sessions 0.0
replicating 0.0
foundation 7.13797971285e-05
syndrome 0.0
colorado 0.0
tremendous 0.0
public 0.000610944610737
cannot 0.000111716343762
brilliant 9.22006575035e-05
illustration 0.0
beware 0.0
globally 0.0
premieres 4.959138709e-05
streaming 8.1941484625e-05
immigration 4.65344856229e-05
wrapped 4.70186459074e-05
studio 6.97513441037e-05
february 3.6854731111e-05
amazon 0.0
border 0.0
huffingtonpost 0.0
francis 0.0
january 6.93524064368e-05
relationships 0.0
tragic 4.52875522418e-05
secure 4.57478755539e-05
countries 0.0
episodes 9.0271961043e-05
broadcast 0.000206786577505
tickled 0.0
livestream 0.0
potential 0.000414924768448
education 0.000101106346876
famous 3.44783174876e-05
unknown 0.000398181777803
exists 4.65344856229e-05
orders 0.0
microsoft 0.0
ability 0.0
director 3.12476629048e-05
accessible 6.41387775606e-05
correction 0.0
william 8.48369488429e-05
editors 0.0
yellow 4.63751657761e-05
passionate 0.0
treatment 0.0
ambassador 0.0
thanking 0.0
streamed 0.000133030382368
lovers 0.0
wrinkled 0.0
bridge 0.000282376370334
magazine 0.0
sincere 0.0
quotes 4.1227790684e-05
result 7.22144097889e-05
destruction 0.0
edition 3.35117828599e-05
prince 3.63185067625e-05
indiana 5.01393975277e-05
editorial 0.000156775720057
emotion 5.52456331176e-05
mistakes 0.0
inspiring 0.000101393488932
counter 0.0
disappointing 0.0
edited 5.89009666194e-05
spotlight 0.0
saddest 0.0
production 3.99682566854e-05
header 0.0
itunes 0.0
guests 3.92419877313e-05
snakes 0.0
charging 0.0
arriving 0.000110039978609
mysteries 0.00022622500688
dangerous 0.0
typically 0.000124535779826
saving 0.0
universe 0.000201075623768
victims 0.0
receive 0.0
proceeds 0.0
crossed 0.000132736214213
received 3.21287959804e-05
limitations 0.0
studying 5.28692194943e-05
conflict 0.0
petition 9.0271961043e-05
milestones 0.0
outstanding 4.29664848591e-05
devastating 0.0
installment 0.0
signature 5.41372963757e-05
mistletoe 0.0
awards 0.000163364102851
shelves 6.68739523548e-05
smells 0.0
themed 0.000297157430104
sisters 0.000143037521515
banquet 0.0
danger 0.0
leading 0.000190635584861
member 0.000117649059108
dominant 0.0
distinguish 7.86651501834e-05
factories 0.0
distinct 7.86651501834e-05
distance 0.000145073032522
confirmed 0.000182124165134
behavior 0.0
collect 0.000431371366541
vanity 0.0
junior 0.0
communities 0.000190716695353
worldwide 8.32368027093e-05
canada 0.000133291568093
recognized 0.0
vessels 9.21871772705e-05
movement 0.0
segment 4.9955385835e-05
internal 5.20583034305e-05
information 0.00010168173751
easily 0.0
towards 7.28496660536e-05
october 0.00013990403235
belgium 0.0
european 0.000215526951752
caribbean 0.000583885648824
cities 3.75138039648e-05
arrives 0.000101399447664
extraordinary 4.22833333253e-05
exquisite 0.0
argentina 6.16742077893e-05
eliminate 0.0
genius 0.0
prepared 0.0
anthony 4.5593488242e-05
breakthrough 5.97010396862e-05
berlin 0.0
batman 0.0
upcoming 0.0
upgrade 0.000167109422515
singapore 0.0
crucial 9.53583476765e-05
scratch 0.0
collaboration 0.0
tested 0.000101023091595
acquire 7.25281983824e-05
honoring 0.0
holland 0.0
visually 0.000289603237283
neyocompound 0.0
inspire 0.00017021740794
ebonymag 0.0
spiketv 0.0
constant 0.0
sunset 0.000144558938308
tuning 0.0
gentleman 0.0
fulfilling 0.0
ayeeeee 0.0
stratford 0.0
poland 0.0
philippines 0.0
kickin 0.0
theweeknd 0.0
september 7.01534990446e-05
manchester 4.5440051012e-05
rickyrozay 0.0
remarkable 4.31053903504e-05
rihanna 0.0
disgusted 0.0
immoral 0.0
process 3.18611711799e-05
goosebumps 7.2985706103e-05
performances 0.0
strangers 0.0
emotions 0.0
judgement 0.0
comparing 0.000110491266235
thuggin 0.0
studios 0.0
jennifer 0.0
performer 0.0
literally 0.0
cardiff 0.000152894761205
soooooooo 0.0
crashed 5.61692005983e-05
cthagod 0.0
closed 7.11733084591e-05
justinbieber 0.0
complexmag 0.0
billboard 0.0
airing 0.0
albums 0.0
sweden 0.0
katyperry 0.0
treats 0.0
missouri 0.0
thefader 0.0
soundtrack 0.0
theellenshow 0.0
sweets 0.0
festival 0.000183732798498
wizkhalifa 0.0
amsterdam 0.0
backstage 0.0
collab 0.0
subscribed 8.84865513472e-05
joined 3.07335525012e-05
davidguetta 0.0
pushing 7.99365133708e-05
hopeful 0.0
romantic 0.0
mentions 0.0
lurking 0.0
ballad 0.0
teamed 0.0
exclusively 0.0
kingjames 0.0
hollyrpeete 0.0
sneakers 0.0
auction 0.0
sneaker 0.0
djkhaled 0.0
express 0.0
thegrammys 0.0
throughout 7.92049558636e-05
shining 0.0
excellence 0.0
thrown 0.0
zendaya 0.0
playin 0.0
applemusic 0.0
crunch 6.83629601734e-05
capitalofficial 0.0
filmed 0.000336112824361
toronto 0.0
naomicampbell 0.0
trvisxx 0.0
killin 0.0
trucks 6.91421945668e-05
stands 3.46762032184e-05
platinum 0.0
native 0.0
spotify 0.0
rocked 0.0
jumped 0.0
leebruhgreene 0.0
leaning 0.0
featured 0.000156967950925
announce 2.90133207269e-05
senior 3.9122973323e-05
iamdiddy 0.0
haters 0.0
nothin 0.0
appreciation 5.41372963757e-05
defjamrecords 0.0
floating 5.83815005136e-05
superstars 0.0
shondarhimes 0.0
premiere 4.07163169293e-05
orchestral 0.0
makeup 0.0
touched 0.0
newest 0.000161357925905
designed 0.000154145105374
passes 0.0
angelasimmons 0.0
tidalhifi 0.0
vashtie 0.0
delivered 0.0
owning 0.0
producer 0.0
balmain 0.0
legendary 3.99682566854e-05
independence 0.0
mtvmusicuk 0.0
audition 0.0
debuts 0.0
footage 0.00044927525607
marshall 0.0
spends 0.0
playtime 0.0
completed 0.000512729323225
dishes 0.0
photographed 7.12039860824e-05
bubble 0.0
belong 0.0
tongue 0.0
observing 0.000151844892061
consistent 5.20583034305e-05
posing 0.0
heavens 0.0
contemporary 0.0
aiming 0.0
ceremony 4.45387430763e-05
brighter 0.0
rainbow 0.000102160789817
matthew 0.0
phenomenal 9.95454444506e-05
affected 0.0
rivers 0.0
presenting 9.50247882897e-05
competitive 0.0
eskimo 0.0
sibling 0.0
dakota 0.0
printed 0.0
heroes 0.0
deepest 0.00190152754245
describe 0.0
hollywood 7.34931193993e-05
baggage 0.0
terrifying 0.0
animation 0.0
nationwide 0.0
capital 0.0
quantity 0.0
nominations 0.0
mountains 0.000179103119059
mosaic 0.000273627806246
realise 0.000167109422515
overload 0.0
photographer 0.0
depression 5.41372963757e-05
donation 0.0
marvelous 0.0
madonna 0.0
sailed 0.000103314663891
terror 0.0
rinsed 0.0
disorder 0.0
polish 0.0
represents 5.12729323225e-05
touchdown 0.000126998845511
creates 0.0
oxford 5.61692005983e-05
stitched 0.000101803081629
morocco 0.0
thrill 0.0
balloons 7.20789344944e-05
teaming 0.0
latimes 0.0
kerrywashington 0.0
caution 6.99465698459e-05
camouflage 9.65344124277e-05
approaching 0.000167805245333
generous 0.0
installation 8.04683553162e-05
benefiting 0.0
basics 0.0
confirm 4.05900712358e-05
thrilling 0.0
photography 0.000172866140223
matches 0.0
boundaries 0.000135214685229
singles 0.0
laptop 5.59350817777e-05
obvious 0.0
darling 0.0
celebrations 0.0
chewbacca 0.0
underwater 0.00188520839067
naughty 0.0
advised 0.0
feelin 0.0
macaroni 0.0
perfection 0.0
picasso 8.76412679848e-05
recipe 0.0
radical 0.0
volcano 0.000490483651168
planted 7.34517658631e-05
products 0.0
directed 4.26909740868e-05
grabbed 0.0
frames 0.0
casual 0.0
scheming 0.0
twickenham 0.0
bbcnews 0.0
pledge 0.0
subtle 0.0
embarrassed 5.37073982915e-05
snatch 0.0
unveiling 0.0
kissed 0.0
arguments 0.0
settling 0.0
desperate 0.0
executive 0.0
humbled 0.0
courage 0.0
dropping 7.54748480791e-05
carried 0.0
behalf 0.00013450672086
hardest 0.0
marking 0.0
vision 3.69633738589e-05
intervention 0.0
records 0.000113549972077
deeply 0.0
mannered 0.0
texted 0.0
israeli 0.0
strongest 0.0
rogers 0.0
concept 0.0
allegiance 0.0
belongs 0.0
intended 0.000158607658483
bosses 0.0
purpose 0.0
hottest 4.88789537311e-05
campaigns 0.0
sunderland 0.0
teenager 0.0
runway 0.0
steven 0.0
guitar 0.0
donating 0.0
applause 0.0
finale 0.0
wasted 0.0
absent 0.0
awhile 0.0
fierce 0.0
sincerely 0.0
apology 0.0
climbing 0.0
unwilling 0.0
protesting 0.0
bikini 0.0
friendships 0.0
matching 0.0
wolves 0.0
mosque 0.0
venezuela 0.0
donates 0.0
generations 0.0
underestimate 0.0
pardon 0.0
stickers 0.0
mothers 0.0
deeper 0.000159228412366
nipple 0.0
perfume 0.0
noodle 0.0
melissa 0.0
forest 5.45747369152e-05
panties 0.0
jimmykimmel 0.0
everytime 6.51296419005e-05
underdog 0.0
shoulders 0.0
wrapping 0.0
bedroom 0.0
glitter 0.0
stocking 0.0
annoyed 0.0
behave 0.0
goodbye 3.92419877313e-05
fuckin 0.0
seller 0.0
joshgroban 0.0
samsungmobileus 0.0
influential 5.86398807657e-05
slicing 0.0
ryanseacrest 0.0
farmer 0.0
teaser 0.0
styled 0.0
casting 0.0
imitated 0.0
forgiveness 0.0
perezhilton 0.0
blacked 0.0
paparazzi 0.0
peoplemag 0.0
rolled 0.000105738438989
vanityfair 0.0
rockstar 0.0
thousand 0.0
minded 0.0
shines 0.000132323037992
sunglasses 0.0
auntie 0.0
magazines 0.0
waited 5.22585733522e-05
denmark 6.38170508877e-05
leather 0.0
wished 0.0
ladygaga 0.0
swallow 8.04683553162e-05
glblctzn 9.65344124277e-05
shakira 0.0
accessories 0.0
nbcthevoice 0.0
clique 0.0
premiering 0.0
loooooove 0.0
weareheremvmt 0.0
looooove 0.0
vmagazine 0.0
popcrush 0.0
studded 0.0
yassssss 0.0
yessss 0.0
undeniable 0.0
unicef 0.0
auditions 0.0
ellemagazine 0.0
yasssss 0.0
pharrell 0.0
greece 0.0
papermagazine 0.0
nowwwww 0.0
maccosmetics 0.0
macaidsfund 0.0
lipstick 0.0
meeeee 0.0
newsstands 0.0
unapologetically 0.0
insidebates 0.0
legalize 0.0
loooove 0.0
caradelevingne 0.0
allllll 0.0
badgalriri 0.0
itsjeremyscott 0.0
nickiminaj 0.0
nipples 0.0
booooo 0.0
trippy 0.0
mikewillmadeit 0.0
puttin 0.0
trappin 0.0
alexanderwangny 0.0
karllagerfeld 0.0
celebratin 0.0
lilyallen 0.0
fuuuuuck 0.0
chanel 0.0
rubber 0.000126371580103
angelou 0.0
misses 5.26640045811e-05
harpersbazaarus 0.0
timberlake 0.0
photoshopped 0.0
whatchu 0.0
rehearsals 0.0
couture 8.52648543615e-05
mutual 0.0
creeper 0.0
cuddling 0.0
celine 0.0
theamas 0.0
thexfactor 0.0
websterhall 0.0
presale 0.0
deluxe 0.0
styles 0.0
wetten 0.0
shittttttttttt 0.0
boredom 0.0
darealamberrose 0.0
noooooooo 0.0
itunesmusic 0.0
cbstweet 0.0
thermal 9.21871772705e-05
mariners 0.0
torres 0.0
thebeatles 0.0
blondies 0.0
greeting 0.0
thecut 0.0
geeked 0.0
outlet 0.0
americanexpress 0.0
gqmagazine 0.0
nicole 0.0
bumped 6.28760535068e-05
hangover 0.0
stockholm 0.0
casually 0.0
esquire 0.0
winnipeg 0.0
begging 0.0
showroom 0.0
sleeves 0.0
smelling 0.0
guaranteed 0.0
obsession 0.0
attendant 0.0
aussie 0.0
tbsveryfunny 0.0
reservation 0.0
mollymcnearney 0.0
dragging 0.0
rocnation 0.0
tapered 0.0
badass 0.0
endlessly 0.0
vampires 0.0
viewers 0.0
kanyewest 0.0
designers 0.0
billboards 0.0
backstreetboys 0.0
monteith 0.0
e_fashionpolice 0.0
epically 0.0
internationally 0.0
mighty 0.0
jcolenc 0.0
semifinals 0.0
brasilia 0.0
tailgating 0.0
photoshoot 0.0
smokin 0.0
ahhhhhh 0.0
missin 0.0
sweats 0.0
impacted 0.0
rodriguez 0.0
musician 0.0
merchandise 0.0
jurgen 0.0
athleteally 0.0
originals 0.0
número 0.0
zealand 0.000220982532471
hehehe 0.0
fearless 0.0
stadiums 0.0
thiago 0.0
suarez 0.0
cropped 0.0
uruguay 0.000377064680863
apparel 0.0
staircase 0.0
wintour 0.0
spotting 0.0
polygraph 0.0
twerking 0.0
shipment 0.0
muggin 0.0
takeoff 0.0
thailand 0.0
tomorr 0.0
googleplay 0.0
budweiser 0.0
miafestival 0.0
dotted 0.0
burning 8.79109547742e-05
surpass 0.0
betcha 0.0
onairwithryan 0.0
dreamers 0.0
brunomars 0.0
beyoncé 0.0
hellooo 0.0
subscribers 0.0
preorder 0.0
believer 0.0
fragrance 0.0
hellooooo 0.0
majesty 0.0
beatsbydre 0.0
finland 0.0
fearnecotton 0.0
debuted 0.0
queued 0.0
rhetorical 0.0
iranian 0.0
infamous 0.0
brutally 0.0
execution 0.0
palestinian 0.0
transplant 0.0
audacity 0.0
foreplay 0.0
priced 0.0
huntington 0.0
manger 0.0
weaker 0.0
justintrudeau 0.0
creeping 0.0
fittest 0.0
hoodie 0.0
mankind 7.34517658631e-05
westwood 0.0
holographic 0.0
throwin 0.0
eminem 0.0
ecstatic 0.0
enjoys 0.0
wussup 0.0
duplicated 0.0
crotch 0.0
congrat 0.0
huggin 0.0
implement 0.0
penalizing 0.0
gonzalez 0.0
bitchin 0.0
sephora 0.0
damien 0.0
demanded 0.0
negativity 0.0
alancarr 0.0
skillz 0.0
hopeless 0.0
beatle 0.0
cheesecake 0.0
almighty 0.0
whatcha 0.0
slumber 0.0
chimney 0.000772275299422
headlining 0.0
perplexed 0.0
googleplaymusic 0.0
thrills 0.0
rollers 0.0
bravotv 0.0
gifted 0.0
kekepalmer 0.0
styledtorock 0.0
yooouuu 0.0
shantay 0.0
yaaaas 0.0
bestest 0.0
freestyle 0.0
everrrrr 0.0
sweatband 0.0
podolski 0.0
collaborating 0.0
bestfriend 0.0
sittin 0.0
whaaaat 0.0
clockwork 0.0
warmest 0.0
temptation 0.0
spiritual 0.0
chameleon 0.0
customised 0.0
acrylic 0.000112657072222
grasshopper 0.0
engages 0.0
gourmet 0.0
rhythmic 0.0
petals 0.0
klinsmann 0.0
directv 0.0
popcrave 0.0
versailles 0.0
raddest 0.0
grandfather 0.0
persie 0.0
webster 0.0
knight 0.0
footwear 0.0
collectors 0.0
blackout 0.0
skylight 0.0
hammock 0.000103314663891
playhouse 0.0
revelers 0.0
executed 0.0
cincinnati 0.0
simultaneously 0.0
malawi 0.0
graduated 0.0
sickening 7.69836049509e-05
mueller 0.0
elonjames 0.0
skeletons 0.0
mittromney 0.0
connecticut 0.0
cumulative 0.000100377923964
racked 0.0
valera 0.0
thighs 0.0
timely 5.89009666194e-05
rapping 0.0
shrugs 0.0
enables 0.0
psychic 0.0
fernando 0.0
tourism 7.39267034838e-05
slaughtered 0.0
devotion 0.0
fantasies 0.0
parsons 0.0
stella 0.0
complainers 0.0
newsstand 0.0
voguemagazine 0.0
westfield 0.0
manolo 0.0
turquoise 0.0
parisian 0.0
childs 0.0
swimsuit 0.0
bazaar 0.0
empress 0.000108491834013
brainstorm 0.0
tanning 0.0
desirable 0.0
feathers 0.0
antics 8.30953586991e-05
featurette 0.0
olivier 0.0
helloooo 0.0
hallow 0.0
connie 0.0
upbringing 0.0
privatize 0.0
bittersweet 0.0
outlaw 0.0
marcel 0.0
nowwww 0.0
hushed 0.00013231605111
threshold 0.0
floats 0.0
barbados 0.0
manuelcav 0.0
niggaz 0.0
prayin 0.0
drizzyxcole 0.0
homegirl 0.0
rappin 0.0
witcha 0.0
mufasa 0.0
dainternz 0.0
lololol 0.0
barclayscenter 0.0
bestbuy 0.0
blackouts 0.0
rivera 0.0
jakemiosge 0.0
givenchy 0.0
riccardo 0.0
grossed 0.0
guetta 0.0
spicewon 0.0
bitche 0.0
shawty 0.0
wednesdays 0.0
payday 0.0
jewelers 0.0
romero 0.0
acknowledging 0.0
calypso 0.0
blushes 0.0
medusa 0.0
keepers 0.0
futuristic 0.0
whereabouts 0.0
slayed 0.0
asvpxrocky 0.0
haaaaa 0.0
inezandvinoodh 0.0
calvinharris 0.0
_maxwell_ 0.0
bwerde 0.0
edward_enninful 0.0
haaaaaa 0.0
wisest 0.0
unconditionally 0.0
drmayaangelou 0.0
blackgirlsrock 0.0
submissive 0.0
rearrange 0.0
attuned 0.0
abrams 0.0
awaken 0.0
climbs 9.65344124277e-05
jacking 0.0
seventy 0.0
snatching 0.0
manoloblahnik 0.0
nicolerichie 0.0
openingceremony 0.0
whiteley 0.0
supermodel 0.0
the_real_iman 0.0
minogue 0.0
tmagazine 0.0
baaaaack 0.0
yeessss 0.0
wooooo 0.0
epicness 0.0
takawiraa 0.0
joplin 0.0
uncensored 0.0
unspeakable 0.0
rewrites 0.0
askdrruth 0.0
glozell 0.0
tardiness 0.0
runways 0.0
colombian 0.0
unapologetic 0.0
zac_posen 0.0
rumoured 0.0
omgggg 0.0
futbol 0.0
biatch 0.0
barrington 0.0
catwalk 0.0
sledgehammer 0.0
clemente 0.0
dollaz 0.0
mariah 0.0
granddad 0.0
iyanlavanzant 0.0
hustler 0.0
coletteparis 0.0
flexin 0.0
mistress 0.0
exceeds 9.32050112952e-05
sweeeeeet 0.0
stancesocks 0.0
serviced 0.0
issssss 0.0
lipglass 0.0
externally 0.0
complex_uk 0.0
prideful 0.0
dash_radio 0.0
holidaze 0.0
mawnin 0.0
champagnepapi 0.0
fashawn 0.0
raided 0.0
ahhhhhhhh 0.0
soulmate 0.0
motorbikes 0.0
britishvogue 0.0
gnlstudios 0.0
robinsoncano 0.0
debuting 0.0
cc_sabathia 0.0
colorways 0.0
hit_boy 0.0
_spyda 0.0
phresh 0.0
dominates 0.0
ratchet 0.0
rupaul 0.0
cockpit 0.0
kimmiekyees 0.0
horoscope 0.0
catwalks 0.0
paramedic 0.0
fhollande 0.0
sexiness 0.0
hereeee 0.0
changers 0.0
tiptoes 0.000127770141825
revved 0.0
meditative 0.0
fauntleroy 0.0
mbsings 0.0
disrespectfully 0.0
traumatized 0.0
outdid 0.0
elvispresley 0.0
toupee 0.0
josephine 0.0
discography 0.0
mariasharapova 0.0
chinchilla 0.0
skylar 0.0
illestbaba 0.0
georgiamjagger 0.0
pierced 0.0
hardrock 0.0
snorkeling 0.0
thrilla 0.0
gunpoint 0.0
sleeved 0.0
stevestoute 0.0
kiiiiiiiiiiiiinnnngggggg 0.0
lanvin 0.0
chateau 0.0
lizzs_lockeroom 0.0
prophets 0.0
müller 0.0
lullaby 0.0
samersum 0.0
disassembled 0.0
anniversaries 0.0
hayden_williams 0.0
rousteing 0.0
slayage 0.0
raunchy 0.0
benzema 0.0
fuckery 0.0
hellooooooo 0.0
juliagillard 0.0
congeniality 0.0
gunned 0.0
condense 0.0
missjillscott 0.0
yussss 0.0
chopard 0.0
woodbridge 0.0
orousteing 0.0
dubsmash 0.0
alicialquarles 0.0
worldmcqueen 0.0
whateva 0.0
elysées 0.0
jennnrosales 0.0
xstrology 0.0
looool 0.0
tippin 0.0
marleys 0.0
dwanimation 0.0
dreamworks 0.0
yaself 0.0
anothermagazine 0.0
claralionelfdn 0.0
mchingi 0.0
rihannareplay 0.0
awtguide 0.0
ryannavy_rih 0.0
rihquest 0.0
gpforeducation 0.0
valliniandre 0.0
globalfund 0.0
rhenna 0.0
millymaefenty 0.0
peetes 0.0
pandagunda 0.0
floriamamaroma 0.0
adoringrihanna 0.0
ymcofficial 0.0
rihanti_ 0.0
mcdean 0.0
rihannadaily 0.0
stancemuse 0.0
muhtean 0.0
rihdefine 0.0
officialdonnie 0.0
stunnafenty 0.0
perfumesbyriri 0.0
badgal 0.0
shaninamshaik 0.0
reblrihanna 0.0
elliscole_ 0.0
itskaitbh 0.0
harpersbazaarcn 0.0
yusefhairnyc 0.0
mylahmorales 0.0
teamofrihanna 0.0
muhphucka 0.0
harpersbazaar 0.0
rihrihfreak 0.0
thenbacentral 0.0
roversi 0.0
suchaf_cknlady 0.0
fourfiveseconds 0.0
petergrayhair 0.0
wkorea 0.0
dennisleupold 0.0
ursulastephen 0.0
ozzysalvatierra 0.0
ciarrap 0.0
rihannaargntina 0.0
rihearsal 0.0
sremmurd 0.0
id_magazine 0.0
heauxm 0.0
rihpost 0.0
jrgseul 0.0
bitchez 0.0
underst_navy 0.0
sonitaalex 0.0
chris_walden 0.0
danachanel 0.0
wednesdayz 0.0
jimmyfenty 0.0
houseoffraser 0.0
skeete 0.0
_kailssss 0.0
muhphuckas 0.0
phuckin 0.0
rastafarih 0.0
obviiii 0.0
etherihalvibe 0.0
rorreyfenty 0.0
noellaalstrom 0.0
rihturn 0.0
tellar 0.0
esquireuk 0.0
huffpoststyle 0.0
tyronmachhausen 0.0
melottenberg 0.0
paolakudacki 0.0
tompecheuxmu 0.0
lgoldstein_ltd 0.0
phucking 0.0
kudacki 0.0
hellurrr 0.0
tom_ford 0.0
neakah 0.0
creepah 0.0
pahtna 0.0
wontonsan 0.0
cappadonna 0.0
phuckmarqy 0.0
elfies 0.0
starstunning 0.0
ohnana 0.0
tushmagazine 0.0
macxriri 0.0
rickrubin 0.0
findataui 0.0
tristate 0.0
distoyb 0.0
kabukimagicnyc 0.0
yerdme_cmb 0.0
hittas 0.0
evan_erogers 0.0
jessieriri 0.0
unfourgettable 0.0
meeeaan 0.0
shweinsteiger 0.0
goooooooaaaaallllllll 0.0
goooal 0.0
braaaaaaaaaaaaaaaaaa 0.0
asapkoff 0.0
belgiuuuuummm 0.0
druchaos 0.0
cuadrado 0.0
murdaaahhh 0.0
colombiaaaa 0.0
karafenty 0.0
dlsturbla 0.0
braaaaaaaaaaaaaaaaaaaaaa 0.0
abouuuutttt 0.0
takecarerihanna 0.0
nathannavy 0.0
theworidcup 0.0
goooooaaaaaaallllll 0.0
bazaararabia 0.0
bigshitxtalker 0.0
__tatijxo 0.0
lhhatl 0.0
braaaaaaaaaaaa 0.0
rihannanavyrd 0.0
gooooooaaaalllll 0.0
triscastellano 0.0
iiiiiiiiiiiiiiiiiiii 0.0
eatmydaisy 0.0
leggooooal 0.0
yaaaaaassssssss 0.0
prettygirl_sp 0.0
ooohhhhhh 0.0
shiiiiitttt 0.0
roooonnnnnnnneeeeeeeyyyyyy 0.0
muslera 0.0
tadpole 0.0
giusichrisriri 0.0
_xomec 0.0
blockedt 0.0
ooooohhhh 0.0
goooooooaaaaaaalllllllllllllllll 0.0
stefansaxon 0.0
rihannademos 0.0
dragonflycici 0.0
chririh 0.0
rihluminati 0.0
goaaaalllll 0.0
twinzies 0.0
mantlers 0.0
suchaf__cknlady 0.0
glamour_robyn 0.0
adamselman 0.0
sephorafrance 0.0
thefashionlaw 0.0
scout_willis 0.0
quietude 0.0
theblackvoice 0.0
weeeed 0.0
kiiiiss 0.0
dooooon 0.0
miiiiss 0.0
malinsworld 0.0
prompics 0.0
itsalldonn 0.0
goooorrrrrrlllllll 0.0
thenewdaily_ 0.0
wiggin 0.0
stevesoboroff 0.0
pivot_tv 0.0
lapolicefdtn 0.0
scarificing 0.0
whooooose 0.0
sambapologetic 0.0
bellaisevil 0.0
sta_schemin 0.0
i_aim_tyga 0.0
fameisloud 0.0
garcon_rebelle 0.0
itsbreezybiotch 0.0
phaedra 0.0
vivala_stephyy 0.0
_bossmadeg 0.0
kontomitrosnick 0.0
sorrenti 0.0
whenevahhh 0.0
teamvivanco 0.0
heifers 0.0
stevenkolb 0.0
jeremy_brossard 0.0
jordanbrossard 0.0
quilted 0.0
piscesareus 0.0
plumsykes 0.0
cedellamarley 0.0
offish 0.0
urprise 0.0
i_love_riri 0.0
rihannadiva 0.0
javiroo 0.0
frihday 0.0
cuntlifex 0.0
_chris_rated_ 0.0
yewmadcunt 0.0
erinwasson 0.0
balmainparis 0.0
_yadim 0.0
muthaphucka 0.0
onnneeee 0.0
liiiiieeesss 0.0
gautier 0.0
mtvstarsvotes 0.0
zinloves 0.0
chloefrahm 0.0
uprising_create 0.0
uprising_darren 0.0
jonnycrave 0.0
jeff_uprising 0.0
kareemfenty 0.0
daily_rihnavy 0.0
unapologeticunt 0.0
rorrey 0.0
foreverrr 0.0
guyanese 0.0
annndd 0.0
historih 0.0
grandfadda 0.0
arleta 0.0
loreleicakes 0.0
river_island 0.0
finallyyyy 0.0
rodin_thinker 0.0
mrs_toyac 0.0
cheersrihrih 0.0
bangbang 0.0
faiz_fenty 0.0
leandra 0.0
noella 0.0
rasshoooolllleee 0.0
luminati 0.0
inezvinoodh 0.0
visvim 0.0
realne 0.0
sarahfrancus 0.0
tadium 0.0
trapstar 0.0
afrihca 0.0
rihrobyn 0.0
cbsgirlfriend 0.0
shyronnie_rn 0.0
mariamfenty_ 0.0
mizzpmf 0.0
whooooaaaaa 0.0
camkaipink 0.0
yasssssssssssssssssssss 0.0
lunaxskye 0.0
yaaaaasssssss 0.0
niggggaaaaaaa 0.0
breeziechillin 0.0
betologetic 0.0
isusjsjdha 0.0
awffffff 0.0
mcdessikins 0.0
skreets 0.0
pieceofria 0.0
loooool 0.0
craaaazzyyy 0.0
lolarae_xoxo 0.0
stayflysamir 0.0
shotta 0.0
tamarawray 0.0
lauraleehickock 0.0
heauxz 0.0
rihannanavyit 0.0
manilla 0.0
ronnyerickson 0.0
nikofenty 0.0
vincehaycock 0.0
zodiacfacts 0.0
naomiiknows 0.0
wrizzap 0.0
muuuch 0.0
hongkong 0.0
jetlaaaaaagggged 0.0
rasshole 0.0
februharry 0.0
kaşara 0.0
çıkmadı 0.0
dicked 0.0
vinoodh 0.0
rihannasblog 0.0
urihannafansite 0.0
teejay 0.0
stupse 0.0
clapbacks 0.0
niggaaaazzzz 0.0
bwaaahaaaaa 0.0
willheardmusic 0.0
kristennoelgipson 0.0
rsvpgallery 0.0
backout 0.0
bwahhaaa 0.0
errwhurr 0.0
niiiiggaz 0.0
fridayz 0.0
debbycoda 0.0
cabbing 0.0
dolly_cohen 0.0
cowboyz 0.0
friendz 0.0
phucker 0.0
charliebymz 0.0
lynn_ban 0.0
inwardly 0.0
ravening 0.0
whyyyyyyyyyyyy 0.0
thatdamnlala 0.0
adamsellman 0.0
scottland 0.0
kingspleasure 0.0
mikkyekko 0.0
rihannanavide 0.0
saskoktz 0.0
phlawless 0.0
givenchydonc 0.0
mlle_yulia 0.0
oxxoxo 0.0
foreva_rn_ladii 0.0
skinhead 0.0
killaz 0.0
yennifer 0.0
bestofpisces 0.0
smegma 0.0
morganemiller_ 0.0
aa_davis 0.0
beenie 0.0
nickeystaar 0.0
frihannamorocco 0.0
thinketh 0.0
guitarists 0.0
jordriri 0.0
badgalclaudia 0.0
hausofnath 0.0
_abirogerson 0.0
tommykane 0.0
livenationuk 0.0
millenniu 0.0
juuuussttt 0.0
helllooooo 0.0
miiiine 0.0
chaneliman 0.0
blushy 0.0
laetitiacrahay 0.0
rihmix 0.0
dariuscash 0.0
joshkillss 0.0
drunk_cockiness 0.0
firebombfenty 0.0
mooky_mcnasty 0.0
defpenradio 0.0
iamrici 0.0
letcha 0.0
niggerish 0.0
mawazine 0.0
thefashionaddicts 0.0
phierce 0.0
errwhere 0.0
jocking 0.0
niggaaa 0.0
tami_black 0.0
homienadz 0.0
religiosity 0.0
joycemeyer 0.0
brooooklyyyyn 0.0
miiiiine 0.0
dilekkeysan 0.0
marykatrantzou 0.0
allaboutpisces 0.0
jfisherjewelry 0.0
oddhangover 0.0
diggins 0.0
phyliciaghee 0.0
bawsin 0.0
howeverrrrr 0.0
channyyxoxo 0.0
dowwwwnnnnn 0.0
thugbitch 0.0
rihanas 0.0
miiiiiinnneee 0.0
rihwrite 0.0
janiseeaileen 0.0
ratchify 0.0
eeeeeemmmmmm 0.0
pannies 0.0
wooooiiiiiiiiiii 0.0
muhphuckers 0.0
bashment 0.0
whaaaaattttt 0.0
liiifee 0.0
covery 0.0
leeeeaaaavvveeee 0.0
haarrrrrddd 0.0
ismashedriri 0.0
christabslg 0.0
reallll 0.0
peoplez 0.0
wooiiiiii 0.0
slackness 0.0
kevfenty 0.0
woooiii 0.0
tatiana_xo 0.0
fentynavysalute 0.0
ratchettt 0.0
rachael_deanna 0.0
lifeeeeee 0.0
bxdcfjcf 0.0
killled 0.0
asdfghjkjhgtfrdedfghjnhbgvfc 0.0
troy_fenty 0.0
_marrymerihanna 0.0
jkbwdhbwh 0.0
_noellaa 0.0
hunneds 0.0
thekingfly 0.0
dooown 0.0
woooiiiii 0.0
phucked 0.0
kickstand_ohb 0.0
acedemy 0.0
mistercap 0.0
gallest 0.0
sinsofmyfather_ 0.0
dwayneofficial 0.0
_revofev 0.0
joefenty 0.0
thegodlight 0.0
molestmerihanna 0.0
rihannanavyeu 0.0
melina 0.0
terryrichardsonstudio 0.0
_sexxtroversy 0.0
neuroticbxtch 0.0
getcho 0.0
moneyyy 0.0
idillionaire 0.0
yaaaaaaas 0.0
noxx_onite 0.0
phonefancy 0.0
chiefin 0.0
londonfashionwk 0.0
_mayor_ 0.0
rihannanow 0.0
jamrock 0.0
rihannastats 0.0
jenesismagazine 0.0
napmed 0.0
hausofbeyhive_ 0.0
probabily 0.0
badgalelly 0.0
ladylivja 0.0
rihannacomics 0.0
__glitterdick 0.0
chelsey_ba 0.0
stashbox 0.0
thuglife 0.0
highladayz 0.0
brrrap 0.0
kalifah 0.0
marylin 0.0
muthafucker 0.0
stylenetwork 0.0
bvalgari 0.0
oooonly 0.0
fuckyopictures 0.0
amplifydot 0.0
trappat 0.0
soumsluvriri 0.0
ibebossedup 0.0
holerringg 0.0
rihskillerdoll 0.0
equaled 0.0
chefette 0.0
rezilientkas 0.0
blastinggggg 0.0
dammnnn 0.0
lifeandtimes 0.0
hausofjazzy 0.0
kaykispeaks 0.0
condesa 0.0
awaaayyy 0.0
flawle 0.0
mandler 0.0
loudies 0.0
dulcattis 0.0
killaaa 0.0
_loveforrihanna 0.0
yesimkayla 0.0
rollingnostone 0.0
richkunt 0.0
yasssssss 0.0
eriricccccc 0.0
cuntmeout 0.0
sashay 0.0
condragulations 0.0
neverrr 0.0
phasetoo 0.0
fooooorde 0.0
ruunavi 0.0
rihtweet 0.0
ishoobernator 0.0
thirstiest 0.0
j_dimps 0.0
deecosey 0.0
itsrihannasnavy 0.0
muthaphuckin 0.0
