awesome 2.33454692855e-05
christmas 0.000186257574348
trying 0.000399195916554
launch 5.15238581449e-05
moment 0.000168991127215
wonderful 7.08015093903e-05
seeing 8.63380764712e-05
hanging 0.000105944873193
sounds 6.72480897009e-05
contacts 0.0
anybody 0.0
worked 0.000272654979255
direct 5.95035042449e-05
others 0.00018078898049
currently 0.000174953244061
better 0.000457269946418
please 0.00021067023568
social 0.0
anxiety 0.0
around 0.000436484948854
people 0.000207849975645
morning 0.000417946983524
damage 0.0
everything 0.000271665539291
present 0.000190350826712
though 0.000239359130803
friend 6.30309341927e-05
watched 0.0
beautiful 4.30527584531e-05
demanding 0.0
anything 0.00016990475578
tagged 0.0
helped 0.000114532770416
thinking 0.0
finally 0.000213529290053
caught 2.35364506986e-05
believe 0.000312616461855
already 0.000354298656769
couple 0.000137067610408
launches 0.0
chance 0.000292562888467
annual 8.42840997391e-05
quickly 0.000116626559863
growing 0.000125310156892
probably 2.26598449842e-05
changed 0.000134133122419
history 0.000602738618344
center 0.00104082213727
museum 0.0
behind 0.000290989965903
screaming 3.86591862772e-05
pretty 0.000170823432042
really 0.000543331078582
possibly 0.000116291992046
little 0.00020841097457
happiest 0.0
earlier 0.00041567824255
forget 0.000169447314004
someone 8.42680942719e-05
things 0.000249419970774
available 0.000412324492409
perfect 2.1759920982e-05
different 2.12380944725e-05
person 0.000167630028369
watching 0.000189092802578
exhibit 0.0
passed 7.64374068828e-05
prefer 3.1552444423e-05
minutes 0.000539612977945
travel 0.00012774737048
daughter 2.52695372374e-05
positive 4.95770812451e-05
outside 8.84609149511e-05
looking 0.000291775364398
forward 0.000686988848351
raising 5.96763527066e-05
impression 7.6792163058e-05
wheels 0.0
favorite 0.000339529733444
instead 0.000141218704192
appreciate 4.91715171002e-05
couldn 6.52797629461e-05
remember 0.00016717879341
impressive 8.62252679407e-05
vintage 4.76231943668e-05
holidays 2.98381763533e-05
friends 8.40412455902e-05
impossible 2.84157101171e-05
everyone 0.000104486745881
always 0.000332559961032
limited 2.74671806277e-05
months 8.72748750051e-05
moving 0.000224767160677
meeting 0.000685138722201
answer 8.56423402751e-05
together 0.0002723987961
inside 0.000130559525892
upstairs 0.0
missed 0.00038125645651
active 0.000100883188402
eventually 0.0
longer 0.000120600775678
enough 0.00023236279992
building 2.34725950491e-05
enjoying 2.5549474096e-05
london 7.45697300457e-05
posting 0.000407747482041
recent 0.000469578985586
amazing 0.000125046584742
attention 7.09942606804e-05
tomorrow 0.00077320191952
whenever 3.43682402677e-05
feeling 0.00015314378326
excited 0.000196368468762
understand 4.55656669886e-05
following 0.000131620893876
asleep 0.0
learning 0.0
evening 4.78475199932e-05
special 0.000442407494928
secret 4.68178699524e-05
across 0.0
surprised 7.47745085308e-05
candles 0.0
sophia 0.0
version 0.000115467634182
rather 4.69451900983e-05
showing 8.91807462033e-05
saying 0.000218187187513
thoughts 8.87001668868e-05
exactly 0.000112993112806
getting 0.00077320191952
nothing 0.000188076142586
tweets 0.000115155077592
photos 0.0
looked 0.0001423752193
difficult 5.50891845076e-05
office 0.000429373828663
brought 6.94686801771e-05
biggest 0.000193737413039
thrilled 0.0
entire 0.000185752930621
something 0.00033435758682
closing 0.000310874362687
anyone 0.000273871306384
taking 0.000188076142586
interesting 0.000302668558315
original 2.4720726541e-05
flying 5.25325383632e-05
sometimes 2.30310155183e-05
yesterday 0.000231737259248
serious 4.47110408065e-05
digital 0.0
wearing 7.35558053855e-05
british 0.0
either 0.000273394001932
second 0.0010533511784
checking 0.0
indeed 0.000940392530505
island 0.0
hearing 0.000396872977853
staying 0.000197782097087
another 0.000854484995737
compare 0.0
bummer 0.0
clothes 0.0
landing 0.000114408797029
weekend 0.000741331998769
delivery 0.0
secretive 0.0
anyway 8.10260083245e-05
recognize 0.0
working 0.000397049634348
bigger 2.45186017952e-05
laughing 2.47885406226e-05
wanted 0.000190115018117
clothing 0.0
grateful 8.19396509365e-05
friendship 0.0
family 0.000271665539291
listening 0.000137439324499
stream 2.87417559802e-05
double 0.000425965564083
especially 2.31562267257e-05
shaking 0.0
waiting 4.28211701376e-05
definitely 2.28446017346e-05
account 4.90372035903e-05
completely 2.47885406226e-05
thought 0.00021067023568
possible 0.000176921829902
simple 0.0
professional 0.0
members 5.26786544895e-05
business 0.0001126878997
absolutely 8.94220816129e-05
sending 0.000145512742904
introducing 0.0
congrats 0.000372925865983
community 5.15238581449e-05
keeper 5.76381978294e-05
greatest 9.13784069384e-05
selfie 3.12721930191e-05
pasadena 0.0
posted 0.000148324359246
saturday 0.00050727850983
designs 0.0
broken 2.59047818517e-05
chicago 0.000738808463044
glimpse 4.74204122944e-05
actually 0.000278337605894
myself 2.7390056244e-05
pajamas 0.0
school 0.000106190472362
throwback 0.0
thursday 0.000424754887661
selling 2.85780937365e-05
talented 0.0
celebrate 6.9280580509e-05
celebrating 2.49248361769e-05
anniversary 0.000252695372374
contest 0.000245129946586
experiences 0.0
students 0.0
figure 0.000124966602901
featuring 0.000108641541703
inspired 2.52695372374e-05
breeze 0.0
sitting 0.000118002515651
playing 0.000658380928647
street 6.94686801771e-05
points 0.00136594074613
advice 0.0
memory 2.89067171442e-05
forever 7.08015093903e-05
imagine 0.0
problem 8.96641196012e-05
played 0.000536945793566
keeping 0.000116727346427
lovely 0.0
dressed 0.0
chinese 3.37319151368e-05
sunshine 0.0
afternoon 0.000196686068401
notice 5.6669983157e-05
difference 9.13784069384e-05
suppose 0.0
letting 0.000128454345912
system 2.6120918956e-05
mutant 0.0
bathroom 0.0
almost 0.000229870840938
details 0.00029697982255
experience 0.000152731031259
luckily 0.000100449419977
viewed 0.0
living 2.18187187513e-05
weather 2.67085198565e-05
bright 5.8819209038e-05
launching 0.0
colors 0.0
monday 0.000894567468803
walked 3.14586068029e-05
pinned 0.0
wanting 0.0
tweeting 2.3858705178e-05
forgot 2.61934670141e-05
gorgeous 0.0
herself 0.0
happens 0.000216428220945
learned 0.000193488277914
congratulations 0.00013818609311
raised 2.73132169788e-05
mission 0.0
smelled 0.0
unforgettable 0.000242273525747
forgotten 0.0
trouble 7.74996982082e-05
channel 2.54090343889e-05
fantastic 2.46531329934e-05
loving 2.46531329934e-05
hardly 0.0
dining 5.34672579129e-05
complete 0.000119945095346
daniel 0.0
rewarding 0.0
spirit 0.0
finding 5.10989481919e-05
stories 6.77958676837e-05
including 0.000301848512259
somewhere 5.44733214636e-05
conversation 0.000101636137556
disrespectful 0.000122461470547
making 0.000562709631339
expect 0.000300744376542
polite 0.0
brings 5.04002763654e-05
anytime 0.0
needed 0.000111475932754
seriously 4.61870536727e-05
modern 9.02988789325e-05
welcome 0.000147867236313
moments 2.5976578115e-05
jacket 3.68837785275e-05
halloween 0.000125460763705
costume 0.0
totally 0.0
flight 5.01240627569e-05
attached 0.000141062065451
finished 4.99866411603e-05
strong 0.000538159480664
message 6.65251251651e-05
coming 0.00083364389828
temporary 4.51298402951e-05
challenge 9.16262163328e-05
achievement 0.0
unlocked 0.0
happen 0.000191658891898
celebrated 0.0
giving 0.000126743345411
excellent 2.72366607318e-05
common 0.0
pressed 0.0
company 0.0
change 0.000271665539291
singing 2.7936035039e-05
silver 0.000136615840178
august 2.94946148525e-05
crying 3.29126958967e-05
happened 6.59883500338e-05
parking 0.0
demand 2.75445922538e-05
sacrifice 0.0
personal 6.81637448138e-05
beyond 0.000140072815713
question 0.000128117574032
chicken 0.0
position 8.54902300459e-05
losing 0.000231857361652
respect 0.000114223008673
caption 0.0
shouldn 7.49799617404e-05
career 0.000412286104896
reason 6.59883500338e-05
explore 8.29829029322e-05
glamorous 0.0
reality 0.0
burned 4.91009229259e-05
without 0.000400273447792
problems 0.0
countdown 0.000380075655899
online 0.000516964469557
animals 0.0
buying 2.83349915785e-05
pictures 2.64126430088e-05
underneath 0.0
camera 2.73132169788e-05
checked 0.0
heading 0.000124282883409
complex 0.0
sunday 0.00103605691765
nights 3.08133444168e-05
traffic 3.13651909262e-05
through 2.93249404607e-05
changing 7.68601542152e-05
diapers 0.0
convinced 7.4011370042e-05
capture 0.0
random 3.04534220455e-05
recorded 0.000158707001238
november 0.000168091296467
number 0.00017128468055
stupid 0.0
grandparents 0.0
recording 0.0
chocolate 0.0
unless 7.72857872173e-05
calling 8.77472625843e-05
mermaid 0.0
levels 0.0
package 0.0
option 0.00069634274248
knowing 8.67201514327e-05
actual 8.33357165495e-05
friday 0.000889598398523
achieve 3.50246631659e-05
winner 9.28764653103e-05
becomes 0.000266219768748
directly 3.44762145239e-05
quality 0.0
father 0.000142763120034
wishes 0.000136183303659
themselves 0.0
asking 4.42304574756e-05
usually 5.57143089964e-05
period 0.0
resist 0.000118821601927
collections 0.0
summer 0.000631052238322
bracelet 0.0
reminded 0.0
dinner 4.61870536727e-05
single 0.000215263792266
catching 3.09043073522e-05
energy 4.97131533638e-05
preview 0.00047602803396
monster 3.60498845543e-05
material 3.57024948929e-05
events 5.18095637034e-05
europe 0.00020234702001
holiday 0.000216490353144
emotional 0.000120398505243
affects 0.0
holding 9.8882906164e-05
survive 3.54740860277e-05
eating 0.0
outfit 0.0
missing 0.000178361492407
surprise 0.000268266244839
german 3.59334416863e-05
officially 0.000463313779351
french 0.00026858052858
global 0.0
follow 4.20206227951e-05
design 0.0
improvement 0.0
website 0.0
breaks 0.000110178369015
negative 3.04534220455e-05
official 0.000669120092652
jersey 0.000421633333692
france 0.000521814443339
lighter 0.0
thinks 7.3154807266e-05
hospital 0.0
jealous 7.0272222282e-05
successful 0.000171468562419
trending 0.0
leadership 0.0
showed 7.87988075448e-05
attended 8.39033094271e-05
circle 0.0
interested 0.000402870792871
effect 0.0
success 2.36005031301e-05
ladies 0.0
dreams 2.74671806277e-05
protect 2.67831518849e-05
arguing 0.0
essence 0.0
control 7.00364078564e-05
happier 0.0
likely 0.000698400875975
cancel 4.37320029205e-05
project 4.72010062602e-05
laying 0.0
lesson 2.90729980116e-05
fridays 0.0
invited 2.9409604519e-05
treating 3.97462312449e-05
allowing 3.6642089786e-05
remote 0.0
opening 0.000386261220612
alcohol 0.0
popular 2.85780937365e-05
pedestal 0.0
designing 0.0
followed 5.55571443663e-05
enjoyed 0.000173519784358
spectacular 0.0
recovered 5.26728300976e-05
length 0.000164760857379
matters 5.49343612555e-05
factor 6.89524290478e-05
england 0.000122171280089
shared 5.73195275461e-05
benefit 0.0
continues 0.000203833085021
fathers 0.0
kitchen 0.0
exciting 0.0
corner 5.96763527066e-05
spring 0.0
fallen 0.0
victoria 0.0
tornado 0.0
typical 3.89256642549e-05
continue 0.000361802327033
creative 0.0
excuse 0.0
female 0.0
closer 0.000288128137155
accent 0.0
beginning 0.0
sooner 4.14914514661e-05
everywhere 4.98496723539e-05
scenes 0.000106536619394
wishing 9.08273142366e-05
choices 0.0
unpredictable 0.0
become 0.00017454975001
photographs 0.0
spread 0.0
season 0.00573472286407
putting 0.00010968407823
annoying 0.0
quietly 8.95429387807e-05
extending 5.63587171733e-05
stance 8.09113713983e-05
sleepy 0.0
returns 0.000504273889402
bucket 3.93318986367e-05
condolences 0.0
register 0.0
flowers 0.0
define 0.0
somebody 3.11796093579e-05
chicks 0.0
covering 9.695639526e-05
repeat 0.000116626559863
football 0.000183863884271
brothers 0.0
player 0.00209927807754
physical 6.96070881702e-05
series 0.000613473703324
pretend 0.0
fighting 0.0
atlanta 0.000940341569487
mexico 9.05625367997e-05
president 0.000185752930621
talking 0.000419075070923
america 0.00017788021861
greats 5.16587266541e-05
everybody 5.15238581449e-05
judgment 0.0
amount 2.93249404607e-05
houston 0.00249115836972
everyday 0.0
shooter 0.000113977227578
attitude 0.0
million 0.00289565966528
honesty 0.0
telling 0.000118646016083
pulled 0.000125460763705
attack 0.0
killed 2.32821967935e-05
horrible 0.0
norman 0.0
salute 4.33967537564e-05
jacksonville 0.0
barackobama 4.03118443115e-05
lilduval 0.0
liquor 0.0
american 0.000155225292052
realist 0.0
remain 0.000323505649709
innocent 0.0
pieces 6.18086147044e-05
taught 3.08133444168e-05
golden 0.00174681830989
straight 0.000463124534514
forgive 4.22642169579e-05
answers 2.69332247214e-05
product 0.0
smoking 0.0
created 2.51309700737e-05
record 0.000480011812528
weapon 0.0
bottom 5.60304321558e-05
arrangements 0.0
africa 0.0
committed 0.000230388871277
journey 0.000162962312555
brother 0.000203833085021
prayers 6.5425677222e-05
documentary 3.12721930191e-05
addition 0.000291225433101
honestly 0.0
velvet 0.0
country 0.000107922595589
speedy 0.0
dressing 0.0
employee 0.0
yoooooo 0.0
prayer 0.0
nominated 0.0
praying 0.0
insane 3.09043073522e-05
illest 0.0
shooting 0.000339571946427
cancer 2.62662691816e-05
australia 0.000495930722015
marijuana 0.0
deserve 5.12401028102e-05
legend 0.000501428780967
mother 6.98465903805e-05
murder 0.0
realest 0.0
powerful 5.09582712552e-05
attendance 0.0
wisdom 3.52481599168e-05
breaking 0.000157337012474
bothered 0.0
angeles 0.000109209537413
dollars 0.0
soldiers 0.0
performance 7.25581042178e-05
reading 6.65251251651e-05
videos 0.0
jordan 0.000837273120167
nobody 5.12401028102e-05
politics 5.91599486107e-05
paradise 0.0
blessing 8.84904776261e-05
coolest 3.7005685021e-05
strippers 0.0
charities 0.0
donate 0.0
bullshit 0.0
sample 0.000178378298905
rocking 7.04963198335e-05
bringing 9.38903801966e-05
deserves 2.77785721832e-05
hilarious 0.0
victim 0.0
stadium 7.07216320118e-05
funniest 0.0
heaven 0.0
ruined 0.0
honest 2.5976578115e-05
rolling 3.13651909262e-05
became 0.000104483675824
driver 0.0
breakfast 0.0
decision 0.000520972464787
counting 0.0
pressure 2.84157101171e-05
awareness 0.0
dearly 0.0
lastnight 0.0
facebook 0.000178844163226
basketball 0.00180122012392
campaign 2.42521238174e-05
twisted 0.0
defined 0.0
discover 0.0
comments 5.09582712552e-05
giveaway 0.0
bipolar 0.0
teenage 0.0
williams 0.0013993673271
custom 0.0
singer 0.0
future 0.000473580342984
randomly 0.0
angels 0.0
blessed 0.0
sister 0.0
stripper 0.0
dancing 0.0
reigns 0.0
voting 0.000128809645362
niggas 0.0
commercial 5.73195275461e-05
hating 0.0
boring 7.23339668836e-05
century 0.0
acting 0.0
submit 0.0
besides 4.33967537564e-05
hiding 0.0
periscope 0.0
breath 0.0
choosing 0.000124474354398
lawrence 0.000143483922973
instagram 0.00017393814778
detroit 0.000853423960732
cousin 0.000123123651925
honored 0.000115958765186
dedication 0.0
rockin 0.0
fucked 0.0
lionelrichie 0.0
talent 0.0
goodnight 0.0
stores 0.0
drinking 0.0
brazil 0.000412506482257
tattoo 0.0
consecutive 0.000257063737404
regardless 0.0
staring 4.44191728621e-05
commitment 6.91695052336e-05
seconds 0.000195552245273
ohhhhhh 0.0
listen 0.00135982470442
whatever 0.0
wherever 8.00542277297e-05
kicking 0.0
compete 7.83912061647e-05
lauderdale 0.0
homies 0.0
billion 2.99249614379e-05
belated 0.0
pirate 0.0
shoutout 0.0
grammy 0.0
guilty 3.53608160059e-05
ceiling 0.0
grammys 0.0
absolute 9.1897812506e-05
nelson 0.0
mandela 0.0
bigsean 0.0
handle 8.17099821955e-05
tonite 0.0
cocaine 0.0
promise 4.95770812451e-05
longest 0.000111384932193
generation 5.73195275461e-05
tuesday 0.000498313267549
struggle 3.24166103538e-05
workout 0.000365404765265
character 2.7936035039e-05
mirror 3.40476426896e-05
interview 0.000722095212064
buffalo 0.000330537126497
justin 0.000245952777987
insights 0.0
winning 0.000289837425161
oxygen 0.0
espnnfl 0.0
charlotte 0.000894212577909
accomplished 4.58656692626e-05
defense 0.000201144380574
gettin 0.0
arabia 0.0
lmfaooooo 0.0
writing 9.6744138957e-05
soccer 0.000414914514661
society 0.0
brooklyn 0.000929812773075
incredible 0.00013522547964
witcho 0.0
celebrity 0.0
minute 0.0
foreign 0.0
cherry 0.0
champs 0.000247715868004
murdered 0.0
evidence 6.19913402519e-05
android 0.0
sneaking 0.00013313331333
clearly 7.94586548948e-05
download 2.94946148525e-05
mixtape 0.0
central 2.75445922538e-05
washington 0.000359089812507
veterans 0.0
stronger 3.32161319071e-05
promised 6.85216480412e-05
marcus 0.000103815303512
zombie 0.0
throwing 6.85216480412e-05
security 0.0
fastest 0.0
fantasy 0.000118821601927
turning 5.22418379119e-05
ignore 0.0
fucking 0.0
tickets 5.05390744747e-05
collector 0.0
prizes 0.0
december 0.00017393814778
loyalty 0.0
return 0.00117776986865
escape 3.73757541006e-05
yassss 0.0
goddess 0.0
handsome 0.0
language 2.92406198682e-05
motion 0.0
gallery 0.0
movies 0.0
children 2.29686916409e-05
backpack 0.0
potentially 0.000136483496185
guardian 0.0
review 4.97131533638e-05
theaters 4.44191728621e-05
shhhhh 0.0
begins 7.49799617404e-05
closet 0.0
bodies 4.13402871812e-05
hahaha 0.0
produced 0.0
latest 0.00318640578113
banned 0.0
beyonce 0.0
perform 0.0
lionel 6.65666566648e-05
signed 0.000483651325885
princess 0.0
ghetto 0.0
conditioning 0.0
charity 0.0
germany 0.0
ronaldo 7.04578481111e-05
married 3.09043073522e-05
millions 2.82545852981e-05
blessings 0.0
diamond 0.0
nephew 0.0
lights 6.00242208046e-05
howard 0.00068878381748
turned 6.87196622496e-05
buckle 0.0
relevant 0.0
performing 0.0
indian 0.0
includes 9.32623088061e-05
tricks 0.0
survivor 0.0
diamonds 0.0
collection 0.0
families 0.0
welcoming 0.0
select 3.72516641944e-05
announced 0.001372087857
granted 4.00271138648e-05
decided 0.000299919846962
selfish 0.0
trailer 0.0
reppin 0.0
celebration 5.86498809215e-05
decades 0.000100572190287
ultimate 3.02757714122e-05
incase 0.0
downtown 8.29829029322e-05
seasoning 0.0
episode 9.96993447078e-05
mentality 0.0
touching 0.0
retweet 0.0
goodmorning 0.0
midnight 0.000140872444346
expectations 3.81362656764e-05
joining 0.000295029102601
reasons 0.000145910542238
released 0.000170228965945
release 0.000343598311248
models 0.0
popped 0.0
within 0.000133170774243
standing 9.54348207121e-05
valentines 0.0
justice 2.8094699913e-05
houses 0.0
purchase 0.0
dropped 2.57619290724e-05
conversations 0.00124134394288
seattle 0.000190681328382
strength 5.78134342885e-05
monica 0.0
incredibly 2.94946148525e-05
streets 6.14455556706e-05
private 0.000107132607539
inspirational 0.0
barbie 0.0
tables 4.76231943668e-05
affection 0.0
broski 0.0
pissing 0.0
designer 0.0
cooking 3.57024948929e-05
tattoos 5.86523012728e-05
direction 0.0
readyyyyy 0.0
exclusive 0.0
adrianalima 0.0
fashion 3.01875122666e-05
talkin 0.0
bitches 5.86523012728e-05
nailed 0.0
kitten 0.0
whomever 0.0
ruthless 0.0
teaching 0.0
chillin 0.0
philly 0.00074214371361
baddest 0.0
cheers 0.0
autumn 0.0
presents 3.41539600445e-05
flawless 0.0
unique 0.0
handed 0.0
taraji 0.0
victory 8.95145290599e-05
tribute 0.000429896456596
ballin 0.0
horror 0.0
females 0.0
catfish 0.0
action 4.48320598006e-05
wouldnt 0.0
recipient 0.0
whitney 0.0
continued 0.0
esther 0.0
letter 7.72857872173e-05
existence 0.0
papers 0.0
winter 0.0
sessions 0.0
replicating 0.0
foundation 2.97517521225e-05
syndrome 0.0
colorado 0.0
tremendous 7.89381876765e-05
public 0.000121260619087
cannot 9.3128787174e-05
brilliant 2.56200514051e-05
illustration 0.0
beware 0.0
globally 0.0
premieres 4.13402871812e-05
streaming 0.0
immigration 0.0
wrapped 0.000117586809247
studio 0.000116291992046
february 0.000153613889177
amazon 0.0
border 0.0
huffingtonpost 0.0
francis 0.0
january 0.000173440302865
relationships 0.0
tragic 0.0
secure 7.62725313528e-05
countries 0.0
episodes 0.0
broadcast 0.000103428643572
tickled 0.0
livestream 0.0
potential 0.000345888874918
education 2.8094699913e-05
famous 0.0
unknown 0.0
exists 3.87919982151e-05
orders 3.75005892961e-05
microsoft 0.0
ability 3.03644069306e-05
director 0.000104194492957
accessible 0.0
correction 0.0
william 0.0
editors 0.0
yellow 0.0
passionate 0.0
treatment 0.000130851354444
ambassador 0.0
thanking 0.0
streamed 0.0
lovers 0.0
wrinkled 0.0
bridge 0.0
magazine 0.0
sincere 0.0
quotes 3.43682402677e-05
result 0.0
destruction 0.0
edition 0.000391104490546
prince 3.02757714122e-05
indiana 0.000543362543149
editorial 0.0
emotion 0.0
mistakes 3.72516641944e-05
inspiring 0.0
counter 0.0
disappointing 8.39033094271e-05
edited 0.0
spotlight 4.27420540383e-05
saddest 5.63587171733e-05
production 0.0
header 0.0
itunes 0.000275809716191
guests 9.8138515833e-05
snakes 0.0
charging 0.0
arriving 4.58656692626e-05
mysteries 0.0
dangerous 2.80152160779e-05
typically 0.000155722955268
saving 6.05515428244e-05
universe 6.70481268581e-05
victims 3.02757714122e-05
receive 0.000147048022595
proceeds 0.0
crossed 0.0
received 0.000160698911309
limitations 0.0
studying 0.0
conflict 0.0
petition 0.0
milestones 0.0
outstanding 0.0
devastating 0.0
installment 6.98553422278e-05
signature 4.51298402951e-05
mistletoe 0.0
awards 0.000217893285855
shelves 5.57473496409e-05
smells 0.0
themed 4.95431736008e-05
sisters 3.97462312449e-05
banquet 0.0
danger 0.0
leading 0.000344320837878
member 9.80744071807e-05
dominant 0.0
distinguish 0.0
factories 0.0
distinct 0.0
distance 0.0
confirmed 0.000151822034653
behavior 0.0
collect 0.0
vanity 0.0
junior 0.0
communities 0.0
worldwide 0.000208163162797
canada 0.000166671433099
recognized 5.09293536573e-05
vessels 0.0
movement 8.35714634945e-05
segment 4.16437231916e-05
internal 0.0
information 2.82545852981e-05
easily 0.0
towards 0.0
october 8.74699198973e-05
belgium 0.0
european 0.0
caribbean 0.0
cities 0.0
arrives 0.0
extraordinary 0.0
exquisite 6.60657891139e-05
argentina 0.000514127474808
eliminate 0.0
genius 2.77002858474e-05
prepared 6.31048888461e-05
anthony 0.00197639341067
breakthrough 0.0
berlin 4.29038058084e-05
batman 0.0
upcoming 8.84838445575e-05
upgrade 0.0
singapore 0.0
crucial 7.94924624897e-05
scratch 4.47714693903e-05
collaboration 0.0
tested 0.0
acquire 0.000604608325316
honoring 4.33967537564e-05
holland 0.0
visually 0.0
neyocompound 0.0
inspire 0.0
ebonymag 0.0
spiketv 0.0
constant 0.000121367057097
sunset 0.0
tuning 0.0
gentleman 0.0
fulfilling 0.0
ayeeeee 0.0
stratford 0.0
poland 0.0
philippines 5.26728300976e-05
kickin 0.0
theweeknd 0.0
september 5.84812397363e-05
manchester 0.000113638972527
rickyrozay 0.0
remarkable 3.59334416863e-05
rihanna 0.0
disgusted 6.08422193341e-05
immoral 0.0
process 0.000212480439656
goosebumps 0.0
performances 4.0893280758e-05
strangers 9.60695838539e-05
emotions 0.0
judgement 0.0
comparing 4.60537700719e-05
thuggin 0.0
studios 0.0
jennifer 0.0
performer 0.0
literally 2.57619290724e-05
cardiff 0.0
soooooooo 0.0
crashed 4.68236728135e-05
cthagod 0.0
closed 2.9665685757e-05
justinbieber 0.0
complexmag 0.0
billboard 0.0
airing 4.17971187038e-05
albums 0.0
sweden 4.13402871812e-05
katyperry 0.0
treats 0.0
missouri 0.0
thefader 0.0
soundtrack 0.0
theellenshow 0.0
sweets 0.0
festival 0.0
wizkhalifa 0.0
amsterdam 0.0
backstage 0.0
collab 0.0
subscribed 0.0
joined 0.00010248020562
davidguetta 0.0
pushing 3.33182696928e-05
hopeful 0.000606170592082
romantic 4.97678784657e-05
mentions 0.0
lurking 0.0
ballad 0.0
teamed 0.0
exclusively 8.54841080765e-05
kingjames 0.0
hollyrpeete 0.0
sneakers 6.55767077825e-05
auction 0.0
sneaker 0.0
djkhaled 0.0
express 0.0
thegrammys 0.0
throughout 0.0
shining 0.0
excellence 0.0
thrown 7.92144012849e-05
zendaya 0.0
playin 0.0
applemusic 0.0
crunch 0.000113977227578
capitalofficial 0.0
filmed 0.0
toronto 0.00141087580778
naomicampbell 0.0
trvisxx 0.0
killin 0.0
trucks 0.0
stands 2.89067171442e-05
platinum 0.0
native 0.000169056867832
spotify 0.0
rocked 0.0
jumped 0.0
leebruhgreene 0.0
leaning 0.00010431918841
featured 6.5425677222e-05
announce 0.000459534660046
senior 0.0
iamdiddy 0.0
haters 0.0
nothin 0.0
appreciation 4.51298402951e-05
defjamrecords 0.0
floating 0.0
superstars 0.0
shondarhimes 0.0
premiere 0.0
orchestral 0.0
makeup 0.0
touched 0.0
newest 0.0
designed 0.0
passes 3.41539600445e-05
angelasimmons 0.0
tidalhifi 0.0
vashtie 0.0
delivered 3.38366256734e-05
owning 5.5448279768e-05
producer 0.0
balmain 0.0
legendary 0.000266546157542
independence 0.0
mtvmusicuk 0.0
audition 0.000441227617314
debuts 0.0
footage 0.0
marshall 4.95431736008e-05
spends 0.0
playtime 0.0
completed 0.000384678486344
dishes 5.26728300976e-05
photographed 0.0
bubble 0.0
belong 0.0
tongue 4.45945747263e-05
observing 6.32903394434e-05
consistent 0.0
posing 0.0
heavens 0.0
contemporary 0.0
aiming 0.0
ceremony 7.42566214621e-05
brighter 0.0
rainbow 0.0
matthew 0.000119238693735
phenomenal 4.14914514661e-05
affected 0.0
rivers 0.000204678581291
presenting 0.0
competitive 8.35942374076e-05
eskimo 0.0
sibling 0.0
dakota 0.0
printed 0.0
heroes 3.17414002477e-05
deepest 0.0
describe 3.01875122666e-05
hollywood 0.000122530416675
baggage 0.0
terrifying 0.0
animation 0.0
nationwide 0.0
capital 3.75005892961e-05
quantity 0.0
nominations 0.0
mountains 0.0
mosaic 0.0
realise 0.0
overload 0.0
photographer 0.0
depression 0.0
donation 0.0
marvelous 0.0
madonna 0.0
sailed 0.0
terror 0.0
rinsed 0.0
disorder 0.0
polish 0.0
represents 8.54841080765e-05
touchdown 0.00010586856011
creates 0.0
oxford 0.0
stitched 0.0
morocco 0.0
thrill 0.0
balloons 0.0
teaming 0.0
latimes 0.0
kerrywashington 0.0
caution 5.8308739772e-05
camouflage 0.0
approaching 0.0
generous 0.0
installation 0.0
benefiting 0.0
basics 0.0
confirm 0.000270693005387
thrilling 0.0
photography 0.0
matches 0.0
boundaries 0.0
singles 0.0
laptop 0.0
obvious 0.0
darling 0.0
celebrations 5.5448279768e-05
chewbacca 0.0
underwater 0.0
naughty 0.0
advised 0.0
feelin 0.0
macaroni 0.0
perfection 0.0
picasso 0.0
recipe 0.0
radical 0.0
volcano 0.0
planted 0.0
products 0.0
directed 0.0
grabbed 0.0
frames 0.0
casual 0.0
scheming 0.0
twickenham 0.0
bbcnews 0.0
pledge 0.0
subtle 4.93208720425e-05
embarrassed 4.47714693903e-05
snatch 0.0
unveiling 0.0
kissed 0.0
arguments 0.0
settling 6.24418543867e-05
desperate 0.0
executive 0.000138775441864
humbled 0.0
courage 0.0
dropping 9.43758204086e-05
carried 0.0
behalf 0.0
hardest 7.6792163058e-05
marking 0.0
vision 0.0
intervention 0.0
records 3.1552444423e-05
deeply 3.36277294672e-05
mannered 0.0
texted 0.0
israeli 6.08422193341e-05
strongest 9.32570141664e-05
rogers 0.0
concept 0.0
allegiance 0.0
belongs 4.56792554789e-05
intended 0.0
bosses 0.0
purpose 0.0
hottest 8.1492779409e-05
campaigns 0.0
sunderland 0.0
teenager 0.0
runway 5.24146280496e-05
steven 0.000209758273568
guitar 0.0
donating 0.0
applause 0.0
finale 0.00018321044893
wasted 0.0
absent 0.0
awhile 0.0
fierce 0.0
sincerely 0.0
apology 0.0
climbing 0.0
unwilling 0.0
protesting 0.0
bikini 0.0
friendships 0.0
matching 0.0
wolves 0.00182905075277
mosque 0.0
venezuela 0.000425895535339
donates 0.0
generations 4.13402871812e-05
underestimate 0.0
pardon 5.48627481589e-05
stickers 0.0
mothers 0.0
deeper 0.0
nipple 0.0
perfume 0.0
noodle 0.0
melissa 0.0
forest 4.54944987285e-05
panties 0.0
jimmykimmel 0.0
everytime 0.0
underdog 0.0
shoulders 5.40142631022e-05
wrapping 0.0
bedroom 0.0
glitter 0.0
stocking 0.0
annoyed 0.0
behave 0.0
goodbye 3.2712838611e-05
fuckin 0.0
seller 0.0
joshgroban 0.0
samsungmobileus 0.0
influential 4.88832769836e-05
slicing 0.0
ryanseacrest 0.0
farmer 0.0
teaser 0.0
styled 0.0
casting 0.0
imitated 0.0
forgiveness 0.0
perezhilton 0.0
blacked 0.0
paparazzi 0.0
peoplemag 0.0
rolled 0.0
vanityfair 0.0
rockstar 0.0
thousand 3.85272175953e-05
minded 0.000153508935968
shines 0.0
sunglasses 0.0
auntie 0.0
magazines 0.0
waited 0.0
denmark 0.0
leather 0.0
wished 5.37389610965e-05
ladygaga 0.0
swallow 0.0
glblctzn 0.0
shakira 0.0
accessories 0.0
nbcthevoice 0.0
clique 0.0
premiering 0.0
loooooove 0.0
weareheremvmt 0.0
looooove 0.0
vmagazine 0.0
popcrush 0.0
studded 0.0
yassssss 0.0
yessss 0.0
undeniable 0.0
unicef 0.0
auditions 0.0
ellemagazine 0.0
yasssss 0.0
pharrell 0.0
greece 0.0
papermagazine 0.0
nowwwww 0.0
maccosmetics 0.0
macaidsfund 0.0
lipstick 0.0
meeeee 0.0
newsstands 0.0
unapologetically 0.0
insidebates 0.0
legalize 0.0
loooove 0.0
caradelevingne 0.0
allllll 0.0
badgalriri 0.0
itsjeremyscott 0.0
nickiminaj 0.0
nipples 0.0
booooo 0.0
trippy 0.0
mikewillmadeit 0.0
puttin 0.0
trappin 0.0
alexanderwangny 0.0
karllagerfeld 0.0
celebratin 0.0
lilyallen 0.0
fuuuuuck 0.0
chanel 0.0
rubber 0.0
angelou 0.0
misses 0.000175606709249
harpersbazaarus 0.0
timberlake 0.0
photoshopped 0.0
whatchu 0.0
rehearsals 0.0
couture 0.0
mutual 4.8034791927e-05
creeper 0.0
cuddling 0.0
celine 0.0
theamas 0.0
thexfactor 0.0
websterhall 0.0
presale 0.0
deluxe 0.0
styles 0.0
wetten 0.0
shittttttttttt 0.0
boredom 0.0
darealamberrose 0.0
noooooooo 0.0
itunesmusic 0.0
cbstweet 0.0
thermal 0.0
mariners 0.0
torres 0.0
thebeatles 0.0
blondies 0.0
greeting 0.0
thecut 0.0
geeked 0.0
outlet 0.0
americanexpress 0.0
gqmagazine 0.0
nicole 0.0
bumped 0.0
hangover 0.0
stockholm 0.0
casually 0.0
esquire 0.0
winnipeg 0.0
begging 0.0
showroom 0.0
sleeves 0.0
smelling 0.0
guaranteed 0.00116869694453
obsession 0.0
attendant 0.0
aussie 5.4576053992e-05
tbsveryfunny 0.0
reservation 0.0
mollymcnearney 0.0
dragging 0.0
rocnation 0.0
tapered 0.0
badass 4.58656692626e-05
endlessly 0.0
vampires 0.0
viewers 4.62435887205e-05
kanyewest 0.0
designers 0.0
billboards 0.0
backstreetboys 0.0
monteith 0.0
e_fashionpolice 0.0
epically 0.0
internationally 0.0
mighty 0.0
jcolenc 0.0
semifinals 0.000150498563588
brasilia 0.0
tailgating 0.0
photoshoot 0.0
smokin 0.0
ahhhhhh 0.0
missin 0.0
sweats 0.0
impacted 0.0
rodriguez 0.000120921665063
musician 0.0
merchandise 0.0
jurgen 0.000271322330637
athleteally 0.0
originals 0.0
número 0.0
zealand 0.0
hehehe 0.0
fearless 0.0
stadiums 0.0
thiago 0.0
suarez 0.0
cropped 0.0
uruguay 0.0
apparel 0.0
staircase 0.0
wintour 0.0
spotting 0.0
polygraph 0.0
twerking 0.0
shipment 0.0
muggin 0.0
takeoff 0.0
thailand 0.0
tomorr 0.0
googleplay 0.0
budweiser 0.0
miafestival 0.0
dotted 0.0
burning 0.0
surpass 0.0
betcha 0.0
onairwithryan 0.0
dreamers 0.0
brunomars 0.0
beyoncé 0.0
hellooo 0.0
subscribers 0.0
preorder 0.0
believer 0.0
fragrance 0.0
hellooooo 0.0
majesty 0.0
beatsbydre 0.0
finland 0.0
fearnecotton 0.0
debuted 0.000135212246269
queued 0.0
rhetorical 0.0
iranian 0.0
infamous 0.0
brutally 0.0
execution 0.000118003274372
palestinian 0.0
transplant 0.0
audacity 0.0
foreplay 0.0
priced 0.0
huntington 0.0
manger 0.0
weaker 0.0
justintrudeau 0.0
creeping 0.0
fittest 0.0
hoodie 5.90016371861e-05
mankind 0.0
westwood 0.0
holographic 0.0
throwin 0.0
eminem 0.0
ecstatic 0.0
enjoys 0.0
wussup 0.0
duplicated 0.0
crotch 0.0
congrat 0.0
huggin 0.0
implement 0.0
penalizing 0.0
gonzalez 0.0
bitchin 0.0
sephora 0.0
damien 0.0
demanded 0.0
negativity 0.0
alancarr 0.0
skillz 0.0
hopeless 0.0
beatle 0.0
cheesecake 0.0
almighty 0.0
whatcha 0.0
slumber 0.0
chimney 0.0
headlining 0.0
perplexed 0.0
googleplaymusic 0.0
thrills 0.0
rollers 0.0
bravotv 0.0
gifted 0.0
kekepalmer 0.0
styledtorock 0.0
yooouuu 0.0
shantay 0.0
yaaaas 0.0
bestest 0.0
freestyle 0.0
everrrrr 0.0
sweatband 0.0
podolski 0.0
collaborating 0.0
bestfriend 0.0
sittin 0.0
whaaaat 0.0
clockwork 0.0
warmest 0.000452422407136
temptation 0.0
spiritual 0.0
chameleon 0.0
customised 0.0
acrylic 0.0
grasshopper 0.0
engages 0.0
gourmet 0.0
rhythmic 0.0
petals 0.0
klinsmann 0.000287682052431
directv 0.0
popcrave 0.0
versailles 0.0
raddest 0.0
grandfather 4.78279743244e-05
persie 0.0
webster 6.81460235562e-05
knight 0.000100913894028
footwear 0.0
collectors 0.0
blackout 0.0
skylight 0.0
hammock 0.0
playhouse 0.0
revelers 0.0
executed 0.0
cincinnati 0.0
simultaneously 0.0
malawi 0.0
graduated 0.0
sickening 0.0
mueller 0.0
elonjames 0.0
skeletons 0.0
mittromney 0.0
connecticut 0.0
cumulative 0.0
racked 0.0
valera 0.0
thighs 0.0
timely 4.91009229259e-05
rapping 0.0
shrugs 0.0
enables 0.0
psychic 0.0
fernando 0.0
tourism 0.0
slaughtered 0.0
devotion 7.60337144191e-05
fantasies 0.0
parsons 0.00174877543164
stella 0.0
complainers 0.0
newsstand 0.0
voguemagazine 0.0
westfield 0.0
manolo 0.0
turquoise 0.0
parisian 0.0
childs 0.0
swimsuit 0.0
bazaar 0.0
empress 0.0
brainstorm 0.0
tanning 0.0
desirable 0.0
feathers 0.0
antics 0.0
featurette 0.0
olivier 0.0
helloooo 0.0
hallow 0.0
connie 0.0
upbringing 0.0
privatize 0.0
bittersweet 6.87003230069e-05
outlaw 0.0
marcel 0.0
nowwww 0.0
hushed 0.0
threshold 5.86523012728e-05
floats 0.0
barbados 0.0
manuelcav 0.0
niggaz 0.0
prayin 0.0
drizzyxcole 0.0
homegirl 0.0
rappin 0.0
witcha 0.0
mufasa 0.0
dainternz 0.0
lololol 0.0
barclayscenter 0.0
bestbuy 0.0
blackouts 0.0
rivera 0.0
jakemiosge 0.0
givenchy 0.0
riccardo 0.0
grossed 9.39129956217e-05
guetta 0.0
spicewon 0.0
bitche 0.0
shawty 0.0
wednesdays 0.0
payday 0.0
jewelers 0.0
romero 0.0
acknowledging 0.0
calypso 0.0
blushes 0.0
medusa 0.0
keepers 8.2553086016e-05
futuristic 0.0
whereabouts 0.0
slayed 0.0
asvpxrocky 0.0
haaaaa 0.0
inezandvinoodh 0.0
calvinharris 0.0
_maxwell_ 0.0
bwerde 0.0
edward_enninful 0.0
haaaaaa 0.0
wisest 0.0
unconditionally 0.0
drmayaangelou 0.0
blackgirlsrock 0.0
submissive 0.0
rearrange 0.0
attuned 0.0
abrams 0.0
awaken 0.0
climbs 0.0
jacking 0.0
seventy 8.89004428582e-05
snatching 0.0
manoloblahnik 0.0
nicolerichie 0.0
openingceremony 0.0
whiteley 0.0
supermodel 0.0
the_real_iman 0.0
minogue 0.0
tmagazine 0.0
baaaaack 0.0
yeessss 0.0
wooooo 0.0
epicness 0.0
takawiraa 0.0
joplin 0.0
uncensored 0.0
unspeakable 0.0
rewrites 0.0
askdrruth 0.0
glozell 0.0
tardiness 0.0
runways 0.0
colombian 0.0
unapologetic 0.0
zac_posen 0.0
rumoured 0.0
omgggg 0.0
futbol 0.0
biatch 0.0
barrington 0.0
catwalk 0.0
sledgehammer 0.0
clemente 0.0
dollaz 0.0
mariah 0.0
granddad 0.0
iyanlavanzant 0.0
hustler 0.0
coletteparis 0.0
flexin 0.0
mistress 0.0
exceeds 0.0
sweeeeeet 0.0
stancesocks 0.0
serviced 0.0
issssss 0.0
lipglass 0.0
externally 0.0
complex_uk 0.0
prideful 0.0
dash_radio 0.0
holidaze 0.0
mawnin 0.0
champagnepapi 0.0
fashawn 0.0
raided 0.0
ahhhhhhhh 0.0
soulmate 0.0
motorbikes 0.0
britishvogue 0.0
gnlstudios 0.0
robinsoncano 0.0
debuting 0.0
cc_sabathia 0.0
colorways 0.0
hit_boy 0.0
_spyda 0.0
phresh 0.0
dominates 0.0
ratchet 0.0
rupaul 0.0
cockpit 0.0
kimmiekyees 0.0
horoscope 0.0
catwalks 0.0
paramedic 0.0
fhollande 0.0
sexiness 0.0
hereeee 0.0
changers 0.0
tiptoes 0.0
revved 0.0
meditative 0.0
fauntleroy 0.0
mbsings 0.0
disrespectfully 0.0
traumatized 0.0
outdid 0.0
elvispresley 0.0
toupee 0.0
josephine 0.0
discography 0.0
mariasharapova 0.0
chinchilla 0.0
skylar 0.0
illestbaba 0.0
georgiamjagger 0.0
pierced 0.0
hardrock 0.0
snorkeling 0.0
thrilla 0.0
gunpoint 0.0
sleeved 0.0
stevestoute 0.0
kiiiiiiiiiiiiinnnngggggg 0.0
lanvin 0.0
chateau 0.0
lizzs_lockeroom 0.0
prophets 0.0
müller 0.0
lullaby 0.0
samersum 0.0
disassembled 0.000129346180567
anniversaries 0.0
hayden_williams 0.0
rousteing 0.0
slayage 0.0
raunchy 0.0
benzema 0.0
fuckery 0.0
hellooooooo 0.0
juliagillard 0.0
congeniality 0.0
gunned 0.0
condense 0.0
missjillscott 0.0
yussss 0.0
chopard 0.0
woodbridge 0.0
orousteing 0.0
dubsmash 0.0
alicialquarles 0.0
worldmcqueen 0.0
whateva 0.0
elysées 0.0
jennnrosales 0.0
xstrology 0.0
looool 0.0
tippin 0.0
marleys 0.0
dwanimation 0.0
dreamworks 0.0
yaself 0.0
anothermagazine 0.0
claralionelfdn 0.0
mchingi 0.0
rihannareplay 0.0
awtguide 0.0
ryannavy_rih 0.0
rihquest 0.0
gpforeducation 0.0
valliniandre 0.0
globalfund 0.0
rhenna 0.0
millymaefenty 0.0
peetes 0.0
pandagunda 0.0
floriamamaroma 0.0
adoringrihanna 0.0
ymcofficial 0.0
rihanti_ 0.0
mcdean 0.0
rihannadaily 0.0
stancemuse 0.0
muhtean 0.0
rihdefine 0.0
officialdonnie 0.0
stunnafenty 0.0
perfumesbyriri 0.0
badgal 0.0
shaninamshaik 0.0
reblrihanna 0.0
elliscole_ 0.0
itskaitbh 0.0
harpersbazaarcn 0.0
yusefhairnyc 0.0
mylahmorales 0.0
teamofrihanna 0.0
muhphucka 0.0
harpersbazaar 0.0
rihrihfreak 0.0
thenbacentral 0.0
roversi 0.0
suchaf_cknlady 0.0
fourfiveseconds 0.0
petergrayhair 0.0
wkorea 0.0
dennisleupold 0.0
ursulastephen 0.0
ozzysalvatierra 0.0
ciarrap 0.0
rihannaargntina 0.0
rihearsal 0.0
sremmurd 0.0
id_magazine 0.0
heauxm 0.0
rihpost 0.0
jrgseul 0.0
bitchez 0.0
underst_navy 0.0
sonitaalex 0.0
chris_walden 0.0
danachanel 0.0
wednesdayz 0.0
jimmyfenty 0.0
houseoffraser 0.0
skeete 0.0
_kailssss 0.0
muhphuckas 0.0
phuckin 0.0
rastafarih 0.0
obviiii 0.0
etherihalvibe 0.0
rorreyfenty 0.0
noellaalstrom 0.0
rihturn 0.0
tellar 0.0
esquireuk 0.0
huffpoststyle 0.0
tyronmachhausen 0.0
melottenberg 0.0
paolakudacki 0.0
tompecheuxmu 0.0
lgoldstein_ltd 0.0
phucking 0.0
kudacki 0.0
hellurrr 0.0
tom_ford 0.0
neakah 0.0
creepah 0.0
pahtna 0.0
wontonsan 0.0
cappadonna 0.0
phuckmarqy 0.0
elfies 0.0
starstunning 0.0
ohnana 0.0
tushmagazine 0.0
macxriri 0.0
rickrubin 0.0
findataui 0.0
tristate 0.0
distoyb 0.0
kabukimagicnyc 0.0
yerdme_cmb 0.0
hittas 0.0
evan_erogers 0.0
jessieriri 0.0
unfourgettable 0.0
meeeaan 0.0
shweinsteiger 0.0
goooooooaaaaallllllll 0.0
goooal 0.0
braaaaaaaaaaaaaaaaaa 0.0
asapkoff 0.0
belgiuuuuummm 0.0
druchaos 0.0
cuadrado 0.0
murdaaahhh 0.0
colombiaaaa 0.0
karafenty 0.0
dlsturbla 0.0
braaaaaaaaaaaaaaaaaaaaaa 0.0
abouuuutttt 0.0
takecarerihanna 0.0
nathannavy 0.0
theworidcup 0.0
goooooaaaaaaallllll 0.0
bazaararabia 0.0
bigshitxtalker 0.0
__tatijxo 0.0
lhhatl 0.0
braaaaaaaaaaaa 0.0
rihannanavyrd 0.0
gooooooaaaalllll 0.0
triscastellano 0.0
iiiiiiiiiiiiiiiiiiii 0.0
eatmydaisy 0.0
leggooooal 0.0
yaaaaaassssssss 0.0
prettygirl_sp 0.0
ooohhhhhh 0.0
shiiiiitttt 0.0
roooonnnnnnnneeeeeeeyyyyyy 0.0
muslera 0.0
tadpole 0.0
giusichrisriri 0.0
_xomec 0.0
blockedt 0.0
ooooohhhh 0.0
goooooooaaaaaaalllllllllllllllll 0.0
stefansaxon 0.0
rihannademos 0.0
dragonflycici 0.0
chririh 0.0
rihluminati 0.0
goaaaalllll 0.0
twinzies 0.0
mantlers 0.0
suchaf__cknlady 0.0
glamour_robyn 0.0
adamselman 0.0
sephorafrance 0.0
thefashionlaw 0.0
scout_willis 0.0
quietude 0.0
theblackvoice 0.0
weeeed 0.0
kiiiiss 0.0
dooooon 0.0
miiiiss 0.0
malinsworld 0.0
prompics 0.0
itsalldonn 0.0
goooorrrrrrlllllll 0.0
thenewdaily_ 0.0
wiggin 0.0
stevesoboroff 0.0
pivot_tv 0.0
lapolicefdtn 0.0
scarificing 0.0
whooooose 0.0
sambapologetic 0.0
bellaisevil 0.0
sta_schemin 0.0
i_aim_tyga 0.0
fameisloud 0.0
garcon_rebelle 0.0
itsbreezybiotch 0.0
phaedra 0.0
vivala_stephyy 0.0
_bossmadeg 0.0
kontomitrosnick 0.0
sorrenti 0.0
whenevahhh 0.0
teamvivanco 0.0
heifers 0.0
stevenkolb 0.0
jeremy_brossard 0.0
jordanbrossard 0.0
quilted 0.0
piscesareus 0.0
plumsykes 0.0
cedellamarley 0.0
offish 0.0
urprise 0.0
i_love_riri 0.0
rihannadiva 0.0
javiroo 0.0
frihday 0.0
cuntlifex 0.0
_chris_rated_ 0.0
yewmadcunt 0.0
erinwasson 0.0
balmainparis 0.0
_yadim 0.0
muthaphucka 0.0
onnneeee 0.0
liiiiieeesss 0.0
gautier 0.0
mtvstarsvotes 0.0
zinloves 0.0
chloefrahm 0.0
uprising_create 0.0
uprising_darren 0.0
jonnycrave 0.0
jeff_uprising 0.0
kareemfenty 0.0
daily_rihnavy 0.0
unapologeticunt 0.0
rorrey 0.0
foreverrr 0.0
guyanese 0.0
annndd 0.0
historih 0.0
grandfadda 0.0
arleta 0.0
loreleicakes 0.0
river_island 0.0
finallyyyy 0.0
rodin_thinker 0.0
mrs_toyac 0.0
cheersrihrih 0.0
bangbang 0.0
faiz_fenty 0.0
leandra 0.0
noella 0.0
rasshoooolllleee 0.0
luminati 0.0
inezvinoodh 0.0
visvim 0.0
realne 0.0
sarahfrancus 0.0
tadium 0.0
trapstar 0.0
afrihca 0.0
rihrobyn 0.0
cbsgirlfriend 0.0
shyronnie_rn 0.0
mariamfenty_ 0.0
mizzpmf 0.0
whooooaaaaa 0.0
camkaipink 0.0
yasssssssssssssssssssss 0.0
lunaxskye 0.0
yaaaaasssssss 0.0
niggggaaaaaaa 0.0
breeziechillin 0.0
betologetic 0.0
isusjsjdha 0.0
awffffff 0.0
mcdessikins 0.0
skreets 0.0
pieceofria 0.0
loooool 0.0
craaaazzyyy 0.0
lolarae_xoxo 0.0
stayflysamir 0.0
shotta 0.0
tamarawray 0.0
lauraleehickock 0.0
heauxz 0.0
rihannanavyit 0.0
manilla 0.0
ronnyerickson 0.0
nikofenty 0.0
vincehaycock 0.0
zodiacfacts 0.0
naomiiknows 0.0
wrizzap 0.0
muuuch 0.0
hongkong 0.0
jetlaaaaaagggged 0.0
rasshole 0.0
februharry 0.0
kaşara 0.0
çıkmadı 0.0
dicked 0.0
vinoodh 0.0
rihannasblog 0.0
urihannafansite 0.0
teejay 0.0
stupse 0.0
clapbacks 0.0
niggaaaazzzz 0.0
bwaaahaaaaa 0.0
willheardmusic 0.0
kristennoelgipson 0.0
rsvpgallery 0.0
backout 0.0
bwahhaaa 0.0
errwhurr 0.0
niiiiggaz 0.0
fridayz 0.0
debbycoda 0.0
cabbing 0.0
dolly_cohen 0.0
cowboyz 0.0
friendz 0.0
phucker 0.0
charliebymz 0.0
lynn_ban 0.0
inwardly 0.0
ravening 0.0
whyyyyyyyyyyyy 0.0
thatdamnlala 0.0
adamsellman 0.0
scottland 0.0
kingspleasure 0.0
mikkyekko 0.0
rihannanavide 0.0
saskoktz 0.0
phlawless 0.0
givenchydonc 0.0
mlle_yulia 0.0
oxxoxo 0.0
foreva_rn_ladii 0.0
skinhead 0.0
killaz 0.0
yennifer 0.0
bestofpisces 0.0
smegma 0.0
morganemiller_ 0.0
aa_davis 0.0
beenie 0.0
nickeystaar 0.0
frihannamorocco 0.0
thinketh 0.0
guitarists 0.0
jordriri 0.0
badgalclaudia 0.0
hausofnath 0.0
_abirogerson 0.0
tommykane 0.0
livenationuk 0.0
millenniu 0.0
juuuussttt 0.0
helllooooo 0.0
miiiine 0.0
chaneliman 0.0
blushy 0.0
laetitiacrahay 0.0
rihmix 0.0
dariuscash 0.0
joshkillss 0.0
drunk_cockiness 0.0
firebombfenty 0.0
mooky_mcnasty 0.0
defpenradio 0.0
iamrici 0.0
letcha 0.0
niggerish 0.0
mawazine 0.0
thefashionaddicts 0.0
phierce 0.0
errwhere 0.0
jocking 0.0
niggaaa 0.0
tami_black 0.0
homienadz 0.0
religiosity 0.0
joycemeyer 0.0
brooooklyyyyn 0.0
miiiiine 0.0
dilekkeysan 0.0
marykatrantzou 0.0
allaboutpisces 0.0
jfisherjewelry 0.0
oddhangover 0.0
diggins 0.0
phyliciaghee 0.0
bawsin 0.0
howeverrrrr 0.0
channyyxoxo 0.0
dowwwwnnnnn 0.0
thugbitch 0.0
rihanas 0.0
miiiiiinnneee 0.0
rihwrite 0.0
janiseeaileen 0.0
ratchify 0.0
eeeeeemmmmmm 0.0
pannies 0.0
wooooiiiiiiiiiii 0.0
muhphuckers 0.0
bashment 0.0
whaaaaattttt 0.0
liiifee 0.0
covery 0.0
leeeeaaaavvveeee 0.0
haarrrrrddd 0.0
ismashedriri 0.0
christabslg 0.0
reallll 0.0
peoplez 0.0
wooiiiiii 0.0
slackness 0.0
kevfenty 0.0
woooiii 0.0
tatiana_xo 0.0
fentynavysalute 0.0
ratchettt 0.0
rachael_deanna 0.0
lifeeeeee 0.0
bxdcfjcf 0.0
killled 0.0
asdfghjkjhgtfrdedfghjnhbgvfc 0.0
troy_fenty 0.0
_marrymerihanna 0.0
jkbwdhbwh 0.0
_noellaa 0.0
hunneds 0.0
thekingfly 0.0
dooown 0.0
woooiiiii 0.0
phucked 0.0
kickstand_ohb 0.0
acedemy 0.0
mistercap 0.0
gallest 0.0
sinsofmyfather_ 0.0
dwayneofficial 0.0
_revofev 0.0
joefenty 0.0
thegodlight 0.0
molestmerihanna 0.0
rihannanavyeu 0.0
melina 0.0
terryrichardsonstudio 0.0
_sexxtroversy 0.0
neuroticbxtch 0.0
getcho 0.0
moneyyy 0.0
idillionaire 0.0
yaaaaaaas 0.0
noxx_onite 0.0
phonefancy 0.0
chiefin 0.0
londonfashionwk 0.0
_mayor_ 0.0
rihannanow 0.0
jamrock 0.0
rihannastats 0.0
jenesismagazine 0.0
napmed 0.0
hausofbeyhive_ 0.0
probabily 0.0
badgalelly 0.0
ladylivja 0.0
rihannacomics 0.0
__glitterdick 0.0
chelsey_ba 0.0
stashbox 0.0
thuglife 0.0
highladayz 0.0
brrrap 0.0
kalifah 0.0
marylin 0.0
muthafucker 0.0
stylenetwork 0.0
bvalgari 0.0
oooonly 0.0
fuckyopictures 0.0
amplifydot 0.0
trappat 0.0
soumsluvriri 0.0
ibebossedup 0.0
holerringg 0.0
rihskillerdoll 0.0
equaled 0.0
chefette 0.0
rezilientkas 0.0
blastinggggg 0.0
dammnnn 0.0
lifeandtimes 0.0
hausofjazzy 0.0
kaykispeaks 0.0
condesa 0.0
awaaayyy 0.0
flawle 0.0
mandler 0.0
loudies 0.0
dulcattis 0.0
killaaa 0.0
_loveforrihanna 0.0
yesimkayla 0.0
rollingnostone 0.0
richkunt 0.0
yasssssss 0.0
eriricccccc 0.0
cuntmeout 0.0
sashay 0.0
condragulations 0.0
neverrr 0.0
phasetoo 0.0
fooooorde 0.0
ruunavi 0.0
rihtweet 0.0
ishoobernator 0.0
thirstiest 0.0
j_dimps 0.0
deecosey 0.0
itsrihannasnavy 0.0
muthaphuckin 0.0
