chatting 9.46828810943e-05
trying 0.00030941713803
launch 0.00027592278037
moment 0.000311089814102
wonderful 0.000189579643574
seeing 0.000115590344791
recommend 4.18675481455e-05
anybody 4.31384163965e-05
podcast 0.0
challenges 9.43812307282e-05
worked 0.000152097257033
direct 0.000119495896592
others 0.000242042230304
currently 6.69226524706e-05
better 0.00141918608557
please 0.00129741884929
travels 0.0
social 0.000315108531787
around 0.000139135890742
people 0.00331143419966
leaving 0.000254843732802
morning 0.000643484700959
general 0.000180292453754
overall 4.88964360179e-05
damage 0.000137606278361
affect 4.84207461755e-05
everything 0.000195843169857
twitter 0.000196371773294
present 0.000127421866401
though 0.000349588993187
friend 0.00016877298438
watched 0.000221176250837
beautiful 0.000115278991546
anything 0.000426506837385
practice 0.0
helped 6.13350816388e-05
helpful 4.79530514999e-05
revive 0.0
updated 8.89402288466e-05
thinking 0.000228700246927
finally 0.000142937654329
caught 3.15108531787e-05
believe 0.000251120567588
already 0.000390631994026
orlando 0.000142936697219
depends 4.18675481455e-05
chance 0.000447641531102
meaning 8.27500377208e-05
annual 0.0
renewed 0.0
growing 0.000100659950972
probably 0.000121348976104
should 0.00011094306939
changed 0.000149649055029
history 0.000288197478864
center 0.0
museum 0.0
behind 0.000194790247039
pretty 0.000114350123463
really 0.001370902189
expensive 0.0
little 0.000251120567588
earlier 9.82084410133e-05
forget 0.000226857885306
paperwork 0.0
someone 0.00025384281834
mostly 0.0
worker 5.90050690319e-05
safety 4.05335281881e-05
program 0.0
things 0.000333926137781
electrical 0.0
visiting 0.000115769935888
available 8.71617572113e-05
perfect 2.91324160989e-05
different 0.000142168945795
search 3.74010639828e-05
connect 0.0
numbers 0.000104912901183
person 0.000224424883765
watching 0.00042193246095
passed 0.000170558703213
minutes 8.66927585932e-05
daughter 0.000169155640325
average 4.00638600237e-05
positive 0.000398245975524
outside 0.000177648635648
metric 7.89920260483e-05
looking 0.000530143420464
forward 0.000546100407255
raising 0.000199738356098
afraid 0.0
impression 0.0
profile 7.65213181364e-05
drawing 4.98729284257e-05
favorite 0.0
picture 8.93054807379e-05
historic 4.22427517374e-05
instead 0.000189065119072
appreciate 0.000296241100279
husband 0.000130990419212
international 6.9171619315e-05
toddler 0.0
couldn 8.73972482968e-05
remember 0.000419663935408
holidays 0.0
friends 0.00011251532292
despite 0.000119150216866
understood 0.0
impossible 7.60865162663e-05
everyone 0.000895283062204
florida 4.12532367048e-05
always 0.000667852275563
months 5.84222703687e-05
moving 0.000210644483449
meeting 0.000974600528395
google 0.0
answer 0.000401306099927
together 0.000701327761765
included 0.000127869250665
inside 2.91324160989e-05
section 0.000129026057182
missed 0.00025521512097
button 0.0
active 0.0
longer 0.000258338583622
enough 0.00050905605944
projects 0.0
driving 0.0
building 3.14253625488e-05
enjoying 6.84118210803e-05
kennedy 0.0
tantrums 0.0
apparently 0.000216350944505
recent 3.69810231298e-05
gotten 0.0
amazing 0.000502241135176
determined 5.39699304591e-05
attention 6.33652528574e-05
progress 0.0
tomorrow 0.00086730546651
whenever 4.60125694801e-05
curious 4.44701144233e-05
george 0.000591221273857
feeling 0.000322190853453
excited 2.92111351844e-05
campaigning 0.00131644876546
understand 0.000152509511826
learning 6.93632007651e-05
special 0.000197433303153
secret 6.26802675177e-05
across 0.00018753099126
comparison 0.0
surprised 0.000133478554321
anymore 7.13161855808e-05
spirited 0.0
precious 0.0
rejoice 8.41600101495e-05
rather 9.42760876463e-05
showing 0.000328339389353
saying 0.000847122920347
tweeted 3.69810231298e-05
updates 8.13043887456e-05
thoughts 5.93763684142e-05
exactly 0.000363063345456
except 7.13161855808e-05
getting 0.000811350275122
nothing 0.000335731148326
tweets 9.25025133797e-05
course 0.000202283103384
photos 0.000169155640325
looked 9.53067369647e-05
difficult 0.000110630988524
office 0.00045382918182
decisions 0.000126728255212
brought 3.10018052368e-05
biggest 0.000144098739432
thrilled 0.0
entire 6.21720050236e-05
something 0.000531574318183
closing 0.0
anyone 0.0004230713639
taking 0.000279775956939
reprint 0.0
flying 0.0
happening 0.000183011414191
sometimes 0.000123336684506
lessons 0.0
village 0.0
stopped 0.000164128838117
yesterday 0.00025384281834
service 0.000338258043745
serious 8.97894330176e-05
emails 0.0
wearing 0.000229780373364
afford 0.000270963903331
either 0.000274517121287
second 0.000225638060746
checking 3.62608711203e-05
volunteers 0.0
indeed 7.63034925891e-05
hearing 0.000281296486889
choose 9.87470334262e-05
another 0.000781263988051
address 7.54406170675e-05
display 0.0
compare 5.10572423981e-05
weekend 5.67144713266e-05
suggested 0.0
appear 8.47379046162e-05
anyway 0.000253116478671
theory 0.0
buildings 0.0
working 0.000447641531102
bigger 9.84773028703e-05
treated 0.0002300628474
admired 0.0
retirement 0.0
laughing 0.000630556127913
wanted 0.000169685353147
current 0.000165029397188
grateful 0.000109701685408
friendship 0.0
family 0.000475619126796
listening 0.000153337704097
stream 0.0
sharing 6.58313556175e-05
double 6.33652528574e-05
especially 0.000155009026184
middle 9.63502697331e-05
waiting 0.00017198832854
definitely 0.000244676786794
walking 0.000201319901944
account 0.000131303070494
completely 0.000199122987762
thought 0.000451276121493
accept 3.57576534624e-05
possible 0.000177648635648
simple 0.000130231068186
manufacturing 0.0
destroyed 0.0
members 0.000846320986213
supposed 7.43805020378e-05
manufacturers 0.0
business 0.000181041325624
absolutely 0.000448947165088
anywhere 0.0
sending 6.4938008085e-05
introducing 0.0
congrats 2.93692445765e-05
beauty 0.0
community 0.000206942085277
greatest 3.05845983492e-05
posted 9.92891232171e-05
wednesday 3.37382158646e-05
explain 3.26468140926e-05
broken 6.93632007651e-05
fairly 0.0
closest 5.34000707192e-05
hoping 6.72912257137e-05
relationship 7.52269724432e-05
actually 0.000773947478431
pockets 0.0
wallet 0.0
pocket 0.0
argument 0.000345107331172
decent 9.94155629663e-05
school 0.000199036524113
throwback 0.0
thursday 8.97894330176e-05
talented 0.000183866783287
discuss 3.60584907508e-05
celebrate 3.0917861951e-05
celebrating 3.33696385802e-05
anniversary 3.38311280649e-05
students 0.000148341761725
corners 0.0
internet 0.000243444053941
figure 0.000133845304941
opened 4.08910557377e-05
inspired 3.38311280649e-05
latter 0.0
sitting 9.47898217872e-05
playing 0.000113735156636
street 0.000248014441895
points 0.000143430286497
advice 6.56515352469e-05
memory 0.000116101870856
forever 6.31932145248e-05
congress 0.0
imagine 0.000374045463811
problem 0.000150054108855
pulling 0.0
furniture 0.000141737966212
keeping 0.0
dressed 0.0
chinese 4.51606505552e-05
unlike 0.000207029336476
allowed 0.000220640139945
otherwise 0.0
afternoon 0.000296241100279
planned 4.0180535994e-05
images 0.0
noticed 0.00031033827952
expense 6.75523030027e-05
differences 5.37786776228e-05
difference 0.000367015180191
editor 0.0
intent 0.0
suppose 0.000215114710491
inspiration 0.000115109999373
letting 3.43952118018e-05
system 0.000279767736487
almost 0.000223820765551
details 0.000122338393397
experience 5.84222703687e-05
living 0.000321322487028
worries 4.92181410824e-05
weather 0.000107272960387
bright 3.93738946414e-05
understands 0.0
normal 0.000112521217226
launching 4.55833499965e-05
backyard 0.0
pointed 0.000115756617412
before 3.03372440259e-05
monday 0.0
example 0.000221886138779
science 0.0
tweeting 0.000159711454697
forgot 0.000175340475905
disaster 4.28795570587e-05
happens 5.79512856992e-05
silence 8.81277420621e-05
learned 3.23805232743e-05
congratulations 3.08341711266e-05
natural 3.97167389553e-05
babies 4.35312772014e-05
mission 0.0
surprising 4.51606505552e-05
reference 0.0
forgotten 0.0
setting 3.97167389553e-05
appeared 6.37584444998e-05
reminds 0.000118805962628
fantastic 0.001056188142
loving 6.60117588753e-05
complete 3.21167565777e-05
daniel 9.84362821648e-05
rewarding 0.0
nearly 7.3546713315e-05
spirit 0.0
launched 8.34871922896e-05
finding 0.0
stories 6.0510557576e-05
including 3.10860025118e-05
wouldn 0.000211214879895
choice 0.000238792283166
offended 6.2426746473e-05
conversation 3.40178883508e-05
disrespectful 0.0
making 0.000613850276326
expect 3.35533169906e-05
traits 0.0
discussion 0.000285399581358
believes 0.000196227294623
response 0.000394988133705
brings 0.0
seasons 5.28416470672e-05
anytime 4.60125694801e-05
protected 5.67954024853e-05
location 0.0
needed 0.000179094212374
seriously 3.0917861951e-05
emergency 0.0
justify 0.000192097818324
spending 0.000173888609958
groups 0.000135481951666
condition 0.0
childhood 0.0
modern 0.000161190812932
welcome 0.000424213382867
moments 3.47777219916e-05
totally 0.000129169291811
running 0.000234953956612
strong 0.000259377730978
respond 0.0
message 0.000326570026278
coming 0.000613850276326
thankful 0.0
issues 0.000200217831481
challenge 9.20026224582e-05
intolerance 0.0
happen 0.00019957387686
giving 0.000226247137529
turkey 8.15427375308e-05
excellent 0.000364647341431
limits 0.0
contractors 0.0
common 0.00013834323863
pressed 0.0
healthcare 0.000108712850515
benefits 0.000746805986111
situation 3.65672284694e-05
workers 0.000652335024735
company 9.50478792862e-05
savings 6.69338958164e-05
health 0.000264047035501
insurance 0.0
change 0.000671462296653
silver 0.0
august 3.94877073896e-05
crying 0.0
mental 0.000249721162933
carrier 0.0
decide 6.93632007651e-05
happened 0.000176691824612
parking 0.0
demand 7.3753992349e-05
sacrifice 0.0
personal 3.04194514066e-05
rewards 0.0
beyond 9.37654956298e-05
contributing 8.14562172118e-05
passion 0.000211844761541
question 0.000485988024719
doctor 0.000171518228235
sacrifices 0.0
respected 0.0
losing 0.000137961390185
strain 0.0
respect 0.000183507590095
shouldn 0.000100383978706
career 6.4938008085e-05
visited 4.39297638889e-05
reason 0.000323935011789
simply 0.000314738703548
audience 0.000193503118094
sacrificed 0.0
employees 0.0
accounts 4.67429835431e-05
attacked 0.0
involved 0.000358135437511
extreme 9.68414923509e-05
valuable 0.0
knocked 0.0
reality 0.000232947764242
mention 0.000206942085277
without 0.00016922854556
problems 0.000103471042639
timing 4.97077814832e-05
described 0.0
pattern 0.000128065212216
online 9.02762071923e-05
background 0.0
buying 0.0
called 0.00022503064584
scientists 0.0
checked 3.97167389553e-05
heading 3.32782520345e-05
paying 0.000218175695661
planning 0.000109087847831
opposite 0.0
through 3.92605454902e-05
reached 0.000124492008972
changing 0.000102901200601
explains 0.000112840458665
harder 3.89232422312e-05
demands 0.0
silent 0.0
speaking 0.000544499579506
november 7.50141448175e-05
ordinary 5.53468208274e-05
number 0.000286647214234
stunning 0.0
atlantic 0.0
stupid 7.78464844625e-05
personality 0.0
grandparents 0.0
unless 0.0
calling 0.000205584712035
painting 5.43564252575e-05
focused 0.0
ridiculous 0.000115769935888
package 0.0
rooted 0.0
option 0.0
knowing 7.74012472375e-05
former 0.000210993381032
actual 0.000148761004076
tracked 0.0
suffers 0.0
schedule 4.3399706374e-05
friday 0.000368644063623
failure 0.0
achieve 0.0
winner 3.10860025118e-05
doctors 0.000151122997765
becomes 3.96019875426e-05
directly 0.0
quality 0.000144637987812
tearing 7.99516790135e-05
father 0.000127421866401
wishes 7.29294682861e-05
collar 0.0
caring 5.6165326251e-05
ground 0.000108782613361
matter 0.000180064930626
strategy 0.000139345539905
themselves 4.88964360179e-05
asking 0.000325689165355
usually 7.45909157338e-05
thankfully 0.000126436187931
reacts 0.0
period 0.0
parents 3.35533169906e-05
balance 0.0
resist 0.0
mobile 9.28970266032e-05
computer 0.000216343773529
reminded 0.0
impressed 0.000127106856924
dinner 0.000185507171706
suffering 5.26579686567e-05
single 0.000461115966183
parent 0.0
approved 0.0
energy 6.6556504069e-05
preview 0.0
meltdown 0.0
remind 3.89232422312e-05
emotional 0.000161190812932
sounded 5.83235530551e-05
status 0.0
update 6.52936281851e-05
outage 0.0
customers 0.0
holding 6.61927488114e-05
causes 0.0
eating 0.0
picked 3.48741767785e-05
missing 0.000179094212374
surprise 2.99298110059e-05
officially 0.00013058725637
global 0.0
follow 0.0002812883073
opinion 3.64647341431e-05
faster 0.0
backwards 0.0
design 0.000591398524323
website 0.000409340887712
widely 6.63289333353e-05
origin 0.0
breaks 0.0
allows 0.0
promoting 4.8108077963e-05
volunteer 5.85488755667e-05
convince 0.000158524941201
negative 0.0
official 0.000202283103384
jersey 0.0
mistake 0.0
fixing 0.0
translated 0.0
ginger 0.0
peaceful 0.0
thinks 6.52936281851e-05
hospital 4.07713687654e-05
lauren 0.0
easier 3.79351912861e-05
excluded 7.71666387825e-05
successful 3.82606590682e-05
leadership 0.0
agrees 0.000109892845734
decline 0.0
turnout 0.000304542619494
showed 0.0
trumps 0.0
circle 0.0
engage 5.57530642196e-05
suited 0.0
experienced 0.0
interested 3.59578498522e-05
effect 3.68769961745e-05
success 6.31932145248e-05
ladies 0.000153479999164
dreams 3.67733566575e-05
protect 0.000286860572994
explanation 5.0039061326e-05
occasion 0.0
medication 0.0
planet 7.85210909803e-05
detached 0.0
essence 7.05189510925e-05
control 0.00018753099126
happier 0.0
likely 7.48021279657e-05
coincidence 5.90050690319e-05
cancel 0.0
project 3.15966072624e-05
laying 0.0
lesson 0.0
requires 0.0
healthy 7.58703825722e-05
treating 0.0
opening 0.000243355611253
statement 0.000145043484481
enjoyed 0.000132748658508
animal 0.0
nervous 9.20251389602e-05
pounds 0.0
wonder 0.000121348976104
matters 7.3546713315e-05
shared 7.6739999582e-05
somehow 0.000180642602221
benefit 0.000596157618077
terrible 7.13161855808e-05
continues 3.41117406426e-05
improve 0.0
equally 0.0
appointment 0.0
session 7.31344569389e-05
routine 0.0
exciting 0.000134213267963
corner 3.99476712197e-05
imagination 0.0
decides 0.0
cheering 5.53468208274e-05
spring 7.15153069249e-05
fallen 0.0
frequently 0.0
places 0.0
thousands 0.000205056298589
informed 4.92181410824e-05
typical 5.21140977e-05
continue 0.00022604626067
attend 4.21171209229e-05
excuse 4.05335281881e-05
settle 0.0001563422931
female 0.000111886373601
recovery 9.26048770804e-05
treasured 0.0
grandma 0.0
closer 0.000105204285543
beginning 3.51655635053e-05
everywhere 0.000133478554321
scenes 3.56580927904e-05
bought 0.0
multiple 0.0
slogan 0.000137012942318
wishing 0.0
covered 7.25217422406e-05
remove 9.65279458523e-05
choices 4.53008381471e-05
dealing 9.71568153264e-05
teacher 8.34871922896e-05
training 3.62608711203e-05
passing 7.56550849872e-05
stopping 0.000127487183479
become 8.76334055531e-05
spread 0.000127769163758
season 0.000154170855633
putting 0.000176215467459
weight 4.35312772014e-05
quietly 0.0
necessity 0.0
knocks 0.0
effects 0.000103870288338
returns 3.75070724087e-05
expected 0.0
resources 0.0
bucket 0.0
struggling 0.0
register 8.32403876444e-05
promotion 0.0
solution 0.0
manage 0.000102114484796
transition 0.0
gained 6.34869576816e-05
define 5.47483638234e-05
somebody 0.000125230788434
contract 9.68414923509e-05
ignorant 0.0
managers 0.0
credit 0.000344903475462
brothers 0.000128638671176
grandkids 0.0
computers 7.12234742456e-05
physical 0.0
series 9.12583542199e-05
offensive 0.000101427385251
fighting 0.000159277333001
donald 0.000120541607982
mexico 0.0
sandra 8.71550678163e-05
police 7.21169815017e-05
represent 0.000284048643283
president 0.000124344010047
talking 0.000504955988471
america 0.000148842467897
michigan 0.0
everybody 0.0
judgment 0.0
carolina 0.0
amount 0.000157042181961
houston 4.76455657398e-05
everyday 7.94334779107e-05
michael 0.000284369465362
protecting 4.98729284257e-05
providing 0.000104950989407
attitude 4.95436088645e-05
million 5.8738489153e-05
election 0.000887569508477
honesty 0.000120358771628
targeting 0.0
telling 0.000254151298573
correct 7.21169815017e-05
attack 0.000216350944505
elementary 0.0
americans 0.0
killed 9.35113659528e-05
horrible 0.0
salute 0.0
coverage 0.000227611147717
united 7.25217422406e-05
college 0.0
refuse 0.000100412384055
preach 0.0
hillary 0.0
clinton 9.1451377628e-05
presidency 0.0
throws 0.0
manning 0.0
american 2.96881842071e-05
deserved 0.000171004099318
humble 0.0
remain 0.000196869473207
founder 0.0
illegal 0.000139786076729
arizona 0.0
opinions 9.59061029998e-05
speeches 0.000359643146696
scared 0.0
salary 0.0
pieces 0.0
taught 8.25064734096e-05
thompson 0.0
straight 0.000124007220947
blocking 5.26579686567e-05
answers 0.000180292453754
created 3.36456128568e-05
record 5.84222703687e-05
stamina 0.0
weapon 5.67954024853e-05
bottom 0.0
athletes 0.0
registered 0.0
minnesota 0.0
committed 0.000132191613093
journey 0.0
snapchat 0.0
peoples 0.0
disrespect 0.0
brother 0.000238782184499
prayers 0.0
boston 4.04153658952e-05
korean 0.0
church 4.24957278265e-05
advantage 0.0
motivation 0.0
honestly 7.98953424393e-05
defeat 0.000100412384055
lifetime 4.22427517374e-05
captain 0.0
retired 0.0
country 0.000549054137757
ending 0.0
dressing 5.43564252575e-05
finish 3.43952118018e-05
ranked 0.0
employee 0.0
university 0.0
dreamed 0.0
prayer 0.0
nominated 8.39841094863e-05
responds 5.63737705077e-05
national 0.000242042230304
reform 0.000110693641655
shooting 3.49709670609e-05
cancer 7.03311270106e-05
deserve 0.000274403201601
mother 9.35113659528e-05
creating 0.0
powerful 0.000102335221928
wisdom 0.0
breaking 9.02762071923e-05
dollars 0.0
questions 0.000372641378504
racist 0.000151122997765
charged 0.0
soldiers 0.0
performance 3.23805232743e-05
reading 8.90645526214e-05
denver 0.0
graphic 0.0
garner 0.0
create 6.47610465487e-05
jordan 0.0
admire 0.0
nobody 6.86008004004e-05
government 0.00175843702211
politics 0.000396019875426
blessing 0.0
wrestling 0.0
charities 0.0
donate 0.000150881234135
sample 0.0
bringing 6.28507250975e-05
deserves 0.000185951255095
regret 0.0
victim 0.000159638044818
according 0.000111256321293
threat 4.16201938222e-05
heaven 0.0
heroin 0.0
honest 0.000312999497924
became 0.000104912901183
decision 0.0
counting 0.0
signing 3.66701017036e-05
embrace 4.88964360179e-05
pressure 3.80432581332e-05
celebrities 0.0
facebook 0.000209508677041
kardashian 0.0
divided 0.0
lawyer 5.3212681606e-05
lebron 0.0
campaign 0.00204554725468
determine 6.19114136317e-05
whether 0.00024753071251
praise 0.0
defined 0.0
proposes 0.0
discover 0.0
factory 5.70086386103e-05
arrested 0.0
estate 0.0
proposed 0.000211366588269
comments 0.000170558703213
teenage 0.0
wounded 0.0
endorsement 0.000124853492946
williams 4.46068575886e-05
custom 0.0
troops 0.0
singer 0.0
future 0.000576394957729
struggled 7.80643675427e-05
sister 3.76134862216e-05
sabotage 0.0
athlete 0.0
warrior 0.0
cheating 0.0
voting 0.00103471042639
succeed 0.0
religion 0.000115756617412
century 0.000137606278361
serving 0.0
because 4.0297703233e-05
cleveland 0.0
hiding 0.0
breath 0.00014247926301
choosing 0.0
lawrence 0.0
instagram 0.0
opponent 6.04203152686e-05
detroit 0.0
honored 0.0
nonsense 0.000209176838057
lifting 0.0
proven 6.01793858142e-05
talent 3.72954578669e-05
knocking 6.85064711589e-05
russian 0.0
brains 0.0
oakland 0.0
regardless 0.0
skills 3.88117103058e-05
citizens 0.000286793303482
california 0.0
commitment 0.0
seconds 0.000112203191948
seeking 4.92181410824e-05
threatening 0.0
listen 0.000288975861977
whatever 9.63502697331e-05
mexicans 0.0
satisfied 7.587211802e-05
fought 4.53008381471e-05
compete 0.0
injured 0.0
billion 0.000120191580071
ceiling 0.0
absolute 0.000287078818025
appearance 4.30086857273e-05
bigsean 0.0
handle 0.000145858936572
promise 0.000298684481643
nightclub 0.0
hosting 3.66701017036e-05
actors 0.0
generation 3.8369999791e-05
criminal 5.34000707192e-05
tuesday 0.000127075649286
ronald 0.0
locker 0.0
struggle 0.0
degree 0.0
entering 0.0
leader 0.000328182607288
pageant 0.0
toughest 0.0
character 0.000112203191948
mirror 0.0
interview 0.000227470313272
whistle 0.0
obviously 3.92605454902e-05
battle 3.24690040425e-05
motivate 0.0
destroy 9.71568153264e-05
relentless 0.0
winning 8.95471061872e-05
charlotte 0.000114017277221
accomplished 0.0
stepped 0.0
defense 0.0
appeal 5.0039061326e-05
causing 0.000177015207096
arabia 7.34508369315e-05
shipped 0.0
society 0.000347309807665
officers 0.0
brooklyn 0.0
marked 0.0
incredible 0.000271561988436
poster 4.43340399314e-05
wealthy 0.0
memorable 0.0
officer 0.000202173981146
minute 0.000189065119072
luther 0.0
foreign 0.000231512192701
pregnant 0.0
champions 0.000104950989407
virginia 0.0
tackle 0.000207740576676
unarmed 0.0
orange 0.000167470192582
policy 0.000246067558307
comedy 0.0
reminder 0.000168228064284
evidence 0.000165989345296
lighten 0.0
presidents 0.0
kicked 4.58687594538e-05
sticker 7.23148760176e-05
accused 0.0
intentions 0.0
facing 0.00013803770844
freedom 0.000116769726694
actions 0.0
debating 0.000247645654527
outcome 0.0
utterly 0.000120358771628
mississippi 0.0
clearly 0.000141840134987
download 7.89754147792e-05
sidelines 0.0
invite 0.0
legally 6.04203152686e-05
central 0.000110630988524
washington 0.0
veteran 0.0
division 0.0
veterans 5.47483638234e-05
stronger 4.44701144233e-05
promised 4.58687594538e-05
worried 0.000161661463581
security 3.70854404312e-05
immediately 3.90352229785e-05
television 0.0
entitled 6.06633489369e-05
racism 0.000431759443673
highest 3.94877073896e-05
approve 0.0
turning 0.000104912901183
legacy 8.86680798628e-05
ignore 0.000160255440095
choked 9.87560459673e-05
backing 0.000347269852236
helping 0.000215255118747
collector 0.0
willing 0.0
basically 0.000122314106296
return 9.2753585853e-05
unacceptable 0.0
feelings 9.65279458523e-05
network 0.0
language 0.000156590624698
invest 0.0
coward 7.71666387825e-05
schools 0.000158866955821
patients 0.0
foster 0.0
children 0.000492011699992
nation 0.0
review 3.32782520345e-05
between 0.0
knowledge 3.97167389553e-05
begins 0.000133845304941
tenure 0.0
faithful 0.0
highlights 0.000126351362769
shoulder 0.0
produced 0.0
consider 3.70854404312e-05
shattered 0.0
latest 0.000121021115152
beyonce 5.99405244493e-05
signed 6.16683422532e-05
millionaire 0.0
shelter 0.0
charity 3.90352229785e-05
germany 0.000127487183479
advance 8.13043887456e-05
proved 5.65837879434e-05
married 8.27500377208e-05
millions 7.56550849872e-05
blessings 0.0
indonesia 0.0
fights 0.0
dollar 0.0
rigged 0.0
conduct 6.43094957374e-05
johnson 7.94334779107e-05
howard 5.1230621016e-05
turned 6.13350816388e-05
criticism 5.19351441691e-05
stomach 0.000174300121147
upgrades 0.0
jackie 6.91612585023e-05
relevant 0.000149123344449
charge 3.87006236187e-05
ticket 7.50141448175e-05
steady 0.0
indian 0.000116200080765
turner 0.0
sanders 0.0
includes 0.0
survivor 6.21678871352e-05
dealers 0.0
collection 0.0
against 6.16572823846e-05
joyner 0.0
impact 0.000112203191948
families 7.15153069249e-05
welcoming 0.000279792158901
hitting 3.72954578669e-05
announced 0.0
granted 0.00016076619083
decided 0.000100383978706
itself 4.74930876698e-05
selfish 0.0
mexican 0.0
respects 0.0
guarantee 0.000383238546764
beliefs 6.54454566513e-05
citizen 0.0
states 3.52633744255e-05
denied 0.00011191686356
drought 0.0
memorial 4.54417355527e-05
decades 0.0
trayvon 0.0
landed 0.0
pastor 0.0
ultimate 4.05335281881e-05
weekends 6.51570895303e-05
episode 0.000133478554321
spikes 9.78126614493e-05
engaged 5.99405244493e-05
financial 4.92181410824e-05
payments 0.0
tolerant 9.05118043221e-05
symposium 0.0
kansas 0.0
agreement 0.0
source 3.92605454902e-05
backbone 0.0
dismiss 0.0
midnight 3.77203085338e-05
homework 6.21678871352e-05
joining 0.000164578389044
reasons 0.000130231068186
talked 3.51655635053e-05
released 3.25577670465e-05
reaching 0.0
release 3.06675408194e-05
existing 5.63737705077e-05
models 0.0
pageants 0.0
helmets 0.0
scheme 0.0
scholarship 0.0
stacked 0.0
speech 0.000771726290784
standing 0.000287480618455
higher 0.000112521217226
purple 5.21140977e-05
justice 0.000376134862216
served 4.22427517374e-05
speaks 0.000202076829476
backup 0.0
allegedly 0.0
purchase 0.0
millionaires 0.0
consideration 7.12234742456e-05
strength 3.87006236187e-05
incredibly 0.000197438536948
private 0.00043029085949
ignored 0.000160200212158
neighbors 0.0
apologizes 0.0
beings 0.000132062627239
minimum 0.000115316659735
direction 4.28795570587e-05
enemies 5.94688660706e-05
exclusive 6.6374329254e-05
prison 0.0
himself 0.0
contributes 0.0
investigation 0.0
teaching 4.26230835552e-05
disgusting 0.00032849018294
philly 0.0
rights 0.000452643702405
cheers 0.000562493811175
maintain 0.0
overcome 0.0
flawless 0.000143165079181
unique 4.28795570587e-05
neighborhood 0.0
dating 0.0
handed 5.35887302767e-05
victory 3.99476712197e-05
lifted 6.8831938941e-05
greatness 0.0
muslim 0.00015797390597
terrorist 0.000114447042725
productive 5.55492011968e-05
tribute 3.8369999791e-05
deadspin 0.0
threatened 5.99405244493e-05
horror 5.55492011968e-05
warning 4.04153658952e-05
convention 0.0
understanding 8.05954064661e-05
action 0.000240086574167
having 0.0
afghan 0.0
announces 4.27510248295e-05
commencement 0.0
speaker 0.000186381435639
graduation 0.0
honors 0.0
produce 0.0
apologize 0.0
insult 5.90050690319e-05
continued 0.0
letter 0.000241432432824
discussed 9.97458568515e-05
therapy 5.85488755667e-05
untrue 7.34508369315e-05
written 6.82234812853e-05
existence 0.0
essential 4.95436088645e-05
results 0.000109701685408
initiative 5.6165326251e-05
disease 0.0
marching 0.000120358771628
suggest 4.32687547058e-05
georgetakei 7.99516790135e-05
ensure 0.000106800141438
democrats 0.0
marched 8.35978258139e-05
foundation 0.0
access 0.000171976059009
writes 4.55833499965e-05
student 0.000160722143976
colorado 0.0
medical 0.0
medicine 0.0
tremendous 0.0
nytimes 4.23689523081e-05
kindness 0.0
public 0.000844194105106
cannot 0.000280534097858
reveals 8.34871922896e-05
invented 0.0
threatens 0.000129178336447
candidate 0.00115622297501
persistence 0.0
sexual 9.81136473117e-05
illustration 0.0
measure 0.0
compared 4.82639729262e-05
headline 0.000306574099642
reflect 0.0
answering 4.21171209229e-05
streaming 4.5725688814e-05
leaders 0.000244628212592
supreme 4.82639729262e-05
nominee 0.0
immigration 0.000103870288338
policies 0.000304282155752
laundering 0.0
administration 5.28416470672e-05
defend 0.000182902755256
communicating 0.0
excitement 0.0
funding 0.000133820572766
climate 4.73414405471e-05
transfer 0.0
conspiracy 0.0
activist 6.43094957374e-05
horrifying 6.8831938941e-05
freely 0.0
retreat 0.0
daughters 5.99405244493e-05
compelling 6.45891682237e-05
platform 4.43340399314e-05
hamilton 5.53468208274e-05
futures 0.0
huffingtonpost 0.0
headlines 5.15806530293e-05
january 3.87006236187e-05
grants 0.0
unprecedented 0.0
relationships 5.83235530551e-05
philadelphia 0.0
diversity 0.0
funded 0.000154741959088
secure 5.10572423981e-05
income 0.000154215259963
universal 4.93803991406e-05
contributed 0.0
hurricane 0.0
fundamental 0.0
countries 0.000362679329097
linked 5.21140977e-05
african 0.0
improved 0.0
unclear 0.0
provide 8.20225194357e-05
livestream 0.0
addresses 0.000130890913303
enhance 0.0
companies 9.26048770804e-05
proposal 0.0
potential 0.000115769935888
discrimination 6.51570895303e-05
connected 0.0
drives 5.35887302767e-05
attending 0.000154741959088
filled 3.92605454902e-05
education 0.000376134862216
addressed 0.0
mentioned 0.000123395955576
famous 7.69595436785e-05
resistance 0.0
exists 0.000103870288338
demonstrated 0.0
officials 0.0
instructions 0.0
transmission 0.0
olympics 4.95436088645e-05
ability 0.0
political 0.000280447020166
director 3.48741767785e-05
contains 0.0
sponsored 5.76583298675e-05
autism 0.0
previously 5.57530642196e-05
prevent 0.000139345539905
capacity 6.43094957374e-05
donations 0.000105683294134
william 9.46828810943e-05
editors 0.0
passionate 0.000101427385251
solving 0.0
innate 0.0
treatment 4.37962999488e-05
critical 0.0
feeding 5.76583298675e-05
preparing 0.0
depend 0.0
capable 5.74400763711e-05
bridge 9.00423313218e-05
systematically 0.0
becoming 0.000143430286497
embraced 0.0
literacy 0.0
lawyers 0.0
stigma 0.0
malaria 0.0
standard 0.000161661463581
hiring 0.0
remains 4.32687547058e-05
fellow 0.000141840134987
defending 0.0
quotes 4.60125694801e-05
pushes 0.0
luxury 0.0
admitted 0.0
colleagues 0.000102461242032
failed 0.000414973363239
independent 0.000603937829551
politically 6.16572823846e-05
driven 0.0
agenda 5.03743325883e-05
result 0.000161190812932
implications 6.54454566513e-05
insider 0.0
pakistan 0.0
solutions 0.0
trusts 0.0
indiana 0.0
filling 0.0
humility 0.0
clicks 0.0
disagree 4.32687547058e-05
claims 0.000179529505819
editorial 5.83235530551e-05
mistakes 9.97458568515e-05
offered 9.20251389602e-05
passionately 0.0
justification 0.0
inspiring 0.000188601542669
counter 0.0
shaped 0.0
retroviral 0.0
majority 0.000140674186535
approach 0.000124860581467
nature 4.0297703233e-05
concern 4.73414405471e-05
server 0.0
berniesanders 0.0
shameful 0.000195471268591
experiment 0.0
massive 0.000212760202481
promises 0.000319276089636
colored 0.0
consequences 0.0
whatsoever 0.0
proposals 0.000132062627239
guesses 0.0
bernie 0.0
interviewed 0.000180084662644
pregnancy 0.0
secretary 0.000146210902536
measures 6.14054509994e-05
vastly 0.0
reduce 5.05434952865e-05
compassionate 0.000232835649395
distinguished 0.0
dangerous 3.75070724087e-05
influence 4.5725688814e-05
letters 0.000103514668238
implicit 0.0
saving 0.0
revelations 0.0
incident 0.000115316659735
universe 8.97647529095e-05
victims 8.10670563761e-05
milestone 0.0
perfectly 4.24957278265e-05
exercise 0.0
receive 0.000157495578566
reputation 0.000133259541247
economics 0.0
disclosure 0.0
receives 0.0
terrific 0.0
collected 0.0
campus 0.0
founders 0.0
profiling 0.0
systemic 0.0
studying 0.0
necessary 8.60173714546e-05
inaccurate 0.0
breast 0.0
debate 0.00154618754364
suddenly 0.0
conflict 0.0
interest 0.000196302727451
meanwhile 9.81136473117e-05
indefensible 9.78126614493e-05
recall 0.0
rating 0.0
nominate 0.0
outstanding 0.0001438591545
devastating 0.000103514668238
illness 0.000121817047797
troubling 0.0
romney 0.0
appears 4.63024385402e-05
breathe 0.0
abroad 0.0
spanish 0.0
profit 5.45517045021e-05
reviews 0.0
republican 5.51459017007e-05
presidential 0.0
candidates 9.43812307282e-05
politicians 0.000407079498711
identified 0.0
epidemic 0.0
displaced 0.0
greater 0.0
absurd 0.0
deadline 0.0
height 0.0
sisters 0.0
nuclear 0.000148141197422
stress 5.15806530293e-05
leading 0.000141840134987
restored 0.0
conditions 0.0
however 0.000133002119794
achieved 0.000115316659735
member 0.000196954605741
examples 0.0
diverse 6.45891682237e-05
suicide 5.51459017007e-05
contributions 0.0
largest 0.000132191613093
increase 0.000136325206658
targeted 6.19114136317e-05
regulators 0.0
provided 0.0
element 0.0
effectively 0.000125903606294
population 0.0
rising 0.0
indication 0.0
versus 0.0
believed 5.1230621016e-05
dynamic 0.0
invasion 7.15825395907e-05
primary 0.000203539749356
provides 5.47483638234e-05
environment 0.0
confirmed 0.000203260971864
behavior 0.0
introduced 0.0
contain 0.0
communities 5.3212681606e-05
worldwide 9.28970266032e-05
responsible 9.1166699993e-05
household 0.0
apparent 0.0
munich 0.0
alternate 0.0
expressed 0.0
movement 0.000261068205068
declared 0.0
hundreds 0.000138471379724
information 7.56550849872e-05
easily 8.22639703841e-05
untreated 0.0
october 7.8070445957e-05
quantify 0.0
scales 0.0
investigating 0.0
innovation 0.0
perspective 4.12532367048e-05
rivals 0.0
interests 0.000105315937313
toledo 0.0
extraordinary 9.43812307282e-05
gingrich 0.0
describing 0.0
eliminate 6.75523030027e-05
obligation 0.0
gender 0.0
committee 0.00068588533221
preventing 0.0
numerous 0.0
unusual 0.0
improving 6.04203152686e-05
practices 0.0
cemetery 0.0
questioned 0.0
affecting 7.50413942961e-05
ferrell 0.0
genius 0.0
warren 0.0
organizers 0.0
regularly 0.0
ceilings 0.0
sexism 6.78667377397e-05
prepared 0.000126728255212
burden 0.0
foreignpolicy 0.0
county 0.0
uniform 0.0
newyorker 0.0
anthony 0.0
reflecting 7.08689831059e-05
grandson 0.0
banning 0.0
considered 4.32687547058e-05
chosen 0.0
outright 7.89920260483e-05
screenings 9.27391670081e-05
naming 0.0
conventions 0.0
reproductive 0.0
ignores 0.0
focusing 0.0
sensible 0.000130314179061
concluded 0.0
performed 0.0
divide 6.01793858142e-05
dismissed 0.000150082788592
compromise 0.0
crucial 5.3212681606e-05
weakness 0.0
barrier 6.8831938941e-05
effective 9.28970266032e-05
wealth 0.0
underway 5.59584317801e-05
israel 0.0
overwhelming 5.92360012962e-05
assault 0.0
citing 0.0
protection 9.68414923509e-05
prisoners 0.0
photographing 0.0
traveled 0.0
holder 0.0
seemed 0.0
concludes 0.0
determination 0.0
tested 0.0
lacking 0.0
machine 3.76134862216e-05
honoring 0.0
contrary 0.0
tolerance 0.0
michelle 5.37786776228e-05
assumed 0.0
programs 0.0
closely 5.76583298675e-05
politico 0.0
inspire 9.49861753397e-05
lyrics 0.0
judges 5.3212681606e-05
federal 0.0
maryjblige 0.0
tuning 0.0
striving 0.0
poland 7.26884007957e-05
september 0.000117442968524
manchester 0.000101427385251
checks 0.0
remarkable 0.0
mharrisperry 0.0
immoral 0.000178240310879
fiction 0.0
process 7.11177741183e-05
anxious 0.0
destructive 0.0
nmaahc 0.0
performances 0.0
whitehouse 0.0
flotus 0.0
crisis 0.000214397785293
marriage 0.000241319864631
emotions 0.0
confidence 0.000261980838424
voters 0.000716983258704
comparing 0.0
oldest 5.6165326251e-05
empirefox 0.0
chancetherapper 0.0
songwriter 0.0
literally 0.000172451737731
onstage 0.0
believing 0.0
hillaryclinton 0.0
citizenship 0.0
counted 0.0
hillaryfornc 0.0
raleigh 0.0
discusses 0.0
johnlegend 0.0
apprentice 8.30467745764e-05
acknowledge 6.4871680073e-05
conservative 0.000258786670595
economists 0.0
buzzfeed 0.0
puppet 0.0
hombres 0.0
republic 5.87760374661e-05
homecoming 0.0
andersoncooper 0.0
muslims 0.000118010138064
katyperry 7.587211802e-05
bragging 0.0
treats 5.94688660706e-05
qualified 5.97036959718e-05
islamophobia 0.0
debates 0.000276734104137
endorsements 0.0
counts 0.000138907315621
theellenshow 0.0
festival 8.20225194357e-05
encouraged 6.91612585023e-05
stylish 0.0
disregard 0.0
jtimberlake 0.0
backstage 5.02061920275e-05
barack 0.0
joined 0.000343004002002
terrorism 5.55492011968e-05
pushing 8.92137151773e-05
hopeful 0.000124853492946
mentions 0.000104588419028
teamed 0.0
exclusively 0.0
aliciakeys 0.0
kingjames 0.0
muhammad 0.0
refused 0.000296180006481
characters 4.44701144233e-05
express 0.0
gratitude 0.0
ugliest 0.0
throughout 8.83972552101e-05
awkward 0.000139345539905
shining 0.0
fighter 0.0
accepting 0.0
applemusic 0.0
reveal 0.0
stands 7.74012472375e-05
native 0.0
announce 6.47610465487e-05
dorothy 0.0
haters 5.87760374661e-05
jessetyler 0.0
shondarhimes 0.0
lavernecox 0.0
broadway 0.0
disabilities 0.0
adoption 0.000234193102628
touched 0.0
corruption 0.0
violence 0.000122673167213
leedanielsent 0.0
delivered 0.000135902514441
jasmine 0.0
independence 0.00176310164059
square 0.000226321851203
alongside 0.000213600282877
privilege 5.15806530293e-05
secondary 0.0
staggering 0.0
seventh 0.0
tennis 0.0
sweeping 7.19462987332e-05
footage 9.1166699993e-05
overseas 6.1155878222e-05
spoiler 0.0
theirs 0.0
offering 0.0
construction 0.0
spends 0.000191275333499
detail 0.00025615310508
cabinet 5.6165326251e-05
earnings 0.0
pleased 9.20251389602e-05
gravity 0.0
statements 5.92360012962e-05
decade 0.0
bigotry 0.0
belong 0.0
trillion 0.0
backed 0.000166040462482
operations 0.0
breakthroughs 0.0
values 0.000203539749356
senator 0.0
removing 0.0
wondered 0.0
introduces 0.0
makers 0.0
measured 0.0
pillars 0.0
instrument 0.0
shares 4.48823764547e-05
individual 0.0
applications 0.000128065212216
prepares 0.0
ceremony 4.97077814832e-05
expanding 0.0
merger 0.0
newspaper 0.0001563422931
detailed 0.0
tuition 8.14562172118e-05
childcare 0.00018246925762
thoroughly 0.0
adviser 0.0
matthew 0.000106425363212
affected 4.30086857273e-05
newspapers 0.0
corporate 0.0
economy 0.000191812206
presenting 0.000106053091882
spoken 0.000139786076729
richer 7.85243313727e-05
during 7.01732674155e-05
combat 0.000115756617412
touting 0.0
competitive 0.0
prominence 0.000117100991526
trifecta 0.0
fashioned 7.23148760176e-05
boasts 0.0
ripped 0.0
belief 5.17573341191e-05
heroes 0.0
disturbing 0.0
russians 0.0
intelligence 0.0
deepest 0.0
regrets 0.0
complicated 0.000150117183978
internships 0.0
adults 0.000106800141438
describe 8.08307317904e-05
equality 0.000301237152165
announcement 3.57576534624e-05
interfere 0.0
terrifying 0.000273741819117
nationwide 0.0
manager 4.36634730706e-05
questionable 7.62969686868e-05
enhanced 0.0
services 0.0002397652575
delighted 0.00122010084803
golfer 0.0
regarding 5.15806530293e-05
teachers 0.0
suggests 0.000154741959088
phrase 0.0
immigrants 0.000174970659165
revolution 0.0
universities 0.0
twelve 0.0
principle 6.16572823846e-05
releases 0.0
malarkey 0.0
library 0.0
advisor 0.0
deadlines 8.25064240419e-05
encouraging 0.0
circuit 0.0
humanitarian 6.51570895303e-05
reliant 0.0
assistance 0.0
swimmer 0.0
hinges 0.0
concrete 0.0
accepted 9.31907178193e-05
confronted 0.0
comprehensive 0.0
pushed 5.4162506855e-05
unending 0.0
occasionally 0.0
guardia 0.0
donation 0.0
nomination 0.0
paintings 0.0
significantly 0.0
investment 5.37786776228e-05
terror 0.000104950989407
worship 0.0
represents 0.0
attempting 6.72413815764e-05
bullying 0.000117552074932
astonishing 0.000256130424432
endorse 0.000120840630537
urgent 0.000121817047797
forced 0.000171004099318
addressing 0.0
script 5.34000707192e-05
hundred 0.0
command 0.0
qualifies 0.0
stumbled 0.0
territory 0.0
balloons 0.0
objects 0.0
latimes 0.0
pandemics 0.0
separating 0.0
pentagon 0.0
threats 5.45517045021e-05
prisons 0.0
approaching 0.0
generous 0.0
roughly 0.000137663877882
commands 0.0
uncovered 0.0
destroying 0.0
opposition 0.000338242623046
addiction 0.0
manhattan 0.0
ridiculously 0.0
awarded 0.0
greeted 0.0
forces 4.53008381471e-05
confirm 0.000362406705177
dealings 0.0
nations 0.0
equivalent 0.0
sexist 0.000134482763153
yahoonews 0.0
bloody 5.28416470672e-05
boundaries 0.0
exceptionally 0.0
cannon 0.0
feared 7.12234742456e-05
significance 0.0
recommendation 0.0
chapters 0.0
racial 0.0
obvious 9.43812307282e-05
statistics 0.0
military 0.0
adopted 0.0
housing 0.000287200381855
clearer 0.000219201023098
calculator 0.0
underwater 0.0
guided 0.0
rescue 0.0
deserving 0.0
advised 0.0
ordered 0.0
unions 0.0
avoiding 0.0
alicia 0.0
preserve 6.72413815764e-05
balloon 7.46351509039e-05
economic 0.000152654812017
recipe 0.0
awaits 0.0
squarely 0.0
radical 0.00011664710611
banter 0.0
spaces 0.0
carnival 0.0
theories 0.0
bombing 0.000195471268591
products 0.0
margaret 6.81847660944e-05
gathered 0.0
taxpayers 0.0
admits 6.1155878222e-05
opposed 0.000167259192659
pressing 0.0
russia 0.000173075018823
lincoln 0.0
intelligent 5.67954024853e-05
momentum 5.97036959718e-05
olympic 0.0
magnificent 0.0
heritage 0.0
beijing 0.0
beloved 0.0
dummies 0.0
pursuit 0.0
carries 0.0
phelps 0.0
medals 0.0
gymnastics 0.0
summed 0.0
accuse 0.000147680069157
symbol 0.0
dignity 6.4871680073e-05
slogans 0.0
priorities 0.0
applied 0.00011664710611
progressive 0.000128065212216
activists 0.000321547478687
elected 0.000631519299622
brussels 0.000118937732141
subscribe 5.47483638234e-05
elections 0.000168495978753
unites 0.0
complacency 9.51604480965e-05
imperative 0.0
doorsteps 0.000128383941322
voices 4.50211656609e-05
blatant 0.000160888416597
democracy 0.000244482180089
disastrous 7.19462987332e-05
rebuild 0.0
accuses 0.0
diplomacy 8.04442082986e-05
hardball 0.0
attacking 0.0
subtle 0.000132062627239
barker 0.0
sticking 0.0
openly 0.0
policing 0.0
embarrassed 0.0
slightest 0.0
abbott 0.0
attacks 0.000179529505819
commit 0.0
argued 0.0
remarks 0.000120840630537
democratic 0.000283977012426
semitic 0.0
incomes 0.0
treasury 7.19462987332e-05
alarming 0.0
dividing 0.0
reject 0.000177708003889
affirming 0.0
quitting 0.0
extended 0.0
reducing 0.0
proudly 6.63289333353e-05
inclusive 7.34508369315e-05
oppose 0.000187280239419
distinctly 0.000121083084195
urging 0.0
strengthen 0.0
deliver 0.000309390393235
obligations 0.0
relations 0.0
repeal 0.0
strengths 8.77948012354e-05
counties 0.0
weakened 0.0
reckless 0.0
prosperous 0.0
servant 0.0
secretaries 0.0
negotiator 0.0
faults 0.0
choking 0.0
executive 0.0
alternative 4.68913955117e-05
extend 0.0
republicans 0.0
embodied 0.0
preparation 0.0
terrorists 6.43094957374e-05
confident 9.62161559259e-05
weapons 0.000108712850515
unifying 0.0
outrage 6.1155878222e-05
constitutional 0.0
rental 0.0
prevail 0.0
resilient 0.0
humbled 0.000119407391944
courage 4.60125694801e-05
commander 0.0
respecting 0.0
enormous 0.0
aligned 0.0
consent 0.0
refusing 0.000128065212216
resentment 0.0
substance 0.0
claiming 5.7878308706e-05
lamont 0.00109095611246
dropping 8.42342418458e-05
carried 0.0
intimidated 0.0
behalf 0.000100078122652
meaningful 0.000121326697874
amendment 0.000498121387446
accepts 0.0
legislation 5.85488755667e-05
fairer 0.000547407772859
commitments 0.0
handling 0.0
proves 0.0
rhetoric 0.0
hardest 5.14050866542e-05
peddling 0.0
divisive 7.50413942961e-05
strongly 0.0
vision 0.000123759710114
investigations 0.0
repeatedly 0.0
records 0.0
madeleine 0.0
disabled 0.000266519082495
quoting 0.000199889311871
assassination 0.0
beaten 0.0
deeply 0.000135063496983
grievance 0.0
contempt 0.000230185219343
standards 0.0
fairness 0.000197210530134
dictated 0.0
consensus 0.0
reconsider 0.0
priority 5.37786776228e-05
rogers 0.0
freedoms 0.0
notorious 0.0
invested 0.0
propaganda 0.000132657866671
unconstitutional 0.0
condemn 7.23148760176e-05
concerned 4.47442760316e-05
praising 0.0
cheered 0.0
realdonaldtrump 0.0
despicable 0.0
straightforward 0.0
bargain 7.62969686868e-05
attorney 0.0
bedrock 0.0
optimism 0.0
belongs 0.0
truman 0.0
whichever 0.0
inappropriate 0.0
beatings 0.0
optimistic 0.0
campaigned 0.0
allies 6.51570895303e-05
governor 0.0
attempts 0.0
extent 0.0
denial 0.0
maximum 0.0
merely 0.0
apprenticeships 0.0
agreeing 0.0
architect 8.6529711653e-05
responsibility 9.17375189076e-05
mainstream 0.0
legitimacy 0.0
injustice 0.0002158388962
dozens 0.0
donnell 0.000101794754118
scenario 0.0
crimes 6.19114136317e-05
thoughtful 5.17573341191e-05
hypocrisy 0.000223905452712
undocumented 0.0
sexually 0.0
richest 0.0
softening 0.0
implies 0.0
infrastructure 0.0
pitching 0.0
broadband 0.0
tenants 0.0
allegations 6.85064711589e-05
bloomberg 0.0
insulting 0.000214747618772
liberal 0.0
kremlin 0.0
podium 0.0
provoke 0.0
outrageous 6.66297706237e-05
campaigns 0.000135733475479
barriers 6.78667377397e-05
powell 0.0
technical 5.83235530551e-05
warnings 0.0
flagged 0.0
grassroots 0.0
extremist 0.0
businesses 5.47483638234e-05
welcomes 0.000333148853118
deputy 6.63289333353e-05
donating 0.0
continually 0.0
ourselves 6.60313136197e-05
fringe 7.71666387825e-05
politician 0.000222196804787
wiggins 0.0
welcomed 0.000125903606294
rallies 0.0
ballot 5.81000403823e-05
failing 0.000199491713703
uniting 0.0
refuses 0.000237875464282
appealing 0.0
proverb 0.0
privileges 0.000107737918655
ideals 0.0
vibrant 0.0
tarmac 0.0
residents 6.09085238987e-05
apprenticeship 0.0
denying 6.9831825363e-05
fierce 0.0
opponents 0.0
polling 0.000359643146696
apology 5.24754947035e-05
damning 8.35978258139e-05
outline 0.0
endorses 0.0
losers 0.0
insulted 0.0
equipped 0.0
battlefield 0.0
recession 0.0
endorsed 0.0
divides 0.0
describes 0.0
appointed 0.0
encourage 9.46828810943e-05
undermine 0.000149270301808
undermining 0.0
authority 0.0
betray 0.0
funnyordie 0.0
donated 0.0
jimmykimmellive 0.0
immigrant 0.0
criminals 0.0
automatically 0.0
schooled 0.0
elizabethforma 0.0
releasing 0.0
connects 0.0
screening 0.000107939860918
cleaner 0.0
nowthisnews 0.0
sophiabush 0.0
chelseaclinton 0.0
stunts 0.0
truths 0.0
transparency 0.0
obamacare 0.0
nickkristof 0.0
contraception 0.0
betting 0.0
conscience 7.62969686868e-05
proclaimed 0.0
dispatch 0.0
advocate 0.0
profits 0.0
toward 0.0
guiding 0.0
senators 0.0
barber 0.0
doubled 0.0
mosque 0.0
senate 0.0
louisiana 0.0
senwarren 0.0
parenthood 0.0
organizations 0.0
generations 5.53468208274e-05
minorities 0.0
misogyny 0.000167195651628
peacefully 0.0
decency 0.0
intend 7.23148760176e-05
discourse 0.0
pennsylvania 0.0
katiemcgintypa 0.0
experiencing 0.0
mccain 0.0
scandal 0.000161336032868
constitution 6.40326061081e-05
sensanders 0.0
intolerable 0.0
strive 0.0
forefathers 0.0
abandon 0.0
buzzfeednews 0.0
paulkrugman 0.0
mothers 0.0
compassion 0.000191275333499
deeper 0.0
governments 7.08689831059e-05
activism 0.0
jamilsmith 0.0
mike_pence 0.0
elizabethbanks 0.0
empathy 0.0
audited 0.0
checkers 0.0
warming 0.0
volunteering 0.00018246925762
charitable 0.0
qualifications 0.0
workplace 0.0
granddaughter 0.0
recycled 0.0
directing 0.0
politifact 0.0
abolish 0.000169467573456
murders 0.0
reagan 0.0
pouring 0.0
ballots 0.0
racists 7.67284064476e-05
empower 0.0
tolerate 0.0
chrismurphyct 0.0
igorvolsky 0.000101794754118
outraged 0.0
exceptional 0.0
nightmares 0.0
enforcement 0.0
weaken 0.0
medicaid 0.0
humbly 0.0
newsweek 0.0
conflicts 0.0
suffer 0.0
dallasnews 0.0
bridges 0.0
lesdoggg 0.0
appalling 0.000280693069662
hatred 5.92360012962e-05
superpower 0.0
goodbye 4.37962999488e-05
renewable 0.0
robdelaney 0.0
motherjones 0.0
trusted 0.0
sheriff 0.0
personalized 0.0
amnesia 0.0
malala 8.91201554395e-05
problema 0.0
everytown 0.0
casting 0.0
employers 7.26884007957e-05
rudolph 0.0
packets 0.0
organization 0.0
graceful 0.0
hardworking 0.0
cherished 0.0
aggressively 0.0
founding 0.0
sacred 0.0
horrific 0.000231513234824
earned 9.84362821648e-05
siding 0.0
minded 0.000137012942318
contribute 5.81000403823e-05
incites 0.0
chooses 7.34508369315e-05
obtained 0.0
defended 0.0
champion 8.86680798628e-05
magazines 0.0
waited 5.83235530551e-05
punished 0.0
conviction 0.0
tradition 0.0
giveaways 0.0
distracted 0.0
endorsing 0.0
pathetic 0.0
ladygaga 0.0
pessimistic 0.0
highlighting 7.19462987332e-05
transgender 0.0
womensmarch 0.0
advisors 0.0
wrecking 0.0
hillaryforva 0.0
registration 6.01793858142e-05
ellemagazine 0.0
acceptance 6.04203152686e-05
defeated 6.57368433782e-05
theroot 0.0
pharrell 0.0
tumblr 0.0
nevada 0.0
illinois 0.0
massachusetts 0.0
theadvocatemag 0.0
lending 0.0
rejecting 0.0
legalize 0.0
conned 0.0
arkansas 0.0
celebratin 0.0
rubber 0.0
lenadunham 0.0
hateful 0.000150082788592
wizard 0.0
unbearable 0.0
harpersbazaarus 0.0
familia 0.0
iamwill 0.0
retweets 0.0
nominating 0.0
vietnam 0.0
laurie 0.0
claimed 0.000119881048899
rapids 0.0
devoted 7.26884007957e-05
casino 0.0
astounding 0.0
summon 0.0
crushed 5.67954024853e-05
louder 0.0
farmers 0.0
lin_manuel 0.0
arrangement 0.0
borrowed 0.0
mariska 0.0
purposes 0.0
dialogue 0.0
comedian 0.0
________ 0.0
lightly 0.0
defeating 0.0
jerusalem 0.0
cynical 0.0
worrying 0.000115756617412
elizabeth 0.0
insults 0.0
microphone 0.0
sleeves 0.0
theeconomist 0.0
stakes 0.0
nationally 0.0
inspect 0.0
poisoning 0.0
columbus 0.0
declaring 0.0
crushing 0.0
chucktodd 0.0
soldier 0.0
painted 0.0
warned 0.000280826631255
ohiostate 0.0
unrelated 0.0
designated 0.0
clears 0.0
congressional 0.0
confront 0.0
usatoday 0.0
delivers 0.000120358771628
pittsburgh 0.0
entiende 0.0
soaked 0.0
bromance 0.0
lifelong 0.0
antiques 0.0
repjohnlewis 0.0
breakers 0.0
fundraising 0.0
hispanic 0.0
defrauded 0.0
fearful 0.0
nytopinion 0.0
volume 0.0
perfecting 0.0
washingtonpost 0.0
affordable 0.0
mighty 0.0
normalizing 0.0
boasting 0.0
assaulting 0.0
disqualify 0.0
monique 0.0
jcolenc 0.0
teamusa 0.0
allysonfelix 0.0
usabasketball 0.0
ibtihaj 0.0
simone 0.0
feminism 0.0
conversion 0.0
destiny 0.0
disrespected 0.0
serenawilliams 0.0
tantrum 0.0
heinous 0.0
unconscious 0.0
accomplishments 0.0
saddened 0.0
disgrace 0.000139663650726
rodriguez 0.0
arsenal 0.0
defender 7.38400345786e-05
malalafund 0.000115305066601
merchandise 0.0
laundry 7.38400345786e-05
lesbians 0.000128383941322
cnnpolitics 0.0
nickgass 0.0
examining 0.0
monument 0.0
appeals 0.0
gracias 0.0
madame 0.0
grande 0.0
speechless 0.0
coulter 0.0
missiles 0.0
psyched 0.0
chelsea 0.0
biases 0.0
resume 0.0
spectator 0.0
angelina 0.0
spectacle 0.0
admiration 0.0
reaches 0.0
español 0.0
dreamers 0.0
mañana 0.0
bursting 0.0
undone 0.0
beyoncé 0.0
nuestra 0.0
diwali 0.0
prestigious 0.0
cynicism 0.0
disability 7.80643675427e-05
registering 8.59181007002e-05
booker 0.0
méxico 0.0
disponible 0.0
honduras 0.0
famously 0.0
overdue 0.0
equity 0.0
opioid 0.0
millennials 0.0
recommendations 0.0
investors 0.0
betrays 0.0
patriotism 0.0
liability 0.0
iranian 0.0
delegate 9.97325383751e-05
struck 0.0
millennial 0.0
dictators 0.0
graduate 0.0
analysts 0.0
victor 0.0
shrink 0.0
dictator 0.0
poised 0.00015174423604
avoided 7.19462987332e-05
rallying 0.0
catholic 0.000221520103736
thriving 0.0
racially 0.0
undermines 8.71550678163e-05
yashar 0.0
inequality 0.000336206907882
medicare 0.0
missionaries 0.0
foremost 0.0
deplorable 0.0
demonize 0.0
wikileaks 0.0
enduring 0.0
privatized 0.0
appoint 0.0
losses 5.85488755667e-05
jbarro 0.0
buffett 0.0
staffers 0.0
takeaway 0.0
moscow 0.0
hampshire 8.14562172118e-05
pandering 0.0
voxdotcom 0.0
reckoning 0.0
moines 0.0
falter 0.0
countless 0.0
democrat 0.0
bostonglobe 0.0
accountable 0.0
dispel 0.0
despair 0.0
persisted 0.0
disclose 0.0
tedcruz 0.0
flooding 0.000143165079181
prejudice 0.0
towers 0.0
criticized 0.0
senatemajldr 0.0
outsider 0.0
declare 6.57368433782e-05
dismantle 0.0
thrive 0.0
threaten 6.43094957374e-05
outsourced 0.0
loophole 0.0
heerjeet 0.0
verbal 0.0
businessinsider 0.0
ukraine 0.0
vladimir 8.04442082986e-05
businessman 0.0
supremacist 0.0
etched 0.0
zekejmiller 0.0
momentarily 0.0
perpetrators 0.0
mocking 0.0
wrecked 0.0
identities 0.0
inhumane 0.00010288615589
disavow 0.0
hostile 7.05189510925e-05
muster 0.0
surrender 0.0
shatter 0.0
patriotic 0.0
rewarded 0.0
jitters 0.0
bullies 0.0
discipline 0.0
forgets 0.0
expand 0.0
apologized 0.0
tournament 0.0
grindstone 0.0
mastery 0.0
provider 0.0
steroids 0.0
jenniferjjacobs 0.0
notion 0.0
hernandez 0.0
mcuban 0.0
bullied 7.62969686868e-05
jebbush 0.0
discriminating 0.0
somali 0.0
hayden 0.0
limitless 0.0
implement 0.0
nydailynews 0.0
corybooker 0.0
interference 0.0
listens 7.94677158907e-05
preside 0.0
remembers 0.0
toughness 0.0
extensively 0.0
suffered 6.26880364505e-05
streep 0.0
billionaire 0.0
cheats 0.0
needing 7.08689831059e-05
percentage 6.37584444998e-05
insiders 0.0
binder 0.0
prescriptions 0.000215475837311
slashed 0.000106443397893
indebted 0.000121083084195
dismisses 0.000105206430777
delegates 0.000334391303256
pledged 0.000231499916347
endured 9.87560459673e-05
deployed 8.53196436962e-05
suspense 9.19767308722e-05
courageously 0.000121083084195
resilience 8.14562172118e-05
nationalists 0.000192033473048
autonomy 0.000113618054449
abandoning 9.12346288098e-05
canvas 0.000249140323729
blacks 9.12346288098e-05
pledging 9.27391670081e-05
elaine 9.05118043221e-05
methodist 0.000256767882644
candidacy 9.51604480965e-05
bonuses 9.19767308722e-05
resolve 7.05189510925e-05
laughable 0.000100744547288
scares 8.84495885788e-05
intellect 9.51604480965e-05
hopeless 8.53196436962e-05
debunked 9.60167365241e-05
shames 0.000224054994169
connections 6.51570895303e-05
tyleroakley 0.0
perplexed 0.0
ddlovato 0.0
impromptu 0.0
teenvogue 0.0
unveils 0.0
billie 0.0
prouder 0.0
sweetness 0.0
cheryl 0.0
filipino 0.0
petersburg 0.0
drastic 0.0
lifesaving 0.0
decorated 0.0
usagym 0.0
freestyle 0.0
absentee 0.0
lashes 0.0
concentration 0.0
refuge 0.0
renaissance 0.0
actively 0.0
monitoring 0.0
destined 0.0
willfully 0.0
detained 0.0
warmest 0.0
heroic 0.0
bragged 0.0
miners 0.0
shareholders 0.0
randall 0.0
excessive 0.0
geneva 0.0
corporations 0.0
unsolvable 0.0
grandchildren 0.0
discredit 0.0
enormously 0.0
frances 0.0
pillar 0.0
trillions 0.0
expansive 0.0
organize 0.0
capabilities 0.0
confederate 0.0
shakers 0.0
ambiguity 0.0
linking 0.0
pretends 0.0
wireless 0.0
inherit 0.0
paranoia 0.0
theatlantic 0.0
languages 0.0
disposable 0.0
reinforcing 0.0
integrated 0.0
optimist 0.0
pigeons 0.0
chadhgriffin 0.0
katieledecky 0.0
richards 0.0
demconvention 0.0
abcpolitics 0.0
chobani 0.0
dominiclowell 0.0
floridians 0.0
cecilerichards 0.0
clintonfdn 0.0
billclinton 0.0
grounded 0.0
abilities 0.0
grandfather 0.0
profoundly 0.0
fiercely 0.0
drowning 0.0
astound 0.0
alzheimer 0.0
responders 0.0
peacecorps 0.0
nygovcuomo 0.0
hurricanes 0.0
approximately 0.0
daunting 0.0
organizer 0.0
ingenuity 0.0
illnesses 0.0
intruders 0.0
invading 0.0
harmful 0.0
foundations 0.0
skateboards 0.0
housekeeping 0.0
dangerously 0.0
renters 0.0
predatory 0.0
rebuke 0.0
jengranholm 0.0
supremacy 0.0
linger 0.0
adamserwer 0.0
clevelanddotcom 0.0
repadamschiff 0.0
fahrenthold 0.0
revoke 0.0
advising 0.0
strengthening 0.0
colleges 0.0
deniers 0.0
aspire 0.0
exceed 0.0
lebassett 0.0
shrugged 0.0
stewardship 0.0
complains 0.0
temperament 0.0
texasinafrica 0.0
americorps 0.0
latino 0.0
payoffs 0.0
protested 0.0
honorable 0.0
fathom 0.0
inconvenience 0.0
johnkasich 0.0
latinos 0.0
votevets 0.0
unsurprising 0.0
loopholes 0.0
dismal 0.0
unqualified 0.0
rigorous 0.0
mittromney 0.0
joyannreid 0.0
theorist 0.0
evan_mcmullin 0.0
discriminate 0.0
ezraklein 0.0
obsessively 0.0
desperation 0.0
latina 0.0
tammyforil 0.0
pantsuit 0.0
superior 0.0
exonerated 0.0
johnpodesta 0.0
recites 0.0
supremacists 0.0
affront 0.0
electing 0.0
defund 0.0
demeans 0.0
govpencein 0.0
squandered 0.0
machado 0.0
pneumonia 0.0
unhinged 0.0
criticizes 0.0
derailment 0.0
iceberg 0.0
epipens 0.0
generals 0.0
timkaine 0.0
provocation 0.0
paulbegala 0.0
clintinfdn 0.0
wesleylowery 0.0
childdefender 0.0
dictatorship 0.0
ceasefire 0.0
stamped 0.0
intimidation 0.0
casinos 0.0
manifest 0.0
restrict 0.0
transformation 0.0
battleground 0.0
christine 0.0
touted 0.0
mcconnell 0.0
deflect 0.0
expressing 0.0
commonsense 0.0
statesman 0.0
mcbride 0.0
tumble 0.0
bigoted 0.0
belonged 0.0
praised 0.0
policeman 0.0
booing 0.0
cathedral 0.0
tomperez 0.0
keithellison 0.0
knowingly 0.0
wealthiest 0.0
backward 0.0
pretended 0.0
thedemocrats 0.0
psychologists 0.0
americ 0.0
successor 0.0
diplomats 0.0
congratulated 0.0
devotion 0.0
remembrance 0.0
eligible 0.0
incoherent 0.0
exhaustive 0.0
downgraded 0.0
unified 0.0
embraces 0.0
galling 0.0
senatorreid 0.0
lifetimes 0.0
demagogue 0.0
rodham 0.0
temper 0.0
longtime 0.0
vetoing 0.0
janelle 0.0
voguemagazine 0.0
dominique 0.0
surpassed 0.0
associates 0.0
demonstrating 0.0
morning_joe 0.0
bazaar 0.0
consequential 0.0
undressed 0.0
entrepreneurial 0.0
billionaires 0.0
prescription 0.0
senseless 0.0
refresher 0.0
classmates 0.0
maturity 0.0
comentarios 0.0
risked 0.0
invincible 0.0
vigilant 0.0
emissions 0.0
recommit 0.0
voiceless 0.0
natlparkservice 0.0
workplaces 0.0
mayaharris_ 0.0
dhsgov 0.0
cyberattacks 0.0
maxinewaters 0.0
jerrybrowngov 0.0
discriminates 0.0
thejusticedept 0.0
simone_biles 0.0
sotomayor 0.0
traumatic 0.0
scammed 0.0
dreamer 0.0
fulfill 0.0
latinas 0.0
discouraged 0.0
usnavy 0.0
oftentimes 0.0
reprehensible 0.0
demeaning 0.0
ratified 0.0
emilyslist 0.0
lawsuits 0.0
nonviolent 0.0
caucus 0.0
joebiden 0.0
joyful 0.0
privatize 0.0
barbaraboxer 0.0
sengillibrand 0.0
camino 0.0
familias 0.0
americaferrera 0.0
universidades 0.0
gabbygiffords 0.0
shuttlecdrkelly 0.0
fulton 0.0
shimon 0.0
hablar 0.0
fuerza 0.0
trickle 0.0
refinance 0.0
shattering 0.0
damián 0.0
gouging 0.0
moveon 0.0
simone_manuel 0.0
revdrbarber 0.0
senatorbarb 0.0
cnbcnow 0.0
stiffed 0.0
mikebloomberg 0.0
solver 0.0
thrower 0.0
granddaughters 0.0
changemaker 0.0
clairecmc 0.0
anastasiasomoza 0.0
defunding 0.0
preyed 0.0
aspirations 0.0
fannie 0.0
mubarak 0.0
buzzfeedben 0.0
probed 0.0
marines 0.0
projecting 0.0
outsourcing 0.0
developers 0.0
crimea 0.0
everyo 0.0
chaser 0.0
dubious 0.0
diplomatic 0.0
rosiegray 0.0
unpatriotic 0.0
multifaceted 0.0
myanmar 0.0
adamparkhomenko 0.0
tjmshow 0.0
tenant 0.0
perjury 0.0
contractual 0.0
surrounds 0.0
exceeded 0.0
thrives 0.0
unclerush 0.0
sailors 0.0
stereotypes 0.0
librarycongress 0.0
acknowledging 0.0
philippe 0.0
battled 0.0
postopinions 0.0
ambassadorrice 0.0
shockingly 0.0
mcfaul 0.0
presid 0.0
poisons 0.0
kenvogel 0.0
johndingell 0.0
harnessing 0.0
unwritten 0.0
bewildering 0.0
moonshot 0.0
apologizing 0.0
oligarchs 0.0
espionage 0.0
marcorubio 0.0
desecration 0.0
brianefallon 0.0
bangladesh 0.0
twittermoments 0.0
officialcbc 0.0
thefix 0.0
urgency 0.0
traceeellisross 0.0
andradaymusic 0.0
impeccably 0.0
catastrophe 0.0
tallest 0.0
anastasia 0.0
azcentral 0.0
marrying 0.0
moderates 0.0
resembles 0.0
paraphrase 0.0
applauds 0.0
heavier 0.0
virginians 0.0
railing 0.0
eloquently 0.0
denverpost 0.0
independents 0.0
americanos 0.0
hispanos 0.0
bailouts 0.0
divisiveness 0.0
jmpalmieri 0.0
hardballchris 0.0
republicano 0.0
candidato 0.0
phillyinquirer 0.0
jesserodriguez 0.0
militarytimes 0.0
sunsentinel 0.0
ryanlizza 0.0
bretbaier 0.0
thelastword 0.0
hillaryclinto 0.0
maddowblog 0.0
boundless 0.0
enacting 0.0
gettysburg 0.0
groping 0.0
govchristie 0.0
justices 0.0
watchdogs 0.0
cavalier 0.0
succeeds 0.0
retirees 0.0
pocketed 0.0
multimillionaire 0.0
redcross 0.0
evalongoria 0.0
highways 0.0
marlee 0.0
primero 0.0
pianos 0.0
bribed 0.0
scranton 0.0
wellesley 0.0
perkins 0.0
onward 0.0
algore 0.0
candidly 0.0
trajectory 0.0
quitter 0.0
objectifying 0.0
ignoramus 0.0
disillusioned 0.0
asinine 0.0
vibrancy 0.0
arpaio 0.0
testifying 0.0
chairmen 0.0
luchar 0.0
disrupted 0.0
podemos 0.0
settlements 0.0
massacres 0.0
millones 0.0
eagerly 0.0
grandmas 0.0
dedicado 0.0
seeming 0.0
pragmatic 0.0
hashanah 0.0
porque 0.0
unidos 0.0
nuestras 0.0
primera 0.0
debemos 0.0
muchos 0.0
cuando 0.0
nuestro 0.0
inteligente 0.0
rapists 0.0
agosto 0.0
presidente 0.0
puedes 0.0
mujeres 0.0
safeguarding 0.0
indecent 0.0
motions 0.0
strengthened 0.0
eminently 0.0
innuendo 0.0
memorandum 0.0
reuterspolitics 0.0
educates 0.0
mexicana 0.0
disparage 0.0
absurdity 0.0
backdoor 0.0
affording 0.0
hardline 0.0
steelworkers 0.0
demean 0.0
immigrate 0.0
thuggish 0.0
astrid 0.0
jesuit 0.0
governorship 0.0
waterboarding 0.0
personas 0.0
stephenson 0.0
huracán 0.0
firefighter 0.0
ravages 0.0
marleematlin 0.0
scrolling 0.0
tarnish 0.0
ajentleson 0.0
roanoke 0.0
heaping 0.0
carpentry 0.0
forcefully 0.0
frankiejgrande 0.0
aprildryan 0.0
unjustified 0.0
yamiche 0.0
evacuate 0.0
disrespects 0.0
incomprehensible 0.0
jogger 0.0
vindicated 0.0
blazed 0.0
cambodia 0.0
revolutionize 0.0
welding 0.0
unbeatable 0.0
polished 0.0
saddled 0.0
interdependence 0.0
alleys 0.0
civility 0.0
vilified 0.0
disagreeable 0.0
terence 0.0
bluster 0.0
incredib 0.0
holton 0.0
hillaryforpa 0.0
hillaryforco 0.0
jes_chastain 0.0
vitalvoices 0.0
indictments 0.0
evokes 0.0
reaffirming 0.0
rebukes 0.0
minerva 0.0
peddle 0.0
starker 0.0
cascading 0.0
carolinians 0.0
señora 0.0
honrado 0.0
missionary 0.0
ranchers 0.0
denveropinion 0.0
practicality 0.0
thoughtfulness 0.0
scripture 0.0
pueblo 0.0
morningmoneyben 0.0
smalls 0.0
exemplify 0.0
eviscerated 0.0
jeffflake 0.0
helpless 0.0
sarahemcbride 0.0
indivisible 0.0
colinjones 0.0
mrjoshcharles 0.0
houstonchron 0.0
thoroughness 0.0
isolde 0.0
wonkiest 0.0
equate 0.0
dustbin 0.0
estados 0.0
newrepublic 0.0
expresses 0.0
demonizing 0.0
jeffbezos 0.0
discard 0.0
befriending 0.0
slovenia 0.0
unrelenting 0.0
salmahayek 0.0
revolves 0.0
anselm 0.0
dwells 0.0
usairforce 0.0
deride 0.0
repackaging 0.0
earmarked 0.0
evader 0.0
passpor 0.0
awaited 0.0
guterres 0.0
precinct 0.0
presidencia 0.0
unshakable 0.0
marshablackburn 0.0
comunidad 0.0
merecen 0.0
juntos 0.0
infomercial 0.0
johnstown 0.0
statewide 0.0
skyscrapers 0.0
phillydotcom 0.0
deducted 0.0
laguardiacc 0.0
annieslisttx 0.0
nickmerrill 0.0
leaninorg 0.0
missbeae 0.0
minassianmedia 0.0
natarsha 0.0
foments 0.0
ruline 0.0
steininger 0.0
michaelnutter 0.0
harren 0.0
louisa 0.0
cannell 0.0
robbymook 0.0
broward 0.0
hillaryforfl 0.0
jeanneshaheen 0.0
ericasmegs 0.0
jeremyshorr 0.0
turpin 0.0
rubycramer 0.0
singularly 0.0
joshschwerin 0.0
clionamccarney 0.0
xochitlhinojosa 0.0
adamsmith_usa 0.0
humayun 0.0
jamestaylor_com 0.0
hillaryformn 0.0
ericwms 0.0
dougmillsnyt 0.0
jencarlosmusic 0.0
hannahbfine 0.0
creynoldsnc 0.0
lefsadventures 0.0
pembroke 0.0
perceptiveness 0.0
hillaryforaz 0.0
fayetteville 0.0
entrust 0.0
daveeddiggs 0.0
petewilliamsnbc 0.0
hillary_esp 0.0
ustedes 0.0
nación 0.0
creativa 0.0
bilingües 0.0
multilingües 0.0
contribuyen 0.0
diversidad 0.0
economía 0.0
hillaryforia 0.0
estaré 0.0
discurso 0.0
síganme 0.0
detall 0.0
hopewell 0.0
temperamentally 0.0
redone 0.0
barging 0.0
machadooficial 0.0
mikereedschmidt 0.0
franklinfoer 0.0
eamonjavers 0.0
hillaryforoh 0.0
hustling 0.0
relishes 0.0
markkirk 0.0
asmamk 0.0
just_jenna 0.0
discrimina 0.0
samifayebaker 0.0
padded 0.0
wigazette 0.0
phillytrib 0.0
trivializes 0.0
condones 0.0
ellisoncampaign 0.0
barb_kinney 0.0
theriveterspod 0.0
humiliates 0.0
nickmarroletti 0.0
alli_wilber 0.0
brespolitico 0.0
jasoncherkis 0.0
sean_p_thomas 0.0
outclassed 0.0
outmaneuvered 0.0
belittling 0.0
familie 0.0
yuuuuuuge 0.0
disqualifying 0.0
brynnecraig 0.0
buffywicks 0.0
lasvegassun 0.0
cmichaelhuntley 0.0
civically 0.0
raquelwillis_ 0.0
celebramos 0.0
trayectoria 0.0
pionera 0.0
breakups 0.0
rosenbergerlm 0.0
heraldleader 0.0
jaylon 0.0
decisi 0.0
antónio 0.0
squander 0.0
presidenta 0.0
protegerá 0.0
astrid_nv 0.0
sltrib 0.0
peter_j_k 0.0
brosandprose 0.0
nicholaskitchel 0.0
mahoning 0.0
omerizer 0.0
kendallybrown 0.0
davidnakamura 0.0
chatima 0.0
tammybaldwin 0.0
mpshapiro 0.0
responsibilit 0.0
overgrown 0.0
literally_trump 0.0
imploded 0.0
rnicholasburns 0.0
disastrously 0.0
stiffing 0.0
globeopinion 0.0
degradi 0.0
languishing 0.0
demostrar 0.0
poderosa 0.0
iammarleydias 0.0
tbtimes_opinion 0.0
disloyalty 0.0
defende 0.0
vegalteno 0.0
moodysinvsvc 0.0
decisiveness 0.0
whethe 0.0
preocupada 0.0
trayecto 0.0
afectados 0.0
ayotte 0.0
empathize 0.0
lifelo 0.0
lorellapraeli 0.0
ironworking 0.0
ebeling 0.0
contribuido 0.0
ejército 0.0
inmigrantes 0.0
indocumentados 0.0
enquirer 0.0
delega 0.0
roadshow 0.0
sunsentinelopinion 0.0
resulta 0.0
insultar 0.0
construir 0.0
muralla 0.0
provoked 0.0
discretion 0.0
sdutideas 0.0
merece 0.0
respeto 0.0
enfrentar 0.0
valentía 0.0
ataques 0.0
descaro 0.0
culparla 0.0
petulance 0.0
ninhaitseng 0.0
flippantly 0.0
posteverything 0.0
_vicentefdez 0.0
azcopinions 0.0
aumentó 0.0
andrewjenks 0.0
imwithher 0.0
diferencias 0.0
onevoxdotcom 0.0
ignite_national 0.0
endorsin 0.0
mercersdairy 0.0
everyvoice 0.0
rachaelgass 0.0
galifianakis 0.0
crutcher 0.0
nyledimarco 0.0
mistreat 0.0
wellsfargo 0.0
templeuniv 0.0
sollender 0.0
honremos 0.0
tantas 0.0
contribuciones 0.0
aleatha 0.0
endeavored 0.0
legitimize 0.0
además 0.0
whistles 0.0
ugliness 0.0
jorge_silva 0.0
dnclatinos 0.0
libnofcongress 0.0
unscrupulously 0.0
contractually 0.0
impulsively 0.0
qaddafi 0.0
cancelable 0.0
cnbcopinion 0.0
jbrotherston 0.0
_bxddxss 0.0
sspiderboy 0.0
collegedems 0.0
veered 0.0
charitynav 0.0
usnewsopinion 0.0
humansofny 0.0
unfitness 0.0
steadiness 0.0
nbcusa_inc 0.0
verdadera 0.0
encuentra 0.0
hacemos 0.0
anuncio 0.0
unpresidential 0.0
unfavorably 0.0
heridas 0.0
visibles 0.0
veteranos 0.0
cuidado 0.0
panetta 0.0
experiencia 0.0
confío 0.0
exsecretario 0.0
comercio 0.0
lizromanoff 0.0
americasvoice 0.0
davidleopold 0.0
rebuked 0.0
criminalize 0.0
mentiré 0.0
inmigración 0.0
demonizar 0.0
americanlegion 0.0
sarasolow 0.0
qumber 0.0
zerlinamaxwell 0.0
hillaryforut 0.0
hillaryforga 0.0
grandtetonnps 0.0
marlondmarshall 0.0
mariatcardona 0.0
escuchamos 0.0
claramente 0.0
demonizando 0.0
segunda 0.0
tercera 0.0
rhettbuttle 0.0
hillaryformi 0.0
futuramics 0.0
louisianans 0.0
claressashields 0.0
helen_maroulis 0.0
bri_rollin 0.0
itspooda 0.0
kristihollywood 0.0
meredeetch 0.0
kersee 0.0
rodhams 0.0
bidens 0.0
possibilitie 0.0
maulama 0.0
akonjee 0.0
shotdiva 0.0
auriemma 0.0
maxlinsky 0.0
cowering 0.0
moratory 0.0
hillarycl 0.0
repudiate 0.0
fencer 0.0
bankruptcies 0.0
warrenbuffett 0.0
bishopgarrison 0.0
ajazzyworld 0.0
morell 0.0
starkest 0.0
braille 0.0
frankmugisha 0.0
confiar 0.0
distinguido 0.0
herencia 0.0
harkening 0.0
impulses 0.0
dakota_meyer 0.0
kauveri 0.0
iafftreg 0.0
laurawalkerkc 0.0
jakesherman 0.0
benediction 0.0
denigrates 0.0
ann_oleary 0.0
liberates 0.0
bombast 0.0
repcleaver 0.0
throwed 0.0
luchado 0.0
derechos 0.0
humanos 0.0
trabajadores 0.0
relent 0.0
aprendí 0.0
valores 0.0
trabajo 0.0
mismos 0.0
annella 0.0
drbiden 0.0
expedient 0.0
imangelabassett 0.0
smegielski 0.0
leinonen 0.0
driffin 0.0
buckles 0.0
insatiably 0.0
sybrina 0.0
mcbath 0.0
dontre 0.0
randibrazeau 0.0
sjbxtr 0.0
malcolmkenyatta 0.0
lankford 0.0
countrymen 0.0
countrywomen 0.0
refiere 0.0
separar 0.0
valiente 0.0
strongmen 0.0
seremos 0.0
compañeros 0.0
bienvenidos 0.0
dauntless 0.0
governorva 0.0
sherrodbrown 0.0
vicepresidencia 0.0
ilyseh 0.0
gunsense 0.0
encantada 0.0
anunciar 0.0
splintering 0.0
albamonica 0.0
criminologist 0.0
construiremos 0.0
discriminatio 0.0
endorser 0.0
sniveling 0.0
ryanegraney 0.0
baptize 0.0
convención 0.0
republicana 0.0
