chatting 0.0
trying 0.000208366999477
launch 0.000255490542714
moment 0.000139662272846
wonderful 2.60060983619e-05
seeing 9.51385017813e-05
recommend 6.8919524568e-05
anybody 0.000923150044475
podcast 0.000170775267299
challenges 3.88409988048e-05
worked 2.50372212062e-05
direct 0.0
others 0.000672356599523
currently 5.50817709108e-05
better 0.000549686611136
please 0.000301786961619
travels 0.000201341336586
social 0.000181548619539
around 0.000916144351894
people 0.00329811966682
leaving 0.000157314940346
morning 0.000529630484961
general 0.000118714094771
overall 0.0
damage 3.77530239303e-05
affect 0.000159413911416
everything 0.000391466010623
twitter 0.000692686981418
present 0.000131095783621
though 0.000383646495864
friend 0.000208366999477
watched 7.80182950856e-05
beautiful 0.000118602796825
anything 0.000514863575499
practice 0.0
helped 0.000100965660831
helpful 0.0
revive 0.0
updated 3.6601846529e-05
thinking 0.000564706305417
finally 0.000117647146962
caught 7.78065512311e-05
believe 0.000344481404134
already 0.00029855055025
orlando 7.84309061316e-05
depends 6.8919524568e-05
chance 0.000115137061948
meaning 0.000102163134283
annual 0.000340542266363
renewed 0.0
growing 0.0
probably 0.000199756472741
should 6.08756577597e-05
changed 0.000172439503316
history 0.000284646712379
center 0.000422546879636
museum 7.99664873801e-05
behind 0.000229036087974
pretty 0.000117647146962
really 0.000506603072571
expensive 3.95961312275e-05
little 0.000321515977192
earlier 0.00026944014967
forget 0.00014003928722
paperwork 0.0
someone 0.00023214381663
mostly 0.000174883978624
worker 0.0
safety 6.67235511875e-05
program 0.000224254825949
things 0.00100775878708
electrical 7.76396044712e-05
visiting 3.17621057123e-05
available 2.39132977433e-05
perfect 9.59116239659e-05
different 0.000421252016317
search 0.00024626840235
connect 0.0
numbers 0.00017270051844
person 0.000531060019087
watching 0.000138911332984
passed 0.000168457317283
minutes 0.000380554007125
daughter 0.000139226284145
average 0.000494628114285
positive 5.46304646239e-05
outside 4.87388604115e-05
metric 0.000520125311469
looking 0.000321515977192
forward 0.0
raising 3.28795765456e-05
afraid 5.95233169603e-05
impression 8.4619575053e-05
profile 6.29821078481e-05
drawing 0.0
favorite 0.000534482772678
picture 7.35043195314e-05
historic 3.47685796654e-05
instead 0.00108929171724
appreciate 8.12753420929e-05
husband 3.59379273245e-05
international 0.000227731277706
toddler 6.07752340733e-05
couldn 9.59116239659e-05
remember 0.000230274123896
holidays 6.57591530913e-05
friends 0.0003009745548
despite 0.0
understood 0.000131855374229
impossible 3.13121185702e-05
everyone 0.000391466010623
florida 6.79082866449e-05
always 0.00109937322227
months 0.000384683152116
moving 0.000247677638771
meeting 4.71859246571e-05
google 0.000202605098425
answer 0.000235929623285
together 0.000138537396284
included 0.0
inside 0.00016784534194
section 0.000106196982051
missed 0.000163379168423
button 0.0
active 3.70553981578e-05
longer 0.000372102057698
enough 0.00079141954613
projects 0.0
driving 0.000140768638018
building 0.000155190915793
enjoying 8.44611828108e-05
kennedy 0.00018698549642
tantrums 0.0
apparently 0.000356142284313
recent 0.000152189144399
gotten 3.84725681987e-05
amazing 6.88962808269e-05
determined 0.0
attention 0.000156461386963
progress 6.38892111056e-05
tomorrow 9.21096495584e-05
whenever 0.000151485556388
curious 0.00102485170281
george 8.5873098786e-05
feeling 0.000144646030965
excited 0.0
campaigning 0.0
understand 0.000175735586603
learning 0.000199816762725
special 0.000116071908315
secret 2.57950036989e-05
across 0.000591676586108
comparison 4.30415944689e-05
surprised 0.000137327102244
anymore 0.0
spirited 0.0
precious 0.0
rejoice 0.0
rather 0.000827684884229
showing 4.91354621755e-05
saying 0.000480853940145
tweeted 0.000213064802159
updates 6.69188914306e-05
thoughts 0.000439836118503
exactly 0.000273923059065
except 0.000322838666469
getting 0.000184219299117
nothing 0.000667794959298
tweets 0.000710599763317
course 0.000570831010688
photos 0.000167071540974
looked 0.000287627085087
difficult 0.0
office 0.000124510481393
decisions 0.000243380057658
brought 7.65496108195e-05
biggest 2.3720559365e-05
thrilled 0.0
entire 0.000332615879284
something 0.000414493423013
closing 6.85123466194e-05
anyone 0.000208929434967
taking 0.000207246711506
reprint 0.0
flying 0.000434153782339
happening 5.02101676009e-05
sometimes 0.000304542755707
lessons 3.33617755938e-05
village 0.0
stopped 0.000351231122661
yesterday 0.000208929434967
service 0.0
serious 2.46342147594e-05
emails 7.9706955708e-05
wearing 8.10533359986e-05
afford 0.0
either 0.000175735586603
second 0.00085893212153
checking 0.000119380384509
volunteers 0.0
indeed 0.000785035287628
hearing 2.57250689612e-05
choose 0.000216734245581
another 0.000964547931576
address 6.2092619364e-05
display 0.000164741833194
compare 0.0
weekend 0.000186719049626
suggested 0.0
appear 0.000313852059766
anyway 2.97616584802e-05
theory 0.000264271167512
buildings 0.000220364099713
working 4.60548247792e-05
bigger 0.000135088893331
treated 0.0
admired 7.27998636545e-05
retirement 4.39517914098e-05
laughing 0.0
wanted 9.31081818977e-05
current 8.14980678191e-05
grateful 3.00972484957e-05
friendship 0.0
family 6.90822371688e-05
listening 7.57242456232e-05
stream 0.00028504258409
sharing 5.41835613952e-05
double 0.000208615182618
especially 0.000178615758579
middle 0.000370079019295
waiting 4.71859246571e-05
definitely 7.55194442007e-05
walking 2.76165999336e-05
account 0.000108071114665
completely 5.46304646239e-05
thought 0.000325001343281
accept 0.000117723658798
possible 0.000268063732263
simple 0.000133985982296
manufacturing 0.0
destroyed 0.0
members 5.80481806965e-05
supposed 0.000122440149104
manufacturers 7.57029351348e-05
business 7.45044947807e-05
absolutely 4.92684295188e-05
anywhere 0.000245573035784
sending 2.67241386339e-05
introducing 0.0
congrats 9.66913259929e-05
beauty 9.8925622857e-05
community 2.83878380794e-05
greatest 7.55194442007e-05
posted 0.00435848095243
wednesday 5.55375678814e-05
explain 0.000107481952279
broken 0.0
fairly 0.0
closest 0.000395566122688
hoping 5.53851310765e-05
relationship 6.19167757024e-05
actually 0.000802160719171
pockets 0.0
wallet 0.0
pocket 0.000157874136764
argument 0.000106517312824
decent 0.0
school 0.000444654906112
throwback 0.0
thursday 0.000147805288556
talented 3.02669056329e-05
discuss 5.93570473854e-05
celebrate 0.000203579568492
celebrating 5.49308408975e-05
anniversary 0.000139226284145
students 0.000335761483504
corners 0.0
internet 0.000257619296358
figure 0.000220327083643
opened 3.36560444228e-05
inspired 0.000222762054633
latter 5.20326741495e-05
sitting 0.0
playing 4.68057795908e-05
street 0.000255165369398
points 0.000177078923746
advice 2.70177786662e-05
memory 0.000159265869297
forever 5.20121967237e-05
congress 0.00015993297476
imagine 0.000128276735575
problem 7.41026759374e-05
pulling 0.0
furniture 0.0
keeping 7.71752068837e-05
dressed 7.43404069095e-05
chinese 0.000111510610364
unlike 0.000127799131489
allowed 6.05338112658e-05
otherwise 0.00039227404815
afternoon 0.0
planned 0.0
images 0.000162039146488
noticed 0.0
expense 0.0
differences 0.000132790229826
difference 0.000151038888401
editor 0.0
intent 5.36285957928e-05
suppose 0.000265580459651
inspiration 3.15810485734e-05
letting 0.0
system 0.000834719172462
almost 0.000161191886727
details 0.000100692592268
experience 0.000144256182043
living 0.000240426970072
worries 4.05097866219e-05
weather 0.000235447317596
bright 0.000486109806868
understands 4.80041431337e-05
normal 0.0
launching 3.75181130628e-05
backyard 0.0
pointed 0.0
before 0.000149817354556
monday 0.000240426970072
example 0.000121751315519
science 0.00429013145617
tweeting 7.88718567006e-05
forgot 0.000202043538265
disaster 7.05854251579e-05
happens 0.000286186454813
silence 7.25349626763e-05
learned 0.000133256565537
congratulations 0.000126892814878
natural 0.000196137024075
babies 3.58291213773e-05
mission 0.000218562206834
surprising 0.0
reference 0.000311721103278
forgotten 0.0
setting 9.80685120374e-05
appeared 0.000104954836783
reminds 0.000162975280037
fantastic 0.0
loving 2.71660226064e-05
complete 0.0
daniel 0.0
rewarding 0.0
nearly 0.000484270490126
spirit 0.000149225480636
launched 0.000171788707931
finding 8.44611828108e-05
stories 2.49020962786e-05
including 0.000179100858076
wouldn 0.000273183147529
choice 0.000196541848702
offended 0.000102762685608
conversation 0.000839969187041
disrespectful 0.0
making 0.000183723415538
expect 0.000165699599602
traits 0.0
discussion 3.35575341256e-05
believes 0.0
response 5.41835613952e-05
brings 5.55375678814e-05
seasons 0.000130476515388
anytime 3.78713890971e-05
protected 0.0
location 0.000397728125156
needed 0.000122838655439
seriously 7.63423381845e-05
emergency 4.01137489366e-05
justify 0.000158109214605
spending 2.8624366262e-05
groups 0.0
condition 4.21661907627e-05
childhood 7.50362261256e-05
modern 0.000165838380262
welcome 0.000325878636642
moments 5.7248732524e-05
totally 5.3157436814e-05
running 0.000145036988989
strong 0.00014232335619
respond 0.0
message 0.0
coming 0.000206688842481
thankful 0.0
issues 8.23962613463e-05
challenge 5.04828304155e-05
intolerance 7.63304705211e-05
happen 0.000281592866455
giving 9.31081818977e-05
turkey 0.0
excellent 0.000150064444418
limits 8.54921198648e-05
contractors 0.0
common 0.000398529735985
pressed 0.0
healthcare 0.0
benefits 0.0
situation 0.000120388993983
workers 0.0
company 5.21537956544e-05
savings 0.0
health 8.14980678191e-05
insurance 0.0
change 0.000368438598233
silver 7.52705346549e-05
august 9.75029876401e-05
crying 3.62674813382e-05
mental 6.85123466194e-05
carrier 0.0
decide 0.0
happened 0.000193905416593
parking 4.52245415416e-05
demand 3.03522078127e-05
sacrifice 0.0
personal 0.000175260548444
rewards 0.0
beyond 5.14501379225e-05
contributing 0.0
passion 0.0
question 0.000564706305417
doctor 0.000176463562895
sacrifices 0.0
respected 0.0
losing 2.83878380794e-05
strain 0.0
respect 2.51731480669e-05
shouldn 0.000137704427277
career 2.67241386339e-05
visited 0.000180785511435
reason 0.000145429062444
simply 0.000402967876361
audience 6.37063477187e-05
sacrificed 6.38797149962e-05
employees 0.0
accounts 0.0
attacked 0.0
involved 0.0
extreme 0.000119560433562
valuable 0.0
knocked 4.99299499567e-05
reality 0.000191731422926
mention 0.000113551352317
without 0.000533930778248
problems 0.000312266218873
timing 8.18255861375e-05
described 4.42634099419e-05
pattern 0.0
online 2.47677638771e-05
background 6.93303543854e-05
buying 6.24463448097e-05
called 0.000810316109076
scientists 0.000619687739187
checked 0.00013075801605
heading 0.0
paying 5.98576776974e-05
planning 2.99288388487e-05
opposite 0.000302024191442
through 3.23140266067e-05
reached 3.41550534598e-05
changing 5.64629976915e-05
explains 3.09583878512e-05
harder 6.40728074139e-05
demands 0.0
silent 7.8179907051e-05
speaking 0.000105449218981
november 9.26124067271e-05
ordinary 4.55540955552e-05
number 0.000424673321914
stunning 0.000171788707931
atlantic 4.4579326796e-05
stupid 9.61092111209e-05
personality 4.65722013355e-05
grandparents 0.0
unless 0.000113551352317
calling 9.66913259929e-05
painting 0.0
focused 3.74015550057e-05
ridiculous 0.0
package 0.0
rooted 0.0
option 0.000133447102375
knowing 0.000318531738593
former 0.0
actual 0.00055098067097
tracked 0.0
suffers 0.0
schedule 0.0
friday 0.000303418455642
failure 3.70553981578e-05
achieve 0.000154378884274
winner 0.00012792918434
doctors 0.000248768452383
becomes 0.000162975280037
directly 0.000265932584054
quality 2.97616584802e-05
tearing 0.0
father 2.62191567243e-05
wishes 0.000150064444418
collar 0.0
caring 0.0
ground 0.0003282960574
matter 0.000395214271666
strategy 0.0
themselves 0.000160980008273
asking 9.7477720823e-05
usually 6.1393258946e-05
thankfully 0.0
reacts 0.0
period 3.43577415861e-05
parents 5.52331998672e-05
balance 7.16582427547e-05
resist 0.000261866134819
mobile 7.64603994127e-05
computer 0.000106839143981
reminded 7.99664873801e-05
impressed 0.000104617353255
dinner 0.000152684676369
suffering 8.66819846226e-05
single 0.000260926153014
parent 0.0
approved 0.0
energy 0.000958657114628
preview 3.27843431078e-05
meltdown 0.0
remind 9.61092111209e-05
emotional 0.0
sounded 0.0
status 6.93303543854e-05
update 8.06114642096e-05
outage 0.0
customers 0.0
holding 0.0
causes 0.0
eating 0.0001439170987
picked 0.0
missing 0.000171974117614
surprise 0.0
officially 2.68704880699e-05
global 0.00024626840235
follow 0.000370430221292
opinion 0.000210090222185
faster 0.000334531831093
backwards 0.000297189697712
design 3.47685796654e-05
website 5.61524390945e-05
widely 0.0
origin 5.74762126863e-05
breaks 6.07044156254e-05
allows 0.000130022976934
promoting 0.0
volunteer 0.0
convince 0.000130476515388
negative 6.71150682512e-05
official 7.1353876336e-05
jersey 7.74350578332e-05
mistake 9.5559521578e-05
fixing 4.58884607461e-05
translated 0.000146703569098
ginger 0.0
peaceful 9.713015175e-05
thinks 5.37409761397e-05
hospital 3.35575341256e-05
lauren 0.0
easier 3.12231724048e-05
excluded 0.0
successful 9.44731617722e-05
leadership 0.0
agrees 0.0
decline 0.0
turnout 0.0
showed 0.000665702466253
trumps 0.0
circle 0.000122333004423
engage 4.58884607461e-05
suited 0.0
experienced 0.0
interested 0.000710296549781
effect 0.000151761039063
success 5.20121967237e-05
ladies 0.0
dreams 9.08007168987e-05
protect 2.95131539577e-05
explanation 4.11854582985e-05
occasion 0.000263515357675
medication 0.0
planet 0.00168032938355
detached 0.0
essence 5.80417626253e-05
control 0.000257250689612
happier 0.0
likely 0.000554103905289
coincidence 9.713015175e-05
cancel 4.81895984692e-05
project 0.0
laying 0.0
lesson 3.2036403707e-05
requires 0.000133737980388
healthy 0.0
treating 0.0
opening 0.000100148884825
statement 5.96901922545e-05
enjoyed 5.46304646239e-05
animal 0.000207373436711
nervous 0.0
pounds 4.95316162854e-05
wonder 0.00139829530919
matters 6.05338112658e-05
shared 9.47431457203e-05
somehow 3.71702034548e-05
benefit 0.0
terrible 0.0
continues 0.000252685975925
improve 0.0
equally 0.0
appointment 0.0
session 0.000180583490974
routine 0.0
exciting 0.0
corner 3.28795765456e-05
imagination 0.000385637174498
decides 0.0
cheering 4.55540955552e-05
spring 0.000206016402897
fallen 0.000121529359866
frequently 0.0
places 0.000192257943141
thousands 3.37549802518e-05
informed 0.000364588079597
typical 4.28933505287e-05
continue 0.000159472310442
attend 6.93303543854e-05
excuse 0.000100085326781
settle 0.000128680051586
female 0.000184179776838
recovery 3.81099705127e-05
treasured 0.0
grandma 4.8565075875e-05
closer 0.000346360351312
beginning 0.000202605098425
everywhere 0.000109861681795
scenes 0.000117395878716
bought 2.81537276036e-05
multiple 0.000244107157596
slogan 0.0
wishing 3.33617755938e-05
covered 5.96901922545e-05
remove 0.000119173329291
choices 0.0
dealing 0.0
teacher 0.000103073224758
training 0.0
passing 0.00015567285163
stopping 0.0
become 0.000192341576058
spread 0.0
season 0.00022840706678
putting 4.83456629965e-05
weight 0.000358291213773
quietly 0.0
necessity 0.0
knocks 0.0
effects 0.000128238179797
returns 3.08708022424e-05
expected 0.000131900830476
resources 0.0
bucket 0.0
struggling 0.0
register 0.0
promotion 0.0
solution 0.000229381198238
manage 0.0
transition 0.0
gained 0.0
define 0.000315430680909
somebody 0.000377935157447
contract 0.0
ignorant 9.90632325707e-05
managers 0.0
credit 5.67756761587e-05
brothers 3.52927125789e-05
grandkids 0.0
computers 0.0
physical 0.000115053190073
series 0.000500744424125
offensive 0.0
fighting 7.86574701728e-05
donald 6.61424793248e-05
mexico 0.000266116161668
sandra 0.0
police 5.93570473854e-05
represent 3.89651379098e-05
president 0.000307030042416
talking 0.000161626962331
america 0.00112706623282
michigan 0.0
everybody 0.000255490542714
judgment 5.45931007791e-05
carolina 0.0
amount 0.0
houston 0.000117646359197
everyday 0.0
michael 7.80182950856e-05
protecting 4.10487199294e-05
providing 0.0
attitude 0.0
million 0.00041093813547
election 6.35242114247e-05
honesty 0.0
targeting 0.0
telling 0.000130739584131
correct 0.00032646376062
attack 5.93570473854e-05
elementary 0.00010540614307
americans 0.000480546055604
killed 0.000128276735575
horrible 0.0
salute 4.78201774153e-05
coverage 3.12231724048e-05
united 0.000179070576764
college 8.63502592202e-05
refuse 0.0
preach 0.0
hillary 4.11854582985e-05
clinton 3.76352673274e-05
presidency 0.0
throws 8.97993244215e-05
manning 5.22539667772e-05
american 0.000366530098753
deserved 7.03738441e-05
humble 0.0
remain 9.72219613736e-05
founder 8.51994209929e-05
illegal 7.67021267156e-05
arizona 0.000273324573331
opinions 0.000236811205146
speeches 9.86700351557e-05
scared 0.0
salary 0.0
pieces 0.0
taught 6.79082866449e-05
thompson 0.0
straight 0.000153099221639
blocking 0.0
answers 8.90355710781e-05
created 5.53851310765e-05
record 2.40426970072e-05
stamina 7.33517845488e-05
weapon 0.0
bottom 6.17416044847e-05
athletes 9.45539667353e-05
registered 0.0
minnesota 0.0
committed 3.62674813382e-05
journey 0.000149644194244
snapchat 0.0
peoples 0.0
disrespect 0.0
brother 0.0
prayers 0.0
boston 9.97935606257e-05
korean 0.00010540614307
church 3.49767957248e-05
advantage 3.93416440671e-05
motivation 5.03353341465e-05
honestly 0.0
defeat 4.1323017924e-05
lifetime 3.47685796654e-05
captain 0.000312719628204
retired 4.67463741049e-05
country 0.000332984756234
ending 0.0
dressing 0.0
finish 2.8309535067e-05
ranked 0.0
employee 0.0
university 6.5950415238e-05
dreamed 6.24477731981e-05
prayer 0.000101914379557
nominated 0.0
responds 0.0
national 0.000199216770229
reform 0.0
shooting 0.0001439170987
cancer 0.0
deserve 0.0
mother 0.000128276735575
creating 6.33427964644e-05
powerful 2.80762195472e-05
wisdom 0.000194204994024
breaking 0.0
dollars 7.7189442137e-05
questions 0.000117964811643
racist 0.0
charged 4.36443558032e-05
soldiers 0.0
performance 0.000319815757289
reading 9.77413596674e-05
denver 0.000144568795408
graphic 4.62277796752e-05
garner 0.0
create 0.000266513131074
jordan 0.0
admire 4.25997104964e-05
nobody 0.000536398478069
government 0.000206758573704
politics 0.000586711008132
blessing 0.0
wrestling 0.000168361721792
charities 0.0
donate 0.0
sample 0.0
bringing 5.17303052643e-05
deserves 0.0
regret 0.0
victim 0.0
according 0.00012209508491
threat 6.85123466194e-05
heaven 0.000255428937532
heroin 0.0
honest 2.8624366262e-05
became 0.00017270051844
decision 0.0
counting 3.26895040125e-05
signing 3.0181919974e-05
embrace 0.000201225010341
pressure 0.000156560592851
celebrities 0.0
facebook 0.000221707932835
kardashian 0.0
divided 0.0
lawyer 0.0
lebron 0.0
campaign 0.0
determine 5.09571897785e-05
whether 0.00078583173774
praise 3.90899535255e-05
defined 0.000100263490344
proposes 0.0
discover 0.000117646359197
factory 0.0
arrested 4.34921717961e-05
estate 0.000146840434575
proposed 0.0
comments 0.000224609756378
teenage 0.0
wounded 0.0
endorsement 0.0
williams 7.34287904033e-05
custom 0.0
troops 0.0
singer 4.48996622108e-05
future 0.00123346908698
struggled 0.0
sister 3.09583878512e-05
sabotage 0.0
athlete 4.93350175778e-05
warrior 0.0
cheating 0.0
voting 5.67756761587e-05
succeed 8.63816083489e-05
religion 0.000666927486048
century 0.000415283263233
serving 0.000237576787365
because 0.000199006056315
cleveland 0.0
hiding 3.77530239303e-05
breath 3.90899535255e-05
choosing 0.000137162003969
lawrence 0.0
instagram 0.0
opponent 0.0
detroit 4.27460599324e-05
honored 0.000159723027764
nonsense 0.0
lifting 5.83298621321e-05
proven 0.0
talent 0.000122786517892
knocking 0.0
russian 0.000268457443504
brains 0.000355236160634
oakland 6.11001134041e-05
regardless 0.0
skills 0.0
citizens 0.000157366576268
california 0.0
commitment 0.0
seconds 0.000461753254407
seeking 0.000121529359866
threatening 0.0
listen 9.51385017813e-05
whatever 0.000105736862656
mexicans 0.0
satisfied 0.0
fought 7.45711742369e-05
compete 0.0
injured 8.15553362823e-05
billion 0.000527603321904
ceiling 5.2703071535e-05
absolute 6.75099605037e-05
appearance 3.5398994017e-05
bigsean 0.0
handle 0.0
promise 5.46304646239e-05
nightclub 0.0
hosting 9.0545759922e-05
actors 4.67463741049e-05
generation 0.000157905242867
criminal 4.39517914098e-05
tuesday 0.000104591667304
ronald 0.0
locker 0.0
struggle 0.0
degree 4.10487199294e-05
entering 8.79035828196e-05
leader 3.00128888836e-05
pageant 0.0
toughest 0.0
character 9.23506508814e-05
mirror 0.000112554339188
interview 0.00060847513468
whistle 0.0
obviously 0.0
battle 5.34482772678e-05
motivate 0.0
destroy 3.99832436901e-05
relentless 0.0
winning 9.8270924351e-05
charlotte 0.000140765644634
accomplished 0.0
stepped 5.24774183915e-05
defense 7.38823309163e-05
appeal 0.0
causing 4.8565075875e-05
arabia 0.0
shipped 0.0
society 0.000254096845699
officers 0.0
brooklyn 0.0
marked 5.86216317949e-05
incredible 0.0
poster 3.64898482188e-05
wealthy 0.0
memorable 0.0
officer 4.16006408238e-05
minute 0.00025935517077
luther 5.48407097723e-05
foreign 0.0
pregnant 0.0
champions 0.0
virginia 0.0
tackle 0.0
unarmed 8.56170847382e-05
orange 0.000310137860556
policy 0.000101264940755
comedy 0.000143751709298
reminder 0.000360003351997
evidence 0.00116127181763
lighten 7.63304705211e-05
presidents 4.83765677426e-05
kicked 3.77530239303e-05
sticker 0.0
accused 9.11081911105e-05
intentions 0.0
facing 3.78713890971e-05
freedom 0.000192218422242
actions 3.90899535255e-05
debating 5.09571897785e-05
outcome 4.37975577711e-05
utterly 4.95316162854e-05
mississippi 6.50156639336e-05
clearly 8.75578619449e-05
download 0.0
sidelines 0.0
invite 3.25950560073e-05
legally 0.0
central 0.000394578701565
washington 0.0
veteran 0.0
division 0.0
veterans 0.0
stronger 7.3203693058e-05
promised 7.55060478605e-05
worried 9.97935606257e-05
security 0.000183142627366
immediately 6.42571425423e-05
television 0.00020254893311
entitled 4.99299499567e-05
racism 0.0
highest 6.50019917601e-05
approve 0.0
turning 2.87834197401e-05
legacy 0.000109469544656
ignore 6.5950415238e-05
choked 0.0
backing 0.0
helping 0.0
collector 0.0
willing 0.0
basically 6.71150682512e-05
return 0.000101789784246
unacceptable 0.0
feelings 7.94488861939e-05
network 0.000128514285085
language 0.000161105556153
invest 9.17769214922e-05
coward 0.0
schools 9.80685120374e-05
patients 0.0
foster 0.0
children 0.000151859318616
nation 5.78871709785e-05
review 0.000136951016375
between 0.0
knowledge 0.000196137024075
begins 0.000330490625465
tenure 6.7043856304e-05
faithful 0.0
highlights 0.000103995531578
shoulder 0.0
produced 0.0
consider 0.000152618856138
shattered 6.6210906009e-05
latest 0.000298825155343
beyonce 0.000148005052734
signed 0.0
millionaire 0.0
shelter 5.1813499187e-05
charity 0.0
germany 0.0
advance 0.000100378337146
proved 0.0
married 6.81087561884e-05
millions 0.000124538281304
blessings 0.0
indonesia 0.0
fights 0.000125645010673
dollar 0.0
rigged 0.0
conduct 0.000158792910061
johnson 0.0
howard 0.0
turned 0.0
criticism 0.0
stomach 0.0
upgrades 0.0
jackie 0.0
relevant 0.0
charge 0.000191119043156
ticket 0.0
steady 0.000221376424214
indian 4.78201774153e-05
turner 0.0
sanders 0.0
includes 3.42561733097e-05
survivor 0.0
dealers 0.0
collection 0.0
against 0.0
joyner 0.0
impact 6.15671005876e-05
families 2.94309146995e-05
welcoming 9.21149836731e-05
hitting 0.000122786517892
announced 5.59979458027e-05
granted 8.82141414165e-05
decided 2.75408854554e-05
itself 0.000508169395831
selfish 0.0
mexican 0.0
respects 0.0
guarantee 4.50615258441e-05
beliefs 0.000215463764052
citizen 4.1323017924e-05
states 0.000145120451741
denied 4.60574918365e-05
drought 0.0
memorial 3.74015550057e-05
decades 0.000221646992749
trayvon 0.0
landed 0.000287503418596
pastor 0.0
ultimate 0.000133447102375
weekends 0.0
episode 0.000411981306731
spikes 0.0
engaged 0.0
financial 4.05097866219e-05
payments 0.0
tolerant 0.0
symposium 0.0
kansas 0.0
agreement 4.25997104964e-05
source 0.000258512212853
backbone 0.0
dismiss 0.0
midnight 0.000217324167774
homework 5.11682844415e-05
joining 5.41835613952e-05
reasons 0.000214377571673
talked 2.89435854893e-05
released 8.03915893775e-05
reaching 4.21661907627e-05
release 5.04828304155e-05
existing 4.63993430901e-05
models 0.000133262471041
pageants 0.000108081614246
helmets 0.000142439355832
scheme 0.0
scholarship 0.0
stacked 0.0
speech 8.28497998008e-05
standing 5.25812378004e-05
higher 0.000216095615697
purple 8.57867010575e-05
justice 6.19167757024e-05
served 0.000173842898327
speaks 3.32645202086e-05
backup 0.0
allegedly 0.0
purchase 0.0
millionaires 0.0
consideration 0.0
strength 0.0
incredibly 0.0
private 8.85394618731e-05
ignored 8.79035828196e-05
neighbors 0.0
apologizes 0.0
beings 0.0
minimum 0.0
direction 0.000247048988053
enemies 4.89468115249e-05
exclusive 0.00013657616156
prison 0.0
himself 3.69411654581e-05
contributes 0.0
investigation 0.0
teaching 3.5081617916e-05
disgusting 0.0
philly 0.0
rights 0.000124185238728
cheers 0.0
maintain 5.09571897785e-05
overcome 0.0
flawless 0.0
unique 3.52927125789e-05
neighborhood 0.0
dating 0.0
handed 0.0
victory 0.0
lifted 0.0
greatness 0.0
muslim 0.0
terrorist 0.0
productive 4.57206679898e-05
tribute 3.15810485734e-05
deadspin 0.0
threatened 4.93350175778e-05
horror 9.14413359796e-05
warning 6.65290404171e-05
convention 0.0
understanding 0.000165838380262
action 0.000148205351875
having 0.0
afghan 0.0
announces 3.518692205e-05
commencement 0.0
speaker 0.0
graduation 5.58588155526e-05
honors 0.0
produce 4.31908041745e-05
apologize 0.0
insult 4.8565075875e-05
continued 7.89370683822e-05
letter 0.000198714866556
discussed 0.0
therapy 4.81895984692e-05
untrue 0.0
written 0.000252685975925
existence 9.78936230499e-05
essential 0.0
results 3.00972484957e-05
initiative 0.0
disease 0.000135184577532
marching 0.0
suggest 0.0
georgetakei 0.000526444174554
ensure 0.0
democrats 0.0
marched 0.0
foundation 6.55686862156e-05
access 8.49286052011e-05
writes 0.0
student 3.30712396624e-05
colorado 0.0
medical 0.000189356945485
medicine 0.000185597372361
tremendous 0.0
nytimes 0.00013948980434
kindness 0.0
public 0.000160344831803
cannot 0.000282208818265
reveals 6.87154831723e-05
invented 0.00038737435022
threatens 0.0
candidate 0.000109805539587
persistence 0.0
sexual 0.0
illustration 6.6210906009e-05
measure 0.000295163335339
compared 0.000119173329291
headline 3.60472526337e-05
reflect 0.000127362870809
answering 0.0
streaming 0.0
leaders 0.000134230136502
supreme 3.9724443097e-05
nominee 0.0
immigration 4.27460599324e-05
policies 4.17407244947e-05
laundering 0.0
administration 0.0
defend 0.000112905801982
communicating 6.97415128756e-05
excitement 0.0
funding 0.000110143185605
climate 0.000311721103278
transfer 0.000253740114738
conspiracy 0.0
activist 5.29309700203e-05
horrifying 0.0
freely 6.46307202707e-05
retreat 0.0
daughters 0.0
compelling 0.000159483476943
platform 3.64898482188e-05
hamilton 0.0
futures 0.0
huffingtonpost 5.3161158981e-05
headlines 4.24542902695e-05
january 0.000318531738593
grants 5.53441060536e-05
unprecedented 0.0
relationships 4.80041431337e-05
philadelphia 5.09571897785e-05
diversity 0.0
funded 0.000127362870809
secure 0.0
income 4.23097875265e-05
universal 0.000162573342959
contributed 0.0
hurricane 0.000146265445224
fundamental 0.000156761900332
countries 0.000398012112629
linked 0.0
african 0.0
improved 4.53887258202e-05
unclear 0.0
provide 3.37549802518e-05
livestream 0.0
addresses 0.0
enhance 6.92692567879e-05
companies 3.81099705127e-05
proposal 0.0
potential 0.0
discrimination 0.0
connected 4.48996622108e-05
drives 8.82141414165e-05
attending 0.0
filled 6.46280532134e-05
education 0.000340542266363
addressed 0.0
mentioned 0.000101563035915
famous 0.000158356991161
resistance 0.0
exists 0.000128238179797
demonstrated 0.0
officials 8.10195732439e-05
instructions 0.000115514484174
transmission 0.0
olympics 0.000244666008847
ability 3.34594457153e-05
political 0.000164876038095
director 0.000200926284535
contains 0.000287381063431
sponsored 0.0
autism 5.50910249283e-05
previously 4.58884607461e-05
prevent 0.000191150998532
capacity 0.000105861940041
donations 0.0
william 3.89651379098e-05
editors 0.0
passionate 0.0
solving 0.0
innate 0.0
treatment 0.0
critical 0.0
feeding 4.7456620436e-05
preparing 0.0
depend 0.0
capable 0.0
bridge 0.0
systematically 0.0
becoming 5.90263079154e-05
embraced 0.0
literacy 0.000277077027152
lawyers 0.000144012429401
stigma 0.0
malaria 0.0
standard 0.0
hiring 0.0
remains 0.000249291335956
fellow 8.75578619449e-05
defending 0.0
quotes 0.000113614167291
pushes 0.0
luxury 0.0
admitted 5.53441060536e-05
colleagues 8.43323815254e-05
failed 6.83101069196e-05
independent 0.0
politically 0.0
driven 8.34814489894e-05
agenda 0.0
result 0.0
implications 0.0
insider 0.0
pakistan 6.46307202707e-05
solutions 9.713015175e-05
trusts 0.0
indiana 4.60574918365e-05
filling 0.0
humility 0.0
clicks 0.0
disagree 0.000142452191975
claims 0.000110823496374
editorial 0.0
mistakes 0.000123146159788
offered 0.000151485556388
passionately 0.0
justification 0.0
inspiring 0.0
counter 0.0
shaped 0.000302012004879
retroviral 0.0
majority 0.0
approach 0.000205537039858
nature 0.000563850492892
concern 3.89651379098e-05
server 0.0
berniesanders 0.0
shameful 0.0
experiment 0.000250658725861
massive 8.75578619449e-05
promises 0.0
colored 0.0
consequences 0.0
whatsoever 0.000207807770364
proposals 0.0
guesses 6.42521396051e-05
bernie 0.0
interviewed 0.000185276990789
pregnancy 6.14296674178e-05
secretary 0.0
measures 0.000151622247166
vastly 6.83529902541e-05
reduce 0.0
compassionate 0.0
distinguished 0.0
dangerous 6.17416044847e-05
influence 0.00015054106931
letters 0.000255598262979
implicit 0.0
saving 0.0
revelations 6.7908246012e-05
incident 0.0
universe 0.00391576353856
victims 0.0
milestone 0.000110688212107
perfectly 6.99535914496e-05
exercise 4.01137489366e-05
receive 9.72219613736e-05
reputation 0.0
economics 0.0
disclosure 6.24477731981e-05
receives 0.000106322317962
terrific 0.0
collected 0.0
campus 9.11081911105e-05
founders 0.0
profiling 0.0
systemic 0.0
studying 0.0
necessary 0.0
inaccurate 0.0
breast 0.0
debate 2.95956895742e-05
suddenly 0.0
conflict 0.000191280709661
interest 0.000323140266067
meanwhile 0.0
indefensible 0.0
recall 0.0
rating 9.78936230499e-05
nominate 0.0
outstanding 0.0
devastating 4.25997104964e-05
illness 0.0
troubling 0.0
romney 0.000192756418815
appears 0.000114329911538
breathe 0.0
abroad 0.0
spanish 0.000126929362579
profit 0.0
reviews 0.0
republican 0.000181554903281
presidential 3.83510633578e-05
candidates 0.000155363995219
politicians 0.000293171691571
identified 0.0
epidemic 0.0
displaced 0.0
greater 0.00026262679144
absurd 0.0
deadline 0.0
height 0.000111717631105
sisters 4.37975577711e-05
nuclear 0.000162573342959
stress 0.0
leading 0.000116743815926
restored 0.0
conditions 0.000129572412523
however 0.000109469544656
achieved 9.49132408719e-05
member 0.0
examples 0.000146840434575
diverse 0.0
suicide 0.0
contributions 0.0
largest 0.000145069925353
increase 0.000112204665017
targeted 0.0
regulators 0.0
provided 0.000141830950103
element 0.000648088829646
effectively 0.0
population 0.000567376625442
rising 0.000259387787104
indication 0.0
versus 0.000153504853324
believed 4.21661907627e-05
dynamic 0.0
invasion 0.0
primary 4.18816702244e-05
provides 4.50615258441e-05
environment 4.23097875265e-05
confirmed 0.0
behavior 0.000180898166166
introduced 0.0
contain 0.000248649585837
communities 0.0
worldwide 0.0
responsible 0.0
household 0.000309578410461
apparent 5.92165641738e-05
munich 0.0
alternate 0.0
expressed 0.0
movement 0.000184179776838
declared 0.000302012004879
hundreds 0.000113971107452
information 0.000124538281304
easily 0.000135417381219
untreated 0.0
october 6.42571425423e-05
quantify 0.0
scales 0.000430406324491
investigating 0.0
innovation 0.0001942603035
perspective 0.000101862429967
rivals 0.000124206703076
interests 4.33409923113e-05
toledo 0.0
extraordinary 0.000271886991634
gingrich 0.000175219918555
describing 0.000163779302337
eliminate 0.0
obligation 0.0
gender 0.0
committee 0.0
preventing 0.0
numerous 0.0
unusual 0.0
improving 0.0
practices 0.0
cemetery 0.0
questioned 0.0
affecting 0.0
ferrell 0.0
genius 6.10475424552e-05
warren 0.0
organizers 0.0
regularly 0.0
ceilings 0.0
sexism 0.0
prepared 3.47685796654e-05
burden 5.71985897866e-05
foreignpolicy 0.0
county 0.0
uniform 0.0
newyorker 0.000176751498994
anthony 0.000167526680898
reflecting 0.000116659724264
grandson 0.0
banning 0.0
considered 3.56130479937e-05
chosen 0.0
outright 0.0
screenings 0.0
naming 5.43481400612e-05
conventions 0.0
reproductive 7.39173344878e-05
ignores 6.31525552302e-05
focusing 0.0
sensible 0.0
concluded 0.000142439355832
performed 4.78201774153e-05
divide 0.000198126465141
dismissed 0.0
compromise 0.0
crucial 4.37975577711e-05
weakness 0.0
barrier 0.0
effective 0.000114690599119
wealth 0.000198126465141
underway 0.0
israel 0.0
overwhelming 0.0
assault 8.79035828196e-05
citing 0.0
protection 3.9853477854e-05
prisoners 0.0
photographing 0.0
traveled 0.0
holder 0.0
seemed 0.0
concludes 0.0
determination 0.0
tested 4.63993430901e-05
lacking 0.0
machine 0.0
honoring 0.0
contrary 0.000174125287876
tolerance 0.0
michelle 0.0
assumed 5.53441060536e-05
programs 0.000274324007939
closely 4.7456620436e-05
politico 0.0
inspire 0.0
lyrics 0.0
judges 0.0
federal 0.000171573402115
maryjblige 0.0
tuning 0.0
striving 0.0
poland 0.0
september 0.000161105556153
manchester 0.0
checks 4.44208236804e-05
remarkable 3.95961312275e-05
mharrisperry 0.0
immoral 0.0
fiction 0.000368459934692
process 0.0
anxious 0.0
destructive 7.07162816349e-05
nmaahc 0.0
performances 0.0
whitehouse 9.90632325707e-05
flotus 0.0
crisis 0.0
marriage 3.9724443097e-05
emotions 0.000145129703228
confidence 3.59379273245e-05
voters 0.000157366576268
comparing 0.0
oldest 9.24555593504e-05
empirefox 0.0
chancetherapper 0.0
songwriter 0.0
literally 0.000113551352317
onstage 0.0
believing 0.0
hillaryclinton 0.0
citizenship 0.0
counted 5.41057715689e-05
hillaryfornc 0.0
raleigh 0.0
discusses 0.0
johnlegend 0.0
apprentice 0.0
acknowledge 0.0
conservative 8.51994209929e-05
economists 0.0
buzzfeed 0.0
puppet 0.0
hombres 0.0
republic 0.0
homecoming 0.0
andersoncooper 0.0
muslims 0.0001942603035
katyperry 0.0
bragging 0.0
treats 0.0
qualified 4.91400920711e-05
islamophobia 0.0
debates 4.55540955552e-05
endorsements 7.57029351348e-05
counts 0.000152439882051
theellenshow 0.0
festival 0.0
encouraged 0.0
stylish 0.0
disregard 0.0
jtimberlake 0.0
backstage 0.0
barack 0.000254785948893
joined 0.0
terrorism 4.57206679898e-05
pushing 3.67143952017e-05
hopeful 5.13813428039e-05
mentions 0.0
teamed 0.0
exclusively 0.0
aliciakeys 0.0
kingjames 0.0
muhammad 5.89171663314e-05
refused 0.0
characters 0.000183009232645
express 3.55057709414e-05
gratitude 4.87551484082e-05
ugliest 0.0
throughout 3.63783949147e-05
awkward 3.82301997063e-05
shining 0.000185597372361
fighter 9.713015175e-05
accepting 0.0
applemusic 0.0
reveal 6.69188914306e-05
stands 0.0
native 4.65722013355e-05
announce 2.66513131074e-05
dorothy 7.90281270927e-05
haters 0.0
jessetyler 0.0
shondarhimes 0.0
lavernecox 0.0
broadway 0.000308288056823
disabilities 0.0
adoption 0.0
touched 0.0
corruption 0.0
violence 3.36560444228e-05
leedanielsent 0.0
delivered 7.45711742369e-05
jasmine 0.0
independence 8.29228174611e-05
square 0.00031046309682
alongside 0.0
privilege 8.49085805391e-05
secondary 0.0
staggering 0.0
seventh 0.0
tennis 0.0
sweeping 0.000118433128348
footage 7.50362261256e-05
overseas 5.03353341465e-05
spoiler 0.000144568795408
theirs 0.000134087712608
offering 0.000151961476602
construction 4.80041431337e-05
spends 5.24774183915e-05
detail 8.43323815254e-05
cabinet 0.0
earnings 0.0
pleased 0.0
gravity 0.00198327689742
statements 0.0
decade 0.000143316485509
bigotry 0.0
belong 0.0
trillion 0.000114397179573
backed 4.55540955552e-05
operations 0.000114397179573
breakthroughs 0.0
values 4.18816702244e-05
senator 4.7456620436e-05
removing 5.45931007791e-05
wondered 0.000221317049709
introduces 0.0
makers 5.22539667772e-05
measured 0.000111717631105
pillars 0.0
instrument 0.0
shares 3.69411654581e-05
individual 0.0
applications 0.0
prepares 0.0
ceremony 4.09127930688e-05
expanding 0.000212644635924
merger 0.0
newspaper 0.0
detailed 5.07480229477e-05
tuition 0.0
childcare 0.0
thoroughly 0.0
adviser 0.0
matthew 0.0
affected 3.5398994017e-05
newspapers 0.0
corporate 0.0
economy 0.0
presenting 0.0
spoken 7.67021267156e-05
richer 0.0
during 0.000346543452522
combat 0.0
touting 0.0
competitive 0.0
prominence 0.0
trifecta 0.0
fashioned 0.0
boasts 8.65918534974e-05
ripped 0.0
belief 4.25997104964e-05
heroes 0.000104930387174
disturbing 4.8565075875e-05
russians 0.000112241147862
intelligence 0.000209408351122
deepest 5.29309700203e-05
regrets 0.0
complicated 8.23709165971e-05
internships 0.0
adults 0.000263710748459
describe 6.65290404171e-05
equality 0.0
announcement 0.0
interfere 0.0
terrifying 0.0
nationwide 0.0
manager 0.0
questionable 0.0
enhanced 7.27998636545e-05
services 0.0
delighted 9.56403548307e-05
golfer 0.0
regarding 8.49085805391e-05
teachers 0.000123146159788
suggests 0.0
phrase 0.000129124783407
immigrants 0.0
revolution 0.000128680051586
universities 0.0
twelve 0.000568372997072
principle 0.000202992091791
releases 8.4619575053e-05
malarkey 0.0
library 0.0
advisor 0.0
deadlines 0.0
encouraging 4.52245415416e-05
circuit 0.0
humanitarian 0.0
reliant 0.0
assistance 0.0
swimmer 0.0
hinges 0.0
concrete 0.0
accepted 0.0
confronted 7.97552868588e-05
comprehensive 0.0
pushed 0.0
unending 0.0
occasionally 0.00104475172725
guardia 0.0
donation 0.0
nomination 0.0
paintings 7.02237119238e-05
significantly 6.31525552302e-05
investment 0.0
terror 4.31908041745e-05
worship 0.0
represents 0.0
attempting 5.53441060536e-05
bullying 0.0
astonishing 0.0
endorse 0.0
urgent 0.0
forced 3.518692205e-05
addressing 0.0
script 8.79035828196e-05
hundred 0.00019350627097
command 0.000101496045895
qualifies 0.0
stumbled 0.0
territory 5.20326741495e-05
balloons 0.000132421812018
objects 0.000383278289977
latimes 0.0
pandemics 0.000108081614246
separating 0.0
pentagon 0.0
threats 0.0
prisons 0.0
approaching 0.0
generous 0.0
roughly 0.0
commands 0.0
uncovered 0.0
destroying 0.0
opposition 0.0
addiction 0.0
manhattan 0.000536285957928
ridiculously 0.0
awarded 0.0
greeted 0.0
forces 0.00048471263254
confirm 0.000111856761355
dealings 0.0
nations 0.000226943629101
equivalent 0.000290259406455
sexist 0.0
yahoonews 0.0
bloody 4.34921717961e-05
boundaries 0.0
exceptionally 0.0
cannon 0.0
feared 5.86216317949e-05
significance 0.000129261440541
recommendation 0.0
chapters 0.0
racial 0.0
obvious 0.000116522996414
statistics 0.000453225920029
military 0.000107162489643
adopted 5.07480229477e-05
housing 0.0
clearer 0.0
calculator 0.0
underwater 0.0
guided 0.0
rescue 4.09127930688e-05
deserving 5.48407097723e-05
advised 0.0
ordered 0.0
unions 0.0
avoiding 5.07480229477e-05
alicia 0.0
preserve 5.53441060536e-05
balloon 0.000122859334836
economic 4.18816702244e-05
recipe 4.78201774153e-05
awaits 6.38797149962e-05
squarely 0.0
radical 0.0
banter 0.0
spaces 0.0
carnival 0.0
theories 0.000113306480007
bombing 0.0
products 4.16006408238e-05
margaret 0.0
gathered 0.0
taxpayers 0.0
admits 0.0
opposed 0.0
pressing 0.0
russia 0.000213678287962
lincoln 9.38437630891e-05
intelligent 0.00018698549642
momentum 0.000589681104853
olympic 0.000169817161078
magnificent 0.0
heritage 0.0
beijing 0.000122200226808
beloved 0.0
dummies 0.0
pursuit 0.0
carries 5.89171663314e-05
phelps 7.33517845488e-05
medals 0.000329027609096
gymnastics 7.90281270927e-05
summed 7.2260930347e-05
accuse 6.07752340733e-05
symbol 5.61205739308e-05
dignity 0.0
slogans 0.0
priorities 0.0
applied 4.80041431337e-05
progressive 0.0
activists 0.0
elected 0.00011994973107
brussels 0.0
subscribe 0.0
elections 9.24555593504e-05
unites 0.0
complacency 0.0
imperative 0.0
doorsteps 0.0
voices 7.41107963155e-05
blatant 0.0
democracy 4.02450020683e-05
disastrous 0.0
rebuild 0.0
accuses 0.0
diplomacy 0.0
hardball 0.0
attacking 0.0
subtle 0.0
barker 0.0
sticking 8.97993244215e-05
openly 0.0
policing 0.0
embarrassed 9.86700351557e-05
slightest 0.0
abbott 6.38797149962e-05
attacks 3.69411654581e-05
commit 0.000140239122315
argued 5.98273632723e-05
remarks 0.0
democratic 0.0
semitic 0.0
incomes 0.0
treasury 0.0
alarming 0.0
dividing 7.63304705211e-05
reject 0.000146265445224
affirming 0.0
quitting 0.0
extended 0.000459147969442
reducing 0.0
proudly 5.45931007791e-05
inclusive 0.0
oppose 5.13813428039e-05
distinctly 0.0
urging 0.0
strengthen 0.0
deliver 0.0
obligations 0.0
relations 5.20326741495e-05
repeal 0.0
strengths 0.0
counties 6.6210906009e-05
weakened 0.0
reckless 0.0
prosperous 0.0
servant 0.000131611043639
secretaries 0.0
negotiator 0.0
faults 0.0
choking 0.0
executive 3.82301997063e-05
alternative 3.85947210685e-05
extend 0.0
republicans 9.34927482098e-05
embodied 0.0
preparation 0.0
terrorists 0.0
confident 0.0
weapons 0.0
unifying 0.0
outrage 0.0
constitutional 0.0
rental 0.0
prevail 0.0
resilient 0.0
humbled 0.0
courage 0.0
commander 0.000119654726545
respecting 0.0
enormous 0.0
aligned 7.57029351348e-05
consent 0.0
refusing 0.0
resentment 0.0
substance 5.61205739308e-05
claiming 0.0
lamont 0.0
dropping 0.0
carried 9.78936230499e-05
intimidated 0.0
behalf 0.0
meaningful 0.0
amendment 0.000182216382221
accepts 0.0
legislation 0.0
fairer 0.0
commitments 0.0
handling 0.0
proves 0.0
rhetoric 0.0
hardest 4.23097875265e-05
peddling 0.0
divisive 0.0
strongly 0.000181554903281
vision 0.00013581657329
investigations 0.0
repeatedly 0.0
records 6.95371593308e-05
madeleine 0.0
disabled 0.0
quoting 5.48407097723e-05
assassination 0.0
beaten 0.0
deeply 7.41107963155e-05
grievance 0.0
contempt 0.0
standards 4.1323017924e-05
fairness 0.0
dictated 0.0
consensus 5.22539667772e-05
reconsider 0.0
priority 0.0
rogers 0.0
freedoms 6.31525552302e-05
notorious 0.0
invested 0.0
propaganda 0.0
unconstitutional 0.0
condemn 0.0
concerned 7.3654999345e-05
praising 0.0
cheered 0.0
realdonaldtrump 7.99664873801e-05
despicable 0.0
straightforward 0.0
bargain 0.0
attorney 0.0
bedrock 0.0
optimism 0.0
belongs 5.03353341465e-05
truman 0.0
whichever 0.0
inappropriate 0.0
beatings 0.0
optimistic 0.0
campaigned 0.0
allies 0.0
governor 0.0
attempts 0.0
extent 0.0
denial 0.0
maximum 5.98273632723e-05
merely 0.000103192803487
apprenticeships 0.0
agreeing 5.77572420869e-05
architect 0.0
responsibility 0.0
mainstream 0.0
legitimacy 0.0
injustice 0.0
dozens 5.20326741495e-05
donnell 0.0
scenario 9.90632325707e-05
crimes 5.09571897785e-05
thoughtful 0.0
hypocrisy 0.0
undocumented 0.0
sexually 0.0
richest 0.0
softening 0.0
implies 0.0
infrastructure 0.000108211543138
pitching 0.0
broadband 0.0
tenants 0.0
allegations 0.0
bloomberg 6.17640326086e-05
insulting 0.0
liberal 4.28933505287e-05
kremlin 0.0
podium 0.0
provoke 0.0
outrageous 0.0
campaigns 0.0
barriers 0.0
powell 0.0
technical 0.000144012429401
warnings 0.0
flagged 0.0
grassroots 0.0
extremist 0.0
businesses 0.0
welcomes 0.0
deputy 0.0
donating 4.14614087306e-05
continually 7.2260930347e-05
ourselves 0.000108696280122
fringe 0.0
politician 4.57206679898e-05
wiggins 0.0
welcomed 0.0
rallies 0.0
ballot 4.78201774153e-05
failing 4.10487199294e-05
uniting 0.0
refuses 0.0
appealing 0.0
proverb 8.12827600104e-05
privileges 0.0
ideals 0.0
vibrant 0.0
tarmac 0.0
residents 0.000350922216206
apprenticeship 0.0
denying 5.74762126863e-05
fierce 0.0
opponents 4.97299171674e-05
polling 0.0
apology 0.0
damning 0.0
outline 0.0
endorses 0.0
losers 0.0
insulted 0.0
equipped 0.0
battlefield 0.0
recession 0.0
endorsed 0.0
divides 7.76396044712e-05
describes 5.13813428039e-05
appointed 0.0
encourage 3.89651379098e-05
undermine 0.0
undermining 0.0
authority 0.0
betray 0.0
funnyordie 0.0
donated 0.0
jimmykimmellive 0.0
immigrant 0.0
criminals 0.0
automatically 0.0
schooled 0.0
elizabethforma 0.0
releasing 0.0
connects 0.0
screening 0.0
cleaner 0.0
nowthisnews 0.0
sophiabush 0.0
chelseaclinton 0.0
stunts 0.0
truths 0.000434723460764
transparency 5.01317451722e-05
obamacare 0.0
nickkristof 0.0
contraception 0.0
betting 5.48407097723e-05
conscience 0.0
proclaimed 0.0
dispatch 0.0
advocate 0.0
profits 5.1813499187e-05
toward 0.000207307043653
guiding 0.0
senators 0.0
barber 0.0
doubled 0.0
mosque 0.0
senate 0.000234609407723
louisiana 0.0
senwarren 0.0
parenthood 0.0
organizations 5.98273632723e-05
generations 4.55540955552e-05
minorities 0.0
misogyny 0.0
peacefully 0.0
decency 0.0
intend 5.95199276657e-05
discourse 0.0
pennsylvania 0.0
katiemcgintypa 0.0
experiencing 0.0
mccain 0.0
scandal 0.0
constitution 0.000263515357675
sensanders 0.0
intolerable 0.0
strive 0.0
forefathers 0.0
abandon 0.0
buzzfeednews 0.0
paulkrugman 0.0
mothers 0.0
compassion 0.0
deeper 0.000195020593633
governments 0.0
activism 0.0
jamilsmith 0.0
mike_pence 0.0
elizabethbanks 0.0
empathy 0.0
audited 0.0
checkers 0.0
warming 0.000330584143392
volunteering 0.0
charitable 0.0
qualifications 0.0
workplace 0.0
granddaughter 0.0
recycled 0.0
directing 0.000118433128348
politifact 0.0
abolish 6.97415128756e-05
murders 0.0
reagan 0.000110182049857
pouring 0.0
ballots 0.0
racists 0.0
empower 6.14296674178e-05
tolerate 0.0
chrismurphyct 0.0
igorvolsky 0.0
outraged 0.0
exceptional 0.0
nightmares 0.0
enforcement 0.0
weaken 0.0
medicaid 0.0
humbly 0.0
newsweek 0.0
conflicts 0.000189457665691
suffer 4.80041431337e-05
dallasnews 0.0
bridges 0.0
lesdoggg 0.0
appalling 0.0
hatred 0.0
superpower 0.0
goodbye 3.60472526337e-05
renewable 0.0
robdelaney 0.0
motherjones 0.0
trusted 0.0
sheriff 0.0
personalized 0.0
amnesia 0.0
malala 0.0
problema 0.0
everytown 0.0
casting 0.000231028968348
employers 0.0
rudolph 0.000438049796388
packets 0.0
organization 4.27460599324e-05
graceful 0.0
hardworking 0.0
cherished 8.56170847382e-05
aggressively 0.0
founding 5.98273632723e-05
sacred 0.0
horrific 0.0
earned 4.05097866219e-05
siding 0.0
minded 0.0
contribute 0.0
incites 0.0
chooses 6.04548986586e-05
obtained 0.0
defended 0.0
champion 3.64898482188e-05
magazines 0.0
waited 0.0
punished 0.0
conviction 0.0
tradition 4.17407244947e-05
giveaways 0.0
distracted 5.83298621321e-05
endorsing 0.0
pathetic 0.0
ladygaga 0.000175864895385
pessimistic 0.0
highlighting 5.92165641738e-05
transgender 0.0
womensmarch 0.0
advisors 0.0
wrecking 0.0
hillaryforva 0.0
registration 0.0
ellemagazine 0.0
acceptance 0.0
defeated 0.0
theroot 0.0
pharrell 0.0
tumblr 0.0
nevada 0.0
illinois 0.0
massachusetts 0.0
theadvocatemag 0.0
lending 0.0
rejecting 0.0
legalize 0.0
conned 0.0
arkansas 0.0
celebratin 0.0
rubber 0.000116083525251
lenadunham 0.0
hateful 0.0
wizard 0.000238079710663
unbearable 0.0
harpersbazaarus 0.0
familia 0.0
iamwill 0.0
retweets 0.0
nominating 0.0
vietnam 0.000173271726261
laurie 0.0
claimed 0.0
rapids 0.0
devoted 0.0
casino 0.0
astounding 0.0
summon 8.76099592777e-05
crushed 0.0
louder 0.0
farmers 5.53441060536e-05
lin_manuel 0.0
arrangement 0.0
borrowed 0.0
mariska 0.0
purposes 0.0
dialogue 0.0
comedian 0.0
________ 0.0
lightly 0.0
defeating 0.0
jerusalem 0.0
cynical 0.0
worrying 0.0
elizabeth 4.62277796752e-05
insults 6.17640326086e-05
microphone 0.0
sleeves 0.0
theeconomist 0.0
stakes 0.0
nationally 6.6210906009e-05
inspect 0.0
poisoning 0.0
columbus 5.36285957928e-05
declaring 0.0
crushing 0.0
chucktodd 0.0
soldier 0.0
painted 5.15964017436e-05
warned 4.62277796752e-05
ohiostate 0.0
unrelated 0.0
designated 0.0
clears 0.0
congressional 0.0
confront 0.0
usatoday 0.0
delivers 9.90632325707e-05
pittsburgh 5.63853584845e-05
entiende 0.0
soaked 0.0
bromance 0.0
lifelong 0.0
antiques 0.0
repjohnlewis 0.0
breakers 0.0
fundraising 0.0
hispanic 0.0
defrauded 0.0
fearful 0.0
nytopinion 0.0
volume 0.000372128112867
perfecting 0.0
washingtonpost 0.0
affordable 0.0
mighty 0.0
normalizing 0.0
boasting 0.0
assaulting 0.0
disqualify 0.0
monique 0.0
jcolenc 0.0
teamusa 0.0
allysonfelix 0.0
usabasketball 0.0
ibtihaj 0.0
simone 0.0
feminism 0.0
conversion 0.0
destiny 5.98273632723e-05
disrespected 0.0
serenawilliams 0.0
tantrum 0.0
heinous 0.0
unconscious 0.0
accomplishments 0.0
saddened 0.0
disgrace 0.0
rodriguez 0.0
arsenal 0.0
defender 0.0
malalafund 0.0
merchandise 0.0
laundry 0.0
lesbians 0.0
cnnpolitics 0.0
nickgass 0.0
examining 0.0
monument 0.0
appeals 0.0
gracias 0.0
madame 0.000316112508371
grande 0.0
speechless 0.0
coulter 0.0
missiles 0.0
psyched 0.0
chelsea 0.0
biases 0.0
resume 5.56000149595e-05
spectator 0.0
angelina 0.0
spectacle 0.0
admiration 0.0
reaches 0.000218372403117
español 0.0
dreamers 0.0
mañana 0.0
bursting 0.0
undone 8.65918534974e-05
beyoncé 6.74719736061e-05
nuestra 0.0
diwali 0.0
prestigious 0.0
cynicism 0.0
disability 0.0
registering 0.0
booker 0.0
méxico 8.8675435517e-05
disponible 0.0
honduras 0.0
famously 0.0
overdue 0.000236866256695
equity 0.0
opioid 0.0
millennials 0.0
recommendations 0.0
investors 0.0
betrays 0.0
patriotism 0.0
liability 0.0
iranian 0.0
delegate 0.0
struck 0.0
millennial 0.0
dictators 0.0
graduate 5.15964017436e-05
analysts 0.0
victor 0.0
shrink 7.44972036575e-05
dictator 0.0
poised 6.24477731981e-05
avoided 0.0
rallying 0.0
catholic 6.07752340733e-05
thriving 0.0
racially 0.0
undermines 0.0
yashar 0.0
inequality 0.0
medicare 0.0
missionaries 0.0
foremost 0.0
deplorable 0.0
demonize 0.0
wikileaks 0.0
enduring 0.0
privatized 0.0
appoint 0.0
losses 0.0
jbarro 0.0
buffett 0.0
staffers 0.0
takeaway 0.000134943947212
moscow 0.000169156075453
hampshire 0.0
pandering 0.0
voxdotcom 0.0
reckoning 0.0
moines 0.0
falter 0.0
countless 5.95199276657e-05
democrat 0.000114397179573
bostonglobe 0.0
accountable 0.0
dispel 0.0
despair 0.0
persisted 0.0
disclose 0.0
tedcruz 0.0
flooding 0.0
prejudice 0.0
towers 0.000136705980508
criticized 0.000134087712608
senatemajldr 0.0
outsider 0.0
declare 5.41057715689e-05
dismantle 0.0
thrive 0.0
threaten 0.0
outsourced 0.0
loophole 0.0
heerjeet 0.0
verbal 0.0
businessinsider 0.0
ukraine 0.0
vladimir 0.0
businessman 0.0
supremacist 0.0
etched 0.0
zekejmiller 0.0
momentarily 0.0
perpetrators 0.0
mocking 0.0
wrecked 0.0
identities 0.0
inhumane 0.0
disavow 0.0
hostile 0.000116083525251
muster 0.0
surrender 0.0
shatter 0.0
patriotic 0.0
rewarded 0.0
jitters 0.0
bullies 0.0
discipline 0.0
forgets 0.0
expand 0.000252703745276
apologized 0.0
tournament 0.0
grindstone 0.0
mastery 9.49036989553e-05
provider 0.0
steroids 0.0
jenniferjjacobs 0.0
notion 0.0
hernandez 0.0
mcuban 0.0
bullied 0.0
jebbush 0.0
discriminating 0.0
somali 0.0
hayden 0.000410432389358
limitless 0.000169364227491
implement 0.0
nydailynews 0.0
corybooker 0.000148994407315
interference 0.0
listens 0.0
preside 0.0
remembers 0.000104507933554
toughness 0.0
extensively 0.0
suffered 0.0
streep 0.0
billionaire 0.0
cheats 0.0
needing 0.0
percentage 0.0
insiders 0.0
binder 0.0
prescriptions 0.0
slashed 0.0
indebted 0.0
dismisses 0.0
delegates 0.0
pledged 0.0
endured 0.0
deployed 0.0
suspense 7.57029351348e-05
courageously 0.0
resilience 0.0
nationalists 0.0
autonomy 0.0
abandoning 0.0
canvas 0.0
blacks 7.50921360364e-05
pledging 0.0
elaine 0.0
methodist 0.0
candidacy 0.0
bonuses 0.0
resolve 0.000116083525251
laughable 0.0
scares 0.0
intellect 7.83233450606e-05
hopeless 0.0
debunked 0.0
shames 0.0
connections 0.0
tyleroakley 0.0
perplexed 0.0
ddlovato 0.0
impromptu 0.0
teenvogue 0.0
unveils 0.0
billie 0.0
prouder 0.0
sweetness 0.0
cheryl 0.0
filipino 0.0
petersburg 0.0
drastic 0.0
lifesaving 0.0
decorated 7.69756852666e-05
usagym 0.0
freestyle 0.0
absentee 0.0
lashes 0.0
concentration 7.02237119238e-05
refuge 0.0
renaissance 0.0
actively 0.0
monitoring 0.0
destined 0.0
willfully 0.0
detained 0.0
warmest 0.0
heroic 0.0
bragged 0.0
miners 0.0
shareholders 0.0
randall 0.0
excessive 6.58055218193e-05
geneva 0.0
corporations 0.0
unsolvable 0.0
grandchildren 0.0
discredit 0.0
enormously 0.0
frances 0.0
pillar 0.0
trillions 0.000246259433615
expansive 0.0
organize 0.0
capabilities 0.0
confederate 0.0
shakers 0.0
ambiguity 0.0
linking 0.0
pretends 0.0
wireless 0.0
inherit 0.000243848280031
paranoia 0.0
theatlantic 0.0
languages 0.000244400453616
disposable 0.0
reinforcing 0.0
integrated 0.0
optimist 0.0
pigeons 0.0
chadhgriffin 0.0
katieledecky 0.0
richards 0.0
demconvention 0.0
abcpolitics 0.0
chobani 0.0
dominiclowell 0.0
floridians 0.0
cecilerichards 0.0
clintonfdn 0.0
billclinton 6.97415128756e-05
grounded 0.0
abilities 0.0
grandfather 0.0
profoundly 0.0
fiercely 0.0
drowning 0.0
astound 0.0
alzheimer 0.0
responders 0.0
peacecorps 0.0
nygovcuomo 0.0
hurricanes 0.000418919089373
approximately 7.12196779161e-05
daunting 0.0
organizer 0.0
ingenuity 0.0
illnesses 0.0
intruders 0.0
invading 0.0
harmful 0.0
foundations 0.0
skateboards 0.0
housekeeping 0.0
dangerously 0.0
renters 0.0
predatory 8.37838178745e-05
rebuke 0.0
jengranholm 0.0
supremacy 0.0
linger 0.0
adamserwer 0.0
clevelanddotcom 0.0
repadamschiff 0.0
fahrenthold 0.0
revoke 0.0
advising 0.0
strengthening 0.0
colleges 6.35132494374e-05
deniers 0.0
aspire 0.0
exceed 0.0
lebassett 0.0
shrugged 0.0
stewardship 0.0
complains 0.0
temperament 0.0
texasinafrica 0.0
americorps 0.0
latino 0.0
payoffs 0.0
protested 0.0
honorable 0.0
fathom 0.0
inconvenience 0.0
johnkasich 0.0
latinos 0.0
votevets 0.0
unsurprising 0.0
loopholes 0.0
dismal 0.0
unqualified 0.0
rigorous 0.0
mittromney 0.0
joyannreid 0.0
theorist 0.0
evan_mcmullin 0.0
discriminate 0.0
ezraklein 0.0
obsessively 0.0
desperation 0.0
latina 0.0
tammyforil 0.0
pantsuit 0.0
superior 6.07752340733e-05
exonerated 0.0
johnpodesta 0.0
recites 0.0
supremacists 0.0
affront 0.0
electing 0.0
defund 0.0
demeans 0.0
govpencein 0.0
squandered 0.0
machado 0.0
pneumonia 0.0
unhinged 0.0
criticizes 0.0
derailment 0.0
iceberg 7.69756852666e-05
epipens 0.0
generals 0.0
timkaine 0.0
provocation 0.0
paulbegala 0.0
clintinfdn 0.0
wesleylowery 0.0
childdefender 0.0
dictatorship 0.0
ceasefire 0.0
stamped 0.0
intimidation 0.0
casinos 0.0
manifest 0.0002487582845
restrict 7.17343874151e-05
transformation 0.0
battleground 0.0
christine 6.83529902541e-05
touted 0.0
mcconnell 0.0
deflect 0.000243848280031
expressing 0.0
commonsense 0.0
statesman 0.0
mcbride 0.0
tumble 8.97929063503e-05
bigoted 0.0
belonged 0.0
praised 0.0
policeman 0.0
booing 0.0
cathedral 0.0
tomperez 0.0
keithellison 0.0
knowingly 8.05062921332e-05
wealthiest 0.0
backward 0.00015140587027
pretended 0.0
thedemocrats 0.0
psychologists 0.0
americ 0.0
successor 0.0
diplomats 0.0
congratulated 0.0
devotion 8.37838178745e-05
remembrance 0.000125594906814
eligible 0.0
incoherent 0.0
exhaustive 0.0
downgraded 0.0
unified 7.17343874151e-05
embraces 0.000227108805405
galling 0.0
senatorreid 0.0
lifetimes 9.35151763337e-05
demagogue 0.0
rodham 0.0
temper 0.000167567635749
longtime 0.0
vetoing 0.0
janelle 0.0
voguemagazine 0.0
dominique 0.0
surpassed 0.0
associates 0.0
demonstrating 0.0
morning_joe 0.0
bazaar 0.0
consequential 0.0
undressed 0.0
entrepreneurial 0.0
billionaires 0.0
prescription 0.0
senseless 0.0
refresher 0.0
classmates 0.0
maturity 0.000243848280031
comentarios 0.0
risked 0.0
invincible 0.0
vigilant 0.0
emissions 6.74719736061e-05
recommit 0.0
voiceless 0.0
natlparkservice 0.0
workplaces 0.000101492656601
mayaharris_ 0.0
dhsgov 0.0
cyberattacks 0.0
maxinewaters 0.0
jerrybrowngov 0.0
discriminates 0.0
thejusticedept 0.0
simone_biles 0.0
sotomayor 0.0
traumatic 0.0
scammed 0.0
dreamer 8.20864778716e-05
fulfill 7.69756852666e-05
latinas 0.0
discouraged 0.0
usnavy 9.35151763337e-05
oftentimes 0.0
reprehensible 0.0
demeaning 0.0
ratified 0.0
emilyslist 0.0
lawsuits 0.0
nonviolent 0.0
caucus 0.0
joebiden 0.0
joyful 0.0
privatize 0.0
barbaraboxer 0.0
sengillibrand 0.0
camino 0.0
familias 0.0
americaferrera 0.0
universidades 0.0
gabbygiffords 0.0
shuttlecdrkelly 0.0
fulton 0.0
shimon 0.0
hablar 0.0
fuerza 0.0
trickle 0.0
refinance 0.0
shattering 0.0
damián 0.0
gouging 0.0
moveon 0.0
simone_manuel 0.0
revdrbarber 0.0
senatorbarb 0.0
cnbcnow 0.0
stiffed 0.0
mikebloomberg 0.0
solver 0.0
thrower 0.0
granddaughters 0.0
changemaker 0.0
clairecmc 0.0
anastasiasomoza 0.0
defunding 0.0
preyed 0.0
aspirations 8.76099592777e-05
fannie 0.0
mubarak 0.0
buzzfeedben 0.0
probed 0.0
marines 0.0
projecting 0.0
outsourcing 0.0
developers 0.0
crimea 0.0
everyo 0.0
chaser 0.0
dubious 0.0
diplomatic 0.0
rosiegray 0.0
unpatriotic 0.0
multifaceted 0.0
myanmar 0.0
adamparkhomenko 0.0
tjmshow 0.0
tenant 0.0
perjury 0.0
contractual 0.0
surrounds 0.0
exceeded 0.0
thrives 0.0
unclerush 0.0
sailors 8.56170847382e-05
stereotypes 0.0
librarycongress 0.0
acknowledging 0.0
philippe 0.0
battled 0.0
postopinions 0.0
ambassadorrice 0.0
shockingly 0.0
mcfaul 0.0
presid 0.0
poisons 9.63818639958e-05
kenvogel 0.0
johndingell 0.0
harnessing 0.0
unwritten 0.0
bewildering 0.0
moonshot 0.0
apologizing 0.0
oligarchs 0.0
espionage 0.0
marcorubio 0.0
desecration 0.0
brianefallon 0.0
bangladesh 0.0
twittermoments 0.0
officialcbc 0.0
thefix 0.0
urgency 0.0
traceeellisross 0.0
andradaymusic 0.0
impeccably 0.0
catastrophe 6.74719736061e-05
tallest 0.000161012584266
anastasia 0.0
azcentral 0.0
marrying 0.0
moderates 0.0
resembles 0.0
paraphrase 0.0
applauds 0.0
heavier 0.000167567635749
virginians 0.0
railing 0.0
eloquently 0.0
denverpost 0.0
independents 0.0
americanos 0.0
hispanos 0.0
bailouts 0.0
divisiveness 0.0
jmpalmieri 0.0
hardballchris 0.0
republicano 0.0
candidato 0.0
phillyinquirer 0.0
jesserodriguez 0.0
militarytimes 0.0
sunsentinel 0.0
ryanlizza 0.0
bretbaier 0.0
thelastword 0.0
hillaryclinto 0.0
maddowblog 0.0
boundless 0.0
enacting 0.0
gettysburg 0.0
groping 0.0
govchristie 0.0
justices 0.0
watchdogs 0.0
cavalier 0.0
succeeds 8.20864778716e-05
retirees 0.0
pocketed 0.0
multimillionaire 0.0
redcross 0.0
evalongoria 0.0
highways 0.0
marlee 0.0
primero 0.0
pianos 0.0
bribed 0.0
scranton 0.0
wellesley 0.0
perkins 0.0
onward 0.000378514675674
algore 8.65918534974e-05
candidly 0.0
trajectory 7.83233450606e-05
quitter 0.0
objectifying 0.0
ignoramus 0.0
disillusioned 0.0
asinine 0.0
vibrancy 0.0
arpaio 0.0
testifying 0.0
chairmen 0.0
luchar 0.0
disrupted 8.56170847382e-05
podemos 0.0
settlements 0.0
massacres 0.0
millones 0.0
eagerly 0.0
grandmas 0.0
dedicado 0.0
seeming 0.0
pragmatic 0.0
hashanah 0.0
porque 0.0
unidos 0.0
nuestras 0.0
primera 0.0
debemos 0.0
muchos 0.0
cuando 0.0
nuestro 0.0
inteligente 0.0
rapists 0.0
agosto 0.0
presidente 0.0
puedes 0.0
mujeres 0.0
safeguarding 0.0
indecent 0.0
motions 0.0
strengthened 0.0
eminently 0.0
innuendo 0.0
memorandum 0.0
reuterspolitics 0.0
educates 0.0
mexicana 0.0
disparage 0.0
absurdity 0.0
backdoor 0.0
affording 0.0
hardline 0.0
steelworkers 0.0
demean 0.0
immigrate 0.0
thuggish 0.0
astrid 0.0
jesuit 0.000113837621597
governorship 0.0
waterboarding 0.0
personas 0.0
stephenson 0.0
huracán 0.0
firefighter 0.0
ravages 0.0
marleematlin 0.0
scrolling 0.0
tarnish 0.0
ajentleson 0.0
roanoke 0.0
heaping 0.0
carpentry 0.0
forcefully 0.0
frankiejgrande 0.0
aprildryan 0.0
unjustified 0.0
yamiche 0.0
evacuate 0.0
disrespects 0.0
incomprehensible 0.0
jogger 0.0
vindicated 0.0
blazed 0.0
cambodia 0.0
revolutionize 0.0
welding 0.0
unbeatable 0.0
polished 0.0
saddled 0.0
interdependence 0.0
alleys 0.0
civility 0.0
vilified 0.0
disagreeable 0.0
terence 0.0
bluster 0.0
incredib 0.0
holton 0.0
hillaryforpa 0.0
hillaryforco 0.0
jes_chastain 0.0
vitalvoices 0.0
indictments 0.0
evokes 0.000284711096866
reaffirming 0.0
rebukes 0.0
minerva 0.0
peddle 0.0
starker 0.0
cascading 0.0
carolinians 0.0
señora 0.0
honrado 0.0
missionary 0.0
ranchers 0.0
denveropinion 0.0
practicality 0.0
thoughtfulness 0.0
scripture 9.79620497341e-05
pueblo 0.0
morningmoneyben 0.0
smalls 0.0
exemplify 0.0
eviscerated 0.0
jeffflake 0.0
helpless 0.0
sarahemcbride 0.0
indivisible 0.0
colinjones 0.0
mrjoshcharles 0.0
houstonchron 0.0
thoroughness 0.0
isolde 0.0
wonkiest 0.0
equate 0.0
dustbin 0.0
estados 0.0
newrepublic 0.0
expresses 0.0
demonizing 0.0
jeffbezos 0.0
discard 0.0
befriending 0.0
slovenia 0.0
unrelenting 0.0
salmahayek 0.0
revolves 0.0
anselm 0.0
dwells 0.0
usairforce 0.0
deride 0.0
repackaging 0.0
earmarked 0.0
evader 0.0
passpor 0.0
awaited 0.0
guterres 0.0
precinct 0.0
presidencia 0.0
unshakable 0.0
marshablackburn 0.0
comunidad 0.0
merecen 0.0
juntos 0.0
infomercial 0.0
johnstown 0.0
statewide 0.0
skyscrapers 0.0
phillydotcom 0.0
deducted 0.0
laguardiacc 0.0
annieslisttx 0.0
nickmerrill 0.0
leaninorg 0.0
missbeae 0.0
minassianmedia 0.0
natarsha 0.0
foments 0.0
ruline 0.0
steininger 0.0
michaelnutter 0.0
harren 0.0
louisa 0.0
cannell 0.0
robbymook 0.0
broward 0.0
hillaryforfl 0.0
jeanneshaheen 0.0
ericasmegs 0.0
jeremyshorr 0.0
turpin 0.0
rubycramer 0.0
singularly 0.0
joshschwerin 0.0
clionamccarney 0.0
xochitlhinojosa 0.0
adamsmith_usa 0.0
humayun 0.0
jamestaylor_com 0.0
hillaryformn 0.0
ericwms 0.0
dougmillsnyt 0.0
jencarlosmusic 0.0
hannahbfine 0.0
creynoldsnc 0.0
lefsadventures 0.0
pembroke 0.0
perceptiveness 0.0
hillaryforaz 0.0
fayetteville 0.0
entrust 0.0
daveeddiggs 0.0
petewilliamsnbc 0.0
hillary_esp 0.0
ustedes 0.0
nación 0.0
creativa 0.0
bilingües 0.0
multilingües 0.0
contribuyen 0.0
diversidad 0.0
economía 0.0
hillaryforia 0.0
estaré 0.0
discurso 0.0
síganme 0.0
detall 0.0
hopewell 0.0
temperamentally 0.0
redone 0.0
barging 0.0
machadooficial 0.0
mikereedschmidt 0.0
franklinfoer 0.0
eamonjavers 0.0
hillaryforoh 0.0
hustling 0.0
relishes 0.0
markkirk 0.0
asmamk 0.0
just_jenna 0.0
discrimina 0.0
samifayebaker 0.0
padded 0.0
wigazette 0.0
phillytrib 0.0
trivializes 0.0
condones 0.0
ellisoncampaign 0.0
barb_kinney 0.0
theriveterspod 0.0
humiliates 0.0
nickmarroletti 0.0
alli_wilber 0.0
brespolitico 0.0
jasoncherkis 0.0
sean_p_thomas 0.0
outclassed 0.0
outmaneuvered 0.0
belittling 0.0
familie 0.0
yuuuuuuge 0.0
disqualifying 0.0
brynnecraig 0.0
buffywicks 0.0
lasvegassun 0.0
cmichaelhuntley 0.0
civically 0.0
raquelwillis_ 0.0
celebramos 0.0
trayectoria 0.0
pionera 0.0
breakups 0.0
rosenbergerlm 0.0
heraldleader 0.0
jaylon 0.0
decisi 0.0
antónio 0.0
squander 0.0
presidenta 0.0
protegerá 0.0
astrid_nv 0.0
sltrib 0.0
peter_j_k 0.0
brosandprose 0.0
nicholaskitchel 0.0
mahoning 0.0
omerizer 0.0
kendallybrown 0.0
davidnakamura 0.0
chatima 0.0
tammybaldwin 0.0
mpshapiro 0.0
responsibilit 0.0
overgrown 0.0
literally_trump 0.0
imploded 0.0
rnicholasburns 0.0
disastrously 0.0
stiffing 0.0
globeopinion 0.0
degradi 0.0
languishing 0.0
demostrar 0.0
poderosa 0.0
iammarleydias 0.0
tbtimes_opinion 0.0
disloyalty 0.0
defende 0.0
vegalteno 0.0
moodysinvsvc 0.0
decisiveness 0.0
whethe 0.0
preocupada 0.0
trayecto 0.0
afectados 0.0
ayotte 0.0
empathize 0.0
lifelo 0.0
lorellapraeli 0.0
ironworking 0.0
ebeling 0.0
contribuido 0.0
ejército 0.0
inmigrantes 0.0
indocumentados 0.0
enquirer 0.0
delega 0.0
roadshow 0.0
sunsentinelopinion 0.0
resulta 0.0
insultar 0.0
construir 0.0
muralla 0.0
provoked 0.0
discretion 0.0
sdutideas 0.0
merece 0.0
respeto 0.0
enfrentar 0.0
valentía 0.0
ataques 0.0
descaro 0.0
culparla 0.0
petulance 0.0
ninhaitseng 0.0
flippantly 0.0
posteverything 0.0
_vicentefdez 0.0
azcopinions 0.0
aumentó 0.0
andrewjenks 0.0
imwithher 0.0
diferencias 0.0
onevoxdotcom 0.0
ignite_national 0.0
endorsin 0.0
mercersdairy 0.0
everyvoice 0.0
rachaelgass 0.0
galifianakis 0.0
crutcher 0.0
nyledimarco 0.0
mistreat 0.0
wellsfargo 0.0
templeuniv 0.0
sollender 0.0
honremos 0.0
tantas 0.0
contribuciones 0.0
aleatha 0.0
endeavored 0.0
legitimize 0.0
además 0.0
whistles 0.0
ugliness 0.0
jorge_silva 0.0
dnclatinos 0.0
libnofcongress 0.0
unscrupulously 0.0
contractually 0.0
impulsively 0.0
qaddafi 0.0
cancelable 0.0
cnbcopinion 0.0
jbrotherston 0.0
_bxddxss 0.0
sspiderboy 0.0
collegedems 0.0
veered 0.0
charitynav 0.0
usnewsopinion 0.0
humansofny 0.0
unfitness 0.0
steadiness 0.0
nbcusa_inc 0.0
verdadera 0.0
encuentra 0.0
hacemos 0.0
anuncio 0.0
unpresidential 0.0
unfavorably 0.0
heridas 0.0
visibles 0.0
veteranos 0.0
cuidado 0.0
panetta 0.0
experiencia 0.0
confío 0.0
exsecretario 0.0
comercio 0.0
lizromanoff 0.0
americasvoice 0.0
davidleopold 0.0
rebuked 0.0
criminalize 0.0
mentiré 0.0
inmigración 0.0
demonizar 0.0
americanlegion 0.0
sarasolow 0.0
qumber 0.0
zerlinamaxwell 0.0
hillaryforut 0.0
hillaryforga 0.0
grandtetonnps 0.0
marlondmarshall 0.0
mariatcardona 0.0
escuchamos 0.0
claramente 0.0
demonizando 0.0
segunda 0.0
tercera 0.0
rhettbuttle 0.0
hillaryformi 0.0
futuramics 0.0
louisianans 0.0
claressashields 0.0
helen_maroulis 0.0
bri_rollin 0.0
itspooda 0.0
kristihollywood 0.0
meredeetch 0.0
kersee 0.0
rodhams 0.0
bidens 0.0
possibilitie 0.0
maulama 0.0
akonjee 0.0
shotdiva 0.0
auriemma 0.0
maxlinsky 0.0
cowering 0.0
moratory 0.0
hillarycl 0.0
repudiate 0.0
fencer 0.0
bankruptcies 0.0
warrenbuffett 0.0
bishopgarrison 0.0
ajazzyworld 0.0
morell 0.0
starkest 0.0
braille 0.0
frankmugisha 0.0
confiar 0.0
distinguido 0.0
herencia 0.0
harkening 0.0
impulses 0.0
dakota_meyer 0.0
kauveri 0.0
iafftreg 0.0
laurawalkerkc 0.0
jakesherman 0.0
benediction 0.0
denigrates 0.0
ann_oleary 0.0
liberates 0.0
bombast 0.0
repcleaver 0.0
throwed 0.0
luchado 0.0
derechos 0.0
humanos 0.0
trabajadores 0.0
relent 0.0
aprendí 0.0
valores 0.0
trabajo 0.0
mismos 0.0
annella 0.0
drbiden 0.0
expedient 0.0
imangelabassett 0.0
smegielski 0.0
leinonen 0.0
driffin 0.0
buckles 0.0
insatiably 0.0
sybrina 0.0
mcbath 0.0
dontre 0.0
randibrazeau 0.0
sjbxtr 0.0
malcolmkenyatta 0.0
lankford 0.0
countrymen 0.0
countrywomen 0.0
refiere 0.0
separar 0.0
valiente 0.0
strongmen 0.0
seremos 0.0
compañeros 0.0
bienvenidos 0.0
dauntless 0.0
governorva 0.0
sherrodbrown 0.0
vicepresidencia 0.0
ilyseh 0.0
gunsense 0.0
encantada 0.0
anunciar 0.0
splintering 0.0
albamonica 0.0
criminologist 0.0
construiremos 0.0
discriminatio 0.0
endorser 0.0
sniveling 0.0
ryanegraney 0.0
baptize 0.0
convención 0.0
republicana 0.0
