chatting 8.56567921436e-05
trying 0.000508946364798
launch 0.000249619149446
moment 2.55848837303e-05
wonderful 5.71690254761e-05
seeing 5.22855769867e-05
recommend 7.57526561848e-05
anybody 0.000117078134631
podcast 0.000825910985814
challenges 0.0
worked 0.000137597873879
direct 0.0
others 0.000246339474126
currently 0.000211900280509
better 0.000276918643134
please 0.00158199243521
travels 0.0
social 0.000342083202767
around 0.000251744221031
people 0.00506005884272
leaving 8.64560852926e-05
morning 0.000253105003917
general 0.000326210462922
overall 4.42351543187e-05
damage 0.0
affect 0.0
everything 0.000278415504309
twitter 0.000558333960114
present 2.88186950975e-05
though 0.000817012196177
friend 0.000458051728319
watched 0.000114338050952
beautiful 0.000234651334352
anything 0.000282955255868
practice 0.0
helped 8.32320417111e-05
helpful 4.33817023469e-05
revive 0.0
updated 8.04615851088e-05
thinking 0.000103449162551
finally 0.000129311453188
caught 0.0
believe 0.000328150800933
already 0.000151454215815
orlando 0.0
depends 7.57526561848e-05
chance 0.000101242001567
meaning 0.000112292254402
annual 0.0
renewed 0.0
growing 0.00015177344975
probably 0.000109780816794
should 6.69112679057e-05
changed 8.12298349162e-05
history 0.000547519780154
center 0.0
museum 0.0
behind 0.000125872110515
pretty 0.000232760615739
really 0.00136676702115
expensive 0.000174087800746
little 0.00030290843163
earlier 8.88462615564e-05
forget 0.000128269747018
paperwork 0.0
someone 0.000459288126351
mostly 0.000115333870812
worker 5.33801345615e-05
safety 0.0
program 3.52127019248e-05
things 0.000855930351505
electrical 0.0
visiting 3.49112082362e-05
available 0.000105136872812
perfect 0.0
different 0.00023150884571
search 3.38356324448e-05
connect 0.0
numbers 3.16371958899e-05
person 0.000253788163688
watching 0.000229025864159
passed 6.17197585057e-05
minutes 0.000130713942467
daughter 0.0
average 0.000108733754957
positive 0.000120093771099
outside 0.000535711492315
metric 0.0
looking 0.000277666062328
forward 0.000156012893388
raising 7.2278944847e-05
afraid 0.000392549083263
impression 0.0
profile 6.92265652081e-05
drawing 9.02371160316e-05
favorite 2.93737442105e-05
picture 2.69306725512e-05
historic 3.82157636452e-05
instead 8.55208006916e-05
appreciate 5.95556734173e-05
husband 0.000158004192262
international 6.25775108385e-05
toddler 0.0
couldn 2.63552321347e-05
remember 0.000177173502742
holidays 0.0
friends 0.000356262455359
despite 0.000179652774292
understood 0.0
impossible 0.0
everyone 0.000506210007835
florida 3.7320578766e-05
always 0.00098180246202
months 0.000184985128684
moving 8.16702050636e-05
meeting 0.000259321226439
google 0.000159066207585
answer 0.000259321226439
together 0.000355303429163
included 0.00023135903131
inside 2.63552321347e-05
section 3.89086813913e-05
missed 0.000128269747018
button 0.0
active 0.0
longer 5.84278121458e-05
enough 0.000511697674607
projects 0.0
driving 0.0
building 0.000227436741828
enjoying 3.0945071964e-05
kennedy 0.0
tantrums 0.0
apparently 0.000195726277753
recent 3.34556339528e-05
gotten 0.0
amazing 0.00030290843163
determined 0.000195299976592
attention 0.000114649326898
progress 0.0
tomorrow 0.00205015053173
whenever 4.1626205861e-05
curious 4.02307925544e-05
george 0.000566322710608
feeling 7.9493591409e-05
excited 0.000132132234774
campaigning 0.000737256076272
understand 0.000275941657107
learning 3.1375414445e-05
special 0.000178612049137
secret 0.000170114932632
across 0.000480685544215
comparison 4.73090191479e-05
surprised 3.01885215441e-05
anymore 3.2258818142e-05
spirited 8.18833427939e-05
precious 0.0
rejoice 0.0
rather 0.000142147963643
showing 0.000108014145367
saying 0.00132132234774
tweeted 0.000133822535811
updates 0.000110330500825
thoughts 0.000268580190459
exactly 0.000574792106294
except 0.000129035272568
getting 0.000379657505876
nothing 0.000708694010968
tweets 0.000139473796983
course 0.000209142307947
photos 6.12120347659e-05
looked 2.87403920107e-05
difficult 6.67230477081e-05
office 0.000164226316084
decisions 3.82157636452e-05
brought 8.41392390015e-05
biggest 0.000338940816286
thrilled 0.0
entire 0.000253103253984
something 0.000404968006268
closing 7.53051079561e-05
anyone 0.000765480210585
taking 0.000556831008618
reprint 0.0
flying 6.36264830342e-05
happening 0.000165564994264
sometimes 0.00016736855638
lessons 7.33389596667e-05
village 0.0
stopped 0.0
yesterday 0.000280676077215
service 8.34578214497e-05
serious 8.12298349162e-05
emails 4.38048118377e-05
wearing 8.90894928981e-05
afford 4.08555000964e-05
either 0.000137970828553
second 0.000153096042117
checking 0.0
volunteers 5.29674298743e-05
indeed 0.000310632772054
hearing 0.000169653721488
choose 8.93335101259e-05
another 0.000378635539538
address 0.0
display 4.52688535195e-05
compare 0.0
weekend 2.56539494036e-05
suggested 0.000148587659121
appear 3.83299335556e-05
anyway 0.000261699388842
theory 0.0
buildings 0.0
working 0.000329036505092
bigger 8.90894928981e-05
treated 0.000124878617583
admired 8.00177174217e-05
retirement 4.83094589558e-05
laughing 6.00468855496e-05
wanted 5.11697674607e-05
current 2.98594394449e-05
grateful 0.0
friendship 0.0
family 0.000278415504309
listening 5.54880278074e-05
stream 6.96230148486e-05
sharing 0.000119111346835
double 0.0
especially 5.6092826001e-05
middle 0.000232440611076
waiting 5.18642452878e-05
definitely 0.000249020804815
walking 0.0
account 0.000178178985796
completely 0.000210164099424
thought 0.000204128056156
accept 0.000452884428176
possible 0.000241070171542
simple 8.83621363966e-05
manufacturing 0.0
destroyed 0.000243259866918
members 0.000159508640767
supposed 0.000100934748641
manufacturers 0.0
business 0.000163782713613
absolutely 0.00021661289311
anywhere 0.000134960374906
sending 5.87474884211e-05
introducing 0.0
congrats 2.65694838288e-05
beauty 3.62445849858e-05
community 0.000124809574723
greatest 2.76689783128e-05
posted 5.98826151129e-05
wednesday 9.15658874194e-05
explain 0.00011813841474
broken 0.00018825248667
fairly 5.2763587286e-05
closest 0.000241547294779
hoping 6.08763745613e-05
relationship 0.000136111218157
actually 0.000881692169893
pockets 0.0
wallet 0.0
pocket 0.000173526809388
argument 0.000390260448771
decent 0.000179876617915
school 2.57232050789e-05
throwback 0.0
thursday 0.00043322578622
talented 3.32677642593e-05
discuss 6.52420925844e-05
celebrate 2.79704720014e-05
celebrating 3.01885215441e-05
anniversary 3.06060173829e-05
students 6.7100194372e-05
corners 0.0
internet 0.000125849491246
figure 0.0
opened 0.0
inspired 9.18180521488e-05
latter 5.71915331676e-05
sitting 0.000114338050952
playing 7.71696152367e-05
street 0.000476789021008
points 0.00016219640361
advice 0.0
memory 0.000210067832843
forever 2.85845127381e-05
congress 0.0
imagine 0.000169193914336
problem 0.00032579879608
pulling 0.0
furniture 0.0
keeping 0.0
dressed 0.0
chinese 0.0
unlike 9.3646647827e-05
allowed 6.65355285185e-05
otherwise 0.000143722219434
afternoon 0.000148889183543
planned 3.6350138273e-05
images 0.0
noticed 0.0
expense 6.11125634354e-05
differences 0.0
difference 8.30069349385e-05
editor 0.000249757235166
intent 0.0
suppose 0.0
inspiration 3.47121999105e-05
letting 3.11163271965e-05
system 0.000158185979449
almost 0.000202484003134
details 8.30069349385e-05
experience 5.28528939096e-05
living 0.000237838022593
worries 0.00129125954891
weather 3.23488877269e-05
bright 7.1240787568e-05
understands 0.0
normal 0.000135726140485
launching 8.24758074687e-05
backyard 0.0
pointed 0.000157082363818
before 2.74452041985e-05
monday 0.00118919011297
example 0.000133822535811
science 7.14467135982e-05
tweeting 0.00011558897
forgot 9.51751944514e-05
disaster 0.000155167450071
happens 0.000131067020147
silence 0.000239179657293
learned 0.0
congratulations 0.0
natural 3.59305548585e-05
babies 0.0
mission 3.43188415621e-05
surprising 4.08555000964e-05
reference 0.0
forgotten 3.76525539781e-05
setting 0.0
appeared 0.0
reminds 0.0
fantastic 0.000298594394449
loving 2.98594394449e-05
complete 0.000116220305538
daniel 4.45261913417e-05
rewarding 0.0
nearly 0.000133071057037
spirit 0.0
launched 0.000339877731569
finding 3.0945071964e-05
stories 0.0
including 0.000337471005312
wouldn 0.000109188475742
choice 0.00029703889976
offended 0.0
conversation 3.07749738702e-05
disrespectful 0.0
making 0.000328150800933
expect 3.035468995e-05
traits 0.0
discussion 0.000331961824297
believes 8.87605045083e-05
response 0.000387111877212
brings 3.05219624731e-05
seasons 0.0
anytime 0.0
protected 0.000102762229648
location 0.0
needed 0.000108014145367
seriously 0.000447527552023
emergency 0.000308636215263
justify 5.79283981267e-05
spending 0.000251698982493
groups 0.000122566500289
condition 0.0
childhood 0.0
modern 0.000145824543985
welcome 0.000127924418652
moments 6.29247456231e-05
totally 0.00020449734251
running 0.000159416902973
strong 0.000312868445802
respond 7.64315272903e-05
message 0.000644592457101
coming 0.000378635539538
thankful 0.0
issues 0.000181131129264
challenge 0.000194208097326
intolerance 8.38983717032e-05
happen 0.000206341214437
giving 0.000230263953573
turkey 0.000442615765729
excellent 0.000296897063679
limits 9.3968366776e-05
contractors 0.0
common 0.000156443777096
pressed 0.0
healthcare 0.0
benefits 7.94839069292e-05
situation 3.30812862058e-05
workers 0.000252920628958
company 2.86623317246e-05
savings 0.0
health 5.97188788899e-05
insurance 8.73259674648e-05
change 0.000227794503526
silver 0.0
august 0.000107170070397
crying 3.98632762156e-05
mental 7.53051079561e-05
carrier 0.0
decide 3.1375414445e-05
happened 0.0003196956983
parking 0.0
demand 6.67230477081e-05
sacrifice 0.0
personal 0.000110078299103
rewards 0.0
beyond 0.000169653721488
contributing 0.0
passion 3.83299335556e-05
question 0.00033620977829
doctor 0.0
sacrifices 0.0
respected 0.0
losing 0.000156011968404
strain 0.0
respect 0.000138344891564
shouldn 9.08144059325e-05
career 0.0
visited 0.0
reason 0.00015984784915
simply 0.000158185979449
audience 0.000105033916422
sacrificed 0.0
employees 4.84801336577e-05
accounts 8.45739795674e-05
attacked 0.000148587659121
involved 0.000235632363724
extreme 8.76096236754e-05
valuable 0.0
knocked 0.0
reality 0.000180635081092
mention 6.24047873614e-05
without 0.000331708091254
problems 0.000156011968404
timing 0.0
described 4.86519733837e-05
pattern 0.0
online 0.000272234016879
background 0.0
buying 6.86376831242e-05
called 0.000534393683038
scientists 0.0
checked 0.0
heading 0.000210740927941
paying 0.000131584717308
planning 0.000131584717308
opposite 0.000207480525994
through 7.10357003426e-05
reached 3.75414084461e-05
changing 0.0
explains 0.000102083413617
harder 0.0
demands 0.000107599435952
silent 0.000558552627392
speaking 0.000463616571966
november 0.0
ordinary 0.0
number 0.000181524858507
stunning 7.5528384793e-05
atlantic 0.0
stupid 0.000105638105774
personality 5.11896734294e-05
grandparents 0.0
unless 0.000187214362084
calling 0.000106277935315
painting 9.83492890402e-05
focused 4.11097893505e-05
ridiculous 0.000104733624709
package 0.0
rooted 0.0
option 0.0
knowing 3.50113054739e-05
former 0.000190879449103
actual 0.000100934748641
tracked 0.0
suffers 0.0
schedule 0.0
friday 7.69618482107e-05
failure 0.000529481059285
achieve 4.24212536865e-05
winner 0.0
doctors 4.5572163479e-05
becomes 0.0
directly 8.35139647477e-05
quality 0.0
tearing 0.00021698973262
father 0.000317005646073
wishes 3.2988562631e-05
collar 0.0
caring 0.0
ground 6.56082676108e-05
matter 0.000190049297713
strategy 0.00105051478242
themselves 8.84703086374e-05
asking 0.000160713447694
usually 3.37400937264e-05
thankfully 0.0
reacts 0.0
period 0.0
parents 3.035468995e-05
balance 7.87629087727e-05
resist 4.79715421761e-05
mobile 8.40411825934e-05
computer 0.0
reminded 8.78948870119e-05
impressed 0.0
dinner 0.000111881888006
suffering 0.000190552404988
single 0.000234651334352
parent 0.0
approved 4.7804269653e-05
energy 6.02116936975e-05
preview 0.0
meltdown 0.0
remind 7.04254038496e-05
emotional 7.29122719926e-05
sounded 0.0
status 7.62042183525e-05
update 0.0
outage 0.0
customers 0.0
holding 0.000179647845339
causes 4.49691544788e-05
eating 3.16371958899e-05
picked 3.15496325943e-05
missing 0.0
surprise 2.70766116387e-05
officially 0.00011813841474
global 0.000304520692004
follow 0.000254473182399
opinion 0.000560805564727
faster 0.0
backwards 5.44425040983e-05
design 0.0
website 9.25796377586e-05
widely 0.0
origin 0.0
breaks 0.000100084571562
allows 0.0
promoting 0.0
volunteer 5.29674298743e-05
convince 9.5608539306e-05
negative 0.0
official 5.22855769867e-05
jersey 0.0
mistake 7.00226109477e-05
fixing 0.0
translated 0.0
ginger 0.0
peaceful 0.0
thinks 0.00023627682948
hospital 3.68846471441e-05
lauren 0.0
easier 0.000102956524686
excluded 0.0
successful 3.4613282604e-05
leadership 0.00134712122839
agrees 0.0
decline 0.0
turnout 0.000440817069448
showed 0.0
trumps 5.94701709997e-05
circle 0.0
engage 5.0438142334e-05
suited 0.0
experienced 0.0
interested 9.75899983752e-05
effect 0.0
success 5.71690254761e-05
ladies 0.0
dreams 0.0
protect 0.000129757122888
explanation 4.52688535195e-05
occasion 0.0
medication 0.0
planet 0.000106553550514
detached 0.0
essence 0.0
control 0.000282756202479
happier 0.0
likely 0.000135342529779
coincidence 0.0
cancel 5.29674298743e-05
project 0.00014292256369
laying 5.23607879392e-05
lesson 3.52127019248e-05
requires 4.89992122972e-05
healthy 0.0
treating 0.0
opening 5.50391495515e-05
statement 0.000229628936638
enjoyed 6.00468855496e-05
animal 3.79889655157e-05
nervous 0.0
pounds 0.0
wonder 0.000274452041985
matters 6.65355285185e-05
shared 0.000104136599731
somehow 4.08555000964e-05
benefit 3.17250648171e-05
terrible 0.000580658726557
continues 0.0
improve 0.0
equally 4.7804269653e-05
appointment 0.0
session 3.30812862058e-05
routine 5.13811148242e-05
exciting 3.035468995e-05
corner 3.61394724235e-05
imagination 0.0
decides 0.0
cheering 0.000200282503981
spring 3.23488877269e-05
fallen 4.45261913417e-05
frequently 0.0
places 9.05655646322e-05
thousands 0.00089044006484
informed 0.0
typical 0.0
continue 5.84278121458e-05
attend 0.000114306327529
excuse 0.000146677919333
settle 0.0
female 0.0
recovery 0.0
treasured 0.0
grandma 5.33801345615e-05
closer 0.0
beginning 9.54397245513e-05
everywhere 0.000392450780073
scenes 9.67764544261e-05
bought 0.0
multiple 0.0
slogan 0.000123951542089
wishing 3.66694798333e-05
covered 0.000295237204249
remove 0.0
choices 0.0
dealing 4.3947443506e-05
teacher 3.77641923965e-05
training 6.56082676108e-05
passing 6.84429097896e-05
stopping 0.0
become 0.000264264469548
spread 0.000433458637502
season 0.0
putting 0.000132847419144
weight 0.0
quietly 0.0
necessity 0.0
knocks 0.0
effects 0.0
returns 3.39315351212e-05
expected 3.62445849858e-05
resources 0.0
bucket 4.7638101247e-05
struggling 4.38048118377e-05
register 0.00018826276989
promotion 0.0
solution 4.20205912967e-05
manage 0.0
transition 4.89992122972e-05
gained 0.0
define 0.0
somebody 0.0
contract 4.38048118377e-05
ignorant 0.000108885008197
managers 0.0
credit 3.12023936807e-05
brothers 0.0
grandkids 0.0
computers 0.0
physical 4.21534381596e-05
series 0.0
offensive 0.0
fighting 5.7637390195e-05
donald 0.00239910912602
mexico 7.31251638286e-05
sandra 0.0
police 0.000130484185169
represent 4.28283960718e-05
president 0.000449961340416
talking 0.000609091592851
america 0.000350098743165
michigan 0.0
everybody 3.12023936807e-05
judgment 6.00058172094e-05
carolina 0.00018601862435
amount 0.000106553550514
houston 0.0
everyday 0.0
michael 0.000200091589167
protecting 0.0
providing 4.74730224778e-05
attitude 4.48206323836e-05
million 0.000265694838288
election 0.00192011645299
honesty 5.44425040983e-05
targeting 0.0
telling 8.62211760322e-05
correct 6.52420925844e-05
attack 0.000456694648091
elementary 0.0
americans 0.000246488913474
killed 0.000225591885781
horrible 0.0
salute 0.0
coverage 3.43188415621e-05
united 0.000164020669027
college 9.49115876696e-05
refuse 0.000317940361931
preach 0.0
hillary 0.0
clinton 0.0
presidency 5.46604658244e-05
throws 0.0
manning 5.74347661912e-05
american 0.000429728304734
deserved 3.8675583225e-05
humble 0.0
remain 0.000320583544056
founder 0.0
illegal 0.000126460314479
arizona 0.0
opinions 0.000520580428163
speeches 0.000108452826623
scared 3.71016693683e-05
salary 0.0
pieces 3.74307514675e-05
taught 0.000111961736298
thompson 0.0
straight 0.000252417717004
blocking 0.0
answers 6.52420925844e-05
created 6.08763745613e-05
record 0.000211411575638
stamina 0.0
weapon 0.0
bottom 3.39315351212e-05
athletes 0.0
registered 0.0
minnesota 0.0
committed 0.000159453104862
journey 0.0
snapchat 4.6984183388e-05
peoples 0.0
disrespect 0.0
brother 0.0
prayers 0.0
boston 0.000109687745743
korean 0.0
church 0.000153778494416
advantage 8.64844630152e-05
motivation 0.0
honestly 7.2278944847e-05
defeat 0.00136260155113
lifetime 0.0
captain 0.0
retired 0.0
country 0.0012025682707
ending 3.40278045391e-05
dressing 4.91746445201e-05
finish 3.11163271965e-05
ranked 0.0
employee 0.0
university 3.62445849858e-05
dreamed 0.0
prayer 0.0
nominated 3.79889655157e-05
responds 0.0
national 0.000383194737529
reform 5.00706259952e-05
shooting 0.0
cancer 3.18132415171e-05
deserve 0.000186183323729
mother 0.000112795942891
creating 3.48115074243e-05
powerful 0.000370318551034
wisdom 4.26919490055e-05
breaking 0.000108893606751
dollars 0.0
questions 0.000103728490576
racist 0.000364577307832
charged 0.0
soldiers 0.0
performance 2.92936982858e-05
reading 0.000188006133321
denver 0.0
graphic 0.0
garner 0.0
create 8.78810948575e-05
jordan 0.0
admire 0.0
nobody 0.000217213877683
government 0.00128779515514
politics 0.00107480227984
blessing 0.0
wrestling 0.0
charities 0.0
donate 0.000409493322171
sample 0.0
bringing 2.84295927285e-05
deserves 6.72898324275e-05
regret 8.90523826834e-05
victim 4.81399335873e-05
according 0.000201300583116
threat 0.00018826276989
heaven 0.0
heroin 0.0
honest 0.000188774236869
became 3.16371958899e-05
decision 6.30992651885e-05
counting 0.0
signing 6.63487051346e-05
embrace 4.42351543187e-05
pressure 0.000137666425724
celebrities 0.0
facebook 0.000189536281471
kardashian 0.0
divided 0.000221303631182
lawyer 0.0
lebron 0.0
campaign 0.00158618218737
determine 0.0
whether 0.000607820011337
praise 8.5931173445e-05
defined 0.000165306401043
proposes 0.0
discover 0.0
factory 5.15740232172e-05
arrested 4.7804269653e-05
estate 0.0
proposed 4.7804269653e-05
comments 0.0
teenage 0.0
wounded 6.508768095e-05
endorsement 0.0
williams 0.0
custom 0.0
troops 5.23607879392e-05
singer 4.93513078564e-05
future 0.000547519780154
struggled 0.0
sister 6.80556090783e-05
sabotage 7.82808617528e-05
athlete 0.0
warrior 0.0
cheating 0.0
voting 0.000499238298891
succeed 4.74730224778e-05
religion 5.23607879392e-05
century 4.14961051989e-05
serving 0.0
because 7.29122719926e-05
cleveland 0.0
hiding 4.14961051989e-05
breath 0.0
choosing 5.02537135084e-05
lawrence 0.0
instagram 3.51118023023e-05
opponent 5.46604658244e-05
detroit 0.0
honored 0.0
nonsense 9.46180382958e-05
lifting 0.0
proven 0.0
talent 0.0
knocking 0.000123951542089
russian 0.0
brains 0.0
oakland 0.0
regardless 0.000134018944173
skills 0.0
citizens 0.000432422315076
california 0.0
commitment 0.000125665325388
seconds 3.38356324448e-05
seeking 4.45261913417e-05
threatening 5.35890521265e-05
listen 0.000418284615894
whatever 0.000348660916614
mexicans 0.0
satisfied 0.0
fought 4.09823236498e-05
compete 0.0
injured 0.0
billion 7.24891699716e-05
ceiling 0.0
absolute 7.42033387366e-05
appearance 3.89086813913e-05
bigsean 0.0
handle 3.2988562631e-05
promise 0.000240187542199
nightclub 0.0
hosting 0.0
actors 0.0
generation 0.000104136599731
criminal 0.0
tuesday 0.000114961568043
ronald 0.0
locker 0.0
struggle 0.000314099409313
degree 0.0
entering 0.000193237835823
leader 0.000395862751572
pageant 0.0
toughest 0.0
character 6.76712648897e-05
mirror 0.000247427422406
interview 0.000823142562525
whistle 0.0
obviously 0.000248624951199
battle 0.0
motivate 0.0
destroy 0.000131842330518
relentless 0.0
winning 0.000162021218051
charlotte 0.0
accomplished 5.55516888792e-05
stepped 5.76803722574e-05
defense 0.0
appeal 0.000135806560559
causing 5.33801345615e-05
arabia 0.000199346376001
shipped 0.0
society 0.000174556041181
officers 0.0
brooklyn 0.0
marked 0.0
incredible 0.000272971189356
poster 4.01076900005e-05
wealthy 5.86874834373e-05
memorable 0.0
officer 4.57251999509e-05
minute 8.55208006916e-05
luther 0.0
foreign 0.000376995976163
pregnant 0.0
champions 0.0
virginia 0.0
tackle 4.6984183388e-05
unarmed 0.0
orange 0.0
policy 0.000333915024315
comedy 0.0
reminder 0.0
evidence 0.00018770704223
lighten 0.0
presidents 0.0
kicked 0.0
sticker 0.0
accused 0.000250353129976
intentions 0.0
facing 8.32524117221e-05
freedom 0.000246488913474
actions 0.00017186234689
debating 0.000896150692074
outcome 0.0
utterly 0.000871080065573
mississippi 0.0
clearly 3.20796400041e-05
download 7.14467135982e-05
sidelines 0.0
invite 7.16534853229e-05
legally 5.46604658244e-05
central 0.000100084571562
washington 0.000267645071623
veteran 0.0
division 0.0
veterans 0.0
stronger 4.02307925544e-05
promised 8.29922103977e-05
worried 0.000109687745743
security 3.3550097186e-05
immediately 3.53140075831e-05
television 4.45261913417e-05
entitled 0.000164640993511
racism 0.00200182476007
highest 7.14467135982e-05
approve 0.0
turning 0.000284734763009
legacy 4.01076900005e-05
ignore 0.000217467509915
choked 0.0
backing 0.000157082363818
helping 5.56385476331e-05
collector 0.0
willing 0.0
basically 0.000147538588576
return 5.59409440028e-05
unacceptable 5.46604658244e-05
feelings 4.36629837324e-05
network 0.0
language 3.54157225582e-05
invest 0.0
coward 6.98103676422e-05
schools 0.000215583329151
patients 0.0
foster 0.0
children 0.000222554190533
nation 3.18132415171e-05
review 0.000180635081092
between 0.0
knowledge 0.0
begins 3.02714686442e-05
tenure 0.0
faithful 0.0
highlights 3.81021091763e-05
shoulder 0.0
produced 3.96212125996e-05
consider 0.000100650291558
shattered 0.0
latest 0.000246339474126
beyonce 0.0
signed 8.368427819e-05
millionaire 0.0
shelter 0.0
charity 3.53140075831e-05
germany 3.84446236041e-05
advance 0.000110330500825
proved 0.0
married 0.0
millions 0.000342214548948
blessings 0.0
indonesia 0.0
fights 4.6034092441e-05
dollar 0.0
rigged 6.4433763091e-05
conduct 0.0
johnson 0.000215583329151
howard 0.0
turned 0.000138720069519
criticism 4.6984183388e-05
stomach 5.25613820053e-05
upgrades 0.0
jackie 0.0
relevant 0.000134907463436
charge 7.00226109477e-05
ticket 0.0
steady 0.0
indian 5.25613820053e-05
turner 0.0
sanders 5.55516888792e-05
includes 0.000263567877847
survivor 0.0
dealers 0.0
collection 0.0
against 0.000111559026517
joyner 0.0
impact 6.76712648897e-05
families 6.46977754537e-05
welcoming 5.06239322703e-05
hitting 0.0
announced 3.07749738702e-05
granted 0.0
decided 3.02714686442e-05
itself 0.00017186234689
selfish 0.0
mexican 5.02537135084e-05
respects 0.0
guarantee 0.0
beliefs 0.00017761968623
citizen 0.0
states 0.000159508640767
denied 0.000101247864541
drought 0.0
memorial 0.000205548946752
decades 0.000243622522665
trayvon 0.0
landed 0.0
pastor 0.0
ultimate 0.0
weekends 0.0
episode 9.05655646322e-05
spikes 0.0
engaged 0.000108452826623
financial 0.000178104765367
payments 0.000135775444074
tolerant 0.0
symposium 0.0
kansas 0.0
agreement 0.0
source 3.55178501713e-05
backbone 0.0
dismiss 0.0
midnight 0.0
homework 0.0
joining 0.000148889183543
reasons 5.89080909311e-05
talked 0.0
released 0.0
reaching 0.0
release 2.77440139037e-05
existing 0.0
models 0.0
pageants 0.0
helmets 0.0
scheme 0.0
scholarship 0.0
stacked 8.4607557251e-05
speech 0.000394610969351
standing 0.000433458637502
higher 3.39315351212e-05
purple 0.0
justice 0.000340278045391
served 3.82157636452e-05
speaks 0.000109687745743
backup 0.0
allegedly 6.826068326e-05
purchase 0.0
millionaires 8.53373017399e-05
consideration 0.0
strength 0.0
incredibly 0.000178616783996
private 3.2439280722e-05
ignored 9.66189179117e-05
neighbors 0.0
apologizes 0.0
beings 0.0
minimum 5.21617796135e-05
direction 0.0
enemies 0.0
exclusive 6.00468855496e-05
prison 0.0
himself 0.0
contributes 0.0
investigation 0.0
teaching 3.85598385517e-05
disgusting 0.000198116878828
philly 0.0
rights 0.000580115539742
cheers 0.000548015413075
maintain 0.0
overcome 5.57795132586e-05
flawless 0.0
unique 0.000193959312588
neighborhood 0.0
dating 0.0
handed 0.0
victory 0.000325255251811
lifted 0.0
greatness 0.0
muslim 0.000524019113718
terrorist 0.00010353684253
productive 0.0
tribute 3.47121999105e-05
deadspin 0.0
threatened 0.0
horror 0.000251268567542
warning 7.31251638286e-05
convention 0.0
understanding 3.64561359963e-05
action 0.000298648896406
having 4.74730224778e-05
afghan 0.0
announces 0.0
commencement 0.0
speaker 0.000168613752638
graduation 0.0
honors 0.0
produce 0.0
apologize 0.0
insult 0.0
continued 0.0
letter 0.000124809574723
discussed 0.0
therapy 0.0
untrue 0.000132897584
written 0.00021601915477
existence 5.37997179759e-05
essential 0.000134461897151
results 0.000198487717235
initiative 0.000101622207114
disease 0.0
marching 5.44425040983e-05
suggest 0.0
georgetakei 0.0
ensure 0.0
democrats 0.000111103377758
marched 0.000226885414976
foundation 0.0
access 0.0
writes 0.000206189518672
student 3.6350138273e-05
colorado 0.0
medical 0.0
medicine 0.0
tremendous 4.7804269653e-05
nytimes 0.000153319734222
kindness 0.0
public 0.000793091093684
cannot 0.000140994928613
reveals 0.000226585154379
invented 9.46180382958e-05
threatens 5.84319033527e-05
candidate 8.04615851088e-05
persistence 0.0
sexual 8.87605045083e-05
illustration 0.0
measure 0.0
compared 0.0
headline 3.96212125996e-05
reflect 4.66634857759e-05
answering 7.62042183525e-05
streaming 0.0
leaders 7.37692942882e-05
supreme 8.73259674648e-05
nominee 0.0
immigration 0.000657778567432
policies 0.000825825103767
laundering 0.0
administration 0.0
defend 0.000248200040626
communicating 0.0
excitement 0.0
funding 8.07090000745e-05
climate 0.0
transfer 0.0
conspiracy 0.0001995554417
activist 0.000698146703468
horrifying 6.22702120866e-05
freely 0.0
retreat 6.64487920002e-05
daughters 0.0
compelling 0.000233727613411
platform 0.000160430760002
hamilton 0.0
futures 0.0
huffingtonpost 0.0
headlines 4.66634857759e-05
january 3.50113054739e-05
grants 0.0
unprecedented 5.62414422206e-05
relationships 0.0
philadelphia 5.60094182546e-05
diversity 9.33269715518e-05
funded 0.0
secure 4.61899717137e-05
income 4.65046560875e-05
universal 4.46729813909e-05
contributed 0.0
hurricane 0.0
fundamental 0.0
countries 0.000255192951974
linked 4.71460773357e-05
african 4.66634857759e-05
improved 0.0
unclear 0.0
provide 3.71016693683e-05
livestream 0.0
addresses 0.0
enhance 0.0
companies 4.18884417958e-05
proposal 4.73090191479e-05
potential 3.49112082362e-05
discrimination 5.89456849018e-05
connected 4.93513078564e-05
drives 9.69602673155e-05
attending 0.000139990457328
filled 3.55178501713e-05
education 3.40278045391e-05
addressed 0.0
mentioned 3.72108861214e-05
famous 0.0
resistance 0.000560094182546
exists 4.6984183388e-05
demonstrated 0.0
officials 0.0
instructions 0.0
transmission 0.0
olympics 0.0
ability 7.35536672168e-05
political 0.000833625454674
director 0.0
contains 0.0
sponsored 0.0
autism 0.0
previously 5.0438142334e-05
prevent 0.0
capacity 5.81788919557e-05
donations 0.0
william 8.56567921436e-05
editors 0.0
passionate 0.000183516689726
solving 0.0
innate 0.0
treatment 0.000158484850398
critical 0.000281615547881
feeding 0.0
preparing 8.45739795674e-05
depend 0.0001301753619
capable 0.000103928664307
bridge 0.0
systematically 0.0
becoming 0.000227074965054
embraced 0.0
literacy 0.0
lawyers 0.000105527174572
stigma 0.0
malaria 0.0
standard 3.65625819143e-05
hiring 0.0
remains 7.82879161535e-05
fellow 3.20796400041e-05
defending 8.64844630152e-05
quotes 4.1626205861e-05
pushes 6.7887722037e-05
luxury 0.0
admitted 0.0
colleagues 4.63468222031e-05
failed 0.000112624225338
independent 0.000156104179508
politically 0.000111559026517
driven 0.000183516689726
agenda 0.000273432980874
result 0.000364561359963
implications 0.0
insider 0.0
pakistan 0.0
solutions 5.33801345615e-05
trusts 0.0
indiana 5.06239322703e-05
filling 5.15740232172e-05
humility 0.0
clicks 0.0
disagree 0.000430583538844
claims 0.000243622522665
editorial 0.0
mistakes 0.0
offered 0.000124878617583
passionately 0.000344355331341
justification 0.0
inspiring 0.000204746661085
counter 0.000143412808959
shaped 0.0
retroviral 0.0
majority 0.000424212536865
approach 0.000225915323868
nature 7.29122719926e-05
concern 4.28283960718e-05
server 0.0
berniesanders 0.0
shameful 0.000176837054705
experiment 0.0
massive 0.000256637120033
promises 0.000336979535111
colored 0.0
consequences 9.76499882959e-05
whatsoever 0.000228411189421
proposals 0.0
guesses 0.0
bernie 5.44425040983e-05
interviewed 0.000244375873516
pregnancy 6.75202056981e-05
secretary 8.81817757893e-05
measures 5.55516888792e-05
vastly 0.0
reduce 0.0
compassionate 0.0
distinguished 0.0
dangerous 3.39315351212e-05
influence 0.000165466693751
letters 0.0
implicit 0.0
saving 0.0
revelations 0.0
incident 0.0
universe 4.06037537775e-05
victims 7.33389596667e-05
milestone 0.0
perfectly 3.84446236041e-05
exercise 4.40908878947e-05
receive 0.0
reputation 6.02779757748e-05
economics 0.0
disclosure 0.0
receives 5.84319033527e-05
terrific 0.0
collected 0.0
campus 0.0
founders 0.0
profiling 0.0
systemic 0.0
studying 0.0
necessary 7.78173627827e-05
inaccurate 0.0
breast 0.0
debate 0.000780719987002
suddenly 4.65046560875e-05
conflict 5.25613820053e-05
interest 0.000106553550514
meanwhile 0.0
indefensible 0.0
recall 0.0
rating 5.37997179759e-05
nominate 0.0
outstanding 0.0
devastating 0.000140469971741
illness 0.0
troubling 6.90236029202e-05
romney 0.0
appears 4.18884417958e-05
breathe 0.0
abroad 0.000109760662341
spanish 0.0
profit 4.93513078564e-05
reviews 4.54200517044e-05
republican 0.0
presidential 0.0
candidates 0.000128075847016
politicians 0.000276204554646
identified 0.0
epidemic 0.0
displaced 8.7662746692e-05
greater 4.12379037343e-05
absurd 0.0
deadline 0.0
height 0.0
sisters 0.0
nuclear 0.0
stress 0.0
leading 9.62389200124e-05
restored 0.0
conditions 4.74730224778e-05
however 8.02153800011e-05
achieved 0.000104323559227
member 0.000237571981062
examples 0.0
diverse 0.000116863806705
suicide 0.0
contributions 0.000111559026517
largest 3.98632762156e-05
increase 4.11097893505e-05
targeted 0.000504084764292
regulators 0.0
provided 5.19643321534e-05
element 0.0
effectively 0.0
population 9.59430843522e-05
rising 8.14586245054e-05
indication 0.0
versus 0.0
believed 4.63468222031e-05
dynamic 0.0
invasion 6.47585988509e-05
primary 4.6034092441e-05
provides 0.0
environment 4.65046560875e-05
confirmed 0.000110330500825
behavior 0.0
introduced 4.81399335873e-05
contain 0.0
communities 9.62798671745e-05
worldwide 0.0
responsible 0.00028866532614
household 0.0
apparent 0.0
munich 0.0
alternate 0.0
expressed 6.13970232089e-05
movement 0.000978462718065
declared 0.0
hundreds 0.000292298876617
information 0.0
easily 0.000111632658364
untreated 0.0
october 0.0
quantify 0.0
scales 0.0
investigating 0.0
innovation 0.0
perspective 3.7320578766e-05
rivals 0.0
interests 0.000285828607482
toledo 0.0
extraordinary 0.000170767796022
gingrich 0.0
describing 0.0
eliminate 0.0
obligation 0.0
gender 0.000323329801996
committee 4.13666734376e-05
preventing 6.47585988509e-05
numerous 0.0
unusual 5.33801345615e-05
improving 5.46604658244e-05
practices 0.0
cemetery 7.88466029119e-05
questioned 0.0
affecting 0.0
ferrell 0.0
genius 0.0
warren 0.0
organizers 0.0
regularly 5.37997179759e-05
ceilings 0.0
sexism 0.000491176185671
prepared 0.0
burden 0.0
foreignpolicy 0.0
county 0.0
uniform 0.0
newyorker 0.0
anthony 0.0
reflecting 0.0
grandson 0.0
banning 0.000170851883305
considered 3.91439580768e-05
chosen 4.7638101247e-05
outright 0.0
screenings 0.0
naming 0.0
conventions 0.0
reproductive 0.0
ignores 0.0
focusing 0.0
sensible 0.0
concluded 0.0
performed 0.0
divide 0.000108885008197
dismissed 6.7887722037e-05
compromise 0.0
crucial 0.0
weakness 0.0
barrier 0.0
effective 4.20205912967e-05
wealth 0.000108885008197
underway 0.0
israel 0.000322798307856
overwhelming 0.0
assault 0.000241547294779
citing 0.0
protection 0.0
prisoners 0.0
photographing 0.0
traveled 0.0
holder 0.0
seemed 0.000136260155113
concludes 0.0
determination 0.000123951542089
tested 5.0999676889e-05
lacking 0.000270080822793
machine 3.40278045391e-05
honoring 0.0
contrary 0.0
tolerance 0.000125739262815
michelle 4.86519733837e-05
assumed 0.0
programs 0.0
closely 5.21617796135e-05
politico 0.0
inspire 0.0
lyrics 0.0
judges 0.0
federal 0.0
maryjblige 0.0
tuning 0.0
striving 0.0
poland 0.0
september 3.54157225582e-05
manchester 0.000321154207021
checks 0.0
remarkable 0.0
mharrisperry 0.0
immoral 0.0
fiction 0.0
process 0.0
anxious 0.0
destructive 0.0
nmaahc 0.0
performances 0.0
whitehouse 0.0
flotus 0.0
crisis 0.000581877937765
marriage 8.73259674648e-05
emotions 0.0
confidence 0.0
voters 0.000648633472614
comparing 0.000167338539776
oldest 0.0
empirefox 0.0
chancetherapper 0.0
songwriter 0.0
literally 0.000748857448337
onstage 0.0
believing 0.0
hillaryclinton 0.0
citizenship 0.000187704413156
counted 5.94701709997e-05
hillaryfornc 0.0
raleigh 0.0
discusses 5.19643321534e-05
johnlegend 0.0
apprentice 0.0
acknowledge 0.0
conservative 0.000234116619568
economists 0.0
buzzfeed 0.0
puppet 0.000349051838211
hombres 0.0
republic 0.0
homecoming 0.0
andersoncooper 0.0
muslims 0.000213520538246
katyperry 0.0
bragging 0.0
treats 0.0
qualified 0.0
islamophobia 0.000389869188499
debates 0.000400565007961
endorsements 0.0
counts 0.000125665325388
theellenshow 0.0
festival 0.0
encouraged 0.0
stylish 0.0
disregard 0.0
jtimberlake 0.0
backstage 0.0
barack 5.60094182546e-05
joined 0.000310305539548
terrorism 5.02537135084e-05
pushing 4.03545000373e-05
hopeful 5.64756245801e-05
mentions 0.0
teamed 0.0
exclusively 0.0
aliciakeys 0.0
kingjames 0.0
muhammad 0.0
refused 0.000321534312759
characters 0.0
express 7.80520897542e-05
gratitude 0.0
ugliest 0.0
throughout 0.000119955559465
awkward 0.0
shining 0.0
fighter 0.0
accepting 4.61899717137e-05
applemusic 0.0
reveal 3.67768336084e-05
stands 0.000140045221895
native 5.11896734294e-05
announce 0.000117174793143
dorothy 0.0
haters 0.0
jessetyler 0.0
shondarhimes 0.0
lavernecox 0.0
broadway 0.00016942687374
disabilities 7.36910219236e-05
adoption 7.06225162051e-05
touched 0.0
corruption 0.0
violence 3.69929243953e-05
leedanielsent 0.0
delivered 0.0
jasmine 0.0
independence 0.000227860817395
square 0.000580115539742
alongside 0.0
privilege 4.66634857759e-05
secondary 0.0
staggering 0.0
seventh 0.0
tennis 0.0
sweeping 0.0
footage 4.12379037343e-05
overseas 0.0
spoiler 0.0
theirs 0.0
offering 8.35139647477e-05
construction 0.0
spends 0.0
detail 4.63468222031e-05
cabinet 5.0811103557e-05
earnings 0.0
pleased 8.32524117221e-05
gravity 0.0
statements 0.0
decade 0.0
bigotry 0.000426231790977
belong 0.0
trillion 0.0
backed 0.000200282503981
operations 0.0
breakthroughs 0.0
values 0.0
senator 0.0
removing 0.0
wondered 0.0
introduces 0.0
makers 0.0
measured 0.0
pillars 9.62961826149e-05
instrument 0.0
shares 0.0
individual 0.000170224950026
applications 0.0
prepares 6.31747796539e-05
ceremony 0.0
expanding 0.0
merger 0.0
newspaper 0.000188584309343
detailed 0.0
tuition 0.000147382043847
childcare 0.0
thoroughly 5.81788919557e-05
adviser 0.0
matthew 0.0
affected 0.0
newspapers 0.0
corporate 0.0
economy 0.000433817023469
presenting 0.0
spoken 0.000126460314479
richer 0.0
during 0.0
combat 0.0
touting 0.0
competitive 0.0
prominence 0.0
trifecta 0.0
fashioned 0.0
boasts 0.0
ripped 0.0
belief 9.3646647827e-05
heroes 0.000115333870812
disturbing 0.0
russians 0.0
intelligence 0.0
deepest 0.0
regrets 6.57590386588e-05
complicated 0.0
internships 0.0
adults 0.0
describe 3.65625819143e-05
equality 0.000136260155113
announcement 0.0
interfere 0.0
terrifying 0.0
nationwide 0.00017378519438
manager 0.0
questionable 0.0
enhanced 0.0
services 0.000303671916428
delighted 0.000105122764011
golfer 0.0
regarding 9.33269715518e-05
teachers 4.51185580158e-05
suggests 4.66634857759e-05
phrase 4.73090191479e-05
immigrants 0.000211054349144
revolution 9.42921546713e-05
universities 0.0
twelve 0.0
principle 5.57795132586e-05
releases 0.0
malarkey 0.0
library 0.0
advisor 0.0
deadlines 0.0
encouraging 9.941679569e-05
circuit 0.0
humanitarian 0.000176837054705
reliant 0.0
assistance 0.0
swimmer 0.0
hinges 0.0
concrete 0.0
accepted 0.0
confronted 0.000175325493384
comprehensive 5.92065620768e-05
pushed 0.0
unending 0.0
occasionally 0.0
guardia 0.0
donation 0.000128075847016
nomination 0.0
paintings 0.0
significantly 0.0
investment 4.86519733837e-05
terror 0.000142419067433
worship 0.0
represents 0.0
attempting 0.0
bullying 0.0
astonishing 0.00034757038876
endorse 5.46604658244e-05
urgent 0.000110204267362
forced 3.8675583225e-05
addressing 0.0
script 0.0
hundred 0.0
command 0.0
qualifies 0.0
stumbled 0.0
territory 0.000114383066335
balloons 0.0
objects 0.0
latimes 0.0
pandemics 0.0
separating 0.0
pentagon 0.0
threats 4.93513078564e-05
prisons 0.0
approaching 0.0
generous 4.79715421761e-05
roughly 6.22702120866e-05
commands 0.0
uncovered 0.0
destroying 0.000276629538977
opposition 0.000356997738223
addiction 0.0
manhattan 0.0
ridiculously 6.16847340217e-05
awarded 5.79283981267e-05
greeted 0.0
forces 8.19646472995e-05
confirm 0.000122946970949
dealings 0.0
nations 0.000149666581275
equivalent 0.0
sexist 0.000486650256399
yahoonews 0.0
bloody 0.0
boundaries 0.0
exceptionally 0.0
cannon 0.0
feared 0.0
significance 0.0
recommendation 0.0
chapters 0.0
racial 5.92065620768e-05
obvious 4.26919490055e-05
statistics 6.22702120866e-05
military 0.000157049704656
adopted 0.0
housing 0.000259821660767
clearer 0.0
calculator 0.0
underwater 0.0
guided 0.0
rescue 0.0
deserving 0.0
advised 0.0
ordered 3.71016693683e-05
unions 0.00014124503241
avoiding 0.000111559026517
alicia 0.0
preserve 0.0
balloon 0.0
economic 0.000506375016852
recipe 0.0
awaits 0.0
squarely 0.0
radical 0.000158290761858
banter 0.0
spaces 6.13970232089e-05
carnival 0.0
theories 6.22702120866e-05
bombing 0.0
products 0.0
margaret 0.0
gathered 0.0
taxpayers 6.7157977548e-05
admits 5.53259077954e-05
opposed 0.000201752569336
pressing 0.0
russia 0.000313151664614
lincoln 0.000154722069652
intelligent 0.0
momentum 0.0
olympic 0.0
magnificent 5.2763587286e-05
heritage 0.0
beijing 0.0
beloved 0.0
dummies 0.0
pursuit 0.0
carries 0.0
phelps 0.0
medals 0.0
gymnastics 0.0
summed 0.0
accuse 0.000133601775119
symbol 0.0
dignity 0.0
slogans 8.32086183618e-05
priorities 0.0
applied 0.0
progressive 0.00034757038876
activists 0.000581788919557
elected 0.000263684661036
brussels 0.000107599435952
subscribe 0.0
elections 0.000355677724899
unites 0.0
complacency 0.0
imperative 0.0
doorsteps 0.0
voices 0.00044802243478
blatant 0.0
democracy 0.00119434916661
disastrous 0.0001301753619
rebuild 0.0001216625641
accuses 6.7157977548e-05
diplomacy 0.0
hardball 0.0
attacking 0.000340563813686
subtle 0.0
barker 0.0
sticking 9.87026157127e-05
openly 0.00012055595155
policing 0.0
embarrassed 0.0
slightest 0.000190354270361
abbott 0.000351065834945
attacks 0.000284226276442
commit 0.0
argued 0.000263036154635
remarks 5.46604658244e-05
democratic 0.000256905574121
semitic 0.000162491963218
incomes 8.2537260653e-05
treasury 6.508768095e-05
alarming 0.0
dividing 0.0
reject 0.000107178104253
affirming 0.0
quitting 6.94139118564e-05
extended 0.0
reducing 0.00018249384615
proudly 6.00058172094e-05
inclusive 6.64487920002e-05
oppose 0.000847134368701
distinctly 0.0
urging 0.0
strengthen 0.0
deliver 0.000119955559465
obligations 0.0
relations 0.000285957665838
repeal 5.86874834373e-05
strengths 0.0
counties 0.0
weakened 0.0
reckless 0.000184191069627
prosperous 0.0
servant 0.0
secretaries 0.0
negotiator 0.0
faults 0.0
choking 0.0
executive 0.00012606177389
alternative 0.000296948775806
extend 0.0
republicans 0.0
embodied 0.0
preparation 0.0
terrorists 0.0
confident 4.35219501865e-05
weapons 0.0
unifying 9.8695561312e-05
outrage 0.000165977723386
constitutional 0.0
rental 0.0
prevail 0.0
resilient 0.0
humbled 0.0
courage 0.000124878617583
commander 0.0
respecting 0.0
enormous 0.0
aligned 0.0
consent 0.0
refusing 0.000463427185014
resentment 0.000104313071262
substance 0.000123369468043
claiming 0.000366525515574
lamont 0.0
dropping 3.81021091763e-05
carried 0.0
intimidated 0.0
behalf 4.52688535195e-05
meaningful 0.0
amendment 5.00706259952e-05
accepts 0.0
legislation 5.29674298743e-05
fairer 0.0
commitments 7.32290929615e-05
handling 0.0
proves 0.0
rhetoric 0.0
hardest 0.0
peddling 8.7662746692e-05
divisive 0.0
strongly 9.977772085e-05
vision 0.000597129260256
investigations 0.0
repeatedly 0.000510408052804
records 0.0
madeleine 0.0
disabled 0.000241111903099
quoting 0.000301389878874
assassination 0.000167796743406
beaten 5.79283981267e-05
deeply 4.07293122527e-05
grievance 9.8695561312e-05
contempt 0.000416483471138
standards 0.000317940361931
fairness 0.0
dictated 0.0
consensus 0.0
reconsider 0.0
priority 4.86519733837e-05
rogers 0.0
freedoms 6.94139118564e-05
notorious 0.0
invested 0.0
propaganda 0.000120011634419
unconstitutional 0.0
condemn 0.000327105609395
concerned 8.09576368475e-05
praising 0.0
cheered 0.0
realdonaldtrump 0.000483421878566
despicable 0.000138827823713
straightforward 0.000304548252561
bargain 0.0
attorney 0.0
bedrock 0.0
optimism 0.0
belongs 0.0
truman 0.0
whichever 0.0
inappropriate 0.0
beatings 0.0
optimistic 0.0
campaigned 0.0
allies 0.000117891369804
governor 0.0
attempts 0.000198116878828
extent 0.0
denial 0.000108452826623
maximum 0.0
merely 5.67120058671e-05
apprenticeships 0.0
agreeing 0.0
architect 0.0
responsibility 0.0
mainstream 5.67120058671e-05
legitimacy 0.0
injustice 0.00045561376665
dozens 0.00022876613267
donnell 0.0
scenario 0.0
crimes 0.000280047091273
thoughtful 4.68233239135e-05
hypocrisy 0.000135040411396
undocumented 0.0
sexually 0.000209431102926
richest 7.06225162051e-05
softening 0.0
implies 0.0
infrastructure 5.94701709997e-05
pitching 0.0
broadband 0.0
tenants 0.0
allegations 0.0
bloomberg 0.0
insulting 0.000194275796553
liberal 0.000282876464014
kremlin 0.0
podium 0.0
provoke 0.0
outrageous 6.02779757748e-05
campaigns 0.000306985116045
barriers 0.0
powell 0.0
technical 0.0
warnings 6.7887722037e-05
flagged 0.0
grassroots 0.000233182666433
extremist 0.000165074521306
businesses 0.000247646098535
welcomes 6.02779757748e-05
deputy 6.00058172094e-05
donating 9.1144326958e-05
continually 7.94253507476e-05
ourselves 0.0
fringe 0.0
politician 0.000351775994559
wiggins 0.0
welcomed 0.000113901255537
rallies 0.000287568335205
ballot 0.000210245528021
failing 9.02371160316e-05
uniting 0.0
refuses 0.00026899858988
appealing 0.0
proverb 0.0
privileges 0.0
ideals 0.0
vibrant 0.0
tarmac 0.0
residents 0.0
apprenticeship 0.0
denying 6.31747796539e-05
fierce 0.0
opponents 0.0
polling 0.000704943373048
apology 4.74730224778e-05
damning 0.0
outline 0.0
endorses 0.0
losers 0.0
insulted 0.0
equipped 0.0
battlefield 0.0
recession 0.0
endorsed 6.41130654789e-05
divides 0.0
describes 0.00011295124916
appointed 0.0
encourage 0.000128485188215
undermine 6.75202056981e-05
undermining 7.36910219236e-05
authority 0.0
betray 0.0
funnyordie 0.0
donated 0.000181680206818
jimmykimmellive 0.0
immigrant 5.89456849018e-05
criminals 0.0
automatically 0.0
schooled 0.0
elizabethforma 0.0
releasing 0.0
connects 0.0
screening 4.88249941479e-05
cleaner 0.0
nowthisnews 0.0
sophiabush 0.0
chelseaclinton 0.0
stunts 0.0
truths 0.0
transparency 5.5102133681e-05
obamacare 0.0
nickkristof 0.0
contraception 0.0
betting 0.0
conscience 0.0
proclaimed 0.0
dispatch 0.0
advocate 0.0
profits 0.0
toward 0.0
guiding 0.0
senators 0.0
barber 0.0
doubled 0.0
mosque 8.06243593568e-05
senate 0.0
louisiana 0.0
senwarren 0.0
parenthood 0.0
organizations 0.0
generations 0.0
minorities 0.000143784167603
misogyny 0.000151256943317
peacefully 8.32086183618e-05
decency 0.000135775444074
intend 6.54211218791e-05
discourse 7.36910219236e-05
pennsylvania 0.0
katiemcgintypa 0.0
experiencing 0.0
mccain 0.0
scandal 0.000194607893535
constitution 0.0
sensanders 0.0
intolerable 0.0
strive 0.0
forefathers 0.0
abandon 6.61015530867e-05
buzzfeednews 0.0
paulkrugman 0.0
mothers 9.3968366776e-05
compassion 5.76803722574e-05
deeper 0.0
governments 0.0
activism 7.18920838013e-05
jamilsmith 0.0
mike_pence 0.0
elizabethbanks 0.0
empathy 0.0
audited 0.0
checkers 0.0
warming 0.0
volunteering 0.0
charitable 0.0
qualifications 0.0
workplace 6.47585988509e-05
granddaughter 0.0
recycled 0.0
directing 0.0
politifact 0.0
abolish 0.0
murders 0.0
reagan 0.0
pouring 0.0
ballots 0.0
racists 6.94139118564e-05
empower 0.0
tolerate 0.000147382043847
chrismurphyct 8.32086183618e-05
igorvolsky 0.0
outraged 0.0
exceptional 0.0
nightmares 6.90236029202e-05
enforcement 0.0
weaken 0.0
medicaid 0.0
humbly 0.0
newsweek 7.66561417798e-05
conflicts 0.0
suffer 0.000316581523716
dallasnews 0.0
bridges 0.0
lesdoggg 0.0
appalling 6.3483672144e-05
hatred 0.000750246729771
superpower 0.0
goodbye 3.96212125996e-05
renewable 0.0
robdelaney 8.93416635043e-05
motherjones 0.0
trusted 6.08312820499e-05
sheriff 0.0
personalized 0.0
amnesia 0.0
malala 0.0
problema 0.0
everytown 0.0
casting 0.0
employers 0.000197277115976
rudolph 0.0
packets 0.0
organization 0.0
graceful 0.0
hardworking 0.0
cherished 0.0
aggressively 7.77275554777e-05
founding 6.57590386588e-05
sacred 0.00019830465926
horrific 5.23607879392e-05
earned 0.0
siding 0.0
minded 6.19757710447e-05
contribute 5.25613820053e-05
incites 0.0
chooses 0.0
obtained 0.0
defended 6.64487920002e-05
champion 0.000200538450003
magazines 0.0
waited 0.0
punished 0.0
conviction 0.0
tradition 0.0
giveaways 7.94253507476e-05
distracted 0.0
endorsing 0.0
pathetic 0.000350591420116
ladygaga 0.0
pessimistic 8.93416635043e-05
highlighting 0.0001301753619
transgender 0.0
womensmarch 0.0
advisors 0.0
wrecking 0.0
hillaryforva 0.0
registration 0.0
ellemagazine 0.0
acceptance 0.0
defeated 0.000416291196998
theroot 0.0
pharrell 0.0
tumblr 0.0
nevada 0.0
illinois 0.0
massachusetts 0.0
theadvocatemag 0.0
lending 0.0
rejecting 0.0
legalize 0.0
conned 0.0
arkansas 0.0
celebratin 0.0
rubber 0.0
lenadunham 0.0
hateful 0.0
wizard 0.0
unbearable 0.0
harpersbazaarus 0.0
familia 0.0
iamwill 0.0
retweets 6.28696314074e-05
nominating 0.0
vietnam 0.0
laurie 0.0
claimed 5.42264133114e-05
rapids 0.0
devoted 0.0
casino 6.94139118564e-05
astounding 0.0
summon 0.0
crushed 0.000205524459297
louder 0.0
farmers 0.0
lin_manuel 0.0
arrangement 0.0
borrowed 0.0
mariska 0.0
purposes 6.64487920002e-05
dialogue 0.0
comedian 0.0
________ 0.0
lightly 0.0
defeating 6.98103676422e-05
jerusalem 0.0
cynical 0.0
worrying 0.000104721575878
elizabeth 0.0
insults 0.0
microphone 0.0
sleeves 0.0
theeconomist 0.0
stakes 6.25681377188e-05
nationally 7.27754874984e-05
inspect 0.0
poisoning 0.0
columbus 0.0
declaring 0.0
crushing 5.29674298743e-05
chucktodd 0.0
soldier 0.0
painted 0.0
warned 0.000101622207114
ohiostate 0.0
unrelated 0.0
designated 0.0
clears 6.7157977548e-05
congressional 0.0
confront 7.10386318294e-05
usatoday 0.0
delivers 5.44425040983e-05
pittsburgh 0.0
entiende 0.0
soaked 0.0
bromance 0.0
lifelong 0.000193301289273
antiques 0.0
repjohnlewis 0.0
breakers 0.0
fundraising 5.94701709997e-05
hispanic 0.0
defrauded 0.0
fearful 0.0
nytopinion 0.000332834473447
volume 0.0
perfecting 0.0
washingtonpost 0.0
affordable 5.23607879392e-05
mighty 0.000115360744515
normalizing 0.0
boasting 0.0
assaulting 0.0
disqualify 0.0
monique 0.0
jcolenc 0.0
teamusa 0.0
allysonfelix 0.0
usabasketball 0.0
ibtihaj 0.0
simone 0.0
feminism 7.56284716587e-05
conversion 0.000152274126281
destiny 0.0
disrespected 0.0
serenawilliams 0.0
tantrum 0.0
heinous 0.0
unconscious 0.0
accomplishments 0.0
saddened 0.0
disgrace 0.000379048677923
rodriguez 0.0
arsenal 0.0
defender 6.68008875593e-05
malalafund 0.0
merchandise 0.0
laundry 0.0
lesbians 0.0
cnnpolitics 0.0
nickgass 0.0
examining 0.0
monument 7.41615855701e-05
appeals 0.0
gracias 0.0
madame 0.0
grande 0.0
speechless 0.0
coulter 0.0
missiles 0.000313123447011
psyched 7.36910219236e-05
chelsea 5.40121616173e-05
biases 9.11406016266e-05
resume 0.0
spectator 0.000291101949993
angelina 0.0
spectacle 0.0
admiration 0.0
reaches 0.0
español 0.0
dreamers 0.0
mañana 0.000184181385147
bursting 0.0
undone 0.0
beyoncé 0.0
nuestra 0.000113745762318
diwali 0.0
prestigious 0.0
cynicism 9.62961826149e-05
disability 0.0
registering 0.0
booker 0.0
méxico 0.0
disponible 0.000105937791235
honduras 0.0
famously 0.0
overdue 0.0
equity 0.0
opioid 0.0
millennials 0.0
recommendations 0.0
investors 0.0
betrays 0.0
patriotism 0.0
liability 0.0
iranian 0.0
delegate 0.0
struck 0.0
millennial 0.0
dictators 0.0
graduate 0.0
analysts 0.0
victor 0.0
shrink 0.0
dictator 0.0
poised 0.0
avoided 0.0
rallying 0.000162491963218
catholic 0.0
thriving 8.00177174217e-05
racially 0.0
undermines 0.0
yashar 0.0
inequality 0.0
medicare 0.0
missionaries 0.0
foremost 0.0
deplorable 0.0
demonize 0.0
wikileaks 0.0
enduring 0.0
privatized 0.0
appoint 0.0
losses 0.0
jbarro 0.0
buffett 0.0
staffers 8.06243593568e-05
takeaway 7.41615855701e-05
moscow 0.000123951542089
hampshire 0.0
pandering 0.0
voxdotcom 0.0
reckoning 0.0
moines 0.0
falter 0.0
countless 0.0
democrat 6.28696314074e-05
bostonglobe 0.0
accountable 0.0
dispel 0.0
despair 0.0
persisted 0.0
disclose 0.0
tedcruz 0.0
flooding 0.0
prejudice 0.000142077263659
towers 0.0
criticized 0.0
senatemajldr 0.0
outsider 0.0
declare 0.0
dismantle 0.0
thrive 6.47585988509e-05
threaten 0.0
outsourced 0.0
loophole 0.0
heerjeet 0.0
verbal 0.0
businessinsider 0.0
ukraine 0.0
vladimir 7.27754874984e-05
businessman 8.53373017399e-05
supremacist 8.32086183618e-05
etched 0.0
zekejmiller 0.0
momentarily 0.0
perpetrators 0.0
mocking 0.0
wrecked 0.000163766685588
identities 0.0
inhumane 0.0
disavow 0.0
hostile 0.000255185607624
muster 0.0
surrender 7.27754874984e-05
shatter 0.0
patriotic 6.57590386588e-05
rewarded 0.0
jitters 0.0
bullies 0.0
discipline 0.000236826248307
forgets 0.0
expand 0.0
apologized 0.0
tournament 0.0
grindstone 0.0
mastery 0.0
provider 0.0
steroids 0.0
jenniferjjacobs 0.0
notion 0.0
hernandez 0.0
mcuban 0.0
bullied 0.0
jebbush 0.0
discriminating 0.0
somali 0.0
hayden 0.0
limitless 0.0
implement 6.68008875593e-05
nydailynews 0.0
corybooker 0.0
interference 0.0
listens 0.0
preside 0.0
remembers 5.74347661912e-05
toughness 0.0
extensively 0.0
suffered 0.000226848023468
streep 0.0
billionaire 6.08312820499e-05
cheats 9.30780513616e-05
needing 0.0
percentage 0.0
insiders 0.0
binder 0.0
prescriptions 0.0
slashed 0.0
indebted 0.0
dismisses 0.0
delegates 0.0
pledged 0.000139620735284
endured 0.0
deployed 0.0
suspense 0.0
courageously 0.0
resilience 0.0
nationalists 0.0
autonomy 0.0
abandoning 8.2537260653e-05
canvas 0.0
blacks 0.0
pledging 0.0
elaine 0.0
methodist 0.0
candidacy 8.60888328353e-05
bonuses 0.0
resolve 0.000127592803812
laughable 0.0
scares 0.0
intellect 0.0
hopeless 0.0
debunked 0.0
shames 0.0
connections 5.89456849018e-05
tyleroakley 0.0
perplexed 0.0
ddlovato 0.0
impromptu 0.0
teenvogue 0.0
unveils 0.0
billie 0.0
prouder 8.18833427939e-05
sweetness 0.0
cheryl 0.0
filipino 0.0
petersburg 0.0
drastic 9.74672971247e-05
lifesaving 0.0
decorated 0.0
usagym 0.0
freestyle 0.0
absentee 0.0
lashes 0.0
concentration 0.0
refuge 0.0
renaissance 0.0
actively 0.0
monitoring 0.0
destined 0.0
willfully 0.0
detained 0.0
warmest 0.0
heroic 0.0
bragged 0.0
miners 0.0
shareholders 0.0
randall 0.0
excessive 0.0
geneva 0.0
corporations 7.41615855701e-05
unsolvable 0.0
grandchildren 0.0
discredit 0.0
enormously 0.0
frances 0.0
pillar 0.0
trillions 0.0
expansive 0.0
organize 0.0
capabilities 0.0
confederate 0.0
shakers 0.0
ambiguity 0.0
linking 0.0
pretends 0.0
wireless 0.0
inherit 0.0
paranoia 0.0
theatlantic 0.0
languages 6.7157977548e-05
disposable 0.0
reinforcing 0.000102786881443
integrated 0.0
optimist 0.0
pigeons 0.0
chadhgriffin 0.0
katieledecky 0.0
richards 0.0
demconvention 0.0
abcpolitics 0.0
chobani 0.0
dominiclowell 0.0
floridians 0.0
cecilerichards 0.0
clintonfdn 0.0
billclinton 0.0
grounded 0.0
abilities 7.82808617528e-05
grandfather 5.79283981267e-05
profoundly 0.0
fiercely 0.0
drowning 0.0
astound 0.0
alzheimer 0.0
responders 0.0
peacecorps 0.0
nygovcuomo 0.0
hurricanes 0.0
approximately 0.0
daunting 0.0
organizer 0.0
ingenuity 0.0
illnesses 0.0
intruders 0.0
invading 8.68634915594e-05
harmful 0.0
foundations 0.0
skateboards 0.0
housekeeping 0.0
dangerously 0.0
renters 0.0
predatory 0.0
rebuke 0.0
jengranholm 0.0
supremacy 0.0
linger 0.0
adamserwer 0.0
clevelanddotcom 0.0
repadamschiff 0.0
fahrenthold 0.0
revoke 0.0
advising 0.0
strengthening 0.0
colleges 0.0
deniers 8.1245981609e-05
aspire 0.0
exceed 0.0
lebassett 0.0
shrugged 0.0
stewardship 0.0
complains 0.0
temperament 0.0
texasinafrica 0.0
americorps 0.0
latino 0.0
payoffs 0.0
protested 0.000188211442966
honorable 0.0
fathom 0.0
inconvenience 0.0
johnkasich 0.0
latinos 0.0
votevets 0.0
unsurprising 0.00017067460348
loopholes 0.0
dismal 0.0
unqualified 0.0
rigorous 0.0
mittromney 0.0
joyannreid 0.0
theorist 0.0
evan_mcmullin 0.0
discriminate 0.0
ezraklein 0.0
obsessively 0.0
desperation 0.000165074521306
latina 0.0
tammyforil 0.0
pantsuit 0.0
superior 0.0
exonerated 0.0
johnpodesta 0.0
recites 0.0
supremacists 0.0
affront 0.0
electing 0.0
defund 0.0
demeans 0.0
govpencein 0.0
squandered 0.0
machado 0.0
pneumonia 0.0
unhinged 0.0
criticizes 0.0
derailment 0.0
iceberg 0.0
epipens 0.0
generals 0.0
timkaine 0.0
provocation 0.0
paulbegala 0.0
clintinfdn 0.0
wesleylowery 0.0
childdefender 0.0
dictatorship 0.0
ceasefire 0.0
stamped 0.0
intimidation 0.0
casinos 0.0
manifest 0.0
restrict 0.0
transformation 0.0
battleground 0.0
christine 0.0
touted 9.20906925735e-05
mcconnell 0.0
deflect 0.000357366654017
expressing 0.00019526304285
commonsense 0.0
statesman 0.0
mcbride 0.0
tumble 0.0
bigoted 0.000360900268805
belonged 0.0
praised 0.0
policeman 8.18833427939e-05
booing 0.0
cathedral 8.00177174217e-05
tomperez 0.0
keithellison 0.0
knowingly 0.0
wealthiest 0.0
backward 0.0
pretended 8.38983717032e-05
thedemocrats 0.0
psychologists 0.0
americ 0.0
successor 0.0
diplomats 0.0
congratulated 0.0
devotion 0.0
remembrance 6.90236029202e-05
eligible 0.0
incoherent 0.0
exhaustive 0.0
downgraded 0.0
unified 0.0
embraces 0.0
galling 0.0
senatorreid 0.0
lifetimes 0.0
demagogue 0.0
rodham 0.0
temper 0.0
longtime 0.0
vetoing 0.0
janelle 0.0
voguemagazine 0.0
dominique 0.0
surpassed 0.0
associates 0.0
demonstrating 8.2537260653e-05
morning_joe 0.0
bazaar 0.0
consequential 0.0
undressed 0.0
entrepreneurial 0.0
billionaires 0.0
prescription 0.0
senseless 0.0
refresher 0.0
classmates 0.0
maturity 8.93416635043e-05
comentarios 0.0
risked 0.0
invincible 0.0
vigilant 0.0
emissions 0.0
recommit 0.0
voiceless 0.0
natlparkservice 0.0
workplaces 0.0
mayaharris_ 0.0
dhsgov 0.0
cyberattacks 0.0
maxinewaters 0.0
jerrybrowngov 0.0
discriminates 0.0
thejusticedept 0.0
simone_biles 0.0
sotomayor 0.0
traumatic 0.0
scammed 0.0
dreamer 0.0
fulfill 0.0
latinas 0.0
discouraged 0.0
usnavy 0.0
oftentimes 0.0
reprehensible 0.0
demeaning 0.0
ratified 0.0
emilyslist 0.0
lawsuits 0.0
nonviolent 0.0
caucus 0.0
joebiden 0.0
joyful 0.0
privatize 0.0
barbaraboxer 0.0
sengillibrand 0.0
camino 0.0
familias 0.0
americaferrera 0.0
universidades 0.0
gabbygiffords 0.0
shuttlecdrkelly 0.0
fulton 0.0
shimon 0.0
hablar 0.0
fuerza 0.0
trickle 0.0
refinance 0.0
shattering 0.0
damián 0.0
gouging 0.0
moveon 0.0
simone_manuel 0.0
revdrbarber 0.0
senatorbarb 0.0
cnbcnow 0.0
stiffed 0.0
mikebloomberg 0.0
solver 0.0
thrower 0.0
granddaughters 0.0
changemaker 0.0
clairecmc 0.0
anastasiasomoza 0.0
defunding 0.0
preyed 0.0
aspirations 0.0
fannie 0.0
mubarak 0.0
buzzfeedben 0.0
probed 0.0
marines 0.0
projecting 9.51771351807e-05
outsourcing 0.0
developers 0.0
crimea 0.0
everyo 0.0
chaser 0.0
dubious 0.0
diplomatic 0.0
rosiegray 0.0
unpatriotic 0.0
multifaceted 0.0
myanmar 0.0
adamparkhomenko 0.0
tjmshow 0.0
tenant 0.0
perjury 0.0
contractual 0.0
surrounds 0.0
exceeded 0.0
thrives 0.0
unclerush 0.0
sailors 0.0
stereotypes 0.0
librarycongress 0.0
acknowledging 0.0
philippe 0.0
battled 0.0
postopinions 0.0
ambassadorrice 0.0
shockingly 0.0
mcfaul 0.0
presid 0.0
poisons 0.0
kenvogel 0.0
johndingell 0.0
harnessing 0.0
unwritten 0.0
bewildering 0.0
moonshot 0.0
apologizing 0.0
oligarchs 0.0
espionage 0.0
marcorubio 0.0
desecration 0.0
brianefallon 0.0
bangladesh 0.0
twittermoments 0.0
officialcbc 0.0
thefix 0.0
urgency 8.4607557251e-05
traceeellisross 0.0
andradaymusic 0.0
impeccably 0.0
catastrophe 7.41615855701e-05
tallest 0.0
anastasia 0.0
azcentral 0.0
marrying 0.0
moderates 0.0
resembles 0.0
paraphrase 0.0
applauds 0.0
heavier 0.0
virginians 0.0
railing 0.0
eloquently 0.000102786881443
denverpost 0.0
independents 0.0
americanos 0.0
hispanos 0.0
bailouts 0.0
divisiveness 0.000129004880889
jmpalmieri 0.0
hardballchris 0.0
republicano 0.0
candidato 0.0
phillyinquirer 0.0
jesserodriguez 0.0
militarytimes 0.0
sunsentinel 0.0
ryanlizza 0.0
bretbaier 0.0
thelastword 0.0
hillaryclinto 0.0
maddowblog 0.0
boundless 0.0
enacting 0.0
gettysburg 0.0
groping 0.000116145141015
govchristie 0.0
justices 0.0
watchdogs 0.0
cavalier 0.0
succeeds 0.0
retirees 0.0
pocketed 0.0
multimillionaire 0.0
redcross 0.0
evalongoria 0.0
highways 0.0
marlee 0.0
primero 0.0
pianos 0.0
bribed 0.0
scranton 0.0
wellesley 0.0
perkins 0.0
onward 0.0
algore 0.0
candidly 0.0
trajectory 0.0
quitter 0.0
objectifying 0.0
ignoramus 0.0
disillusioned 0.0
asinine 0.0
vibrancy 0.0
arpaio 0.0
testifying 0.0
chairmen 0.000118797531109
luchar 0.0
disrupted 0.0
podemos 0.0
settlements 0.000186156102723
massacres 0.0
millones 0.0
eagerly 0.0
grandmas 0.0
dedicado 0.0
seeming 0.0
pragmatic 0.0
hashanah 0.0
porque 0.0
unidos 0.0
nuestras 0.0
primera 0.0
debemos 0.0
muchos 0.0
cuando 0.0
nuestro 0.000423751164942
inteligente 0.0
rapists 0.0
agosto 0.0
presidente 0.0
puedes 0.000237595062218
mujeres 0.0
safeguarding 0.0
indecent 0.0
motions 0.0
strengthened 0.000104313071262
eminently 0.0
innuendo 0.0
memorandum 0.0
reuterspolitics 0.0
educates 0.0
mexicana 0.0
disparage 0.0
absurdity 0.0
backdoor 0.0
affording 0.0
hardline 0.0
steelworkers 0.0
demean 0.0
immigrate 0.0
thuggish 0.0
astrid 0.0
jesuit 0.0
governorship 0.0
waterboarding 0.0
personas 0.0
stephenson 0.0
huracán 0.0
firefighter 0.0
ravages 0.0
marleematlin 0.0
scrolling 0.0
tarnish 0.0
ajentleson 0.0
roanoke 0.0
heaping 0.0
carpentry 0.0
forcefully 0.0
frankiejgrande 0.0
aprildryan 0.0
unjustified 0.0
yamiche 0.0
evacuate 0.0
disrespects 0.0
incomprehensible 0.0
jogger 0.0
vindicated 0.0
blazed 0.0
cambodia 0.0
revolutionize 0.0
welding 0.0
unbeatable 0.0
polished 0.0
saddled 0.0
interdependence 0.0
alleys 0.0
civility 0.0
vilified 0.0
disagreeable 0.0
terence 0.0
bluster 0.0
incredib 0.0
holton 0.0
hillaryforpa 0.0
hillaryforco 0.0
jes_chastain 0.0
vitalvoices 0.0
indictments 0.0
evokes 0.0
reaffirming 0.0
rebukes 0.0
minerva 0.0
peddle 0.0
starker 0.0
cascading 0.0
carolinians 0.0
señora 0.0
honrado 0.0
missionary 0.0
ranchers 0.0
denveropinion 0.0
practicality 0.0
thoughtfulness 0.0
scripture 0.0
pueblo 0.000113745762318
morningmoneyben 0.0
smalls 0.0
exemplify 0.0
eviscerated 0.0
jeffflake 0.0
helpless 0.000101347951406
sarahemcbride 0.0
indivisible 0.0
colinjones 0.0
mrjoshcharles 0.0
houstonchron 0.0
thoroughness 0.0
isolde 0.0
wonkiest 0.0
equate 9.8695561312e-05
dustbin 0.0
estados 0.0
newrepublic 0.0
expresses 0.000172177665671
demonizing 0.0
jeffbezos 0.0
discard 0.0
befriending 0.0
slovenia 0.0
unrelenting 0.0
salmahayek 0.0
revolves 0.0
anselm 0.0
dwells 0.0
usairforce 0.0
deride 0.0
repackaging 0.0
earmarked 0.0
evader 0.0
passpor 0.0
awaited 0.0
guterres 0.0
precinct 0.0
presidencia 0.0
unshakable 0.0
marshablackburn 0.0
comunidad 0.0
merecen 0.000267189441436
juntos 0.0
infomercial 0.0
johnstown 0.0
statewide 0.0
skyscrapers 0.0
phillydotcom 0.0
deducted 0.0
laguardiacc 0.0
annieslisttx 0.0
nickmerrill 0.0
leaninorg 0.0
missbeae 0.0
minassianmedia 0.0
natarsha 0.0
foments 0.0
ruline 0.0
steininger 0.0
michaelnutter 0.0
harren 0.0
louisa 0.0
cannell 0.0
robbymook 0.0
broward 0.0
hillaryforfl 0.0
jeanneshaheen 0.0
ericasmegs 0.0
jeremyshorr 0.0
turpin 0.0
rubycramer 0.0
singularly 0.0
joshschwerin 0.0
clionamccarney 0.0
xochitlhinojosa 0.0
adamsmith_usa 0.0
humayun 0.0
jamestaylor_com 0.0
hillaryformn 0.0
ericwms 0.0
dougmillsnyt 0.0
jencarlosmusic 0.0
hannahbfine 0.0
creynoldsnc 0.0
lefsadventures 0.0
pembroke 0.0
perceptiveness 0.0
hillaryforaz 0.0
fayetteville 0.0
entrust 0.0
daveeddiggs 0.0
petewilliamsnbc 0.0
hillary_esp 0.0
ustedes 0.0
nación 0.0
creativa 0.0
bilingües 0.0
multilingües 0.0
contribuyen 0.0
diversidad 0.0
economía 0.0
hillaryforia 0.0
estaré 0.0
discurso 0.0
síganme 0.0
detall 0.0
hopewell 0.0
temperamentally 0.0
redone 0.0
barging 0.0
machadooficial 0.0
mikereedschmidt 0.0
franklinfoer 0.0
eamonjavers 0.0
hillaryforoh 0.0
hustling 0.0
relishes 0.0
markkirk 0.0
asmamk 0.0
just_jenna 0.0
discrimina 0.0
samifayebaker 0.0
padded 0.0
wigazette 0.0
phillytrib 0.0
trivializes 0.0
condones 0.0
ellisoncampaign 0.0
barb_kinney 0.0
theriveterspod 0.0
humiliates 0.0
nickmarroletti 0.0
alli_wilber 0.0
brespolitico 0.0
jasoncherkis 0.0
sean_p_thomas 0.0
outclassed 0.0
outmaneuvered 0.0
belittling 0.0
familie 0.0
yuuuuuuge 0.0
disqualifying 0.0
brynnecraig 0.0
buffywicks 0.0
lasvegassun 0.0
cmichaelhuntley 0.0
civically 0.0
raquelwillis_ 0.0
celebramos 0.0
trayectoria 0.0
pionera 0.0
breakups 0.0
rosenbergerlm 0.0
heraldleader 0.0
jaylon 0.0
decisi 0.0
antónio 0.0
squander 0.0
presidenta 0.0
protegerá 0.0
astrid_nv 0.0
sltrib 0.0
peter_j_k 0.0
brosandprose 0.0
nicholaskitchel 0.0
mahoning 0.0
omerizer 0.0
kendallybrown 0.0
davidnakamura 0.0
chatima 0.0
tammybaldwin 0.0
mpshapiro 0.0
responsibilit 0.0
overgrown 0.0
literally_trump 0.0
imploded 0.0
rnicholasburns 0.0
disastrously 0.000139212230668
stiffing 0.0
globeopinion 0.0
degradi 0.0
languishing 0.000125124226607
demostrar 0.000417636692005
poderosa 0.0
iammarleydias 0.0
tbtimes_opinion 0.0
disloyalty 0.0
defende 0.0
vegalteno 0.0
moodysinvsvc 0.0
decisiveness 0.0
whethe 0.0
preocupada 0.0
trayecto 0.0
afectados 0.0
ayotte 0.0
empathize 0.0
lifelo 0.0
lorellapraeli 0.0
ironworking 0.0
ebeling 0.0
contribuido 0.0
ejército 0.0
inmigrantes 0.000292908921183
indocumentados 0.0
enquirer 0.0
delega 0.0
roadshow 0.0
sunsentinelopinion 0.0
resulta 0.0
insultar 0.0
construir 0.000133594720718
muralla 0.0
provoked 0.0
discretion 0.0
sdutideas 0.0
merece 0.0
respeto 0.0
enfrentar 0.0
valentía 0.0
ataques 0.0
descaro 0.0
culparla 0.0
petulance 0.0
ninhaitseng 0.0
flippantly 0.0
posteverything 0.0
_vicentefdez 0.0
azcopinions 0.0
aumentó 0.0
andrewjenks 0.0
imwithher 0.0
diferencias 0.0
onevoxdotcom 0.0
ignite_national 0.0
endorsin 0.0
mercersdairy 0.0
everyvoice 0.0
rachaelgass 0.0
galifianakis 0.0
crutcher 0.0
nyledimarco 0.0
mistreat 0.0
wellsfargo 0.0
templeuniv 0.0
sollender 0.0
honremos 0.0
tantas 0.0
contribuciones 0.0
aleatha 0.0
endeavored 0.0
legitimize 0.0
además 0.0
whistles 0.0
ugliness 0.0
jorge_silva 0.0
dnclatinos 0.0
libnofcongress 0.0
unscrupulously 0.0
contractually 0.0
impulsively 0.0
qaddafi 0.0
cancelable 0.0
cnbcopinion 0.0
jbrotherston 0.0
_bxddxss 0.0
sspiderboy 0.0
collegedems 0.0
veered 0.0
charitynav 0.0
usnewsopinion 0.0
humansofny 0.0
unfitness 0.0
steadiness 0.0
nbcusa_inc 0.0
verdadera 0.0
encuentra 0.0
hacemos 0.0
anuncio 0.0
unpresidential 0.0
unfavorably 0.0
heridas 0.0
visibles 0.0
veteranos 0.0
cuidado 0.0
panetta 0.0
experiencia 0.0
confío 0.0
exsecretario 0.0
comercio 0.0
lizromanoff 0.0
americasvoice 0.0
davidleopold 0.0
rebuked 0.0
criminalize 0.0
mentiré 0.0
inmigración 0.0
demonizar 0.0
americanlegion 0.0
sarasolow 0.0
qumber 0.0
zerlinamaxwell 0.0
hillaryforut 0.0
hillaryforga 0.0
grandtetonnps 0.0
marlondmarshall 0.0
mariatcardona 0.0
escuchamos 0.0
claramente 0.0
demonizando 0.0
segunda 0.0
tercera 0.0
rhettbuttle 0.0
hillaryformi 0.0
futuramics 0.0
louisianans 0.0
claressashields 0.0
helen_maroulis 0.0
bri_rollin 0.0
itspooda 0.0
kristihollywood 0.0
meredeetch 0.0
kersee 0.0
rodhams 0.0
bidens 0.0
possibilitie 0.0
maulama 0.0
akonjee 0.0
shotdiva 0.0
auriemma 0.0
maxlinsky 0.0
cowering 0.000129004880889
moratory 0.0
hillarycl 0.0
repudiate 0.0
fencer 0.0
bankruptcies 0.0
warrenbuffett 0.0
bishopgarrison 0.0
ajazzyworld 0.0
morell 0.0
starkest 0.0
braille 0.0
frankmugisha 0.0
confiar 0.0
distinguido 0.0
herencia 0.0
harkening 0.0
impulses 0.0
dakota_meyer 0.0
kauveri 0.0
iafftreg 0.0
laurawalkerkc 0.0
jakesherman 0.0
benediction 0.0
denigrates 0.0
ann_oleary 0.0
liberates 0.0
bombast 0.0
repcleaver 0.0
throwed 0.0
luchado 0.0
derechos 0.0
humanos 0.0
trabajadores 0.0
relent 0.0
aprendí 0.0
valores 0.0
trabajo 0.0
mismos 0.0
annella 0.0
drbiden 0.0
expedient 0.0
imangelabassett 0.0
smegielski 0.0
leinonen 0.0
driffin 0.0
buckles 0.0
insatiably 0.0
sybrina 0.0
mcbath 0.0
dontre 0.0
randibrazeau 0.0
sjbxtr 0.0
malcolmkenyatta 0.0
lankford 0.0
countrymen 0.0
countrywomen 0.0
refiere 0.0
separar 0.0
valiente 0.0
strongmen 0.0
seremos 0.0
compañeros 0.0
bienvenidos 0.000139212230668
dauntless 0.0
governorva 0.0
sherrodbrown 0.0
vicepresidencia 0.0
ilyseh 0.0
gunsense 0.0
encantada 0.0
anunciar 0.0
splintering 0.0
albamonica 0.0
criminologist 0.0
construiremos 0.0
discriminatio 0.0
endorser 0.0
sniveling 0.0
ryanegraney 0.0
baptize 0.0
convención 0.0
republicana 0.0
