chatting 0.0
trying 0.000184374921193
launch 3.76787501514e-05
moment 0.000278057448551
wonderful 0.000172587514387
seeing 0.000157844876579
recommend 4.57379237455e-05
anybody 9.42525505812e-05
podcast 0.000544001859721
challenges 0.0
worked 0.000332315268136
direct 0.0
others 0.0
currently 3.65546026831e-05
better 0.00224957152341
please 0.000492993589242
travels 0.0
social 6.88476428012e-05
around 0.000273596536631
people 0.00106398653134
leaving 0.000139201168139
morning 0.000458459067384
general 0.000157567430948
overall 0.000213666341697
damage 0.000100218040708
affect 5.28969212283e-05
everything 0.000336203316082
twitter 0.000490342935037
present 3.48002920347e-05
though 0.00120936951966
friend 6.14583070643e-05
watched 0.00013807001151
beautiful 6.29678827436e-05
anything 0.00052805915668
practice 8.28840934408e-05
helped 0.000100507651314
helpful 0.0
revive 0.0
updated 0.0
thinking 0.000187381544618
finally 9.36907723092e-05
caught 0.000240966749804
believe 0.000670596640439
already 0.000670596640439
orlando 0.000208200322125
depends 0.000137213771237
chance 0.000183383626954
meaning 0.0
annual 4.10906021682e-05
renewed 7.85972542218e-05
growing 0.000109965292111
probably 0.000994251597263
should 0.00024239803249
changed 0.000326966224233
history 0.000377807296462
center 0.0
museum 0.0
behind 0.000182397691088
pretty 0.0013741313272
really 0.00161988870476
expensive 5.25553489248e-05
little 0.000518188313066
earlier 7.15247709375e-05
forget 9.29360189348e-05
paperwork 0.0
someone 0.000708678284535
mostly 0.000185696697794
worker 0.000128919388286
safety 4.42805825399e-05
program 0.000127564309158
things 0.000699191149169
electrical 0.0
visiting 4.21573647867e-05
available 0.0001586988006
perfect 0.000254604109402
different 0.000434872246678
search 0.0
connect 0.0
numbers 7.64075994697e-05
person 0.000367757201278
watching 0.000368749842386
passed 0.000186325717823
minutes 0.000315689753159
daughter 0.000184792951128
average 0.000175069986745
positive 3.62550966626e-05
outside 0.000129380711485
metric 0.0
looking 0.000182889992847
forward 9.41974338653e-05
raising 4.36405670021e-05
afraid 0.000118506603866
impression 0.000112314288162
profile 0.000167190407313
drawing 0.0
favorite 0.000532058203825
picture 0.000162601961383
historic 0.0
instead 0.000103271464202
appreciate 0.000395543639684
husband 0.0
international 0.0
toddler 0.0
couldn 0.000286429623078
remember 0.000397331191733
holidays 0.0
friends 0.000153645767661
despite 0.00017355314636
understood 0.0
impossible 0.000207800518134
everyone 0.000427895129558
florida 0.000135200469927
always 0.000881588840257
months 0.000159557549076
moving 0.000197243280942
meeting 6.26291674923e-05
google 0.0
answer 0.000626291674923
together 0.000183878600639
included 4.65633033649e-05
inside 9.54765410259e-05
section 4.69845518862e-05
missed 0.00018587203787
button 0.0
active 0.0
longer 0.000246942729905
enough 0.000587010169164
projects 0.0
driving 7.47360376821e-05
building 0.000171652138661
enjoying 0.000112104056523
kennedy 6.20457586611e-05
tantrums 0.0
apparently 3.93918577369e-05
recent 0.000121199016245
gotten 0.00030638436378
amazing 0.000182889992847
determined 0.00011791818118
attention 0.00017305736971
progress 0.000127198782233
tomorrow 0.000397331191733
whenever 0.0
curious 4.85810799185e-05
george 0.000417919594924
feeling 3.19977499161e-05
excited 6.38230196304e-05
campaigning 0.0
understand 6.66431996268e-05
learning 3.78876830369e-05
special 0.000154060496638
secret 3.4237320109e-05
across 0.000204866980707
comparison 0.0
surprised 0.000437453269389
anymore 0.000233726673932
spirited 0.0
precious 0.0
rejoice 0.0
rather 0.000308973849589
showing 0.0
saying 0.000382938117782
tweeted 0.0
updates 4.4410218622e-05
thoughts 0.000486489882578
exactly 0.000363573952844
except 0.000233726673932
getting 0.000733534507814
nothing 0.000366767253907
tweets 0.000168422923029
course 0.000347258728475
photos 3.69585902255e-05
looked 0.000138822945561
difficult 8.05720570563e-05
office 0.000231365242719
decisions 0.0
brought 6.77354307431e-05
biggest 0.000157419706859
thrilled 9.31266067299e-05
entire 6.79193922461e-05
something 0.000458459067384
closing 4.54677031647e-05
anyone 0.000585429887225
taking 9.16918134768e-05
reprint 0.000134709675304
flying 3.84163853227e-05
happening 0.00019992959888
sometimes 0.00023579209224
lessons 0.0
village 0.0
stopped 3.58602909163e-05
yesterday 0.000462181489914
service 3.35934312686e-05
serious 0.000261572979387
emails 5.28969212283e-05
wearing 0.000143441163665
afford 4.93354515104e-05
either 0.000499823997201
second 0.000462181489914
checking 0.0
volunteers 0.0
indeed 0.0
hearing 6.82889935689e-05
choose 7.19170253972e-05
another 0.000396261651168
address 0.0
display 0.0
compare 0.0
weekend 0.000154893364891
suggested 0.0
appear 0.0
anyway 0.000158008805155
theory 0.000100218040708
buildings 0.0
working 0.000305639378256
bigger 0.000179301454581
treated 0.0
admired 0.0
retirement 0.000116673102235
laughing 0.000181275483313
wanted 0.00049432435298
current 0.000180285264332
grateful 3.99476248647e-05
friendship 0.0
family 0.000366767253907
listening 0.00016751275219
stream 0.0
sharing 3.59585126986e-05
double 0.000207668843652
especially 0.000338677153715
middle 0.000105257209584
waiting 0.000125258334985
definitely 0.000334119404896
walking 3.66550973702e-05
account 7.17205818325e-05
completely 0.00014502038665
thought 0.000955175079156
accept 0.000117189630143
possible 0.00029110660084
simple 0.00010670254642
manufacturing 0.0
destroyed 0.0
members 0.0
supposed 0.000284397691856
manufacturers 0.0
business 0.000296666083146
absolutely 0.000523145958773
anywhere 0.0
sending 7.09410938433e-05
introducing 0.0
congrats 0.000224589647563
beauty 4.37674966862e-05
community 0.0
greatest 0.000167059702448
posted 3.61559134908e-05
wednesday 0.000147428355648
explain 0.000106994382975
broken 3.78876830369e-05
fairly 0.000127430353119
closest 5.83365511176e-05
hoping 0.000220535552242
relationship 0.0
actually 0.000688920842416
pockets 0.0
wallet 0.0
pocket 5.23859912992e-05
argument 0.000329883927034
decent 0.000271514671833
school 0.000279560730007
throwback 0.000195668713453
thursday 9.808986727e-05
talented 0.000160691232916
discuss 7.87837154738e-05
celebrate 3.37760120888e-05
celebrating 7.29088782315e-05
anniversary 0.0
students 0.0
corners 0.0
internet 7.59853808953e-05
figure 7.31092053662e-05
opened 0.0
inspired 3.69585902255e-05
latter 0.000138124370268
sitting 0.00027614002302
playing 0.000714432976685
street 0.0
points 0.000470068379724
advice 0.000215161745498
memory 0.000126834714502
forever 6.90350057549e-05
congress 0.0
imagine 0.000238363692192
problem 0.000262280976747
pulling 0.0
furniture 0.0
keeping 6.82889935689e-05
dressed 4.93354515104e-05
chinese 0.0
unlike 0.0
allowed 4.0172808229e-05
otherwise 0.00013016485977
afternoon 0.000107875538096
planned 8.77899171436e-05
images 0.0
noticed 9.68648524946e-05
expense 0.0
differences 5.87501577044e-05
difference 3.34119404896e-05
editor 0.000100532249316
intent 7.11804279071e-05
suppose 0.000117500315409
inspiration 0.0
letting 0.0
system 0.000191018998674
almost 0.000122255751302
details 3.34119404896e-05
experience 9.57345294455e-05
living 3.19115098152e-05
worries 5.37680299763e-05
weather 3.90632100476e-05
bright 8.60274972116e-05
understands 0.000127430353119
normal 4.09743511081e-05
launching 0.0
backyard 0.0
pointed 0.0
before 0.000231992039361
monday 0.000127646039261
example 0.0
science 4.31380825835e-05
tweeting 6.979028541e-05
forgot 0.000191549533509
disaster 0.0
happens 0.000221579734493
silence 0.000144411846102
learned 0.00010612166009
congratulations 0.0
natural 4.338828659e-05
babies 0.0
mission 0.0
surprising 0.0
reference 0.000258589204964
forgotten 4.54677031647e-05
setting 4.338828659e-05
appeared 0.0
reminds 0.000173051708698
fantastic 0.000108171158599
loving 0.0
complete 7.01714730559e-05
daniel 5.37680299763e-05
rewarding 0.0
nearly 0.000160691232916
spirit 7.92258936436e-05
launched 0.0
finding 7.47360376821e-05
stories 6.61043550625e-05
including 0.000237717872861
wouldn 0.000725183758802
choice 9.78251389403e-05
offended 0.0
conversation 0.000185813076272
disrespectful 0.0
making 0.00027433498927
expect 0.000183275486851
traits 0.0
discussion 8.90808197849e-05
believes 5.35917998296e-05
response 7.19170253972e-05
brings 0.000110571266736
seasons 0.000346359029539
anytime 0.0
protected 0.0
location 0.0
needed 0.0
seriously 0.000135104048355
emergency 0.0
justify 0.0
spending 0.0
groups 0.0
condition 0.0
childhood 4.97972266959e-05
modern 0.0
welcome 9.26858161838e-05
moments 0.000151970761791
totally 7.05550656871e-05
running 0.000320842353661
strong 0.000125935765487
respond 4.61478124071e-05
message 6.4865317677e-05
coming 0.000518188313066
thankful 0.0
issues 0.000109363317347
challenge 0.0
intolerance 0.0
happen 0.000124584657579
giving 0.000123581088245
turkey 4.45404098925e-05
excellent 0.000478027867457
limits 0.0
contractors 0.0
common 0.000188915185491
pressed 8.38214359011e-05
healthcare 5.93813142548e-05
benefits 0.0
situation 0.000119842874594
workers 0.0
company 0.000138445895768
savings 0.0
health 7.2114105733e-05
insurance 0.0
change 0.000152819689128
silver 0.0
august 0.0
crying 9.62745640679e-05
mental 4.54677031647e-05
carrier 0.0
decide 0.0
happened 0.000289538708087
parking 0.0
demand 8.05720570563e-05
sacrifice 0.0
personal 6.64630536272e-05
rewards 0.0
beyond 0.000170722483922
contributing 0.0
passion 9.25713587579e-05
question 0.0010305984954
doctor 4.68434861334e-05
sacrifices 8.8428494485e-05
respected 0.000267237325194
losing 0.000113036250454
strain 8.78807388515e-05
respect 0.000334119404896
shouldn 0.000182773013415
career 0.000461117109982
visited 4.79907775809e-05
reason 0.000418222578348
simply 0.0
audience 0.000211391190837
sacrificed 0.0
employees 0.0
accounts 5.10640606301e-05
attacked 0.0
involved 7.11350309467e-05
extreme 5.28969212283e-05
valuable 0.000343959025293
knocked 0.0
reality 0.000145418417974
mention 0.000376787501514
without 0.000431369390587
problems 3.76787501514e-05
timing 5.43029343666e-05
described 0.0
pattern 0.0
online 0.000164369400785
background 9.20211357234e-05
buying 0.000124326140161
called 0.000368749842386
scientists 0.0
checked 8.67765731801e-05
heading 3.63546044934e-05
paying 7.94481945507e-05
planning 0.000158896389101
opposite 0.000200436081417
through 8.5779842163e-05
reached 0.0
changing 0.00014988497376
explains 0.000123271806505
harder 8.50428727717e-05
demands 0.0
silent 0.0
speaking 3.4990290248e-05
november 0.0
ordinary 0.0
number 0.000156572918731
stunning 9.12050264181e-05
atlantic 0.0
stupid 0.000212607181929
personality 6.18145817662e-05
grandparents 0.0
unless 0.00026375125106
calling 0.000224589647563
painting 0.0
focused 0.0
ridiculous 0.000421573647867
package 5.48474196418e-05
rooted 0.0
option 8.85611650799e-05
knowing 4.22782381673e-05
former 0.00042258023855
actual 0.000243769450162
tracked 0.0
suffers 0.0
schedule 0.000189646879135
friday 0.000123914691913
failure 0.0
achieve 0.0
winner 3.3959696123e-05
doctors 0.0
becomes 0.0
directly 5.04240450922e-05
quality 0.000118506603866
tearing 0.0
father 0.000139201168139
wishes 3.98356556214e-05
collar 0.0
caring 0.0
ground 7.92258936436e-05
matter 0.000557347075587
strategy 5.07423685786e-05
themselves 0.0
asking 0.000258761422969
usually 0.000325945393705
thankfully 6.90621851339e-05
reacts 0.0
period 0.0
parents 0.000109965292111
balance 0.0
resist 0.0
mobile 0.0
computer 0.0
reminded 0.0
impressed 0.000138857038137
dinner 6.75520241775e-05
suffering 0.0
single 0.000220387589603
parent 0.0
approved 5.77265049232e-05
energy 0.0
preview 4.35141650936e-05
meltdown 0.0
remind 8.50428727717e-05
emotional 0.0
sounded 0.0
status 0.0
update 3.5664794325e-05
outage 0.0
customers 0.0
holding 0.0
causes 5.43029343666e-05
eating 0.0
picked 0.000190490309181
missing 0.000163041898234
surprise 9.808986727e-05
officially 0.000106994382975
global 0.0
follow 0.000184374921193
opinion 0.000159342622486
faster 0.0
backwards 0.0
design 0.0
website 0.000111795430694
widely 0.0
origin 0.0
breaks 4.02860285281e-05
allows 5.75258466688e-05
promoting 5.25553489248e-05
volunteer 0.0
convince 5.77265049232e-05
negative 8.90808197849e-05
official 0.000126275901264
jersey 0.000102778386607
mistake 0.000211391190837
fixing 0.0
translated 0.0
ginger 0.0
peaceful 0.0
thinks 0.0002853183546
hospital 4.45404098925e-05
lauren 0.0
easier 8.28840934408e-05
excluded 0.0
successful 0.0
leadership 0.0
agrees 0.0
decline 0.0
turnout 0.0
showed 0.000230498311936
trumps 7.18137761316e-05
circle 0.000108247170169
engage 0.0
suited 0.0
experienced 0.0
interested 7.85638265167e-05
effect 8.05720570563e-05
success 6.90350057549e-05
ladies 4.19170503717e-05
dreams 4.0172808229e-05
protect 0.0
explanation 0.000163994516465
occasion 0.000139903986984
medication 9.59108450823e-05
planet 0.0
detached 0.0
essence 0.0
control 0.000102433490353
happier 0.0
likely 8.17170858204e-05
coincidence 6.4459694143e-05
cancel 0.000127922657269
project 3.45175028775e-05
laying 0.0
lesson 0.000127564309158
requires 5.91694693893e-05
healthy 0.000290094327043
treating 0.0
opening 0.000232620687695
statement 0.000118838840465
enjoyed 7.25101933251e-05
animal 4.58739401478e-05
nervous 0.0
pounds 0.0
wonder 0.000331417199088
matters 0.000281209657603
shared 0.0
somehow 0.000197341806042
benefit 0.0
terrible 0.000116863336966
continues 0.000111795430694
improve 9.34061439136e-05
equally 0.0
appointment 7.02544797209e-05
session 3.99476248647e-05
routine 0.0
exciting 3.66550973702e-05
corner 8.72811340042e-05
imagination 0.0
decides 0.0
cheering 0.0
spring 0.000390632100476
fallen 5.37680299763e-05
frequently 0.0
places 0.0
thousands 0.0
informed 0.000161304089929
typical 5.69316984693e-05
continue 0.000105832598531
attend 0.0
excuse 4.42805825399e-05
settle 0.0
female 0.0
recovery 0.0
treasured 0.0
grandma 0.0
closer 0.000153239626807
beginning 7.68327706454e-05
everywhere 0.0
scenes 7.79088913108e-05
bought 3.73680188411e-05
multiple 4.6285679379e-05
slogan 0.0
wishing 4.42805825399e-05
covered 0.000158451787287
remove 0.0
choices 0.0
dealing 0.0
teacher 0.0
training 0.000396129468218
passing 0.00016529778606
stopping 0.0
become 0.000223380568706
spread 3.4895142705e-05
season 0.00134738338423
putting 9.62527060983e-05
weight 0.0
quietly 0.0
necessity 0.0
knocks 0.0
effects 0.0
returns 4.09743511081e-05
expected 0.000175069986745
resources 0.0
bucket 0.0
struggling 0.000158690763685
register 0.0
promotion 0.0
solution 0.000101484737157
manage 0.00016733143183
transition 0.0
gained 0.0
define 0.0
somebody 4.5602513209e-05
contract 0.000423175369826
ignorant 6.57425686801e-05
managers 7.59188271948e-05
credit 0.0
brothers 0.000187373944534
grandkids 0.0
computers 0.0
physical 5.09027890838e-05
series 0.000631399009459
offensive 0.00011080367057
fighting 6.96005840693e-05
donald 0.0
mexico 4.41514969312e-05
sandra 0.0
police 3.93918577369e-05
represent 0.0
president 0.000101879088369
talking 0.000429050068157
america 3.25203922766e-05
michigan 6.15851496192e-05
everybody 0.000188393750757
judgment 0.0
carolina 0.0
amount 4.28899210815e-05
houston 0.000208200322125
everyday 0.0
michael 0.000207105017265
protecting 0.0
providing 0.0
attitude 5.41235850843e-05
million 0.000160421176831
election 4.21573647867e-05
honesty 0.0
targeting 7.08686342489e-05
telling 6.94114727804e-05
correct 0.000315134861895
attack 0.0
elementary 0.0
americans 0.0
killed 6.8103912055e-05
horrible 0.000364350563719
salute 0.0
coverage 0.000331536373763
united 7.92258936436e-05
college 0.000267426598144
refuse 5.48474196418e-05
preach 7.66603179835e-05
hillary 0.0
clinton 0.0
presidency 0.0
throws 0.000238378583053
manning 0.000208067710523
american 9.72979765155e-05
deserved 0.00014010921587
humble 0.0
remain 8.60274972116e-05
founder 0.0
illegal 0.0
arizona 0.0
opinions 0.0
speeches 0.0
scared 0.000134407431491
salary 0.000141120012127
pieces 0.0
taught 4.50668233091e-05
thompson 0.000481398942538
straight 0.000169338576858
blocking 0.0
answers 3.93918577369e-05
created 0.0
record 0.000223380568706
stamina 0.0
weapon 0.0
bottom 0.000163897404432
athletes 0.000125500056696
registered 0.0
minnesota 6.87712775055e-05
committed 4.8137282034e-05
journey 0.0
snapchat 0.0
peoples 0.0
disrespect 0.0
brother 0.000186325717823
prayers 4.78449757897e-05
boston 0.0021192718527
korean 0.0
church 0.0
advantage 5.22175719477e-05
motivation 0.0
honestly 0.000305483969015
defeat 0.0
lifetime 9.22956248143e-05
captain 0.000155650520642
retired 0.000248183034644
country 0.000126275901264
ending 4.10906021682e-05
dressing 0.0
finish 3.75748197419e-05
ranked 6.79148936864e-05
employee 0.0
university 0.000131302490059
dreamed 0.0
prayer 0.0
nominated 4.58739401478e-05
responds 0.0
national 0.000165260887656
reform 0.0
shooting 0.000152815198939
cancer 7.68327706454e-05
deserve 0.00011241373032
mother 3.40519560275e-05
creating 0.0
powerful 3.72651435646e-05
wisdom 0.0
breaking 6.57477603138e-05
dollars 0.000102452384591
questions 0.000156572918731
racist 0.000110062207352
charged 0.0
soldiers 0.0
performance 0.000176869433483
reading 0.00022702861187
denver 0.0
graphic 0.0
garner 0.0
create 0.0
jordan 0.000372696625828
admire 0.0
nobody 7.494248688e-05
government 0.0
politics 8.65258543491e-05
blessing 0.0
wrestling 7.44879929772e-05
charities 7.18137761316e-05
donate 0.000123621898472
sample 0.0
bringing 0.000137321710928
deserves 8.12564833875e-05
regret 0.0
victim 5.81318391307e-05
according 8.10274841323e-05
threat 4.54677031647e-05
heaven 9.68648524946e-05
heroin 0.0
honest 0.000151970761791
became 0.000114611399204
decision 0.000152392247345
counting 8.67765731801e-05
signing 8.01200160865e-05
embrace 0.0
pressure 4.15601036268e-05
celebrities 0.0
facebook 9.808986727e-05
kardashian 0.0
divided 0.0
lawyer 5.81318391307e-05
lebron 0.000385189789055
campaign 3.54705469217e-05
determine 0.000202904132754
whether 0.000231782808027
praise 0.0
defined 0.000133078221435
proposes 0.0
discover 0.0
factory 0.0
arrested 0.0
estate 0.0
proposed 5.77265049232e-05
comments 0.000372651435646
teenage 0.0
wounded 0.0
endorsement 0.0
williams 0.000146191392232
custom 0.0
troops 0.0
singer 0.0
future 0.000125935765487
struggled 0.0
sister 4.10906021682e-05
sabotage 0.0
athlete 6.5481626175e-05
warrior 6.49663661248e-05
cheating 0.0
voting 7.53575003028e-05
succeed 5.73265042156e-05
religion 0.0
century 0.0
serving 5.25553489248e-05
because 8.80459142812e-05
cleveland 0.00012048754506
hiding 5.01090203541e-05
breath 5.18835068806e-05
choosing 0.0
lawrence 6.9951993492e-05
instagram 8.47991881555e-05
opponent 0.000264023081823
detroit 5.6736201878e-05
honored 0.0
nonsense 0.000114256920839
lifting 0.0
proven 0.0
talent 0.000366688567919
knocking 0.0
russian 5.09027890838e-05
brains 0.0
oakland 8.10972607614e-05
regardless 0.0
skills 4.23995940777e-05
citizens 0.0
california 0.0
commitment 0.0
seconds 8.17170858204e-05
seeking 0.0
threatening 0.0
listen 0.000189413851895
whatever 0.000245600155696
mexicans 0.0
satisfied 8.28859893192e-05
fought 0.0
compete 0.0
injured 0.000216494340337
billion 0.0
ceiling 0.000279807973968
absolute 4.48024771636e-05
appearance 0.0
bigsean 0.0
handle 3.98356556214e-05
promise 7.25101933251e-05
nightclub 0.0
hosting 4.00600080432e-05
actors 0.0
generation 4.19170503717e-05
criminal 0.0
tuesday 0.0
ronald 0.0
locker 0.000479381891358
struggle 9.48234395677e-05
degree 0.000163450044128
entering 5.83365511176e-05
leader 0.000119506966864
pageant 0.0
toughest 0.0
character 0.000163434171641
mirror 0.0
interview 0.000248498426673
whistle 0.0
obviously 0.000128669763245
battle 0.000106411640765
motivate 0.0
destroy 0.0
relentless 0.0
winning 0.000260867037174
charlotte 0.0
accomplished 6.70819754147e-05
stepped 0.0
defense 0.000392251622602
appeal 0.0
causing 0.0
arabia 0.0
shipped 9.52119725751e-05
society 4.21573647867e-05
officers 0.0
brooklyn 0.000123629163532
marked 0.0
incredible 0.000131851592509
poster 0.0
wealthy 0.0
memorable 6.32287723397e-05
officer 0.0
minute 3.44238214006e-05
luther 0.0
foreign 0.0
pregnant 0.0
champions 5.73265042156e-05
virginia 0.0
tackle 0.0
unarmed 0.0
orange 0.000137213771237
policy 4.48024771636e-05
comedy 0.0
reminder 0.000220535552242
evidence 0.00018133395324
lighten 0.0
presidents 0.0
kicked 0.0
sticker 0.000157999808036
accused 0.0
intentions 0.0
facing 5.02661246582e-05
freedom 0.0
actions 0.0
debating 6.76347109179e-05
outcome 5.81318391307e-05
utterly 0.0
mississippi 0.000172588624074
clearly 0.000116214232122
download 0.0
sidelines 0.0
invite 8.65258543491e-05
legally 0.0
central 0.000120858085584
washington 0.000201998360409
veteran 6.00258532084e-05
division 5.61571440809e-05
veterans 5.98094849272e-05
stronger 0.0
promised 0.0
worried 8.83029938624e-05
security 0.0
immediately 8.52875380128e-05
television 5.37680299763e-05
entitled 0.0
racism 5.89590905899e-05
highest 8.62761651671e-05
approve 0.00012092653058
turning 7.64075994697e-05
legacy 0.0
ignore 4.37674966862e-05
choked 0.000107885383786
backing 6.32287723397e-05
helping 6.71868625371e-05
collector 0.0
willing 4.64241744485e-05
basically 0.000267242459355
return 0.000101328036266
unacceptable 0.0
feelings 0.0
network 0.000298506383045
language 0.0
invest 0.0
coward 8.43001798927e-05
schools 0.0
patients 0.0
foster 0.000252915089359
children 0.0
nation 3.84163853227e-05
review 0.0
between 6.70819754147e-05
knowledge 8.67765731801e-05
begins 0.000146218410732
tenure 0.0
faithful 9.07238950245e-05
highlights 9.20211357234e-05
shoulder 6.06843543748e-05
produced 4.78449757897e-05
consider 8.10274841323e-05
shattered 0.0
latest 0.000198313065188
beyonce 0.0
signed 0.000168422923029
millionaire 0.0
shelter 6.87712775055e-05
charity 8.52875380128e-05
germany 0.0
advance 0.000133230655866
proved 0.0
married 4.51998634128e-05
millions 0.0
blessings 0.0
indonesia 0.0
fights 0.0
dollar 5.13891933035e-05
rigged 0.0
conduct 0.0
johnson 0.00030371800613
howard 0.000167899650774
turned 0.000234517853066
criticism 0.000170208605634
stomach 0.0
upgrades 0.0
jackie 0.0
relevant 0.000108605868733
charge 8.45564763347e-05
ticket 4.09743511081e-05
steady 0.0
indian 0.0
turner 0.0
sanders 6.70819754147e-05
includes 0.0
survivor 0.0
dealers 0.0
collection 0.0
against 0.0
joyner 0.0
impact 0.000163434171641
families 0.0
welcoming 0.0
hitting 0.000162972696853
announced 3.71626152543e-05
granted 0.0
decided 7.31092053662e-05
itself 0.0
selfish 7.59188271948e-05
mexican 0.0
respects 0.0
guarantee 0.000179428454781
beliefs 0.0
citizen 0.0
states 0.0
denied 0.0
drought 0.0
memorial 0.0
decades 4.90314528252e-05
trayvon 0.0
landed 4.76998699525e-05
pastor 0.0
ultimate 4.42805825399e-05
weekends 0.0
episode 7.29088782315e-05
spikes 0.0
engaged 0.0
financial 5.37680299763e-05
payments 0.0
tolerant 0.0
symposium 0.0
kansas 0.000183394246789
agreement 5.65419544747e-05
source 0.000214449605408
backbone 0.0
dismiss 0.0
midnight 0.0
homework 0.0
joining 7.19170253972e-05
reasons 7.11350309467e-05
talked 0.000230498311936
released 0.000142270061893
reaching 5.5966550258e-05
release 0.000100507651314
existing 0.0
models 0.0
pageants 0.0
helmets 0.0
scheme 0.0
scholarship 0.0
stacked 0.0
speech 0.0
standing 0.000104685428115
higher 0.000245846106649
purple 0.0
justice 0.000123271806505
served 0.0
speaks 0.0
backup 7.74203479495e-05
allegedly 0.0
purchase 0.0
millionaires 0.0
consideration 0.0
strength 0.0
incredibly 0.000129414247751
private 3.9172364977e-05
ignored 5.83365511176e-05
neighbors 0.0
apologizes 0.0
beings 0.0
minimum 6.29884579247e-05
direction 4.68434861334e-05
enemies 6.49663661248e-05
exclusive 3.62550966626e-05
prison 5.39452877099e-05
himself 9.80629056505e-05
contributes 0.0
investigation 5.63489403965e-05
teaching 0.0
disgusting 5.98094849272e-05
philly 0.000342770762517
rights 0.000123621898472
cheers 0.0
maintain 6.76347109179e-05
overcome 0.000202071260796
flawless 0.0
unique 0.0
neighborhood 0.0
dating 6.04632652899e-05
handed 5.8542650993e-05
victory 4.36405670021e-05
lifted 0.0
greatness 6.52229044842e-05
muslim 0.0
terrorist 0.0
productive 0.0
tribute 8.38341007435e-05
deadspin 0.000423431966662
threatened 0.0
horror 0.0
warning 8.83029938624e-05
convention 0.0
understanding 4.40229571406e-05
action 6.55702441867e-05
having 0.0
afghan 0.0
announces 4.67030719568e-05
commencement 0.0
speaker 0.0
graduation 0.0
honors 0.0
produce 5.73265042156e-05
apologize 0.0
insult 0.0
continued 0.0
letter 7.53575003028e-05
discussed 0.0
therapy 6.39613286345e-05
untrue 0.0
written 0.000298121148517
existence 0.0
essential 0.0
results 0.0
initiative 0.0
disease 0.0
marching 6.57425686801e-05
suggest 4.72686625072e-05
georgetakei 0.0
ensure 0.0
democrats 0.0
marched 0.0
foundation 0.0
access 0.000112724459226
writes 0.000149391680088
student 4.38949585718e-05
colorado 0.0
medical 0.0
medicine 0.0
tremendous 0.00017317951477
nytimes 4.6285679379e-05
kindness 0.0
public 0.000106411640765
cannot 0.000170259780137
reveals 0.0
invented 5.71284604195e-05
threatens 0.0
candidate 4.85810799185e-05
persistence 0.0
sexual 5.35917998296e-05
illustration 0.0
measure 0.00027983275129
compared 0.0
headline 0.000574139709477
reflect 0.0
answering 0.0
streaming 0.000199810895151
leaders 4.45404098925e-05
supreme 0.0
nominee 0.0
immigration 5.6736201878e-05
policies 0.0
laundering 0.0
administration 0.0
defend 9.99054475756e-05
communicating 0.0
excitement 0.0
funding 4.87304640775e-05
climate 0.0
transfer 0.0
conspiracy 0.0
activist 0.0
horrifying 0.0
freely 0.0
retreat 0.0
daughters 6.5481626175e-05
compelling 7.05600060633e-05
platform 4.84324262473e-05
hamilton 0.0
futures 0.0
huffingtonpost 0.0
headlines 5.63489403965e-05
january 0.0
grants 0.0
unprecedented 0.0
relationships 0.0
philadelphia 6.76347109179e-05
diversity 5.63489403965e-05
funded 0.0
secure 0.0
income 0.0
universal 0.0
contributed 0.0
hurricane 0.0
fundamental 0.0
countries 0.0
linked 0.0
african 0.0
improved 6.024377253e-05
unclear 7.94079586706e-05
provide 4.48024771636e-05
livestream 0.0
addresses 0.0
enhance 0.0
companies 0.0
proposal 0.0
potential 8.43147295734e-05
discrimination 0.0
connected 0.0
drives 0.000117085301986
attending 0.0
filled 4.28899210815e-05
education 4.10906021682e-05
addressed 0.0
mentioned 0.000314540540319
famous 4.20369701138e-05
resistance 0.0
exists 0.0
demonstrated 0.0
officials 0.0
instructions 0.0
transmission 0.0
olympics 0.0
ability 4.4410218622e-05
political 0.0
director 3.80980618363e-05
contains 7.62873118904e-05
sponsored 0.0
autism 7.31214880843e-05
previously 0.0
prevent 0.0
capacity 7.02544797209e-05
donations 0.0
william 0.0
editors 6.93559035075e-05
passionate 0.0
solving 0.0
innate 0.0
treatment 4.78449757897e-05
critical 0.0
feeding 0.0
preparing 0.0
depend 0.0
capable 6.27500283481e-05
bridge 0.0
systematically 0.0
becoming 7.8344729954e-05
embraced 9.52119725751e-05
literacy 0.0
lawyers 0.0
stigma 0.0
malaria 0.0
standard 4.41514969312e-05
hiring 5.91694693893e-05
remains 9.45373250145e-05
fellow 7.74761547483e-05
defending 0.000208870287791
quotes 5.02661246582e-05
pushes 0.0
luxury 0.0
admitted 0.0
colleagues 5.5966550258e-05
failed 4.53334883101e-05
independent 0.0
politically 0.0
driven 5.54018352851e-05
agenda 0.0
result 4.40229571406e-05
implications 0.0
insider 0.0
pakistan 0.0
solutions 0.0
trusts 0.0
indiana 6.11314155962e-05
filling 6.22787070437e-05
humility 9.01335926869e-05
clicks 0.000187721312198
disagree 0.000141805987522
claims 4.90314528252e-05
editorial 6.37151765594e-05
mistakes 0.0
offered 0.000150798373975
passionately 0.0
justification 0.0
inspiring 4.12072994907e-05
counter 0.0
shaped 0.0
retroviral 0.0
majority 0.0
approach 0.000136403109494
nature 0.0
concern 5.17178409928e-05
server 7.94079586706e-05
berniesanders 0.0
shameful 0.0
experiment 0.0
massive 3.87380773742e-05
promises 0.0
colored 0.0
consequences 0.0
whatsoever 0.000183880083604
proposals 0.0
guesses 0.0
bernie 0.0
interviewed 0.0
pregnancy 0.0
secretary 0.0
measures 0.0
vastly 9.07238950245e-05
reduce 0.0
compassionate 8.47865841124e-05
distinguished 0.0
dangerous 4.09743511081e-05
influence 0.0
letters 0.0
implicit 0.0
saving 0.0
revelations 0.0
incident 6.29884579247e-05
universe 4.90314528252e-05
victims 0.0
milestone 0.0
perfectly 0.000185696697794
exercise 0.000159727125355
receive 0.0
reputation 0.0
economics 0.0
disclosure 0.0
receives 0.0
terrific 0.000215072119905
collected 0.0
campus 0.0
founders 0.0
profiling 0.0
systemic 0.0
studying 0.0
necessary 9.39691037724e-05
inaccurate 7.89999040179e-05
breast 0.0
debate 0.000196409566292
suddenly 0.0
conflict 0.0
interest 0.000214449605408
meanwhile 0.0
indefensible 0.0
recall 0.000116263678261
rating 0.0
nominate 0.0
outstanding 0.000261929956496
devastating 0.0
illness 0.0
troubling 0.0
romney 0.0
appears 0.000101165580359
breathe 0.0
abroad 0.0
spanish 5.61571440809e-05
profit 5.95946457632e-05
reviews 0.0
republican 0.0
presidential 0.0
candidates 0.0
politicians 0.0
identified 0.0
epidemic 0.0
displaced 0.0
greater 0.0
absurd 0.00039445541208
deadline 0.000639379938182
height 0.0
sisters 0.0
nuclear 5.39452877099e-05
stress 0.0
leading 7.74761547483e-05
restored 0.0
conditions 0.0
however 0.000145297278742
achieved 0.0
member 3.58602909163e-05
examples 0.0
diverse 0.0
suicide 6.024377253e-05
contributions 6.7357086932e-05
largest 0.0
increase 0.0
targeted 0.0
regulators 0.0
provided 6.27500283481e-05
element 0.0
effectively 0.0
population 0.0
rising 0.0
indication 0.0
versus 0.0
believed 0.000111933100516
dynamic 6.62712709658e-05
invasion 0.0
primary 0.0
provides 0.0
environment 0.0
confirmed 4.4410218622e-05
behavior 0.0
introduced 0.0
contain 0.0
communities 0.0
worldwide 0.0
responsible 9.95944533919e-05
household 0.0
apparent 0.0
munich 0.0
alternate 0.0
expressed 0.0
movement 4.07431742132e-05
declared 0.0
hundreds 0.0
information 0.0
easily 8.98687258053e-05
untreated 0.0
october 0.0
quantify 0.000120740069328
scales 0.0
investigating 0.0
innovation 0.0
perspective 0.0
rivals 0.0
interests 0.0
toledo 0.000114932063652
extraordinary 0.0
gingrich 0.0
describing 0.0
eliminate 0.0
obligation 0.0
gender 0.0
committee 0.0
preventing 0.0
numerous 0.0
unusual 0.0
improving 0.000132011540911
practices 0.0
cemetery 0.0
questioned 0.0
affecting 0.0
ferrell 0.0
genius 0.0
warren 7.02544797209e-05
organizers 0.0
regularly 0.0
ceilings 0.0
sexism 0.0
prepared 0.0
burden 0.0
foreignpolicy 0.0
county 0.0
uniform 6.87712775055e-05
newyorker 0.0
anthony 0.000111177820861
reflecting 0.0
grandson 0.0
banning 0.0
considered 0.000236343312536
chosen 0.0
outright 0.0
screenings 0.0
naming 7.21354681831e-05
conventions 0.0
reproductive 0.0
ignores 0.0
focusing 0.0
sensible 0.0
concluded 0.0
performed 0.0
divide 0.0
dismissed 8.19784707274e-05
compromise 0.0
crucial 0.0
weakness 0.0
barrier 0.0
effective 0.000304454211472
wealth 0.0
underway 0.0
israel 0.0
overwhelming 0.0
assault 5.83365511176e-05
citing 7.55547555956e-05
protection 0.0
prisoners 0.0
photographing 0.0
traveled 0.0
holder 0.0
seemed 0.000274237098209
concludes 0.0
determination 0.0
tested 0.0
lacking 0.0
machine 0.000123271806505
honoring 0.0
contrary 0.0
tolerance 7.59188271948e-05
michelle 0.0
assumed 0.000146914797704
programs 0.0
closely 0.0
politico 0.0
inspire 0.0
lyrics 0.0
judges 0.0
federal 5.69316984693e-05
maryjblige 0.0
tuning 0.0
striving 0.0
poland 0.0
september 8.5533191803e-05
manchester 0.0
checks 0.0
remarkable 5.25553489248e-05
mharrisperry 0.0
immoral 0.0
fiction 6.11314155962e-05
process 0.0
anxious 0.0
destructive 0.0
nmaahc 0.0
performances 0.000119618969854
whitehouse 0.0
flotus 0.0
crisis 4.68434861334e-05
marriage 0.0
emotions 0.0
confidence 9.5399739905e-05
voters 0.0
comparing 6.7357086932e-05
oldest 6.13574360811e-05
empirefox 0.0
chancetherapper 0.0
songwriter 0.0
literally 0.000150715000606
onstage 0.0
believing 0.0
hillaryclinton 0.0
citizenship 0.0
counted 0.0
hillaryfornc 0.0
raleigh 0.0
discusses 0.0
johnlegend 0.0
apprentice 0.0
acknowledge 7.08686342489e-05
conservative 0.0
economists 0.0
buzzfeed 0.0
puppet 0.0
hombres 0.0
republic 0.0
homecoming 0.0
andersoncooper 0.0
muslims 0.0
katyperry 0.0
bragging 0.00017685698897
treats 0.0
qualified 0.0
islamophobia 0.0
debates 0.0
endorsements 0.0
counts 0.0
theellenshow 0.0
festival 8.96049543271e-05
encouraged 7.55547555956e-05
stylish 0.0
disregard 9.8109365364e-05
jtimberlake 0.0
backstage 0.0
barack 0.0
joined 7.494248688e-05
terrorism 0.0
pushing 4.87304640775e-05
hopeful 0.0
mentions 5.71284604195e-05
teamed 8.06660533162e-05
exclusively 0.0
aliciakeys 0.0
kingjames 8.57833821081e-05
muhammad 0.0
refused 0.0
characters 0.0
express 0.0
gratitude 0.0
ugliest 0.0
throughout 0.000144853487864
awkward 0.0
shining 6.15851496192e-05
fighter 0.0
accepting 0.0
applemusic 0.0
reveal 0.0
stands 4.22782381673e-05
native 6.18145817662e-05
announce 7.07477733931e-05
dorothy 0.0
haters 6.42094901365e-05
jessetyler 0.0
shondarhimes 0.0
lavernecox 0.0
broadway 6.81976828436e-05
disabilities 0.0
adoption 0.0
touched 0.0
corruption 0.0
violence 0.0
leedanielsent 0.0
delivered 0.0
jasmine 0.0
independence 0.0
square 4.12072994907e-05
alongside 0.0
privilege 0.0
secondary 7.98215652574e-05
staggering 0.0
seventh 9.8109365364e-05
tennis 0.0
sweeping 0.0
footage 9.95944533919e-05
overseas 6.68093312985e-05
spoiler 0.000191883985904
theirs 0.0
offering 0.0
construction 6.37151765594e-05
spends 6.96524874715e-05
detail 5.5966550258e-05
cabinet 0.0
earnings 0.0
pleased 0.0
gravity 0.0
statements 0.0
decade 4.75554534567e-05
bigotry 0.0
belong 6.42094901365e-05
trillion 0.0
backed 0.0
operations 7.59188271948e-05
breakthroughs 0.0
values 0.0
senator 0.0
removing 0.0
wondered 0.0
introduces 0.0
makers 0.0
measured 0.000148281130044
pillars 0.0
instrument 0.0
shares 4.90314528252e-05
individual 0.00015416757991
applications 6.9951993492e-05
prepares 0.0
ceremony 5.43029343666e-05
expanding 0.0
merger 9.52119725751e-05
newspaper 0.000113863396939
detailed 0.0
tuition 0.0
childcare 0.0
thoroughly 0.0
adviser 0.0
matthew 0.0
affected 0.0
newspapers 0.0
corporate 0.0
economy 0.0
presenting 0.0
spoken 0.0
richer 0.0
during 0.0
combat 0.0
touting 0.0
competitive 0.000122262831192
prominence 0.0
trifecta 0.0
fashioned 7.89999040179e-05
boasts 0.0
ripped 0.0
belief 5.65419544747e-05
heroes 0.0
disturbing 0.0
russians 0.0
intelligence 0.0
deepest 0.0
regrets 0.000238223876012
complicated 0.000163994516465
internships 0.0
adults 5.83365511176e-05
describe 0.0
equality 0.0
announcement 3.90632100476e-05
interfere 0.0
terrifying 0.0
nationwide 0.0
manager 0.000286199219715
questionable 0.0
enhanced 0.0
services 0.0
delighted 6.34710016307e-05
golfer 0.0
regarding 0.000112697880793
teachers 0.0
suggests 0.00016904682119
phrase 0.0
immigrants 0.0
revolution 0.0
universities 0.0
twelve 0.0
principle 0.0
releases 0.0
malarkey 0.000132276407793
library 0.0
advisor 0.0
deadlines 9.01335926869e-05
encouraging 6.00258532084e-05
circuit 0.0
humanitarian 0.0
reliant 0.0
assistance 0.0
swimmer 0.0
hinges 0.0
concrete 0.0
accepted 0.0
confronted 0.0
comprehensive 0.0
pushed 5.91694693893e-05
unending 0.0
occasionally 0.0
guardia 0.0
donation 0.0
nomination 0.0
paintings 0.0
significantly 8.38214359011e-05
investment 0.000117500315409
terror 0.0
worship 0.0
represents 0.0
attempting 0.0
bullying 6.42094901365e-05
astonishing 0.0
endorse 0.0
urgent 0.0
forced 0.0
addressing 6.49663661248e-05
script 0.0
hundred 0.0
command 6.7357086932e-05
qualifies 0.0
stumbled 0.0
territory 6.90621851339e-05
balloons 0.0
objects 0.0
latimes 0.0
pandemics 0.0
separating 0.0
pentagon 0.0
threats 0.0
prisons 0.0
approaching 6.81976828436e-05
generous 5.79284964649e-05
roughly 0.000150389985275
commands 0.0
uncovered 0.0
destroying 0.0
opposition 0.000123170299238
addiction 0.0
manhattan 0.0
ridiculously 0.0
awarded 0.0
greeted 0.0
forces 0.0
confirm 0.0
dealings 0.0
nations 0.0
equivalent 6.42094901365e-05
sexist 0.0
yahoonews 0.0
bloody 5.77265049232e-05
boundaries 0.0
exceptionally 0.0
cannon 8.38214359011e-05
feared 0.0
significance 0.0
recommendation 7.37970628907e-05
chapters 0.0
racial 0.0
obvious 0.000309318438165
statistics 0.0
military 0.0
adopted 0.0
housing 0.0
clearer 0.0
calculator 0.0
underwater 0.0
guided 9.52119725751e-05
rescue 0.0
deserving 0.0
advised 0.0
ordered 0.0
unions 0.0
avoiding 6.7357086932e-05
alicia 0.0
preserve 0.0
balloon 0.0
economic 0.0
recipe 0.0
awaits 8.47865841124e-05
squarely 0.0
radical 0.0
banter 0.0
spaces 0.0
carnival 0.0
theories 0.0
bombing 0.0
products 5.52159043374e-05
margaret 0.0
gathered 0.0
taxpayers 0.0
admits 6.68093312985e-05
opposed 0.0
pressing 0.0
russia 0.0
lincoln 0.0
intelligent 6.20457586611e-05
momentum 0.0
olympic 0.0
magnificent 0.0
heritage 7.21354681831e-05
beijing 0.0
beloved 6.57425686801e-05
dummies 0.0
pursuit 0.0
carries 0.0
phelps 0.0
medals 0.0
gymnastics 0.0
summed 0.0
accuse 0.0
symbol 7.44879929772e-05
dignity 0.0
slogans 0.0
priorities 0.0
applied 0.0
progressive 0.0
activists 0.0
elected 0.0
brussels 0.0
subscribe 5.98094849272e-05
elections 0.0
unites 0.0
complacency 0.0
imperative 0.0
doorsteps 0.0
voices 0.0
blatant 8.78807388515e-05
democracy 0.0
disastrous 7.85972542218e-05
rebuild 0.0
accuses 0.0
diplomacy 0.0
hardball 0.0
attacking 0.0
subtle 0.000144270936366
barker 0.0
sticking 0.0
openly 0.0
policing 0.0
embarrassed 0.0
slightest 0.0
abbott 8.47865841124e-05
attacks 0.0
commit 0.0
argued 0.0
remarks 6.60057704557e-05
democratic 0.0
semitic 0.0
incomes 0.0
treasury 0.0
alarming 0.0
dividing 0.0
reject 0.0
affirming 0.0
quitting 0.0
extended 0.0
reducing 0.0
proudly 0.0
inclusive 0.0
oppose 0.0
distinctly 0.0
urging 0.0
strengthen 0.0
deliver 0.0
obligations 0.0
relations 0.0
repeal 7.08686342489e-05
strengths 0.0
counties 0.0
weakened 0.0
reckless 0.0
prosperous 0.0
servant 0.0
secretaries 0.0
negotiator 0.0
faults 0.0
choking 0.0
executive 5.07423685786e-05
alternative 0.000102452384591
extend 0.0
republicans 6.20457586611e-05
embodied 0.0
preparation 0.0
terrorists 0.0
confident 5.25553489248e-05
weapons 5.93813142548e-05
unifying 0.0
outrage 0.0
constitutional 0.0
rental 0.00019933732355
prevail 0.0
resilient 9.19400418019e-05
humbled 0.0
courage 0.0
commander 0.0
respecting 0.0
enormous 7.21354681831e-05
aligned 0.0
consent 0.0
refusing 0.0
resentment 0.0
substance 0.0
claiming 6.32287723397e-05
lamont 0.0
dropping 9.20211357234e-05
carried 0.00012993273225
intimidated 0.0
behalf 0.0
meaningful 0.000132542541932
amendment 0.00012092653058
accepts 0.0
legislation 0.0
fairer 0.0
commitments 0.0
handling 6.93559035075e-05
proves 0.0
rhetoric 0.0
hardest 5.61571440809e-05
peddling 0.0
divisive 0.0
strongly 0.00030121886265
vision 4.50668233091e-05
investigations 0.0
repeatedly 0.0
records 0.0
madeleine 0.0
disabled 0.0
quoting 7.27892485458e-05
assassination 0.0
beaten 0.000139903986984
deeply 0.0
grievance 0.0
contempt 0.0
standards 5.48474196418e-05
fairness 0.0
dictated 0.0
consensus 0.000208067710523
reconsider 0.0
priority 5.87501577044e-05
rogers 0.0
freedoms 0.0
notorious 0.0
invested 0.0
propaganda 7.24606008565e-05
unconstitutional 0.0
condemn 0.0
concerned 4.8880585939e-05
praising 0.0
cheered 0.0
realdonaldtrump 0.0
despicable 0.0
straightforward 0.0
bargain 8.33501145967e-05
attorney 0.0
bedrock 0.0
optimism 6.96524874715e-05
belongs 0.000400855987791
truman 0.0
whichever 0.0
inappropriate 0.0
beatings 0.0
optimistic 0.0
campaigned 0.0
allies 0.0
governor 6.37151765594e-05
attempts 0.0
extent 0.0
denial 0.0
maximum 0.0
merely 0.0
apprenticeships 0.0
agreeing 0.0
architect 0.0
responsibility 0.0
mainstream 0.0
legitimacy 0.0
injustice 0.0
dozens 0.0
donnell 0.0
scenario 0.00026297027472
crimes 0.0
thoughtful 0.0
hypocrisy 0.0
undocumented 0.0
sexually 0.0
richest 0.0
softening 0.000134709675304
implies 0.0
infrastructure 0.0
pitching 0.000163069345686
broadband 0.0
tenants 0.0
allegations 0.0
bloomberg 0.0
insulting 0.0
liberal 5.69316984693e-05
kremlin 0.0
podium 8.78807388515e-05
provoke 0.0
outrageous 0.000145578497092
campaigns 0.0
barriers 0.0
powell 0.0
technical 0.0
warnings 0.0
flagged 0.000105857991665
grassroots 0.0
extremist 0.0
businesses 0.0
welcomes 0.0
deputy 0.0
donating 0.0
continually 0.0
ourselves 0.0
fringe 0.0
politician 0.0
wiggins 0.0
welcomed 0.0
rallies 0.0
ballot 6.34710016307e-05
failing 0.0
uniting 0.0
refuses 0.0
appealing 0.0
proverb 0.0
privileges 0.0
ideals 0.0
vibrant 0.0
tarmac 0.0
residents 0.0
apprenticeship 0.0
denying 0.0
fierce 0.0
opponents 0.0
polling 0.0
apology 0.0
damning 0.0
outline 0.0
endorses 0.0
losers 0.0
insulted 0.0
equipped 0.0
battlefield 0.0
recession 0.0
endorsed 0.0
divides 0.0
describes 0.000204593048531
appointed 0.0
encourage 0.0
undermine 0.0
undermining 0.0
authority 0.0
betray 0.0
funnyordie 0.0
donated 5.48474196418e-05
jimmykimmellive 0.0
immigrant 7.11804279071e-05
criminals 0.0
automatically 0.0
schooled 0.0
elizabethforma 0.0
releasing 0.0
connects 0.0
screening 0.0
cleaner 0.0
nowthisnews 0.0
sophiabush 0.0
chelseaclinton 0.0
stunts 0.0
truths 0.0
transparency 0.0
obamacare 0.000150389985275
nickkristof 0.0
contraception 0.0
betting 0.0
conscience 8.33501145967e-05
proclaimed 0.0
dispatch 0.0
advocate 0.0
profits 0.0
toward 0.000165093311028
guiding 0.0
senators 7.08686342489e-05
barber 8.73426785188e-05
doubled 0.0
mosque 0.0
senate 0.0
louisiana 0.0
senwarren 0.0
parenthood 0.0
organizations 0.0
generations 0.0
minorities 0.0
misogyny 0.0
peacefully 0.0
decency 0.0
intend 0.0
discourse 0.0
pennsylvania 0.0
katiemcgintypa 0.0
experiencing 8.10972607614e-05
mccain 0.0
scandal 5.87501577044e-05
constitution 0.0
sensanders 0.0
intolerable 0.0
strive 0.0
forefathers 0.0
abandon 0.0
buzzfeednews 0.0
paulkrugman 0.0
mothers 0.0
compassion 0.0
deeper 6.47119745551e-05
governments 0.0
activism 0.0
jamilsmith 0.0
mike_pence 0.0
elizabethbanks 0.0
empathy 0.000164857687268
audited 0.0
checkers 0.0
warming 0.0
volunteering 0.0
charitable 0.0
qualifications 0.0
workplace 0.0
granddaughter 0.0
recycled 0.0
directing 0.0
politifact 0.0
abolish 0.0
murders 0.0
reagan 0.0
pouring 0.0
ballots 0.0
racists 0.0
empower 0.0
tolerate 0.0
chrismurphyct 0.0
igorvolsky 0.0
outraged 8.10972607614e-05
exceptional 0.0
nightmares 0.00025005034379
enforcement 0.0
weaken 0.0
medicaid 0.0
humbly 0.0
newsweek 9.25668601982e-05
conflicts 0.0
suffer 0.000127430353119
dallasnews 0.0
bridges 0.0
lesdoggg 0.0
appalling 0.0
hatred 6.47119745551e-05
superpower 0.0
goodbye 4.78449757897e-05
renewable 0.0
robdelaney 0.0
motherjones 0.0
trusted 0.0
sheriff 0.0
personalized 0.0
amnesia 0.0
malala 0.0
problema 0.0
everytown 0.0
casting 0.0
employers 0.0
rudolph 0.0
packets 0.0
organization 0.000113472403756
graceful 0.0
hardworking 0.0
cherished 0.0
aggressively 0.0
founding 0.0
sacred 0.0
horrific 0.0
earned 5.37680299763e-05
siding 0.0
minded 0.0
contribute 0.000126942003261
incites 0.0
chooses 0.0
obtained 0.0
defended 8.02408769423e-05
champion 4.84324262473e-05
magazines 0.0
waited 0.0
punished 0.0
conviction 0.0
tradition 5.54018352851e-05
giveaways 0.0
distracted 0.0
endorsing 0.0
pathetic 0.0
ladygaga 0.0
pessimistic 0.0
highlighting 0.0
transgender 0.0
womensmarch 0.0
advisors 0.0
wrecking 0.0
hillaryforva 0.0
registration 0.0
ellemagazine 0.0
acceptance 0.0
defeated 0.0
theroot 0.0
pharrell 0.0
tumblr 0.0
nevada 0.0
illinois 0.0
massachusetts 0.0
theadvocatemag 0.0
lending 0.0
rejecting 9.19400418019e-05
legalize 0.0
conned 0.0
arkansas 0.0
celebratin 0.0
rubber 7.7037957811e-05
lenadunham 0.0
hateful 0.0
wizard 0.0
unbearable 0.0
harpersbazaarus 0.0
familia 0.0
iamwill 0.0
retweets 0.0
nominating 0.0
vietnam 0.0
laurie 0.0
claimed 6.5481626175e-05
rapids 0.0
devoted 7.94079586706e-05
casino 8.38214359011e-05
astounding 0.0
summon 0.0
crushed 0.0
louder 0.0
farmers 0.0
lin_manuel 0.0
arrangement 0.0
borrowed 0.0
mariska 0.0
purposes 8.02408769423e-05
dialogue 0.0
comedian 0.0
________ 0.0
lightly 0.0
defeating 0.0
jerusalem 0.0
cynical 0.0
worrying 6.32287723397e-05
elizabeth 0.0
insults 0.0
microphone 8.8428494485e-05
sleeves 0.0
theeconomist 0.0
stakes 7.55547555956e-05
nationally 0.0
inspect 0.0
poisoning 0.0
columbus 0.0
declaring 0.0
crushing 6.39613286345e-05
chucktodd 0.0
soldier 0.0
painted 0.0
warned 6.13574360811e-05
ohiostate 0.0
unrelated 0.0
designated 9.73587194434e-05
clears 0.0
congressional 0.0
confront 0.0
usatoday 0.0
delivers 0.0
pittsburgh 0.0
entiende 0.0
soaked 0.0
bromance 0.0
lifelong 0.0
antiques 0.0
repjohnlewis 0.0
breakers 0.0
fundraising 0.0
hispanic 0.0
defrauded 0.0
fearful 0.0
nytopinion 0.0
volume 0.0
perfecting 0.0
washingtonpost 0.0
affordable 0.0
mighty 0.0
normalizing 0.0
boasting 0.0
assaulting 0.0
disqualify 0.0
monique 0.0
jcolenc 0.0
teamusa 0.0
allysonfelix 0.0
usabasketball 0.0
ibtihaj 0.0
simone 0.0
feminism 0.0
conversion 9.19400418019e-05
destiny 0.0
disrespected 0.0
serenawilliams 0.0
tantrum 0.0
heinous 0.0
unconscious 0.0
accomplishments 0.0
saddened 0.0
disgrace 7.62873118904e-05
rodriguez 0.00017685698897
arsenal 8.24288436341e-05
defender 0.000161332106632
malalafund 0.0
merchandise 0.0
laundry 0.0
lesbians 0.0
cnnpolitics 0.0
nickgass 0.0
examining 0.0
monument 0.0
appeals 0.0
gracias 0.0
madame 0.0
grande 0.0
speechless 0.0
coulter 0.0
missiles 0.0
psyched 0.0
chelsea 0.0
biases 0.000110057708792
resume 0.0
spectator 0.0
angelina 0.0
spectacle 0.0
admiration 0.0
reaches 0.0
español 0.0
dreamers 0.0
mañana 0.0
bursting 0.0
undone 0.0
beyoncé 0.0
nuestra 0.0
diwali 0.0
prestigious 0.0
cynicism 0.0
disability 0.0
registering 0.0
booker 0.000277700580595
méxico 0.0
disponible 0.0
honduras 0.0
famously 0.0
overdue 0.0
equity 0.0
opioid 0.0
millennials 0.0
recommendations 0.0
investors 0.0
betrays 0.0
patriotism 0.0
liability 0.0
iranian 0.0
delegate 0.0
struck 6.15851496192e-05
millennial 0.0
dictators 0.0
graduate 0.0
analysts 0.000309149634841
victor 0.0
shrink 0.0
dictator 0.0
poised 0.0
avoided 7.85972542218e-05
rallying 0.0
catholic 8.06660533162e-05
thriving 0.0
racially 0.0
undermines 0.0
yashar 0.0
inequality 0.0
medicare 0.0
missionaries 0.0
foremost 0.0
deplorable 0.0
demonize 0.0
wikileaks 0.0
enduring 0.0
privatized 0.0
appoint 0.0
losses 0.0
jbarro 0.0
buffett 0.0
staffers 0.0
takeaway 0.00017910906978
moscow 0.0
hampshire 0.0
pandering 0.0
voxdotcom 0.0
reckoning 0.0
moines 0.0
falter 0.000137354787681
countless 7.89999040179e-05
democrat 0.0
bostonglobe 0.0147578557491
accountable 7.74203479495e-05
dispel 0.0
despair 0.0
persisted 0.0
disclose 0.0
tedcruz 0.0
flooding 0.0
prejudice 0.0
towers 0.0
criticized 0.0
senatemajldr 0.0
outsider 0.0
declare 0.0
dismantle 0.0
thrive 0.0
threaten 0.0
outsourced 0.0
loophole 0.0
heerjeet 0.0
verbal 0.0
businessinsider 0.0
ukraine 0.0
vladimir 0.0
businessman 0.0
supremacist 0.0
etched 0.0
zekejmiller 0.0
momentarily 0.0
perpetrators 0.0
mocking 0.000177972602479
wrecked 9.8879016984e-05
identities 0.0
inhumane 0.0
disavow 0.0
hostile 0.0
muster 0.0
surrender 0.0
shatter 0.0
patriotic 0.0
rewarded 0.0
jitters 0.0
bullies 0.0
discipline 0.0
forgets 0.0
expand 0.0
apologized 0.0
tournament 0.000334046656493
grindstone 0.0
mastery 0.0
provider 0.0
steroids 0.0
jenniferjjacobs 0.0
notion 0.0
hernandez 0.000932068757361
mcuban 0.0
bullied 0.0
jebbush 0.0
discriminating 0.0
somali 0.0
hayden 0.0
limitless 0.0
implement 0.0
nydailynews 0.0
corybooker 0.0
interference 0.0
listens 8.68139762331e-05
preside 0.0
remembers 6.93559035075e-05
toughness 0.0
extensively 0.000106854789661
suffered 0.0
streep 9.59108450823e-05
billionaire 0.0
cheats 0.0
needing 0.0
percentage 0.000139304974943
insiders 0.0
binder 0.0
prescriptions 0.0
slashed 0.0
indebted 0.0
dismisses 0.0
delegates 0.0
pledged 0.0
endured 0.0
deployed 0.0
suspense 0.000100479366224
courageously 0.0
resilience 0.0
nationalists 0.0
autonomy 0.0
abandoning 0.0
canvas 9.07238950245e-05
blacks 0.0
pledging 0.0
elaine 0.0
methodist 0.0
candidacy 0.0
bonuses 0.000200958732447
resolve 7.7037957811e-05
laughable 0.0
scares 0.0
intellect 0.0
hopeless 0.0
debunked 0.0
shames 0.0
connections 0.0
tyleroakley 0.0
perplexed 0.0
ddlovato 0.0
impromptu 0.0
teenvogue 0.0
unveils 0.000163069345686
billie 0.0
prouder 0.0
sweetness 0.0
cheryl 0.0
filipino 0.0
petersburg 0.0
drastic 0.0
lifesaving 0.0
decorated 0.0
usagym 0.0
freestyle 0.0
absentee 0.0
lashes 0.0
concentration 0.0
refuge 9.13258872739e-05
renaissance 0.0
actively 0.0
monitoring 0.0
destined 0.0
willfully 0.0
detained 0.0
warmest 0.0
heroic 0.0
bragged 0.000122383692048
miners 0.0
shareholders 0.0
randall 0.0
excessive 0.0
geneva 0.0
corporations 0.0
unsolvable 0.0
grandchildren 0.0
discredit 0.0
enormously 0.0
frances 0.0
pillar 0.0
trillions 0.0
expansive 0.0
organize 0.0
capabilities 0.0
confederate 0.0
shakers 0.0
ambiguity 0.0
linking 0.0
pretends 0.0
wireless 0.0
inherit 0.0
paranoia 0.0
theatlantic 0.0
languages 0.0
disposable 0.0
reinforcing 0.0
integrated 0.0
optimist 0.0
pigeons 0.0
chadhgriffin 0.0
katieledecky 0.0
richards 0.0
demconvention 0.0
abcpolitics 0.0
chobani 0.0
dominiclowell 0.0
floridians 0.0
cecilerichards 0.0
clintonfdn 0.0
billclinton 0.0
grounded 0.0
abilities 0.0
grandfather 0.0
profoundly 0.0
fiercely 0.0
drowning 0.0
astound 0.0
alzheimer 0.0
responders 0.0
peacecorps 0.0
nygovcuomo 0.0
hurricanes 0.0
approximately 0.0
daunting 0.0
organizer 0.0
ingenuity 0.0
illnesses 0.0
intruders 0.0
invading 0.0
harmful 0.0
foundations 0.0
skateboards 0.0
housekeeping 0.0
dangerously 0.0
renters 0.0
predatory 0.0
rebuke 0.0
jengranholm 0.0
supremacy 0.0
linger 0.0
adamserwer 0.0
clevelanddotcom 0.0
repadamschiff 0.0
fahrenthold 0.000117697570702
revoke 0.0
advising 0.0
strengthening 0.0
colleges 8.43001798927e-05
deniers 0.0
aspire 0.0
exceed 0.0
lebassett 0.0
shrugged 0.0
stewardship 0.0
complains 0.0
temperament 0.0
texasinafrica 0.0
americorps 0.0
latino 0.0
payoffs 0.0
protested 0.0
honorable 0.000187721312198
fathom 0.0
inconvenience 0.0
johnkasich 0.0
latinos 0.0
votevets 0.0
unsurprising 0.0
loopholes 0.0
dismal 0.0
unqualified 0.0
rigorous 0.0
mittromney 0.0
joyannreid 0.0
theorist 0.0
evan_mcmullin 0.0
discriminate 0.0
ezraklein 0.0
obsessively 0.0
desperation 0.0
latina 0.0
tammyforil 0.0
pantsuit 0.0
superior 0.0
exonerated 0.0
johnpodesta 0.0
recites 0.0
supremacists 0.0
affront 0.0
electing 0.0
defund 0.0
demeans 0.0
govpencein 0.0
squandered 0.0
machado 0.00105927813631
pneumonia 0.0
unhinged 0.000112397294827
criticizes 0.0
derailment 0.0
iceberg 0.000102168668314
epipens 0.0
generals 0.0
timkaine 0.0
provocation 0.0
paulbegala 0.0
clintinfdn 0.0
wesleylowery 0.000137354787681
childdefender 0.0
dictatorship 0.0
ceasefire 0.0
stamped 0.0
intimidation 0.0
casinos 0.0
manifest 0.000110057708792
restrict 0.0
transformation 8.15346728429e-05
battleground 0.0
christine 0.0
touted 0.00011120500024
mcconnell 0.0
deflect 0.0
expressing 0.0
commonsense 0.0
statesman 0.0
mcbride 0.0
tumble 0.0
bigoted 0.0
belonged 0.0
praised 0.0
policeman 0.0
booing 0.0
cathedral 0.0
tomperez 0.0
keithellison 0.0
knowingly 0.0
wealthiest 0.0
backward 0.0
pretended 0.0
thedemocrats 0.0
psychologists 0.0
americ 0.0
successor 0.0
diplomats 0.0
congratulated 0.0
devotion 0.0
remembrance 0.0
eligible 7.74203479495e-05
incoherent 0.0
exhaustive 0.0
downgraded 0.0
unified 0.0
embraces 0.0
galling 0.0
senatorreid 0.0
lifetimes 0.0
demagogue 0.0
rodham 0.0
temper 0.0
longtime 0.0
vetoing 0.0
janelle 0.0
voguemagazine 0.0
dominique 0.0
surpassed 0.0
associates 0.0
demonstrating 0.0
morning_joe 0.0
bazaar 0.0
consequential 0.0
undressed 0.0
entrepreneurial 0.0
billionaires 0.0
prescription 0.0
senseless 0.0
refresher 0.0
classmates 0.0
maturity 0.000107885383786
comentarios 0.0
risked 0.0
invincible 0.0
vigilant 0.0
emissions 0.0
recommit 0.0
voiceless 0.0
natlparkservice 0.0
workplaces 0.0
mayaharris_ 0.0
dhsgov 0.0
cyberattacks 0.0
maxinewaters 0.0
jerrybrowngov 0.0
discriminates 0.0
thejusticedept 0.0
simone_biles 0.0
sotomayor 0.0
traumatic 0.0
scammed 0.0
dreamer 0.0
fulfill 0.0
latinas 0.0
discouraged 0.0
usnavy 0.0
oftentimes 0.0
reprehensible 0.0
demeaning 0.0
ratified 0.0
emilyslist 0.0
lawsuits 0.0
nonviolent 0.0
caucus 0.0
joebiden 0.0
joyful 0.0
privatize 0.0
barbaraboxer 0.0
sengillibrand 0.0
camino 0.0
familias 0.0
americaferrera 0.0
universidades 0.0
gabbygiffords 0.0
shuttlecdrkelly 0.0
fulton 0.0
shimon 0.0
hablar 0.0
fuerza 0.0
trickle 0.0
refinance 0.0
shattering 0.0
damián 0.0
gouging 0.0
moveon 0.0
simone_manuel 0.0
revdrbarber 0.0
senatorbarb 0.0
cnbcnow 0.0
stiffed 0.0
mikebloomberg 0.0
solver 0.0
thrower 0.0
granddaughters 0.0
changemaker 0.0
clairecmc 0.0
anastasiasomoza 0.0
defunding 0.0
preyed 0.0
aspirations 0.0
fannie 0.0
mubarak 0.0
buzzfeedben 0.0
probed 0.0
marines 0.0
projecting 0.0
outsourcing 0.0
developers 0.0
crimea 0.0
everyo 0.0
chaser 0.0
dubious 9.52119725751e-05
diplomatic 8.62943120372e-05
rosiegray 0.0
unpatriotic 0.0
multifaceted 0.0
myanmar 0.0
adamparkhomenko 0.0
tjmshow 0.0
tenant 0.0
perjury 0.0
contractual 0.0
surrounds 0.0
exceeded 0.0
thrives 0.0
unclerush 0.0
sailors 0.0
stereotypes 0.0
librarycongress 0.0
acknowledging 0.0
philippe 0.0
battled 0.000104892843454
postopinions 0.0
ambassadorrice 0.0
shockingly 0.000107885383786
mcfaul 0.0
presid 0.0
poisons 0.0
kenvogel 0.0
johndingell 0.0
harnessing 0.0
unwritten 0.0
bewildering 0.0
moonshot 0.0
apologizing 0.0
oligarchs 0.0
espionage 0.0
marcorubio 0.0
desecration 0.0
brianefallon 0.0
bangladesh 0.0
twittermoments 0.0
officialcbc 0.0
thefix 0.0
urgency 0.0
traceeellisross 0.0
andradaymusic 0.0
impeccably 0.0
catastrophe 0.0
tallest 0.0
anastasia 0.0
azcentral 0.0
marrying 0.0
moderates 0.0
resembles 0.0
paraphrase 0.0
applauds 0.0
heavier 0.0
virginians 0.0
railing 0.0
eloquently 0.0
denverpost 0.0
independents 0.0
americanos 0.0
hispanos 0.0
bailouts 0.0
divisiveness 0.0
jmpalmieri 0.0
hardballchris 0.0
republicano 0.0
candidato 0.0
phillyinquirer 0.0
jesserodriguez 0.0
militarytimes 0.0
sunsentinel 0.0
ryanlizza 0.0
bretbaier 0.0
thelastword 0.0
hillaryclinto 0.0
maddowblog 0.0
boundless 0.0
enacting 0.0
gettysburg 0.0
groping 0.0
govchristie 0.0
justices 0.0
watchdogs 0.0
cavalier 0.0
succeeds 0.0
retirees 0.0
pocketed 0.0
multimillionaire 0.0
redcross 0.0
evalongoria 0.0
highways 0.0
marlee 0.0
primero 0.0
pianos 0.0
bribed 0.0
scranton 0.0
wellesley 0.0
perkins 0.000104892843454
onward 0.0
algore 0.0
candidly 0.0
trajectory 0.0
quitter 0.0
objectifying 0.0
ignoramus 0.0
disillusioned 0.0
asinine 0.0
vibrancy 0.0
arpaio 0.0
testifying 0.0
chairmen 0.0
luchar 0.0
disrupted 0.0
podemos 0.0
settlements 0.0
massacres 0.0
millones 0.0
eagerly 0.0
grandmas 0.0
dedicado 0.0
seeming 0.0
pragmatic 0.0
hashanah 0.0
porque 0.0
unidos 0.0
nuestras 0.0
primera 0.0
debemos 0.0
muchos 0.0
cuando 0.0
nuestro 0.0
inteligente 0.0
rapists 0.0
agosto 0.0
presidente 0.0
puedes 0.0
mujeres 0.0
safeguarding 0.0
indecent 0.0
motions 0.0
strengthened 0.0
eminently 0.0
innuendo 0.0
memorandum 0.0
reuterspolitics 0.0
educates 0.0
mexicana 0.0
disparage 0.0
absurdity 0.0
backdoor 0.0
affording 0.0
hardline 0.0
steelworkers 0.0
demean 0.0
immigrate 0.0
thuggish 0.0
astrid 0.0
jesuit 0.0
governorship 0.0
waterboarding 0.0
personas 0.0
stephenson 0.0
huracán 0.0
firefighter 0.0
ravages 0.0
marleematlin 0.0
scrolling 0.0
tarnish 0.0
ajentleson 0.0
roanoke 0.0
heaping 0.0
carpentry 0.0
forcefully 0.0
frankiejgrande 0.0
aprildryan 0.0
unjustified 0.0
yamiche 0.0
evacuate 0.0
disrespects 0.0
incomprehensible 0.0
jogger 0.0
vindicated 0.0
blazed 0.0
cambodia 0.0
revolutionize 0.0
welding 0.0
unbeatable 0.0
polished 0.000114932063652
saddled 0.0
interdependence 0.0
alleys 0.0
civility 0.0
vilified 0.0
disagreeable 0.0
terence 0.0
bluster 0.0
incredib 0.0
holton 0.0
hillaryforpa 0.0
hillaryforco 0.0
jes_chastain 0.0
vitalvoices 0.0
indictments 0.0
evokes 0.0
reaffirming 0.0
rebukes 0.0
minerva 0.0
peddle 0.0
starker 0.0
cascading 0.0
carolinians 0.0
señora 0.0
honrado 0.0
missionary 0.0
ranchers 0.0
denveropinion 0.0
practicality 0.0
thoughtfulness 0.0
scripture 0.0
pueblo 0.0
morningmoneyben 0.0
smalls 0.0
exemplify 0.0
eviscerated 0.0
jeffflake 0.0
helpless 0.0
sarahemcbride 0.0
indivisible 0.0
colinjones 0.0
mrjoshcharles 0.0
houstonchron 0.0
thoroughness 0.0
isolde 0.0
wonkiest 0.0
equate 0.0
dustbin 0.0
estados 0.0
newrepublic 0.0
expresses 0.0
demonizing 0.0
jeffbezos 0.0
discard 0.0
befriending 0.0
slovenia 0.0
unrelenting 0.0
salmahayek 0.0
revolves 0.0
anselm 0.0
dwells 0.0
usairforce 0.0
deride 0.0
repackaging 0.0
earmarked 0.0
evader 0.0
passpor 0.0
awaited 0.000106854789661
guterres 0.0
precinct 0.0
presidencia 0.0
unshakable 0.0
marshablackburn 0.0
comunidad 0.0
merecen 0.0
juntos 0.0
infomercial 0.0
johnstown 0.0
statewide 0.0
skyscrapers 0.0
phillydotcom 0.0
deducted 0.0
laguardiacc 0.0
annieslisttx 0.0
nickmerrill 0.0
leaninorg 0.0
missbeae 0.0
minassianmedia 0.0
natarsha 0.0
foments 0.0
ruline 0.0
steininger 0.0
michaelnutter 0.0
harren 0.0
louisa 0.0
cannell 0.0
robbymook 0.0
broward 0.0
hillaryforfl 0.0
jeanneshaheen 0.0
ericasmegs 0.0
jeremyshorr 0.0
turpin 0.0
rubycramer 0.0
singularly 0.0
joshschwerin 0.0
clionamccarney 0.0
xochitlhinojosa 0.0
adamsmith_usa 0.0
humayun 0.0
jamestaylor_com 0.0
hillaryformn 0.0
ericwms 0.0
dougmillsnyt 0.0
jencarlosmusic 0.0
hannahbfine 0.0
creynoldsnc 0.0
lefsadventures 0.0
pembroke 0.0
perceptiveness 0.0
hillaryforaz 0.0
fayetteville 0.0
entrust 0.0
daveeddiggs 0.0
petewilliamsnbc 0.0
hillary_esp 0.0
ustedes 0.0
nación 0.0
creativa 0.0
bilingües 0.0
multilingües 0.0
contribuyen 0.0
diversidad 0.0
economía 0.0
hillaryforia 0.0
estaré 0.0
discurso 0.0
síganme 0.0
detall 0.0
hopewell 0.0
temperamentally 0.0
redone 0.0
barging 0.0
machadooficial 0.0
mikereedschmidt 0.0
franklinfoer 0.0
eamonjavers 0.0
hillaryforoh 0.0
hustling 0.0
relishes 0.0
markkirk 0.0
asmamk 0.0
just_jenna 0.0
discrimina 0.0
samifayebaker 0.0
padded 0.0
wigazette 0.0
phillytrib 0.0
trivializes 0.0
condones 0.0
ellisoncampaign 0.0
barb_kinney 0.0
theriveterspod 0.0
humiliates 0.0
nickmarroletti 0.0
alli_wilber 0.0
brespolitico 0.0
jasoncherkis 0.0
sean_p_thomas 0.0
outclassed 0.0
outmaneuvered 0.0
belittling 0.0
familie 0.0
yuuuuuuge 0.0
disqualifying 0.0
brynnecraig 0.0
buffywicks 0.0
lasvegassun 0.0
cmichaelhuntley 0.0
civically 0.0
raquelwillis_ 0.0
celebramos 0.0
trayectoria 0.0
pionera 0.0
breakups 0.0
rosenbergerlm 0.0
heraldleader 0.0
jaylon 0.0
decisi 0.0
antónio 0.0
squander 0.0
presidenta 0.0
protegerá 0.0
astrid_nv 0.0
sltrib 0.0
peter_j_k 0.0
brosandprose 0.0
nicholaskitchel 0.0
mahoning 0.0
omerizer 0.0
kendallybrown 0.0
davidnakamura 0.0
chatima 0.0
tammybaldwin 0.0
mpshapiro 0.0
responsibilit 0.0
overgrown 0.0
literally_trump 0.0
imploded 0.0
rnicholasburns 0.0
disastrously 0.0
stiffing 0.0
globeopinion 0.0
degradi 0.0
languishing 0.0
demostrar 0.0
poderosa 0.0
iammarleydias 0.0
tbtimes_opinion 0.0
disloyalty 0.0
defende 0.0
vegalteno 0.0
moodysinvsvc 0.0
decisiveness 0.0
whethe 0.0
preocupada 0.0
trayecto 0.0
afectados 0.0
ayotte 0.0
empathize 0.0
lifelo 0.0
lorellapraeli 0.0
ironworking 0.0
ebeling 0.0
contribuido 0.0
ejército 0.0
inmigrantes 0.0
indocumentados 0.0
enquirer 0.0
delega 0.0
roadshow 0.0
sunsentinelopinion 0.0
resulta 0.0
insultar 0.0
construir 0.0
muralla 0.0
provoked 0.0
discretion 0.0
sdutideas 0.0
merece 0.0
respeto 0.0
enfrentar 0.0
valentía 0.0
ataques 0.0
descaro 0.0
culparla 0.0
petulance 0.0
ninhaitseng 0.0
flippantly 0.0
posteverything 0.0
_vicentefdez 0.0
azcopinions 0.0
aumentó 0.0
andrewjenks 0.0
imwithher 0.0
diferencias 0.0
onevoxdotcom 0.0
ignite_national 0.0
endorsin 0.0
mercersdairy 0.0
everyvoice 0.0
rachaelgass 0.0
galifianakis 0.0
crutcher 0.0
nyledimarco 0.0
mistreat 0.0
wellsfargo 0.0
templeuniv 0.0
sollender 0.0
honremos 0.0
tantas 0.0
contribuciones 0.0
aleatha 0.0
endeavored 0.0
legitimize 0.0
además 0.0
whistles 0.000125964251007
ugliness 0.0
jorge_silva 0.0
dnclatinos 0.0
libnofcongress 0.0
unscrupulously 0.0
contractually 0.0
impulsively 0.0
qaddafi 0.0
cancelable 0.0
cnbcopinion 0.0
jbrotherston 0.0
_bxddxss 0.0
sspiderboy 0.0
collegedems 0.0
veered 0.0
charitynav 0.0
usnewsopinion 0.0
humansofny 0.0
unfitness 0.0
steadiness 0.0
nbcusa_inc 0.0
verdadera 0.0
encuentra 0.0
hacemos 0.0
anuncio 0.0
unpresidential 0.0
unfavorably 0.0
heridas 0.0
visibles 0.0
veteranos 0.0
cuidado 0.0
panetta 0.0
experiencia 0.0
confío 0.0
exsecretario 0.0
comercio 0.0
lizromanoff 0.0
americasvoice 0.0
davidleopold 0.0
rebuked 0.0
criminalize 0.0
mentiré 0.0
inmigración 0.0
demonizar 0.0
americanlegion 0.0
sarasolow 0.0
qumber 0.0
zerlinamaxwell 0.0
hillaryforut 0.0
hillaryforga 0.0
grandtetonnps 0.0
marlondmarshall 0.0
mariatcardona 0.0
escuchamos 0.0
claramente 0.0
demonizando 0.0
segunda 0.0
tercera 0.0
rhettbuttle 0.0
hillaryformi 0.0
futuramics 0.0
louisianans 0.0
claressashields 0.0
helen_maroulis 0.0
bri_rollin 0.0
itspooda 0.0
kristihollywood 0.0
meredeetch 0.0
kersee 0.0
rodhams 0.0
bidens 0.0
possibilitie 0.0
maulama 0.0
akonjee 0.0
shotdiva 0.0
auriemma 0.0
maxlinsky 0.0
cowering 0.0
moratory 0.0
hillarycl 0.0
repudiate 0.0
fencer 0.0
bankruptcies 0.0
warrenbuffett 0.0
bishopgarrison 0.0
ajazzyworld 0.0
morell 0.0
starkest 0.0
braille 0.0
frankmugisha 0.0
confiar 0.0
distinguido 0.0
herencia 0.0
harkening 0.0
impulses 0.0
dakota_meyer 0.0
kauveri 0.0
iafftreg 0.0
laurawalkerkc 0.0
jakesherman 0.0
benediction 0.0
denigrates 0.0
ann_oleary 0.0
liberates 0.0
bombast 0.0
repcleaver 0.0
throwed 0.0
luchado 0.0
derechos 0.0
humanos 0.0
trabajadores 0.0
relent 0.0
aprendí 0.0
valores 0.0
trabajo 0.0
mismos 0.0
annella 0.0
drbiden 0.0
expedient 0.0
imangelabassett 0.0
smegielski 0.0
leinonen 0.0
driffin 0.0
buckles 0.0
insatiably 0.0
sybrina 0.0
mcbath 0.0
dontre 0.0
randibrazeau 0.0
sjbxtr 0.0
malcolmkenyatta 0.0
lankford 0.0
countrymen 0.0
countrywomen 0.0
refiere 0.0
separar 0.0
valiente 0.0
strongmen 0.0
seremos 0.0
compañeros 0.0
bienvenidos 0.0
dauntless 0.0
governorva 0.0
sherrodbrown 0.0
vicepresidencia 0.0
ilyseh 0.0
gunsense 0.0
encantada 0.0
anunciar 0.0
splintering 0.0
albamonica 0.0
criminologist 0.0
construiremos 0.0
discriminatio 0.0
endorser 0.0
sniveling 0.0
ryanegraney 0.0
baptize 0.0
convención 0.0
republicana 0.0
