chatting 0.0
trying 0.000365443236451
launch 0.0
moment 0.000288686187147
wonderful 8.79633822503e-05
seeing 0.00021453184512
recommend 3.88523901825e-05
anybody 4.00317348384e-05
podcast 0.000308070718025
challenges 0.0
worked 8.46862389277e-05
direct 0.0
others 8.42291905272e-05
currently 3.10515556918e-05
better 0.00173015170165
please 0.000130867735938
travels 0.0
social 0.000146207745248
around 0.000284054756987
people 0.00371853500056
leaving 0.000266052101295
morning 0.00106447253324
general 0.000836542032014
overall 0.000226875407666
damage 0.0
affect 0.0
everything 0.000337515681271
twitter 0.000624787708159
present 0.000147806722942
though 0.00159502953468
friend 5.22061766359e-05
watched 2.93211274168e-05
beautiful 2.67442479783e-05
anything 0.000448563439585
practice 0.000140812912987
helped 0.000113835876676
helpful 8.89992726988e-05
revive 0.0
updated 0.0
thinking 0.000238758789916
finally 0.0
caught 0.0
believe 0.000233035721148
already 0.000258928579053
orlando 0.0
depends 0.00031081912146
chance 0.000207701957705
meaning 3.8395331176e-05
annual 0.0
renewed 0.0
growing 6.22738431736e-05
probably 0.000281524592235
should 0.000137271104102
changed 0.000166646208837
history 0.000187209735848
center 3.40292460994e-05
museum 0.0
behind 0.000232408437535
pretty 0.000238758789916
really 0.00225875879004
expensive 4.46434983356e-05
little 0.00038839286858
earlier 0.000212650209763
forget 0.000105260177229
paperwork 0.0
someone 0.000575818038129
mostly 0.000473223966075
worker 0.0
safety 0.0
program 0.0
things 0.00123951166685
electrical 0.0
visiting 7.16217200795e-05
available 0.00010784621981
perfect 2.70343988929e-05
different 0.000686038201719
search 6.94151339387e-05
connect 0.0
numbers 0.000519239637378
person 0.000182229748213
watching 5.22061766359e-05
passed 9.49653884183e-05
minutes 8.04494419199e-05
daughter 3.13947256554e-05
average 0.000111535792575
positive 3.0797138267e-05
outside 0.000164854987056
metric 0.0
looking 0.00044017858439
forward 0.000240049951224
raising 0.0
afraid 0.000100666240082
impression 0.000286218406263
profile 3.55052569496e-05
drawing 0.0
favorite 0.0
picture 0.000138123341218
historic 0.0
instead 0.000116966196198
appreciate 3.05452030031e-05
husband 0.0
international 6.41901153094e-05
toddler 0.0
couldn 0.000297378387822
remember 0.000233664702418
holidays 0.000148283104969
friends 0.00026103088318
despite 7.37129498631e-05
understood 4.955437983e-05
impossible 0.000105910537464
everyone 0.000337515681271
florida 0.0
always 0.000438993715344
months 0.000162644693391
moving 0.000111699763704
meeting 0.000133001929961
google 6.52661192171e-05
answer 0.000186202701945
together 5.20656423466e-05
included 0.0
inside 0.000135171994465
section 3.99113469293e-05
missed 0.000263150443073
button 4.31034498586e-05
active 8.35577898495e-05
longer 0.000179800440222
enough 0.000577372374294
projects 0.0
driving 0.0
building 2.91622151631e-05
enjoying 6.34850351511e-05
kennedy 5.27051913874e-05
tantrums 0.0
apparently 0.000167308406403
recent 0.000102953328076
gotten 4.33767133581e-05
amazing 0.000207142863243
determined 0.0
attention 0.000117603807105
progress 0.0
tomorrow 0.000207701957705
whenever 0.000170795604894
curious 8.25350570342e-05
george 0.000129092596469
feeling 0.000190264942968
excited 2.71074488984e-05
campaigning 0.000116346915921
understand 0.000367968372604
learning 3.21839498586e-05
special 2.61735471877e-05
secret 0.0
across 0.000116017099424
comparison 9.70563179515e-05
surprised 0.00024773176855
anymore 9.92703558452e-05
spirited 0.0
precious 0.0
rejoice 0.0
rather 0.000291622151631
showing 2.76994097131e-05
saying 0.00143669479162
tweeted 0.000102953328076
updates 0.0
thoughts 0.000330601709739
exactly 0.00011230558737
except 6.61802372302e-05
getting 0.000519254894263
nothing 0.000233664702418
tweets 0.00025752239397
course 0.00016089888384
photos 6.27894513108e-05
looked 0.000235848189228
difficult 0.000205327444418
office 0.000252687571582
decisions 7.84011457838e-05
brought 2.87691610036e-05
biggest 0.00016046548787
thrilled 0.0
entire 0.0
something 0.000649068617828
closing 7.72456989471e-05
anyone 0.000209388377501
taking 0.000337515681271
reprint 0.0
flying 3.26330596086e-05
happening 0.000141526297155
sometimes 2.861359933e-05
lessons 0.0
village 0.0
stopped 6.09235356851e-05
yesterday 0.000130867735938
service 0.000199753179557
serious 8.33231044183e-05
emails 0.000134800947751
wearing 0.0
afford 0.0
either 0.000367968372604
second 0.000366429660627
checking 0.0
volunteers 5.43323853205e-05
indeed 0.00187642194822
hearing 0.000116017099424
choose 3.05452030031e-05
another 0.00044017858439
address 3.5003820617e-05
display 4.64354188655e-05
compare 0.000189521096043
weekend 7.8945132922e-05
suggested 0.000101611146931
appear 0.0
anyway 0.000201332480164
theory 0.000297958135333
buildings 0.0
working 0.000233664702418
bigger 0.00024369414274
treated 0.0
admired 0.0
retirement 4.955437983e-05
laughing 9.23914148011e-05
wanted 0.000262441988315
current 0.000122515634474
grateful 0.0
friendship 0.0
family 0.000129813723566
listening 8.53769075069e-05
stream 0.0
sharing 3.05452030031e-05
double 5.88019035525e-05
especially 0.0
middle 0.000178822904119
waiting 0.000106401543968
definitely 0.000283819999325
walking 0.0
account 0.00024369414274
completely 0.000153985691335
thought 0.00107311543469
accept 0.000365007601939
possible 0.000357185805288
simple 3.02130677527e-05
manufacturing 0.0
destroyed 4.99057207563e-05
members 0.00042540974476
supposed 3.45119360358e-05
manufacturers 0.0
business 0.0
absolutely 0.000111097472558
anywhere 0.0
sending 0.000150653485787
introducing 4.16501008437e-05
congrats 2.72541717916e-05
beauty 7.435719505e-05
community 0.000192038822394
greatest 2.83819999325e-05
posted 0.0
wednesday 0.0
explain 0.000363548423213
broken 9.65518495758e-05
fairly 0.000703602766975
closest 9.91087596601e-05
hoping 0.000218557994337
relationship 0.00010471407385
actually 0.00138322007159
pockets 0.0
wallet 0.0
pocket 0.0
argument 0.000560444287737
decent 0.000322895976666
school 0.000263860846815
throwback 0.0
thursday 8.33231044183e-05
talented 0.0
discuss 3.34616812806e-05
celebrate 0.0
celebrating 0.0
anniversary 0.0
students 6.88293470979e-05
corners 0.0
internet 9.6819447352e-05
figure 0.000155257778459
opened 0.0
inspired 6.27894513108e-05
latter 0.000234661370167
sitting 2.93211274168e-05
playing 0.000131930423407
street 0.000316460771039
points 0.000465853243294
advice 0.0
memory 0.000107740610263
forever 8.79633822503e-05
congress 4.50799564956e-05
imagine 0.000202479658367
problem 0.000863335888354
pulling 0.0
furniture 0.0
keeping 0.0
dressed 0.0
chinese 0.0
unlike 9.60598950295e-05
allowed 3.41250649838e-05
otherwise 3.68564749315e-05
afternoon 0.0
planned 0.00011186061267
images 0.0
noticed 0.0
expense 0.000188062249898
differences 4.99057207563e-05
difference 0.000368965999122
editor 8.53978024472e-05
intent 0.0
suppose 4.99057207563e-05
inspiration 3.56067233267e-05
letting 0.0
system 0.000356977250697
almost 0.000233664702418
details 2.83819999325e-05
experience 0.000162644693391
living 0.000108429795594
worries 0.000730777895947
weather 0.0
bright 7.30766421905e-05
understands 0.0
normal 3.48059410301e-05
launching 0.0
backyard 0.0
pointed 0.000161130331191
before 0.000225219673788
monday 0.0
example 0.000205906656152
science 0.0
tweeting 0.000563196406563
forgot 0.0
disaster 0.000119374553
happens 0.000215111327345
silence 4.08905413878e-05
learned 0.0
congratulations 5.722719866e-05
natural 3.68564749315e-05
babies 0.0
mission 0.0
surprising 0.000125725003779
reference 0.000131796214592
forgotten 7.72456989471e-05
setting 0.000110569424795
appeared 0.0
reminds 3.6749987524e-05
fantastic 9.18867258554e-05
loving 0.0
complete 2.98038173532e-05
daniel 0.0
rewarding 0.0
nearly 0.0
spirit 0.0
launched 0.0
finding 9.52275527266e-05
stories 5.61527936848e-05
including 0.000201931062747
wouldn 0.000504010041227
choice 0.000221595277705
offended 0.0
conversation 9.47041083083e-05
disrespectful 0.0
making 0.000284821436959
expect 0.000716149196496
traits 0.0
discussion 3.78351539011e-05
believes 0.000182095674403
response 0.000366542436037
brings 3.13085046747e-05
seasons 0.0
anytime 0.0
protected 0.0
location 8.15321843688e-05
needed 2.76994097131e-05
seriously 0.000286912630268
emergency 0.0
justify 5.94211962991e-05
spending 0.000129092596469
groups 0.000125725003779
condition 9.50823329844e-05
childhood 0.0
modern 3.73956001442e-05
welcome 7.87325964946e-05
moments 0.0
totally 0.0
running 0.000245287546124
strong 0.000481396463609
respond 0.0
message 0.000385701994696
coming 0.000181250005337
thankful 0.0
issues 0.000154832355344
challenge 2.8458969169e-05
intolerance 0.0
happen 0.000132286605147
giving 7.87325964946e-05
turkey 0.0
excellent 0.000676773368196
limits 4.81949522917e-05
contractors 8.83073173174e-05
common 6.41901153094e-05
pressed 0.0
healthcare 0.000252209304888
benefits 4.07660921844e-05
situation 6.7867562889e-05
workers 4.3239720147e-05
company 0.000117603807105
savings 0.0
health 3.06289086185e-05
insurance 0.0
change 0.000700994107255
silver 0.0
august 0.0
crying 0.0
mental 3.86228494736e-05
carrier 0.0
decide 9.65518495758e-05
happened 0.000355262011619
parking 5.09893689724e-05
demand 6.84424814728e-05
sacrifice 5.4543187795e-05
personal 0.000197601224165
rewards 0.0
beyond 0.000174025649135
contributing 0.0
passion 0.0
question 0.000557103843138
doctor 0.000119374553
sacrifices 0.0
respected 0.0
losing 0.00032006470399
strain 0.0
respect 5.6763999865e-05
shouldn 0.000341567112609
career 3.01306971575e-05
visited 0.0
reason 0.000437245552762
simply 6.49049546722e-05
audience 0.0
sacrificed 0.0
employees 0.0
accounts 4.33767133581e-05
attacked 0.000101611146931
involved 0.0
extreme 0.0
valuable 0.0
knocked 5.62945815333e-05
reality 3.08816658703e-05
mention 6.40129407979e-05
without 0.000314082566252
problems 0.000352071174389
timing 0.0
described 0.000149717162269
pattern 0.000297105981495
online 5.58498818519e-05
background 0.0
buying 0.0
called 0.00013051544159
scientists 0.0
checked 0.0
heading 3.08816658703e-05
paying 0.000101231713244
planning 3.37439044146e-05
opposite 8.51308958095e-05
through 7.28662699263e-05
reached 3.85088397532e-05
changing 9.5490607238e-05
explains 6.98093825665e-05
harder 0.000144480492536
demands 0.0
silent 0.0
speaking 8.9168219586e-05
november 0.0
ordinary 0.000205443726551
number 0.000425606175874
stunning 0.0
atlantic 0.0
stupid 3.6120123134e-05
personality 0.0
grandparents 0.0
unless 9.60194111969e-05
calling 0.000109016687166
painting 0.0
focused 0.0
ridiculous 0.000214865160238
package 0.0
rooted 0.0
option 7.52288835813e-05
knowing 0.0
former 0.000358963655694
actual 0.000517679040536
tracked 0.000150232371285
suffers 0.0
schedule 0.0
friday 0.0
failure 0.000376010054323
achieve 0.0
winner 5.76945893562e-05
doctors 0.0
becomes 0.000110249962572
directly 0.0
quality 6.71108267214e-05
tearing 0.0
father 2.95613445883e-05
wishes 0.0
collar 0.0
caring 0.0
ground 6.72989738127e-05
matter 0.000334194537427
strategy 0.000215517249293
themselves 4.53750815333e-05
asking 5.4951662352e-05
usually 0.000138438264982
thankfully 5.86653425417e-05
reacts 0.0
period 0.000271161553474
parents 9.34107647603e-05
balance 0.0
resist 0.0
mobile 0.0
computer 0.0
reminded 4.50799564956e-05
impressed 0.0
dinner 8.60737890804e-05
suffering 0.0
single 0.000267442479783
parent 4.75411664922e-05
approved 0.0
energy 6.17633317405e-05
preview 0.0
meltdown 0.0
remind 0.0
emotional 0.0
sounded 5.41232897673e-05
status 0.00015633595832
update 6.05914038688e-05
outage 0.0
customers 0.0
holding 3.07128864477e-05
causes 4.61279966665e-05
eating 0.0
picked 0.000161813287798
missing 0.000221595277705
surprise 0.000138871840697
officially 0.0
global 0.0
follow 0.000182721618226
opinion 0.000304548015688
faster 0.0
backwards 0.000111690943567
design 0.0
website 0.000158275647364
widely 0.000123104299749
origin 0.0
breaks 3.42212407364e-05
allows 0.0
promoting 4.46434983356e-05
volunteer 0.0
convince 4.90361719441e-05
negative 3.78351539011e-05
official 5.363296128e-05
jersey 0.0
mistake 7.18270735089e-05
fixing 5.17379187671e-05
translated 0.0
ginger 0.0
peaceful 0.0
thinks 0.000363548423213
hospital 0.0
lauren 0.0
easier 3.52032282467e-05
excluded 0.0
successful 0.000177526284748
leadership 0.00040642239862
agrees 0.000101978737945
decline 0.000340509843239
turnout 0.000395654698816
showed 0.000163165298043
trumps 0.0
circle 0.000137926941599
engage 0.000103475837534
suited 0.0
experienced 0.0
interested 6.67365763921e-05
effect 0.000444876129573
success 0.000263890146751
ladies 0.0
dreams 0.0
protect 0.0
explanation 0.0
occasion 5.94211962991e-05
medication 0.0
planet 0.000182165674816
detached 0.0
essence 0.0
control 0.000493072672551
happier 0.0
likely 0.000485905937571
coincidence 0.0
cancel 0.0
project 5.86422548335e-05
laying 0.0
lesson 0.0
requires 5.02619079168e-05
healthy 3.52032282467e-05
treating 4.93804858414e-05
opening 5.64574926184e-05
statement 0.000336494869064
enjoyed 0.000246377106136
animal 0.0
nervous 0.0
pounds 5.58454717833e-05
wonder 2.81524592235e-05
matters 0.000238875454887
shared 3.56067233267e-05
somehow 0.000209541672964
benefit 9.76278318611e-05
terrible 0.000330901186151
continues 6.33102589455e-05
improve 3.96722418902e-05
equally 0.000588434063329
appointment 0.0
session 0.0
routine 0.000105410382775
exciting 3.11369215868e-05
corner 0.0
imagination 0.0
decides 5.84182290796e-05
cheering 0.000102721863276
spring 0.000165912546336
fallen 0.0
frequently 7.0019741451e-05
places 0.000185798826412
thousands 0.0
informed 4.56736184967e-05
typical 9.67220363997e-05
continue 2.9966740037e-05
attend 0.0
excuse 7.52288835813e-05
settle 4.83610181999e-05
female 3.46095662455e-05
recovery 8.59357898062e-05
treasured 0.0
grandma 0.0
closer 9.76278318611e-05
beginning 9.78991788257e-05
everywhere 6.19329421375e-05
scenes 3.30901186151e-05
bought 0.000126970070302
multiple 3.93176849281e-05
slogan 0.0
wishing 3.76144417906e-05
covered 6.72989738127e-05
remove 4.47881662754e-05
choices 4.20384263528e-05
dealing 0.0
teacher 0.0
training 3.36494869064e-05
passing 3.51033319529e-05
stopping 0.0
become 5.42148977969e-05
spread 2.96419161349e-05
season 8.58407979899e-05
putting 0.000245287546124
weight 0.0
quietly 5.56238123989e-05
necessity 0.0
knocks 7.33032898575e-05
effects 0.0
returns 3.48059410301e-05
expected 0.000260250182675
resources 0.000101978737945
bucket 0.0
struggling 8.98672985004e-05
register 0.0
promotion 0.0
solution 4.31034498586e-05
manage 4.73802740108e-05
transition 0.0
gained 0.000412403905273
define 0.0
somebody 0.0
contract 4.49336492502e-05
ignorant 0.000111690943567
managers 0.000580407873672
credit 3.2006470399e-05
brothers 0.0
grandkids 9.0768527314e-05
computers 0.0
physical 0.0
series 0.000112914985237
offensive 0.0
fighting 5.91226891766e-05
donald 0.00011186061267
mexico 0.0
sandra 0.0
police 0.000100385043842
represent 0.0
president 2.88472946781e-05
talking 0.000520656423466
america 0.0
michigan 0.0
everybody 6.40129407979e-05
judgment 0.0
carolina 0.0
amount 3.64331349632e-05
houston 0.0
everyday 3.68564749315e-05
michael 0.000234569019334
protecting 0.0
providing 0.0
attitude 0.0
million 0.000109016687166
election 0.00329459912366
honesty 0.0
targeting 0.0
telling 8.84430709605e-05
correct 0.000100385043842
attack 0.000100385043842
elementary 0.0
americans 0.0
killed 0.000231405323848
horrible 4.42142946646e-05
salute 0.0
coverage 0.00010560968474
united 0.000168247434532
college 6.49049546722e-05
refuse 0.0
preach 0.0
hillary 0.0
clinton 0.000169730722897
presidency 0.000168207150961
throws 0.0
manning 0.0
american 2.75501424783e-05
deserved 0.0
humble 0.0
remain 0.000328844889857
founder 0.0
illegal 0.0
arizona 0.0
opinions 0.000133498909048
speeches 5.56238123989e-05
scared 0.0
salary 5.99376767101e-05
pieces 0.000268767318232
taught 3.82823193557e-05
thompson 0.0
straight 0.0
blocking 4.8865721426e-05
answers 6.69233625611e-05
created 0.0
record 0.000108429795594
stamina 0.0
weapon 0.0
bottom 0.0
athletes 0.0
registered 0.0
minnesota 0.0
committed 0.0
journey 0.000134975617658
snapchat 0.0
peoples 0.0
disrespect 0.0
brother 3.16551294728e-05
prayers 4.0642239862e-05
boston 0.0
korean 5.94211962991e-05
church 0.0
advantage 8.87131427733e-05
motivation 5.67516405398e-05
honestly 0.000148283104969
defeat 0.000279543080304
lifetime 3.92005728919e-05
captain 0.0
retired 0.0
country 0.00032179776768
ending 0.000174523456416
dressing 0.0
finish 3.19181860062e-05
ranked 5.76907680241e-05
employee 0.0
university 7.435719505e-05
dreamed 7.04080669601e-05
prayer 0.0
nominated 7.79358604796e-05
responds 0.0
national 0.000561527936848
reform 0.000205443726551
shooting 0.0
cancer 0.0
deserve 3.18302024127e-05
mother 5.78513309619e-05
creating 7.14171799331e-05
powerful 6.33102589455e-05
wisdom 0.0
breaking 2.7924940926e-05
dollars 0.0
questions 0.000106401543968
racist 4.67465450354e-05
charged 0.0
soldiers 0.0
performance 0.000450728827085
reading 0.000247951282305
denver 0.0
graphic 5.21204910937e-05
garner 0.0
create 0.0
jordan 0.0
admire 0.000144089842544
nobody 6.36604048253e-05
government 0.000738195413468
politics 0.00110249962572
blessing 0.0
wrestling 0.0
charities 0.0
donate 3.5003820617e-05
sample 0.000110808079001
bringing 2.91622151631e-05
deserves 0.000103535808107
regret 4.56736184967e-05
victim 0.0
according 0.000103244020647
threat 0.000115868548421
heaven 0.0
heroin 0.0
honest 0.000290458342056
became 6.49049546722e-05
decision 0.000291263918036
counting 3.68564749315e-05
signing 0.0
embrace 0.0
pressure 7.06070249763e-05
celebrities 0.0
facebook 8.33231044183e-05
kardashian 0.0
divided 0.00011350328108
lawyer 0.000197521943366
lebron 0.0
campaign 0.000451960457362
determine 0.0
whether 0.000229704395183
praise 0.0
defined 0.0
proposes 0.0
discover 4.42142946646e-05
factory 0.0
arrested 0.0
estate 0.000165558363742
proposed 4.90361719441e-05
comments 0.0
teenage 5.69832399373e-05
wounded 0.0
endorsement 0.000115861970391
williams 8.27888478124e-05
custom 0.0
troops 0.0
singer 0.0
future 0.000187209735848
struggled 0.0
sister 0.0
sabotage 0.0
athlete 0.0
warrior 0.0
cheating 0.0
voting 0.000576116467181
succeed 4.86963886243e-05
religion 0.0
century 4.25654479048e-05
serving 4.46434983356e-05
because 3.73956001442e-05
cleveland 0.0
hiding 0.0
breath 0.0
choosing 0.0
lawrence 0.0
instagram 0.0
opponent 0.000112138100641
detroit 0.0
honored 0.0
nonsense 0.00033969711283
lifting 0.0
proven 5.58454717833e-05
talent 3.46095662455e-05
knocking 0.0
russian 0.0
brains 0.0
oakland 0.0
regardless 0.000183296765133
skills 3.60166233573e-05
citizens 0.0
california 0.0
commitment 0.000128903684709
seconds 0.0
seeking 0.0
threatening 5.49700265994e-05
listen 0.00010726592256
whatever 0.000149019086766
mexicans 0.0
satisfied 7.04080669601e-05
fought 0.000126115279058
compete 0.0
injured 9.19512943994e-05
billion 3.7178597525e-05
ceiling 0.0
absolute 3.80577687257e-05
appearance 7.98226938586e-05
bigsean 0.0
handle 0.0
promise 9.23914148011e-05
nightclub 0.0
hosting 3.40292460994e-05
actors 0.0
generation 3.56067233267e-05
criminal 0.0
tuesday 0.0
ronald 0.0
locker 0.0
struggle 0.000201371038016
degree 0.0
entering 0.0
leader 0.000541418694557
pageant 0.0
toughest 0.0
character 0.000104122700908
mirror 0.0
interview 0.000369405185541
whistle 0.0
obviously 0.00010929940489
battle 9.03920914724e-05
motivate 0.0
destroy 9.01599129911e-05
relentless 0.0
winning 0.000276994097131
charlotte 0.0
accomplished 0.0
stepped 0.0
defense 0.0
appeal 4.64354188655e-05
causing 0.0
arabia 0.0
shipped 0.0
society 7.16217200795e-05
officers 0.000109940053199
brooklyn 0.0
marked 6.6094202649e-05
incredible 2.8000557846e-05
poster 4.11412536458e-05
wealthy 0.00012039968604
memorable 0.0
officer 0.0
minute 8.77246471486e-05
luther 0.0
foreign 0.000128903684709
pregnant 0.0
champions 4.86963886243e-05
virginia 0.0
tackle 4.81949522917e-05
unarmed 0.0
orange 0.0
policy 0.00140813744285
comedy 8.10379574447e-05
reminder 0.000156112853098
evidence 0.000231053038519
lighten 0.0
presidents 5.4543187795e-05
kicked 8.51308958095e-05
sticker 6.71070053893e-05
accused 0.000102721863276
intentions 0.0
facing 4.26989012236e-05
freedom 0.000144480492536
actions 8.81455950899e-05
debating 0.0
outcome 9.87609716829e-05
utterly 5.58454717833e-05
mississippi 0.0
clearly 0.000197437938648
download 0.0
sidelines 0.0
invite 0.000110249962572
legally 0.0
central 6.84424814728e-05
washington 3.43177760254e-05
veteran 5.09893689724e-05
division 0.0
veterans 0.0
stronger 0.0
promised 0.0
worried 0.00037504789143
security 3.44146735489e-05
immediately 3.622403941e-05
television 0.0
entitled 0.0
racism 0.000100166400432
highest 0.000183219687188
approve 0.0
turning 6.49049546722e-05
legacy 8.22825072915e-05
ignore 0.000334607377725
choked 0.0
backing 0.0
helping 0.0
collector 0.0
willing 7.88706610124e-05
basically 0.000189175769506
return 5.73825260536e-05
unacceptable 0.0
feelings 0.000134364498826
network 0.0
language 0.000108985126652
invest 0.0
coward 0.0
schools 0.000184282374658
patients 0.0
foster 5.3710110397e-05
children 0.000228289348065
nation 6.52661192171e-05
review 9.26449976108e-05
between 0.0
knowledge 3.68564749315e-05
begins 0.0
tenure 0.0
faithful 0.0
highlights 7.816797916e-05
shoulder 0.0
produced 4.0642239862e-05
consider 0.000172073367745
shattered 0.0
latest 8.42291905272e-05
beyonce 0.0
signed 0.0
millionaire 0.0
shelter 0.0
charity 0.0
germany 0.000118305991519
advance 7.54491240833e-05
proved 0.0
married 3.8395331176e-05
millions 0.000105309995859
blessings 0.0
indonesia 0.0
fights 4.72203777741e-05
dollar 0.0
rigged 0.0
conduct 0.0
johnson 0.000110569424795
howard 0.000237705832461
turned 0.00028458969169
criticism 0.000144584856875
stomach 0.0
upgrades 0.0
jackie 0.0
relevant 0.00013838399
charge 3.59135367544e-05
ticket 3.48059410301e-05
steady 0.0
indian 0.0
turner 0.0
sanders 0.0
includes 0.000115868548421
survivor 0.0
dealers 0.0
collection 0.0
against 5.72169352854e-05
joyner 0.0
impact 0.0
families 3.31825092672e-05
welcoming 0.0
hitting 3.46095662455e-05
announced 9.47041083083e-05
granted 0.0
decided 0.000155257778459
itself 0.000132218392635
selfish 0.0
mexican 0.0
respects 0.0
guarantee 5.08055734653e-05
beliefs 0.0
citizen 0.0
states 0.0
denied 5.19284964567e-05
drought 0.0
memorial 0.0
decades 0.000124950302531
trayvon 0.0
landed 0.0
pastor 0.0
ultimate 0.0
weekends 0.0
episode 0.0
spikes 0.0
engaged 0.0
financial 0.00013702085549
payments 0.000139274338249
tolerant 8.39934530063e-05
symposium 0.0
kansas 0.0
agreement 4.80299475148e-05
source 0.00010929940489
backbone 0.0
dismiss 7.04080669601e-05
midnight 3.5003820617e-05
homework 0.0
joining 9.16356090093e-05
reasons 0.000302130677527
talked 0.000163165298043
released 0.0
reaching 0.0
release 0.0
existing 0.000209255695625
models 0.0
pageants 0.0
helmets 0.0
scheme 5.67516405398e-05
scholarship 0.0
stacked 0.0
speech 0.000467053823802
standing 0.000148209580674
higher 0.00010441782309
purple 4.83610181999e-05
justice 3.49046912832e-05
served 7.84011457838e-05
speaks 7.50095782859e-05
backup 0.0
allegedly 0.0
purchase 0.0
millionaires 0.0
consideration 0.0
strength 3.59135367544e-05
incredibly 3.66439374377e-05
private 0.000133100926656
ignored 4.955437983e-05
neighbors 0.0
apologizes 0.0
beings 0.0
minimum 5.3505973684e-05
direction 0.0
enemies 0.000110372242495
exclusive 0.0
prison 0.0
himself 8.33002016873e-05
contributes 0.0
investigation 9.57319807885e-05
teaching 0.0
disgusting 5.08055734653e-05
philly 0.0
rights 0.000455049668021
cheers 0.0
maintain 0.000114905529734
overcome 0.0
flawless 0.0
unique 0.0
neighborhood 0.0
dating 0.0
handed 0.0
victory 0.000333636986179
lifted 0.0
greatness 0.0
muslim 9.77314428521e-05
terrorist 5.3102478604e-05
productive 0.0
tribute 0.0
deadspin 0.0
threatened 0.0
horror 5.15487372637e-05
warning 0.000150019156572
convention 0.0
understanding 0.000186978000721
action 8.35486343568e-05
having 4.86963886243e-05
afghan 0.0
announces 3.96722418902e-05
commencement 0.0
speaker 0.0
graduation 0.0
honors 0.0
produce 9.73927772487e-05
apologize 0.0
insult 0.0
continued 4.44996363494e-05
letter 0.000256051763192
discussed 4.62812502898e-05
therapy 0.0
untrue 6.81611582741e-05
written 0.0003482064242
existence 0.0
essential 9.19512943994e-05
results 0.000610808066001
initiative 0.0
disease 0.0
marching 0.0
suggest 0.000521984926155
georgetakei 0.0
ensure 4.955437983e-05
democrats 0.00125363127862
marched 0.0
foundation 0.0
access 9.57545580187e-05
writes 0.000296104148639
student 7.457374178e-05
colorado 0.0
medical 0.0
medicine 0.0
tremendous 0.0
nytimes 0.0
kindness 0.0
public 0.000421829760204
cannot 0.000231405323848
reveals 0.000116212094346
invented 9.70563179515e-05
threatens 0.0
candidate 0.000866618098859
persistence 0.0
sexual 0.0
illustration 7.46508908971e-05
measure 9.50823329844e-05
compared 0.000134364498826
headline 0.000528349118206
reflect 0.0
answering 7.816797916e-05
streaming 0.0
leaders 0.000189175769506
supreme 4.47881662754e-05
nominee 0.0
immigration 0.000722924284375
policies 0.000470614655204
laundering 0.0
administration 4.90361719441e-05
defend 8.48653614485e-05
communicating 0.0
excitement 0.0
funding 4.13944239062e-05
climate 0.0
transfer 0.0
conspiracy 0.000102348964042
activist 0.0
horrifying 0.0
freely 7.28692769567e-05
retreat 6.81611582741e-05
daughters 0.0
compelling 0.00011987535342
platform 0.000164565014583
hamilton 0.0
futures 0.0
huffingtonpost 0.0
headlines 0.000239329951971
january 0.000107740610263
grants 6.23988867067e-05
unprecedented 5.76907680241e-05
relationships 5.41232897673e-05
philadelphia 5.74527648672e-05
diversity 4.78659903943e-05
funded 0.0
secure 9.47605480216e-05
income 0.0
universal 0.000183296765133
contributed 0.0
hurricane 0.0
fundamental 0.0
countries 0.000149582400577
linked 0.0
african 4.78659903943e-05
improved 5.11744820212e-05
unclear 0.0
provide 0.0
livestream 0.0
addresses 0.0
enhance 0.0
companies 0.000214839474515
proposal 0.0
potential 3.58108600397e-05
discrimination 6.0464698262e-05
connected 5.06230768773e-05
drives 0.0
attending 0.0
filled 0.0
education 6.98093825665e-05
addressed 5.9678145282e-05
mentioned 0.0
famous 0.0
resistance 0.0
exists 0.0
demonstrated 0.0
officials 0.00027404171098
instructions 0.0
transmission 0.0
olympics 0.0
ability 3.77245620416e-05
political 0.00066921475545
director 3.23626575595e-05
contains 0.0
sponsored 5.3505973684e-05
autism 0.0
previously 0.0
prevent 4.31034498586e-05
capacity 5.9678145282e-05
donations 0.0
william 0.0
editors 0.0
passionate 0.0
solving 0.0
innate 0.0
treatment 0.0
critical 0.000123802585551
feeding 0.0
preparing 0.0
depend 0.0
capable 5.33034380596e-05
bridge 0.0
systematically 0.0
becoming 3.32752316639e-05
embraced 0.0
literacy 0.0
lawyers 0.0
stigma 0.0
malaria 0.0
standard 0.000150019156572
hiring 0.0
remains 8.03053732546e-05
fellow 0.0
defending 4.43565713867e-05
quotes 4.26989012236e-05
pushes 0.0
luxury 6.29792068529e-05
admitted 0.0
colleagues 0.0
failed 7.70176795063e-05
independent 8.00634696767e-05
politically 5.72169352854e-05
driven 9.41229310408e-05
agenda 0.000233732725177
result 0.000598329602308
implications 6.07322981669e-05
insider 0.0
pakistan 0.0
solutions 0.0
trusts 0.0
indiana 0.0
filling 0.0
humility 7.6564592899e-05
clicks 7.97305722452e-05
disagree 0.000321221493018
claims 8.33002016873e-05
editorial 0.0
mistakes 4.62812502898e-05
offered 8.53978024472e-05
passionately 0.0
justification 0.0
inspiring 0.0
counter 0.000147108515832
shaped 0.0
retroviral 0.0
majority 0.000783259869655
approach 0.000154491397894
nature 3.73956001442e-05
concern 4.39320715306e-05
server 0.0
berniesanders 0.0
shameful 0.0
experiment 0.0
massive 0.000197437938648
promises 0.0
colored 0.0
consequences 0.000150249600648
whatsoever 0.0
proposals 0.0
guesses 0.0
bernie 0.0
interviewed 4.17788949247e-05
pregnancy 0.0
secretary 4.52270974049e-05
measures 0.0
vastly 0.0
reduce 9.38070504264e-05
compassionate 0.0
distinguished 0.0
dangerous 6.96118820602e-05
influence 8.48653614485e-05
letters 4.80299475148e-05
implicit 0.0
saving 0.0
revelations 0.0
incident 0.0
universe 0.0
victims 7.52288835813e-05
milestone 0.0
perfectly 7.88706610124e-05
exercise 0.0
receive 0.0
reputation 0.0
economics 6.23988867067e-05
disclosure 0.0
receives 0.0
terrific 4.56736184967e-05
collected 6.81611582741e-05
campus 0.0
founders 0.0
profiling 0.0
systemic 0.0
studying 0.0
necessary 0.000319290775434
inaccurate 0.0
breast 0.0
debate 0.00050052432294
suddenly 4.77030677105e-05
conflict 0.0
interest 0.000182165674816
meanwhile 0.000136571755802
indefensible 0.0
recall 0.0
rating 5.51861212473e-05
nominate 0.0
outstanding 0.000133498909048
devastating 0.0
illness 0.0
troubling 0.000212406963995
romney 7.24424381523e-05
appears 8.59357898062e-05
breathe 0.0
abroad 0.0001688837446
spanish 9.54061354209e-05
profit 0.0
reviews 0.000279543080304
republican 5.11744820212e-05
presidential 0.000129719160441
candidates 0.000350336866101
politicians 0.000188881511096
identified 0.000124797773413
epidemic 0.0
displaced 0.0
greater 0.000253803555976
absurd 5.58454717833e-05
deadline 0.000167115579699
height 0.0
sisters 0.0
nuclear 4.58241912832e-05
stress 0.0
leading 6.58126462161e-05
restored 0.0
conditions 9.73927772487e-05
however 0.000411412536458
achieved 0.0
member 0.000213232374898
examples 0.000165558363742
diverse 0.0
suicide 0.0
contributions 0.0
largest 0.000163562165551
increase 0.00021084588404
targeted 5.74527648672e-05
regulators 0.0
provided 5.33034380596e-05
element 6.64274093331e-05
effectively 5.84182290796e-05
population 0.00024603877516
rising 4.17788949247e-05
indication 0.0
versus 0.0
believed 4.75411664922e-05
dynamic 0.0
invasion 0.0
primary 4.72203777741e-05
provides 5.08055734653e-05
environment 0.0
confirmed 7.54491240833e-05
behavior 0.0
introduced 0.000197521943366
contain 0.0
communities 4.93804858414e-05
worldwide 0.0
responsible 8.46011853254e-05
household 5.81734579605e-05
apparent 0.0
munich 0.0
alternate 0.0
expressed 6.29792068529e-05
movement 0.000588362626174
declared 0.000170254921619
hundreds 0.0
information 0.0
easily 0.000190848999816
untreated 0.0
october 0.0
quantify 0.0
scales 0.0
investigating 0.0
innovation 0.0
perspective 3.82823193557e-05
rivals 7.0019741451e-05
interests 0.00024432860713
toledo 0.0
extraordinary 0.0
gingrich 0.0
describing 0.0
eliminate 0.0
obligation 0.0
gender 4.73802740108e-05
committee 4.24326807242e-05
preventing 6.64274093331e-05
numerous 7.51161856427e-05
unusual 5.47557252888e-05
improving 0.0
practices 0.0
cemetery 0.0
questioned 0.0
affecting 0.0
ferrell 0.0
genius 0.0
warren 0.0
organizers 0.0
regularly 0.0
ceilings 0.0
sexism 0.0
prepared 0.0
burden 0.0
foreignpolicy 0.0
county 4.78659903943e-05
uniform 0.0
newyorker 0.0
anthony 0.0
reflecting 0.0
grandson 0.0
banning 0.000116836458159
considered 0.000120458059882
chosen 0.000195462885704
outright 7.33032898575e-05
screenings 0.0
naming 0.0
conventions 0.0
reproductive 0.0
ignores 0.0
focusing 0.0
sensible 0.000241858793048
concluded 0.0
performed 0.000107831747429
divide 5.58454717833e-05
dismissed 0.0
compromise 6.23988867067e-05
crucial 4.93804858414e-05
weakness 0.0
barrier 0.0
effective 8.62068997172e-05
wealth 0.0
underway 0.0
israel 0.0
overwhelming 0.0
assault 0.0
citing 0.0
protection 0.0
prisoners 0.0
photographing 0.0
traveled 0.0
holder 0.0
seemed 4.65905133841e-05
concludes 0.0
determination 6.3572868854e-05
tested 0.0
lacking 0.0
machine 3.49046912832e-05
honoring 0.0
contrary 0.0
tolerance 0.0
michelle 0.0
assumed 0.0
programs 0.0
closely 0.0
politico 0.0
inspire 0.0
lyrics 4.85281589758e-05
judges 4.93804858414e-05
federal 0.0
maryjblige 0.0
tuning 0.0
striving 0.0
poland 0.0
september 0.0
manchester 0.000376491724163
checks 0.0
remarkable 0.000133930495007
mharrisperry 0.0
immoral 0.0
fiction 5.19284964567e-05
process 0.000131992229368
anxious 0.0
destructive 0.0
nmaahc 0.0
performances 0.0
whitehouse 0.0
flotus 0.0
crisis 0.000198957588334
marriage 4.47881662754e-05
emotions 0.0
confidence 4.05189787223e-05
voters 0.00119762742744
comparing 0.000286084676427
oldest 5.21204910937e-05
empirefox 0.0
chancetherapper 0.0
songwriter 0.0
literally 0.000256051763192
onstage 0.0
believing 5.23139239062e-05
hillaryclinton 0.0
citizenship 0.0
counted 0.000122005400432
hillaryfornc 0.0
raleigh 0.0
discusses 5.33034380596e-05
johnlegend 0.0
apprentice 0.0
acknowledge 0.0
conservative 9.60598950295e-05
economists 0.0
buzzfeed 0.0
puppet 0.0
hombres 0.0
republic 0.0
homecoming 0.0
andersoncooper 0.0
muslims 0.0
katyperry 0.0
bragging 0.0
treats 5.51861212473e-05
qualified 0.0
islamophobia 0.0
debates 0.000410887453103
endorsements 0.0
counts 0.000300775264322
theellenshow 0.0
festival 3.80577687257e-05
encouraged 0.0
stylish 0.0
disregard 0.0
jtimberlake 0.0
backstage 0.0
barack 0.0
joined 0.000127320809651
terrorism 0.000154646211791
pushing 0.0
hopeful 0.0
mentions 0.00033969711283
teamed 0.0
exclusively 0.0
aliciakeys 0.0
kingjames 0.0
muhammad 0.0
refused 0.0
characters 0.000206337642585
express 4.00317348384e-05
gratitude 0.0
ugliest 0.0
throughout 8.20311865063e-05
awkward 4.31034498586e-05
shining 0.0
fighter 0.0
accepting 0.0
applemusic 0.0
reveal 3.77245620416e-05
stands 0.000215481220527
native 0.0
announce 3.00485884723e-05
dorothy 0.0
haters 0.0
jessetyler 0.0
shondarhimes 0.0
lavernecox 0.0
broadway 0.0
disabilities 0.0
adoption 0.0
touched 4.83610181999e-05
corruption 6.21135450219e-05
violence 0.000151784885704
leedanielsent 0.0
delivered 0.0
jasmine 0.0
independence 0.0
square 3.5003820617e-05
alongside 9.91087596601e-05
privilege 0.0
secondary 0.0
staggering 0.0
seventh 0.0
tennis 0.0
sweeping 0.0
footage 0.0
overseas 0.0
spoiler 0.0
theirs 0.0
offering 4.28330478096e-05
construction 0.0
spends 5.91667788744e-05
detail 9.50823329844e-05
cabinet 5.21204910937e-05
earnings 0.0
pleased 0.000128096703671
gravity 0.0
statements 5.49700265994e-05
decade 0.000161585212594
bigotry 0.0
belong 0.0
trillion 0.0
backed 0.000154082794914
operations 0.0
breakthroughs 0.0
values 4.72203777741e-05
senator 0.0
removing 0.0
wondered 4.99057207563e-05
introduces 0.0
makers 0.0
measured 0.0
pillars 0.0
instrument 0.0
shares 0.0
individual 8.73057990345e-05
applications 0.0
prepares 0.0
ceremony 0.0
expanding 0.0
merger 8.08784572102e-05
newspaper 0.0001450830546
detailed 5.72169352854e-05
tuition 0.0
childcare 0.0
thoroughly 5.9678145282e-05
adviser 0.0
matthew 4.93804858414e-05
affected 0.0
newspapers 5.84182290796e-05
corporate 5.47557252888e-05
economy 8.89992726988e-05
presenting 0.0
spoken 4.3239720147e-05
richer 0.0
during 0.0
combat 5.3710110397e-05
touting 0.0
competitive 0.0
prominence 0.0
trifecta 0.0
fashioned 6.71070053893e-05
boasts 0.0
ripped 0.000127749795114
belief 0.000192119790059
heroes 0.0
disturbing 5.47557252888e-05
russians 0.0
intelligence 4.72203777741e-05
deepest 0.0
regrets 0.0
complicated 9.28708377309e-05
internships 0.0
adults 4.955437983e-05
describe 0.000225028734858
equality 0.0
announcement 6.63650185344e-05
interfere 0.0
terrifying 5.08055734653e-05
nationwide 0.0
manager 0.000162075914889
questionable 0.0
enhanced 0.0
services 0.000133498909048
delighted 0.0
golfer 0.0
regarding 0.0
teachers 0.0
suggests 0.000478659903943
phrase 4.85281589758e-05
immigrants 0.0
revolution 0.0001450830546
universities 0.0
twelve 0.0
principle 5.72169352854e-05
releases 0.0
malarkey 0.0
library 0.0
advisor 0.0
deadlines 0.0
encouraging 5.09893689724e-05
circuit 0.0
humanitarian 0.0
reliant 0.0
assistance 0.0
swimmer 0.0
hinges 0.000101238917564
concrete 7.33032898575e-05
accepted 0.0
confronted 0.0
comprehensive 0.0
pushed 0.0
unending 0.000108667777671
occasionally 6.54404168495e-05
guardia 0.0
donation 0.0
nomination 4.70614655204e-05
paintings 0.0
significantly 0.000284810753668
investment 9.98114415125e-05
terror 9.73927772487e-05
worship 0.0
represents 0.0
attempting 0.000124797773413
bullying 0.0
astonishing 0.000118842392598
endorse 0.0
urgent 0.0
forced 0.000119016725671
addressing 0.0
script 0.0
hundred 0.0
command 0.0
qualifies 0.0
stumbled 0.0
territory 5.86653425417e-05
balloons 0.0
objects 0.0
latimes 0.0
pandemics 0.0
separating 0.0
pentagon 0.0
threats 0.000151869230632
prisons 0.000447905345383
approaching 0.0
generous 9.8415510064e-05
roughly 0.0
commands 0.0
uncovered 0.0
destroying 0.0
opposition 0.000941650630312
addiction 0.0
manhattan 0.0
ridiculously 0.0
awarded 0.0
greeted 0.0
forces 8.40768527056e-05
confirm 4.20384263528e-05
dealings 0.0
nations 0.0
equivalent 0.00010908637559
sexist 0.0
yahoonews 0.0
bloody 4.90361719441e-05
boundaries 0.000280078965804
exceptionally 0.0
cannon 0.0
feared 0.000132188405298
significance 7.28692769567e-05
recommendation 0.0
chapters 0.0
racial 0.0
obvious 8.75842165252e-05
statistics 0.0
military 0.0
adopted 0.0
housing 0.000213213752238
clearer 0.000135609942227
calculator 0.0
underwater 0.0
guided 0.0
rescue 0.0
deserving 6.18313218879e-05
advised 6.96371691244e-05
ordered 0.0
unions 0.000362212190761
avoiding 0.000228867741142
alicia 0.0
preserve 0.0
balloon 0.0
economic 9.44407555481e-05
recipe 5.39158737146e-05
awaits 0.0
squarely 0.0
radical 0.000162369869302
banter 7.41938318906e-05
spaces 6.29792068529e-05
carnival 0.0
theories 0.0
bombing 0.0
products 0.0
margaret 0.0
gathered 0.0
taxpayers 0.0
admits 0.0
opposed 0.000103475837534
pressing 6.71070053893e-05
russia 4.01526866273e-05
lincoln 0.0
intelligent 5.27051913874e-05
momentum 5.54040395003e-05
olympic 0.0
magnificent 5.41232897673e-05
heritage 0.0
beijing 0.0
beloved 0.0
dummies 0.0
pursuit 0.0
carries 0.0
phelps 0.0
medals 0.0
gymnastics 0.0
summed 8.14721192113e-05
accuse 6.85223272346e-05
symbol 6.32743318906e-05
dignity 0.0
slogans 0.0
priorities 0.0
applied 5.41232897673e-05
progressive 0.000356527177795
activists 0.000358068871692
elected 0.000135239869487
brussels 0.000165558363742
subscribe 0.000152416720396
elections 0.00224118111703
unites 0.0
complacency 8.83073173174e-05
imperative 0.0
doorsteps 0.0
voices 0.0
blatant 0.0
democracy 0.000226875407666
disastrous 0.0
rebuild 0.0
accuses 0.000137777238659
diplomacy 0.000223952672691
hardball 0.0
attacking 4.99057207563e-05
subtle 0.0
barker 0.0
sticking 0.0
openly 0.0
policing 0.0
embarrassed 5.56238123989e-05
slightest 0.0
abbott 0.000288090160498
attacks 0.000333200806749
commit 0.0
argued 0.0
remarks 0.000112138100641
democratic 5.27051913874e-05
semitic 8.33396672068e-05
incomes 0.0
treasury 0.0
alarming 0.000153129185798
dividing 8.60604086314e-05
reject 0.0
affirming 0.0
quitting 7.12026884169e-05
extended 0.000282368793122
reducing 0.0
proudly 0.0
inclusive 0.0
oppose 0.000115861970391
distinctly 0.0
urging 0.0
strengthen 0.0
deliver 4.10155932532e-05
obligations 0.0
relations 0.0
repeal 6.019984302e-05
strengths 8.14721192113e-05
counties 0.0
weakened 0.0
reckless 0.000125958413706
prosperous 0.0
servant 0.000296775327562
secretaries 0.0
negotiator 0.0
faults 0.0
choking 0.0
executive 0.0
alternative 0.000130543311609
extend 0.0
republicans 0.0
embodied 0.0
preparation 0.0
terrorists 0.0
confident 0.0
weapons 5.04418609777e-05
unifying 0.0
outrage 0.0
constitutional 0.0
rental 0.0
prevail 0.0
resilient 7.80990933773e-05
humbled 5.54040395003e-05
courage 0.0
commander 0.0
respecting 0.0
enormous 0.0
aligned 8.53528805446e-05
consent 0.0
refusing 0.0
resentment 0.0
substance 0.0
claiming 0.000107420220794
lamont 0.0
dropping 3.908398958e-05
carried 5.51861212473e-05
intimidated 0.0
behalf 0.0
meaningful 0.0
amendment 5.13609316379e-05
accepts 0.0
legislation 0.0
fairer 8.46642221406e-05
commitments 0.0
handling 5.89148436104e-05
proves 0.0
rhetoric 0.0
hardest 4.77030677105e-05
peddling 8.99217904819e-05
divisive 0.0
strongly 0.000153523446064
vision 0.0
investigations 0.0
repeatedly 5.81734579605e-05
records 3.92005728919e-05
madeleine 0.0
disabled 0.0
quoting 6.18313218879e-05
assassination 0.0
beaten 0.0
deeply 8.35577898495e-05
grievance 0.000101238917564
contempt 0.0
standards 4.65905133841e-05
fairness 6.10027002159e-05
dictated 0.0
consensus 0.000117829687221
reconsider 0.0
priority 4.99057207563e-05
rogers 0.0
freedoms 7.12026884169e-05
notorious 8.08784572102e-05
invested 0.0
propaganda 0.0
unconstitutional 0.0
condemn 0.0
concerned 0.000207609729709
praising 0.0
cheered 8.27020259278e-05
realdonaldtrump 0.0
despicable 0.0
straightforward 0.0
bargain 0.0
attorney 0.0
bedrock 0.0
optimism 0.0
belongs 0.0
truman 0.0
whichever 0.0
inappropriate 0.0
beatings 0.0
optimistic 0.000113044199662
campaigned 0.000246239253013
allies 0.0
governor 0.0
attempts 0.0
extent 6.3572868854e-05
denial 0.000278119061995
maximum 6.74536301873e-05
merely 0.000174520373881
apprenticeships 0.0
agreeing 0.0
architect 0.0
responsibility 0.000127696343714
mainstream 5.81734579605e-05
legitimacy 0.0
injustice 0.0
dozens 5.86653425417e-05
donnell 0.0
scenario 0.000111690943567
crimes 0.0
thoughtful 0.000144089842544
hypocrisy 0.0
undocumented 0.0
sexually 0.0
richest 0.0
softening 0.0
implies 0.0
infrastructure 0.000122005400432
pitching 0.0
broadband 0.0
tenants 0.0
allegations 0.0
bloomberg 0.0
insulting 0.0
liberal 0.0014024695278
kremlin 0.0
podium 0.0
provoke 0.0
outrageous 0.0
campaigns 0.000692771275381
barriers 0.0
powell 7.24424381523e-05
technical 0.0
warnings 0.0
flagged 0.0
grassroots 7.97305722452e-05
extremist 0.0
businesses 0.000101611146931
welcomes 0.0
deputy 0.0
donating 0.0
continually 0.000162944238423
ourselves 0.0
fringe 0.0
politician 0.000463938635373
wiggins 0.0
welcomed 0.0
rallies 0.0
ballot 0.000269579368573
failing 0.000185125001159
uniting 0.0
refuses 5.51861212473e-05
appealing 7.37447221406e-05
proverb 0.0
privileges 0.0
ideals 0.0
vibrant 0.0
tarmac 0.0
residents 0.0
apprenticeship 0.0
denying 0.0
fierce 0.0
opponents 5.60690503205e-05
polling 0.000723109561186
apology 0.0
damning 0.0
outline 0.0
endorses 0.0
losers 0.0
insulted 0.0
equipped 0.0
battlefield 0.0
recession 0.0
endorsed 0.000197295722255
divides 0.0
describes 0.0
appointed 0.0
encourage 0.0
undermine 6.92601819951e-05
undermining 7.55900183814e-05
authority 5.60690503205e-05
betray 0.0
funnyordie 0.0
donated 0.0
jimmykimmellive 0.0
immigrant 0.0
criminals 0.0
automatically 0.0
schooled 0.0
elizabethforma 0.0
releasing 0.0
connects 0.0
screening 0.0
cleaner 0.0
nowthisnews 0.0
sophiabush 0.0
chelseaclinton 0.0
stunts 0.0
truths 7.0019741451e-05
transparency 0.0
obamacare 0.000255499590228
nickkristof 0.0
contraception 0.0
betting 6.18313218879e-05
conscience 0.0
proclaimed 0.0
dispatch 0.0
advocate 0.0
profits 0.0
toward 0.0
guiding 0.0
senators 0.0
barber 0.0
doubled 0.0
mosque 0.0
senate 0.0
louisiana 0.0
senwarren 0.0
parenthood 0.0
organizations 0.0
generations 0.0
minorities 7.37447221406e-05
misogyny 0.0
peacefully 0.0
decency 0.0
intend 0.0
discourse 0.0
pennsylvania 0.0
katiemcgintypa 0.0
experiencing 0.0
mccain 0.0
scandal 0.0
constitution 0.0
sensanders 0.0
intolerable 0.000103959658989
strive 0.0
forefathers 0.0
abandon 0.0
buzzfeednews 0.0
paulkrugman 0.0
mothers 0.0
compassion 0.0
deeper 0.0
governments 0.0
activism 0.0
jamilsmith 0.0
mike_pence 0.0
elizabethbanks 0.0
empathy 0.0
audited 0.0
checkers 0.0
warming 4.65905133841e-05
volunteering 8.46642221406e-05
charitable 0.0
qualifications 0.0
workplace 6.64274093331e-05
granddaughter 0.0
recycled 0.0
directing 0.0
politifact 9.34892687387e-05
abolish 0.0
murders 0.0
reagan 0.0
pouring 6.15521498745e-05
ballots 0.0
racists 0.0
empower 0.0
tolerate 0.0
chrismurphyct 0.0
igorvolsky 0.0
outraged 0.0
exceptional 6.18313218879e-05
nightmares 0.0
enforcement 6.18313218879e-05
weaken 0.0
medicaid 0.0
humbly 0.0
newsweek 0.0
conflicts 0.0
suffer 0.0
dallasnews 0.0
bridges 6.88886193297e-05
lesdoggg 0.0
appalling 6.51196281313e-05
hatred 0.0
superpower 0.0
goodbye 4.0642239862e-05
renewable 0.0
robdelaney 0.0
motherjones 0.0
trusted 0.00018719666012
sheriff 0.0
personalized 0.0
amnesia 9.65307988815e-05
malala 0.0
problema 0.0
everytown 0.0
casting 6.51196281313e-05
employers 0.0
rudolph 0.0
packets 0.0
organization 0.0
graceful 0.0
hardworking 0.0
cherished 0.0
aggressively 0.0
founding 0.0
sacred 0.0
horrific 0.0
earned 0.0
siding 0.0
minded 0.0
contribute 0.0
incites 0.0
chooses 0.0
obtained 0.0
defended 6.81611582741e-05
champion 0.0
magazines 0.0
waited 0.0
punished 0.0
conviction 0.0
tradition 0.0
giveaways 0.0
distracted 0.0
endorsing 7.20225401246e-05
pathetic 0.0
ladygaga 0.0
pessimistic 0.0
highlighting 0.0
transgender 0.0
womensmarch 0.0
advisors 0.0
wrecking 0.0
hillaryforva 0.0
registration 0.0
ellemagazine 0.0
acceptance 0.0
defeated 0.0
theroot 0.0
pharrell 0.0
tumblr 0.0
nevada 0.0
illinois 0.0
massachusetts 0.0
theadvocatemag 0.0
lending 0.0
rejecting 7.80990933773e-05
legalize 0.0
conned 0.0
arkansas 0.0
celebratin 0.0
rubber 0.0
lenadunham 0.0
hateful 0.0
wizard 0.0
unbearable 0.0
harpersbazaarus 0.0
familia 0.0
iamwill 0.0
retweets 0.0
nominating 0.0
vietnam 0.0
laurie 0.0
claimed 5.56238123989e-05
rapids 0.0
devoted 0.0
casino 0.0
astounding 0.0
summon 0.0
crushed 0.0
louder 0.0
farmers 0.0
lin_manuel 0.0
arrangement 8.14721192113e-05
borrowed 0.0
mariska 0.0
purposes 6.81611582741e-05
dialogue 0.000125374833265
comedian 0.0
________ 0.0
lightly 8.20797510044e-05
defeating 7.16093607543e-05
jerusalem 0.0
cynical 7.28692769567e-05
worrying 0.000107420220794
elizabeth 0.0
insults 0.0
microphone 0.0
sleeves 0.0
theeconomist 0.0
stakes 0.0
nationally 0.000149301781794
inspect 0.0
poisoning 0.0
columbus 0.0
declaring 0.0
crushing 0.0
chucktodd 0.0
soldier 6.15521498745e-05
painted 0.0
warned 0.0
ohiostate 0.0
unrelated 0.0
designated 0.0
clears 0.0
congressional 0.0
confront 0.0
usatoday 0.0
delivers 0.0
pittsburgh 6.3572868854e-05
entiende 0.0
soaked 0.0
bromance 0.0
lifelong 0.0
antiques 0.0
repjohnlewis 0.0
breakers 0.0
fundraising 0.0
hispanic 0.0
defrauded 0.0
fearful 0.0
nytopinion 0.0
volume 0.0
perfecting 0.0
washingtonpost 0.0
affordable 0.0
mighty 0.0
normalizing 0.0
boasting 0.0
assaulting 0.0
disqualify 0.0
monique 0.0
jcolenc 0.0
teamusa 0.0
allysonfelix 0.0
usabasketball 0.0
ibtihaj 0.0
simone 0.0
feminism 0.0
conversion 0.0
destiny 0.0
disrespected 0.0
serenawilliams 0.0
tantrum 0.0
heinous 0.0
unconscious 0.0
accomplishments 0.0
saddened 0.0
disgrace 0.0
rodriguez 0.0
arsenal 0.000630177673059
defender 6.85223272346e-05
malalafund 0.0
merchandise 0.0
laundry 0.0
lesbians 0.0
cnnpolitics 0.0
nickgass 0.0
examining 0.0
monument 0.0
appeals 0.0
gracias 0.0
madame 0.0
grande 0.0
speechless 0.0
coulter 0.0
missiles 0.0
psyched 0.0
chelsea 5.54040395003e-05
biases 0.0
resume 0.0
spectator 0.0
angelina 0.0
spectacle 0.0
admiration 0.0
reaches 0.0
español 0.0
dreamers 0.0
mañana 0.0
bursting 8.83073173174e-05
undone 0.0
beyoncé 0.0
nuestra 0.0
diwali 0.0
prestigious 0.0
cynicism 0.0
disability 0.0
registering 0.0
booker 0.0
méxico 0.0
disponible 0.0
honduras 0.0
famously 0.0
overdue 0.0
equity 7.80990933773e-05
opioid 0.0
millennials 0.0
recommendations 0.0
investors 0.0
betrays 0.000112363093614
patriotism 0.0
liability 0.0
iranian 0.0
delegate 0.0
struck 0.000156941771719
millennial 0.0
dictators 0.0
graduate 0.0
analysts 0.0
victor 0.0
shrink 0.000251980359019
dictator 0.0
poised 0.0
avoided 0.0
rallying 0.0
catholic 0.0
thriving 0.0
racially 0.0
undermines 0.0
yashar 0.0
inequality 0.0
medicare 0.0
missionaries 0.0
foremost 8.83073173174e-05
deplorable 8.99217904819e-05
demonize 0.0
wikileaks 0.0
enduring 0.0
privatized 0.0
appoint 0.0
losses 0.000162997155961
jbarro 0.0
buffett 0.0
staffers 0.0
takeaway 0.0
moscow 0.0
hampshire 0.0
pandering 0.0
voxdotcom 0.0
reckoning 0.000105435669839
moines 0.0
falter 0.0
countless 0.0
democrat 0.000257959054965
bostonglobe 0.0
accountable 0.0
dispel 0.0
despair 6.64274093331e-05
persisted 0.0
disclose 0.0
tedcruz 0.0
flooding 0.0
prejudice 0.0
towers 0.0
criticized 0.0
senatemajldr 0.0
outsider 0.0
declare 0.000122005400432
dismantle 8.75364194817e-05
thrive 0.0
threaten 0.0
outsourced 0.0
loophole 0.0
heerjeet 9.99790013616e-05
verbal 0.0
businessinsider 0.0
ukraine 0.0
vladimir 0.0
businessman 0.0
supremacist 8.53528805446e-05
etched 0.0
zekejmiller 0.0
momentarily 0.0
perpetrators 0.0
mocking 7.55900183814e-05
wrecked 0.0
identities 0.0
inhumane 0.0
disavow 0.0
hostile 6.54404168495e-05
muster 0.0
surrender 0.0
shatter 0.0
patriotic 0.0
rewarded 0.0
jitters 0.0
bullies 0.0
discipline 6.07322981669e-05
forgets 0.0
expand 0.0
apologized 0.0
tournament 0.0
grindstone 0.0
mastery 0.0
provider 0.0
steroids 0.0
jenniferjjacobs 0.0
notion 6.74536301873e-05
hernandez 0.0
mcuban 0.0
bullied 0.0
jebbush 0.0
discriminating 0.0
somali 0.0
hayden 0.0
limitless 9.54766459966e-05
implement 0.0
nydailynews 0.0
corybooker 0.0
interference 0.0
listens 0.0
preside 0.0
remembers 0.0
toughness 0.0
extensively 0.0
suffered 5.81734579605e-05
streep 0.0
billionaire 0.0
cheats 0.0
needing 6.57652407516e-05
percentage 0.0
insiders 0.0
binder 0.0
prescriptions 0.0
slashed 0.0
indebted 0.0
dismisses 0.0
delegates 0.0
pledged 0.0
endured 0.0
deployed 0.0
suspense 0.0
courageously 0.0
resilience 0.000226770055144
nationalists 0.0
autonomy 0.0
abandoning 0.0
canvas 0.0
blacks 0.0
pledging 0.0
elaine 0.0
methodist 0.0
candidacy 0.0
bonuses 0.0
resolve 0.0
laughable 9.34892687387e-05
scares 0.0
intellect 0.0
hopeless 0.0
debunked 0.0
shames 0.0
connections 0.0
tyleroakley 0.0
perplexed 9.76298226025e-05
ddlovato 0.0
impromptu 0.0
teenvogue 0.0
unveils 0.0
billie 0.0
prouder 0.0
sweetness 0.0
cheryl 0.0
filipino 0.0
petersburg 0.0
drastic 0.0
lifesaving 0.0
decorated 0.0
usagym 0.0
freestyle 0.0
absentee 0.0
lashes 0.0
concentration 0.0
refuge 0.0
renaissance 0.0
actively 0.0
monitoring 0.0
destined 0.0
willfully 0.0
detained 0.0
warmest 0.0
heroic 0.0
bragged 0.0
miners 0.0
shareholders 0.0
randall 0.0
excessive 0.0
geneva 0.0
corporations 0.0
unsolvable 0.0
grandchildren 0.0
discredit 0.0
enormously 0.0
frances 0.0
pillar 0.0
trillions 0.0
expansive 0.0
organize 0.0
capabilities 0.0
confederate 0.0
shakers 0.0
ambiguity 0.0
linking 7.04080669601e-05
pretends 0.0
wireless 0.0
inherit 9.16439724979e-05
paranoia 0.0
theatlantic 0.0
languages 0.0
disposable 0.0
reinforcing 0.0
integrated 0.000164159502009
optimist 0.0
pigeons 0.0
chadhgriffin 0.0
katieledecky 0.0
richards 0.0
demconvention 0.0
abcpolitics 0.0
chobani 0.0
dominiclowell 0.0
floridians 0.0
cecilerichards 0.0
clintonfdn 0.0
billclinton 0.0
grounded 7.51161856427e-05
abilities 0.0
grandfather 0.000118842392598
profoundly 0.0
fiercely 0.0
drowning 0.0
astound 0.0
alzheimer 0.0
responders 0.0
peacecorps 0.0
nygovcuomo 0.0
hurricanes 0.0
approximately 0.0
daunting 0.0
organizer 0.0
ingenuity 0.0
illnesses 0.0
intruders 0.0
invading 0.0
harmful 0.0
foundations 0.0
skateboards 0.0
housekeeping 0.0
dangerously 0.0
renters 0.0
predatory 0.0
rebuke 0.0
jengranholm 0.0
supremacy 0.0
linger 0.0
adamserwer 0.000110449391612
clevelanddotcom 0.0
repadamschiff 0.0
fahrenthold 0.0
revoke 0.0
advising 0.0
strengthening 0.0
colleges 0.0
deniers 0.0
aspire 0.0
exceed 0.0
lebassett 0.0
shrugged 0.0
stewardship 0.0
complains 8.33396672068e-05
temperament 0.0
texasinafrica 0.0
americorps 0.0
latino 0.0
payoffs 0.0
protested 0.0
honorable 0.0
fathom 0.0
inconvenience 0.0
johnkasich 0.0
latinos 0.0
votevets 0.0
unsurprising 0.0
loopholes 0.0
dismal 0.0
unqualified 0.0
rigorous 0.0
mittromney 0.0
joyannreid 0.0
theorist 0.0
evan_mcmullin 0.0
discriminate 0.0
ezraklein 0.0
obsessively 0.0
desperation 0.0
latina 0.0
tammyforil 0.0
pantsuit 0.0
superior 0.0
exonerated 0.000116676957925
johnpodesta 0.0
recites 0.0
supremacists 9.65307988815e-05
affront 0.0
electing 7.97305722452e-05
defund 0.0
demeans 0.0
govpencein 0.0
squandered 0.0
machado 0.0
pneumonia 0.0
unhinged 0.0
criticizes 0.0
derailment 0.0
iceberg 0.0
epipens 0.0
generals 0.0
timkaine 0.0
provocation 0.0
paulbegala 0.0
clintinfdn 0.0
wesleylowery 0.0
childdefender 0.0
dictatorship 7.80990933773e-05
ceasefire 0.0
stamped 0.0
intimidation 0.0
casinos 0.0
manifest 0.0
restrict 0.0
transformation 0.0
battleground 0.0
christine 0.0
touted 0.0
mcconnell 0.0
deflect 0.0
expressing 0.0
commonsense 0.0
statesman 0.000155154791279
mcbride 0.0
tumble 0.0
bigoted 0.0
belonged 0.0
praised 0.0
policeman 8.39934530063e-05
booing 0.0
cathedral 0.0
tomperez 0.0
keithellison 0.0
knowingly 9.0768527314e-05
wealthiest 0.0
backward 0.0
pretended 0.0
thedemocrats 0.0
psychologists 0.0
americ 0.0
successor 0.000235894645572
diplomats 0.0
congratulated 0.0
devotion 0.0
remembrance 0.0
eligible 0.0
incoherent 0.0
exhaustive 0.0
downgraded 0.0
unified 8.08784572102e-05
embraces 0.0
galling 0.0
senatorreid 0.0
lifetimes 0.0
demagogue 0.0
rodham 0.0
temper 9.44638432563e-05
longtime 7.55900183814e-05
vetoing 0.0
janelle 0.0
voguemagazine 0.0
dominique 0.0
surpassed 0.0
associates 0.0
demonstrating 8.46642221406e-05
morning_joe 0.0
bazaar 0.0
consequential 0.0
undressed 0.0
entrepreneurial 0.0
billionaires 0.0
prescription 0.0
senseless 0.0
refresher 0.0
classmates 0.0
maturity 0.0
comentarios 0.0
risked 0.0
invincible 0.000112363093614
vigilant 0.0
emissions 0.0
recommit 0.0
voiceless 0.0
natlparkservice 0.0
workplaces 0.000114430049239
mayaharris_ 0.0
dhsgov 0.0
cyberattacks 0.0
maxinewaters 0.0
jerrybrowngov 0.0
discriminates 0.0
thejusticedept 0.0
simone_biles 0.0
sotomayor 0.0
traumatic 0.0
scammed 0.0
dreamer 0.0
fulfill 0.0
latinas 0.0
discouraged 0.0
usnavy 0.0
oftentimes 0.0
reprehensible 0.0
demeaning 0.0
ratified 0.0
emilyslist 0.0
lawsuits 0.0
nonviolent 0.0
caucus 7.70660292317e-05
joebiden 0.0
joyful 0.0
privatize 0.0
barbaraboxer 0.0
sengillibrand 0.0
camino 0.0
familias 0.0
americaferrera 0.0
universidades 0.0
gabbygiffords 0.0
shuttlecdrkelly 0.0
fulton 0.0
shimon 0.0
hablar 0.0
fuerza 0.0
trickle 0.0
refinance 0.0
shattering 0.0
damián 0.0
gouging 0.0
moveon 0.0
simone_manuel 0.0
revdrbarber 0.0
senatorbarb 0.0
cnbcnow 0.0
stiffed 0.0
mikebloomberg 0.0
solver 0.0
thrower 0.0
granddaughters 0.0
changemaker 0.0
clairecmc 0.0
anastasiasomoza 0.0
defunding 0.0
preyed 0.0
aspirations 0.0
fannie 0.0
mubarak 0.0
buzzfeedben 0.0
probed 0.0
marines 0.0
projecting 0.0
outsourcing 9.65307988815e-05
developers 0.0
crimea 0.0
everyo 0.0
chaser 0.0
dubious 0.000404392286051
diplomatic 7.33032898575e-05
rosiegray 0.0
unpatriotic 0.0
multifaceted 0.0
myanmar 0.0
adamparkhomenko 0.0
tjmshow 0.0
tenant 0.0
perjury 0.0
contractual 0.0
surrounds 0.0
exceeded 0.0
thrives 0.0
unclerush 0.0
sailors 0.0
stereotypes 0.0
librarycongress 0.0
acknowledging 0.0
philippe 0.0
battled 0.0
postopinions 0.0
ambassadorrice 0.0
shockingly 0.0
mcfaul 0.0
presid 0.0
poisons 0.0
kenvogel 0.0
johndingell 0.0
harnessing 0.0
unwritten 0.000224726187227
bewildering 0.0
moonshot 0.0
apologizing 0.0
oligarchs 0.000105435669839
espionage 0.0
marcorubio 0.0
desecration 0.0
brianefallon 0.0
bangladesh 0.0
twittermoments 0.0
officialcbc 0.0
thefix 0.0
urgency 0.0
traceeellisross 0.0
andradaymusic 0.0
impeccably 0.0
catastrophe 0.0
tallest 0.0
anastasia 0.0
azcentral 0.0
marrying 0.0
moderates 8.91019387742e-05
resembles 0.0
paraphrase 0.0
applauds 0.0
heavier 0.0
virginians 0.0
railing 0.0
eloquently 0.0
denverpost 0.0
independents 0.000277650423763
americanos 0.0
hispanos 0.0
bailouts 0.0
divisiveness 0.0
jmpalmieri 0.0
hardballchris 0.0
republicano 0.0
candidato 0.0
phillyinquirer 0.0
jesserodriguez 0.0
militarytimes 0.0
sunsentinel 0.0
ryanlizza 0.0
bretbaier 0.0
thelastword 0.0
hillaryclinto 0.0
maddowblog 0.0
boundless 0.0
enacting 0.0
gettysburg 0.0
groping 0.0
govchristie 0.0
justices 0.0
watchdogs 0.0
cavalier 0.0
succeeds 0.0
retirees 0.0
pocketed 0.0
multimillionaire 0.0
redcross 0.0
evalongoria 0.0
highways 0.0
marlee 0.0
primero 0.0
pianos 0.0
bribed 0.0
scranton 0.0
wellesley 0.0
perkins 0.0
onward 0.0
algore 0.0
candidly 0.0
trajectory 0.000264921951952
quitter 0.0
objectifying 0.0
ignoramus 0.0
disillusioned 0.0
asinine 0.0
vibrancy 0.0
arpaio 0.0
testifying 0.0
chairmen 0.0
luchar 0.0
disrupted 0.0
podemos 0.0
settlements 0.0
massacres 0.0
millones 0.0
eagerly 0.0
grandmas 0.0
dedicado 0.0
seeming 0.0
pragmatic 0.0
hashanah 0.0
porque 0.0
unidos 0.0
nuestras 0.0
primera 0.0
debemos 0.0
muchos 0.0
cuando 0.0
nuestro 0.0
inteligente 0.0
rapists 0.0
agosto 0.0
presidente 0.0
puedes 0.0
mujeres 0.0
safeguarding 0.0
indecent 0.0
motions 0.0
strengthened 0.0
eminently 0.0
innuendo 0.0
memorandum 0.0
reuterspolitics 0.0
educates 0.0
mexicana 0.0
disparage 0.0
absurdity 0.0
backdoor 0.0
affording 0.0
hardline 0.000110449391612
steelworkers 0.0
demean 0.0
immigrate 0.0
thuggish 0.0
astrid 0.0
jesuit 0.0
governorship 0.0
waterboarding 0.0
personas 0.0
stephenson 0.0
huracán 0.0
firefighter 0.0
ravages 0.0
marleematlin 0.0
scrolling 0.0
tarnish 0.0
ajentleson 0.0
roanoke 0.0
heaping 0.0
carpentry 0.0
forcefully 0.0
frankiejgrande 0.0
aprildryan 0.000121858909346
unjustified 0.0
yamiche 0.0
evacuate 0.0
disrespects 0.0
incomprehensible 0.0
jogger 0.0
vindicated 0.000103959658989
blazed 0.0
cambodia 0.0
revolutionize 0.0
welding 0.0
unbeatable 0.0
polished 0.0
saddled 0.0
interdependence 0.0
alleys 0.0
civility 0.0
vilified 0.0
disagreeable 0.0
terence 0.0
bluster 0.0
incredib 0.0
holton 0.0
hillaryforpa 0.0
hillaryforco 0.0
jes_chastain 0.0
vitalvoices 0.0
indictments 0.0
evokes 0.0
reaffirming 0.0
rebukes 0.0
minerva 0.0
peddle 0.0
starker 0.0
cascading 0.0
carolinians 0.0
señora 0.0
honrado 0.0
missionary 0.0
ranchers 0.0
denveropinion 0.0
practicality 0.0
thoughtfulness 0.0
scripture 0.0
pueblo 0.0
morningmoneyben 0.0
smalls 0.0
exemplify 0.0
eviscerated 0.0
jeffflake 0.0
helpless 0.0
sarahemcbride 0.0
indivisible 0.0
colinjones 0.0
mrjoshcharles 0.0
houstonchron 0.0
thoroughness 0.0
isolde 0.0
wonkiest 0.0
equate 0.0
dustbin 0.0
estados 0.0
newrepublic 0.0
expresses 8.83073173174e-05
demonizing 0.0
jeffbezos 0.0
discard 0.0
befriending 0.0
slovenia 0.0
unrelenting 0.0
salmahayek 0.0
revolves 0.0
anselm 0.0
dwells 0.0
usairforce 0.0
deride 0.0
repackaging 0.0
earmarked 0.0
evader 0.0
passpor 0.0
awaited 0.0
guterres 0.0
precinct 0.0
presidencia 0.0
unshakable 0.0
marshablackburn 0.0
comunidad 0.0
merecen 0.0
juntos 0.0
infomercial 0.0
johnstown 0.0
statewide 0.0
skyscrapers 0.0
phillydotcom 0.0
deducted 0.0
laguardiacc 0.0
annieslisttx 0.0
nickmerrill 0.0
leaninorg 0.0
missbeae 0.0
minassianmedia 0.0
natarsha 0.0
foments 0.0
ruline 0.0
steininger 0.0
michaelnutter 0.0
harren 0.0
louisa 0.0
cannell 0.0
robbymook 0.0
broward 0.0
hillaryforfl 0.0
jeanneshaheen 0.0
ericasmegs 0.0
jeremyshorr 0.0
turpin 0.0
rubycramer 0.0
singularly 0.0
joshschwerin 0.0
clionamccarney 0.0
xochitlhinojosa 0.0
adamsmith_usa 0.0
humayun 0.0
jamestaylor_com 0.0
hillaryformn 0.0
ericwms 0.0
dougmillsnyt 0.0
jencarlosmusic 0.0
hannahbfine 0.0
creynoldsnc 0.0
lefsadventures 0.0
pembroke 0.0
perceptiveness 0.0
hillaryforaz 0.0
fayetteville 0.0
entrust 0.0
daveeddiggs 0.0
petewilliamsnbc 0.0
hillary_esp 0.0
ustedes 0.0
nación 0.0
creativa 0.0
bilingües 0.0
multilingües 0.0
contribuyen 0.0
diversidad 0.0
economía 0.0
hillaryforia 0.0
estaré 0.0
discurso 0.0
síganme 0.0
detall 0.0
hopewell 0.0
temperamentally 0.0
redone 0.0
barging 0.0
machadooficial 0.0
mikereedschmidt 0.0
franklinfoer 0.0
eamonjavers 0.0
hillaryforoh 0.0
hustling 0.0
relishes 0.0
markkirk 0.0
asmamk 0.0
just_jenna 0.0
discrimina 0.0
samifayebaker 0.0
padded 0.0
wigazette 0.0
phillytrib 0.0
trivializes 0.0
condones 0.0
ellisoncampaign 0.0
barb_kinney 0.0
theriveterspod 0.0
humiliates 0.0
nickmarroletti 0.0
alli_wilber 0.0
brespolitico 0.0
jasoncherkis 0.0
sean_p_thomas 0.0
outclassed 0.0
outmaneuvered 0.0
belittling 0.0
familie 0.0
yuuuuuuge 0.0
disqualifying 0.0
brynnecraig 0.0
buffywicks 0.0
lasvegassun 0.0
cmichaelhuntley 0.0
civically 0.0
raquelwillis_ 0.0
celebramos 0.0
trayectoria 0.0
pionera 0.0
breakups 0.0
rosenbergerlm 0.0
heraldleader 0.0
jaylon 0.0
decisi 0.0
antónio 0.0
squander 0.0
presidenta 0.0
protegerá 0.0
astrid_nv 0.0
sltrib 0.0
peter_j_k 0.0
brosandprose 0.0
nicholaskitchel 0.0
mahoning 0.0
omerizer 0.0
kendallybrown 0.0
davidnakamura 0.0
chatima 0.0
tammybaldwin 0.0
mpshapiro 0.0
responsibilit 0.0
overgrown 0.0
literally_trump 0.0
imploded 0.0
rnicholasburns 0.0
disastrously 0.0
stiffing 0.0
globeopinion 0.0
degradi 0.0
languishing 0.0
demostrar 0.0
poderosa 0.0
iammarleydias 0.0
tbtimes_opinion 0.0
disloyalty 0.0
defende 0.0
vegalteno 0.0
moodysinvsvc 0.0
decisiveness 0.0
whethe 0.0
preocupada 0.0
trayecto 0.0
afectados 0.0
ayotte 0.0
empathize 0.0
lifelo 0.0
lorellapraeli 0.0
ironworking 0.0
ebeling 0.0
contribuido 0.0
ejército 0.0
inmigrantes 0.0
indocumentados 0.0
enquirer 0.0
delega 0.0
roadshow 0.0
sunsentinelopinion 0.0
resulta 0.0
insultar 0.0
construir 0.0
muralla 0.0
provoked 0.0
discretion 0.0
sdutideas 0.0
merece 0.0
respeto 0.0
enfrentar 0.0
valentía 0.0
ataques 0.0
descaro 0.0
culparla 0.0
petulance 0.0
ninhaitseng 0.0
flippantly 0.0
posteverything 0.0
_vicentefdez 0.0
azcopinions 0.0
aumentó 0.0
andrewjenks 0.0
imwithher 0.0
diferencias 0.0
onevoxdotcom 0.0
ignite_national 0.0
endorsin 0.0
mercersdairy 0.0
everyvoice 0.0
rachaelgass 0.0
galifianakis 0.0
crutcher 0.0
nyledimarco 0.0
mistreat 0.0
wellsfargo 0.0
templeuniv 0.0
sollender 0.0
honremos 0.0
tantas 0.0
contribuciones 0.0
aleatha 0.0
endeavored 0.0
legitimize 0.0
además 0.0
whistles 0.0
ugliness 0.0
jorge_silva 0.0
dnclatinos 0.0
libnofcongress 0.0
unscrupulously 0.0
contractually 0.0
impulsively 0.0
qaddafi 0.0
cancelable 0.0
cnbcopinion 0.0
jbrotherston 0.0
_bxddxss 0.0
sspiderboy 0.0
collegedems 0.0
veered 0.0
charitynav 0.0
usnewsopinion 0.0
humansofny 0.0
unfitness 0.0
steadiness 0.0
nbcusa_inc 0.0
verdadera 0.0
encuentra 0.0
hacemos 0.0
anuncio 0.0
unpresidential 0.0
unfavorably 0.0
heridas 0.0
visibles 0.0
veteranos 0.0
cuidado 0.0
panetta 0.0
experiencia 0.0
confío 0.0
exsecretario 0.0
comercio 0.0
lizromanoff 0.0
americasvoice 0.0
davidleopold 0.0
rebuked 0.0
criminalize 0.0
mentiré 0.0
inmigración 0.0
demonizar 0.0
americanlegion 0.0
sarasolow 0.0
qumber 0.0
zerlinamaxwell 0.0
hillaryforut 0.0
hillaryforga 0.0
grandtetonnps 0.0
marlondmarshall 0.0
mariatcardona 0.0
escuchamos 0.0
claramente 0.0
demonizando 0.0
segunda 0.0
tercera 0.0
rhettbuttle 0.0
hillaryformi 0.0
futuramics 0.0
louisianans 0.0
claressashields 0.0
helen_maroulis 0.0
bri_rollin 0.0
itspooda 0.0
kristihollywood 0.0
meredeetch 0.0
kersee 0.0
rodhams 0.0
bidens 0.0
possibilitie 0.0
maulama 0.0
akonjee 0.0
shotdiva 0.0
auriemma 0.0
maxlinsky 0.0
cowering 0.0
moratory 0.0
hillarycl 0.0
repudiate 0.0
fencer 0.0
bankruptcies 0.0
warrenbuffett 0.0
bishopgarrison 0.0
ajazzyworld 0.0
morell 0.0
starkest 0.0
braille 0.0
frankmugisha 0.0
confiar 0.0
distinguido 0.0
herencia 0.0
harkening 0.0
impulses 0.0
dakota_meyer 0.0
kauveri 0.0
iafftreg 0.0
laurawalkerkc 0.0
jakesherman 0.0
benediction 0.0
denigrates 0.0
ann_oleary 0.0
liberates 0.0
bombast 0.0
repcleaver 0.0
throwed 0.0
luchado 0.0
derechos 0.0
humanos 0.0
trabajadores 0.0
relent 0.0
aprendí 0.0
valores 0.0
trabajo 0.0
mismos 0.0
annella 0.0
drbiden 0.0
expedient 0.0
imangelabassett 0.0
smegielski 0.0
leinonen 0.0
driffin 0.0
buckles 0.0
insatiably 0.0
sybrina 0.0
mcbath 0.0
dontre 0.0
randibrazeau 0.0
sjbxtr 0.0
malcolmkenyatta 0.0
lankford 0.0
countrymen 0.0
countrywomen 0.0
refiere 0.0
separar 0.0
valiente 0.0
strongmen 0.0
seremos 0.0
compañeros 0.0
bienvenidos 0.0
dauntless 0.0
governorva 0.0
sherrodbrown 0.0
vicepresidencia 0.0
ilyseh 0.0
gunsense 0.0
encantada 0.0
anunciar 0.0
splintering 0.0
albamonica 0.0
criminologist 0.0
construiremos 0.0
discriminatio 0.0
endorser 0.0
sniveling 0.0
ryanegraney 0.0
baptize 0.0
convención 0.0
republicana 0.0
