chatting 6.58337439905e-05
trying 0.0011734916933
launch 4.79628140644e-05
moment 0.000353950639299
wonderful 4.3938733791e-05
seeing 0.000160741732376
recommend 5.82216640277e-05
anybody 0.000419922672371
podcast 0.00109642999243
challenges 0.0
worked 0.000253810575229
direct 0.0
others 0.000252440769238
currently 9.30636820298e-05
better 0.00127699793107
please 0.000745217522234
travels 0.0
social 0.000219097414138
around 0.000464362884026
people 0.00417926595624
leaving 8.85974152294e-05
morning 0.000233436479891
general 0.000300860990456
overall 0.000339980724461
damage 6.37858107431e-05
affect 0.0
everything 0.00066140335969
twitter 0.00124835494418
present 0.0
though 0.000202559956047
friend 0.000508513067096
watched 0.000131816201373
beautiful 4.0077189927e-05
anything 0.000632647515425
practice 0.000158259802141
helped 4.26467595365e-05
helpful 0.0
revive 0.0
updated 0.0
thinking 0.000437296918566
finally 0.000159017061297
caught 0.000131458448483
believe 0.000853629747492
already 0.000543218930222
orlando 0.000132513330433
depends 0.000232886656111
chance 0.000389060799818
meaning 0.0
annual 0.0
renewed 0.0
growing 9.33195295819e-05
probably 0.000548436767775
should 5.14263862929e-05
changed 0.00024972516586
history 0.000681312228759
center 0.0
museum 0.0
behind 0.00034827216302
pretty 0.000914348102457
really 0.00287904991865
expensive 6.6899841912e-05
little 0.00062082163454
earlier 0.000136570186472
forget 0.000276038092621
paperwork 0.0
someone 0.000941327396506
mostly 0.0
worker 0.0
safety 0.0
program 0.000216509065606
things 0.000812635047046
electrical 0.0
visiting 5.36638248504e-05
available 0.000404028320198
perfect 0.000648191859349
different 0.00110713315199
search 0.0
connect 0.0
numbers 0.000145893513124
person 0.000819232932116
watching 0.00144730642174
passed 4.74363174121e-05
minutes 0.000200927165471
daughter 0.000141138279583
average 5.57134272551e-05
positive 0.000138451762847
outside 4.11734929073e-05
metric 0.0
looking 0.000504417578063
forward 0.000119907746082
raising 5.55518532959e-05
afraid 0.000100567918412
impression 0.0
profile 0.0
drawing 0.0
favorite 0.000496670925634
picture 0.000124189591358
historic 0.0
instead 0.00017527793131
appreciate 0.00128164550699
husband 0.0
international 0.0
toddler 0.0
couldn 0.000405119912093
remember 0.000544685119745
holidays 0.0
friends 0.000273814728436
despite 0.000165692145886
understood 0.000148517938794
impossible 0.0
everyone 0.000350154719836
florida 0.0
always 0.00162527009409
months 0.000162485836778
moving 0.0
meeting 7.97232154297e-05
google 9.78035597707e-05
answer 0.000438477684863
together 0.000195055460028
included 0.00017781696998
inside 0.000202559956047
section 0.0
missed 0.000197170066158
button 0.000129184050933
active 0.0
longer 8.98124137147e-05
enough 0.000943868371465
projects 6.91244145231e-05
driving 4.75672715371e-05
building 4.37005982271e-05
enjoying 4.75672715371e-05
kennedy 0.0
tantrums 0.0
apparently 0.000100286996819
recent 5.14263862929e-05
gotten 0.000195004561101
amazing 0.000737225691016
determined 0.0
attention 0.000176233413529
progress 5.39721683703e-05
tomorrow 0.000194530399909
whenever 6.39857952037e-05
curious 0.000494726665574
george 0.000145087324321
feeling 8.14624754556e-05
excited 4.06214591946e-05
campaigning 0.0
understand 0.00106041050311
learning 4.8228773235e-05
special 0.000431441723399
secret 8.7164155491e-05
across 4.3463919159e-05
comparison 0.00014544228319
surprised 9.28086774696e-05
anymore 0.000198346795097
spirited 0.0
precious 8.20533672801e-05
rejoice 0.0
rather 0.000437005982271
showing 0.000124525599468
saying 0.00113740085745
tweeted 0.000514263862929
updates 5.6531574157e-05
thoughts 0.000165139403959
exactly 0.000967689615411
except 0.000148760096323
getting 0.000817027679618
nothing 0.000739215519654
tweets 0.000300149347644
course 0.000401854330941
photos 0.0
looked 0.000265070063327
difficult 0.000205126899159
office 0.000252440769238
decisions 0.000176230283945
brought 0.000129334778512
biggest 0.000160308759708
thrilled 0.0
entire 0.000475515467662
something 0.00175077359918
closing 5.78776892561e-05
anyone 0.000392219748544
taking 0.000233436479891
reprint 0.0
flying 0.0
happening 0.000127249260373
sometimes 0.000343027825879
lessons 0.000169099665341
village 7.81043767748e-05
stopped 9.12960466364e-05
yesterday 0.000549107647962
service 8.55248908865e-05
serious 0.000457829470742
emails 0.0
wearing 0.0
afford 0.000251204413954
either 0.000678662721987
second 0.000392219748544
checking 5.04249317008e-05
volunteers 0.0
indeed 0.000212217648582
hearing 4.3463919159e-05
choose 0.000549276645854
another 0.000582020282381
address 0.000157363344243
display 0.0
compare 0.000284003983491
weekend 0.000354906119084
suggested 7.6133926771e-05
appear 0.0
anyway 5.02839592061e-05
theory 0.000127571621486
buildings 0.0
working 0.000544685119745
bigger 0.000182592093273
treated 0.000255943180815
admired 0.0
retirement 0.000148517938794
laughing 0.0139374774599
wanted 0.000314622790488
current 9.17969792202e-05
grateful 5.08509569983e-05
friendship 0.0
family 0.000544685119745
listening 0.000127940278609
stream 0.0
sharing 4.57730538212e-05
double 0.000484641887206
especially 8.62231856748e-05
middle 4.46620615238e-05
waiting 0.000199308038574
definitely 0.000510377021359
walking 9.33195295819e-05
account 0.000182592093273
completely 0.000553807051389
thought 0.000666773572525
accept 0.000149175448183
possible 0.000288214450351
simple 0.000135826012635
manufacturing 0.0
destroyed 0.0
members 0.0
supposed 0.000310304051109
manufacturers 0.0
business 0.000461557955693
absolutely 0.000457829470742
anywhere 5.18636441317e-05
sending 9.03038046607e-05
introducing 0.0
congrats 0.000285889300031
beauty 5.57134272551e-05
community 0.0
greatest 0.00012759425534
posted 4.6024333321e-05
wednesday 9.38337760852e-05
explain 0.000499390845284
broken 4.8228773235e-05
fairly 8.11056405565e-05
closest 0.0
hoping 0.0
relationship 0.000104611798622
actually 0.00139515627002
pockets 0.0
wallet 0.0
pocket 0.000333421298499
argument 0.000299944765979
decent 0.0
school 0.000434945166855
throwback 0.0
thursday 0.00012486258293
talented 5.11376020645e-05
discuss 0.00110315696501
celebrate 0.000128984579993
celebrating 4.64043387348e-05
anniversary 0.000141138279583
students 0.0
corners 0.0
internet 0.000145087324321
figure 0.000511850251164
opened 0.0
inspired 0.0
latter 0.0
sitting 8.78774675819e-05
playing 0.000514026106283
street 4.31115928374e-05
points 0.000249320485725
advice 0.0
memory 0.0
forever 0.0
congress 0.0
imagine 0.000130038360793
problem 0.000876403831952
pulling 0.0
furniture 0.0
keeping 0.000130391757477
dressed 0.000251204413954
chinese 0.0
unlike 0.0
allowed 0.000255688010323
otherwise 0.000331384291771
afternoon 4.57730538212e-05
planned 0.0
images 0.0
noticed 0.000123303211781
expense 0.0
differences 0.0
difference 0.000425314184466
editor 6.39857952037e-05
intent 0.0
suppose 0.000149570932099
inspiration 5.33579188542e-05
letting 4.78305168176e-05
system 0.000534942881454
almost 0.0004279668798
details 4.25314184466e-05
experience 0.000203107295973
living 0.000121864377584
worries 0.000136887025923
weather 4.97251493943e-05
bright 0.0
understands 0.0
normal 0.000260789593034
launching 0.0
backyard 0.0
pointed 0.0
before 0.0003374995494
monday 4.06214591946e-05
example 0.000411411090343
science 0.000164736661307
tweeting 0.00022209723446
forgot 0.00014629871675
disaster 5.9628979372e-05
happens 0.000241763879334
silence 0.00018382771444
learned 0.000135086578791
congratulations 4.28784782348e-05
natural 0.0
babies 0.0
mission 0.0
surprising 0.0
reference 0.000263334975962
forgotten 5.78776892561e-05
setting 5.52307152952e-05
appeared 0.0
reminds 0.00011014228039
fantastic 9.17969792202e-05
loving 9.17969792202e-05
complete 0.0
daniel 0.0
rewarding 0.0
nearly 0.000102275204129
spirit 0.0
launched 0.0
finding 4.75672715371e-05
stories 0.000252440769238
including 4.32286788783e-05
wouldn 0.000377638327385
choice 0.000249051198936
offended 0.0
conversation 0.000473058049545
disrespectful 0.0
making 0.000543218930222
expect 0.000186639059164
traits 0.0
discussion 0.000226789199688
believes 0.0
response 0.000137319161463
brings 0.0
seasons 0.000146964833552
anytime 6.39857952037e-05
protected 0.0
location 6.10894133342e-05
needed 0.00020754266578
seriously 0.000429948599978
emergency 0.0
justify 0.0
spending 9.67248828809e-05
groups 0.0
condition 0.0
childhood 6.33889159099e-05
modern 5.60386132612e-05
welcome 0.000196639244055
moments 0.0
totally 0.000314343448001
running 0.000326730628607
strong 4.0077189927e-05
respond 0.000293717139909
message 4.12848509899e-05
coming 0.00104763650829
thankful 0.0
issues 0.000232021693674
challenge 4.26467595365e-05
intolerance 0.0
happen 0.000396472198701
giving 0.000235967092866
turkey 0.000113394599844
excellent 0.000253542133965
limits 0.0
contractors 0.0
common 0.00024047782581
pressed 0.0
healthcare 7.55888909016e-05
benefits 6.10894133342e-05
situation 0.000152552870995
workers 0.000194388693763
company 4.40583533823e-05
savings 0.0
health 0.00018359395844
insurance 0.000268466527496
change 0.000350154719836
silver 0.00012717370897
august 0.0
crying 0.000122551809627
mental 0.0
carrier 0.0
decide 9.645754647e-05
happened 0.000532372535773
parking 0.000152818701519
demand 0.000153845174369
sacrifice 0.0
personal 4.23017625381e-05
rewards 0.0
beyond 8.6927838318e-05
contributing 0.0
passion 0.0
question 0.000914348102457
doctor 0.000119257958744
sacrifices 0.0
respected 8.50443160126e-05
losing 0.000527590954708
strain 0.0
respect 8.50628368932e-05
shouldn 0.000465318410149
career 0.000406367120973
visited 0.0
reason 0.000696179469857
simply 4.86311710413e-05
audience 0.000376723826462
sacrificed 0.0
employees 7.45213223138e-05
accounts 0.0
attacked 0.0
involved 4.52753375451e-05
extreme 6.73346431943e-05
valuable 0.0
knocked 0.0
reality 4.62772551822e-05
mention 0.000191851256258
without 0.000313775798835
problems 0.000191851256258
timing 6.91244145231e-05
described 7.47854660493e-05
pattern 0.000267134215743
online 0.0
background 0.0
buying 5.27532673804e-05
called 0.000547629456873
scientists 0.0
checked 0.000165692145886
heading 4.62772551822e-05
paying 0.000303398517812
planning 5.05664196354e-05
opposite 0.000127571621486
through 0.0
reached 0.000173120525121
changing 0.000190794681315
explains 0.000104611798622
harder 5.41272664016e-05
demands 0.0
silent 0.0
speaking 0.000267243384425
november 0.0
ordinary 0.0
number 0.000279031254004
stunning 0.0
atlantic 0.0
stupid 0.000703654463221
personality 0.0
grandparents 0.0
unless 0.000239814070322
calling 0.000163365314304
painting 0.0
focused 0.000126383969321
ridiculous 0.000268319124252
package 0.000209452535948
rooted 0.0
option 0.000169099665341
knowing 0.000161453068484
former 0.000293410679312
actual 0.000103434683703
tracked 0.0
suffers 0.0
schedule 6.03523071049e-05
friday 0.000197170066158
failure 6.26071336237e-05
achieve 0.0
winner 0.000302600752148
doctors 0.0
becomes 0.00011014228039
directly 0.0
quality 0.000150851877618
tearing 0.0
father 4.42987076147e-05
wishes 0.0
collar 0.0
caring 0.00015620875355
ground 0.000151274795102
matter 0.000626002737109
strategy 0.0
themselves 0.000271984579569
asking 0.000329387943258
usually 0.000414909153053
thankfully 8.79120653192e-05
reacts 0.0
period 0.000174147883339
parents 0.000186639059164
balance 0.0
resist 0.000147479080055
mobile 0.0
computer 6.01702036771e-05
reminded 6.75538897128e-05
impressed 0.000176756773378
dinner 0.000128984579993
suffering 0.0
single 0.000320617519416
parent 0.000142484197754
approved 0.0
energy 4.62772551822e-05
preview 5.53909511639e-05
meltdown 0.000101081621382
remind 5.41272664016e-05
emotional 5.60386132612e-05
sounded 0.0
status 5.85687238159e-05
update 4.53991677531e-05
outage 0.0
customers 8.40214307221e-05
holding 4.6024333321e-05
causes 0.0
eating 4.86311710413e-05
picked 0.00053346230265
missing 4.15085331561e-05
surprise 8.32417219532e-05
officially 9.07983355063e-05
global 0.0
follow 0.00023469833866
opinion 0.000405667414344
faster 0.0
backwards 8.36863904733e-05
design 0.0
website 0.0
widely 0.0
origin 0.0
breaks 0.0
allows 0.0
promoting 0.0
volunteer 0.0
convince 0.0
negative 0.0
official 8.03708661882e-05
jersey 0.000196246184926
mistake 0.000215270757978
fixing 0.000155062157556
translated 0.0
ginger 0.0
peaceful 0.0
thinks 9.07983355063e-05
hospital 5.66972999221e-05
lauren 0.0
easier 0.000158259802141
excluded 0.0
successful 0.00015961760383
leadership 6.09038163022e-05
agrees 7.64093507593e-05
decline 8.50443160126e-05
turnout 0.0
showed 0.000146705339656
trumps 9.14146774514e-05
circle 0.0
engage 7.75310787779e-05
suited 0.0
experienced 6.77743855059e-05
interested 0.000100007091219
effect 0.0
success 0.0
ladies 0.0
dreams 0.0
protect 4.9864097145e-05
explanation 0.000139170194856
occasion 0.0
medication 0.000122088816931
planet 0.0
detached 0.0
essence 0.0
control 0.000217319595795
happier 0.0
likely 0.00010402100328
coincidence 0.0
cancel 8.14189775478e-05
project 4.3938733791e-05
laying 0.0
lesson 5.41272664016e-05
requires 7.53192249531e-05
healthy 5.27532673804e-05
treating 7.399838318e-05
opening 4.23017625381e-05
statement 0.000151274795102
enjoyed 0.000138451762847
animal 5.839480484e-05
nervous 6.39857952037e-05
pounds 0.0
wonder 4.2187443675e-05
matters 0.000153412806194
shared 0.0
somehow 0.000188403310465
benefit 9.75324778333e-05
terrible 0.000694213782841
continues 4.74363174121e-05
improve 0.0
equally 0.000146964833552
appointment 0.0
session 0.0
routine 7.89805705918e-05
exciting 0.0
corner 0.000111103706592
imagination 0.0
decides 0.0
cheering 0.0
spring 0.0
fallen 0.0
frequently 0.0
places 9.28086774696e-05
thousands 0.000114061792028
informed 0.0
typical 0.0
continue 4.49062068573e-05
attend 0.0
excuse 5.63665551137e-05
settle 0.0
female 0.000103727288263
recovery 0.0
treasured 0.0
grandma 0.000328213469121
closer 0.0
beginning 9.78035597707e-05
everywhere 4.64043387348e-05
scenes 0.000148760096323
bought 0.000142701814611
multiple 0.000176756773378
slogan 0.0
wishing 0.000112733110227
covered 0.000201699726803
remove 0.0
choices 0.000125992101071
dealing 0.000202661669138
teacher 0.000174147883339
training 0.000201699726803
passing 0.000105207138589
stopping 0.0
become 0.000203107295973
spread 0.0
season 0.000343027825879
putting 0.00020420664288
weight 0.0
quietly 0.0
necessity 0.0
knocks 0.0
effects 0.0
returns 0.000104315837214
expected 5.57134272551e-05
resources 7.64093507593e-05
bucket 7.32269907198e-05
struggling 0.000134669286389
register 0.0
promotion 0.0
solution 0.000193776076399
manage 0.0
transition 0.0
gained 0.0
define 0.0
somebody 0.000754640827804
contract 0.000134669286389
ignorant 0.000167372780947
managers 0.0
credit 0.000287776884386
brothers 5.9628979372e-05
grandkids 0.0
computers 0.0
physical 0.0
series 0.00021150881269
offensive 0.000211569750636
fighting 0.0
donald 5.58756786752e-05
mexico 0.0
sandra 0.0
police 0.000351004488866
represent 6.58337439905e-05
president 0.000648430183175
talking 0.0007021996561
america 0.000745137548148
michigan 0.000235182727806
everybody 0.000719442210966
judgment 0.000276714140881
carolina 0.000214454140526
amount 5.45963255629e-05
houston 6.62566652165e-05
everyday 5.52307152952e-05
michael 0.000219693668955
protecting 0.0
providing 0.0
attitude 0.000137792227049
million 0.000367571957183
election 0.000107327649701
honesty 0.0
targeting 0.0
telling 0.000265070063327
correct 0.000200573993638
attack 0.000150430495228
elementary 0.000178089477162
americans 5.41272664016e-05
killed 0.0
horrible 0.0
salute 8.07948203553e-05
coverage 5.27532673804e-05
united 0.000705949043811
college 0.000534942881454
refuse 0.0
preach 0.0
hillary 6.95850974282e-05
clinton 0.000254347417939
presidency 0.000168042861444
throws 0.0
manning 0.000176571902774
american 0.000247709105939
deserved 0.000237800961815
humble 7.17288588423e-05
remain 5.47539506566e-05
founder 0.0
illegal 0.0
arizona 0.0
opinions 0.0
speeches 8.3354226142e-05
scared 0.0
salary 0.0
pieces 0.000115073490277
taught 0.0
thompson 0.0
straight 0.000431115928374
blocking 0.0
answers 0.0
created 0.000187152451435
record 0.000121864377584
stamina 0.000123931875114
weapon 0.0
bottom 5.21579186069e-05
athletes 0.00119815596196
registered 0.0
minnesota 0.0
committed 0.000122551809627
journey 5.05664196354e-05
snapchat 0.0
peoples 0.0
disrespect 0.000738562636711
brother 4.74363174121e-05
prayers 6.09038163022e-05
boston 0.000168606710371
korean 0.0
church 0.000590952204682
advantage 0.00013293974371
motivation 0.0
honestly 0.000333311119776
defeat 0.0
lifetime 0.000117486855964
captain 0.000132089253679
retired 0.000157961141184
country 0.000241112598565
ending 0.0
dressing 7.55888909016e-05
finish 4.78305168176e-05
ranked 0.000172903262714
employee 0.0
university 5.57134272551e-05
dreamed 0.0
prayer 0.0
nominated 0.0
responds 7.8394242602e-05
national 0.000210367307698
reform 7.69661503944e-05
shooting 0.000340418197289
cancer 0.0
deserve 0.000333890692302
mother 0.000346768962115
creating 0.000214042278292
powerful 4.74363174121e-05
wisdom 0.0
breaking 0.000209232497788
dollars 0.0
questions 3.98616077148e-05
racist 0.000560410646906
charged 0.0
soldiers 0.0
performance 9.00577191942e-05
reading 0.00012385455297
denver 0.0
graphic 0.0
garner 0.0
create 9.00577191942e-05
jordan 0.000203323156518
admire 0.000143949108631
nobody 0.00042928803296
government 5.82216640277e-05
politics 0.00137677850487
blessing 8.23745052809e-05
wrestling 9.48187968772e-05
charities 0.0
donate 0.0
sample 0.0
bringing 0.000131101794681
deserves 5.17173418515e-05
regret 0.0
victim 0.0
according 5.15715906171e-05
threat 5.78776892561e-05
heaven 0.0
heroin 0.000118646824337
honest 0.000338537090083
became 0.000194524684165
decision 0.000145489718905
counting 0.00011046143059
signing 0.0
embrace 6.79961448922e-05
pressure 0.00010580709364
celebrities 0.0
facebook 8.32417219532e-05
kardashian 0.000122999374401
divided 0.0
lawyer 0.0
lebron 0.00117677701034
campaign 0.0
determine 0.0
whether 0.000245871472206
praise 0.000132089253679
defined 8.47003412411e-05
proposes 0.0
discover 0.0
factory 0.0
arrested 0.0
estate 0.0
proposed 0.0
comments 0.000284617904472
teenage 0.0
wounded 0.0
endorsement 0.0
williams 0.000124061980741
custom 0.0
troops 0.0
singer 0.0
future 0.000200385949635
struggled 0.0
sister 5.23058993111e-05
sabotage 0.0
athlete 0.000166708452284
warrior 0.0
cheating 0.0
voting 4.79628140644e-05
succeed 7.29732396007e-05
religion 0.0
century 0.0
serving 0.0
because 0.00044830890609
cleveland 0.00023006024739
hiding 0.0
breath 0.0
choosing 0.0
lawrence 0.0
instagram 0.0
opponent 0.0
detroit 0.00101110547633
honored 5.39721683703e-05
nonsense 7.2721141595e-05
lifting 0.0
proven 8.36863904733e-05
talent 0.000259318220658
knocking 0.0
russian 0.0
brains 0.0
oakland 0.000412928010977
regardless 0.000206007454628
skills 0.0
citizens 6.6469871855e-05
california 0.0
commitment 0.0
seconds 5.201050164e-05
seeking 0.0
threatening 0.0
listen 0.000562596063318
whatever 0.000267972369143
mexicans 0.0
satisfied 0.000211017896203
fought 6.29960505355e-05
compete 0.0
injured 0.0
billion 5.57134272551e-05
ceiling 0.0
absolute 0.0
appearance 5.98085477082e-05
bigsean 0.0
handle 0.000152125280379
promise 0.000138451762847
nightclub 0.0
hosting 0.000101988028237
actors 7.89805705918e-05
generation 5.33579188542e-05
criminal 0.000297035877588
tuesday 0.000132535031663
ronald 0.0
locker 0.00026152487727
struggle 0.00012070461421
degree 6.93540704315e-05
entering 0.0
leader 0.000202833707172
pageant 0.0
toughest 0.0
character 0.00020804200656
mirror 0.0
interview 0.000434945166855
whistle 0.0
obviously 0.000436770604503
battle 0.0
motivate 0.0
destroy 6.75538897128e-05
relentless 0.0
winning 0.000332068265248
charlotte 0.0
accomplished 0.0
stepped 0.0
defense 0.000936211967905
appeal 0.000139170194856
causing 0.0
arabia 0.0
shipped 0.0
society 0.000107327649701
officers 8.23745052809e-05
brooklyn 0.0
marked 9.90444717231e-05
incredible 0.000293718699078
poster 0.0
wealthy 0.0
memorable 0.000160972953671
officer 0.0
minute 0.000306736379793
luther 0.0
foreign 0.00025755556652
pregnant 0.0
champions 0.0
virginia 7.75310787779e-05
tackle 7.22218197381e-05
unarmed 0.0
orange 0.0
policy 0.000228123584056
comedy 0.000182157315535
reminder 0.0
evidence 0.000115413683414
lighten 0.0
presidents 0.0
kicked 0.0
sticker 0.0
accused 0.000384830751972
intentions 0.0
facing 0.000127971590407
freedom 0.000162381799205
actions 0.000132089253679
debating 0.000172189950623
outcome 0.0
utterly 0.0
mississippi 0.000219695081521
clearly 0.000788980396576
download 0.000164736661307
sidelines 0.0
invite 0.00011014228039
legally 0.0
central 5.12817247898e-05
washington 0.000308558317757
veteran 0.0
division 0.000142969427018
veterans 0.0
stronger 6.18408331968e-05
promised 0.0
worried 0.000112404473581
security 0.000154714771851
immediately 0.000162848965715
television 0.000136887025923
entitled 0.000253078191371
racism 0.00090061710264
highest 0.000164736661307
approve 0.0
turning 0.0
legacy 6.16516058906e-05
ignore 0.00011142685451
choked 0.000137331694443
backing 8.04864768354e-05
helping 8.55248908865e-05
collector 0.0
willing 0.000118190440936
basically 0.000510275699299
return 8.59897199955e-05
unacceptable 8.40214307221e-05
feelings 0.0
network 0.000217131954286
language 0.0
invest 7.75310787779e-05
coward 0.0
schools 0.000165692145886
patients 0.0
foster 8.04864768354e-05
children 8.55248908865e-05
nation 0.000146705339656
review 0.0
between 8.53913758009e-05
knowledge 0.0
begins 0.0
tenure 0.0
faithful 0.0
highlights 0.000351412342896
shoulder 7.72475836858e-05
produced 0.0
consider 0.000154714771851
shattered 0.0
latest 0.000336587692317
beyonce 0.0
signed 0.000300149347644
millionaire 0.0
shelter 0.0
charity 5.42829885715e-05
germany 0.0
advance 0.0
proved 0.0
married 0.000517830706248
millions 0.000263017846472
blessings 0.0
indonesia 0.0
fights 0.0
dollar 0.0
rigged 0.0
conduct 0.0
johnson 0.000276153576476
howard 7.1242098877e-05
turned 8.52935190729e-05
criticism 0.000216665459214
stomach 8.07948203553e-05
upgrades 0.0
jackie 9.61767224165e-05
relevant 0.000138248829046
charge 0.000215270757978
ticket 0.0
steady 9.35069116848e-05
indian 0.0
turner 0.0
sanders 0.0
includes 0.0
survivor 0.0
dealers 0.0
collection 0.000160073756563
against 0.0
joyner 0.0
impact 5.201050164e-05
families 0.0
welcoming 0.0
hitting 0.000207454576527
announced 4.73058049545e-05
granted 0.000149042644628
decided 0.0
itself 0.0
selfish 9.66401639677e-05
mexican 0.0
respects 0.0
guarantee 7.6133926771e-05
beliefs 0.000273028411603
citizen 6.98175119827e-05
states 9.80755945464e-05
denied 0.0
drought 0.0
memorial 0.0
decades 6.24141311937e-05
trayvon 0.0
landed 0.0
pastor 0.000363597581048
ultimate 5.63665551137e-05
weekends 9.0608462728e-05
episode 0.000185617354939
spikes 0.0
engaged 0.000166708452284
financial 6.84435129615e-05
payments 0.0
tolerant 0.0
symposium 0.0
kansas 0.000466899996622
agreement 0.000215923662946
source 0.000163788976689
backbone 0.0
dismiss 0.0
midnight 0.0
homework 8.6451631357e-05
joining 4.57730538212e-05
reasons 0.00018110135018
talked 0.000342312459197
released 0.0
reaching 7.1242098877e-05
release 0.0
existing 0.000156788485204
models 0.0
pageants 0.0
helmets 0.0
scheme 0.0
scholarship 0.0
stacked 0.0
speech 9.33195295819e-05
standing 0.000133258340676
higher 0.0
purple 0.000289882701213
justice 0.000156917697933
served 5.87434279818e-05
speaks 0.000112404473581
backup 0.000197103021655
allegedly 0.0
purchase 0.0
millionaires 0.0
consideration 9.90444717231e-05
strength 0.0
incredibly 5.49122204355e-05
private 0.0
ignored 7.4258969397e-05
neighbors 0.0
apologizes 0.0
beings 0.0
minimum 0.0
direction 0.0
enemies 0.0
exclusive 4.61505876157e-05
prison 0.00027467660617
himself 0.0
contributes 0.0
investigation 0.0
teaching 0.0
disgusting 7.6133926771e-05
philly 0.0
rights 5.24544480809e-05
cheers 6.01702036771e-05
maintain 0.0
overcome 0.0
flawless 9.954379358e-05
unique 0.0
neighborhood 8.14189775478e-05
dating 7.69661503944e-05
handed 0.000372606611569
victory 5.55518532959e-05
lifted 0.0
greatness 0.0
muslim 7.32269907198e-05
terrorist 0.0
productive 7.72475836858e-05
tribute 0.000160073756563
deadspin 0.0
threatened 0.000166708452284
horror 7.72475836858e-05
warning 5.62022367904e-05
convention 7.47854660493e-05
understanding 0.000112077226522
action 8.34670316145e-05
having 0.0
afghan 0.0
announces 0.0
commencement 0.0
speaker 6.47962312543e-05
graduation 0.0
honors 0.0
produce 0.0
apologize 0.000143457717685
insult 8.20533672801e-05
continued 0.0
letter 4.79628140644e-05
discussed 0.000624186633884
therapy 0.0
untrue 0.0
written 0.00023718158706
existence 8.26983306602e-05
essential 0.0
results 0.000203403827993
initiative 0.0
disease 0.0
marching 0.0
suggest 0.000180510611031
georgetakei 0.0
ensure 0.0
democrats 0.0
marched 0.0
foundation 0.0
access 9.56610336351e-05
writes 0.0
student 5.58756786752e-05
colorado 0.0
medical 6.39857952037e-05
medicine 0.0
tremendous 0.000146964833552
nytimes 0.0
kindness 0.0
public 0.000496670925634
cannot 8.66922405288e-05
reveals 0.0
invented 7.2721141595e-05
threatens 8.98187025205e-05
candidate 0.000123681666394
persistence 0.0
sexual 0.000204657547313
illustration 0.0
measure 0.0
compared 6.7116631874e-05
headline 0.000243615265209
reflect 7.17288588423e-05
answering 0.0
streaming 0.0
leaders 0.0
supreme 0.000134233263748
nominee 0.000157372592233
immigration 0.0
policies 7.05232502121e-05
laundering 0.0
administration 7.34824167759e-05
defend 0.000254347417939
communicating 0.0
excitement 0.0
funding 6.20309903706e-05
climate 0.0
transfer 0.0
conspiracy 7.668674913e-05
activist 0.0
horrifying 0.0
freely 0.0
retreat 0.0
daughters 0.0
compelling 0.000179637405041
platform 0.0
hamilton 0.0
futures 0.0
huffingtonpost 0.0
headlines 0.000143457717685
january 0.0
grants 0.0
unprecedented 0.0
relationships 0.000162211281113
philadelphia 0.0
diversity 0.000143457717685
funded 0.000143457717685
secure 0.0
income 0.0
universal 6.86691515426e-05
contributed 0.0
hurricane 0.0
fundamental 0.0
countries 0.0
linked 7.24706753032e-05
african 0.0
improved 0.0
unclear 0.0
provide 0.0
livestream 0.0
addresses 0.0
enhance 0.0
companies 0.00019316667489
proposal 7.2721141595e-05
potential 0.000107327649701
discrimination 9.0608462728e-05
connected 0.0
drives 0.0
attending 0.0
filled 0.0
education 0.000209223597245
addressed 0.000268289356826
mentioned 0.000228795114949
famous 0.0
resistance 0.0
exists 0.0
demonstrated 0.0
officials 0.0
instructions 0.0
transmission 0.0
olympics 0.0
ability 0.000169594722471
political 0.000612847699806
director 9.69931459364e-05
contains 0.0
sponsored 0.0
autism 0.0
previously 0.0
prevent 0.0
capacity 0.0
donations 0.0
william 0.0
editors 0.0
passionate 0.0
solving 0.0
innate 0.0
treatment 0.000121807632604
critical 0.0
feeding 0.0
preparing 0.0
depend 0.0
capable 0.0
bridge 0.0
systematically 0.0
becoming 0.0
embraced 0.0
literacy 0.0
lawyers 0.0
stigma 0.0
malaria 0.0
standard 5.62022367904e-05
hiring 0.0
remains 0.000180510611031
fellow 0.0
defending 0.00013293974371
quotes 0.0
pushes 0.0
luxury 0.0
admitted 0.0
colleagues 0.000284968395508
failed 0.000115413683414
independent 5.99889531958e-05
politically 8.57415764444e-05
driven 0.0
agenda 7.00513308633e-05
result 5.60386132612e-05
implications 0.0
insider 0.0
pakistan 0.0
solutions 0.0
trusts 0.0
indiana 0.000233449998311
filling 7.92771000658e-05
humility 0.0
clicks 0.0
disagree 0.000180510611031
claims 0.0
editorial 0.0
mistakes 0.000138708140863
offered 0.0
passionately 0.0
justification 0.0
inspiring 0.0
counter 7.34824167759e-05
shaped 0.0
retroviral 0.0
majority 0.000326039521802
approach 0.0
nature 0.000168115839784
concern 0.0
server 0.0
berniesanders 0.0
shameful 0.0
experiment 0.0
massive 0.0
promises 7.399838318e-05
colored 0.0
consequences 0.00022515427566
whatsoever 0.0
proposals 0.0
guesses 0.0
bernie 0.0
interviewed 6.26071336237e-05
pregnancy 0.0
secretary 0.0
measures 8.53913758009e-05
vastly 0.000115486137167
reduce 0.0
compassionate 0.0
distinguished 0.0
dangerous 0.000104315837214
influence 6.35868544848e-05
letters 7.19745543153e-05
implicit 0.0
saving 0.0
revelations 0.0
incident 0.000160361141678
universe 6.24141311937e-05
victims 0.000112733110227
milestone 0.0
perfectly 5.90952204682e-05
exercise 6.77743855059e-05
receive 0.000109507901313
reputation 0.0
economics 0.0
disclosure 0.0
receives 0.0
terrific 0.000205330538885
collected 0.0
campus 7.69661503944e-05
founders 0.0
profiling 0.0
systemic 0.0
studying 0.0
necessary 5.98085477082e-05
inaccurate 0.000301686576038
breast 8.68116051808e-05
debate 0.000100007091219
suddenly 7.14847135088e-05
conflict 0.0
interest 0.0
meanwhile 0.000477534277063
indefensible 0.0
recall 0.00014799676636
rating 0.000330793322641
nominate 0.0
outstanding 6.66842596998e-05
devastating 0.0
illness 0.0
troubling 0.0
romney 0.0
appears 0.0
breathe 7.58604492582e-05
abroad 0.0
spanish 0.0
profit 7.58604492582e-05
reviews 6.98175119827e-05
republican 0.00023006024739
presidential 0.0
candidates 0.0
politicians 7.07613857759e-05
identified 0.0
epidemic 0.0
displaced 0.0
greater 0.0
absurd 8.36863904733e-05
deadline 0.0
height 0.0
sisters 0.00022199514954
nuclear 6.86691515426e-05
stress 0.0
leading 4.9311274786e-05
restored 0.0
conditions 7.29732396007e-05
however 6.16516058906e-05
achieved 0.0
member 0.000182592093273
examples 8.26983306602e-05
diverse 0.0
suicide 7.668674913e-05
contributions 0.0
largest 0.0
increase 0.0
targeted 0.0
regulators 0.0
provided 0.0
element 0.00019908758716
effectively 0.0
population 0.0
rising 0.0
indication 0.0
versus 0.0
believed 0.0
dynamic 0.0
invasion 0.0
primary 0.0
provides 0.0
environment 0.0
confirmed 0.0
behavior 0.000687684156834
introduced 0.0
contain 0.0
communities 0.0
worldwide 0.0
responsible 0.0
household 0.0
apparent 0.0
munich 0.0
alternate 0.0
expressed 0.0
movement 0.0
declared 0.0
hundreds 0.000128373637099
information 0.000157810707883
easily 0.000114397557474
untreated 0.0
october 0.0
quantify 0.0
scales 0.0
investigating 0.0
innovation 0.0
perspective 0.000114734785956
rivals 0.0
interests 0.0
toledo 0.0
extraordinary 6.56240041437e-05
gingrich 0.0
describing 0.0
eliminate 0.0
obligation 0.0
gender 0.000284003983491
committee 6.35868544848e-05
preventing 0.0
numerous 0.0
unusual 0.0
improving 0.0
practices 8.94297856086e-05
cemetery 0.0
questioned 0.0
affecting 0.0
ferrell 0.0
genius 5.15715906171e-05
warren 0.000268289356826
organizers 0.0
regularly 0.0
ceilings 0.0
sexism 0.0
prepared 0.000117486855964
burden 9.66401639677e-05
foreignpolicy 0.0
county 7.17288588423e-05
uniform 0.0
newyorker 0.0
anthony 0.0
reflecting 0.0
grandson 0.0
banning 0.0
considered 0.000481361629416
chosen 0.0
outright 0.0
screenings 0.0
naming 0.0
conventions 0.0
reproductive 0.0
ignores 0.0
focusing 0.0
sensible 0.0
concluded 0.0
performed 8.07948203553e-05
divide 0.000167372780947
dismissed 0.0
compromise 9.35069116848e-05
crucial 0.0
weakness 0.0
barrier 0.0
effective 0.000193776076399
wealth 0.0
underway 0.0
israel 0.0
overwhelming 0.0
assault 7.4258969397e-05
citing 0.0
protection 6.73346431943e-05
prisoners 0.0
photographing 0.0
traveled 0.000107928292541
holder 0.0
seemed 6.98175119827e-05
concludes 0.0
determination 0.0
tested 0.0
lacking 0.0
machine 0.000104611798622
honoring 0.0
contrary 0.0
tolerance 0.0
michelle 7.47854660493e-05
assumed 0.0
programs 0.0
closely 8.01805708392e-05
politico 0.0
inspire 6.60446268394e-05
lyrics 0.0
judges 0.0
federal 0.0
maryjblige 0.0
tuning 0.0
striving 0.0
poland 0.0
september 0.0
manchester 0.0
checks 0.00022515427566
remarkable 0.0
mharrisperry 0.0
immoral 0.000123931875114
fiction 7.78166661037e-05
process 4.94487417405e-05
anxious 0.0
destructive 0.0
nmaahc 0.0
performances 0.0
whitehouse 0.0
flotus 0.0
crisis 0.000178886938116
marriage 0.0
emotions 0.000163469744841
confidence 6.07191051782e-05
voters 6.6469871855e-05
comparing 0.000171483152889
oldest 7.81043767748e-05
empirefox 0.0
chancetherapper 0.000136019809251
songwriter 0.0
literally 0.000287776884386
onstage 0.000111182049109
believing 7.8394242602e-05
hillaryclinton 0.0
citizenship 0.0
counted 0.0
hillaryfornc 0.0
raleigh 0.000247863750228
discusses 0.0
johnlegend 0.0
apprentice 0.0
acknowledge 0.0
conservative 7.19745543153e-05
economists 0.0
buzzfeed 0.0
puppet 0.0
hombres 0.0
republic 0.0
homecoming 0.0
andersoncooper 0.0
muslims 0.0
katyperry 0.0
bragging 0.0
treats 0.0
qualified 0.0
islamophobia 0.0
debates 0.0
endorsements 0.0
counts 0.0
theellenshow 0.0
festival 0.0
encouraged 0.0
stylish 0.0
disregard 0.0
jtimberlake 0.0
backstage 6.98175119827e-05
barack 0.0
joined 0.000143096010987
terrorism 0.0
pushing 0.000124061980741
hopeful 0.000173623210362
mentions 0.00014544228319
teamed 0.000102683101243
exclusively 0.0
aliciakeys 0.0
kingjames 0.0
muhammad 0.00019908758716
refused 0.0
characters 0.000309204165984
express 0.000239955812783
gratitude 0.0
ugliest 0.0
throughout 6.14632994022e-05
awkward 0.000193776076399
shining 0.0
fighter 0.0
accepting 7.10009958728e-05
applemusic 0.0
reveal 5.6531574157e-05
stands 5.38176894945e-05
native 0.0
announce 4.50288595971e-05
dorothy 0.0
haters 0.000245204617261
jessetyler 0.0
shondarhimes 0.0
lavernecox 0.0
broadway 0.0
disabilities 0.0
adoption 0.0
touched 0.0
corruption 0.0
violence 0.000170591215465
leedanielsent 0.0
delivered 0.0
jasmine 0.0
independence 0.0
square 0.000104908896162
alongside 0.0
privilege 0.000215186576527
secondary 0.0
staggering 0.0
seventh 0.0
tennis 0.000170782751602
sweeping 0.0
footage 0.00019016674773
overseas 0.0
spoiler 0.000162837955096
theirs 0.000226548566684
offering 0.0
construction 0.0
spends 0.0
detail 0.000142484197754
cabinet 0.0
earnings 0.0
pleased 0.0
gravity 0.0
statements 8.23745052809e-05
decade 0.000302676357725
bigotry 0.0
belong 8.17348724205e-05
trillion 0.0
backed 0.0
operations 0.0
breakthroughs 0.0
values 0.0
senator 0.0
removing 0.0
wondered 0.000224356398148
introduces 0.0
makers 0.0
measured 0.0
pillars 0.0
instrument 0.0
shares 0.0
individual 0.0
applications 0.0
prepares 0.0
ceremony 0.0
expanding 0.0
merger 0.0
newspaper 0.000144941350606
detailed 0.0
tuition 0.0
childcare 0.0
thoroughly 0.0
adviser 0.0
matthew 0.0
affected 0.0
newspapers 8.75417571632e-05
corporate 8.20533672801e-05
economy 0.0001333685194
presenting 0.0
spoken 6.47962312543e-05
richer 0.0
during 0.0
combat 8.04864768354e-05
touting 0.0
competitive 0.0
prominence 0.0
trifecta 0.000141557369289
fashioned 0.0
boasts 0.0
ripped 0.0
belief 0.0
heroes 5.90952204682e-05
disturbing 8.20533672801e-05
russians 0.0
intelligence 0.0
deepest 0.0
regrets 0.0
complicated 0.000139170194856
internships 0.000424672107867
adults 7.4258969397e-05
describe 0.0
equality 0.0
announcement 0.0
interfere 0.0
terrifying 0.0
nationwide 0.0
manager 0.0
questionable 0.0
enhanced 0.0
services 6.66842596998e-05
delighted 0.0
golfer 0.0
regarding 7.17288588423e-05
teachers 0.0
suggests 0.0
phrase 0.0
immigrants 8.11056405565e-05
revolution 0.0
universities 0.0
twelve 0.0
principle 0.0
releases 0.0
malarkey 0.0
library 0.000218919718802
advisor 0.0
deadlines 0.0
encouraging 0.0
circuit 0.0
humanitarian 9.0608462728e-05
reliant 0.0
assistance 0.0
swimmer 0.0
hinges 0.0
concrete 0.0
accepted 0.0
confronted 0.0
comprehensive 0.0
pushed 0.000150638449906
unending 0.0
occasionally 0.0
guardia 0.0
donation 6.56240041437e-05
nomination 0.0
paintings 0.0
significantly 0.0
investment 7.47854660493e-05
terror 0.0
worship 0.000113997611075
represents 0.0
attempting 9.35069116848e-05
bullying 0.0
astonishing 0.0
endorse 0.0
urgent 0.0
forced 0.000118900480908
addressing 8.26983306602e-05
script 0.000148517938794
hundred 0.0
command 0.0
qualifies 0.0
stumbled 0.0
territory 0.000175824130638
balloons 0.0
objects 0.0
latimes 0.0
pandemics 0.0
separating 0.0
pentagon 0.0
threats 0.0
prisons 0.0
approaching 0.0
generous 0.0
roughly 0.0
commands 0.0
uncovered 0.0
destroying 0.0
opposition 0.0
addiction 0.0
manhattan 0.0
ridiculously 9.48187968772e-05
awarded 0.0
greeted 0.0
forces 6.29960505355e-05
confirm 0.0
dealings 0.0
nations 0.0
equivalent 0.000163469744841
sexist 0.0
yahoonews 0.0
bloody 0.0
boundaries 0.0
exceptionally 0.0
cannon 0.0
feared 0.0
significance 0.0
recommendation 9.39392838589e-05
chapters 0.0
racial 0.000455047352671
obvious 0.000262496016575
statistics 0.0
military 6.03523071049e-05
adopted 0.0
housing 0.0
clearer 0.000101608118034
calculator 0.0
underwater 0.0
guided 0.0
rescue 6.91244145231e-05
deserving 9.26563959755e-05
advised 0.0
ordered 0.0
unions 0.0
avoiding 8.57415764444e-05
alicia 0.0
preserve 0.0
balloon 0.0
economic 7.07613857759e-05
recipe 0.0
awaits 0.0
squarely 0.0
radical 0.0
banter 0.0
spaces 0.0
carnival 0.0
theories 9.57187655095e-05
bombing 0.0
products 0.0
margaret 0.0
gathered 0.0
taxpayers 0.000309696008233
admits 0.0
opposed 0.000155062157556
pressing 0.0
russia 0.0
lincoln 0.0
intelligent 0.0
momentum 0.0
olympic 0.0
magnificent 0.0
heritage 0.0
beijing 0.0
beloved 8.36863904733e-05
dummies 0.0
pursuit 9.52661649465e-05
carries 0.0
phelps 0.000123931875114
medals 0.0
gymnastics 0.0001335223681
summed 0.0
accuse 0.000102683101243
symbol 0.0
dignity 0.0
slogans 0.000127904273367
priorities 8.60949753115e-05
applied 0.0
progressive 0.0
activists 0.0
elected 0.0
brussels 0.0
subscribe 0.000152267853542
elections 0.0
unites 0.0
complacency 0.0
imperative 0.0
doorsteps 0.0
voices 0.0
blatant 0.0
democracy 0.0
disastrous 0.0
rebuild 0.0
accuses 0.0
diplomacy 0.0
hardball 0.0
attacking 0.0
subtle 0.0
barker 0.0
sticking 0.000151720898516
openly 0.0
policing 0.0
embarrassed 8.3354226142e-05
slightest 0.0
abbott 0.0
attacks 0.0
commit 7.89805705918e-05
argued 0.0
remarks 0.0
democratic 0.0
semitic 0.0
incomes 0.0
treasury 0.0
alarming 0.0
dividing 0.0
reject 0.0
affirming 0.0
quitting 0.0
extended 0.0
reducing 0.0
proudly 0.0
inclusive 0.0
oppose 8.68116051808e-05
distinctly 0.0
urging 0.0
strengthen 0.0
deliver 6.14632994022e-05
obligations 0.0
relations 8.79120653192e-05
repeal 9.02115678949e-05
strengths 0.0
counties 0.0
weakened 0.0
reckless 0.0
prosperous 0.0
servant 0.0
secretaries 0.0
negotiator 0.0
faults 0.0
choking 0.0
executive 6.45920254664e-05
alternative 0.0
extend 0.0
republicans 0.0
embodied 0.0
preparation 0.0
terrorists 0.0
confident 0.000200699525736
weapons 0.0
unifying 0.0
outrage 8.50443160126e-05
constitutional 0.0
rental 0.0
prevail 0.000112564228429
resilient 0.0
humbled 0.0
courage 0.0
commander 0.0
respecting 0.0
enormous 0.0
aligned 0.0
consent 0.0
refusing 0.0
resentment 0.0
substance 0.0
claiming 0.0
lamont 0.0
dropping 0.000175706171448
carried 0.0
intimidated 0.0
behalf 0.0
meaningful 0.0
amendment 0.0
accepts 0.0
legislation 8.14189775478e-05
fairer 0.0
commitments 0.0
handling 0.0
proves 0.000230898451183
rhetoric 0.0
hardest 0.0
peddling 0.0
divisive 0.0
strongly 0.00023006024739
vision 0.0
investigations 0.0
repeatedly 8.71749590899e-05
records 5.87434279818e-05
madeleine 0.0
disabled 0.0
quoting 0.0
assassination 0.0
beaten 8.9044738581e-05
deeply 6.26071336237e-05
grievance 0.0
contempt 0.0
standards 0.0
fairness 0.000457073387257
dictated 0.0
consensus 0.0
reconsider 0.0
priority 0.0
rogers 0.0
freedoms 0.0
notorious 0.000121199193683
invested 0.0
propaganda 0.0
unconstitutional 0.0
condemn 0.0
concerned 0.000248888346384
praising 0.0
cheered 0.0
realdonaldtrump 0.0
despicable 0.0
straightforward 0.0
bargain 0.0
attorney 9.0608462728e-05
bedrock 0.0
optimism 0.0
belongs 0.000170088632025
truman 0.0
whichever 0.0
inappropriate 0.0
beatings 0.0
optimistic 0.0
campaigned 0.0
allies 0.0
governor 0.0
attempts 0.0
extent 9.52661649465e-05
denial 8.3354226142e-05
maximum 0.0
merely 0.0
apprenticeships 0.0
agreeing 0.0
architect 0.0
responsibility 0.000191357432229
mainstream 0.0
legitimacy 0.0
injustice 0.000100049642705
dozens 8.79120653192e-05
donnell 0.0
scenario 8.36863904733e-05
crimes 0.0
thoughtful 0.0
hypocrisy 0.0
undocumented 0.0
sexually 0.0
richest 0.0
softening 0.0
implies 0.0
infrastructure 0.0
pitching 0.000103788802379
broadband 0.0
tenants 0.000149822026386
allegations 0.0
bloomberg 0.0
insulting 9.954379358e-05
liberal 0.000507294727122
kremlin 0.0
podium 0.0
provoke 0.0
outrageous 0.0
campaigns 0.0
barriers 0.0
powell 0.0
technical 0.0
warnings 0.0
flagged 0.0
grassroots 0.0
extremist 0.0
businesses 0.0
welcomes 0.0
deputy 0.0
donating 7.00513308633e-05
continually 0.0
ourselves 0.000367296689408
fringe 0.0
politician 7.72475836858e-05
wiggins 0.0
welcomed 0.0
rallies 0.0
ballot 8.07948203553e-05
failing 6.93540704315e-05
uniting 0.0
refuses 0.0
appealing 0.0
proverb 0.0
privileges 0.0
ideals 0.0
vibrant 0.0
tarmac 0.0
residents 0.0
apprenticeship 0.0
denying 0.0
fierce 9.14146774514e-05
opponents 0.0
polling 0.0
apology 7.29732396007e-05
damning 0.0
outline 0.0
endorses 0.0
losers 0.0
insulted 0.0
equipped 0.0
battlefield 0.0
recession 0.0
endorsed 0.0
divides 0.0
describes 0.0
appointed 0.0
encourage 0.000131667487981
undermine 0.000103788802379
undermining 0.0
authority 0.0
betray 0.0
funnyordie 0.0
donated 0.000139635023965
jimmykimmellive 0.0
immigrant 9.0608462728e-05
criminals 0.0
automatically 9.61767224165e-05
schooled 0.0
elizabethforma 0.0
releasing 0.0
connects 0.0
screening 7.505142522e-05
cleaner 0.0
nowthisnews 0.0
sophiabush 0.0
chelseaclinton 0.0
stunts 0.0
truths 0.0
transparency 0.0
obamacare 0.000574312593057
nickkristof 0.0
contraception 0.0
betting 0.0
conscience 0.0
proclaimed 0.0
dispatch 0.0
advocate 0.0
profits 8.75417571632e-05
toward 0.00021015399259
guiding 0.0
senators 0.0
barber 0.0
doubled 0.0
mosque 0.0
senate 0.0
louisiana 0.0
senwarren 0.0
parenthood 0.0
organizations 0.0
generations 7.69661503944e-05
minorities 0.0
misogyny 0.000116252437594
peacefully 0.0
decency 0.0
intend 0.0
discourse 0.0
pennsylvania 0.0
katiemcgintypa 0.0
experiencing 0.0
mccain 0.0
scandal 7.47854660493e-05
constitution 0.0
sensanders 0.0
intolerable 0.0
strive 0.0
forefathers 0.0
abandon 0.0
buzzfeednews 0.0
paulkrugman 0.0
mothers 0.0
compassion 8.86634851818e-05
deeper 8.23745052809e-05
governments 0.0
activism 0.0
jamilsmith 0.0
mike_pence 0.0
elizabethbanks 0.0
empathy 0.000419708115039
audited 0.000178532706817
checkers 0.0
warming 0.0
volunteering 0.0
charitable 0.0
qualifications 0.0
workplace 0.0
granddaughter 0.0
recycled 0.0
directing 0.0
politifact 0.0
abolish 0.0
murders 0.0
reagan 9.30793172015e-05
pouring 0.0
ballots 0.0
racists 0.0
empower 0.0
tolerate 0.000113274283342
chrismurphyct 0.0
igorvolsky 0.0
outraged 0.000206464005489
exceptional 0.000277969187926
nightmares 0.0
enforcement 0.0
weaken 0.0
medicaid 0.0
humbly 0.0
newsweek 0.0
conflicts 0.0
suffer 0.0
dallasnews 0.0
bridges 0.000309696008233
lesdoggg 0.0
appalling 0.0
hatred 8.23745052809e-05
superpower 0.0
goodbye 0.0
renewable 0.0
robdelaney 0.0
motherjones 0.0
trusted 0.000280520735054
sheriff 0.0
personalized 0.0
amnesia 0.0
malala 0.0
problema 0.0
everytown 0.0
casting 0.0
employers 0.0
rudolph 0.0
packets 0.000146301699945
organization 0.0
graceful 0.0
hardworking 0.0
cherished 0.0
aggressively 0.0
founding 0.0
sacred 0.000101608118034
horrific 0.0
earned 0.000205330538885
siding 0.0
minded 9.52661649465e-05
contribute 0.0
incites 0.0
chooses 0.0
obtained 0.0
defended 0.0
champion 0.000184954817672
magazines 0.0
waited 0.0
punished 0.0
conviction 0.0
tradition 0.0
giveaways 0.0
distracted 0.0
endorsing 0.0
pathetic 0.0
ladygaga 0.0
pessimistic 0.0
highlighting 0.0
transgender 0.000110509042458
womensmarch 0.0
advisors 0.0
wrecking 0.0
hillaryforva 0.0
registration 0.0
ellemagazine 0.0
acceptance 0.0
defeated 0.0
theroot 0.0
pharrell 0.0
tumblr 0.0
nevada 0.0
illinois 0.0
massachusetts 0.0
theadvocatemag 0.0
lending 0.0
rejecting 0.0
legalize 0.0
conned 0.000307389893349
arkansas 0.000113997611075
celebratin 0.0
rubber 0.0
lenadunham 0.0
hateful 0.0
wizard 0.0
unbearable 0.0
harpersbazaarus 0.0
familia 0.0
iamwill 0.0
retweets 0.0
nominating 0.0
vietnam 0.0
laurie 0.0
claimed 0.0
rapids 0.0
devoted 0.0
casino 0.0
astounding 0.0
summon 0.0
crushed 7.89805705918e-05
louder 0.0
farmers 0.0
lin_manuel 0.0
arrangement 0.0
borrowed 0.0
mariska 0.0
purposes 0.0
dialogue 0.0
comedian 0.0
________ 0.0
lightly 0.0
defeating 0.0
jerusalem 0.0
cynical 0.0
worrying 0.0
elizabeth 0.0
insults 0.0
microphone 0.0
sleeves 0.0
theeconomist 0.0
stakes 0.0
nationally 0.0
inspect 0.0
poisoning 0.0
columbus 0.0
declaring 0.0
crushing 0.0
chucktodd 0.0
soldier 0.0
painted 0.0
warned 0.0
ohiostate 0.0
unrelated 0.000112564228429
designated 0.0
clears 0.0
congressional 0.0
confront 0.000109197157266
usatoday 9.30793172015e-05
delivers 0.0
pittsburgh 0.0
entiende 0.0
soaked 0.0
bromance 0.0
lifelong 0.0
antiques 0.0
repjohnlewis 0.0
breakers 0.0
fundraising 0.0
hispanic 0.0
defrauded 0.0
fearful 0.0
nytopinion 0.0
volume 0.0
perfecting 0.0
washingtonpost 0.0
affordable 0.0
mighty 0.0
normalizing 0.0
boasting 0.0
assaulting 0.0
disqualify 0.0
monique 0.0
jcolenc 0.0
teamusa 0.0
allysonfelix 0.0
usabasketball 0.0
ibtihaj 0.0
simone 0.0
feminism 0.0
conversion 0.0
destiny 0.0
disrespected 0.0
serenawilliams 0.0
tantrum 0.0
heinous 0.0
unconscious 0.0
accomplishments 0.0
saddened 0.0
disgrace 0.0
rodriguez 0.0
arsenal 0.0
defender 0.000205366202486
malalafund 0.0
merchandise 0.000123931875114
laundry 0.0
lesbians 0.0
cnnpolitics 0.0
nickgass 0.0
examining 0.0
monument 0.0
appeals 0.0
gracias 0.0
madame 0.0
grande 0.0
speechless 0.0
coulter 0.0
missiles 0.0
psyched 0.0
chelsea 0.0
biases 0.0
resume 9.39392838589e-05
spectator 0.0
angelina 0.0
spectacle 0.0
admiration 0.0
reaches 9.22380469604e-05
español 0.0
dreamers 0.0
mañana 0.0
bursting 0.0
undone 0.0
beyoncé 0.0
nuestra 0.0
diwali 0.0
prestigious 0.0
cynicism 0.0
disability 0.0
registering 0.0
booker 0.000117832122519
méxico 0.0
disponible 0.0
honduras 0.0
famously 0.0
overdue 0.000100049642705
equity 0.0
opioid 0.0
millennials 0.0
recommendations 8.68116051808e-05
investors 0.0
betrays 0.0
patriotism 0.0
liability 0.0
iranian 0.0
delegate 0.0
struck 0.0
millennial 0.0
dictators 0.0
graduate 0.0
analysts 0.0
victor 0.0
shrink 0.0
dictator 0.0
poised 0.0
avoided 0.0
rallying 0.0
catholic 0.0
thriving 0.0
racially 0.0
undermines 0.0
yashar 0.0
inequality 0.0
medicare 0.0
missionaries 0.0
foremost 0.0
deplorable 0.0
demonize 0.0
wikileaks 0.0
enduring 0.0
privatized 0.0
appoint 0.0
losses 0.0
jbarro 0.0
buffett 0.0
staffers 0.0
takeaway 0.0
moscow 0.0
hampshire 0.0
pandering 0.0
voxdotcom 0.0
reckoning 0.0
moines 0.0
falter 0.0
countless 0.000100562192013
democrat 9.66401639677e-05
bostonglobe 0.000121199193683
accountable 0.0
dispel 0.0
despair 0.0
persisted 0.0
disclose 0.0
tedcruz 0.0
flooding 9.954379358e-05
prejudice 0.0
towers 0.0
criticized 0.000113274283342
senatemajldr 0.0
outsider 0.0
declare 0.0
dismantle 0.0
thrive 0.0
threaten 0.0
outsourced 0.0
loophole 0.0
heerjeet 0.0
verbal 0.0
businessinsider 0.0
ukraine 0.0
vladimir 0.0
businessman 0.0
supremacist 0.0
etched 0.0
zekejmiller 0.0
momentarily 0.0
perpetrators 0.0
mocking 0.0
wrecked 0.0
identities 0.0
inhumane 0.0
disavow 0.0
hostile 0.0
muster 0.0
surrender 0.0
shatter 0.0
patriotic 0.0
rewarded 0.00012032956367
jitters 0.0
bullies 0.0
discipline 0.0
forgets 0.0
expand 0.0
apologized 0.000374662208541
tournament 0.000680354528101
grindstone 0.0
mastery 0.0
provider 0.0
steroids 0.0
jenniferjjacobs 0.0
notion 0.0
hernandez 0.000711880946022
mcuban 0.0
bullied 0.0
jebbush 0.0
discriminating 0.0
somali 0.0
hayden 0.0
limitless 0.0
implement 0.0
nydailynews 0.0001335223681
corybooker 0.0
interference 0.0
listens 0.0
preside 0.0
remembers 8.82859513872e-05
toughness 0.0
extensively 0.0
suffered 8.71749590899e-05
streep 0.0
billionaire 9.35069116848e-05
cheats 0.0
needing 0.0
percentage 0.000177326970364
insiders 0.0
binder 0.0
prescriptions 0.0
slashed 0.0
indebted 0.0
dismisses 0.0
delegates 0.0
pledged 0.0
endured 0.0
deployed 0.0
suspense 0.0
courageously 0.0
resilience 0.0
nationalists 0.0
autonomy 0.0
abandoning 0.0
canvas 0.0
blacks 0.0
pledging 0.0
elaine 0.0
methodist 0.0
candidacy 0.0
bonuses 0.0
resolve 0.0
laughable 0.0
scares 0.0
intellect 0.0
hopeless 0.0
debunked 0.0
shames 0.0
connections 0.0
tyleroakley 0.0
perplexed 0.0
ddlovato 0.0
impromptu 0.0
teenvogue 0.0
unveils 0.0
billie 0.0
prouder 0.0
sweetness 0.0
cheryl 0.0
filipino 0.0
petersburg 0.0
drastic 0.0
lifesaving 0.0
decorated 0.0
usagym 0.0
freestyle 0.0
absentee 0.0
lashes 0.0
concentration 0.0
refuge 0.0
renaissance 0.0
actively 0.0
monitoring 0.0
destined 0.0
willfully 0.0
detained 0.0
warmest 0.0
heroic 0.0
bragged 0.0
miners 0.0
shareholders 0.0
randall 0.0
excessive 0.000111182049109
geneva 0.0
corporations 0.0
unsolvable 0.0
grandchildren 0.0
discredit 0.000286150179157
enormously 0.0
frances 0.0
pillar 0.0
trillions 0.0
expansive 0.0
organize 0.0
capabilities 0.0
confederate 0.0
shakers 0.0
ambiguity 0.0
linking 0.0
pretends 0.0
wireless 0.0
inherit 0.0
paranoia 0.0
theatlantic 0.0
languages 0.0
disposable 0.000136019809251
reinforcing 0.0
integrated 0.0
optimist 0.0
pigeons 0.0
chadhgriffin 0.0
katieledecky 0.0
richards 0.0
demconvention 0.0
abcpolitics 0.0
chobani 0.0
dominiclowell 0.0
floridians 0.0
cecilerichards 0.0
clintonfdn 0.0
billclinton 0.0
grounded 0.0
abilities 0.0
grandfather 0.0
profoundly 0.0
fiercely 0.0
drowning 0.0
astound 0.0
alzheimer 0.0
responders 0.0
peacecorps 0.0
nygovcuomo 0.0
hurricanes 0.0
approximately 0.0
daunting 0.0
organizer 0.0
ingenuity 0.0
illnesses 0.0
intruders 0.0
invading 0.0
harmful 0.0
foundations 0.0
skateboards 0.0
housekeeping 0.0
dangerously 0.0
renters 0.0
predatory 0.000141557369289
rebuke 0.0
jengranholm 0.0
supremacy 0.0
linger 0.0
adamserwer 0.0
clevelanddotcom 0.0
repadamschiff 0.0
fahrenthold 0.0
revoke 0.0
advising 0.0
strengthening 0.0
colleges 0.0
deniers 0.0
aspire 0.0
exceed 0.0
lebassett 0.0
shrugged 0.0
stewardship 0.0
complains 0.0
temperament 0.0
texasinafrica 0.0
americorps 0.0
latino 0.0
payoffs 0.0
protested 0.0
honorable 0.00011947904796
fathom 0.0
inconvenience 0.0
johnkasich 0.0
latinos 0.0
votevets 0.0
unsurprising 0.0
loopholes 0.0
dismal 0.0
unqualified 0.0
rigorous 0.0
mittromney 0.0
joyannreid 0.0
theorist 0.0
evan_mcmullin 0.0
discriminate 0.000118646824337
ezraklein 0.0
obsessively 0.0
desperation 0.0
latina 0.0
tammyforil 0.0
pantsuit 0.0
superior 0.0
exonerated 0.0
johnpodesta 0.0
recites 0.0
supremacists 0.000433964323512
affront 0.0
electing 0.0
defund 0.0
demeans 0.000174844497653
govpencein 0.0
squandered 0.0
machado 0.0
pneumonia 0.0
unhinged 0.0
criticizes 0.0
derailment 0.0
iceberg 0.0
epipens 0.0
generals 0.000130054654729
timkaine 0.0
provocation 0.0
paulbegala 0.0
clintinfdn 0.0
wesleylowery 0.000699377990611
childdefender 0.0
dictatorship 0.0
ceasefire 0.0
stamped 0.0
intimidation 0.0
casinos 0.0
manifest 0.0
restrict 0.0
transformation 0.0
battleground 0.0
christine 0.0
touted 0.0
mcconnell 0.0
deflect 0.0
expressing 0.0
commonsense 0.0
statesman 0.0
mcbride 0.0
tumble 0.0
bigoted 0.0
belonged 0.0
praised 0.0
policeman 0.0
booing 0.0
cathedral 0.0
tomperez 0.0
keithellison 0.0
knowingly 0.0
wealthiest 0.0
backward 0.0
pretended 0.0
thedemocrats 0.0
psychologists 0.0
americ 0.0
successor 0.0
diplomats 0.0
congratulated 0.0
devotion 0.0
remembrance 0.0
eligible 0.0
incoherent 0.0
exhaustive 0.0
downgraded 0.0
unified 0.0
embraces 0.0
galling 0.0
senatorreid 0.0
lifetimes 0.0
demagogue 0.0
rodham 0.0
temper 0.0
longtime 0.0
vetoing 0.0
janelle 0.0
voguemagazine 0.0
dominique 0.0
surpassed 0.0
associates 0.0
demonstrating 0.0
morning_joe 0.0
bazaar 0.0
consequential 0.0
undressed 0.000410710717604
entrepreneurial 0.0
billionaires 0.0
prescription 0.000114734717304
senseless 0.0
refresher 0.0
classmates 0.0
maturity 0.0
comentarios 0.0
risked 0.0
invincible 0.0
vigilant 0.0
emissions 0.0
recommit 0.0
voiceless 0.0
natlparkservice 0.0
workplaces 0.0
mayaharris_ 0.0
dhsgov 0.0
cyberattacks 0.0
maxinewaters 0.0
jerrybrowngov 0.0
discriminates 0.0
thejusticedept 0.0
simone_biles 0.0
sotomayor 0.0
traumatic 0.0
scammed 0.0
dreamer 0.0
fulfill 0.0
latinas 0.0
discouraged 0.0
usnavy 0.0
oftentimes 0.0
reprehensible 0.0
demeaning 0.0
ratified 0.0
emilyslist 0.0
lawsuits 0.000137331694443
nonviolent 0.0
caucus 0.0
joebiden 0.0
joyful 0.0
privatize 0.0
barbaraboxer 0.0
sengillibrand 0.0
camino 0.0
familias 0.0
americaferrera 0.0
universidades 0.0
gabbygiffords 0.0
shuttlecdrkelly 0.0
fulton 0.0
shimon 0.0
hablar 0.0
fuerza 0.0
trickle 0.0
refinance 0.0
shattering 0.0
damián 0.0
gouging 0.0
moveon 0.0
simone_manuel 0.0
revdrbarber 0.0
senatorbarb 0.0
cnbcnow 0.0
stiffed 0.0
mikebloomberg 0.0
solver 0.0
thrower 0.0
granddaughters 0.0
changemaker 0.0
clairecmc 0.0
anastasiasomoza 0.0
defunding 0.0
preyed 0.0
aspirations 0.0
fannie 0.0
mubarak 0.0
buzzfeedben 0.0
probed 0.0
marines 0.0
projecting 0.0
outsourcing 0.0
developers 0.0
crimea 0.0
everyo 0.0
chaser 0.0
dubious 0.0
diplomatic 0.0
rosiegray 0.0
unpatriotic 0.0
multifaceted 0.0
myanmar 0.0
adamparkhomenko 0.0
tjmshow 0.0
tenant 0.0
perjury 0.0
contractual 0.0
surrounds 0.0
exceeded 0.0
thrives 0.0
unclerush 0.0
sailors 0.0
stereotypes 0.0
librarycongress 0.0
acknowledging 0.0
philippe 0.0
battled 0.0
postopinions 0.0
ambassadorrice 0.0
shockingly 0.0
mcfaul 0.0
presid 0.0
poisons 0.0
kenvogel 0.0
johndingell 0.0
harnessing 0.0
unwritten 0.0
bewildering 0.0
moonshot 0.0
apologizing 0.000122088816931
oligarchs 0.0
espionage 0.0
marcorubio 0.0
desecration 0.0
brianefallon 0.0
bangladesh 0.0
twittermoments 0.0
officialcbc 0.0
thefix 0.0
urgency 0.0
traceeellisross 0.0
andradaymusic 0.0
impeccably 0.0
catastrophe 0.0
tallest 0.0
anastasia 0.0
azcentral 0.0
marrying 0.0
moderates 0.0
resembles 0.0
paraphrase 0.0
applauds 0.0
heavier 0.0
virginians 0.0
railing 0.0
eloquently 0.0
denverpost 0.0
independents 0.0
americanos 0.0
hispanos 0.0
bailouts 0.0
divisiveness 0.0
jmpalmieri 0.0
hardballchris 0.0
republicano 0.0
candidato 0.0
phillyinquirer 0.0
jesserodriguez 0.0
militarytimes 0.0
sunsentinel 0.0
ryanlizza 0.0
bretbaier 0.0
thelastword 0.0
hillaryclinto 0.0
maddowblog 0.0
boundless 0.0
enacting 0.0
gettysburg 0.0
groping 0.0
govchristie 0.0
justices 0.0
watchdogs 0.0
cavalier 0.0
succeeds 0.0
retirees 0.0
pocketed 0.0
multimillionaire 0.0
redcross 0.0
evalongoria 0.0
highways 0.0
marlee 0.0
primero 0.0
pianos 0.0
bribed 0.0
scranton 0.0
wellesley 0.0
perkins 0.0001335223681
onward 0.0
algore 0.0
candidly 0.0
trajectory 0.0
quitter 0.0
objectifying 0.0
ignoramus 0.0
disillusioned 0.0
asinine 0.0
vibrancy 0.0
arpaio 0.0
testifying 0.0
chairmen 0.0
luchar 0.0
disrupted 0.0
podemos 0.0
settlements 0.0
massacres 0.0
millones 0.0
eagerly 0.0
grandmas 0.0
dedicado 0.0
seeming 0.0
pragmatic 0.0
hashanah 0.0
porque 0.0
unidos 0.0
nuestras 0.0
primera 0.0
debemos 0.0
muchos 0.0
cuando 0.0
nuestro 0.0
inteligente 0.0
rapists 0.0
agosto 0.0
presidente 0.0
puedes 0.0
mujeres 0.0
safeguarding 0.0
indecent 0.0
motions 0.000157999034733
strengthened 0.0
eminently 0.0
innuendo 0.0
memorandum 0.0
reuterspolitics 0.0
educates 0.0
mexicana 0.0
disparage 0.0
absurdity 0.0
backdoor 0.0
affording 0.0
hardline 0.0
steelworkers 0.0
demean 0.0
immigrate 0.0
thuggish 0.0
astrid 0.0
jesuit 0.0
governorship 0.0
waterboarding 0.0
personas 0.0
stephenson 0.0
huracán 0.0
firefighter 0.0
ravages 0.0
marleematlin 0.0
scrolling 0.0
tarnish 0.0
ajentleson 0.0
roanoke 0.0
heaping 0.0
carpentry 0.0
forcefully 0.0
frankiejgrande 0.0
aprildryan 0.0
unjustified 0.0
yamiche 0.0
evacuate 0.0
disrespects 0.0
incomprehensible 0.0
jogger 0.0
vindicated 0.0
blazed 0.0
cambodia 0.0
revolutionize 0.0
welding 0.0
unbeatable 0.0
polished 0.0
saddled 0.000192334923952
interdependence 0.0
alleys 0.0
civility 0.000138689619983
vilified 0.0
disagreeable 0.0
terence 0.0
bluster 0.0
incredib 0.0
holton 0.0
hillaryforpa 0.0
hillaryforco 0.0
jes_chastain 0.0
vitalvoices 0.0
indictments 0.0
evokes 0.0
reaffirming 0.0
rebukes 0.0
minerva 0.0
peddle 0.0
starker 0.0
cascading 0.0
carolinians 0.0
señora 0.0
honrado 0.0
missionary 0.0
ranchers 0.0
denveropinion 0.0
practicality 0.0
thoughtfulness 0.0
scripture 0.000165512271968
pueblo 0.0
morningmoneyben 0.0
smalls 0.0
exemplify 0.0
eviscerated 0.0
jeffflake 0.0
helpless 0.0
sarahemcbride 0.0
indivisible 0.0
colinjones 0.0
mrjoshcharles 0.0
houstonchron 0.0
thoroughness 0.0
isolde 0.0
wonkiest 0.0
equate 0.0
dustbin 0.0
estados 0.0
newrepublic 0.0
expresses 0.0
demonizing 0.0
jeffbezos 0.0
discard 0.0
befriending 0.0
slovenia 0.0
unrelenting 0.0
salmahayek 0.0
revolves 0.0
anselm 0.0
dwells 0.0
usairforce 0.0
deride 0.0
repackaging 0.0
earmarked 0.0
evader 0.0
passpor 0.0
awaited 0.0
guterres 0.0
precinct 0.0
presidencia 0.0
unshakable 0.0
marshablackburn 0.0
comunidad 0.0
merecen 0.0
juntos 0.0
infomercial 0.0
johnstown 0.0
statewide 0.000165512271968
skyscrapers 0.0
phillydotcom 0.0
deducted 0.0
laguardiacc 0.0
annieslisttx 0.0
nickmerrill 0.0
leaninorg 0.0
missbeae 0.0
minassianmedia 0.0
natarsha 0.0
foments 0.0
ruline 0.0
steininger 0.0
michaelnutter 0.0
harren 0.0
louisa 0.0
cannell 0.0
robbymook 0.0
broward 0.0
hillaryforfl 0.0
jeanneshaheen 0.0
ericasmegs 0.0
jeremyshorr 0.0
turpin 0.0
rubycramer 0.0
singularly 0.0
joshschwerin 0.0
clionamccarney 0.0
xochitlhinojosa 0.0
adamsmith_usa 0.0
humayun 0.0
jamestaylor_com 0.0
hillaryformn 0.0
ericwms 0.0
dougmillsnyt 0.0
jencarlosmusic 0.0
hannahbfine 0.0
creynoldsnc 0.0
lefsadventures 0.0
pembroke 0.000205355358802
perceptiveness 0.0
hillaryforaz 0.0
fayetteville 0.0
entrust 0.0
daveeddiggs 0.0
petewilliamsnbc 0.0
hillary_esp 0.0
ustedes 0.0
nación 0.0
creativa 0.0
bilingües 0.0
multilingües 0.0
contribuyen 0.0
diversidad 0.0
economía 0.0
hillaryforia 0.0
estaré 0.0
discurso 0.0
síganme 0.0
detall 0.0
hopewell 0.0
temperamentally 0.0
redone 0.0
barging 0.0
machadooficial 0.0
mikereedschmidt 0.0
franklinfoer 0.0
eamonjavers 0.0
hillaryforoh 0.0
hustling 0.000165512271968
relishes 0.0
markkirk 0.0
asmamk 0.0
just_jenna 0.0
discrimina 0.0
samifayebaker 0.0
padded 0.0
wigazette 0.0
phillytrib 0.0
trivializes 0.0
condones 0.0
ellisoncampaign 0.0
barb_kinney 0.0
theriveterspod 0.0
humiliates 0.0
nickmarroletti 0.0
alli_wilber 0.0
brespolitico 0.0
jasoncherkis 0.0
sean_p_thomas 0.0
outclassed 0.0
outmaneuvered 0.0
belittling 0.0
familie 0.0
yuuuuuuge 0.0
disqualifying 0.0
brynnecraig 0.0
buffywicks 0.0
lasvegassun 0.0
cmichaelhuntley 0.0
civically 0.0
raquelwillis_ 0.0
celebramos 0.0
trayectoria 0.0
pionera 0.0
breakups 0.0
rosenbergerlm 0.0
heraldleader 0.0
jaylon 0.0
decisi 0.0
antónio 0.0
squander 0.0
presidenta 0.0
protegerá 0.0
astrid_nv 0.0
sltrib 0.0
peter_j_k 0.0
brosandprose 0.0
nicholaskitchel 0.0
mahoning 0.0
omerizer 0.0
kendallybrown 0.0
davidnakamura 0.0
chatima 0.0
tammybaldwin 0.0
mpshapiro 0.0
responsibilit 0.0
overgrown 0.0
literally_trump 0.0
imploded 0.0
rnicholasburns 0.0
disastrously 0.0
stiffing 0.0
globeopinion 0.0
degradi 0.0
languishing 0.0
demostrar 0.0
poderosa 0.0
iammarleydias 0.0
tbtimes_opinion 0.0
disloyalty 0.0
defende 0.0
vegalteno 0.0
moodysinvsvc 0.0
decisiveness 0.0
whethe 0.0
preocupada 0.0
trayecto 0.0
afectados 0.0
ayotte 0.0
empathize 0.0
lifelo 0.0
lorellapraeli 0.0
ironworking 0.0
ebeling 0.0
contribuido 0.0
ejército 0.0
inmigrantes 0.0
indocumentados 0.0
enquirer 0.0
delega 0.0
roadshow 0.0
sunsentinelopinion 0.0
resulta 0.0
insultar 0.0
construir 0.0
muralla 0.0
provoked 0.0
discretion 0.0
sdutideas 0.0
merece 0.0
respeto 0.0
enfrentar 0.0
valentía 0.0
ataques 0.0
descaro 0.0
culparla 0.0
petulance 0.0
ninhaitseng 0.0
flippantly 0.0
posteverything 0.0
_vicentefdez 0.0
azcopinions 0.0
aumentó 0.0
andrewjenks 0.0
imwithher 0.0
diferencias 0.0
onevoxdotcom 0.0
ignite_national 0.0
endorsin 0.0
mercersdairy 0.0
everyvoice 0.0
rachaelgass 0.0
galifianakis 0.0
crutcher 0.0
nyledimarco 0.0
mistreat 0.0
wellsfargo 0.0
templeuniv 0.0
sollender 0.0
honremos 0.0
tantas 0.0
contribuciones 0.0
aleatha 0.0
endeavored 0.0
legitimize 0.0
además 0.0
whistles 0.000320690040171
ugliness 0.0
jorge_silva 0.0
dnclatinos 0.0
libnofcongress 0.0
unscrupulously 0.0
contractually 0.0
impulsively 0.0
qaddafi 0.0
cancelable 0.0
cnbcopinion 0.0
jbrotherston 0.0
_bxddxss 0.0
sspiderboy 0.0
collegedems 0.0
veered 0.0
charitynav 0.0
usnewsopinion 0.0
humansofny 0.0
unfitness 0.0
steadiness 0.0
nbcusa_inc 0.0
verdadera 0.0
encuentra 0.0
hacemos 0.0
anuncio 0.0
unpresidential 0.0
unfavorably 0.0
heridas 0.0
visibles 0.0
veteranos 0.0
cuidado 0.0
panetta 0.0
experiencia 0.0
confío 0.0
exsecretario 0.0
comercio 0.0
lizromanoff 0.0
americasvoice 0.0
davidleopold 0.0
rebuked 0.0
criminalize 0.0
mentiré 0.0
inmigración 0.0
demonizar 0.0
americanlegion 0.0
sarasolow 0.0
qumber 0.0
zerlinamaxwell 0.0
hillaryforut 0.0
hillaryforga 0.0
grandtetonnps 0.0
marlondmarshall 0.0
mariatcardona 0.0
escuchamos 0.0
claramente 0.0
demonizando 0.0
segunda 0.0
tercera 0.0
rhettbuttle 0.0
hillaryformi 0.0
futuramics 0.0
louisianans 0.0
claressashields 0.0
helen_maroulis 0.0
bri_rollin 0.0
itspooda 0.0
kristihollywood 0.0
meredeetch 0.0
kersee 0.0
rodhams 0.0
bidens 0.0
possibilitie 0.0
maulama 0.0
akonjee 0.0
shotdiva 0.0
auriemma 0.0
maxlinsky 0.0
cowering 0.0
moratory 0.0
hillarycl 0.0
repudiate 0.0
fencer 0.0
bankruptcies 0.0
warrenbuffett 0.0
bishopgarrison 0.0
ajazzyworld 0.0
morell 0.0
starkest 0.0
braille 0.0
frankmugisha 0.0
confiar 0.0
distinguido 0.0
herencia 0.0
harkening 0.0
impulses 0.0
dakota_meyer 0.0
kauveri 0.0
iafftreg 0.0
laurawalkerkc 0.0
jakesherman 0.0
benediction 0.0
denigrates 0.0
ann_oleary 0.0
liberates 0.0
bombast 0.0
repcleaver 0.0
throwed 0.0
luchado 0.0
derechos 0.0
humanos 0.0
trabajadores 0.0
relent 0.0
aprendí 0.0
valores 0.0
trabajo 0.0
mismos 0.0
annella 0.0
drbiden 0.0
expedient 0.0
imangelabassett 0.0
smegielski 0.0
leinonen 0.0
driffin 0.0
buckles 0.0
insatiably 0.0
sybrina 0.0
mcbath 0.0
dontre 0.0
randibrazeau 0.0
sjbxtr 0.0
malcolmkenyatta 0.0
lankford 0.0
countrymen 0.0
countrywomen 0.0
refiere 0.0
separar 0.0
valiente 0.0
strongmen 0.0
seremos 0.0
compañeros 0.0
bienvenidos 0.0
dauntless 0.0
governorva 0.0
sherrodbrown 0.0
vicepresidencia 0.0
ilyseh 0.0
gunsense 0.0
encantada 0.0
anunciar 0.0
splintering 0.0
albamonica 0.0
criminologist 0.0
construiremos 0.0
discriminatio 0.0
endorser 0.0
sniveling 0.0
ryanegraney 0.0
baptize 0.0
convención 0.0
republicana 0.0
