chatting 0.000113000971381
trying 0.000436421104578
launch 8.23262395682e-05
moment 0.000438780350559
wonderful 0.000414804872739
seeing 0.000275906712864
recommend 4.99675712769e-05
anybody 0.0
podcast 9.90514707649e-05
challenges 0.000112640961377
worked 0.000145218545025
direct 0.000142614506813
others 0.000324978313676
currently 7.98700319335e-05
better 0.00102953608806
please 0.000370276175128
travels 7.29875724616e-05
social 0.00030085751317
around 0.00073063851411
people 0.00259044564094
leaving 3.80184741741e-05
morning 0.00043407468065
general 0.0
overall 0.0
damage 0.0
affect 0.000173365806667
everything 6.67807201e-05
twitter 0.000334804845057
present 0.000152073896697
though 0.000347686010375
friend 0.000167854270992
watched 3.77095338854e-05
beautiful 0.000412745299063
anything 0.000169674061344
practice 9.05488598425e-05
helped 0.000219604337916
helpful 0.000114460847358
revive 0.0
updated 0.0
thinking 0.00051177447072
finally 0.00017059149024
caught 0.000112821567439
believe 9.99014385114e-05
already 0.000333004795038
orlando 0.0
depends 0.000149902713831
chance 0.00043407468065
meaning 0.0
annual 0.000448904852803
renewed 8.58655920706e-05
growing 0.000160179215891
probably 0.000724130487861
should 4.41356609351e-05
changed 0.000142881064785
history 0.000103186324766
center 0.0
museum 0.000173930298401
behind 0.000265686732404
pretty 0.000238828086336
really 0.00130222404195
expensive 0.000287077213867
little 0.00109891582363
earlier 0.000273486765254
forget 0.000406121377625
paperwork 0.0
someone 0.000471260586526
mostly 0.0
worker 7.04206509132e-05
safety 0.0
program 0.0
things 0.000564584306358
electrical 0.0
visiting 4.60558975424e-05
available 0.000242724421522
perfect 0.000173843005188
different 0.000203608873613
search 8.92739323496e-05
connect 0.0
numbers 8.34734474139e-05
person 0.000267843876046
watching 6.71417083967e-05
passed 4.07112646295e-05
minutes 0.000310395051973
daughter 4.0376362549e-05
average 0.00153007768167
positive 0.000237646877464
outside 0.000176681607776
metric 0.0
looking 0.00103231486462
forward 0.000548844851166
raising 0.000143028779861
afraid 8.63103917648e-05
impression 0.0
profile 4.56628652446e-05
drawing 5.9521735002e-05
favorite 0.0
picture 0.000248694173275
historic 0.000201661458754
instead 0.000263250324024
appreciate 0.0
husband 0.0
international 0.00024766230445
toddler 0.0
couldn 0.000312917409338
remember 0.00043407468065
holidays 0.0
friends 0.000167854270992
despite 0.000142201949185
understood 0.0
impossible 4.54034042253e-05
everyone 0.0002003421603
florida 0.0
always 0.00116237945427
months 0.000488075696256
moving 0.0001077417479
meeting 0.000136841689977
google 4.19689683006e-05
answer 0.000307893802448
together 6.69609690114e-05
included 0.000152607835418
inside 0.000104305803113
section 0.0
missed 0.000270747585084
button 0.0
active 0.0
longer 0.000115619544514
enough 0.000472532685218
projects 0.000177973912323
driving 4.08236533714e-05
building 0.000487567064801
enjoying 8.16473067429e-05
kennedy 0.0
tantrums 0.0
apparently 4.30346482308e-05
recent 0.00017654264374
gotten 0.0
amazing 3.33004795038e-05
determined 0.0
attention 0.00018906097496
progress 4.6320527162e-05
tomorrow 0.0006010264809
whenever 0.0
curious 0.0
george 0.000124518275808
feeling 0.000104870294847
excited 6.97250994651e-05
campaigning 0.000149632307995
understand 0.000145612155287
learning 4.13913738891e-05
special 0.000269291763729
secret 3.74034410131e-05
across 0.000149208135138
comparison 0.000187234368169
surprised 7.96511794024e-05
anymore 4.25567861512e-05
spirited 0.0
precious 0.0
rejoice 0.000100442263569
rather 0.00045006190597
showing 0.0
saying 0.00013945019893
tweeted 0.0
updates 0.0
thoughts 7.08637847764e-05
exactly 0.000613847925832
except 4.25567861512e-05
getting 0.0008681493613
nothing 0.0004006843206
tweets 7.35991817899e-05
course 0.000793231799485
photos 0.0
looked 0.000113745523285
difficult 4.40115081118e-05
office 0.000144434806078
decisions 0.0
brought 0.0
biggest 0.000137581766354
thrilled 0.0
entire 0.0
something 0.000667807201
closing 4.96723618527e-05
anyone 0.000572244997925
taking 0.00023373252035
reprint 0.0
flying 4.19689683006e-05
happening 7.28060776435e-05
sometimes 0.00029439672716
lessons 0.0
village 0.0
stopped 3.91764972179e-05
yesterday 0.000100984411398
service 0.000403700088958
serious 0.0
emails 0.000231154408889
wearing 7.83529944357e-05
afford 0.00043118226416
either 0.000400433427039
second 0.000269291763729
checking 0.0
volunteers 0.0
indeed 0.000182131525418
hearing 3.73020337845e-05
choose 0.000117851406391
another 0.00103231486462
address 0.000180071897088
display 0.0
compare 6.09351756129e-05
weekend 0.000304591033219
suggested 0.000130680820483
appear 0.0
anyway 8.63103917648e-05
theory 0.0
buildings 0.00015976690101
working 0.00043407468065
bigger 3.91764972179e-05
treated 0.0
admired 0.0
retirement 0.000191193797443
laughing 7.92156258214e-05
wanted 0.00020251400795
current 0.000236348729229
grateful 0.0
friendship 0.0
family 0.00030051324045
listening 0.0
stream 0.0
sharing 0.000157135208522
double 0.0
especially 0.000110998970432
middle 0.000114990946059
waiting 0.000273683379954
definitely 7.30034676345e-05
walking 4.00448039727e-05
account 0.000822706441575
completely 7.92156258214e-05
thought 0.000706890879789
accept 0.0
possible 0.000176681607776
simple 7.77132943089e-05
manufacturing 0.0
destroyed 6.41831209688e-05
members 4.2085702486e-05
supposed 0.0
manufacturers 0.0
business 0.000540167489074
absolutely 0.000250041863373
anywhere 4.45109286742e-05
sending 0.0
introducing 0.0
congrats 0.000210307489221
beauty 0.0
community 0.0
greatest 0.000109505201452
posted 3.94994577035e-05
wednesday 0.000281858323797
explain 3.89629219381e-05
broken 4.13913738891e-05
fairly 6.96072835283e-05
closest 0.000191193797443
hoping 0.000160619824475
relationship 0.0
actually 0.00064999802739
pockets 9.48421613843e-05
wallet 0.0
pocket 0.000171691271037
argument 5.14843116337e-05
decent 0.000830544924174
school 0.000475087371764
throwback 0.0
thursday 0.000392922928158
talented 8.77756353674e-05
discuss 0.0
celebrate 0.000110698419601
celebrating 0.0
anniversary 8.0752725098e-05
students 0.0
corners 0.0
internet 4.1506091936e-05
figure 0.000319480127734
opened 0.000146406477044
inspired 0.0
latter 0.000226346281747
sitting 3.77095338854e-05
playing 0.00030541331042
street 0.000295997254484
points 0.000128384573158
advice 0.00113611841932
memory 0.000138563846329
forever 3.77095338854e-05
congress 0.0
imagine 7.44018705084e-05
problem 0.000358169499371
pulling 0.0
furniture 0.0
keeping 0.000111906101354
dressed 0.00016169334906
chinese 5.389778302e-05
unlike 0.0
allowed 4.38878176837e-05
otherwise 4.74006497285e-05
afternoon 0.000314270417044
planned 4.79541765677e-05
images 5.87402673809e-05
noticed 0.000158733749531
expense 8.06214995794e-05
differences 6.41831209688e-05
difference 0.000109505201452
editor 0.000329487125036
intent 0.0
suppose 0.000128366241938
inspiration 4.57933598783e-05
letting 4.10495783349e-05
system 8.34734474139e-05
almost 0.00056763612085
details 0.000474522539624
experience 0.000278900397861
living 0.000209175298395
worries 0.000234961069524
weather 0.000128026825827
bright 4.69914760736e-05
understands 6.96072835283e-05
normal 0.000179053935278
launching 0.0
backyard 0.0
pointed 6.90758987271e-05
before 0.000108619573179
monday 0.000313762947593
example 8.82713218701e-05
science 4.71273079258e-05
tweeting 0.0
forgot 4.18526429924e-05
disaster 0.00020470148538
happens 0.00013832598884
silence 0.000105177623912
learned 0.0
congratulations 0.0
natural 0.0
babies 5.19531783608e-05
mission 0.0
surprising 0.00010779556604
reference 0.0
forgotten 0.000298034171116
setting 9.48012994569e-05
appeared 0.0
reminds 0.0
fantastic 0.000590871823073
loving 3.93914548715e-05
complete 0.000114990946059
daniel 0.0
rewarding 0.0
nearly 0.0
spirit 0.000173104730754
launched 9.96392771064e-05
finding 4.08236533714e-05
stories 0.000577739224312
including 0.000111300430645
wouldn 0.000288089327506
choice 0.000213743178631
offended 0.0
conversation 0.0
disrespectful 0.0
making 0.000399605754045
expect 0.000200224019864
traits 0.0
discussion 0.000243296582327
believes 0.0
response 0.000235702812783
brings 4.02654748281e-05
seasons 0.0
anytime 5.49145208393e-05
protected 6.77834850041e-05
location 0.000157286278193
needed 0.000106871589315
seriously 3.68994732005e-05
emergency 0.000174498006631
justify 0.0
spending 0.000290542643552
groups 0.0
condition 0.0
childhood 5.44022611993e-05
modern 9.61880237932e-05
welcome 0.000101257003975
moments 4.1506091936e-05
totally 7.7079696343e-05
running 0.000140204992814
strong 3.43954415886e-05
respond 0.000151246094065
message 3.54318923882e-05
coming 0.000133201918015
thankful 0.0
issues 0.000238953538207
challenge 0.000146402891944
intolerance 0.0
happen 0.000340264284416
giving 0.000101257003975
turkey 0.0
excellent 0.000174077946581
limits 6.19829231228e-05
contractors 0.0
common 0.0
pressed 9.15728837238e-05
healthcare 0.0
benefits 0.000104857518795
situation 4.36418103251e-05
workers 5.56100612675e-05
company 0.000340309754928
savings 0.00271603731717
health 0.000275740184101
insurance 0.000518413485552
change 0.00043407468065
silver 5.45721379971e-05
august 0.000235636539629
crying 0.0
mental 0.000248361809263
carrier 8.58655920706e-05
decide 0.0
happened 0.000421752012306
parking 0.0
demand 0.000176046032447
sacrifice 0.0
personal 0.000326741726306
rewards 0.0
beyond 3.73020337845e-05
contributing 0.0
passion 5.05659810081e-05
question 0.000648247662912
doctor 0.0
sacrifices 0.0
respected 0.0
losing 0.000123489359352
strain 0.0
respect 3.65017338173e-05
shouldn 0.0001198050479
career 7.75014227318e-05
visited 5.24287593977e-05
reason 0.000105438003076
simply 0.00041736723707
audience 0.0
sacrificed 0.0
employees 6.39564249244e-05
accounts 0.000557862465165
attacked 6.53404102416e-05
involved 7.77132943089e-05
extreme 5.77886022222e-05
valuable 0.000125255628191
knocked 0.0
reality 3.97165228001e-05
mention 4.11631197841e-05
without 6.73229409323e-05
problems 0.000823262395682
timing 0.0
described 0.0
pattern 0.0
online 0.000502794823534
background 5.02654283546e-05
buying 0.000135823289764
called 0.000234995979388
scientists 0.0
checked 4.74006497285e-05
heading 0.000357448705201
paying 0.000390578506745
planning 0.000390578506745
opposite 5.47428882013e-05
through 9.37123950192e-05
reached 0.000297154412295
changing 8.18728474794e-05
explains 4.48904852803e-05
harder 0.000139360910777
demands 0.0
silent 5.66814716509e-05
speaking 0.0
november 0.000134290451458
ordinary 0.000132109298831
number 0.000376314647436
stunning 4.98196385532e-05
atlantic 0.0
stupid 0.000185814547702
personality 0.0
grandparents 9.15728837238e-05
unless 8.23262395682e-05
calling 0.000175256241018
painting 6.48726441771e-05
focused 0.0
ridiculous 0.0
package 0.0
rooted 0.0
option 4.83754613908e-05
knowing 0.0
former 0.000251813809804
actual 0.000133156103061
tracked 9.66059833775e-05
suffers 0.0
schedule 0.0
friday 0.00037227792949
failure 5.37313122877e-05
achieve 0.0
winner 0.00074200287097
doctors 0.0
becomes 4.72636976105e-05
directly 5.50870450795e-05
quality 4.31551958824e-05
tearing 0.0
father 3.80184741741e-05
wishes 0.000130558459936
collar 0.0
caring 0.0
ground 8.6552365377e-05
matter 0.000107450849811
strategy 0.0
themselves 0.0
asking 3.53363215552e-05
usually 0.000178043714697
thankfully 0.000150897521165
reacts 0.0
period 0.0
parents 4.00448039727e-05
balance 0.000155859535082
resist 0.000126570952026
mobile 0.00011086961152
computer 0.000154919598633
reminded 0.0
impressed 0.0
dinner 0.000110698419601
suffering 0.0
single 3.43954415886e-05
parent 6.11420974134e-05
approved 0.0
energy 0.0010723461156
preview 0.0
meltdown 8.67512669989e-05
remind 4.64536369256e-05
emotional 4.80940118966e-05
sounded 6.96072835283e-05
status 5.02654283546e-05
update 0.0
outage 0.0
customers 0.00209118135073
holding 7.8998915407e-05
causes 0.0
eating 8.34734474139e-05
picked 4.16212076199e-05
missing 0.000106871589315
surprise 0.000214321597177
officially 0.0
global 0.000178547864699
follow 0.000167854270992
opinion 4.35194866452e-05
faster 5.389778302e-05
backwards 0.0
design 0.0
website 0.000122133793888
widely 0.00023748434176
origin 0.0
breaks 0.0
allows 0.0
promoting 0.0
volunteer 6.98761986943e-05
convince 0.0
negative 4.86593164654e-05
official 0.000275906712864
jersey 0.0
mistake 0.000138563846329
fixing 0.00019961846349
translated 0.0
ginger 8.72031221535e-05
peaceful 0.0
thinks 3.89629219381e-05
hospital 0.0
lauren 0.0
easier 0.000226372149606
excluded 9.20958999118e-05
successful 0.0
leadership 5.22694744806e-05
agrees 0.0
decline 0.0
turnout 0.0
showed 4.19689683006e-05
trumps 7.84548069449e-05
circle 0.000177386108113
engage 6.65394878299e-05
suited 0.0
experienced 0.0
interested 0.000171658146229
effect 0.000176046032447
success 0.000188547669427
ladies 0.0
dreams 8.77756353674e-05
protect 0.0
explanation 5.97200092718e-05
occasion 7.64208546111e-05
medication 0.0
planet 0.0
detached 0.0
essence 0.0
control 0.000186510168923
happier 0.000182805526839
likely 0.000178547864699
coincidence 0.0
cancel 0.0
project 3.77095338854e-05
laying 0.0
lesson 0.0
requires 6.46412088046e-05
healthy 4.52744299213e-05
treating 0.0
opening 3.63046362563e-05
statement 0.000346209461508
enjoyed 7.92156258214e-05
animal 0.0
nervous 5.49145208393e-05
pounds 7.18221601995e-05
wonder 0.000144826097572
matters 4.38878176837e-05
shared 0.0
somehow 5.389778302e-05
benefit 0.000125557928977
terrible 0.000212783930756
continues 8.1422529259e-05
improve 0.000102043944532
equally 0.0
appointment 0.0
session 0.0
routine 0.0
exciting 4.00448039727e-05
corner 9.53525199076e-05
imagination 0.0
decides 0.0
cheering 0.0
spring 0.000213378043045
fallen 5.87402673809e-05
frequently 0.0
places 0.000119476769104
thousands 0.00014683685579
informed 0.000176220802143
typical 0.00024878599361
continue 3.85398481715e-05
attend 0.0
excuse 0.0
settle 0.0
female 4.45109286742e-05
recovery 0.0
treasured 0.0
grandma 0.0
closer 0.000251115857954
beginning 0.000209844841503
everywhere 0.000119476769104
scenes 4.25567861512e-05
bought 0.000204118266857
multiple 0.0
slogan 0.0
wishing 0.0
covered 0.000173104730754
remove 0.0
choices 5.40650923993e-05
dealing 0.000115953532268
teacher 0.00014945891566
training 8.6552365377e-05
passing 4.5145954552e-05
stopping 0.0
become 0.000174312748663
spread 0.000114366288686
season 3.6799590895e-05
putting 3.50512482036e-05
weight 0.0
quietly 0.0
necessity 0.0
knocks 9.42744408666e-05
effects 0.0
returns 0.000134290451458
expected 9.56298551043e-05
resources 0.0
bucket 6.28455908859e-05
struggling 0.000404520215556
register 9.93447237053e-05
promotion 7.2399754611e-05
solution 5.54348057602e-05
manage 0.000243740702452
transition 0.0
gained 0.0
define 0.0
somebody 0.0
contract 0.0
ignorant 0.0
managers 0.0
credit 0.000946751755034
brothers 5.1175371345e-05
grandkids 0.0
computers 0.0
physical 5.56100612675e-05
series 0.000326741726306
offensive 0.0
fighting 3.80184741741e-05
donald 0.000143862529703
mexico 0.0
sandra 0.0
police 0.000258207889385
represent 0.0
president 0.0
talking 0.000602648721103
america 7.10554780786e-05
michigan 0.0
everybody 0.0
judgment 0.000158322894507
carolina 0.0
amount 9.37123950192e-05
houston 0.0
everyday 0.0
michael 7.54190677708e-05
protecting 0.0
providing 0.0
attitude 0.000177386108113
million 7.01024964071e-05
election 0.000322391282797
honesty 0.0
targeting 7.74222623841e-05
telling 3.79151744282e-05
correct 0.00051641577877
attack 8.60692964616e-05
elementary 0.0
americans 4.64536369256e-05
killed 0.000111602805763
horrible 0.0
salute 0.0
coverage 4.52744299213e-05
united 0.000346209461508
college 4.1736723707e-05
refuse 0.0
preach 0.0
hillary 0.0
clinton 0.0
presidency 0.0
throws 0.0
manning 0.0
american 3.54318923882e-05
deserved 0.000204087889064
humble 0.0
remain 9.39829521473e-05
founder 0.0
illegal 0.000111220122535
arizona 0.0
opinions 0.0
speeches 0.000143074173696
scared 0.000244728092983
salary 0.000462510561504
pieces 4.93797534263e-05
taught 0.0
thompson 0.0
straight 0.000147998627242
blocking 0.0
answers 4.30346482308e-05
created 0.0
record 0.000278900397861
stamina 0.0
weapon 0.0
bottom 8.95269676388e-05
athletes 0.0
registered 0.0
minnesota 0.0
committed 0.0
journey 0.000173590447442
snapchat 0.0
peoples 0.0
disrespect 0.0
brother 4.07112646295e-05
prayers 0.0
boston 4.82344384971e-05
korean 0.0
church 0.000101434567018
advantage 5.70464296263e-05
motivation 0.0
honestly 4.76762599538e-05
defeat 0.0
lifetime 0.000252076823442
captain 0.000113362943302
retired 0.0
country 0.000137953356432
ending 4.48904852803e-05
dressing 6.48726441771e-05
finish 4.10495783349e-05
ranked 0.0
employee 0.0
university 0.0
dreamed 0.0
prayer 0.0
nominated 5.01161658941e-05
responds 0.0
national 0.000144434806078
reform 6.60546494155e-05
shooting 0.0
cancer 0.0
deserve 0.0
mother 3.72009352542e-05
creating 4.59243692851e-05
powerful 0.000162845058518
wisdom 0.000112640961377
breaking 7.18278319334e-05
dollars 0.000167890114274
questions 3.42104224942e-05
racist 0.000120240289466
charged 6.32854760128e-05
soldiers 0.0
performance 0.00011593533725
reading 3.54318923882e-05
denver 0.0
graphic 0.0
garner 0.0
create 0.000154580449667
jordan 0.0
admire 0.0
nobody 0.0
government 0.000899416282984
politics 4.72636976105e-05
blessing 0.0
wrestling 0.0
charities 0.0
donate 0.000180071897088
sample 7.12544396819e-05
bringing 7.50103176617e-05
deserves 8.8770735374e-05
regret 5.87402673809e-05
victim 0.000190522868815
according 0.000663904194355
threat 4.96723618527e-05
heaven 0.0
heroin 0.0
honest 0.000373554827424
became 4.1736723707e-05
decision 8.32424152398e-05
counting 0.0
signing 4.37645862193e-05
embrace 0.0
pressure 0.0
celebrities 0.0
facebook 3.57202661962e-05
kardashian 0.0
divided 7.29875724616e-05
lawyer 0.0
lebron 0.0
campaign 0.000426257825025
determine 0.0
whether 0.000126608545299
praise 0.0
defined 0.0
proposes 0.0
discover 0.0
factory 0.0
arrested 0.0
estate 0.000425845066514
proposed 0.000126129610315
comments 0.0
teenage 7.32854295393e-05
wounded 0.0
endorsement 0.0
williams 5.32368489373e-05
custom 0.0
troops 0.0
singer 0.000195317111012
future 0.000309558974297
struggled 0.0
sister 0.0
sabotage 0.0
athlete 0.0
warrior 0.0
cheating 8.13763239246e-05
voting 0.0
succeed 0.0
religion 0.0
century 5.47428882013e-05
serving 0.000114830885547
because 0.0
cleveland 0.0
hiding 0.000109485776403
breath 5.66814716509e-05
choosing 0.0
lawrence 0.0
instagram 0.0
opponent 0.0
detroit 0.0
honored 0.0
nonsense 0.000187234368169
lifting 0.0
proven 0.0
talent 4.45109286742e-05
knocking 0.0
russian 0.000111220122535
brains 7.35859821928e-05
oakland 0.0
regardless 0.0
skills 4.6320527162e-05
citizens 0.000171139288879
california 0.0
commitment 0.0
seconds 4.46369661748e-05
seeking 0.000234961069524
threatening 0.0
listen 0.000310395051973
whatever 0.0
mexicans 0.0
satisfied 9.05509310436e-05
fought 0.0
compete 0.0
injured 5.91287027042e-05
billion 0.0
ceiling 0.0
absolute 0.000195782474387
appearance 0.0
bigsean 0.0
handle 0.000217597433226
promise 3.96078129107e-05
nightclub 0.0
hosting 0.0
actors 0.0
generation 4.57933598783e-05
criminal 0.0
tuesday 0.00144077662827
ronald 0.0
locker 7.48161539974e-05
struggle 0.000103592305625
degree 5.9521735002e-05
entering 0.0
leader 8.70389732904e-05
pageant 0.0
toughest 0.0
character 4.46369661748e-05
mirror 0.00141445879118
interview 6.78696245377e-05
whistle 0.0
obviously 0.000140568592529
battle 3.87507113659e-05
motivate 0.0
destroy 0.0
relentless 9.05509310436e-05
winning 0.00014249545242
charlotte 0.0
accomplished 0.0
stepped 0.0
defense 0.0
appeal 5.97200092718e-05
causing 7.04206509132e-05
arabia 0.0
shipped 0.0
society 4.60558975424e-05
officers 0.0
brooklyn 0.0
marked 0.0
incredible 7.20223318765e-05
poster 5.29112498435e-05
wealthy 0.0
memorable 0.0
officer 0.000180966104908
minute 3.76071891463e-05
luther 0.0
foreign 0.0
pregnant 0.0
champions 0.0
virginia 6.65394878299e-05
tackle 6.19829231228e-05
unarmed 0.0
orange 0.0
policy 4.89456185966e-05
comedy 0.000104221899753
reminder 0.0
evidence 0.000247628676912
lighten 0.0
presidents 0.0
kicked 0.0
sticker 0.0
accused 0.0
intentions 0.0
facing 5.49145208393e-05
freedom 0.0
actions 5.66814716509e-05
debating 0.0
outcome 6.35076229384e-05
utterly 7.18221601995e-05
mississippi 0.0
clearly 8.46408181137e-05
download 9.42546158515e-05
sidelines 0.0
invite 0.0
legally 7.21097017494e-05
central 8.80230162236e-05
washington 0.0
veteran 6.55767873359e-05
division 0.000122700633076
veterans 0.0
stronger 0.0
promised 0.0
worried 0.00033764106948
security 8.85205592474e-05
immediately 4.65872823436e-05
television 0.000117480534762
entitled 0.0
racism 0.0
highest 0.000235636539629
approve 0.0
turning 4.1736723707e-05
legacy 0.0
ignore 9.56298551043e-05
choked 0.0
backing 0.0
helping 0.000110100024261
collector 0.000111616789705
willing 0.0
basically 4.86593164654e-05
return 7.3798946401e-05
unacceptable 0.000144219403499
feelings 0.0
network 4.65872823436e-05
language 9.3442935489e-05
invest 0.0
coward 0.0
schools 0.0
patients 0.0
foster 0.0
children 0.000220200048522
nation 0.0
review 7.94330456001e-05
between 0.0
knowledge 0.000284403898371
begins 3.99350159668e-05
tenure 0.0
faithful 0.0
highlights 0.0
shoulder 0.000132592367746
produced 0.0
consider 4.42602796237e-05
shattered 0.0
latest 0.000144434806078
beyonce 7.15370868479e-05
signed 0.00022079754537
millionaire 0.0
shelter 0.000150261902122
charity 0.000465872823436
germany 0.0
advance 0.0
proved 0.0
married 0.0
millions 0.00022572977276
blessings 0.0
indonesia 0.0
fights 0.0
dollar 0.000112282892137
rigged 0.0
conduct 0.0
johnson 9.48012994569e-05
howard 0.0
turned 3.66007229861e-05
criticism 0.0
stomach 0.0
upgrades 0.0
jackie 0.0
relevant 0.0
charge 0.000138563846329
ticket 0.000179053935278
steady 0.0
indian 0.0
turner 0.0
sanders 7.32854295393e-05
includes 0.000198689447411
survivor 0.0
dealers 0.0
collection 9.15867197566e-05
against 0.0
joyner 0.0
impact 0.000178547864699
families 0.000128026825827
welcoming 6.6784587404e-05
hitting 4.45109286742e-05
announced 8.11985098793e-05
granted 6.39564249244e-05
decided 3.99350159668e-05
itself 5.66814716509e-05
selfish 8.29394755699e-05
mexican 0.0
respects 0.0
guarantee 0.0
beliefs 0.0
citizen 0.0
states 4.2085702486e-05
denied 0.0
drought 0.0
memorial 5.42332489183e-05
decades 0.000107131343674
trayvon 0.0
landed 0.0
pastor 0.0
ultimate 4.83754613908e-05
weekends 0.000155525778772
episode 0.000199127948506
spikes 0.000233472527016
engaged 0.0
financial 0.00229087042785
payments 0.000268678467044
tolerant 0.0
symposium 0.0
kansas 0.0
agreement 0.0
source 9.37123950192e-05
backbone 0.0
dismiss 0.0
midnight 0.0
homework 0.0
joining 3.92838021304e-05
reasons 0.000116569941463
talked 4.19689683006e-05
released 0.000116569941463
reaching 6.11420974134e-05
release 7.32014459721e-05
existing 0.000134560561617
models 0.0
pageants 0.0
helmets 0.0
scheme 0.000218962717385
scholarship 0.0
stacked 0.0
speech 8.00896079454e-05
standing 0.000114366288686
higher 0.000268580902917
purple 6.21964984026e-05
justice 4.48904852803e-05
served 0.0
speaks 4.82344384971e-05
backup 0.0
allegedly 0.0
purchase 0.0
millionaires 0.0
consideration 0.0
strength 0.0
incredibly 4.71273079258e-05
private 0.000256769146316
ignored 0.0
neighbors 0.0
apologizes 0.0
beings 0.0
minimum 0.000137626722126
direction 0.00010235074269
enemies 0.0
exclusive 3.96078129107e-05
prison 0.0
himself 0.0
contributes 0.0
investigation 6.15598493562e-05
teaching 0.000101738556945
disgusting 0.0
philly 0.0
rights 0.000180071897088
cheers 0.000309839197267
maintain 0.0
overcome 0.0
flawless 0.0
unique 0.0
neighborhood 0.0
dating 0.000198163948247
handed 0.000127912849849
victory 0.000190705039815
lifted 0.0
greatness 7.12544396819e-05
muslim 0.0
terrorist 0.0
productive 0.0
tribute 0.000137380079635
deadspin 0.0
threatened 0.0
horror 0.0
warning 0.000192937753989
convention 0.0
understanding 0.0
action 0.000179084749685
having 6.26278140954e-05
afghan 0.0
announces 0.0
commencement 0.0
speaker 0.0
graduation 0.0
honors 0.0
produce 6.26278140954e-05
apologize 0.0
insult 0.0
continued 0.000114460847358
letter 8.23262395682e-05
discussed 5.9521735002e-05
therapy 0.0
untrue 0.0
written 0.000284978852406
existence 7.09741777524e-05
essential 0.000118257405408
results 0.0
initiative 6.70315092965e-05
disease 6.53404102416e-05
marching 0.0
suggest 0.000258199331056
georgetakei 0.0
ensure 0.000254925063257
democrats 0.0
marched 0.0
foundation 0.0
access 8.20991566698e-05
writes 5.44022611993e-05
student 4.79541765677e-05
colorado 0.0
medical 5.49145208393e-05
medicine 0.0
tremendous 6.30648051574e-05
nytimes 5.05659810081e-05
kindness 7.06962611385e-05
public 0.000193753556829
cannot 3.72009352542e-05
reveals 9.96392771064e-05
invented 0.0
threatens 0.0
candidate 0.000106147300741
persistence 0.0
sexual 5.8547740224e-05
illustration 9.60075736463e-05
measure 0.000122284194827
compared 0.0
headline 0.000156808423442
reflect 0.0
answering 0.0
streaming 0.0
leaders 0.000194637265861
supreme 5.76014983947e-05
nominee 0.0
immigration 6.19829231228e-05
policies 0.000121050320031
laundering 0.0
administration 0.0
defend 0.0
communicating 0.0
excitement 5.89339171514e-05
funding 5.32368489373e-05
climate 0.0
transfer 0.00051510187535
conspiracy 0.000131629717808
activist 0.0
horrifying 0.0
freely 0.0
retreat 0.0
daughters 0.0
compelling 0.0
platform 0.000105822499687
hamilton 6.60546494155e-05
futures 0.0
huffingtonpost 0.0
headlines 6.15598493562e-05
january 0.000230939743881
grants 0.0
unprecedented 0.0
relationships 0.0
philadelphia 0.0
diversity 0.0
funded 0.0
secure 6.09351756129e-05
income 0.000184050949613
universal 0.000235735668606
contributed 0.0
hurricane 0.0
fundamental 0.0
countries 4.80940118966e-05
linked 6.21964984026e-05
african 0.0
improved 0.0
unclear 0.0
provide 0.0
livestream 0.0
addresses 0.0
enhance 0.0
companies 0.000331562821402
proposal 0.0
potential 9.21117950847e-05
discrimination 7.7762889386e-05
connected 0.0
drives 0.0
attending 0.0
filled 0.0
education 8.97809705606e-05
addressed 0.0
mentioned 4.90897005647e-05
famous 9.18487385702e-05
resistance 0.0
exists 0.0
demonstrated 0.0
officials 0.0
instructions 8.37495362548e-05
transmission 0.0
olympics 0.000236514810817
ability 4.85170856632e-05
political 0.000191259710209
director 0.0
contains 0.0
sponsored 0.0
autism 0.0
previously 0.0
prevent 0.0
capacity 0.0
donations 0.0
william 0.0
editors 0.0
passionate 0.0
solving 0.0
innate 0.0
treatment 0.000104538948961
critical 0.0
feeding 0.0
preparing 0.0
depend 0.0
capable 6.85528825391e-05
bridge 0.000752238372028
systematically 0.0
becoming 0.000128384573158
embraced 0.0
literacy 0.0
lawyers 0.000139214567057
stigma 0.0
malaria 0.0
standard 0.0017364397859
hiring 0.000193923626414
remains 0.0
fellow 0.0
defending 0.0
quotes 0.0
pushes 0.0
luxury 0.0
admitted 0.0
colleagues 0.0
failed 0.000148577206147
independent 0.000514843116337
politically 0.0
driven 6.05251600156e-05
agenda 0.000240480578933
result 0.000192376047586
implications 0.0
insider 0.0
pakistan 0.0
solutions 0.0
trusts 0.0
indiana 0.0
filling 6.80379754567e-05
humility 0.0
clicks 0.0
disagree 5.16398662111e-05
claims 0.000374959702858
editorial 0.0
mistakes 0.0
offered 0.0
passionately 0.0
justification 0.0
inspiring 0.00022508987136
counter 0.0
shaped 0.000145975144923
retroviral 0.0
majority 0.0
approach 0.0
nature 0.0
concern 5.65004856904e-05
server 0.0
berniesanders 0.0
shameful 7.7762889386e-05
experiment 0.0
massive 0.000211602045284
promises 0.0
colored 0.0
consequences 6.44113750738e-05
whatsoever 0.0
proposals 0.0
guesses 0.00018633462059
bernie 0.0
interviewed 0.0
pregnancy 0.0
secretary 5.81660022102e-05
measures 0.0
vastly 0.0
reduce 6.03220349692e-05
compassionate 0.0
distinguished 0.0
dangerous 0.000134290451458
influence 0.0
letters 0.000123541425101
implicit 0.0
saving 0.000290252768345
revelations 9.84687617671e-05
incident 0.0
universe 0.0
victims 0.000290252768345
milestone 0.0
perfectly 0.0
exercise 5.81660022102e-05
receive 0.0
reputation 0.0
economics 0.0
disclosure 0.0
receives 0.0
terrific 5.87402673809e-05
collected 0.0
campus 0.0
founders 0.0
profiling 0.0
systemic 0.0
studying 0.0
necessary 5.13294822552e-05
inaccurate 0.0
breast 0.0
debate 4.29145365572e-05
suddenly 6.13503165378e-05
conflict 0.0
interest 0.000749699160154
meanwhile 0.000117095480448
indefensible 0.0
recall 0.000127015245877
rating 0.0
nominate 6.98761986943e-05
outstanding 0.000114460847358
devastating 0.0
illness 0.0
troubling 0.0
romney 0.0
appears 0.0
breathe 0.0
abroad 0.000144799509222
spanish 6.13503165378e-05
profit 0.000130211407341
reviews 0.0
republican 0.0
presidential 0.0
candidates 5.63204806885e-05
politicians 0.00018218860521
identified 0.000240751274591
epidemic 0.0
displaced 0.0
greater 5.44022611993e-05
absurd 0.0
deadline 0.000376119186014
height 8.09967673185e-05
sisters 6.35076229384e-05
nuclear 0.0
stress 0.000184679548069
leading 8.46408181137e-05
restored 0.0
conditions 0.0
however 5.29112498435e-05
achieved 0.0
member 0.0
examples 7.09741777524e-05
diverse 0.0
suicide 0.0
contributions 0.0
largest 0.0
increase 0.000271166244591
targeted 0.000147778559315
regulators 0.000114592884909
provided 0.0
element 0.0
effectively 0.0
population 0.0
rising 0.000591044435165
indication 0.0
versus 7.41953725297e-05
believed 0.0
dynamic 0.0
invasion 0.0
primary 0.0
provides 0.0
environment 0.0
confirmed 0.0
behavior 0.0
introduced 0.0
contain 0.0
communities 0.000190522868815
worldwide 0.0
responsible 0.000217609044797
household 0.000224448461992
apparent 0.0
munich 0.0
alternate 0.0
expressed 0.0
movement 0.0
declared 0.0
hundreds 0.000110174090159
information 0.000180583818208
easily 4.90897005647e-05
untreated 0.0
october 9.31745646871e-05
quantify 0.0
scales 0.0
investigating 0.000160500849727
innovation 0.0
perspective 0.0
rivals 0.0
interests 6.28455908859e-05
toledo 0.0
extraordinary 0.0
gingrich 0.0
describing 0.0
eliminate 0.0
obligation 0.0
gender 0.000121870351226
committee 5.45721379971e-05
preventing 0.0
numerous 9.66059833775e-05
unusual 7.04206509132e-05
improving 0.0
practices 0.0
cemetery 0.000104016768503
questioned 0.0
affecting 0.0
ferrell 0.0
genius 0.000132780838871
warren 0.0
organizers 0.0
regularly 7.09741777524e-05
ceilings 0.0
sexism 0.0
prepared 0.000151246094065
burden 0.0
foreignpolicy 0.0
county 0.0
uniform 7.5130951061e-05
newyorker 0.0
anthony 0.0
reflecting 0.0
grandson 0.0
banning 0.0
considered 0.0
chosen 0.0
outright 0.0
screenings 0.0
naming 0.0
conventions 0.0
reproductive 0.0
ignores 0.0
focusing 0.0
sensible 0.00038881444693
concluded 0.0
performed 0.0
divide 0.0
dismissed 0.0
compromise 0.0
crucial 0.000254030491754
weakness 7.7762889386e-05
barrier 0.0
effective 5.54348057602e-05
wealth 0.000143644320399
underway 0.0
israel 0.0
overwhelming 0.0
assault 0.0
citing 0.0
protection 0.000173365806667
prisoners 0.0
photographing 0.0
traveled 0.0
holder 0.0
seemed 0.000179758423156
concludes 0.0
determination 0.0
tested 0.0
lacking 0.0
machine 8.97809705606e-05
honoring 0.0
contrary 0.0
tolerance 0.0
michelle 0.0
assumed 0.0
programs 0.0
closely 6.8813361063e-05
politico 0.0
inspire 0.0
lyrics 6.24114560563e-05
judges 0.0
federal 0.0
maryjblige 0.0
tuning 0.0
striving 0.000120235374899
poland 0.0
september 9.3442935489e-05
manchester 0.0
checks 0.0
remarkable 0.0
mharrisperry 0.0
immoral 0.0
fiction 0.000133569174808
process 8.48767746073e-05
anxious 0.0
destructive 0.0
nmaahc 0.0
performances 0.0
whitehouse 0.0
flotus 0.0
crisis 0.00030705222807
marriage 0.0
emotions 0.0
confidence 0.0
voters 0.0
comparing 7.35859821928e-05
oldest 6.70315092965e-05
empirefox 0.0
chancetherapper 0.0
songwriter 0.0
literally 0.0
onstage 0.0
believing 0.0
hillaryclinton 0.0
citizenship 0.0
counted 0.0
hillaryfornc 0.0
raleigh 0.0
discusses 6.85528825391e-05
johnlegend 0.0
apprentice 0.0
acknowledge 0.0
conservative 0.0
economists 0.0
buzzfeed 0.0
puppet 0.0
hombres 0.0
republic 0.0
homecoming 0.0
andersoncooper 0.0
muslims 0.0
katyperry 0.0
bragging 0.0
treats 0.0
qualified 0.0
islamophobia 0.0
debates 0.0
endorsements 0.0
counts 5.52604702337e-05
theellenshow 0.0
festival 0.0
encouraged 0.0
stylish 0.0
disregard 0.0
jtimberlake 0.0
backstage 0.0
barack 0.0
joined 0.0
terrorism 0.0
pushing 0.000159710546812
hopeful 7.45043128185e-05
mentions 0.0
teamed 0.0
exclusively 6.8294431106e-05
aliciakeys 0.0
kingjames 0.0
muhammad 0.0
refused 0.000141392522277
characters 0.0
express 0.000102968623267
gratitude 0.0
ugliest 0.0
throughout 5.27496395901e-05
awkward 0.0
shining 0.000134560561617
fighter 0.0
accepting 0.0
applemusic 0.0
reveal 4.85170856632e-05
stands 0.0
native 0.0
announce 3.86451124167e-05
dorothy 0.0
haters 0.0
jessetyler 0.0
shondarhimes 0.0
lavernecox 0.0
broadway 7.45043128185e-05
disabilities 9.72153737144e-05
adoption 0.0
touched 6.21964984026e-05
corruption 0.0
violence 4.88021590148e-05
leedanielsent 0.0
delivered 0.000108130184799
jasmine 0.0
independence 0.0
square 0.000135053922816
alongside 6.37312658142e-05
privilege 0.000123119698712
secondary 8.72031221535e-05
staggering 9.31673102952e-05
seventh 0.0
tennis 0.000366427147697
sweeping 8.58655920706e-05
footage 0.0
overseas 0.000145975144923
spoiler 0.0
theirs 0.0
offering 0.000220348180318
construction 0.0
spends 7.6093651555e-05
detail 0.0
cabinet 0.0
earnings 9.97713146572e-05
pleased 0.0
gravity 0.0
statements 0.0
decade 0.000155859535082
bigotry 0.0
belong 0.0
trillion 0.0
backed 0.000198163948247
operations 0.0
breakthroughs 0.0
values 0.0
senator 0.0
removing 0.0
wondered 0.0
introduces 0.0
makers 0.0
measured 0.0
pillars 0.0
instrument 0.0
shares 0.000160697015511
individual 0.0
applications 0.000152841709222
prepares 0.0
ceremony 0.0
expanding 0.0
merger 0.0
newspaper 0.000373178990416
detailed 7.35859821928e-05
tuition 0.0
childcare 0.0
thoroughly 0.0
adviser 0.000694010135991
matthew 6.35076229384e-05
affected 5.13294822552e-05
newspapers 0.000150261902122
corporate 0.00021126195274
economy 0.0
presenting 0.0
spoken 0.0
richer 0.0
during 0.0
combat 0.0
touting 0.0
competitive 0.000133569174808
prominence 0.0
trifecta 0.0
fashioned 0.0
boasts 0.0
ripped 8.21487038889e-05
belief 0.0
heroes 0.0
disturbing 0.0
russians 0.0
intelligence 0.00018218860521
deepest 0.0
regrets 0.0
complicated 0.0
internships 0.0
adults 6.37312658142e-05
describe 0.0
equality 5.99194743852e-05
announcement 4.26756086091e-05
interfere 0.0
terrifying 0.0
nationwide 0.000152841709222
manager 0.000208443799505
questionable 0.0
enhanced 0.0
services 0.000171691271037
delighted 0.0
golfer 0.0
regarding 0.0
teachers 0.000119043470004
suggests 6.15598493562e-05
phrase 0.0
immigrants 6.96072835283e-05
revolution 0.0
universities 0.0
twelve 0.0
principle 0.0
releases 0.000122700633076
malarkey 0.0
library 6.26278140954e-05
advisor 0.0
deadlines 9.84687617671e-05
encouraging 0.000131153574672
circuit 0.0
humanitarian 0.0
reliant 0.0
assistance 0.000182115953283
swimmer 0.0
hinges 0.0
concrete 9.42744408666e-05
accepted 5.56100612675e-05
confronted 0.0
comprehensive 0.0
pushed 0.0
unending 0.0
occasionally 8.41620985981e-05
guardia 0.0
donation 5.63204806885e-05
nomination 6.05251600156e-05
paintings 0.0
significantly 0.0
investment 0.000385098725813
terror 6.26278140954e-05
worship 0.0
represents 0.0
attempting 0.0
bullying 0.0
astonishing 0.0
endorse 0.0
urgent 0.0
forced 5.1021972266e-05
addressing 0.0
script 6.37312658142e-05
hundred 0.0
command 7.35859821928e-05
qualifies 0.0
stumbled 0.000101127047449
territory 7.54487605824e-05
balloons 9.60075736463e-05
objects 0.0
latimes 0.0
pandemics 0.0
separating 0.0
pentagon 0.0
threats 0.0
prisons 0.0
approaching 0.0
generous 6.32854760128e-05
roughly 0.0
commands 0.0
uncovered 0.0
destroying 0.0
opposition 0.0
addiction 7.35859821928e-05
manhattan 0.0
ridiculously 8.13763239246e-05
awarded 0.000152841709222
greeted 0.0
forces 0.0
confirm 0.0
dealings 0.0
nations 0.0
equivalent 7.01473091105e-05
sexist 8.02504248636e-05
yahoonews 0.0
bloody 6.30648051574e-05
boundaries 0.0
exceptionally 0.0
cannon 9.15728837238e-05
feared 0.0
significance 0.0
recommendation 0.0
chapters 0.0
racial 0.0
obvious 5.63204806885e-05
statistics 0.0
military 0.0
adopted 0.0
housing 0.000274211530157
clearer 0.000174406244307
calculator 0.0
underwater 0.0
guided 0.0
rescue 0.0
deserving 0.0
advised 0.0
ordered 0.0
unions 9.31673102952e-05
avoiding 7.35859821928e-05
alicia 0.0
preserve 0.0
balloon 0.0001781493012
economic 6.07295350701e-05
recipe 0.0
awaits 0.0
squarely 0.0
radical 0.0
banter 9.54197557958e-05
spaces 0.0
carnival 0.0
theories 0.0
bombing 0.0
products 0.000120644069938
margaret 0.0
gathered 0.0
taxpayers 0.0
admits 0.0
opposed 0.0
pressing 0.0
russia 5.16398662111e-05
lincoln 6.80379754567e-05
intelligent 0.0
momentum 0.0
olympic 0.000123119698712
magnificent 0.000208821850585
heritage 0.0
beijing 0.0
beloved 0.0
dummies 0.0
pursuit 0.0
carries 0.0
phelps 0.0
medals 0.0
gymnastics 0.0
summed 0.0
accuse 0.0
symbol 0.0
dignity 0.0
slogans 0.0
priorities 0.0
applied 6.96072835283e-05
progressive 0.0
activists 0.0
elected 0.0
brussels 0.0
subscribe 0.0
elections 0.0
unites 0.0
complacency 0.0
imperative 0.0
doorsteps 0.0
voices 0.0
blatant 9.60075736463e-05
democracy 0.0
disastrous 0.000171731184141
rebuild 0.0
accuses 0.0
diplomacy 0.0
hardball 0.0
attacking 0.0
subtle 0.0
barker 0.0
sticking 6.51057036707e-05
openly 0.0
policing 0.0
embarrassed 7.15370868479e-05
slightest 0.0
abbott 0.0
attacks 5.35656718369e-05
commit 0.0
argued 0.0
remarks 0.0
democratic 0.0
semitic 0.0
incomes 0.0
treasury 0.0
alarming 9.84687617671e-05
dividing 0.0
reject 0.0
affirming 0.0
quitting 0.0
extended 6.05251600156e-05
reducing 0.0
proudly 0.0
inclusive 0.0
oppose 0.0
distinctly 0.0
urging 0.0
strengthen 0.0
deliver 0.0
obligations 0.0
relations 0.0
repeal 0.0
strengths 0.0
counties 0.0
weakened 0.0
reckless 0.0
prosperous 0.0
servant 0.0
secretaries 0.0
negotiator 0.0
faults 0.0
choking 0.0
executive 0.0
alternative 5.59633714246e-05
extend 7.26923630374e-05
republicans 0.0
embodied 0.0
preparation 7.7085093584e-05
terrorists 0.0
confident 0.000114830885547
weapons 6.48726441771e-05
unifying 0.0
outrage 0.0
constitutional 0.0
rental 0.000217771186511
prevail 0.0
resilient 0.0
humbled 0.0
courage 0.0
commander 0.0
respecting 0.0
enormous 0.0
aligned 0.0
consent 0.0
refusing 7.64208546111e-05
resentment 0.0
substance 0.0
claiming 0.0
lamont 0.0
dropping 5.02654283546e-05
carried 0.0
intimidated 0.0
behalf 0.0
meaningful 0.0
amendment 0.0
accepts 0.0
legislation 0.0
fairer 0.000108885593255
commitments 9.66059833775e-05
handling 0.0
proves 0.0
rhetoric 0.000156214092528
hardest 6.13503165378e-05
peddling 0.000115647285898
divisive 0.0
strongly 0.0
vision 0.0
investigations 0.0
repeatedly 0.0
records 0.000100830729377
madeleine 0.0
disabled 7.95204868751e-05
quoting 0.0
assassination 0.0
beaten 0.000152841709222
deeply 0.0
grievance 0.0
contempt 0.000183145767448
standards 5.99194743852e-05
fairness 0.0
dictated 0.0
consensus 0.0
reconsider 0.0
priority 0.0
rogers 0.0
freedoms 9.15728837238e-05
notorious 0.0
invested 0.000260253800997
propaganda 0.0
unconstitutional 0.0
condemn 0.0
concerned 0.0
praising 0.0
cheered 0.0
realdonaldtrump 0.0
despicable 0.000274718651172
straightforward 0.0
bargain 0.000182115953283
attorney 0.0
bedrock 0.0
optimism 0.0
belongs 0.0
truman 0.0
whichever 0.000110681211174
inappropriate 0.0
beatings 0.0
optimistic 0.0
campaigned 0.0
allies 0.0
governor 0.0
attempts 0.0
extent 0.0
denial 0.0
maximum 8.67512669989e-05
merely 0.0
apprenticeships 0.0
agreeing 0.0
architect 0.0
responsibility 5.47428882013e-05
mainstream 0.0
legitimacy 0.0
injustice 8.58655920706e-05
dozens 0.0
donnell 0.0
scenario 0.0
crimes 0.000147778559315
thoughtful 6.17707125506e-05
hypocrisy 0.0
undocumented 0.0
sexually 0.0
richest 0.0
softening 0.0
implies 0.0
infrastructure 0.0
pitching 0.0
broadband 0.000108885593255
tenants 0.000128581738556
allegations 0.0
bloomberg 0.0
insulting 0.0
liberal 0.0
kremlin 0.0
podium 0.0
provoke 0.0
outrageous 7.95204868751e-05
campaigns 0.0
barriers 0.000242990301956
powell 0.0
technical 0.0
warnings 0.0
flagged 0.0
grassroots 0.0
extremist 0.0
businesses 6.53404102416e-05
welcomes 0.0
deputy 0.0
donating 0.0
continually 0.0
ourselves 0.0
fringe 0.0
politician 6.62961838732e-05
wiggins 0.0
welcomed 0.0
rallies 0.0
ballot 0.0
failing 0.000119043470004
uniting 0.0
refuses 7.09741777524e-05
appealing 0.0
proverb 0.0
privileges 0.0
ideals 0.0
vibrant 0.0
tarmac 0.0
residents 0.0
apprenticeship 0.0
denying 0.0
fierce 0.0
opponents 7.21097017494e-05
polling 0.0
apology 0.0
damning 0.0
outline 0.0
endorses 0.0
losers 0.0
insulted 0.0
equipped 0.0
battlefield 0.0
recession 0.0
endorsed 0.0
divides 0.0
describes 0.0
appointed 0.0
encourage 0.0
undermine 0.0
undermining 9.72153737144e-05
authority 7.21097017494e-05
betray 0.0
funnyordie 0.0
donated 0.0
jimmykimmellive 0.0
immigrant 0.0
criminals 0.0
automatically 0.0
schooled 0.0
elizabethforma 0.0
releasing 0.0
connects 0.0
screening 0.0
cleaner 8.95594890146e-05
nowthisnews 0.0
sophiabush 0.0
chelseaclinton 0.0
stunts 0.0
truths 0.0
transparency 0.0
obamacare 0.0
nickkristof 0.0
contraception 0.0
betting 0.00015904097375
conscience 0.0
proclaimed 0.0
dispatch 0.0
advocate 0.0
profits 0.000300523804244
toward 0.0
guiding 0.0
senators 0.0
barber 9.54197557958e-05
doubled 0.0
mosque 0.0
senate 0.0
louisiana 0.0
senwarren 0.0
parenthood 0.0
organizations 0.0
generations 0.0
minorities 0.0
misogyny 0.0
peacefully 0.000109771268184
decency 8.95594890146e-05
intend 0.0
discourse 0.0
pennsylvania 0.0
katiemcgintypa 0.0
experiencing 0.0
mccain 0.0
scandal 0.000513464967751
constitution 0.0
sensanders 0.0
intolerable 0.0
strive 0.0
forefathers 0.0
abandon 0.0
buzzfeednews 0.0
paulkrugman 0.0
mothers 6.19829231228e-05
compassion 0.0
deeper 0.0
governments 0.0
activism 0.0
jamilsmith 0.0
mike_pence 0.0
elizabethbanks 0.0
empathy 0.0
audited 0.0
checkers 0.0
warming 0.000239677897541
volunteering 0.0
charitable 0.0
qualifications 0.0
workplace 0.0
granddaughter 0.0
recycled 0.0
directing 0.0
politifact 0.0
abolish 0.0
murders 0.0
reagan 0.0
pouring 7.91614472534e-05
ballots 0.0
racists 0.0
empower 0.0
tolerate 0.0
chrismurphyct 0.0
igorvolsky 0.0
outraged 0.0
exceptional 0.0
nightmares 0.0
enforcement 0.0
weaken 0.0
medicaid 0.0
humbly 0.0
newsweek 0.0
conflicts 0.0
suffer 6.96072835283e-05
dallasnews 0.0
bridges 0.0
lesdoggg 0.0
appalling 0.0
hatred 0.0
superpower 0.0
goodbye 5.22694744806e-05
renewable 0.0
robdelaney 0.0
motherjones 0.0
trusted 8.02504248636e-05
sheriff 0.0
personalized 0.0
amnesia 0.0
malala 0.0
problema 0.0
everytown 0.0
casting 0.0
employers 0.0
rudolph 0.0
packets 0.0
organization 0.0
graceful 0.0
hardworking 0.0
cherished 0.0
aggressively 0.0
founding 0.0
sacred 0.0
horrific 0.000138151797454
earned 5.87402673809e-05
siding 0.0
minded 8.17602685656e-05
contribute 0.0
incites 0.0
chooses 0.0
obtained 0.0
defended 0.0
champion 0.0
magazines 0.0
waited 0.0
punished 0.0
conviction 0.0
tradition 6.05251600156e-05
giveaways 0.0
distracted 0.0
endorsing 0.0
pathetic 0.0
ladygaga 0.0
pessimistic 0.0
highlighting 0.0
transgender 0.0
womensmarch 0.0
advisors 0.0
wrecking 0.0
hillaryforva 0.0
registration 0.0
ellemagazine 0.0
acceptance 0.0
defeated 0.0
theroot 0.0
pharrell 0.0
tumblr 0.0
nevada 0.0
illinois 0.0
massachusetts 0.0
theadvocatemag 0.0
lending 0.000413081704193
rejecting 0.000100442263569
legalize 0.0
conned 0.0
arkansas 0.0
celebratin 0.0
rubber 0.0
lenadunham 0.0
hateful 0.0
wizard 0.0
unbearable 0.0
harpersbazaarus 0.0
familia 0.0
iamwill 0.0
retweets 0.0
nominating 0.0
vietnam 0.0
laurie 0.0
claimed 0.0
rapids 0.0
devoted 0.0
casino 0.0
astounding 0.0
summon 0.0
crushed 0.0
louder 0.0
farmers 0.0
lin_manuel 0.0
arrangement 0.0
borrowed 0.000101826248886
mariska 0.0
purposes 0.0
dialogue 0.0
comedian 0.0
________ 0.0
lightly 0.0
defeating 0.0
jerusalem 0.0
cynical 0.0
worrying 0.000414455392362
elizabeth 0.0
insults 0.0
microphone 0.0
sleeves 0.0
theeconomist 0.0
stakes 0.0
nationally 0.0
inspect 0.0
poisoning 0.0
columbus 0.0
declaring 0.0
crushing 0.0
chucktodd 0.0
soldier 0.0
painted 0.0
warned 0.000134063018593
ohiostate 0.0
unrelated 0.0
designated 0.0
clears 0.0
congressional 0.0
confront 0.0
usatoday 0.0
delivers 0.0
pittsburgh 0.0
entiende 0.0
soaked 0.0
bromance 0.0
lifelong 0.0
antiques 0.0
repjohnlewis 0.0
breakers 0.0
fundraising 0.0
hispanic 0.0
defrauded 0.0
fearful 0.000114592884909
nytopinion 0.0
volume 0.0
perfecting 0.0
washingtonpost 0.0
affordable 6.90758987271e-05
mighty 0.00015218730311
normalizing 0.0
boasting 0.000275225772187
assaulting 0.0
disqualify 0.0
monique 0.0
jcolenc 0.0
teamusa 0.0
allysonfelix 0.0
usabasketball 0.0
ibtihaj 0.0
simone 9.84687617671e-05
feminism 0.0
conversion 0.0
destiny 0.0
disrespected 0.0
serenawilliams 0.0
tantrum 0.0
heinous 0.0
unconscious 0.0
accomplishments 0.0
saddened 0.0
disgrace 8.33420361539e-05
rodriguez 0.0
arsenal 0.000270154531444
defender 0.0
malalafund 0.0
merchandise 0.0
laundry 0.0
lesbians 0.0
cnnpolitics 0.0
nickgass 0.0
examining 0.000107182099783
monument 0.0
appeals 0.0
gracias 0.0
madame 0.0
grande 0.0
speechless 8.33420361539e-05
coulter 0.0
missiles 0.0
psyched 0.0
chelsea 0.000498781077773
biases 0.0
resume 0.0
spectator 9.60075736463e-05
angelina 0.0
spectacle 0.0
admiration 9.66059833775e-05
reaches 7.91614472534e-05
español 0.0
dreamers 0.0
mañana 0.0
bursting 0.0
undone 0.0
beyoncé 0.0
nuestra 0.0
diwali 0.0
prestigious 0.0
cynicism 0.0
disability 0.0
registering 0.0
booker 0.0
méxico 0.0
disponible 0.0
honduras 0.0
famously 0.0
overdue 8.58655920706e-05
equity 0.000100442263569
opioid 0.0
millennials 0.0
recommendations 7.45043128185e-05
investors 0.000182115953283
betrays 0.0
patriotism 0.0
liability 0.0
iranian 0.0
delegate 0.0
struck 0.0
millennial 0.0
dictators 0.0
graduate 0.0
analysts 0.0
victor 0.0
shrink 0.0
dictator 0.0
poised 0.0
avoided 0.0
rallying 0.0
catholic 0.0
thriving 0.0
racially 0.0
undermines 0.0
yashar 0.0
inequality 0.0
medicare 0.0
missionaries 0.0
foremost 0.0
deplorable 0.0
demonize 0.0
wikileaks 0.0
enduring 0.0
privatized 0.0
appoint 0.0
losses 0.000209628596083
jbarro 0.0
buffett 0.0
staffers 0.0
takeaway 0.0
moscow 0.0
hampshire 0.0
pandering 0.0
voxdotcom 0.0
reckoning 0.0
moines 0.0
falter 0.0
countless 0.0
democrat 0.0
bostonglobe 0.0
accountable 0.0
dispel 0.0
despair 8.5431457241e-05
persisted 0.0
disclose 0.00010478026975
tedcruz 0.0
flooding 0.0
prejudice 0.0
towers 0.0
criticized 0.0
senatemajldr 0.0
outsider 0.0
declare 7.84548069449e-05
dismantle 0.0
thrive 0.0
threaten 0.0
outsourced 0.0
loophole 0.0
heerjeet 0.0
verbal 0.0
businessinsider 0.0
ukraine 0.0
vladimir 0.0
businessman 0.0
supremacist 0.0
etched 0.0
zekejmiller 0.0
momentarily 0.0
perpetrators 0.0
mocking 0.0
wrecked 0.0
identities 0.0
inhumane 0.0
disavow 0.0
hostile 0.0
muster 0.000122791315842
surrender 0.0
shatter 0.0
patriotic 0.0
rewarded 0.0
jitters 0.0
bullies 9.72153737144e-05
discipline 0.0
forgets 0.0
expand 0.0
apologized 0.0
tournament 0.0
grindstone 0.0
mastery 0.0
provider 0.0
steroids 0.0
jenniferjjacobs 0.0
notion 8.67512669989e-05
hernandez 0.000101826248886
mcuban 0.0
bullied 0.0
jebbush 0.0
discriminating 0.0
somali 0.0
hayden 0.0
limitless 0.0
implement 0.0
nydailynews 0.0
corybooker 0.0
interference 0.0
listens 0.0
preside 0.0
remembers 0.0
toughness 0.0
extensively 0.0
suffered 0.000149632307995
streep 0.0
billionaire 0.0
cheats 0.0
needing 0.0
percentage 0.0
insiders 0.0
binder 0.0
prescriptions 0.0
slashed 0.000254073539376
indebted 0.0
dismisses 0.0
delegates 0.0
pledged 0.0
endured 0.0
deployed 0.0
suspense 0.0
courageously 0.0
resilience 0.0
nationalists 0.0
autonomy 0.0
abandoning 0.0
canvas 0.0
blacks 0.0
pledging 0.0
elaine 0.0
methodist 0.0
candidacy 0.0
bonuses 0.0
resolve 0.000168324197196
laughable 0.0
scares 0.0
intellect 0.0
hopeless 0.0
debunked 0.0
shames 0.000133701212359
connections 0.0
tyleroakley 0.0
perplexed 0.0
ddlovato 0.0
impromptu 0.0
teenvogue 0.0
unveils 0.0
billie 0.0
prouder 0.0
sweetness 0.0
cheryl 0.0
filipino 0.0
petersburg 0.0
drastic 0.0
lifesaving 0.0
decorated 0.0
usagym 0.0
freestyle 0.0
absentee 0.0
lashes 0.0
concentration 0.0
refuge 0.0
renaissance 0.0
actively 0.0
monitoring 0.0
destined 0.0
willfully 0.0
detained 0.0
warmest 0.0
heroic 0.0
bragged 0.0
miners 0.0
shareholders 0.0
randall 0.0
excessive 9.54197557958e-05
geneva 0.0
corporations 0.0
unsolvable 0.0
grandchildren 0.0
discredit 0.0
enormously 0.0
frances 0.0
pillar 0.0
trillions 0.0
expansive 0.0
organize 0.0
capabilities 0.0
confederate 0.0
shakers 0.0
ambiguity 0.0
linking 0.0
pretends 0.0
wireless 0.0
inherit 0.0
paranoia 0.0
theatlantic 0.0
languages 0.0
disposable 0.0
reinforcing 0.0
integrated 0.0
optimist 0.0
pigeons 0.0
chadhgriffin 0.0
katieledecky 0.0
richards 0.0
demconvention 0.0
abcpolitics 0.0
chobani 0.0
dominiclowell 0.0
floridians 0.0
cecilerichards 0.0
clintonfdn 0.0
billclinton 0.0
grounded 0.0
abilities 0.0
grandfather 0.0
profoundly 9.91136527397e-05
fiercely 0.0
drowning 9.84687617671e-05
astound 0.0
alzheimer 0.0
responders 0.0
peacecorps 0.0
nygovcuomo 0.0
hurricanes 0.0
approximately 0.000103270426048
daunting 0.0
organizer 0.0
ingenuity 0.0
illnesses 0.0
intruders 0.0
invading 0.0
harmful 0.0
foundations 0.0
skateboards 0.0
housekeeping 0.0
dangerously 0.0
renters 0.000294334099637
predatory 0.0
rebuke 0.0
jengranholm 0.0
supremacy 0.0
linger 0.0
adamserwer 0.0
clevelanddotcom 0.0
repadamschiff 0.0
fahrenthold 0.0
revoke 0.0
advising 0.0
strengthening 0.0
colleges 0.0
deniers 0.0
aspire 0.0
exceed 0.0
lebassett 0.0
shrugged 0.0
stewardship 0.0
complains 0.000107182099783
temperament 0.0
texasinafrica 0.0
americorps 0.0
latino 0.0
payoffs 0.0
protested 0.0
honorable 0.0
fathom 0.0
inconvenience 0.0
johnkasich 0.0
latinos 0.0
votevets 0.0
unsurprising 0.0
loopholes 0.0
dismal 0.0
unqualified 0.0
rigorous 0.0
mittromney 0.0
joyannreid 0.0
theorist 0.0
evan_mcmullin 0.0
discriminate 0.0
ezraklein 0.0
obsessively 0.0
desperation 0.0
latina 0.0
tammyforil 0.0
pantsuit 0.0
superior 0.0
exonerated 0.0
johnpodesta 0.0
recites 0.0
supremacists 0.0
affront 0.0
electing 0.0
defund 0.0
demeans 0.0
govpencein 0.0
squandered 0.0
machado 0.0
pneumonia 0.0
unhinged 0.0
criticizes 0.0
derailment 0.0
iceberg 0.000111616789705
epipens 0.0
generals 0.0
timkaine 0.0
provocation 0.0
paulbegala 0.0
clintinfdn 0.0
wesleylowery 0.0
childdefender 0.0
dictatorship 0.0
ceasefire 0.0
stamped 0.0
intimidation 0.0
casinos 0.0
manifest 0.0
restrict 0.0
transformation 0.0
battleground 0.0
christine 0.0
touted 0.0
mcconnell 0.0
deflect 0.0
expressing 8.58655920706e-05
commonsense 0.0
statesman 0.0
mcbride 0.0
tumble 0.0
bigoted 0.0
belonged 0.0
praised 0.0
policeman 0.000108022925492
booing 0.0
cathedral 0.000211123474743
tomperez 0.0
keithellison 0.0
knowingly 0.0
wealthiest 0.0
backward 0.0
pretended 0.0
thedemocrats 0.0
psychologists 0.0
americ 0.0
successor 0.0
diplomats 0.0
congratulated 0.0
devotion 0.0
remembrance 9.10579766414e-05
eligible 8.45798505409e-05
incoherent 0.0
exhaustive 0.0
downgraded 0.0
unified 0.0
embraces 0.0
galling 0.0
senatorreid 0.0
lifetimes 0.0
demagogue 0.0
rodham 0.0
temper 0.0
longtime 0.0
vetoing 0.0
janelle 0.0
voguemagazine 0.0
dominique 0.0
surpassed 0.0
associates 0.0
demonstrating 0.0
morning_joe 0.0
bazaar 0.0
consequential 0.0
undressed 0.0
entrepreneurial 0.0
billionaires 0.0
prescription 0.0
senseless 0.0
refresher 0.0
classmates 0.0
maturity 0.0
comentarios 0.0
risked 0.0
invincible 0.0
vigilant 0.0
emissions 0.0
recommit 0.0
voiceless 0.0
natlparkservice 0.0
workplaces 0.0
mayaharris_ 0.0
dhsgov 0.0
cyberattacks 0.0
maxinewaters 0.0
jerrybrowngov 0.0
discriminates 0.0
thejusticedept 0.0
simone_biles 0.0
sotomayor 0.0
traumatic 0.0
scammed 0.0
dreamer 0.0
fulfill 0.0
latinas 0.0
discouraged 0.0
usnavy 0.0
oftentimes 0.0
reprehensible 0.0
demeaning 0.0
ratified 0.0
emilyslist 0.0
lawsuits 0.0
nonviolent 0.0
caucus 0.0
joebiden 0.0
joyful 0.000212724074677
privatize 0.0
barbaraboxer 0.0
sengillibrand 0.0
camino 0.0
familias 0.0
americaferrera 0.0
universidades 0.0
gabbygiffords 0.0
shuttlecdrkelly 0.0
fulton 0.0
shimon 0.0
hablar 0.0
fuerza 0.0
trickle 0.0
refinance 0.0
shattering 0.0
damián 0.0
gouging 0.0
moveon 0.0
simone_manuel 0.0
revdrbarber 0.0
senatorbarb 0.0
cnbcnow 0.0
stiffed 0.0
mikebloomberg 0.0
solver 0.0
thrower 0.0
granddaughters 0.0
changemaker 0.0
clairecmc 0.0
anastasiasomoza 0.0
defunding 0.0
preyed 0.0
aspirations 0.0
fannie 0.0
mubarak 0.0
buzzfeedben 0.0
probed 0.0
marines 0.0
projecting 0.0
outsourcing 0.0
developers 0.0
crimea 0.0
everyo 0.0
chaser 0.000137612886093
dubious 0.0
diplomatic 0.0
rosiegray 0.0
unpatriotic 0.0
multifaceted 0.0
myanmar 0.0
adamparkhomenko 0.0
tjmshow 0.0
tenant 0.0
perjury 0.0
contractual 0.0
surrounds 0.0
exceeded 0.0
thrives 0.0
unclerush 0.0
sailors 0.0
stereotypes 0.0
librarycongress 0.0
acknowledging 0.0
philippe 0.0
battled 0.0
postopinions 0.0
ambassadorrice 0.0
shockingly 0.000235724325138
mcfaul 0.0
presid 0.0
poisons 0.0
kenvogel 0.0
johndingell 0.0
harnessing 0.0
unwritten 0.0
bewildering 0.0
moonshot 0.0
apologizing 0.0
oligarchs 0.0
espionage 0.0
marcorubio 0.0
desecration 0.0
brianefallon 0.0
bangladesh 0.0
twittermoments 0.0
officialcbc 0.0
thefix 0.0
urgency 0.0
traceeellisross 0.0
andradaymusic 0.0
impeccably 0.0
catastrophe 0.0
tallest 0.0
anastasia 0.0
azcentral 0.0
marrying 0.0
moderates 0.0
resembles 0.0
paraphrase 0.0
applauds 0.0
heavier 0.0
virginians 0.0
railing 0.0
eloquently 0.0
denverpost 0.0
independents 0.000119027574831
americanos 0.0
hispanos 0.0
bailouts 0.0
divisiveness 0.0
jmpalmieri 0.0
hardballchris 0.0
republicano 0.0
candidato 0.0
phillyinquirer 0.0
jesserodriguez 0.0
militarytimes 0.0
sunsentinel 0.0
ryanlizza 0.0
bretbaier 0.0
thelastword 0.0
hillaryclinto 0.0
maddowblog 0.0
boundless 0.0
enacting 0.0
gettysburg 0.0
groping 0.0
govchristie 0.0
justices 0.0
watchdogs 0.0
cavalier 0.0
succeeds 0.0
retirees 0.0
pocketed 0.0
multimillionaire 0.0
redcross 0.0
evalongoria 0.0
highways 0.0
marlee 0.0
primero 0.0
pianos 0.0
bribed 0.0
scranton 0.0
wellesley 0.0
perkins 0.0
onward 0.0
algore 0.0
candidly 0.0
trajectory 0.0
quitter 0.0
objectifying 0.0
ignoramus 0.0
disillusioned 0.0
asinine 0.0
vibrancy 0.0
arpaio 0.0
testifying 0.0
chairmen 0.0
luchar 0.0
disrupted 0.0
podemos 0.0
settlements 0.0
massacres 0.0
millones 0.0
eagerly 0.0
grandmas 0.0
dedicado 0.0
seeming 0.0
pragmatic 0.0
hashanah 0.0
porque 0.0
unidos 0.0
nuestras 0.0
primera 0.0
debemos 0.0
muchos 0.0
cuando 0.0
nuestro 0.0
inteligente 0.0
rapists 0.0
agosto 0.0
presidente 0.0
puedes 0.0
mujeres 0.0
safeguarding 0.0
indecent 0.0
motions 0.0
strengthened 0.0
eminently 0.0
innuendo 0.0
memorandum 0.0
reuterspolitics 0.0
educates 0.0
mexicana 0.0
disparage 0.0
absurdity 0.0
backdoor 0.0
affording 0.0
hardline 0.0
steelworkers 0.0
demean 0.0
immigrate 0.0
thuggish 0.0
astrid 0.0
jesuit 0.0
governorship 0.0
waterboarding 0.0
personas 0.0
stephenson 0.0
huracán 0.0
firefighter 0.0
ravages 0.0
marleematlin 0.0
scrolling 0.0
tarnish 0.0
ajentleson 0.0
roanoke 0.0
heaping 0.0
carpentry 0.0
forcefully 0.0
frankiejgrande 0.0
aprildryan 0.0
unjustified 0.0
yamiche 0.0
evacuate 0.0
disrespects 0.0
incomprehensible 0.0
jogger 0.0
vindicated 0.0
blazed 0.0
cambodia 0.0
revolutionize 0.0
welding 0.0
unbeatable 0.0
polished 0.0
saddled 0.000330135154401
interdependence 0.0
alleys 0.0
civility 0.0
vilified 0.0
disagreeable 0.0
terence 0.0
bluster 0.000153222102152
incredib 0.0
holton 0.0
hillaryforpa 0.0
hillaryforco 0.0
jes_chastain 0.0
vitalvoices 0.0
indictments 0.0
evokes 0.0
reaffirming 0.0
rebukes 0.0
minerva 0.0
peddle 0.0
starker 0.0
cascading 0.0
carolinians 0.0
señora 0.000176242103337
honrado 0.0
missionary 0.0
ranchers 0.0
denveropinion 0.0
practicality 0.0
thoughtfulness 0.0
scripture 0.0
pueblo 0.0
morningmoneyben 0.0
smalls 0.0
exemplify 0.0
eviscerated 0.0
jeffflake 0.0
helpless 0.0
sarahemcbride 0.0
indivisible 0.0
colinjones 0.0
mrjoshcharles 0.0
houstonchron 0.0
thoroughness 0.0
isolde 0.0
wonkiest 0.0
equate 0.0
dustbin 0.0
estados 0.0
newrepublic 0.0
expresses 0.0
demonizing 0.0
jeffbezos 0.0
discard 0.0
befriending 0.0
slovenia 0.0
unrelenting 0.0
salmahayek 0.0
revolves 0.0
anselm 0.0
dwells 0.0
usairforce 0.0
deride 0.0
repackaging 0.0
earmarked 0.0
evader 0.0
passpor 0.0
awaited 0.0
guterres 0.0
precinct 0.0
presidencia 0.0
unshakable 0.0
marshablackburn 0.0
comunidad 0.0
merecen 0.0
juntos 0.0
infomercial 0.0
johnstown 0.0
statewide 0.0
skyscrapers 0.0
phillydotcom 0.0
deducted 0.0
laguardiacc 0.0
annieslisttx 0.0
nickmerrill 0.0
leaninorg 0.0
missbeae 0.0
minassianmedia 0.0
natarsha 0.0
foments 0.0
ruline 0.0
steininger 0.0
michaelnutter 0.0
harren 0.0
louisa 0.0
cannell 0.0
robbymook 0.0
broward 0.0
hillaryforfl 0.0
jeanneshaheen 0.0
ericasmegs 0.0
jeremyshorr 0.0
turpin 0.0
rubycramer 0.0
singularly 0.0
joshschwerin 0.0
clionamccarney 0.0
xochitlhinojosa 0.0
adamsmith_usa 0.0
humayun 0.0
jamestaylor_com 0.0
hillaryformn 0.0
ericwms 0.0
dougmillsnyt 0.0
jencarlosmusic 0.0
hannahbfine 0.0
creynoldsnc 0.0
lefsadventures 0.0
pembroke 0.0
perceptiveness 0.0
hillaryforaz 0.0
fayetteville 0.0
entrust 0.0
daveeddiggs 0.0
petewilliamsnbc 0.0
hillary_esp 0.0
ustedes 0.0
nación 0.0
creativa 0.0
bilingües 0.0
multilingües 0.0
contribuyen 0.0
diversidad 0.0
economía 0.0
hillaryforia 0.0
estaré 0.0
discurso 0.0
síganme 0.0
detall 0.0
hopewell 0.0
temperamentally 0.0
redone 0.0
barging 0.0
machadooficial 0.0
mikereedschmidt 0.0
franklinfoer 0.0
eamonjavers 0.0
hillaryforoh 0.0
hustling 0.0
relishes 0.0
markkirk 0.0
asmamk 0.0
just_jenna 0.0
discrimina 0.0
samifayebaker 0.0
padded 0.0
wigazette 0.0
phillytrib 0.0
trivializes 0.0
condones 0.0
ellisoncampaign 0.0
barb_kinney 0.0
theriveterspod 0.0
humiliates 0.0
nickmarroletti 0.0
alli_wilber 0.0
brespolitico 0.0
jasoncherkis 0.0
sean_p_thomas 0.0
outclassed 0.0
outmaneuvered 0.0
belittling 0.0
familie 0.0
yuuuuuuge 0.0
disqualifying 0.0
brynnecraig 0.0
buffywicks 0.0
lasvegassun 0.0
cmichaelhuntley 0.0
civically 0.0
raquelwillis_ 0.0
celebramos 0.0
trayectoria 0.0
pionera 0.0
breakups 0.0
rosenbergerlm 0.0
heraldleader 0.0
jaylon 0.0
decisi 0.0
antónio 0.0
squander 0.0
presidenta 0.0
protegerá 0.0
astrid_nv 0.0
sltrib 0.0
peter_j_k 0.0
brosandprose 0.0
nicholaskitchel 0.0
mahoning 0.0
omerizer 0.0
kendallybrown 0.0
davidnakamura 0.0
chatima 0.0
tammybaldwin 0.0
mpshapiro 0.0
responsibilit 0.0
overgrown 0.0
literally_trump 0.0
imploded 0.0
rnicholasburns 0.0
disastrously 0.0
stiffing 0.0
globeopinion 0.0
degradi 0.0
languishing 0.0
demostrar 0.0
poderosa 0.0
iammarleydias 0.0
tbtimes_opinion 0.0
disloyalty 0.0
defende 0.0
vegalteno 0.0
moodysinvsvc 0.0
decisiveness 0.0
whethe 0.0
preocupada 0.0
trayecto 0.0
afectados 0.0
ayotte 0.0
empathize 0.0
lifelo 0.0
lorellapraeli 0.0
ironworking 0.0
ebeling 0.0
contribuido 0.0
ejército 0.0
inmigrantes 0.0
indocumentados 0.0
enquirer 0.0
delega 0.0
roadshow 0.0
sunsentinelopinion 0.0
resulta 0.0
insultar 0.0
construir 0.0
muralla 0.0
provoked 0.0
discretion 0.0
sdutideas 0.0
merece 0.0
respeto 0.0
enfrentar 0.0
valentía 0.0
ataques 0.0
descaro 0.0
culparla 0.0
petulance 0.0
ninhaitseng 0.0
flippantly 0.0
posteverything 0.0
_vicentefdez 0.0
azcopinions 0.0
aumentó 0.0
andrewjenks 0.0
imwithher 0.0
diferencias 0.0
onevoxdotcom 0.0
ignite_national 0.0
endorsin 0.0
mercersdairy 0.0
everyvoice 0.0
rachaelgass 0.0
galifianakis 0.0
crutcher 0.0
nyledimarco 0.0
mistreat 0.0
wellsfargo 0.0
templeuniv 0.0
sollender 0.0
honremos 0.0
tantas 0.0
contribuciones 0.0
aleatha 0.0
endeavored 0.0
legitimize 0.0
además 0.0
whistles 0.0
ugliness 0.0
jorge_silva 0.0
dnclatinos 0.0
libnofcongress 0.0
unscrupulously 0.0
contractually 0.0
impulsively 0.0
qaddafi 0.0
cancelable 0.0
cnbcopinion 0.0
jbrotherston 0.0
_bxddxss 0.0
sspiderboy 0.0
collegedems 0.0
veered 0.0
charitynav 0.0
usnewsopinion 0.0
humansofny 0.0
unfitness 0.0
steadiness 0.0
nbcusa_inc 0.0
verdadera 0.0
encuentra 0.0
hacemos 0.0
anuncio 0.0
unpresidential 0.0
unfavorably 0.0
heridas 0.0
visibles 0.0
veteranos 0.0
cuidado 0.0
panetta 0.0
experiencia 0.0
confío 0.0
exsecretario 0.0
comercio 0.0
lizromanoff 0.0
americasvoice 0.0
davidleopold 0.0
rebuked 0.0
criminalize 0.0
mentiré 0.0
inmigración 0.0
demonizar 0.0
americanlegion 0.0
sarasolow 0.0
qumber 0.0
zerlinamaxwell 0.0
hillaryforut 0.0
hillaryforga 0.0
grandtetonnps 0.0
marlondmarshall 0.0
mariatcardona 0.0
escuchamos 0.0
claramente 0.0
demonizando 0.0
segunda 0.0
tercera 0.0
rhettbuttle 0.0
hillaryformi 0.0
futuramics 0.0
louisianans 0.0
claressashields 0.0
helen_maroulis 0.0
bri_rollin 0.0
itspooda 0.0
kristihollywood 0.0
meredeetch 0.0
kersee 0.0
rodhams 0.0
bidens 0.0
possibilitie 0.0
maulama 0.0
akonjee 0.0
shotdiva 0.0
auriemma 0.0
maxlinsky 0.0
cowering 0.0
moratory 0.0
hillarycl 0.0
repudiate 0.0
fencer 0.0
bankruptcies 0.0
warrenbuffett 0.0
bishopgarrison 0.0
ajazzyworld 0.0
morell 0.0
starkest 0.0
braille 0.0
frankmugisha 0.0
confiar 0.0
distinguido 0.0
herencia 0.0
harkening 0.0
impulses 0.0
dakota_meyer 0.0
kauveri 0.0
iafftreg 0.0
laurawalkerkc 0.0
jakesherman 0.0
benediction 0.0
denigrates 0.0
ann_oleary 0.0
liberates 0.0
bombast 0.0
repcleaver 0.0
throwed 0.0
luchado 0.0
derechos 0.0
humanos 0.0
trabajadores 0.0
relent 0.0
aprendí 0.0
valores 0.0
trabajo 0.0
mismos 0.0
annella 0.0
drbiden 0.0
expedient 0.0
imangelabassett 0.0
smegielski 0.0
leinonen 0.0
driffin 0.0
buckles 0.0
insatiably 0.0
sybrina 0.0
mcbath 0.0
dontre 0.0
randibrazeau 0.0
sjbxtr 0.0
malcolmkenyatta 0.0
lankford 0.0
countrymen 0.0
countrywomen 0.0
refiere 0.0
separar 0.0
valiente 0.0
strongmen 0.0
seremos 0.0
compañeros 0.0
bienvenidos 0.0
dauntless 0.0
governorva 0.0
sherrodbrown 0.0
vicepresidencia 0.0
ilyseh 0.0
gunsense 0.0
encantada 0.0
anunciar 0.0
splintering 0.0
albamonica 0.0
criminologist 0.0
construiremos 0.0
discriminatio 0.0
endorser 0.0
sniveling 0.0
ryanegraney 0.0
baptize 0.0
convención 0.0
republicana 0.0
