chatting 4.2527190496e-05
trying 0.000252683511329
launch 3.09829520061e-05
moment 5.08098982924e-05
wonderful 0.00036898526887
seeing 0.000389383953752
recommend 0.000338489546897
anybody 3.87515806572e-05
podcast 0.000298219083581
challenges 0.0
worked 5.46520676094e-05
direct 0.0
others 0.000326142674914
currently 3.00585740233e-05
better 0.00124986871165
please 0.000430721466191
travels 5.49368091262e-05
social 0.000452903178385
around 0.000174981619631
people 0.00102489234355
leaving 5.72320352228e-05
morning 0.000226192459534
general 0.000194349764701
overall 4.39240552268e-05
damage 8.2408538843e-05
affect 0.000217483696394
everything 0.000351854937053
twitter 0.000579607613575
present 5.72320352228e-05
though 0.000130849399039
friend 0.000934928991918
watched 2.83834822208e-05
beautiful 0.000258890074794
anything 0.000153253786211
practice 0.000170387411925
helped 0.000110195577946
helpful 8.61532109049e-05
revive 0.0
updated 0.0
thinking 0.000719051342607
finally 5.13608101862e-05
caught 0.0
believe 0.00012532421785
already 0.000325842966411
orlando 0.0
depends 0.000150439798621
chance 0.000150794973023
meaning 7.43350134054e-05
annual 3.3788492181e-05
renewed 0.0
growing 3.01412100464e-05
probably 0.000327026235172
should 6.64406911663e-05
changed 0.000107544743839
history 0.000258890074794
center 0.000230587296847
museum 0.000130915103521
behind 0.000274971116563
pretty 5.13608101862e-05
really 0.000703709874105
expensive 0.0
little 0.000225583592131
earlier 8.8221419353e-05
forget 0.000331155878184
paperwork 0.0
someone 0.000304038682018
mostly 7.63484968626e-05
worker 0.0
safety 3.64115889759e-05
program 0.000244755394549
things 0.000399957987727
electrical 0.0
visiting 0.000103997049104
available 0.000313192383675
perfect 0.000130849399039
different 0.000434219060931
search 0.000134390686415
connect 4.69763020336e-05
numbers 0.000125658785271
person 0.000226802979225
watching 0.000151610106797
passed 0.00021449992501
minutes 0.000129794651251
daughter 3.03907699319e-05
average 0.000107969047047
positive 5.96245849641e-05
outside 0.0
metric 0.0
looking 0.0010025937428
forward 0.00103277119006
raising 0.0
afraid 3.24823621205e-05
impression 0.0
profile 3.4369852668e-05
drawing 0.0
favorite 0.00087501489446
picture 5.34825464791e-05
historic 0.0
instead 2.83064486491e-05
appreciate 8.87052411776e-05
husband 3.92232432205e-05
international 3.10687063757e-05
toddler 0.0
couldn 7.85096394234e-05
remember 0.000276457450541
holidays 3.58853090273e-05
friends 0.00111180744985
despite 3.56778607476e-05
understood 0.000143909117703
impossible 3.41745596885e-05
everyone 0.000150794973023
florida 7.41162176581e-05
always 0.000499947484659
months 2.62405937849e-05
moving 0.000162191661942
meeting 0.000231747713833
google 0.000157947519214
answer 0.000102998983926
together 0.000378004965375
included 0.0
inside 0.000209359038462
section 3.86350425709e-05
missed 0.000101894116364
button 4.17250668886e-05
active 8.08857384264e-05
longer 2.90084491283e-05
enough 0.000127024745731
projects 8.93057865513e-05
driving 3.07274399937e-05
building 0.0001411482587
enjoying 0.000676003679862
kennedy 0.0
tantrums 0.0
apparently 9.71748823506e-05
recent 0.000199322073499
gotten 0.0
amazing 0.000501296871402
determined 9.69632308254e-05
attention 0.000256146785264
progress 0.0
tomorrow 0.000628312387594
whenever 0.0
curious 7.98957110557e-05
george 0.000281169924691
feeling 0.000315738100432
excited 0.000288646531634
campaigning 0.0
understand 0.000137000500764
learning 0.000529630851009
special 0.000329375238852
secret 0.000112612360176
across 8.42302863731e-05
comparison 0.0
surprised 0.0
anymore 3.20319467954e-05
spirited 0.0
precious 5.30047202186e-05
rejoice 0.0
rather 8.468895522e-05
showing 0.000107254498361
saying 5.24811875698e-05
tweeted 3.32203455831e-05
updates 7.30363754964e-05
thoughts 0.000266691306953
exactly 0.000326142674914
except 3.20319467954e-05
getting 0.000477517414572
nothing 0.000150794973023
tweets 0.000249287218284
course 0.000363425023502
photos 3.03907699319e-05
looked 2.85382652183e-05
difficult 0.000165634486732
office 0.000135892781214
decisions 0.000151787992038
brought 0.0
biggest 0.0
thrilled 3.82886530897e-05
entire 5.58496038692e-05
something 0.000552914901083
closing 0.0
anyone 0.000101346227339
taking 7.53974865113e-05
reprint 0.0
flying 3.15895038428e-05
happening 2.74001001529e-05
sometimes 0.000138492899047
lessons 0.000145646355903
village 0.0
stopped 5.89752933905e-05
yesterday 0.000202692454678
service 2.76236251078e-05
serious 2.68861859598e-05
emails 0.000130490217836
wearing 0.0
afford 0.000162272678388
either 2.74001001529e-05
second 5.06731136696e-05
checking 9.77202820105e-05
volunteers 0.0
indeed 6.85440309239e-05
hearing 0.000589612004612
choose 5.91368274518e-05
another 0.000250648435701
address 0.000101653354527
display 0.000134851453736
compare 0.0
weekend 0.000127367645456
suggested 4.91808882609e-05
appear 0.000152241459922
anyway 0.000129929448482
theory 0.000618064041323
buildings 0.0
working 0.000351854937053
bigger 2.94876466953e-05
treated 0.0
admired 0.0
retirement 0.0
laughing 2.98122924821e-05
wanted 0.000101619796585
current 5.92988851252e-05
grateful 3.28486305667e-05
friendship 0.000147542664783
family 5.02649910075e-05
listening 0.000798917940107
stream 0.0
sharing 8.87052411776e-05
double 5.69215078365e-05
especially 0.000111396667426
middle 0.0
waiting 7.72492379444e-05
definitely 8.24231598283e-05
walking 0.0
account 8.84629400858e-05
completely 0.000119249169928
thought 0.000481394579861
accept 0.0
possible 0.000186180370291
simple 5.84937993144e-05
manufacturing 0.0
destroyed 0.0
members 9.50321044983e-05
supposed 3.34082966508e-05
manufacturers 0.0
business 0.0002168411397
absolutely 8.06585578794e-05
anywhere 3.35028047945e-05
sending 0.0
introducing 0.0
congrats 0.000263826247024
beauty 7.19793646979e-05
community 6.19659040122e-05
greatest 0.000164846319657
posted 0.000148653674541
wednesday 0.000181843837004
explain 0.000146634456615
broken 9.34642678251e-05
fairly 0.0
closest 0.0
hoping 0.0
relationship 0.000168942460905
actually 0.00051499491963
pockets 0.0
wallet 0.0
pocket 4.30766054525e-05
argument 7.75031613144e-05
decent 0.0
school 0.000127711488509
throwback 0.0
thursday 0.000188203301719
talented 9.91013914454e-05
discuss 0.000485874411753
celebrate 2.77737599389e-05
celebrating 5.9952420555e-05
anniversary 0.000151953849659
students 0.000666282889416
corners 0.0
internet 0.000218687719204
figure 0.0
opened 3.67327588016e-05
inspired 9.11723097956e-05
latter 0.0
sitting 0.0
playing 0.000178796083913
street 0.000250642501709
points 3.22111402095e-05
advice 5.89752933905e-05
memory 0.00104295228911
forever 8.51504466623e-05
congress 0.000130915103521
imagine 5.60013331161e-05
problem 0.000215671668567
pulling 0.0
furniture 6.36621680703e-05
keeping 0.0
dressed 4.0568169597e-05
chinese 4.0568169597e-05
unlike 0.0
allowed 0.0
otherwise 0.0
afternoon 0.000118273654904
planned 0.0
images 4.42130454308e-05
noticed 0.0
expense 6.06827680999e-05
differences 0.000144929434431
difference 0.000164846319657
editor 0.000165333820422
intent 5.85311288925e-05
suppose 4.83098114771e-05
inspiration 3.44680743041e-05
letting 6.17949816287e-05
system 0.000219902874224
almost 2.51324955038e-05
details 8.24231598283e-05
experience 0.000183684156494
living 0.000157443562709
worries 0.0
weather 3.21213829345e-05
bright 0.0
understands 0.0
normal 3.36928998112e-05
launching 4.09478838485e-05
backyard 0.0
pointed 5.19925425056e-05
before 8.17565587929e-05
monday 0.000236165344064
example 0.0
science 0.00258946475128
tweeting 5.73880252041e-05
forgot 0.0
disaster 0.0
happens 7.80871474738e-05
silence 7.91658477508e-05
learned 0.000232701441398
congratulations 0.000276985798094
natural 7.13557214952e-05
babies 0.000234626943753
mission 0.0
surprising 0.000121704508791
reference 0.0
forgotten 0.0
setting 0.0
appeared 0.0
reminds 3.55747786459e-05
fantastic 0.000266844983063
loving 2.96494425626e-05
complete 0.0
daniel 0.00499607413368
rewarding 0.0
nearly 0.0
spirit 6.51468546737e-05
launched 3.74986025926e-05
finding 0.000184364639962
stories 0.000108714224971
including 0.000167548811608
wouldn 8.13154273874e-05
choice 0.000134068122952
offended 0.0
conversation 0.000641729301652
disrespectful 0.0
making 0.000501296871402
expect 3.01412100464e-05
traits 0.0
discussion 0.000109875729143
believes 0.0
response 2.95684137259e-05
brings 0.00012122922467
seasons 0.0
anytime 4.13334551056e-05
protected 0.0
location 0.0
needed 5.36272491806e-05
seriously 8.33212798168e-05
emergency 0.0
justify 0.0
spending 3.12411027434e-05
groups 8.1136339194e-05
condition 0.0
childhood 0.0
modern 7.2399491107e-05
welcome 0.000355669288047
moments 0.000124964410974
totally 2.90084491283e-05
running 7.91478741073e-05
strong 0.000129445037397
respond 3.79469980095e-05
message 0.0
coming 0.000401037497122
thankful 3.95829238754e-05
issues 0.0
challenge 0.000137744472432
intolerance 0.0
happen 5.12225120386e-05
giving 0.000279454440608
turkey 0.0
excellent 0.000229295913719
limits 0.000186615003176
contractors 0.0
common 0.000403893182884
pressed 0.0
healthcare 0.0
benefits 0.000276237180582
situation 3.28486305667e-05
workers 0.0
company 0.000170764523509
savings 0.0
health 0.000681937178939
insurance 0.0
change 0.00040211992806
silver 0.000123227243802
august 0.000106416359642
crying 0.0
mental 0.00011216324793
carrier 0.0
decide 3.11547559417e-05
happened 5.2907887871e-05
parking 0.0
demand 0.0
sacrifice 0.0
personal 8.1978101414e-05
rewards 7.09591617956e-05
beyond 2.80767621244e-05
contributing 0.0
passion 3.80603649804e-05
question 2.56804050931e-05
doctor 3.85190452665e-05
sacrifices 0.0
respected 5.49368091262e-05
losing 0.0
strain 0.0
respect 0.0
shouldn 6.01171480466e-05
career 2.91671631487e-05
visited 3.94624543688e-05
reason 0.000105815775742
simply 9.42440889529e-05
audience 0.000104295228911
sacrificed 0.0
employees 0.0
accounts 8.39791836715e-05
attacked 0.0
involved 2.92468996572e-05
extreme 0.0
valuable 4.71391519531e-05
knocked 0.0
reality 0.000119576468083
mention 0.000278846568055
without 5.06731136696e-05
problems 6.19659040122e-05
timing 4.46528932757e-05
described 4.83098114771e-05
pattern 0.0
online 0.000243287492912
background 7.56682857103e-05
buying 6.815496477e-05
called 0.00017687845793
scientists 0.00130436490988
checked 0.0
heading 2.98941170207e-05
paying 3.26648255163e-05
planning 3.26648255163e-05
opposite 4.12042694215e-05
through 0.0
reached 0.0
changing 6.16246416055e-05
explains 0.000270307937448
harder 0.000139860225456
demands 5.34213527669e-05
silent 0.000127990248917
speaking 0.000345267020507
november 3.36928998112e-05
ordinary 0.0
number 5.1499491963e-05
stunning 3.74986025926e-05
atlantic 0.000291927649874
stupid 3.49650563641e-05
personality 0.000203318657062
grandparents 0.0
unless 3.09829520061e-05
calling 2.63826247024e-05
painting 0.0
focused 0.0
ridiculous 0.0
package 0.0
rooted 0.0
option 3.64115889759e-05
knowing 6.95301526074e-05
former 0.000126358015371
actual 0.000100224889952
tracked 0.0
suffers 0.0
schedule 0.000155945198043
friday 0.000203788232729
failure 4.04428692132e-05
achieve 0.000126368734443
winner 0.0
doctors 0.0
becomes 0.0
directly 4.14633118871e-05
quality 9.74470863616e-05
tearing 0.0
father 8.58480528342e-05
wishes 6.55131182053e-05
collar 0.0
caring 0.0
ground 3.25734273368e-05
matter 0.000242630627137
strategy 4.17250668886e-05
themselves 4.39240552268e-05
asking 0.000106388783023
usually 3.35028047945e-05
thankfully 5.67893138398e-05
reacts 0.0
period 0.0
parents 6.02824200929e-05
balance 3.91044906256e-05
resist 0.0
mobile 0.0
computer 0.000349817981322
reminded 4.36383678403e-05
impressed 3.80603649804e-05
dinner 0.000555475198778
suffering 4.73030697485e-05
single 0.000103556029918
parent 0.0
approved 0.0
energy 5.97882340414e-05
preview 7.1562739383e-05
meltdown 0.0
remind 6.99301127282e-05
emotional 0.000289597964428
sounded 0.000104785018052
status 0.0
update 2.9326891323e-05
outage 0.0
customers 0.0
holding 2.97307349081e-05
causes 8.93057865513e-05
eating 9.42440889529e-05
picked 6.26554976827e-05
missing 0.000134068122952
surprise 0.000134430929799
officially 0.0
global 0.000134390686415
follow 0.000277951862462
opinion 9.8269677308e-05
faster 0.000202840847985
backwards 0.000162178854818
design 7.58939960191e-05
website 0.00036771415716
widely 5.95838054513e-05
origin 0.0
breaks 9.9380692039e-05
allows 4.73030697485e-05
promoting 0.0
volunteer 5.25949180205e-05
convince 0.0
negative 7.32504860955e-05
official 0.0
jersey 4.22569459803e-05
mistake 0.0
fixing 0.0
translated 0.0
ginger 0.0
peaceful 0.0
thinks 5.8653782646e-05
hospital 3.66252430477e-05
lauren 0.0
easier 0.0
excluded 0.0
successful 6.8739705336e-05
leadership 0.000118027687968
agrees 0.0
decline 0.0
turnout 0.0
showed 0.0
trumps 0.0
circle 0.0
engage 5.00834185736e-05
suited 0.0
experienced 4.37808034065e-05
interested 0.000161506104674
effect 0.000397522768156
success 0.000198684375545
ladies 0.0
dreams 0.000132135188594
protect 6.44222804191e-05
explanation 0.000134851453736
occasion 0.0
medication 0.0
planet 0.000105804175649
detached 0.0
essence 6.3347731544e-05
control 0.000140383810622
happier 9.17302493785e-05
likely 0.000134390686415
coincidence 0.0
cancel 0.0
project 8.51504466623e-05
laying 0.0
lesson 0.0
requires 9.73092166247e-05
healthy 0.000102232447155
treating 0.0
opening 0.000136630169023
statement 0.0
enjoyed 0.000476996679713
animal 3.77217949167e-05
nervous 0.0
pounds 0.0
wonder 5.45043725286e-05
matters 6.60675942969e-05
shared 6.89361486082e-05
somehow 0.0
benefit 0.000126007789105
terrible 9.60958403861e-05
continues 3.064284643e-05
improve 0.000460843004981
equally 0.0
appointment 0.0
session 0.000131394522267
routine 0.0
exciting 6.02824200929e-05
corner 3.58853090273e-05
imagination 0.0
decides 0.0
cheering 0.0
spring 9.63641488036e-05
fallen 0.0
frequently 0.0
places 5.9952420555e-05
thousands 0.000147362955951
informed 8.84260908615e-05
typical 4.68145061662e-05
continue 5.80168982566e-05
attend 0.0
excuse 3.64115889759e-05
settle 0.0
female 0.000134011219178
recovery 8.31876935501e-05
treasured 0.0
grandma 0.0
closer 0.000157509736381
beginning 0.0
everywhere 2.99762102775e-05
scenes 3.20319467954e-05
bought 0.000122909759975
multiple 7.61207299608e-05
slogan 0.0
wishing 0.0
covered 0.0
remove 0.0
choices 8.13882024394e-05
dealing 4.36383678403e-05
teacher 3.74986025926e-05
training 0.000456027982716
passing 3.39807806233e-05
stopping 3.81742484313e-05
become 0.000157443562709
spread 5.73880252041e-05
season 0.000110794319237
putting 5.27652494048e-05
weight 3.91044906256e-05
quietly 0.0
necessity 0.0
knocks 7.09591617956e-05
effects 0.000279922504764
returns 6.73857996224e-05
expected 0.0
resources 0.0
bucket 0.0
struggling 4.34967392788e-05
register 3.73877493101e-05
promotion 0.0
solution 0.0
manage 4.58651246893e-05
transition 0.0
gained 0.0
define 9.83617765219e-05
somebody 7.49972051852e-05
contract 0.0
ignorant 0.0
managers 0.0
credit 0.0
brothers 3.85190452665e-05
grandkids 0.0
computers 0.00012796122053
physical 0.000167427917839
series 0.000191282236633
offensive 0.0
fighting 5.72320352228e-05
donald 0.000144377973184
mexico 3.63054428536e-05
sandra 0.0
police 6.47832549004e-05
represent 0.0
president 0.000111699207738
talking 0.000831610923825
america 0.000106965092958
michigan 0.0
everybody 0.0
judgment 0.0
carolina 4.61775959358e-05
amount 0.000105804175649
houston 4.28003885621e-05
everyday 0.0
michael 0.000255451339987
protecting 4.48012460804e-05
providing 0.0
attitude 0.0
million 0.00010553049881
election 0.000103997049104
honesty 5.40596182726e-05
targeting 0.0
telling 0.000114153060873
correct 3.23916274502e-05
attack 0.0
elementary 0.0
americans 3.49650563641e-05
killed 5.60013331161e-05
horrible 0.0
salute 0.0
coverage 0.0
united 6.51468546737e-05
college 0.000282732266859
refuse 0.0
preach 0.0
hillary 4.49504845788e-05
clinton 8.21514958682e-05
presidency 0.0
throws 0.0
manning 0.0
american 0.000213353045562
deserved 0.000153614334994
humble 9.26706171985e-05
remain 0.0
founder 9.29880452393e-05
illegal 0.000125570938379
arizona 0.0
opinions 4.30766054525e-05
speeches 0.0
scared 0.0
salary 0.0
pieces 0.000223005040216
taught 7.41162176581e-05
thompson 0.000282750513458
straight 0.000194944167996
blocking 0.0
answers 9.71748823506e-05
created 0.000151120600765
record 0.000288646531634
stamina 0.0
weapon 5.10197592822e-05
bottom 3.36928998112e-05
athletes 0.0
registered 0.0
minnesota 0.0
committed 3.95829238754e-05
journey 6.53296510326e-05
snapchat 0.0
peoples 0.0
disrespect 0.0
brother 3.064284643e-05
prayers 0.0
boston 0.000363054428536
korean 0.0
church 0.0
advantage 0.000128814346471
motivation 5.49368091262e-05
honestly 0.0
defeat 4.51006194099e-05
lifetime 3.79469980095e-05
captain 0.0
retired 0.0
country 7.78767907505e-05
ending 0.0
dressing 0.0
finish 6.17949816287e-05
ranked 0.0
employee 5.53872244514e-05
university 0.000395886505839
dreamed 0.0
prayer 0.0
nominated 0.00011316538475
responds 0.000151923011825
national 0.000244607006185
reform 4.97184869212e-05
shooting 0.0
cancer 3.15895038428e-05
deserve 6.16246416055e-05
mother 0.000112002666232
creating 0.0
powerful 6.12856928599e-05
wisdom 8.47834060822e-05
breaking 5.40638873138e-05
dollars 0.0
questions 0.000720992887481
racist 0.0
charged 0.0
soldiers 5.25949180205e-05
performance 0.000494490562971
reading 0.00085341218225
denver 0.000105189836041
graphic 0.000151361270452
garner 0.0
create 0.000174526081049
jordan 4.37808034065e-05
admire 4.64940226196e-05
nobody 6.16246416055e-05
government 0.000112829848966
politics 3.55747786459e-05
blessing 0.0
wrestling 0.0
charities 0.0
donate 0.0
sample 0.0
bringing 2.822965174e-05
deserves 6.68165933016e-05
regret 8.84260908615e-05
victim 0.0
according 0.000199884866825
threat 3.73877493101e-05
heaven 3.98256187355e-05
heroin 0.0
honest 3.12411027434e-05
became 0.000125658785271
decision 0.000125310995365
counting 3.56778607476e-05
signing 6.58820848133e-05
embrace 4.39240552268e-05
pressure 0.0
celebrities 0.0
facebook 0.000107544743839
kardashian 0.0
divided 0.0
lawyer 0.0
lebron 0.0
campaign 8.7501489446e-05
determine 5.56155125607e-05
whether 9.52966272512e-05
praise 0.0
defined 5.47146087811e-05
proposes 0.0
discover 0.000171201554248
factory 0.0
arrested 0.0
estate 0.0
proposed 0.0
comments 9.19285392899e-05
teenage 0.000220644009305
wounded 0.0
endorsement 0.0
williams 0.000240424157969
custom 0.0
troops 0.0
singer 0.000147012682911
future 0.000336557097233
struggled 0.0
sister 0.0
sabotage 0.0
athlete 5.38450472192e-05
warrior 0.0
cheating 0.0
voting 3.09829520061e-05
succeed 0.0
religion 0.000103985085011
century 0.0
serving 0.0
because 3.61997455535e-05
cleveland 4.95379996805e-05
hiding 0.0
breath 4.26634163058e-05
choosing 4.99002868078e-05
lawrence 0.0
instagram 3.48648663533e-05
opponent 0.0
detroit 0.0
honored 0.000139459465413
nonsense 0.0
lifting 0.0
proven 0.0
talent 0.000167514023972
knocking 0.0
russian 4.18569794598e-05
brains 0.00149545506019
oakland 0.0
regardless 0.0
skills 6.97297327066e-05
citizens 4.29381154903e-05
california 0.0
commitment 0.0
seconds 0.000100793014811
seeking 0.0
threatening 0.0
listen 0.000856644698255
whatever 0.0
mexicans 0.0
satisfied 0.0
fought 0.0
compete 0.0
injured 0.0
billion 0.000143958729396
ceiling 5.75209965401e-05
absolute 0.000110522216963
appearance 0.000115905127713
bigsean 0.0
handle 3.27565591027e-05
promise 2.98122924821e-05
nightclub 0.0
hosting 6.58820848133e-05
actors 5.10197592822e-05
generation 0.000103404222912
criminal 0.0
tuesday 8.56147956548e-05
ronald 0.0
locker 0.0
struggle 0.0
degree 0.0
entering 0.0
leader 3.27565591027e-05
pageant 0.0
toughest 0.0
character 0.000134390686415
mirror 0.0
interview 0.00056193054944
whistle 0.0
obviously 7.05361170991e-05
battle 8.7501489446e-05
motivate 0.0
destroy 0.0
relentless 6.81565237364e-05
winning 8.04408737709e-05
charlotte 0.0
accomplished 0.0
stepped 0.0
defense 0.0
appeal 0.0
causing 0.0
arabia 0.0
shipped 0.0
society 3.46656830346e-05
officers 0.0
brooklyn 0.0
marked 0.0
incredible 2.71051424625e-05
poster 0.0
wealthy 0.0
memorable 0.000103985085011
officer 4.54036215953e-05
minute 0.000113225794596
luther 5.9854049967e-05
foreign 0.0
pregnant 0.0
champions 0.0
virginia 5.00834185736e-05
tackle 0.0
unarmed 0.0
orange 0.0
policy 3.68407389878e-05
comedy 0.0
reminder 3.02241201531e-05
evidence 0.000447328625372
lighten 0.0
presidents 0.0
kicked 0.0
sticker 0.0
accused 4.97184869212e-05
intentions 0.0
facing 0.0
freedom 0.000174825281821
actions 4.26634163058e-05
debating 0.0
outcome 9.56027455568e-05
utterly 5.40596182726e-05
mississippi 0.0
clearly 3.18540287899e-05
download 3.54721198806e-05
sidelines 0.0
invite 0.0
legally 0.0
central 0.000165634486732
washington 0.000166101727916
veteran 0.0
division 0.0
veterans 0.0
stronger 0.0
promised 0.0
worried 0.0
security 6.66282889416e-05
immediately 7.01312991103e-05
television 0.0
entitled 0.0
racism 0.0
highest 0.0
approve 0.0
turning 3.14146963176e-05
legacy 0.0
ignore 0.0
choked 0.0
backing 5.19925425056e-05
helping 5.52472502157e-05
collector 0.0
willing 7.63484968626e-05
basically 0.0
return 5.55475198778e-05
unacceptable 0.0
feelings 4.33559086289e-05
network 0.000105196948665
language 0.000668166334503
invest 0.0
coward 0.0
schools 0.00014271144299
patients 0.000315569508123
foster 5.19925425056e-05
children 0.000276236251078
nation 9.47685115285e-05
review 0.000597882340414
between 0.0
knowledge 0.000214067164486
begins 6.01171480466e-05
tenure 0.0
faithful 0.0
highlights 0.000113502428565
shoulder 0.0
produced 0.000118027687968
consider 0.000166570722354
shattered 0.0
latest 0.0001902498937
beyonce 5.38450472192e-05
signed 0.000221588638475
millionaire 0.0
shelter 0.0
charity 3.50656495551e-05
germany 0.0
advance 0.000109554563245
proved 5.08296642655e-05
married 0.0
millions 0.0
blessings 0.0
indonesia 0.0
fights 0.0
dollar 0.0
rigged 6.3980610265e-05
conduct 0.0
johnson 3.56778607476e-05
howard 4.60208720731e-05
turned 0.0
criticism 0.0
stomach 0.0
upgrades 0.0
jackie 0.0
relevant 4.46528932757e-05
charge 3.47650763037e-05
ticket 0.0
steady 6.04034649234e-05
indian 5.21917258243e-05
turner 0.0
sanders 5.51610023261e-05
includes 3.73877493101e-05
survivor 0.0
dealers 0.0
collection 3.44680743041e-05
against 0.0
joyner 0.0
impact 6.71953432075e-05
families 0.0
welcoming 0.0
hitting 3.35028047945e-05
announced 6.11170763478e-05
granted 0.0
decided 0.0
itself 8.53268326115e-05
selfish 6.24274788809e-05
mexican 0.0
respects 0.0
guarantee 4.91808882609e-05
beliefs 0.000235160685432
citizen 9.02012388198e-05
states 3.16773681661e-05
denied 0.0
drought 0.0
memorial 0.0
decades 8.06363875431e-05
trayvon 0.0
landed 0.0
pastor 0.0
ultimate 7.28231779517e-05
weekends 0.0
episode 0.000269785892498
spikes 0.0
engaged 0.0
financial 0.0
payments 0.0
tolerant 0.0
symposium 0.000363570419612
kansas 5.02679018776e-05
agreement 4.64940226196e-05
source 3.52680585496e-05
backbone 0.0
dismiss 0.0
midnight 0.000101653354527
homework 5.58459047375e-05
joining 2.95684137259e-05
reasons 0.000233975197258
talked 0.0
released 0.0002047282976
reaching 0.0
release 5.50977889729e-05
existing 0.0
models 4.84816154127e-05
pageants 0.0
helmets 0.0
scheme 0.0
scholarship 6.12509146978e-05
stacked 0.0
speech 0.000391835730604
standing 2.86940126021e-05
higher 0.000101078699434
purple 0.0
justice 3.3788492181e-05
served 0.0
speaks 0.000108916328561
backup 6.36621680703e-05
allegedly 0.0
purchase 4.30766054525e-05
millionaires 0.0
consideration 0.0
strength 0.0
incredibly 3.54721198806e-05
private 3.22111402095e-05
ignored 0.0
neighbors 0.0
apologizes 0.0
beings 0.0
minimum 5.17949337751e-05
direction 0.000154076181066
enemies 0.0
exclusive 5.96245849641e-05
prison 0.0
himself 0.0
contributes 0.0
investigation 4.63353085993e-05
teaching 3.82886530897e-05
disgusting 0.0
philly 0.0
rights 0.0
cheers 0.0
maintain 0.0
overcome 0.000110774448903
flawless 0.0
unique 0.0001155571358
neighborhood 5.25949180205e-05
dating 0.0
handed 0.0
victory 3.58853090273e-05
lifted 0.0
greatness 5.36323023246e-05
muslim 4.73030697485e-05
terrorist 0.0
productive 0.00044910258127
tribute 3.44680743041e-05
deadspin 0.0
threatened 0.0
horror 9.98005736156e-05
warning 0.0
convention 9.66196229541e-05
understanding 0.000289597964428
action 0.000134794792854
having 0.0
afghan 0.0
announces 0.0
commencement 0.0
speaker 0.000125570938379
graduation 0.0
honors 0.0
produce 0.0
apologize 0.0
insult 0.0
continued 4.30766054525e-05
letter 3.09829520061e-05
discussed 0.0
therapy 0.00094670852437
untrue 0.0
written 0.00024514277144
existence 0.0
essential 4.45054157138e-05
results 3.28486305667e-05
initiative 0.0
disease 9.83617765219e-05
marching 0.0
suggest 0.0
georgetakei 0.0
ensure 0.0
democrats 0.0
marched 0.0
foundation 3.57813696915e-05
access 0.0
writes 4.09478838485e-05
student 0.000613606386031
colorado 0.0
medical 4.13334551056e-05
medicine 0.000151923011825
tremendous 0.0
nytimes 0.000342543284824
kindness 0.000106424336996
public 0.000320838794635
cannot 2.8000666558e-05
reveals 0.00014999441037
invented 4.69763020336e-05
threatens 0.0
candidate 0.0
persistence 0.0
sexual 0.0
illustration 0.0
measure 0.000184083488292
compared 0.0
headline 0.000118027687968
reflect 0.000139005925798
answering 0.0
streaming 0.0
leaders 0.000183126215239
supreme 4.33559086289e-05
nominee 5.08296642655e-05
immigration 0.0
policies 0.0
laundering 0.0
administration 4.74680695174e-05
defend 0.0
communicating 0.0
excitement 0.0
funding 0.0
climate 0.000170108761984
transfer 0.0
conspiracy 4.95379996805e-05
activist 0.0
horrifying 0.0
freely 0.0
retreat 0.000131962935567
daughters 0.0
compelling 0.0
platform 0.0
hamilton 0.0
futures 0.000140251677645
huffingtonpost 5.80209606907e-05
headlines 0.0
january 0.000243355534126
grants 0.0
unprecedented 0.0
relationships 0.000104785018052
philadelphia 0.0
diversity 0.0
funded 0.0
secure 4.58651246893e-05
income 0.0
universal 0.000177435212512
contributed 0.000126695463088
hurricane 0.0
fundamental 0.0
countries 0.0
linked 0.000421330555496
african 4.63353085993e-05
improved 0.0
unclear 0.0
provide 7.36814779755e-05
livestream 5.72747149988e-05
addresses 0.0
enhance 7.56016027905e-05
companies 4.15938467751e-05
proposal 4.69763020336e-05
potential 0.0
discrimination 0.0
connected 0.0
drives 0.0
attending 0.0
filled 0.0
education 0.00033788492181
addressed 0.0
mentioned 0.00151491669308
famous 3.45666834033e-05
resistance 0.0
exists 0.0
demonstrated 0.0
officials 0.0
instructions 0.0
transmission 8.40125252083e-05
olympics 0.0
ability 0.000292145501986
political 0.000143958729396
director 0.0
contains 0.000376382886398
sponsored 5.17949337751e-05
autism 0.000962035968529
previously 0.0
prevent 0.000125175200666
capacity 0.0
donations 0.0
william 0.000127581571488
editors 0.0
passionate 0.0
solving 0.0
innate 0.000201270373451
treatment 3.93425626558e-05
critical 0.000399478555279
feeding 0.0
preparing 8.39791836715e-05
depend 6.46299292195e-05
capable 0.0
bridge 4.04428692132e-05
systematically 0.0
becoming 9.66334206286e-05
embraced 0.0
literacy 7.56016027905e-05
lawyers 0.0
stigma 0.0
malaria 0.0
standard 3.63054428536e-05
hiring 0.0
remains 0.000116605993774
fellow 0.00015927014395
defending 0.0
quotes 0.000124000365317
pushes 0.0
luxury 0.0
admitted 0.000120806929847
colleagues 0.000138062616219
failed 7.45547708954e-05
independent 0.000116254741972
politically 0.0
driven 0.0
agenda 4.52516614056e-05
result 3.61997455535e-05
implications 5.87901713581e-05
insider 0.0
pakistan 0.0
solutions 5.30047202186e-05
trusts 0.0
indiana 5.02679018776e-05
filling 5.12113109799e-05
humility 0.0
clicks 0.0
disagree 0.0
claims 0.000161272775086
editorial 0.0
mistakes 0.000134403738241
offered 0.0
passionately 0.0
justification 0.0
inspiring 0.000271075612071
counter 0.0
shaped 5.49368091262e-05
retroviral 0.0
majority 4.2122911481e-05
approach 3.73877493101e-05
nature 0.000470596692195
concern 4.2527190496e-05
server 6.52965653719e-05
berniesanders 0.0
shameful 0.0
experiment 0.000437716870249
massive 3.18540287899e-05
promises 0.0
colored 0.0
consequences 4.84816154127e-05
whatsoever 0.0
proposals 0.0
guesses 0.0
bernie 5.40596182726e-05
interviewed 8.08857384264e-05
pregnancy 0.0
secretary 4.37808034065e-05
measures 0.000110322004652
vastly 0.0
reduce 0.0
compassionate 0.0
distinguished 7.77303243944e-05
dangerous 6.73857996224e-05
influence 0.000164302991736
letters 4.64940226196e-05
implicit 0.0
saving 3.64115889759e-05
revelations 0.0
incident 0.0
universe 0.000120954581315
victims 3.64115889759e-05
milestone 0.0
perfectly 0.0
exercise 0.000218904017032
receive 0.0
reputation 0.0
economics 0.0
disclosure 0.0
receives 0.0
terrific 0.0
collected 0.0
campus 0.0
founders 7.50965881551e-05
profiling 0.0
systemic 0.0
studying 0.000212018880874
necessary 0.000115905127713
inaccurate 0.0
breast 0.0
debate 0.000193807325609
suddenly 0.0
conflict 5.21917258243e-05
interest 0.000105804175649
meanwhile 0.0
indefensible 0.0
recall 0.0
rating 0.0
nominate 0.0
outstanding 0.0
devastating 0.0
illness 5.47146087811e-05
troubling 0.0
romney 0.0
appears 0.0
breathe 4.90042276371e-05
abroad 0.0
spanish 4.61775959358e-05
profit 0.0
reviews 0.000315704335869
republican 0.0
presidential 0.0
candidates 4.23917030411e-05
politicians 0.0
identified 6.04034649234e-05
epidemic 0.0
displaced 8.70462279681e-05
greater 8.1895767697e-05
absurd 0.0
deadline 4.04428692132e-05
height 0.0
sisters 0.0
nuclear 4.43588031279e-05
stress 0.000417017777393
leading 6.37080575799e-05
restored 0.0
conditions 0.0
however 0.0
achieved 0.0
member 5.89752933905e-05
examples 0.000587634880436
diverse 0.0
suicide 0.0
contributions 0.0
largest 3.95829238754e-05
increase 8.16413409471e-05
targeted 0.0
regulators 0.0
provided 0.0
element 0.0
effectively 0.0
population 0.0
rising 0.0
indication 0.0
versus 0.0
believed 0.0
dynamic 0.000163483098521
invasion 0.0
primary 0.0
provides 0.0
environment 9.23551918717e-05
confirmed 0.0
behavior 0.000246794031332
introduced 0.0
contain 0.0
communities 0.0
worldwide 4.17250668886e-05
responsible 4.09478838485e-05
household 0.0
apparent 0.0
munich 0.0
alternate 0.0
expressed 0.0
movement 0.000100508414383
declared 0.0
hundreds 8.29266237743e-05
information 0.00112136576057
easily 7.38983752722e-05
untreated 0.0
october 0.000175328247776
quantify 0.0
scales 7.82920867822e-05
investigating 0.0
innovation 0.0
perspective 0.000111174326487
rivals 0.0
interests 0.0
toledo 0.0
extraordinary 4.23917030411e-05
gingrich 0.0
describing 5.95838054513e-05
eliminate 0.0
obligation 0.0
gender 0.0
committee 4.10757479341e-05
preventing 0.0
numerous 0.0
unusual 0.0
improving 0.000108552094214
practices 0.0
cemetery 0.0
questioned 0.0
affecting 0.0
ferrell 0.0
genius 0.000133256577883
warren 5.77697286842e-05
organizers 0.0
regularly 0.0
ceilings 0.0
sexism 0.0
prepared 3.79469980095e-05
burden 0.0
foreignpolicy 0.0
county 0.0
uniform 0.0
newyorker 0.000128606323009
anthony 0.000228551708459
reflecting 0.0
grandson 0.0
banning 0.0
considered 0.0
chosen 0.0
outright 7.09591617956e-05
screenings 0.0
naming 0.00017794935392
conventions 0.0
reproductive 8.0674591015e-05
ignores 0.0
focusing 0.0
sensible 0.0
concluded 7.77303243944e-05
performed 0.0
divide 0.0
dismissed 0.0
compromise 0.0
crucial 0.0
weakness 0.0
barrier 0.0
effective 4.17250668886e-05
wealth 0.0
underway 0.0
israel 0.0
overwhelming 0.0
assault 0.0
citing 6.21281055514e-05
protection 0.0
prisoners 0.0
photographing 0.0
traveled 0.0
holder 0.0
seemed 0.0
concludes 0.0
determination 0.0
tested 0.0
lacking 0.0
machine 3.3788492181e-05
honoring 0.0
contrary 0.0
tolerance 0.0
michelle 4.83098114771e-05
assumed 0.0
programs 0.0
closely 0.00010358986755
politico 0.0
inspire 0.0
lyrics 0.000140928906101
judges 0.0
federal 0.0
maryjblige 0.0
tuning 5.53872244514e-05
striving 0.0
poland 0.0
september 0.000246166544291
manchester 0.0
checks 0.0
remarkable 0.0
mharrisperry 0.0
immoral 0.0
fiction 0.000150803705633
process 0.000191656977014
anxious 0.0
destructive 0.0
nmaahc 0.0
performances 9.83617765219e-05
whitehouse 0.0
flotus 0.0
crisis 0.0
marriage 0.0
emotions 0.000211195917406
confidence 0.0
voters 0.0
comparing 5.53872244514e-05
oldest 0.0
empirefox 0.0
chancetherapper 0.0
songwriter 0.000552067350609
literally 6.19659040122e-05
onstage 0.0
believing 0.000101282007884
hillaryclinton 0.0
citizenship 0.0
counted 0.0
hillaryfornc 0.0
raleigh 0.0
discusses 0.000257994374665
johnlegend 0.0
apprentice 0.0
acknowledge 0.0
conservative 0.0
economists 0.0
buzzfeed 0.0
puppet 0.0
hombres 0.0
republic 0.0
homecoming 0.0
andersoncooper 0.0
muslims 0.0
katyperry 0.0
bragging 7.27140839224e-05
treats 0.0
qualified 0.0
islamophobia 0.0
debates 4.97184869212e-05
endorsements 0.0
counts 0.0
theellenshow 0.0
festival 0.000442088867853
encouraged 0.0
stylish 0.0
disregard 0.0
jtimberlake 0.0
backstage 4.51006194099e-05
barack 0.0
joined 0.0
terrorism 0.0
pushing 0.0
hopeful 0.0
mentions 0.0
teamed 0.0
exclusively 0.0
aliciakeys 0.0
kingjames 0.0
muhammad 0.0
refused 0.0
characters 0.000319582844223
express 3.87515806572e-05
gratitude 0.0
ugliest 0.0
throughout 7.94079535433e-05
awkward 0.0
shining 0.0
fighter 0.000106009440437
accepting 0.0
applemusic 0.0
reveal 0.000109554563245
stands 0.0
native 0.0
announce 5.81753603495e-05
dorothy 0.0
haters 0.0
jessetyler 0.0
shondarhimes 0.0
lavernecox 0.0
broadway 0.000112156880256
disabilities 0.0
adoption 0.0
touched 0.0
corruption 0.0
violence 3.67327588016e-05
leedanielsent 0.0
delivered 4.06941012197e-05
jasmine 0.0
independence 4.52516614056e-05
square 3.38844515089e-05
alongside 9.59394118019e-05
privilege 0.0
secondary 0.0
staggering 0.0
seventh 0.0
tennis 0.0
sweeping 0.0
footage 0.0
overseas 0.0
spoiler 5.25949180205e-05
theirs 0.0
offering 8.29266237743e-05
construction 0.0
spends 0.0
detail 9.20417441461e-05
cabinet 0.0
earnings 0.0
pleased 0.000248000730634
gravity 6.01272480331e-05
statements 0.0
decade 3.91044906256e-05
bigotry 0.0
belong 0.0
trillion 6.24274788809e-05
backed 4.97184869212e-05
operations 0.0
breakthroughs 0.0
values 0.0
senator 0.0
removing 0.0
wondered 4.83098114771e-05
introduces 0.0
makers 0.0
measured 0.0
pillars 0.0
instrument 0.000428318866461
shares 4.03181937715e-05
individual 0.000126770837941
applications 0.00011504199308
prepares 6.27304810663e-05
ceremony 0.0
expanding 0.000174062882072
merger 0.0
newspaper 0.000187258024665
detailed 0.0
tuition 0.000146345528417
childcare 0.0
thoroughly 5.77697286842e-05
adviser 0.0
matthew 0.0
affected 0.0
newspapers 0.0
corporate 0.0
economy 0.0
presenting 4.76341656384e-05
spoken 8.37139589197e-05
richer 0.0
during 0.0
combat 0.0
touting 0.0
competitive 5.02679018776e-05
prominence 0.0
trifecta 0.0
fashioned 0.0
boasts 0.0
ripped 0.0
belief 4.64940226196e-05
heroes 3.81742484313e-05
disturbing 5.30047202186e-05
russians 0.0
intelligence 0.00027426205015
deepest 0.0
regrets 0.0
complicated 0.0
internships 0.0
adults 4.79697059009e-05
describe 7.26108857072e-05
equality 4.51006194099e-05
announcement 3.21213829345e-05
interfere 7.82920867822e-05
terrifying 0.0
nationwide 5.75209965401e-05
manager 0.0
questionable 0.0
enhanced 7.94549650224e-05
services 0.0
delighted 0.0
golfer 0.0
regarding 9.26706171985e-05
teachers 4.48012460804e-05
suggests 0.000324347160195
phrase 9.39526040671e-05
immigrants 0.0
revolution 4.68145061662e-05
universities 0.000124256211103
twelve 0.0
principle 5.53872244514e-05
releases 4.61775959358e-05
malarkey 0.0
library 0.000188556607812
advisor 5.82747433195e-05
deadlines 0.0
encouraging 0.0
circuit 0.0
humanitarian 0.0
reliant 0.0
assistance 0.0
swimmer 0.0
hinges 0.0
concrete 0.0
accepted 4.18569794598e-05
confronted 8.70462279681e-05
comprehensive 0.0
pushed 0.0
unending 0.0
occasionally 0.0
guardia 0.0
donation 4.23917030411e-05
nomination 4.5556511211e-05
paintings 7.66433107777e-05
significantly 0.0
investment 0.0
terror 0.0
worship 0.0
represents 0.0
attempting 0.0
bullying 0.0
astonishing 0.0
endorse 0.0
urgent 5.47146087811e-05
forced 7.68071674968e-05
addressing 0.0
script 0.0
hundred 5.27989793516e-05
command 0.0
qualifies 0.0
stumbled 0.0
territory 5.67893138398e-05
balloons 0.0
objects 0.000348596842485
latimes 0.000129259858439
pandemics 0.0
separating 8.78658874402e-05
pentagon 0.0
threats 0.0
prisons 0.0
approaching 0.0
generous 0.000381073325107
roughly 0.0
commands 0.0
uncovered 0.0
destroying 0.0
opposition 5.06410039418e-05
addiction 0.000166161673354
manhattan 0.0
ridiculously 0.0
awarded 0.00011504199308
greeted 0.0
forces 0.0
confirm 0.0
dealings 0.0
nations 0.0
equivalent 5.27989793516e-05
sexist 0.0
yahoonews 0.0
bloody 0.0
boundaries 0.0
exceptionally 0.0
cannon 0.0
feared 0.0
significance 0.0
recommendation 0.0001820483043
chapters 0.0
racial 0.0
obvious 0.0
statistics 0.000309161375924
military 0.0
adopted 0.0
housing 0.0
clearer 0.0
calculator 0.0
underwater 0.0
guided 0.0
rescue 0.0
deserving 0.0
advised 0.0
ordered 0.0
unions 0.0
avoiding 0.0
alicia 7.56016027905e-05
preserve 0.0
balloon 0.0
economic 0.0
recipe 0.0
awaits 0.0
squarely 0.0
radical 0.0
banter 0.0
spaces 0.0
carnival 0.0
theories 0.0
bombing 0.0
products 0.0
margaret 6.12509146978e-05
gathered 0.0
taxpayers 0.0
admits 0.0
opposed 0.0
pressing 0.0
russia 0.0
lincoln 0.0
intelligent 0.0
momentum 0.0
olympic 0.0
magnificent 0.0
heritage 0.0
beijing 0.0
beloved 0.0
dummies 0.0
pursuit 0.0
carries 0.0
phelps 0.0
medals 0.0
gymnastics 0.0
summed 0.0
accuse 0.0
symbol 6.12509146978e-05
dignity 5.82747433195e-05
slogans 0.0
priorities 0.0
applied 5.23925090261e-05
progressive 5.75209965401e-05
activists 0.0
elected 4.36383678403e-05
brussels 0.0
subscribe 0.0
elections 0.0
unites 0.0
complacency 0.0
imperative 0.0
doorsteps 0.0
voices 0.000202214346066
blatant 0.0
democracy 4.39240552268e-05
disastrous 0.0
rebuild 0.0
accuses 0.0
diplomacy 0.0
hardball 0.0
attacking 0.0
subtle 5.93164513067e-05
barker 0.0
sticking 0.0
openly 0.0
policing 0.0
embarrassed 0.0
slightest 0.0
abbott 0.0
attacks 4.03181937715e-05
commit 5.10197592822e-05
argued 0.0
remarks 0.0
democratic 0.0
semitic 0.0
incomes 0.0
treasury 6.46299292195e-05
alarming 0.0
dividing 0.0
reject 0.0
affirming 0.0
quitting 0.0
extended 0.0
reducing 0.000120806929847
proudly 0.0
inclusive 0.0
oppose 0.0
distinctly 0.0
urging 0.0
strengthen 6.3347731544e-05
deliver 7.94079535433e-05
obligations 0.0
relations 0.0
repeal 0.0
strengths 0.0
counties 0.0
weakened 0.0
reckless 0.0
prosperous 0.0
servant 7.18212256447e-05
secretaries 0.0
negotiator 0.0
faults 0.0
choking 0.0
executive 4.17250668886e-05
alternative 0.000126368734443
extend 0.0
republicans 5.10197592822e-05
embodied 9.92836481614e-05
preparation 0.0
terrorists 0.0
confident 0.0
weapons 0.0
unifying 0.0
outrage 0.0
constitutional 0.0
rental 0.0
prevail 0.0
resilient 7.56016027905e-05
humbled 5.36323023246e-05
courage 4.13334551056e-05
commander 0.0
respecting 8.00573405373e-05
enormous 0.0
aligned 0.0
consent 0.0
refusing 5.75209965401e-05
resentment 0.0
substance 0.0
claiming 5.19925425056e-05
lamont 0.0
dropping 0.0
carried 0.0
intimidated 0.0
behalf 4.49504845788e-05
meaningful 0.000217977464695
amendment 0.0
accepts 0.0
legislation 0.0
fairer 0.0
commitments 0.0
handling 0.0
proves 0.0
rhetoric 0.0
hardest 0.0
peddling 0.0
divisive 0.0
strongly 0.0
vision 0.0
investigations 0.0
repeatedly 0.0
records 0.000341522982086
madeleine 0.0
disabled 0.0
quoting 0.000119708099934
assassination 0.0
beaten 0.0
deeply 8.08857384264e-05
grievance 0.0
contempt 0.0
standards 4.51006194099e-05
fairness 5.90519263596e-05
dictated 0.0
consensus 0.0
reconsider 0.0
priority 4.83098114771e-05
rogers 0.000117062257785
freedoms 0.0
notorious 0.0
invested 0.0
propaganda 0.0
unconstitutional 0.0
condemn 0.0
concerned 4.01941370691e-05
praising 0.0
cheered 0.0
realdonaldtrump 0.0
despicable 0.0
straightforward 0.0
bargain 6.85381704509e-05
attorney 0.0
bedrock 0.0
optimism 5.72747149988e-05
belongs 0.0
truman 8.95905280682e-05
whichever 0.0
inappropriate 0.0
beatings 0.0
optimistic 0.0
campaigned 0.0
allies 0.0
governor 0.0
attempts 0.0
extent 0.0
denial 0.0
maximum 0.0
merely 5.63131589816e-05
apprenticeships 0.0
agreeing 0.0
architect 0.0
responsibility 0.0
mainstream 0.0
legitimacy 0.0
injustice 6.46299292195e-05
dozens 0.0
donnell 9.14430327817e-05
scenario 0.0
crimes 0.0
thoughtful 0.000185976090479
hypocrisy 0.0
undocumented 0.0
sexually 0.0
richest 0.0
softening 0.0
implies 7.36400184526e-05
infrastructure 0.0
pitching 0.0
broadband 8.19567886905e-05
tenants 0.0
allegations 0.0
bloomberg 0.0
insulting 0.0
liberal 4.68145061662e-05
kremlin 0.0
podium 7.22636685972e-05
provoke 0.0
outrageous 0.0
campaigns 0.0
barriers 0.0
powell 0.000140251677645
technical 0.000104785018052
warnings 0.0
flagged 0.0
grassroots 0.0
extremist 0.0
businesses 4.91808882609e-05
welcomes 0.0
deputy 0.0
donating 4.52516614056e-05
continually 0.0
ourselves 0.0
fringe 0.0
politician 0.0
wiggins 0.0
welcomed 0.0
rallies 7.13864777435e-05
ballot 0.0
failing 0.0
uniting 0.0
refuses 5.34213527669e-05
appealing 0.0
proverb 0.0
privileges 0.0
ideals 0.0
vibrant 7.31727642085e-05
tarmac 0.0
residents 5.47146087811e-05
apprenticeship 0.0
denying 0.0
fierce 0.0
opponents 0.0
polling 0.0
apology 0.0
damning 0.0
outline 0.0
endorses 0.0
losers 0.0
insulted 0.0
equipped 0.0
battlefield 0.0
recession 0.0
endorsed 0.0
divides 0.0
describes 0.0
appointed 6.01272480331e-05
encourage 0.0
undermine 0.0
undermining 0.0
authority 0.0
betray 0.0
funnyordie 0.0
donated 0.0
jimmykimmellive 0.0
immigrant 0.0
criminals 0.0
automatically 0.0
schooled 0.0
elizabethforma 0.0
releasing 0.00010358986755
connects 0.0
screening 0.0
cleaner 0.0
nowthisnews 0.0
sophiabush 0.0
chelseaclinton 0.0
stunts 0.0
truths 6.77806162883e-05
transparency 0.0
obamacare 0.0
nickkristof 0.0
contraception 0.0
betting 0.0
conscience 0.0
proclaimed 0.0
dispatch 8.19567886905e-05
advocate 0.0
profits 5.65501026915e-05
toward 9.05033228112e-05
guiding 0.0
senators 0.0
barber 0.0
doubled 0.0
mosque 0.0
senate 0.0
louisiana 0.0
senwarren 0.0
parenthood 0.0
organizations 0.0
generations 0.0
minorities 0.0
misogyny 0.0
peacefully 0.0
decency 0.0
intend 6.49610251094e-05
discourse 7.31727642085e-05
pennsylvania 0.0
katiemcgintypa 0.0
experiencing 0.0
mccain 0.0
scandal 0.0
constitution 0.0
sensanders 0.0
intolerable 0.0
strive 0.0
forefathers 0.0
abandon 0.0
buzzfeednews 0.0
paulkrugman 0.0
mothers 0.0
compassion 0.0
deeper 5.32121684982e-05
governments 0.0
activism 0.0
jamilsmith 0.0
mike_pence 0.0
elizabethbanks 0.0
empathy 0.000135561232577
audited 0.0
checkers 0.0
warming 4.51006194099e-05
volunteering 0.0
charitable 0.0
qualifications 0.0
workplace 0.000128606323009
granddaughter 0.0
recycled 0.0
directing 0.0
politifact 0.0
abolish 0.0
murders 0.0
reagan 0.0
pouring 0.0
ballots 0.0
racists 0.0
empower 0.0
tolerate 0.0
chrismurphyct 0.0
igorvolsky 0.0
outraged 0.0
exceptional 0.0
nightmares 0.0
enforcement 0.0
weaken 0.0
medicaid 0.0
humbly 9.24234476261e-05
newsweek 0.000304468123316
conflicts 0.0
suffer 0.000104785018052
dallasnews 0.0
bridges 0.0
lesdoggg 0.0
appalling 0.0
hatred 0.0
superpower 0.0
goodbye 0.0
renewable 0.0
robdelaney 0.0
motherjones 8.78658874402e-05
trusted 0.0
sheriff 7.01258388225e-05
personalized 7.71809094379e-05
amnesia 0.0001868877806
malala 0.0
problema 0.0
everytown 0.0
casting 0.0
employers 0.0
rudolph 0.0
packets 0.0
organization 0.000139961252382
graceful 0.0
hardworking 0.0
cherished 0.0
aggressively 0.0
founding 0.000261186261488
sacred 0.0
horrific 0.0
earned 0.0
siding 0.0
minded 6.15399049018e-05
contribute 0.000104383451649
incites 0.0
chooses 0.0
obtained 0.0
defended 0.0
champion 0.0
magazines 0.0
waited 0.0
punished 0.0
conviction 0.0
tradition 0.0
giveaways 0.0
distracted 0.0
endorsing 0.0
pathetic 0.0
ladygaga 0.0
pessimistic 0.0
highlighting 0.0
transgender 0.0
womensmarch 0.0
advisors 0.0
wrecking 8.47371375156e-05
hillaryforva 0.0
registration 0.0
ellemagazine 0.0
acceptance 5.42760471071e-05
defeated 0.0
theroot 0.0
pharrell 6.70453463921e-05
tumblr 0.0
nevada 0.0
illinois 0.0
massachusetts 0.0
theadvocatemag 0.0
lending 0.0
rejecting 0.0
legalize 0.0
conned 0.0
arkansas 0.0
celebratin 0.0
rubber 6.3347731544e-05
lenadunham 0.0
hateful 0.0
wizard 0.0
unbearable 0.0
harpersbazaarus 0.0
familia 0.0
iamwill 0.0
retweets 0.0
nominating 0.0
vietnam 0.0
laurie 8.0674591015e-05
claimed 0.0
rapids 0.0
devoted 0.0
casino 0.0
astounding 0.0
summon 0.0
crushed 0.0
louder 0.0
farmers 0.0
lin_manuel 0.0
arrangement 0.000236600293118
borrowed 0.0
mariska 0.0
purposes 6.59814677833e-05
dialogue 0.0
comedian 0.0
________ 0.0
lightly 0.0
defeating 0.0
jerusalem 0.0
cynical 0.0
worrying 0.0
elizabeth 0.0
insults 6.74102780446e-05
microphone 0.0
sleeves 0.0
theeconomist 0.000137851468808
stakes 0.0
nationally 0.0
inspect 0.0
poisoning 0.0
columbus 0.0
declaring 0.0
crushing 0.0
chucktodd 0.0
soldier 5.95838054513e-05
painted 0.0
warned 0.0
ohiostate 0.0
unrelated 0.000145428167845
designated 0.0
clears 0.0
congressional 0.0
confront 0.0
usatoday 0.0
delivers 0.000108119236545
pittsburgh 0.0
entiende 0.0
soaked 0.0
bromance 0.0
lifelong 6.3980610265e-05
antiques 0.0
repjohnlewis 0.0
breakers 0.0
fundraising 0.0
hispanic 0.0
defrauded 0.0
fearful 0.0
nytopinion 0.000165246849686
volume 5.80209606907e-05
perfecting 0.0
washingtonpost 0.000108119236545
affordable 0.0
mighty 0.000286373574994
normalizing 0.0
boasting 0.0
assaulting 0.0
disqualify 0.0
monique 0.0
jcolenc 0.0
teamusa 0.0
allysonfelix 0.0
usabasketball 0.0
ibtihaj 0.0
simone 0.0
feminism 0.0
conversion 7.56016027905e-05
destiny 0.0
disrespected 0.0
serenawilliams 0.0
tantrum 0.0
heinous 0.0
unconscious 0.0
accomplishments 0.0
saddened 0.0
disgrace 6.27304810663e-05
rodriguez 7.27140839224e-05
arsenal 0.0
defender 0.0
malalafund 0.0
merchandise 0.0
laundry 0.0
lesbians 0.0
cnnpolitics 0.0
nickgass 0.0
examining 0.0
monument 0.0
appeals 6.56366709481e-05
gracias 0.00032648282686
madame 0.0
grande 0.0
speechless 0.0
coulter 0.0
missiles 0.0
psyched 0.000146345528417
chelsea 5.36323023246e-05
biases 0.000361998494718
resume 0.0
spectator 0.0
angelina 0.0
spectacle 8.62525938749e-05
admiration 0.0
reaches 5.95838054513e-05
español 9.92836481614e-05
dreamers 0.0
mañana 0.0
bursting 0.0
undone 0.0
beyoncé 0.0
nuestra 0.0
diwali 0.0
prestigious 0.0
cynicism 0.0
disability 0.0
registering 0.0
booker 0.0
méxico 0.0
disponible 0.0
honduras 0.0
famously 0.0
overdue 0.0
equity 0.0
opioid 0.0
millennials 0.0
recommendations 5.60784401282e-05
investors 0.0
betrays 0.0
patriotism 0.0
liability 0.0
iranian 0.0
delegate 0.0
struck 0.0
millennial 0.0
dictators 0.0
graduate 0.000112626317963
analysts 0.0
victor 0.000725796145616
shrink 0.0
dictator 0.0
poised 0.0
avoided 0.0
rallying 0.0
catholic 0.0
thriving 0.0
racially 0.0
undermines 0.0
yashar 0.0
inequality 0.0
medicare 0.0
missionaries 0.0
foremost 8.54833832074e-05
deplorable 0.0
demonize 0.0
wikileaks 0.0
enduring 7.88667643727e-05
privatized 0.0
appoint 0.0
losses 5.25949180205e-05
jbarro 0.0
buffett 0.0
staffers 0.0
takeaway 7.36400184526e-05
moscow 0.0
hampshire 0.0
pandering 0.0
voxdotcom 0.0
reckoning 0.0
moines 0.0
falter 0.0
countless 0.0
democrat 0.0
bostonglobe 7.82920867822e-05
accountable 0.0
dispel 0.0
despair 0.0
persisted 0.0
disclose 0.0
tedcruz 0.0
flooding 0.0
prejudice 0.0
towers 0.0
criticized 0.0
senatemajldr 0.0
outsider 0.0
declare 0.0
dismantle 0.0
thrive 0.0
threaten 0.0
outsourced 0.0
loophole 0.0
heerjeet 0.0
verbal 0.000391460433911
businessinsider 0.0
ukraine 0.0
vladimir 0.0
businessman 0.0
supremacist 0.0
etched 0.0
zekejmiller 0.0
momentarily 0.0
perpetrators 0.0
mocking 0.0
wrecked 0.0
identities 0.0
inhumane 0.0
disavow 0.0
hostile 0.0
muster 0.0
surrender 0.0
shatter 0.0
patriotic 0.0
rewarded 0.0
jitters 0.0
bullies 0.0
discipline 0.0
forgets 0.0
expand 0.0
apologized 0.0
tournament 0.0
grindstone 0.0
mastery 0.0
provider 0.0
steroids 0.0
jenniferjjacobs 0.0
notion 0.000130593130744
hernandez 0.0
mcuban 0.0
bullied 0.0
jebbush 0.0
discriminating 0.0
somali 9.67818244934e-05
hayden 0.0
limitless 0.0
implement 0.0
nydailynews 0.0
corybooker 0.0
interference 0.0
listens 7.13864777435e-05
preside 0.0
remembers 5.70308362426e-05
toughness 0.0
extensively 0.0
suffered 0.0
streep 0.0
billionaire 0.0
cheats 0.0
needing 0.0
percentage 0.0
insiders 0.0
binder 0.0
prescriptions 0.0
slashed 0.0
indebted 0.0
dismisses 0.0
delegates 0.0
pledged 0.0
endured 0.0
deployed 0.0
suspense 0.0
courageously 0.0
resilience 0.000146345528417
nationalists 0.0
autonomy 0.0
abandoning 0.0
canvas 0.0
blacks 0.0
pledging 0.0
elaine 8.1307469736e-05
methodist 0.0
candidacy 0.0
bonuses 0.0
resolve 0.0
laughable 0.0
scares 7.94549650224e-05
intellect 0.0
hopeless 0.0
debunked 0.0
shames 0.0
connections 5.85311288925e-05
tyleroakley 0.0
perplexed 0.0
ddlovato 0.0
impromptu 7.22636685972e-05
teenvogue 0.0
unveils 0.0
billie 8.87133372145e-05
prouder 0.0
sweetness 0.0
cheryl 0.0
filipino 0.0
petersburg 0.0
drastic 0.0
lifesaving 0.0
decorated 0.0
usagym 0.0
freestyle 0.0
absentee 0.0
lashes 0.0
concentration 0.0
refuge 0.0
renaissance 0.0
actively 0.0
monitoring 0.0
destined 0.0
willfully 0.0
detained 0.0
warmest 0.0
heroic 0.0
bragged 0.0
miners 0.0
shareholders 0.0
randall 0.0
excessive 0.0
geneva 0.0
corporations 0.0
unsolvable 0.0
grandchildren 0.0
discredit 0.0
enormously 0.0
frances 0.0
pillar 0.0
trillions 0.0
expansive 0.0
organize 0.000731727642085
capabilities 0.0
confederate 0.0
shakers 0.0
ambiguity 0.0
linking 6.81565237364e-05
pretends 0.0
wireless 0.0
inherit 0.0
paranoia 0.0
theatlantic 0.0
languages 0.000266742662949
disposable 0.0
reinforcing 0.000102063996987
integrated 0.0
optimist 0.0
pigeons 0.0
chadhgriffin 0.0
katieledecky 0.0
richards 0.0
demconvention 0.0
abcpolitics 0.0
chobani 0.0
dominiclowell 0.0
floridians 0.0
cecilerichards 0.0
clintonfdn 0.0
billclinton 0.0
grounded 0.0
abilities 7.77303243944e-05
grandfather 0.0
profoundly 0.0
fiercely 0.0
drowning 7.41161733108e-05
astound 0.0
alzheimer 0.000223804723409
responders 0.0
peacecorps 0.0
nygovcuomo 0.0
hurricanes 0.0
approximately 0.0
daunting 0.0
organizer 0.0
ingenuity 0.0
illnesses 0.0
intruders 0.0
invading 0.0
harmful 7.01258388225e-05
foundations 0.000168025050417
skateboards 0.0
housekeeping 0.0
dangerously 0.0
renters 0.0
predatory 0.0
rebuke 0.0
jengranholm 0.0
supremacy 0.0
linger 0.0
adamserwer 0.0
clevelanddotcom 0.0
repadamschiff 0.0
fahrenthold 0.0
revoke 0.0
advising 0.0
strengthening 0.0
colleges 0.0
deniers 0.0
aspire 0.0
exceed 0.0
lebassett 0.0
shrugged 0.0
stewardship 0.0
complains 0.0
temperament 0.0
texasinafrica 0.0
americorps 0.0
latino 0.0
payoffs 0.0
protested 0.0
honorable 0.0
fathom 0.0
inconvenience 0.0
johnkasich 0.0
latinos 0.0
votevets 0.0
unsurprising 0.0
loopholes 0.0
dismal 0.0
unqualified 0.0
rigorous 8.47371375156e-05
mittromney 0.0
joyannreid 0.0
theorist 8.33083272543e-05
evan_mcmullin 0.0
discriminate 0.0
ezraklein 0.0
obsessively 0.0
desperation 0.0
latina 0.0
tammyforil 0.0
pantsuit 0.0
superior 0.0
exonerated 0.0
johnpodesta 0.0
recites 0.0
supremacists 0.0
affront 0.0
electing 0.0
defund 0.0
demeans 0.0
govpencein 0.0
squandered 0.0
machado 0.0
pneumonia 9.04996236795e-05
unhinged 0.0
criticizes 0.0
derailment 0.0
iceberg 0.0
epipens 0.0
generals 0.0
timkaine 0.0
provocation 0.0
paulbegala 0.0
clintinfdn 0.0
wesleylowery 0.0
childdefender 0.0
dictatorship 0.0
ceasefire 0.0
stamped 0.0
intimidation 0.0
casinos 0.0
manifest 0.0
restrict 0.0
transformation 0.0
battleground 0.0
christine 7.46015744698e-05
touted 0.0
mcconnell 0.0
deflect 0.0
expressing 0.0
commonsense 0.0
statesman 0.0
mcbride 0.0
tumble 0.0
bigoted 0.0
belonged 0.0
praised 0.0
policeman 0.0
booing 0.0
cathedral 0.0
tomperez 0.0
keithellison 0.0
knowingly 0.0
wealthiest 0.0
backward 0.0
pretended 0.0
thedemocrats 0.0
psychologists 0.0
americ 0.0
successor 0.0
diplomats 0.0
congratulated 0.0
devotion 0.0
remembrance 0.0
eligible 0.0
incoherent 0.0
exhaustive 0.0
downgraded 0.0
unified 0.0
embraces 0.0
galling 0.0
senatorreid 0.0
lifetimes 0.0
demagogue 0.0
rodham 0.0
temper 0.0
longtime 0.0
vetoing 0.0
janelle 0.0
voguemagazine 0.0
dominique 0.0
surpassed 0.0
associates 0.0
demonstrating 0.0
morning_joe 0.0
bazaar 0.0
consequential 0.000108769892253
undressed 0.0
entrepreneurial 0.0
billionaires 0.0
prescription 0.000148232346622
senseless 0.0
refresher 0.0
classmates 0.0
maturity 0.0
comentarios 0.0
risked 0.0
invincible 0.0
vigilant 0.0
emissions 0.0
recommit 0.0
voiceless 0.0
natlparkservice 0.0
workplaces 0.0
mayaharris_ 0.0
dhsgov 0.0
cyberattacks 0.0
maxinewaters 0.0
jerrybrowngov 0.0
discriminates 0.0
thejusticedept 0.0
simone_biles 0.0
sotomayor 0.0
traumatic 0.0
scammed 0.0
dreamer 0.0
fulfill 0.0
latinas 0.0
discouraged 0.0
usnavy 0.0
oftentimes 0.0
reprehensible 0.0
demeaning 0.0
ratified 0.0
emilyslist 0.0
lawsuits 0.0
nonviolent 0.0
caucus 0.0
joebiden 0.0
joyful 0.0
privatize 0.0
barbaraboxer 0.0
sengillibrand 0.0
camino 0.0
familias 0.0
americaferrera 0.0
universidades 0.0
gabbygiffords 0.0
shuttlecdrkelly 0.0
fulton 0.0
shimon 0.0
hablar 0.0
fuerza 0.0
trickle 0.0
refinance 0.0
shattering 0.0
damián 0.0
gouging 0.0
moveon 0.0
simone_manuel 0.0
revdrbarber 0.0
senatorbarb 0.0
cnbcnow 0.0
stiffed 0.0
mikebloomberg 0.0
solver 0.0
thrower 0.0
granddaughters 0.0
changemaker 0.0
clairecmc 0.0
anastasiasomoza 0.0
defunding 0.0
preyed 0.0
aspirations 0.0
fannie 0.0
mubarak 0.0
buzzfeedben 0.0
probed 0.0
marines 0.0
projecting 0.0
outsourcing 0.0
developers 0.0
crimea 0.0
everyo 0.0
chaser 0.0
dubious 7.82920867822e-05
diplomatic 0.0
rosiegray 0.0
unpatriotic 0.0
multifaceted 0.0
myanmar 0.0
adamparkhomenko 0.0
tjmshow 0.0
tenant 0.0
perjury 0.0
contractual 0.0
surrounds 0.0
exceeded 0.0
thrives 0.0
unclerush 0.0
sailors 0.0
stereotypes 0.0
librarycongress 0.0
acknowledging 0.0
philippe 0.0
battled 0.0
postopinions 0.0
ambassadorrice 0.0
shockingly 0.0
mcfaul 0.0
presid 0.0
poisons 0.0
kenvogel 0.0
johndingell 0.0
harnessing 0.0
unwritten 0.0
bewildering 0.0
moonshot 0.0
apologizing 7.88667643727e-05
oligarchs 0.0
espionage 0.0
marcorubio 0.0
desecration 0.0
brianefallon 0.0
bangladesh 0.0
twittermoments 0.0
officialcbc 0.0
thefix 0.0
urgency 0.0
traceeellisross 0.0
andradaymusic 0.0
impeccably 0.0
catastrophe 0.0
tallest 0.0
anastasia 0.0
azcentral 0.0
marrying 0.0
moderates 0.0
resembles 0.0
paraphrase 0.0
applauds 0.0
heavier 0.0
virginians 0.0
railing 0.0
eloquently 0.0
denverpost 0.0
independents 0.0
americanos 0.0
hispanos 0.0
bailouts 0.0
divisiveness 0.0
jmpalmieri 0.0
hardballchris 0.0
republicano 0.0
candidato 0.0
phillyinquirer 0.0
jesserodriguez 0.0
militarytimes 0.0
sunsentinel 0.0
ryanlizza 0.0
bretbaier 0.0
thelastword 0.0
hillaryclinto 0.0
maddowblog 0.0
boundless 0.0
enacting 0.0
gettysburg 0.0
groping 0.0
govchristie 0.0
justices 0.0
watchdogs 0.0
cavalier 0.0
succeeds 0.0
retirees 0.0
pocketed 0.0
multimillionaire 0.0
redcross 0.0
evalongoria 0.0
highways 0.0
marlee 0.0
primero 0.0
pianos 0.0
bribed 0.0
scranton 0.0
wellesley 0.0
perkins 0.0
onward 0.0
algore 0.0
candidly 0.0
trajectory 0.0
quitter 0.0
objectifying 0.0
ignoramus 0.0
disillusioned 0.0
asinine 0.0
vibrancy 0.0
arpaio 0.0
testifying 0.0
chairmen 0.0
luchar 0.0
disrupted 0.0
podemos 0.0
settlements 0.0
massacres 0.0
millones 0.0
eagerly 0.0
grandmas 0.0
dedicado 0.0
seeming 0.0
pragmatic 0.0
hashanah 0.0
porque 0.0
unidos 0.0
nuestras 0.0
primera 0.0
debemos 0.0
muchos 0.0
cuando 0.0
nuestro 0.0
inteligente 0.0
rapists 0.0
agosto 0.0
presidente 0.0
puedes 0.0
mujeres 0.0
safeguarding 0.0
indecent 0.0
motions 0.0
strengthened 0.0
eminently 0.0
innuendo 0.0
memorandum 0.0
reuterspolitics 0.0
educates 0.0
mexicana 0.0
disparage 0.0
absurdity 0.0
backdoor 0.0
affording 0.0
hardline 0.0
steelworkers 0.0
demean 0.0
immigrate 0.0
thuggish 0.0
astrid 0.0
jesuit 0.0
governorship 0.0
waterboarding 0.0
personas 0.0
stephenson 0.0
huracán 0.0
firefighter 0.0
ravages 0.0
marleematlin 0.0
scrolling 0.0
tarnish 0.0
ajentleson 0.0
roanoke 0.0
heaping 0.0
carpentry 0.0
forcefully 0.0
frankiejgrande 0.0
aprildryan 0.000117962046196
unjustified 0.0
yamiche 0.0
evacuate 0.0
disrespects 0.0
incomprehensible 0.0
jogger 0.0
vindicated 0.0
blazed 0.0
cambodia 0.0
revolutionize 0.0
welding 0.0
unbeatable 0.0
polished 0.0
saddled 0.0
interdependence 0.0
alleys 0.0
civility 8.95905280682e-05
vilified 0.0
disagreeable 0.0
terence 0.0
bluster 0.0
incredib 0.0
holton 0.0
hillaryforpa 0.0
hillaryforco 0.0
jes_chastain 0.0
vitalvoices 0.0
indictments 0.0
evokes 0.000103579453346
reaffirming 0.0
rebukes 0.0
minerva 0.00124409855059
peddle 0.0
starker 0.0
cascading 0.0
carolinians 0.0
señora 0.0
honrado 0.0
missionary 0.0
ranchers 0.0
denveropinion 0.0
practicality 0.0
thoughtfulness 0.0
scripture 0.0
pueblo 0.0
morningmoneyben 0.0
smalls 0.0
exemplify 0.0
eviscerated 0.0
jeffflake 0.0
helpless 0.0
sarahemcbride 0.0
indivisible 0.0
colinjones 0.0
mrjoshcharles 0.0
houstonchron 0.0
thoroughness 0.0
isolde 0.0
wonkiest 0.0
equate 0.0
dustbin 0.0
estados 0.0
newrepublic 0.0
expresses 0.0
demonizing 0.0
jeffbezos 0.0
discard 0.0
befriending 0.0
slovenia 0.0
unrelenting 0.0
salmahayek 0.0
revolves 0.0
anselm 0.0
dwells 0.0
usairforce 0.0
deride 0.0
repackaging 0.0
earmarked 0.0
evader 0.0
passpor 0.0
awaited 0.0
guterres 0.0
precinct 0.0
presidencia 0.0
unshakable 0.0
marshablackburn 0.0
comunidad 0.0
merecen 0.0
juntos 0.0
infomercial 0.0
johnstown 0.0
statewide 0.0
skyscrapers 0.0
phillydotcom 0.0
deducted 0.0
laguardiacc 0.0
annieslisttx 0.0
nickmerrill 0.0
leaninorg 0.0
missbeae 0.0
minassianmedia 0.0
natarsha 0.0
foments 0.0
ruline 0.0
steininger 0.0
michaelnutter 0.0
harren 0.0
louisa 0.0
cannell 0.0
robbymook 0.0
broward 0.0
hillaryforfl 0.0
jeanneshaheen 0.0
ericasmegs 0.0
jeremyshorr 0.0
turpin 0.0
rubycramer 0.0
singularly 0.0
joshschwerin 0.0
clionamccarney 0.0
xochitlhinojosa 0.0
adamsmith_usa 0.0
humayun 0.0
jamestaylor_com 0.0
hillaryformn 0.0
ericwms 0.0
dougmillsnyt 0.0
jencarlosmusic 0.0
hannahbfine 0.0
creynoldsnc 0.0
lefsadventures 0.0
pembroke 0.0
perceptiveness 0.0
hillaryforaz 0.0
fayetteville 0.0
entrust 0.0
daveeddiggs 0.0
petewilliamsnbc 0.0
hillary_esp 0.0
ustedes 0.0
nación 0.0
creativa 0.0
bilingües 0.0
multilingües 0.0
contribuyen 0.0
diversidad 0.0
economía 0.0
hillaryforia 0.0
estaré 0.0
discurso 0.0
síganme 0.0
detall 0.0
hopewell 0.0
temperamentally 0.0
redone 0.000138233172288
barging 0.0
machadooficial 0.0
mikereedschmidt 0.0
franklinfoer 0.0
eamonjavers 0.0
hillaryforoh 0.0
hustling 0.0
relishes 0.0
markkirk 0.0
asmamk 0.0
just_jenna 0.0
discrimina 0.0
samifayebaker 0.0
padded 0.0
wigazette 0.0
phillytrib 0.0
trivializes 0.0
condones 0.0
ellisoncampaign 0.0
barb_kinney 0.0
theriveterspod 0.0
humiliates 0.0
nickmarroletti 0.0
alli_wilber 0.0
brespolitico 0.0
jasoncherkis 0.0
sean_p_thomas 0.0
outclassed 0.0
outmaneuvered 0.0
belittling 0.0
familie 0.0
yuuuuuuge 0.0
disqualifying 0.0
brynnecraig 0.0
buffywicks 0.0
lasvegassun 0.0
cmichaelhuntley 0.0
civically 0.0
raquelwillis_ 0.0
celebramos 0.0
trayectoria 0.0
pionera 0.0
breakups 0.0
rosenbergerlm 0.0
heraldleader 0.0
jaylon 0.0
decisi 0.0
antónio 0.0
squander 0.0
presidenta 0.0
protegerá 0.0
astrid_nv 0.0
sltrib 0.0
peter_j_k 0.0
brosandprose 0.0
nicholaskitchel 0.0
mahoning 0.0
omerizer 0.0
kendallybrown 0.0
davidnakamura 0.0
chatima 0.0
tammybaldwin 0.0
mpshapiro 0.0
responsibilit 0.0
overgrown 0.0
literally_trump 0.0
imploded 0.0
rnicholasburns 0.0
disastrously 0.0
stiffing 0.0
globeopinion 0.0
degradi 0.0
languishing 0.0
demostrar 0.0
poderosa 0.0
iammarleydias 0.0
tbtimes_opinion 0.0
disloyalty 0.0
defende 0.0
vegalteno 0.0
moodysinvsvc 0.0
decisiveness 0.0
whethe 0.0
preocupada 0.0
trayecto 0.0
afectados 0.0
ayotte 0.0
empathize 0.0
lifelo 0.0
lorellapraeli 0.0
ironworking 0.0
ebeling 0.0
contribuido 0.0
ejército 0.0
inmigrantes 0.0
indocumentados 0.0
enquirer 0.0
delega 0.0
roadshow 0.0
sunsentinelopinion 0.0
resulta 0.0
insultar 0.0
construir 0.0
muralla 0.0
provoked 0.0
discretion 0.0
sdutideas 0.0
merece 0.0
respeto 0.0
enfrentar 0.0
valentía 0.0
ataques 0.0
descaro 0.0
culparla 0.0
petulance 0.0
ninhaitseng 0.0
flippantly 0.0
posteverything 0.0
_vicentefdez 0.0
azcopinions 0.0
aumentó 0.0
andrewjenks 0.0
imwithher 0.0
diferencias 0.0
onevoxdotcom 0.0
ignite_national 0.0
endorsin 0.0
mercersdairy 0.0
everyvoice 0.0
rachaelgass 0.0
galifianakis 0.0
crutcher 0.0
nyledimarco 0.0
mistreat 0.0
wellsfargo 0.0
templeuniv 0.0
sollender 0.0
honremos 0.0
tantas 0.0
contribuciones 0.0
aleatha 0.0
endeavored 0.0
legitimize 0.0
además 0.0
whistles 0.0
ugliness 0.0
jorge_silva 0.0
dnclatinos 0.0
libnofcongress 0.0
unscrupulously 0.0
contractually 0.0
impulsively 0.0
qaddafi 0.0
cancelable 0.0
cnbcopinion 0.0
jbrotherston 0.0
_bxddxss 0.0
sspiderboy 0.0
collegedems 0.0
veered 0.0
charitynav 0.0
usnewsopinion 0.0
humansofny 0.0
unfitness 0.0
steadiness 0.0
nbcusa_inc 0.0
verdadera 0.0
encuentra 0.0
hacemos 0.0
anuncio 0.0
unpresidential 0.0
unfavorably 0.0
heridas 0.0
visibles 0.0
veteranos 0.0
cuidado 0.0
panetta 0.0
experiencia 0.0
confío 0.0
exsecretario 0.0
comercio 0.0
lizromanoff 0.0
americasvoice 0.0
davidleopold 0.0
rebuked 0.0
criminalize 0.0
mentiré 0.0
inmigración 0.0
demonizar 0.0
americanlegion 0.0
sarasolow 0.0
qumber 0.0
zerlinamaxwell 0.0
hillaryforut 0.0
hillaryforga 0.0
grandtetonnps 0.0
marlondmarshall 0.0
mariatcardona 0.0
escuchamos 0.0
claramente 0.0
demonizando 0.0
segunda 0.0
tercera 0.0
rhettbuttle 0.0
hillaryformi 0.0
futuramics 0.0
louisianans 0.0
claressashields 0.0
helen_maroulis 0.0
bri_rollin 0.0
itspooda 0.0
kristihollywood 0.0
meredeetch 0.0
kersee 0.0
rodhams 0.0
bidens 0.0
possibilitie 0.0
maulama 0.0
akonjee 0.0
shotdiva 0.0
auriemma 0.0
maxlinsky 0.0
cowering 0.0
moratory 0.0
hillarycl 0.0
repudiate 0.0
fencer 0.0
bankruptcies 0.0
warrenbuffett 0.0
bishopgarrison 0.0
ajazzyworld 0.0
morell 0.0
starkest 0.0
braille 0.000117962046196
frankmugisha 0.0
confiar 0.0
distinguido 0.0
herencia 0.0
harkening 0.000155560031759
impulses 0.0
dakota_meyer 0.0
kauveri 0.0
iafftreg 0.0
laurawalkerkc 0.0
jakesherman 0.0
benediction 0.0
denigrates 0.0
ann_oleary 0.0
liberates 0.0
bombast 0.0
repcleaver 0.0
throwed 0.0
luchado 0.0
derechos 0.0
humanos 0.0
trabajadores 0.0
relent 0.0
aprendí 0.0
valores 0.0
trabajo 0.0
mismos 0.0
annella 0.0
drbiden 0.0
expedient 0.0
imangelabassett 0.0
smegielski 0.0
leinonen 0.0
driffin 0.0
buckles 0.0
insatiably 0.0
sybrina 0.0
mcbath 0.0
dontre 0.0
randibrazeau 0.0
sjbxtr 0.0
malcolmkenyatta 0.0
lankford 0.0
countrymen 0.0
countrywomen 0.0
refiere 0.0
separar 0.0
valiente 0.0
strongmen 0.0
seremos 0.0
compañeros 0.0
bienvenidos 0.0
dauntless 0.0
governorva 0.0
sherrodbrown 0.0
vicepresidencia 0.0
ilyseh 0.0
gunsense 0.0
encantada 0.0
anunciar 0.0
splintering 0.0
albamonica 0.0
criminologist 0.0
construiremos 0.0
discriminatio 0.0
endorser 0.0
sniveling 0.0
ryanegraney 0.0
baptize 0.0
convención 0.0
republicana 0.0
