chatting 0.0
trying 0.000181370481049
launch 0.0
moment 9.11754752701e-05
wonderful 0.0
seeing 9.31636504934e-05
recommend 0.0
anybody 0.0
podcast 0.000535137199521
challenges 0.000152139004492
worked 0.0
direct 0.0
others 0.0
currently 0.0
better 0.000179425470453
please 9.0930023037e-05
travels 0.0
social 0.000101588627237
around 0.000358850940905
people 8.97127352264e-05
leaving 0.0
morning 0.000270593010333
general 0.000116249869683
overall 0.0
damage 0.0
affect 0.0
everything 9.0197670111e-05
twitter 0.0
present 0.000205399270122
though 0.0
friend 0.000544111443146
watched 0.0
beautiful 0.000278738116848
anything 0.0
practice 0.0
helped 9.88698514416e-05
helpful 0.0
revive 0.0
updated 0.0
thinking 0.0
finally 0.0
caught 0.000101588627237
believe 8.99548750096e-05
already 0.000449774375048
orlando 0.0
depends 0.0
chance 0.000180395340222
meaning 0.0
annual 0.0
renewed 0.000231949470922
growing 0.000432693509502
probably 0.0
should 0.0
changed 0.0
history 0.000185825411232
center 0.000118221657522
museum 0.0
behind 8.97127352264e-05
pretty 0.0
really 0.000180395340222
expensive 0.0
little 0.0
earlier 0.00010553888263
forget 9.14216008983e-05
paperwork 0.0
someone 0.000363720092148
mostly 0.0
worker 0.0
safety 0.0
program 0.0
things 0.000448563676132
electrical 0.0
visiting 0.000248822393468
available 0.000468338279748
perfect 0.000375682897927
different 0.0
search 0.0
connect 0.0
numbers 0.0
person 0.0
watching 0.000453426202622
passed 0.0
minutes 9.31636504934e-05
daughter 0.000109069019442
average 0.0
positive 0.000106992929618
outside 0.0
metric 0.0
looking 0.000269864625029
forward 0.0
raising 0.0
afraid 0.0
impression 0.0
profile 0.000246698990337
drawing 0.0
favorite 0.000523388168788
picture 0.0
historic 0.0
instead 0.0
appreciate 0.000106117676478
husband 0.000140767762285
international 0.0
toddler 0.0
couldn 9.39207244819e-05
remember 0.000180395340222
holidays 0.000257576591627
friends 0.000181370481049
despite 0.0
understood 0.0
impossible 0.0
everyone 9.0197670111e-05
florida 0.0
always 8.97127352264e-05
months 0.0
moving 0.0
meeting 9.24129119264e-05
google 0.0
answer 9.24129119264e-05
together 0.00036176449635
included 0.0
inside 9.39207244819e-05
section 0.0
missed 0.000365686403593
button 0.0
active 0.000145144861364
longer 0.0
enough 0.0
projects 0.0
driving 0.000110277290033
building 0.0
enjoying 0.0
kennedy 0.0
tantrums 0.0
apparently 0.0
recent 0.0
gotten 0.0
amazing 8.99548750096e-05
determined 0.0
attention 0.000102142411311
progress 0.0
tomorrow 0.00126276738155
whenever 0.0
curious 0.0
george 0.0
feeling 0.0
excited 0.000188349017818
campaigning 0.0
understand 0.0
learning 0.0
special 0.00100023025341
secret 0.000404152962527
across 0.000302292925209
comparison 0.0
surprised 0.0
anymore 0.0
spirited 0.0
precious 0.0
rejoice 0.000271325560462
rather 0.000405252047432
showing 9.62310513461e-05
saying 0.0
tweeted 0.0
updates 0.000131059625618
thoughts 0.0
exactly 0.0
except 0.0
getting 0.000270593010333
nothing 9.0197670111e-05
tweets 0.0
course 0.0
photos 0.0
looked 0.0
difficult 0.0
office 0.0
decisions 0.0
brought 0.000199894989705
biggest 9.29127056159e-05
thrilled 0.0
entire 0.000200437881104
something 0.000360790680444
closing 0.00013418038324
anyone 9.0930023037e-05
taking 0.0
reprint 0.0
flying 0.000113371139215
happening 0.000196671690977
sometimes 9.94070550541e-05
lessons 0.000130677054739
village 0.0
stopped 0.0
yesterday 0.000272790069111
service 9.91380511487e-05
serious 9.64914658547e-05
emails 0.0
wearing 0.000105827812784
afford 0.0
either 0.0
second 9.0930023037e-05
checking 0.000116902328815
volunteers 0.0
indeed 0.0
hearing 0.0
choose 0.0
another 0.000449774375048
address 0.0
display 0.0
compare 0.0
weekend 0.00109705921078
suggested 0.0
appear 0.0
anyway 0.0
theory 0.0
buildings 0.0
working 9.0197670111e-05
bigger 0.0
treated 0.0
admired 0.0
retirement 0.0
laughing 0.000320978788853
wanted 9.11754752701e-05
current 0.0
grateful 0.0
friendship 0.00017650461867
family 0.00261573243322
listening 9.88698514416e-05
stream 0.000248111796616
sharing 0.0
double 0.000510712056557
especially 0.0
middle 0.0
waiting 0.000184825823853
definitely 9.86024511386e-05
walking 0.000108173377376
account 0.0
completely 0.0
thought 0.0
accept 0.0
possible 0.0
simple 0.0
manufacturing 0.0
destroyed 0.0
members 0.0
supposed 0.0
manufacturers 0.0
business 0.000194554551718
absolutely 9.64914658547e-05
anywhere 0.0
sending 0.000104677633758
introducing 0.00043409224612
congrats 0.00132557938423
beauty 0.000129162879803
community 0.000111194293607
greatest 0.000197204902277
posted 0.0
wednesday 0.000108769477477
explain 0.0
broken 0.000111810878406
fairly 0.0
closest 0.0
hoping 0.000108470932326
relationship 0.000121263058451
actually 0.0
pockets 0.0
wallet 0.0
pocket 0.0
argument 0.0
decent 0.0
school 0.000366673614507
throwback 0.0
thursday 0.000578948795128
talented 0.0
discuss 0.0
celebrate 0.000299030603985
celebrating 0.000215162423913
anniversary 0.000109069019442
students 0.000119560678428
corners 0.0
internet 0.0
figure 0.0
opened 0.0
inspired 0.0
latter 0.0
sitting 0.0
playing 0.00027500521088
street 0.000299842484558
points 0.0
advice 0.000105827812784
memory 0.0
forever 0.0
congress 0.0
imagine 0.0
problem 9.67526384853e-05
pulling 0.0
furniture 0.0
keeping 0.000100764308403
dressed 0.0
chinese 0.0
unlike 0.0
allowed 0.0
otherwise 0.0
afternoon 0.0
planned 0.0
images 0.0
noticed 0.0
expense 0.0
differences 0.0
difference 0.0
editor 0.0
intent 0.0
suppose 0.0
inspiration 0.0
letting 0.0
system 0.0
almost 0.000180395340222
details 0.000295807353416
experience 0.0
living 0.000282523526727
worries 0.0
weather 0.000115279992829
bright 0.0
understands 0.0
normal 0.0
launching 0.000146957301497
backyard 0.0
pointed 0.0
before 0.0
monday 0.00131844312473
example 0.0
science 0.0
tweeting 0.0
forgot 0.0
disaster 0.0
happens 9.34152992846e-05
silence 0.0
learned 0.000104392378397
congratulations 0.000198814110108
natural 0.0
babies 0.0
mission 0.0
surprising 0.0
reference 0.0
forgotten 0.0
setting 0.0
appeared 0.0
reminds 0.0
fantastic 0.000106408479764
loving 0.000106408479764
complete 0.000103542014351
daniel 0.0
rewarding 0.0
nearly 0.0
spirit 0.000350706986444
launched 0.000134578223072
finding 0.0
stories 0.00029262224872
including 0.0
wouldn 0.0
choice 0.0
offended 0.0
conversation 0.000109671120596
disrespectful 0.0
making 8.99548750096e-05
expect 0.0
traits 0.0
discussion 0.0
believes 0.0
response 0.0
brings 0.0
seasons 0.0
anytime 0.0
protected 0.0
location 0.0
needed 9.62310513461e-05
seriously 0.0
emergency 0.0
justify 0.0
spending 0.0
groups 0.0
condition 0.0
childhood 0.0
modern 0.0
welcome 0.000729403802161
moments 0.000224241534529
totally 0.0
running 0.0
strong 0.0
respond 0.0
message 0.000287137437535
coming 0.000539729250058
thankful 0.000284117230556
issues 0.0
challenge 9.88698514416e-05
intolerance 0.0
happen 9.19158871913e-05
giving 0.0
turkey 0.000657219174606
excellent 0.0
limits 0.0
contractors 0.0
common 0.00033450616888
pressed 0.0
healthcare 0.0
benefits 0.0
situation 0.0
workers 0.0
company 0.0
savings 0.0
health 0.0
insurance 0.0
change 9.0197670111e-05
silver 0.0
august 0.0
crying 0.0
mental 0.0
carrier 0.0
decide 0.0
happened 0.0
parking 0.0
demand 0.000356666009334
sacrifice 0.0
personal 0.0
rewards 0.0
beyond 0.0
contributing 0.0
passion 0.0
question 9.21640553584e-05
doctor 0.0
sacrifices 0.0
respected 0.0
losing 0.0
strain 0.0
respect 9.86024511386e-05
shouldn 0.0
career 0.0
visited 0.0
reason 9.49401983528e-05
simply 0.0
audience 0.0
sacrificed 0.0
employees 0.0
accounts 0.0
attacked 0.0
involved 0.000104963799025
extreme 0.0
valuable 0.0
knocked 0.0
reality 0.000107286588588
mention 0.0
without 0.0
problems 0.0
timing 0.0
described 0.0
pattern 0.0
online 0.0
background 0.0
buying 0.0
called 9.06852405243e-05
scientists 0.0
checked 0.0
heading 0.000107286588588
paying 0.0
planning 0.0
opposite 0.0
through 0.000126573053998
reached 0.0
changing 0.00011058191761
explains 0.0
harder 0.0
demands 0.0
silent 0.000153114152519
speaking 0.0
november 0.0001209199883
ordinary 0.0
number 9.24129119264e-05
stunning 0.0
atlantic 0.0
stupid 0.0
personality 0.0
grandparents 0.0
unless 0.0
calling 0.0
painting 0.0
focused 0.0
ridiculous 0.0
package 0.0
rooted 0.000271325560462
option 0.0
knowing 0.0
former 0.0
actual 0.0
tracked 0.0
suffers 0.0
schedule 0.000139917398238
friday 0.00054852960539
failure 0.0
achieve 0.0
winner 0.000100218940552
doctors 0.0
becomes 0.0
directly 0.0
quality 0.0
tearing 0.0
father 0.000410798540243
wishes 0.000352678703729
collar 0.0
caring 0.0
ground 0.000233804657629
matter 0.0
strategy 0.0
themselves 0.0
asking 9.54543128557e-05
usually 0.0
thankfully 0.0
reacts 0.0
period 0.0
parents 0.0
balance 0.0
resist 0.0
mobile 0.0
computer 0.0
reminded 0.0
impressed 0.0
dinner 0.00169450675592
suffering 0.000169765341439
single 0.000743301644927
parent 0.0
approved 0.0
energy 0.0
preview 0.00012841526935
meltdown 0.0
remind 0.0
emotional 0.0
sounded 0.0
status 0.0
update 0.0
outage 0.0
customers 0.0
holding 0.0
causes 0.0
eating 0.000112743774874
picked 0.0
missing 9.62310513461e-05
surprise 0.0
officially 0.000315752640068
global 0.0
follow 0.00136027860787
opinion 0.0
faster 0.0
backwards 0.0
design 0.0
website 0.0
widely 0.0
origin 0.0
breaks 0.0
allows 0.0
promoting 0.0
volunteer 0.0
convince 0.0
negative 0.0
official 0.00232909126234
jersey 0.000151655376716
mistake 0.0
fixing 0.0
translated 0.0
ginger 0.0
peaceful 0.0
thinks 0.0
hospital 0.000131443834921
lauren 0.0
easier 0.0
excluded 0.0
successful 0.0
leadership 0.0
agrees 0.0
decline 0.0
turnout 0.000196364512722
showed 0.0
trumps 0.0
circle 0.0
engage 0.0
suited 0.00114061935834
experienced 0.0
interested 0.0
effect 0.0
success 0.000305595275913
ladies 0.000618510007289
dreams 0.000355663631246
protect 0.0
explanation 0.0
occasion 0.0
medication 0.0
planet 0.0
detached 0.0
essence 0.0
control 0.0
happier 0.0
likely 0.0
coincidence 0.0
cancel 0.0
project 0.0
laying 0.0
lesson 0.0
requires 0.0
healthy 0.0
treating 0.0
opening 0.0
statement 0.0
enjoyed 0.0
animal 0.0
nervous 0.0
pounds 0.0
wonder 9.78049993525e-05
matters 0.0
shared 0.0
somehow 0.000145594550202
benefit 0.0
terrible 0.0
continues 0.0
improve 0.0
equally 0.0
appointment 0.0
session 0.000235780003861
routine 0.0
exciting 0.0
corner 0.0
imagination 0.0
decides 0.0
cheering 0.0
spring 0.000115279992829
fallen 0.0
frequently 0.0
places 0.0
thousands 0.0
informed 0.0
typical 0.0
continue 0.000104108027176
attend 0.0
excuse 0.0
settle 0.0
female 0.0
recovery 0.000149275589028
treasured 0.0
grandma 0.000190227916997
closer 0.0
beginning 0.000113371139215
everywhere 0.000215162423913
scenes 0.000114959016689
bought 0.000110277290033
multiple 0.0
slogan 0.0
wishing 0.0
covered 0.0
remove 0.0
choices 0.0
dealing 0.0
teacher 0.000134578223072
training 0.0
passing 0.0
stopping 0.0
become 9.41745089092e-05
spread 0.000102979550218
season 0.0010934776056
putting 0.0
weight 0.0
quietly 0.0
necessity 0.0
knocks 0.0
effects 0.0
returns 0.000241839976599
expected 0.0
resources 0.0
bucket 0.0
struggling 0.0
register 0.0
promotion 0.0
solution 0.0
manage 0.0
transition 0.0
gained 0.0
define 0.0
somebody 0.0
contract 0.0
ignorant 0.0
managers 0.0
credit 0.0
brothers 0.000552961903433
grandkids 0.0
computers 0.0
physical 0.000150219942329
series 0.0
offensive 0.0
fighting 0.0
donald 0.0
mexico 0.000130296108369
sandra 0.0
police 0.0
represent 0.0
president 0.000100218940552
talking 9.04411240874e-05
america 0.000287914171713
michigan 0.00018174480791
everybody 0.000111194293607
judgment 0.0
carolina 0.0
amount 0.0
houston 0.000307211460762
everyday 0.000256087575028
michael 0.0
protecting 0.0
providing 0.0
attitude 0.0
million 9.46842417306e-05
election 0.000124411196734
honesty 0.0
targeting 0.0
telling 0.0
correct 0.0
attack 0.0
elementary 0.0
americans 0.0
killed 0.000200982420127
horrible 0.0
salute 0.0
coverage 0.0
united 0.0
college 0.0
refuse 0.0
preach 0.000226233350936
hillary 0.0
clinton 0.0
presidency 0.0
throws 0.0
manning 0.0
american 0.000191424958357
deserved 0.000137826097592
humble 0.000166292156658
remain 0.0
founder 0.00033372352648
illegal 0.0
arizona 0.0
opinions 0.0
speeches 0.0
scared 0.0
salary 0.0
pieces 0.0
taught 0.0
thompson 0.0
straight 0.00039978997941
blocking 0.0
answers 0.0
created 0.000108470932326
record 0.000282523526727
stamina 0.0
weapon 0.0
bottom 0.0
athletes 0.0
registered 0.0
minnesota 0.0
committed 0.000142058615278
journey 0.0
snapchat 0.00066974003802
peoples 0.0
disrespect 0.0
brother 0.000109973693346
prayers 0.000423587958532
boston 0.000130296108369
korean 0.0
church 0.000411009117605
advantage 0.0
motivation 0.0
honestly 0.0
defeat 0.0
lifetime 0.0
captain 0.0
retired 0.0
country 0.00027949095148
ending 0.000121263058451
dressing 0.0
finish 0.000110887583102
ranked 0.0
employee 0.0
university 0.0
dreamed 0.0
prayer 0.0
nominated 0.000270758469917
responds 0.0
national 0.000390162998293
reform 0.000178433999165
shooting 0.0
cancer 0.0
deserve 0.0
mother 0.0
creating 0.0
powerful 0.0
wisdom 0.0
breaking 9.70145736647e-05
dollars 0.0
questions 0.000184825823853
racist 0.0
charged 0.0
soldiers 0.0
performance 0.0
reading 0.0
denver 0.0
graphic 0.0
garner 0.0
create 0.000104392378397
jordan 0.000314248655671
admire 0.0
nobody 0.000221163835219
government 0.0
politics 0.0
blessing 0.000190972425296
wrestling 0.0
charities 0.0
donate 0.0
sample 0.0
bringing 0.000101313011858
deserves 0.000239797159803
regret 0.0
victim 0.0
according 0.0
threat 0.0
heaven 0.000285859239098
heroin 0.0
honest 0.0
became 0.000112743774874
decision 0.0
counting 0.000128043787514
signing 0.0
embrace 0.0
pressure 0.0
celebrities 0.0
facebook 9.64914658547e-05
kardashian 0.0
divided 0.0
lawyer 0.0
lebron 0.0
campaign 0.0
determine 0.0
whether 0.0
praise 0.000153114152519
defined 0.0
proposes 0.0
discover 0.0
factory 0.0
arrested 0.0
estate 0.0
proposed 0.0
comments 0.0
teenage 0.0
wounded 0.0
endorsement 0.0
williams 0.000143809163214
custom 0.000181072799261
troops 0.0
singer 0.0
future 0.000371650822463
struggled 0.0
sister 0.0
sabotage 0.0
athlete 0.0
warrior 0.000191723163863
cheating 0.0
voting 0.0
succeed 0.0
religion 0.0
century 0.0
serving 0.0
because 0.0
cleveland 0.00017778625097
hiding 0.0
breath 0.0
choosing 0.0
lawrence 0.0
instagram 0.000125126043028
opponent 0.0
detroit 0.000167435009505
honored 0.000125126043028
nonsense 0.0
lifting 0.0
proven 0.0
talent 0.0
knocking 0.0
russian 0.0
brains 0.0
oakland 0.0
regardless 0.0
skills 0.0
citizens 0.0
california 0.0
commitment 0.0
seconds 0.0
seeking 0.0
threatening 0.0
listen 0.00027949095148
whatever 0.0
mexicans 0.0
satisfied 0.000244606017853
fought 0.0
compete 0.0
injured 0.0
billion 0.0
ceiling 0.0
absolute 0.000132217225359
appearance 0.0
bigsean 0.0
handle 0.000235119135819
promise 0.000427971718471
nightclub 0.0
hosting 0.0
actors 0.0
generation 0.000123702001458
criminal 0.0
tuesday 0.0
ronald 0.0
locker 0.0
struggle 0.0
degree 0.0
entering 0.0
leader 0.0
pageant 0.0
toughest 0.0
character 0.0
mirror 0.0
interview 0.000183336807254
whistle 0.0
obviously 0.0
battle 0.000209355267515
motivate 0.0
destroy 0.0
relentless 0.0
winning 0.000288693154038
charlotte 0.0
accomplished 0.0
stepped 0.0
defense 0.0
appeal 0.0
causing 0.0
arabia 0.000236799989228
shipped 0.0
society 0.0
officers 0.0
brooklyn 0.0
marked 0.0
incredible 0.0
poster 0.0
wealthy 0.0
memorable 0.0
officer 0.0
minute 0.0
luther 0.0
foreign 0.000149275589028
pregnant 0.0
champions 0.0001691770591
virginia 0.0
tackle 0.0
unarmed 0.0
orange 0.000269955670052
policy 0.0
comedy 0.0
reminder 0.0
evidence 0.0
lighten 0.0
presidents 0.0
kicked 0.0
sticker 0.0
accused 0.0
intentions 0.0
facing 0.0
freedom 0.0
actions 0.0
debating 0.0
outcome 0.0
utterly 0.0
mississippi 0.0
clearly 0.0
download 0.000127305406924
sidelines 0.0
invite 0.0
legally 0.0
central 0.0
washington 0.0
veteran 0.0
division 0.0
veterans 0.0
stronger 0.000143368313505
promised 0.0
worried 0.0
security 0.0
immediately 0.0
television 0.000158675595337
entitled 0.0
racism 0.0
highest 0.0
approve 0.0
turning 0.000225487549748
legacy 0.0
ignore 0.0
choked 0.0
backing 0.0
helping 9.91380511487e-05
collector 0.0
willing 0.0
basically 0.0
return 0.00059806120797
unacceptable 0.0
feelings 0.0
network 0.0
language 0.0
invest 0.0
coward 0.0
schools 0.0
patients 0.0
foster 0.0
children 0.0
nation 0.000226742278431
review 0.0
between 0.0
knowledge 0.0
begins 0.00010787680608
tenure 0.0
faithful 0.0
highlights 0.0
shoulder 0.0
produced 0.000282391972355
consider 0.000119560678428
shattered 0.0
latest 0.000390162998293
beyonce 0.0
signed 0.000198814110108
millionaire 0.0
shelter 0.0
charity 0.0
germany 0.0
advance 0.0
proved 0.0
married 0.0
millions 0.0
blessings 0.0
indonesia 0.0
fights 0.0
dollar 0.0
rigged 0.0
conduct 0.0
johnson 0.0
howard 0.0
turned 0.0
criticism 0.0
stomach 0.0
upgrades 0.0
jackie 0.0
relevant 0.000160254159265
charge 0.0
ticket 0.0001209199883
steady 0.0
indian 0.0
turner 0.0
sanders 0.0
includes 0.0
survivor 0.0
dealers 0.0
collection 0.000247404002916
against 0.0
joyner 0.0
impact 0.0
families 0.0
welcoming 0.0
hitting 0.000360713276665
announced 0.0
granted 0.0
decided 0.0
itself 0.0
selfish 0.0
mexican 0.0
respects 0.0
guarantee 0.00017650461867
beliefs 0.0
citizen 0.0
states 0.0
denied 0.0
drought 0.0
memorial 0.0
decades 0.0
trayvon 0.0
landed 0.0
pastor 0.0
ultimate 0.0
weekends 0.0
episode 0.002474367875
spikes 0.0
engaged 0.0
financial 0.0
payments 0.0
tolerant 0.0
symposium 0.0
kansas 0.0
agreement 0.0
source 0.0
backbone 0.0
dismiss 0.0
midnight 0.00036482233672
homework 0.0
joining 0.000318353029434
reasons 0.000104963799025
talked 0.0
released 0.0
reaching 0.0
release 0.000197739702883
existing 0.0
models 0.0
pageants 0.0
helmets 0.0
scheme 0.0
scholarship 0.0
stacked 0.0
speech 0.000324520132127
standing 0.0
higher 0.0
purple 0.000168011942267
justice 0.0
served 0.000136187463265
speaks 0.0
backup 0.0
allegedly 0.0
purchase 0.000154597041409
millionaires 0.0
consideration 0.0
strength 0.0
incredibly 0.0
private 0.0
ignored 0.0
neighbors 0.000203810393392
apologizes 0.0
beings 0.0
minimum 0.0
direction 0.0
enemies 0.0
exclusive 0.000855943436942
prison 0.0
himself 0.000144697415373
contributes 0.0
investigation 0.0
teaching 0.0
disgusting 0.0
philly 0.00050577782774
rights 0.0
cheers 0.0
maintain 0.0
overcome 0.0
flawless 0.000230776738729
unique 0.0
neighborhood 0.0
dating 0.000178433999165
handed 0.0
victory 0.0
lifted 0.0
greatness 0.0
muslim 0.0
terrorist 0.0
productive 0.0
tribute 0.000123702001458
deadspin 0.0
threatened 0.0
horror 0.0
warning 0.0
convention 0.000173378423089
understanding 0.0
action 0.000193505276971
having 0.0
afghan 0.0
announces 0.0
commencement 0.0
speaker 0.0
graduation 0.0
honors 0.0
produce 0.0
apologize 0.0
insult 0.0
continued 0.0
letter 0.0
discussed 0.0
therapy 0.0
untrue 0.0
written 0.000109973693346
existence 0.0
essential 0.0
results 0.0
initiative 0.0
disease 0.0
marching 0.0
suggest 0.0
georgetakei 0.0
ensure 0.0
democrats 0.0
marched 0.0
foundation 0.0
access 0.000221775166204
writes 0.0
student 0.0
colorado 0.0
medical 0.000148341072919
medicine 0.0
tremendous 0.0
nytimes 0.0
kindness 0.0
public 0.0
cannot 0.000100491210064
reveals 0.0
invented 0.0
threatens 0.0
candidate 0.0
persistence 0.0
sexual 0.0
illustration 0.0
measure 0.0
compared 0.0
headline 0.0
reflect 0.0
answering 0.0
streaming 0.0
leaders 0.0
supreme 0.0
nominee 0.000182421888371
immigration 0.000167435009505
policies 0.0
laundering 0.0
administration 0.0
defend 0.0
communicating 0.0
excitement 0.0
funding 0.0
climate 0.0
transfer 0.0
conspiracy 0.0
activist 0.0
horrifying 0.0
freely 0.0
retreat 0.0
daughters 0.0
compelling 0.0
platform 0.0
hamilton 0.0
futures 0.0
huffingtonpost 0.0
headlines 0.0
january 0.000124767907881
grants 0.0
unprecedented 0.0
relationships 0.0
philadelphia 0.0
diversity 0.0
funded 0.0
secure 0.000164604720041
income 0.0
universal 0.0
contributed 0.0
hurricane 0.0
fundamental 0.0
countries 0.0
linked 0.0
african 0.0
improved 0.0
unclear 0.0
provide 0.0
livestream 0.0
addresses 0.0
enhance 0.0
companies 0.0
proposal 0.0
potential 0.0
discrimination 0.0
connected 0.0
drives 0.0
attending 0.0
filled 0.0
education 0.000121263058451
addressed 0.0
mentioned 0.0
famous 0.0
resistance 0.0
exists 0.0
demonstrated 0.0
officials 0.000158675595337
instructions 0.0
transmission 0.0
olympics 0.000159724879056
ability 0.0
political 0.0
director 0.0
contains 0.0
sponsored 0.000371772261881
autism 0.0
previously 0.0
prevent 0.000149746523103
capacity 0.0
donations 0.0
william 0.00015262525357
editors 0.0
passionate 0.0
solving 0.0
innate 0.0
treatment 0.0
critical 0.0
feeding 0.0
preparing 0.0
depend 0.0
capable 0.0
bridge 0.0
systematically 0.0
becoming 0.000115602121488
embraced 0.0
literacy 0.0
lawyers 0.0
stigma 0.0
malaria 0.0
standard 0.0
hiring 0.0
remains 0.0
fellow 0.0
defending 0.0
quotes 0.0
pushes 0.0
luxury 0.0
admitted 0.0
colleagues 0.0
failed 0.0
independent 0.0
politically 0.0
driven 0.0
agenda 0.0
result 0.0
implications 0.0
insider 0.0
pakistan 0.0
solutions 0.0
trusts 0.0
indiana 0.000360811574008
filling 0.0
humility 0.0
clicks 0.0
disagree 0.0
claims 0.0
editorial 0.0
mistakes 0.0
offered 0.0
passionately 0.0
justification 0.0
inspiring 0.0
counter 0.0
shaped 0.0
retroviral 0.0
majority 0.0
approach 0.0
nature 0.000129916772771
concern 0.0
server 0.0
berniesanders 0.0
shameful 0.0
experiment 0.0
massive 0.0
promises 0.0
colored 0.0
consequences 0.0
whatsoever 0.0
proposals 0.0
guesses 0.0
bernie 0.0
interviewed 0.0
pregnancy 0.0
secretary 0.0
measures 0.0
vastly 0.0
reduce 0.0
compassionate 0.0
distinguished 0.0
dangerous 0.0
influence 0.0
letters 0.00016686176324
implicit 0.0
saving 0.0
revelations 0.0
incident 0.0
universe 0.0
victims 0.0
milestone 0.0
perfectly 0.0
exercise 0.0
receive 0.0
reputation 0.0
economics 0.0
disclosure 0.0
receives 0.0
terrific 0.0
collected 0.0
campus 0.0
founders 0.0
profiling 0.000285154839586
systemic 0.0
studying 0.0
necessary 0.0
inaccurate 0.0
breast 0.0
debate 0.0
suddenly 0.0
conflict 0.0
interest 0.0
meanwhile 0.0
indefensible 0.0
recall 0.0
rating 0.0
nominate 0.0
outstanding 0.0
devastating 0.0
illness 0.0
troubling 0.0
romney 0.0
appears 0.0
breathe 0.0
abroad 0.0
spanish 0.0
profit 0.0
reviews 0.0
republican 0.0
presidential 0.0
candidates 0.0
politicians 0.0
identified 0.0
epidemic 0.0
displaced 0.0
greater 0.0
absurd 0.0
deadline 0.000145144861364
height 0.0
sisters 0.0
nuclear 0.0
stress 0.0
leading 0.0
restored 0.0
conditions 0.0
however 0.0
achieved 0.0
member 0.0
examples 0.0
diverse 0.0
suicide 0.0
contributions 0.0
largest 0.0
increase 0.0
targeted 0.0
regulators 0.0
provided 0.0
element 0.0
effectively 0.0
population 0.0
rising 0.0
indication 0.0
versus 0.0
believed 0.0
dynamic 0.0
invasion 0.0
primary 0.0
provides 0.0
environment 0.0
confirmed 0.0
behavior 0.0
introduced 0.0
contain 0.0
communities 0.0
worldwide 0.0
responsible 0.0
household 0.0
apparent 0.0
munich 0.0
alternate 0.0
expressed 0.0
movement 0.000721426553331
declared 0.0
hundreds 0.0
information 0.0
easily 0.0
untreated 0.0
october 0.000125846631121
quantify 0.0
scales 0.0
investigating 0.0
innovation 0.0
perspective 0.0
rivals 0.0
interests 0.0
toledo 0.0
extraordinary 0.0
gingrich 0.0
describing 0.0
eliminate 0.0
obligation 0.0
gender 0.0
committee 0.000147416191169
preventing 0.0
numerous 0.0
unusual 0.0
improving 0.0
practices 0.0
cemetery 0.0
questioned 0.0
affecting 0.0
ferrell 0.0
genius 0.000119560678428
warren 0.0
organizers 0.0
regularly 0.0
ceilings 0.0
sexism 0.0
prepared 0.0
burden 0.0
foreignpolicy 0.0
county 0.000166292156658
uniform 0.0
newyorker 0.0
anthony 0.0
reflecting 0.0
grandson 0.00130481291702
banning 0.0
considered 0.0
chosen 0.0
outright 0.0
screenings 0.0
naming 0.0
conventions 0.0
reproductive 0.0
ignores 0.0
focusing 0.0
sensible 0.0
concluded 0.0
performed 0.0
divide 0.0
dismissed 0.0
compromise 0.0
crucial 0.0
weakness 0.0
barrier 0.0
effective 0.0
wealth 0.0
underway 0.0
israel 0.0
overwhelming 0.0
assault 0.0
citing 0.0
protection 0.0
prisoners 0.0
photographing 0.0
traveled 0.0
holder 0.0
seemed 0.0
concludes 0.0
determination 0.0
tested 0.0
lacking 0.0
machine 0.0
honoring 0.0
contrary 0.0
tolerance 0.0
michelle 0.0
assumed 0.0
programs 0.0
closely 0.0
politico 0.0
inspire 0.000153114152519
lyrics 0.000168592609247
judges 0.0
federal 0.0
maryjblige 0.0
tuning 0.0
striving 0.0
poland 0.0
september 0.0
manchester 0.0
checks 0.0
remarkable 0.0
mharrisperry 0.0
immoral 0.0
fiction 0.0
process 0.0
anxious 0.000227347809183
destructive 0.0
nmaahc 0.0
performances 0.0
whitehouse 0.0
flotus 0.0
crisis 0.0
marriage 0.0
emotions 0.0
confidence 0.0
voters 0.0
comparing 0.000198778453922
oldest 0.0
empirefox 0.000694677938137
chancetherapper 0.000315340684261
songwriter 0.0
literally 0.0
onstage 0.0
believing 0.0
hillaryclinton 0.000179086458297
citizenship 0.0
counted 0.0
hillaryfornc 0.0
raleigh 0.00028731669685
discusses 0.0
johnlegend 0.0
apprentice 0.0
acknowledge 0.0
conservative 0.0
economists 0.0
buzzfeed 0.0
puppet 0.0
hombres 0.0
republic 0.0
homecoming 0.0
andersoncooper 0.0
muslims 0.0
katyperry 0.0
bragging 0.0
treats 0.0
qualified 0.0
islamophobia 0.0
debates 0.0
endorsements 0.0
counts 0.0
theellenshow 0.000191723163863
festival 0.0
encouraged 0.0
stylish 0.0
disregard 0.0
jtimberlake 0.0
backstage 0.0
barack 0.0
joined 0.0
terrorism 0.0
pushing 0.0
hopeful 0.0
mentions 0.0
teamed 0.0
exclusively 0.000184484340932
aliciakeys 0.0
kingjames 0.000253156554779
muhammad 0.0
refused 0.0
characters 0.0
express 0.0
gratitude 0.0
ugliest 0.0
throughout 0.0
awkward 0.000149746523103
shining 0.0
fighter 0.0
accepting 0.0
applemusic 0.001935422615
reveal 0.0
stands 0.0
native 0.0
announce 0.0
dorothy 0.0
haters 0.0
jessetyler 0.0
shondarhimes 0.0
lavernecox 0.0
broadway 0.0
disabilities 0.0
adoption 0.0
touched 0.0
corruption 0.0
violence 0.000131829696743
leedanielsent 0.0
delivered 0.000146046504484
jasmine 0.0
independence 0.0
square 0.0
alongside 0.0
privilege 0.0
secondary 0.0
staggering 0.0
seventh 0.0
tennis 0.0
sweeping 0.0
footage 0.0
overseas 0.0
spoiler 0.000188757183481
theirs 0.0
offering 0.0
construction 0.0
spends 0.0
detail 0.0
cabinet 0.0
earnings 0.0
pleased 0.0
gravity 0.0
statements 0.0
decade 0.0
bigotry 0.0
belong 0.0
trillion 0.0
backed 0.0
operations 0.0
breakthroughs 0.0
values 0.000328098442907
senator 0.0
removing 0.0
wondered 0.0
introduces 0.0
makers 0.0
measured 0.0
pillars 0.0
instrument 0.0
shares 0.000144697415373
individual 0.0
applications 0.0
prepares 0.0
ceremony 0.000480762477794
expanding 0.0
merger 0.0
newspaper 0.0
detailed 0.0
tuition 0.0
childcare 0.0
thoroughly 0.0
adviser 0.0
matthew 0.0
affected 0.0
newspapers 0.0
corporate 0.0
economy 0.0
presenting 0.0
spoken 0.0
richer 0.0
during 0.0
combat 0.0
touting 0.0
competitive 0.0
prominence 0.0
trifecta 0.0
fashioned 0.0
boasts 0.0
ripped 0.0
belief 0.0
heroes 0.0
disturbing 0.0
russians 0.0
intelligence 0.0
deepest 0.0
regrets 0.0
complicated 0.0
internships 0.0
adults 0.0
describe 0.0
equality 0.0
announcement 0.0
interfere 0.0
terrifying 0.0
nationwide 0.0
manager 0.0
questionable 0.0
enhanced 0.0
services 0.0
delighted 0.0
golfer 0.0
regarding 0.0
teachers 0.0
suggests 0.0
phrase 0.0
immigrants 0.000188030760603
revolution 0.0
universities 0.0
twelve 0.0
principle 0.0
releases 0.000165726143833
malarkey 0.0
library 0.0
advisor 0.0
deadlines 0.0
encouraging 0.0
circuit 0.0
humanitarian 0.0
reliant 0.0
assistance 0.0
swimmer 0.0
hinges 0.0
concrete 0.0
accepted 0.0
confronted 0.0
comprehensive 0.0
pushed 0.0
unending 0.0
occasionally 0.0
guardia 0.0
donation 0.0
nomination 0.000163497141341
paintings 0.0
significantly 0.0
investment 0.0
terror 0.0
worship 0.0
represents 0.0
attempting 0.0
bullying 0.0
astonishing 0.0
endorse 0.0
urgent 0.0
forced 0.0
addressing 0.0
script 0.0
hundred 0.0
command 0.0
qualifies 0.0
stumbled 0.0
territory 0.0
balloons 0.0
objects 0.0
latimes 0.0
pandemics 0.0
separating 0.0
pentagon 0.0
threats 0.0
prisons 0.0
approaching 0.0
generous 0.0
roughly 0.0
commands 0.0
uncovered 0.0
destroying 0.0
opposition 0.0
addiction 0.0
manhattan 0.0
ridiculously 0.0
awarded 0.0
greeted 0.0
forces 0.0
confirm 0.0
dealings 0.0
nations 0.0
equivalent 0.0
sexist 0.0
yahoonews 0.0
bloody 0.0
boundaries 0.0
exceptionally 0.0
cannon 0.0
feared 0.0
significance 0.0
recommendation 0.0
chapters 0.0
racial 0.0
obvious 0.0
statistics 0.0
military 0.0
adopted 0.0
housing 0.0
clearer 0.0
calculator 0.0
underwater 0.0
guided 0.0
rescue 0.0
deserving 0.0
advised 0.0
ordered 0.0
unions 0.0
avoiding 0.0
alicia 0.0
preserve 0.0
balloon 0.0
economic 0.0
recipe 0.00018731017251
awaits 0.0
squarely 0.0
radical 0.0
banter 0.0
spaces 0.0
carnival 0.0
theories 0.0
bombing 0.0
products 0.0
margaret 0.0
gathered 0.0
taxpayers 0.0
admits 0.0
opposed 0.0
pressing 0.0
russia 0.0
lincoln 0.0
intelligent 0.0
momentum 0.0
olympic 0.0
magnificent 0.0
heritage 0.0
beijing 0.0
beloved 0.0
dummies 0.0
pursuit 0.0
carries 0.0
phelps 0.0
medals 0.0
gymnastics 0.0
summed 0.0
accuse 0.0
symbol 0.0
dignity 0.0
slogans 0.0
priorities 0.0
applied 0.0
progressive 0.0
activists 0.0
elected 0.0
brussels 0.0
subscribe 0.0
elections 0.0
unites 0.0
complacency 0.0
imperative 0.0
doorsteps 0.0
voices 0.0
blatant 0.0
democracy 0.0
disastrous 0.0
rebuild 0.0
accuses 0.0
diplomacy 0.0
hardball 0.0
attacking 0.0
subtle 0.0
barker 0.0
sticking 0.0
openly 0.0
policing 0.0
embarrassed 0.0
slightest 0.0
abbott 0.0
attacks 0.0
commit 0.0
argued 0.0
remarks 0.0
democratic 0.0
semitic 0.0
incomes 0.0
treasury 0.0
alarming 0.0
dividing 0.0
reject 0.0
affirming 0.0
quitting 0.0
extended 0.0
reducing 0.0
proudly 0.0
inclusive 0.0
oppose 0.0
distinctly 0.0
urging 0.0
strengthen 0.0
deliver 0.0
obligations 0.0
relations 0.000203810393392
repeal 0.0
strengths 0.0
counties 0.0
weakened 0.0
reckless 0.0
prosperous 0.0
servant 0.0
secretaries 0.0
negotiator 0.0
faults 0.0
choking 0.0
executive 0.0
alternative 0.000151174342131
extend 0.0
republicans 0.0
embodied 0.0
preparation 0.0
terrorists 0.0
confident 0.0
weapons 0.0
unifying 0.0
outrage 0.0
constitutional 0.0
rental 0.0
prevail 0.0
resilient 0.0
humbled 0.0
courage 0.0
commander 0.000234341952311
respecting 0.0
enormous 0.0
aligned 0.0
consent 0.0
refusing 0.0
resentment 0.0
substance 0.0
claiming 0.0
lamont 0.0
dropping 0.000271564877883
carried 0.0
intimidated 0.0
behalf 0.000161322180631
meaningful 0.0
amendment 0.0
accepts 0.000236799989228
legislation 0.0
fairer 0.0
commitments 0.0
handling 0.0
proves 0.0
rhetoric 0.0
hardest 0.0
peddling 0.0
divisive 0.0
strongly 0.0
vision 0.000132997341016
investigations 0.0
repeatedly 0.0
records 0.000408562389794
madeleine 0.0
disabled 0.0
quoting 0.0
assassination 0.0
beaten 0.0
deeply 0.0
grievance 0.0
contempt 0.0
standards 0.0
fairness 0.0
dictated 0.0
consensus 0.0
reconsider 0.0
priority 0.0
rogers 0.0
freedoms 0.0
notorious 0.0
invested 0.0
propaganda 0.0
unconstitutional 0.0
condemn 0.0
concerned 0.0
praising 0.0
cheered 0.0
realdonaldtrump 0.000156613142776
despicable 0.0
straightforward 0.0
bargain 0.0
attorney 0.0
bedrock 0.0
optimism 0.0
belongs 0.0
truman 0.0
whichever 0.0
inappropriate 0.0
beatings 0.0
optimistic 0.0
campaigned 0.0
allies 0.000210061569663
governor 0.0
attempts 0.0
extent 0.0
denial 0.0
maximum 0.0
merely 0.0
apprenticeships 0.0
agreeing 0.0
architect 0.0
responsibility 0.0
mainstream 0.0
legitimacy 0.0
injustice 0.0
dozens 0.0
donnell 0.0
scenario 0.0
crimes 0.0
thoughtful 0.0
hypocrisy 0.0
undocumented 0.0
sexually 0.0
richest 0.0
softening 0.0
implies 0.0
infrastructure 0.0
pitching 0.0
broadband 0.0
tenants 0.0
allegations 0.0
bloomberg 0.0
insulting 0.0
liberal 0.0
kremlin 0.0
podium 0.0
provoke 0.0
outrageous 0.0
campaigns 0.0
barriers 0.0
powell 0.0
technical 0.0
warnings 0.0
flagged 0.0
grassroots 0.0
extremist 0.0
businesses 0.0
welcomes 0.0
deputy 0.0
donating 0.0
continually 0.0
ourselves 0.0
fringe 0.0
politician 0.0
wiggins 0.0
welcomed 0.0
rallies 0.000256197955708
ballot 0.0
failing 0.000160786580621
uniting 0.0
refuses 0.0
appealing 0.0
proverb 0.0
privileges 0.0
ideals 0.0
vibrant 0.0
tarmac 0.0
residents 0.0
apprenticeship 0.0
denying 0.0
fierce 0.0
opponents 0.0
polling 0.0
apology 0.0
damning 0.0
outline 0.0
endorses 0.0
losers 0.0
insulted 0.0
equipped 0.0
battlefield 0.000937197058704
recession 0.0
endorsed 0.0
divides 0.0
describes 0.0
appointed 0.0
encourage 0.0
undermine 0.0
undermining 0.0
authority 0.0
betray 0.0
funnyordie 0.0
donated 0.000161860997478
jimmykimmellive 0.0
immigrant 0.0
criminals 0.0
automatically 0.0
schooled 0.0
elizabethforma 0.0
releasing 0.0
connects 0.0
screening 0.000695980031555
cleaner 0.0
nowthisnews 0.0
sophiabush 0.0
chelseaclinton 0.0
stunts 0.0
truths 0.0
transparency 0.0
obamacare 0.0
nickkristof 0.0
contraception 0.0
betting 0.0
conscience 0.0
proclaimed 0.0
dispatch 0.0
advocate 0.0
profits 0.0
toward 0.0
guiding 0.0
senators 0.0
barber 0.0
doubled 0.0
mosque 0.0
senate 0.000183791575056
louisiana 0.0
senwarren 0.0
parenthood 0.0
organizations 0.0
generations 0.0
minorities 0.0
misogyny 0.0
peacefully 0.0
decency 0.0
intend 0.0
discourse 0.0
pennsylvania 0.0
katiemcgintypa 0.0
experiencing 0.0
mccain 0.0
scandal 0.0
constitution 0.0
sensanders 0.0
intolerable 0.0
strive 0.0
forefathers 0.0
abandon 0.0
buzzfeednews 0.0
paulkrugman 0.0
mothers 0.0
compassion 0.0
deeper 0.0
governments 0.0
activism 0.0
jamilsmith 0.0
mike_pence 0.0
elizabethbanks 0.000343165531223
empathy 0.0
audited 0.0
checkers 0.0
warming 0.0
volunteering 0.0
charitable 0.0
qualifications 0.0
workplace 0.0
granddaughter 0.0
recycled 0.0
directing 0.0
politifact 0.0
abolish 0.0
murders 0.0
reagan 0.0
pouring 0.0
ballots 0.0
racists 0.0
empower 0.0
tolerate 0.0
chrismurphyct 0.0
igorvolsky 0.0
outraged 0.0
exceptional 0.0
nightmares 0.0
enforcement 0.0
weaken 0.0
medicaid 0.0
humbly 0.0
newsweek 0.0
conflicts 0.0
suffer 0.0
dallasnews 0.0
bridges 0.0
lesdoggg 0.0
appalling 0.0
hatred 0.0
superpower 0.0
goodbye 0.0
renewable 0.0
robdelaney 0.0
motherjones 0.0
trusted 0.0
sheriff 0.0
personalized 0.0
amnesia 0.00100607850779
malala 0.0
problema 0.0
everytown 0.0
casting 0.0
employers 0.0
rudolph 0.0
packets 0.0
organization 0.0
graceful 0.0
hardworking 0.0
cherished 0.0
aggressively 0.0
founding 0.0
sacred 0.0
horrific 0.0
earned 0.0
siding 0.0
minded 0.0
contribute 0.0
incites 0.0
chooses 0.0
obtained 0.0
defended 0.0
champion 0.000142929619549
magazines 0.0
waited 0.0
punished 0.0
conviction 0.0
tradition 0.0
giveaways 0.000566087708604
distracted 0.0
endorsing 0.0
pathetic 0.0
ladygaga 0.0
pessimistic 0.0
highlighting 0.0
transgender 0.0
womensmarch 0.0
advisors 0.0
wrecking 0.0
hillaryforva 0.0
registration 0.0
ellemagazine 0.0
acceptance 0.0
defeated 0.0
theroot 0.0
pharrell 0.000481236257295
tumblr 0.0
nevada 0.0
illinois 0.0
massachusetts 0.0
theadvocatemag 0.0
lending 0.0
rejecting 0.0
legalize 0.000579063877332
conned 0.0
arkansas 0.0
celebratin 0.000423352377675
rubber 0.0
lenadunham 0.0
hateful 0.0
wizard 0.0
unbearable 0.0
harpersbazaarus 0.0
familia 0.000955146255571
iamwill 0.0
retweets 0.0
nominating 0.0
vietnam 0.0
laurie 0.0
claimed 0.0
rapids 0.0
devoted 0.0
casino 0.0
astounding 0.0
summon 0.0
crushed 0.0
louder 0.0
farmers 0.0
lin_manuel 0.0
arrangement 0.0
borrowed 0.0
mariska 0.0
purposes 0.0
dialogue 0.0
comedian 0.0
________ 0.0
lightly 0.0
defeating 0.0
jerusalem 0.0
cynical 0.0
worrying 0.0
elizabeth 0.0
insults 0.0
microphone 0.0
sleeves 0.0
theeconomist 0.0
stakes 0.0
nationally 0.0
inspect 0.0
poisoning 0.0
columbus 0.0
declaring 0.0
crushing 0.0
chucktodd 0.0
soldier 0.0
painted 0.0
warned 0.0
ohiostate 0.0
unrelated 0.0
designated 0.0
clears 0.0
congressional 0.0
confront 0.0
usatoday 0.0
delivers 0.0
pittsburgh 0.000441719449639
entiende 0.0
soaked 0.0
bromance 0.0
lifelong 0.0
antiques 0.0
repjohnlewis 0.0
breakers 0.0
fundraising 0.0
hispanic 0.0
defrauded 0.0
fearful 0.0
nytopinion 0.0
volume 0.0
perfecting 0.0
washingtonpost 0.0
affordable 0.0
mighty 0.000205552442987
normalizing 0.0
boasting 0.0
assaulting 0.0
disqualify 0.0
monique 0.0
jcolenc 0.0
teamusa 0.0
allysonfelix 0.0
usabasketball 0.0
ibtihaj 0.0
simone 0.0
feminism 0.0
conversion 0.0
destiny 0.0
disrespected 0.0
serenawilliams 0.0
tantrum 0.0
heinous 0.0
unconscious 0.0
accomplishments 0.0
saddened 0.0
disgrace 0.0
rodriguez 0.0
arsenal 0.0
defender 0.0
malalafund 0.0
merchandise 0.0
laundry 0.0
lesbians 0.0
cnnpolitics 0.0
nickgass 0.0
examining 0.0
monument 0.0
appeals 0.0
gracias 0.0
madame 0.0
grande 0.0
speechless 0.0
coulter 0.0
missiles 0.0
psyched 0.0
chelsea 0.0
biases 0.0
resume 0.0
spectator 0.0
angelina 0.0
spectacle 0.0
admiration 0.0
reaches 0.0
español 0.0
dreamers 0.0
mañana 0.0
bursting 0.0
undone 0.0
beyoncé 0.0
nuestra 0.0
diwali 0.0
prestigious 0.0
cynicism 0.0
disability 0.0
registering 0.0
booker 0.0
méxico 0.0
disponible 0.0
honduras 0.0
famously 0.0
overdue 0.0
equity 0.0
opioid 0.0
millennials 0.0
recommendations 0.0
investors 0.0
betrays 0.0
patriotism 0.0
liability 0.0
iranian 0.0
delegate 0.0
struck 0.0
millennial 0.0
dictators 0.0
graduate 0.0
analysts 0.0
victor 0.0
shrink 0.0
dictator 0.0
poised 0.0
avoided 0.0
rallying 0.0
catholic 0.0
thriving 0.0
racially 0.0
undermines 0.0
yashar 0.0
inequality 0.0
medicare 0.0
missionaries 0.0
foremost 0.0
deplorable 0.0
demonize 0.0
wikileaks 0.0
enduring 0.0
privatized 0.0
appoint 0.0
losses 0.000188757183481
jbarro 0.0
buffett 0.0
staffers 0.0
takeaway 0.0
moscow 0.0
hampshire 0.0
pandering 0.0
voxdotcom 0.0
reckoning 0.0
moines 0.0
falter 0.0
countless 0.0
democrat 0.0
bostonglobe 0.0
accountable 0.0
dispel 0.0
despair 0.0
persisted 0.0
disclose 0.0
tedcruz 0.0
flooding 0.0
prejudice 0.0
towers 0.0
criticized 0.0
senatemajldr 0.0
outsider 0.0
declare 0.0
dismantle 0.0
thrive 0.0
threaten 0.0
outsourced 0.0
loophole 0.0
heerjeet 0.0
verbal 0.0
businessinsider 0.0
ukraine 0.0
vladimir 0.0
businessman 0.0
supremacist 0.0
etched 0.0
zekejmiller 0.0
momentarily 0.0
perpetrators 0.0
mocking 0.0
wrecked 0.0
identities 0.0
inhumane 0.0
disavow 0.0
hostile 0.0
muster 0.0
surrender 0.0
shatter 0.0
patriotic 0.0
rewarded 0.0
jitters 0.0
bullies 0.0
discipline 0.0
forgets 0.0
expand 0.0
apologized 0.0
tournament 0.0
grindstone 0.0
mastery 0.0
provider 0.0
steroids 0.0
jenniferjjacobs 0.0
notion 0.0
hernandez 0.0
mcuban 0.0
bullied 0.0
jebbush 0.0
discriminating 0.0
somali 0.0
hayden 0.0
limitless 0.0
implement 0.0
nydailynews 0.0
corybooker 0.0
interference 0.0
listens 0.0
preside 0.0
remembers 0.0
toughness 0.0
extensively 0.0
suffered 0.0
streep 0.0
billionaire 0.0
cheats 0.0
needing 0.0
percentage 0.0
insiders 0.0
binder 0.0
prescriptions 0.0
slashed 0.0
indebted 0.0
dismisses 0.0
delegates 0.0
pledged 0.0
endured 0.0
deployed 0.0
suspense 0.0
courageously 0.0
resilience 0.0
nationalists 0.0
autonomy 0.0
abandoning 0.0
canvas 0.0
blacks 0.0
pledging 0.0
elaine 0.0
methodist 0.0
candidacy 0.0
bonuses 0.0
resolve 0.0
laughable 0.0
scares 0.0
intellect 0.0
hopeless 0.0
debunked 0.0
shames 0.0
connections 0.0
tyleroakley 0.0
perplexed 0.0
ddlovato 0.0
impromptu 0.0
teenvogue 0.0
unveils 0.0
billie 0.0
prouder 0.0
sweetness 0.0
cheryl 0.0
filipino 0.0
petersburg 0.0
drastic 0.0
lifesaving 0.0
decorated 0.0
usagym 0.0
freestyle 0.0
absentee 0.0
lashes 0.0
concentration 0.0
refuge 0.0
renaissance 0.0
actively 0.0
monitoring 0.0
destined 0.0
willfully 0.0
detained 0.0
warmest 0.0
heroic 0.0
bragged 0.0
miners 0.0
shareholders 0.0
randall 0.0
excessive 0.0
geneva 0.0
corporations 0.0
unsolvable 0.0
grandchildren 0.0
discredit 0.0
enormously 0.0
frances 0.0
pillar 0.0
trillions 0.0
expansive 0.0
organize 0.0
capabilities 0.0
confederate 0.0
shakers 0.0
ambiguity 0.0
linking 0.0
pretends 0.0
wireless 0.0
inherit 0.0
paranoia 0.0
theatlantic 0.0
languages 0.0
disposable 0.0
reinforcing 0.0
integrated 0.0
optimist 0.0
pigeons 0.0
chadhgriffin 0.0
katieledecky 0.0
richards 0.0
demconvention 0.0
abcpolitics 0.0
chobani 0.0
dominiclowell 0.0
floridians 0.0
cecilerichards 0.0
clintonfdn 0.0
billclinton 0.0
grounded 0.0
abilities 0.0
grandfather 0.0
profoundly 0.0
fiercely 0.0
drowning 0.0
astound 0.0
alzheimer 0.0
responders 0.0
peacecorps 0.0
nygovcuomo 0.0
hurricanes 0.0
approximately 0.0
daunting 0.0
organizer 0.0
ingenuity 0.0
illnesses 0.0
intruders 0.0
invading 0.0
harmful 0.0
foundations 0.0
skateboards 0.0
housekeeping 0.0
dangerously 0.0
renters 0.0
predatory 0.0
rebuke 0.0
jengranholm 0.0
supremacy 0.0
linger 0.0
adamserwer 0.0
clevelanddotcom 0.0
repadamschiff 0.0
fahrenthold 0.0
revoke 0.0
advising 0.0
strengthening 0.0
colleges 0.0
deniers 0.0
aspire 0.0
exceed 0.0
lebassett 0.0
shrugged 0.0
stewardship 0.0
complains 0.0
temperament 0.0
texasinafrica 0.0
americorps 0.0
latino 0.0
payoffs 0.0
protested 0.0
honorable 0.0
fathom 0.0
inconvenience 0.0
johnkasich 0.0
latinos 0.0
votevets 0.0
unsurprising 0.0
loopholes 0.0
dismal 0.0
unqualified 0.0
rigorous 0.0
mittromney 0.0
joyannreid 0.0
theorist 0.0
evan_mcmullin 0.0
discriminate 0.0
ezraklein 0.0
obsessively 0.0
desperation 0.0
latina 0.0
tammyforil 0.0
pantsuit 0.0
superior 0.0
exonerated 0.0
johnpodesta 0.0
recites 0.0
supremacists 0.0
affront 0.0
electing 0.0
defund 0.0
demeans 0.0
govpencein 0.0
squandered 0.0
machado 0.0
pneumonia 0.0
unhinged 0.0
criticizes 0.0
derailment 0.0
iceberg 0.000603022810274
epipens 0.0
generals 0.0
timkaine 0.0
provocation 0.0
paulbegala 0.0
clintinfdn 0.0
wesleylowery 0.0
childdefender 0.0
dictatorship 0.0
ceasefire 0.0
stamped 0.0
intimidation 0.0
casinos 0.0
manifest 0.0
restrict 0.0
transformation 0.0
battleground 0.0
christine 0.0
touted 0.0
mcconnell 0.0
deflect 0.0
expressing 0.0
commonsense 0.0
statesman 0.0
mcbride 0.0
tumble 0.0
bigoted 0.0
belonged 0.0
praised 0.0
policeman 0.0
booing 0.0
cathedral 0.0
tomperez 0.0
keithellison 0.0
knowingly 0.0
wealthiest 0.0
backward 0.0
pretended 0.0
thedemocrats 0.0
psychologists 0.0
americ 0.0
successor 0.0
diplomats 0.0
congratulated 0.0
devotion 0.0
remembrance 0.0
eligible 0.0
incoherent 0.0
exhaustive 0.0
downgraded 0.0
unified 0.0
embraces 0.0
galling 0.0
senatorreid 0.0
lifetimes 0.0
demagogue 0.0
rodham 0.0
temper 0.0
longtime 0.0
vetoing 0.0
janelle 0.0
voguemagazine 0.000265994522875
dominique 0.0
surpassed 0.0
associates 0.0
demonstrating 0.0
morning_joe 0.0
bazaar 0.0
consequential 0.0
undressed 0.0
entrepreneurial 0.0
billionaires 0.0
prescription 0.0
senseless 0.0
refresher 0.0
classmates 0.0
maturity 0.0
comentarios 0.0
risked 0.0
invincible 0.0
vigilant 0.0
emissions 0.0
recommit 0.0
voiceless 0.0
natlparkservice 0.0
workplaces 0.0
mayaharris_ 0.0
dhsgov 0.0
cyberattacks 0.0
maxinewaters 0.0
jerrybrowngov 0.0
discriminates 0.0
thejusticedept 0.0
simone_biles 0.0
sotomayor 0.0
traumatic 0.0
scammed 0.0
dreamer 0.0
fulfill 0.0
latinas 0.0
discouraged 0.0
usnavy 0.0
oftentimes 0.0
reprehensible 0.0
demeaning 0.0
ratified 0.0
emilyslist 0.0
lawsuits 0.0
nonviolent 0.0
caucus 0.0
joebiden 0.0
joyful 0.0
privatize 0.0
barbaraboxer 0.0
sengillibrand 0.0
camino 0.0
familias 0.0
americaferrera 0.0
universidades 0.0
gabbygiffords 0.0
shuttlecdrkelly 0.0
fulton 0.0
shimon 0.0
hablar 0.0
fuerza 0.0
trickle 0.0
refinance 0.0
shattering 0.0
damián 0.0
gouging 0.0
moveon 0.0
simone_manuel 0.0
revdrbarber 0.0
senatorbarb 0.0
cnbcnow 0.0
stiffed 0.0
mikebloomberg 0.0
solver 0.0
thrower 0.0
granddaughters 0.0
changemaker 0.0
clairecmc 0.0
anastasiasomoza 0.0
defunding 0.0
preyed 0.0
aspirations 0.0
fannie 0.0
mubarak 0.0
buzzfeedben 0.0
probed 0.0
marines 0.0
projecting 0.0
outsourcing 0.0
developers 0.0
crimea 0.0
everyo 0.0
chaser 0.0
dubious 0.0
diplomatic 0.0
rosiegray 0.0
unpatriotic 0.0
multifaceted 0.0
myanmar 0.0
adamparkhomenko 0.0
tjmshow 0.0
tenant 0.0
perjury 0.0
contractual 0.0
surrounds 0.0
exceeded 0.0
thrives 0.0
unclerush 0.000597968237421
sailors 0.0
stereotypes 0.0
librarycongress 0.0
acknowledging 0.0
philippe 0.0
battled 0.0
postopinions 0.0
ambassadorrice 0.0
shockingly 0.0
mcfaul 0.0
presid 0.0
poisons 0.0
kenvogel 0.0
johndingell 0.0
harnessing 0.0
unwritten 0.0
bewildering 0.0
moonshot 0.0
apologizing 0.0
oligarchs 0.0
espionage 0.0
marcorubio 0.0
desecration 0.0
brianefallon 0.0
bangladesh 0.0
twittermoments 0.0
officialcbc 0.0
thefix 0.0
urgency 0.0
traceeellisross 0.0
andradaymusic 0.0
impeccably 0.0
catastrophe 0.0
tallest 0.0
anastasia 0.0
azcentral 0.0
marrying 0.0
moderates 0.0
resembles 0.0
paraphrase 0.0
applauds 0.0
heavier 0.0
virginians 0.0
railing 0.0
eloquently 0.0
denverpost 0.0
independents 0.0
americanos 0.0
hispanos 0.0
bailouts 0.0
divisiveness 0.0
jmpalmieri 0.0
hardballchris 0.0
republicano 0.0
candidato 0.0
phillyinquirer 0.0
jesserodriguez 0.0
militarytimes 0.0
sunsentinel 0.0
ryanlizza 0.0
bretbaier 0.0
thelastword 0.0
hillaryclinto 0.0
maddowblog 0.0
boundless 0.0
enacting 0.0
gettysburg 0.0
groping 0.0
govchristie 0.0
justices 0.0
watchdogs 0.0
cavalier 0.0
succeeds 0.0
retirees 0.0
pocketed 0.0
multimillionaire 0.0
redcross 0.0
evalongoria 0.0
highways 0.0
marlee 0.0
primero 0.0
pianos 0.0
bribed 0.0
scranton 0.0
wellesley 0.0
perkins 0.0
onward 0.0
algore 0.0
candidly 0.0
trajectory 0.0
quitter 0.0
objectifying 0.0
ignoramus 0.0
disillusioned 0.0
asinine 0.0
vibrancy 0.0
arpaio 0.0
testifying 0.0
chairmen 0.0
luchar 0.0
disrupted 0.0
podemos 0.0
settlements 0.0
massacres 0.0
millones 0.0
eagerly 0.0
grandmas 0.0
dedicado 0.0
seeming 0.0
pragmatic 0.0
hashanah 0.0
porque 0.0
unidos 0.0
nuestras 0.0
primera 0.0
debemos 0.0
muchos 0.0
cuando 0.0
nuestro 0.0
inteligente 0.0
rapists 0.0
agosto 0.0
presidente 0.0
puedes 0.0
mujeres 0.0
safeguarding 0.0
indecent 0.0
motions 0.0
strengthened 0.0
eminently 0.0
innuendo 0.0
memorandum 0.0
reuterspolitics 0.0
educates 0.0
mexicana 0.0
disparage 0.0
absurdity 0.0
backdoor 0.0
affording 0.0
hardline 0.0
steelworkers 0.0
demean 0.0
immigrate 0.0
thuggish 0.0
astrid 0.0
jesuit 0.0
governorship 0.0
waterboarding 0.0
personas 0.0
stephenson 0.0
huracán 0.0
firefighter 0.0
ravages 0.0
marleematlin 0.0
scrolling 0.0
tarnish 0.0
ajentleson 0.0
roanoke 0.0
heaping 0.0
carpentry 0.0
forcefully 0.0
frankiejgrande 0.0
aprildryan 0.0
unjustified 0.0
yamiche 0.0
evacuate 0.0
disrespects 0.0
incomprehensible 0.0
jogger 0.0
vindicated 0.0
blazed 0.00137918328469
cambodia 0.0
revolutionize 0.0
welding 0.0
unbeatable 0.0
polished 0.0
saddled 0.0
interdependence 0.0
alleys 0.0
civility 0.0
vilified 0.0
disagreeable 0.0
terence 0.0
bluster 0.0
incredib 0.0
holton 0.0
hillaryforpa 0.0
hillaryforco 0.0
jes_chastain 0.0
vitalvoices 0.0
indictments 0.0
evokes 0.0
reaffirming 0.0
rebukes 0.0
minerva 0.0
peddle 0.0
starker 0.0
cascading 0.0
carolinians 0.0
señora 0.0
honrado 0.0
missionary 0.0
ranchers 0.0
denveropinion 0.0
practicality 0.0
thoughtfulness 0.0
scripture 0.0
pueblo 0.0
morningmoneyben 0.0
smalls 0.0
exemplify 0.0
eviscerated 0.0
jeffflake 0.0
helpless 0.0
sarahemcbride 0.0
indivisible 0.0
colinjones 0.0
mrjoshcharles 0.0
houstonchron 0.0
thoroughness 0.0
isolde 0.0
wonkiest 0.0
equate 0.0
dustbin 0.0
estados 0.0
newrepublic 0.0
expresses 0.0
demonizing 0.0
jeffbezos 0.0
discard 0.0
befriending 0.0
slovenia 0.0
unrelenting 0.0
salmahayek 0.0
revolves 0.0
anselm 0.0
dwells 0.0
usairforce 0.0
deride 0.0
repackaging 0.0
earmarked 0.0
evader 0.0
passpor 0.0
awaited 0.0
guterres 0.0
precinct 0.0
presidencia 0.0
unshakable 0.0
marshablackburn 0.0
comunidad 0.0
merecen 0.0
juntos 0.0
infomercial 0.0
johnstown 0.0
statewide 0.0
skyscrapers 0.0
phillydotcom 0.0
deducted 0.0
laguardiacc 0.0
annieslisttx 0.0
nickmerrill 0.0
leaninorg 0.0
missbeae 0.0
minassianmedia 0.0
natarsha 0.0
foments 0.0
ruline 0.0
steininger 0.0
michaelnutter 0.0
harren 0.0
louisa 0.0
cannell 0.0
robbymook 0.0
broward 0.0
hillaryforfl 0.0
jeanneshaheen 0.0
ericasmegs 0.0
jeremyshorr 0.0
turpin 0.0
rubycramer 0.0
singularly 0.0
joshschwerin 0.0
clionamccarney 0.0
xochitlhinojosa 0.0
adamsmith_usa 0.0
humayun 0.0
jamestaylor_com 0.0
hillaryformn 0.0
ericwms 0.0
dougmillsnyt 0.0
jencarlosmusic 0.0
hannahbfine 0.0
creynoldsnc 0.0
lefsadventures 0.0
pembroke 0.0
perceptiveness 0.0
hillaryforaz 0.0
fayetteville 0.0
entrust 0.0
daveeddiggs 0.0
petewilliamsnbc 0.0
hillary_esp 0.0
ustedes 0.0
nación 0.0
creativa 0.0
bilingües 0.0
multilingües 0.0
contribuyen 0.0
diversidad 0.0
economía 0.0
hillaryforia 0.0
estaré 0.0
discurso 0.0
síganme 0.0
detall 0.0
hopewell 0.0
temperamentally 0.0
redone 0.0
barging 0.0
machadooficial 0.0
mikereedschmidt 0.0
franklinfoer 0.0
eamonjavers 0.0
hillaryforoh 0.0
hustling 0.0
relishes 0.0
markkirk 0.0
asmamk 0.0
just_jenna 0.0
discrimina 0.0
samifayebaker 0.0
padded 0.0
wigazette 0.0
phillytrib 0.0
trivializes 0.0
condones 0.0
ellisoncampaign 0.0
barb_kinney 0.0
theriveterspod 0.0
humiliates 0.0
nickmarroletti 0.0
alli_wilber 0.0
brespolitico 0.0
jasoncherkis 0.0
sean_p_thomas 0.0
outclassed 0.0
outmaneuvered 0.0
belittling 0.0
familie 0.0
yuuuuuuge 0.0
disqualifying 0.0
brynnecraig 0.0
buffywicks 0.0
lasvegassun 0.0
cmichaelhuntley 0.0
civically 0.0
raquelwillis_ 0.0
celebramos 0.0
trayectoria 0.0
pionera 0.0
breakups 0.0
rosenbergerlm 0.0
heraldleader 0.0
jaylon 0.0
decisi 0.0
antónio 0.0
squander 0.0
presidenta 0.0
protegerá 0.0
astrid_nv 0.0
sltrib 0.0
peter_j_k 0.0
brosandprose 0.0
nicholaskitchel 0.0
mahoning 0.0
omerizer 0.0
kendallybrown 0.0
davidnakamura 0.0
chatima 0.0
tammybaldwin 0.0
mpshapiro 0.0
responsibilit 0.0
overgrown 0.0
literally_trump 0.0
imploded 0.0
rnicholasburns 0.0
disastrously 0.0
stiffing 0.0
globeopinion 0.0
degradi 0.0
languishing 0.0
demostrar 0.0
poderosa 0.0
iammarleydias 0.0
tbtimes_opinion 0.0
disloyalty 0.0
defende 0.0
vegalteno 0.0
moodysinvsvc 0.0
decisiveness 0.0
whethe 0.0
preocupada 0.0
trayecto 0.0
afectados 0.0
ayotte 0.0
empathize 0.0
lifelo 0.0
lorellapraeli 0.0
ironworking 0.0
ebeling 0.0
contribuido 0.0
ejército 0.0
inmigrantes 0.0
indocumentados 0.0
enquirer 0.0
delega 0.0
roadshow 0.0
sunsentinelopinion 0.0
resulta 0.0
insultar 0.0
construir 0.0
muralla 0.0
provoked 0.0
discretion 0.0
sdutideas 0.0
merece 0.0
respeto 0.0
enfrentar 0.0
valentía 0.0
ataques 0.0
descaro 0.0
culparla 0.0
petulance 0.0
ninhaitseng 0.0
flippantly 0.0
posteverything 0.0
_vicentefdez 0.0
azcopinions 0.0
aumentó 0.0
andrewjenks 0.0
imwithher 0.0
diferencias 0.0
onevoxdotcom 0.0
ignite_national 0.0
endorsin 0.0
mercersdairy 0.0
everyvoice 0.0
rachaelgass 0.0
galifianakis 0.0
crutcher 0.0
nyledimarco 0.0
mistreat 0.0
wellsfargo 0.0
templeuniv 0.0
sollender 0.0
honremos 0.0
tantas 0.0
contribuciones 0.0
aleatha 0.0
endeavored 0.0
legitimize 0.0
además 0.0
whistles 0.0
ugliness 0.0
jorge_silva 0.0
dnclatinos 0.0
libnofcongress 0.0
unscrupulously 0.0
contractually 0.0
impulsively 0.0
qaddafi 0.0
cancelable 0.0
cnbcopinion 0.0
jbrotherston 0.0
_bxddxss 0.0
sspiderboy 0.0
collegedems 0.0
veered 0.0
charitynav 0.0
usnewsopinion 0.0
humansofny 0.0
unfitness 0.0
steadiness 0.0
nbcusa_inc 0.0
verdadera 0.0
encuentra 0.0
hacemos 0.0
anuncio 0.0
unpresidential 0.0
unfavorably 0.0
heridas 0.0
visibles 0.0
veteranos 0.0
cuidado 0.0
panetta 0.0
experiencia 0.0
confío 0.0
exsecretario 0.0
comercio 0.0
lizromanoff 0.0
americasvoice 0.0
davidleopold 0.0
rebuked 0.0
criminalize 0.0
mentiré 0.0
inmigración 0.0
demonizar 0.0
americanlegion 0.0
sarasolow 0.0
qumber 0.0
zerlinamaxwell 0.0
hillaryforut 0.0
hillaryforga 0.0
grandtetonnps 0.0
marlondmarshall 0.0
mariatcardona 0.0
escuchamos 0.0
claramente 0.0
demonizando 0.0
segunda 0.0
tercera 0.0
rhettbuttle 0.0
hillaryformi 0.0
futuramics 0.0
louisianans 0.0
claressashields 0.0
helen_maroulis 0.0
bri_rollin 0.0
itspooda 0.0
kristihollywood 0.0
meredeetch 0.0
kersee 0.0
rodhams 0.0
bidens 0.0
possibilitie 0.0
maulama 0.0
akonjee 0.0
shotdiva 0.0
auriemma 0.0
maxlinsky 0.0
cowering 0.0
moratory 0.0
hillarycl 0.0
repudiate 0.0
fencer 0.0
bankruptcies 0.0
warrenbuffett 0.0
bishopgarrison 0.0
ajazzyworld 0.0
morell 0.0
starkest 0.0
braille 0.0
frankmugisha 0.0
confiar 0.0
distinguido 0.0
herencia 0.0
harkening 0.0
impulses 0.0
dakota_meyer 0.0
kauveri 0.0
iafftreg 0.0
laurawalkerkc 0.0
jakesherman 0.0
benediction 0.0
denigrates 0.0
ann_oleary 0.0
liberates 0.0
bombast 0.0
repcleaver 0.0
throwed 0.0
luchado 0.0
derechos 0.0
humanos 0.0
trabajadores 0.0
relent 0.0
aprendí 0.0
valores 0.0
trabajo 0.0
mismos 0.0
annella 0.0
drbiden 0.0
expedient 0.0
imangelabassett 0.0
smegielski 0.0
leinonen 0.0
driffin 0.0
buckles 0.0
insatiably 0.0
sybrina 0.0
mcbath 0.0
dontre 0.0
randibrazeau 0.0
sjbxtr 0.0
malcolmkenyatta 0.0
lankford 0.0
countrymen 0.0
countrywomen 0.0
refiere 0.0
separar 0.0
valiente 0.0
strongmen 0.0
seremos 0.0
compañeros 0.0
bienvenidos 0.0
dauntless 0.0
governorva 0.0
sherrodbrown 0.0
vicepresidencia 0.0
ilyseh 0.0
gunsense 0.0
encantada 0.0
anunciar 0.0
splintering 0.0
albamonica 0.0
criminologist 0.0
construiremos 0.0
discriminatio 0.0
endorser 0.0
sniveling 0.0
ryanegraney 0.0
baptize 0.0
convención 0.0
republicana 0.0
