chatting 0.0
trying 0.00037595259887
launch 3.84147256849e-05
moment 0.000251989972369
wonderful 0.000351917300611
seeing 0.00016092804592
recommend 0.000139893955109
anybody 4.80467884568e-05
podcast 0.000231094915672
challenges 5.25600544235e-05
worked 0.00016940317573
direct 0.000266184739477
others 0.000303280043857
currently 0.000186343101742
better 0.000619868160925
please 0.00144504166353
travels 0.0
social 0.000210577312276
around 0.000278940672416
people 0.00350225510923
leaving 0.000177400214563
morning 0.000311609403896
general 0.000120483885726
overall 0.0
damage 0.0
affect 5.39301518866e-05
everything 0.000249287523117
twitter 0.000406185615978
present 0.000106440128738
though 0.000584048852701
friend 0.000720575814502
watched 0.000739026331282
beautiful 0.000866670685554
anything 0.000190014242552
practice 4.22515303769e-05
helped 0.000102470857949
helpful 5.34092420105e-05
revive 0.0
updated 9.90600192972e-05
thinking 0.000350243026755
finally 0.000636805503191
caught 0.00014038487485
believe 0.000776926525506
already 0.000404001793263
orlando 5.30667699287e-05
depends 0.0
chance 0.000529735986623
meaning 0.0
annual 4.18932210909e-05
renewed 0.0
growing 7.47421559778e-05
probably 0.000202734444307
should 4.11887951311e-05
changed 0.000233346977625
history 0.000417285885637
center 0.000122527489399
museum 0.000108211504804
behind 0.000278940672416
pretty 0.000413923577074
really 0.00264867993311
expensive 0.0
little 0.000652618281425
earlier 3.64609288286e-05
forget 0.000252670212204
paperwork 0.0
someone 0.000408381339694
mostly 4.7330973544e-05
worker 6.57187793727e-05
safety 0.000180582044214
program 0.000130056010982
things 0.000526887936786
electrical 0.0
visiting 0.000257884924108
available 9.70791897356e-05
perfect 0.000162235792417
different 0.000190014242552
search 0.0
connect 5.82443453405e-05
numbers 7.79000620264e-05
person 0.000656145995042
watching 0.000845893347459
passed 0.000113979120477
minutes 0.000225299264288
daughter 0.000414485488362
average 8.92448062826e-05
positive 0.00033266937694
outside 0.000263815785854
metric 0.0
looking 0.000870157708567
forward 0.000416161995635
raising 0.000133478982454
afraid 4.02737941244e-05
impression 0.0
profile 8.52280610196e-05
drawing 0.0
favorite 0.000687104406698
picture 0.000298400490755
historic 0.0
instead 0.000105288656138
appreciate 0.000256626208954
husband 4.863158709e-05
international 0.000115563148977
toddler 8.22416958571e-05
couldn 0.000227130109384
remember 0.000436253165454
holidays 0.000222464970757
friends 0.000344623215631
despite 0.000132707357908
understood 0.000118952067124
impossible 0.0
everyone 0.00112179385402
florida 0.000183788437563
always 0.000929802241388
months 0.000325348343779
moving 0.000435708033934
meeting 0.000510819977717
google 0.0
answer 0.000127704994429
together 0.000374940568596
included 4.74728200527e-05
inside 6.48943169667e-05
section 4.79022967823e-05
missed 0.000126335106102
button 0.0
active 5.01437605568e-05
longer 7.1933211244e-05
enough 0.000377984958554
projects 0.0
driving 0.000114293774666
building 0.000140004003177
enjoying 0.000152391699555
kennedy 0.0
tantrums 0.0
apparently 0.000120483885726
recent 4.11887951311e-05
gotten 0.000156184470577
amazing 0.00136739068489
determined 0.000120221466081
attention 7.05750733074e-05
progress 0.000345822251344
tomorrow 0.00074786256935
whenever 5.1247968211e-05
curious 9.90600192972e-05
george 0.000503552375923
feeling 0.000228359312991
excited 0.000878440528203
campaigning 0.0
understand 0.000339724675333
learning 3.86277396371e-05
special 0.000659692933351
secret 0.000349060745086
across 0.000139245752298
comparison 5.82443453405e-05
surprised 3.71665002953e-05
anymore 3.97153392309e-05
spirited 0.0
precious 0.0
rejoice 0.0
rather 0.0
showing 0.000166226580516
saying 0.000260278675023
tweeted 8.23775902621e-05
updates 0.0
thoughts 0.000628257096179
exactly 0.000235884478555
except 0.000158861356924
getting 0.000623218807791
nothing 0.000560896927012
tweets 0.000309082882266
course 9.65568275519e-05
photos 0.000113041496826
looked 3.53836403216e-05
difficult 8.2145863577e-05
office 0.000134791130603
decisions 0.0
brought 0.000138117001264
biggest 0.000192593485679
thrilled 0.0
entire 0.000276984221752
something 0.000436253165454
closing 4.63558195953e-05
anyone 0.000408381339694
taking 0.000280448463506
reprint 0.0
flying 0.000117500307047
happening 0.000611504415599
sometimes 6.8685084948e-05
lessons 0.0
village 0.0
stopped 0.0
yesterday 0.000188483695243
service 0.000102748825941
serious 0.000200011695107
emails 0.0
wearing 0.000109682239962
afford 0.0
either 6.79449350666e-05
second 0.000125655796829
checking 4.03867028396e-05
volunteers 6.52106793369e-05
indeed 4.24927254311e-05
hearing 0.000174057190373
choose 7.33217739868e-05
another 0.000652618281425
address 8.40243957027e-05
display 0.0
compare 0.00011373326745
weekend 0.000157918882628
suggested 0.0
appear 4.71897732631e-05
anyway 0.000120821382373
theory 0.000153263385609
buildings 0.0
working 0.000654379748181
bigger 7.31214933083e-05
treated 0.0
admired 0.0
retirement 0.000118952067124
laughing 0.0
wanted 0.000125994986185
current 7.35227038746e-05
grateful 0.000325823344941
friendship 0.0
family 0.00112179385402
listening 0.000273255621198
stream 0.0
sharing 0.0
double 0.000317587829883
especially 0.00017264625158
middle 0.0
waiting 0.000223483740251
definitely 0.000374710301081
walking 0.000112113233967
account 3.65607466541e-05
completely 7.39265282089e-05
thought 0.000439795288901
accept 3.98262281079e-05
possible 0.000131907892927
simple 0.000108786757367
manufacturing 8.64427125993e-05
destroyed 0.0
members 7.85514181013e-05
supposed 4.14218293721e-05
manufacturers 0.0
business 0.000201640556163
absolutely 0.000100005847553
anywhere 4.15390068578e-05
sending 0.000867921355829
introducing 4.99891796476e-05
congrats 0.000883195211547
beauty 4.46224031413e-05
community 7.68294513698e-05
greatest 0.000204387436954
posted 3.6862143597e-05
wednesday 0.000150308060051
explain 3.6361431446e-05
broken 3.86277396371e-05
fairly 0.0
closest 5.94760335622e-05
hoping 0.000224843252739
relationship 8.37864421818e-05
actually 0.000893934961005
pockets 0.0
wallet 0.0
pocket 5.34092420105e-05
argument 4.80467884568e-05
decent 5.53636285492e-05
school 0.000760056970209
throwback 0.0
thursday 0.000133341130071
talented 0.000409574999677
discuss 0.000361451657178
celebrate 0.000172178779008
celebrating 7.43330005906e-05
anniversary 0.000301443991536
students 0.000289135652637
corners 0.0
internet 0.000271143587035
figure 0.000260880342438
opened 4.55437187759e-05
inspired 0.000113041496826
latter 0.0
sitting 3.51917300611e-05
playing 0.000126676161702
street 0.000414351003792
points 0.000239625090902
advice 0.000146242986617
memory 8.62081101477e-05
forever 0.000140766920244
congress 0.000162317257206
imagine 0.000312453807549
problem 0.000334255108437
pulling 5.30667699287e-05
furniture 0.0
keeping 3.48114380746e-05
dressed 5.02991163109e-05
chinese 0.0
unlike 5.76463832294e-05
allowed 4.09574999677e-05
otherwise 0.000132707357908
afternoon 0.000146643547974
planned 4.47523547281e-05
images 5.4818275921e-05
noticed 4.9378452339e-05
expense 0.0
differences 5.98977190881e-05
difference 0.000204387436954
editor 0.0
intent 0.0
suppose 5.98977190881e-05
inspiration 4.27358122305e-05
letting 7.66175304246e-05
system 7.79000620264e-05
almost 0.000342770344285
details 0.0
experience 0.000422952846913
living 0.000292813509401
worries 0.000109636551842
weather 0.000119478684324
bright 0.0
understands 0.0
normal 0.000125324097929
launching 0.000101539822617
backyard 0.0
pointed 0.0
before 3.37890740512e-05
monday 9.76045031337e-05
example 0.0
science 8.79613895027e-05
tweeting 0.000177883731462
forgot 0.000117174631673
disaster 4.77584756052e-05
happens 0.000225907830904
silence 0.000245387715506
learned 0.00018032420773
congratulations 0.00017171271237
natural 0.0
babies 0.000193937398881
mission 0.0
surprising 0.0
reference 5.27280407862e-05
forgotten 9.27116391906e-05
setting 0.0
appeared 7.10130030518e-05
reminds 4.41079779201e-05
fantastic 0.0
loving 0.000147045407749
complete 0.000178855314834
daniel 0.0
rewarding 0.0
nearly 0.000122872499903
spirit 0.000121160108519
launched 0.0
finding 0.000114293774666
stories 0.000101093347952
including 6.9246055438e-05
wouldn 0.000100820278081
choice 0.00019947189662
offended 0.0
conversation 0.000113665527518
disrespectful 9.13037953173e-05
making 0.000341847671223
expect 0.0
traits 0.0
discussion 0.000136231240769
believes 0.000218554413949
response 0.000219965321961
brings 7.51540300253e-05
seasons 0.000117708142784
anytime 5.1247968211e-05
protected 0.0
location 9.78563539803e-05
needed 0.000232717212723
seriously 0.000482100581222
emergency 0.000162847060486
justify 0.0
spending 0.0
groups 0.0
condition 0.0
childhood 0.0
modern 0.000134648560443
welcome 0.000220491225823
moments 0.000348613183331
totally 0.000143866422488
running 0.000163554668805
strong 0.000224692399958
respond 0.0
message 0.000297595466611
coming 0.000435078854283
thankful 0.000147232629303
issues 7.43330005906e-05
challenge 0.000239098668548
intolerance 0.0
happen 0.00050807263258
giving 0.000314987465461
turkey 4.54104135896e-05
excellent 8.1227523579e-05
limits 5.78444248492e-05
contractors 0.0
common 7.7042099318e-05
pressed 0.0
healthcare 6.05412039609e-05
benefits 0.0
situation 8.14558362352e-05
workers 0.0
company 7.05750733074e-05
savings 0.0
health 0.000294090815498
insurance 0.00010751108135
change 0.000654379748181
silver 0.000101856891421
august 4.39806947513e-05
crying 4.90775431011e-05
mental 9.27116391906e-05
carrier 0.0
decide 0.000115883218911
happened 0.000295194240829
parking 0.0
demand 4.10729317885e-05
sacrifice 0.000130927376309
personal 6.77612702919e-05
rewards 0.0
beyond 0.000104434314224
contributing 0.0
passion 4.71897732631e-05
question 0.000350243026755
doctor 0.000429826280447
sacrifices 0.0
respected 0.0
losing 0.000115244177055
strain 0.0
respect 0.0013285183402
shouldn 0.000149074481393
career 0.000325470508436
visited 9.78563539803e-05
reason 0.000131197440369
simply 0.0
audience 0.000129312165222
sacrificed 0.0
employees 0.0
accounts 5.20614901922e-05
attacked 0.0
involved 0.000108786757367
extreme 5.39301518866e-05
valuable 5.84462575077e-05
knocked 0.0
reality 0.000259453009288
mention 0.0
without 0.000408381339694
problems 3.84147256849e-05
timing 0.0
described 5.98977190881e-05
pattern 0.0
online 0.000100548007831
background 0.0
buying 8.45030607538e-05
called 0.00037595259887
scientists 0.0
checked 4.42357859695e-05
heading 0.000333582440513
paying 0.000121500073154
planning 0.000121500073154
opposite 5.10877952031e-05
through 0.0
reached 0.000138656949403
changing 0.0
explains 0.0
harder 0.000173408014643
demands 6.62353481313e-05
silent 0.0
speaking 0.00010702125703
november 8.35493986191e-05
ordinary 6.16442886453e-05
number 9.57787458219e-05
stunning 9.29865257435e-05
atlantic 0.0
stupid 0.0
personality 0.0
grandparents 8.54587122375e-05
unless 3.84147256849e-05
calling 0.000196265602566
painting 0.0
focused 0.000101224367401
ridiculous 8.59616413694e-05
package 0.0
rooted 0.0
option 9.02910221069e-05
knowing 4.31040550739e-05
former 0.000156667076063
actual 0.000165687317488
tracked 0.0
suffers 0.0
schedule 0.0
friday 3.15837765255e-05
failure 0.0
achieve 5.22267887603e-05
winner 0.000138492110876
doctors 0.000224424084489
becomes 4.41079779201e-05
directly 0.0
quality 4.02737941244e-05
tearing 0.0
father 0.000283840343301
wishes 4.06137617895e-05
collar 0.0
caring 0.000187667775575
ground 0.000161546811358
matter 0.000233978575906
strategy 0.0
themselves 5.4459966635e-05
asking 9.89309196954e-05
usually 8.30780137156e-05
thankfully 7.04111703934e-05
reacts 0.0
period 0.0
parents 0.000411081857878
balance 4.84843497203e-05
resist 5.90600084159e-05
mobile 0.0
computer 0.000144575870729
reminded 0.0
impressed 4.71897732631e-05
dinner 0.000137743023206
suffering 0.000117298987397
single 9.62967428393e-05
parent 0.000114119479391
approved 0.000117708142784
energy 0.0002965177249
preview 8.87282464925e-05
meltdown 0.0
remind 4.33520036606e-05
emotional 0.000134648560443
sounded 0.0
status 9.38185760362e-05
update 0.00018180715723
outage 0.0
customers 0.0
holding 7.3724287194e-05
causes 0.000110727257098
eating 0.00011685009304
picked 0.0
missing 6.64906322066e-05
surprise 3.33352825178e-05
officially 7.27228628921e-05
global 0.000208283145204
follow 0.000657917048023
opinion 0.000162455047158
faster 0.000100598232622
backwards 6.70267121791e-05
design 4.70492133485e-05
website 3.7993040159e-05
widely 0.0
origin 0.0
breaks 4.10729317885e-05
allows 0.0
promoting 0.0
volunteer 6.52106793369e-05
convince 0.0
negative 4.54104135896e-05
official 0.0
jersey 0.000314357841912
mistake 8.62081101477e-05
fixing 0.0
translated 0.0
ginger 0.0
peaceful 0.0
thinks 0.000109084294338
hospital 0.000272462481537
lauren 0.0
easier 0.0
excluded 0.0
successful 0.0
leadership 9.75590545322e-05
agrees 6.11983326341e-05
decline 0.000136228623546
turnout 0.0
showed 0.000117500307047
trumps 0.0
circle 0.000110361552108
engage 0.000124193510385
suited 0.0
experienced 0.0
interested 0.000120147609685
effect 8.2145863577e-05
success 0.000105575190183
ladies 4.27358122305e-05
dreams 0.000163829999871
protect 7.98750303008e-05
explanation 0.0
occasion 0.0
medication 0.0
planet 8.74553718674e-05
detached 0.0
essence 0.0
control 0.0
happier 5.68666337248e-05
likely 4.16566290409e-05
coincidence 0.0
cancel 6.52106793369e-05
project 0.000246342110427
laying 6.44638140879e-05
lesson 4.33520036606e-05
requires 0.0
healthy 8.45030607538e-05
treating 5.9267322955e-05
opening 0.000203283810876
statement 0.000201933514198
enjoyed 0.000110889792313
animal 0.0
nervous 0.0
pounds 0.0
wonder 0.000135156296205
matters 4.09574999677e-05
shared 4.27358122305e-05
somehow 5.02991163109e-05
benefit 0.000390582105577
terrible 3.97153392309e-05
continues 3.7993040159e-05
improve 4.76153187315e-05
equally 0.0
appointment 0.0
session 4.07279181176e-05
routine 0.0
exciting 0.000747421559778
corner 8.89859883028e-05
imagination 0.0
decides 0.0
cheering 0.0
spring 7.96524562158e-05
fallen 5.4818275921e-05
frequently 0.0
places 7.43330005906e-05
thousands 9.13551995928e-05
informed 0.000274091379605
typical 0.0
continue 0.00017983302811
attend 0.000187637152072
excuse 0.0
settle 0.0
female 0.0
recovery 0.000360995733916
treasured 0.0
grandma 0.0
closer 0.000117174631673
beginning 0.000117500307047
everywhere 3.71665002953e-05
scenes 7.94306784619e-05
bought 3.80979248887e-05
multiple 9.43795465263e-05
slogan 0.0
wishing 0.000812619198962
covered 0.0
remove 0.0
choices 0.0
dealing 5.41057524019e-05
teacher 0.000232466314359
training 0.000121160108519
passing 0.000126394899293
stopping 0.0
become 6.50696687558e-05
spread 7.11534925847e-05
season 0.000618165764532
putting 0.000130843735044
weight 0.0
quietly 0.0
necessity 0.0
knocks 8.79798908339e-05
effects 5.78444248492e-05
returns 0.000125324097929
expected 4.46224031413e-05
resources 0.0
bucket 0.000234597974794
struggling 0.0
register 0.0
promotion 6.75657415576e-05
solution 0.0
manage 0.00011373326745
transition 6.03252211493e-05
gained 0.0
define 0.0
somebody 0.0
contract 0.0
ignorant 0.0
managers 0.0
credit 0.000115244177055
brothers 9.55169512103e-05
grandkids 0.0
computers 7.93274182524e-05
physical 0.0
series 0.00033880635146
offensive 0.0
fighting 0.000106440128738
donald 0.00022376177364
mexico 0.0
sandra 0.0
police 4.01612952421e-05
represent 0.0
president 0.0012810520256
talking 0.00031245047383
america 0.000596800981511
michigan 0.000125576173274
everybody 0.00015365890274
judgment 0.0
carolina 5.725405637e-05
amount 4.37276859337e-05
houston 0.000106133539857
everyday 0.000176943143878
michael 0.000246342110427
protecting 5.55475662288e-05
providing 5.84462575077e-05
attitude 0.000110361552108
million 0.000719640542742
election 0.000343846565477
honesty 6.70267121791e-05
targeting 0.0
telling 0.000176918201608
correct 4.01612952421e-05
attack 0.000281129066694
elementary 7.13183592957e-05
americans 0.000390168032946
killed 0.000520756345914
horrible 0.000106133539857
salute 0.0
coverage 8.45030607538e-05
united 0.000282706919877
college 0.0
refuse 0.0
preach 7.81577168675e-05
hillary 0.0
clinton 0.000407427565684
presidency 6.72950550506e-05
throws 6.07587024538e-05
manning 7.07106259407e-05
american 0.000462926281395
deserved 0.000142845956195
humble 5.74495990252e-05
remain 4.38539321695e-05
founder 5.76463832294e-05
illegal 0.0
arizona 6.16442886453e-05
opinions 0.0
speeches 0.0
scared 0.000137032799389
salary 7.19382481201e-05
pieces 4.60827481544e-05
taught 0.000183788437563
thompson 0.0
straight 0.0
blocking 5.86494936985e-05
answers 0.000160645180968
created 0.000149895501826
record 0.000195209006267
stamina 0.0
weapon 0.0
bottom 4.17746993096e-05
athletes 6.39757188343e-05
registered 0.0
minnesota 0.0
committed 9.81550862023e-05
journey 0.000121500073154
snapchat 5.78444248492e-05
peoples 0.0
disrespect 0.0
brother 0.000303944321272
prayers 0.000390236218129
boston 0.0
korean 7.13183592957e-05
church 0.000141992920632
advantage 0.0
motivation 0.0
honestly 8.89859883028e-05
defeat 0.0
lifetime 0.0
captain 5.28969426104e-05
retired 0.000126515385426
country 0.000869011447967
ending 4.18932210909e-05
dressing 0.0
finish 0.000114926295637
ranked 0.0
employee 0.0
university 4.46224031413e-05
dreamed 0.0
prayer 0.0
nominated 9.35399831354e-05
responds 0.0
national 0.000168488913254
reform 0.0
shooting 0.000623200496211
cancer 0.000235000614094
deserve 0.000191015828821
mother 0.000243019628093
creating 0.000171432297415
powerful 0.000227958240954
wisdom 5.25600544235e-05
breaking 0.000268128020882
dollars 0.000261133943801
questions 0.000191557491644
racist 0.000168318063367
charged 5.90600084159e-05
soldiers 6.52106793369e-05
performance 0.000360648415459
reading 0.000297595466611
denver 0.0
graphic 6.25559251917e-05
garner 0.000104164319441
create 0.000108194524638
jordan 0.000488541181458
admire 0.0
nobody 0.000305625326113
government 0.000186525273479
politics 0.000308755845441
blessing 0.0
wrestling 0.0
charities 7.3216507963e-05
donate 0.000630182967771
sample 0.0
bringing 3.50010007942e-05
deserves 4.14218293721e-05
regret 0.0
victim 0.0
according 0.0
threat 4.63558195953e-05
heaven 4.9378452339e-05
heroin 0.0
honest 3.87347981479e-05
became 7.79000620264e-05
decision 7.76844554922e-05
counting 0.0
signing 8.16849929328e-05
embrace 0.0
pressure 0.000211859466389
celebrities 0.0
facebook 0.000100005847553
kardashian 0.0
divided 0.0
lawyer 0.0
lebron 0.000549799131691
campaign 0.000397797288088
determine 6.89558134559e-05
whether 7.87700667093e-05
praise 0.0
defined 0.0
proposes 0.0
discover 0.000106133539857
factory 6.34951912546e-05
arrested 0.0
estate 0.0
proposed 0.0
comments 0.0
teenage 6.83922814213e-05
wounded 0.0
endorsement 0.0
williams 0.000447140805431
custom 0.0
troops 6.44638140879e-05
singer 0.0
future 0.000224692399958
struggled 0.0
sister 8.37864421818e-05
sabotage 9.63752288169e-05
athlete 0.0
warrior 0.0
cheating 0.0
voting 0.00023048835411
succeed 0.0
religion 0.000128927628176
century 0.000153263385609
serving 0.000107163815366
because 4.48828534811e-05
cleveland 0.0
hiding 0.0
breath 5.28969426104e-05
choosing 0.0
lawrence 0.000213955077887
instagram 0.000172911125672
opponent 6.72950550506e-05
detroit 0.0
honored 8.6455562836e-05
nonsense 0.0
lifting 0.0
proven 0.0
talent 0.000290773048005
knocking 0.000152602538648
russian 0.000259485342719
brains 0.0
oakland 0.0
regardless 0.0
skills 0.0
citizens 0.000106475065879
california 8.92448062826e-05
commitment 0.000103141638262
seconds 0.000166626516164
seeking 5.4818275921e-05
threatening 0.0
listen 6.4371218368e-05
whatever 0.000143084251867
mexicans 0.0
satisfied 0.0
fought 0.0
compete 0.0
injured 0.0
billion 8.92448062826e-05
ceiling 0.000142636718591
absolute 0.0
appearance 4.79022967823e-05
bigsean 0.0
handle 4.06137617895e-05
promise 0.000110889792313
nightclub 9.31097473632e-05
hosting 4.08424964664e-05
actors 0.000442803848989
generation 4.27358122305e-05
criminal 0.000118952067124
tuesday 0.000106150920965
ronald 0.0
locker 6.98208019141e-05
struggle 4.83378085109e-05
degree 0.0
entering 5.94760335622e-05
leader 0.0
pageant 0.0
toughest 7.42110341894e-05
character 0.000124969887123
mirror 0.000101539822617
interview 0.000221683282978
whistle 0.0
obviously 0.0
battle 7.23267796524e-05
motivate 0.0
destroy 0.0
relentless 0.0
winning 0.00019947189662
charlotte 0.0
accomplished 6.83922814213e-05
stepped 0.0
defense 9.99783592951e-05
appeal 0.000111465204101
causing 0.0
arabia 8.18082145525e-05
shipped 0.0
society 8.59616413694e-05
officers 0.0
brooklyn 0.000441154001827
marked 0.0
incredible 0.00151230417122
poster 0.000296270714034
wealthy 0.0
memorable 0.0
officer 0.0
minute 0.000175481093563
luther 0.000296844136758
foreign 0.000103141638262
pregnant 0.0
champions 5.84462575077e-05
virginia 0.0
tackle 0.0
unarmed 0.0
orange 4.66313183697e-05
policy 0.000137032799389
comedy 0.00063221063217
reminder 7.49477509128e-05
evidence 0.000138656949403
lighten 0.0
presidents 6.54636881545e-05
kicked 0.000102175590406
sticker 0.0
accused 0.0
intentions 0.000171893614982
facing 0.000102495936422
freedom 8.67040073213e-05
actions 0.0
debating 6.89558134559e-05
outcome 5.9267322955e-05
utterly 0.0
mississippi 0.0
clearly 7.89894892962e-05
download 8.79613895027e-05
sidelines 0.0
invite 0.0
legally 0.0
central 0.000410729317885
washington 8.23775902621e-05
veteran 6.11983326341e-05
division 5.725405637e-05
veterans 6.09777380513e-05
stronger 0.0
promised 5.10877952031e-05
worried 4.50139040275e-05
security 0.000619576398509
immediately 4.34767257929e-05
television 0.000109636551842
entitled 6.75657415576e-05
racism 0.0
highest 0.0
approve 0.0
turning 3.89500310132e-05
legacy 4.9378452339e-05
ignore 0.0
choked 0.0
backing 0.0
helping 0.000342496086471
collector 0.0
willing 4.7330973544e-05
basically 4.54104135896e-05
return 6.88715116031e-05
unacceptable 0.0
feelings 0.00010751108135
network 0.000217383628965
language 8.72039037087e-05
invest 0.0
coward 0.0
schools 0.000176943143878
patients 0.000326053396684
foster 0.0
children 0.000650742564295
nation 0.000352500921141
review 3.70647156126e-05
between 0.0
knowledge 4.42357859695e-05
begins 0.000111805861045
tenure 0.0
faithful 0.0
highlights 0.0
shoulder 0.0
produced 9.75590545322e-05
consider 0.00020652546617
shattered 0.0
latest 0.000269582261206
beyonce 6.67606727083e-05
signed 0.00034342542474
millionaire 0.0
shelter 0.000350572902466
charity 0.000173906903172
germany 0.000189323894176
advance 9.05553586102e-05
proved 0.0
married 0.0
millions 0.00016852653239
blessings 0.0
indonesia 9.18941637966e-05
fights 0.0
dollar 0.000157178920956
rigged 0.0
conduct 0.0
johnson 0.000132707357908
howard 0.000114119479391
turned 0.000102470857949
criticism 0.0
stomach 6.47107748212e-05
upgrades 0.0
jackie 0.0
relevant 0.0
charge 4.31040550739e-05
ticket 8.35493986191e-05
steady 0.0
indian 0.0
turner 0.0
sanders 0.0
includes 4.63558195953e-05
survivor 0.000138482938017
dealers 0.0
collection 0.0
against 0.0
joyner 0.0
impact 0.000208283145204
families 0.000398262281079
welcoming 0.000249301959478
hitting 0.0
announced 3.78885091728e-05
granted 0.0
decided 0.0
itself 5.28969426104e-05
selfish 0.0
mexican 0.0
respects 0.0
guarantee 0.0
beliefs 0.0
citizen 5.59187492047e-05
states 0.000117827127152
denied 0.000124650979739
drought 8.40389185949e-05
memorial 5.06121837005e-05
decades 0.0
trayvon 0.0
landed 9.726317418e-05
pastor 0.0
ultimate 9.02910221069e-05
weekends 0.0
episode 0.000445998003544
spikes 0.0
engaged 0.0
financial 5.4818275921e-05
payments 0.0
tolerant 0.0
symposium 0.0
kansas 6.23254898696e-05
agreement 0.000230585532918
source 0.0
backbone 0.0
dismiss 8.45049936642e-05
midnight 8.40243957027e-05
homework 0.0
joining 0.000146643547974
reasons 7.25245049113e-05
talked 0.000195833845078
released 3.62622524556e-05
reaching 0.000114119479391
release 0.000102470857949
existing 0.000125576173274
models 0.000120221466081
pageants 0.0
helmets 0.0
scheme 0.0
scholarship 0.0
stacked 0.0
speech 0.000261597545922
standing 0.000177883731462
higher 8.35493986191e-05
purple 0.000116087480115
justice 0.000167572884364
served 9.40984266971e-05
speaks 9.0027808055e-05
backup 0.0
allegedly 0.0
purchase 0.0
millionaires 0.0
consideration 7.93274182524e-05
strength 0.000129312165222
incredibly 0.000395826252762
private 0.0
ignored 5.94760335622e-05
neighbors 7.04111703934e-05
apologizes 0.0
beings 0.0
minimum 0.0
direction 0.0
enemies 0.0
exclusive 0.000221779584627
prison 5.49989960135e-05
himself 4.99891796476e-05
contributes 0.0
investigation 0.000344697594151
teaching 9.49456401054e-05
disgusting 0.0
philly 0.0
rights 0.000168048791405
cheers 0.0
maintain 0.0
overcome 0.0
flawless 0.0
unique 0.000143275426816
neighborhood 0.000130421358674
dating 0.0
handed 5.96861591674e-05
victory 8.89859883028e-05
lifted 7.66637694571e-05
greatness 6.64968974307e-05
muslim 0.000293247468493
terrorist 6.37345237801e-05
productive 0.0
tribute 0.000384622310075
deadspin 0.0
threatened 0.0
horror 0.0
warning 0.00018005561611
convention 5.98977190881e-05
understanding 8.97657069622e-05
action 0.000300829597593
having 0.0
afghan 0.0
announces 4.76153187315e-05
commencement 0.0
speaker 5.18970685438e-05
graduation 0.0
honors 0.0
produce 0.0
apologize 5.74495990252e-05
insult 6.57187793727e-05
continued 5.34092420105e-05
letter 0.00015365890274
discussed 0.0
therapy 0.0
untrue 8.18082145525e-05
written 7.5986080318e-05
existence 0.0
essential 0.000110361552108
results 0.0
initiative 6.25559251917e-05
disease 0.000182933214154
marching 0.000134053424358
suggest 4.81919569097e-05
georgetakei 0.000178097469922
ensure 0.000118952067124
democrats 0.0
marched 0.000186219494726
foundation 0.000488005355708
access 0.000191543826062
writes 0.000152309733925
student 0.000134257064184
colorado 6.86727666663e-05
medical 5.1247968211e-05
medicine 0.0
tremendous 5.88540713921e-05
nytimes 0.00075503637221
kindness 0.000197927962664
public 0.000216980338957
cannot 0.000173585448638
reveals 9.29865257435e-05
invented 5.82443453405e-05
threatens 0.0
candidate 9.90600192972e-05
persistence 0.0
sexual 0.0
illustration 0.0
measure 5.70597396955e-05
compared 0.0
headline 9.75590545322e-05
reflect 0.0
answering 4.69092880181e-05
streaming 0.0
leaders 4.54104135896e-05
supreme 5.37555406752e-05
nominee 0.0
immigration 0.000173533274548
policies 0.0
laundering 0.0
administration 0.000117708142784
defend 0.0
communicating 0.0
excitement 0.000164996988041
funding 0.000149046935144
climate 0.000474552367076
transfer 0.0
conspiracy 6.14205085536e-05
activist 0.00014325350792
horrifying 7.66637694571e-05
freely 0.0
retreat 0.0
daughters 6.67606727083e-05
compelling 0.00014387649624
platform 0.0
hamilton 6.16442886453e-05
futures 0.0
huffingtonpost 7.19382481201e-05
headlines 0.0
january 0.000129312165222
grants 0.0
unprecedented 0.0
relationships 0.0
philadelphia 0.0
diversity 5.74495990252e-05
funded 5.74495990252e-05
secure 5.68666337248e-05
income 0.0
universal 5.49989960135e-05
contributed 7.85427330988e-05
hurricane 0.000263903950219
fundamental 0.0
countries 0.000538594241773
linked 5.80437400573e-05
african 0.000344697594151
improved 0.000122841017107
unclear 0.0
provide 9.13551995928e-05
livestream 0.0
addresses 0.0
enhance 0.0
companies 0.000103141638262
proposal 0.0
potential 8.59616413694e-05
discrimination 7.25707886063e-05
connected 0.000546828322085
drives 0.0
attending 0.0
filled 4.37276859337e-05
education 0.000293252547636
addressed 0.0
mentioned 9.16241232948e-05
famous 4.28580743538e-05
resistance 0.0
exists 0.000115688849698
demonstrated 0.0
officials 0.000164454827763
instructions 0.0
transmission 0.0
olympics 5.51807760539e-05
ability 4.52776793051e-05
political 8.92448062826e-05
director 0.000776844554922
contains 0.0
sponsored 0.0
autism 7.4549763332e-05
previously 6.20967551927e-05
prevent 0.0
capacity 0.0
donations 0.000235416285568
william 5.27280407862e-05
editors 0.0
passionate 5.64839941975e-05
solving 0.0
innate 0.0
treatment 0.000146338581798
critical 9.90600192972e-05
feeding 0.0
preparing 0.0
depend 0.0
capable 0.0
bridge 0.000702012647795
systematically 0.0
becoming 0.0
embraced 0.0
literacy 0.0
lawyers 0.0
stigma 0.0
malaria 0.0
standard 4.50139040275e-05
hiring 0.000120650442299
remains 0.0
fellow 0.000236968467889
defending 0.000159712598818
quotes 5.1247968211e-05
pushes 0.0
luxury 0.0
admitted 0.0
colleagues 5.70597396955e-05
failed 4.62189831344e-05
independent 0.000240233942284
politically 6.86727666663e-05
driven 0.0
agenda 5.61060211222e-05
result 0.0
implications 0.0
insider 0.0
pakistan 8.74589809578e-05
solutions 6.57187793727e-05
trusts 0.000108941974361
indiana 0.0
filling 0.0
humility 0.0
clicks 0.0
disagree 0.000289151741458
claims 0.0
editorial 0.0
mistakes 0.0
offered 0.0
passionately 0.0
justification 0.0
inspiring 0.000504146374216
counter 0.0
shaped 6.81143117729e-05
retroviral 0.0
majority 0.000104453577521
approach 9.27116391906e-05
nature 0.0
concern 5.27280407862e-05
server 0.0
berniesanders 0.0
shameful 0.0
experiment 0.0
massive 0.000118484233944
promises 0.000177801968865
colored 0.0
consequences 0.0
whatsoever 0.0
proposals 0.0
guesses 0.0
bernie 0.000134053424358
interviewed 0.0
pregnancy 0.0
secretary 5.42823534954e-05
measures 0.0
vastly 0.0
reduce 0.0
compassionate 0.000172885425199
distinguished 0.0
dangerous 8.35493986191e-05
influence 5.09284457105e-05
letters 0.0
implicit 0.0
saving 0.000180582044214
revelations 0.0
incident 0.0
universe 4.99891796476e-05
victims 0.00013543653316
milestone 0.0
perfectly 4.7330973544e-05
exercise 0.0
receive 0.0
reputation 0.0
economics 0.0
disclosure 8.45049936642e-05
receives 0.0
terrific 0.0
collected 0.0
campus 6.16442886453e-05
founders 0.0
profiling 0.0
systemic 0.0
studying 0.000131437558745
necessary 4.79022967823e-05
inaccurate 0.0
breast 0.0
debate 0.000200246016141
suddenly 0.0
conflict 6.47107748212e-05
interest 4.37276859337e-05
meanwhile 0.0
indefensible 0.0
recall 0.0
rating 0.0
nominate 0.000195632038011
outstanding 5.34092420105e-05
devastating 0.0
illness 6.78388129985e-05
troubling 8.49781846578e-05
romney 0.000173893363115
appears 0.000103141638262
breathe 0.0
abroad 6.75657415576e-05
spanish 5.725405637e-05
profit 0.0
reviews 0.0
republican 0.000245682034214
presidential 0.000259485342719
candidates 0.000105120108847
politicians 0.0
identified 0.0
epidemic 7.59429600382e-05
displaced 0.000539628530013
greater 0.000101539822617
absurd 6.70267121791e-05
deadline 0.0
height 0.0
sisters 5.9267322955e-05
nuclear 0.0
stress 5.74495990252e-05
leading 7.89894892962e-05
restored 8.74589809578e-05
conditions 0.000292231287538
however 4.9378452339e-05
achieved 0.0
member 7.31214933083e-05
examples 0.0
diverse 7.19382481201e-05
suicide 6.14205085536e-05
contributions 6.86727666663e-05
largest 0.000147232629303
increase 0.0
targeted 0.0
regulators 0.0
provided 0.0
element 0.0
effectively 0.0
population 0.000177180025248
rising 5.01437605568e-05
indication 0.0
versus 6.92414690084e-05
believed 0.0
dynamic 0.0
invasion 0.0
primary 5.66747234643e-05
provides 0.000121955476103
environment 0.00011450811274
confirmed 0.0
behavior 0.0
introduced 0.0
contain 0.0
communities 0.00023706929182
worldwide 0.000155200543679
responsible 0.000101539822617
household 0.0
apparent 8.01324871017e-05
munich 0.0
alternate 8.35797485959e-05
expressed 7.55887458051e-05
movement 0.000124617020573
declared 6.81143117729e-05
hundreds 5.14089732902e-05
information 0.000252789798586
easily 0.0
untreated 0.0
october 4.34767257929e-05
quantify 0.0
scales 0.0
investigating 0.0
innovation 0.0
perspective 9.18942187814e-05
rivals 0.0
interests 5.86494936985e-05
toledo 0.0
extraordinary 0.00015768016327
gingrich 0.0
describing 0.0
eliminate 0.0
obligation 8.64427125993e-05
gender 5.68666337248e-05
committee 0.0
preventing 0.0
numerous 0.0
unusual 0.0
improving 6.72950550506e-05
practices 0.0
cemetery 0.0
questioned 0.0
affecting 0.000167159497192
ferrell 0.000309873623867
genius 0.000371745839105
warren 0.00028650701584
organizers 0.0
regularly 6.62353481313e-05
ceilings 0.0
sexism 0.0
prepared 0.0
burden 0.0
foreignpolicy 0.0
county 5.74495990252e-05
uniform 0.0
newyorker 0.0
anthony 0.00039672306425
reflecting 0.0
grandson 0.0
banning 0.0
considered 4.81919569097e-05
chosen 0.0
outright 0.0
screenings 0.000103291207956
naming 7.35444835954e-05
conventions 0.0
reproductive 0.000100025726502
ignores 0.0
focusing 6.57187793727e-05
sensible 0.0
concluded 0.0
performed 0.0
divide 0.0
dismissed 0.0
compromise 7.48922354137e-05
crucial 0.00011853464591
weakness 0.0
barrier 0.0
effective 0.0
wealth 6.70267121791e-05
underway 6.23254898696e-05
israel 6.62353481313e-05
overwhelming 0.0
assault 0.0
citing 0.0
protection 5.39301518866e-05
prisoners 0.0
photographing 0.0
traveled 0.0
holder 0.0
seemed 0.000111837498409
concludes 0.0
determination 7.63012693242e-05
tested 0.0
lacking 0.0
machine 8.37864421818e-05
honoring 6.47107748212e-05
contrary 7.85427330988e-05
tolerance 0.0
michelle 5.98977190881e-05
assumed 7.48922354137e-05
programs 0.000123739392486
closely 0.0
politico 0.0
inspire 0.000211587770442
lyrics 0.000174733036022
judges 0.000177801968865
federal 0.000174131220172
maryjblige 0.0
tuning 0.000137345533333
striving 0.0
poland 0.0
september 0.0
manchester 0.0
checks 0.000180332199121
remarkable 5.3581907683e-05
mharrisperry 0.0
immoral 0.0
fiction 0.0
process 0.000356443611125
anxious 0.0
destructive 9.56940275926e-05
nmaahc 0.0
performances 0.000243910952205
whitehouse 0.0
flotus 0.0
crisis 0.000382067804841
marriage 5.37555406752e-05
emotions 0.0
confidence 9.726317418e-05
voters 5.32375329395e-05
comparing 0.0
oldest 0.0
empirefox 0.0
chancetherapper 0.0
songwriter 0.0
literally 0.000345732531164
onstage 8.90487349608e-05
believing 6.27880866371e-05
hillaryclinton 0.000185609088728
citizenship 0.0
counted 0.0
hillaryfornc 0.0
raleigh 0.0
discusses 0.000127951437669
johnlegend 0.0
apprentice 0.0
acknowledge 0.000216758714135
conservative 5.76463832294e-05
economists 0.0
buzzfeed 0.0
puppet 0.0
hombres 0.000121508719905
republic 0.0
homecoming 0.0
andersoncooper 0.0
muslims 6.57187793727e-05
katyperry 0.0
bragging 0.0
treats 0.0
qualified 0.0
islamophobia 0.0
debates 0.0
endorsements 0.0
counts 0.000103141638262
theellenshow 6.62353481313e-05
festival 0.0
encouraged 0.0
stylish 0.0
disregard 0.0
jtimberlake 0.0
backstage 0.0
barack 0.000137911626912
joined 7.64063315284e-05
terrorism 0.000309348481214
pushing 4.96823117145e-05
hopeful 0.0
mentions 0.0
teamed 0.0
exclusively 0.0
aliciakeys 0.0
kingjames 0.0
muhammad 7.97273387437e-05
refused 0.0
characters 4.95300096486e-05
express 9.60935769135e-05
gratitude 0.0
ugliest 0.0
throughout 0.0
awkward 5.17335145598e-05
shining 0.0
fighter 0.0
accepting 0.0
applemusic 0.0
reveal 4.52776793051e-05
stands 0.000172416220295
native 0.000189066000783
announce 7.21296830918e-05
dorothy 0.0
haters 0.0
jessetyler 0.0
shondarhimes 0.0
lavernecox 0.0
broadway 0.00020858934558
disabilities 0.0
adoption 0.0
touched 0.0
corruption 7.4549763332e-05
violence 0.000182174875104
leedanielsent 0.0
delivered 0.000100910509434
jasmine 0.0
independence 0.0
square 8.40243957027e-05
alongside 0.0
privilege 0.0
secondary 0.000162761424983
staggering 8.69466815577e-05
seventh 0.0
tennis 0.000478745969949
sweeping 0.0
footage 0.0
overseas 6.81143117729e-05
spoiler 0.000195632038011
theirs 0.0
offering 0.0
construction 6.49597191961e-05
spends 0.000142026006104
detail 5.70597396955e-05
cabinet 0.0
earnings 0.0
pleased 5.1247968211e-05
gravity 0.0
statements 0.0
decade 0.0
bigotry 0.0
belong 0.0
trillion 0.0
backed 0.0
operations 0.0
breakthroughs 0.0
values 0.0
senator 0.000128437611267
removing 0.0
wondered 5.98977190881e-05
introduces 0.0
makers 0.0
measured 0.00015117749161
pillars 0.0
instrument 0.0
shares 0.000149967538943
individual 5.2392973652e-05
applications 0.0
prepares 0.0
ceremony 0.000166090885648
expanding 0.0
merger 0.0
newspaper 0.0
detailed 0.0
tuition 0.0
childcare 0.0
thoroughly 7.162675396e-05
adviser 0.0
matthew 0.0
affected 0.00043112067104
newspapers 0.0
corporate 6.57187793727e-05
economy 0.000106818484021
presenting 0.0
spoken 0.000103794137088
richer 0.0
during 7.81577168675e-05
combat 0.0
touting 0.0
competitive 0.0
prominence 0.0
trifecta 0.0
fashioned 0.0
boasts 0.0
ripped 7.66637694571e-05
belief 0.0
heroes 0.000189323894176
disturbing 0.000197156338118
russians 0.000151885920076
intelligence 0.0
deepest 0.0
regrets 0.0
complicated 0.000222930408201
internships 0.0
adults 0.0
describe 9.0027808055e-05
equality 0.0
announcement 3.98262281079e-05
interfere 0.0
terrifying 6.09777380513e-05
nationwide 0.000142636718591
manager 0.0
questionable 0.0
enhanced 0.0
services 0.000106818484021
delighted 0.0
golfer 0.0
regarding 0.000172348797076
teachers 5.55475662288e-05
suggests 0.0
phrase 0.0
immigrants 0.000389758315177
revolution 0.0
universities 0.0
twelve 0.0
principle 0.0
releases 0.0
malarkey 0.0
library 5.84462575077e-05
advisor 0.0
deadlines 0.0
encouraging 6.11983326341e-05
circuit 8.45049936642e-05
humanitarian 0.000435424731638
reliant 0.0
assistance 0.000339912738631
swimmer 0.0
hinges 0.0
concrete 0.0
accepted 0.000103794137088
confronted 0.0
comprehensive 0.0
pushed 6.03252211493e-05
unending 0.0
occasionally 0.0
guardia 0.000154046285386
donation 0.000105120108847
nomination 0.000169451982592
paintings 0.0
significantly 0.0
investment 5.98977190881e-05
terror 0.000292231287538
worship 0.0
represents 0.00019120357134
attempting 7.48922354137e-05
bullying 0.0
astonishing 7.13183592957e-05
endorse 0.0
urgent 0.000203516438996
forced 0.000190461274926
addressing 0.000132470696263
script 0.000178428100687
hundred 0.0
command 0.0
qualifies 0.0
stumbled 0.0
territory 0.0
balloons 0.0
objects 8.64427125993e-05
latimes 0.0
pandemics 0.0
separating 0.0
pentagon 0.0
threats 0.000121517404908
prisons 0.0
approaching 0.0
generous 0.000295300042079
roughly 7.66637694571e-05
commands 0.0
uncovered 0.0
destroying 0.0
opposition 0.0
addiction 6.86727666663e-05
manhattan 0.000145141577213
ridiculously 0.000531600720267
awarded 0.0
greeted 0.0
forces 0.0
confirm 0.000151365764151
dealings 0.0
nations 0.000122841017107
equivalent 0.000130927376309
sexist 0.0
yahoonews 0.0
bloody 5.88540713921e-05
boundaries 0.0
exceptionally 0.0
cannon 0.0
feared 7.93274182524e-05
significance 0.0
recommendation 0.0
chapters 0.0
racial 7.28919666934e-05
obvious 0.0
statistics 0.0
military 9.66756170217e-05
adopted 0.0
housing 0.000127951437669
clearer 8.13807124913e-05
calculator 0.0
underwater 0.0
guided 0.0
rescue 5.53636285492e-05
deserving 7.42110341894e-05
advised 0.0
ordered 0.0
unions 0.0
avoiding 0.0
alicia 0.0
preserve 0.0
balloon 0.0
economic 0.0
recipe 0.0
awaits 0.0
squarely 0.0
radical 0.0
banter 0.0
spaces 0.0
carnival 9.2495996455e-05
theories 0.0
bombing 0.000145141577213
products 0.0
margaret 0.0
gathered 8.54587122375e-05
taxpayers 0.0
admits 0.0
opposed 0.0
pressing 0.0
russia 0.000722879353646
lincoln 0.0
intelligent 0.0
momentum 6.64968974307e-05
olympic 0.0
magnificent 6.49597191961e-05
heritage 0.0
beijing 0.0
beloved 0.0
dummies 0.0
pursuit 0.0
carries 0.0
phelps 0.0
medals 8.90487349608e-05
gymnastics 0.0
summed 0.0
accuse 0.0
symbol 0.0
dignity 0.000216758714135
slogans 0.0
priorities 0.0
applied 0.0
progressive 7.13183592957e-05
activists 0.0
elected 0.000108211504804
brussels 0.0
subscribe 6.09777380513e-05
elections 0.0
unites 0.0
complacency 0.0
imperative 0.0
doorsteps 0.0
voices 0.000100287521114
blatant 0.0
democracy 0.00021783986654
disastrous 0.0
rebuild 0.000299568941655
accuses 0.0
diplomacy 0.0
hardball 0.0
attacking 5.98977190881e-05
subtle 0.0
barker 0.0
sticking 0.0
openly 7.42110341894e-05
policing 0.0
embarrassed 0.0
slightest 0.0
abbott 0.0
attacks 4.99891796476e-05
commit 0.0
argued 0.0
remarks 0.000134590110101
democratic 6.32576927128e-05
semitic 0.000200051453004
incomes 0.0
treasury 0.0
alarming 9.18941637966e-05
dividing 0.0
reject 0.0
affirming 0.0
quitting 0.0
extended 0.0
reducing 0.000149784470827
proudly 7.38759670552e-05
inclusive 0.0
oppose 0.0
distinctly 0.0
urging 8.05430018191e-05
strengthen 0.0
deliver 4.92276325375e-05
obligations 0.0
relations 0.0
repeal 0.0
strengths 0.0
counties 0.0
weakened 0.0
reckless 0.0
prosperous 0.0
servant 0.0
secretaries 0.0
negotiator 0.0
faults 0.0
choking 0.0
executive 0.000362134601918
alternative 0.000104453577521
extend 0.0
republicans 0.000126515385426
embodied 0.0
preparation 0.0
terrorists 0.00014325350792
confident 5.3581907683e-05
weapons 0.0
unifying 0.0
outrage 0.0
constitutional 0.0
rental 0.0
prevail 0.0
resilient 0.0
humbled 6.64968974307e-05
courage 0.000204991872844
commander 0.0
respecting 9.92604182842e-05
enormous 0.0
aligned 0.0
consent 0.0
refusing 0.0
resentment 0.0
substance 0.0
claiming 0.0
lamont 0.0
dropping 0.0
carried 6.62353481313e-05
intimidated 0.0
behalf 0.000111465204101
meaningful 0.0
amendment 0.0
accepts 8.18082145525e-05
legislation 0.0
fairer 0.0
commitments 0.0
handling 0.0
proves 6.16442886453e-05
rhetoric 0.0
hardest 5.725405637e-05
peddling 0.0
divisive 0.0
strongly 0.0
vision 0.0
investigations 0.0
repeatedly 0.0
records 4.70492133485e-05
madeleine 0.0
disabled 0.0
quoting 0.0
assassination 0.000103291207956
beaten 0.0
deeply 0.000200575042227
grievance 0.0
contempt 0.0
standards 0.000111837498409
fairness 0.0
dictated 0.0
consensus 0.0
reconsider 0.0
priority 0.0
rogers 0.0
freedoms 0.0
notorious 0.0
invested 0.0
propaganda 0.0
unconstitutional 9.07244624116e-05
condemn 8.05430018191e-05
concerned 0.0
praising 0.0
cheered 0.0
realdonaldtrump 0.00027052876201
despicable 0.0
straightforward 0.0
bargain 0.0
attorney 0.000217712365819
bedrock 0.000118554732612
optimism 0.0
belongs 0.0
truman 0.0
whichever 0.0
inappropriate 7.7777424881e-05
beatings 0.0
optimistic 6.78388129985e-05
campaigned 0.0
allies 0.0
governor 0.0
attempts 0.0
extent 7.63012693242e-05
denial 0.0
maximum 0.0
merely 0.0
apprenticeships 0.0
agreeing 0.0
architect 0.0
responsibility 0.000153263385609
mainstream 6.98208019141e-05
legitimacy 0.000108941974361
injustice 0.0
dozens 0.0
donnell 0.0
scenario 0.0
crimes 0.000344779067279
thoughtful 5.76463832294e-05
hypocrisy 0.0
undocumented 0.0
sexually 0.0
richest 0.0
softening 0.0
implies 0.0
infrastructure 7.3216507963e-05
pitching 0.0
broadband 0.0
tenants 0.0
allegations 7.63012693242e-05
bloomberg 0.0
insulting 7.97273387437e-05
liberal 5.80437400573e-05
kremlin 0.0
podium 8.95973051761e-05
provoke 0.0
outrageous 0.0
campaigns 0.0
barriers 0.0
powell 8.69466815577e-05
technical 0.0
warnings 0.0
flagged 0.0
grassroots 0.0
extremist 0.0
businesses 6.09777380513e-05
welcomes 0.0
deputy 0.0
donating 0.000336636126733
continually 0.0
ourselves 0.0
fringe 0.0
politician 0.0
wiggins 0.000128424699044
welcomed 0.000140229160986
rallies 0.0
ballot 0.0
failing 5.55475662288e-05
uniting 0.0
refuses 0.0
appealing 0.0
proverb 0.0
privileges 0.0
ideals 0.0
vibrant 9.07244624116e-05
tarmac 0.0
residents 0.0
apprenticeship 0.0
denying 7.7777424881e-05
fierce 0.0
opponents 0.0
polling 0.0
apology 5.84462575077e-05
damning 0.0
outline 0.0
endorses 0.0
losers 0.0
insulted 0.0
equipped 0.0
battlefield 0.0
recession 0.0
endorsed 0.0
divides 0.0
describes 0.0
appointed 0.000149099526664
encourage 5.27280407862e-05
undermine 0.0
undermining 9.07244624116e-05
authority 0.0
betray 0.0
funnyordie 0.00060969288303
donated 0.000559187492047
jimmykimmellive 0.0
immigrant 7.25707886063e-05
criminals 0.0
automatically 7.7030559632e-05
schooled 0.0
elizabethforma 0.0
releasing 6.42188056337e-05
connects 0.000107925706003
screening 0.000240442932161
cleaner 0.0
nowthisnews 0.0
sophiabush 0.0
chelseaclinton 0.000309873623867
stunts 0.000112207455815
truths 0.00016807783719
transparency 6.78388129985e-05
obamacare 0.0
nickkristof 0.000102442020369
contraception 0.0
betting 0.0
conscience 0.0
proclaimed 0.0
dispatch 0.0
advocate 0.0
profits 0.0
toward 0.000168318063367
guiding 0.0
senators 0.0
barber 0.0
doubled 0.0
mosque 0.0
senate 0.000190485573764
louisiana 0.0
senwarren 0.000100025726502
parenthood 0.0
organizations 8.09590269654e-05
generations 6.16442886453e-05
minorities 8.85097055823e-05
misogyny 0.0
peacefully 0.000204884040737
decency 8.35797485959e-05
intend 0.0
discourse 0.000181448924823
pennsylvania 0.0
katiemcgintypa 0.0
experiencing 0.0
mccain 0.000180311520139
scandal 0.0
constitution 0.0
sensanders 0.000639126567221
intolerable 0.0
strive 0.0
forefathers 0.0
abandon 0.0
buzzfeednews 9.50274769986e-05
paulkrugman 0.000121508719905
mothers 5.78444248492e-05
compassion 0.000426078018311
deeper 6.59759875546e-05
governments 0.0
activism 8.85097055823e-05
jamilsmith 0.0
mike_pence 0.000105987987067
elizabethbanks 0.0
empathy 8.40389185949e-05
audited 0.0
checkers 0.0
warming 5.59187492047e-05
volunteering 0.0
charitable 0.0
qualifications 0.0
workplace 0.0
granddaughter 0.0
recycled 0.0
directing 0.0
politifact 0.0
abolish 0.0
murders 0.0
reagan 0.0
pouring 0.0
ballots 0.0
racists 0.0
empower 8.31272820485e-05
tolerate 0.0
chrismurphyct 0.000102442020369
igorvolsky 0.0001133771572
outraged 8.26813260373e-05
exceptional 0.0
nightmares 0.0
enforcement 7.42110341894e-05
weaken 0.0
medicaid 0.0
humbly 0.0
newsweek 0.0
conflicts 0.0
suffer 0.0
dallasnews 0.0
bridges 0.000330725304149
lesdoggg 0.0
appalling 0.0
hatred 0.0
superpower 0.0
goodbye 0.000146338581798
renewable 0.0
robdelaney 0.000109992698986
motherjones 0.0
trusted 7.48922354137e-05
sheriff 0.0
personalized 0.0
amnesia 0.0
malala 9.92604182842e-05
problema 0.0
everytown 0.0
casting 0.0
employers 0.0
rudolph 0.0
packets 0.0
organization 0.000289222124246
graceful 0.0
hardworking 0.0
cherished 0.0
aggressively 0.0
founding 0.0
sacred 0.0
horrific 0.0
earned 0.0
siding 0.0
minded 0.0
contribute 6.47107748212e-05
incites 0.0
chooses 0.0
obtained 0.0
defended 0.0
champion 0.0
magazines 0.0
waited 0.0
punished 0.0
conviction 0.0
tradition 5.64839941975e-05
giveaways 0.0
distracted 0.0
endorsing 0.0
pathetic 0.0
ladygaga 7.93274182524e-05
pessimistic 0.0
highlighting 0.0
transgender 8.85097055823e-05
womensmarch 0.0
advisors 0.0
wrecking 0.0
hillaryforva 0.0
registration 0.0
ellemagazine 0.0
acceptance 0.0
defeated 0.0
theroot 0.0
pharrell 0.0
tumblr 0.0
nevada 0.0
illinois 0.0
massachusetts 0.0
theadvocatemag 0.0
lending 0.0
rejecting 0.0
legalize 0.0
conned 0.0
arkansas 0.0
celebratin 0.0
rubber 0.0
lenadunham 0.000512210101843
hateful 0.0
wizard 0.0
unbearable 0.0
harpersbazaarus 0.0
familia 0.000109992698986
iamwill 0.0
retweets 0.0
nominating 0.0
vietnam 0.0
laurie 0.0
claimed 0.0
rapids 0.0
devoted 0.0
casino 0.0
astounding 0.0
summon 0.0
crushed 6.32576927128e-05
louder 0.0
farmers 7.48922354137e-05
lin_manuel 0.000843623083032
arrangement 0.0
borrowed 0.0
mariska 0.0
purposes 0.0
dialogue 0.0
comedian 0.000151885920076
________ 0.0
lightly 0.0
defeating 0.0
jerusalem 0.0
cynical 0.0
worrying 0.0
elizabeth 0.000250223700767
insults 0.0
microphone 0.0
sleeves 0.0
theeconomist 0.0
stakes 0.0
nationally 0.0
inspect 0.0
poisoning 0.0
columbus 7.25707886063e-05
declaring 0.0
crushing 0.0
chucktodd 0.0
soldier 0.0
painted 0.0
warned 0.0
ohiostate 0.0
unrelated 0.0
designated 0.0
clears 0.0
congressional 7.89325924284e-05
confront 8.74589809578e-05
usatoday 0.000223649289996
delivers 0.0
pittsburgh 0.0
entiende 0.0
soaked 0.0
bromance 0.0
lifelong 0.0
antiques 0.0
repjohnlewis 0.000104164319441
breakers 0.0
fundraising 0.0
hispanic 0.0
defrauded 0.0
fearful 0.000106941705641
nytopinion 0.000102442020369
volume 0.0
perfecting 0.0
washingtonpost 6.70267121791e-05
affordable 0.0
mighty 0.0
normalizing 0.0
boasting 0.000128424699044
assaulting 0.0
disqualify 0.0
monique 0.0
jcolenc 0.0
teamusa 0.0
allysonfelix 0.0
usabasketball 0.0
ibtihaj 0.0
simone 0.0
feminism 0.0
conversion 0.0
destiny 0.0
disrespected 0.0
serenawilliams 9.70717392083e-05
tantrum 0.0
heinous 0.0
unconscious 9.92604182842e-05
accomplishments 0.0
saddened 0.000130927376309
disgrace 0.0
rodriguez 9.01557600695e-05
arsenal 0.0
defender 8.22416958571e-05
malalafund 0.000128424699044
merchandise 0.0
laundry 0.0
lesbians 0.0
cnnpolitics 0.0
nickgass 0.0
examining 0.0
monument 9.13037953173e-05
appeals 0.0
gracias 8.09590269654e-05
madame 0.0
grande 0.0
speechless 0.0
coulter 0.0
missiles 0.0
psyched 9.07244624116e-05
chelsea 0.0
biases 0.0
resume 0.0
spectator 0.0
angelina 0.000607543599526
spectacle 0.0
admiration 0.0
reaches 0.0
español 0.0
dreamers 0.0
mañana 0.0
bursting 0.0
undone 0.0
beyoncé 0.0
nuestra 0.0
diwali 0.0
prestigious 0.0
cynicism 0.0
disability 0.0
registering 0.0
booker 0.0
méxico 0.0
disponible 0.0
honduras 0.0
famously 0.0
overdue 0.0
equity 0.0
opioid 0.0
millennials 0.0
recommendations 6.952978186e-05
investors 0.0
betrays 0.0
patriotism 0.0
liability 0.0
iranian 0.000179194610352
delegate 0.0
struck 0.0
millennial 0.0
dictators 0.0
graduate 0.0
analysts 0.0
victor 8.18082145525e-05
shrink 0.0
dictator 0.0
poised 0.0
avoided 0.0
rallying 0.000100025726502
catholic 0.0
thriving 0.0
racially 0.0
undermines 0.0
yashar 0.0002267543144
inequality 7.48922354137e-05
medicare 0.0
missionaries 0.0
foremost 0.0
deplorable 0.0
demonize 0.0
wikileaks 8.49781846578e-05
enduring 0.0
privatized 0.0
appoint 0.0
losses 6.52106793369e-05
jbarro 0.0
buffett 0.0
staffers 9.92604182842e-05
takeaway 9.13037953173e-05
moscow 0.0
hampshire 0.0
pandering 0.0
voxdotcom 0.0
reckoning 0.0
moines 0.0
falter 0.0
countless 8.05430018191e-05
democrat 0.0
bostonglobe 0.0
accountable 0.000157865184857
dispel 0.0
despair 0.0
persisted 0.000124774201359
disclose 0.0
tedcruz 0.0
flooding 0.0
prejudice 0.0
towers 0.0
criticized 0.0
senatemajldr 0.0
outsider 0.0
declare 0.0
dismantle 0.0
thrive 7.97273387437e-05
threaten 0.0
outsourced 0.0
loophole 0.0
heerjeet 0.0
verbal 0.0
businessinsider 0.0
ukraine 0.0
vladimir 0.0
businessman 0.000105062741999
supremacist 0.0
etched 0.0
zekejmiller 0.0
momentarily 0.0
perpetrators 0.0
mocking 0.0
wrecked 0.0
identities 0.0
inhumane 0.0
disavow 0.0
hostile 7.85427330988e-05
muster 0.0
surrender 0.0
shatter 0.000118554732612
patriotic 0.0
rewarded 0.0
jitters 0.0
bullies 9.07244624116e-05
discipline 0.0
forgets 0.0
expand 0.0
apologized 0.0
tournament 0.0
grindstone 0.0
mastery 0.0
provider 0.0
steroids 0.0
jenniferjjacobs 0.0
notion 0.0
hernandez 0.0
mcuban 0.0001133771572
bullied 0.0
jebbush 0.0
discriminating 0.0
somali 0.000839975825069
hayden 0.0
limitless 0.0
implement 0.0
nydailynews 0.0
corybooker 0.000201620823311
interference 0.0
listens 8.85097055823e-05
preside 0.0
remembers 0.0
toughness 0.0
extensively 0.0
suffered 0.0
streep 0.000195568525455
billionaire 0.0
cheats 0.0
needing 0.0
percentage 0.0
insiders 0.000106941705641
binder 0.0
prescriptions 0.0
slashed 0.0
indebted 0.0
dismisses 0.0
delegates 0.0
pledged 0.0
endured 0.0
deployed 9.50274769986e-05
suspense 0.0
courageously 0.0
resilience 9.07244624116e-05
nationalists 0.0
autonomy 0.0
abandoning 0.0
canvas 0.0
blacks 0.0
pledging 0.0
elaine 0.0
methodist 0.0
candidacy 0.0
bonuses 0.0
resolve 7.85427330988e-05
laughable 0.0
scares 0.0
intellect 0.0
hopeless 0.0
debunked 0.0
shames 0.0
connections 0.0
tyleroakley 0.0
perplexed 0.0
ddlovato 0.0
impromptu 0.000179194610352
teenvogue 9.77842627274e-05
unveils 0.0
billie 0.0
prouder 0.0
sweetness 0.0
cheryl 0.0
filipino 0.0
petersburg 0.0
drastic 0.0
lifesaving 0.000112207455815
decorated 0.0
usagym 0.0
freestyle 0.0
absentee 0.0
lashes 0.0
concentration 0.0
refuge 0.0
renaissance 0.0
actively 0.0
monitoring 0.0
destined 0.0
willfully 0.0
detained 0.0
warmest 0.0
heroic 0.0
bragged 0.0
miners 0.0
shareholders 0.0
randall 0.0
excessive 0.0
geneva 0.0
corporations 0.0
unsolvable 0.0
grandchildren 0.0
discredit 0.0
enormously 0.0
frances 0.00022441491163
pillar 0.0
trillions 0.0
expansive 0.0
organize 0.0
capabilities 0.0
confederate 0.0
shakers 0.0
ambiguity 0.0
linking 0.0
pretends 0.0
wireless 0.0
inherit 0.0
paranoia 0.0
theatlantic 9.13037953173e-05
languages 8.26813260373e-05
disposable 0.0
reinforcing 0.0
integrated 9.85135530352e-05
optimist 0.0
pigeons 0.000200051453004
chadhgriffin 0.0
katieledecky 0.0
richards 0.0
demconvention 0.0
abcpolitics 0.0
chobani 0.0
dominiclowell 0.0
floridians 0.0
cecilerichards 0.0
clintonfdn 0.0
billclinton 0.0
grounded 0.0
abilities 0.0
grandfather 7.13183592957e-05
profoundly 0.0
fiercely 0.0
drowning 0.0
astound 0.0
alzheimer 0.0
responders 0.0
peacecorps 0.0
nygovcuomo 0.0
hurricanes 0.0
approximately 0.0
daunting 0.0
organizer 0.0
ingenuity 0.0
illnesses 0.0
intruders 0.0
invading 0.0
harmful 8.69466815577e-05
foundations 0.0
skateboards 0.0
housekeeping 0.0
dangerously 0.0
renters 0.0
predatory 0.0
rebuke 0.0
jengranholm 0.0
supremacy 0.0
linger 0.0
adamserwer 0.0
clevelanddotcom 0.0
repadamschiff 0.00131996201082
fahrenthold 0.0
revoke 0.0
advising 0.0
strengthening 0.0
colleges 0.0
deniers 0.0
aspire 0.0
exceed 0.0
lebassett 0.0
shrugged 0.0
stewardship 0.0
complains 0.0
temperament 0.0
texasinafrica 0.0
americorps 0.0
latino 0.0
payoffs 0.0
protested 0.0001158579535
honorable 0.0
fathom 0.0
inconvenience 0.0
johnkasich 0.0
latinos 0.0
votevets 0.0
unsurprising 0.0
loopholes 0.0
dismal 0.0
unqualified 0.0
rigorous 0.000210125483998
mittromney 0.0
joyannreid 0.0
theorist 0.0
evan_mcmullin 0.00112296781223
discriminate 0.0
ezraklein 0.0
obsessively 0.0
desperation 0.0
latina 0.0
tammyforil 0.0
pantsuit 0.0
superior 0.0
exonerated 0.0
johnpodesta 0.0
recites 0.0
supremacists 0.0
affront 0.0
electing 9.56940275926e-05
defund 0.0
demeans 0.0
govpencein 0.0
squandered 0.0
machado 0.0
pneumonia 0.0
unhinged 0.0
criticizes 0.0
derailment 0.0
iceberg 0.0
epipens 0.0
generals 0.000312492958322
timkaine 0.0001133771572
provocation 0.0
paulbegala 0.0
clintinfdn 0.0
wesleylowery 0.0
childdefender 0.0
dictatorship 0.0
ceasefire 0.0
stamped 0.0
intimidation 0.0
casinos 0.0
manifest 0.0
restrict 0.0
transformation 0.0
battleground 0.0
christine 9.2495996455e-05
touted 0.0
mcconnell 0.000204884040737
deflect 0.0
expressing 0.0
commonsense 0.0
statesman 0.0
mcbride 0.000128424699044
tumble 0.0
bigoted 0.0
belonged 0.0
praised 0.0
policeman 0.0
booing 0.0
cathedral 0.0
tomperez 0.0
keithellison 0.0
knowingly 0.0
wealthiest 0.0
backward 0.000102442020369
pretended 0.0
thedemocrats 0.0
psychologists 0.0
americ 0.0
successor 0.0
diplomats 0.0
congratulated 0.0
devotion 0.0001133771572
remembrance 0.000169956369316
eligible 0.0
incoherent 0.0
exhaustive 0.0
downgraded 0.0
unified 0.0
embraces 0.0
galling 0.0
senatorreid 0.0
lifetimes 0.0
demagogue 0.0
rodham 0.0
temper 0.0
longtime 0.0
vetoing 0.0
janelle 0.0
voguemagazine 9.18941637966e-05
dominique 0.0
surpassed 0.0
associates 0.000101615480505
demonstrating 0.0
morning_joe 0.0
bazaar 0.0
consequential 0.0
undressed 0.0
entrepreneurial 0.0
billionaires 0.0
prescription 0.0
senseless 0.000183788327593
refresher 0.0
classmates 0.0
maturity 0.0
comentarios 0.0
risked 0.0
invincible 0.0
vigilant 0.0
emissions 0.0
recommit 0.0
voiceless 0.0
natlparkservice 0.0
workplaces 0.0
mayaharris_ 0.0
dhsgov 0.0
cyberattacks 0.0
maxinewaters 0.0
jerrybrowngov 0.000132563291983
discriminates 0.0
thejusticedept 0.0
simone_biles 0.0
sotomayor 0.0
traumatic 0.0
scammed 0.0
dreamer 0.0
fulfill 0.0
latinas 0.0
discouraged 0.0
usnavy 0.0
oftentimes 0.0
reprehensible 0.0
demeaning 0.0
ratified 0.0
emilyslist 0.0
lawsuits 0.0
nonviolent 0.0
caucus 0.0
joebiden 0.000213883411281
joyful 0.0
privatize 0.0
barbaraboxer 0.0
sengillibrand 0.000119996546438
camino 0.0
familias 0.0
americaferrera 0.0
universidades 0.0
gabbygiffords 0.0
shuttlecdrkelly 0.0
fulton 0.0
shimon 0.0
hablar 0.0
fuerza 0.0
trickle 0.0
refinance 0.0
shattering 0.0
damián 0.0
gouging 0.0
moveon 0.0
simone_manuel 0.0
revdrbarber 0.0
senatorbarb 0.0
cnbcnow 0.0
stiffed 0.0
mikebloomberg 0.0
solver 0.0
thrower 0.0
granddaughters 0.0
changemaker 0.0
clairecmc 0.0
anastasiasomoza 0.0
defunding 0.0
preyed 0.0
aspirations 0.0
fannie 0.0
mubarak 0.0
buzzfeedben 0.0
probed 0.0
marines 0.0
projecting 0.0
outsourcing 0.0
developers 0.0
crimea 0.0
everyo 0.0
chaser 0.0
dubious 0.0
diplomatic 0.0
rosiegray 0.0
unpatriotic 0.0
multifaceted 0.0
myanmar 0.0
adamparkhomenko 0.0
tjmshow 0.0
tenant 0.0
perjury 0.000124774201359
contractual 0.000140037726015
surrounds 0.000137340946903
exceeded 0.0
thrives 0.0
unclerush 0.000103291207956
sailors 0.0
stereotypes 0.0
librarycongress 0.0
acknowledging 9.63752288169e-05
philippe 0.0
battled 0.0
postopinions 0.0
ambassadorrice 0.0
shockingly 0.0
mcfaul 0.0
presid 0.0
poisons 0.0
kenvogel 0.0
johndingell 0.0
harnessing 0.0
unwritten 0.0
bewildering 0.0
moonshot 0.0
apologizing 0.0
oligarchs 0.0
espionage 0.0
marcorubio 0.0
desecration 0.0
brianefallon 0.0
bangladesh 0.0
twittermoments 0.000124774201359
officialcbc 0.0
thefix 0.000121508719905
urgency 0.0
traceeellisross 0.000137340946903
andradaymusic 0.0
impeccably 0.0
catastrophe 0.0
tallest 0.0
anastasia 0.0
azcentral 0.0
marrying 0.0
moderates 0.0
resembles 0.0
paraphrase 0.0
applauds 0.0
heavier 0.0
virginians 0.0
railing 0.0
eloquently 0.0
denverpost 0.0
independents 0.0
americanos 0.0
hispanos 0.0
bailouts 0.0
divisiveness 0.0
jmpalmieri 0.0
hardballchris 0.0
republicano 0.0
candidato 0.0
phillyinquirer 0.0
jesserodriguez 0.0
militarytimes 0.0
sunsentinel 0.0
ryanlizza 0.0
bretbaier 0.000124774201359
thelastword 0.000164474706712
hillaryclinto 0.0
maddowblog 0.000154046285386
boundless 0.0
enacting 0.0
gettysburg 0.0
groping 0.0
govchristie 0.0
justices 0.0
watchdogs 0.0
cavalier 0.0
succeeds 0.0
retirees 0.0
pocketed 0.0
multimillionaire 0.0
redcross 9.56940275926e-05
evalongoria 0.0
highways 0.0
marlee 0.0
primero 0.0
pianos 0.0
bribed 0.0
scranton 0.0
wellesley 0.0
perkins 0.000106941705641
onward 0.0
algore 0.0
candidly 0.0
trajectory 0.0
quitter 0.0
objectifying 0.0
ignoramus 0.0
disillusioned 0.0
asinine 0.0
vibrancy 0.0
arpaio 0.0
testifying 0.0
chairmen 0.0
luchar 0.0
disrupted 0.0
podemos 0.0
settlements 0.0
massacres 0.0
millones 0.0
eagerly 0.0
grandmas 0.0
dedicado 0.0
seeming 0.0
pragmatic 0.0
hashanah 0.000274681893806
porque 0.000137340946903
unidos 0.0
nuestras 0.0
primera 0.0
debemos 0.0
muchos 0.0
cuando 0.0
nuestro 0.0
inteligente 0.0
rapists 0.0
agosto 0.0
presidente 0.0
puedes 0.0
mujeres 0.0
safeguarding 0.0
indecent 0.0
motions 0.0
strengthened 0.0
eminently 0.0
innuendo 0.0
memorandum 0.0
reuterspolitics 0.0
educates 0.0
mexicana 0.0
disparage 0.0
absurdity 0.0
backdoor 0.0
affording 0.0
hardline 0.0
steelworkers 0.0
demean 0.0
immigrate 0.0
thuggish 0.000164474706712
astrid 0.0
jesuit 0.0
governorship 0.0
waterboarding 0.0
personas 0.0
stephenson 0.0
huracán 0.0
firefighter 0.0
ravages 0.0
marleematlin 0.0
scrolling 0.0
tarnish 0.0
ajentleson 0.0
roanoke 0.0
heaping 0.0
carpentry 0.0
forcefully 0.0
frankiejgrande 0.0
aprildryan 0.0
unjustified 0.0
yamiche 0.0
evacuate 0.0
disrespects 0.0
incomprehensible 0.0
jogger 0.0
vindicated 0.0
blazed 0.0
cambodia 0.0
revolutionize 0.0
welding 0.0
unbeatable 0.0
polished 0.0
saddled 0.0
interdependence 0.0
alleys 0.0
civility 0.000111080298579
vilified 0.0
disagreeable 0.0
terence 0.0
bluster 0.0
incredib 0.0
holton 0.0
hillaryforpa 0.0
hillaryforco 0.0
jes_chastain 0.0
vitalvoices 0.0
indictments 0.0
evokes 0.0
reaffirming 0.0
rebukes 0.0
minerva 0.0
peddle 0.0
starker 0.0
cascading 0.0
carolinians 0.0
señora 0.0
honrado 0.0
missionary 0.0
ranchers 0.0
denveropinion 0.0
practicality 0.0
thoughtfulness 0.0
scripture 0.0
pueblo 0.0
morningmoneyben 0.0
smalls 0.0
exemplify 0.0
eviscerated 0.0
jeffflake 0.0
helpless 0.0
sarahemcbride 0.0
indivisible 0.0
colinjones 0.0
mrjoshcharles 0.000149907692447
houstonchron 0.0
thoroughness 0.0
isolde 0.0
wonkiest 0.0
equate 0.0
dustbin 0.0
estados 0.0
newrepublic 0.0
expresses 0.000105987987067
demonizing 0.0
jeffbezos 0.0
discard 0.0
befriending 0.0
slovenia 0.0
unrelenting 0.0
salmahayek 0.0
revolves 0.0
anselm 0.0
dwells 0.0
usairforce 0.0
deride 0.0
repackaging 0.0
earmarked 0.0
evader 0.0
passpor 0.0
awaited 0.0
guterres 0.0
precinct 0.0
presidencia 0.0
unshakable 0.0
marshablackburn 0.0
comunidad 0.0
merecen 0.0
juntos 0.0
infomercial 0.0
johnstown 0.0
statewide 0.0
skyscrapers 0.0
phillydotcom 0.0
deducted 0.0
laguardiacc 0.0
annieslisttx 0.0
nickmerrill 0.0
leaninorg 0.0
missbeae 0.0
minassianmedia 0.0
natarsha 0.0
foments 0.0
ruline 0.0
steininger 0.0
michaelnutter 0.0
harren 0.0
louisa 0.0
cannell 0.0
robbymook 0.0
broward 0.0
hillaryforfl 0.0
jeanneshaheen 0.0
ericasmegs 0.0
jeremyshorr 0.0
turpin 0.0
rubycramer 0.0
singularly 0.0
joshschwerin 0.0
clionamccarney 0.0
xochitlhinojosa 0.0
adamsmith_usa 0.0
humayun 0.0
jamestaylor_com 0.0
hillaryformn 0.0
ericwms 0.0
dougmillsnyt 0.0
jencarlosmusic 0.0
hannahbfine 0.0
creynoldsnc 0.0
lefsadventures 0.0
pembroke 0.0
perceptiveness 0.0
hillaryforaz 0.0
fayetteville 0.0
entrust 0.0
daveeddiggs 0.0
petewilliamsnbc 0.0
hillary_esp 0.0
ustedes 0.0
nación 0.0
creativa 0.0
bilingües 0.0
multilingües 0.0
contribuyen 0.0
diversidad 0.0
economía 0.0
hillaryforia 0.0
estaré 0.0
discurso 0.0
síganme 0.0
detall 0.0
hopewell 0.0
temperamentally 0.0
redone 0.0
barging 0.0
machadooficial 0.0
mikereedschmidt 0.0
franklinfoer 0.0
eamonjavers 0.0
hillaryforoh 0.0
hustling 0.0
relishes 0.0
markkirk 0.0
asmamk 0.0
just_jenna 0.0
discrimina 0.0
samifayebaker 0.0
padded 0.0
wigazette 0.0
phillytrib 0.0
trivializes 0.0
condones 0.0
ellisoncampaign 0.0
barb_kinney 0.0
theriveterspod 0.0
humiliates 0.0
nickmarroletti 0.0
alli_wilber 0.0
brespolitico 0.0
jasoncherkis 0.0
sean_p_thomas 0.0
outclassed 0.0
outmaneuvered 0.0
belittling 0.0
familie 0.0
yuuuuuuge 0.0
disqualifying 0.0
brynnecraig 0.0
buffywicks 0.0
lasvegassun 0.0
cmichaelhuntley 0.0
civically 0.0
raquelwillis_ 0.0
celebramos 0.0
trayectoria 0.0
pionera 0.0
breakups 0.0
rosenbergerlm 0.0
heraldleader 0.0
jaylon 0.0
decisi 0.000164474706712
antónio 0.0
squander 0.0
presidenta 0.0
protegerá 0.0
astrid_nv 0.0
sltrib 0.0
peter_j_k 0.0
brosandprose 0.0
nicholaskitchel 0.0
mahoning 0.0
omerizer 0.0
kendallybrown 0.0
davidnakamura 0.0
chatima 0.0
tammybaldwin 0.0
mpshapiro 0.0
responsibilit 0.0
overgrown 0.0
literally_trump 0.0
imploded 0.0
rnicholasburns 0.0
disastrously 0.0
stiffing 0.0
globeopinion 0.0
degradi 0.0
languishing 0.0
demostrar 0.0
poderosa 0.0
iammarleydias 0.0
tbtimes_opinion 0.0
disloyalty 0.0
defende 0.0
vegalteno 0.0
moodysinvsvc 0.0
decisiveness 0.0
whethe 0.0
preocupada 0.0
trayecto 0.0
afectados 0.0
ayotte 0.0
empathize 0.0
lifelo 0.0
lorellapraeli 0.0
ironworking 0.0
ebeling 0.0
contribuido 0.0
ejército 0.0
inmigrantes 0.0
indocumentados 0.0
enquirer 0.0
delega 0.0
roadshow 0.0
sunsentinelopinion 0.0
resulta 0.0
insultar 0.0
construir 0.0
muralla 0.0
provoked 0.0
discretion 0.0
sdutideas 0.0
merece 0.0
respeto 0.0
enfrentar 0.0
valentía 0.0
ataques 0.0
descaro 0.0
culparla 0.0
petulance 0.0
ninhaitseng 0.0
flippantly 0.0
posteverything 0.0
_vicentefdez 0.0
azcopinions 0.0
aumentó 0.0
andrewjenks 0.0
imwithher 0.0
diferencias 0.0
onevoxdotcom 0.0
ignite_national 0.0
endorsin 0.0
mercersdairy 0.0
everyvoice 0.0
rachaelgass 0.0
galifianakis 0.0
crutcher 0.0
nyledimarco 0.0
mistreat 0.0
wellsfargo 0.0
templeuniv 0.0
sollender 0.0
honremos 0.0
tantas 0.0
contribuciones 0.0
aleatha 0.0
endeavored 0.0
legitimize 0.0
además 0.0
whistles 0.0
ugliness 0.0
jorge_silva 0.0
dnclatinos 0.0
libnofcongress 0.0
unscrupulously 0.0
contractually 0.0
impulsively 0.0
qaddafi 0.0
cancelable 0.0
cnbcopinion 0.0
jbrotherston 0.0
_bxddxss 0.0
sspiderboy 0.0
collegedems 0.0
veered 0.0
charitynav 0.0
usnewsopinion 0.0
humansofny 0.0
unfitness 0.0
steadiness 0.0
nbcusa_inc 0.0
verdadera 0.0
encuentra 0.0
hacemos 0.0
anuncio 0.0
unpresidential 0.0
unfavorably 0.0
heridas 0.0
visibles 0.0
veteranos 0.0
cuidado 0.0
panetta 0.0
experiencia 0.0
confío 0.0
exsecretario 0.0
comercio 0.0
lizromanoff 0.0
americasvoice 0.0
davidleopold 0.0
rebuked 0.0
criminalize 0.0
mentiré 0.0
inmigración 0.0
demonizar 0.0
americanlegion 0.0
sarasolow 0.0
qumber 0.0
zerlinamaxwell 0.000158823940306
hillaryforut 0.0
hillaryforga 0.0
grandtetonnps 0.0
marlondmarshall 0.0
mariatcardona 0.0
escuchamos 0.0
claramente 0.0
demonizando 0.0
segunda 0.0
tercera 0.0
rhettbuttle 0.0
hillaryformi 0.0
futuramics 0.0
louisianans 0.0
claressashields 0.0
helen_maroulis 0.0
bri_rollin 0.0
itspooda 0.0
kristihollywood 0.0
meredeetch 0.0
kersee 0.0
rodhams 0.0
bidens 0.000180306933709
possibilitie 0.0
maulama 0.0
akonjee 0.0
shotdiva 0.0
auriemma 0.0
maxlinsky 0.0
cowering 0.0
moratory 0.0
hillarycl 0.0
repudiate 0.0
fencer 0.0
bankruptcies 0.0
warrenbuffett 0.0
bishopgarrison 0.0
ajazzyworld 0.0
morell 0.0
starkest 0.0
braille 0.0
frankmugisha 0.0
confiar 0.0
distinguido 0.0
herencia 0.0
harkening 0.0
impulses 0.0
dakota_meyer 0.0
kauveri 0.0
iafftreg 0.0
laurawalkerkc 0.0
jakesherman 0.0
benediction 0.0
denigrates 0.0
ann_oleary 0.0
liberates 0.0
bombast 0.0
repcleaver 0.0
throwed 0.0
luchado 0.0
derechos 0.0
humanos 0.0
trabajadores 0.0
relent 0.0
aprendí 0.0
valores 0.0
trabajo 0.0
mismos 0.0
annella 0.0
drbiden 0.0
expedient 0.0
imangelabassett 0.0
smegielski 0.0
leinonen 0.0
driffin 0.0
buckles 0.0
insatiably 0.0
sybrina 0.0
mcbath 0.0
dontre 0.0
randibrazeau 0.0
sjbxtr 0.0
malcolmkenyatta 0.0
lankford 0.0
countrymen 0.0
countrywomen 0.0
refiere 0.0
separar 0.0
valiente 0.0
strongmen 0.0
seremos 0.0
compañeros 0.0
bienvenidos 0.0
dauntless 0.0
governorva 0.0
sherrodbrown 0.0
vicepresidencia 0.0
ilyseh 0.0
gunsense 0.0
encantada 0.0
anunciar 0.0
splintering 0.0
albamonica 0.0
criminologist 0.0
construiremos 0.0
discriminatio 0.0
endorser 0.0
sniveling 0.0
ryanegraney 0.0
baptize 0.0
convención 0.0
republicana 0.0
