chatting 0.0
trying 0.000363116467124
launch 0.000254421487052
moment 0.000286848128323
wonderful 0.000116537761684
seeing 0.00018652018474
recommend 0.000154420071356
anybody 3.97768536326e-05
podcast 0.0
challenges 0.000130539854517
worked 0.000112196057923
direct 3.6728058078e-05
others 0.000306873985218
currently 0.000215976957672
better 0.000795421070708
please 0.000884234626126
travels 0.0
social 0.000203387581093
around 0.00028224618638
people 0.00192440581623
leaving 0.000146865640675
morning 0.000283771845157
general 0.000199491788798
overall 4.50861793525e-05
damage 0.000592122084423
affect 8.92951153189e-05
everything 0.000257974404688
twitter 0.000517341415072
present 0.000264358153215
though 0.000832730414924
friend 0.000129684452544
watched 5.82688808421e-05
beautiful 0.000186017775434
anything 0.000314617020487
practice 0.000279832720319
helped 8.48333145495e-05
helpful 0.000132648924329
revive 0.0
updated 8.20095580784e-05
thinking 0.000316318157027
finally 0.00047447723554
caught 0.000174332212366
believe 0.000334463982174
already 0.000566015969833
orlando 0.0
depends 0.000154420071356
chance 0.000257974404688
meaning 0.000190754344588
annual 6.93649077099e-05
renewed 6.63398806255e-05
growing 9.28160204044e-05
probably 0.00025175891802
should 0.000204595652844
changed 0.000275975293272
history 0.000451757454627
center 0.0
museum 8.95858667394e-05
behind 0.000307904930597
pretty 0.00023723861777
really 0.00103189761875
expensive 4.43592541295e-05
little 0.000411647978061
earlier 0.000181111088908
forget 0.000156884981874
paperwork 0.0
someone 0.000390103511526
mostly 0.000195921232971
worker 0.0
safety 7.47499028767e-05
program 0.0
things 0.000590151116977
electrical 0.0
visiting 7.11657061084e-05
available 0.000294688804351
perfect 0.000161173628695
different 0.000131090425203
search 0.000172432923137
connect 0.0
numbers 0.000386950237223
person 0.000181069495275
watching 7.78106715265e-05
passed 9.43607458065e-05
minutes 0.000133228703386
daughter 3.11948361037e-05
average 3.69418821839e-05
positive 0.000214207374791
outside 8.19026794268e-05
metric 0.000145673138735
looking 0.000437375976689
forward 0.000265023953645
raising 0.0
afraid 0.000200050600538
impression 4.73993432912e-05
profile 0.000105837587197
drawing 4.59865785518e-05
favorite 0.0
picture 0.000137243912837
historic 3.89509836766e-05
instead 8.71661061828e-05
appreciate 6.07014446882e-05
husband 0.0
international 0.000382688509249
toddler 6.80860470319e-05
couldn 0.000268622714492
remember 0.000232176964219
holidays 0.0
friends 0.000155621343053
despite 0.000183109052691
understood 9.84777362916e-05
impossible 0.000140314943095
everyone 0.000283771845157
florida 0.0
always 0.000410539907462
months 0.000215478850775
moving 8.32414302599e-05
meeting 0.000290741240892
google 0.0
answer 0.000290741240892
together 0.000232803636783
included 0.000117905034368
inside 8.05868143475e-05
section 0.000118971696692
missed 0.000339917460726
button 0.0
active 0.000124538668763
longer 0.000267983481955
enough 0.000834467282393
projects 0.0
driving 6.30808272801e-05
building 2.89765399583e-05
enjoying 6.30808272801e-05
kennedy 0.0
tantrums 0.0
apparently 0.000232740420264
recent 0.000204595652844
gotten 0.0
amazing 0.000257279986288
determined 0.000348350250804
attention 0.000116855026162
progress 0.000250511143968
tomorrow 0.0004127590475
whenever 4.24270382261e-05
curious 8.20095580784e-05
george 0.000160338333311
feeling 0.000162045882956
excited 2.69348563468e-05
campaigning 5.78030687888e-05
understand 0.000225000323562
learning 0.000255832282665
special 0.000130034503842
secret 5.77959052503e-05
across 0.000259376447283
comparison 9.64383624358e-05
surprised 0.000153846541025
anymore 9.86383035972e-05
spirited 0.0
precious 0.0
rejoice 7.76018381079e-05
rather 0.000376695019458
showing 0.000137615240798
saying 0.000188543994428
tweeted 3.4099275474e-05
updates 7.49687411121e-05
thoughts 0.000164248387836
exactly 0.000251078715178
except 0.000164397172662
getting 0.000283771845157
nothing 0.000386961607032
tweets 0.000199019920054
course 0.000479623332188
photos 0.000155974180519
looked 0.000175759911611
difficult 0.000408040257879
office 0.000418464525297
decisions 0.00011685295103
brought 8.57579650989e-05
biggest 7.97219037576e-05
thrilled 7.86033562456e-05
entire 0.0
something 0.000593341130782
closing 3.8376938611e-05
anyone 0.000676179419979
taking 0.000361164166563
reprint 0.0
flying 3.24252856109e-05
happening 0.000112500161781
sometimes 0.000341177005807
lessons 0.000112124854315
village 0.0
stopped 3.02678184135e-05
yesterday 0.000390103511526
service 0.000113417917317
serious 0.000220780234617
emails 0.000312532903616
wearing 0.0
afford 4.16415051163e-05
either 5.62500808904e-05
second 0.000130034503842
checking 6.68704826753e-05
volunteers 5.39864521767e-05
indeed 0.000211072619945
hearing 8.64588157611e-05
choose 6.07014446882e-05
another 0.000334463982174
address 0.000313028568309
display 0.000138419296618
compare 0.0
weekend 0.000183032478852
suggested 0.0
appear 3.9067350063e-05
anyway 0.000100025300269
theory 8.45888692034e-05
buildings 0.0
working 0.000309569285625
bigger 9.08034552404e-05
treated 0.0
admired 0.0
retirement 0.0
laughing 3.06010535416e-05
wanted 5.21542051496e-05
current 0.000213037265053
grateful 0.0
friendship 0.0
family 0.000103189761875
listening 0.000113111086066
stream 0.0
sharing 0.000182104334065
double 0.000116855026162
especially 5.71719767326e-05
middle 8.88421712426e-05
waiting 0.000132155109496
definitely 0.000141006461708
walking 6.18773469362e-05
account 0.000363213820962
completely 0.000183606321249
thought 0.0004941311146
accept 0.000131884947741
possible 0.000300309824565
simple 9.00621053755e-05
manufacturing 7.15639741408e-05
destroyed 0.0
members 0.000162577373057
supposed 3.42921992718e-05
manufacturers 8.48094405664e-05
business 0.00041733418333
absolutely 0.000248377763945
anywhere 0.000137556831488
sending 0.0
introducing 4.13849155359e-05
congrats 0.000622854836344
beauty 0.000110825646552
community 0.000318026858815
greatest 5.6402584683e-05
posted 3.05173381518e-05
wednesday 6.22183281804e-05
explain 0.000150514049217
broken 6.39580706663e-05
fairly 0.0
closest 4.92388681458e-05
hoping 0.000310237771754
relationship 0.00013872981542
actually 0.000422896350388
pockets 7.32751910605e-05
wallet 0.0
pocket 0.0
argument 0.000556875950856
decent 0.000137502902073
school 0.000262180850405
throwback 0.0
thursday 0.0
talented 0.0
discuss 0.000166243157331
celebrate 8.55257590928e-05
celebrating 3.07693082049e-05
anniversary 3.11948361037e-05
students 0.000889084457381
corners 0.0
internet 0.000192405999973
figure 0.000215976957672
opened 7.54092372797e-05
inspired 6.23896722074e-05
latter 5.82918215513e-05
sitting 8.74033212631e-05
playing 0.000104872340162
street 0.000142929941831
points 0.000297570320733
advice 0.000302678184135
memory 7.13697520568e-05
forever 0.0
congress 4.47929333697e-05
imagine 0.000229931971064
problem 0.00052577231918
pulling 0.000175731132757
furniture 6.534651486e-05
keeping 0.000172917631522
dressed 4.16415051163e-05
chinese 4.16415051163e-05
unlike 0.0
allowed 0.000135631165678
otherwise 3.66218105382e-05
afternoon 0.000151753611721
planned 3.70494661747e-05
images 0.000136148446612
noticed 4.08793081573e-05
expense 0.0
differences 4.95879720918e-05
difference 0.000112805169366
editor 0.000339416305809
intent 6.0079720812e-05
suppose 9.91759441836e-05
inspiration 3.53800160752e-05
letting 0.0
system 0.000322458531019
almost 0.000128987202344
details 8.46038770245e-05
experience 0.000134674281734
living 0.000134674281734
worries 9.07656310749e-05
weather 0.000164856184676
bright 7.26113647612e-05
understands 0.000107557375861
normal 3.45843323426e-05
launching 0.0
backyard 0.0
pointed 5.33681392645e-05
before 5.59464262267e-05
monday 0.000107739425387
example 6.81985509481e-05
science 0.00495184517218
tweeting 0.000206172306789
forgot 0.0
disaster 0.000118614497756
happens 8.01531442841e-05
silence 4.0630192179e-05
learned 8.95718092424e-05
congratulations 0.000199019920054
natural 3.66218105382e-05
babies 0.0
mission 0.00010493727012
surprising 0.000124924515349
reference 4.36523569639e-05
forgotten 0.000153507754444
setting 7.32436210763e-05
appeared 5.87900652495e-05
reminds 0.000109548003401
fantastic 6.08677900152e-05
loving 3.04338950076e-05
complete 5.92281141617e-05
daniel 4.53828155375e-05
rewarding 7.81309031242e-05
nearly 0.000169538957098
spirit 3.34352413377e-05
launched 0.000153962899211
finding 6.30808272801e-05
stories 0.000195283445139
including 8.59908736961e-05
wouldn 5.56445577773e-05
choice 0.000137615240798
offended 0.0
conversation 3.13670430871e-05
disrespectful 0.0
making 0.000540287971204
expect 0.000371264081617
traits 0.0
discussion 0.000338348324516
believes 9.04681375552e-05
response 0.000151753611721
brings 3.11091640902e-05
seasons 0.0
anytime 4.24270382261e-05
protected 0.000104739237106
location 0.0
needed 0.000412845722394
seriously 0.000285085863643
emergency 0.0
justify 5.90428628039e-05
spending 0.000320676666621
groups 8.32830102326e-05
condition 4.72384728945e-05
childhood 4.20312656873e-05
modern 3.71575031521e-05
welcome 0.000469387846346
moments 3.20676666621e-05
totally 8.93278273182e-05
running 8.12419351754e-05
strong 0.000292313647111
respond 3.89509836766e-05
message 0.000191623119142
coming 0.000308735983545
thankful 0.0
issues 0.000553847547688
challenge 0.000311055486682
intolerance 0.0
happen 0.00013144433914
giving 0.000130385512874
turkey 0.0
excellent 0.000504348274898
limits 0.0
contractors 0.0
common 0.000255125672832
pressed 0.0
healthcare 0.00010024139744
benefits 0.000243039212046
situation 0.000168588628893
workers 0.0
company 2.92137565405e-05
savings 0.0
health 0.000334772845084
insurance 0.000178012003887
change 0.000438556487969
silver 0.0
august 0.0
crying 4.0630192179e-05
mental 0.000115130815833
carrier 0.0
decide 3.19790353332e-05
happened 0.000162923107354
parking 5.06647207427e-05
demand 6.80067096464e-05
sacrifice 0.0
personal 2.80490144808e-05
rewards 0.0
beyond 0.000144098026269
contributing 0.0
passion 0.0
question 0.000527196928378
doctor 3.95381659187e-05
sacrifices 0.0
respected 0.0
losing 6.3605371763e-05
strain 7.41755902597e-05
respect 2.82012923415e-05
shouldn 0.000123415404384
career 0.000209571989539
visited 0.0
reason 0.00019007695858
simply 9.67375593058e-05
audience 0.0
sacrificed 0.0
employees 0.0
accounts 8.62010694902e-05
attacked 0.000100964190916
involved 0.000240165614335
extreme 8.92951153189e-05
valuable 0.000193545359007
knocked 0.0
reality 0.000276165386634
mention 6.3605371763e-05
without 0.000468124213832
problems 0.00022261880117
timing 9.16686013822e-05
described 4.95879720918e-05
pattern 0.0
online 0.00016648286052
background 7.76702852963e-05
buying 3.49790900399e-05
called 0.000311242686106
scientists 0.00247939860459
checked 7.32436210763e-05
heading 6.13700859187e-05
paying 0.000100587173075
planning 3.35290576916e-05
opposite 0.000126883303805
through 0.000108603497899
reached 7.65273095761e-05
changing 0.0
explains 0.000173412269275
harder 0.000107670441231
demands 0.0
silent 4.37921869787e-05
speaking 0.000206734470658
november 0.0
ordinary 0.0
number 5.28620437985e-05
stunning 0.000153962899211
atlantic 0.0
stupid 0.000107670441231
personality 5.21744940824e-05
grandparents 0.0
unless 0.000159013429407
calling 0.000108322580234
painting 0.00010024139744
focused 4.19006865545e-05
ridiculous 0.000142331412217
package 0.0
rooted 0.0
option 0.000112124854315
knowing 0.0
former 0.0
actual 0.0
tracked 0.0
suffers 0.0
schedule 0.0
friday 0.000183032478852
failure 8.30257791756e-05
achieve 0.000129712145116
winner 5.73272491307e-05
doctors 4.64489107757e-05
becomes 0.0
directly 0.000127680992111
quality 0.000200050600538
tearing 0.0
father 5.87462562699e-05
wishes 3.36232183265e-05
collar 0.0
caring 0.0
ground 3.34352413377e-05
matter 0.000110688909301
strategy 0.000171316044434
themselves 4.50861793525e-05
asking 0.000300309824565
usually 6.87784157441e-05
thankfully 0.0
reacts 0.0
period 0.000115472174409
parents 3.09386734681e-05
balance 0.000120417302232
resist 4.88944503005e-05
mobile 0.0
computer 7.97940706481e-05
reminded 8.95858667394e-05
impressed 3.9067350063e-05
dinner 2.85085863643e-05
suffering 0.0
single 0.000478331422546
parent 4.72384728945e-05
approved 0.0
energy 0.000122740171837
preview 0.0
meltdown 6.70241543561e-05
remind 0.000143560588308
emotional 0.0
sounded 0.0
status 0.000116505427945
update 0.000120411239374
outage 0.0
customers 0.000167136179602
holding 9.15520144553e-05
causes 0.0
eating 0.0
picked 6.43132104119e-05
missing 0.000192661337117
surprise 0.0
officially 0.0
global 0.000482812184783
follow 0.000207495124071
opinion 0.00010086965498
faster 0.0
backwards 0.0
design 7.79019673532e-05
website 0.000188721491613
widely 0.000183480745929
origin 0.0
breaks 6.80067096464e-05
allows 4.85545944152e-05
promoting 0.0
volunteer 0.0
convince 0.0
negative 0.000112782774839
official 0.000159874444063
jersey 0.0
mistake 0.0
fixing 0.0
translated 0.0
ginger 0.000134746516604
peaceful 0.0
thinks 0.000210719668904
hospital 3.75942582796e-05
lauren 0.0
easier 0.000174895450199
excluded 0.0
successful 0.0
leadership 0.000403834715837
agrees 5.06647207427e-05
decline 5.63903040494e-05
turnout 0.0
showed 0.0
trumps 6.06142973188e-05
circle 4.56829212301e-05
engage 0.00015422551361
suited 0.0
experienced 0.0
interested 0.000265246664108
effect 0.000204020128939
success 0.000145672202105
ladies 0.0
dreams 0.0
protect 0.000297570320733
explanation 9.22795310789e-05
occasion 0.000177128588412
medication 0.0
planet 7.24023319328e-05
detached 0.000301782994576
essence 0.0
control 0.000432294078806
happier 9.41572096242e-05
likely 0.000344865846273
coincidence 5.44070967485e-05
cancel 0.0
project 0.000233075523368
laying 5.33681392645e-05
lesson 0.000179450735385
requires 4.99418914163e-05
healthy 0.0
treating 4.90660813365e-05
opening 8.41470434424e-05
statement 0.000367787654714
enjoyed 0.000122404214166
animal 0.0
nervous 0.0
pounds 5.54899048502e-05
wonder 0.000363651770474
matters 0.000237354539937
shared 0.000106140048226
somehow 8.32830102326e-05
benefit 0.000194012475057
terrible 9.86383035972e-05
continues 0.000157267909677
improve 3.94196495684e-05
equally 0.0
appointment 0.0
session 6.74354515571e-05
routine 0.0
exciting 6.18773469362e-05
corner 0.000147338989588
imagination 0.0
decides 5.80462814554e-05
cheering 0.0
spring 9.89137108057e-05
fallen 0.0
frequently 0.0
places 3.07693082049e-05
thousands 7.56309114406e-05
informed 0.000272296893225
typical 0.0
continue 0.000267983481955
attend 3.88351426482e-05
excuse 3.73749514384e-05
settle 0.0
female 0.00017194603936
recovery 4.26943192285e-05
treasured 0.0
grandma 0.0
closer 6.4670825019e-05
beginning 0.0
everywhere 0.0
scenes 3.28794345324e-05
bought 6.30808272801e-05
multiple 7.8134700126e-05
slogan 6.31681017478e-05
wishing 3.73749514384e-05
covered 6.68704826753e-05
remove 8.90060019433e-05
choices 8.35415371695e-05
dealing 8.95858667394e-05
teacher 3.84907248029e-05
training 3.34352413377e-05
passing 3.48798297837e-05
stopping 0.0
become 0.000107739425387
spread 8.83595600526e-05
season 0.0
putting 2.70806450585e-05
weight 4.0139100744e-05
quietly 0.0
necessity 0.0
knocks 0.0
effects 0.000287328576322
returns 0.000103752997028
expected 3.69418821839e-05
resources 5.06647207427e-05
bucket 0.0
struggling 8.92951153189e-05
register 0.000345392447499
promotion 0.0
solution 0.000128487033325
manage 9.41572096242e-05
transition 4.99418914163e-05
gained 0.0
define 0.000151446286373
somebody 0.0
contract 0.0
ignorant 0.0001109798097
managers 0.0
credit 6.3605371763e-05
brothers 0.0
grandkids 0.0
computers 0.000131346764528
physical 4.29644137669e-05
series 0.000308539159289
offensive 4.67618261686e-05
fighting 0.000146865640675
donald 0.000333445195572
mexico 3.72659969468e-05
sandra 0.0
police 0.000132994525865
represent 4.36523569639e-05
president 0.000286636245654
talking 0.000155202424522
america 0.000247039043106
michigan 5.19808422634e-05
everybody 0.0
judgment 0.0
carolina 4.73993432912e-05
amount 3.62011659664e-05
houston 0.0
everyday 3.66218105382e-05
michael 0.00029134440421
protecting 9.19731571036e-05
providing 4.83863397519e-05
attitude 9.13658424602e-05
million 0.000270806450585
election 0.000391411383596
honesty 5.54899048502e-05
targeting 0.0
telling 2.92933186018e-05
correct 0.000232740420264
attack 0.000166243157331
elementary 5.90428628039e-05
americans 0.000143560588308
killed 5.7482992766e-05
horrible 4.39327831892e-05
salute 0.000107145184983
coverage 3.49790900399e-05
united 0.000267481930701
college 3.22458531019e-05
refuse 0.0
preach 0.0
hillary 0.0
clinton 4.2162512747e-05
presidency 0.000167136179602
throws 0.0
manning 5.8539734052e-05
american 8.21241939182e-05
deserved 0.000118258948705
humble 4.75612286497e-05
remain 0.000217834094284
founder 0.0
illegal 0.000171857655067
arizona 0.0
opinions 4.42163081096e-05
speeches 5.52696567664e-05
scared 3.78154557203e-05
salary 0.0
pieces 0.000114452606753
taught 3.80385766411e-05
thompson 5.80462814554e-05
straight 8.57579650989e-05
blocking 9.71091888304e-05
answers 6.64972629326e-05
created 9.30713315261e-05
record 5.38697126937e-05
stamina 0.0
weapon 0.0
bottom 0.0
athletes 0.0
registered 0.0001055287525
minnesota 0.0
committed 4.0630192179e-05
journey 3.35290576916e-05
snapchat 0.0
peoples 0.0
disrespect 0.0
brother 0.0
prayers 0.0
boston 3.72659969468e-05
korean 0.0
church 7.83684931883e-05
advantage 0.0
motivation 0.0
honestly 3.68347473969e-05
defeat 0.0
lifetime 0.0
captain 0.0
retired 5.23696185529e-05
country 0.000479623332188
ending 0.0
dressing 0.0
finish 0.0
ranked 0.000114646904258
employee 0.0
university 0.000812721408046
dreamed 6.99597802927e-05
prayer 0.0
nominated 3.87198222553e-05
responds 5.19808422634e-05
national 0.000334771620238
reform 0.0
shooting 0.0
cancer 0.000129701142444
deserve 9.48826205691e-05
mother 2.8741496383e-05
creating 0.000177406170662
powerful 0.000188721491613
wisdom 8.70265696782e-05
breaking 5.54942868399e-05
dollars 0.0
questions 0.000475758394187
racist 4.64489107757e-05
charged 9.77889006009e-05
soldiers 0.0
performance 5.9714539495e-05
reading 0.00076649247657
denver 0.0
graphic 0.0
garner 0.0
create 2.98572697475e-05
jordan 4.4939137436e-05
admire 4.77241418587e-05
nobody 3.16275401897e-05
government 0.000849310392461
politics 0.000219096006802
blessing 0.0
wrestling 0.0
charities 6.06142973188e-05
donate 0.000104342856103
sample 0.0
bringing 0.000115906159833
deserves 0.000102876597815
regret 4.53828155375e-05
victim 0.0
according 0.000136782224212
threat 7.6753877222e-05
heaven 8.17586163146e-05
heroin 0.0
honest 0.000128270666648
became 9.67375593058e-05
decision 0.000192939631236
counting 3.66218105382e-05
signing 0.000371938408731
embrace 4.50861793525e-05
pressure 7.01574715474e-05
celebrities 0.0
facebook 2.75975293272e-05
kardashian 0.0
divided 0.0
lawyer 0.0
lebron 0.0
campaign 0.000658654824264
determine 5.70869643331e-05
whether 0.000163029908697
praise 0.0
defined 5.61622248213e-05
proposes 6.95739272438e-05
discover 0.0
factory 0.0
arrested 0.0
estate 0.00010966950477
proposed 9.74479193568e-05
comments 0.000251628655484
teenage 0.0
wounded 6.63398806255e-05
endorsement 0.0
williams 0.0
custom 0.0
troops 0.0
singer 5.03007608216e-05
future 0.000611201262142
struggled 7.19811986866e-05
sister 0.0
sabotage 0.0
athlete 0.0
warrior 0.0
cheating 0.0
voting 0.000254421487052
succeed 0.0
religion 5.33681392645e-05
century 0.000126883303805
serving 0.0
because 3.71575031521e-05
cleveland 0.0
hiding 8.45888692034e-05
breath 4.37921869787e-05
choosing 0.0
lawrence 0.000118085725608
instagram 0.0
opponent 0.0
detroit 0.0
honored 0.0
nonsense 9.64383624358e-05
lifting 0.0
proven 0.0
talent 0.000137556831488
knocking 6.31681017478e-05
russian 0.000300750896368
brains 5.68526362733e-05
oakland 0.0
regardless 0.0
skills 0.000107361918843
citizens 0.000484815694422
california 0.0
commitment 0.000341554553828
seconds 6.89731692547e-05
seeking 0.00018153126215
threatening 5.46200336072e-05
listen 0.000213165925417
whatever 0.000207298399566
mexicans 0.0
satisfied 0.0
fought 0.0
compete 0.0
injured 4.56829212301e-05
billion 3.69418821839e-05
ceiling 0.0
absolute 0.0
appearance 0.0
bigsean 0.0
handle 0.000134492873306
promise 6.12021070831e-05
nightclub 0.0
hosting 6.76251652239e-05
actors 0.0
generation 0.000106140048226
criminal 4.92388681458e-05
tuesday 5.85866372036e-05
ronald 0.0
locker 5.78030687888e-05
struggle 8.00355651569e-05
degree 9.19731571036e-05
entering 4.92388681458e-05
leader 0.000302608964939
pageant 0.0
toughest 0.0
character 3.44865846273e-05
mirror 0.0
interview 0.000288398935446
whistle 0.0
obviously 0.000144804663866
battle 5.98777112968e-05
motivate 0.0
destroy 0.0
relentless 0.0
winning 2.75230481596e-05
charlotte 0.0
accomplished 0.0
stepped 0.0
defense 0.0
appeal 9.22795310789e-05
causing 0.000108814193497
arabia 6.77271776266e-05
shipped 0.0
society 0.000213497118325
officers 0.0
brooklyn 0.0
marked 0.000197020146792
incredible 5.56445577773e-05
poster 4.08793081573e-05
wealthy 0.0
memorable 0.0
officer 0.0
minute 0.00011622147491
luther 0.0
foreign 0.000170777276914
pregnant 0.0001055287525
champions 4.83863397519e-05
virginia 0.0
tackle 4.78880960537e-05
unarmed 0.0
orange 0.0
policy 0.00102101730445
comedy 0.000120782985735
reminder 6.20475543508e-05
evidence 0.00122443695322
lighten 0.0
presidents 5.41959124763e-05
kicked 4.22944346017e-05
sticker 0.0
accused 5.10339176766e-05
intentions 0.0
facing 8.48540764522e-05
freedom 0.000143560588308
actions 0.000131376560936
debating 0.0
outcome 4.90660813365e-05
utterly 0.000221959619401
mississippi 0.0
clearly 0.000523148947959
download 0.000291285010128
sidelines 0.0
invite 3.65160011337e-05
legally 5.57120598675e-05
central 6.80067096464e-05
washington 6.81985509481e-05
veteran 0.0
division 4.73993432912e-05
veterans 0.0
stronger 4.10047790392e-05
promised 4.22944346017e-05
worried 0.000149063987787
security 3.41955560531e-05
immediately 7.19868034403e-05
television 0.0
entitled 0.0
racism 4.97643215435e-05
highest 0.0
approve 0.000102067835353
turning 6.44917062038e-05
legacy 0.0
ignore 0.00018470941092
choked 0.0
backing 5.33681392645e-05
helping 8.50634379874e-05
collector 0.0
willing 0.000117552739782
basically 0.000150377033118
return 8.55257590928e-05
unacceptable 0.0
feelings 4.45030009717e-05
network 0.000107980205161
language 0.000108291220665
invest 0.000102817009074
coward 0.0
schools 0.000219730863229
patients 5.39864521767e-05
foster 0.0
children 0.000198481355304
nation 0.0
review 0.000797811116943
between 0.0
knowledge 0.000109865431614
begins 3.08538510959e-05
tenure 0.0
faithful 0.0
highlights 7.76702852963e-05
shoulder 0.0
produced 0.000121150414751
consider 0.000136782224212
shattered 0.0
latest 0.000362669255257
beyonce 0.0
signed 0.000227451337204
millionaire 0.0
shelter 0.0
charity 0.0
germany 0.000274289726159
advance 3.74843705561e-05
proved 0.0
married 7.63017378352e-05
millions 0.000104639489351
blessings 0.0
indonesia 0.0
fights 4.69197266313e-05
dollar 0.0
rigged 0.0
conduct 0.0
johnson 0.00040283991592
howard 0.0
turned 0.000141388857583
criticism 4.78880960537e-05
stomach 0.0
upgrades 0.0
jackie 0.0
relevant 9.16686013822e-05
charge 0.000178424380142
ticket 0.0
steady 0.00012400318864
indian 5.35725924914e-05
turner 0.0
sanders 0.0
includes 3.8376938611e-05
survivor 0.0
dealers 0.0
collection 3.53800160752e-05
against 5.68526362733e-05
joyner 0.0
impact 0.000689731692547
families 6.59424738705e-05
welcoming 5.15978688222e-05
hitting 3.43892078721e-05
announced 9.41011292614e-05
granted 4.94128264e-05
decided 6.17077021919e-05
itself 0.000218960934894
selfish 6.40791587849e-05
mexican 0.0
respects 0.0
guarantee 5.04820954578e-05
beliefs 6.03456169139e-05
citizen 0.000324057108022
states 6.50309492227e-05
denied 5.15978688222e-05
drought 0.0
memorial 0.0
decades 4.13849155359e-05
trayvon 0.0
landed 0.0
pastor 0.0
ultimate 0.0
weekends 0.0
episode 3.07693082049e-05
spikes 0.0
engaged 0.0
financial 4.53828155375e-05
payments 0.0
tolerant 0.0
symposium 0.0
kansas 5.15978688222e-05
agreement 0.0
source 0.000217206995798
backbone 0.0
dismiss 0.0
midnight 3.47809520343e-05
homework 0.0
joining 6.07014446882e-05
reasons 0.000240165614335
talked 6.48505712218e-05
released 3.00207017918e-05
reaching 0.0
release 5.6555543033e-05
existing 0.0
models 9.95286430869e-05
pageants 0.0
helmets 0.0
scheme 0.0
scholarship 0.000125742931126
stacked 0.0
speech 0.000742528163235
standing 0.000206172306789
higher 0.000172921661713
purple 0.0
justice 3.46824538549e-05
served 7.79019673532e-05
speaks 0.000149063987787
backup 0.0
allegedly 0.0
purchase 0.0
millionaires 0.0
consideration 6.5673382264e-05
strength 0.0
incredibly 3.6410626266e-05
private 0.000297570320733
ignored 0.0
neighbors 0.0
apologizes 0.0
beings 6.08858209554e-05
minimum 0.0
direction 7.90763318373e-05
enemies 5.4834752385e-05
exclusive 0.0
prison 4.55324296303e-05
himself 0.0
contributes 0.0
investigation 4.75612286497e-05
teaching 0.000235810068737
disgusting 0.0
philly 0.0
rights 0.000313028568309
cheers 7.97940706481e-05
maintain 0.0
overcome 5.68526362733e-05
flawless 0.0
unique 3.95381659187e-05
neighborhood 0.0
dating 0.0
handed 0.0
victory 3.68347473969e-05
lifted 0.000126936414881
greatness 0.0
muslim 0.0
terrorist 5.27643762501e-05
productive 5.1220527548e-05
tribute 0.0
deadspin 0.0
threatened 0.000165808970299
horror 5.1220527548e-05
warning 0.000223595981681
convention 9.91759441836e-05
understanding 0.000148630012608
action 0.000332066727903
having 9.67726795037e-05
afghan 0.0
announces 0.0
commencement 0.0
speaker 4.29644137669e-05
graduation 0.0
honors 6.37718647621e-05
produce 0.0
apologize 0.0
insult 5.44070967485e-05
continued 4.42163081096e-05
letter 0.00022261880117
discussed 4.59865785518e-05
therapy 0.0
untrue 0.0
written 0.000251628655484
existence 0.0
essential 0.00013704876369
results 0.000101153177336
initiative 0.000310731846201
disease 0.0
marching 0.000221959619401
suggest 0.000239382211944
georgetakei 0.0
ensure 0.000147716604437
democrats 0.0
marched 0.0
foundation 7.34561161561e-05
access 0.000951448907808
writes 0.000294218859811
student 0.000296395729398
colorado 0.0
medical 0.000254562229357
medicine 0.000103961684527
tremendous 4.87239596784e-05
nytimes 0.000117202050189
kindness 5.46200336072e-05
public 0.000838287958155
cannot 8.6224489149e-05
reveals 0.000115472174409
invented 0.000192876724872
threatens 0.000178668164385
candidate 4.10047790392e-05
persistence 0.0
sexual 4.52340687776e-05
illustration 7.41755902597e-05
measure 9.4476945789e-05
compared 8.90060019433e-05
headline 0.000121150414751
reflect 0.0
answering 3.88351426482e-05
streaming 0.0
leaders 0.000150377033118
supreme 0.0
nominee 0.0
immigration 0.000430992864483
policies 0.0
laundering 0.0
administration 9.74479193568e-05
defend 0.0
communicating 7.81309031242e-05
excitement 0.0
funding 0.000781486463273
climate 0.000174609427856
transfer 0.0
conspiracy 5.08486551807e-05
activist 5.92981757981e-05
horrifying 6.34682074404e-05
freely 7.24053198175e-05
retreat 0.0
daughters 0.0
compelling 5.9556054795e-05
platform 0.000163517232629
hamilton 0.0
futures 0.0
huffingtonpost 0.0
headlines 4.75612286497e-05
january 3.56848760284e-05
grants 0.00018600478296
unprecedented 5.7323452129e-05
relationships 5.37786879305e-05
philadelphia 0.0
diversity 0.000285367371898
funded 0.000142683685949
secure 0.0
income 4.73993432912e-05
universal 9.10648592605e-05
contributed 6.50237591048e-05
hurricane 0.0
fundamental 0.000117079468104
countries 0.000111472509456
linked 0.000192212418495
african 0.0
improved 0.0
unclear 0.0
provide 7.56309114406e-05
livestream 0.0
addresses 0.0
enhance 7.76018381079e-05
companies 8.5388638457e-05
proposal 0.000241095906089
potential 7.11657061084e-05
discrimination 0.0
connected 5.03007608216e-05
drives 0.0
attending 0.0
filled 3.62011659664e-05
education 0.000277459630839
addressed 0.000177894527394
mentioned 3.79267736572e-05
famous 3.54812341324e-05
resistance 0.000228347857332
exists 0.0
demonstrated 0.0
officials 9.07656310749e-05
instructions 6.47050128416e-05
transmission 0.0
olympics 0.0
ability 7.49687411121e-05
political 0.000701895761494
director 9.64698156179e-05
contains 0.000257560710697
sponsored 0.0
autism 0.0
previously 0.0
prevent 4.28290111085e-05
capacity 5.92981757981e-05
donations 0.0
william 4.36523569639e-05
editors 0.0
passionate 0.0
solving 6.70241543561e-05
innate 0.0
treatment 0.000121150414751
critical 0.000246028674235
feeding 0.0
preparing 0.0
depend 0.0
capable 5.29640562012e-05
bridge 4.15128895878e-05
systematically 0.0
becoming 6.61267379407e-05
embraced 0.0
literacy 0.0
lawyers 5.37786879305e-05
stigma 0.0
malaria 0.0
standard 3.72659969468e-05
hiring 0.0
remains 0.000119691105972
fellow 6.53936184949e-05
defending 8.81483080768e-05
quotes 8.48540764522e-05
pushes 0.0
luxury 0.0
admitted 0.00012400318864
colleagues 0.000188953891578
failed 7.65273095761e-05
independent 0.00015910741453
politically 5.68526362733e-05
driven 0.000140285478506
agenda 0.000139346732327
result 0.00018578751576
implications 0.0
insider 0.0
pakistan 0.0
solutions 0.0
trusts 0.0
indiana 0.0
filling 0.0
humility 0.0
clicks 0.0
disagree 0.000119691105972
claims 0.000248309493215
editorial 0.000215114751722
mistakes 4.59865785518e-05
offered 8.48540764522e-05
passionately 0.0
justification 0.0
inspiring 3.47809520343e-05
counter 4.87239596784e-05
shaped 5.63903040494e-05
retroviral 0.0
majority 0.000172949526821
approach 0.000191884693055
nature 0.000780307566194
concern 0.00021826178482
server 0.000134048308712
berniesanders 0.0
shameful 0.000180239162436
experiment 5.61622248213e-05
massive 0.0
promises 0.000196264325346
colored 0.0
consequences 0.000248821607717
whatsoever 0.0
proposals 0.0
guesses 0.0
bernie 0.0
interviewed 0.0
pregnancy 0.0
secretary 8.9878274872e-05
measures 0.000113240857717
vastly 0.0
reduce 0.0
compassionate 0.0
distinguished 0.0
dangerous 0.000242090326398
influence 0.000168650050988
letters 4.77241418587e-05
implicit 0.0
saving 0.0
revelations 7.60771077616e-05
incident 0.0
universe 8.27698310718e-05
victims 0.000112124854315
milestone 0.0
perfectly 7.83684931883e-05
exercise 8.9878274872e-05
receive 3.63056823806e-05
reputation 0.000184312929523
economics 6.20015943199e-05
disclosure 0.0
receives 0.0
terrific 0.0
collected 0.0
campus 0.00030620350606
founders 0.0
profiling 8.15571509724e-05
systemic 8.09533879581e-05
studying 5.44070967485e-05
necessary 0.000118971696692
inaccurate 0.000133359473022
breast 0.0
debate 0.000596804994244
suddenly 4.73993432912e-05
conflict 0.0
interest 0.000217206995798
meanwhile 4.52340687776e-05
indefensible 0.0
recall 0.000196264325346
rating 0.0
nominate 0.0
outstanding 0.000221081540548
devastating 0.000143172425576
illness 5.61622248213e-05
troubling 0.0
romney 0.0
appears 0.0
breathe 5.03007608216e-05
abroad 5.59361551279e-05
spanish 0.0
profit 0.000150902282465
reviews 0.000324057108022
republican 5.08486551807e-05
presidential 4.29644137669e-05
candidates 8.70265696782e-05
politicians 0.000281518359788
identified 6.20015943199e-05
epidemic 0.0
displaced 0.0
greater 0.000168125062749
absurd 5.54899048502e-05
deadline 0.000207564447939
height 0.0
sisters 0.0
nuclear 0.0
stress 0.0
leading 0.000196180855485
restored 7.24053198175e-05
conditions 9.67726795037e-05
however 0.0
achieved 5.31653022855e-05
member 9.08034552404e-05
examples 0.00021933900954
diverse 0.000178668164385
suicide 0.000203394620723
contributions 0.000113705272547
largest 4.0630192179e-05
increase 0.000125702059664
targeted 5.70869643331e-05
regulators 0.0
provided 0.000105928112402
element 0.0
effectively 0.000116092562911
population 9.77889006009e-05
rising 4.15128895878e-05
indication 0.0
versus 5.7323452129e-05
believed 0.0
dynamic 0.0
invasion 0.0
primary 0.000140759179894
provides 5.04820954578e-05
environment 9.47986865823e-05
confirmed 7.49687411121e-05
behavior 0.000151994162228
introduced 0.000147198244009
contain 0.0
communities 4.90660813365e-05
worldwide 0.0
responsible 0.000210156328437
household 0.0
apparent 6.63398806255e-05
munich 0.0
alternate 0.0
expressed 0.0
movement 0.000103167623616
declared 0.000112780608099
hundreds 0.000127680992111
information 0.000244158808486
easily 7.58535473144e-05
untreated 0.0
october 0.0
quantify 0.0
scales 0.0
investigating 6.20015943199e-05
innovation 0.000272035483742
perspective 0.000190192883206
rivals 0.0
interests 0.000388436755322
toledo 0.0
extraordinary 0.000217566424195
gingrich 0.0
describing 6.11602486431e-05
eliminate 0.0
obligation 0.0
gender 0.000282471628873
committee 0.000168650050988
preventing 0.0
numerous 0.0
unusual 5.44070967485e-05
improving 5.57120598675e-05
practices 5.92981757981e-05
cemetery 0.0
questioned 0.0
affecting 6.91937907471e-05
ferrell 0.0
genius 3.41955560531e-05
warren 0.0
organizers 0.0
regularly 5.4834752385e-05
ceilings 0.0
sexism 6.257821958e-05
prepared 0.000155803934706
burden 0.0
foreignpolicy 0.0
county 4.75612286497e-05
uniform 0.0
newyorker 0.00125408488114
anthony 0.0
reflecting 0.0
grandson 0.0
banning 0.0
considered 0.000119691105972
chosen 0.0
outright 7.28365693674e-05
screenings 0.0
naming 0.0
conventions 0.0
reproductive 0.0
ignores 7.07493424115e-05
focusing 0.0
sensible 6.0079720812e-05
concluded 7.97868805302e-05
performed 5.35725924914e-05
divide 0.0
dismissed 0.0
compromise 0.0
crucial 0.0
weakness 0.0
barrier 6.34682074404e-05
effective 8.5658022217e-05
wealth 0.0
underway 0.0
israel 5.4834752385e-05
overwhelming 0.0
assault 0.0
citing 0.000255087459048
protection 4.46475576595e-05
prisoners 0.0
photographing 0.000100594331525
traveled 0.0
holder 0.0
seemed 4.62938725746e-05
concludes 0.0
determination 0.000189504305243
tested 0.0
lacking 6.88192038869e-05
machine 0.0
honoring 0.0
contrary 0.00013004751821
tolerance 0.0
michelle 0.0
assumed 0.0
programs 0.000102441055096
closely 0.0
politico 0.0
inspire 4.37921869787e-05
lyrics 0.0
judges 0.0
federal 4.80531046238e-05
maryjblige 0.0
tuning 0.0
striving 0.0
poland 0.0
september 0.0
manchester 9.35236523372e-05
checks 4.97643215435e-05
remarkable 8.8718508259e-05
mharrisperry 0.0
immoral 0.0
fiction 0.000309587212933
process 0.000163939797058
anxious 0.0
destructive 0.0
nmaahc 0.0
performances 0.0
whitehouse 0.0
flotus 0.0
crisis 7.90763318373e-05
marriage 4.45030009717e-05
emotions 0.0
confidence 4.02609952451e-05
voters 0.000220370770192
comparing 0.0
oldest 0.0
empirefox 0.0
chancetherapper 0.0
songwriter 8.09533879581e-05
literally 6.3605371763e-05
onstage 7.37214413382e-05
believing 0.0
hillaryclinton 0.0
citizenship 6.37718647621e-05
counted 0.0
hillaryfornc 0.0
raleigh 0.0
discusses 0.000105928112402
johnlegend 0.0
apprentice 0.0
acknowledge 0.0
conservative 9.54482837174e-05
economists 0.00015315070292
buzzfeed 0.0
puppet 0.0
hombres 0.0
republic 0.000162587737429
homecoming 0.0
andersoncooper 0.0
muslims 0.000108814193497
katyperry 0.0
bragging 0.0
treats 0.0
qualified 0.0
islamophobia 0.0
debates 5.10339176766e-05
endorsements 0.0
counts 4.26943192285e-05
theellenshow 0.0
festival 0.0
encouraged 6.37718647621e-05
stylish 0.0
disregard 8.28090453151e-05
jtimberlake 0.0
backstage 0.0
barack 5.70869643331e-05
joined 3.16275401897e-05
terrorism 0.000102441055096
pushing 0.0
hopeful 0.000172686419529
mentions 0.0
teamed 0.0
exclusively 0.0
aliciakeys 0.0
kingjames 0.0
muhammad 0.0
refused 5.46200336072e-05
characters 4.10047790392e-05
express 7.95537072652e-05
gratitude 0.0
ugliest 0.0
throughout 8.15088956835e-05
awkward 0.0
shining 0.0
fighter 0.0
accepting 0.0
applemusic 0.0
reveal 7.49687411121e-05
stands 0.000107054628085
native 5.21744940824e-05
announce 0.00011942907899
dorothy 0.000177069257244
haters 5.41959124763e-05
jessetyler 0.0
shondarhimes 0.0
lavernecox 0.0
broadway 0.0
disabilities 0.0
adoption 0.0
touched 0.0
corruption 0.0
violence 0.0
leedanielsent 0.0
delivered 4.17707685847e-05
jasmine 0.0
independence 9.28978215513e-05
square 3.47809520343e-05
alongside 9.84777362916e-05
privilege 0.0
secondary 6.73732583021e-05
staggering 7.19811986866e-05
seventh 0.0
tennis 0.0
sweeping 0.0
footage 0.0
overseas 5.63903040494e-05
spoiler 5.39864521767e-05
theirs 0.0
offering 4.25603307036e-05
construction 0.0
spends 0.0
detail 0.000377907783156
cabinet 5.17886410335e-05
earnings 0.0
pleased 0.000339416305809
gravity 0.0
statements 0.0
decade 0.0
bigotry 7.24053198175e-05
belong 0.0
trillion 0.0
backed 5.10339176766e-05
operations 0.0
breakthroughs 0.0
values 0.000187678906525
senator 0.000106330604571
removing 6.11602486431e-05
wondered 0.0
introduces 0.0
makers 5.8539734052e-05
measured 0.0
pillars 0.0
instrument 0.0
shares 0.0
individual 0.0
applications 0.000295214314019
prepares 0.0
ceremony 0.0
expanding 5.9556054795e-05
merger 0.0
newspaper 0.0
detailed 5.68526362733e-05
tuition 0.0
childcare 0.0
thoroughly 0.000177894527394
adviser 0.0
matthew 0.000147198244009
affected 0.000118971696692
newspapers 0.0
corporate 0.0
economy 0.000353730464877
presenting 4.88944503005e-05
spoken 0.000128893241301
richer 0.000217215959452
during 0.0
combat 0.000106736278529
touting 0.0
competitive 0.000103195737644
prominence 0.000107975892238
trifecta 0.0
fashioned 0.0
boasts 0.0
ripped 0.0
belief 0.000190896567435
heroes 7.83684931883e-05
disturbing 0.000272035483742
russians 6.28714655628e-05
intelligence 0.000140759179894
deepest 0.0
regrets 6.70241543561e-05
complicated 4.61397655394e-05
internships 0.0
adults 4.92388681458e-05
describe 3.72659969468e-05
equality 0.000185175490298
announcement 0.000230798658547
interfere 8.03635057903e-05
terrifying 5.04820954578e-05
nationwide 0.0
manager 4.02609952451e-05
questionable 0.0
enhanced 8.15571509724e-05
services 0.000132648924329
delighted 0.000160717777474
golfer 0.0
regarding 0.0
teachers 0.000137959735655
suggests 0.0
phrase 9.64383624358e-05
immigrants 0.0
revolution 9.61062092475e-05
universities 0.00114789356572
twelve 7.07493424115e-05
principle 0.000113705272547
releases 0.0
malarkey 0.0
library 4.83863397519e-05
advisor 5.98165518976e-05
deadlines 0.0
encouraging 5.06647207427e-05
circuit 0.0
humanitarian 0.0
reliant 0.0
assistance 0.0
swimmer 0.0
hinges 0.0
concrete 7.28365693674e-05
accepted 8.59288275337e-05
confronted 0.0
comprehensive 6.03456169139e-05
pushed 0.0
unending 0.0
occasionally 0.00013004751821
guardia 0.0
donation 0.0
nomination 0.0
paintings 0.0
significantly 0.0
investment 0.000148763916275
terror 0.0
worship 0.0
represents 0.0
attempting 0.0
bullying 5.41959124763e-05
astonishing 5.90428628039e-05
endorse 5.57120598675e-05
urgent 0.000112324449643
forced 7.88392991368e-05
addressing 0.000164504257155
script 0.0
hundred 5.41959124763e-05
command 0.000113705272547
qualifies 0.0
stumbled 0.0
territory 0.0
balloons 0.0
objects 0.0
latimes 0.0
pandemics 0.0
separating 0.0
pentagon 0.0
threats 0.000100601521643
prisons 0.0
approaching 5.75621398429e-05
generous 0.0
roughly 0.0
commands 0.0
uncovered 0.0
destroying 5.63903040494e-05
opposition 0.000259904211317
addiction 0.0
manhattan 0.0
ridiculously 0.0
awarded 0.0
greeted 0.0
forces 4.17707685847e-05
confirm 0.0
dealings 0.0
nations 5.08486551807e-05
equivalent 0.000108391824953
sexist 0.0
yahoonews 0.0
bloody 0.000146171879035
boundaries 0.0
exceptionally 9.01906060278e-05
cannon 0.0
feared 0.0
significance 0.000144810639635
recommendation 6.2288287182e-05
chapters 0.000160727011581
racial 0.0
obvious 0.000130539854517
statistics 0.0
military 0.0
adopted 0.0
housing 0.0
clearer 0.000134746516604
calculator 0.0
underwater 0.0
guided 0.0
rescue 0.0
deserving 0.0
advised 6.91937907471e-05
ordered 0.0
unions 0.0
avoiding 5.68526362733e-05
alicia 0.0
preserve 0.0
balloon 0.0
economic 0.000234598633157
recipe 0.0
awaits 0.0
squarely 0.0
radical 5.37786879305e-05
banter 0.0
spaces 0.00012515643916
carnival 0.0
theories 0.0
bombing 0.0
products 0.0
margaret 6.28714655628e-05
gathered 0.0
taxpayers 6.8450006953e-05
admits 0.000112780608099
opposed 0.0
pressing 0.0
russia 3.9897035324e-05
lincoln 0.0
intelligent 5.23696185529e-05
momentum 0.0
olympic 0.0
magnificent 0.000161336063791
heritage 0.0
beijing 6.8450006953e-05
beloved 0.0
dummies 0.0
pursuit 0.0
carries 0.0
phelps 0.0
medals 0.0
gymnastics 0.0
summed 0.0
accuse 6.80860470319e-05
symbol 0.0
dignity 5.98165518976e-05
slogans 0.0
priorities 0.000171260892999
applied 5.37786879305e-05
progressive 0.000118085725608
activists 5.92981757981e-05
elected 4.47929333697e-05
brussels 0.00021933900954
subscribe 5.04820954578e-05
elections 0.000103577282067
unites 0.0
complacency 0.0
imperative 0.0
doorsteps 0.0
voices 0.000124538668763
blatant 0.0
democracy 0.000631206510936
disastrous 0.000199019641877
rebuild 0.0
accuses 0.0
diplomacy 0.0
hardball 0.0
attacking 0.0
subtle 0.0
barker 0.0
sticking 0.000100601521643
openly 0.000245750572697
policing 0.0
embarrassed 0.0
slightest 0.0
abbott 0.000143127948282
attacks 8.27698310718e-05
commit 5.23696185529e-05
argued 0.0
remarks 0.000167136179602
democratic 0.000209478474211
semitic 0.0
incomes 0.0
treasury 0.0
alarming 0.0
dividing 0.0
reject 0.0
affirming 0.0
quitting 0.0
extended 0.0
reducing 6.20015943199e-05
proudly 0.0
inclusive 0.000135454355253
oppose 0.000115124279686
distinctly 0.0
urging 0.0
strengthen 0.0
deliver 4.07544478417e-05
obligations 0.0
relations 0.000116583643103
repeal 0.0
strengths 0.0
counties 0.0
weakened 0.0
reckless 6.257821958e-05
prosperous 0.0
servant 0.0
secretaries 0.0
negotiator 0.0
faults 0.0
choking 0.0
executive 0.000128487033325
alternative 0.000259424290232
extend 0.0
republicans 5.23696185529e-05
embodied 0.0
preparation 0.0
terrorists 0.000177894527394
confident 0.0
weapons 5.01206987198e-05
unifying 0.0
outrage 5.63903040494e-05
constitutional 6.257821958e-05
rental 0.0
prevail 0.0
resilient 0.0
humbled 0.0
courage 0.000127281114678
commander 0.0
respecting 0.0
enormous 0.0
aligned 0.0
consent 0.0
refusing 5.90428628039e-05
resentment 0.0
substance 0.0
claiming 5.33681392645e-05
lamont 0.0
dropping 3.88351426482e-05
carried 0.0
intimidated 0.0
behalf 0.0
meaningful 0.000167808465384
amendment 0.000357237423736
accepts 0.0
legislation 5.39864521767e-05
fairer 0.0
commitments 0.000298551689934
handling 0.000117079468104
proves 0.00015310175303
rhetoric 0.000181036850742
hardest 0.0
peddling 8.93492603511e-05
divisive 0.0
strongly 0.000101697310361
vision 0.000266270036488
investigations 7.37214413382e-05
repeatedly 5.78030687888e-05
records 7.79019673532e-05
madeleine 0.0
disabled 0.0
quoting 0.0
assassination 0.0
beaten 0.0
deeply 0.000207564447939
grievance 0.0
contempt 7.07493424115e-05
standards 0.0
fairness 6.06142973188e-05
dictated 0.0
consensus 5.8539734052e-05
reconsider 0.0
priority 4.95879720918e-05
rogers 0.000120159441624
freedoms 7.07493424115e-05
notorious 0.0
invested 6.70241543561e-05
propaganda 6.11602486431e-05
unconstitutional 0.0
condemn 6.66797365108e-05
concerned 0.000165030306374
praising 0.0
cheered 0.0
realdonaldtrump 0.000582308133806
despicable 7.07493424115e-05
straightforward 0.000155203676216
bargain 0.0
attorney 0.000120159441624
bedrock 0.0
optimism 0.0
belongs 0.0
truman 0.0
whichever 0.0
inappropriate 0.0
beatings 0.0
optimistic 5.61622248213e-05
campaigned 0.000163114301945
allies 0.0
governor 0.0
attempts 5.04820954578e-05
extent 0.0
denial 0.000165808970299
maximum 0.0
merely 5.78030687888e-05
apprenticeships 0.0
agreeing 6.47050128416e-05
architect 0.0
responsibility 0.000211472173008
mainstream 5.78030687888e-05
legitimacy 0.0
injustice 0.0
dozens 0.0
donnell 0.0
scenario 5.54899048502e-05
crimes 5.70869643331e-05
thoughtful 0.000286344851152
hypocrisy 6.88192038869e-05
undocumented 0.0
sexually 7.11534254748e-05
richest 0.0
softening 0.0
implies 0.0
infrastructure 0.0
pitching 0.0
broadband 0.0
tenants 0.0
allegations 0.000126336203496
bloomberg 0.0
insulting 0.0
liberal 4.80531046238e-05
kremlin 0.0
podium 0.0
provoke 0.0
outrageous 0.000122875286348
campaigns 0.00012515643916
barriers 6.257821958e-05
powell 0.0
technical 0.000107557375861
warnings 6.91937907471e-05
flagged 0.0
grassroots 0.0
extremist 8.41251668358e-05
businesses 0.0
welcomes 0.0
deputy 0.0
donating 0.0
continually 0.0
ourselves 0.0
fringe 0.0
politician 0.000102441055096
wiggins 0.0
welcomed 0.0
rallies 0.0
ballot 5.35725924914e-05
failing 4.59865785518e-05
uniting 0.0
refuses 5.4834752385e-05
appealing 0.0
proverb 0.0
privileges 0.0
ideals 0.0
vibrant 0.0
tarmac 0.0
residents 5.61622248213e-05
apprenticeship 0.0
denying 0.000128780355349
fierce 0.0
opponents 5.57120598675e-05
polling 5.52696567664e-05
apology 4.83863397519e-05
damning 0.0
outline 0.0
endorses 0.0
losers 5.98165518976e-05
insulted 0.0
equipped 0.0
battlefield 0.0
recession 0.0
endorsed 6.534651486e-05
divides 0.0
describes 5.75621398429e-05
appointed 0.000123436138799
encourage 0.000174609427856
undermine 0.000137638407774
undermining 7.51087383392e-05
authority 0.000111424119735
betray 9.28940245495e-05
funnyordie 0.0
donated 0.0
jimmykimmellive 0.0
immigrant 0.0
criminals 0.0
automatically 0.0
schooled 0.0
elizabethforma 0.0
releasing 0.0
connects 0.0
screening 9.95286430869e-05
cleaner 0.0
nowthisnews 0.0
sophiabush 0.0
chelseaclinton 0.0
stunts 0.0
truths 0.0
transparency 0.0
obamacare 0.0
nickkristof 0.0
contraception 0.0
betting 0.0
conscience 7.03515244549e-05
proclaimed 0.0
dispatch 0.0
advocate 5.44070967485e-05
profits 0.0
toward 0.0
guiding 8.48094405664e-05
senators 0.0
barber 0.0
doubled 0.0
mosque 0.0
senate 0.000105132476489
louisiana 6.73732583021e-05
senwarren 0.0
parenthood 0.0
organizations 0.0
generations 0.0
minorities 0.0
misogyny 0.0
peacefully 0.0
decency 6.91937907471e-05
intend 6.66797365108e-05
discourse 0.000225326215018
pennsylvania 0.0
katiemcgintypa 0.0
experiencing 0.0
mccain 0.0
scandal 0.0
constitution 5.90428628039e-05
sensanders 0.0
intolerable 0.0
strive 0.0
forefathers 0.0
abandon 6.73732583021e-05
buzzfeednews 0.0
paulkrugman 0.000100594331525
mothers 0.0
compassion 0.0
deeper 0.000109240067214
governments 0.0
activism 0.0
jamilsmith 0.0
mike_pence 0.0
elizabethbanks 0.0
empathy 0.0
audited 0.0
checkers 0.0
warming 0.0
volunteering 0.0
charitable 0.0
qualifications 0.0
workplace 0.0
granddaughter 0.0
recycled 0.0
directing 0.0
politifact 0.0
abolish 0.0
murders 7.81309031242e-05
reagan 0.0
pouring 0.0
ballots 0.0
racists 7.07493424115e-05
empower 0.0
tolerate 0.0
chrismurphyct 8.48094405664e-05
igorvolsky 0.0
outraged 6.8450006953e-05
exceptional 6.14376431742e-05
nightmares 0.0
enforcement 6.14376431742e-05
weaken 0.0
medicaid 0.0
humbly 0.0
newsweek 0.0
conflicts 0.0
suffer 0.0
dallasnews 0.0
bridges 6.8450006953e-05
lesdoggg 0.0
appalling 0.000194115038525
hatred 0.000109240067214
superpower 0.0
goodbye 4.03834715837e-05
renewable 0.0
robdelaney 0.0
motherjones 0.0
trusted 6.20015943199e-05
sheriff 0.0
personalized 0.0
amnesia 0.0
malala 0.0
problema 0.0
everytown 0.0
casting 0.0
employers 0.0
rudolph 0.0
packets 9.70082155948e-05
organization 0.0
graceful 8.93492603511e-05
hardworking 0.0
cherished 0.0
aggressively 0.0
founding 0.0
sacred 0.0
horrific 0.000106736278529
earned 4.53828155375e-05
siding 0.0
minded 6.31681017478e-05
contribute 0.000107145184983
incites 0.0
chooses 0.000135454355253
obtained 7.81309031242e-05
defended 0.0
champion 0.0
magazines 0.0
waited 0.0
punished 0.0
conviction 0.0
tradition 0.0
giveaways 0.0
distracted 6.534651486e-05
endorsing 0.0
pathetic 0.00023822421918
ladygaga 0.0
pessimistic 0.0
highlighting 0.0
transgender 0.0
womensmarch 0.0
advisors 0.0
wrecking 0.0
hillaryforva 0.0
registration 5.54899048502e-05
ellemagazine 0.0
acceptance 0.0
defeated 6.06142973188e-05
theroot 0.0
pharrell 0.0
tumblr 6.95739272438e-05
nevada 0.0
illinois 0.0
massachusetts 0.0
theadvocatemag 0.0
lending 0.0
rejecting 0.0
legalize 0.0
conned 0.0
arkansas 0.0
celebratin 0.0
rubber 0.0
lenadunham 0.0
hateful 0.0
wizard 0.0
unbearable 0.0
harpersbazaarus 0.0
familia 0.0
iamwill 0.0
retweets 0.0
nominating 0.0
vietnam 0.0
laurie 0.0
claimed 0.000110539313533
rapids 0.0
devoted 0.0
casino 0.0
astounding 0.0
summon 0.0
crushed 5.23696185529e-05
louder 0.0
farmers 0.00012400318864
lin_manuel 0.0
arrangement 0.0
borrowed 0.0
mariska 0.0
purposes 0.0
dialogue 0.000124576574364
comedian 0.0
________ 0.0
lightly 0.0
defeating 0.0
jerusalem 0.0
cynical 0.000144810639635
worrying 5.33681392645e-05
elizabeth 0.0
insults 0.0
microphone 0.0
sleeves 0.0
theeconomist 0.000212248027235
stakes 0.0
nationally 0.0
inspect 0.0
poisoning 7.32751910605e-05
columbus 0.0
declaring 7.46379224836e-05
crushing 0.0
chucktodd 0.0
soldier 0.0
painted 0.0
warned 0.000103577282067
ohiostate 0.0
unrelated 0.0
designated 0.0
clears 0.0
congressional 6.534651486e-05
confront 0.000144810639635
usatoday 0.0
delivers 0.0
pittsburgh 0.0
entiende 0.0
soaked 0.0
bromance 0.0
lifelong 6.5673382264e-05
antiques 0.0
repjohnlewis 8.62352931633e-05
breakers 0.0
fundraising 0.0
hispanic 0.0
defrauded 0.0
fearful 0.0
nytopinion 0.0
volume 5.9556054795e-05
perfecting 0.0
washingtonpost 0.0
affordable 0.0
mighty 5.87900652495e-05
normalizing 0.0
boasting 0.0
assaulting 0.0
disqualify 0.0
monique 0.0
jcolenc 0.0
teamusa 0.0
allysonfelix 0.0
usabasketball 0.0
ibtihaj 0.0
simone 0.0
feminism 0.0
conversion 0.0
destiny 6.70241543561e-05
disrespected 0.0
serenawilliams 0.0
tantrum 0.0
heinous 0.0
unconscious 8.21754638846e-05
accomplishments 0.0
saddened 0.0
disgrace 0.0
rodriguez 0.0
arsenal 6.95739272438e-05
defender 0.0
malalafund 0.0
merchandise 0.0
laundry 0.0
lesbians 0.0
cnnpolitics 0.0
nickgass 0.0
examining 8.28090453151e-05
monument 0.0
appeals 0.0
gracias 0.0
madame 0.0
grande 0.0
speechless 0.0
coulter 0.0
missiles 0.0
psyched 0.0
chelsea 5.50512831571e-05
biases 9.28940245495e-05
resume 0.0
spectator 0.000296702361039
angelina 0.0
spectacle 0.0
admiration 0.0
reaches 0.0
español 0.0
dreamers 0.0
mañana 0.0
bursting 0.0
undone 0.0
beyoncé 0.0
nuestra 0.0
diwali 0.0
prestigious 0.0
cynicism 0.0
disability 0.0
registering 0.0
booker 0.0
méxico 0.0
disponible 0.0
honduras 0.0
famously 0.0
overdue 0.0
equity 0.0
opioid 0.0
millennials 0.0
recommendations 0.000172686419529
investors 0.0
betrays 0.0
patriotism 0.0
liability 0.0
iranian 0.0
delegate 0.0
struck 5.19808422634e-05
millennial 0.0
dictators 0.0
graduate 0.0
analysts 0.0
victor 0.0
shrink 0.0
dictator 7.37214413382e-05
poised 0.0
avoided 0.0
rallying 0.0
catholic 0.0
thriving 0.0
racially 0.0
undermines 0.0
yashar 9.38623939719e-05
inequality 0.000248006377279
medicare 0.0
missionaries 0.0
foremost 0.0
deplorable 0.0
demonize 0.0
wikileaks 0.0
enduring 0.0
privatized 0.0
appoint 0.0
losses 5.39864521767e-05
jbarro 0.0
buffett 0.0
staffers 0.0
takeaway 0.0
moscow 0.0
hampshire 0.0
pandering 0.00019401643119
voxdotcom 0.0
reckoning 0.0
moines 0.0
falter 0.0
countless 0.0
democrat 0.0
bostonglobe 0.0
accountable 0.00013069302972
dispel 0.0
despair 0.0
persisted 0.0
disclose 8.09533879581e-05
tedcruz 0.0
flooding 0.0
prejudice 0.0
towers 0.0
criticized 0.0
senatemajldr 0.0
outsider 0.0
declare 6.06142973188e-05
dismantle 0.0
thrive 0.0
threaten 0.0
outsourced 0.0
loophole 0.0
heerjeet 0.0
verbal 0.0
businessinsider 0.0
ukraine 7.24053198175e-05
vladimir 7.41755902597e-05
businessman 0.0
supremacist 8.48094405664e-05
etched 0.0
zekejmiller 0.0
momentarily 0.0
perpetrators 0.000104764363168
mocking 7.51087383392e-05
wrecked 0.0
identities 0.0
inhumane 0.0
disavow 0.0
hostile 0.0
muster 9.48687482187e-05
surrender 0.0
shatter 0.0
patriotic 0.0
rewarded 0.0
jitters 0.0
bullies 0.0
discipline 0.0
forgets 0.0
expand 0.0
apologized 0.0
tournament 0.0
grindstone 0.0
mastery 0.0
provider 0.000154166924017
steroids 0.0
jenniferjjacobs 0.0
notion 0.000201072463068
hernandez 0.0
mcuban 0.0
bullied 0.0
jebbush 0.0
discriminating 0.0
somali 0.0
hayden 0.0
limitless 0.0
implement 6.80860470319e-05
nydailynews 0.0
corybooker 0.0
interference 6.70241543561e-05
listens 0.0
preside 0.0
remembers 0.0
toughness 0.0
extensively 9.01906060278e-05
suffered 0.0
streep 0.0
billionaire 0.0
cheats 0.0
needing 0.0
percentage 0.0
insiders 0.0
binder 0.0
prescriptions 0.0
slashed 0.0
indebted 0.0
dismisses 0.0
delegates 0.0
pledged 0.0
endured 0.0
deployed 0.0
suspense 0.0
courageously 0.0
resilience 0.0
nationalists 0.0
autonomy 0.000209528726335
abandoning 8.41251668358e-05
canvas 0.0
blacks 0.0
pledging 0.0
elaine 0.0
methodist 0.0
candidacy 0.0
bonuses 0.0
resolve 0.000195071277314
laughable 9.28940245495e-05
scares 0.0
intellect 0.0
hopeless 7.86711071657e-05
debunked 0.0
shames 0.0
connections 6.0079720812e-05
tyleroakley 0.0
perplexed 0.0
ddlovato 0.0
impromptu 0.0
teenvogue 0.0
unveils 0.0
billie 0.0
prouder 0.0
sweetness 0.0
cheryl 0.0
filipino 0.0
petersburg 8.85346286218e-05
drastic 0.0
lifesaving 0.0
decorated 0.0
usagym 0.0
freestyle 0.0
absentee 0.0
lashes 0.0
concentration 0.000157342214331
refuge 0.0
renaissance 0.0
actively 6.40791587849e-05
monitoring 6.20015943199e-05
destined 0.0
willfully 0.0
detained 0.0
warmest 0.0
heroic 0.0
bragged 0.0
miners 0.0
shareholders 0.0
randall 8.93492603511e-05
excessive 0.0
geneva 7.86711071657e-05
corporations 0.0
unsolvable 0.0
grandchildren 0.0
discredit 0.0
enormously 0.0
frances 0.0
pillar 0.0
trillions 0.0
expansive 0.0
organize 0.0
capabilities 0.0
confederate 0.0
shakers 0.0
ambiguity 0.0
linking 0.0
pretends 0.0
wireless 0.0
inherit 0.0
paranoia 0.0
theatlantic 0.0
languages 0.0
disposable 0.0
reinforcing 0.0
integrated 0.0
optimist 0.0
pigeons 0.0
chadhgriffin 0.0
katieledecky 0.0
richards 0.0
demconvention 0.0
abcpolitics 0.0
chobani 0.0
dominiclowell 0.0
floridians 0.0
cecilerichards 0.0
clintonfdn 0.0
billclinton 0.0
grounded 0.0
abilities 0.0
grandfather 0.0
profoundly 7.65753514598e-05
fiercely 0.0
drowning 0.0
astound 0.0
alzheimer 7.65753514598e-05
responders 0.0
peacecorps 0.0
nygovcuomo 0.0
hurricanes 0.0
approximately 0.0
daunting 0.0
organizer 0.0
ingenuity 0.0
illnesses 8.7745066503e-05
intruders 0.0
invading 0.0
harmful 0.0
foundations 0.0
skateboards 0.0
housekeeping 0.0
dangerously 7.97868805302e-05
renters 0.0
predatory 9.38623939719e-05
rebuke 0.0
jengranholm 0.0
supremacy 0.0
linger 0.0
adamserwer 0.0
clevelanddotcom 0.0
repadamschiff 9.93424371827e-05
fahrenthold 0.0
revoke 0.0
advising 0.0
strengthening 8.34586684743e-05
colleges 0.0
deniers 0.0
aspire 0.0
exceed 0.0
lebassett 0.0
shrugged 0.0
stewardship 0.0
complains 0.0
temperament 0.0
texasinafrica 0.0
americorps 0.0
latino 0.0
payoffs 0.0
protested 0.0
honorable 7.92229293845e-05
fathom 0.0
inconvenience 0.0
johnkasich 0.0
latinos 0.0
votevets 0.0
unsurprising 0.0
loopholes 0.0
dismal 0.0
unqualified 0.0
rigorous 0.000173958153915
mittromney 0.0
joyannreid 0.0
theorist 0.0
evan_mcmullin 0.000103297750047
discriminate 0.0
ezraklein 0.0
obsessively 0.0
desperation 0.0
latina 0.0
tammyforil 0.0
pantsuit 0.0
superior 6.80860470319e-05
exonerated 0.0
johnpodesta 0.0
recites 0.0
supremacists 0.0
affront 0.000107975892238
electing 0.0
defund 0.0
demeans 0.0
govpencein 0.0
squandered 0.0
machado 0.0
pneumonia 0.0
unhinged 0.0
criticizes 0.0
derailment 0.0
iceberg 0.0
epipens 0.0
generals 0.0
timkaine 0.0
provocation 0.0
paulbegala 0.0
clintinfdn 0.0
wesleylowery 0.0
childdefender 0.0
dictatorship 0.0
ceasefire 0.0
stamped 0.0
intimidation 0.0
casinos 0.0
manifest 0.0
restrict 0.0
transformation 0.0
battleground 0.0
christine 0.0
touted 0.0
mcconnell 0.0
deflect 0.0
expressing 0.0
commonsense 0.0
statesman 0.0
mcbride 0.0
tumble 0.0
bigoted 0.0
belonged 0.0
praised 0.0
policeman 8.34586684743e-05
booing 0.0
cathedral 8.15571509724e-05
tomperez 0.0
keithellison 0.0
knowingly 0.0
wealthiest 0.0
backward 0.0
pretended 0.0
thedemocrats 0.0
psychologists 0.0
americ 0.0
successor 0.0
diplomats 0.0
congratulated 0.0
devotion 0.0
remembrance 0.0
eligible 6.534651486e-05
incoherent 0.0
exhaustive 0.0
downgraded 0.0
unified 0.0
embraces 8.48094405664e-05
galling 0.0
senatorreid 0.0
lifetimes 0.0
demagogue 0.0
rodham 0.0
temper 0.0
longtime 0.0
vetoing 0.0
janelle 0.0
voguemagazine 0.0
dominique 0.0
surpassed 0.0
associates 0.0
demonstrating 0.0
morning_joe 0.0
bazaar 0.0
consequential 0.0
undressed 0.0
entrepreneurial 0.0
billionaires 0.0
prescription 0.0
senseless 0.0
refresher 0.0
classmates 0.0
maturity 0.0
comentarios 0.0
risked 0.0
invincible 0.000111647680182
vigilant 0.0
emissions 0.0
recommit 0.0
voiceless 0.0
natlparkservice 0.0
workplaces 0.0
mayaharris_ 0.0
dhsgov 0.0
cyberattacks 0.0
maxinewaters 0.0
jerrybrowngov 0.0
discriminates 0.0
thejusticedept 0.0
simone_biles 0.0
sotomayor 0.0
traumatic 0.0
scammed 0.0
dreamer 0.0
fulfill 0.0
latinas 0.0
discouraged 0.0
usnavy 0.0
oftentimes 0.0
reprehensible 0.0
demeaning 0.0
ratified 0.0
emilyslist 0.0
lawsuits 0.0
nonviolent 0.0
caucus 0.0
joebiden 0.0
joyful 0.0
privatize 0.0
barbaraboxer 0.0
sengillibrand 0.0
camino 0.0
familias 0.0
americaferrera 0.0
universidades 0.0
gabbygiffords 0.0
shuttlecdrkelly 0.0
fulton 0.0
shimon 0.0
hablar 0.0
fuerza 0.0
trickle 0.0
refinance 0.0
shattering 0.0
damián 0.0
gouging 0.0
moveon 0.0
simone_manuel 0.0
revdrbarber 0.0
senatorbarb 0.0
cnbcnow 0.0
stiffed 0.0
mikebloomberg 0.0
solver 0.0
thrower 0.0
granddaughters 0.0
changemaker 0.0
clairecmc 0.0
anastasiasomoza 0.0
defunding 0.0
preyed 0.0
aspirations 0.0
fannie 0.0
mubarak 0.0
buzzfeedben 0.0
probed 0.0
marines 0.0
projecting 0.0
outsourcing 0.0
developers 0.0
crimea 0.0
everyo 0.0
chaser 0.0
dubious 0.000160727011581
diplomatic 7.28365693674e-05
rosiegray 0.0
unpatriotic 0.0
multifaceted 0.0
myanmar 0.0
adamparkhomenko 0.0
tjmshow 0.0
tenant 0.0
perjury 0.0
contractual 0.0
surrounds 0.0
exceeded 0.0
thrives 0.0
unclerush 0.0
sailors 0.0
stereotypes 7.92229293845e-05
librarycongress 0.0
acknowledging 7.97868805302e-05
philippe 0.0
battled 0.0
postopinions 0.0
ambassadorrice 0.0
shockingly 0.0
mcfaul 0.0
presid 0.0
poisons 0.0
kenvogel 0.0
johndingell 0.0
harnessing 0.0
unwritten 0.0
bewildering 0.0
moonshot 0.0
apologizing 0.0
oligarchs 0.0
espionage 9.38623939719e-05
marcorubio 0.0
desecration 0.0
brianefallon 0.0
bangladesh 0.0
twittermoments 0.0
officialcbc 0.0
thefix 0.0
urgency 0.0
traceeellisross 0.0
andradaymusic 0.0
impeccably 0.0
catastrophe 0.000151176709998
tallest 0.0
anastasia 0.0
azcentral 0.0
marrying 0.0
moderates 0.0
resembles 0.0
paraphrase 0.0
applauds 9.93424371827e-05
heavier 0.0
virginians 0.0
railing 0.0
eloquently 0.0
denverpost 0.0
independents 0.0
americanos 0.0
hispanos 0.0
bailouts 0.0
divisiveness 0.000131486761755
jmpalmieri 0.0
hardballchris 0.0
republicano 0.0
candidato 0.0
phillyinquirer 0.0
jesserodriguez 0.0
militarytimes 0.0
sunsentinel 0.0
ryanlizza 0.0
bretbaier 0.0
thelastword 0.0
hillaryclinto 0.0
maddowblog 0.0
boundless 0.0
enacting 0.0
gettysburg 0.0
groping 0.0
govchristie 0.0
justices 0.0
watchdogs 0.0
cavalier 0.0
succeeds 9.196087647e-05
retirees 0.0
pocketed 0.0
multimillionaire 0.0
redcross 0.0
evalongoria 0.0
highways 0.0
marlee 0.0
primero 0.0
pianos 0.0
bribed 0.0
scranton 0.0
wellesley 0.0
perkins 0.0
onward 0.0
algore 0.0
candidly 0.0
trajectory 0.0
quitter 0.0
objectifying 0.0
ignoramus 0.0
disillusioned 0.0
asinine 0.0
vibrancy 0.0
arpaio 0.0
testifying 0.0
chairmen 0.0
luchar 0.0
disrupted 0.0
podemos 0.0
settlements 0.0
massacres 0.0
millones 0.0
eagerly 8.69790769574e-05
grandmas 0.0
dedicado 0.0
seeming 0.0
pragmatic 0.0
hashanah 0.0
porque 0.0
unidos 0.0
nuestras 0.0
primera 0.0
debemos 0.0
muchos 0.0
cuando 0.0
nuestro 0.0
inteligente 0.0
rapists 0.0
agosto 0.0
presidente 0.0
puedes 0.0
mujeres 0.0
safeguarding 0.0
indecent 0.0
motions 0.0
strengthened 0.0
eminently 0.0
innuendo 0.0
memorandum 0.0
reuterspolitics 0.0
educates 0.0
mexicana 0.0
disparage 0.0
absurdity 0.0
backdoor 0.0
affording 0.0
hardline 0.00010974616268
steelworkers 0.0
demean 0.0
immigrate 0.0
thuggish 0.0
astrid 0.0
jesuit 0.0
governorship 0.0
waterboarding 0.0
personas 0.0
stephenson 0.000107975892238
huracán 0.0
firefighter 0.0
ravages 0.0
marleematlin 0.0
scrolling 0.0
tarnish 0.0
ajentleson 0.0
roanoke 0.0
heaping 0.0
carpentry 0.0
forcefully 0.0
frankiejgrande 0.0
aprildryan 0.0
unjustified 0.0
yamiche 0.0
evacuate 0.0
disrespects 0.0
incomprehensible 0.0
jogger 0.0
vindicated 0.0
blazed 0.0
cambodia 0.0
revolutionize 0.0
welding 0.0
unbeatable 0.0
polished 0.0
saddled 0.0
interdependence 0.0
alleys 0.0
civility 9.196087647e-05
vilified 0.0
disagreeable 0.0
terence 0.0
bluster 0.000118379617736
incredib 0.0
holton 0.0
hillaryforpa 0.0
hillaryforco 0.0
jes_chastain 0.0
vitalvoices 0.0
indictments 0.0
evokes 0.0
reaffirming 0.0
rebukes 0.0
minerva 0.0
peddle 0.000113701475545
starker 0.0
cascading 0.0
carolinians 0.0
señora 0.0
honrado 0.0
missionary 0.0
ranchers 0.0
denveropinion 0.0
practicality 0.0
thoughtfulness 0.0
scripture 0.0
pueblo 0.0
morningmoneyben 0.0
smalls 0.0
exemplify 0.0
eviscerated 0.0
jeffflake 0.0
helpless 0.0
sarahemcbride 0.0
indivisible 0.0
colinjones 0.0
mrjoshcharles 0.0
houstonchron 0.0
thoroughness 0.0
isolde 0.0
wonkiest 0.0
equate 0.0
dustbin 0.0
estados 0.0
newrepublic 0.0
expresses 8.7745066503e-05
demonizing 0.0
jeffbezos 0.0
discard 0.0
befriending 0.000136164903946
slovenia 0.0
unrelenting 0.0
salmahayek 0.0
revolves 0.0
anselm 0.0
dwells 0.0
usairforce 0.0
deride 0.0
repackaging 0.0
earmarked 0.0
evader 0.0
passpor 0.0
awaited 0.0
guterres 0.0
precinct 0.0
presidencia 0.0
unshakable 0.0
marshablackburn 0.0
comunidad 0.0
merecen 0.0
juntos 0.0
infomercial 0.0
johnstown 0.0
statewide 0.0
skyscrapers 0.0
phillydotcom 0.0
deducted 0.0
laguardiacc 0.0
annieslisttx 0.0
nickmerrill 0.0
leaninorg 0.0
missbeae 0.0
minassianmedia 0.0
natarsha 0.0
foments 0.0
ruline 0.0
steininger 0.0
michaelnutter 0.0
harren 0.0
louisa 0.0
cannell 0.0
robbymook 0.0
broward 0.0
hillaryforfl 0.0
jeanneshaheen 0.0
ericasmegs 0.0
jeremyshorr 0.0
turpin 0.0
rubycramer 0.0
singularly 0.0
joshschwerin 0.0
clionamccarney 0.0
xochitlhinojosa 0.0
adamsmith_usa 0.0
humayun 0.0
jamestaylor_com 0.0
hillaryformn 0.0
ericwms 0.0
dougmillsnyt 0.0
jencarlosmusic 0.0
hannahbfine 0.0
creynoldsnc 0.0
lefsadventures 0.0
pembroke 0.0
perceptiveness 0.0
hillaryforaz 0.0
fayetteville 0.0
entrust 0.0
daveeddiggs 0.0
petewilliamsnbc 0.0
hillary_esp 0.0
ustedes 0.0
nación 0.0
creativa 0.0
bilingües 0.0
multilingües 0.0
contribuyen 0.0
diversidad 0.0
economía 0.0
hillaryforia 0.0
estaré 0.0
discurso 0.0
síganme 0.0
detall 0.0
hopewell 0.0
temperamentally 0.0
redone 0.0
barging 0.0
machadooficial 0.0
mikereedschmidt 0.0
franklinfoer 0.0
eamonjavers 0.0
hillaryforoh 0.0
hustling 0.0
relishes 0.0
markkirk 0.0
asmamk 0.0
just_jenna 0.0
discrimina 0.0
samifayebaker 0.0
padded 0.0
wigazette 0.0
phillytrib 0.0
trivializes 0.0
condones 0.0
ellisoncampaign 0.0
barb_kinney 0.0
theriveterspod 0.0
humiliates 0.0
nickmarroletti 0.0
alli_wilber 0.0
brespolitico 0.0
jasoncherkis 0.0
sean_p_thomas 0.0
outclassed 0.0
outmaneuvered 0.0
belittling 0.0
familie 0.0
yuuuuuuge 0.0
disqualifying 0.0
brynnecraig 0.0
buffywicks 0.0
lasvegassun 0.0
cmichaelhuntley 0.0
civically 0.0
raquelwillis_ 0.0
celebramos 0.0
trayectoria 0.0
pionera 0.0
breakups 0.0
rosenbergerlm 0.0
heraldleader 0.0
jaylon 0.0
decisi 0.0
antónio 0.0
squander 0.0
presidenta 0.0
protegerá 0.0
astrid_nv 0.0
sltrib 0.0
peter_j_k 0.0
brosandprose 0.0
nicholaskitchel 0.0
mahoning 0.0
omerizer 0.0
kendallybrown 0.0
davidnakamura 0.0
chatima 0.0
tammybaldwin 0.0
mpshapiro 0.0
responsibilit 0.0
overgrown 0.0
literally_trump 0.0
imploded 0.0
rnicholasburns 0.0
disastrously 0.0
stiffing 0.0
globeopinion 0.0
degradi 0.0
languishing 0.0
demostrar 0.0
poderosa 0.0
iammarleydias 0.0
tbtimes_opinion 0.0
disloyalty 0.0
defende 0.0
vegalteno 0.0
moodysinvsvc 0.0
decisiveness 0.0
whethe 0.0
preocupada 0.0
trayecto 0.0
afectados 0.0
ayotte 0.0
empathize 0.0
lifelo 0.0
lorellapraeli 0.0
ironworking 0.0
ebeling 0.0
contribuido 0.0
ejército 0.0
inmigrantes 0.0
indocumentados 0.0
enquirer 0.0
delega 0.0
roadshow 0.0
sunsentinelopinion 0.0
resulta 0.0
insultar 0.0
construir 0.0
muralla 0.0
provoked 0.0
discretion 0.0
sdutideas 0.0
merece 0.0
respeto 0.0
enfrentar 0.0
valentía 0.0
ataques 0.0
descaro 0.0
culparla 0.0
petulance 0.0
ninhaitseng 0.0
flippantly 0.0
posteverything 0.0
_vicentefdez 0.0
azcopinions 0.0
aumentó 0.0
andrewjenks 0.0
imwithher 0.0
diferencias 0.0
onevoxdotcom 0.0
ignite_national 0.0
endorsin 0.0
mercersdairy 0.0
everyvoice 0.0
rachaelgass 0.0
galifianakis 0.0
crutcher 0.0
nyledimarco 0.0
mistreat 0.0
wellsfargo 0.0
templeuniv 0.0
sollender 0.0
honremos 0.0
tantas 0.0
contribuciones 0.0
aleatha 0.0
endeavored 0.0
legitimize 0.0
además 0.0
whistles 0.0
ugliness 0.0
jorge_silva 0.0
dnclatinos 0.0
libnofcongress 0.0
unscrupulously 0.0
contractually 0.0
impulsively 0.0
qaddafi 0.0
cancelable 0.0
cnbcopinion 0.0
jbrotherston 0.0
_bxddxss 0.0
sspiderboy 0.0
collegedems 0.0
veered 0.0
charitynav 0.0
usnewsopinion 0.0
humansofny 0.0
unfitness 0.0
steadiness 0.0
nbcusa_inc 0.0
verdadera 0.0
encuentra 0.0
hacemos 0.0
anuncio 0.0
unpresidential 0.0
unfavorably 0.0
heridas 0.0
visibles 0.0
veteranos 0.0
cuidado 0.0
panetta 0.0
experiencia 0.0
confío 0.0
exsecretario 0.0
comercio 0.0
lizromanoff 0.0
americasvoice 0.0
davidleopold 0.0
rebuked 0.0
criminalize 0.0
mentiré 0.0
inmigración 0.0
demonizar 0.0
americanlegion 0.0
sarasolow 0.0
qumber 0.0
zerlinamaxwell 0.0
hillaryforut 0.0
hillaryforga 0.0
grandtetonnps 0.0
marlondmarshall 0.0
mariatcardona 0.0
escuchamos 0.0
claramente 0.0
demonizando 0.0
segunda 0.0
tercera 0.0
rhettbuttle 0.0
hillaryformi 0.0
futuramics 0.0
louisianans 0.0
claressashields 0.0
helen_maroulis 0.0
bri_rollin 0.0
itspooda 0.0
kristihollywood 0.0
meredeetch 0.0
kersee 0.0
rodhams 0.0
bidens 0.0
possibilitie 0.0
maulama 0.0
akonjee 0.0
shotdiva 0.0
auriemma 0.0
maxlinsky 0.0
cowering 0.0
moratory 0.0
hillarycl 0.0
repudiate 0.0
fencer 0.0
bankruptcies 0.0
warrenbuffett 0.0
bishopgarrison 0.0
ajazzyworld 0.0
morell 0.0
starkest 0.0
braille 0.0
frankmugisha 0.0
confiar 0.0
distinguido 0.0
herencia 0.0
harkening 0.0
impulses 0.0
dakota_meyer 0.0
kauveri 0.0
iafftreg 0.0
laurawalkerkc 0.0
jakesherman 0.0
benediction 0.0
denigrates 0.0
ann_oleary 0.0
liberates 0.0
bombast 0.0
repcleaver 0.0
throwed 0.0
luchado 0.0
derechos 0.0
humanos 0.0
trabajadores 0.0
relent 0.000149272047965
aprendí 0.0
valores 0.0
trabajo 0.0
mismos 0.0
annella 0.0
drbiden 0.0
expedient 0.0
imangelabassett 0.0
smegielski 0.0
leinonen 0.0
driffin 0.0
buckles 0.0
insatiably 0.0
sybrina 0.0
mcbath 0.0
dontre 0.0
randibrazeau 0.0
sjbxtr 0.0
malcolmkenyatta 0.0
lankford 0.0
countrymen 0.0
countrywomen 0.0
refiere 0.0
separar 0.0
valiente 0.0
strongmen 0.0
seremos 0.0
compañeros 0.0
bienvenidos 0.0
dauntless 0.0
governorva 0.0
sherrodbrown 0.0
vicepresidencia 0.0
ilyseh 0.0
gunsense 0.0
encantada 0.0
anunciar 0.0
splintering 0.0
albamonica 0.0
criminologist 0.0
construiremos 0.0
discriminatio 0.0
endorser 0.0
sniveling 0.0
ryanegraney 0.0
baptize 0.0
convención 0.0
republicana 0.0
